{
"mode" : {"viewTitle" : 1,   "viewNew" : 0,  "pageIndex" : 1 },
 "channel" : {"id" : "1565245976301920518", "booked" : False, "subNumber" : 1, "name" : "中考-新浪教育", "url" : "http:\/\/edu.sina.com.cn\/rss\/index.html", "feed" : "http:\/\/rss.sina.com.cn\/edu\/zhongkao.xml", "author" : "WWW.SINA.COM.CN", "desc" : "文化教育-中考", "imageUrl" : "http:\/\/www.sinaimg.cn\/home\/deco\/2009\/0330\/logo_home_edu.gif", "postPerWeek" : "0", "lastCrawTime" : "16:52:45", "crawDateTime" : "16:52:45", "lastHttpCode" : "200"}, "page" : {
"startIndex" : 0,
"totalCount" : 5000,
"pageIndex" : 1,
"lastPage" : 250,
"pageSize" : 20,
"english" :  False },
 "unreadNum" : 0, "shotIndex" : -1,
"articles" : [
{
"index" : 0,
"articleIndex" : "11160",
"favor" :  False ,
     "read" : False,    
"title" : "经验分享：尖子生如何备战期中考",
"titleTip" : "经验分享：尖子生如何备战期中考",
"titleSummary" : "经验分享：尖子生如何备战期中考",
"descSummary" : "本文选自《迷鹿Sheila》的博客，请点击查看博客原文。期中考进入倒...",
"url" : "http:\/\/go.rss.sina.com.cn\/redirect.php?url=http:\/\/edu.sina.com.cn\/zhongkao\/2013-10-30\/1615399809.shtml",
"pubDate" : "16:15:58",
"enterDate" : "384200:43:09",
"channelId" : "1565245976301920518",
"channelName" : "中考-新浪教育",
"channelNameSummary" : "中考-新浪教育",
"channelUrl" : "http:\/\/edu.sina.com.cn\/rss\/index.html",
"author" : "WWW.SINA.COM.CN",
"tags" : [],
"desc" : "本文选自《迷鹿Sheila》的博客，请点击查看博客原文。 期中考进入倒计时，在这段时间，考生该制订怎样的复习计划？如何提高备考质量释放考试压力？下面的这两招也许会让想突破自己的你能实现自己的理想。 错题本，最好的复习资料 在平时考试中，绝大部分题难....",
"emailed" : False,
"forwarded" : False,
"english" : False
}  , {
"index" : 1,
"articleIndex" : "11159",
"favor" :  False ,
     "read" : False,    
"title" : "消除疲劳有三招 助你高效备战中考",
"titleTip" : "消除疲劳有三招 助你高效备战中考",
"titleSummary" : "消除疲劳有三招 助你高效备战中考",
"descSummary" : "本文选自《迷鹿Sheila》的博客，请点击查看博客原文。2014年中考正...",
"url" : "http:\/\/go.rss.sina.com.cn\/redirect.php?url=http:\/\/edu.sina.com.cn\/zhongkao\/2013-10-30\/1612399806.shtml",
"pubDate" : "16:12:35",
"enterDate" : "384200:39:46",
"channelId" : "1565245976301920518",
"channelName" : "中考-新浪教育",
"channelNameSummary" : "中考-新浪教育",
"channelUrl" : "http:\/\/edu.sina.com.cn\/rss\/index.html",
"author" : "WWW.SINA.COM.CN",
"tags" : [],
"desc" : "本文选自《迷鹿Sheila》的博客，请点击查看博客原文。 2014年中考正跟随着时间的脚步在向初三学子们慢慢地逼近，而中考\u201C保卫战\u201D早已经打响。堆满书的桌边，是考生们埋首苦读的身影。距离中考还有好几个月，在这么高强度的复习中，考生们难免会感到疲劳？而疲劳又难免会影....",
"emailed" : False,
"forwarded" : False,
"english" : False
}  , {
"index" : 2,
"articleIndex" : "11157",
"favor" :  False ,
     "read" : False,    
"title" : "中考英语复习最佳方法走\u201C四\u201D步",
"titleTip" : "中考英语复习最佳方法走\u201C四\u201D步",
"titleSummary" : "中考英语复习最佳方法走\u201C四\u201D步",
"descSummary" : "中考英语是个日积月累的科目，那么在这短暂的一年里，初三的同学们...",
"url" : "http:\/\/go.rss.sina.com.cn\/redirect.php?url=http:\/\/edu.sina.com.cn\/zhongkao\/2013-10-30\/1605399804.shtml",
"pubDate" : "16:05:17",
"enterDate" : "384201:02:33",
"channelId" : "1565245976301920518",
"channelName" : "中考-新浪教育",
"channelNameSummary" : "中考-新浪教育",
"channelUrl" : "http:\/\/edu.sina.com.cn\/rss\/index.html",
"author" : "WWW.SINA.COM.CN",
"tags" : [],
"desc" : "中考英语是个日积月累的科目，那么在这短暂的一年里，初三的同学们该如何应对呢？大家可以从以下几个方面来做： (1)通览课文提出要点攻破难点。课文是教材的中心，是语音、词汇、语法知识、听说读写活动和培养听说读写能力的综合材料，是复习的主要依据。当然在复习课....",
"emailed" : False,
"forwarded" : False,
"english" : False
}  , {
"index" : 3,
"articleIndex" : "11156",
"favor" :  False ,
     "read" : False,    
"title" : "2014开始四川自贡中考将实行网上阅卷",
"titleTip" : "2014开始四川自贡中考将实行网上阅卷",
"titleSummary" : "2014开始四川自贡中考将实行网上阅卷",
"descSummary" : "华西城市读本讯(实习记者 梁睿瑶)为全面提升学校管理和教育教学...",
"url" : "http:\/\/go.rss.sina.com.cn\/redirect.php?url=http:\/\/edu.sina.com.cn\/zhongkao\/2013-10-30\/1524399799.shtml",
"pubDate" : "15:24:03",
"enterDate" : "384200:51:24",
"channelId" : "1565245976301920518",
"channelName" : "中考-新浪教育",
"channelNameSummary" : "中考-新浪教育",
"channelUrl" : "http:\/\/edu.sina.com.cn\/rss\/index.html",
"author" : "WWW.SINA.COM.CN",
"tags" : [],
"desc" : "华西城市读本讯(实习记者 梁睿瑶)为全面提升学校管理和教育教学水平，自贡市教育局于10月23日召开了教学工作会。工作会上全面安排部署了2013到2014学年度教育教学工作，确定13所中小学作为课堂教学改革市级试点学校，并明确指出，从2014年开始，自贡市中考将实行网上阅卷。....",
"emailed" : False,
"forwarded" : False,
"english" : False
}  , {
"index" : 4,
"articleIndex" : "11155",
"favor" :  False ,
     "read" : False,    
"title" : "北京四中人文实验班 国子监内学国学",
"titleTip" : "北京四中人文实验班 国子监内学国学",
"titleSummary" : "北京四中人文实验班 国子监内学国学",
"descSummary" : "10月24日下午，秋意正浓，淡淡的阳光映在国子监朱漆大门上，许...",
"url" : "http:\/\/go.rss.sina.com.cn\/redirect.php?url=http:\/\/edu.sina.com.cn\/zhongkao\/2013-10-30\/1522399798.shtml",
"pubDate" : "15:22:57",
"enterDate" : "384200:50:18",
"channelId" : "1565245976301920518",
"channelName" : "中考-新浪教育",
"channelNameSummary" : "中考-新浪教育",
"channelUrl" : "http:\/\/edu.sina.com.cn\/rss\/index.html",
"author" : "WWW.SINA.COM.CN",
"tags" : [],
"desc" : "10月24日下午，秋意正浓，淡淡的阳光映在国子监朱漆大门上，许多学生正在门口列队等着老师。有些特别的是，这些学生身着两种不同的校服，他们分别是来自北京四中高一12班人文实验班的32名学生，和来自台湾明道中学的41名学生。\u201C整队，进入！\u201D在一位稍年长的学生的带领下，他....",
"emailed" : False,
"forwarded" : False,
"english" : False
}  , {
"index" : 5,
"articleIndex" : "11158",
"favor" :  False ,
     "read" : False,    
"title" : "中考语文成语改错200题及答案解析",
"titleTip" : "中考语文成语改错200题及答案解析",
"titleSummary" : "中考语文成语改错200题及答案解析",
"descSummary" : "001、关怀倍至()002、随声附和()003、巧妆打扮() 004、记忆尤新()00...",
"url" : "http:\/\/go.rss.sina.com.cn\/redirect.php?url=http:\/\/edu.sina.com.cn\/zhongkao\/2013-10-30\/1508399791.shtml",
"pubDate" : "15:08:14",
"enterDate" : "384199:35:25",
"channelId" : "1565245976301920518",
"channelName" : "中考-新浪教育",
"channelNameSummary" : "中考-新浪教育",
"channelUrl" : "http:\/\/edu.sina.com.cn\/rss\/index.html",
"author" : "WWW.SINA.COM.CN",
"tags" : [],
"desc" : "001、关怀倍至()002、随声附和()003、巧妆打扮() 004、记忆尤新()005、挺而走险()006、融汇贯通() 007、并行不背()008、略见一般()009、宽洪大量() 010、无耻滥言()011、世外桃园()012、伶牙利齿() 013、汗流夹背()014、轰堂大笑()015、名列前矛(....",
"emailed" : False,
"forwarded" : False,
"english" : False
}  , {
"index" : 6,
"articleIndex" : "11154",
"favor" :  False ,
     "read" : False,    
"title" : "名师解读：2014北京中考语文改革",
"titleTip" : "名师解读：2014北京中考语文改革",
"titleSummary" : "名师解读：2014北京中考语文改革",
"descSummary" : "语文教学改革的呼声已经持续多年。语文虽然在整个中小学教育阶段一...",
"url" : "http:\/\/go.rss.sina.com.cn\/redirect.php?url=http:\/\/edu.sina.com.cn\/zhongkao\/2013-10-29\/1116399644.shtml",
"pubDate" : "昨天11:16:24",
"enterDate" : "384200:48:25",
"channelId" : "1565245976301920518",
"channelName" : "中考-新浪教育",
"channelNameSummary" : "中考-新浪教育",
"channelUrl" : "http:\/\/edu.sina.com.cn\/rss\/index.html",
"author" : "WWW.SINA.COM.CN",
"tags" : [],
"desc" : "语文教学改革的呼声已经持续多年。语文虽然在整个中小学教育阶段一直作为主科出现，但是却一直被有意无意地忽视。面对如今众多学生文字水平低下，语言基础薄弱，表达能力欠佳的现状，北京率先推出中高考改革的意见稿，消息一出，引起了强烈的社会反响，大家热议的重点是语文和....",
"emailed" : False,
"forwarded" : False,
"english" : False
}  , {
"index" : 7,
"articleIndex" : "11153",
"favor" :  False ,
     "read" : False,    
"title" : "福建2014年中考考游泳遭遇现实三大难题",
"titleTip" : "福建2014年中考考游泳遭遇现实三大难题",
"titleSummary" : "福建2014年中考考游泳遭遇现实三大难题",
"descSummary" : "从2014年开始，长跑和游泳将列为福建中考体育二选一的必考...",
"url" : "http:\/\/go.rss.sina.com.cn\/redirect.php?url=http:\/\/edu.sina.com.cn\/zhongkao\/2013-10-29\/1113399643.shtml",
"pubDate" : "昨天11:13:07",
"enterDate" : "384200:45:08",
"channelId" : "1565245976301920518",
"channelName" : "中考-新浪教育",
"channelNameSummary" : "中考-新浪教育",
"channelUrl" : "http:\/\/edu.sina.com.cn\/rss\/index.html",
"author" : "WWW.SINA.COM.CN",
"tags" : [],
"desc" : "从2014年开始，长跑和游泳将列为福建中考体育二选一的必考项目。这是最近省政府转发省教育厅《关于进一步加强学校体育工作实施意见的通知》中所明确的。明年福州中考会不会考游泳？目前，2014年福州中考体育尚未研究政策，一切还是未知数。不过，不少学校表示，现阶段，在学生....",
"emailed" : False,
"forwarded" : False,
"english" : False
}  , {
"index" : 8,
"articleIndex" : "11151",
"favor" :  False ,
     "read" : False,    
"title" : "中考满分作文经典语段：靓丽结尾",
"titleTip" : "中考满分作文经典语段：靓丽结尾",
"titleSummary" : "中考满分作文经典语段：靓丽结尾",
"descSummary" : "俗话说：\u201C织衣织裤，贵在开头；编筐编篓，重在收口。\u201D一篇好文章...",
"url" : "http:\/\/go.rss.sina.com.cn\/redirect.php?url=http:\/\/edu.sina.com.cn\/zhongkao\/2013-10-29\/1104399642.shtml",
"pubDate" : "昨天11:04:09",
"enterDate" : "384201:06:15",
"channelId" : "1565245976301920518",
"channelName" : "中考-新浪教育",
"channelNameSummary" : "中考-新浪教育",
"channelUrl" : "http:\/\/edu.sina.com.cn\/rss\/index.html",
"author" : "WWW.SINA.COM.CN",
"tags" : [],
"desc" : "俗话说：\u201C织衣织裤，贵在开头；编筐编篓，重在收口。\u201D一篇好文章，除了有引人入胜的开头，还应该有耐人寻味的结尾。好的结尾犹如\u201C七十二拜\u201D后的\u201C一哆嗦\u201D，犹如舞蹈演员舞毕的深情一躬，给人以圆满的感觉。写好文章的结尾，如美人\u201C回眸一笑百媚生\u201D，能使评卷老师在甜蜜....",
"emailed" : False,
"forwarded" : False,
"english" : False
}  , {
"index" : 9,
"articleIndex" : "11150",
"favor" :  False ,
     "read" : False,    
"title" : "中考满分作文经典语段：个性创新",
"titleTip" : "中考满分作文经典语段：个性创新",
"titleSummary" : "中考满分作文经典语段：个性创新",
"descSummary" : "考场作文获得满分的一个重要因素就是\u201C有创新\u201D，即\u201C见解新颖，材...",
"url" : "http:\/\/go.rss.sina.com.cn\/redirect.php?url=http:\/\/edu.sina.com.cn\/zhongkao\/2013-10-29\/1103399641.shtml",
"pubDate" : "昨天11:03:14",
"enterDate" : "384201:05:20",
"channelId" : "1565245976301920518",
"channelName" : "中考-新浪教育",
"channelNameSummary" : "中考-新浪教育",
"channelUrl" : "http:\/\/edu.sina.com.cn\/rss\/index.html",
"author" : "WWW.SINA.COM.CN",
"tags" : [],
"desc" : "考场作文获得满分的一个重要因素就是\u201C有创新\u201D，即\u201C见解新颖，材料新鲜，构思新巧，推理想像有独到之处，有个性特征\u201D。这其实就是要求我们要写出自己的个性。个性是中考作文获得发展等级分的关键。有个性，文章才会有创意。\u201C个性\u201D是文章的真正价值之所在。 经典语....",
"emailed" : False,
"forwarded" : False,
"english" : False
}  , {
"index" : 10,
"articleIndex" : "11149",
"favor" :  False ,
     "read" : False,    
"title" : "中考满分作文经典语段：深刻透彻",
"titleTip" : "中考满分作文经典语段：深刻透彻",
"titleSummary" : "中考满分作文经典语段：深刻透彻",
"descSummary" : "千古文章意为高。一篇作文立意是否新颖、高远、深刻，是拉开作文档...",
"url" : "http:\/\/go.rss.sina.com.cn\/redirect.php?url=http:\/\/edu.sina.com.cn\/zhongkao\/2013-10-29\/1100399640.shtml",
"pubDate" : "昨天11:00:33",
"enterDate" : "384201:02:39",
"channelId" : "1565245976301920518",
"channelName" : "中考-新浪教育",
"channelNameSummary" : "中考-新浪教育",
"channelUrl" : "http:\/\/edu.sina.com.cn\/rss\/index.html",
"author" : "WWW.SINA.COM.CN",
"tags" : [],
"desc" : "千古文章意为高。一篇作文立意是否新颖、高远、深刻，是拉开作文档次高低的关键。面对同一道中考作文题，在人人能写的情况下，要想使自己的得分胜人一筹，就必须在立意上用心琢磨。看似寻常最奇崛，立意简单却深刻。深刻的立意，往往给你的作文呈现出一片宽广的发挥空间。....",
"emailed" : False,
"forwarded" : False,
"english" : False
}  , {
"index" : 11,
"articleIndex" : "11148",
"favor" :  False ,
     "read" : False,    
"title" : "中考满分作文经典语段：丰富高远",
"titleTip" : "中考满分作文经典语段：丰富高远",
"titleSummary" : "中考满分作文经典语段：丰富高远",
"descSummary" : "《考试说明》对\u201C丰富\u201D的解释是：\u201C材料丰富，形象丰满，意境深远...",
"url" : "http:\/\/go.rss.sina.com.cn\/redirect.php?url=http:\/\/edu.sina.com.cn\/zhongkao\/2013-10-29\/1059399639.shtml",
"pubDate" : "昨天10:59:27",
"enterDate" : "384201:01:33",
"channelId" : "1565245976301920518",
"channelName" : "中考-新浪教育",
"channelNameSummary" : "中考-新浪教育",
"channelUrl" : "http:\/\/edu.sina.com.cn\/rss\/index.html",
"author" : "WWW.SINA.COM.CN",
"tags" : [],
"desc" : "《考试说明》对\u201C丰富\u201D的解释是：\u201C材料丰富，形象丰满，意境深远。\u201D\u201C材料丰富\u201D既指议论文中用作论据的事例和理论，也指记叙类文章中所反映的生活；\u201C形象丰满、意境深远\u201D主要应是指记叙抒情类文章，或是描写具体逼真，或是叙事曲折有致，或是形象丰满生动，或是象征贴切....",
"emailed" : False,
"forwarded" : False,
"english" : False
}  , {
"index" : 12,
"articleIndex" : "11147",
"favor" :  False ,
     "read" : False,    
"title" : "中考满分作文经典语段：文采灵动",
"titleTip" : "中考满分作文经典语段：文采灵动",
"titleSummary" : "中考满分作文经典语段：文采灵动",
"descSummary" : "考场作文就是在600字的精短篇章中尽情展示自己的才情，尽情炫示自...",
"url" : "http:\/\/go.rss.sina.com.cn\/redirect.php?url=http:\/\/edu.sina.com.cn\/zhongkao\/2013-10-29\/1058399638.shtml",
"pubDate" : "昨天10:58:32",
"enterDate" : "384201:00:38",
"channelId" : "1565245976301920518",
"channelName" : "中考-新浪教育",
"channelNameSummary" : "中考-新浪教育",
"channelUrl" : "http:\/\/edu.sina.com.cn\/rss\/index.html",
"author" : "WWW.SINA.COM.CN",
"tags" : [],
"desc" : "考场作文就是在600字的精短篇章中尽情展示自己的才情，尽情炫示自己的才华，一开头就要让人看到你的才气，千万不要\u201C犹抱琵琶半遮面\u201D。好的文辞，读起来如饮香茗，余甘未尽；如食橄榄，余香无穷。考生在考场中倘能准确，简洁地用词，能根据表达的需要选择灵活句式和鲜活而独....",
"emailed" : False,
"forwarded" : False,
"english" : False
}  , {
"index" : 13,
"articleIndex" : "11146",
"favor" :  False ,
     "read" : False,    
"title" : "中考满分作文经典语段：精彩凤头",
"titleTip" : "中考满分作文经典语段：精彩凤头",
"titleSummary" : "中考满分作文经典语段：精彩凤头",
"descSummary" : "考场是一个激烈的战场，如何才能在激烈的争夺中，拔得头筹呢？这就...",
"url" : "http:\/\/go.rss.sina.com.cn\/redirect.php?url=http:\/\/edu.sina.com.cn\/zhongkao\/2013-10-29\/1054399633.shtml",
"pubDate" : "昨天10:54:57",
"enterDate" : "384200:57:03",
"channelId" : "1565245976301920518",
"channelName" : "中考-新浪教育",
"channelNameSummary" : "中考-新浪教育",
"channelUrl" : "http:\/\/edu.sina.com.cn\/rss\/index.html",
"author" : "WWW.SINA.COM.CN",
"tags" : [],
"desc" : "考场是一个激烈的战场，如何才能在激烈的争夺中，拔得头筹呢？这就需要我们在作文的开头就先声夺人。先声夺人之美，可创设作文考场上先人一步的战绩。因此，考场作文时多花费点时间、多动点脑筋，写个好的开头，是十分必要的。 高尔基说：\u201C开头第一句是最难的，好象音....",
"emailed" : False,
"forwarded" : False,
"english" : False
}  , {
"index" : 14,
"articleIndex" : "11152",
"favor" :  False ,
     "read" : False,    
"title" : "备考必读：中考满分作文经典语段大全",
"titleTip" : "备考必读：中考满分作文经典语段大全",
"titleSummary" : "备考必读：中考满分作文经典语段大全",
"descSummary" : "新浪教育讯 中考语文占分比重最大的就是作文了，大家一定要把...",
"url" : "http:\/\/go.rss.sina.com.cn\/redirect.php?url=http:\/\/edu.sina.com.cn\/zhongkao\/2013-10-29\/0958399593.shtml",
"pubDate" : "昨天09:58:53",
"enterDate" : "384199:30:54",
"channelId" : "1565245976301920518",
"channelName" : "中考-新浪教育",
"channelNameSummary" : "中考-新浪教育",
"channelUrl" : "http:\/\/edu.sina.com.cn\/rss\/index.html",
"author" : "WWW.SINA.COM.CN",
"tags" : [],
"desc" : "新浪教育讯 中考语文占分比重最大的就是作文了，大家一定要把握好作文这个提分点，为了方便大家复习，新浪中考站为大家整理了中考满分作文的经典语段，供大家学习。 中考满分作文经典语段大全 1 &#160; 中考....",
"emailed" : False,
"forwarded" : False,
"english" : False
}  , {
"index" : 15,
"articleIndex" : "11145",
"favor" :  False ,
     "read" : False,    
"title" : "初三家长急中有方：学会和孩子沟通致胜中考",
"titleTip" : "初三家长急中有方：学会和孩子沟通致胜中考",
"titleSummary" : "初三家长急中有方：学会和孩子沟通致胜中考",
"descSummary" : "进入初三之后，不光是孩子忙起来了，家长也跟着紧张的不...",
"url" : "http:\/\/go.rss.sina.com.cn\/redirect.php?url=http:\/\/edu.sina.com.cn\/zhongkao\/2013-10-28\/1543399543.shtml",
"pubDate" : "前天15:43:47",
"enterDate" : "384200:49:02",
"channelId" : "1565245976301920518",
"channelName" : "中考-新浪教育",
"channelNameSummary" : "中考-新浪教育",
"channelUrl" : "http:\/\/edu.sina.com.cn\/rss\/index.html",
"author" : "WWW.SINA.COM.CN",
"tags" : [],
"desc" : "进入初三之后，不光是孩子忙起来了，家长也跟着紧张的不行，但是家长不能瞎着急，必须学会和孩子沟通，你知道应该怎么跟孩子沟通了吗？ 热心家长分享： 心理效应是社会生活当中较常见的心理现象和规律，正确地认识、了解、掌握并利用心理效应，对我们的日常生活....",
"emailed" : False,
"forwarded" : False,
"english" : False
}  , {
"index" : 16,
"articleIndex" : "11144",
"favor" :  False ,
     "read" : False,    
"title" : "初三期中考试英语各个模块重点总结",
"titleTip" : "初三期中考试英语各个模块重点总结",
"titleSummary" : "初三期中考试英语各个模块重点总结",
"descSummary" : "语法点总结 1.代词 人称代词(主格和宾格) 物主代词(常考形容词性物...",
"url" : "http:\/\/go.rss.sina.com.cn\/redirect.php?url=http:\/\/edu.sina.com.cn\/zhongkao\/2013-10-28\/1538399541.shtml",
"pubDate" : "前天15:38:47",
"enterDate" : "384200:44:02",
"channelId" : "1565245976301920518",
"channelName" : "中考-新浪教育",
"channelNameSummary" : "中考-新浪教育",
"channelUrl" : "http:\/\/edu.sina.com.cn\/rss\/index.html",
"author" : "WWW.SINA.COM.CN",
"tags" : [],
"desc" : "语法点总结 1.代词&#160;&#160;&#160;&#160;&#160;&#160;&#160; ①人称代词(主格和宾格) ②物主代词(常考形容词性物主代词) ③不定代词(一般情况something用在肯定句中，anything用在否定和疑问句中) 2.介词&#160;&#160;&#160;&#160;&#160;&#160;....",
"emailed" : False,
"forwarded" : False,
"english" : False
}  , {
"index" : 17,
"articleIndex" : "11143",
"favor" :  False ,
     "read" : False,    
"title" : "17名广州\u201C异地中考\u201D意见征询委员诞生",
"titleTip" : "17名广州\u201C异地中考\u201D意见征询委员诞生",
"titleSummary" : "17名广州\u201C异地中考\u201D意见征询委员诞生",
"descSummary" : "信息时报讯 (记者 梁健敏 通讯员穗教宣) 包括外来务工人员、市...",
"url" : "http:\/\/go.rss.sina.com.cn\/redirect.php?url=http:\/\/edu.sina.com.cn\/zhongkao\/2013-10-28\/1535399539.shtml",
"pubDate" : "前天15:35:43",
"enterDate" : "384201:11:58",
"channelId" : "1565245976301920518",
"channelName" : "中考-新浪教育",
"channelNameSummary" : "中考-新浪教育",
"channelUrl" : "http:\/\/edu.sina.com.cn\/rss\/index.html",
"author" : "WWW.SINA.COM.CN",
"tags" : [],
"desc" : "信息时报讯 (记者 梁健敏 通讯员穗教宣) 包括外来务工人员、市民、专家在内的17名\u201C委员\u201D，将加入广州异地中考意见征询委员会，共同探讨制定\u201C异地中考\u201D方案。昨日，市教育局将向社会征集而得的17名委员名单公示，公示期间如对推荐人有异议，可实名向教育局联系。 记....",
"emailed" : False,
"forwarded" : False,
"english" : False
}  , {
"index" : 18,
"articleIndex" : "11142",
"favor" :  False ,
     "read" : False,    
"title" : "广州异地中考 民意代表将面对面议中考新政",
"titleTip" : "广州异地中考 民意代表将面对面议中考新政",
"titleSummary" : "广州异地中考 民意代表将面对面议中考新政",
"descSummary" : "南方日报讯 (记者\/毕嘉琪 通讯员\/穗教宣)广州异地中考政策...",
"url" : "http:\/\/go.rss.sina.com.cn\/redirect.php?url=http:\/\/edu.sina.com.cn\/zhongkao\/2013-10-28\/1530399537.shtml",
"pubDate" : "前天15:30:56",
"enterDate" : "384201:07:11",
"channelId" : "1565245976301920518",
"channelName" : "中考-新浪教育",
"channelNameSummary" : "中考-新浪教育",
"channelUrl" : "http:\/\/edu.sina.com.cn\/rss\/index.html",
"author" : "WWW.SINA.COM.CN",
"tags" : [],
"desc" : "南方日报讯 (记者\/毕嘉琪 通讯员\/穗教宣)广州异地中考政策的制定牵动人心。经过一个多月的两轮征集，广州市异地中考公众意见征询委员会终于完成\u201C招兵\u201D。26日晚，广州市教育局在官网上挂出了征询委员会委员名单，即日起到11月3日期间向社会公示。 记者从名单中看到，1....",
"emailed" : False,
"forwarded" : False,
"english" : False
}  , {
"index" : 19,
"articleIndex" : "11141",
"favor" :  False ,
     "read" : False,    
"title" : "北京八成中考生体检不合格 六成视力不良",
"titleTip" : "北京八成中考生体检不合格 六成视力不良",
"titleSummary" : "北京八成中考生体检不合格 六成视力不良",
"descSummary" : "记者昨天从北京教育考试院获悉，今年中考生体检合格率仅有1...",
"url" : "http:\/\/go.rss.sina.com.cn\/redirect.php?url=http:\/\/edu.sina.com.cn\/zhongkao\/2013-10-27\/1029399437.shtml",
"pubDate" : "2013年10月27日 (3天前)",
"enterDate" : "384199:40:33",
"channelId" : "1565245976301920518",
"channelName" : "中考-新浪教育",
"channelNameSummary" : "中考-新浪教育",
"channelUrl" : "http:\/\/edu.sina.com.cn\/rss\/index.html",
"author" : "WWW.SINA.COM.CN",
"tags" : [],
"desc" : "记者昨天从北京教育考试院获悉，今年中考生体检合格率仅有17%，其中视力低下是体检不合格的主要原因。据相关负责人介绍，从今年中考体检情况来看，大部分区县中考生视力不良检出率都在60%以上，远郊区县考生视力状况要好于城区。 据了解，学生视力低下将对中考和高考志....",
"emailed" : False,
"forwarded" : False,
"english" : False
} ]
}
