{
"mode" : {"viewTitle" : 1,   "viewNew" : 0,  "pageIndex" : 2 },
 "channel" : {"id" : "1565245976301920518", "booked" : False, "subNumber" : 1, "name" : "中考-新浪教育", "url" : "http:\/\/edu.sina.com.cn\/rss\/index.html", "feed" : "http:\/\/rss.sina.com.cn\/edu\/zhongkao.xml", "author" : "WWW.SINA.COM.CN", "desc" : "文化教育-中考", "imageUrl" : "http:\/\/www.sinaimg.cn\/home\/deco\/2009\/0330\/logo_home_edu.gif", "postPerWeek" : "0", "lastCrawTime" : "16:52:45", "crawDateTime" : "16:52:45", "lastHttpCode" : "200"}, "page" : {
"startIndex" : 20,
"totalCount" : 5000,
"pageIndex" : 2,
"lastPage" : 250,
"pageSize" : 20,
"english" :  False },
 "unreadNum" : 0, "shotIndex" : -1,
"articles" : [
{
"index" : 0,
"articleIndex" : "11139",
"favor" :  False ,
     "read" : False,    
"title" : "中考练艺术特长每周2至3次为宜",
"titleTip" : "中考练艺术特长每周2至3次为宜",
"titleSummary" : "中考练艺术特长每周2至3次为宜",
"descSummary" : "北京考试报讯(记者 徐 凡) 进入初三，一部分学艺术的中考生在认真学习...",
"url" : "http:\/\/go.rss.sina.com.cn\/redirect.php?url=http:\/\/edu.sina.com.cn\/zhongkao\/2013-10-26\/1343399415.shtml",
"pubDate" : "2013年10月26日 (4天前)",
"enterDate" : "384200:58:04",
"channelId" : "1565245976301920518",
"channelName" : "中考-新浪教育",
"channelNameSummary" : "中考-新浪教育",
"channelUrl" : "http:\/\/edu.sina.com.cn\/rss\/index.html",
"author" : "WWW.SINA.COM.CN",
"tags" : [],
"desc" : "北京考试报讯(记者 徐 凡) 进入初三，一部分学艺术的中考生在认真学习文化课的同时，也开始为报考特长生而努力。他们每天都要抽出几个小时练习专业技能。相关专业老师建议，中考生练艺术特长每周2至3次就可以了。 汤城从小一直学习小号。今年中考，他想报考人大附中的....",
"emailed" : False,
"forwarded" : False,
"english" : False
}  , {
"index" : 1,
"articleIndex" : "11140",
"favor" :  False ,
     "read" : False,    
"title" : "中考生体检通过率不足两成 视力低下是主因",
"titleTip" : "中考生体检通过率不足两成 视力低下是主因",
"titleSummary" : "中考生体检通过率不足两成 视力低下是主因",
"descSummary" : "北京考试报讯(记者 安京京)记者从日前召开的2013年中考体...",
"url" : "http:\/\/go.rss.sina.com.cn\/redirect.php?url=http:\/\/edu.sina.com.cn\/zhongkao\/2013-10-26\/1341399414.shtml",
"pubDate" : "2013年10月26日 (4天前)",
"enterDate" : "384200:26:09",
"channelId" : "1565245976301920518",
"channelName" : "中考-新浪教育",
"channelNameSummary" : "中考-新浪教育",
"channelUrl" : "http:\/\/edu.sina.com.cn\/rss\/index.html",
"author" : "WWW.SINA.COM.CN",
"tags" : [],
"desc" : "北京考试报讯(记者 安京京)记者从日前召开的2013年中考体检总结会上获悉，今年中考生体检合格率仅有17%，其中视力低下是体检不合格的主要原因。 市教委体卫科有关负责人说，从今年中考体检情况看，大部分区县中考生视力不良检出率都在60%以上。远郊区县考生视力状况要....",
"emailed" : False,
"forwarded" : False,
"english" : False
}  , {
"index" : 2,
"articleIndex" : "11138",
"favor" :  False ,
     "read" : False,    
"title" : "初三生必读：60个中考英语作文热点句型",
"titleTip" : "初三生必读：60个中考英语作文热点句型",
"titleSummary" : "初三生必读：60个中考英语作文热点句型",
"descSummary" : "本文选自《迷鹿Sheila》的博客，请点击查看博客原文。1.as\u2026...",
"url" : "http:\/\/go.rss.sina.com.cn\/redirect.php?url=http:\/\/edu.sina.com.cn\/zhongkao\/2013-10-25\/1456399331.shtml",
"pubDate" : "2013年10月25日 (5天前)",
"enterDate" : "384200:15:03",
"channelId" : "1565245976301920518",
"channelName" : "中考-新浪教育",
"channelNameSummary" : "中考-新浪教育",
"channelUrl" : "http:\/\/edu.sina.com.cn\/rss\/index.html",
"author" : "WWW.SINA.COM.CN",
"tags" : [],
"desc" : "本文选自《迷鹿Sheila》的博客，请点击查看博客原文。 1.as\u2026as 和\u2026\u2026一样 中间必须用形容词或副词原级。例如： This classroom is as big as that one. 这间教室和那间一样大。He runs asfast as Tom. 他和汤姆跑的一样快。 否定结构：not as\/so\u2026a....",
"emailed" : False,
"forwarded" : False,
"english" : False
}  , {
"index" : 3,
"articleIndex" : "11137",
"favor" :  False ,
     "read" : False,    
"title" : "2014中考备考：父母要做好\u201C六大员\u201D",
"titleTip" : "2014中考备考：父母要做好\u201C六大员\u201D",
"titleSummary" : "2014中考备考：父母要做好\u201C六大员\u201D",
"descSummary" : "本文选自《迷鹿Sheila》的博客，请点击查看博客原文。进入初三...",
"url" : "http:\/\/go.rss.sina.com.cn\/redirect.php?url=http:\/\/edu.sina.com.cn\/zhongkao\/2013-10-25\/1454399330.shtml",
"pubDate" : "2013年10月25日 (5天前)",
"enterDate" : "384200:42:43",
"channelId" : "1565245976301920518",
"channelName" : "中考-新浪教育",
"channelNameSummary" : "中考-新浪教育",
"channelUrl" : "http:\/\/edu.sina.com.cn\/rss\/index.html",
"author" : "WWW.SINA.COM.CN",
"tags" : [],
"desc" : "本文选自《迷鹿Sheila》的博客，请点击查看博客原文。 进入初三后，学校、老师都对孩子提出更高的要求，学习压力大了不少，一摞摞的作业、一堆堆的卷子。这个时候，作为父母，应该做好\u201C六大员\u201D。 (1)做个生活委员。 初三的学习很紧张，孩子的体力消耗很大....",
"emailed" : False,
"forwarded" : False,
"english" : False
}  , {
"index" : 4,
"articleIndex" : "11135",
"favor" :  False ,
     "read" : False,    
"title" : "中考语文改革：培养学生语文的习惯与素养",
"titleTip" : "中考语文改革：培养学生语文的习惯与素养",
"titleSummary" : "中考语文改革：培养学生语文的习惯与素养",
"descSummary" : "中考语文是同学们一直认为比较难学的一科，这样认为的学生...",
"url" : "http:\/\/go.rss.sina.com.cn\/redirect.php?url=http:\/\/edu.sina.com.cn\/zhongkao\/2013-10-25\/1416399316.shtml",
"pubDate" : "2013年10月25日 (5天前)",
"enterDate" : "384201:05:08",
"channelId" : "1565245976301920518",
"channelName" : "中考-新浪教育",
"channelNameSummary" : "中考-新浪教育",
"channelUrl" : "http:\/\/edu.sina.com.cn\/rss\/index.html",
"author" : "WWW.SINA.COM.CN",
"tags" : [],
"desc" : "中考语文是同学们一直认为比较难学的一科，这样认为的学生比例较大，那么现在先来谈谈学好语文一些必须做到的东西，或者说要学好语文需要培养哪些习惯和素养。 第一，要培养学习语文的兴趣。古人说得好：\u201C知之者不如好之者，好之者不如乐之者。\u201D但我们要做到\u201C乐之\u201D....",
"emailed" : False,
"forwarded" : False,
"english" : False
}  , {
"index" : 5,
"articleIndex" : "11136",
"favor" :  False ,
     "read" : False,    
"title" : "2016年中高考改革方案名师全方位解读",
"titleTip" : "2016年中高考改革方案名师全方位解读",
"titleSummary" : "2016年中高考改革方案名师全方位解读",
"descSummary" : "日前，坊间网上对北京市中高考政策即将迎来重大改革的小道消息...",
"url" : "http:\/\/go.rss.sina.com.cn\/redirect.php?url=http:\/\/edu.sina.com.cn\/zhongkao\/2013-10-25\/1413399314.shtml",
"pubDate" : "2013年10月25日 (5天前)",
"enterDate" : "384200:01:59",
"channelId" : "1565245976301920518",
"channelName" : "中考-新浪教育",
"channelNameSummary" : "中考-新浪教育",
"channelUrl" : "http:\/\/edu.sina.com.cn\/rss\/index.html",
"author" : "WWW.SINA.COM.CN",
"tags" : [],
"desc" : "日前，坊间网上对北京市中高考政策即将迎来重大改革的小道消息议论纷纷。本周一，北京教育考试院公布了《2014-2016年中考中招改革框架方案》(征求意见稿)、《2014-2016年高考高招改革框架方案》(征求意见稿)，算是在官方层面对此前消息的一个肯定和回应。虽然方案仍在征求意见....",
"emailed" : False,
"forwarded" : False,
"english" : False
}  , {
"index" : 6,
"articleIndex" : "11134",
"favor" :  False ,
     "read" : False,    
"title" : "2014哈市中考出分同时公布同分段人数",
"titleTip" : "2014哈市中考出分同时公布同分段人数",
"titleSummary" : "2014哈市中考出分同时公布同分段人数",
"descSummary" : "本报讯(记者 刘钢)昨天，本报刊发了《明年中考考后出分报志愿》...",
"url" : "http:\/\/go.rss.sina.com.cn\/redirect.php?url=http:\/\/edu.sina.com.cn\/zhongkao\/2013-10-25\/1046399283.shtml",
"pubDate" : "2013年10月25日 (5天前)",
"enterDate" : "384201:05:32",
"channelId" : "1565245976301920518",
"channelName" : "中考-新浪教育",
"channelNameSummary" : "中考-新浪教育",
"channelUrl" : "http:\/\/edu.sina.com.cn\/rss\/index.html",
"author" : "WWW.SINA.COM.CN",
"tags" : [],
"desc" : "本报讯(记者 刘钢)昨天，本报刊发了《明年中考考后出分报志愿》的报道，引起广大中考考生和家长的极大关注，并纷纷致电本报就出分填报志愿的相关细则进行咨询。市教育局相关人士表示，考后出分的同时将公布中考同分段人数，这将使中考填报志愿更加透明，考生和家长能够更加准....",
"emailed" : False,
"forwarded" : False,
"english" : False
}  , {
"index" : 7,
"articleIndex" : "11133",
"favor" :  False ,
     "read" : False,    
"title" : "哈市2014年中考出分后报志愿",
"titleTip" : "哈市2014年中考出分后报志愿",
"titleSummary" : "哈市2014年中考出分后报志愿",
"descSummary" : "生活报10月25日讯 24日，记者从哈市教育局获悉，2014年哈市中考录取政...",
"url" : "http:\/\/go.rss.sina.com.cn\/redirect.php?url=http:\/\/edu.sina.com.cn\/zhongkao\/2013-10-25\/1042399282.shtml",
"pubDate" : "2013年10月25日 (5天前)",
"enterDate" : "384201:01:11",
"channelId" : "1565245976301920518",
"channelName" : "中考-新浪教育",
"channelNameSummary" : "中考-新浪教育",
"channelUrl" : "http:\/\/edu.sina.com.cn\/rss\/index.html",
"author" : "WWW.SINA.COM.CN",
"tags" : [],
"desc" : "生活报10月25日讯 24日，记者从哈市教育局获悉，2014年哈市中考录取政策将有两项重大调整，省重点高中配额生比例将达到60%，较今年提升5%；同时填报志愿方式也将有改变，由以往的考后估分填报志愿改为考后出分填报志愿。据了解，按照黑龙江省教育厅有关要求，2015年省重点高中....",
"emailed" : False,
"forwarded" : False,
"english" : False
}  , {
"index" : 8,
"articleIndex" : "11132",
"favor" :  False ,
     "read" : False,    
"title" : "2014哈市中考知分填志愿 避免高分滑档现象",
"titleTip" : "2014哈市中考知分填志愿 避免高分滑档现象",
"titleSummary" : "2014哈市中考知分填志愿 避免高分滑档现象",
"descSummary" : "2014年哈尔滨中考知分填志愿 新浪教育讯 2014年哈市中考省...",
"url" : "http:\/\/go.rss.sina.com.cn\/redirect.php?url=http:\/\/edu.sina.com.cn\/zhongkao\/2013-10-25\/1039399279.shtml",
"pubDate" : "2013年10月25日 (5天前)",
"enterDate" : "384200:58:29",
"channelId" : "1565245976301920518",
"channelName" : "中考-新浪教育",
"channelNameSummary" : "中考-新浪教育",
"channelUrl" : "http:\/\/edu.sina.com.cn\/rss\/index.html",
"author" : "WWW.SINA.COM.CN",
"tags" : [],
"desc" : "2014年哈尔滨中考知分填志愿 新浪教育讯 2014年哈市中考省重点学校配额生比例将从今年的55%增加到60%，中考填报志愿方式也从考后估分报志愿改为考后知分报志愿。 据了解，知分填志愿能尽可能减少\u201C滑档生\u201D，但会造成某些好学校都是高分生，学校之间分层更加明显。....",
"emailed" : False,
"forwarded" : False,
"english" : False
}  , {
"index" : 9,
"articleIndex" : "11131",
"favor" :  False ,
     "read" : False,    
"title" : "哈尔滨中考出分报志愿细则四问",
"titleTip" : "哈尔滨中考出分报志愿细则四问",
"titleSummary" : "哈尔滨中考出分报志愿细则四问",
"descSummary" : "东北网10月25日讯 24，刊发《明年中考考后出分报志愿》报道后引起广...",
"url" : "http:\/\/go.rss.sina.com.cn\/redirect.php?url=http:\/\/edu.sina.com.cn\/zhongkao\/2013-10-25\/1023399262.shtml",
"pubDate" : "2013年10月25日 (5天前)",
"enterDate" : "384201:13:04",
"channelId" : "1565245976301920518",
"channelName" : "中考-新浪教育",
"channelNameSummary" : "中考-新浪教育",
"channelUrl" : "http:\/\/edu.sina.com.cn\/rss\/index.html",
"author" : "WWW.SINA.COM.CN",
"tags" : [],
"desc" : "东北网10月25日讯 24，刊发《明年中考考后出分报志愿》报道后引起广大中考考生和家长的极大关注，并纷纷致电就出分填报志愿的相关细则进行咨询。市教育局相关人士表示，考后出分的同时将公布中考同分段人数，这将使中考填报志愿更加透明，考生和家长能够更加准确、合理地填报....",
"emailed" : False,
"forwarded" : False,
"english" : False
}  , {
"index" : 10,
"articleIndex" : "11130",
"favor" :  False ,
     "read" : False,    
"title" : "哈市中考后出分报志愿引热议 家长普遍支持",
"titleTip" : "哈市中考后出分报志愿引热议 家长普遍支持",
"titleSummary" : "哈市中考后出分报志愿引热议 家长普遍支持",
"descSummary" : "哈尔滨日报昨天《明年中考实行考后出分报志愿》报道引起社...",
"url" : "http:\/\/go.rss.sina.com.cn\/redirect.php?url=http:\/\/edu.sina.com.cn\/zhongkao\/2013-10-25\/1022399260.shtml",
"pubDate" : "2013年10月25日 (5天前)",
"enterDate" : "384201:11:22",
"channelId" : "1565245976301920518",
"channelName" : "中考-新浪教育",
"channelNameSummary" : "中考-新浪教育",
"channelUrl" : "http:\/\/edu.sina.com.cn\/rss\/index.html",
"author" : "WWW.SINA.COM.CN",
"tags" : [],
"desc" : "哈尔滨日报昨天《明年中考实行考后出分报志愿》报道引起社会广泛关注。记者采访中发现，家长普遍对这一中考新政持欢迎态度，支持哈尔滨市实施中考出分报志愿政策。初中老师也表示，今后指导学生报志愿的压力小了，会\u201C更有底\u201D了。 受年龄心态影响估分不准情况屡屡出现....",
"emailed" : False,
"forwarded" : False,
"english" : False
}  , {
"index" : 11,
"articleIndex" : "11128",
"favor" :  False ,
     "read" : False,    
"title" : "深圳中考拟不录取思想品德不合格者",
"titleTip" : "深圳中考拟不录取思想品德不合格者",
"titleSummary" : "深圳中考拟不录取思想品德不合格者",
"descSummary" : "本报深圳10月23日电 (吕绍刚、张娜)\u201C思想品德课不合格就不能读...",
"url" : "http:\/\/go.rss.sina.com.cn\/redirect.php?url=http:\/\/edu.sina.com.cn\/zhongkao\/2013-10-24\/1553399182.shtml",
"pubDate" : "2013年10月24日 (6天前)",
"enterDate" : "384200:45:22",
"channelId" : "1565245976301920518",
"channelName" : "中考-新浪教育",
"channelNameSummary" : "中考-新浪教育",
"channelUrl" : "http:\/\/edu.sina.com.cn\/rss\/index.html",
"author" : "WWW.SINA.COM.CN",
"tags" : [],
"desc" : "本报深圳10月23日电 (吕绍刚、张娜)\u201C思想品德课不合格就不能读高中？\u201D近日，深圳公开了2015年中考政策意见修订稿，将思想品德课纳入中考考查科目。该条款一经公布，随即引发热议。 修订稿规定，深圳各区、各新区教育部门或初中学校负责组织考查思想品德科目，不合格....",
"emailed" : False,
"forwarded" : False,
"english" : False
}  , {
"index" : 12,
"articleIndex" : "11127",
"favor" :  False ,
     "read" : False,    
"title" : "佛山中考增不增加英语口试待定",
"titleTip" : "佛山中考增不增加英语口试待定",
"titleSummary" : "佛山中考增不增加英语口试待定",
"descSummary" : "南都讯 记者郭文杰 近日，北京高考将降低英语分值、山东明年英语高考...",
"url" : "http:\/\/go.rss.sina.com.cn\/redirect.php?url=http:\/\/edu.sina.com.cn\/zhongkao\/2013-10-24\/1549399181.shtml",
"pubDate" : "2013年10月24日 (6天前)",
"enterDate" : "384201:12:02",
"channelId" : "1565245976301920518",
"channelName" : "中考-新浪教育",
"channelNameSummary" : "中考-新浪教育",
"channelUrl" : "http:\/\/edu.sina.com.cn\/rss\/index.html",
"author" : "WWW.SINA.COM.CN",
"tags" : [],
"desc" : "南都讯 记者郭文杰 近日，北京高考将降低英语分值、山东明年英语高考取消听力考试等引发了人们对高考英语改革的热议。此前佛山市招生部门原计划在明年中考中增加英语听说能力考试，不过，记者从市招生办了解到，目前还在进行调研，尚不确定明年是否增加英语口语考试。&#160;....",
"emailed" : False,
"forwarded" : False,
"english" : False
}  , {
"index" : 13,
"articleIndex" : "11126",
"favor" :  False ,
     "read" : False,    
"title" : "深圳指标生逐年增加最终取消中考",
"titleTip" : "深圳指标生逐年增加最终取消中考",
"titleSummary" : "深圳指标生逐年增加最终取消中考",
"descSummary" : "记者在采访中了解到，我市这几年中考方案频频改变引起市民吐槽。...",
"url" : "http:\/\/go.rss.sina.com.cn\/redirect.php?url=http:\/\/edu.sina.com.cn\/zhongkao\/2013-10-24\/1549399180.shtml",
"pubDate" : "2013年10月24日 (6天前)",
"enterDate" : "384201:11:16",
"channelId" : "1565245976301920518",
"channelName" : "中考-新浪教育",
"channelNameSummary" : "中考-新浪教育",
"channelUrl" : "http:\/\/edu.sina.com.cn\/rss\/index.html",
"author" : "WWW.SINA.COM.CN",
"tags" : [],
"desc" : "记者在采访中了解到，我市这几年中考方案频频改变引起市民吐槽。市教育科学研究院尚强院长表示，我市将通过逐步提高指标生的比例，最终实现把全部高中招生名额按比例均匀地分配到各初中学校，从而取消中考。",
"emailed" : False,
"forwarded" : False,
"english" : False
}  , {
"index" : 14,
"articleIndex" : "11129",
"favor" :  False ,
     "read" : False,    
"title" : "市教科院院长透露：深圳最终将取消中考",
"titleTip" : "市教科院院长透露：深圳最终将取消中考",
"titleSummary" : "市教科院院长透露：深圳最终将取消中考",
"descSummary" : "深圳商报记者 陈广琳 今年中考的方案与去年不一样，后年中考...",
"url" : "http:\/\/go.rss.sina.com.cn\/redirect.php?url=http:\/\/edu.sina.com.cn\/zhongkao\/2013-10-24\/1545399179.shtml",
"pubDate" : "2013年10月24日 (6天前)",
"enterDate" : "384200:07:12",
"channelId" : "1565245976301920518",
"channelName" : "中考-新浪教育",
"channelNameSummary" : "中考-新浪教育",
"channelUrl" : "http:\/\/edu.sina.com.cn\/rss\/index.html",
"author" : "WWW.SINA.COM.CN",
"tags" : [],
"desc" : "深圳商报记者 陈广琳 今年中考的方案与去年不一样，后年中考内容跟今年又不一样！这段时间，我市2015年中考方案的制定引起市民普遍关注，记者在采访中了解到，我市这几年中考方案频频改变引起市民吐槽。市教育科学研究院尚强院长表示，中考方案的调整是因为课程调整的....",
"emailed" : False,
"forwarded" : False,
"english" : False
}  , {
"index" : 15,
"articleIndex" : "11125",
"favor" :  False ,
     "read" : False,    
"title" : "江苏常州见义勇为人员子女中考可加5分",
"titleTip" : "江苏常州见义勇为人员子女中考可加5分",
"titleSummary" : "江苏常州见义勇为人员子女中考可加5分",
"descSummary" : "中国江苏网10月24日讯 我市见义勇为\u201C暖心工程\u201D又有\u201C升级版...",
"url" : "http:\/\/go.rss.sina.com.cn\/redirect.php?url=http:\/\/edu.sina.com.cn\/zhongkao\/2013-10-24\/1538399174.shtml",
"pubDate" : "2013年10月24日 (6天前)",
"enterDate" : "384201:00:30",
"channelId" : "1565245976301920518",
"channelName" : "中考-新浪教育",
"channelNameSummary" : "中考-新浪教育",
"channelUrl" : "http:\/\/edu.sina.com.cn\/rss\/index.html",
"author" : "WWW.SINA.COM.CN",
"tags" : [],
"desc" : "中国江苏网10月24日讯 我市见义勇为\u201C暖心工程\u201D又有\u201C升级版\u201D。市政府日前出台《进一步加强见义勇为人员权益保护的实施意见》，为见义勇为人员提供全方位保障。 保障低收入见义勇为人员及其家庭基本生活 对符合城乡低保条件的见义勇为人员及其家庭，按有关规....",
"emailed" : False,
"forwarded" : False,
"english" : False
}  , {
"index" : 16,
"articleIndex" : "11124",
"favor" :  False ,
     "read" : False,    
"title" : "2014年江西全面中考改革 中招将不以分数为主",
"titleTip" : "2014年江西全面中考改革 中招将不以分数为主",
"titleSummary" : "2014年江西全面中考改革 中招将不以分数为主",
"descSummary" : "江西省教育厅近日发布《关于深化基础教育课程改革，进一...",
"url" : "http:\/\/go.rss.sina.com.cn\/redirect.php?url=http:\/\/edu.sina.com.cn\/zhongkao\/2013-10-24\/1533399169.shtml",
"pubDate" : "2013年10月24日 (6天前)",
"enterDate" : "384200:56:06",
"channelId" : "1565245976301920518",
"channelName" : "中考-新浪教育",
"channelNameSummary" : "中考-新浪教育",
"channelUrl" : "http:\/\/edu.sina.com.cn\/rss\/index.html",
"author" : "WWW.SINA.COM.CN",
"tags" : [],
"desc" : "江西省教育厅近日发布《关于深化基础教育课程改革，进一步推进素质教育的意见》，强调要积极推行中考制度改革，着力改变以升学考试科目分数简单相加作为唯一录取标准的做法，力争到2014年全省所有县(市、区)全部实行初中毕业学生考试、综合素质评价相结合的高中招生录取模式。....",
"emailed" : False,
"forwarded" : False,
"english" : False
}  , {
"index" : 17,
"articleIndex" : "11123",
"favor" :  False ,
     "read" : False,    
"title" : "热评：中考改革应向综合评价回归",
"titleTip" : "热评：中考改革应向综合评价回归",
"titleSummary" : "热评：中考改革应向综合评价回归",
"descSummary" : "公共 深圳市中考科目调整再次公开征求民意，令人错愕的是，在征求...",
"url" : "http:\/\/go.rss.sina.com.cn\/redirect.php?url=http:\/\/edu.sina.com.cn\/zhongkao\/2013-10-24\/1528399163.shtml",
"pubDate" : "2013年10月24日 (6天前)",
"enterDate" : "384200:50:48",
"channelId" : "1565245976301920518",
"channelName" : "中考-新浪教育",
"channelNameSummary" : "中考-新浪教育",
"channelUrl" : "http:\/\/edu.sina.com.cn\/rss\/index.html",
"author" : "WWW.SINA.COM.CN",
"tags" : [],
"desc" : "公共&#160;&#160;&#160; 深圳市中考科目调整再次公开征求民意，令人错愕的是，在征求意见的过程中，由于各方利益诉求的不同，比如学校、教育行政部门和家庭各自给出的意见很难统一。即使是各利益相关方内部，也因个体差异对方案提出不同，甚至是相反的要求。比如，有的....",
"emailed" : False,
"forwarded" : False,
"english" : False
}  , {
"index" : 18,
"articleIndex" : "11122",
"favor" :  False ,
     "read" : False,    
"title" : "深圳中考拟不录取思想品德不合格者引热议",
"titleTip" : "深圳中考拟不录取思想品德不合格者引热议",
"titleSummary" : "深圳中考拟不录取思想品德不合格者引热议",
"descSummary" : "\u201C思想品德课不合格就不能读高中？\u201D近日，深圳公开了20...",
"url" : "http:\/\/go.rss.sina.com.cn\/redirect.php?url=http:\/\/edu.sina.com.cn\/zhongkao\/2013-10-24\/0807399091.shtml",
"pubDate" : "2013年10月24日 (6天前)",
"enterDate" : "384198:30:27",
"channelId" : "1565245976301920518",
"channelName" : "中考-新浪教育",
"channelNameSummary" : "中考-新浪教育",
"channelUrl" : "http:\/\/edu.sina.com.cn\/rss\/index.html",
"author" : "WWW.SINA.COM.CN",
"tags" : [],
"desc" : "\u201C思想品德课不合格就不能读高中？\u201D近日，深圳公开了2015年中考政策意见修订稿，将思想品德课纳入中考考查科目。该条款一经公布，随即引发热议。 修订稿规定，深圳各区、各新区教育部门或初中学校负责组织考查思想品德科目，不合格的考生，高中学校可不予录取。 ....",
"emailed" : False,
"forwarded" : False,
"english" : False
}  , {
"index" : 19,
"articleIndex" : "11121",
"favor" :  False ,
     "read" : False,    
"title" : "名师齐上阵：备战期中五大科复习攻略大全",
"titleTip" : "名师齐上阵：备战期中五大科复习攻略大全",
"titleSummary" : "名师齐上阵：备战期中五大科复习攻略大全",
"descSummary" : "期中考试已经马不停蹄的向大家跑来了，同学们你们准备好了...",
"url" : "http:\/\/go.rss.sina.com.cn\/redirect.php?url=http:\/\/edu.sina.com.cn\/zhongkao\/2013-10-23\/1611399048.shtml",
"pubDate" : "2013年10月23日 (1周前)",
"enterDate" : "384200:37:38",
"channelId" : "1565245976301920518",
"channelName" : "中考-新浪教育",
"channelNameSummary" : "中考-新浪教育",
"channelUrl" : "http:\/\/edu.sina.com.cn\/rss\/index.html",
"author" : "WWW.SINA.COM.CN",
"tags" : [],
"desc" : "期中考试已经马不停蹄的向大家跑来了，同学们你们准备好了吗？在这短暂的半个月里，我们要抓住分分秒秒好好复习，为了帮助大家，特地邀请了学而思中考研究中心的五大科名师为同学们特别整理了期中备考方案，帮助大家复习。 【数学】名师指导：如何备战初三数学期中考试....",
"emailed" : False,
"forwarded" : False,
"english" : False
} ]
}
