{
"mode" : {"viewTitle" : 1,   "viewNew" : 0,  "pageIndex" : 1 },
 "channel" : {"id" : "-5800791796534076546", "booked" : False, "subNumber" : 1708, "name" : "音乐-要闻", "url" : "http:\/\/ent.sina.com.cn\/old2013\/music\/index.shtml", "feed" : "http:\/\/rss.sina.com.cn\/ent\/music\/focus12.xml", "author" : "WWW.SINA.COM.CN", "desc" : "音乐-要闻", "imageUrl" : "http:\/\/www.sinaimg.cn\/home\/deco\/2009\/0330\/logo_home_ent.gif", "postPerWeek" : "0", "lastCrawTime" : "17:17:21", "crawDateTime" : "17:17:21", "lastHttpCode" : "200"}, "page" : {
"startIndex" : 0,
"totalCount" : 5000,
"pageIndex" : 1,
"lastPage" : 250,
"pageSize" : 20,
"english" :  False },
 "unreadNum" : 0, "shotIndex" : -1,
"articles" : [
{
"index" : 0,
"articleIndex" : "48497",
"favor" :  False ,
     "read" : False,    
"title" : "《邓丽君全传》擅自披露隐私侵权案开庭",
"titleTip" : "《邓丽君全传》擅自披露隐私侵权案开庭",
"titleSummary" : "《邓丽君全传》擅自披露隐私侵权案开庭",
"descSummary" : "",
"url" : "http:\/\/go.rss.sina.com.cn\/redirect.php?url=http:\/\/ent.sina.com.cn\/y\/2013-10-30\/16484033673.shtml",
"pubDate" : "16:48:27",
"enterDate" : "384200:50:14",
"channelId" : "-5800791796534076546",
"channelName" : "音乐-要闻",
"channelNameSummary" : "音乐-要闻",
"channelUrl" : "http:\/\/ent.sina.com.cn\/old2013\/music\/index.shtml",
"author" : "WWW.SINA.COM.CN",
"tags" : [],
"desc" : "",
"emailed" : False,
"forwarded" : False,
"english" : False
}  , {
"index" : 1,
"articleIndex" : "48496",
"favor" :  False ,
     "read" : False,    
"title" : "艾丽西亚-凯斯全球巡演11月登陆上海",
"titleTip" : "艾丽西亚-凯斯全球巡演11月登陆上海",
"titleSummary" : "艾丽西亚-凯斯全球巡演11月登陆上海",
"descSummary" : "",
"url" : "http:\/\/go.rss.sina.com.cn\/redirect.php?url=http:\/\/ent.sina.com.cn\/y\/2013-10-30\/15494033619.shtml",
"pubDate" : "15:49:55",
"enterDate" : "384199:51:42",
"channelId" : "-5800791796534076546",
"channelName" : "音乐-要闻",
"channelNameSummary" : "音乐-要闻",
"channelUrl" : "http:\/\/ent.sina.com.cn\/old2013\/music\/index.shtml",
"author" : "WWW.SINA.COM.CN",
"tags" : [],
"desc" : "",
"emailed" : False,
"forwarded" : False,
"english" : False
}  , {
"index" : 2,
"articleIndex" : "48495",
"favor" :  False ,
     "read" : False,    
"title" : "陈冠希：做有梦的80后 欣赏不来LadyGaga",
"titleTip" : "陈冠希：做有梦的80后 欣赏不来LadyGaga",
"titleSummary" : "陈冠希：做有梦的80后 欣赏不来LadyGaga",
"descSummary" : "",
"url" : "http:\/\/go.rss.sina.com.cn\/redirect.php?url=http:\/\/ent.sina.com.cn\/y\/2013-10-30\/15464033616.shtml",
"pubDate" : "15:46:58",
"enterDate" : "384199:48:45",
"channelId" : "-5800791796534076546",
"channelName" : "音乐-要闻",
"channelNameSummary" : "音乐-要闻",
"channelUrl" : "http:\/\/ent.sina.com.cn\/old2013\/music\/index.shtml",
"author" : "WWW.SINA.COM.CN",
"tags" : [],
"desc" : "",
"emailed" : False,
"forwarded" : False,
"english" : False
}  , {
"index" : 3,
"articleIndex" : "48494",
"favor" :  False ,
     "read" : False,    
"title" : "选秀大年\u201C抢食吃\u201D 失业还是再就业？",
"titleTip" : "选秀大年\u201C抢食吃\u201D 失业还是再就业？",
"titleSummary" : "选秀大年\u201C抢食吃\u201D 失业还是再就业？",
"descSummary" : "",
"url" : "http:\/\/go.rss.sina.com.cn\/redirect.php?url=http:\/\/ent.sina.com.cn\/y\/2013-10-30\/15194033590.shtml",
"pubDate" : "15:19:35",
"enterDate" : "384199:21:22",
"channelId" : "-5800791796534076546",
"channelName" : "音乐-要闻",
"channelNameSummary" : "音乐-要闻",
"channelUrl" : "http:\/\/ent.sina.com.cn\/old2013\/music\/index.shtml",
"author" : "WWW.SINA.COM.CN",
"tags" : [],
"desc" : "",
"emailed" : False,
"forwarded" : False,
"english" : False
}  , {
"index" : 4,
"articleIndex" : "48493",
"favor" :  False ,
     "read" : False,    
"title" : "曹格回应发酒疯妻儿出走：现在非常不好",
"titleTip" : "曹格回应发酒疯妻儿出走：现在非常不好",
"titleSummary" : "曹格回应发酒疯妻儿出走：现在非常不好",
"descSummary" : "",
"url" : "http:\/\/go.rss.sina.com.cn\/redirect.php?url=http:\/\/ent.sina.com.cn\/y\/w\/2013-10-30\/14474033555.shtml",
"pubDate" : "14:47:27",
"enterDate" : "384200:19:29",
"channelId" : "-5800791796534076546",
"channelName" : "音乐-要闻",
"channelNameSummary" : "音乐-要闻",
"channelUrl" : "http:\/\/ent.sina.com.cn\/old2013\/music\/index.shtml",
"author" : "WWW.SINA.COM.CN",
"tags" : [],
"desc" : "",
"emailed" : False,
"forwarded" : False,
"english" : False
}  , {
"index" : 5,
"articleIndex" : "48492",
"favor" :  False ,
     "read" : False,    
"title" : "莱昂国王和IconaPop将参加欧洲MTV颁奖礼",
"titleTip" : "莱昂国王和IconaPop将参加欧洲MTV颁奖礼",
"titleSummary" : "莱昂国王和IconaPop将参加欧洲MTV颁奖礼",
"descSummary" : "",
"url" : "http:\/\/go.rss.sina.com.cn\/redirect.php?url=http:\/\/ent.sina.com.cn\/y\/2013-10-30\/14094033517.shtml",
"pubDate" : "14:09:51",
"enterDate" : "384200:42:04",
"channelId" : "-5800791796534076546",
"channelName" : "音乐-要闻",
"channelNameSummary" : "音乐-要闻",
"channelUrl" : "http:\/\/ent.sina.com.cn\/old2013\/music\/index.shtml",
"author" : "WWW.SINA.COM.CN",
"tags" : [],
"desc" : "",
"emailed" : False,
"forwarded" : False,
"english" : False
}  , {
"index" : 6,
"articleIndex" : "48491",
"favor" :  False ,
     "read" : False,    
"title" : "林志炫自诩唱片市场暗流 期待与李骥合唱",
"titleTip" : "林志炫自诩唱片市场暗流 期待与李骥合唱",
"titleSummary" : "林志炫自诩唱片市场暗流 期待与李骥合唱",
"descSummary" : "",
"url" : "http:\/\/go.rss.sina.com.cn\/redirect.php?url=http:\/\/ent.sina.com.cn\/y\/2013-10-30\/14074033516.shtml",
"pubDate" : "14:07:45",
"enterDate" : "384200:39:58",
"channelId" : "-5800791796534076546",
"channelName" : "音乐-要闻",
"channelNameSummary" : "音乐-要闻",
"channelUrl" : "http:\/\/ent.sina.com.cn\/old2013\/music\/index.shtml",
"author" : "WWW.SINA.COM.CN",
"tags" : [],
"desc" : "",
"emailed" : False,
"forwarded" : False,
"english" : False
}  , {
"index" : 7,
"articleIndex" : "48490",
"favor" :  False ,
     "read" : False,    
"title" : "地下丝绒主唱娄-里德：无法阻止的传奇",
"titleTip" : "地下丝绒主唱娄-里德：无法阻止的传奇",
"titleSummary" : "地下丝绒主唱娄-里德：无法阻止的传奇",
"descSummary" : "",
"url" : "http:\/\/go.rss.sina.com.cn\/redirect.php?url=http:\/\/ent.sina.com.cn\/y\/2013-10-30\/13484033506.shtml",
"pubDate" : "13:48:47",
"enterDate" : "384200:21:00",
"channelId" : "-5800791796534076546",
"channelName" : "音乐-要闻",
"channelNameSummary" : "音乐-要闻",
"channelUrl" : "http:\/\/ent.sina.com.cn\/old2013\/music\/index.shtml",
"author" : "WWW.SINA.COM.CN",
"tags" : [],
"desc" : "",
"emailed" : False,
"forwarded" : False,
"english" : False
}  , {
"index" : 8,
"articleIndex" : "48482",
"favor" :  False ,
     "read" : False,    
"title" : "视频：新浪韩娱独家对话金在中畅聊专辑",
"titleTip" : "视频：新浪韩娱独家对话金在中畅聊专辑",
"titleSummary" : "视频：新浪韩娱独家对话金在中畅聊专辑",
"descSummary" : "",
"url" : "http:\/\/go.rss.sina.com.cn\/redirect.php?url=http:\/\/video.sina.com.cn\/p\/ent\/y\/2013-10-30\/111163082833.html",
"pubDate" : "11:11:32",
"enterDate" : "384201:14:19",
"channelId" : "-5800791796534076546",
"channelName" : "音乐-要闻",
"channelNameSummary" : "音乐-要闻",
"channelUrl" : "http:\/\/ent.sina.com.cn\/old2013\/music\/index.shtml",
"author" : "WWW.SINA.COM.CN",
"tags" : [],
"desc" : "",
"emailed" : False,
"forwarded" : False,
"english" : False
}  , {
"index" : 9,
"articleIndex" : "48487",
"favor" :  False ,
     "read" : False,    
"title" : "金在中新专辑讲述恋爱故事 最爱自作曲",
"titleTip" : "金在中新专辑讲述恋爱故事 最爱自作曲",
"titleSummary" : "金在中新专辑讲述恋爱故事 最爱自作曲",
"descSummary" : "",
"url" : "http:\/\/go.rss.sina.com.cn\/redirect.php?url=http:\/\/ent.sina.com.cn\/y\/k\/2013-10-30\/11074033372.shtml",
"pubDate" : "11:07:21",
"enterDate" : "384200:09:59",
"channelId" : "-5800791796534076546",
"channelName" : "音乐-要闻",
"channelNameSummary" : "音乐-要闻",
"channelUrl" : "http:\/\/ent.sina.com.cn\/old2013\/music\/index.shtml",
"author" : "WWW.SINA.COM.CN",
"tags" : [],
"desc" : "",
"emailed" : False,
"forwarded" : False,
"english" : False
}  , {
"index" : 10,
"articleIndex" : "48488",
"favor" :  False ,
     "read" : False,    
"title" : "蕾哈娜前男友伤人拒认罪 戴手铐神情憔悴",
"titleTip" : "蕾哈娜前男友伤人拒认罪 戴手铐神情憔悴",
"titleSummary" : "蕾哈娜前男友伤人拒认罪 戴手铐神情憔悴",
"descSummary" : "",
"url" : "http:\/\/go.rss.sina.com.cn\/redirect.php?url=http:\/\/ent.sina.com.cn\/y\/2013-10-30\/10554033352.shtml",
"pubDate" : "10:55:00",
"enterDate" : "384197:57:17",
"channelId" : "-5800791796534076546",
"channelName" : "音乐-要闻",
"channelNameSummary" : "音乐-要闻",
"channelUrl" : "http:\/\/ent.sina.com.cn\/old2013\/music\/index.shtml",
"author" : "WWW.SINA.COM.CN",
"tags" : [],
"desc" : "",
"emailed" : False,
"forwarded" : False,
"english" : False
}  , {
"index" : 11,
"articleIndex" : "48481",
"favor" :  False ,
     "read" : False,    
"title" : "金海心低调回归 《唱过什么歌》MV首发",
"titleTip" : "金海心低调回归 《唱过什么歌》MV首发",
"titleSummary" : "金海心低调回归 《唱过什么歌》MV首发",
"descSummary" : "",
"url" : "http:\/\/go.rss.sina.com.cn\/redirect.php?url=http:\/\/ent.sina.com.cn\/y\/2013-10-30\/10524033322.shtml",
"pubDate" : "10:52:51",
"enterDate" : "384200:55:38",
"channelId" : "-5800791796534076546",
"channelName" : "音乐-要闻",
"channelNameSummary" : "音乐-要闻",
"channelUrl" : "http:\/\/ent.sina.com.cn\/old2013\/music\/index.shtml",
"author" : "WWW.SINA.COM.CN",
"tags" : [],
"desc" : "",
"emailed" : False,
"forwarded" : False,
"english" : False
}  , {
"index" : 12,
"articleIndex" : "48486",
"favor" :  False ,
     "read" : False,    
"title" : "组图：Gaga顶超大孔雀头艰难上车俯身露乳",
"titleTip" : "组图：Gaga顶超大孔雀头艰难上车俯身露乳",
"titleSummary" : "组图：Gaga顶超大孔雀头艰难上车俯身露乳",
"descSummary" : "",
"url" : "http:\/\/go.rss.sina.com.cn\/redirect.php?url=http:\/\/slide.ent.sina.com.cn\/y\/slide_4_704_68392.html",
"pubDate" : "10:50:40",
"enterDate" : "384200:23:23",
"channelId" : "-5800791796534076546",
"channelName" : "音乐-要闻",
"channelNameSummary" : "音乐-要闻",
"channelUrl" : "http:\/\/ent.sina.com.cn\/old2013\/music\/index.shtml",
"author" : "WWW.SINA.COM.CN",
"tags" : [],
"desc" : "",
"emailed" : False,
"forwarded" : False,
"english" : False
}  , {
"index" : 13,
"articleIndex" : "48489",
"favor" :  False ,
     "read" : False,    
"title" : "BigBang成员TOP将于11月推出个人单曲",
"titleTip" : "BigBang成员TOP将于11月推出个人单曲",
"titleSummary" : "BigBang成员TOP将于11月推出个人单曲",
"descSummary" : "",
"url" : "http:\/\/go.rss.sina.com.cn\/redirect.php?url=http:\/\/ent.sina.com.cn\/y\/k\/2013-10-30\/10234033258.shtml",
"pubDate" : "10:23:04",
"enterDate" : "384196:55:17",
"channelId" : "-5800791796534076546",
"channelName" : "音乐-要闻",
"channelNameSummary" : "音乐-要闻",
"channelUrl" : "http:\/\/ent.sina.com.cn\/old2013\/music\/index.shtml",
"author" : "WWW.SINA.COM.CN",
"tags" : [],
"desc" : "",
"emailed" : False,
"forwarded" : False,
"english" : False
}  , {
"index" : 14,
"articleIndex" : "48479",
"favor" :  False ,
     "read" : False,    
"title" : "杨澜提问郎朗被指语意不善 晒合影称误会",
"titleTip" : "杨澜提问郎朗被指语意不善 晒合影称误会",
"titleSummary" : "杨澜提问郎朗被指语意不善 晒合影称误会",
"descSummary" : "",
"url" : "http:\/\/go.rss.sina.com.cn\/redirect.php?url=http:\/\/ent.sina.com.cn\/y\/w\/2013-10-30\/10044033227.shtml",
"pubDate" : "10:04:48",
"enterDate" : "384200:37:40",
"channelId" : "-5800791796534076546",
"channelName" : "音乐-要闻",
"channelNameSummary" : "音乐-要闻",
"channelUrl" : "http:\/\/ent.sina.com.cn\/old2013\/music\/index.shtml",
"author" : "WWW.SINA.COM.CN",
"tags" : [],
"desc" : "",
"emailed" : False,
"forwarded" : False,
"english" : False
}  , {
"index" : 15,
"articleIndex" : "48485",
"favor" :  False ,
     "read" : False,    
"title" : "唐朝乐队11月开唱 丁武用摇滚叫醒女儿",
"titleTip" : "唐朝乐队11月开唱 丁武用摇滚叫醒女儿",
"titleSummary" : "唐朝乐队11月开唱 丁武用摇滚叫醒女儿",
"descSummary" : "",
"url" : "http:\/\/go.rss.sina.com.cn\/redirect.php?url=http:\/\/ent.sina.com.cn\/y\/2013-10-30\/10004033223.shtml",
"pubDate" : "10:00:49",
"enterDate" : "384199:33:32",
"channelId" : "-5800791796534076546",
"channelName" : "音乐-要闻",
"channelNameSummary" : "音乐-要闻",
"channelUrl" : "http:\/\/ent.sina.com.cn\/old2013\/music\/index.shtml",
"author" : "WWW.SINA.COM.CN",
"tags" : [],
"desc" : "",
"emailed" : False,
"forwarded" : False,
"english" : False
}  , {
"index" : 16,
"articleIndex" : "48480",
"favor" :  False ,
     "read" : False,    
"title" : "新兴乐器手碟似锅盖 奏出美妙音色(图)",
"titleTip" : "新兴乐器手碟似锅盖 奏出美妙音色(图)",
"titleSummary" : "新兴乐器手碟似锅盖 奏出美妙音色(图)",
"descSummary" : "",
"url" : "http:\/\/go.rss.sina.com.cn\/redirect.php?url=http:\/\/ent.sina.com.cn\/y\/2013-10-30\/09594033218.shtml",
"pubDate" : "09:59:41",
"enterDate" : "384200:32:33",
"channelId" : "-5800791796534076546",
"channelName" : "音乐-要闻",
"channelNameSummary" : "音乐-要闻",
"channelUrl" : "http:\/\/ent.sina.com.cn\/old2013\/music\/index.shtml",
"author" : "WWW.SINA.COM.CN",
"tags" : [],
"desc" : "",
"emailed" : False,
"forwarded" : False,
"english" : False
}  , {
"index" : 17,
"articleIndex" : "48484",
"favor" :  False ,
     "read" : False,    
"title" : "乔任梁激情献唱 称与郭采洁合作愉快(图)",
"titleTip" : "乔任梁激情献唱 称与郭采洁合作愉快(图)",
"titleSummary" : "乔任梁激情献唱 称与郭采洁合作愉快(图)",
"descSummary" : "",
"url" : "http:\/\/go.rss.sina.com.cn\/redirect.php?url=http:\/\/slide.ent.sina.com.cn\/y\/slide_4_704_68382.html",
"pubDate" : "09:55:40",
"enterDate" : "384199:28:23",
"channelId" : "-5800791796534076546",
"channelName" : "音乐-要闻",
"channelNameSummary" : "音乐-要闻",
"channelUrl" : "http:\/\/ent.sina.com.cn\/old2013\/music\/index.shtml",
"author" : "WWW.SINA.COM.CN",
"tags" : [],
"desc" : "",
"emailed" : False,
"forwarded" : False,
"english" : False
}  , {
"index" : 18,
"articleIndex" : "48483",
"favor" :  False ,
     "read" : False,    
"title" : "湖南卫视明年不办最强音 曾一鸣不遗憾",
"titleTip" : "湖南卫视明年不办最强音 曾一鸣不遗憾",
"titleSummary" : "湖南卫视明年不办最强音 曾一鸣不遗憾",
"descSummary" : "",
"url" : "http:\/\/go.rss.sina.com.cn\/redirect.php?url=http:\/\/ent.sina.com.cn\/y\/2013-10-30\/09474033194.shtml",
"pubDate" : "09:47:14",
"enterDate" : "384199:19:57",
"channelId" : "-5800791796534076546",
"channelName" : "音乐-要闻",
"channelNameSummary" : "音乐-要闻",
"channelUrl" : "http:\/\/ent.sina.com.cn\/old2013\/music\/index.shtml",
"author" : "WWW.SINA.COM.CN",
"tags" : [],
"desc" : "",
"emailed" : False,
"forwarded" : False,
"english" : False
}  , {
"index" : 19,
"articleIndex" : "48478",
"favor" :  False ,
     "read" : False,    
"title" : "曾宝仪隔空喊话诉衷肠 称撒贝宁很贴心",
"titleTip" : "曾宝仪隔空喊话诉衷肠 称撒贝宁很贴心",
"titleSummary" : "曾宝仪隔空喊话诉衷肠 称撒贝宁很贴心",
"descSummary" : "",
"url" : "http:\/\/go.rss.sina.com.cn\/redirect.php?url=http:\/\/ent.sina.com.cn\/y\/2013-10-30\/09414033187.shtml",
"pubDate" : "09:41:49",
"enterDate" : "384201:14:52",
"channelId" : "-5800791796534076546",
"channelName" : "音乐-要闻",
"channelNameSummary" : "音乐-要闻",
"channelUrl" : "http:\/\/ent.sina.com.cn\/old2013\/music\/index.shtml",
"author" : "WWW.SINA.COM.CN",
"tags" : [],
"desc" : "",
"emailed" : False,
"forwarded" : False,
"english" : False
} ]
}
