{
"mode" : {"viewTitle" : 1,   "viewNew" : 0,  "pageIndex" : 2 },
 "channel" : {"id" : "-5800791796534076546", "booked" : False, "subNumber" : 1708, "name" : "音乐-要闻", "url" : "http:\/\/ent.sina.com.cn\/old2013\/music\/index.shtml", "feed" : "http:\/\/rss.sina.com.cn\/ent\/music\/focus12.xml", "author" : "WWW.SINA.COM.CN", "desc" : "音乐-要闻", "imageUrl" : "http:\/\/www.sinaimg.cn\/home\/deco\/2009\/0330\/logo_home_ent.gif", "postPerWeek" : "0", "lastCrawTime" : "17:17:21", "crawDateTime" : "17:17:21", "lastHttpCode" : "200"}, "page" : {
"startIndex" : 20,
"totalCount" : 5000,
"pageIndex" : 2,
"lastPage" : 250,
"pageSize" : 20,
"english" :  False },
 "unreadNum" : 0, "shotIndex" : -1,
"articles" : [
{
"index" : 0,
"articleIndex" : "48477",
"favor" :  False ,
     "read" : False,    
"title" : "郑融开演唱会 旧爱刘浩龙将携容祖儿捧场",
"titleTip" : "郑融开演唱会 旧爱刘浩龙将携容祖儿捧场",
"titleSummary" : "郑融开演唱会 旧爱刘浩龙将携容祖儿捧场",
"descSummary" : "",
"url" : "http:\/\/go.rss.sina.com.cn\/redirect.php?url=http:\/\/ent.sina.com.cn\/y\/2013-10-30\/08164033151.shtml",
"pubDate" : "08:16:43",
"enterDate" : "384200:19:52",
"channelId" : "-5800791796534076546",
"channelName" : "音乐-要闻",
"channelNameSummary" : "音乐-要闻",
"channelUrl" : "http:\/\/ent.sina.com.cn\/old2013\/music\/index.shtml",
"author" : "WWW.SINA.COM.CN",
"tags" : [],
"desc" : "",
"emailed" : False,
"forwarded" : False,
"english" : False
}  , {
"index" : 1,
"articleIndex" : "48476",
"favor" :  False ,
     "read" : False,    
"title" : "比伯被爆床上淫技 巴拿马1夜召10妓",
"titleTip" : "比伯被爆床上淫技 巴拿马1夜召10妓",
"titleSummary" : "比伯被爆床上淫技 巴拿马1夜召10妓",
"descSummary" : "",
"url" : "http:\/\/go.rss.sina.com.cn\/redirect.php?url=http:\/\/ent.sina.com.cn\/y\/2013-10-30\/04464033075.shtml",
"pubDate" : "昨天04:46:25",
"enterDate" : "384198:19:49",
"channelId" : "-5800791796534076546",
"channelName" : "音乐-要闻",
"channelNameSummary" : "音乐-要闻",
"channelUrl" : "http:\/\/ent.sina.com.cn\/old2013\/music\/index.shtml",
"author" : "WWW.SINA.COM.CN",
"tags" : [],
"desc" : "",
"emailed" : False,
"forwarded" : False,
"english" : False
}  , {
"index" : 2,
"articleIndex" : "48475",
"favor" :  False ,
     "read" : False,    
"title" : "萧敬腾遭恐吓半年 泼粪主嫌疑富婆粉丝",
"titleTip" : "萧敬腾遭恐吓半年 泼粪主嫌疑富婆粉丝",
"titleSummary" : "萧敬腾遭恐吓半年 泼粪主嫌疑富婆粉丝",
"descSummary" : "",
"url" : "http:\/\/go.rss.sina.com.cn\/redirect.php?url=http:\/\/ent.sina.com.cn\/y\/2013-10-30\/04264033072.shtml",
"pubDate" : "昨天04:26:09",
"enterDate" : "384195:59:13",
"channelId" : "-5800791796534076546",
"channelName" : "音乐-要闻",
"channelNameSummary" : "音乐-要闻",
"channelUrl" : "http:\/\/ent.sina.com.cn\/old2013\/music\/index.shtml",
"author" : "WWW.SINA.COM.CN",
"tags" : [],
"desc" : "",
"emailed" : False,
"forwarded" : False,
"english" : False
}  , {
"index" : 3,
"articleIndex" : "48474",
"favor" :  False ,
     "read" : False,    
"title" : "萧敬腾经纪人与富婆粉丝互骂欲提告",
"titleTip" : "萧敬腾经纪人与富婆粉丝互骂欲提告",
"titleSummary" : "萧敬腾经纪人与富婆粉丝互骂欲提告",
"descSummary" : "",
"url" : "http:\/\/go.rss.sina.com.cn\/redirect.php?url=http:\/\/ent.sina.com.cn\/y\/2013-10-30\/04164033056.shtml",
"pubDate" : "昨天04:16:56",
"enterDate" : "384197:50:20",
"channelId" : "-5800791796534076546",
"channelName" : "音乐-要闻",
"channelNameSummary" : "音乐-要闻",
"channelUrl" : "http:\/\/ent.sina.com.cn\/old2013\/music\/index.shtml",
"author" : "WWW.SINA.COM.CN",
"tags" : [],
"desc" : "",
"emailed" : False,
"forwarded" : False,
"english" : False
}  , {
"index" : 4,
"articleIndex" : "48473",
"favor" :  False ,
     "read" : False,    
"title" : "曹格醉酒闹林志颖婚宴 妻携儿女出走",
"titleTip" : "曹格醉酒闹林志颖婚宴 妻携儿女出走",
"titleSummary" : "曹格醉酒闹林志颖婚宴 妻携儿女出走",
"descSummary" : "",
"url" : "http:\/\/go.rss.sina.com.cn\/redirect.php?url=http:\/\/ent.sina.com.cn\/y\/2013-10-30\/04114033055.shtml",
"pubDate" : "昨天04:11:02",
"enterDate" : "384195:44:06",
"channelId" : "-5800791796534076546",
"channelName" : "音乐-要闻",
"channelNameSummary" : "音乐-要闻",
"channelUrl" : "http:\/\/ent.sina.com.cn\/old2013\/music\/index.shtml",
"author" : "WWW.SINA.COM.CN",
"tags" : [],
"desc" : "",
"emailed" : False,
"forwarded" : False,
"english" : False
}  , {
"index" : 5,
"articleIndex" : "48472",
"favor" :  False ,
     "read" : False,    
"title" : "斯威夫特疑换口味恋上真爱如血帅大叔",
"titleTip" : "斯威夫特疑换口味恋上真爱如血帅大叔",
"titleSummary" : "斯威夫特疑换口味恋上真爱如血帅大叔",
"descSummary" : "",
"url" : "http:\/\/go.rss.sina.com.cn\/redirect.php?url=http:\/\/ent.sina.com.cn\/y\/2013-10-30\/02494033053.shtml",
"pubDate" : "昨天02:49:13",
"enterDate" : "384196:22:37",
"channelId" : "-5800791796534076546",
"channelName" : "音乐-要闻",
"channelNameSummary" : "音乐-要闻",
"channelUrl" : "http:\/\/ent.sina.com.cn\/old2013\/music\/index.shtml",
"author" : "WWW.SINA.COM.CN",
"tags" : [],
"desc" : "",
"emailed" : False,
"forwarded" : False,
"english" : False
}  , {
"index" : 6,
"articleIndex" : "48471",
"favor" :  False ,
     "read" : False,    
"title" : "萧敬腾遇袭疑锁定疑犯 歹徒重可判三年",
"titleTip" : "萧敬腾遇袭疑锁定疑犯 歹徒重可判三年",
"titleSummary" : "萧敬腾遇袭疑锁定疑犯 歹徒重可判三年",
"descSummary" : "",
"url" : "http:\/\/go.rss.sina.com.cn\/redirect.php?url=http:\/\/ent.sina.com.cn\/y\/2013-10-30\/02464033052.shtml",
"pubDate" : "昨天02:46:45",
"enterDate" : "384194:19:49",
"channelId" : "-5800791796534076546",
"channelName" : "音乐-要闻",
"channelNameSummary" : "音乐-要闻",
"channelUrl" : "http:\/\/ent.sina.com.cn\/old2013\/music\/index.shtml",
"author" : "WWW.SINA.COM.CN",
"tags" : [],
"desc" : "",
"emailed" : False,
"forwarded" : False,
"english" : False
}  , {
"index" : 7,
"articleIndex" : "48470",
"favor" :  False ,
     "read" : False,    
"title" : "萧敬腾险遭泼粪前被恐吓 经纪人:同一人",
"titleTip" : "萧敬腾险遭泼粪前被恐吓 经纪人:同一人",
"titleSummary" : "萧敬腾险遭泼粪前被恐吓 经纪人:同一人",
"descSummary" : "",
"url" : "http:\/\/go.rss.sina.com.cn\/redirect.php?url=http:\/\/ent.sina.com.cn\/y\/2013-10-30\/01394033038.shtml",
"pubDate" : "昨天01:39:42",
"enterDate" : "384195:13:06",
"channelId" : "-5800791796534076546",
"channelName" : "音乐-要闻",
"channelNameSummary" : "音乐-要闻",
"channelUrl" : "http:\/\/ent.sina.com.cn\/old2013\/music\/index.shtml",
"author" : "WWW.SINA.COM.CN",
"tags" : [],
"desc" : "",
"emailed" : False,
"forwarded" : False,
"english" : False
}  , {
"index" : 8,
"articleIndex" : "48469",
"favor" :  False ,
     "read" : False,    
"title" : "华晨宇合影快男小伙伴 左立夸张吐舌(图)",
"titleTip" : "华晨宇合影快男小伙伴 左立夸张吐舌(图)",
"titleSummary" : "华晨宇合影快男小伙伴 左立夸张吐舌(图)",
"descSummary" : "",
"url" : "http:\/\/go.rss.sina.com.cn\/redirect.php?url=http:\/\/ent.sina.com.cn\/y\/w\/2013-10-30\/00484033030.shtml",
"pubDate" : "昨天00:48:00",
"enterDate" : "384194:21:24",
"channelId" : "-5800791796534076546",
"channelName" : "音乐-要闻",
"channelNameSummary" : "音乐-要闻",
"channelUrl" : "http:\/\/ent.sina.com.cn\/old2013\/music\/index.shtml",
"author" : "WWW.SINA.COM.CN",
"tags" : [],
"desc" : "",
"emailed" : False,
"forwarded" : False,
"english" : False
}  , {
"index" : 9,
"articleIndex" : "48468",
"favor" :  False ,
     "read" : False,    
"title" : "布兰妮歌曲成反恐神器 吓退索马里海盗",
"titleTip" : "布兰妮歌曲成反恐神器 吓退索马里海盗",
"titleSummary" : "布兰妮歌曲成反恐神器 吓退索马里海盗",
"descSummary" : "",
"url" : "http:\/\/go.rss.sina.com.cn\/redirect.php?url=http:\/\/ent.sina.com.cn\/y\/w\/2013-10-30\/00384033028.shtml",
"pubDate" : "昨天00:38:46",
"enterDate" : "384194:12:10",
"channelId" : "-5800791796534076546",
"channelName" : "音乐-要闻",
"channelNameSummary" : "音乐-要闻",
"channelUrl" : "http:\/\/ent.sina.com.cn\/old2013\/music\/index.shtml",
"author" : "WWW.SINA.COM.CN",
"tags" : [],
"desc" : "",
"emailed" : False,
"forwarded" : False,
"english" : False
}  , {
"index" : 10,
"articleIndex" : "48467",
"favor" :  False ,
     "read" : False,    
"title" : "萧敬腾遭电话恐吓3个月 称要讨公道",
"titleTip" : "萧敬腾遭电话恐吓3个月 称要讨公道",
"titleSummary" : "萧敬腾遭电话恐吓3个月 称要讨公道",
"descSummary" : "",
"url" : "http:\/\/go.rss.sina.com.cn\/redirect.php?url=http:\/\/ent.sina.com.cn\/y\/2013-10-30\/00324033027.shtml",
"pubDate" : "昨天00:32:19",
"enterDate" : "384194:05:43",
"channelId" : "-5800791796534076546",
"channelName" : "音乐-要闻",
"channelNameSummary" : "音乐-要闻",
"channelUrl" : "http:\/\/ent.sina.com.cn\/old2013\/music\/index.shtml",
"author" : "WWW.SINA.COM.CN",
"tags" : [],
"desc" : "",
"emailed" : False,
"forwarded" : False,
"english" : False
}  , {
"index" : 11,
"articleIndex" : "48466",
"favor" :  False ,
     "read" : False,    
"title" : "郎朗任联合国大使 杨澜提问遭指发炮呛声",
"titleTip" : "郎朗任联合国大使 杨澜提问遭指发炮呛声",
"titleSummary" : "郎朗任联合国大使 杨澜提问遭指发炮呛声",
"descSummary" : "",
"url" : "http:\/\/go.rss.sina.com.cn\/redirect.php?url=http:\/\/ent.sina.com.cn\/y\/w\/2013-10-30\/00014033013.shtml",
"pubDate" : "昨天00:01:02",
"enterDate" : "384193:34:26",
"channelId" : "-5800791796534076546",
"channelName" : "音乐-要闻",
"channelNameSummary" : "音乐-要闻",
"channelUrl" : "http:\/\/ent.sina.com.cn\/old2013\/music\/index.shtml",
"author" : "WWW.SINA.COM.CN",
"tags" : [],
"desc" : "",
"emailed" : False,
"forwarded" : False,
"english" : False
}  , {
"index" : 12,
"articleIndex" : "48465",
"favor" :  False ,
     "read" : False,    
"title" : "萧敬腾晒和狗狗酷照 轻松回应泼粪事件",
"titleTip" : "萧敬腾晒和狗狗酷照 轻松回应泼粪事件",
"titleSummary" : "萧敬腾晒和狗狗酷照 轻松回应泼粪事件",
"descSummary" : "",
"url" : "http:\/\/go.rss.sina.com.cn\/redirect.php?url=http:\/\/ent.sina.com.cn\/y\/w\/2013-10-29\/21484032990.shtml",
"pubDate" : "昨天21:48:18",
"enterDate" : "384198:52:56",
"channelId" : "-5800791796534076546",
"channelName" : "音乐-要闻",
"channelNameSummary" : "音乐-要闻",
"channelUrl" : "http:\/\/ent.sina.com.cn\/old2013\/music\/index.shtml",
"author" : "WWW.SINA.COM.CN",
"tags" : [],
"desc" : "",
"emailed" : False,
"forwarded" : False,
"english" : False
}  , {
"index" : 13,
"articleIndex" : "48464",
"favor" :  False ,
     "read" : False,    
"title" : "组图：金在中独家专访拍摄花絮曝光",
"titleTip" : "组图：金在中独家专访拍摄花絮曝光",
"titleSummary" : "组图：金在中独家专访拍摄花絮曝光",
"descSummary" : "",
"url" : "http:\/\/go.rss.sina.com.cn\/redirect.php?url=http:\/\/slide.ent.sina.com.cn\/y\/k\/slide_4_704_68361.html",
"pubDate" : "昨天19:20:46",
"enterDate" : "384200:56:10",
"channelId" : "-5800791796534076546",
"channelName" : "音乐-要闻",
"channelNameSummary" : "音乐-要闻",
"channelUrl" : "http:\/\/ent.sina.com.cn\/old2013\/music\/index.shtml",
"author" : "WWW.SINA.COM.CN",
"tags" : [],
"desc" : "",
"emailed" : False,
"forwarded" : False,
"english" : False
}  , {
"index" : 14,
"articleIndex" : "48463",
"favor" :  False ,
     "read" : False,    
"title" : "凯蒂-佩里英国专辑榜夺冠 Lorde单曲登顶",
"titleTip" : "凯蒂-佩里英国专辑榜夺冠 Lorde单曲登顶",
"titleSummary" : "凯蒂-佩里英国专辑榜夺冠 Lorde单曲登顶",
"descSummary" : "",
"url" : "http:\/\/go.rss.sina.com.cn\/redirect.php?url=http:\/\/ent.sina.com.cn\/y\/2013-10-29\/16504032895.shtml",
"pubDate" : "昨天16:50:07",
"enterDate" : "384200:55:56",
"channelId" : "-5800791796534076546",
"channelName" : "音乐-要闻",
"channelNameSummary" : "音乐-要闻",
"channelUrl" : "http:\/\/ent.sina.com.cn\/old2013\/music\/index.shtml",
"author" : "WWW.SINA.COM.CN",
"tags" : [],
"desc" : "",
"emailed" : False,
"forwarded" : False,
"english" : False
}  , {
"index" : 15,
"articleIndex" : "48462",
"favor" :  False ,
     "read" : False,    
"title" : "郎朗被潘基文亲授联合国和平大使称号",
"titleTip" : "郎朗被潘基文亲授联合国和平大使称号",
"titleSummary" : "郎朗被潘基文亲授联合国和平大使称号",
"descSummary" : "",
"url" : "http:\/\/go.rss.sina.com.cn\/redirect.php?url=http:\/\/ent.sina.com.cn\/y\/2013-10-29\/16264032878.shtml",
"pubDate" : "昨天16:26:03",
"enterDate" : "384200:31:52",
"channelId" : "-5800791796534076546",
"channelName" : "音乐-要闻",
"channelNameSummary" : "音乐-要闻",
"channelUrl" : "http:\/\/ent.sina.com.cn\/old2013\/music\/index.shtml",
"author" : "WWW.SINA.COM.CN",
"tags" : [],
"desc" : "",
"emailed" : False,
"forwarded" : False,
"english" : False
}  , {
"index" : 16,
"articleIndex" : "48461",
"favor" :  False ,
     "read" : False,    
"title" : "凯莉-米洛最新年历曝光 天后展百变魅力",
"titleTip" : "凯莉-米洛最新年历曝光 天后展百变魅力",
"titleSummary" : "凯莉-米洛最新年历曝光 天后展百变魅力",
"descSummary" : "",
"url" : "http:\/\/go.rss.sina.com.cn\/redirect.php?url=http:\/\/slide.ent.sina.com.cn\/y\/slide_4_704_68348.html",
"pubDate" : "昨天16:18:51",
"enterDate" : "384200:24:40",
"channelId" : "-5800791796534076546",
"channelName" : "音乐-要闻",
"channelNameSummary" : "音乐-要闻",
"channelUrl" : "http:\/\/ent.sina.com.cn\/old2013\/music\/index.shtml",
"author" : "WWW.SINA.COM.CN",
"tags" : [],
"desc" : "",
"emailed" : False,
"forwarded" : False,
"english" : False
}  , {
"index" : 17,
"articleIndex" : "48460",
"favor" :  False ,
     "read" : False,    
"title" : "萧敬腾怒斥犯案者受钱指使：要让他们后悔",
"titleTip" : "萧敬腾怒斥犯案者受钱指使：要让他们后悔",
"titleSummary" : "萧敬腾怒斥犯案者受钱指使：要让他们后悔",
"descSummary" : "",
"url" : "http:\/\/go.rss.sina.com.cn\/redirect.php?url=http:\/\/ent.sina.com.cn\/y\/2013-10-29\/15224032812.shtml",
"pubDate" : "昨天15:22:33",
"enterDate" : "384200:58:36",
"channelId" : "-5800791796534076546",
"channelName" : "音乐-要闻",
"channelNameSummary" : "音乐-要闻",
"channelUrl" : "http:\/\/ent.sina.com.cn\/old2013\/music\/index.shtml",
"author" : "WWW.SINA.COM.CN",
"tags" : [],
"desc" : "",
"emailed" : False,
"forwarded" : False,
"english" : False
}  , {
"index" : 18,
"articleIndex" : "48459",
"favor" :  False ,
     "read" : False,    
"title" : "司机遭泼粪颤抖说经过 萧敬腾心疼安慰",
"titleTip" : "司机遭泼粪颤抖说经过 萧敬腾心疼安慰",
"titleSummary" : "司机遭泼粪颤抖说经过 萧敬腾心疼安慰",
"descSummary" : "",
"url" : "http:\/\/go.rss.sina.com.cn\/redirect.php?url=http:\/\/ent.sina.com.cn\/y\/2013-10-29\/15174032805.shtml",
"pubDate" : "昨天15:17:01",
"enterDate" : "384200:53:04",
"channelId" : "-5800791796534076546",
"channelName" : "音乐-要闻",
"channelNameSummary" : "音乐-要闻",
"channelUrl" : "http:\/\/ent.sina.com.cn\/old2013\/music\/index.shtml",
"author" : "WWW.SINA.COM.CN",
"tags" : [],
"desc" : "",
"emailed" : False,
"forwarded" : False,
"english" : False
}  , {
"index" : 19,
"articleIndex" : "48458",
"favor" :  False ,
     "read" : False,    
"title" : "萧敬腾称做事清白不惧恐吓 已请全天保镖",
"titleTip" : "萧敬腾称做事清白不惧恐吓 已请全天保镖",
"titleSummary" : "萧敬腾称做事清白不惧恐吓 已请全天保镖",
"descSummary" : "",
"url" : "http:\/\/go.rss.sina.com.cn\/redirect.php?url=http:\/\/ent.sina.com.cn\/y\/2013-10-29\/14204032749.shtml",
"pubDate" : "昨天14:20:50",
"enterDate" : "384200:57:03",
"channelId" : "-5800791796534076546",
"channelName" : "音乐-要闻",
"channelNameSummary" : "音乐-要闻",
"channelUrl" : "http:\/\/ent.sina.com.cn\/old2013\/music\/index.shtml",
"author" : "WWW.SINA.COM.CN",
"tags" : [],
"desc" : "",
"emailed" : False,
"forwarded" : False,
"english" : False
} ]
}
