{
"mode" : {"viewTitle" : 1,   "viewNew" : 0,  "pageIndex" : 1 },
 "channel" : {"id" : "-3630544144873542209", "booked" : False, "subNumber" : 9254, "name" : "NBA新闻-新浪体育", "url" : "http:\/\/sports.sina.com.cn\/nba\/index.shtml", "feed" : "http:\/\/rss.sina.com.cn\/sports\/basketball\/nba.xml", "author" : "WWW.SINA.COM.CN", "desc" : "篮球-NBA新闻", "imageUrl" : "", "postPerWeek" : "453", "lastCrawTime" : "16:52:51", "crawDateTime" : "16:52:51", "lastHttpCode" : "200"}, "page" : {
"startIndex" : 0,
"totalCount" : 5000,
"pageIndex" : 1,
"lastPage" : 250,
"pageSize" : 20,
"english" :  False },
 "unreadNum" : 0, "shotIndex" : -1,
"articles" : [
{
"index" : 0,
"articleIndex" : "143628",
"favor" :  False ,
     "read" : False,    
"title" : "预告-31日10:30视频播湖人vs勇士 紫金军迎背靠背",
"titleTip" : "预告-31日10:30视频播湖人vs勇士 紫金军迎背靠背",
"titleSummary" : "预告-31日10:30视频播湖人vs勇士 紫金军迎背靠背",
"descSummary" : "北京时间10月31日10:30，新浪体育将为您视频直播洛...",
"url" : "http:\/\/go.rss.sina.com.cn\/redirect.php?url=http:\/\/sports.sina.com.cn\/nba\/2013-10-30\/16236858695.shtml",
"pubDate" : "16:23:54",
"enterDate" : "384200:51:11",
"channelId" : "-3630544144873542209",
"channelName" : "NBA新闻-新浪体育",
"channelNameSummary" : "NBA新闻-新浪体育",
"channelUrl" : "http:\/\/sports.sina.com.cn\/nba\/index.shtml",
"author" : "WWW.SINA.COM.CN",
"tags" : [],
"desc" : "北京时间10月31日10:30，新浪体育将为您视频直播洛杉矶湖人[微博]客场大战金州勇士的比赛。 刚刚结束揭幕战的湖人，与快船[微博]上演了一场精彩的对决。借助于替补神将们的惊艳表现，缺少了绝对核心科比[微博]-布莱恩特的湖人赢得了这场看似\u201C意外\u201D的胜利。揭幕战力克....",
"emailed" : False,
"forwarded" : False,
"english" : False
}  , {
"index" : 1,
"articleIndex" : "143627",
"favor" :  False ,
     "read" : False,    
"title" : "湖人vs勇士前瞻:萌神别小瞧紫金 背靠背湖人还得拼",
"titleTip" : "湖人vs勇士前瞻:萌神别小瞧紫金 背靠背湖人还得拼",
"titleSummary" : "湖人vs勇士前瞻:萌神别小瞧紫金 背靠背湖人还得拼",
"descSummary" : "北京时间10月30日，洛杉矶湖人[微博]用胜利开启新赛...",
"url" : "http:\/\/go.rss.sina.com.cn\/redirect.php?url=http:\/\/sports.sina.com.cn\/nba\/2013-10-30\/16026858686.shtml",
"pubDate" : "16:02:24",
"enterDate" : "384200:59:46",
"channelId" : "-3630544144873542209",
"channelName" : "NBA新闻-新浪体育",
"channelNameSummary" : "NBA新闻-新浪体育",
"channelUrl" : "http:\/\/sports.sina.com.cn\/nba\/index.shtml",
"author" : "WWW.SINA.COM.CN",
"tags" : [],
"desc" : "北京时间10月30日，洛杉矶湖人[微博]用胜利开启新赛季，明天他们将做客挑战金州勇士，替补阵容的发挥将在很大程度上影响湖人的做客前景，他们的防守将经受库里[微博][微博]、汤普森等人的考验，勇士自然希望在家门口擒下湖人赢得赛季头彩。 现在这支湖人能够在揭幕战中....",
"emailed" : False,
"forwarded" : False,
"english" : False
}  , {
"index" : 2,
"articleIndex" : "143626",
"favor" :  False ,
     "read" : False,    
"title" : "公牛惨败别只怪罗斯",
"titleTip" : "公牛惨败别只怪罗斯",
"titleSummary" : "公牛惨败别只怪罗斯",
"descSummary" : "经过107天的漫长等待，NBA大幕终于再度开启。今天共有6支球队亮相，热火[微博...",
"url" : "http:\/\/go.rss.sina.com.cn\/redirect.php?url=http:\/\/sports.sina.com.cn\/nba\/2013-10-30\/15516858667.shtml",
"pubDate" : "15:51:46",
"enterDate" : "384200:49:08",
"channelId" : "-3630544144873542209",
"channelName" : "NBA新闻-新浪体育",
"channelNameSummary" : "NBA新闻-新浪体育",
"channelUrl" : "http:\/\/sports.sina.com.cn\/nba\/index.shtml",
"author" : "WWW.SINA.COM.CN",
"tags" : [],
"desc" : "经过107天的漫长等待，NBA大幕终于再度开启。今天共有6支球队亮相，热火[微博]和湖人[微博]赢得各自的焦点之战。比结果更令人意外的可能是过程\u2015\u2015\u201C替补\u201D成了首日最亮眼的关键词。和湖人替补令人意外的爆发不同，公牛被热火的第二阵容打爆更多是自己的问题。除了罗斯遭遇重....",
"emailed" : False,
"forwarded" : False,
"english" : False
}  , {
"index" : 3,
"articleIndex" : "143625",
"favor" :  False ,
     "read" : False,    
"title" : "22+6湖人功臣先谢紫金死忠 科比:愿为球队改变打法",
"titleTip" : "22+6湖人功臣先谢紫金死忠 科比:愿为球队改变打法",
"titleSummary" : "22+6湖人功臣先谢紫金死忠 科比:愿为球队改变打法",
"descSummary" : "北京时间10月30日，洛杉矶湖人[微博]用德比战的胜利...",
"url" : "http:\/\/go.rss.sina.com.cn\/redirect.php?url=http:\/\/sports.sina.com.cn\/nba\/2013-10-30\/15096858643.shtml",
"pubDate" : "15:09:44",
"enterDate" : "384201:07:16",
"channelId" : "-3630544144873542209",
"channelName" : "NBA新闻-新浪体育",
"channelNameSummary" : "NBA新闻-新浪体育",
"channelUrl" : "http:\/\/sports.sina.com.cn\/nba\/index.shtml",
"author" : "WWW.SINA.COM.CN",
"tags" : [],
"desc" : "北京时间10月30日，洛杉矶湖人[微博]用德比战的胜利拿到赛季开门红，主帅麦克-德安东尼很满意球队的化学变化，赢球功臣之一的泽维尔-亨利则感谢了球迷们对自己的支持。 虽然没有了霍华德，科比[微博]也休战，但湖人却在场上打得更为团结，尤其是替补阵容打出了鲜有的活....",
"emailed" : False,
"forwarded" : False,
"english" : False
}  , {
"index" : 4,
"articleIndex" : "143624",
"favor" :  False ,
     "read" : False,    
"title" : "视频-30日官方10佳球 罗斯蝴蝶穿花神兽呼啸空接",
"titleTip" : "视频-30日官方10佳球 罗斯蝴蝶穿花神兽呼啸空接",
"titleSummary" : "视频-30日官方10佳球 罗斯蝴蝶穿花神兽呼啸空接",
"descSummary" : "北京时间10月30日，NBA官方评出了今日比赛10佳球。...",
"url" : "http:\/\/go.rss.sina.com.cn\/redirect.php?url=http:\/\/video.sina.com.cn\/p\/sports\/k\/v\/2013-10-30\/150863083809.html",
"pubDate" : "15:08:05",
"enterDate" : "384201:05:37",
"channelId" : "-3630544144873542209",
"channelName" : "NBA新闻-新浪体育",
"channelNameSummary" : "NBA新闻-新浪体育",
"channelUrl" : "http:\/\/sports.sina.com.cn\/nba\/index.shtml",
"author" : "WWW.SINA.COM.CN",
"tags" : [],
"desc" : "北京时间10月30日，NBA官方评出了今日比赛10佳球。泡椒干拔压哨3分；乔丹力压卡曼空接；乔治追身钉板大帽；希伯特封盖劈头盖脸；米克斯突破上篮2+1；詹皇连线鸟人指挥若定；罗斯突破犹如蝴蝶穿花；格里芬空接呼啸而至；湖人小将暴扣一飞冲天。 以上为相关视频。",
"emailed" : False,
"forwarded" : False,
"english" : False
}  , {
"index" : 5,
"articleIndex" : "143623",
"favor" :  False ,
     "read" : False,    
"title" : "视频-30日官方最佳抢断 小查断罗斯助哈队怒扣",
"titleTip" : "视频-30日官方最佳抢断 小查断罗斯助哈队怒扣",
"titleSummary" : "视频-30日官方最佳抢断 小查断罗斯助哈队怒扣",
"descSummary" : "北京时间10月30日，NBA常规赛火热开幕。热火迎战公牛...",
"url" : "http:\/\/go.rss.sina.com.cn\/redirect.php?url=http:\/\/video.sina.com.cn\/p\/sports\/k\/v\/2013-10-30\/150863083805.html",
"pubDate" : "15:08:00",
"enterDate" : "384201:05:32",
"channelId" : "-3630544144873542209",
"channelName" : "NBA新闻-新浪体育",
"channelNameSummary" : "NBA新闻-新浪体育",
"channelUrl" : "http:\/\/sports.sina.com.cn\/nba\/index.shtml",
"author" : "WWW.SINA.COM.CN",
"tags" : [],
"desc" : "北京时间10月30日，NBA常规赛火热开幕。热火迎战公牛，比赛中，查尔莫斯抢断罗斯后助攻哈斯勒姆扣篮得分。当选为今日最佳抢断。 以上为相关视频。",
"emailed" : False,
"forwarded" : False,
"english" : False
}  , {
"index" : 6,
"articleIndex" : "143622",
"favor" :  False ,
     "read" : False,    
"title" : "视频-30日官方最佳球员 乔治投中新赛季首球24分",
"titleTip" : "视频-30日官方最佳球员 乔治投中新赛季首球24分",
"titleSummary" : "视频-30日官方最佳球员 乔治投中新赛季首球24分",
"descSummary" : "北京时间10月30日，NBA2013-14赛季常规赛开打，步行...",
"url" : "http:\/\/go.rss.sina.com.cn\/redirect.php?url=http:\/\/video.sina.com.cn\/p\/sports\/k\/v\/2013-10-30\/150263083793.html",
"pubDate" : "15:02:22",
"enterDate" : "384200:59:54",
"channelId" : "-3630544144873542209",
"channelName" : "NBA新闻-新浪体育",
"channelNameSummary" : "NBA新闻-新浪体育",
"channelUrl" : "http:\/\/sports.sina.com.cn\/nba\/index.shtml",
"author" : "WWW.SINA.COM.CN",
"tags" : [],
"desc" : "北京时间10月30日，NBA2013-14赛季常规赛开打，步行者打响第一炮，在主场以97-87击败了魔术。保罗-乔治投中了新赛季的第一球，全场贡献24分、6个篮板和5次助攻，当选今日最佳球员。 以上为相关视频。",
"emailed" : False,
"forwarded" : False,
"english" : False
}  , {
"index" : 7,
"articleIndex" : "143621",
"favor" :  False ,
     "read" : False,    
"title" : "里弗斯:湖人像打总决赛 格里芬:没科比也不是烂队",
"titleTip" : "里弗斯:湖人像打总决赛 格里芬:没科比也不是烂队",
"titleSummary" : "里弗斯:湖人像打总决赛 格里芬:没科比也不是烂队",
"descSummary" : "北京时间10月30日(洛杉矶时间10月29日)，NBA新赛季大...",
"url" : "http:\/\/go.rss.sina.com.cn\/redirect.php?url=http:\/\/sports.sina.com.cn\/nba\/2013-10-30\/14586858591.shtml",
"pubDate" : "14:58:08",
"enterDate" : "384200:55:40",
"channelId" : "-3630544144873542209",
"channelName" : "NBA新闻-新浪体育",
"channelNameSummary" : "NBA新闻-新浪体育",
"channelUrl" : "http:\/\/sports.sina.com.cn\/nba\/index.shtml",
"author" : "WWW.SINA.COM.CN",
"tags" : [],
"desc" : "北京时间10月30日(洛杉矶时间10月29日)，NBA新赛季大幕揭开，饱受轻视的湖人主场116-103击败快船迎来开门红。湖人证明即使没有科比-布莱恩特，他们也不会放弃战斗。 \u201C我们就是没准备好这场比赛，我不知道我们是不是有些自满了，过去两个月，我们听到了太多快船会如何....",
"emailed" : False,
"forwarded" : False,
"english" : False
}  , {
"index" : 8,
"articleIndex" : "143620",
"favor" :  False ,
     "read" : False,    
"title" : "视频-30日官方最佳盖帽 希伯特篮下捍卫凌空",
"titleTip" : "视频-30日官方最佳盖帽 希伯特篮下捍卫凌空",
"titleSummary" : "视频-30日官方最佳盖帽 希伯特篮下捍卫凌空",
"descSummary" : "北京时间10月30日，NBA常规赛正式开赛。步行者迎战魔术...",
"url" : "http:\/\/go.rss.sina.com.cn\/redirect.php?url=http:\/\/video.sina.com.cn\/p\/sports\/k\/v\/2013-10-30\/145763083779.html",
"pubDate" : "14:57:43",
"enterDate" : "384200:55:15",
"channelId" : "-3630544144873542209",
"channelName" : "NBA新闻-新浪体育",
"channelNameSummary" : "NBA新闻-新浪体育",
"channelUrl" : "http:\/\/sports.sina.com.cn\/nba\/index.shtml",
"author" : "WWW.SINA.COM.CN",
"tags" : [],
"desc" : "北京时间10月30日，NBA常规赛正式开赛。步行者迎战魔术，比赛中，希伯特蹲守篮下送出暴力火锅。当选为今日最佳盖帽。 以上为相关视频。",
"emailed" : False,
"forwarded" : False,
"english" : False
}  , {
"index" : 9,
"articleIndex" : "143619",
"favor" :  False ,
     "read" : False,    
"title" : "视频-30日官方最佳扣篮 格里芬空接挂筐俾睨众生",
"titleTip" : "视频-30日官方最佳扣篮 格里芬空接挂筐俾睨众生",
"titleSummary" : "视频-30日官方最佳扣篮 格里芬空接挂筐俾睨众生",
"descSummary" : "北京时间10月30日，NBA官方评出了今日比赛各项最佳...",
"url" : "http:\/\/go.rss.sina.com.cn\/redirect.php?url=http:\/\/video.sina.com.cn\/p\/sports\/k\/v\/2013-10-30\/145463083771.html",
"pubDate" : "14:54:32",
"enterDate" : "384200:52:04",
"channelId" : "-3630544144873542209",
"channelName" : "NBA新闻-新浪体育",
"channelNameSummary" : "NBA新闻-新浪体育",
"channelUrl" : "http:\/\/sports.sina.com.cn\/nba\/index.shtml",
"author" : "WWW.SINA.COM.CN",
"tags" : [],
"desc" : "北京时间10月30日，NBA官方评出了今日比赛各项最佳。格里芬一记精彩空中接力暴扣当选今日最佳扣篮。 以上为相关视频。",
"emailed" : False,
"forwarded" : False,
"english" : False
}  , {
"index" : 10,
"articleIndex" : "143618",
"favor" :  False ,
     "read" : False,    
"title" : "视频-湖人末节上演恐怖一波流 三分如雨击沉快船",
"titleTip" : "视频-湖人末节上演恐怖一波流 三分如雨击沉快船",
"titleSummary" : "视频-湖人末节上演恐怖一波流 三分如雨击沉快船",
"descSummary" : "北京时间10月30日，NBA新赛季拉开大幕，快船湖人上...",
"url" : "http:\/\/go.rss.sina.com.cn\/redirect.php?url=http:\/\/video.sina.com.cn\/p\/sports\/k\/v\/2013-10-30\/145363083765.html",
"pubDate" : "14:53:30",
"enterDate" : "384200:51:02",
"channelId" : "-3630544144873542209",
"channelName" : "NBA新闻-新浪体育",
"channelNameSummary" : "NBA新闻-新浪体育",
"channelUrl" : "http:\/\/sports.sina.com.cn\/nba\/index.shtml",
"author" : "WWW.SINA.COM.CN",
"tags" : [],
"desc" : "北京时间10月30日，NBA新赛季拉开大幕，快船湖人上演同城德比。湖人在第四节三分如雨上演恐怖一波流，凭借单节41-24的攻击波一举击沉快船。以上为相关视频。",
"emailed" : False,
"forwarded" : False,
"english" : False
}  , {
"index" : 11,
"articleIndex" : "143617",
"favor" :  False ,
     "read" : False,    
"title" : "视频-30日官方最佳得分 湖人小将暴扣一飞冲天",
"titleTip" : "视频-30日官方最佳得分 湖人小将暴扣一飞冲天",
"titleSummary" : "视频-30日官方最佳得分 湖人小将暴扣一飞冲天",
"descSummary" : "北京时间10月30日，NBA官方评出了今日比赛各项最佳。...",
"url" : "http:\/\/go.rss.sina.com.cn\/redirect.php?url=http:\/\/video.sina.com.cn\/p\/sports\/k\/v\/2013-10-30\/145063083757.html",
"pubDate" : "14:50:19",
"enterDate" : "384201:17:55",
"channelId" : "-3630544144873542209",
"channelName" : "NBA新闻-新浪体育",
"channelNameSummary" : "NBA新闻-新浪体育",
"channelUrl" : "http:\/\/sports.sina.com.cn\/nba\/index.shtml",
"author" : "WWW.SINA.COM.CN",
"tags" : [],
"desc" : "北京时间10月30日，NBA官方评出了今日比赛各项最佳。湖人队小将泽维尔-亨利在比赛中一记精彩暴扣当选今日最佳得分。 以上为相关视频。",
"emailed" : False,
"forwarded" : False,
"english" : False
}  , {
"index" : 12,
"articleIndex" : "143616",
"favor" :  False ,
     "read" : False,    
"title" : "视频-30日官方综述 湖人逆转快船热火灭公牛",
"titleTip" : "视频-30日官方综述 湖人逆转快船热火灭公牛",
"titleSummary" : "视频-30日官方综述 湖人逆转快船热火灭公牛",
"descSummary" : "北京时间10月30日，13-14赛季正式拉开帷幕。热火大胜公牛...",
"url" : "http:\/\/go.rss.sina.com.cn\/redirect.php?url=http:\/\/video.sina.com.cn\/p\/sports\/k\/v\/2013-10-30\/144963083751.html",
"pubDate" : "14:49:34",
"enterDate" : "384201:17:10",
"channelId" : "-3630544144873542209",
"channelName" : "NBA新闻-新浪体育",
"channelNameSummary" : "NBA新闻-新浪体育",
"channelUrl" : "http:\/\/sports.sina.com.cn\/nba\/index.shtml",
"author" : "WWW.SINA.COM.CN",
"tags" : [],
"desc" : "北京时间10月30日，13-14赛季正式拉开帷幕。热火大胜公牛，湖人逆转快船，步行者胜魔术。 以上为相关视频。",
"emailed" : False,
"forwarded" : False,
"english" : False
}  , {
"index" : 13,
"articleIndex" : "143615",
"favor" :  False ,
     "read" : False,    
"title" : "视频-30日官方最佳助攻 詹皇指挥若定大将风度",
"titleTip" : "视频-30日官方最佳助攻 詹皇指挥若定大将风度",
"titleSummary" : "视频-30日官方最佳助攻 詹皇指挥若定大将风度",
"descSummary" : "北京时间10月31日，NBA官方评出了今日比赛各项最佳。...",
"url" : "http:\/\/go.rss.sina.com.cn\/redirect.php?url=http:\/\/video.sina.com.cn\/p\/sports\/k\/v\/2013-10-30\/144463083743.html",
"pubDate" : "14:44:30",
"enterDate" : "384201:12:06",
"channelId" : "-3630544144873542209",
"channelName" : "NBA新闻-新浪体育",
"channelNameSummary" : "NBA新闻-新浪体育",
"channelUrl" : "http:\/\/sports.sina.com.cn\/nba\/index.shtml",
"author" : "WWW.SINA.COM.CN",
"tags" : [],
"desc" : "北京时间10月31日，NBA官方评出了今日比赛各项最佳。詹姆斯三分弧顶指挥若定，招呼队友跑位送出绝妙传球，此球当选今日最佳助攻。 以上为相关视频。",
"emailed" : False,
"forwarded" : False,
"english" : False
}  , {
"index" : 14,
"articleIndex" : "143614",
"favor" :  False ,
     "read" : False,    
"title" : "视频集锦-紫金替补狂砍76分 湖人3分雨逆转快船",
"titleTip" : "视频集锦-紫金替补狂砍76分 湖人3分雨逆转快船",
"titleSummary" : "视频集锦-紫金替补狂砍76分 湖人3分雨逆转快船",
"descSummary" : "北京时间10月30日，NBA2013-14赛季正式拉开大幕，在...",
"url" : "http:\/\/go.rss.sina.com.cn\/redirect.php?url=http:\/\/video.sina.com.cn\/p\/sports\/k\/v\/2013-10-30\/143463083721.html",
"pubDate" : "14:34:37",
"enterDate" : "384201:02:13",
"channelId" : "-3630544144873542209",
"channelName" : "NBA新闻-新浪体育",
"channelNameSummary" : "NBA新闻-新浪体育",
"channelUrl" : "http:\/\/sports.sina.com.cn\/nba\/index.shtml",
"author" : "WWW.SINA.COM.CN",
"tags" : [],
"desc" : "北京时间10月30日，NBA2013-14赛季正式拉开大幕，在第一天的比赛中，洛杉矶德比压阵，湖人[微博]最后一节发力，以116-103击败了快船。 湖人最后一节以41-24大胜，一举翻盘。保罗-加索尔拿下15分13个篮板，尼克-杨13分，史蒂夫-纳什3分5次助攻。替补出场的泽维尔-亨利得....",
"emailed" : False,
"forwarded" : False,
"english" : False
}  , {
"index" : 15,
"articleIndex" : "143613",
"favor" :  False ,
     "read" : False,    
"title" : "1战超上赛季!湖人甩掉0-4之耻 ESPN首日两遭打脸",
"titleTip" : "1战超上赛季!湖人甩掉0-4之耻 ESPN首日两遭打脸",
"titleSummary" : "1战超上赛季!湖人甩掉0-4之耻 ESPN首日两遭打脸",
"descSummary" : "北京时间10月30日，NBA首个常规赛比赛日就充满激...",
"url" : "http:\/\/go.rss.sina.com.cn\/redirect.php?url=http:\/\/sports.sina.com.cn\/nba\/2013-10-30\/14276858487.shtml",
"pubDate" : "14:27:21",
"enterDate" : "384200:54:57",
"channelId" : "-3630544144873542209",
"channelName" : "NBA新闻-新浪体育",
"channelNameSummary" : "NBA新闻-新浪体育",
"channelUrl" : "http:\/\/sports.sina.com.cn\/nba\/index.shtml",
"author" : "WWW.SINA.COM.CN",
"tags" : [],
"desc" : "北京时间10月30日，NBA首个常规赛比赛日就充满激情，在热火[微博]没怎么费力就拿下号称东部最强对手的公牛之后，湖人[微博]结结实实上演了一场逆袭，他们在极不被看好的情况下以13分优势击败西部热门快船[微博]，让这个赛季从一开始就充满了\u201C寒意\u201D。 霍华德出走，科....",
"emailed" : False,
"forwarded" : False,
"english" : False
}  , {
"index" : 16,
"articleIndex" : "143612",
"favor" :  False ,
     "read" : False,    
"title" : "视频-快船vs湖人5佳球 小将战斧神兽呼啸空接",
"titleTip" : "视频-快船vs湖人5佳球 小将战斧神兽呼啸空接",
"titleSummary" : "视频-快船vs湖人5佳球 小将战斧神兽呼啸空接",
"descSummary" : "北京时间10月30日，NBA常规赛湖人主场迎战快船。米克...",
"url" : "http:\/\/go.rss.sina.com.cn\/redirect.php?url=http:\/\/video.sina.com.cn\/p\/sports\/k\/v\/2013-10-30\/142363083699.html",
"pubDate" : "14:23:11",
"enterDate" : "384200:50:47",
"channelId" : "-3630544144873542209",
"channelName" : "NBA新闻-新浪体育",
"channelNameSummary" : "NBA新闻-新浪体育",
"channelUrl" : "http:\/\/sports.sina.com.cn\/nba\/index.shtml",
"author" : "WWW.SINA.COM.CN",
"tags" : [],
"desc" : "北京时间10月30日，NBA常规赛湖人主场迎战快船。米克斯内突破2+1；空接之城如约而至；小乔丹补扣+空接表现抢眼；湖人三线快攻怒扣；格里芬空接呼啸而至。 以上为本场比赛5佳球。",
"emailed" : False,
"forwarded" : False,
"english" : False
}  , {
"index" : 17,
"articleIndex" : "143611",
"favor" :  False ,
     "read" : False,    
"title" : "湖人大胜别忘了禁区那根轴 15+13+4最常规武器是他",
"titleTip" : "湖人大胜别忘了禁区那根轴 15+13+4最常规武器是他",
"titleSummary" : "湖人大胜别忘了禁区那根轴 15+13+4最常规武器是他",
"descSummary" : "北京时间10月30日，科比[微博]-布莱恩特伤势未愈...",
"url" : "http:\/\/go.rss.sina.com.cn\/redirect.php?url=http:\/\/sports.sina.com.cn\/nba\/2013-10-30\/14156858475.shtml",
"pubDate" : "14:15:14",
"enterDate" : "384201:12:55",
"channelId" : "-3630544144873542209",
"channelName" : "NBA新闻-新浪体育",
"channelNameSummary" : "NBA新闻-新浪体育",
"channelUrl" : "http:\/\/sports.sina.com.cn\/nba\/index.shtml",
"author" : "WWW.SINA.COM.CN",
"tags" : [],
"desc" : "北京时间10月30日，科比[微博]-布莱恩特伤势未愈休战，史蒂夫-纳什[微博]的身体也没有完全恢复，洛杉矶湖人[微博]的领袖重担落在了保罗-加索尔身上。西班牙人没有让人们失望，正是他用开场的不俗表现为球队打好开局，他用两双充分展现了自我价值。 在不到25分钟的时间....",
"emailed" : False,
"forwarded" : False,
"english" : False
}  , {
"index" : 18,
"articleIndex" : "143610",
"favor" :  False ,
     "read" : False,    
"title" : "LA飘起3分雨!湖人新杀招逆袭 这才是德安东尼最爱",
"titleTip" : "LA飘起3分雨!湖人新杀招逆袭 这才是德安东尼最爱",
"titleSummary" : "LA飘起3分雨!湖人新杀招逆袭 这才是德安东尼最爱",
"descSummary" : "北京时间10月30日，新赛季NBA揭幕日，湖人[微博]主...",
"url" : "http:\/\/go.rss.sina.com.cn\/redirect.php?url=http:\/\/sports.sina.com.cn\/nba\/2013-10-30\/14076858467.shtml",
"pubDate" : "14:07:06",
"enterDate" : "384201:04:47",
"channelId" : "-3630544144873542209",
"channelName" : "NBA新闻-新浪体育",
"channelNameSummary" : "NBA新闻-新浪体育",
"channelUrl" : "http:\/\/sports.sina.com.cn\/nba\/index.shtml",
"author" : "WWW.SINA.COM.CN",
"tags" : [],
"desc" : "北京时间10月30日，新赛季NBA揭幕日，湖人[微博]主场116-103战胜快船[微博]，拿下洛城德比，同时也为新赛季开了个好头。湖人替补全场爆红，新援泽维尔-亨利拿下全场最高的22分。当然说到取胜法宝，除了替补阵容的给力之外，全队29投14中的三分球，也成为浇灭快船的另一大利器....",
"emailed" : False,
"forwarded" : False,
"english" : False
}  , {
"index" : 19,
"articleIndex" : "143609",
"favor" :  False ,
     "read" : False,    
"title" : "洛城疯狂夜湖人第1板匪 大帝!22+6+2穿紫金的哈登",
"titleTip" : "洛城疯狂夜湖人第1板匪 大帝!22+6+2穿紫金的哈登",
"titleSummary" : "洛城疯狂夜湖人第1板匪 大帝!22+6+2穿紫金的哈登",
"descSummary" : "北京时间10月30日，洛杉矶湖人[微博]意外赢得赛季开...",
"url" : "http:\/\/go.rss.sina.com.cn\/redirect.php?url=http:\/\/sports.sina.com.cn\/nba\/2013-10-30\/14006858462.shtml",
"pubDate" : "14:00:45",
"enterDate" : "384200:58:26",
"channelId" : "-3630544144873542209",
"channelName" : "NBA新闻-新浪体育",
"channelNameSummary" : "NBA新闻-新浪体育",
"channelUrl" : "http:\/\/sports.sina.com.cn\/nba\/index.shtml",
"author" : "WWW.SINA.COM.CN",
"tags" : [],
"desc" : "北京时间10月30日，洛杉矶湖人[微博]意外赢得赛季开门红，他们的替补阵容在这场洛城德比战中让人大吃一惊，而替补的领军人物莫过于哈维-亨利。这位拿到训练营邀请合同加盟湖人的球员用生涯得分新高带领球队获胜，他堪称\u201C穷人版的哈登\u201D。 \u201C亨利大帝\u201D在本场揭幕战中....",
"emailed" : False,
"forwarded" : False,
"english" : False
} ]
}
