{
"mode" : {"viewTitle" : 1,   "viewNew" : 0,  "pageIndex" : 2 },
 "channel" : {"id" : "-3630544144873542209", "booked" : False, "subNumber" : 9254, "name" : "NBA新闻-新浪体育", "url" : "http:\/\/sports.sina.com.cn\/nba\/index.shtml", "feed" : "http:\/\/rss.sina.com.cn\/sports\/basketball\/nba.xml", "author" : "WWW.SINA.COM.CN", "desc" : "篮球-NBA新闻", "imageUrl" : "", "postPerWeek" : "453", "lastCrawTime" : "16:52:51", "crawDateTime" : "16:52:51", "lastHttpCode" : "200"}, "page" : {
"startIndex" : 20,
"totalCount" : 5000,
"pageIndex" : 2,
"lastPage" : 250,
"pageSize" : 20,
"english" :  False },
 "unreadNum" : 0, "shotIndex" : -1,
"articles" : [
{
"index" : 0,
"articleIndex" : "143608",
"favor" :  False ,
     "read" : False,    
"title" : "湖人板凳旋风!末节41分爆保罗 20年最差首发?不怕!",
"titleTip" : "湖人板凳旋风!末节41分爆保罗 20年最差首发?不怕!",
"titleSummary" : "湖人板凳旋风!末节41分爆保罗 20年最差首发?不怕!",
"descSummary" : "北京时间10月30日，NBA新赛季常规赛拉开大幕，首...",
"url" : "http:\/\/go.rss.sina.com.cn\/redirect.php?url=http:\/\/sports.sina.com.cn\/nba\/2013-10-30\/13576858460.shtml",
"pubDate" : "13:57:21",
"enterDate" : "384200:55:02",
"channelId" : "-3630544144873542209",
"channelName" : "NBA新闻-新浪体育",
"channelNameSummary" : "NBA新闻-新浪体育",
"channelUrl" : "http:\/\/sports.sina.com.cn\/nba\/index.shtml",
"author" : "WWW.SINA.COM.CN",
"tags" : [],
"desc" : "北京时间10月30日，NBA新赛季常规赛拉开大幕，首个比赛日就有\u201C冷门\u201D爆出，缺少当家球星科比[微博]-布莱恩特的湖人[微博]，在洛城德比中以13分的优势大胜快船[微博]。在一片看衰的声音中，紫金军用这样一种方式开始新赛季的征程，着实出人意料。 过去很长一段时间，湖....",
"emailed" : False,
"forwarded" : False,
"english" : False
}  , {
"index" : 1,
"articleIndex" : "143607",
"favor" :  False ,
     "read" : False,    
"title" : "5胜0负!没科比的湖人惹不起 大冷啊西部12灭第2",
"titleTip" : "5胜0负!没科比的湖人惹不起 大冷啊西部12灭第2",
"titleSummary" : "5胜0负!没科比的湖人惹不起 大冷啊西部12灭第2",
"descSummary" : "北京时间10月30日，几乎所有人都不看好洛杉矶湖人[微...",
"url" : "http:\/\/go.rss.sina.com.cn\/redirect.php?url=http:\/\/sports.sina.com.cn\/nba\/2013-10-30\/13366858455.shtml",
"pubDate" : "13:36:58",
"enterDate" : "384201:04:44",
"channelId" : "-3630544144873542209",
"channelName" : "NBA新闻-新浪体育",
"channelNameSummary" : "NBA新闻-新浪体育",
"channelUrl" : "http:\/\/sports.sina.com.cn\/nba\/index.shtml",
"author" : "WWW.SINA.COM.CN",
"tags" : [],
"desc" : "北京时间10月30日，几乎所有人都不看好洛杉矶湖人[微博]本赛季的前景，甚至人们都在猜测他们会以几连败开季。可是在揭幕战中，没有科比[微博]的湖人却让所有人大吃一惊，依靠替补阵容和三分球的神勇表现，湖人成功掀翻快船[微博]拿到赛季开门红。在科比缺阵的情况下，湖人在赛....",
"emailed" : False,
"forwarded" : False,
"english" : False
}  , {
"index" : 2,
"articleIndex" : "143606",
"favor" :  False ,
     "read" : False,    
"title" : "视频-龙王再现招牌动作！詹皇采访波什背后抢镜",
"titleTip" : "视频-龙王再现招牌动作！詹皇采访波什背后抢镜",
"titleSummary" : "视频-龙王再现招牌动作！詹皇采访波什背后抢镜",
"descSummary" : "北京时间10月30日消息，NBA2013-14赛季开打，卫冕冠...",
"url" : "http:\/\/go.rss.sina.com.cn\/redirect.php?url=http:\/\/video.sina.com.cn\/p\/sports\/k\/v\/2013-10-30\/132963083625.html",
"pubDate" : "13:29:27",
"enterDate" : "384200:57:13",
"channelId" : "-3630544144873542209",
"channelName" : "NBA新闻-新浪体育",
"channelNameSummary" : "NBA新闻-新浪体育",
"channelUrl" : "http:\/\/sports.sina.com.cn\/nba\/index.shtml",
"author" : "WWW.SINA.COM.CN",
"tags" : [],
"desc" : "北京时间10月30日消息，NBA2013-14赛季开打，卫冕冠军在主场以107-95击败了公牛。赛后詹姆斯接受采访时，波什又在背后抢镜了起来。 以上为相关视频。",
"emailed" : False,
"forwarded" : False,
"english" : False
}  , {
"index" : 3,
"articleIndex" : "143605",
"favor" :  False ,
     "read" : False,    
"title" : "视频-希伯特狂野7帽实录 自家城池岂容他人侵犯",
"titleTip" : "视频-希伯特狂野7帽实录 自家城池岂容他人侵犯",
"titleSummary" : "视频-希伯特狂野7帽实录 自家城池岂容他人侵犯",
"descSummary" : "北京时间10月30日，据ESPN报道，步行者队在常规赛揭...",
"url" : "http:\/\/go.rss.sina.com.cn\/redirect.php?url=http:\/\/video.sina.com.cn\/p\/sports\/k\/v\/2013-10-30\/132563083613.html",
"pubDate" : "13:25:05",
"enterDate" : "384200:52:51",
"channelId" : "-3630544144873542209",
"channelName" : "NBA新闻-新浪体育",
"channelNameSummary" : "NBA新闻-新浪体育",
"channelUrl" : "http:\/\/sports.sina.com.cn\/nba\/index.shtml",
"author" : "WWW.SINA.COM.CN",
"tags" : [],
"desc" : "北京时间10月30日，据ESPN报道，步行者队在常规赛揭幕战中以97-87击败了年轻的奥兰多魔术队，并且打破了多项球队纪录。步行者当家中锋罗伊-希伯特此役功不可没，全场砍下8分、16个篮板和7次封盖。以上为相关视频。",
"emailed" : False,
"forwarded" : False,
"english" : False
}  , {
"index" : 4,
"articleIndex" : "143604",
"favor" :  False ,
     "read" : False,    
"title" : "视频-詹皇vs公牛17+8实录 戒指在手瞄准下个目标",
"titleTip" : "视频-詹皇vs公牛17+8实录 戒指在手瞄准下个目标",
"titleSummary" : "视频-詹皇vs公牛17+8实录 戒指在手瞄准下个目标",
"descSummary" : "在2013-14赛季揭幕战的比赛里，迈阿密热火主场107-95...",
"url" : "http:\/\/go.rss.sina.com.cn\/redirect.php?url=http:\/\/video.sina.com.cn\/p\/sports\/k\/v\/2013-10-30\/132363083593.html",
"pubDate" : "13:23:11",
"enterDate" : "384200:50:57",
"channelId" : "-3630544144873542209",
"channelName" : "NBA新闻-新浪体育",
"channelNameSummary" : "NBA新闻-新浪体育",
"channelUrl" : "http:\/\/sports.sina.com.cn\/nba\/index.shtml",
"author" : "WWW.SINA.COM.CN",
"tags" : [],
"desc" : "在2013-14赛季揭幕战的比赛里，迈阿密热火主场107-95轻松击败芝加哥公牛。由于球队整体表现出色，勒布朗-詹姆斯仅仅在第二节爆发了一下就率队甩开了对手，让后面的比赛波澜不惊。最终他11投5中贡献17分6个篮板8次助攻。以上为相关视频。",
"emailed" : False,
"forwarded" : False,
"english" : False
}  , {
"index" : 5,
"articleIndex" : "143603",
"favor" :  False ,
     "read" : False,    
"title" : "替补76分湖人14记三分砸沉快船 保罗两双难救主",
"titleTip" : "替补76分湖人14记三分砸沉快船 保罗两双难救主",
"titleSummary" : "替补76分湖人14记三分砸沉快船 保罗两双难救主",
"descSummary" : "北京时间10月30日，NBA2013-14赛季正式拉开大幕，在...",
"url" : "http:\/\/go.rss.sina.com.cn\/redirect.php?url=http:\/\/sports.sina.com.cn\/nba\/2013-10-30\/13156858405.shtml",
"pubDate" : "13:15:55",
"enterDate" : "384201:13:46",
"channelId" : "-3630544144873542209",
"channelName" : "NBA新闻-新浪体育",
"channelNameSummary" : "NBA新闻-新浪体育",
"channelUrl" : "http:\/\/sports.sina.com.cn\/nba\/index.shtml",
"author" : "WWW.SINA.COM.CN",
"tags" : [],
"desc" : "北京时间10月30日，NBA2013-14赛季正式拉开大幕，在第一天的比赛中，洛杉矶德比压阵，湖人[微博]最后一节发力，以116-103击败了快船[微博]。 湖人最后一节以41-24大胜，一举翻盘。保罗-加索尔拿下15分13个篮板，尼克-杨13分，史蒂夫-纳什[微博]3分5次助攻。替补出场的....",
"emailed" : False,
"forwarded" : False,
"english" : False
}  , {
"index" : 6,
"articleIndex" : "143602",
"favor" :  False ,
     "read" : False,    
"title" : "热火vs76人前瞻：费城场上难作为 艾弗森正式退役",
"titleTip" : "热火vs76人前瞻：费城场上难作为 艾弗森正式退役",
"titleSummary" : "热火vs76人前瞻：费城场上难作为 艾弗森正式退役",
"descSummary" : "4个月前，布雷克-布朗坐在马刺队助教席眼睁睁看着热...",
"url" : "http:\/\/go.rss.sina.com.cn\/redirect.php?url=http:\/\/sports.sina.com.cn\/nba\/2013-10-30\/13106858401.shtml",
"pubDate" : "13:10:34",
"enterDate" : "384201:08:25",
"channelId" : "-3630544144873542209",
"channelName" : "NBA新闻-新浪体育",
"channelNameSummary" : "NBA新闻-新浪体育",
"channelUrl" : "http:\/\/sports.sina.com.cn\/nba\/index.shtml",
"author" : "WWW.SINA.COM.CN",
"tags" : [],
"desc" : "4个月前，布雷克-布朗坐在马刺队助教席眼睁睁看着热火[微博]把几乎到手的冠军戒指夺走，如今他已经摇身一变成为费城76人队的主教练。所以这看似无关轻重的东区首尾之战，其实中间还是有着一段渊源。 不过单从场上实力分析，这场比赛双方实在相差悬殊，尽管热火是客场作....",
"emailed" : False,
"forwarded" : False,
"english" : False
}  , {
"index" : 7,
"articleIndex" : "143601",
"favor" :  False ,
     "read" : False,    
"title" : "视频-米克斯异军突起 远投+突破2+1吹响紫金反击号",
"titleTip" : "视频-米克斯异军突起 远投+突破2+1吹响紫金反击号",
"titleSummary" : "视频-米克斯异军突起 远投+突破2+1吹响紫金反击号",
"descSummary" : "北京时间10月30日，NBA常规赛湖人主场迎战快船。...",
"url" : "http:\/\/go.rss.sina.com.cn\/redirect.php?url=http:\/\/video.sina.com.cn\/p\/sports\/k\/v\/2013-10-30\/130963083475.html",
"pubDate" : "13:09:51",
"enterDate" : "384201:07:42",
"channelId" : "-3630544144873542209",
"channelName" : "NBA新闻-新浪体育",
"channelNameSummary" : "NBA新闻-新浪体育",
"channelUrl" : "http:\/\/sports.sina.com.cn\/nba\/index.shtml",
"author" : "WWW.SINA.COM.CN",
"tags" : [],
"desc" : "北京时间10月30日，NBA常规赛湖人主场迎战快船。第4节比赛9分06秒，湖人队米克斯突然发威，一次3分远投加一次突破上篮2+1，吹响了湖人反击号角。 以上为相关视频。",
"emailed" : False,
"forwarded" : False,
"english" : False
}  , {
"index" : 8,
"articleIndex" : "143600",
"favor" :  False ,
     "read" : False,    
"title" : "视频-小乔丹回追腾云驾雾 单手大帽捍卫快船领空",
"titleTip" : "视频-小乔丹回追腾云驾雾 单手大帽捍卫快船领空",
"titleSummary" : "视频-小乔丹回追腾云驾雾 单手大帽捍卫快船领空",
"descSummary" : "北京时间10月30日，NBA新赛季拉开大幕。湖人快船上...",
"url" : "http:\/\/go.rss.sina.com.cn\/redirect.php?url=http:\/\/video.sina.com.cn\/p\/sports\/k\/v\/2013-10-30\/125863083397.html",
"pubDate" : "12:58:56",
"enterDate" : "384200:56:47",
"channelId" : "-3630544144873542209",
"channelName" : "NBA新闻-新浪体育",
"channelNameSummary" : "NBA新闻-新浪体育",
"channelUrl" : "http:\/\/sports.sina.com.cn\/nba\/index.shtml",
"author" : "WWW.SINA.COM.CN",
"tags" : [],
"desc" : "北京时间10月30日，NBA新赛季拉开大幕。湖人快船上演同城德比，比赛进行到第四节还剩8分37秒时，湖人快速反击，小乔丹回追送大帽。以上为相关视频。",
"emailed" : False,
"forwarded" : False,
"english" : False
}  , {
"index" : 9,
"articleIndex" : "143599",
"favor" :  False ,
     "read" : False,    
"title" : "视频-尼克杨反应机敏化险为夷 得球上篮强硬2+1",
"titleTip" : "视频-尼克杨反应机敏化险为夷 得球上篮强硬2+1",
"titleSummary" : "视频-尼克杨反应机敏化险为夷 得球上篮强硬2+1",
"descSummary" : "北京时间10月30日，NBA新赛季拉开大幕，湖人快船上...",
"url" : "http:\/\/go.rss.sina.com.cn\/redirect.php?url=http:\/\/video.sina.com.cn\/p\/sports\/k\/v\/2013-10-30\/124663083307.html",
"pubDate" : "12:46:30",
"enterDate" : "384201:14:26",
"channelId" : "-3630544144873542209",
"channelName" : "NBA新闻-新浪体育",
"channelNameSummary" : "NBA新闻-新浪体育",
"channelUrl" : "http:\/\/sports.sina.com.cn\/nba\/index.shtml",
"author" : "WWW.SINA.COM.CN",
"tags" : [],
"desc" : "北京时间10月30日，NBA新赛季拉开大幕，湖人快船上演同城德比。比赛进行到第三节还剩4分38秒时，单打王强硬上篮打成2+1。以上为相关视频。",
"emailed" : False,
"forwarded" : False,
"english" : False
}  , {
"index" : 10,
"articleIndex" : "143598",
"favor" :  False ,
     "read" : False,    
"title" : "视频-科比闭口不谈复出时间：愿意为球队改变球风",
"titleTip" : "视频-科比闭口不谈复出时间：愿意为球队改变球风",
"titleSummary" : "视频-科比闭口不谈复出时间：愿意为球队改变球风",
"descSummary" : "北京时间10月30日，NBA新赛季正式开赛，湖人主场...",
"url" : "http:\/\/go.rss.sina.com.cn\/redirect.php?url=http:\/\/video.sina.com.cn\/p\/sports\/k\/v\/2013-10-30\/124263083269.html",
"pubDate" : "12:42:16",
"enterDate" : "384200:40:07",
"channelId" : "-3630544144873542209",
"channelName" : "NBA新闻-新浪体育",
"channelNameSummary" : "NBA新闻-新浪体育",
"channelUrl" : "http:\/\/sports.sina.com.cn\/nba\/index.shtml",
"author" : "WWW.SINA.COM.CN",
"tags" : [],
"desc" : "北京时间10月30日，NBA新赛季正式开赛，湖人主场迎战快船，比赛中Craig Sager对场边观战的科比进行了采访，采访中科比对具体复出时间闭口不谈，表示复出后愿意为球队对自己的打球方式做出调整，会像威尔金斯那样去处理重回赛场后对再次受伤的恐惧。以上为相关视频。",
"emailed" : False,
"forwarded" : False,
"english" : False
}  , {
"index" : 11,
"articleIndex" : "143597",
"favor" :  False ,
     "read" : False,    
"title" : "视频-纳什突分送妙传 布雷克远程制导反超比分",
"titleTip" : "视频-纳什突分送妙传 布雷克远程制导反超比分",
"titleSummary" : "视频-纳什突分送妙传 布雷克远程制导反超比分",
"descSummary" : "北京时间10月30日，NBA常规赛湖人主场迎战快船。第3节...",
"url" : "http:\/\/go.rss.sina.com.cn\/redirect.php?url=http:\/\/video.sina.com.cn\/p\/sports\/k\/v\/2013-10-30\/123963083245.html",
"pubDate" : "12:39:40",
"enterDate" : "384201:07:36",
"channelId" : "-3630544144873542209",
"channelName" : "NBA新闻-新浪体育",
"channelNameSummary" : "NBA新闻-新浪体育",
"channelUrl" : "http:\/\/sports.sina.com.cn\/nba\/index.shtml",
"author" : "WWW.SINA.COM.CN",
"tags" : [],
"desc" : "北京时间10月30日，NBA常规赛湖人主场迎战快船。第3节比赛6分57秒，纳什突破分球，布雷克3分命中反超比分。 以上为相关视频。",
"emailed" : False,
"forwarded" : False,
"english" : False
}  , {
"index" : 12,
"articleIndex" : "143596",
"favor" :  False ,
     "read" : False,    
"title" : "视频-自己都笑了！小乔丹飘逸后仰幸运压哨命中",
"titleTip" : "视频-自己都笑了！小乔丹飘逸后仰幸运压哨命中",
"titleSummary" : "视频-自己都笑了！小乔丹飘逸后仰幸运压哨命中",
"descSummary" : "北京时间10月30日，NBA新赛季拉开大幕，湖人快船上...",
"url" : "http:\/\/go.rss.sina.com.cn\/redirect.php?url=http:\/\/video.sina.com.cn\/p\/sports\/k\/v\/2013-10-30\/123163083167.html",
"pubDate" : "12:31:48",
"enterDate" : "384200:59:44",
"channelId" : "-3630544144873542209",
"channelName" : "NBA新闻-新浪体育",
"channelNameSummary" : "NBA新闻-新浪体育",
"channelUrl" : "http:\/\/sports.sina.com.cn\/nba\/index.shtml",
"author" : "WWW.SINA.COM.CN",
"tags" : [],
"desc" : "北京时间10月30日，NBA新赛季拉开大幕，湖人快船上演同城德比。比赛进行到第三节还剩8分23秒时，小乔丹飘逸后仰命中压哨，幸运一球自己都笑了。以上为相关视频。",
"emailed" : False,
"forwarded" : False,
"english" : False
}  , {
"index" : 13,
"articleIndex" : "143595",
"favor" :  False ,
     "read" : False,    
"title" : "视频录播-公牛vs热火第1节 罗斯身先士卒连斩分",
"titleTip" : "视频录播-公牛vs热火第1节 罗斯身先士卒连斩分",
"titleSummary" : "视频录播-公牛vs热火第1节 罗斯身先士卒连斩分",
"descSummary" : "北京时间10月30日，NBA常规赛揭幕，首日三场比赛中...",
"url" : "http:\/\/go.rss.sina.com.cn\/redirect.php?url=http:\/\/video.sina.com.cn\/p\/sports\/k\/v\/2013-10-30\/123063083155.html",
"pubDate" : "12:30:36",
"enterDate" : "384200:58:32",
"channelId" : "-3630544144873542209",
"channelName" : "NBA新闻-新浪体育",
"channelNameSummary" : "NBA新闻-新浪体育",
"channelUrl" : "http:\/\/sports.sina.com.cn\/nba\/index.shtml",
"author" : "WWW.SINA.COM.CN",
"tags" : [],
"desc" : "北京时间10月30日，NBA常规赛揭幕，首日三场比赛中，热火主场迎战公牛，罗斯率队前来挑战三巨头。赛前热火队领取了上赛季的总冠军戒指。以上为公牛vs热火录播第一节。",
"emailed" : False,
"forwarded" : False,
"english" : False
}  , {
"index" : 14,
"articleIndex" : "143594",
"favor" :  False ,
     "read" : False,    
"title" : "火箭VS山猫前瞻：休城揭幕书豪替补 双塔继续试验",
"titleTip" : "火箭VS山猫前瞻：休城揭幕书豪替补 双塔继续试验",
"titleSummary" : "火箭VS山猫前瞻：休城揭幕书豪替补 双塔继续试验",
"descSummary" : "北京时间10月30日，2013-14赛季正式拉开帷幕，明天...",
"url" : "http:\/\/go.rss.sina.com.cn\/redirect.php?url=http:\/\/sports.sina.com.cn\/nba\/2013-10-30\/12276858363.shtml",
"pubDate" : "12:27:54",
"enterDate" : "384200:55:50",
"channelId" : "-3630544144873542209",
"channelName" : "NBA新闻-新浪体育",
"channelNameSummary" : "NBA新闻-新浪体育",
"channelUrl" : "http:\/\/sports.sina.com.cn\/nba\/index.shtml",
"author" : "WWW.SINA.COM.CN",
"tags" : [],
"desc" : "北京时间10月30日，2013-14赛季正式拉开帷幕，明天休斯顿火箭将迎来揭幕战，坐镇主场对阵夏洛特山猫。火箭方面将继续排出双塔，帕特里克-贝弗利将取代林书豪[微博]首发，而山猫方面则损兵折将。火箭能否取得开门红？ 在今夏招兵买马后，火箭已被看做是西区冠军的热门之....",
"emailed" : False,
"forwarded" : False,
"english" : False
}  , {
"index" : 15,
"articleIndex" : "143593",
"favor" :  False ,
     "read" : False,    
"title" : "詹皇:首秀一切完美 公牛记者:谁说热火无法3连冠?",
"titleTip" : "詹皇:首秀一切完美 公牛记者:谁说热火无法3连冠?",
"titleSummary" : "詹皇:首秀一切完美 公牛记者:谁说热火无法3连冠?",
"descSummary" : "北京时间10月30日(迈阿密时间29日)，新赛季揭幕战，热...",
"url" : "http:\/\/go.rss.sina.com.cn\/redirect.php?url=http:\/\/sports.sina.com.cn\/nba\/2013-10-30\/12276858362.shtml",
"pubDate" : "12:27:05",
"enterDate" : "384200:55:01",
"channelId" : "-3630544144873542209",
"channelName" : "NBA新闻-新浪体育",
"channelNameSummary" : "NBA新闻-新浪体育",
"channelUrl" : "http:\/\/sports.sina.com.cn\/nba\/index.shtml",
"author" : "WWW.SINA.COM.CN",
"tags" : [],
"desc" : "北京时间10月30日(迈阿密时间29日)，新赛季揭幕战，热火[微博]在主场如偿所愿，107比95击败老对手公牛，连续第二年捍卫了领戒荣誉夜。 \u201C能以这样的结果(赢球)开始一个新赛季的征程，感觉非常棒，\u201D克里斯-波什[微博]赛后说，他今天11投6中贡献了16分和6个篮板。 ....",
"emailed" : False,
"forwarded" : False,
"english" : False
}  , {
"index" : 16,
"articleIndex" : "143592",
"favor" :  False ,
     "read" : False,    
"title" : "视频-保罗乔治首战24+6实录 顶薪表现获开门红",
"titleTip" : "视频-保罗乔治首战24+6实录 顶薪表现获开门红",
"titleSummary" : "视频-保罗乔治首战24+6实录 顶薪表现获开门红",
"descSummary" : "北京时间10月30日，NBA常规赛揭幕，首日比赛中，步行...",
"url" : "http:\/\/go.rss.sina.com.cn\/redirect.php?url=http:\/\/video.sina.com.cn\/p\/sports\/k\/v\/2013-10-30\/122063083099.html",
"pubDate" : "12:20:41",
"enterDate" : "384200:48:37",
"channelId" : "-3630544144873542209",
"channelName" : "NBA新闻-新浪体育",
"channelNameSummary" : "NBA新闻-新浪体育",
"channelUrl" : "http:\/\/sports.sina.com.cn\/nba\/index.shtml",
"author" : "WWW.SINA.COM.CN",
"tags" : [],
"desc" : "北京时间10月30日，NBA常规赛揭幕，首日比赛中，步行者主场战胜魔术。步行者球星保罗-乔治首战得到24分6篮板，成为获胜的功臣之一。以上为相关视频。",
"emailed" : False,
"forwarded" : False,
"english" : False
}  , {
"index" : 17,
"articleIndex" : "143591",
"favor" :  False ,
     "read" : False,    
"title" : "视频集锦-3巨头平庸罗斯12分 热火7人上双擒公牛",
"titleTip" : "视频集锦-3巨头平庸罗斯12分 热火7人上双擒公牛",
"titleSummary" : "视频集锦-3巨头平庸罗斯12分 热火7人上双擒公牛",
"descSummary" : "北京时间10月30日消息，NBA2013-14赛季开打，卫冕冠...",
"url" : "http:\/\/go.rss.sina.com.cn\/redirect.php?url=http:\/\/video.sina.com.cn\/p\/sports\/k\/v\/2013-10-30\/120663083031.html",
"pubDate" : "12:06:48",
"enterDate" : "384201:04:50",
"channelId" : "-3630544144873542209",
"channelName" : "NBA新闻-新浪体育",
"channelNameSummary" : "NBA新闻-新浪体育",
"channelUrl" : "http:\/\/sports.sina.com.cn\/nba\/index.shtml",
"author" : "WWW.SINA.COM.CN",
"tags" : [],
"desc" : "北京时间10月30日消息，NBA2013-14赛季开打，卫冕冠军在主场以107-95击败了公牛。热火众将接过了上赛季的总冠军戒指，冠军的旗帜也缓缓升起，新的一个赛季开始了。热火\u201C三巨头\u201D在数据上表现并不出彩，勒布朗-詹姆斯得了17分、8次助攻和6个篮板，克里斯-波什16分6个篮板，德....",
"emailed" : False,
"forwarded" : False,
"english" : False
}  , {
"index" : 18,
"articleIndex" : "143590",
"favor" :  False ,
     "read" : False,    
"title" : "视频-小乔丹低位贴防卡曼 霸气遮天怒帽不留情面",
"titleTip" : "视频-小乔丹低位贴防卡曼 霸气遮天怒帽不留情面",
"titleSummary" : "视频-小乔丹低位贴防卡曼 霸气遮天怒帽不留情面",
"descSummary" : "北京时间10月30日，NBA新赛季拉开大幕，湖人快船上...",
"url" : "http:\/\/go.rss.sina.com.cn\/redirect.php?url=http:\/\/video.sina.com.cn\/p\/sports\/k\/v\/2013-10-30\/120563083025.html",
"pubDate" : "12:05:07",
"enterDate" : "384201:03:09",
"channelId" : "-3630544144873542209",
"channelName" : "NBA新闻-新浪体育",
"channelNameSummary" : "NBA新闻-新浪体育",
"channelUrl" : "http:\/\/sports.sina.com.cn\/nba\/index.shtml",
"author" : "WWW.SINA.COM.CN",
"tags" : [],
"desc" : "北京时间10月30日，NBA新赛季拉开大幕，湖人快船上演同城德比，比赛进行到第二节还剩6分01秒时，卡曼地位单打后仰跳投，小乔丹高高跃起送遮天大帽。 以上为相关视频。",
"emailed" : False,
"forwarded" : False,
"english" : False
}  , {
"index" : 19,
"articleIndex" : "143589",
"favor" :  False ,
     "read" : False,    
"title" : "罗斯：膝盖没问题无需担心 投篮差主要因热火包夹",
"titleTip" : "罗斯：膝盖没问题无需担心 投篮差主要因热火包夹",
"titleSummary" : "罗斯：膝盖没问题无需担心 投篮差主要因热火包夹",
"descSummary" : "北京时间10月30日(迈阿密时间29日)，德里克-罗斯[微...",
"url" : "http:\/\/go.rss.sina.com.cn\/redirect.php?url=http:\/\/sports.sina.com.cn\/nba\/2013-10-30\/12036858329.shtml",
"pubDate" : "12:03:26",
"enterDate" : "384201:01:28",
"channelId" : "-3630544144873542209",
"channelName" : "NBA新闻-新浪体育",
"channelNameSummary" : "NBA新闻-新浪体育",
"channelUrl" : "http:\/\/sports.sina.com.cn\/nba\/index.shtml",
"author" : "WWW.SINA.COM.CN",
"tags" : [],
"desc" : "北京时间10月30日(迈阿密时间29日)，德里克-罗斯[微博]没能将季后赛的火热状态带到热火[微博]的地盘上来，在老冤家面前，他的公牛95比107不敌卫冕冠军，无缘开门红。 为了这场揭幕战，罗斯可谓做足了准备，他今天赛前甚至罕见地热身了将近一个小时，最先到达球场，最后....",
"emailed" : False,
"forwarded" : False,
"english" : False
} ]
}
