{
"mode" : {"viewTitle" : 1,   "viewNew" : 0,  "pageIndex" : 1 },
 "channel" : {"id" : "2423854045442644160", "booked" : False, "subNumber" : 1, "name" : "北京房产-地产访谈", "url" : "http:\/\/bj.house.sina.com.cn\/chat\/index.html", "feed" : "http:\/\/rss.sina.com.cn\/bjhouse\/dcft.xml", "author" : "", "desc" : "北京房产-地产访谈", "imageUrl" : "http:\/\/www.sinaimg.cn\/house\/sina_fc.gif", "postPerWeek" : "0", "lastCrawTime" : "17:13:16", "crawDateTime" : "2013年1月10日", "lastHttpCode" : "304"}, "page" : {
"startIndex" : 0,
"totalCount" : 2887,
"pageIndex" : 1,
"lastPage" : 145,
"pageSize" : 20,
"english" :  False },
 "unreadNum" : 0, "shotIndex" : -1,
"articles" : [
{
"index" : 0,
"articleIndex" : "2884",
"favor" :  False ,
     "read" : False,    
"title" : "直播：颐和四季公馆今晚冒雨开盘 吹风25000元\/平米",
"titleTip" : "直播：颐和四季公馆今晚冒雨开盘 吹风25000元\/平米",
"titleSummary" : "直播：颐和四季公馆今晚冒雨开盘 吹风25000元\/平米",
"descSummary" : "",
"url" : "http:\/\/go.rss.sina.com.cn\/redirect.php?url=http:\/\/house.sina.com.cn\/2012\/04\/27\/481968.html?source=rss",
"pubDate" : "2012年4月27日",
"enterDate" : "384200:29:56",
"channelId" : "2423854045442644160",
"channelName" : "北京房产-地产访谈",
"channelNameSummary" : "北京房产-地产访谈",
"channelUrl" : "http:\/\/bj.house.sina.com.cn\/chat\/index.html",
"author" : "WWW.SINA.COM.CN",
"tags" : [],
"desc" : "",
"emailed" : False,
"forwarded" : False,
"english" : False
}  , {
"index" : 1,
"articleIndex" : "2885",
"favor" :  False ,
     "read" : False,    
"title" : "刘成:成功红树林定位品质刚需",
"titleTip" : "刘成:成功红树林定位品质刚需",
"titleSummary" : "刘成:成功红树林定位品质刚需",
"descSummary" : "",
"url" : "http:\/\/go.rss.sina.com.cn\/redirect.php?url=http:\/\/house.sina.com.cn\/2012\/04\/27\/481767.html?source=rss",
"pubDate" : "2012年4月27日",
"enterDate" : "384082:21:50",
"channelId" : "2423854045442644160",
"channelName" : "北京房产-地产访谈",
"channelNameSummary" : "北京房产-地产访谈",
"channelUrl" : "http:\/\/bj.house.sina.com.cn\/chat\/index.html",
"author" : "WWW.SINA.COM.CN",
"tags" : [],
"desc" : "",
"emailed" : False,
"forwarded" : False,
"english" : False
}  , {
"index" : 2,
"articleIndex" : "2883",
"favor" :  False ,
     "read" : False,    
"title" : "十年嘉盛地产&#160; 十年杨志威",
"titleTip" : "十年嘉盛地产&#160; 十年杨志威",
"titleSummary" : "十年嘉盛地产&#160; 十年杨志威",
"descSummary" : "",
"url" : "http:\/\/go.rss.sina.com.cn\/redirect.php?url=http:\/\/house.sina.com.cn\/2012\/04\/26\/481184.html?source=rss",
"pubDate" : "2012年4月26日",
"enterDate" : "384201:00:54",
"channelId" : "2423854045442644160",
"channelName" : "北京房产-地产访谈",
"channelNameSummary" : "北京房产-地产访谈",
"channelUrl" : "http:\/\/bj.house.sina.com.cn\/chat\/index.html",
"author" : "WWW.SINA.COM.CN",
"tags" : [],
"desc" : "",
"emailed" : False,
"forwarded" : False,
"english" : False
}  , {
"index" : 3,
"articleIndex" : "2882",
"favor" :  False ,
     "read" : False,    
"title" : "地产英雄汇：十年嘉盛地产 十年杨志威",
"titleTip" : "地产英雄汇：十年嘉盛地产 十年杨志威",
"titleSummary" : "地产英雄汇：十年嘉盛地产 十年杨志威",
"descSummary" : "",
"url" : "http:\/\/go.rss.sina.com.cn\/redirect.php?url=http:\/\/house.sina.com.cn\/2012\/04\/26\/481182.html?source=rss",
"pubDate" : "2012年4月26日",
"enterDate" : "384200:56:48",
"channelId" : "2423854045442644160",
"channelName" : "北京房产-地产访谈",
"channelNameSummary" : "北京房产-地产访谈",
"channelUrl" : "http:\/\/bj.house.sina.com.cn\/chat\/index.html",
"author" : "WWW.SINA.COM.CN",
"tags" : [],
"desc" : "",
"emailed" : False,
"forwarded" : False,
"english" : False
}  , {
"index" : 4,
"articleIndex" : "2881",
"favor" :  False ,
     "read" : False,    
"title" : "\u201C小阳春\u201D背后暗藏危机 无锡楼市回暖还未真正到来",
"titleTip" : "\u201C小阳春\u201D背后暗藏危机 无锡楼市回暖还未真正到来",
"titleSummary" : "\u201C小阳春\u201D背后暗藏危机 无锡楼市回暖还未真正到来",
"descSummary" : "",
"url" : "http:\/\/go.rss.sina.com.cn\/redirect.php?url=http:\/\/house.sina.com.cn\/2012\/04\/26\/481170.html?source=rss",
"pubDate" : "2012年4月26日",
"enterDate" : "384201:13:39",
"channelId" : "2423854045442644160",
"channelName" : "北京房产-地产访谈",
"channelNameSummary" : "北京房产-地产访谈",
"channelUrl" : "http:\/\/bj.house.sina.com.cn\/chat\/index.html",
"author" : "WWW.SINA.COM.CN",
"tags" : [],
"desc" : "",
"emailed" : False,
"forwarded" : False,
"english" : False
}  , {
"index" : 5,
"articleIndex" : "2880",
"favor" :  False ,
     "read" : False,    
"title" : "星墅湾80%是小户型 \u201C只为弥补当年刚需族的遗憾\u201D",
"titleTip" : "星墅湾80%是小户型 \u201C只为弥补当年刚需族的遗憾\u201D",
"titleSummary" : "星墅湾80%是小户型 \u201C只为弥补当年刚需族的遗憾\u201D",
"descSummary" : "",
"url" : "http:\/\/go.rss.sina.com.cn\/redirect.php?url=http:\/\/house.sina.com.cn\/2012\/04\/26\/481087.html?source=rss",
"pubDate" : "2012年4月26日",
"enterDate" : "384200:59:27",
"channelId" : "2423854045442644160",
"channelName" : "北京房产-地产访谈",
"channelNameSummary" : "北京房产-地产访谈",
"channelUrl" : "http:\/\/bj.house.sina.com.cn\/chat\/index.html",
"author" : "WWW.SINA.COM.CN",
"tags" : [],
"desc" : "",
"emailed" : False,
"forwarded" : False,
"english" : False
}  , {
"index" : 6,
"articleIndex" : "2879",
"favor" :  False ,
     "read" : False,    
"title" : "孙晓波 品质是他对房地产17年的承诺",
"titleTip" : "孙晓波 品质是他对房地产17年的承诺",
"titleSummary" : "孙晓波 品质是他对房地产17年的承诺",
"descSummary" : "",
"url" : "http:\/\/go.rss.sina.com.cn\/redirect.php?url=http:\/\/house.sina.com.cn\/2012\/04\/26\/481086.html?source=rss",
"pubDate" : "2012年4月26日",
"enterDate" : "384200:52:59",
"channelId" : "2423854045442644160",
"channelName" : "北京房产-地产访谈",
"channelNameSummary" : "北京房产-地产访谈",
"channelUrl" : "http:\/\/bj.house.sina.com.cn\/chat\/index.html",
"author" : "WWW.SINA.COM.CN",
"tags" : [],
"desc" : "",
"emailed" : False,
"forwarded" : False,
"english" : False
}  , {
"index" : 7,
"articleIndex" : "2886",
"favor" :  False ,
     "read" : False,    
"title" : "李泽韬:乐天玛特加速开店 带动周边楼盘上涨10%",
"titleTip" : "李泽韬:乐天玛特加速开店 带动周边楼盘上涨10%",
"titleSummary" : "李泽韬:乐天玛特加速开店 带动周边楼盘上涨10%",
"descSummary" : "",
"url" : "http:\/\/go.rss.sina.com.cn\/redirect.php?url=http:\/\/house.sina.com.cn\/2012\/04\/26\/480835.html?source=rss",
"pubDate" : "2012年4月26日",
"enterDate" : "384149:14:00",
"channelId" : "2423854045442644160",
"channelName" : "北京房产-地产访谈",
"channelNameSummary" : "北京房产-地产访谈",
"channelUrl" : "http:\/\/bj.house.sina.com.cn\/chat\/index.html",
"author" : "WWW.SINA.COM.CN",
"tags" : [],
"desc" : "",
"emailed" : False,
"forwarded" : False,
"english" : False
}  , {
"index" : 8,
"articleIndex" : "2878",
"favor" :  False ,
     "read" : False,    
"title" : "新城柳燕：将幸福进行到底",
"titleTip" : "新城柳燕：将幸福进行到底",
"titleSummary" : "新城柳燕：将幸福进行到底",
"descSummary" : "作为全国房地产企业19强之一，新城的成功与它一贯坚持的幸福主张分不开...",
"url" : "http:\/\/go.rss.sina.com.cn\/redirect.php?url=http:\/\/house.sina.com.cn\/sh\/2012\/04\/26\/480749_all.html?source=rss",
"pubDate" : "2012年4月26日",
"enterDate" : "384201:00:55",
"channelId" : "2423854045442644160",
"channelName" : "北京房产-地产访谈",
"channelNameSummary" : "北京房产-地产访谈",
"channelUrl" : "http:\/\/bj.house.sina.com.cn\/chat\/index.html",
"author" : "WWW.SINA.COM.CN",
"tags" : [],
"desc" : "作为全国房地产企业19强之一，新城的成功与它一贯坚持的幸福主张分不开。十余年来，新城地产一直以\" 传播幸福、成就卓越 \"为美好愿景，全心全意为客户打造幸福人居。",
"emailed" : False,
"forwarded" : False,
"english" : False
}  , {
"index" : 9,
"articleIndex" : "2877",
"favor" :  False ,
     "read" : False,    
"title" : "新城柳燕：将幸福进行到底",
"titleTip" : "新城柳燕：将幸福进行到底",
"titleSummary" : "新城柳燕：将幸福进行到底",
"descSummary" : "提要：作为全国房地产企业19强之一，新城的成功与它一贯坚持的幸福主张...",
"url" : "http:\/\/go.rss.sina.com.cn\/redirect.php?url=http:\/\/house.sina.com.cn\/sh\/2012\/04\/26\/480749.html?source=rss",
"pubDate" : "2012年4月26日",
"enterDate" : "384201:00:48",
"channelId" : "2423854045442644160",
"channelName" : "北京房产-地产访谈",
"channelNameSummary" : "北京房产-地产访谈",
"channelUrl" : "http:\/\/bj.house.sina.com.cn\/chat\/index.html",
"author" : "WWW.SINA.COM.CN",
"tags" : [],
"desc" : "提要：作为全国房地产企业19强之一，新城的成功与它一贯坚持的幸福主张分不开。十余年来，新城地产一直以\" 传播幸福、成就卓越 \"为美好愿景，全心全意为客户打造幸福人居。",
"emailed" : False,
"forwarded" : False,
"english" : False
}  , {
"index" : 10,
"articleIndex" : "2876",
"favor" :  False ,
     "read" : False,    
"title" : "杨少锋：今年是刚需购房者最后入市机会",
"titleTip" : "杨少锋：今年是刚需购房者最后入市机会",
"titleSummary" : "杨少锋：今年是刚需购房者最后入市机会",
"descSummary" : "",
"url" : "http:\/\/go.rss.sina.com.cn\/redirect.php?url=http:\/\/house.sina.com.cn\/2012\/04\/25\/480327.html?source=rss",
"pubDate" : "2012年4月25日",
"enterDate" : "384201:03:14",
"channelId" : "2423854045442644160",
"channelName" : "北京房产-地产访谈",
"channelNameSummary" : "北京房产-地产访谈",
"channelUrl" : "http:\/\/bj.house.sina.com.cn\/chat\/index.html",
"author" : "WWW.SINA.COM.CN",
"tags" : [],
"desc" : "",
"emailed" : False,
"forwarded" : False,
"english" : False
}  , {
"index" : 11,
"articleIndex" : "2875",
"favor" :  False ,
     "read" : False,    
"title" : "活动\u201C井喷\u201D 四月长沙楼市营销再现小高潮",
"titleTip" : "活动\u201C井喷\u201D 四月长沙楼市营销再现小高潮",
"titleSummary" : "活动\u201C井喷\u201D 四月长沙楼市营销再现小高潮",
"descSummary" : "",
"url" : "http:\/\/go.rss.sina.com.cn\/redirect.php?url=http:\/\/house.sina.com.cn\/2012\/04\/25\/480269.html?source=rss",
"pubDate" : "2012年4月25日",
"enterDate" : "384201:08:54",
"channelId" : "2423854045442644160",
"channelName" : "北京房产-地产访谈",
"channelNameSummary" : "北京房产-地产访谈",
"channelUrl" : "http:\/\/bj.house.sina.com.cn\/chat\/index.html",
"author" : "WWW.SINA.COM.CN",
"tags" : [],
"desc" : "",
"emailed" : False,
"forwarded" : False,
"english" : False
}  , {
"index" : 12,
"articleIndex" : "2874",
"favor" :  False ,
     "read" : False,    
"title" : "柳燕：将幸福进行到底",
"titleTip" : "柳燕：将幸福进行到底",
"titleSummary" : "柳燕：将幸福进行到底",
"descSummary" : "作为全国房地产企业20强之一，新城的成功与它一贯坚持的幸福主张分不开。十...",
"url" : "http:\/\/go.rss.sina.com.cn\/redirect.php?url=http:\/\/house.sina.com.cn\/2012\/04\/25\/480095_all.html?source=rss",
"pubDate" : "2012年4月25日",
"enterDate" : "384200:57:14",
"channelId" : "2423854045442644160",
"channelName" : "北京房产-地产访谈",
"channelNameSummary" : "北京房产-地产访谈",
"channelUrl" : "http:\/\/bj.house.sina.com.cn\/chat\/index.html",
"author" : "WWW.SINA.COM.CN",
"tags" : [],
"desc" : "作为全国房地产企业20强之一，新城的成功与它一贯坚持的幸福主张分不开。十八年来，新城地产一直以\" 传播幸福、成就卓越 \"为美好愿景，全心全意为客户打造幸福人居。",
"emailed" : False,
"forwarded" : False,
"english" : False
}  , {
"index" : 13,
"articleIndex" : "2873",
"favor" :  False ,
     "read" : False,    
"title" : "柳燕：将幸福进行到底",
"titleTip" : "柳燕：将幸福进行到底",
"titleSummary" : "柳燕：将幸福进行到底",
"descSummary" : "提要：作为全国房地产企业20强之一，新城的成功与它一贯坚持的幸福主张分不...",
"url" : "http:\/\/go.rss.sina.com.cn\/redirect.php?url=http:\/\/house.sina.com.cn\/2012\/04\/25\/480095.html?source=rss",
"pubDate" : "2012年4月25日",
"enterDate" : "384200:57:09",
"channelId" : "2423854045442644160",
"channelName" : "北京房产-地产访谈",
"channelNameSummary" : "北京房产-地产访谈",
"channelUrl" : "http:\/\/bj.house.sina.com.cn\/chat\/index.html",
"author" : "WWW.SINA.COM.CN",
"tags" : [],
"desc" : "提要：作为全国房地产企业20强之一，新城的成功与它一贯坚持的幸福主张分不开。十八年来，新城地产一直以\" 传播幸福、成就卓越 \"为美好愿景，全心全意为客户打造幸福人居。",
"emailed" : False,
"forwarded" : False,
"english" : False
}  , {
"index" : 14,
"articleIndex" : "2872",
"favor" :  False ,
     "read" : False,    
"title" : "周科杰：从实处做起打造卓越工程品质",
"titleTip" : "周科杰：从实处做起打造卓越工程品质",
"titleSummary" : "周科杰：从实处做起打造卓越工程品质",
"descSummary" : "作为全国房地产企业19强之一，新城的成功与它一贯坚持的幸福...",
"url" : "http:\/\/go.rss.sina.com.cn\/redirect.php?url=http:\/\/house.sina.com.cn\/sh\/2012\/04\/25\/480091_all.html?source=rss",
"pubDate" : "2012年4月25日",
"enterDate" : "384200:24:04",
"channelId" : "2423854045442644160",
"channelName" : "北京房产-地产访谈",
"channelNameSummary" : "北京房产-地产访谈",
"channelUrl" : "http:\/\/bj.house.sina.com.cn\/chat\/index.html",
"author" : "WWW.SINA.COM.CN",
"tags" : [],
"desc" : "作为全国房地产企业19强之一，新城的成功与它一贯坚持的幸福主张分不开。十余年来，新城地产一直以\" 传播幸福、成就卓越 \"为美好愿景，全心全意为客户打造幸福人居。",
"emailed" : False,
"forwarded" : False,
"english" : False
}  , {
"index" : 15,
"articleIndex" : "2871",
"favor" :  False ,
     "read" : False,    
"title" : "周科杰：从实处做起打造卓越工程品质",
"titleTip" : "周科杰：从实处做起打造卓越工程品质",
"titleSummary" : "周科杰：从实处做起打造卓越工程品质",
"descSummary" : "提要：作为全国房地产企业19强之一，新城的成功与它一贯坚持...",
"url" : "http:\/\/go.rss.sina.com.cn\/redirect.php?url=http:\/\/house.sina.com.cn\/sh\/2012\/04\/25\/480091.html?source=rss",
"pubDate" : "2012年4月25日",
"enterDate" : "384200:23:56",
"channelId" : "2423854045442644160",
"channelName" : "北京房产-地产访谈",
"channelNameSummary" : "北京房产-地产访谈",
"channelUrl" : "http:\/\/bj.house.sina.com.cn\/chat\/index.html",
"author" : "WWW.SINA.COM.CN",
"tags" : [],
"desc" : "提要：作为全国房地产企业19强之一，新城的成功与它一贯坚持的幸福主张分不开。十余年来，新城地产一直以\" 传播幸福、成就卓越 \"为美好愿景，全心全意为客户打造幸福人居。",
"emailed" : False,
"forwarded" : False,
"english" : False
}  , {
"index" : 16,
"articleIndex" : "2870",
"favor" :  False ,
     "read" : False,    
"title" : "宋都集团总裁汪萍：做房地产就像下棋 要走一步算五步",
"titleTip" : "宋都集团总裁汪萍：做房地产就像下棋 要走一步算五步",
"titleSummary" : "宋都集团总裁汪萍：做房地产就像下棋 要走一步算五步",
"descSummary" : "",
"url" : "http:\/\/go.rss.sina.com.cn\/redirect.php?url=http:\/\/house.sina.com.cn\/2012\/04\/25\/479931.html?source=rss",
"pubDate" : "2012年4月25日",
"enterDate" : "384200:45:14",
"channelId" : "2423854045442644160",
"channelName" : "北京房产-地产访谈",
"channelNameSummary" : "北京房产-地产访谈",
"channelUrl" : "http:\/\/bj.house.sina.com.cn\/chat\/index.html",
"author" : "WWW.SINA.COM.CN",
"tags" : [],
"desc" : "",
"emailed" : False,
"forwarded" : False,
"english" : False
}  , {
"index" : 17,
"articleIndex" : "2869",
"favor" :  False ,
     "read" : False,    
"title" : "2012抚顺（春季）房交会进入倒计时",
"titleTip" : "2012抚顺（春季）房交会进入倒计时",
"titleSummary" : "2012抚顺（春季）房交会进入倒计时",
"descSummary" : "",
"url" : "http:\/\/go.rss.sina.com.cn\/redirect.php?url=http:\/\/house.sina.com.cn\/2012\/04\/24\/479528.html?source=rss",
"pubDate" : "2012年4月24日",
"enterDate" : "384201:01:23",
"channelId" : "2423854045442644160",
"channelName" : "北京房产-地产访谈",
"channelNameSummary" : "北京房产-地产访谈",
"channelUrl" : "http:\/\/bj.house.sina.com.cn\/chat\/index.html",
"author" : "WWW.SINA.COM.CN",
"tags" : [],
"desc" : "",
"emailed" : False,
"forwarded" : False,
"english" : False
}  , {
"index" : 18,
"articleIndex" : "2868",
"favor" :  False ,
     "read" : False,    
"title" : "70后房奴李正希：精打细算买房 轻轻松松还贷",
"titleTip" : "70后房奴李正希：精打细算买房 轻轻松松还贷",
"titleSummary" : "70后房奴李正希：精打细算买房 轻轻松松还贷",
"descSummary" : "",
"url" : "http:\/\/go.rss.sina.com.cn\/redirect.php?url=http:\/\/house.sina.com.cn\/2012\/04\/24\/479413.html?source=rss",
"pubDate" : "2012年4月24日",
"enterDate" : "384201:10:36",
"channelId" : "2423854045442644160",
"channelName" : "北京房产-地产访谈",
"channelNameSummary" : "北京房产-地产访谈",
"channelUrl" : "http:\/\/bj.house.sina.com.cn\/chat\/index.html",
"author" : "WWW.SINA.COM.CN",
"tags" : [],
"desc" : "",
"emailed" : False,
"forwarded" : False,
"english" : False
}  , {
"index" : 19,
"articleIndex" : "2867",
"favor" :  False ,
     "read" : False,    
"title" : "新浪乐居房展会人物专访\u2015\u2015金城福邸李经理",
"titleTip" : "新浪乐居房展会人物专访\u2015\u2015金城福邸李经理",
"titleSummary" : "新浪乐居房展会人物专访\u2015\u2015金城福邸李经理",
"descSummary" : "",
"url" : "http:\/\/go.rss.sina.com.cn\/redirect.php?url=http:\/\/house.sina.com.cn\/2012\/04\/24\/479400.html?source=rss",
"pubDate" : "2012年4月24日",
"enterDate" : "384200:55:01",
"channelId" : "2423854045442644160",
"channelName" : "北京房产-地产访谈",
"channelNameSummary" : "北京房产-地产访谈",
"channelUrl" : "http:\/\/bj.house.sina.com.cn\/chat\/index.html",
"author" : "WWW.SINA.COM.CN",
"tags" : [],
"desc" : "",
"emailed" : False,
"forwarded" : False,
"english" : False
} ]
}
