{
"mode" : {"viewTitle" : 1,   "viewNew" : 0,  "pageIndex" : 2 },
 "channel" : {"id" : "2423854045442644160", "booked" : False, "subNumber" : 1, "name" : "北京房产-地产访谈", "url" : "http:\/\/bj.house.sina.com.cn\/chat\/index.html", "feed" : "http:\/\/rss.sina.com.cn\/bjhouse\/dcft.xml", "author" : "", "desc" : "北京房产-地产访谈", "imageUrl" : "http:\/\/www.sinaimg.cn\/house\/sina_fc.gif", "postPerWeek" : "0", "lastCrawTime" : "17:13:16", "crawDateTime" : "2013年1月10日", "lastHttpCode" : "304"}, "page" : {
"startIndex" : 20,
"totalCount" : 2887,
"pageIndex" : 2,
"lastPage" : 145,
"pageSize" : 20,
"english" :  False },
 "unreadNum" : 0, "shotIndex" : -1,
"articles" : [
{
"index" : 0,
"articleIndex" : "2866",
"favor" :  False ,
     "read" : False,    
"title" : "辽阳乐居房展会现场采访\u2015\u2015第一城销售经理李论",
"titleTip" : "辽阳乐居房展会现场采访\u2015\u2015第一城销售经理李论",
"titleSummary" : "辽阳乐居房展会现场采访\u2015\u2015第一城销售经理李论",
"descSummary" : "",
"url" : "http:\/\/go.rss.sina.com.cn\/redirect.php?url=http:\/\/house.sina.com.cn\/2012\/04\/24\/479384.html?source=rss",
"pubDate" : "2012年4月24日",
"enterDate" : "384177:52:40",
"channelId" : "2423854045442644160",
"channelName" : "北京房产-地产访谈",
"channelNameSummary" : "北京房产-地产访谈",
"channelUrl" : "http:\/\/bj.house.sina.com.cn\/chat\/index.html",
"author" : "WWW.SINA.COM.CN",
"tags" : [],
"desc" : "",
"emailed" : False,
"forwarded" : False,
"english" : False
}  , {
"index" : 1,
"articleIndex" : "2865",
"favor" :  False ,
     "read" : False,    
"title" : "黄亮：新城物业用品质诠释\u201C幸福\u201D",
"titleTip" : "黄亮：新城物业用品质诠释\u201C幸福\u201D",
"titleSummary" : "黄亮：新城物业用品质诠释\u201C幸福\u201D",
"descSummary" : "作为全国房地产企业19强之一，新城的成功与它一贯坚持的幸福主...",
"url" : "http:\/\/go.rss.sina.com.cn\/redirect.php?url=http:\/\/house.sina.com.cn\/sh\/2012\/04\/24\/479201_all.html?source=rss",
"pubDate" : "2012年4月24日",
"enterDate" : "384201:12:56",
"channelId" : "2423854045442644160",
"channelName" : "北京房产-地产访谈",
"channelNameSummary" : "北京房产-地产访谈",
"channelUrl" : "http:\/\/bj.house.sina.com.cn\/chat\/index.html",
"author" : "WWW.SINA.COM.CN",
"tags" : [],
"desc" : "作为全国房地产企业19强之一，新城的成功与它一贯坚持的幸福主张分不开。十余年来，新城地产一直以\" 传播幸福、成就卓越 \"为美好愿景，全心全意为客户打造幸福人居。",
"emailed" : False,
"forwarded" : False,
"english" : False
}  , {
"index" : 2,
"articleIndex" : "2864",
"favor" :  False ,
     "read" : False,    
"title" : "黄亮：新城物业用品质诠释\u201C幸福\u201D",
"titleTip" : "黄亮：新城物业用品质诠释\u201C幸福\u201D",
"titleSummary" : "黄亮：新城物业用品质诠释\u201C幸福\u201D",
"descSummary" : "提要：作为全国房地产企业19强之一，新城的成功与它一贯坚持的...",
"url" : "http:\/\/go.rss.sina.com.cn\/redirect.php?url=http:\/\/house.sina.com.cn\/sh\/2012\/04\/24\/479201.html?source=rss",
"pubDate" : "2012年4月24日",
"enterDate" : "384201:12:49",
"channelId" : "2423854045442644160",
"channelName" : "北京房产-地产访谈",
"channelNameSummary" : "北京房产-地产访谈",
"channelUrl" : "http:\/\/bj.house.sina.com.cn\/chat\/index.html",
"author" : "WWW.SINA.COM.CN",
"tags" : [],
"desc" : "提要：作为全国房地产企业19强之一，新城的成功与它一贯坚持的幸福主张分不开。十余年来，新城地产一直以\" 传播幸福、成就卓越 \"为美好愿景，全心全意为客户打造幸福人居。",
"emailed" : False,
"forwarded" : False,
"english" : False
}  , {
"index" : 3,
"articleIndex" : "2863",
"favor" :  False ,
     "read" : False,    
"title" : "九龙仓杭州总经理：用跟内地文化相结合的模式做好产品",
"titleTip" : "九龙仓杭州总经理：用跟内地文化相结合的模式做好产品",
"titleSummary" : "九龙仓杭州总经理：用跟内地文化相结合的模式做好产品",
"descSummary" : "",
"url" : "http:\/\/go.rss.sina.com.cn\/redirect.php?url=http:\/\/house.sina.com.cn\/2012\/04\/24\/479164.html?source=rss",
"pubDate" : "2012年4月24日",
"enterDate" : "384200:50:41",
"channelId" : "2423854045442644160",
"channelName" : "北京房产-地产访谈",
"channelNameSummary" : "北京房产-地产访谈",
"channelUrl" : "http:\/\/bj.house.sina.com.cn\/chat\/index.html",
"author" : "WWW.SINA.COM.CN",
"tags" : [],
"desc" : "",
"emailed" : False,
"forwarded" : False,
"english" : False
}  , {
"index" : 4,
"articleIndex" : "2862",
"favor" :  False ,
     "read" : False,    
"title" : "华南地产论语：广州第三中轴线优劣势分析",
"titleTip" : "华南地产论语：广州第三中轴线优劣势分析",
"titleSummary" : "华南地产论语：广州第三中轴线优劣势分析",
"descSummary" : "",
"url" : "http:\/\/go.rss.sina.com.cn\/redirect.php?url=http:\/\/house.sina.com.cn\/2012\/04\/23\/478776.html?source=rss",
"pubDate" : "2012年4月23日",
"enterDate" : "384201:10:52",
"channelId" : "2423854045442644160",
"channelName" : "北京房产-地产访谈",
"channelNameSummary" : "北京房产-地产访谈",
"channelUrl" : "http:\/\/bj.house.sina.com.cn\/chat\/index.html",
"author" : "WWW.SINA.COM.CN",
"tags" : [],
"desc" : "",
"emailed" : False,
"forwarded" : False,
"english" : False
}  , {
"index" : 5,
"articleIndex" : "2861",
"favor" :  False ,
     "read" : False,    
"title" : "华南地产论语：房地产周期与\u201C五一\u201D楼市预判",
"titleTip" : "华南地产论语：房地产周期与\u201C五一\u201D楼市预判",
"titleSummary" : "华南地产论语：房地产周期与\u201C五一\u201D楼市预判",
"descSummary" : "",
"url" : "http:\/\/go.rss.sina.com.cn\/redirect.php?url=http:\/\/house.sina.com.cn\/2012\/04\/23\/478750.html?source=rss",
"pubDate" : "2012年4月23日",
"enterDate" : "384200:48:37",
"channelId" : "2423854045442644160",
"channelName" : "北京房产-地产访谈",
"channelNameSummary" : "北京房产-地产访谈",
"channelUrl" : "http:\/\/bj.house.sina.com.cn\/chat\/index.html",
"author" : "WWW.SINA.COM.CN",
"tags" : [],
"desc" : "",
"emailed" : False,
"forwarded" : False,
"english" : False
}  , {
"index" : 6,
"articleIndex" : "2860",
"favor" :  False ,
     "read" : False,    
"title" : "\u201C新城@幸福社区\u201D新城地产领导乐居专访",
"titleTip" : "\u201C新城@幸福社区\u201D新城地产领导乐居专访",
"titleSummary" : "\u201C新城@幸福社区\u201D新城地产领导乐居专访",
"descSummary" : "作为全国房地产企业19强之一，新城的成功与它一贯坚持的...",
"url" : "http:\/\/go.rss.sina.com.cn\/redirect.php?url=http:\/\/house.sina.com.cn\/sh\/2012\/04\/20\/477571_all.html?source=rss",
"pubDate" : "2012年4月20日",
"enterDate" : "384142:39:44",
"channelId" : "2423854045442644160",
"channelName" : "北京房产-地产访谈",
"channelNameSummary" : "北京房产-地产访谈",
"channelUrl" : "http:\/\/bj.house.sina.com.cn\/chat\/index.html",
"author" : "WWW.SINA.COM.CN",
"tags" : [],
"desc" : "作为全国房地产企业19强之一，新城的成功与它一贯坚持的幸福主张分不开。十余年来，新城地产坚守\u201C让幸福变得简单\u201D的品牌理念，全心全意为客户打造幸福人居。",
"emailed" : False,
"forwarded" : False,
"english" : False
}  , {
"index" : 7,
"articleIndex" : "2859",
"favor" :  False ,
     "read" : False,    
"title" : "\u201C新城@幸福社区\u201D新城地产领导乐居专访",
"titleTip" : "\u201C新城@幸福社区\u201D新城地产领导乐居专访",
"titleSummary" : "\u201C新城@幸福社区\u201D新城地产领导乐居专访",
"descSummary" : "提要：作为全国房地产企业19强之一，新城的成功与它一贯...",
"url" : "http:\/\/go.rss.sina.com.cn\/redirect.php?url=http:\/\/house.sina.com.cn\/sh\/2012\/04\/20\/477571.html?source=rss",
"pubDate" : "2012年4月20日",
"enterDate" : "384142:39:37",
"channelId" : "2423854045442644160",
"channelName" : "北京房产-地产访谈",
"channelNameSummary" : "北京房产-地产访谈",
"channelUrl" : "http:\/\/bj.house.sina.com.cn\/chat\/index.html",
"author" : "WWW.SINA.COM.CN",
"tags" : [],
"desc" : "提要：作为全国房地产企业19强之一，新城的成功与它一贯坚持的幸福主张分不开。十余年来，新城地产坚守\u201C让幸福变得简单\u201D的品牌理念，全心全意为客户打造幸福人居。",
"emailed" : False,
"forwarded" : False,
"english" : False
}  , {
"index" : 8,
"articleIndex" : "2858",
"favor" :  False ,
     "read" : False,    
"title" : "黄亮：新城物业用品质诠释\u201C幸福\u201D",
"titleTip" : "黄亮：新城物业用品质诠释\u201C幸福\u201D",
"titleSummary" : "黄亮：新城物业用品质诠释\u201C幸福\u201D",
"descSummary" : "作为全国房地产企业19强之一，新城的成功与它一贯坚持的幸福主...",
"url" : "http:\/\/go.rss.sina.com.cn\/redirect.php?url=http:\/\/house.sina.com.cn\/2012\/04\/20\/477385_all.html?source=rss",
"pubDate" : "2012年4月20日",
"enterDate" : "384139:07:27",
"channelId" : "2423854045442644160",
"channelName" : "北京房产-地产访谈",
"channelNameSummary" : "北京房产-地产访谈",
"channelUrl" : "http:\/\/bj.house.sina.com.cn\/chat\/index.html",
"author" : "WWW.SINA.COM.CN",
"tags" : [],
"desc" : "作为全国房地产企业19强之一，新城的成功与它一贯坚持的幸福主张分不开。十余年来，新城地产一直以\" 传播幸福、成就卓越 \"为美好愿景，全心全意为客户打造幸福人居。2012 年，新城推出\u201C新城@幸福社区\u201D的年度传播主题，延续自身幸福主张。新城如何打造幸福社区？如何在客户服务等....",
"emailed" : False,
"forwarded" : False,
"english" : False
}  , {
"index" : 9,
"articleIndex" : "2857",
"favor" :  False ,
     "read" : False,    
"title" : "黄亮：新城物业用品质诠释\u201C幸福\u201D",
"titleTip" : "黄亮：新城物业用品质诠释\u201C幸福\u201D",
"titleSummary" : "黄亮：新城物业用品质诠释\u201C幸福\u201D",
"descSummary" : "提要：作为全国房地产企业19强之一，新城的成功与它一贯坚持的...",
"url" : "http:\/\/go.rss.sina.com.cn\/redirect.php?url=http:\/\/house.sina.com.cn\/sh\/2012\/04\/20\/477385.html?source=rss",
"pubDate" : "2012年4月20日",
"enterDate" : "384139:06:57",
"channelId" : "2423854045442644160",
"channelName" : "北京房产-地产访谈",
"channelNameSummary" : "北京房产-地产访谈",
"channelUrl" : "http:\/\/bj.house.sina.com.cn\/chat\/index.html",
"author" : "WWW.SINA.COM.CN",
"tags" : [],
"desc" : "提要：作为全国房地产企业19强之一，新城的成功与它一贯坚持的幸福主张分不开。十余年来，新城地产一直以\" 传播幸福、成就卓越 \"为美好愿景，全心全意为客户打造幸福人居。2012 年，新城推出\u201C新城@幸福社区\u201D的年度传播主题，延续自身幸福主张。新城如何打造幸福社区？如何在客户....",
"emailed" : False,
"forwarded" : False,
"english" : False
}  , {
"index" : 10,
"articleIndex" : "2856",
"favor" :  False ,
     "read" : False,    
"title" : "柳燕：将幸福进行到底",
"titleTip" : "柳燕：将幸福进行到底",
"titleSummary" : "柳燕：将幸福进行到底",
"descSummary" : "作为全国房地产企业20强之一，新城的成功与它一贯坚持的幸福主张分不开。十...",
"url" : "http:\/\/go.rss.sina.com.cn\/redirect.php?url=http:\/\/house.sina.com.cn\/sh\/2012\/04\/20\/477356_all.html?source=rss",
"pubDate" : "2012年4月20日",
"enterDate" : "384138:56:40",
"channelId" : "2423854045442644160",
"channelName" : "北京房产-地产访谈",
"channelNameSummary" : "北京房产-地产访谈",
"channelUrl" : "http:\/\/bj.house.sina.com.cn\/chat\/index.html",
"author" : "WWW.SINA.COM.CN",
"tags" : [],
"desc" : "作为全国房地产企业20强之一，新城的成功与它一贯坚持的幸福主张分不开。十八年来，新城地产一直以\" 传播幸福、成就卓越 \"为美好愿景，全心全意为客户打造幸福人居。2012 年，新城推出\u201C新城@幸福社区\u201D的年度传播主题，延续自身幸福主张。新城如何打造幸福社区？如何在客户服务等....",
"emailed" : False,
"forwarded" : False,
"english" : False
}  , {
"index" : 11,
"articleIndex" : "2855",
"favor" :  False ,
     "read" : False,    
"title" : "柳燕：将幸福进行到底",
"titleTip" : "柳燕：将幸福进行到底",
"titleSummary" : "柳燕：将幸福进行到底",
"descSummary" : "提要：作为全国房地产企业20强之一，新城的成功与它一贯坚持的幸福主张分不...",
"url" : "http:\/\/go.rss.sina.com.cn\/redirect.php?url=http:\/\/house.sina.com.cn\/sh\/2012\/04\/20\/477356.html?source=rss",
"pubDate" : "2012年4月20日",
"enterDate" : "384138:56:31",
"channelId" : "2423854045442644160",
"channelName" : "北京房产-地产访谈",
"channelNameSummary" : "北京房产-地产访谈",
"channelUrl" : "http:\/\/bj.house.sina.com.cn\/chat\/index.html",
"author" : "WWW.SINA.COM.CN",
"tags" : [],
"desc" : "提要：作为全国房地产企业20强之一，新城的成功与它一贯坚持的幸福主张分不开。十八年来，新城地产一直以\" 传播幸福、成就卓越 \"为美好愿景，全心全意为客户打造幸福人居。2012 年，新城推出\u201C新城@幸福社区\u201D的年度传播主题，延续自身幸福主张。新城如何打造幸福社区？如何在客户....",
"emailed" : False,
"forwarded" : False,
"english" : False
}  , {
"index" : 12,
"articleIndex" : "2854",
"favor" :  False ,
     "read" : False,    
"title" : "直播：2012重庆商业地产发展论坛",
"titleTip" : "直播：2012重庆商业地产发展论坛",
"titleSummary" : "直播：2012重庆商业地产发展论坛",
"descSummary" : "",
"url" : "http:\/\/go.rss.sina.com.cn\/redirect.php?url=http:\/\/house.sina.com.cn\/2012\/04\/18\/475860.html?source=rss",
"pubDate" : "2012年4月18日",
"enterDate" : "384199:53:00",
"channelId" : "2423854045442644160",
"channelName" : "北京房产-地产访谈",
"channelNameSummary" : "北京房产-地产访谈",
"channelUrl" : "http:\/\/bj.house.sina.com.cn\/chat\/index.html",
"author" : "WWW.SINA.COM.CN",
"tags" : [],
"desc" : "",
"emailed" : False,
"forwarded" : False,
"english" : False
}  , {
"index" : 13,
"articleIndex" : "2853",
"favor" :  False ,
     "read" : False,    
"title" : "李一戈：3月全国房价数据符合调控预期",
"titleTip" : "李一戈：3月全国房价数据符合调控预期",
"titleSummary" : "李一戈：3月全国房价数据符合调控预期",
"descSummary" : "",
"url" : "http:\/\/go.rss.sina.com.cn\/redirect.php?url=http:\/\/house.sina.com.cn\/2012\/04\/18\/475688.html?source=rss",
"pubDate" : "2012年4月18日",
"enterDate" : "384200:54:54",
"channelId" : "2423854045442644160",
"channelName" : "北京房产-地产访谈",
"channelNameSummary" : "北京房产-地产访谈",
"channelUrl" : "http:\/\/bj.house.sina.com.cn\/chat\/index.html",
"author" : "WWW.SINA.COM.CN",
"tags" : [],
"desc" : "",
"emailed" : False,
"forwarded" : False,
"english" : False
}  , {
"index" : 14,
"articleIndex" : "2852",
"favor" :  False ,
     "read" : False,    
"title" : "专访犀利哥陈宝存:成都商业地产泡沫渐起",
"titleTip" : "专访犀利哥陈宝存:成都商业地产泡沫渐起",
"titleSummary" : "专访犀利哥陈宝存:成都商业地产泡沫渐起",
"descSummary" : "",
"url" : "http:\/\/go.rss.sina.com.cn\/redirect.php?url=http:\/\/house.sina.com.cn\/2012\/04\/18\/475673.html?source=rss",
"pubDate" : "2012年4月18日",
"enterDate" : "384201:12:36",
"channelId" : "2423854045442644160",
"channelName" : "北京房产-地产访谈",
"channelNameSummary" : "北京房产-地产访谈",
"channelUrl" : "http:\/\/bj.house.sina.com.cn\/chat\/index.html",
"author" : "WWW.SINA.COM.CN",
"tags" : [],
"desc" : "",
"emailed" : False,
"forwarded" : False,
"english" : False
}  , {
"index" : 15,
"articleIndex" : "2851",
"favor" :  False ,
     "read" : False,    
"title" : "应高新区而生 益禾人才公寓只租不售保障人才安居",
"titleTip" : "应高新区而生 益禾人才公寓只租不售保障人才安居",
"titleSummary" : "应高新区而生 益禾人才公寓只租不售保障人才安居",
"descSummary" : "",
"url" : "http:\/\/go.rss.sina.com.cn\/redirect.php?url=http:\/\/house.sina.com.cn\/2012\/04\/18\/475289.html?source=rss",
"pubDate" : "2012年4月18日",
"enterDate" : "384197:10:11",
"channelId" : "2423854045442644160",
"channelName" : "北京房产-地产访谈",
"channelNameSummary" : "北京房产-地产访谈",
"channelUrl" : "http:\/\/bj.house.sina.com.cn\/chat\/index.html",
"author" : "WWW.SINA.COM.CN",
"tags" : [],
"desc" : "",
"emailed" : False,
"forwarded" : False,
"english" : False
}  , {
"index" : 16,
"articleIndex" : "2850",
"favor" :  False ,
     "read" : False,    
"title" : "新浪乐居楼市壹周刊",
"titleTip" : "新浪乐居楼市壹周刊",
"titleSummary" : "新浪乐居楼市壹周刊",
"descSummary" : "",
"url" : "http:\/\/go.rss.sina.com.cn\/redirect.php?url=http:\/\/house.sina.com.cn\/2012\/04\/14\/473269.html?source=rss",
"pubDate" : "2012年4月14日",
"enterDate" : "384201:11:48",
"channelId" : "2423854045442644160",
"channelName" : "北京房产-地产访谈",
"channelNameSummary" : "北京房产-地产访谈",
"channelUrl" : "http:\/\/bj.house.sina.com.cn\/chat\/index.html",
"author" : "WWW.SINA.COM.CN",
"tags" : [],
"desc" : "",
"emailed" : False,
"forwarded" : False,
"english" : False
}  , {
"index" : 17,
"articleIndex" : "2849",
"favor" :  False ,
     "read" : False,    
"title" : "直播：金地湖城大境【天锦】新品发布会",
"titleTip" : "直播：金地湖城大境【天锦】新品发布会",
"titleSummary" : "直播：金地湖城大境【天锦】新品发布会",
"descSummary" : "",
"url" : "http:\/\/go.rss.sina.com.cn\/redirect.php?url=http:\/\/house.sina.com.cn\/2012\/04\/13\/473150.html?source=rss",
"pubDate" : "2012年4月13日",
"enterDate" : "384200:53:22",
"channelId" : "2423854045442644160",
"channelName" : "北京房产-地产访谈",
"channelNameSummary" : "北京房产-地产访谈",
"channelUrl" : "http:\/\/bj.house.sina.com.cn\/chat\/index.html",
"author" : "WWW.SINA.COM.CN",
"tags" : [],
"desc" : "",
"emailed" : False,
"forwarded" : False,
"english" : False
}  , {
"index" : 18,
"articleIndex" : "2848",
"favor" :  False ,
     "read" : False,    
"title" : "与发展中的中国房地产业共成长(5)",
"titleTip" : "与发展中的中国房地产业共成长(5)",
"titleSummary" : "与发展中的中国房地产业共成长(5)",
"descSummary" : "",
"url" : "http:\/\/go.rss.sina.com.cn\/redirect.php?url=http:\/\/house.sina.com.cn\/2012\/04\/13\/472908.html?source=rss",
"pubDate" : "2012年4月13日",
"enterDate" : "384198:34:21",
"channelId" : "2423854045442644160",
"channelName" : "北京房产-地产访谈",
"channelNameSummary" : "北京房产-地产访谈",
"channelUrl" : "http:\/\/bj.house.sina.com.cn\/chat\/index.html",
"author" : "WWW.SINA.COM.CN",
"tags" : [],
"desc" : "",
"emailed" : False,
"forwarded" : False,
"english" : False
}  , {
"index" : 19,
"articleIndex" : "2847",
"favor" :  False ,
     "read" : False,    
"title" : "与发展中的中国房地产业共成长(4)",
"titleTip" : "与发展中的中国房地产业共成长(4)",
"titleSummary" : "与发展中的中国房地产业共成长(4)",
"descSummary" : "",
"url" : "http:\/\/go.rss.sina.com.cn\/redirect.php?url=http:\/\/house.sina.com.cn\/2012\/04\/13\/472907.html?source=rss",
"pubDate" : "2012年4月13日",
"enterDate" : "384198:34:00",
"channelId" : "2423854045442644160",
"channelName" : "北京房产-地产访谈",
"channelNameSummary" : "北京房产-地产访谈",
"channelUrl" : "http:\/\/bj.house.sina.com.cn\/chat\/index.html",
"author" : "WWW.SINA.COM.CN",
"tags" : [],
"desc" : "",
"emailed" : False,
"forwarded" : False,
"english" : False
} ]
}
