{
"mode" : {"viewTitle" : 1,   "viewNew" : 0,  "pageIndex" : 1 },
 "channel" : {"id" : "-1942644364349904951", "booked" : False, "subNumber" : 1, "name" : "司法考试-新浪教育", "url" : "http:\/\/edu.sina.com.cn\/lawyer\/", "feed" : "http:\/\/rss.sina.com.cn\/edu\/sifa.xml", "author" : "WWW.SINA.COM.CN", "desc" : "司法考试新闻列表", "imageUrl" : "http:\/\/www.sinaimg.cn\/home\/deco\/2009\/0330\/logo_home_edu.gif", "postPerWeek" : "0", "lastCrawTime" : "17:18:35", "crawDateTime" : "17:18:35", "lastHttpCode" : "200"}, "page" : {
"startIndex" : 0,
"totalCount" : 1101,
"pageIndex" : 1,
"lastPage" : 56,
"pageSize" : 20,
"english" :  False },
 "unreadNum" : 0, "shotIndex" : -1,
"articles" : [
{
"index" : 0,
"articleIndex" : "1100",
"favor" :  False ,
     "read" : False,    
"title" : "司法考试诈骗短信猖獗 指名道姓卖答案",
"titleTip" : "司法考试诈骗短信猖獗 指名道姓卖答案",
"titleSummary" : "司法考试诈骗短信猖獗 指名道姓卖答案",
"descSummary" : "司法考试报名 诈骗短信收了上千条 骗子指名道姓卖\u201C司考答案\u201D...",
"url" : "http:\/\/go.rss.sina.com.cn\/redirect.php?url=http:\/\/edu.sina.com.cn\/official\/2013-09-18\/0816395695.shtml",
"pubDate" : "2013年9月18日",
"enterDate" : "384181:29:28",
"channelId" : "-1942644364349904951",
"channelName" : "司法考试-新浪教育",
"channelNameSummary" : "司法考试-新浪教育",
"channelUrl" : "http:\/\/edu.sina.com.cn\/lawyer\/",
"author" : "WWW.SINA.COM.CN",
"tags" : [],
"desc" : "司法考试报名 诈骗短信收了上千条 骗子指名道姓卖\u201C司考答案\u201D 最近几个月，有一件事让家住福田区的杨先生感到闹心。今年，他报名参加了国家司法四个考试，一心想着好好复习。但就在报名与考试之间的三个多月里，他收到了上千条诈骗短信，多是\u201C提前出售司法考....",
"emailed" : False,
"forwarded" : False,
"english" : False
}  , {
"index" : 1,
"articleIndex" : "1099",
"favor" :  False ,
     "read" : False,    
"title" : "政策放宽法治进步助推司考持续升温",
"titleTip" : "政策放宽法治进步助推司考持续升温",
"titleSummary" : "政策放宽法治进步助推司考持续升温",
"descSummary" : "9月14日、15日举行的第12次国家司法考试，全国报名人数达43.6万...",
"url" : "http:\/\/go.rss.sina.com.cn\/redirect.php?url=http:\/\/edu.sina.com.cn\/zgks\/2013-09-16\/1658395552.shtml",
"pubDate" : "2013年9月16日",
"enterDate" : "384201:04:43",
"channelId" : "-1942644364349904951",
"channelName" : "司法考试-新浪教育",
"channelNameSummary" : "司法考试-新浪教育",
"channelUrl" : "http:\/\/edu.sina.com.cn\/lawyer\/",
"author" : "WWW.SINA.COM.CN",
"tags" : [],
"desc" : "9月14日、15日举行的第12次国家司法考试，全国报名人数达43.6万余人，创12年来最高纪录。 司法考试为何持续升温？多位司法局负责人及曾参加司法考试的\u201C过来人\u201D今天接受《法制日报》记者采访时一致认为，政策放宽和国家民主法治进步是升温的两大主因。 今年，....",
"emailed" : False,
"forwarded" : False,
"english" : False
}  , {
"index" : 2,
"articleIndex" : "1098",
"favor" :  False ,
     "read" : False,    
"title" : "2013年国家司法考试数据分析",
"titleTip" : "2013年国家司法考试数据分析",
"titleSummary" : "2013年国家司法考试数据分析",
"descSummary" : "为期两天的2013年国家司法考试9月14日在全国统一开考。今年全国报考人...",
"url" : "http:\/\/go.rss.sina.com.cn\/redirect.php?url=http:\/\/edu.sina.com.cn\/zgks\/2013-09-16\/1657395551.shtml",
"pubDate" : "2013年9月16日",
"enterDate" : "384201:03:38",
"channelId" : "-1942644364349904951",
"channelName" : "司法考试-新浪教育",
"channelNameSummary" : "司法考试-新浪教育",
"channelUrl" : "http:\/\/edu.sina.com.cn\/lawyer\/",
"author" : "WWW.SINA.COM.CN",
"tags" : [],
"desc" : "为期两天的2013年国家司法考试9月14日在全国统一开考。今年全国报考人数达43.6万人，比去年增加3.2万人。其中，普通高等学校应届本科毕业生报考人数达7.8万人，占全国报名总数的17.9%。全国31个省(区、市)及香港特别行政区、澳门特别行政区共设置258个考区、1.4万余个考场。....",
"emailed" : False,
"forwarded" : False,
"english" : False
}  , {
"index" : 3,
"articleIndex" : "1097",
"favor" :  False ,
     "read" : False,    
"title" : "2013年司法考试真题分值分布图",
"titleTip" : "2013年司法考试真题分值分布图",
"titleSummary" : "2013年司法考试真题分值分布图",
"descSummary" : "2013年司法考试刚刚结束，新东方在线网络课堂司法辅导团队第一时间...",
"url" : "http:\/\/go.rss.sina.com.cn\/redirect.php?url=http:\/\/edu.sina.com.cn\/zgks\/2013-09-16\/1656395550.shtml",
"pubDate" : "2013年9月16日",
"enterDate" : "384201:02:02",
"channelId" : "-1942644364349904951",
"channelName" : "司法考试-新浪教育",
"channelNameSummary" : "司法考试-新浪教育",
"channelUrl" : "http:\/\/edu.sina.com.cn\/lawyer\/",
"author" : "WWW.SINA.COM.CN",
"tags" : [],
"desc" : "2013年司法考试刚刚结束，新东方在线网络课堂司法辅导团队第一时间对本次考试真题进行了分析，并对各卷中各项法律所占分值情况进行了汇总，供广大2014参加司法考试考生参考。同时，新东方在网络课堂司法名师辅导团队也对今年真题进行了解析，请大家持续关注，并祝广大2013考生....",
"emailed" : False,
"forwarded" : False,
"english" : False
}  , {
"index" : 4,
"articleIndex" : "1096",
"favor" :  False ,
     "read" : False,    
"title" : "广东3万人参加2013年司法考试",
"titleTip" : "广东3万人参加2013年司法考试",
"titleSummary" : "广东3万人参加2013年司法考试",
"descSummary" : "羊城晚报讯 记者林洁、实习生化麦子、通讯员刘洪群报道：14日、15日两...",
"url" : "http:\/\/go.rss.sina.com.cn\/redirect.php?url=http:\/\/edu.sina.com.cn\/zgks\/2013-09-16\/1033395359.shtml",
"pubDate" : "2013年9月16日",
"enterDate" : "384201:10:44",
"channelId" : "-1942644364349904951",
"channelName" : "司法考试-新浪教育",
"channelNameSummary" : "司法考试-新浪教育",
"channelUrl" : "http:\/\/edu.sina.com.cn\/lawyer\/",
"author" : "WWW.SINA.COM.CN",
"tags" : [],
"desc" : "羊城晚报讯 记者林洁、实习生化麦子、通讯员刘洪群报道：14日、15日两天，2013年国家司法考试全国同步进行，广东报名人数超过3万人，位居全国首位，全省设17个考区，1000余个考场。据了解，单广州市就报名超过万人，位居全省第一。其次是深圳，报名7000余人。 据广东国....",
"emailed" : False,
"forwarded" : False,
"english" : False
}  , {
"index" : 5,
"articleIndex" : "1095",
"favor" :  False ,
     "read" : False,    
"title" : "2013年国家司法考试试题及参考答案",
"titleTip" : "2013年国家司法考试试题及参考答案",
"titleSummary" : "2013年国家司法考试试题及参考答案",
"descSummary" : "2013年国家司法考试试题于9月16日8时公布，并于9月19日晚20时公...",
"url" : "http:\/\/go.rss.sina.com.cn\/redirect.php?url=http:\/\/edu.sina.com.cn\/zgks\/2013-09-16\/1019395352.shtml",
"pubDate" : "2013年9月16日",
"enterDate" : "384200:56:44",
"channelId" : "-1942644364349904951",
"channelName" : "司法考试-新浪教育",
"channelNameSummary" : "司法考试-新浪教育",
"channelUrl" : "http:\/\/edu.sina.com.cn\/lawyer\/",
"author" : "WWW.SINA.COM.CN",
"tags" : [],
"desc" : "2013年国家司法考试试题于9月16日8时公布，并于9月19日晚20时公布2013年国家司法考试试题参考答案，同时开通\u201C2013年国家司法考试试题参考答案异议专区\u201D。 社会各界如对试题参考答案有异议，可于9月19日至9月23日期间登录中国普法网\u201C2013年国家司法考试试题参考答案....",
"emailed" : False,
"forwarded" : False,
"english" : False
}  , {
"index" : 6,
"articleIndex" : "1094",
"favor" :  False ,
     "read" : False,    
"title" : "2013年国家司法考试试卷四",
"titleTip" : "2013年国家司法考试试卷四",
"titleSummary" : "2013年国家司法考试试卷四",
"descSummary" : "试卷四 提示：本试卷为简答题、案例分析题、论述题。请按题序在答题纸对...",
"url" : "http:\/\/go.rss.sina.com.cn\/redirect.php?url=http:\/\/edu.sina.com.cn\/zgks\/2013-09-16\/1014395347.shtml",
"pubDate" : "2013年9月16日",
"enterDate" : "384200:51:40",
"channelId" : "-1942644364349904951",
"channelName" : "司法考试-新浪教育",
"channelNameSummary" : "司法考试-新浪教育",
"channelUrl" : "http:\/\/edu.sina.com.cn\/lawyer\/",
"author" : "WWW.SINA.COM.CN",
"tags" : [],
"desc" : "试卷四 提示：本试卷为简答题、案例分析题、论述题。请按题序在答题纸对应位置书写答案，勿在卷面上直接作答。 一、(本题20分) 材料一： 中共中央政治局2月23日下午就全面推进依法治国进行第四次集体学习。中共中央总书记习近平在主持学习时强调，我国形成了....",
"emailed" : False,
"forwarded" : False,
"english" : False
}  , {
"index" : 7,
"articleIndex" : "1093",
"favor" :  False ,
     "read" : False,    
"title" : "2013年国家司法考试试卷三",
"titleTip" : "2013年国家司法考试试卷三",
"titleSummary" : "2013年国家司法考试试卷三",
"descSummary" : "试卷三 提示：本试卷为选择题，由计算机阅读。请将所选答案填涂在答题卡...",
"url" : "http:\/\/go.rss.sina.com.cn\/redirect.php?url=http:\/\/edu.sina.com.cn\/zgks\/2013-09-16\/1011395338.shtml",
"pubDate" : "2013年9月16日",
"enterDate" : "384200:48:55",
"channelId" : "-1942644364349904951",
"channelName" : "司法考试-新浪教育",
"channelNameSummary" : "司法考试-新浪教育",
"channelUrl" : "http:\/\/edu.sina.com.cn\/lawyer\/",
"author" : "WWW.SINA.COM.CN",
"tags" : [],
"desc" : "试卷三 提示：本试卷为选择题，由计算机阅读。请将所选答案填涂在答题卡上，勿在卷面上直接作答。 一、单项选择题。每题所设选项中只有一个正确答案，多选、错选或不选均不得分。本部分含1\u201550题，每题1分，共50分。 1.兹有 四个事例：①张某驾车违章发生交....",
"emailed" : False,
"forwarded" : False,
"english" : False
}  , {
"index" : 8,
"articleIndex" : "1092",
"favor" :  False ,
     "read" : False,    
"title" : "2013年国家司法考试试卷二",
"titleTip" : "2013年国家司法考试试卷二",
"titleSummary" : "2013年国家司法考试试卷二",
"descSummary" : "试卷二 提示：本试卷为选择题，由计算机阅读。请将所选答案填涂在答题卡...",
"url" : "http:\/\/go.rss.sina.com.cn\/redirect.php?url=http:\/\/edu.sina.com.cn\/zgks\/2013-09-16\/1007395329.shtml",
"pubDate" : "2013年9月16日",
"enterDate" : "384200:44:10",
"channelId" : "-1942644364349904951",
"channelName" : "司法考试-新浪教育",
"channelNameSummary" : "司法考试-新浪教育",
"channelUrl" : "http:\/\/edu.sina.com.cn\/lawyer\/",
"author" : "WWW.SINA.COM.CN",
"tags" : [],
"desc" : "试卷二 提示：本试卷为选择题，由计算机阅读。请将所选答案填涂在答题卡上，勿在卷面上直接作答。 一、单项选择题。每题所设选项中只有一个正确答案，多选、错选或不选均不得分。本部分含1\u201550题，每题1分，共50分。 1.甲给机场打电话谎称\u201C3架飞机上有炸弹....",
"emailed" : False,
"forwarded" : False,
"english" : False
}  , {
"index" : 9,
"articleIndex" : "1086",
"favor" :  False ,
     "read" : False,    
"title" : "2013年国家司法考试试卷一",
"titleTip" : "2013年国家司法考试试卷一",
"titleSummary" : "2013年国家司法考试试卷一",
"descSummary" : "试卷一 提示：本试卷为选择题，由计算机阅读。请将所选答案填涂在答题卡...",
"url" : "http:\/\/go.rss.sina.com.cn\/redirect.php?url=http:\/\/edu.sina.com.cn\/zgks\/2013-09-16\/0959395321.shtml",
"pubDate" : "2013年9月16日",
"enterDate" : "384201:06:54",
"channelId" : "-1942644364349904951",
"channelName" : "司法考试-新浪教育",
"channelNameSummary" : "司法考试-新浪教育",
"channelUrl" : "http:\/\/edu.sina.com.cn\/lawyer\/",
"author" : "WWW.SINA.COM.CN",
"tags" : [],
"desc" : "试卷一 提示：本试卷为选择题，由计算机阅读。请将所选答案填涂在答题卡上，勿在卷面上直接作答。 一、单项选择题。每题所设选项中只有一个正确答案，多选、错选或不选均不得分。本部分含1\u201550题，每题1分，共50分。 1.依法治国是社会主义法治的核心内容....",
"emailed" : False,
"forwarded" : False,
"english" : False
}  , {
"index" : 10,
"articleIndex" : "1087",
"favor" :  False ,
     "read" : False,    
"title" : "2013年国家司法考试试卷一(2)",
"titleTip" : "2013年国家司法考试试卷一(2)",
"titleSummary" : "2013年国家司法考试试卷一(2)",
"descSummary" : "18.\u201C名例律\u201D作为中国古代律典的\u201C总则\u201D篇，经历了发展、变化的过程...",
"url" : "http:\/\/go.rss.sina.com.cn\/redirect.php?url=http:\/\/edu.sina.com.cn\/zgks\/2013-09-16\/0959395321_2.shtml",
"pubDate" : "2013年9月16日",
"enterDate" : "384201:06:54",
"channelId" : "-1942644364349904951",
"channelName" : "司法考试-新浪教育",
"channelNameSummary" : "司法考试-新浪教育",
"channelUrl" : "http:\/\/edu.sina.com.cn\/lawyer\/",
"author" : "WWW.SINA.COM.CN",
"tags" : [],
"desc" : "18.\u201C名例律\u201D作为中国古代律典的\u201C总则\u201D篇，经历了发展、变化的过程。下列哪一表述是不正确的？ A。《法经》六篇中有\u201C具法\u201D篇，置于末尾，为关于定罪量刑中从轻从重法律原则的规定 B。《晋律》共20篇，在刑名律后增加了法例律，丰富了刑法总则的内容 ....",
"emailed" : False,
"forwarded" : False,
"english" : False
}  , {
"index" : 11,
"articleIndex" : "1088",
"favor" :  False ,
     "read" : False,    
"title" : "2013年国家司法考试试卷一(3)",
"titleTip" : "2013年国家司法考试试卷一(3)",
"titleSummary" : "2013年国家司法考试试卷一(3)",
"descSummary" : "38.法国某公司依1958年联合国《承认与执行外国仲裁裁决公约》，请求中...",
"url" : "http:\/\/go.rss.sina.com.cn\/redirect.php?url=http:\/\/edu.sina.com.cn\/zgks\/2013-09-16\/0959395321_3.shtml",
"pubDate" : "2013年9月16日",
"enterDate" : "384201:06:54",
"channelId" : "-1942644364349904951",
"channelName" : "司法考试-新浪教育",
"channelNameSummary" : "司法考试-新浪教育",
"channelUrl" : "http:\/\/edu.sina.com.cn\/lawyer\/",
"author" : "WWW.SINA.COM.CN",
"tags" : [],
"desc" : "38.法国某公司依1958年联合国《承认与执行外国仲裁裁决公约》，请求中国法院承认与执行一项国际商会国际仲裁院的裁决。依据该公约及中国相关司法解释，下列哪一表述是正确的？ A。法院应依职权主动审查该仲裁过程中是否存在仲裁程序与仲裁协议不符的情况 B。该....",
"emailed" : False,
"forwarded" : False,
"english" : False
}  , {
"index" : 12,
"articleIndex" : "1089",
"favor" :  False ,
     "read" : False,    
"title" : "2013年国家司法考试试卷一(4)",
"titleTip" : "2013年国家司法考试试卷一(4)",
"titleSummary" : "2013年国家司法考试试卷一(4)",
"descSummary" : "二、多项选择题。每题所设选项中至少有两个正确答案，多选、少选、错选...",
"url" : "http:\/\/go.rss.sina.com.cn\/redirect.php?url=http:\/\/edu.sina.com.cn\/zgks\/2013-09-16\/0959395321_4.shtml",
"pubDate" : "2013年9月16日",
"enterDate" : "384201:06:54",
"channelId" : "-1942644364349904951",
"channelName" : "司法考试-新浪教育",
"channelNameSummary" : "司法考试-新浪教育",
"channelUrl" : "http:\/\/edu.sina.com.cn\/lawyer\/",
"author" : "WWW.SINA.COM.CN",
"tags" : [],
"desc" : "二、多项选择题。每题所设选项中至少有两个正确答案，多选、少选、错选或不选均不得分。本部分含51\u201585题，每题2分，共70分。 51.\u201C近现代法治的实质和精义在于控权，即对权力在形式和实质上的合法性的强调，包括权力制约权力、权利制约权力和法律的制约。法律的制约是....",
"emailed" : False,
"forwarded" : False,
"english" : False
}  , {
"index" : 13,
"articleIndex" : "1090",
"favor" :  False ,
     "read" : False,    
"title" : "2013年国家司法考试试卷一(5)",
"titleTip" : "2013年国家司法考试试卷一(5)",
"titleSummary" : "2013年国家司法考试试卷一(5)",
"descSummary" : "70.甲公司欠税40万元，税务局要查封其相应价值产品。甲公司经理说：\u201C...",
"url" : "http:\/\/go.rss.sina.com.cn\/redirect.php?url=http:\/\/edu.sina.com.cn\/zgks\/2013-09-16\/0959395321_5.shtml",
"pubDate" : "2013年9月16日",
"enterDate" : "384201:06:54",
"channelId" : "-1942644364349904951",
"channelName" : "司法考试-新浪教育",
"channelNameSummary" : "司法考试-新浪教育",
"channelUrl" : "http:\/\/edu.sina.com.cn\/lawyer\/",
"author" : "WWW.SINA.COM.CN",
"tags" : [],
"desc" : "70.甲公司欠税40万元，税务局要查封其相应价值产品。甲公司经理说：\u201C乙公司欠我公司60万元货款，贵局不如行使代位权直接去乙公司收取现金。\u201D该局遂通知乙公司缴纳甲公司的欠税，乙公司不配合；该局责令其限期缴纳，乙公司逾期未缴纳；该局随即采取了税收强制执行措施。关于....",
"emailed" : False,
"forwarded" : False,
"english" : False
}  , {
"index" : 14,
"articleIndex" : "1091",
"favor" :  False ,
     "read" : False,    
"title" : "2013年国家司法考试试卷一(6)",
"titleTip" : "2013年国家司法考试试卷一(6)",
"titleSummary" : "2013年国家司法考试试卷一(6)",
"descSummary" : "88.关于实证主义法学和非实证主义法学，下列说法不正确的是： A。实证...",
"url" : "http:\/\/go.rss.sina.com.cn\/redirect.php?url=http:\/\/edu.sina.com.cn\/zgks\/2013-09-16\/0959395321_6.shtml",
"pubDate" : "2013年9月16日",
"enterDate" : "384201:06:54",
"channelId" : "-1942644364349904951",
"channelName" : "司法考试-新浪教育",
"channelNameSummary" : "司法考试-新浪教育",
"channelUrl" : "http:\/\/edu.sina.com.cn\/lawyer\/",
"author" : "WWW.SINA.COM.CN",
"tags" : [],
"desc" : "88.关于实证主义法学和非实证主义法学，下列说法不正确的是： A。实证主义法学认为，在\u201C实际上是怎样的法\u201D与\u201C应该是怎样的法\u201D之间不存在概念上的必然联系 B。非实证主义法学在定义法的概念时并不必然排除社会实效性要素和权威性制定要素 C。所有的非....",
"emailed" : False,
"forwarded" : False,
"english" : False
}  , {
"index" : 15,
"articleIndex" : "1085",
"favor" :  False ,
     "read" : False,    
"title" : "六旬台湾考生三度\u201C轮椅赶考\u201D大陆司法考试",
"titleTip" : "六旬台湾考生三度\u201C轮椅赶考\u201D大陆司法考试",
"titleSummary" : "六旬台湾考生三度\u201C轮椅赶考\u201D大陆司法考试",
"descSummary" : "中新社厦门9月15日电 题：六旬台湾考生三度\u201C轮椅赶考\u201D...",
"url" : "http:\/\/go.rss.sina.com.cn\/redirect.php?url=http:\/\/edu.sina.com.cn\/zgks\/2013-09-16\/0659395309.shtml",
"pubDate" : "2013年9月16日",
"enterDate" : "384201:07:43",
"channelId" : "-1942644364349904951",
"channelName" : "司法考试-新浪教育",
"channelNameSummary" : "司法考试-新浪教育",
"channelUrl" : "http:\/\/edu.sina.com.cn\/lawyer\/",
"author" : "WWW.SINA.COM.CN",
"tags" : [],
"desc" : "中新社厦门9月15日电 题：六旬台湾考生三度\u201C轮椅赶考\u201D大陆司法考试 中新社记者 陈悦 15日下午5时30分，历时两天的2013大陆国家司法考试落幕，厦门考区的2000多位考生中有200多位台湾考生，其中又有一位特别的\u201C轮椅\u201D考生\u2015\u2015来自台北的艾克难先生。 6....",
"emailed" : False,
"forwarded" : False,
"english" : False
}  , {
"index" : 16,
"articleIndex" : "1084",
"favor" :  False ,
     "read" : False,    
"title" : "武汉司考考场现作弊信号遭屏蔽 作弊者听到歌曲",
"titleTip" : "武汉司考考场现作弊信号遭屏蔽 作弊者听到歌曲",
"titleSummary" : "武汉司考考场现作弊信号遭屏蔽 作弊者听到歌曲",
"descSummary" : "被称为\u201C天下第一考\u201D的国家司法考试昨天开锣。今年，...",
"url" : "http:\/\/go.rss.sina.com.cn\/redirect.php?url=http:\/\/edu.sina.com.cn\/zgks\/2013-09-15\/1430395293.shtml",
"pubDate" : "2013年9月15日",
"enterDate" : "384187:43:17",
"channelId" : "-1942644364349904951",
"channelName" : "司法考试-新浪教育",
"channelNameSummary" : "司法考试-新浪教育",
"channelUrl" : "http:\/\/edu.sina.com.cn\/lawyer\/",
"author" : "WWW.SINA.COM.CN",
"tags" : [],
"desc" : "被称为\u201C天下第一考\u201D的国家司法考试昨天开锣。今年，武汉有9838人参考，比去年增加504人。其中年龄最小的只有18岁，年龄最大的考生64岁。但参加司法考试的考生更趋年轻化，平均年龄在25岁。 两时段出现作弊信号 昨天，在华中科技大学东九楼前，省无线电监测站....",
"emailed" : False,
"forwarded" : False,
"english" : False
}  , {
"index" : 17,
"articleIndex" : "1083",
"favor" :  False ,
     "read" : False,    
"title" : "北京首推司考准考证二维码防替考",
"titleTip" : "北京首推司考准考证二维码防替考",
"titleSummary" : "北京首推司考准考证二维码防替考",
"descSummary" : "北京考试报讯(记者 蔡文玲) 今天，北京地区将有3万余名考生走进全市...",
"url" : "http:\/\/go.rss.sina.com.cn\/redirect.php?url=http:\/\/edu.sina.com.cn\/zgks\/2013-09-14\/1313395275.shtml",
"pubDate" : "2013年9月14日",
"enterDate" : "384201:11:16",
"channelId" : "-1942644364349904951",
"channelName" : "司法考试-新浪教育",
"channelNameSummary" : "司法考试-新浪教育",
"channelUrl" : "http:\/\/edu.sina.com.cn\/lawyer\/",
"author" : "WWW.SINA.COM.CN",
"tags" : [],
"desc" : "北京考试报讯(记者 蔡文玲)&#160; 今天，北京地区将有3万余名考生走进全市47个考点参加2013年国家司法考试，考试将于明天下午结束。此次考试，北京市司法局首次在考生准考证上加印加密二维码，防止考生替考。北京市国家司法考试办公室倡议全体北京考区考生：诚信参加司法考试....",
"emailed" : False,
"forwarded" : False,
"english" : False
}  , {
"index" : 18,
"articleIndex" : "1082",
"favor" :  False ,
     "read" : False,    
"title" : "北京司法考试准考证全国首添二维码",
"titleTip" : "北京司法考试准考证全国首添二维码",
"titleSummary" : "北京司法考试准考证全国首添二维码",
"descSummary" : "新京报讯 (记者张玉学)今明两日，北京将迎来第十二次全国司法考试...",
"url" : "http:\/\/go.rss.sina.com.cn\/redirect.php?url=http:\/\/edu.sina.com.cn\/zgks\/2013-09-14\/0723395238.shtml",
"pubDate" : "2013年9月14日",
"enterDate" : "384200:52:43",
"channelId" : "-1942644364349904951",
"channelName" : "司法考试-新浪教育",
"channelNameSummary" : "司法考试-新浪教育",
"channelUrl" : "http:\/\/edu.sina.com.cn\/lawyer\/",
"author" : "WWW.SINA.COM.CN",
"tags" : [],
"desc" : "新京报讯&#160;(记者张玉学)今明两日，北京将迎来第十二次全国司法考试。为防止替考，北京在今年司考的准考证上添加了二维码设计。这一举措在全国尚属首次。 北京是司法考试中全国最大独立考区，报名考生占到全国的近十分之一。今年，北京市报名考生有30100人，比去年....",
"emailed" : False,
"forwarded" : False,
"english" : False
}  , {
"index" : 19,
"articleIndex" : "1081",
"favor" :  False ,
     "read" : False,    
"title" : "2013司法考试14日起举行 43.6万人报考",
"titleTip" : "2013司法考试14日起举行 43.6万人报考",
"titleSummary" : "2013司法考试14日起举行 43.6万人报考",
"descSummary" : "2013年国家司法考试将于9月14日至15日举行。日前，《法制日报...",
"url" : "http:\/\/go.rss.sina.com.cn\/redirect.php?url=http:\/\/edu.sina.com.cn\/zgks\/2013-09-13\/1513395141.shtml",
"pubDate" : "2013年9月13日",
"enterDate" : "384200:45:05",
"channelId" : "-1942644364349904951",
"channelName" : "司法考试-新浪教育",
"channelNameSummary" : "司法考试-新浪教育",
"channelUrl" : "http:\/\/edu.sina.com.cn\/lawyer\/",
"author" : "WWW.SINA.COM.CN",
"tags" : [],
"desc" : "2013年国家司法考试将于9月14日至15日举行。日前，《法制日报》记者就司法考试有关问题采访了国家司法考试办公室负责人。 精心组织准备 确保公平公正 记者：今年国家司法考试很快就要举行了。您能否向大家介绍一下目前国家司法考试的各项准备工作情况？ ....",
"emailed" : False,
"forwarded" : False,
"english" : False
} ]
}
