{
"mode" : {"viewTitle" : 1,   "viewNew" : 0,  "pageIndex" : 2 },
 "channel" : {"id" : "-1942644364349904951", "booked" : False, "subNumber" : 1, "name" : "司法考试-新浪教育", "url" : "http:\/\/edu.sina.com.cn\/lawyer\/", "feed" : "http:\/\/rss.sina.com.cn\/edu\/sifa.xml", "author" : "WWW.SINA.COM.CN", "desc" : "司法考试新闻列表", "imageUrl" : "http:\/\/www.sinaimg.cn\/home\/deco\/2009\/0330\/logo_home_edu.gif", "postPerWeek" : "0", "lastCrawTime" : "17:18:35", "crawDateTime" : "17:18:35", "lastHttpCode" : "200"}, "page" : {
"startIndex" : 20,
"totalCount" : 1101,
"pageIndex" : 2,
"lastPage" : 56,
"pageSize" : 20,
"english" :  False },
 "unreadNum" : 0, "shotIndex" : -1,
"articles" : [
{
"index" : 0,
"articleIndex" : "1080",
"favor" :  False ,
     "read" : False,    
"title" : "司法考试本周末举行：考生注意三事项",
"titleTip" : "司法考试本周末举行：考生注意三事项",
"titleSummary" : "司法考试本周末举行：考生注意三事项",
"descSummary" : "北京考试报讯(记者 蔡文玲)本周末，国家司法考试将举行全国统考...",
"url" : "http:\/\/go.rss.sina.com.cn\/redirect.php?url=http:\/\/edu.sina.com.cn\/zgks\/2013-09-11\/1458394833.shtml",
"pubDate" : "2013年9月11日",
"enterDate" : "384188:11:27",
"channelId" : "-1942644364349904951",
"channelName" : "司法考试-新浪教育",
"channelNameSummary" : "司法考试-新浪教育",
"channelUrl" : "http:\/\/edu.sina.com.cn\/lawyer\/",
"author" : "WWW.SINA.COM.CN",
"tags" : [],
"desc" : "北京考试报讯(记者 蔡文玲)本周末，国家司法考试将举行全国统考。记者就考前3天考生的复习及状态调节采访了中国政法大学司法考试学院老师李春霞。她建议考生考前保持头脑冷静，不急不躁，处理好复习、心理调节、饮食三事项。 对考前知识点的复习，考生要抓重点。分析发....",
"emailed" : False,
"forwarded" : False,
"english" : False
}  , {
"index" : 1,
"articleIndex" : "1079",
"favor" :  False ,
     "read" : False,    
"title" : "国家司法考试宁夏人数创历史新高",
"titleTip" : "国家司法考试宁夏人数创历史新高",
"titleSummary" : "国家司法考试宁夏人数创历史新高",
"descSummary" : "法制网银川9月5日电 记者 申东 为国家司法考试\u201C平稳、安全、顺利、...",
"url" : "http:\/\/go.rss.sina.com.cn\/redirect.php?url=http:\/\/edu.sina.com.cn\/zgks\/2013-09-11\/1409394817.shtml",
"pubDate" : "2013年9月11日",
"enterDate" : "384187:22:19",
"channelId" : "-1942644364349904951",
"channelName" : "司法考试-新浪教育",
"channelNameSummary" : "司法考试-新浪教育",
"channelUrl" : "http:\/\/edu.sina.com.cn\/lawyer\/",
"author" : "WWW.SINA.COM.CN",
"tags" : [],
"desc" : "法制网银川9月5日电 记者 申东 为国家司法考试\u201C平稳、安全、顺利、有效\u201D进行，今天，宁夏司法厅组织召开2013年宁夏国家司法考试工作领导小组会议。会上，宁夏司法厅党委书记、厅长李振国与考区总监考签订了责任书，并作了重要讲话。 据了解，今年是司法考试制度实施....",
"emailed" : False,
"forwarded" : False,
"english" : False
}  , {
"index" : 2,
"articleIndex" : "1078",
"favor" :  False ,
     "read" : False,    
"title" : "司法考试即将开考广东考生3.3万余人",
"titleTip" : "司法考试即将开考广东考生3.3万余人",
"titleSummary" : "司法考试即将开考广东考生3.3万余人",
"descSummary" : "原标题：司法考试即将开考广东考生全国最多广州报名超万人，全省...",
"url" : "http:\/\/go.rss.sina.com.cn\/redirect.php?url=http:\/\/edu.sina.com.cn\/zgks\/2013-09-11\/1408394816.shtml",
"pubDate" : "2013年9月11日",
"enterDate" : "384187:21:29",
"channelId" : "-1942644364349904951",
"channelName" : "司法考试-新浪教育",
"channelNameSummary" : "司法考试-新浪教育",
"channelUrl" : "http:\/\/edu.sina.com.cn\/lawyer\/",
"author" : "WWW.SINA.COM.CN",
"tags" : [],
"desc" : "原标题：司法考试即将开考广东考生全国最多广州报名超万人，全省第一 新快报讯记者李海强实习生徐小童通讯员宋玉芳报道准备参加广东省2013年国家司法考试的考生要注意了，9月1日至9月13日为自行下载打印准考证时间，考试将于9月14日、15日在全国同步进行。据悉，广东省....",
"emailed" : False,
"forwarded" : False,
"english" : False
}  , {
"index" : 3,
"articleIndex" : "1077",
"favor" :  False ,
     "read" : False,    
"title" : "湖南2013年国家司法考试14335人参考",
"titleTip" : "湖南2013年国家司法考试14335人参考",
"titleSummary" : "湖南2013年国家司法考试14335人参考",
"descSummary" : "红网长沙9月10日讯(法治湖南网通讯员 李湘勇)2013年国家司法考试...",
"url" : "http:\/\/go.rss.sina.com.cn\/redirect.php?url=http:\/\/edu.sina.com.cn\/zgks\/2013-09-11\/1407394814.shtml",
"pubDate" : "2013年9月11日",
"enterDate" : "384187:20:10",
"channelId" : "-1942644364349904951",
"channelName" : "司法考试-新浪教育",
"channelNameSummary" : "司法考试-新浪教育",
"channelUrl" : "http:\/\/edu.sina.com.cn\/lawyer\/",
"author" : "WWW.SINA.COM.CN",
"tags" : [],
"desc" : "红网长沙9月10日讯(法治湖南网通讯员 李湘勇)2013年国家司法考试将于9月14、15日举行，湖南省设13个考区16个考点486个考场，共14335人报名参考，为近年来参考人数之最。目前各市州司法行政机关正紧张有序地布置考场、培训考务工作人员、完善服务措施，各项准备工作已基本就绪....",
"emailed" : False,
"forwarded" : False,
"english" : False
}  , {
"index" : 4,
"articleIndex" : "1076",
"favor" :  False ,
     "read" : False,    
"title" : "国家司法考试9月14日开考",
"titleTip" : "国家司法考试9月14日开考",
"titleSummary" : "国家司法考试9月14日开考",
"descSummary" : "新疆都市报讯(记者魏红萍 通讯员白雪晴 路明琪报道)2013年国家司法考试将于...",
"url" : "http:\/\/go.rss.sina.com.cn\/redirect.php?url=http:\/\/edu.sina.com.cn\/zgks\/2013-09-11\/1402394813.shtml",
"pubDate" : "2013年9月11日",
"enterDate" : "384187:15:30",
"channelId" : "-1942644364349904951",
"channelName" : "司法考试-新浪教育",
"channelNameSummary" : "司法考试-新浪教育",
"channelUrl" : "http:\/\/edu.sina.com.cn\/lawyer\/",
"author" : "WWW.SINA.COM.CN",
"tags" : [],
"desc" : "新疆都市报讯(记者魏红萍 通讯员白雪晴 路明琪报道)2013年国家司法考试将于9月14日、15日举行。新疆都市报记者从乌鲁木齐市司法局了解到，乌鲁木齐地区国家司法考试考点设在新疆农业大学。为了方便考生，9月13日19时，考生可以在考点学校门前查看考点考场分布图。 其中....",
"emailed" : False,
"forwarded" : False,
"english" : False
}  , {
"index" : 5,
"articleIndex" : "1075",
"favor" :  False ,
     "read" : False,    
"title" : "为什么司法考试题单选容易多选难",
"titleTip" : "为什么司法考试题单选容易多选难",
"titleSummary" : "为什么司法考试题单选容易多选难",
"descSummary" : "http:\/\/blog.sina.com.cn\/huangsu",
"url" : "http:\/\/go.rss.sina.com.cn\/redirect.php?url=http:\/\/blog.sina.com.cn\/s\/blog_49a9538c0101o9h0.html",
"pubDate" : "2013年9月5日",
"enterDate" : "384200:47:50",
"channelId" : "-1942644364349904951",
"channelName" : "司法考试-新浪教育",
"channelNameSummary" : "司法考试-新浪教育",
"channelUrl" : "http:\/\/edu.sina.com.cn\/lawyer\/",
"author" : "WWW.SINA.COM.CN",
"tags" : [],
"desc" : "http:\/\/blog.sina.com.cn\/huangsu",
"emailed" : False,
"forwarded" : False,
"english" : False
}  , {
"index" : 6,
"articleIndex" : "1074",
"favor" :  False ,
     "read" : False,    
"title" : "司法考试备考最后两周大冲刺",
"titleTip" : "司法考试备考最后两周大冲刺",
"titleSummary" : "司法考试备考最后两周大冲刺",
"descSummary" : "http:\/\/blog.sina.com.cn\/huangsu",
"url" : "http:\/\/go.rss.sina.com.cn\/redirect.php?url=http:\/\/blog.sina.com.cn\/s\/blog_49a9538c0101og0u.html",
"pubDate" : "2013年9月5日",
"enterDate" : "384200:46:29",
"channelId" : "-1942644364349904951",
"channelName" : "司法考试-新浪教育",
"channelNameSummary" : "司法考试-新浪教育",
"channelUrl" : "http:\/\/edu.sina.com.cn\/lawyer\/",
"author" : "WWW.SINA.COM.CN",
"tags" : [],
"desc" : "http:\/\/blog.sina.com.cn\/huangsu",
"emailed" : False,
"forwarded" : False,
"english" : False
}  , {
"index" : 7,
"articleIndex" : "1073",
"favor" :  False ,
     "read" : False,    
"title" : "司法考试考前十日冲刺攻略",
"titleTip" : "司法考试考前十日冲刺攻略",
"titleSummary" : "司法考试考前十日冲刺攻略",
"descSummary" : "http:\/\/blog.sina.com.cn\/huangsu",
"url" : "http:\/\/go.rss.sina.com.cn\/redirect.php?url=http:\/\/blog.sina.com.cn\/s\/blog_49a9538c0101oh8e.html",
"pubDate" : "2013年9月5日",
"enterDate" : "384200:45:39",
"channelId" : "-1942644364349904951",
"channelName" : "司法考试-新浪教育",
"channelNameSummary" : "司法考试-新浪教育",
"channelUrl" : "http:\/\/edu.sina.com.cn\/lawyer\/",
"author" : "WWW.SINA.COM.CN",
"tags" : [],
"desc" : "http:\/\/blog.sina.com.cn\/huangsu",
"emailed" : False,
"forwarded" : False,
"english" : False
}  , {
"index" : 8,
"articleIndex" : "1072",
"favor" :  False ,
     "read" : False,    
"title" : "最严司法考试14日开考 增加证件照审核",
"titleTip" : "最严司法考试14日开考 增加证件照审核",
"titleSummary" : "最严司法考试14日开考 增加证件照审核",
"descSummary" : "入场前金属探测仪验身、考试全程录像、无线电信号全屏蔽\u2026\u2026 ...",
"url" : "http:\/\/go.rss.sina.com.cn\/redirect.php?url=http:\/\/edu.sina.com.cn\/zgks\/2013-09-05\/1619394279.shtml",
"pubDate" : "2013年9月5日",
"enterDate" : "384201:02:49",
"channelId" : "-1942644364349904951",
"channelName" : "司法考试-新浪教育",
"channelNameSummary" : "司法考试-新浪教育",
"channelUrl" : "http:\/\/edu.sina.com.cn\/lawyer\/",
"author" : "WWW.SINA.COM.CN",
"tags" : [],
"desc" : "入场前金属探测仪验身、考试全程录像、无线电信号全屏蔽\u2026\u2026&#160;&#160;史上最严司法考试14日开考 国家司法考试将于14日、15日举行，重庆考场首次运用多种先进设备，堪称重庆史上最严司考。昨日，重庆市司法局司法考试处工作人员陈健表示，这些举措都是为了确保考试公....",
"emailed" : False,
"forwarded" : False,
"english" : False
}  , {
"index" : 9,
"articleIndex" : "1071",
"favor" :  False ,
     "read" : False,    
"title" : "司考考生不但要安检还要查身份证",
"titleTip" : "司考考生不但要安检还要查身份证",
"titleSummary" : "司考考生不但要安检还要查身份证",
"descSummary" : "商报首席记者 黄平 实习生 唐艺青 重庆商报讯 今年9月14至15日，我...",
"url" : "http:\/\/go.rss.sina.com.cn\/redirect.php?url=http:\/\/edu.sina.com.cn\/zgks\/2013-09-05\/1617394278.shtml",
"pubDate" : "2013年9月5日",
"enterDate" : "384201:01:25",
"channelId" : "-1942644364349904951",
"channelName" : "司法考试-新浪教育",
"channelNameSummary" : "司法考试-新浪教育",
"channelUrl" : "http:\/\/edu.sina.com.cn\/lawyer\/",
"author" : "WWW.SINA.COM.CN",
"tags" : [],
"desc" : "商报首席记者 黄平 实习生 唐艺青 重庆商报讯 今年9月14至15日，我市12000多名考生将参加国家司法考试。昨天，市司法局发布消息称，今年司考倡导诚信，届时所有考生将过\u201C安检关\u201D，谢绝携带任何有金属的东西入场，同时考场内还将设置二代身份证阅读器，防止代考等作弊现象....",
"emailed" : False,
"forwarded" : False,
"english" : False
}  , {
"index" : 10,
"articleIndex" : "1070",
"favor" :  False ,
     "read" : False,    
"title" : "重庆司考考生不但要安检 还要\u201C阅读\u201D身份证",
"titleTip" : "重庆司考考生不但要安检 还要\u201C阅读\u201D身份证",
"titleSummary" : "重庆司考考生不但要安检 还要\u201C阅读\u201D身份证",
"descSummary" : "重庆商报讯 今年9月14至15日，我市12000多名考生将参加...",
"url" : "http:\/\/go.rss.sina.com.cn\/redirect.php?url=http:\/\/edu.sina.com.cn\/zgks\/2013-09-05\/0825394209.shtml",
"pubDate" : "2013年9月5日",
"enterDate" : "384201:10:32",
"channelId" : "-1942644364349904951",
"channelName" : "司法考试-新浪教育",
"channelNameSummary" : "司法考试-新浪教育",
"channelUrl" : "http:\/\/edu.sina.com.cn\/lawyer\/",
"author" : "WWW.SINA.COM.CN",
"tags" : [],
"desc" : "重庆商报讯 今年9月14至15日，我市12000多名考生将参加国家司法考试。昨天，市司法局发布消息称，今年司考倡导诚信，届时所有考生将过\u201C安检关\u201D，谢绝携带任何有金属的东西入场，同时考场内还将设置二代身份证阅读器，防止代考等作弊现象。 昨天，市司法局司法考试处....",
"emailed" : False,
"forwarded" : False,
"english" : False
}  , {
"index" : 11,
"articleIndex" : "1069",
"favor" :  False ,
     "read" : False,    
"title" : "司法考试考生频收\u201C助考\u201D短信",
"titleTip" : "司法考试考生频收\u201C助考\u201D短信",
"titleSummary" : "司法考试考生频收\u201C助考\u201D短信",
"descSummary" : "京华时报讯(记者王梅)近日北京高校的多位学生反映，在报名参加国家司...",
"url" : "http:\/\/go.rss.sina.com.cn\/redirect.php?url=http:\/\/edu.sina.com.cn\/zgks\/2013-09-04\/1018394118.shtml",
"pubDate" : "2013年9月4日",
"enterDate" : "384200:47:58",
"channelId" : "-1942644364349904951",
"channelName" : "司法考试-新浪教育",
"channelNameSummary" : "司法考试-新浪教育",
"channelUrl" : "http:\/\/edu.sina.com.cn\/lawyer\/",
"author" : "WWW.SINA.COM.CN",
"tags" : [],
"desc" : "京华时报讯(记者王梅)近日北京高校的多位学生反映，在报名参加国家司法考试后，频繁收到\u201C代理机构\u201D提供试题以及答案的短信，并称通过司法考试中心内部获得，保证一次通过。对此，考生质疑个人信息遭泄露。 考生小董参加了今年的司法考试。小董介绍，7月23日司法考试....",
"emailed" : False,
"forwarded" : False,
"english" : False
}  , {
"index" : 12,
"articleIndex" : "1068",
"favor" :  False ,
     "read" : False,    
"title" : "司法考试考生信息为何会泄露？",
"titleTip" : "司法考试考生信息为何会泄露？",
"titleSummary" : "司法考试考生信息为何会泄露？",
"descSummary" : "原标题：我的司考信息为何会泄露 \u201C包过\u201D机构：信息是从司考报名官...",
"url" : "http:\/\/go.rss.sina.com.cn\/redirect.php?url=http:\/\/edu.sina.com.cn\/zgks\/2013-08-14\/1041391965.shtml",
"pubDate" : "2013年8月14日",
"enterDate" : "384183:54:04",
"channelId" : "-1942644364349904951",
"channelName" : "司法考试-新浪教育",
"channelNameSummary" : "司法考试-新浪教育",
"channelUrl" : "http:\/\/edu.sina.com.cn\/lawyer\/",
"author" : "WWW.SINA.COM.CN",
"tags" : [],
"desc" : "原标题：我的司考信息为何会泄露 ▲\u201C包过\u201D机构：信息是从司考报名官网内部人员那里得到的 ▲北京司法考试报名的工作人员：考生信息经过加密，内部工作人员看到的也只是星号 ▲司法部司法考试中心：我们不可能泄露考生信息和考试数据 今年司法考....",
"emailed" : False,
"forwarded" : False,
"english" : False
}  , {
"index" : 13,
"articleIndex" : "1067",
"favor" :  False ,
     "read" : False,    
"title" : "好学与万国教育合作推出司考高清课程",
"titleTip" : "好学与万国教育合作推出司考高清课程",
"titleSummary" : "好学与万国教育合作推出司考高清课程",
"descSummary" : "好学教育&amp;万国教育高清课程合作协议签约仪式 2013年7月5日，...",
"url" : "http:\/\/go.rss.sina.com.cn\/redirect.php?url=http:\/\/edu.sina.com.cn\/zgks\/2013-07-05\/1519387694.shtml",
"pubDate" : "2013年7月5日",
"enterDate" : "384200:59:26",
"channelId" : "-1942644364349904951",
"channelName" : "司法考试-新浪教育",
"channelNameSummary" : "司法考试-新浪教育",
"channelUrl" : "http:\/\/edu.sina.com.cn\/lawyer\/",
"author" : "WWW.SINA.COM.CN",
"tags" : [],
"desc" : "好学教育&amp;万国教育高清课程合作协议签约仪式 2013年7月5日，\u201C共进 共赢\u201D好学教育&amp;万国教育高清课程合作协议签约仪式暨新闻发布会在北京市海淀区新时代大厦一层会议厅如期举行。好学教育总经理李品友、运营总监李中其、万国教育市场运营总监刘晶、司考培训界权威....",
"emailed" : False,
"forwarded" : False,
"english" : False
}  , {
"index" : 14,
"articleIndex" : "1066",
"favor" :  False ,
     "read" : False,    
"title" : "司考报名后天结束：考生提前准备电子照片",
"titleTip" : "司考报名后天结束：考生提前准备电子照片",
"titleSummary" : "司考报名后天结束：考生提前准备电子照片",
"descSummary" : "北京考试报讯(记者 蔡文玲) 2013年国家司法考试网上报名将...",
"url" : "http:\/\/go.rss.sina.com.cn\/redirect.php?url=http:\/\/edu.sina.com.cn\/zgks\/2013-07-03\/1445387271.shtml",
"pubDate" : "2013年7月3日",
"enterDate" : "384200:51:55",
"channelId" : "-1942644364349904951",
"channelName" : "司法考试-新浪教育",
"channelNameSummary" : "司法考试-新浪教育",
"channelUrl" : "http:\/\/edu.sina.com.cn\/lawyer\/",
"author" : "WWW.SINA.COM.CN",
"tags" : [],
"desc" : "北京考试报讯(记者 蔡文玲) 2013年国家司法考试网上报名将于后天结束。今年北京市国家司法考试报名取消现场确认环节，首次实施全程网络化报名。报名时，考生要注意上传合格的照片才能通过审核，电子照片选择蓝红白底色均可。考生要避免因照片审核未通过影响报名。 网上....",
"emailed" : False,
"forwarded" : False,
"english" : False
}  , {
"index" : 15,
"articleIndex" : "1065",
"favor" :  False ,
     "read" : False,    
"title" : "辽宁省司法局2013年国家司法考试公告",
"titleTip" : "辽宁省司法局2013年国家司法考试公告",
"titleSummary" : "辽宁省司法局2013年国家司法考试公告",
"descSummary" : "依据《中华人民共和国司法部公告》(第131号)，现就辽宁省2013...",
"url" : "http:\/\/go.rss.sina.com.cn\/redirect.php?url=http:\/\/edu.sina.com.cn\/zgks\/2013-06-17\/1100384702.shtml",
"pubDate" : "2013年6月17日",
"enterDate" : "384201:15:09",
"channelId" : "-1942644364349904951",
"channelName" : "司法考试-新浪教育",
"channelNameSummary" : "司法考试-新浪教育",
"channelUrl" : "http:\/\/edu.sina.com.cn\/lawyer\/",
"author" : "WWW.SINA.COM.CN",
"tags" : [],
"desc" : "依据《中华人民共和国司法部公告》(第131号)，现就辽宁省2013年国家司法考试有关事项公告如下： 一、报名 (一)报名条件 1.符合以下条件人员，可以报名参加国家司法考试： (1)具有中华人民共和国国籍； (2)拥护《中华人民共和国宪法》，享....",
"emailed" : False,
"forwarded" : False,
"english" : False
}  , {
"index" : 16,
"articleIndex" : "1064",
"favor" :  False ,
     "read" : False,    
"title" : "黑龙江省司法局2013年国家司法考试公告",
"titleTip" : "黑龙江省司法局2013年国家司法考试公告",
"titleSummary" : "黑龙江省司法局2013年国家司法考试公告",
"descSummary" : "依据司法部公告(第131公告)和司法部《关于做好2013年国家司...",
"url" : "http:\/\/go.rss.sina.com.cn\/redirect.php?url=http:\/\/edu.sina.com.cn\/zgks\/2013-06-17\/1059384701.shtml",
"pubDate" : "2013年6月17日",
"enterDate" : "384201:13:49",
"channelId" : "-1942644364349904951",
"channelName" : "司法考试-新浪教育",
"channelNameSummary" : "司法考试-新浪教育",
"channelUrl" : "http:\/\/edu.sina.com.cn\/lawyer\/",
"author" : "WWW.SINA.COM.CN",
"tags" : [],
"desc" : "依据司法部公告(第131公告)和司法部《关于做好2013年国家司法考试工作的通知》(司发通[2013]101号)，现就我省国家司法考试有关事项公告如下： 一、报名条件 (一)符合以下条件人员，可以报名参加国家司法考试 1.具有中华人民共和国国籍。 2.拥护《....",
"emailed" : False,
"forwarded" : False,
"english" : False
}  , {
"index" : 17,
"articleIndex" : "1063",
"favor" :  False ,
     "read" : False,    
"title" : "福建省司法局2013年国家司法考试公告",
"titleTip" : "福建省司法局2013年国家司法考试公告",
"titleSummary" : "福建省司法局2013年国家司法考试公告",
"descSummary" : "根据司法部第131号《公告》，现就我省2013年国家司法考试有关...",
"url" : "http:\/\/go.rss.sina.com.cn\/redirect.php?url=http:\/\/edu.sina.com.cn\/zgks\/2013-06-17\/1057384700.shtml",
"pubDate" : "2013年6月17日",
"enterDate" : "384201:12:15",
"channelId" : "-1942644364349904951",
"channelName" : "司法考试-新浪教育",
"channelNameSummary" : "司法考试-新浪教育",
"channelUrl" : "http:\/\/edu.sina.com.cn\/lawyer\/",
"author" : "WWW.SINA.COM.CN",
"tags" : [],
"desc" : "根据司法部第131号《公告》，现就我省2013年国家司法考试有关事项公告如下： 一、报名 (一)报名条件 1.符合以下条件人员，可以报名参加国家司法考试： (1)具有中华人民共和国国籍； (2)拥护《中华人民共和国宪法》，享有选举权和被选举权....",
"emailed" : False,
"forwarded" : False,
"english" : False
}  , {
"index" : 18,
"articleIndex" : "1062",
"favor" :  False ,
     "read" : False,    
"title" : "陕西省司法局2013年国家司法考试公告",
"titleTip" : "陕西省司法局2013年国家司法考试公告",
"titleSummary" : "陕西省司法局2013年国家司法考试公告",
"descSummary" : "依据《中华人民共和国法官法》、《中华人民共和国检察官法》、...",
"url" : "http:\/\/go.rss.sina.com.cn\/redirect.php?url=http:\/\/edu.sina.com.cn\/zgks\/2013-06-17\/1056384699.shtml",
"pubDate" : "2013年6月17日",
"enterDate" : "384201:11:03",
"channelId" : "-1942644364349904951",
"channelName" : "司法考试-新浪教育",
"channelNameSummary" : "司法考试-新浪教育",
"channelUrl" : "http:\/\/edu.sina.com.cn\/lawyer\/",
"author" : "WWW.SINA.COM.CN",
"tags" : [],
"desc" : "依据《中华人民共和国法官法》、《中华人民共和国检察官法》、《中华人民共和国律师法》、《中华人民共和国公证法》及《国家司法考试实施办法》的有关规定和《中华人民共和国司法部公告》(第131号)，现就我省2013年国家司法考试有关事项公告如下： 一、报名 (一....",
"emailed" : False,
"forwarded" : False,
"english" : False
}  , {
"index" : 19,
"articleIndex" : "1061",
"favor" :  False ,
     "read" : False,    
"title" : "青海省司法局2013年国家司法考试公告",
"titleTip" : "青海省司法局2013年国家司法考试公告",
"titleSummary" : "青海省司法局2013年国家司法考试公告",
"descSummary" : "依据中华人民共和国司法部公告(第131号)等有关规定，现将青海...",
"url" : "http:\/\/go.rss.sina.com.cn\/redirect.php?url=http:\/\/edu.sina.com.cn\/zgks\/2013-06-17\/1054384698.shtml",
"pubDate" : "2013年6月17日",
"enterDate" : "384201:09:06",
"channelId" : "-1942644364349904951",
"channelName" : "司法考试-新浪教育",
"channelNameSummary" : "司法考试-新浪教育",
"channelUrl" : "http:\/\/edu.sina.com.cn\/lawyer\/",
"author" : "WWW.SINA.COM.CN",
"tags" : [],
"desc" : "依据中华人民共和国司法部公告(第131号)等有关规定，现将青海省2013年国家司法考试事项公告如下： 一、报名 (一)符合以下条件人员，可以报名参加国家司法考试。 1.具有中华人民共和国国籍； 2.拥护《中华人民共和国宪法》，享有选举权和被选举权....",
"emailed" : False,
"forwarded" : False,
"english" : False
} ]
}
