{
"mode" : {"viewTitle" : 1,   "viewNew" : 0,  "pageIndex" : 1 },
 "channel" : {"id" : "-2490967848816653835", "booked" : False, "subNumber" : 1, "name" : "观点-新浪博客", "url" : "http:\/\/blog.sina.com.cn\/lm\/21\/2006\/0426\/2.html", "feed" : "http:\/\/rss.sina.com.cn\/blog\/index\/other.xml", "author" : "丁咚,乔磊,云水客京华,余丰慧,公方彬,刘海明...", "desc" : "观点博客列表", "imageUrl" : "http:\/\/www.sinaimg.cn\/blog\/main\/index2010\/blog_logo.png", "postPerWeek" : "0", "lastCrawTime" : "2013年10月20日 (1周前)", "crawDateTime" : "2013年10月20日 (1周前)", "lastHttpCode" : "200"}, "page" : {
"startIndex" : 0,
"totalCount" : 5000,
"pageIndex" : 1,
"lastPage" : 250,
"pageSize" : 20,
"english" :  False },
 "unreadNum" : 0, "shotIndex" : -1,
"articles" : [
{
"index" : 0,
"articleIndex" : "15621",
"favor" :  False ,
     "read" : False,    
"title" : "顾则徐：信息公开为什么这么难",
"titleTip" : "顾则徐：信息公开为什么这么难",
"titleSummary" : "顾则徐：信息公开为什么这么难",
"descSummary" : "信息公开为什么这么难 顾则徐 据新京报报道，北京市政协委员石向阳已...",
"url" : "http:\/\/go.rss.sina.com.cn\/redirect.php?url=http:\/\/blog.sina.com.cn\/s\/blog_4d8981180101eyxd.html",
"pubDate" : "2013年10月19日 (1周前)",
"enterDate" : "384199:24:25",
"channelId" : "-2490967848816653835",
"channelName" : "观点-新浪博客",
"channelNameSummary" : "观点-新浪博客",
"channelUrl" : "http:\/\/blog.sina.com.cn\/lm\/21\/2006\/0426\/2.html",
"author" : "顾则徐",
"tags" : [],
"desc" : "信息公开为什么这么难 顾则徐 据新京报报道，北京市政协委员石向阳已经提了7年\u201C关于公开公交IC卡押金使用情况的提案\u201D，石向阳说，7年来一卡通公司及其上级领导单位都轮番给过他回复，但\u201C这些回复都没有真正按照提案所提的案由和要求进行处理\u201D，\u201C现实情况是到今天还没有公开\u201D。 公交 一卡通押金似乎是个很小...",
"emailed" : False,
"forwarded" : False,
"english" : False
}  , {
"index" : 1,
"articleIndex" : "15620",
"favor" :  False ,
     "read" : False,    
"title" : "余丰慧：公积金为何也闹\u201C钱荒\u201D",
"titleTip" : "余丰慧：公积金为何也闹\u201C钱荒\u201D",
"titleSummary" : "余丰慧：公积金为何也闹\u201C钱荒\u201D",
"descSummary" : "公积金为何也闹\u201C钱荒\u201D？与本博同步的《慧眼财经》公共微信开通了...",
"url" : "http:\/\/go.rss.sina.com.cn\/redirect.php?url=http:\/\/blog.sina.com.cn\/s\/blog_45554c9a0102eitg.html",
"pubDate" : "2013年10月19日 (1周前)",
"enterDate" : "384198:30:43",
"channelId" : "-2490967848816653835",
"channelName" : "观点-新浪博客",
"channelNameSummary" : "观点-新浪博客",
"channelUrl" : "http:\/\/blog.sina.com.cn\/lm\/21\/2006\/0426\/2.html",
"author" : "余丰慧",
"tags" : [],
"desc" : "公积金为何也闹\u201C钱荒\u201D？ 与本博同步的《慧眼财经》公共微信开通了，微信号：yfh60716;也可扫描二维码： 6月20日众多银行突现内部头寸资金异常紧张，上海银行......&gt;&gt;点击查看新浪博客原文青春就应该这样绽放游戏测试：三国时期谁是你最好的兄弟！！你不得不信的星座秘密",
"emailed" : False,
"forwarded" : False,
"english" : False
}  , {
"index" : 2,
"articleIndex" : "15619",
"favor" :  False ,
     "read" : False,    
"title" : "落实单双号限行须尊重公共利益",
"titleTip" : "落实单双号限行须尊重公共利益",
"titleSummary" : "落实单双号限行须尊重公共利益",
"descSummary" : "落实单双号限行 须尊重公共利益 2013年10月19日11:17来源：法制日报...",
"url" : "http:\/\/go.rss.sina.com.cn\/redirect.php?url=http:\/\/blog.sina.com.cn\/s\/blog_4ae5943b0102eer7.html",
"pubDate" : "2013年10月19日 (1周前)",
"enterDate" : "384198:00:34",
"channelId" : "-2490967848816653835",
"channelName" : "观点-新浪博客",
"channelNameSummary" : "观点-新浪博客",
"channelUrl" : "http:\/\/blog.sina.com.cn\/lm\/21\/2006\/0426\/2.html",
"author" : "王石川",
"tags" : [],
"desc" : "落实单双号限行 须尊重公共利益 2013年10月19日11:17来源：法制日报 □王石川 日前,北京市委常委会讨论通过《北京市空气重污染应急预案》。根据预案要求,如北京空气污染达到红色预警级别,即预测未来持续三天出现严重污染,将以\u201C六停一冲\u201D措施缓解污染,机动车单双号限行、80%公车停驶、中小学和幼儿园停...",
"emailed" : False,
"forwarded" : False,
"english" : False
}  , {
"index" : 3,
"articleIndex" : "15618",
"favor" :  False ,
     "read" : False,    
"title" : "超用功的中国学生为什么思想懒惰",
"titleTip" : "超用功的中国学生为什么思想懒惰",
"titleSummary" : "超用功的中国学生为什么思想懒惰",
"descSummary" : "读书和锻炼身体一样。懒人久不运动，不仅体能衰退，脂肪和体重都会...",
"url" : "http:\/\/go.rss.sina.com.cn\/redirect.php?url=http:\/\/blog.sina.com.cn\/s\/blog_45f00ef40102ej33.html",
"pubDate" : "2013年10月19日 (1周前)",
"enterDate" : "384200:19:03",
"channelId" : "-2490967848816653835",
"channelName" : "观点-新浪博客",
"channelNameSummary" : "观点-新浪博客",
"channelUrl" : "http:\/\/blog.sina.com.cn\/lm\/21\/2006\/0426\/2.html",
"author" : "薛涌",
"tags" : [],
"desc" : "读书和锻炼身体一样。懒人久不运动，不仅体能衰退，脂肪和体重都会增加，要运动也确实更费劲儿些。运动越费劲儿，自然就越不想运动。越是不动，体能就越衰竭，脂肪体重就更会增加，如此形成恶性循环。 脑子习惯于懒惰不动，也会有类似的后果，越不动就越不想动。久而久之，以后想动脑子，也力不从心了。如今网络发达，...",
"emailed" : False,
"forwarded" : False,
"english" : False
}  , {
"index" : 4,
"articleIndex" : "15617",
"favor" :  False ,
     "read" : False,    
"title" : "陈小鲁们的道歉是忏悔更是清醒剂",
"titleTip" : "陈小鲁们的道歉是忏悔更是清醒剂",
"titleSummary" : "陈小鲁们的道歉是忏悔更是清醒剂",
"descSummary" : "开国元勋陈毅元帅的儿子陈小鲁47年前作为北京八中\u201C造反\u201D学生领...",
"url" : "http:\/\/go.rss.sina.com.cn\/redirect.php?url=http:\/\/blog.sina.com.cn\/s\/blog_58daf6670102ebx7.html",
"pubDate" : "2013年10月19日 (1周前)",
"enterDate" : "384200:14:37",
"channelId" : "-2490967848816653835",
"channelName" : "观点-新浪博客",
"channelNameSummary" : "观点-新浪博客",
"channelUrl" : "http:\/\/blog.sina.com.cn\/lm\/21\/2006\/0426\/2.html",
"author" : "曾颖",
"tags" : [],
"desc" : "开国元勋陈毅元帅的儿子陈小鲁47年前作为北京八中\u201C造反\u201D学生领袖、革委会主任，组织批斗了校领导、老师和同学，造成许多人身心受伤；47年后，他带着深恐\u201C去日苦多，有话不说就太晚了\u201D的急迫心情，发起了一场道歉会，向着那些曾经被自己行为伤害过的老师和同学们表达忏悔之情。他的举动，受到来自各界的惊呼和热议。...",
"emailed" : False,
"forwarded" : False,
"english" : False
}  , {
"index" : 5,
"articleIndex" : "15616",
"favor" :  False ,
     "read" : False,    
"title" : "为什么中国的医患纠纷如此严重",
"titleTip" : "为什么中国的医患纠纷如此严重",
"titleSummary" : "为什么中国的医患纠纷如此严重",
"descSummary" : "人们很容易简单地把市场开放与粮油开放联系起来。虽说都是刚性需要，...",
"url" : "http:\/\/go.rss.sina.com.cn\/redirect.php?url=http:\/\/blog.sina.com.cn\/s\/blog_4940b3f60102eki3.html",
"pubDate" : "2013年10月19日 (1周前)",
"enterDate" : "384199:05:48",
"channelId" : "-2490967848816653835",
"channelName" : "观点-新浪博客",
"channelNameSummary" : "观点-新浪博客",
"channelUrl" : "http:\/\/blog.sina.com.cn\/lm\/21\/2006\/0426\/2.html",
"author" : "波子",
"tags" : [],
"desc" : "人们很容易简单地把市场开放与粮油开放联系起来。虽说都是刚性需要，但是确实不同。开放医疗市场不要忘记政府最基本的责任就行。凡不懂中国卫生体系沿革的，或想......&gt;&gt;点击查看新浪博客原文青春就应该这样绽放游戏测试：三国时期谁是你最好的兄弟！！你不得不信的星座秘密",
"emailed" : False,
"forwarded" : False,
"english" : False
}  , {
"index" : 6,
"articleIndex" : "15615",
"favor" :  False ,
     "read" : False,    
"title" : "乔磊：中国土豪成拜金主义代言人？",
"titleTip" : "乔磊：中国土豪成拜金主义代言人？",
"titleSummary" : "乔磊：中国土豪成拜金主义代言人？",
"descSummary" : "独家首发新浪博客未经许可媒体和网站谢绝转载美国《外交政策》杂...",
"url" : "http:\/\/go.rss.sina.com.cn\/redirect.php?url=http:\/\/blog.sina.com.cn\/s\/blog_5d8d68c10102ee57.html",
"pubDate" : "2013年10月19日 (1周前)",
"enterDate" : "384196:39:03",
"channelId" : "-2490967848816653835",
"channelName" : "观点-新浪博客",
"channelNameSummary" : "观点-新浪博客",
"channelUrl" : "http:\/\/blog.sina.com.cn\/lm\/21\/2006\/0426\/2.html",
"author" : "乔磊",
"tags" : [],
"desc" : "独家首发新浪博客未经许可媒体和网站谢绝转载美国《外交政策》杂志网一篇评论中国\u201C土豪\u201D现象的文章经《环球时报》翻译介绍给国人后，原本在中国有了知名度后的\u201C土豪\u201D现在变得更火了。对土豪分析、评论文章的接踵而至，甚至有人在问：土豪，你凭什么这么火？《外交政策》文章的作者为RACHEL LU，应该是华裔，因此对中国土...",
"emailed" : False,
"forwarded" : False,
"english" : False
}  , {
"index" : 7,
"articleIndex" : "15614",
"favor" :  False ,
     "read" : False,    
"title" : "改革开放后中国第三次毛泽东热",
"titleTip" : "改革开放后中国第三次毛泽东热",
"titleSummary" : "改革开放后中国第三次毛泽东热",
"descSummary" : "（国内媒体死活发不出来，尺度最大的都说探底了，多温和的文章啊，什...",
"url" : "http:\/\/go.rss.sina.com.cn\/redirect.php?url=http:\/\/blog.sina.com.cn\/s\/blog_4866a4340102es1h.html",
"pubDate" : "2013年10月18日 (1周前)",
"enterDate" : "384199:32:02",
"channelId" : "-2490967848816653835",
"channelName" : "观点-新浪博客",
"channelNameSummary" : "观点-新浪博客",
"channelUrl" : "http:\/\/blog.sina.com.cn\/lm\/21\/2006\/0426\/2.html",
"author" : "潘采夫",
"tags" : [],
"desc" : "（国内媒体死活发不出来，尺度最大的都说探底了，多温和的文章啊，什么情况这是，底儿在哪儿呢？） 由于对中国历史的深远影响，以及绕不过去的巨大争议，有关毛泽东的新闻从来不乏关注。但近期有关他的新闻接连出现，一则是\u201C宁夏师范学院举行毛泽东塑像落成典礼\u201D，另一则是\u201C新版《毛主席语录》或年内出版\u201D。不禁让...",
"emailed" : False,
"forwarded" : False,
"english" : False
}  , {
"index" : 8,
"articleIndex" : "15612",
"favor" :  False ,
     "read" : False,    
"title" : "没证据表明季建业因\u201C满城挖\u201D落马",
"titleTip" : "没证据表明季建业因\u201C满城挖\u201D落马",
"titleSummary" : "没证据表明季建业因\u201C满城挖\u201D落马",
"descSummary" : "许多原本被官方称为谣言的消息，后来成了官方发布；还有许多在发...",
"url" : "http:\/\/go.rss.sina.com.cn\/redirect.php?url=http:\/\/blog.sina.com.cn\/s\/blog_4e2de0910102e9ez.html",
"pubDate" : "2013年10月18日 (1周前)",
"enterDate" : "384197:57:52",
"channelId" : "-2490967848816653835",
"channelName" : "观点-新浪博客",
"channelNameSummary" : "观点-新浪博客",
"channelUrl" : "http:\/\/blog.sina.com.cn\/lm\/21\/2006\/0426\/2.html",
"author" : "黎明",
"tags" : [],
"desc" : "许多原本被官方称为谣言的消息，后来成了官方发布；还有许多在发表时确实是谣言的说法，后来成了\u201C神预言\u201D。 对\u201C季建业博士论文造假\u201D、\u201C季建业在扬州的N个情人\u201D、\u201C季建业从扬州拆到南京，从雨污分流和保障房上赚钱\u201D等\u201C网络谣言\u201D，现在不必辟谣也不用抓人了，而早些时候的\u201C季建业被双规\u201D这条谣言，现在是正...",
"emailed" : False,
"forwarded" : False,
"english" : False
}  , {
"index" : 9,
"articleIndex" : "15611",
"favor" :  False ,
     "read" : False,    
"title" : "做老板的要培养一个敢骂你的人",
"titleTip" : "做老板的要培养一个敢骂你的人",
"titleSummary" : "做老板的要培养一个敢骂你的人",
"descSummary" : "培养一个敢骂你的人 老板们，无论国有的还是民营的，大多都只保留了...",
"url" : "http:\/\/go.rss.sina.com.cn\/redirect.php?url=http:\/\/blog.sina.com.cn\/s\/blog_4b984fbf0102eb6i.html",
"pubDate" : "2013年10月18日 (1周前)",
"enterDate" : "384194:19:15",
"channelId" : "-2490967848816653835",
"channelName" : "观点-新浪博客",
"channelNameSummary" : "观点-新浪博客",
"channelUrl" : "http:\/\/blog.sina.com.cn\/lm\/21\/2006\/0426\/2.html",
"author" : "汪中求",
"tags" : [],
"desc" : "培养一个敢骂你的人 老板们，无论国有的还是民营的，大多都只保留了骂别人的技能，却很少仍然具备接受人骂的原始本领，更不可能在身边准备一个随时可以......&gt;&gt;点击查看新浪博客原文青春就应该这样绽放游戏测试：三国时期谁是你最好的兄弟！！你不得不信的星座秘密",
"emailed" : False,
"forwarded" : False,
"english" : False
}  , {
"index" : 10,
"articleIndex" : "15610",
"favor" :  False ,
     "read" : False,    
"title" : "组织学生假扮特警参与拆迁的四重罪",
"titleTip" : "组织学生假扮特警参与拆迁的四重罪",
"titleSummary" : "组织学生假扮特警参与拆迁的四重罪",
"descSummary" : "10月12日，贵阳，观山湖区控拆违指挥部组织2500余人到金华镇上...",
"url" : "http:\/\/go.rss.sina.com.cn\/redirect.php?url=http:\/\/blog.sina.com.cn\/s\/blog_4d99c4560102e2am.html",
"pubDate" : "2013年10月18日 (1周前)",
"enterDate" : "384195:37:34",
"channelId" : "-2490967848816653835",
"channelName" : "观点-新浪博客",
"channelNameSummary" : "观点-新浪博客",
"channelUrl" : "http:\/\/blog.sina.com.cn\/lm\/21\/2006\/0426\/2.html",
"author" : "阿飞",
"tags" : [],
"desc" : "10月12日，贵阳，观山湖区控拆违指挥部组织2500余人到金华镇上铺村空山坝，对54栋违法建筑进行拆除。经查实，837名学生人参与。（新京报） \u201C风声雨声读书声，声声入耳；家事国事天下事，事事关心\u201D。堂堂大学生，没有留在课堂里认真读书，或者走出校园关心天下事，竟然被当地组织了去参与拆迁，这不仅荒唐，更涉嫌四重罪...",
"emailed" : False,
"forwarded" : False,
"english" : False
}  , {
"index" : 11,
"articleIndex" : "15613",
"favor" :  False ,
     "read" : False,    
"title" : "贪官潜逃期间频换情人的启示",
"titleTip" : "贪官潜逃期间频换情人的启示",
"titleSummary" : "贪官潜逃期间频换情人的启示",
"descSummary" : "北京某国企财务部副经理姜某因挪用公款无法归还，于2000年携百万公款...",
"url" : "http:\/\/go.rss.sina.com.cn\/redirect.php?url=http:\/\/blog.sina.com.cn\/s\/blog_9a0d1f710101rtpf.html",
"pubDate" : "2013年10月18日 (1周前)",
"enterDate" : "384193:18:01",
"channelId" : "-2490967848816653835",
"channelName" : "观点-新浪博客",
"channelNameSummary" : "观点-新浪博客",
"channelUrl" : "http:\/\/blog.sina.com.cn\/lm\/21\/2006\/0426\/2.html",
"author" : "毛开云",
"tags" : [],
"desc" : "北京某国企财务部副经理姜某因挪用公款无法归还，于2000年携百万公款潜逃，一躲就是13年。其间，他伪造身份证、户口本，在已有妻儿的情况下再次娶妻生子，不断更换情人。10月12日，大兴检方以涉嫌挪用公款、贪污、伪造国家机关证件、重婚四宗罪对姜某提起公诉。（10月18日《京华时报》） 潜逃的意思偷偷地逃走。为啥要偷偷...",
"emailed" : False,
"forwarded" : False,
"english" : False
}  , {
"index" : 12,
"articleIndex" : "15609",
"favor" :  False ,
     "read" : False,    
"title" : "\u201C中等收入陷阱\u201D是中国的紧迫挑战",
"titleTip" : "\u201C中等收入陷阱\u201D是中国的紧迫挑战",
"titleSummary" : "\u201C中等收入陷阱\u201D是中国的紧迫挑战",
"descSummary" : "\u201C中等收入陷阱\u201D是中国的紧迫挑战 丁咚 文 一、什么叫\u201C中等收入...",
"url" : "http:\/\/go.rss.sina.com.cn\/redirect.php?url=http:\/\/blog.sina.com.cn\/s\/blog_5eab40290102earc.html",
"pubDate" : "2013年10月18日 (1周前)",
"enterDate" : "384194:15:25",
"channelId" : "-2490967848816653835",
"channelName" : "观点-新浪博客",
"channelNameSummary" : "观点-新浪博客",
"channelUrl" : "http:\/\/blog.sina.com.cn\/lm\/21\/2006\/0426\/2.html",
"author" : "丁咚",
"tags" : [],
"desc" : "\u201C中等收入陷阱\u201D是中国的紧迫挑战 丁咚 文 一、什么叫\u201C中等收入陷阱\u201D？ \u201C中等收入陷阱\u201D这个概念公认是由世界银行提出的。它在2007年题为《东亚复兴：关于经济增长的观点》的研究报告中，首次提出 \u201C避开中等收入陷阱\u201D(Avoidingthe Middle-income Trap)概念，并以一小节进行专述。世界银行的经济学家认为，由于缺乏...",
"emailed" : False,
"forwarded" : False,
"english" : False
}  , {
"index" : 13,
"articleIndex" : "15608",
"favor" :  False ,
     "read" : False,    
"title" : "全民监督与举国告密不是同时代产物",
"titleTip" : "全民监督与举国告密不是同时代产物",
"titleSummary" : "全民监督与举国告密不是同时代产物",
"descSummary" : "全民监督与举国告密不是同时代产物 近日，看相关法学家聚谈\u201C网...",
"url" : "http:\/\/go.rss.sina.com.cn\/redirect.php?url=http:\/\/blog.sina.com.cn\/s\/blog_485dcc670102e0x5.html",
"pubDate" : "2013年10月18日 (1周前)",
"enterDate" : "384192:55:02",
"channelId" : "-2490967848816653835",
"channelName" : "观点-新浪博客",
"channelNameSummary" : "观点-新浪博客",
"channelUrl" : "http:\/\/blog.sina.com.cn\/lm\/21\/2006\/0426\/2.html",
"author" : "程万军",
"tags" : [],
"desc" : "全民监督与举国告密不是同时代产物 近日，看相关法学家聚谈\u201C网络举报\u201D之利弊，认为这是一把双刃剑。既对贪腐官员有杀伤，也会对无辜者的隐私权构成伤害。 我认为这种讨论，即便有为政府官员\u201C去剑\u201D之嫌，也不无可取之处。 任何一个现代法治国家，都会把政府及政府官员置于全民监督之下。然而，这种监督并非\u201C法外之物...",
"emailed" : False,
"forwarded" : False,
"english" : False
}  , {
"index" : 14,
"articleIndex" : "15607",
"favor" :  False ,
     "read" : False,    
"title" : "菲律宾为何也有\u201C小国优势\u201D？",
"titleTip" : "菲律宾为何也有\u201C小国优势\u201D？",
"titleSummary" : "菲律宾为何也有\u201C小国优势\u201D？",
"descSummary" : "菲律宾为何也有\u201C小国优势\u201D?黎蜗藤 最近看有关南海的文章，有一篇环...",
"url" : "http:\/\/go.rss.sina.com.cn\/redirect.php?url=http:\/\/blog.sina.com.cn\/s\/blog_4b2ed3c30101hon2.html",
"pubDate" : "2013年10月18日 (1周前)",
"enterDate" : "384191:42:31",
"channelId" : "-2490967848816653835",
"channelName" : "观点-新浪博客",
"channelNameSummary" : "观点-新浪博客",
"channelUrl" : "http:\/\/blog.sina.com.cn\/lm\/21\/2006\/0426\/2.html",
"author" : "黎蜗藤",
"tags" : [],
"desc" : "菲律宾为何也有\u201C小国优势\u201D? 黎蜗藤 最近看有关南海的文章，有一篇环球时报刊登的李开盛的文章很有意思，名叫\u201C菲律宾在南海博弈中的小国优势\u201D。文章准确地描述了中国在南海争端面对菲律宾时在外交与国际舆论层面的种种被动与尴尬。 确实，从2012年开始的中菲南海争议中，尽管中国凭借国力在南海步步进逼，但在国际舆论...",
"emailed" : False,
"forwarded" : False,
"english" : False
}  , {
"index" : 15,
"articleIndex" : "15606",
"favor" :  False ,
     "read" : False,    
"title" : "再谈中国人说英语的一个常见口音",
"titleTip" : "再谈中国人说英语的一个常见口音",
"titleSummary" : "再谈中国人说英语的一个常见口音",
"descSummary" : "抛去汉语的声 学会英语的调 － 再谈中国人说英语的一个常见口音 －...",
"url" : "http:\/\/go.rss.sina.com.cn\/redirect.php?url=http:\/\/blog.sina.com.cn\/s\/blog_631b93740101jb2x.html",
"pubDate" : "2013年10月18日 (1周前)",
"enterDate" : "384198:09:12",
"channelId" : "-2490967848816653835",
"channelName" : "观点-新浪博客",
"channelNameSummary" : "观点-新浪博客",
"channelUrl" : "http:\/\/blog.sina.com.cn\/lm\/21\/2006\/0426\/2.html",
"author" : "宋国明",
"tags" : [],
"desc" : "抛去汉语的声 学会英语的调 － 再谈中国人说英语的一个常见口音 － 宋国明 上回谈到中国人说英语时常会把p这个音在一些应该减去送气的场合发的太强，因而显露口音，很多人看了以后不太happy，但也有少部分人理解我是讨论一个客观现象，并分析归纳出语音规则，供有意改善英语发音的人参考。其实，那个p是个小问题，若要...",
"emailed" : False,
"forwarded" : False,
"english" : False
}  , {
"index" : 16,
"articleIndex" : "15605",
"favor" :  False ,
     "read" : False,    
"title" : "大学贫困生演讲比穷是公开侮辱",
"titleTip" : "大学贫困生演讲比穷是公开侮辱",
"titleSummary" : "大学贫困生演讲比穷是公开侮辱",
"descSummary" : "沈阳一所大学学生要想获得贫困生资格，必须当众演讲接受投票，得票高...",
"url" : "http:\/\/go.rss.sina.com.cn\/redirect.php?url=http:\/\/blog.sina.com.cn\/s\/blog_4bc425eb0102eblr.html",
"pubDate" : "2013年10月18日 (1周前)",
"enterDate" : "384195:55:52",
"channelId" : "-2490967848816653835",
"channelName" : "观点-新浪博客",
"channelNameSummary" : "观点-新浪博客",
"channelUrl" : "http:\/\/blog.sina.com.cn\/lm\/21\/2006\/0426\/2.html",
"author" : "张乐臣",
"tags" : [],
"desc" : "沈阳一所大学学生要想获得贫困生资格，必须当众演讲接受投票，得票高的才有资格得到助学金。学校称这是为了让结果更公平。让自己的学生叫嚷\u201C谁比我更穷\u201D，还能无动于衷，并自诩为追求公平，这所大学的情商不是一般的低。 沈阳某大学学生小刘自从在同学面前讲了自己最羞于启齿的家境后，常常觉得抬不起头来。想申请助学...",
"emailed" : False,
"forwarded" : False,
"english" : False
}  , {
"index" : 17,
"articleIndex" : "15604",
"favor" :  False ,
     "read" : False,    
"title" : "李开复与周小平\u201C追问\u201D的启示",
"titleTip" : "李开复与周小平\u201C追问\u201D的启示",
"titleSummary" : "李开复与周小平\u201C追问\u201D的启示",
"descSummary" : "周小平《十问李开复》注定会成为不小的网络热点，不仅仅因为后者是当...",
"url" : "http:\/\/go.rss.sina.com.cn\/redirect.php?url=http:\/\/blog.sina.com.cn\/s\/blog_b27eeb8f0101gel4.html",
"pubDate" : "2013年10月17日 (1周前)",
"enterDate" : "384198:34:23",
"channelId" : "-2490967848816653835",
"channelName" : "观点-新浪博客",
"channelNameSummary" : "观点-新浪博客",
"channelUrl" : "http:\/\/blog.sina.com.cn\/lm\/21\/2006\/0426\/2.html",
"author" : "公方彬",
"tags" : [],
"desc" : "周小平《十问李开复》注定会成为不小的网络热点，不仅仅因为后者是当今中国最大的网络名人之一，或者说粉丝最多的网络名人，还是在特定时期被追问了敏感性、致命性问题者。同样，追问者几乎没有悬念地被网民尤其李开复粉丝的反追问，被追问的内容也具有致命性。 所以认定二者受到的追问皆具致命性，并非从政治的角度判断...",
"emailed" : False,
"forwarded" : False,
"english" : False
}  , {
"index" : 18,
"articleIndex" : "15602",
"favor" :  False ,
     "read" : False,    
"title" : "灾难报道变成群体事件当反思",
"titleTip" : "灾难报道变成群体事件当反思",
"titleSummary" : "灾难报道变成群体事件当反思",
"descSummary" : "媒体是社会进程的见证者和记录者，而不是社会事件的参与者。这早已是新...",
"url" : "http:\/\/go.rss.sina.com.cn\/redirect.php?url=http:\/\/blog.sina.com.cn\/s\/blog_47250b750102e68p.html",
"pubDate" : "2013年10月17日 (1周前)",
"enterDate" : "384199:51:27",
"channelId" : "-2490967848816653835",
"channelName" : "观点-新浪博客",
"channelNameSummary" : "观点-新浪博客",
"channelUrl" : "http:\/\/blog.sina.com.cn\/lm\/21\/2006\/0426\/2.html",
"author" : "刘海明",
"tags" : [],
"desc" : "媒体是社会进程的见证者和记录者，而不是社会事件的参与者。这早已是新闻业的行规。行规总有被破例的时候。所不同的是，有时候媒体主动参与到社会进程中去，比如策划一些社会活动，然后以新闻的形式报道出来；有时候，媒体则被动地卷入社会事件。对于前者业界关注较多，后一种情况则相对罕见。正因为这样，更能考验媒体...",
"emailed" : False,
"forwarded" : False,
"english" : False
}  , {
"index" : 19,
"articleIndex" : "15603",
"favor" :  False ,
     "read" : False,    
"title" : "\u201C边民\u201D落马的反思与警醒",
"titleTip" : "\u201C边民\u201D落马的反思与警醒",
"titleSummary" : "\u201C边民\u201D落马的反思与警醒",
"descSummary" : "随着秦火火、立二拆四一个个网络公知、大V的覆灭，一时间网络上出现了\u201C...",
"url" : "http:\/\/go.rss.sina.com.cn\/redirect.php?url=http:\/\/blog.sina.com.cn\/s\/blog_87a769550101g76n.html",
"pubDate" : "2013年10月17日 (1周前)",
"enterDate" : "384189:53:24",
"channelId" : "-2490967848816653835",
"channelName" : "观点-新浪博客",
"channelNameSummary" : "观点-新浪博客",
"channelUrl" : "http:\/\/blog.sina.com.cn\/lm\/21\/2006\/0426\/2.html",
"author" : "云水客京华",
"tags" : [],
"desc" : "随着秦火火、立二拆四一个个网络公知、大V的覆灭，一时间网络上出现了\u201C公知真空\u201D，无数不入流的网民仿佛看到了希望，燃起了做网络公知、做大V的欲望，然而欲壑难填、南辕北辙，云南边民\u201C边民\u201D就是其中一个。 一、包装与炒作 董如彬，网名\u201C边民\u201D，男，1962年出生，云南省西双版纳人，大专文化，当过中学教师，曾因...",
"emailed" : False,
"forwarded" : False,
"english" : False
} ]
}
