{
"mode" : {"viewTitle" : 1,   "viewNew" : 0,  "pageIndex" : 2 },
 "channel" : {"id" : "-2490967848816653835", "booked" : False, "subNumber" : 1, "name" : "观点-新浪博客", "url" : "http:\/\/blog.sina.com.cn\/lm\/21\/2006\/0426\/2.html", "feed" : "http:\/\/rss.sina.com.cn\/blog\/index\/other.xml", "author" : "丁咚,乔磊,云水客京华,余丰慧,公方彬,刘海明...", "desc" : "观点博客列表", "imageUrl" : "http:\/\/www.sinaimg.cn\/blog\/main\/index2010\/blog_logo.png", "postPerWeek" : "0", "lastCrawTime" : "2013年10月20日 (1周前)", "crawDateTime" : "2013年10月20日 (1周前)", "lastHttpCode" : "200"}, "page" : {
"startIndex" : 20,
"totalCount" : 5000,
"pageIndex" : 2,
"lastPage" : 250,
"pageSize" : 20,
"english" :  False },
 "unreadNum" : 0, "shotIndex" : -1,
"articles" : [
{
"index" : 0,
"articleIndex" : "15601",
"favor" :  False ,
     "read" : False,    
"title" : "季建业真提拔过女打字员吗？",
"titleTip" : "季建业真提拔过女打字员吗？",
"titleSummary" : "季建业真提拔过女打字员吗？",
"descSummary" : "季建业真提拔过女打字员做发改副主任吗？据中央纪委监察部网站今天证实...",
"url" : "http:\/\/go.rss.sina.com.cn\/redirect.php?url=http:\/\/blog.sina.com.cn\/s\/blog_5fb224f30102e80s.html",
"pubDate" : "2013年10月17日 (1周前)",
"enterDate" : "384196:52:34",
"channelId" : "-2490967848816653835",
"channelName" : "观点-新浪博客",
"channelNameSummary" : "观点-新浪博客",
"channelUrl" : "http:\/\/blog.sina.com.cn\/lm\/21\/2006\/0426\/2.html",
"author" : "梁石川",
"tags" : [],
"desc" : "季建业真提拔过女打字员做发改副主任吗？ 据中央纪委监察部网站今天证实，江苏省南京市委副书记、市长季建业涉嫌严重违纪违法，目前正接受组织调查。南京本地媒体及内部人士则向人民网记者证实，季建业涉案金额或超2000万元人民币；其落马与不久前江苏上市公司金螳螂老板、苏州首富朱兴良被抓有关。而今年6、7月份，坊间曾...",
"emailed" : False,
"forwarded" : False,
"english" : False
}  , {
"index" : 1,
"articleIndex" : "15597",
"favor" :  False ,
     "read" : False,    
"title" : "伦敦市长对北京地铁的恭维能当真吗",
"titleTip" : "伦敦市长对北京地铁的恭维能当真吗",
"titleSummary" : "伦敦市长对北京地铁的恭维能当真吗",
"descSummary" : "伦敦市长的恭维能当真吗 王石川 《 中国青年报 》（ 2013年10月1...",
"url" : "http:\/\/go.rss.sina.com.cn\/redirect.php?url=http:\/\/blog.sina.com.cn\/s\/blog_4ae5943b0102eeqp.html",
"pubDate" : "2013年10月17日 (1周前)",
"enterDate" : "384199:34:45",
"channelId" : "-2490967848816653835",
"channelName" : "观点-新浪博客",
"channelNameSummary" : "观点-新浪博客",
"channelUrl" : "http:\/\/blog.sina.com.cn\/lm\/21\/2006\/0426\/2.html",
"author" : "王石川",
"tags" : [],
"desc" : "伦敦市长的恭维能当真吗 王石川 《 中国青年报 》（ 2013年10月17日 02 版） 一头标志性金发，让10月15日下午出现在北京地铁里的伦敦市长鲍里斯非常惹人注目。\u201C我早就想来体验北京地铁了！\u201D鲍里斯语速飞快，\u201C我2006年来过，2008年来过，不过都没有机会坐地铁。\u201D说完，他抬头看看地铁里的环境，用典型的英式夸张说...",
"emailed" : False,
"forwarded" : False,
"english" : False
}  , {
"index" : 2,
"articleIndex" : "15596",
"favor" :  False ,
     "read" : False,    
"title" : "批评对贪官来说就是个黑色幽默",
"titleTip" : "批评对贪官来说就是个黑色幽默",
"titleSummary" : "批评对贪官来说就是个黑色幽默",
"descSummary" : "现实总是写满了讽刺。季建业落马了。9月25日至26日，作为南京市市长...",
"url" : "http:\/\/go.rss.sina.com.cn\/redirect.php?url=http:\/\/blog.sina.com.cn\/s\/blog_5643b6050101fhfv.html",
"pubDate" : "2013年10月17日 (1周前)",
"enterDate" : "384198:17:49",
"channelId" : "-2490967848816653835",
"channelName" : "观点-新浪博客",
"channelNameSummary" : "观点-新浪博客",
"channelUrl" : "http:\/\/blog.sina.com.cn\/lm\/21\/2006\/0426\/2.html",
"author" : "红缨老枪",
"tags" : [],
"desc" : "现实总是写满了讽刺。 季建业落马了。9月25日至26日，作为南京市市长的他，还在市委常委会专题民主生活会上带头做批评与自我批评：患有\u201C机关病\u201D，有\u201C官本位\u201D思想，甚至出现一些脱离群众、高高在上的苗头\u2026\u2026一转眼，就迅速被双规，由座上宾而阶下囚。（10月17日新华网） 开展批评与自我批评确实是个好武器，它可以...",
"emailed" : False,
"forwarded" : False,
"english" : False
}  , {
"index" : 3,
"articleIndex" : "15600",
"favor" :  False ,
     "read" : False,    
"title" : "我们的国家有谁想过农民的生存？",
"titleTip" : "我们的国家有谁想过农民的生存？",
"titleSummary" : "我们的国家有谁想过农民的生存？",
"descSummary" : "有谁想过农民的生存？享有著权严禁刊载转载侵权必究！南京雅兰 史...",
"url" : "http:\/\/go.rss.sina.com.cn\/redirect.php?url=http:\/\/blog.sina.com.cn\/s\/blog_48e92a770102e5ge.html",
"pubDate" : "2013年10月17日 (1周前)",
"enterDate" : "384195:43:16",
"channelId" : "-2490967848816653835",
"channelName" : "观点-新浪博客",
"channelNameSummary" : "观点-新浪博客",
"channelUrl" : "http:\/\/blog.sina.com.cn\/lm\/21\/2006\/0426\/2.html",
"author" : "雅兰",
"tags" : [],
"desc" : "有谁想过农民的生存？ 享有著权严禁刊载转载侵权必究！ 南京雅兰 史无前例的城市化大进军正在逐步蚕食乡村每寸土地，土地是农民赖以生存的重要资源，占据高科技和文明...",
"emailed" : False,
"forwarded" : False,
"english" : False
}  , {
"index" : 4,
"articleIndex" : "15599",
"favor" :  False ,
     "read" : False,    
"title" : "我们缺乏向世界说明曹雪芹的能力",
"titleTip" : "我们缺乏向世界说明曹雪芹的能力",
"titleSummary" : "我们缺乏向世界说明曹雪芹的能力",
"descSummary" : "克制对曹雪芹的过度阐释与消费 曹 林 纪念曹雪芹逝世250周年，海淀...",
"url" : "http:\/\/go.rss.sina.com.cn\/redirect.php?url=http:\/\/blog.sina.com.cn\/s\/blog_471ef4320101evnd.html",
"pubDate" : "2013年10月17日 (1周前)",
"enterDate" : "384195:09:00",
"channelId" : "-2490967848816653835",
"channelName" : "观点-新浪博客",
"channelNameSummary" : "观点-新浪博客",
"channelUrl" : "http:\/\/blog.sina.com.cn\/lm\/21\/2006\/0426\/2.html",
"author" : "曹林",
"tags" : [],
"desc" : "克制对曹雪芹的过度阐释与消费 曹 林 纪念曹雪芹逝世250周年，海淀区政府有关部门就曹雪芹思想举办座谈会，邀请我和几位时事评论人一起聊曹雪芹。收到邀请时我还比较诧异，虽然也姓曹，但跟曹雪芹真攀不上关系，也没好好读过《红楼梦》，更没认认真真的研究过自己这位百科全书式的曹姓伟人。像研究莎士比亚的已成\u201C莎\u201D学...",
"emailed" : False,
"forwarded" : False,
"english" : False
}  , {
"index" : 5,
"articleIndex" : "15595",
"favor" :  False ,
     "read" : False,    
"title" : "79岁老人自己剖腹切肠治癌谁之痛？",
"titleTip" : "79岁老人自己剖腹切肠治癌谁之痛？",
"titleSummary" : "79岁老人自己剖腹切肠治癌谁之痛？",
"descSummary" : "10月12日，广西一79岁老人因患癌症，眼见医治无望，竟自己\u201C动...",
"url" : "http:\/\/go.rss.sina.com.cn\/redirect.php?url=http:\/\/blog.sina.com.cn\/s\/blog_7159859d0102f0uy.html",
"pubDate" : "2013年10月17日 (1周前)",
"enterDate" : "384195:27:08",
"channelId" : "-2490967848816653835",
"channelName" : "观点-新浪博客",
"channelNameSummary" : "观点-新浪博客",
"channelUrl" : "http:\/\/blog.sina.com.cn\/lm\/21\/2006\/0426\/2.html",
"author" : "风青杨",
"tags" : [],
"desc" : "10月12日，广西一79岁老人因患癌症，眼见医治无望，竟自己\u201C动手术\u201D，剖腹切肠！把其中一截疑似有病毒的肠子切掉！终因流血过多不幸身亡。老人子女曾多次送老人治病，可能得知医治无望不想连累孩子，老人作出惊人之举！（南国今报） 老百姓以后生了大病只能靠\u201C自救\u201D？ 按理说，在当今GDP居世界第二的国家，一方面国...",
"emailed" : False,
"forwarded" : False,
"english" : False
}  , {
"index" : 6,
"articleIndex" : "15598",
"favor" :  False ,
     "read" : False,    
"title" : "市委书记伤了女中学生的心",
"titleTip" : "市委书记伤了女中学生的心",
"titleSummary" : "市委书记伤了女中学生的心",
"descSummary" : "中国一位名叫缪宜吟的中学生连给所在城市的市委书记写了两封信，希望其公...",
"url" : "http:\/\/go.rss.sina.com.cn\/redirect.php?url=http:\/\/blog.sina.com.cn\/s\/blog_48631e860101oz7w.html",
"pubDate" : "2013年10月17日 (1周前)",
"enterDate" : "384193:22:50",
"channelId" : "-2490967848816653835",
"channelName" : "观点-新浪博客",
"channelNameSummary" : "观点-新浪博客",
"channelUrl" : "http:\/\/blog.sina.com.cn\/lm\/21\/2006\/0426\/2.html",
"author" : "郑勇",
"tags" : [],
"desc" : "中国一位名叫缪宜吟的中学生连给所在城市的市委书记写了两封信，希望其公交出行。在当地信访接待中心，市委书记利用下班时间与她倾谈并共进晚餐，而后开车回家。缪宜吟写道：\u201C接访结束，书记和其他领导都开着车开心地走了，没有想到要做公交回去。\u201D 看到缪宜吟的文字，笔者不禁有种酸涩而可笑的感觉。首先感谢这位市委...",
"emailed" : False,
"forwarded" : False,
"english" : False
}  , {
"index" : 7,
"articleIndex" : "15593",
"favor" :  False ,
     "read" : False,    
"title" : "中层人才决定了我们成事的可能性",
"titleTip" : "中层人才决定了我们成事的可能性",
"titleSummary" : "中层人才决定了我们成事的可能性",
"descSummary" : "在我们形成看待世界的眼光的时候，中层角度是最重要的角度。我们遇...",
"url" : "http:\/\/go.rss.sina.com.cn\/redirect.php?url=http:\/\/blog.sina.com.cn\/s\/blog_489548eb0102efip.html",
"pubDate" : "2013年10月17日 (1周前)",
"enterDate" : "384196:56:38",
"channelId" : "-2490967848816653835",
"channelName" : "观点-新浪博客",
"channelNameSummary" : "观点-新浪博客",
"channelUrl" : "http:\/\/blog.sina.com.cn\/lm\/21\/2006\/0426\/2.html",
"author" : "袁岳",
"tags" : [],
"desc" : "??在我们形成看待世界的眼光的时候，中层角度是最重要的角度。我们遇到的人，要么有知识，但都是宏观的，说的东西天南海北，听是很好听，或者很热闹，但是不解决眼前的问题，不帮助我现下的思考；或者有的人，说的就是很微观的鸡毛蒜皮、东拉西扯、八卦九卦，没有高度、格局、方向，也不能估计左邻右舍。中层的角度就是兼顾...",
"emailed" : False,
"forwarded" : False,
"english" : False
}  , {
"index" : 8,
"articleIndex" : "15592",
"favor" :  False ,
     "read" : False,    
"title" : "美国是如何扼住国际能源咽喉的",
"titleTip" : "美国是如何扼住国际能源咽喉的",
"titleSummary" : "美国是如何扼住国际能源咽喉的",
"descSummary" : "美国扼住国际能源咽喉 2013\/10\/17每日经济新闻 美国经济历经货币劫波...",
"url" : "http:\/\/go.rss.sina.com.cn\/redirect.php?url=http:\/\/blog.sina.com.cn\/s\/blog_49818dcb0102fjcv.html",
"pubDate" : "2013年10月17日 (2周前)",
"enterDate" : "384193:14:57",
"channelId" : "-2490967848816653835",
"channelName" : "观点-新浪博客",
"channelNameSummary" : "观点-新浪博客",
"channelUrl" : "http:\/\/blog.sina.com.cn\/lm\/21\/2006\/0426\/2.html",
"author" : "叶檀",
"tags" : [],
"desc" : "美国扼住国际能源咽喉 2013\/10\/17每日经济新闻 美国经济历经货币劫波屹立不倒，重要原因是创新，智能互联网与页岩气革命，是美国近三十年来的两大创新标志，对世界经济的影响日益深远。 10月4日，美国能源情报署（EIA）发布预测报告，2013年美国将超过俄罗斯及沙特，成为世界最大的石油及天然气生产国，与俄罗斯的...",
"emailed" : False,
"forwarded" : False,
"english" : False
}  , {
"index" : 9,
"articleIndex" : "15594",
"favor" :  False ,
     "read" : False,    
"title" : "什么导致农村学生上重点大学比例畸低",
"titleTip" : "什么导致农村学生上重点大学比例畸低",
"titleSummary" : "什么导致农村学生上重点大学比例畸低",
"descSummary" : "文\/晏扬 教育部部长袁贵仁日前在一场报告中指出，中国农村教育...",
"url" : "http:\/\/go.rss.sina.com.cn\/redirect.php?url=http:\/\/blog.sina.com.cn\/s\/blog_595929780101p8ai.html",
"pubDate" : "2013年10月17日 (2周前)",
"enterDate" : "384187:49:50",
"channelId" : "-2490967848816653835",
"channelName" : "观点-新浪博客",
"channelNameSummary" : "观点-新浪博客",
"channelUrl" : "http:\/\/blog.sina.com.cn\/lm\/21\/2006\/0426\/2.html",
"author" : "晏扬",
"tags" : [],
"desc" : "文\/晏扬 教育部部长袁贵仁日前在一场报告中指出，中国农村教育仍然薄弱，经过多年努力，东、中、西部高考录取率差距已经不大，但农村特别是中西部农村孩子上重点大学的比例偏低。他同时强调，农村孩子、贫困家庭孩子的创造力并不比城市和富裕家庭孩子差，为他们提供更加公平的上大学机会，是需要进一步解决好的问...",
"emailed" : False,
"forwarded" : False,
"english" : False
}  , {
"index" : 10,
"articleIndex" : "15591",
"favor" :  False ,
     "read" : False,    
"title" : "中国提\u201C去美国化\u201D不是说着玩的",
"titleTip" : "中国提\u201C去美国化\u201D不是说着玩的",
"titleSummary" : "中国提\u201C去美国化\u201D不是说着玩的",
"descSummary" : "邱 林 在人们普遍关注美国政府\u201C停摆\u201D的时候，中国提出的\u201C去美国...",
"url" : "http:\/\/go.rss.sina.com.cn\/redirect.php?url=http:\/\/blog.sina.com.cn\/s\/blog_4c2e041f0102exr9.html",
"pubDate" : "2013年10月16日 (2周前)",
"enterDate" : "384199:59:18",
"channelId" : "-2490967848816653835",
"channelName" : "观点-新浪博客",
"channelNameSummary" : "观点-新浪博客",
"channelUrl" : "http:\/\/blog.sina.com.cn\/lm\/21\/2006\/0426\/2.html",
"author" : "邱林",
"tags" : [],
"desc" : "邱 林 在人们普遍关注美国政府\u201C停摆\u201D的时候，中国提出的\u201C去美国化\u201D成为坊间的热门话题。此事源于10月13日新华社发表的英文评论《华盛顿僵局是\u201C去美国化的\u201D好时机》。对此，美国舆论界反映强烈，有人批评中国趁人之危，借债务危机警告世界别再对美听命；有人劝美国\u201C保持冷静\u201D，称中国人只是说说而已，对\u201C取代...",
"emailed" : False,
"forwarded" : False,
"english" : False
}  , {
"index" : 11,
"articleIndex" : "15590",
"favor" :  False ,
     "read" : False,    
"title" : "苏联解体是幸福还是灾难？",
"titleTip" : "苏联解体是幸福还是灾难？",
"titleSummary" : "苏联解体是幸福还是灾难？",
"descSummary" : "苏联解体是20世纪最大的历史事件之一，它不仅将在很长一段时间内，深刻...",
"url" : "http:\/\/go.rss.sina.com.cn\/redirect.php?url=http:\/\/blog.sina.com.cn\/s\/blog_b205a0870101esw2.html",
"pubDate" : "2013年10月16日 (2周前)",
"enterDate" : "384197:56:07",
"channelId" : "-2490967848816653835",
"channelName" : "观点-新浪博客",
"channelNameSummary" : "观点-新浪博客",
"channelUrl" : "http:\/\/blog.sina.com.cn\/lm\/21\/2006\/0426\/2.html",
"author" : "孙越",
"tags" : [],
"desc" : "苏联解体是20世纪最大的历史事件之一，它不仅将在很长一段时间内，深刻地影响事件发生地的生活，也将影响全世界的生活，当然包括中国人的生活。近期，我就在北京，听到不少关于苏联解体与中国未来命运相关的猜测和议论，甚至争吵和攻讦，主题似乎只有一个，即制度改变，到底会给百姓带来的是幸福还是灾难。 这是一个相...",
"emailed" : False,
"forwarded" : False,
"english" : False
}  , {
"index" : 12,
"articleIndex" : "15589",
"favor" :  False ,
     "read" : False,    
"title" : "中国建筑设计只剩极端和跟凤两条路？",
"titleTip" : "中国建筑设计只剩极端和跟凤两条路？",
"titleSummary" : "中国建筑设计只剩极端和跟凤两条路？",
"descSummary" : "这个家伙最近很出名儿。实际上，它的外立面没网上放的那么夸张...",
"url" : "http:\/\/go.rss.sina.com.cn\/redirect.php?url=http:\/\/blog.sina.com.cn\/s\/blog_9ed70e670101ngco.html",
"pubDate" : "2013年10月16日 (2周前)",
"enterDate" : "384198:53:52",
"channelId" : "-2490967848816653835",
"channelName" : "观点-新浪博客",
"channelNameSummary" : "观点-新浪博客",
"channelUrl" : "http:\/\/blog.sina.com.cn\/lm\/21\/2006\/0426\/2.html",
"author" : "夏岩",
"tags" : [],
"desc" : "这个家伙最近很出名儿。 实际上，它的外立面没网上放的那么夸张。我路过过一次，一个在建建筑，一边侧面是平的，本体就不是圆柱形。特地找个角度来拍，才能出上面那幅图的效果。有人发过图纸，也是一个进行了建筑与结构一体化创新的设计。算是个从技术出发的理性形态设计思路。媒体为了博个眼球，整个噱头而已...",
"emailed" : False,
"forwarded" : False,
"english" : False
}  , {
"index" : 13,
"articleIndex" : "15588",
"favor" :  False ,
     "read" : False,    
"title" : "罗援将军被列入美国\u201C猎杀\u201D对象？",
"titleTip" : "罗援将军被列入美国\u201C猎杀\u201D对象？",
"titleSummary" : "罗援将军被列入美国\u201C猎杀\u201D对象？",
"descSummary" : "据新华社报道，在近日由中国战略文化促进会主办的数字金融和网络...",
"url" : "http:\/\/go.rss.sina.com.cn\/redirect.php?url=http:\/\/blog.sina.com.cn\/s\/blog_697262790101i5o9.html",
"pubDate" : "2013年10月16日 (2周前)",
"enterDate" : "384200:19:56",
"channelId" : "-2490967848816653835",
"channelName" : "观点-新浪博客",
"channelNameSummary" : "观点-新浪博客",
"channelUrl" : "http:\/\/blog.sina.com.cn\/lm\/21\/2006\/0426\/2.html",
"author" : "菁菁远山",
"tags" : [],
"desc" : "据新华社报道，在近日由中国战略文化促进会主办的数字金融和网络安全研讨会上，中国战略文化促进会常务副会长兼秘书长罗援在谈及网络安全对社会个体的影响时表示，自己既是网络安全的得益者，也是受害者。他表示，自己已被列入美国\u201C猎鹰计划\u201D名录，成为\u201C猎杀\u201D对象。此语一出，顿时引起舆论大哗，人们纷纷指责罗援靠...",
"emailed" : False,
"forwarded" : False,
"english" : False
}  , {
"index" : 14,
"articleIndex" : "15587",
"favor" :  False ,
     "read" : False,    
"title" : "官气十足的官员早晚要转化为魔鬼",
"titleTip" : "官气十足的官员早晚要转化为魔鬼",
"titleSummary" : "官气十足的官员早晚要转化为魔鬼",
"descSummary" : "为官气\u201C放气\u201D 阮直 官员本身就有组织赋予他的权力，他可依仗着手...",
"url" : "http:\/\/go.rss.sina.com.cn\/redirect.php?url=http:\/\/blog.sina.com.cn\/s\/blog_5fab50bf0102e8bn.html",
"pubDate" : "2013年10月16日 (2周前)",
"enterDate" : "384199:56:51",
"channelId" : "-2490967848816653835",
"channelName" : "观点-新浪博客",
"channelNameSummary" : "观点-新浪博客",
"channelUrl" : "http:\/\/blog.sina.com.cn\/lm\/21\/2006\/0426\/2.html",
"author" : "阮直",
"tags" : [],
"desc" : "为官气\u201C放气\u201D 阮直 官员本身就有组织赋予他的权力，他可依仗着手中公权拍板、决策，左右时局变化，改变一个人的命运甚至一级组织、一个公司的前途，这样的官员，自然就会让人生畏。除非这个官员像铁路警察，只管他那段，不管我这片，你就不会再敬畏他。如果这个官员就是你的直接领导，他又沾染上一身官气，他就成了让你...",
"emailed" : False,
"forwarded" : False,
"english" : False
}  , {
"index" : 15,
"articleIndex" : "15586",
"favor" :  False ,
     "read" : False,    
"title" : "多少罪恶假\u201C红学\u201D之名而行",
"titleTip" : "多少罪恶假\u201C红学\u201D之名而行",
"titleSummary" : "多少罪恶假\u201C红学\u201D之名而行",
"descSummary" : "红学，多少罪恶假汝而行 文\/魏英杰 近日，一则关于\u201C《红楼梦》后28回...",
"url" : "http:\/\/go.rss.sina.com.cn\/redirect.php?url=http:\/\/blog.sina.com.cn\/s\/blog_537e001a0102ejtn.html",
"pubDate" : "2013年10月16日 (2周前)",
"enterDate" : "384198:42:59",
"channelId" : "-2490967848816653835",
"channelName" : "观点-新浪博客",
"channelNameSummary" : "观点-新浪博客",
"channelUrl" : "http:\/\/blog.sina.com.cn\/lm\/21\/2006\/0426\/2.html",
"author" : "魏英杰",
"tags" : [],
"desc" : "红学，多少罪恶假汝而行 文\/魏英杰 近日，一则关于\u201C《红楼梦》后28回手稿回到祖国\u201D的消息甚嚣尘上。在这个新闻发布会上，来自中国社科院、中央党校、文化界的100多名专家、学者聚集一堂，共襄盛举。 这场活动很快就被证明是一出漏洞百出的大闹剧。一者，新闻发布会展示的根本不是什么手稿，而是手稿持有人张贵林根据...",
"emailed" : False,
"forwarded" : False,
"english" : False
}  , {
"index" : 16,
"articleIndex" : "15585",
"favor" :  False ,
     "read" : False,    
"title" : "\u201C全民腐败\u201D的中国如何反腐",
"titleTip" : "\u201C全民腐败\u201D的中国如何反腐",
"titleSummary" : "\u201C全民腐败\u201D的中国如何反腐",
"descSummary" : "四谈反腐的路径和方法 看到本文标题，或许很多人产生那种面对十恶不赦...",
"url" : "http:\/\/go.rss.sina.com.cn\/redirect.php?url=http:\/\/blog.sina.com.cn\/s\/blog_b27eeb8f0101gdhw.html",
"pubDate" : "2013年10月16日 (2周前)",
"enterDate" : "384197:20:27",
"channelId" : "-2490967848816653835",
"channelName" : "观点-新浪博客",
"channelNameSummary" : "观点-新浪博客",
"channelUrl" : "http:\/\/blog.sina.com.cn\/lm\/21\/2006\/0426\/2.html",
"author" : "公方彬",
"tags" : [],
"desc" : "四谈反腐的路径和方法 看到本文标题，或许很多人产生那种面对十恶不赦大贪官劣迹爆光的感觉：\u201C一股怒火不由得从两肋窜了上来\u201D。其实当我们把腐败的特征与大众的参与形式作一简述，恐怕很难再有人认为自己可以排除在外。 腐败存在于三种形式： 首先，权力腐败。刘志军、刘铁男是权力腐败，被央视爆光的河北武邑县公安...",
"emailed" : False,
"forwarded" : False,
"english" : False
}  , {
"index" : 17,
"articleIndex" : "15584",
"favor" :  False ,
     "read" : False,    
"title" : "中国丢失的最宝贵\u201C非物质文化遗产\u201D",
"titleTip" : "中国丢失的最宝贵\u201C非物质文化遗产\u201D",
"titleSummary" : "中国丢失的最宝贵\u201C非物质文化遗产\u201D",
"descSummary" : "中国丢失的最宝贵\u201C非物质文化遗产\u201D 作为东方文明的主体?华夏...",
"url" : "http:\/\/go.rss.sina.com.cn\/redirect.php?url=http:\/\/blog.sina.com.cn\/s\/blog_485dcc670102e12i.html",
"pubDate" : "2013年10月16日 (2周前)",
"enterDate" : "384194:00:17",
"channelId" : "-2490967848816653835",
"channelName" : "观点-新浪博客",
"channelNameSummary" : "观点-新浪博客",
"channelUrl" : "http:\/\/blog.sina.com.cn\/lm\/21\/2006\/0426\/2.html",
"author" : "程万军",
"tags" : [],
"desc" : "中国丢失的最宝贵\u201C非物质文化遗产\u201D 作为东方文明的主体??华夏文明之中国，现今遗失、被邻国日韩捡去的\u201C非物质文化遗产\u201D有很多，而颇有现实意义、堪称最宝贵的，当属\u201C礼仪之邦\u201D的文化根基??\u201C四维\u201D文化传统。 众所周知，中国此文化传统成型于春秋，标志性的概括于齐国名相管仲名言??\u201C礼义廉耻，国之四维；四维不...",
"emailed" : False,
"forwarded" : False,
"english" : False
}  , {
"index" : 18,
"articleIndex" : "15583",
"favor" :  False ,
     "read" : False,    
"title" : "美国亿万富翁为何用翻盖手机",
"titleTip" : "美国亿万富翁为何用翻盖手机",
"titleSummary" : "美国亿万富翁为何用翻盖手机",
"descSummary" : "亿万富翁的翻盖手机是质朴生活的提醒 亿万富翁的翻盖手机反讽了\u201C土豪...",
"url" : "http:\/\/go.rss.sina.com.cn\/redirect.php?url=http:\/\/blog.sina.com.cn\/s\/blog_59bd45d00102ebtb.html",
"pubDate" : "2013年10月16日 (2周前)",
"enterDate" : "384193:55:13",
"channelId" : "-2490967848816653835",
"channelName" : "观点-新浪博客",
"channelNameSummary" : "观点-新浪博客",
"channelUrl" : "http:\/\/blog.sina.com.cn\/lm\/21\/2006\/0426\/2.html",
"author" : "王传涛",
"tags" : [],
"desc" : "亿万富翁的翻盖手机是质朴生活的提醒 亿万富翁的翻盖手机反讽了\u201C土豪式消费理念\u201D 王传涛 据美国有线电视新闻网（CNN）报道近日，美国亿万富翁杰瑞?琼斯用翻盖手机打电话的视频截图被上传至网络后，引发了网民的热议。人们都很惊讶，在智能手机当道的时代，身为亿万富翁的琼斯还在用过时的翻盖手机。事实上，使用翻盖手机...",
"emailed" : False,
"forwarded" : False,
"english" : False
}  , {
"index" : 19,
"articleIndex" : "15582",
"favor" :  False ,
     "read" : False,    
"title" : "陈小鲁们的道歉不只是自我救赎",
"titleTip" : "陈小鲁们的道歉不只是自我救赎",
"titleSummary" : "陈小鲁们的道歉不只是自我救赎",
"descSummary" : "陈小鲁们的道歉不只是自我救赎 2013年10月16日07:15|来源：海外网| 在...",
"url" : "http:\/\/go.rss.sina.com.cn\/redirect.php?url=http:\/\/blog.sina.com.cn\/s\/blog_4ae5943b0102eeq6.html",
"pubDate" : "2013年10月16日 (2周前)",
"enterDate" : "384192:52:26",
"channelId" : "-2490967848816653835",
"channelName" : "观点-新浪博客",
"channelNameSummary" : "观点-新浪博客",
"channelUrl" : "http:\/\/blog.sina.com.cn\/lm\/21\/2006\/0426\/2.html",
"author" : "王石川",
"tags" : [],
"desc" : "陈小鲁们的道歉不只是自我救赎 2013年10月16日07:15|来源：海外网| 在这个国庆长假的最后一个休息日，陈小鲁回到母校北京八中，参加了一场特别的道歉会。他要为之道歉的往事发生在47年前?? \u201C文革\u201D初期，北京市的各中学爆发了对校领导和部分老师的批斗。当时，他是北京八中的\u201C造反\u201D学生领袖、革委会主任，而另一个身份...",
"emailed" : False,
"forwarded" : False,
"english" : False
} ]
}
