{
"mode" : {"viewTitle" : 1,   "viewNew" : 0,  "pageIndex" : 1 },
 "channel" : {"id" : "-235887732494439722", "booked" : False, "subNumber" : 1, "name" : "港台明星-新浪娱乐", "url" : "http:\/\/ent.sina.com.cn\/star\/hk_tw\/more.html", "feed" : "http:\/\/rss.sina.com.cn\/ent\/hongkong.xml", "author" : "WWW.SINA.COM.CN", "desc" : "港台明星新闻列表", "imageUrl" : "http:\/\/www.sinaimg.cn\/home\/deco\/2009\/0330\/logo_home_ent.gif", "postPerWeek" : "0", "lastCrawTime" : "16:50:30", "crawDateTime" : "16:50:30", "lastHttpCode" : "200"}, "page" : {
"startIndex" : 0,
"totalCount" : 5000,
"pageIndex" : 1,
"lastPage" : 250,
"pageSize" : 20,
"english" :  False },
 "unreadNum" : 0, "shotIndex" : -1,
"articles" : [
{
"index" : 0,
"articleIndex" : "93714",
"favor" :  False ,
     "read" : False,    
"title" : "丁子峻结婚纪念日与妻子互诉真情秀恩爱",
"titleTip" : "丁子峻结婚纪念日与妻子互诉真情秀恩爱",
"titleSummary" : "丁子峻结婚纪念日与妻子互诉真情秀恩爱",
"descSummary" : "新浪娱乐讯 10月30日，是丁子峻和妻子吉祥的两周年结婚纪念...",
"url" : "http:\/\/go.rss.sina.com.cn\/redirect.php?url=http:\/\/ent.sina.com.cn\/s\/h\/w\/2013-10-30\/14254033526.shtml",
"pubDate" : "14:25:36",
"enterDate" : "384200:54:37",
"channelId" : "-235887732494439722",
"channelName" : "港台明星-新浪娱乐",
"channelNameSummary" : "港台明星-新浪娱乐",
"channelUrl" : "http:\/\/ent.sina.com.cn\/star\/hk_tw\/more.html",
"author" : "WWW.SINA.COM.CN",
"tags" : [],
"desc" : "新浪娱乐讯 10月30日，是丁子峻和妻子吉祥的两周年结婚纪念日，30日一早，丁子峻妻子在微博上写道：\u201C什么是真命天子，就是你自以为最丑最糟糕的时候，他能慧眼识珠爱到你的美、你的好，懂你包容你爱护你，那他就是！人生有时像过山车，每个人都会有最低谷的时期，可也正是在....",
"emailed" : False,
"forwarded" : False,
"english" : False
}  , {
"index" : 1,
"articleIndex" : "93712",
"favor" :  False ,
     "read" : False,    
"title" : "视频：张震18日婚宴请梁朝伟李安 明星云集",
"titleTip" : "视频：张震18日婚宴请梁朝伟李安 明星云集",
"titleSummary" : "视频：张震18日婚宴请梁朝伟李安 明星云集",
"descSummary" : "新浪娱乐讯 近日，娱乐圈喜事不断，就连钻石王老五、37岁...",
"url" : "http:\/\/go.rss.sina.com.cn\/redirect.php?url=http:\/\/video.sina.com.cn\/p\/ent\/s\/h\/2013-10-30\/133763083717.html",
"pubDate" : "13:37:31",
"enterDate" : "384200:06:32",
"channelId" : "-235887732494439722",
"channelName" : "港台明星-新浪娱乐",
"channelNameSummary" : "港台明星-新浪娱乐",
"channelUrl" : "http:\/\/ent.sina.com.cn\/star\/hk_tw\/more.html",
"author" : "WWW.SINA.COM.CN",
"tags" : [],
"desc" : "新浪娱乐讯 近日，娱乐圈喜事不断，就连钻石王老五、37岁的张震也将迎娶交往4年的圈外女友庄雯如。眼看婚礼日期临近，张震向身边亲友发出邀约，定在11月18日于台北光点电影院举办婚宴，他所属的泽东电影公司老板王家卫、同门的梁朝伟、刘嘉玲已确定捧场，合作过《卧虎藏龙》的....",
"emailed" : False,
"forwarded" : False,
"english" : False
}  , {
"index" : 2,
"articleIndex" : "93713",
"favor" :  False ,
     "read" : False,    
"title" : "视频：窦靖童与同父异母妹妹感情要好",
"titleTip" : "视频：窦靖童与同父异母妹妹感情要好",
"titleSummary" : "视频：窦靖童与同父异母妹妹感情要好",
"descSummary" : "新浪娱乐讯 如今，王菲的大女儿窦靖童已经16岁出落成少女了，...",
"url" : "http:\/\/go.rss.sina.com.cn\/redirect.php?url=http:\/\/video.sina.com.cn\/p\/ent\/s\/h\/2013-10-30\/133763083711.html",
"pubDate" : "13:37:31",
"enterDate" : "384200:06:32",
"channelId" : "-235887732494439722",
"channelName" : "港台明星-新浪娱乐",
"channelNameSummary" : "港台明星-新浪娱乐",
"channelUrl" : "http:\/\/ent.sina.com.cn\/star\/hk_tw\/more.html",
"author" : "WWW.SINA.COM.CN",
"tags" : [],
"desc" : "新浪娱乐讯 如今，王菲的大女儿窦靖童已经16岁出落成少女了，可能是经历了父母离异，也有可能是继承了母亲王菲的淡定气质，窦靖童总是一副宠辱不惊的模样，不仅在生活中很有自己的原则，就连王菲和李亚鹏离婚，窦靖童也依旧坦然安慰母亲，成熟的气质让不少人都惊叹不已。 ....",
"emailed" : False,
"forwarded" : False,
"english" : False
}  , {
"index" : 3,
"articleIndex" : "93711",
"favor" :  False ,
     "read" : False,    
"title" : "视频：林熙蕾38岁生日 下辈子要和舒淇结婚",
"titleTip" : "视频：林熙蕾38岁生日 下辈子要和舒淇结婚",
"titleSummary" : "视频：林熙蕾38岁生日 下辈子要和舒淇结婚",
"descSummary" : "新浪娱乐讯 林熙蕾与舒淇是娱乐圈中的好姐妹，两个女神凑...",
"url" : "http:\/\/go.rss.sina.com.cn\/redirect.php?url=http:\/\/video.sina.com.cn\/p\/ent\/s\/h\/2013-10-30\/133763083713.html",
"pubDate" : "13:37:30",
"enterDate" : "384200:06:31",
"channelId" : "-235887732494439722",
"channelName" : "港台明星-新浪娱乐",
"channelNameSummary" : "港台明星-新浪娱乐",
"channelUrl" : "http:\/\/ent.sina.com.cn\/star\/hk_tw\/more.html",
"author" : "WWW.SINA.COM.CN",
"tags" : [],
"desc" : "新浪娱乐讯 林熙蕾与舒淇是娱乐圈中的好姐妹，两个女神凑到一起自然成为焦点。10月29日，是林熙蕾38岁生日，好友舒淇特地趁工作空档，将自己当礼物送上门，陪她和今年8月刚满2岁的女儿杨若妤共度。舒淇还在微博上搞笑祝福：\u201C我没缘份的老婆，祝福你，每天每天开心，一天比一....",
"emailed" : False,
"forwarded" : False,
"english" : False
}  , {
"index" : 4,
"articleIndex" : "93710",
"favor" :  False ,
     "read" : False,    
"title" : "曾宝仪摆脱星二代光环 不愿靠父亲成名",
"titleTip" : "曾宝仪摆脱星二代光环 不愿靠父亲成名",
"titleSummary" : "曾宝仪摆脱星二代光环 不愿靠父亲成名",
"descSummary" : "中新网10月30日电 据台湾\u201C中国时报\u201D消息，曾宝仪以《艺文大...",
"url" : "http:\/\/go.rss.sina.com.cn\/redirect.php?url=http:\/\/ent.sina.com.cn\/s\/h\/2013-10-30\/13154033503.shtml",
"pubDate" : "13:15:00",
"enterDate" : "384199:44:01",
"channelId" : "-235887732494439722",
"channelName" : "港台明星-新浪娱乐",
"channelNameSummary" : "港台明星-新浪娱乐",
"channelUrl" : "http:\/\/ent.sina.com.cn\/star\/hk_tw\/more.html",
"author" : "WWW.SINA.COM.CN",
"tags" : [],
"desc" : "中新网10月30日电 据台湾\u201C中国时报\u201D消息，曾宝仪以《艺文大道》拿下金钟奖综合节目主持人奖，她出道15年，坦言前3年摆脱不了爸爸曾志伟的光环：\u201C媒体专访我，多半是问我爸，有工作上门，也是问我能不能找我爸一起。所以我有一段时间很沮丧，这么努力，怎么都没人看见？\u201D不....",
"emailed" : False,
"forwarded" : False,
"english" : False
}  , {
"index" : 5,
"articleIndex" : "93709",
"favor" :  False ,
     "read" : False,    
"title" : "台31岁女作家林亚若车祸身亡 曾任7年空姐",
"titleTip" : "台31岁女作家林亚若车祸身亡 曾任7年空姐",
"titleSummary" : "台31岁女作家林亚若车祸身亡 曾任7年空姐",
"descSummary" : "更多热点趣闻 点击八卦精选&gt;&gt;&gt; 新浪娱乐讯 据香港媒体报道，...",
"url" : "http:\/\/go.rss.sina.com.cn\/redirect.php?url=http:\/\/ent.sina.com.cn\/s\/h\/2013-10-30\/11544033462.shtml",
"pubDate" : "11:54:14",
"enterDate" : "384200:53:40",
"channelId" : "-235887732494439722",
"channelName" : "港台明星-新浪娱乐",
"channelNameSummary" : "港台明星-新浪娱乐",
"channelUrl" : "http:\/\/ent.sina.com.cn\/star\/hk_tw\/more.html",
"author" : "WWW.SINA.COM.CN",
"tags" : [],
"desc" : "更多热点趣闻 点击八卦精选&gt;&gt;&gt; 新浪娱乐讯 据香港媒体报道，前台湾空姐、人气旅游作家林亚若27日于澳洲进行自行车旅游时，不幸遇上车祸身亡。 林亚若被指于前晚骑自行车，经过艾丽丝泉(Alice Springs)时被一辆观光公共汽车撞倒死亡。林亚若10月26日在....",
"emailed" : False,
"forwarded" : False,
"english" : False
}  , {
"index" : 6,
"articleIndex" : "93707",
"favor" :  False ,
     "read" : False,    
"title" : "今日话题：雨神萧敬腾遭泼粪惨变粪神",
"titleTip" : "今日话题：雨神萧敬腾遭泼粪惨变粪神",
"titleSummary" : "今日话题：雨神萧敬腾遭泼粪惨变粪神",
"descSummary" : "新浪娱乐讯 据台湾媒体报道，\u201C雨神\u201D萧敬腾28日午从自家出门...",
"url" : "http:\/\/go.rss.sina.com.cn\/redirect.php?url=http:\/\/ent.sina.com.cn\/s\/h\/2013-10-30\/11414033441.shtml",
"pubDate" : "11:41:27",
"enterDate" : "384201:10:58",
"channelId" : "-235887732494439722",
"channelName" : "港台明星-新浪娱乐",
"channelNameSummary" : "港台明星-新浪娱乐",
"channelUrl" : "http:\/\/ent.sina.com.cn\/star\/hk_tw\/more.html",
"author" : "WWW.SINA.COM.CN",
"tags" : [],
"desc" : "新浪娱乐讯 据台湾媒体报道，\u201C雨神\u201D萧敬腾28日午从自家出门搭保母车外出工作时，2名佯装歌迷的歹徒戴安全帽、口罩骑乘机车，朝他的保姆车内泼屎尿，当时他坐后座逃过一劫，保姆车司机全身被泼满屎尿，司机与歹徒扭打拖行，但歹徒仍成功逃逸，萧敬腾已报警处理。....",
"emailed" : False,
"forwarded" : False,
"english" : False
}  , {
"index" : 7,
"articleIndex" : "93706",
"favor" :  False ,
     "read" : False,    
"title" : "视频：赌王千金何超盈低胸会猛男 被撞破速闪",
"titleTip" : "视频：赌王千金何超盈低胸会猛男 被撞破速闪",
"titleSummary" : "视频：赌王千金何超盈低胸会猛男 被撞破速闪",
"descSummary" : "新浪娱乐讯 据香港媒体报道，赌王四房千金何超盈[微博]，...",
"url" : "http:\/\/go.rss.sina.com.cn\/redirect.php?url=http:\/\/video.sina.com.cn\/p\/ent\/s\/h\/2013-10-30\/111263082879.html",
"pubDate" : "11:12:29",
"enterDate" : "384200:42:00",
"channelId" : "-235887732494439722",
"channelName" : "港台明星-新浪娱乐",
"channelNameSummary" : "港台明星-新浪娱乐",
"channelUrl" : "http:\/\/ent.sina.com.cn\/star\/hk_tw\/more.html",
"author" : "WWW.SINA.COM.CN",
"tags" : [],
"desc" : "新浪娱乐讯 据香港媒体报道，赌王四房千金何超盈[微博]， 自从宣布与拍拖约四年、已达谈婚论嫁阶段的男友Greg分手后，身边未见有公开的新男朋友出现。昨午5时穿上低胸性感背心的超盈，一身型格打扮现身中环， 身边更有一名打扮斯文的男伴，只见超盈和斯文男并肩而行，两人边行....",
"emailed" : False,
"forwarded" : False,
"english" : False
}  , {
"index" : 8,
"articleIndex" : "93698",
"favor" :  False ,
     "read" : False,    
"title" : "寇乃馨助阵易术出新书 自曝曾遭潜规则",
"titleTip" : "寇乃馨助阵易术出新书 自曝曾遭潜规则",
"titleSummary" : "寇乃馨助阵易术出新书 自曝曾遭潜规则",
"descSummary" : "新浪娱乐讯 曾得到香港传奇作家李碧华盛赞的80后作家易术在风...",
"url" : "http:\/\/go.rss.sina.com.cn\/redirect.php?url=http:\/\/ent.sina.com.cn\/s\/h\/2013-10-30\/10474033305.shtml",
"pubDate" : "10:47:28",
"enterDate" : "384200:47:02",
"channelId" : "-235887732494439722",
"channelName" : "港台明星-新浪娱乐",
"channelNameSummary" : "港台明星-新浪娱乐",
"channelUrl" : "http:\/\/ent.sina.com.cn\/star\/hk_tw\/more.html",
"author" : "WWW.SINA.COM.CN",
"tags" : [],
"desc" : "新浪娱乐讯 曾得到香港传奇作家李碧华盛赞的80后作家易术在风头正劲之时突然封笔，沉寂的六年，他选择一条异常艰辛的创业之路，在另一个战场上成功开疆辟土。六年后，他重返文坛，推出新作《没有梦想，何必远方》，讲述了一个异乡青年在北京逐梦的十年，引发全民追忆。 ....",
"emailed" : False,
"forwarded" : False,
"english" : False
}  , {
"index" : 9,
"articleIndex" : "93708",
"favor" :  False ,
     "read" : False,    
"title" : "台女星自曝被邀包养：男女都有月付50万",
"titleTip" : "台女星自曝被邀包养：男女都有月付50万",
"titleSummary" : "台女星自曝被邀包养：男女都有月付50万",
"descSummary" : "图片来源：台湾\u201C今日新闻网\u201D 中新网10月30日电 据台湾\u201C今...",
"url" : "http:\/\/go.rss.sina.com.cn\/redirect.php?url=http:\/\/ent.sina.com.cn\/s\/h\/2013-10-30\/10304033313.shtml",
"pubDate" : "10:30:00",
"enterDate" : "384199:29:26",
"channelId" : "-235887732494439722",
"channelName" : "港台明星-新浪娱乐",
"channelNameSummary" : "港台明星-新浪娱乐",
"channelUrl" : "http:\/\/ent.sina.com.cn\/star\/hk_tw\/more.html",
"author" : "WWW.SINA.COM.CN",
"tags" : [],
"desc" : "图片来源：台湾\u201C今日新闻网\u201D 中新网10月30日电 据台湾\u201C今日新闻网\u201D消息，台湾性感林采缇跨足乐坛交出漂亮成绩单，活动邀约应接不暇，上周末她赴同志夜店开唱，嗨歌热舞引爆现场气氛。 林采缇8月推出首张个人专辑《女帝诏曰》，第一次征战歌坛的她坦言压力不小，....",
"emailed" : False,
"forwarded" : False,
"english" : False
}  , {
"index" : 10,
"articleIndex" : "93705",
"favor" :  False ,
     "read" : False,    
"title" : "罗家英回乡证被曝光 斥爆料者脑袋进水",
"titleTip" : "罗家英回乡证被曝光 斥爆料者脑袋进水",
"titleSummary" : "罗家英回乡证被曝光 斥爆料者脑袋进水",
"descSummary" : "中新网10月30日电 据香港\u201C成报\u201D消息，罗家英和汪明荃昨晚在...",
"url" : "http:\/\/go.rss.sina.com.cn\/redirect.php?url=http:\/\/ent.sina.com.cn\/s\/h\/2013-10-30\/10254033291.shtml",
"pubDate" : "10:25:00",
"enterDate" : "384199:54:31",
"channelId" : "-235887732494439722",
"channelName" : "港台明星-新浪娱乐",
"channelNameSummary" : "港台明星-新浪娱乐",
"channelUrl" : "http:\/\/ent.sina.com.cn\/star\/hk_tw\/more.html",
"author" : "WWW.SINA.COM.CN",
"tags" : [],
"desc" : "中新网10月30日电 据香港\u201C成报\u201D消息，罗家英和汪明荃昨晚在香港出席活动，对于罗家英日前在上海入住酒店时被职员曝光回乡证照片，并指他与一名女子分房光临，问到他是否感到生气？他说：\u201C不生气，我又不是偶像，只是个老人家，有什么好说，是有点过分，不应说我与女士去，....",
"emailed" : False,
"forwarded" : False,
"english" : False
}  , {
"index" : 11,
"articleIndex" : "93697",
"favor" :  False ,
     "read" : False,    
"title" : "视频：谢婷婷不知侄子现状 望哥找到另一半",
"titleTip" : "视频：谢婷婷不知侄子现状 望哥找到另一半",
"titleSummary" : "视频：谢婷婷不知侄子现状 望哥找到另一半",
"descSummary" : "新浪娱乐讯 29日，杨千谩 绘面贸鱿某品牌发布会，刚刚参加...",
"url" : "http:\/\/go.rss.sina.com.cn\/redirect.php?url=http:\/\/video.sina.com.cn\/p\/ent\/s\/h\/2013-10-30\/102263082809.html",
"pubDate" : "10:22:30",
"enterDate" : "384200:22:04",
"channelId" : "-235887732494439722",
"channelName" : "港台明星-新浪娱乐",
"channelNameSummary" : "港台明星-新浪娱乐",
"channelUrl" : "http:\/\/ent.sina.com.cn\/star\/hk_tw\/more.html",
"author" : "WWW.SINA.COM.CN",
"tags" : [],
"desc" : "新浪娱乐讯 &#160;29日，杨千谩⑿绘面贸鱿某品牌发布会，刚刚参加完奶奶丧礼的谢婷婷，说起奶奶仍有点悲伤，也透露哥哥谢霆锋因未能参加丧礼而有不开心。近日有传张柏芝禁止Lucas 、Quintus前往澳洲奔丧的消息，谢婷婷表示不知情。 看来姑姑谢婷婷也不是很清楚Lucas....",
"emailed" : False,
"forwarded" : False,
"english" : False
}  , {
"index" : 12,
"articleIndex" : "93695",
"favor" :  False ,
     "read" : False,    
"title" : "视频：施南生曝林青霞不复出 早知采妮婚讯",
"titleTip" : "视频：施南生曝林青霞不复出 早知采妮婚讯",
"titleSummary" : "视频：施南生曝林青霞不复出 早知采妮婚讯",
"descSummary" : "新浪娱乐讯 29日，施南生获颁法国艺术与文学军官勋章，晚...",
"url" : "http:\/\/go.rss.sina.com.cn\/redirect.php?url=http:\/\/video.sina.com.cn\/p\/ent\/s\/h\/2013-10-30\/102263082827.html",
"pubDate" : "10:22:29",
"enterDate" : "384200:22:03",
"channelId" : "-235887732494439722",
"channelName" : "港台明星-新浪娱乐",
"channelNameSummary" : "港台明星-新浪娱乐",
"channelUrl" : "http:\/\/ent.sina.com.cn\/star\/hk_tw\/more.html",
"author" : "WWW.SINA.COM.CN",
"tags" : [],
"desc" : "新浪娱乐讯 29日，施南生获颁法国艺术与文学军官勋章，晚上宴请好友，林青霞、萧芳芳等现身。在施南生这么重要的日子里，老公徐克却不见踪影。 施南生表示接下来会继续忙拍戏，问到会否邀请好友林青霞复出帮忙时，感叹拍戏太辛苦的施南生立马代林青霞拒绝。 杨....",
"emailed" : False,
"forwarded" : False,
"english" : False
}  , {
"index" : 13,
"articleIndex" : "93696",
"favor" :  False ,
     "read" : False,    
"title" : "视频：林峰吴千语同台秀恩爱 避谈生日礼物",
"titleTip" : "视频：林峰吴千语同台秀恩爱 避谈生日礼物",
"titleSummary" : "视频：林峰吴千语同台秀恩爱 避谈生日礼物",
"descSummary" : "新浪娱乐讯 10月29日，林o、盛君、徐子珊、吴千语等人出席...",
"url" : "http:\/\/go.rss.sina.com.cn\/redirect.php?url=http:\/\/video.sina.com.cn\/p\/ent\/s\/h\/2013-10-30\/102263082815.html",
"pubDate" : "10:22:29",
"enterDate" : "384200:22:03",
"channelId" : "-235887732494439722",
"channelName" : "港台明星-新浪娱乐",
"channelNameSummary" : "港台明星-新浪娱乐",
"channelUrl" : "http:\/\/ent.sina.com.cn\/star\/hk_tw\/more.html",
"author" : "WWW.SINA.COM.CN",
"tags" : [],
"desc" : "新浪娱乐讯 &#160;10月29日，林o、盛君、徐子珊、吴千语等人出席恐怖3D电影《诡婴》首映礼。全场的焦点自然是林o、吴千语这对恩爱情侣了，当被要求合照时，吴千语害羞得急忙走下后台，林o却丝毫不介意，大庭广众下将女友拉回台上，相当大方的接受合照。 早前是吴千....",
"emailed" : False,
"forwarded" : False,
"english" : False
}  , {
"index" : 14,
"articleIndex" : "93704",
"favor" :  False ,
     "read" : False,    
"title" : "视频：杨采妮宣布婚讯 下嫁旧爱邱韶智",
"titleTip" : "视频：杨采妮宣布婚讯 下嫁旧爱邱韶智",
"titleSummary" : "视频：杨采妮宣布婚讯 下嫁旧爱邱韶智",
"descSummary" : "新浪娱乐讯 杨妮10月29日正式公布结婚喜讯，即将下嫁旧爱邱韶...",
"url" : "http:\/\/go.rss.sina.com.cn\/redirect.php?url=http:\/\/video.sina.com.cn\/p\/ent\/s\/h\/2013-10-30\/102263082859.html",
"pubDate" : "10:22:29",
"enterDate" : "384199:52:00",
"channelId" : "-235887732494439722",
"channelName" : "港台明星-新浪娱乐",
"channelNameSummary" : "港台明星-新浪娱乐",
"channelUrl" : "http:\/\/ent.sina.com.cn\/star\/hk_tw\/more.html",
"author" : "WWW.SINA.COM.CN",
"tags" : [],
"desc" : "新浪娱乐讯 杨妮10月29日正式公布结婚喜讯，即将下嫁旧爱邱韶智。难掩待嫁兴奋心情的杨妮，除发出与未婚夫的甜蜜游泳照外，还在微博贴文，宣布将为人妻的结婚消息。 Tungstar\/文并视频 &#160;",
"emailed" : False,
"forwarded" : False,
"english" : False
}  , {
"index" : 15,
"articleIndex" : "93703",
"favor" :  False ,
     "read" : False,    
"title" : "甄子丹长子住院前妻大哭 工作忙不肯探望",
"titleTip" : "甄子丹长子住院前妻大哭 工作忙不肯探望",
"titleSummary" : "甄子丹长子住院前妻大哭 工作忙不肯探望",
"descSummary" : "梁静慈被拍到频频在医院落泪 中新网10月30日电 据台湾\u201C苹果...",
"url" : "http:\/\/go.rss.sina.com.cn\/redirect.php?url=http:\/\/ent.sina.com.cn\/s\/h\/2013-10-30\/10074033271.shtml",
"pubDate" : "10:07:00",
"enterDate" : "384199:36:31",
"channelId" : "-235887732494439722",
"channelName" : "港台明星-新浪娱乐",
"channelNameSummary" : "港台明星-新浪娱乐",
"channelUrl" : "http:\/\/ent.sina.com.cn\/star\/hk_tw\/more.html",
"author" : "WWW.SINA.COM.CN",
"tags" : [],
"desc" : "梁静慈被拍到频频在医院落泪 中新网10月30日电 据台湾\u201C苹果日报网\u201D即时消息，甄子丹[微博]与前妻梁静慈所生的长子甄文焯(Jeff)，上周气胸入院，前妻梁静慈在医院哭着打电话给甄子丹，哀求他到医院探儿子，但他以工作为由，一口拒绝。Jeff住院一个星期，甄子丹全程无现身....",
"emailed" : False,
"forwarded" : False,
"english" : False
}  , {
"index" : 16,
"articleIndex" : "93699",
"favor" :  False ,
     "read" : False,    
"title" : "视频：何佩瑜否认陈静怀孕 许亦妮否认绯闻",
"titleTip" : "视频：何佩瑜否认陈静怀孕 许亦妮否认绯闻",
"titleSummary" : "视频：何佩瑜否认陈静怀孕 许亦妮否认绯闻",
"descSummary" : "新浪娱乐讯何佩瑜否认陈静怀孕，许亦妮与绯闻男友划清界线...",
"url" : "http:\/\/go.rss.sina.com.cn\/redirect.php?url=http:\/\/video.sina.com.cn\/p\/ent\/s\/h\/2013-10-30\/100263082947.html",
"pubDate" : "10:02:29",
"enterDate" : "384199:32:00",
"channelId" : "-235887732494439722",
"channelName" : "港台明星-新浪娱乐",
"channelNameSummary" : "港台明星-新浪娱乐",
"channelUrl" : "http:\/\/ent.sina.com.cn\/star\/hk_tw\/more.html",
"author" : "WWW.SINA.COM.CN",
"tags" : [],
"desc" : "新浪娱乐讯何佩瑜否认陈静怀孕，许亦妮与绯闻男友划清界线。Tungstar\/文并视频",
"emailed" : False,
"forwarded" : False,
"english" : False
}  , {
"index" : 17,
"articleIndex" : "93700",
"favor" :  False ,
     "read" : False,    
"title" : "视频：吴樾将与车震女友完婚 筹备婚事发昏",
"titleTip" : "视频：吴樾将与车震女友完婚 筹备婚事发昏",
"titleSummary" : "视频：吴樾将与车震女友完婚 筹备婚事发昏",
"descSummary" : "新浪娱乐讯 吴樾将与车震女友完婚，称筹备婚事有点\u201C发昏...",
"url" : "http:\/\/go.rss.sina.com.cn\/redirect.php?url=http:\/\/video.sina.com.cn\/p\/ent\/s\/h\/2013-10-30\/100263082945.html",
"pubDate" : "10:02:29",
"enterDate" : "384199:32:00",
"channelId" : "-235887732494439722",
"channelName" : "港台明星-新浪娱乐",
"channelNameSummary" : "港台明星-新浪娱乐",
"channelUrl" : "http:\/\/ent.sina.com.cn\/star\/hk_tw\/more.html",
"author" : "WWW.SINA.COM.CN",
"tags" : [],
"desc" : "新浪娱乐讯 吴樾将与车震女友完婚，称筹备婚事有点\u201C发昏\u201DTungstar\/文并视频",
"emailed" : False,
"forwarded" : False,
"english" : False
}  , {
"index" : 18,
"articleIndex" : "93701",
"favor" :  False ,
     "read" : False,    
"title" : "视频：任容萱畅游偷情圣地 对是元介示爱",
"titleTip" : "视频：任容萱畅游偷情圣地 对是元介示爱",
"titleSummary" : "视频：任容萱畅游偷情圣地 对是元介示爱",
"descSummary" : "新浪娱乐讯 李国毅、任容萱、是元介、翁滋蔓拍摄的校园生活...",
"url" : "http:\/\/go.rss.sina.com.cn\/redirect.php?url=http:\/\/video.sina.com.cn\/p\/ent\/s\/h\/2013-10-30\/100263082937.html",
"pubDate" : "10:02:29",
"enterDate" : "384199:32:00",
"channelId" : "-235887732494439722",
"channelName" : "港台明星-新浪娱乐",
"channelNameSummary" : "港台明星-新浪娱乐",
"channelUrl" : "http:\/\/ent.sina.com.cn\/star\/hk_tw\/more.html",
"author" : "WWW.SINA.COM.CN",
"tags" : [],
"desc" : "新浪娱乐讯 李国毅、任容萱、是元介、翁滋蔓拍摄的校园生活新剧《我的自由年代》，29日，剧组外景进驻被誉为\u201C偷情圣地\u201D的包厢电影厅，主演们旧地重游，纷纷忆起过往偷偷恋爱的经历。 任容萱毫不避讳的表示对是元介的特别感觉，除了八年前曾经有过合作的默契感外，更....",
"emailed" : False,
"forwarded" : False,
"english" : False
}  , {
"index" : 19,
"articleIndex" : "93702",
"favor" :  False ,
     "read" : False,    
"title" : "视频：佘诗曼变姚明粉丝张静初不谈秦岚分手",
"titleTip" : "视频：佘诗曼变姚明粉丝张静初不谈秦岚分手",
"titleSummary" : "视频：佘诗曼变姚明粉丝张静初不谈秦岚分手",
"descSummary" : "新浪娱乐讯 10月29日晚，佘诗曼、张静初等明星齐齐现身...",
"url" : "http:\/\/go.rss.sina.com.cn\/redirect.php?url=http:\/\/video.sina.com.cn\/p\/ent\/s\/h\/2013-10-30\/100263082933.html",
"pubDate" : "10:02:29",
"enterDate" : "384199:32:00",
"channelId" : "-235887732494439722",
"channelName" : "港台明星-新浪娱乐",
"channelNameSummary" : "港台明星-新浪娱乐",
"channelUrl" : "http:\/\/ent.sina.com.cn\/star\/hk_tw\/more.html",
"author" : "WWW.SINA.COM.CN",
"tags" : [],
"desc" : "新浪娱乐讯 10月29日晚，佘诗曼、张静初等明星齐齐现身某酒会，耀目的星光也吸引了不少媒体的助阵。要说明星眼中的明星，自然要数体坛巨星姚明了。虽然姚明已经退役，不过他的超高人气依然让这两位女星瞬间化身小粉丝。 最近有知情人士爆出，陆川与秦岚已经分手三个月....",
"emailed" : False,
"forwarded" : False,
"english" : False
} ]
}
