{
"mode" : {"viewTitle" : 1,   "viewNew" : 0,  "pageIndex" : 2 },
 "channel" : {"id" : "-235887732494439722", "booked" : False, "subNumber" : 1, "name" : "港台明星-新浪娱乐", "url" : "http:\/\/ent.sina.com.cn\/star\/hk_tw\/more.html", "feed" : "http:\/\/rss.sina.com.cn\/ent\/hongkong.xml", "author" : "WWW.SINA.COM.CN", "desc" : "港台明星新闻列表", "imageUrl" : "http:\/\/www.sinaimg.cn\/home\/deco\/2009\/0330\/logo_home_ent.gif", "postPerWeek" : "0", "lastCrawTime" : "16:50:30", "crawDateTime" : "16:50:30", "lastHttpCode" : "200"}, "page" : {
"startIndex" : 20,
"totalCount" : 5000,
"pageIndex" : 2,
"lastPage" : 250,
"pageSize" : 20,
"english" :  False },
 "unreadNum" : 0, "shotIndex" : -1,
"articles" : [
{
"index" : 0,
"articleIndex" : "93691",
"favor" :  False ,
     "read" : False,    
"title" : "视频：萧敬腾险遭泼粪 经纪人与富婆粉互骂",
"titleTip" : "视频：萧敬腾险遭泼粪 经纪人与富婆粉互骂",
"titleSummary" : "视频：萧敬腾险遭泼粪 经纪人与富婆粉互骂",
"descSummary" : "新浪娱乐讯 萧敬腾28日险遭歹徒泼粪，他在保母车后座躲过...",
"url" : "http:\/\/go.rss.sina.com.cn\/redirect.php?url=http:\/\/video.sina.com.cn\/p\/ent\/s\/h\/2013-10-30\/103763082745.html",
"pubDate" : "10:37:29",
"enterDate" : "384201:07:10",
"channelId" : "-235887732494439722",
"channelName" : "港台明星-新浪娱乐",
"channelNameSummary" : "港台明星-新浪娱乐",
"channelUrl" : "http:\/\/ent.sina.com.cn\/star\/hk_tw\/more.html",
"author" : "WWW.SINA.COM.CN",
"tags" : [],
"desc" : "新浪娱乐讯&#160;萧敬腾28日险遭歹徒泼粪，他在保母车后座躲过一劫，但司机遭波及。萧敬腾上午说明过程并谴责暴力，也希望事件一定要查出结果。台北市警方指出，已锁定1嫌追查。不少人怀疑这次事件同早前半夜敲萧敬腾房门送汤的邻居Yuki有关，但还没有证据。据了解，Yuki原本....",
"emailed" : False,
"forwarded" : False,
"english" : False
}  , {
"index" : 1,
"articleIndex" : "93690",
"favor" :  False ,
     "read" : False,    
"title" : "视频：萧敬腾出面回应泼粪事件 没跟人结怨",
"titleTip" : "视频：萧敬腾出面回应泼粪事件 没跟人结怨",
"titleSummary" : "视频：萧敬腾出面回应泼粪事件 没跟人结怨",
"descSummary" : "新浪娱乐讯 萧敬腾28日险遭歹徒泼粪，他在保母车后座躲过...",
"url" : "http:\/\/go.rss.sina.com.cn\/redirect.php?url=http:\/\/video.sina.com.cn\/p\/ent\/s\/h\/2013-10-30\/102763082731.html",
"pubDate" : "10:27:29",
"enterDate" : "384200:57:10",
"channelId" : "-235887732494439722",
"channelName" : "港台明星-新浪娱乐",
"channelNameSummary" : "港台明星-新浪娱乐",
"channelUrl" : "http:\/\/ent.sina.com.cn\/star\/hk_tw\/more.html",
"author" : "WWW.SINA.COM.CN",
"tags" : [],
"desc" : "新浪娱乐讯 萧敬腾28日险遭歹徒泼粪，他在保母车后座躲过一劫，但司机遭波及。萧敬腾上午说明过程并谴责暴力，也希望事件一定要查出结果。台北市警方指出，已锁定1嫌追查。不少人怀疑这次事件同早前半夜敲萧敬腾房门送汤的邻居Yuki有关，但还没有证据。据了解，Yuki原本是萧敬....",
"emailed" : False,
"forwarded" : False,
"english" : False
}  , {
"index" : 2,
"articleIndex" : "93689",
"favor" :  False ,
     "read" : False,    
"title" : "佘诗曼与姚明合影：大人国与小人国(图)",
"titleTip" : "佘诗曼与姚明合影：大人国与小人国(图)",
"titleSummary" : "佘诗曼与姚明合影：大人国与小人国(图)",
"descSummary" : "新浪娱乐讯 在昨日举办的某活动上，香港演员佘诗曼[微博]和姚明...",
"url" : "http:\/\/go.rss.sina.com.cn\/redirect.php?url=http:\/\/ent.sina.com.cn\/s\/h\/w\/2013-10-30\/10194033251.shtml",
"pubDate" : "10:19:34",
"enterDate" : "384200:49:15",
"channelId" : "-235887732494439722",
"channelName" : "港台明星-新浪娱乐",
"channelNameSummary" : "港台明星-新浪娱乐",
"channelUrl" : "http:\/\/ent.sina.com.cn\/star\/hk_tw\/more.html",
"author" : "WWW.SINA.COM.CN",
"tags" : [],
"desc" : "新浪娱乐讯 在昨日举办的某活动上，香港演员佘诗曼[微博]和姚明一同现身，并在活动后台合影留念。姚明则一脸严肃如伟岸般站在佘诗曼身旁，面对着身高2米26的巨人，佘诗曼调侃自己像\u201C小人国\u201D的。(新娱)",
"emailed" : False,
"forwarded" : False,
"english" : False
}  , {
"index" : 3,
"articleIndex" : "93694",
"favor" :  False ,
     "read" : False,    
"title" : "视频：萧敬腾回应遭泼粪 已锁定可能对象",
"titleTip" : "视频：萧敬腾回应遭泼粪 已锁定可能对象",
"titleSummary" : "视频：萧敬腾回应遭泼粪 已锁定可能对象",
"descSummary" : "新浪娱乐讯 据台湾媒体报道，歌手萧敬腾28日从自家出门搭保...",
"url" : "http:\/\/go.rss.sina.com.cn\/redirect.php?url=http:\/\/video.sina.com.cn\/p\/ent\/s\/h\/2013-10-30\/100763082795.html",
"pubDate" : "10:07:29",
"enterDate" : "384200:07:03",
"channelId" : "-235887732494439722",
"channelName" : "港台明星-新浪娱乐",
"channelNameSummary" : "港台明星-新浪娱乐",
"channelUrl" : "http:\/\/ent.sina.com.cn\/star\/hk_tw\/more.html",
"author" : "WWW.SINA.COM.CN",
"tags" : [],
"desc" : "新浪娱乐讯 据台湾媒体报道，歌手萧敬腾28日从自家出门搭保姆车外出工作时，2名佯装歌迷的歹徒朝车内泼屎尿，幸好司机挡住，萧敬腾免遭一劫，不过司机身上被泼，与歹徒扭打时，被歹徒摩托车拖行近30公尺，手部扭伤腿部擦伤，歹徒成功逃逸，萧敬腾已报警处理。29日中午萧敬腾不....",
"emailed" : False,
"forwarded" : False,
"english" : False
}  , {
"index" : 4,
"articleIndex" : "93687",
"favor" :  False ,
     "read" : False,    
"title" : "周汶出游迪拜金裙现身 寓工作于娱乐",
"titleTip" : "周汶出游迪拜金裙现身 寓工作于娱乐",
"titleSummary" : "周汶出游迪拜金裙现身 寓工作于娱乐",
"descSummary" : "新浪娱乐讯 周汶(Kathy)早前获迪拜当地时装周邀请，为某店剪彩。...",
"url" : "http:\/\/go.rss.sina.com.cn\/redirect.php?url=http:\/\/ent.sina.com.cn\/s\/h\/2013-10-30\/09524033205.shtml",
"pubDate" : "09:52:59",
"enterDate" : "384200:52:44",
"channelId" : "-235887732494439722",
"channelName" : "港台明星-新浪娱乐",
"channelNameSummary" : "港台明星-新浪娱乐",
"channelUrl" : "http:\/\/ent.sina.com.cn\/star\/hk_tw\/more.html",
"author" : "WWW.SINA.COM.CN",
"tags" : [],
"desc" : "新浪娱乐讯 周汶(Kathy)早前获迪拜当地时装周邀请，为某店剪彩。商场之大令Kathy大开眼界，她说：\u201C我已经6年没去过，之前拍摄旅游节目去过，今次第一次接受当地邀请出席活动。商场大到有50个球场般大，里面都要以车代步，还有海洋馆；而鞋履专区有成30万双鞋，我忍不住买了....",
"emailed" : False,
"forwarded" : False,
"english" : False
}  , {
"index" : 5,
"articleIndex" : "93693",
"favor" :  False ,
     "read" : False,    
"title" : "陶绰冀谀砍俚搅叫∈ 曾宝仪棚内空等",
"titleTip" : "陶绰冀谀砍俚搅叫∈ 曾宝仪棚内空等",
"titleSummary" : "陶绰冀谀砍俚搅叫∈ 曾宝仪棚内空等",
"descSummary" : "曾宝仪、陶 中新网10月30日电 据台湾《苹果日报》消息，曾宝仪昨...",
"url" : "http:\/\/go.rss.sina.com.cn\/redirect.php?url=http:\/\/ent.sina.com.cn\/s\/h\/2013-10-30\/09464033220.shtml",
"pubDate" : "09:46:00",
"enterDate" : "384199:45:34",
"channelId" : "-235887732494439722",
"channelName" : "港台明星-新浪娱乐",
"channelNameSummary" : "港台明星-新浪娱乐",
"channelUrl" : "http:\/\/ent.sina.com.cn\/star\/hk_tw\/more.html",
"author" : "WWW.SINA.COM.CN",
"tags" : [],
"desc" : "曾宝仪、陶 中新网10月30日电 据台湾《苹果日报》消息，曾宝仪昨原本下午2点半要跟陶绰肌SS小燕之夜》，她中午12点就来化妆，同场来宾陶慈创蟪俚剑节目拖到4点多才开始录像，让曾宝仪跟经纪人在棚内空等。 她的经纪人事后在脸书抱怨，并说：\u201C怕耽误宝仪明天....",
"emailed" : False,
"forwarded" : False,
"english" : False
}  , {
"index" : 6,
"articleIndex" : "93686",
"favor" :  False ,
     "read" : False,    
"title" : "郑则仕新剧饰袁世凯 微博卖萌晒剧照(图)",
"titleTip" : "郑则仕新剧饰袁世凯 微博卖萌晒剧照(图)",
"titleSummary" : "郑则仕新剧饰袁世凯 微博卖萌晒剧照(图)",
"descSummary" : "新浪娱乐讯 金像奖影帝郑则仕[微博]最近在浙江诸暨拍摄电视剧《...",
"url" : "http:\/\/go.rss.sina.com.cn\/redirect.php?url=http:\/\/ent.sina.com.cn\/s\/h\/2013-10-30\/09374033179.shtml",
"pubDate" : "09:37:31",
"enterDate" : "384201:07:22",
"channelId" : "-235887732494439722",
"channelName" : "港台明星-新浪娱乐",
"channelNameSummary" : "港台明星-新浪娱乐",
"channelUrl" : "http:\/\/ent.sina.com.cn\/star\/hk_tw\/more.html",
"author" : "WWW.SINA.COM.CN",
"tags" : [],
"desc" : "新浪娱乐讯 金像奖影帝郑则仕[微博]最近在浙江诸暨拍摄电视剧《末代皇帝》，该剧中影帝饰演企图复辟称帝的民国大总统袁世凯。影帝在拍戏之余自然发挥幽默本色，在微博上搞笑卖萌：贴出自己的剧照写到：卖萌、卖萌、80天的皇帝卖萌了！更有化妆描黑后的照片向大家表白：嗯，我....",
"emailed" : False,
"forwarded" : False,
"english" : False
}  , {
"index" : 7,
"articleIndex" : "93685",
"favor" :  False ,
     "read" : False,    
"title" : "杨采妮宣布结婚 与丈夫曾分手7年再复合",
"titleTip" : "杨采妮宣布结婚 与丈夫曾分手7年再复合",
"titleSummary" : "杨采妮宣布结婚 与丈夫曾分手7年再复合",
"descSummary" : "新浪娱乐讯 北京时间10月30日消息，据香港媒体报导，39岁的杨...",
"url" : "http:\/\/go.rss.sina.com.cn\/redirect.php?url=http:\/\/ent.sina.com.cn\/s\/h\/2013-10-30\/09054033158.shtml",
"pubDate" : "09:05:39",
"enterDate" : "384201:05:35",
"channelId" : "-235887732494439722",
"channelName" : "港台明星-新浪娱乐",
"channelNameSummary" : "港台明星-新浪娱乐",
"channelUrl" : "http:\/\/ent.sina.com.cn\/star\/hk_tw\/more.html",
"author" : "WWW.SINA.COM.CN",
"tags" : [],
"desc" : "新浪娱乐讯 北京时间10月30日消息，据香港媒体报导，39岁的杨采妮(Charlie)跟43岁男友邱韶智走过19年风雨爱情路，绕了一大个圈，终于携手踏进人生另一阶段。昨天(10月29日)，杨采妮亲自公开报喜，她找到生命中的另一半，要结婚了。她与邱韶智将于周六(11月2日)在新加坡结婚，....",
"emailed" : False,
"forwarded" : False,
"english" : False
}  , {
"index" : 8,
"articleIndex" : "93688",
"favor" :  False ,
     "read" : False,    
"title" : "施南生法国获勋章林青霞助阵 徐克未现身",
"titleTip" : "施南生法国获勋章林青霞助阵 徐克未现身",
"titleSummary" : "施南生法国获勋章林青霞助阵 徐克未现身",
"descSummary" : "中新网10月30日电 据香港《明报》消息，施南生昨日获法国政...",
"url" : "http:\/\/go.rss.sina.com.cn\/redirect.php?url=http:\/\/ent.sina.com.cn\/s\/h\/2013-10-30\/09024033163.shtml",
"pubDate" : "09:02:00",
"enterDate" : "384199:31:41",
"channelId" : "-235887732494439722",
"channelName" : "港台明星-新浪娱乐",
"channelNameSummary" : "港台明星-新浪娱乐",
"channelUrl" : "http:\/\/ent.sina.com.cn\/star\/hk_tw\/more.html",
"author" : "WWW.SINA.COM.CN",
"tags" : [],
"desc" : "中新网10月30日电 据香港《明报》消息，施南生昨日获法国政府文化及通讯部颁授法国艺术与文学军官勋章，表彰她多年来不断为亚洲电影与法国之间文化推广等作出的贡献。圈中好友林青霞与三位女儿(邢嘉倩、邢爱林及邢言爱)、何超琼与同性好友俞b、萧芳芳与丈夫张正甫、已故张国....",
"emailed" : False,
"forwarded" : False,
"english" : False
}  , {
"index" : 9,
"articleIndex" : "93692",
"favor" :  False ,
     "read" : False,    
"title" : "陈浩民一家四口拍合照 儿子大眼可爱(图)",
"titleTip" : "陈浩民一家四口拍合照 儿子大眼可爱(图)",
"titleSummary" : "陈浩民一家四口拍合照 儿子大眼可爱(图)",
"descSummary" : "陈浩民一家四口拍合照 中新网10月30日电 据香港《明报》消息，...",
"url" : "http:\/\/go.rss.sina.com.cn\/redirect.php?url=http:\/\/ent.sina.com.cn\/s\/h\/2013-10-30\/09014033167.shtml",
"pubDate" : "09:01:00",
"enterDate" : "384199:00:34",
"channelId" : "-235887732494439722",
"channelName" : "港台明星-新浪娱乐",
"channelNameSummary" : "港台明星-新浪娱乐",
"channelUrl" : "http:\/\/ent.sina.com.cn\/star\/hk_tw\/more.html",
"author" : "WWW.SINA.COM.CN",
"tags" : [],
"desc" : "陈浩民一家四口拍合照 中新网10月30日电 据香港《明报》消息，近日，陈浩民与太太蒋莉萨跟一对子女拍家庭照，一家四口幸福洋溢。浩民有一岁半的女儿雅薷，今年9月再添儿子Z逸。他放大假协助太太照顾孩子，享受家庭乐。他趁大假完结前跟家人照温馨家庭照。拍摄中连Z逸宝宝....",
"emailed" : False,
"forwarded" : False,
"english" : False
}  , {
"index" : 10,
"articleIndex" : "93684",
"favor" :  False ,
     "read" : False,    
"title" : "施南生获勋 林青霞携女见证唐唐出席",
"titleTip" : "施南生获勋 林青霞携女见证唐唐出席",
"titleSummary" : "施南生获勋 林青霞携女见证唐唐出席",
"descSummary" : "新浪娱乐讯 北京时间10月30日消息，据香港媒体报导，施南生昨天...",
"url" : "http:\/\/go.rss.sina.com.cn\/redirect.php?url=http:\/\/ent.sina.com.cn\/s\/h\/2013-10-30\/08214033152.shtml",
"pubDate" : "08:21:29",
"enterDate" : "384200:51:30",
"channelId" : "-235887732494439722",
"channelName" : "港台明星-新浪娱乐",
"channelNameSummary" : "港台明星-新浪娱乐",
"channelUrl" : "http:\/\/ent.sina.com.cn\/star\/hk_tw\/more.html",
"author" : "WWW.SINA.COM.CN",
"tags" : [],
"desc" : "新浪娱乐讯 北京时间10月30日消息，据香港媒体报导，施南生昨天(10月29日)获法国政府文化及通讯部颁授法国艺术与文学军官勋章，表彰她多年来不断为亚洲电影与法国之间文化推广等作出之贡献。圈中好友林青霞与三位女儿(邢嘉倩、邢爱林及邢言爱)、何超琼与同性好友俞b、萧芳芳....",
"emailed" : False,
"forwarded" : False,
"english" : False
}  , {
"index" : 11,
"articleIndex" : "93683",
"favor" :  False ,
     "read" : False,    
"title" : "杨千眉纺溉槲棺 一天喂足七顿(图)",
"titleTip" : "杨千眉纺溉槲棺 一天喂足七顿(图)",
"titleSummary" : "杨千眉纺溉槲棺 一天喂足七顿(图)",
"descSummary" : "新浪娱乐讯 北京时间10月30日消息，据香港媒体报导，杨千媒邮堋蹲罴...",
"url" : "http:\/\/go.rss.sina.com.cn\/redirect.php?url=http:\/\/ent.sina.com.cn\/s\/h\/2013-10-30\/07444033146.shtml",
"pubDate" : "07:44:08",
"enterDate" : "384201:14:19",
"channelId" : "-235887732494439722",
"channelName" : "港台明星-新浪娱乐",
"channelNameSummary" : "港台明星-新浪娱乐",
"channelUrl" : "http:\/\/ent.sina.com.cn\/star\/hk_tw\/more.html",
"author" : "WWW.SINA.COM.CN",
"tags" : [],
"desc" : "新浪娱乐讯 北京时间10月30日消息，据香港媒体报导，杨千媒邮堋蹲罴雅主角》访问，老公丁子高在荧幕前向老婆示爱，说\u201C我爱你\u201D，弄得杨千糜志又喜眼泛泪光。丁子高特意感谢老婆给儿子Torres喂母乳，还透露杨千酶家人前往喝茶时也拿着挤奶器，要挤奶喂儿子，令他很欣赏....",
"emailed" : False,
"forwarded" : False,
"english" : False
}  , {
"index" : 12,
"articleIndex" : "93682",
"favor" :  False ,
     "read" : False,    
"title" : "杨采妮美国挑婚纱 自曝夫妻鸳鸯戏水照",
"titleTip" : "杨采妮美国挑婚纱 自曝夫妻鸳鸯戏水照",
"titleSummary" : "杨采妮美国挑婚纱 自曝夫妻鸳鸯戏水照",
"descSummary" : "新浪娱乐讯 据台湾媒体报道，39岁的资深玉女杨采妮[微博]11月...",
"url" : "http:\/\/go.rss.sina.com.cn\/redirect.php?url=http:\/\/ent.sina.com.cn\/s\/h\/2013-10-30\/04374033074.shtml",
"pubDate" : "昨天04:37:38",
"enterDate" : "384201:08:19",
"channelId" : "-235887732494439722",
"channelName" : "港台明星-新浪娱乐",
"channelNameSummary" : "港台明星-新浪娱乐",
"channelUrl" : "http:\/\/ent.sina.com.cn\/star\/hk_tw\/more.html",
"author" : "WWW.SINA.COM.CN",
"tags" : [],
"desc" : "新浪娱乐讯 据台湾媒体报道，39岁的资深玉女杨采妮[微博]11月2日(周六)将在新加坡大婚，嫁给43岁的圈外男友邱韶智，她昨在微博证实：\u201C我与生命中的另一半要结婚了！\u201D 当天预计席开30桌，由好姊妹梁咏琪[微博]、李心洁[微博]担任婚礼主持人，未婚的许茹芸[微博]陪嫁当....",
"emailed" : False,
"forwarded" : False,
"english" : False
}  , {
"index" : 13,
"articleIndex" : "93681",
"favor" :  False ,
     "read" : False,    
"title" : "张震18日婚宴请梁朝伟李安 堪比金马奖",
"titleTip" : "张震18日婚宴请梁朝伟李安 堪比金马奖",
"titleSummary" : "张震18日婚宴请梁朝伟李安 堪比金马奖",
"descSummary" : "新浪娱乐讯 据台湾媒体报道，37岁的张震[微博]与交往4年的圈外...",
"url" : "http:\/\/go.rss.sina.com.cn\/redirect.php?url=http:\/\/ent.sina.com.cn\/s\/h\/2013-10-30\/04334033073.shtml",
"pubDate" : "昨天04:33:48",
"enterDate" : "384201:04:29",
"channelId" : "-235887732494439722",
"channelName" : "港台明星-新浪娱乐",
"channelNameSummary" : "港台明星-新浪娱乐",
"channelUrl" : "http:\/\/ent.sina.com.cn\/star\/hk_tw\/more.html",
"author" : "WWW.SINA.COM.CN",
"tags" : [],
"desc" : "新浪娱乐讯 据台湾媒体报道，37岁的张震[微博]与交往4年的圈外女友庄雯如婚姻大事将近，近日他向身边亲友发出邀约，定在11月18日于台北光点电影院举办婚宴，他已邀请曾合作的巨星梁朝伟[微博](伟仔)、刘嘉玲[微博]、舒淇[微博]、章子怡[微博]、金城武等人与会，卡司强大彷方....",
"emailed" : False,
"forwarded" : False,
"english" : False
}  , {
"index" : 14,
"articleIndex" : "93679",
"favor" :  False ,
     "read" : False,    
"title" : "吴彦祖与爱妻带岳母逛街 见记者急闪",
"titleTip" : "吴彦祖与爱妻带岳母逛街 见记者急闪",
"titleSummary" : "吴彦祖与爱妻带岳母逛街 见记者急闪",
"descSummary" : "新浪娱乐讯 据香港媒体报道，吴彦祖[微博]和老婆Lisa S。今年五月...",
"url" : "http:\/\/go.rss.sina.com.cn\/redirect.php?url=http:\/\/ent.sina.com.cn\/s\/h\/2013-10-30\/02224033051.shtml",
"pubDate" : "昨天02:22:29",
"enterDate" : "384200:53:30",
"channelId" : "-235887732494439722",
"channelName" : "港台明星-新浪娱乐",
"channelNameSummary" : "港台明星-新浪娱乐",
"channelUrl" : "http:\/\/ent.sina.com.cn\/star\/hk_tw\/more.html",
"author" : "WWW.SINA.COM.CN",
"tags" : [],
"desc" : "新浪娱乐讯 据香港媒体报道，吴彦祖[微博]和老婆Lisa S。今年五月诞下女儿，日前两夫妇撇下爱女，相约Lisa母亲往中环行街。当日下午3时半，三人步入名店，一身黑衫黑裤打扮的Lisa明显修身不少，初步回复昔日的模特儿身段。而吴彦祖陪伴太太及岳母在店内拣选新装，全程乐意为两....",
"emailed" : False,
"forwarded" : False,
"english" : False
}  , {
"index" : 15,
"articleIndex" : "93678",
"favor" :  False ,
     "read" : False,    
"title" : "台女星曝重口味减肥：活蚯蚓配开水吞下",
"titleTip" : "台女星曝重口味减肥：活蚯蚓配开水吞下",
"titleSummary" : "台女星曝重口味减肥：活蚯蚓配开水吞下",
"descSummary" : "更多热点趣闻 点击八卦精选&gt;&gt;&gt; 新浪娱乐讯 据台湾媒体报道，...",
"url" : "http:\/\/go.rss.sina.com.cn\/redirect.php?url=http:\/\/ent.sina.com.cn\/s\/h\/2013-10-30\/01444033039.shtml",
"pubDate" : "昨天01:44:38",
"enterDate" : "384191:14:09",
"channelId" : "-235887732494439722",
"channelName" : "港台明星-新浪娱乐",
"channelNameSummary" : "港台明星-新浪娱乐",
"channelUrl" : "http:\/\/ent.sina.com.cn\/star\/hk_tw\/more.html",
"author" : "WWW.SINA.COM.CN",
"tags" : [],
"desc" : "更多热点趣闻 点击八卦精选&gt;&gt;&gt; 新浪娱乐讯 据台湾媒体报道，中天《康熙来了》日前录影，主题为\u201C艺人减肥无所不用其及\u201D。严立婷自曝学生时期曾生吞活蚯蚓减肥，让众人直呼恶心，不料一旁的小小瑜竟还附和：\u201C如果有人跟我说这方法，我可能会试试看。\u201D少根筋....",
"emailed" : False,
"forwarded" : False,
"english" : False
}  , {
"index" : 16,
"articleIndex" : "93677",
"favor" :  False ,
     "read" : False,    
"title" : "赌王千金何超盈低胸会新欢 被撞破速闪",
"titleTip" : "赌王千金何超盈低胸会新欢 被撞破速闪",
"titleSummary" : "赌王千金何超盈低胸会新欢 被撞破速闪",
"descSummary" : "新浪娱乐讯 据香港媒体报道，赌王四房千金何超盈[微博]，自从宣...",
"url" : "http:\/\/go.rss.sina.com.cn\/redirect.php?url=http:\/\/ent.sina.com.cn\/s\/h\/2013-10-30\/01144033033.shtml",
"pubDate" : "昨天01:14:16",
"enterDate" : "384201:15:32",
"channelId" : "-235887732494439722",
"channelName" : "港台明星-新浪娱乐",
"channelNameSummary" : "港台明星-新浪娱乐",
"channelUrl" : "http:\/\/ent.sina.com.cn\/star\/hk_tw\/more.html",
"author" : "WWW.SINA.COM.CN",
"tags" : [],
"desc" : "新浪娱乐讯 据香港媒体报道，赌王四房千金何超盈[微博]，自从宣布与拍拖约四年、已达谈婚论嫁阶段的男友Greg分手后，身边未见有公开的新男朋友出现。昨午5时穿上低胸性感背心的超盈，一身型格打扮现身中环，身边更有一名打扮斯文的男伴，只见超盈和斯文男并肩而行，两人边行边....",
"emailed" : False,
"forwarded" : False,
"english" : False
}  , {
"index" : 17,
"articleIndex" : "93676",
"favor" :  False ,
     "read" : False,    
"title" : "林青霞携三女贺施南生授勋 唐唐现身(图)",
"titleTip" : "林青霞携三女贺施南生授勋 唐唐现身(图)",
"titleSummary" : "林青霞携三女贺施南生授勋 唐唐现身(图)",
"descSummary" : "",
"url" : "http:\/\/go.rss.sina.com.cn\/redirect.php?url=http:\/\/slide.ent.sina.com.cn\/star\/slide_4_704_68366.html",
"pubDate" : "昨天01:00:55",
"enterDate" : "384201:02:11",
"channelId" : "-235887732494439722",
"channelName" : "港台明星-新浪娱乐",
"channelNameSummary" : "港台明星-新浪娱乐",
"channelUrl" : "http:\/\/ent.sina.com.cn\/star\/hk_tw\/more.html",
"author" : "WWW.SINA.COM.CN",
"tags" : [],
"desc" : "",
"emailed" : False,
"forwarded" : False,
"english" : False
}  , {
"index" : 18,
"articleIndex" : "93675",
"favor" :  False ,
     "read" : False,    
"title" : "视频：吴彦祖刘烨攀上亲家",
"titleTip" : "视频：吴彦祖刘烨攀上亲家",
"titleSummary" : "视频：吴彦祖刘烨攀上亲家",
"descSummary" : "2013年10月29日东方卫视《新娱乐在线》： 定了！吴彦祖刘烨攀上亲家",
"url" : "http:\/\/go.rss.sina.com.cn\/redirect.php?url=http:\/\/video.sina.com.cn\/p\/ent\/s\/h\/2013-10-30\/001363080993.html",
"pubDate" : "昨天00:13:05",
"enterDate" : "384201:14:31",
"channelId" : "-235887732494439722",
"channelName" : "港台明星-新浪娱乐",
"channelNameSummary" : "港台明星-新浪娱乐",
"channelUrl" : "http:\/\/ent.sina.com.cn\/star\/hk_tw\/more.html",
"author" : "WWW.SINA.COM.CN",
"tags" : [],
"desc" : "2013年10月29日东方卫视《新娱乐在线》：&#160;&#160; 定了！ 吴彦祖刘烨攀上亲家",
"emailed" : False,
"forwarded" : False,
"english" : False
}  , {
"index" : 19,
"articleIndex" : "93680",
"favor" :  False ,
     "read" : False,    
"title" : "明星受威胁:黑道要砍陈冠希 萧亚轩遭软禁",
"titleTip" : "明星受威胁:黑道要砍陈冠希 萧亚轩遭软禁",
"titleSummary" : "明星受威胁:黑道要砍陈冠希 萧亚轩遭软禁",
"descSummary" : "陈冠希 萧敬腾受威胁 中新网10月30日电(蒲希茜) 28日，萧敬腾...",
"url" : "http:\/\/go.rss.sina.com.cn\/redirect.php?url=http:\/\/ent.sina.com.cn\/s\/h\/2013-10-30\/00084033031.shtml",
"pubDate" : "昨天00:08:00",
"enterDate" : "384197:38:51",
"channelId" : "-235887732494439722",
"channelName" : "港台明星-新浪娱乐",
"channelNameSummary" : "港台明星-新浪娱乐",
"channelUrl" : "http:\/\/ent.sina.com.cn\/star\/hk_tw\/more.html",
"author" : "WWW.SINA.COM.CN",
"tags" : [],
"desc" : "陈冠希 萧敬腾受威胁 中新网10月30日电(蒲希茜) 28日，萧敬腾[微博]外出工作遭2名佯装歌迷的歹徒朝他的车内泼粪，所幸萧敬腾已坐到后座，逃过粪便攻击。其实，娱乐圈明星们的人身安全很容易因各种原因遭到威胁，有的被恐吓，有的\u201C软禁\u201D，也有的被严重砍伤。 萧....",
"emailed" : False,
"forwarded" : False,
"english" : False
} ]
}
