{
"mode" : {"viewTitle" : 1,   "viewNew" : 0,  "pageIndex" : 1 },
 "channel" : {"id" : "-4772006655299409341", "booked" : False, "subNumber" : 489, "name" : "单机游戏新闻-新浪游戏", "url" : "http:\/\/games.sina.com.cn\/news\/djyx\/index.shtml", "feed" : "http:\/\/rss.sina.com.cn\/games\/djyx.xml", "author" : "WWW.SINA.COM.CN", "desc" : "新浪游戏之单机游戏新闻", "imageUrl" : "http:\/\/www.sinaimg.cn\/home\/images\/sina_logo2.gif", "postPerWeek" : "0", "lastCrawTime" : "17:08:50", "crawDateTime" : "06:20:30", "lastHttpCode" : "304"}, "page" : {
"startIndex" : 0,
"totalCount" : 5000,
"pageIndex" : 1,
"lastPage" : 250,
"pageSize" : 20,
"english" :  False },
 "unreadNum" : 0, "shotIndex" : -1,
"articles" : [
{
"index" : 0,
"articleIndex" : "12283",
"favor" :  False ,
     "read" : False,    
"title" : "创造新时代《信长之野望14》详细前瞻",
"titleTip" : "创造新时代《信长之野望14》详细前瞻",
"titleSummary" : "创造新时代《信长之野望14》详细前瞻",
"descSummary" : "",
"url" : "http:\/\/go.rss.sina.com.cn\/redirect.php?url=http:\/\/games.sina.com.cn\/j\/zt\/xinchang14\/index.shtml",
"pubDate" : "昨天16:50:56",
"enterDate" : "384187:50:08",
"channelId" : "-4772006655299409341",
"channelName" : "单机游戏新闻-新浪游戏",
"channelNameSummary" : "单机游戏新闻-新浪游...",
"channelUrl" : "http:\/\/games.sina.com.cn\/news\/djyx\/index.shtml",
"author" : "WWW.SINA.COM.CN",
"tags" : [],
"desc" : "",
"emailed" : False,
"forwarded" : False,
"english" : False
}  , {
"index" : 1,
"articleIndex" : "12282",
"favor" :  False ,
     "read" : False,    
"title" : "国外游戏宝贝 IGN妹子比基尼性感上阵",
"titleTip" : "国外游戏宝贝 IGN妹子比基尼性感上阵",
"titleSummary" : "国外游戏宝贝 IGN妹子比基尼性感上阵",
"descSummary" : "",
"url" : "http:\/\/go.rss.sina.com.cn\/redirect.php?url=http:\/\/slide.games.sina.com.cn\/j\/slide_21_1197_179212.html",
"pubDate" : "昨天15:43:02",
"enterDate" : "384186:42:14",
"channelId" : "-4772006655299409341",
"channelName" : "单机游戏新闻-新浪游戏",
"channelNameSummary" : "单机游戏新闻-新浪游...",
"channelUrl" : "http:\/\/games.sina.com.cn\/news\/djyx\/index.shtml",
"author" : "WWW.SINA.COM.CN",
"tags" : [],
"desc" : "",
"emailed" : False,
"forwarded" : False,
"english" : False
}  , {
"index" : 2,
"articleIndex" : "12281",
"favor" :  False ,
     "read" : False,    
"title" : "2013暴雪嘉年华看点前瞻 5大作携魔兽电影",
"titleTip" : "2013暴雪嘉年华看点前瞻 5大作携魔兽电影",
"titleSummary" : "2013暴雪嘉年华看点前瞻 5大作携魔兽电影",
"descSummary" : "备受瞩目的2013暴雪嘉年华即将于美国时间11月8日星期五和1...",
"url" : "http:\/\/go.rss.sina.com.cn\/redirect.php?url=http:\/\/games.sina.com.cn\/j\/n\/2013-10-29\/1542740495.shtml",
"pubDate" : "昨天15:42:27",
"enterDate" : "384186:41:39",
"channelId" : "-4772006655299409341",
"channelName" : "单机游戏新闻-新浪游戏",
"channelNameSummary" : "单机游戏新闻-新浪游...",
"channelUrl" : "http:\/\/games.sina.com.cn\/news\/djyx\/index.shtml",
"author" : "WWW.SINA.COM.CN",
"tags" : [],
"desc" : "备受瞩目的2013暴雪嘉年华即将于美国时间11月8日星期五和11月9日星期六在加利福尼亚阿纳海姆会议中心举办，暴雪的各款新作及资料片都将呼之欲出。今年的暴雪嘉年华，注定是暴雪各个新产品大曝光的日子，各种重磅新闻一定会以井喷的状态充斥整个网络。亲爱的玩家们是不是听到这....",
"emailed" : False,
"forwarded" : False,
"english" : False
}  , {
"index" : 3,
"articleIndex" : "12280",
"favor" :  False ,
     "read" : False,    
"title" : "经典延续《战地4》PC版获IGN 8.5分",
"titleTip" : "经典延续《战地4》PC版获IGN 8.5分",
"titleSummary" : "经典延续《战地4》PC版获IGN 8.5分",
"descSummary" : "《战地4(Battlefield 4)》是经典游戏《战地》系列最新的一部白金专...",
"url" : "http:\/\/go.rss.sina.com.cn\/redirect.php?url=http:\/\/games.sina.com.cn\/j\/n\/2013-10-29\/1435740458.shtml",
"pubDate" : "昨天14:35:17",
"enterDate" : "384185:34:29",
"channelId" : "-4772006655299409341",
"channelName" : "单机游戏新闻-新浪游戏",
"channelNameSummary" : "单机游戏新闻-新浪游...",
"channelUrl" : "http:\/\/games.sina.com.cn\/news\/djyx\/index.shtml",
"author" : "WWW.SINA.COM.CN",
"tags" : [],
"desc" : "《战地4(Battlefield 4)》是经典游戏《战地》系列最新的一部白金专辑，它收录了源自《战地1942》的神韵、重新打造了《战地2》中精彩的指挥官模式、进一步强化了《战地：叛逆连队2》的场景破坏系统，在拥抱真实性的同时保持住了《战地》系列一贯的风格，将《战地3》的绝美画面....",
"emailed" : False,
"forwarded" : False,
"english" : False
}  , {
"index" : 4,
"articleIndex" : "12279",
"favor" :  False ,
     "read" : False,    
"title" : "逋迹耗信土豪你们为何如此为难潘",
"titleTip" : "逋迹耗信土豪你们为何如此为难潘",
"titleSummary" : "逋迹耗信土豪你们为何如此为难潘",
"descSummary" : "",
"url" : "http:\/\/go.rss.sina.com.cn\/redirect.php?url=http:\/\/slide.games.sina.com.cn\/j\/slide_21_1197_179160.html",
"pubDate" : "昨天14:23:51",
"enterDate" : "384185:23:03",
"channelId" : "-4772006655299409341",
"channelName" : "单机游戏新闻-新浪游戏",
"channelNameSummary" : "单机游戏新闻-新浪游...",
"channelUrl" : "http:\/\/games.sina.com.cn\/news\/djyx\/index.shtml",
"author" : "WWW.SINA.COM.CN",
"tags" : [],
"desc" : "",
"emailed" : False,
"forwarded" : False,
"english" : False
}  , {
"index" : 5,
"articleIndex" : "12278",
"favor" :  False ,
     "read" : False,    
"title" : "《暗黑3：夺魂之镰》动画团队专访",
"titleTip" : "《暗黑3：夺魂之镰》动画团队专访",
"titleSummary" : "《暗黑3：夺魂之镰》动画团队专访",
"descSummary" : "",
"url" : "http:\/\/go.rss.sina.com.cn\/redirect.php?url=http:\/\/games.sina.com.cn\/t\/z\/diablo3\/2013-10-29\/1206505926.shtml",
"pubDate" : "昨天12:16:52",
"enterDate" : "384183:16:04",
"channelId" : "-4772006655299409341",
"channelName" : "单机游戏新闻-新浪游戏",
"channelNameSummary" : "单机游戏新闻-新浪游...",
"channelUrl" : "http:\/\/games.sina.com.cn\/news\/djyx\/index.shtml",
"author" : "WWW.SINA.COM.CN",
"tags" : [],
"desc" : "",
"emailed" : False,
"forwarded" : False,
"english" : False
}  , {
"index" : 6,
"articleIndex" : "12277",
"favor" :  False ,
     "read" : False,    
"title" : "使命召唤10领衔 11月PC单机发售预览",
"titleTip" : "使命召唤10领衔 11月PC单机发售预览",
"titleSummary" : "使命召唤10领衔 11月PC单机发售预览",
"descSummary" : "又到了一年一度的PC单机大作发售旺季，想必10月底很多大作玩家...",
"url" : "http:\/\/go.rss.sina.com.cn\/redirect.php?url=http:\/\/games.sina.com.cn\/j\/n\/2013-10-29\/1111740343.shtml",
"pubDate" : "昨天11:11:56",
"enterDate" : "384182:11:08",
"channelId" : "-4772006655299409341",
"channelName" : "单机游戏新闻-新浪游戏",
"channelNameSummary" : "单机游戏新闻-新浪游...",
"channelUrl" : "http:\/\/games.sina.com.cn\/news\/djyx\/index.shtml",
"author" : "WWW.SINA.COM.CN",
"tags" : [],
"desc" : "又到了一年一度的PC单机大作发售旺季，想必10月底很多大作玩家也只是刚刚上手，《战地4》、《蝙蝠侠：阿甘起源》等一线作品还意犹未尽，不过这只是旺季的开始，现在我们一起来看看历年《使命召唤》领衔的11月大作！ 首先，本月作品不像10月发售集中在月底，月初就有《....",
"emailed" : False,
"forwarded" : False,
"english" : False
}  , {
"index" : 7,
"articleIndex" : "12276",
"favor" :  False ,
     "read" : False,    
"title" : "太短太细 《战地4》单人剧情仅4小时",
"titleTip" : "太短太细 《战地4》单人剧情仅4小时",
"titleSummary" : "太短太细 《战地4》单人剧情仅4小时",
"descSummary" : "据网友BoomerFTW称，《战地4》的单人剧情模式只有4个小时的长...",
"url" : "http:\/\/go.rss.sina.com.cn\/redirect.php?url=http:\/\/games.sina.com.cn\/j\/n\/2013-10-29\/1052740320.shtml",
"pubDate" : "昨天10:52:08",
"enterDate" : "384181:51:20",
"channelId" : "-4772006655299409341",
"channelName" : "单机游戏新闻-新浪游戏",
"channelNameSummary" : "单机游戏新闻-新浪游...",
"channelUrl" : "http:\/\/games.sina.com.cn\/news\/djyx\/index.shtml",
"author" : "WWW.SINA.COM.CN",
"tags" : [],
"desc" : "据网友BoomerFTW称，《战地4》的单人剧情模式只有4个小时的长度。为了证明自己的说法，他放出了一张自己通关后出现的字幕截图。尽管单人战役模式的长度和其他一线大作比起来令人惊讶(也有些对不起《战地4》早先的宣传)，但这名网友还是强调，本作的单人剧情模式要比《战地3》....",
"emailed" : False,
"forwarded" : False,
"english" : False
}  , {
"index" : 8,
"articleIndex" : "12275",
"favor" :  False ,
     "read" : False,    
"title" : "暴雪不给力 玩家自制《魔兽争霸4》",
"titleTip" : "暴雪不给力 玩家自制《魔兽争霸4》",
"titleSummary" : "暴雪不给力 玩家自制《魔兽争霸4》",
"descSummary" : "虽然暴雪经典RTS游戏《魔兽争霸3》目前依旧拥有不少的玩家，但总...",
"url" : "http:\/\/go.rss.sina.com.cn\/redirect.php?url=http:\/\/games.sina.com.cn\/j\/n\/2013-10-29\/1021740298.shtml",
"pubDate" : "昨天10:21:54",
"enterDate" : "384181:21:06",
"channelId" : "-4772006655299409341",
"channelName" : "单机游戏新闻-新浪游戏",
"channelNameSummary" : "单机游戏新闻-新浪游...",
"channelUrl" : "http:\/\/games.sina.com.cn\/news\/djyx\/index.shtml",
"author" : "WWW.SINA.COM.CN",
"tags" : [],
"desc" : "虽然暴雪经典RTS游戏《魔兽争霸3》目前依旧拥有不少的玩家，但总来说该游戏在经过10年的风雨之后已经全面落后，没法满足玩家对于高品质游戏画面的追求。但遗憾的是，该系列游戏开发商暴雪却一直未有重制或打造续作的计划。 于是乎便有《魔兽争霸》的狂热爱好者自己动手....",
"emailed" : False,
"forwarded" : False,
"english" : False
}  , {
"index" : 9,
"articleIndex" : "12274",
"favor" :  False ,
     "read" : False,    
"title" : "育碧商城0元正版风暴 经典永久免费",
"titleTip" : "育碧商城0元正版风暴 经典永久免费",
"titleSummary" : "育碧商城0元正版风暴 经典永久免费",
"descSummary" : "没有好游戏玩？正版游戏太贵？款款育碧大作不要钱！育碧粉丝福利重...",
"url" : "http:\/\/go.rss.sina.com.cn\/redirect.php?url=http:\/\/games.sina.com.cn\/j\/n\/2013-10-29\/1020740295.shtml",
"pubDate" : "昨天10:20:29",
"enterDate" : "384181:19:41",
"channelId" : "-4772006655299409341",
"channelName" : "单机游戏新闻-新浪游戏",
"channelNameSummary" : "单机游戏新闻-新浪游...",
"channelUrl" : "http:\/\/games.sina.com.cn\/news\/djyx\/index.shtml",
"author" : "WWW.SINA.COM.CN",
"tags" : [],
"desc" : "没有好游戏玩？正版游戏太贵？款款育碧大作不要钱！育碧粉丝福利重磅来袭！作为全球游戏业领军品牌，中国最大的正版游戏平台，育碧游戏商城首创\u201C0\u201D元正版风暴，席卷全国！育碧游戏商城全新改版，正式推出限免活动，款款经典大作\u201C0\u201D元即可获得，无要求、无限制、无秒杀、免....",
"emailed" : False,
"forwarded" : False,
"english" : False
}  , {
"index" : 10,
"articleIndex" : "12273",
"favor" :  False ,
     "read" : False,    
"title" : "那些胜似游戏截图的COSPLAY作品欣赏",
"titleTip" : "那些胜似游戏截图的COSPLAY作品欣赏",
"titleSummary" : "那些胜似游戏截图的COSPLAY作品欣赏",
"descSummary" : "",
"url" : "http:\/\/go.rss.sina.com.cn\/redirect.php?url=http:\/\/slide.games.sina.com.cn\/j\/slide_21_1197_178813.html",
"pubDate" : "前天16:01:58",
"enterDate" : "384186:39:04",
"channelId" : "-4772006655299409341",
"channelName" : "单机游戏新闻-新浪游戏",
"channelNameSummary" : "单机游戏新闻-新浪游...",
"channelUrl" : "http:\/\/games.sina.com.cn\/news\/djyx\/index.shtml",
"author" : "WWW.SINA.COM.CN",
"tags" : [],
"desc" : "",
"emailed" : False,
"forwarded" : False,
"english" : False
}  , {
"index" : 11,
"articleIndex" : "12272",
"favor" :  False ,
     "read" : False,    
"title" : "放开那葫芦冲我来 COSER演绎兔子女神",
"titleTip" : "放开那葫芦冲我来 COSER演绎兔子女神",
"titleSummary" : "放开那葫芦冲我来 COSER演绎兔子女神",
"descSummary" : "",
"url" : "http:\/\/go.rss.sina.com.cn\/redirect.php?url=http:\/\/slide.games.sina.com.cn\/j\/slide_21_1197_178768.html",
"pubDate" : "前天15:40:55",
"enterDate" : "384186:18:01",
"channelId" : "-4772006655299409341",
"channelName" : "单机游戏新闻-新浪游戏",
"channelNameSummary" : "单机游戏新闻-新浪游...",
"channelUrl" : "http:\/\/games.sina.com.cn\/news\/djyx\/index.shtml",
"author" : "WWW.SINA.COM.CN",
"tags" : [],
"desc" : "",
"emailed" : False,
"forwarded" : False,
"english" : False
}  , {
"index" : 12,
"articleIndex" : "12271",
"favor" :  False ,
     "read" : False,    
"title" : "国内专家：玩游戏有助于孩子智力发展",
"titleTip" : "国内专家：玩游戏有助于孩子智力发展",
"titleSummary" : "国内专家：玩游戏有助于孩子智力发展",
"descSummary" : "该不该让孩子玩游戏尤其是还在上学的孩子，想必是很多父母亲最...",
"url" : "http:\/\/go.rss.sina.com.cn\/redirect.php?url=http:\/\/games.sina.com.cn\/j\/n\/2013-10-28\/1356740174.shtml",
"pubDate" : "前天13:56:11",
"enterDate" : "384184:33:17",
"channelId" : "-4772006655299409341",
"channelName" : "单机游戏新闻-新浪游戏",
"channelNameSummary" : "单机游戏新闻-新浪游...",
"channelUrl" : "http:\/\/games.sina.com.cn\/news\/djyx\/index.shtml",
"author" : "WWW.SINA.COM.CN",
"tags" : [],
"desc" : "该不该让孩子玩游戏尤其是还在上学的孩子，想必是很多父母亲最头疼的事了。而很多不负责任的媒体，也喜欢大肆宣扬游戏如何如何残害了青少年。但玩游戏真的对孩子是百害而无一利吗？近日，沃学教育研究院物理教研员马朝晖就提出，玩游戏对于促进孩子智力发展有帮助。 国内专....",
"emailed" : False,
"forwarded" : False,
"english" : False
}  , {
"index" : 13,
"articleIndex" : "12270",
"favor" :  False ,
     "read" : False,    
"title" : "《巫师3》新前瞻 无道德系统自由度高",
"titleTip" : "《巫师3》新前瞻 无道德系统自由度高",
"titleSummary" : "《巫师3》新前瞻 无道德系统自由度高",
"descSummary" : "虽然这部优秀RPG的第三部作品要到明年才能与大家见面，但最近...",
"url" : "http:\/\/go.rss.sina.com.cn\/redirect.php?url=http:\/\/games.sina.com.cn\/j\/n\/2013-10-28\/1348740171.shtml",
"pubDate" : "前天13:48:14",
"enterDate" : "384184:25:20",
"channelId" : "-4772006655299409341",
"channelName" : "单机游戏新闻-新浪游戏",
"channelNameSummary" : "单机游戏新闻-新浪游...",
"channelUrl" : "http:\/\/games.sina.com.cn\/news\/djyx\/index.shtml",
"author" : "WWW.SINA.COM.CN",
"tags" : [],
"desc" : "虽然这部优秀RPG的第三部作品要到明年才能与大家见面，但最近关于《巫师3：狂猎(The Witcher 3: Wild Hunt)》的消息还是越来越多了。PCGAMER的一名编辑日前有幸观看了这部游戏的试玩，下面是他为我们带来的报告。 主角Geralt来到了一座小村，村庄附近的森林中出现了一....",
"emailed" : False,
"forwarded" : False,
"english" : False
}  , {
"index" : 14,
"articleIndex" : "12269",
"favor" :  False ,
     "read" : False,    
"title" : "2014年上市 赛车计划最新惊艳游戏截图",
"titleTip" : "2014年上市 赛车计划最新惊艳游戏截图",
"titleSummary" : "2014年上市 赛车计划最新惊艳游戏截图",
"descSummary" : "",
"url" : "http:\/\/go.rss.sina.com.cn\/redirect.php?url=http:\/\/slide.games.sina.com.cn\/j\/slide_21_1197_178661.html",
"pubDate" : "前天11:53:13",
"enterDate" : "384182:30:19",
"channelId" : "-4772006655299409341",
"channelName" : "单机游戏新闻-新浪游戏",
"channelNameSummary" : "单机游戏新闻-新浪游...",
"channelUrl" : "http:\/\/games.sina.com.cn\/news\/djyx\/index.shtml",
"author" : "WWW.SINA.COM.CN",
"tags" : [],
"desc" : "",
"emailed" : False,
"forwarded" : False,
"english" : False
}  , {
"index" : 15,
"articleIndex" : "12268",
"favor" :  False ,
     "read" : False,    
"title" : "《暗黑破坏神3：夺魂之镰》灵谕师公布",
"titleTip" : "《暗黑破坏神3：夺魂之镰》灵谕师公布",
"titleSummary" : "《暗黑破坏神3：夺魂之镰》灵谕师公布",
"descSummary" : "",
"url" : "http:\/\/go.rss.sina.com.cn\/redirect.php?url=http:\/\/games.sina.com.cn\/t\/z\/diablo3\/2013-10-28\/1120505671.shtml",
"pubDate" : "前天11:22:40",
"enterDate" : "384181:59:46",
"channelId" : "-4772006655299409341",
"channelName" : "单机游戏新闻-新浪游戏",
"channelNameSummary" : "单机游戏新闻-新浪游...",
"channelUrl" : "http:\/\/games.sina.com.cn\/news\/djyx\/index.shtml",
"author" : "WWW.SINA.COM.CN",
"tags" : [],
"desc" : "",
"emailed" : False,
"forwarded" : False,
"english" : False
}  , {
"index" : 16,
"articleIndex" : "12267",
"favor" :  False ,
     "read" : False,    
"title" : "《变形金刚4》片场照 导演熊抱李冰冰",
"titleTip" : "《变形金刚4》片场照 导演熊抱李冰冰",
"titleSummary" : "《变形金刚4》片场照 导演熊抱李冰冰",
"descSummary" : "据香港媒体报道，连日来正在为《变形金刚4》拍摄的李冰冰，昨天...",
"url" : "http:\/\/go.rss.sina.com.cn\/redirect.php?url=http:\/\/games.sina.com.cn\/j\/n\/2013-10-28\/1021740035.shtml",
"pubDate" : "前天10:21:18",
"enterDate" : "384180:58:24",
"channelId" : "-4772006655299409341",
"channelName" : "单机游戏新闻-新浪游戏",
"channelNameSummary" : "单机游戏新闻-新浪游...",
"channelUrl" : "http:\/\/games.sina.com.cn\/news\/djyx\/index.shtml",
"author" : "WWW.SINA.COM.CN",
"tags" : [],
"desc" : "据香港媒体报道，连日来正在为《变形金刚4》拍摄的李冰冰，昨天傍晚时分现身西九海滨长廊，身穿拍摄时的戏服，一套黑色的性感西装套装，与导演迈克尔・贝亲密合影，现场气氛十分融洽。除了合影外，迈克尔・贝更是亲昵与李冰冰交谈，显得极其熟稔。除了导演，李冰冰也在拍摄之....",
"emailed" : False,
"forwarded" : False,
"english" : False
}  , {
"index" : 17,
"articleIndex" : "12266",
"favor" :  False ,
     "read" : False,    
"title" : "游戏男性侵15岁网友 因女子胸大判无罪",
"titleTip" : "游戏男性侵15岁网友 因女子胸大判无罪",
"titleSummary" : "游戏男性侵15岁网友 因女子胸大判无罪",
"descSummary" : "据ETtoday新闻网报道，好眼力！台北市一名李姓男子去年通过游...",
"url" : "http:\/\/go.rss.sina.com.cn\/redirect.php?url=http:\/\/games.sina.com.cn\/j\/n\/2013-10-28\/1006740028.shtml",
"pubDate" : "前天10:06:17",
"enterDate" : "384180:43:23",
"channelId" : "-4772006655299409341",
"channelName" : "单机游戏新闻-新浪游戏",
"channelNameSummary" : "单机游戏新闻-新浪游...",
"channelUrl" : "http:\/\/games.sina.com.cn\/news\/djyx\/index.shtml",
"author" : "WWW.SINA.COM.CN",
"tags" : [],
"desc" : "据ETtoday新闻网报道，好眼力！台北市一名李姓男子去年通过游戏，认识一名就读高职美发科的正妹，并在一个月后于女方家中和她发生性关系，却刚好被少女妈妈当场撞见，尖叫大骂：\u201C你知道她才15岁吗！\u201D怒告其性侵。但3位男法官认为，被害少女身材高挑、胸围70C，被告可能真不....",
"emailed" : False,
"forwarded" : False,
"english" : False
}  , {
"index" : 18,
"articleIndex" : "12265",
"favor" :  False ,
     "read" : False,    
"title" : "《极品飞车：热力追踪》前被砍创意曝光",
"titleTip" : "《极品飞车：热力追踪》前被砍创意曝光",
"titleSummary" : "《极品飞车：热力追踪》前被砍创意曝光",
"descSummary" : "Criterion Games的总监Alex Ward今天在推特上透露，工作室曾...",
"url" : "http:\/\/go.rss.sina.com.cn\/redirect.php?url=http:\/\/games.sina.com.cn\/j\/n\/2013-10-26\/1712740001.shtml",
"pubDate" : "2013年10月26日 (4天前)",
"enterDate" : "384188:05:06",
"channelId" : "-4772006655299409341",
"channelName" : "单机游戏新闻-新浪游戏",
"channelNameSummary" : "单机游戏新闻-新浪游...",
"channelUrl" : "http:\/\/games.sina.com.cn\/news\/djyx\/index.shtml",
"author" : "WWW.SINA.COM.CN",
"tags" : [],
"desc" : "Criterion Games的总监Alex Ward今天在推特上透露，工作室曾经围绕一个名为《极品飞车：百万富翁》的游戏创意做了很多工作。 &#160; Ward说：\u201C在《极品飞车：热力追踪》之前，我们曾经有过另外一个名为《极品飞车：百万富翁》的游戏创意。剧情大概就是在赢了彩票以....",
"emailed" : False,
"forwarded" : False,
"english" : False
}  , {
"index" : 19,
"articleIndex" : "12264",
"favor" :  False ,
     "read" : False,    
"title" : "《合金装备5》是伪开放世界 登陆PC",
"titleTip" : "《合金装备5》是伪开放世界 登陆PC",
"titleSummary" : "《合金装备5》是伪开放世界 登陆PC",
"descSummary" : "《合金装备5：幻痛(Metal Gear Solid 5: The Phantom Pain)》的制...",
"url" : "http:\/\/go.rss.sina.com.cn\/redirect.php?url=http:\/\/games.sina.com.cn\/j\/n\/2013-10-25\/1536739941.shtml",
"pubDate" : "2013年10月25日 (5天前)",
"enterDate" : "384186:36:52",
"channelId" : "-4772006655299409341",
"channelName" : "单机游戏新闻-新浪游戏",
"channelNameSummary" : "单机游戏新闻-新浪游...",
"channelUrl" : "http:\/\/games.sina.com.cn\/news\/djyx\/index.shtml",
"author" : "WWW.SINA.COM.CN",
"tags" : [],
"desc" : "《合金装备5：幻痛(Metal Gear Solid 5: The Phantom Pain)》的制作人小岛秀夫称游戏将带有\u201C开放世界\u201D，但是不要期待着Snake大叔去\u201C整天钓鱼或者换个工作去追求别样生活。\u201D 在接受最新一期Famitsu杂志采访时，Kojima称\u201C开放世界\u201D这一词用于《合金装备5》容易造成....",
"emailed" : False,
"forwarded" : False,
"english" : False
} ]
}
