{
"mode" : {"viewTitle" : 1,   "viewNew" : 0,  "pageIndex" : 2 },
 "channel" : {"id" : "-4772006655299409341", "booked" : False, "subNumber" : 489, "name" : "单机游戏新闻-新浪游戏", "url" : "http:\/\/games.sina.com.cn\/news\/djyx\/index.shtml", "feed" : "http:\/\/rss.sina.com.cn\/games\/djyx.xml", "author" : "WWW.SINA.COM.CN", "desc" : "新浪游戏之单机游戏新闻", "imageUrl" : "http:\/\/www.sinaimg.cn\/home\/images\/sina_logo2.gif", "postPerWeek" : "0", "lastCrawTime" : "17:08:50", "crawDateTime" : "06:20:30", "lastHttpCode" : "304"}, "page" : {
"startIndex" : 20,
"totalCount" : 5000,
"pageIndex" : 2,
"lastPage" : 250,
"pageSize" : 20,
"english" :  False },
 "unreadNum" : 0, "shotIndex" : -1,
"articles" : [
{
"index" : 0,
"articleIndex" : "12263",
"favor" :  False ,
     "read" : False,    
"title" : "韩国专家称游戏为四大成瘾之一引争议",
"titleTip" : "韩国专家称游戏为四大成瘾之一引争议",
"titleSummary" : "韩国专家称游戏为四大成瘾之一引争议",
"descSummary" : "韩国精神成瘾医学会(以下成瘾医学会)于10月22日发布新闻稿，认...",
"url" : "http:\/\/go.rss.sina.com.cn\/redirect.php?url=http:\/\/games.sina.com.cn\/j\/n\/2013-10-25\/1520739926.shtml",
"pubDate" : "2013年10月25日 (5天前)",
"enterDate" : "384186:20:59",
"channelId" : "-4772006655299409341",
"channelName" : "单机游戏新闻-新浪游戏",
"channelNameSummary" : "单机游戏新闻-新浪游...",
"channelUrl" : "http:\/\/games.sina.com.cn\/news\/djyx\/index.shtml",
"author" : "WWW.SINA.COM.CN",
"tags" : [],
"desc" : "韩国精神成瘾医学会(以下成瘾医学会)于10月22日发布新闻稿，认为应以四大成瘾法管理在线游戏，敦促尽早立法。 成瘾医学会支持新世界党的黄v吕代表主张的\u201C四大成瘾法\u201D，统合管理酒精、毒品、赌博、网络游戏成瘾，并且新世界党的申宜真议员推动立法，要求尽快修订\u201C预....",
"emailed" : False,
"forwarded" : False,
"english" : False
}  , {
"index" : 1,
"articleIndex" : "12262",
"favor" :  False ,
     "read" : False,    
"title" : "翱翔天际 高中生自制飞行游戏模拟外设",
"titleTip" : "翱翔天际 高中生自制飞行游戏模拟外设",
"titleSummary" : "翱翔天际 高中生自制飞行游戏模拟外设",
"descSummary" : "说到现在的家用游戏机，不管是赛车还是飞机都已经做的相当逼真...",
"url" : "http:\/\/go.rss.sina.com.cn\/redirect.php?url=http:\/\/games.sina.com.cn\/j\/n\/2013-10-25\/1354739888.shtml",
"pubDate" : "2013年10月25日 (5天前)",
"enterDate" : "384184:54:29",
"channelId" : "-4772006655299409341",
"channelName" : "单机游戏新闻-新浪游戏",
"channelNameSummary" : "单机游戏新闻-新浪游...",
"channelUrl" : "http:\/\/games.sina.com.cn\/news\/djyx\/index.shtml",
"author" : "WWW.SINA.COM.CN",
"tags" : [],
"desc" : "说到现在的家用游戏机，不管是赛车还是飞机都已经做的相当逼真，玩起来就跟真的开飞机、赛车没两样..。。不过要是有一天还能够加入4D的 体感体验，让你在家也能够感受到那种高度奔驰下的极速感，或是震耳欲聋的引擎震动声响，那肯定又是另外一种新世代的游戏体验，当然之前国....",
"emailed" : False,
"forwarded" : False,
"english" : False
}  , {
"index" : 2,
"articleIndex" : "12261",
"favor" :  False ,
     "read" : False,    
"title" : "主机玩不上 15部超好玩的PC独占游戏",
"titleTip" : "主机玩不上 15部超好玩的PC独占游戏",
"titleSummary" : "主机玩不上 15部超好玩的PC独占游戏",
"descSummary" : "新一代的游戏主机即将上市了，大家打算入手吗？相信那个价位可能...",
"url" : "http:\/\/go.rss.sina.com.cn\/redirect.php?url=http:\/\/games.sina.com.cn\/j\/n\/2013-10-25\/1130739828.shtml",
"pubDate" : "2013年10月25日 (5天前)",
"enterDate" : "384182:30:27",
"channelId" : "-4772006655299409341",
"channelName" : "单机游戏新闻-新浪游戏",
"channelNameSummary" : "单机游戏新闻-新浪游...",
"channelUrl" : "http:\/\/games.sina.com.cn\/news\/djyx\/index.shtml",
"author" : "WWW.SINA.COM.CN",
"tags" : [],
"desc" : "新一代的游戏主机即将上市了，大家打算入手吗？相信那个价位可能会让不少玩家敬而远之吧。小编想跟准备入手新主机的人说，土豪，我们做朋友吧。不过话说回来，有新主机又怎么样呢，有的游戏他们也玩不到。下面小编就为大家推荐15个PC独占的好游戏，让天天主机不离手的对我们也....",
"emailed" : False,
"forwarded" : False,
"english" : False
}  , {
"index" : 3,
"articleIndex" : "12260",
"favor" :  False ,
     "read" : False,    
"title" : "美胸日新月异 台童颜巨乳女神引围观",
"titleTip" : "美胸日新月异 台童颜巨乳女神引围观",
"titleSummary" : "美胸日新月异 台童颜巨乳女神引围观",
"descSummary" : "",
"url" : "http:\/\/go.rss.sina.com.cn\/redirect.php?url=http:\/\/slide.games.sina.com.cn\/j\/slide_21_1197_177993.html",
"pubDate" : "2013年10月25日 (5天前)",
"enterDate" : "384182:09:11",
"channelId" : "-4772006655299409341",
"channelName" : "单机游戏新闻-新浪游戏",
"channelNameSummary" : "单机游戏新闻-新浪游...",
"channelUrl" : "http:\/\/games.sina.com.cn\/news\/djyx\/index.shtml",
"author" : "WWW.SINA.COM.CN",
"tags" : [],
"desc" : "",
"emailed" : False,
"forwarded" : False,
"english" : False
}  , {
"index" : 4,
"articleIndex" : "12259",
"favor" :  False ,
     "read" : False,    
"title" : "《刺客信条：解放HD》明年1月登陆PC",
"titleTip" : "《刺客信条：解放HD》明年1月登陆PC",
"titleSummary" : "《刺客信条：解放HD》明年1月登陆PC",
"descSummary" : "育碧今天宣布了《刺客信条：解放HD》将于明年1月15日，以数字...",
"url" : "http:\/\/go.rss.sina.com.cn\/redirect.php?url=http:\/\/games.sina.com.cn\/j\/n\/2013-10-25\/1033739772.shtml",
"pubDate" : "2013年10月25日 (5天前)",
"enterDate" : "384181:33:43",
"channelId" : "-4772006655299409341",
"channelName" : "单机游戏新闻-新浪游戏",
"channelNameSummary" : "单机游戏新闻-新浪游...",
"channelUrl" : "http:\/\/games.sina.com.cn\/news\/djyx\/index.shtml",
"author" : "WWW.SINA.COM.CN",
"tags" : [],
"desc" : "育碧今天宣布了《刺客信条：解放HD》将于明年1月15日，以数字版形势登陆PC平台。《刺客信条：解放HD》是PSV版的HD移植作品。 在《刺客信条：解放HD》中玩家可以使用该系列的首位女刺客艾夫琳(Aveline)，本作的画面得到全面提升，并加入了独一无二的刺客游戏体制，将使....",
"emailed" : False,
"forwarded" : False,
"english" : False
}  , {
"index" : 5,
"articleIndex" : "12258",
"favor" :  False ,
     "read" : False,    
"title" : "《英雄联盟》S4官方改动 真眼不再隐形",
"titleTip" : "《英雄联盟》S4官方改动 真眼不再隐形",
"titleSummary" : "《英雄联盟》S4官方改动 真眼不再隐形",
"descSummary" : "总体改动如下： 总体改动 1：Ward，眼的本质改变：真眼(粉色)...",
"url" : "http:\/\/go.rss.sina.com.cn\/redirect.php?url=http:\/\/games.sina.com.cn\/j\/n\/2013-10-25\/1021739762.shtml",
"pubDate" : "2013年10月25日 (5天前)",
"enterDate" : "384181:21:28",
"channelId" : "-4772006655299409341",
"channelName" : "单机游戏新闻-新浪游戏",
"channelNameSummary" : "单机游戏新闻-新浪游...",
"channelUrl" : "http:\/\/games.sina.com.cn\/news\/djyx\/index.shtml",
"author" : "WWW.SINA.COM.CN",
"tags" : [],
"desc" : "总体改动如下： 总体改动 1：Ward，眼的本质改变：真眼(粉色)将不再隐形，双方均可以在没有真视的前提下看到真眼。真眼的使用更加战术化。 2：个人持眼的上限：每名队员在地图上插的眼的总量将有限制，如果超过限制，最早插的眼将被移除(如眼石) 3：....",
"emailed" : False,
"forwarded" : False,
"english" : False
}  , {
"index" : 6,
"articleIndex" : "12257",
"favor" :  False ,
     "read" : False,    
"title" : "朝鲜赌博游戏含恶意代码 可收集IP信息",
"titleTip" : "朝鲜赌博游戏含恶意代码 可收集IP信息",
"titleSummary" : "朝鲜赌博游戏含恶意代码 可收集IP信息",
"descSummary" : "据韩联社消息，韩国警察厅近日表示，在朝鲜黑客制作的赌博电子...",
"url" : "http:\/\/go.rss.sina.com.cn\/redirect.php?url=http:\/\/games.sina.com.cn\/j\/n\/2013-10-24\/1858739721.shtml",
"pubDate" : "2013年10月24日 (6天前)",
"enterDate" : "384189:51:39",
"channelId" : "-4772006655299409341",
"channelName" : "单机游戏新闻-新浪游戏",
"channelNameSummary" : "单机游戏新闻-新浪游...",
"channelUrl" : "http:\/\/games.sina.com.cn\/news\/djyx\/index.shtml",
"author" : "WWW.SINA.COM.CN",
"tags" : [],
"desc" : "据韩联社消息，韩国警察厅近日表示，在朝鲜黑客制作的赌博电子游戏中发现了恶意代码，这些恶意代码可收集用户IP地址等信息，并将其发送给海外服务器。 朝鲜赌博游戏含恶意代码 可收集IP信息 据介绍，用户开始玩赌博电子游戏时，电脑可自动被恶意代码感染，被感染的....",
"emailed" : False,
"forwarded" : False,
"english" : False
}  , {
"index" : 7,
"articleIndex" : "12256",
"favor" :  False ,
     "read" : False,    
"title" : "不走寻常路 看十大出乎意料的游戏结局",
"titleTip" : "不走寻常路 看十大出乎意料的游戏结局",
"titleSummary" : "不走寻常路 看十大出乎意料的游戏结局",
"descSummary" : "看电影或是电视剧的时候，有时候我们只看了开头，就能猜到结尾...",
"url" : "http:\/\/go.rss.sina.com.cn\/redirect.php?url=http:\/\/games.sina.com.cn\/j\/n\/2013-10-24\/1551739668.shtml",
"pubDate" : "2013年10月24日 (6天前)",
"enterDate" : "384186:44:00",
"channelId" : "-4772006655299409341",
"channelName" : "单机游戏新闻-新浪游戏",
"channelNameSummary" : "单机游戏新闻-新浪游...",
"channelUrl" : "http:\/\/games.sina.com.cn\/news\/djyx\/index.shtml",
"author" : "WWW.SINA.COM.CN",
"tags" : [],
"desc" : "看电影或是电视剧的时候，有时候我们只看了开头，就能猜到结尾是什么样的了，不外乎是正义战胜邪恶，最后有情人终成眷属等等，包括游戏有时也是如此。不过万事总有个例外，有一些游戏就很免俗，结局完全超乎玩家的想象。下面小编就要说几个这样的游戏，不走寻常路才更吸引人。....",
"emailed" : False,
"forwarded" : False,
"english" : False
}  , {
"index" : 8,
"articleIndex" : "12255",
"favor" :  False ,
     "read" : False,    
"title" : "90后游戏嫩模酷似杨幂 曾COS萝莉甄姬",
"titleTip" : "90后游戏嫩模酷似杨幂 曾COS萝莉甄姬",
"titleSummary" : "90后游戏嫩模酷似杨幂 曾COS萝莉甄姬",
"descSummary" : "",
"url" : "http:\/\/go.rss.sina.com.cn\/redirect.php?url=http:\/\/slide.games.sina.com.cn\/j\/slide_21_1197_177700.html",
"pubDate" : "2013年10月24日 (6天前)",
"enterDate" : "384186:05:33",
"channelId" : "-4772006655299409341",
"channelName" : "单机游戏新闻-新浪游戏",
"channelNameSummary" : "单机游戏新闻-新浪游...",
"channelUrl" : "http:\/\/games.sina.com.cn\/news\/djyx\/index.shtml",
"author" : "WWW.SINA.COM.CN",
"tags" : [],
"desc" : "",
"emailed" : False,
"forwarded" : False,
"english" : False
}  , {
"index" : 9,
"articleIndex" : "12254",
"favor" :  False ,
     "read" : False,    
"title" : "贵圈又乱了 摄影师被曝包养13岁嫩模",
"titleTip" : "贵圈又乱了 摄影师被曝包养13岁嫩模",
"titleSummary" : "贵圈又乱了 摄影师被曝包养13岁嫩模",
"descSummary" : "近些年，游戏、动漫等产业逐渐火爆起来，而随之也带动了Cospla...",
"url" : "http:\/\/go.rss.sina.com.cn\/redirect.php?url=http:\/\/games.sina.com.cn\/j\/n\/2013-10-24\/1143739610.shtml",
"pubDate" : "2013年10月24日 (6天前)",
"enterDate" : "384182:36:09",
"channelId" : "-4772006655299409341",
"channelName" : "单机游戏新闻-新浪游戏",
"channelNameSummary" : "单机游戏新闻-新浪游...",
"channelUrl" : "http:\/\/games.sina.com.cn\/news\/djyx\/index.shtml",
"author" : "WWW.SINA.COM.CN",
"tags" : [],
"desc" : "近些年，游戏、动漫等产业逐渐火爆起来，而随之也带动了Cosplay产业，不少爱好COS的玩家纷纷加入Cosplay大家庭，为该产业做出了不小的贡献。但是，参与的人多了，潜在的利益也就多了，所以难免会出现某些不利于产业发展的事情。 近日，2013贵阳西漫主办方一位名叫鱼叔....",
"emailed" : False,
"forwarded" : False,
"english" : False
}  , {
"index" : 10,
"articleIndex" : "12253",
"favor" :  False ,
     "read" : False,    
"title" : "国外实验室用《我的世界》模拟量子力学",
"titleTip" : "国外实验室用《我的世界》模拟量子力学",
"titleSummary" : "国外实验室用《我的世界》模拟量子力学",
"descSummary" : "全球狂销热卖超过 2,000 万套的沙盒冒险游戏《我的世界(Mine...",
"url" : "http:\/\/go.rss.sina.com.cn\/redirect.php?url=http:\/\/games.sina.com.cn\/j\/n\/2013-10-24\/1130739598.shtml",
"pubDate" : "2013年10月24日 (6天前)",
"enterDate" : "384182:23:39",
"channelId" : "-4772006655299409341",
"channelName" : "单机游戏新闻-新浪游戏",
"channelNameSummary" : "单机游戏新闻-新浪游...",
"channelUrl" : "http:\/\/games.sina.com.cn\/news\/djyx\/index.shtml",
"author" : "WWW.SINA.COM.CN",
"tags" : [],
"desc" : "全球狂销热卖超过&#160;2,000&#160;万套的沙盒冒险游戏《我的世界(Minecraft)》未来将不再是款普通的电玩作品。Google&#160;所属的\u201C量子&#160;AI&#160;实验室(Quantum&#160;AI&#160;Lab)\u201D日前已与加州理工学院等研究单位合作，推出一款名为&#160;qCraft&#160;的&#160;mod，....",
"emailed" : False,
"forwarded" : False,
"english" : False
}  , {
"index" : 11,
"articleIndex" : "12252",
"favor" :  False ,
     "read" : False,    
"title" : "《使命召唤10》PC版最低配置要求公布",
"titleTip" : "《使命召唤10》PC版最低配置要求公布",
"titleSummary" : "《使命召唤10》PC版最低配置要求公布",
"descSummary" : "今日，《使命召唤10：幽灵(Call of Duty：Ghosts)》官方网站正...",
"url" : "http:\/\/go.rss.sina.com.cn\/redirect.php?url=http:\/\/games.sina.com.cn\/j\/n\/2013-10-24\/1043739547.shtml",
"pubDate" : "2013年10月24日 (6天前)",
"enterDate" : "384181:36:01",
"channelId" : "-4772006655299409341",
"channelName" : "单机游戏新闻-新浪游戏",
"channelNameSummary" : "单机游戏新闻-新浪游...",
"channelUrl" : "http:\/\/games.sina.com.cn\/news\/djyx\/index.shtml",
"author" : "WWW.SINA.COM.CN",
"tags" : [],
"desc" : "今日，《使命召唤10：幽灵(Call of Duty：Ghosts)》官方网站正式公布了PC版游戏配置要求。最低6G内存、40G的硬盘空间、支持DX11的显卡且不支持32位操作系统。虽然官方的推荐配置还没有公布，但是根据以下这份最低配置信息以及业界人士对游戏优化水平的担忧，最高配置应该和此....",
"emailed" : False,
"forwarded" : False,
"english" : False
}  , {
"index" : 12,
"articleIndex" : "12251",
"favor" :  False ,
     "read" : False,    
"title" : "首入中国 蝙蝠侠：阿卡姆起源代理确认",
"titleTip" : "首入中国 蝙蝠侠：阿卡姆起源代理确认",
"titleSummary" : "首入中国 蝙蝠侠：阿卡姆起源代理确认",
"descSummary" : "超级英雄的电影现在是一年比一年火爆，不过以超级英雄为题材的...",
"url" : "http:\/\/go.rss.sina.com.cn\/redirect.php?url=http:\/\/games.sina.com.cn\/j\/n\/2013-10-23\/1526739438.shtml",
"pubDate" : "2013年10月23日 (1周前)",
"enterDate" : "384186:27:18",
"channelId" : "-4772006655299409341",
"channelName" : "单机游戏新闻-新浪游戏",
"channelNameSummary" : "单机游戏新闻-新浪游...",
"channelUrl" : "http:\/\/games.sina.com.cn\/news\/djyx\/index.shtml",
"author" : "WWW.SINA.COM.CN",
"tags" : [],
"desc" : "超级英雄的电影现在是一年比一年火爆，不过以超级英雄为题材的游戏却始终没有借助电影的火爆大规模进入玩家的视野，除了这一部\u201C蝙蝠侠\u201D系列。系列的第三部作品《蝙蝠侠：阿卡姆起源》将在10月26日首发，而中电博亚已经确认代理，《蝙蝠侠：阿卡姆起源》也将成为首部进入中国....",
"emailed" : False,
"forwarded" : False,
"english" : False
}  , {
"index" : 13,
"articleIndex" : "12250",
"favor" :  False ,
     "read" : False,    
"title" : "火影：究极风暴3演示 宇智波兄弟VS兜",
"titleTip" : "火影：究极风暴3演示 宇智波兄弟VS兜",
"titleSummary" : "火影：究极风暴3演示 宇智波兄弟VS兜",
"descSummary" : "《火影忍者：究极风暴3完全爆发(Naruto Shippuden Ultimate Ni...",
"url" : "http:\/\/go.rss.sina.com.cn\/redirect.php?url=http:\/\/games.sina.com.cn\/j\/n\/2013-10-23\/1512739428.shtml",
"pubDate" : "2013年10月23日 (1周前)",
"enterDate" : "384186:13:14",
"channelId" : "-4772006655299409341",
"channelName" : "单机游戏新闻-新浪游戏",
"channelNameSummary" : "单机游戏新闻-新浪游...",
"channelUrl" : "http:\/\/games.sina.com.cn\/news\/djyx\/index.shtml",
"author" : "WWW.SINA.COM.CN",
"tags" : [],
"desc" : "《火影忍者：究极风暴3完全爆发(Naruto Shippuden Ultimate Ninja Storm 3: Full Burst)》主机版已经于各位玩家见面，本作和旧版《火影忍者：究极风暴3》的区别一个是在画面上，另外一个就是将有新剧情加入，就是佐助和鼬兄弟联手大战药师兜。今天小编就给各位带来这场精彩的....",
"emailed" : False,
"forwarded" : False,
"english" : False
}  , {
"index" : 14,
"articleIndex" : "12249",
"favor" :  False ,
     "read" : False,    
"title" : "游戏进化图解 十款佳作新旧画面对比",
"titleTip" : "游戏进化图解 十款佳作新旧画面对比",
"titleSummary" : "游戏进化图解 十款佳作新旧画面对比",
"descSummary" : "",
"url" : "http:\/\/go.rss.sina.com.cn\/redirect.php?url=http:\/\/slide.games.sina.com.cn\/j\/slide_21_1197_177109.html",
"pubDate" : "2013年10月23日 (1周前)",
"enterDate" : "384185:19:23",
"channelId" : "-4772006655299409341",
"channelName" : "单机游戏新闻-新浪游戏",
"channelNameSummary" : "单机游戏新闻-新浪游...",
"channelUrl" : "http:\/\/games.sina.com.cn\/news\/djyx\/index.shtml",
"author" : "WWW.SINA.COM.CN",
"tags" : [],
"desc" : "",
"emailed" : False,
"forwarded" : False,
"english" : False
}  , {
"index" : 15,
"articleIndex" : "12248",
"favor" :  False ,
     "read" : False,    
"title" : "EA确认模拟人生4将于2014年秋季上市",
"titleTip" : "EA确认模拟人生4将于2014年秋季上市",
"titleSummary" : "EA确认模拟人生4将于2014年秋季上市",
"descSummary" : "EA今日宣布，《模拟人生4》将在2014年秋季全球上市，游戏登...",
"url" : "http:\/\/go.rss.sina.com.cn\/redirect.php?url=http:\/\/games.sina.com.cn\/j\/n\/2013-10-23\/1149739345.shtml",
"pubDate" : "2013年10月23日 (1周前)",
"enterDate" : "384182:50:16",
"channelId" : "-4772006655299409341",
"channelName" : "单机游戏新闻-新浪游戏",
"channelNameSummary" : "单机游戏新闻-新浪游...",
"channelUrl" : "http:\/\/games.sina.com.cn\/news\/djyx\/index.shtml",
"author" : "WWW.SINA.COM.CN",
"tags" : [],
"desc" : "EA今日宣布，《模拟人生4》将在2014年秋季全球上市，游戏登陆PC和Mac两大平台，具体上市时间还未公布。《模拟人生4》将把拟真提高到全新高度，最大限度模拟虚拟角色的各种情感。另外还会提供前所未见的改装自由度。包括对角色的修改，对自己家园的修改。你可以像艺术家一样创....",
"emailed" : False,
"forwarded" : False,
"english" : False
}  , {
"index" : 16,
"articleIndex" : "12247",
"favor" :  False ,
     "read" : False,    
"title" : "《古剑奇谭2》携手UCG推出官方攻略本",
"titleTip" : "《古剑奇谭2》携手UCG推出官方攻略本",
"titleSummary" : "《古剑奇谭2》携手UCG推出官方攻略本",
"descSummary" : "《古剑奇谭二》官方攻略本已正式上市，拨开迷雾，洞悉全新古剑...",
"url" : "http:\/\/go.rss.sina.com.cn\/redirect.php?url=http:\/\/games.sina.com.cn\/j\/n\/2013-10-23\/1125739332.shtml",
"pubDate" : "2013年10月23日 (1周前)",
"enterDate" : "384182:26:25",
"channelId" : "-4772006655299409341",
"channelName" : "单机游戏新闻-新浪游戏",
"channelNameSummary" : "单机游戏新闻-新浪游...",
"channelUrl" : "http:\/\/games.sina.com.cn\/news\/djyx\/index.shtml",
"author" : "WWW.SINA.COM.CN",
"tags" : [],
"desc" : "《古剑奇谭二》官方攻略本已正式上市，拨开迷雾，洞悉全新古剑世界万千景象！五大主题章节多角度、全方位解析问道之旅，更有特别打造的\u201C手札\u201D章节，收录游戏研发主创人员札记，带领玩家踏遍传奇旅程！ 购买《古剑奇谭二》官方攻略本&gt;&gt; 《古剑奇谭二》官方攻....",
"emailed" : False,
"forwarded" : False,
"english" : False
}  , {
"index" : 17,
"articleIndex" : "12246",
"favor" :  False ,
     "read" : False,    
"title" : "性感酥胸美女私房护士制服诱惑美图赏",
"titleTip" : "性感酥胸美女私房护士制服诱惑美图赏",
"titleSummary" : "性感酥胸美女私房护士制服诱惑美图赏",
"descSummary" : "",
"url" : "http:\/\/go.rss.sina.com.cn\/redirect.php?url=http:\/\/slide.games.sina.com.cn\/j\/slide_21_1197_176989.html",
"pubDate" : "2013年10月23日 (1周前)",
"enterDate" : "384182:10:41",
"channelId" : "-4772006655299409341",
"channelName" : "单机游戏新闻-新浪游戏",
"channelNameSummary" : "单机游戏新闻-新浪游...",
"channelUrl" : "http:\/\/games.sina.com.cn\/news\/djyx\/index.shtml",
"author" : "WWW.SINA.COM.CN",
"tags" : [],
"desc" : "",
"emailed" : False,
"forwarded" : False,
"english" : False
}  , {
"index" : 18,
"articleIndex" : "12245",
"favor" :  False ,
     "read" : False,    
"title" : "男子网吧游戏调戏女网管 致10余人围殴",
"titleTip" : "男子网吧游戏调戏女网管 致10余人围殴",
"titleSummary" : "男子网吧游戏调戏女网管 致10余人围殴",
"descSummary" : "近期发生在网吧的种种惨剧让各位网友表示不寒而栗，原本只是大...",
"url" : "http:\/\/go.rss.sina.com.cn\/redirect.php?url=http:\/\/games.sina.com.cn\/j\/n\/2013-10-23\/1030739268.shtml",
"pubDate" : "2013年10月23日 (1周前)",
"enterDate" : "384181:31:06",
"channelId" : "-4772006655299409341",
"channelName" : "单机游戏新闻-新浪游戏",
"channelNameSummary" : "单机游戏新闻-新浪游...",
"channelUrl" : "http:\/\/games.sina.com.cn\/news\/djyx\/index.shtml",
"author" : "WWW.SINA.COM.CN",
"tags" : [],
"desc" : "近期发生在网吧的种种惨剧让各位网友表示不寒而栗，原本只是大家娱乐游戏的场所，却经常因为一些琐事而引发冲突。有些或许是飞来横祸，而有些却可以避免。 近日，在重庆某网吧，一位蔡姓男子按往常一样来这上网玩游戏，并对此前较为熟识的女网管进行了言语上粗俗的调侃....",
"emailed" : False,
"forwarded" : False,
"english" : False
}  , {
"index" : 19,
"articleIndex" : "12244",
"favor" :  False ,
     "read" : False,    
"title" : "《炉石传说》国服24日开测 将推出PC\/iPad版",
"titleTip" : "《炉石传说》国服24日开测 将推出PC\/iPad版",
"titleSummary" : "《炉石传说》国服24日开测 将推出PC\/iPad版",
"descSummary" : "暴雪免费卡牌游戏《炉石传说：魔兽英雄传》在本月中旬在...",
"url" : "http:\/\/go.rss.sina.com.cn\/redirect.php?url=http:\/\/games.sina.com.cn\/j\/n\/2013-10-22\/1747739221.shtml",
"pubDate" : "2013年10月22日 (1周前)",
"enterDate" : "384188:40:46",
"channelId" : "-4772006655299409341",
"channelName" : "单机游戏新闻-新浪游戏",
"channelNameSummary" : "单机游戏新闻-新浪游...",
"channelUrl" : "http:\/\/games.sina.com.cn\/news\/djyx\/index.shtml",
"author" : "WWW.SINA.COM.CN",
"tags" : [],
"desc" : "暴雪免费卡牌游戏《炉石传说：魔兽英雄传》在本月中旬在国服代理商网易公司内部展开测试，同时确认会在10月内开启更大范围的外部测试工作。 现在，《炉石传说》国服首轮对外测试的时间已经敲定为10月24日，官方的激活码发放活动正在进行中。 据悉，《炉石传说》....",
"emailed" : False,
"forwarded" : False,
"english" : False
} ]
}
