{
"mode" : {"viewTitle" : 1,   "viewNew" : 0,  "pageIndex" : 1 },
 "channel" : {"id" : "80030570565215661", "booked" : False, "subNumber" : 1, "name" : "理财要闻-新浪财经", "url" : "http:\/\/finance.sina.com.cn\/old\/money\/index.shtml", "feed" : "http:\/\/rss.sina.com.cn\/finance\/financial.xml", "author" : "WWW.SINA.COM.CN", "desc" : "理财要闻列表", "imageUrl" : "http:\/\/i1.sinaimg.cn\/cj\/pic\/newLogo\/logo_home_fin.gif", "postPerWeek" : "0", "lastCrawTime" : "17:05:30", "crawDateTime" : "17:05:30", "lastHttpCode" : "200"}, "page" : {
"startIndex" : 0,
"totalCount" : 5000,
"pageIndex" : 1,
"lastPage" : 250,
"pageSize" : 20,
"english" :  False },
 "unreadNum" : 0, "shotIndex" : -1,
"articles" : [
{
"index" : 0,
"articleIndex" : "22649",
"favor" :  False ,
     "read" : False,    
"title" : "盖茨的新邻居多是中国人 海外买楼偏爱豪宅",
"titleTip" : "盖茨的新邻居多是中国人 海外买楼偏爱豪宅",
"titleSummary" : "盖茨的新邻居多是中国人 海外买楼偏爱豪宅",
"descSummary" : "",
"url" : "http:\/\/go.rss.sina.com.cn\/redirect.php?url=http:\/\/finance.sina.com.cn\/money\/cfgs\/20131030\/163617167422.shtml",
"pubDate" : "16:36:10",
"enterDate" : "384200:49:56",
"channelId" : "80030570565215661",
"channelName" : "理财要闻-新浪财经",
"channelNameSummary" : "理财要闻-新浪财经",
"channelUrl" : "http:\/\/finance.sina.com.cn\/old\/money\/index.shtml",
"author" : "WWW.SINA.COM.CN",
"tags" : [],
"desc" : "",
"emailed" : False,
"forwarded" : False,
"english" : False
}  , {
"index" : 1,
"articleIndex" : "22648",
"favor" :  False ,
     "read" : False,    
"title" : "财通资产金地南京仙林湖资产管理计划点评",
"titleTip" : "财通资产金地南京仙林湖资产管理计划点评",
"titleSummary" : "财通资产金地南京仙林湖资产管理计划点评",
"descSummary" : "",
"url" : "http:\/\/go.rss.sina.com.cn\/redirect.php?url=http:\/\/finance.sina.com.cn\/trust\/20131030\/104517163094.shtml",
"pubDate" : "10:45:10",
"enterDate" : "384200:59:56",
"channelId" : "80030570565215661",
"channelName" : "理财要闻-新浪财经",
"channelNameSummary" : "理财要闻-新浪财经",
"channelUrl" : "http:\/\/finance.sina.com.cn\/old\/money\/index.shtml",
"author" : "WWW.SINA.COM.CN",
"tags" : [],
"desc" : "",
"emailed" : False,
"forwarded" : False,
"english" : False
}  , {
"index" : 2,
"articleIndex" : "22647",
"favor" :  False ,
     "read" : False,    
"title" : "老爸给6岁儿子买411万豪宅:怕他长大后买不起房",
"titleTip" : "老爸给6岁儿子买411万豪宅:怕他长大后买不起房",
"titleSummary" : "老爸给6岁儿子买411万豪宅:怕他长大后买不起房",
"descSummary" : "",
"url" : "http:\/\/go.rss.sina.com.cn\/redirect.php?url=http:\/\/finance.sina.com.cn\/money\/zcsh\/20131030\/103717162937.shtml",
"pubDate" : "10:37:10",
"enterDate" : "384200:51:56",
"channelId" : "80030570565215661",
"channelName" : "理财要闻-新浪财经",
"channelNameSummary" : "理财要闻-新浪财经",
"channelUrl" : "http:\/\/finance.sina.com.cn\/old\/money\/index.shtml",
"author" : "WWW.SINA.COM.CN",
"tags" : [],
"desc" : "",
"emailed" : False,
"forwarded" : False,
"english" : False
}  , {
"index" : 3,
"articleIndex" : "22646",
"favor" :  False ,
     "read" : False,    
"title" : "马云套现华谊兄弟2.6亿元 清空所持流通股",
"titleTip" : "马云套现华谊兄弟2.6亿元 清空所持流通股",
"titleSummary" : "马云套现华谊兄弟2.6亿元 清空所持流通股",
"descSummary" : "",
"url" : "http:\/\/go.rss.sina.com.cn\/redirect.php?url=http:\/\/finance.sina.com.cn\/money\/cfgs\/20131030\/101917162593.shtml",
"pubDate" : "10:19:10",
"enterDate" : "384201:04:01",
"channelId" : "80030570565215661",
"channelName" : "理财要闻-新浪财经",
"channelNameSummary" : "理财要闻-新浪财经",
"channelUrl" : "http:\/\/finance.sina.com.cn\/old\/money\/index.shtml",
"author" : "WWW.SINA.COM.CN",
"tags" : [],
"desc" : "",
"emailed" : False,
"forwarded" : False,
"english" : False
}  , {
"index" : 4,
"articleIndex" : "22645",
"favor" :  False ,
     "read" : False,    
"title" : "五十岁以上慎买商业医疗保险 保费比保额还高",
"titleTip" : "五十岁以上慎买商业医疗保险 保费比保额还高",
"titleSummary" : "五十岁以上慎买商业医疗保险 保费比保额还高",
"descSummary" : "",
"url" : "http:\/\/go.rss.sina.com.cn\/redirect.php?url=http:\/\/finance.sina.com.cn\/money\/insurance\/bxlc\/20131030\/091017161505.shtml",
"pubDate" : "09:10:10",
"enterDate" : "384199:55:01",
"channelId" : "80030570565215661",
"channelName" : "理财要闻-新浪财经",
"channelNameSummary" : "理财要闻-新浪财经",
"channelUrl" : "http:\/\/finance.sina.com.cn\/old\/money\/index.shtml",
"author" : "WWW.SINA.COM.CN",
"tags" : [],
"desc" : "",
"emailed" : False,
"forwarded" : False,
"english" : False
}  , {
"index" : 5,
"articleIndex" : "22644",
"favor" :  False ,
     "read" : False,    
"title" : "港人平均结婚开支超过30万 四成人想过不结婚",
"titleTip" : "港人平均结婚开支超过30万 四成人想过不结婚",
"titleSummary" : "港人平均结婚开支超过30万 四成人想过不结婚",
"descSummary" : "",
"url" : "http:\/\/go.rss.sina.com.cn\/redirect.php?url=http:\/\/finance.sina.com.cn\/money\/zcsh\/20131030\/041117157742.shtml",
"pubDate" : "昨天04:11:10",
"enterDate" : "384194:56:01",
"channelId" : "80030570565215661",
"channelName" : "理财要闻-新浪财经",
"channelNameSummary" : "理财要闻-新浪财经",
"channelUrl" : "http:\/\/finance.sina.com.cn\/old\/money\/index.shtml",
"author" : "WWW.SINA.COM.CN",
"tags" : [],
"desc" : "",
"emailed" : False,
"forwarded" : False,
"english" : False
}  , {
"index" : 6,
"articleIndex" : "22643",
"favor" :  False ,
     "read" : False,    
"title" : "霍英东家族争产再掀波澜 大哥三弟众说纷纭",
"titleTip" : "霍英东家族争产再掀波澜 大哥三弟众说纷纭",
"titleSummary" : "霍英东家族争产再掀波澜 大哥三弟众说纷纭",
"descSummary" : "",
"url" : "http:\/\/go.rss.sina.com.cn\/redirect.php?url=http:\/\/finance.sina.com.cn\/money\/cfgs\/20131030\/015117156397.shtml",
"pubDate" : "昨天01:51:10",
"enterDate" : "384192:36:01",
"channelId" : "80030570565215661",
"channelName" : "理财要闻-新浪财经",
"channelNameSummary" : "理财要闻-新浪财经",
"channelUrl" : "http:\/\/finance.sina.com.cn\/old\/money\/index.shtml",
"author" : "WWW.SINA.COM.CN",
"tags" : [],
"desc" : "",
"emailed" : False,
"forwarded" : False,
"english" : False
}  , {
"index" : 7,
"articleIndex" : "22641",
"favor" :  False ,
     "read" : False,    
"title" : "今年两成股民盈利超20％ 仅三成感到不幸福",
"titleTip" : "今年两成股民盈利超20％ 仅三成感到不幸福",
"titleSummary" : "今年两成股民盈利超20％ 仅三成感到不幸福",
"descSummary" : "",
"url" : "http:\/\/go.rss.sina.com.cn\/redirect.php?url=http:\/\/finance.sina.com.cn\/money\/zcsh\/20131029\/144417151294.shtml",
"pubDate" : "昨天14:44:10",
"enterDate" : "384200:33:09",
"channelId" : "80030570565215661",
"channelName" : "理财要闻-新浪财经",
"channelNameSummary" : "理财要闻-新浪财经",
"channelUrl" : "http:\/\/finance.sina.com.cn\/old\/money\/index.shtml",
"author" : "WWW.SINA.COM.CN",
"tags" : [],
"desc" : "",
"emailed" : False,
"forwarded" : False,
"english" : False
}  , {
"index" : 8,
"articleIndex" : "22640",
"favor" :  False ,
     "read" : False,    
"title" : "海归海外工作5年以上回国年薪多10万",
"titleTip" : "海归海外工作5年以上回国年薪多10万",
"titleSummary" : "海归海外工作5年以上回国年薪多10万",
"descSummary" : "",
"url" : "http:\/\/go.rss.sina.com.cn\/redirect.php?url=http:\/\/finance.sina.com.cn\/money\/zcsh\/20131029\/104117148931.shtml",
"pubDate" : "昨天10:41:10",
"enterDate" : "384200:30:50",
"channelId" : "80030570565215661",
"channelName" : "理财要闻-新浪财经",
"channelNameSummary" : "理财要闻-新浪财经",
"channelUrl" : "http:\/\/finance.sina.com.cn\/old\/money\/index.shtml",
"author" : "WWW.SINA.COM.CN",
"tags" : [],
"desc" : "",
"emailed" : False,
"forwarded" : False,
"english" : False
}  , {
"index" : 9,
"articleIndex" : "22639",
"favor" :  False ,
     "read" : False,    
"title" : "北京前三季离婚数暴增四成 可能因卖房避税",
"titleTip" : "北京前三季离婚数暴增四成 可能因卖房避税",
"titleSummary" : "北京前三季离婚数暴增四成 可能因卖房避税",
"descSummary" : "",
"url" : "http:\/\/go.rss.sina.com.cn\/redirect.php?url=http:\/\/finance.sina.com.cn\/money\/zcsh\/20131029\/102917148704.shtml",
"pubDate" : "昨天10:29:10",
"enterDate" : "384200:18:50",
"channelId" : "80030570565215661",
"channelName" : "理财要闻-新浪财经",
"channelNameSummary" : "理财要闻-新浪财经",
"channelUrl" : "http:\/\/finance.sina.com.cn\/old\/money\/index.shtml",
"author" : "WWW.SINA.COM.CN",
"tags" : [],
"desc" : "",
"emailed" : False,
"forwarded" : False,
"english" : False
}  , {
"index" : 10,
"articleIndex" : "22637",
"favor" :  False ,
     "read" : False,    
"title" : "避税天堂瑞士不少银行职员不敢出国",
"titleTip" : "避税天堂瑞士不少银行职员不敢出国",
"titleSummary" : "避税天堂瑞士不少银行职员不敢出国",
"descSummary" : "",
"url" : "http:\/\/go.rss.sina.com.cn\/redirect.php?url=http:\/\/finance.sina.com.cn\/money\/zcsh\/20131029\/102617148696.shtml",
"pubDate" : "昨天10:26:10",
"enterDate" : "384200:45:55",
"channelId" : "80030570565215661",
"channelName" : "理财要闻-新浪财经",
"channelNameSummary" : "理财要闻-新浪财经",
"channelUrl" : "http:\/\/finance.sina.com.cn\/old\/money\/index.shtml",
"author" : "WWW.SINA.COM.CN",
"tags" : [],
"desc" : "",
"emailed" : False,
"forwarded" : False,
"english" : False
}  , {
"index" : 11,
"articleIndex" : "22636",
"favor" :  False ,
     "read" : False,    
"title" : "霍英东长房兄弟法庭争遗产 老母亲不愿家事公开",
"titleTip" : "霍英东长房兄弟法庭争遗产 老母亲不愿家事公开",
"titleSummary" : "霍英东长房兄弟法庭争遗产 老母亲不愿家事公开",
"descSummary" : "",
"url" : "http:\/\/go.rss.sina.com.cn\/redirect.php?url=http:\/\/finance.sina.com.cn\/money\/cfgs\/20131029\/102517148694.shtml",
"pubDate" : "昨天10:25:10",
"enterDate" : "384200:44:55",
"channelId" : "80030570565215661",
"channelName" : "理财要闻-新浪财经",
"channelNameSummary" : "理财要闻-新浪财经",
"channelUrl" : "http:\/\/finance.sina.com.cn\/old\/money\/index.shtml",
"author" : "WWW.SINA.COM.CN",
"tags" : [],
"desc" : "",
"emailed" : False,
"forwarded" : False,
"english" : False
}  , {
"index" : 12,
"articleIndex" : "22635",
"favor" :  False ,
     "read" : False,    
"title" : "霍英东长房争产对簿公堂 法庭问答惹哄堂大笑",
"titleTip" : "霍英东长房争产对簿公堂 法庭问答惹哄堂大笑",
"titleSummary" : "霍英东长房争产对簿公堂 法庭问答惹哄堂大笑",
"descSummary" : "",
"url" : "http:\/\/go.rss.sina.com.cn\/redirect.php?url=http:\/\/finance.sina.com.cn\/money\/cfgs\/20131029\/102417148685.shtml",
"pubDate" : "昨天10:24:10",
"enterDate" : "384200:43:55",
"channelId" : "80030570565215661",
"channelName" : "理财要闻-新浪财经",
"channelNameSummary" : "理财要闻-新浪财经",
"channelUrl" : "http:\/\/finance.sina.com.cn\/old\/money\/index.shtml",
"author" : "WWW.SINA.COM.CN",
"tags" : [],
"desc" : "",
"emailed" : False,
"forwarded" : False,
"english" : False
}  , {
"index" : 13,
"articleIndex" : "22642",
"favor" :  False ,
     "read" : False,    
"title" : "港媒披露霍英东遗嘱：禁止二三房子女从商",
"titleTip" : "港媒披露霍英东遗嘱：禁止二三房子女从商",
"titleSummary" : "港媒披露霍英东遗嘱：禁止二三房子女从商",
"descSummary" : "",
"url" : "http:\/\/go.rss.sina.com.cn\/redirect.php?url=http:\/\/finance.sina.com.cn\/money\/cfgs\/20131029\/102417148688.shtml",
"pubDate" : "昨天10:24:10",
"enterDate" : "384177:09:01",
"channelId" : "80030570565215661",
"channelName" : "理财要闻-新浪财经",
"channelNameSummary" : "理财要闻-新浪财经",
"channelUrl" : "http:\/\/finance.sina.com.cn\/old\/money\/index.shtml",
"author" : "WWW.SINA.COM.CN",
"tags" : [],
"desc" : "",
"emailed" : False,
"forwarded" : False,
"english" : False
}  , {
"index" : 14,
"articleIndex" : "22634",
"favor" :  False ,
     "read" : False,    
"title" : "大妈晒股经：不玩K线不听讲座专拣剩菜",
"titleTip" : "大妈晒股经：不玩K线不听讲座专拣剩菜",
"titleSummary" : "大妈晒股经：不玩K线不听讲座专拣剩菜",
"descSummary" : "",
"url" : "http:\/\/go.rss.sina.com.cn\/redirect.php?url=http:\/\/finance.sina.com.cn\/money\/zcsh\/20131029\/100717148440.shtml",
"pubDate" : "昨天10:07:10",
"enterDate" : "384200:26:55",
"channelId" : "80030570565215661",
"channelName" : "理财要闻-新浪财经",
"channelNameSummary" : "理财要闻-新浪财经",
"channelUrl" : "http:\/\/finance.sina.com.cn\/old\/money\/index.shtml",
"author" : "WWW.SINA.COM.CN",
"tags" : [],
"desc" : "",
"emailed" : False,
"forwarded" : False,
"english" : False
}  , {
"index" : 15,
"articleIndex" : "22632",
"favor" :  False ,
     "read" : False,    
"title" : "李娜成中国体坛首富 一年吸金2400万元",
"titleTip" : "李娜成中国体坛首富 一年吸金2400万元",
"titleSummary" : "李娜成中国体坛首富 一年吸金2400万元",
"descSummary" : "",
"url" : "http:\/\/go.rss.sina.com.cn\/redirect.php?url=http:\/\/finance.sina.com.cn\/money\/cfgs\/20131029\/094517148053.shtml",
"pubDate" : "昨天09:45:10",
"enterDate" : "384200:35:00",
"channelId" : "80030570565215661",
"channelName" : "理财要闻-新浪财经",
"channelNameSummary" : "理财要闻-新浪财经",
"channelUrl" : "http:\/\/finance.sina.com.cn\/old\/money\/index.shtml",
"author" : "WWW.SINA.COM.CN",
"tags" : [],
"desc" : "",
"emailed" : False,
"forwarded" : False,
"english" : False
}  , {
"index" : 16,
"articleIndex" : "22631",
"favor" :  False ,
     "read" : False,    
"title" : "探秘珠三角的师奶们 私房钱就逾亿元人民币",
"titleTip" : "探秘珠三角的师奶们 私房钱就逾亿元人民币",
"titleSummary" : "探秘珠三角的师奶们 私房钱就逾亿元人民币",
"descSummary" : "",
"url" : "http:\/\/go.rss.sina.com.cn\/redirect.php?url=http:\/\/finance.sina.com.cn\/money\/cfgs\/20131029\/075017146219.shtml",
"pubDate" : "昨天07:50:10",
"enterDate" : "384198:40:00",
"channelId" : "80030570565215661",
"channelName" : "理财要闻-新浪财经",
"channelNameSummary" : "理财要闻-新浪财经",
"channelUrl" : "http:\/\/finance.sina.com.cn\/old\/money\/index.shtml",
"author" : "WWW.SINA.COM.CN",
"tags" : [],
"desc" : "",
"emailed" : False,
"forwarded" : False,
"english" : False
}  , {
"index" : 17,
"articleIndex" : "22630",
"favor" :  False ,
     "read" : False,    
"title" : "小白领假结婚买房记：还没结婚就已成二婚",
"titleTip" : "小白领假结婚买房记：还没结婚就已成二婚",
"titleSummary" : "小白领假结婚买房记：还没结婚就已成二婚",
"descSummary" : "",
"url" : "http:\/\/go.rss.sina.com.cn\/redirect.php?url=http:\/\/finance.sina.com.cn\/money\/zcsh\/20131029\/015017142272.shtml",
"pubDate" : "前天01:50:10",
"enterDate" : "384193:10:05",
"channelId" : "80030570565215661",
"channelName" : "理财要闻-新浪财经",
"channelNameSummary" : "理财要闻-新浪财经",
"channelUrl" : "http:\/\/finance.sina.com.cn\/old\/money\/index.shtml",
"author" : "WWW.SINA.COM.CN",
"tags" : [],
"desc" : "",
"emailed" : False,
"forwarded" : False,
"english" : False
}  , {
"index" : 18,
"articleIndex" : "22633",
"favor" :  False ,
     "read" : False,    
"title" : "美国富人五种节俭习惯：住宅只求舒适",
"titleTip" : "美国富人五种节俭习惯：住宅只求舒适",
"titleSummary" : "美国富人五种节俭习惯：住宅只求舒适",
"descSummary" : "",
"url" : "http:\/\/go.rss.sina.com.cn\/redirect.php?url=http:\/\/finance.sina.com.cn\/money\/zcsh\/20131028\/144417137608.shtml",
"pubDate" : "前天14:44:10",
"enterDate" : "384181:03:55",
"channelId" : "80030570565215661",
"channelName" : "理财要闻-新浪财经",
"channelNameSummary" : "理财要闻-新浪财经",
"channelUrl" : "http:\/\/finance.sina.com.cn\/old\/money\/index.shtml",
"author" : "WWW.SINA.COM.CN",
"tags" : [],
"desc" : "",
"emailed" : False,
"forwarded" : False,
"english" : False
}  , {
"index" : 19,
"articleIndex" : "22638",
"favor" :  False ,
     "read" : False,    
"title" : "本周理财产品(28日-1日)",
"titleTip" : "本周理财产品(28日-1日)",
"titleSummary" : "本周理财产品(28日-1日)",
"descSummary" : "",
"url" : "http:\/\/go.rss.sina.com.cn\/redirect.php?url=http:\/\/finance.sina.com.cn\/money\/list\/lccp\/20131028\/144417137609.shtml",
"pubDate" : "前天14:44:10",
"enterDate" : "384180:33:50",
"channelId" : "80030570565215661",
"channelName" : "理财要闻-新浪财经",
"channelNameSummary" : "理财要闻-新浪财经",
"channelUrl" : "http:\/\/finance.sina.com.cn\/old\/money\/index.shtml",
"author" : "WWW.SINA.COM.CN",
"tags" : [],
"desc" : "",
"emailed" : False,
"forwarded" : False,
"english" : False
} ]
}
