{
"mode" : {"viewTitle" : 1,   "viewNew" : 0,  "pageIndex" : 2 },
 "channel" : {"id" : "80030570565215661", "booked" : False, "subNumber" : 1, "name" : "理财要闻-新浪财经", "url" : "http:\/\/finance.sina.com.cn\/old\/money\/index.shtml", "feed" : "http:\/\/rss.sina.com.cn\/finance\/financial.xml", "author" : "WWW.SINA.COM.CN", "desc" : "理财要闻列表", "imageUrl" : "http:\/\/i1.sinaimg.cn\/cj\/pic\/newLogo\/logo_home_fin.gif", "postPerWeek" : "0", "lastCrawTime" : "17:05:30", "crawDateTime" : "17:05:30", "lastHttpCode" : "200"}, "page" : {
"startIndex" : 20,
"totalCount" : 5000,
"pageIndex" : 2,
"lastPage" : 250,
"pageSize" : 20,
"english" :  False },
 "unreadNum" : 0, "shotIndex" : -1,
"articles" : [
{
"index" : 0,
"articleIndex" : "22629",
"favor" :  False ,
     "read" : False,    
"title" : "三口之家合理规划存量资金 首付五成买商铺",
"titleTip" : "三口之家合理规划存量资金 首付五成买商铺",
"titleSummary" : "三口之家合理规划存量资金 首付五成买商铺",
"descSummary" : "",
"url" : "http:\/\/go.rss.sina.com.cn\/redirect.php?url=http:\/\/finance.sina.com.cn\/money\/lcgh\/20131029\/023917143222.shtml",
"pubDate" : "前天02:39:10",
"enterDate" : "384193:59:05",
"channelId" : "80030570565215661",
"channelName" : "理财要闻-新浪财经",
"channelNameSummary" : "理财要闻-新浪财经",
"channelUrl" : "http:\/\/finance.sina.com.cn\/old\/money\/index.shtml",
"author" : "WWW.SINA.COM.CN",
"tags" : [],
"desc" : "",
"emailed" : False,
"forwarded" : False,
"english" : False
}  , {
"index" : 1,
"articleIndex" : "22628",
"favor" :  False ,
     "read" : False,    
"title" : "金元惠理保障房3、4、5号资产管理计划点评",
"titleTip" : "金元惠理保障房3、4、5号资产管理计划点评",
"titleSummary" : "金元惠理保障房3、4、5号资产管理计划点评",
"descSummary" : "",
"url" : "http:\/\/go.rss.sina.com.cn\/redirect.php?url=http:\/\/finance.sina.com.cn\/trust\/20131028\/192617140180.shtml",
"pubDate" : "前天19:26:10",
"enterDate" : "384200:48:26",
"channelId" : "80030570565215661",
"channelName" : "理财要闻-新浪财经",
"channelNameSummary" : "理财要闻-新浪财经",
"channelUrl" : "http:\/\/finance.sina.com.cn\/old\/money\/index.shtml",
"author" : "WWW.SINA.COM.CN",
"tags" : [],
"desc" : "",
"emailed" : False,
"forwarded" : False,
"english" : False
}  , {
"index" : 2,
"articleIndex" : "22627",
"favor" :  False ,
     "read" : False,    
"title" : "花盆里种出新商机 投资9万开一家多肉植物店",
"titleTip" : "花盆里种出新商机 投资9万开一家多肉植物店",
"titleSummary" : "花盆里种出新商机 投资9万开一家多肉植物店",
"descSummary" : "",
"url" : "http:\/\/go.rss.sina.com.cn\/redirect.php?url=http:\/\/finance.sina.com.cn\/money\/cfgs\/20131028\/144417137604.shtml",
"pubDate" : "前天14:44:10",
"enterDate" : "384200:37:10",
"channelId" : "80030570565215661",
"channelName" : "理财要闻-新浪财经",
"channelNameSummary" : "理财要闻-新浪财经",
"channelUrl" : "http:\/\/finance.sina.com.cn\/old\/money\/index.shtml",
"author" : "WWW.SINA.COM.CN",
"tags" : [],
"desc" : "",
"emailed" : False,
"forwarded" : False,
"english" : False
}  , {
"index" : 3,
"articleIndex" : "22626",
"favor" :  False ,
     "read" : False,    
"title" : "孩子出生负担加重 月入3万家庭如何在沪买房",
"titleTip" : "孩子出生负担加重 月入3万家庭如何在沪买房",
"titleSummary" : "孩子出生负担加重 月入3万家庭如何在沪买房",
"descSummary" : "",
"url" : "http:\/\/go.rss.sina.com.cn\/redirect.php?url=http:\/\/finance.sina.com.cn\/money\/lcgh\/20131028\/144317137603.shtml",
"pubDate" : "前天14:43:10",
"enterDate" : "384200:36:10",
"channelId" : "80030570565215661",
"channelName" : "理财要闻-新浪财经",
"channelNameSummary" : "理财要闻-新浪财经",
"channelUrl" : "http:\/\/finance.sina.com.cn\/old\/money\/index.shtml",
"author" : "WWW.SINA.COM.CN",
"tags" : [],
"desc" : "",
"emailed" : False,
"forwarded" : False,
"english" : False
}  , {
"index" : 4,
"articleIndex" : "22625",
"favor" :  False ,
     "read" : False,    
"title" : "西班牙50万欧元购房并非移民 不让找工作",
"titleTip" : "西班牙50万欧元购房并非移民 不让找工作",
"titleSummary" : "西班牙50万欧元购房并非移民 不让找工作",
"descSummary" : "",
"url" : "http:\/\/go.rss.sina.com.cn\/redirect.php?url=http:\/\/finance.sina.com.cn\/money\/zcsh\/20131028\/093717134643.shtml",
"pubDate" : "前天09:37:10",
"enterDate" : "384200:30:59",
"channelId" : "80030570565215661",
"channelName" : "理财要闻-新浪财经",
"channelNameSummary" : "理财要闻-新浪财经",
"channelUrl" : "http:\/\/finance.sina.com.cn\/old\/money\/index.shtml",
"author" : "WWW.SINA.COM.CN",
"tags" : [],
"desc" : "",
"emailed" : False,
"forwarded" : False,
"english" : False
}  , {
"index" : 5,
"articleIndex" : "22624",
"favor" :  False ,
     "read" : False,    
"title" : "月工资1.2万存款30万 二胎家庭如何理财",
"titleTip" : "月工资1.2万存款30万 二胎家庭如何理财",
"titleSummary" : "月工资1.2万存款30万 二胎家庭如何理财",
"descSummary" : "",
"url" : "http:\/\/go.rss.sina.com.cn\/redirect.php?url=http:\/\/finance.sina.com.cn\/money\/lcgh\/20131028\/091817134279.shtml",
"pubDate" : "前天09:18:10",
"enterDate" : "384200:42:06",
"channelId" : "80030570565215661",
"channelName" : "理财要闻-新浪财经",
"channelNameSummary" : "理财要闻-新浪财经",
"channelUrl" : "http:\/\/finance.sina.com.cn\/old\/money\/index.shtml",
"author" : "WWW.SINA.COM.CN",
"tags" : [],
"desc" : "",
"emailed" : False,
"forwarded" : False,
"english" : False
}  , {
"index" : 6,
"articleIndex" : "22623",
"favor" :  False ,
     "read" : False,    
"title" : "要给父母攒钱养老 中产小两口如何持好家",
"titleTip" : "要给父母攒钱养老 中产小两口如何持好家",
"titleSummary" : "要给父母攒钱养老 中产小两口如何持好家",
"descSummary" : "",
"url" : "http:\/\/go.rss.sina.com.cn\/redirect.php?url=http:\/\/finance.sina.com.cn\/money\/lcgh\/20131028\/091617134231.shtml",
"pubDate" : "前天09:16:10",
"enterDate" : "384200:40:06",
"channelId" : "80030570565215661",
"channelName" : "理财要闻-新浪财经",
"channelNameSummary" : "理财要闻-新浪财经",
"channelUrl" : "http:\/\/finance.sina.com.cn\/old\/money\/index.shtml",
"author" : "WWW.SINA.COM.CN",
"tags" : [],
"desc" : "",
"emailed" : False,
"forwarded" : False,
"english" : False
}  , {
"index" : 7,
"articleIndex" : "22622",
"favor" :  False ,
     "read" : False,    
"title" : "李静自爆不当赚钱奴 开公司搏命主持节目",
"titleTip" : "李静自爆不当赚钱奴 开公司搏命主持节目",
"titleSummary" : "李静自爆不当赚钱奴 开公司搏命主持节目",
"descSummary" : "",
"url" : "http:\/\/go.rss.sina.com.cn\/redirect.php?url=http:\/\/finance.sina.com.cn\/money\/cfgs\/20131028\/073917133085.shtml",
"pubDate" : "前天07:39:10",
"enterDate" : "384200:03:15",
"channelId" : "80030570565215661",
"channelName" : "理财要闻-新浪财经",
"channelNameSummary" : "理财要闻-新浪财经",
"channelUrl" : "http:\/\/finance.sina.com.cn\/old\/money\/index.shtml",
"author" : "WWW.SINA.COM.CN",
"tags" : [],
"desc" : "",
"emailed" : False,
"forwarded" : False,
"english" : False
}  , {
"index" : 8,
"articleIndex" : "22621",
"favor" :  False ,
     "read" : False,    
"title" : "大V开网店卖古董承诺保真 战国蜻蜓眼298万(图)",
"titleTip" : "大V开网店卖古董承诺保真 战国蜻蜓眼298万(图)",
"titleSummary" : "大V开网店卖古董承诺保真 战国蜻蜓眼298万(图)",
"descSummary" : "",
"url" : "http:\/\/go.rss.sina.com.cn\/redirect.php?url=http:\/\/finance.sina.com.cn\/money\/cfgs\/20131026\/071917122555.shtml",
"pubDate" : "2013年10月26日 (4天前)",
"enterDate" : "384196:50:46",
"channelId" : "80030570565215661",
"channelName" : "理财要闻-新浪财经",
"channelNameSummary" : "理财要闻-新浪财经",
"channelUrl" : "http:\/\/finance.sina.com.cn\/old\/money\/index.shtml",
"author" : "WWW.SINA.COM.CN",
"tags" : [],
"desc" : "",
"emailed" : False,
"forwarded" : False,
"english" : False
}  , {
"index" : 9,
"articleIndex" : "22620",
"favor" :  False ,
     "read" : False,    
"title" : "财通资产宁波农工商地产资产管理计划点评",
"titleTip" : "财通资产宁波农工商地产资产管理计划点评",
"titleSummary" : "财通资产宁波农工商地产资产管理计划点评",
"descSummary" : "",
"url" : "http:\/\/go.rss.sina.com.cn\/redirect.php?url=http:\/\/finance.sina.com.cn\/trust\/20131025\/203217118727.shtml",
"pubDate" : "2013年10月25日 (5天前)",
"enterDate" : "384200:36:11",
"channelId" : "80030570565215661",
"channelName" : "理财要闻-新浪财经",
"channelNameSummary" : "理财要闻-新浪财经",
"channelUrl" : "http:\/\/finance.sina.com.cn\/old\/money\/index.shtml",
"author" : "WWW.SINA.COM.CN",
"tags" : [],
"desc" : "",
"emailed" : False,
"forwarded" : False,
"english" : False
}  , {
"index" : 10,
"articleIndex" : "22619",
"favor" :  False ,
     "read" : False,    
"title" : "新华信托金贤酒店贷款信托计划点评",
"titleTip" : "新华信托金贤酒店贷款信托计划点评",
"titleSummary" : "新华信托金贤酒店贷款信托计划点评",
"descSummary" : "",
"url" : "http:\/\/go.rss.sina.com.cn\/redirect.php?url=http:\/\/finance.sina.com.cn\/trust\/20131025\/173917117900.shtml",
"pubDate" : "2013年10月25日 (5天前)",
"enterDate" : "384200:43:41",
"channelId" : "80030570565215661",
"channelName" : "理财要闻-新浪财经",
"channelNameSummary" : "理财要闻-新浪财经",
"channelUrl" : "http:\/\/finance.sina.com.cn\/old\/money\/index.shtml",
"author" : "WWW.SINA.COM.CN",
"tags" : [],
"desc" : "",
"emailed" : False,
"forwarded" : False,
"english" : False
}  , {
"index" : 11,
"articleIndex" : "22618",
"favor" :  False ,
     "read" : False,    
"title" : "三口之家年入45万 如何理财财富增值",
"titleTip" : "三口之家年入45万 如何理财财富增值",
"titleSummary" : "三口之家年入45万 如何理财财富增值",
"descSummary" : "",
"url" : "http:\/\/go.rss.sina.com.cn\/redirect.php?url=http:\/\/finance.sina.com.cn\/money\/lcgh\/20131025\/153317116591.shtml",
"pubDate" : "2013年10月25日 (5天前)",
"enterDate" : "384200:23:00",
"channelId" : "80030570565215661",
"channelName" : "理财要闻-新浪财经",
"channelNameSummary" : "理财要闻-新浪财经",
"channelUrl" : "http:\/\/finance.sina.com.cn\/old\/money\/index.shtml",
"author" : "WWW.SINA.COM.CN",
"tags" : [],
"desc" : "",
"emailed" : False,
"forwarded" : False,
"english" : False
}  , {
"index" : 12,
"articleIndex" : "22617",
"favor" :  False ,
     "read" : False,    
"title" : "海外购房移民三大黄金法则：必须货比三家",
"titleTip" : "海外购房移民三大黄金法则：必须货比三家",
"titleSummary" : "海外购房移民三大黄金法则：必须货比三家",
"descSummary" : "",
"url" : "http:\/\/go.rss.sina.com.cn\/redirect.php?url=http:\/\/finance.sina.com.cn\/money\/zcsh\/20131025\/101417113400.shtml",
"pubDate" : "2013年10月25日 (5天前)",
"enterDate" : "384200:34:55",
"channelId" : "80030570565215661",
"channelName" : "理财要闻-新浪财经",
"channelNameSummary" : "理财要闻-新浪财经",
"channelUrl" : "http:\/\/finance.sina.com.cn\/old\/money\/index.shtml",
"author" : "WWW.SINA.COM.CN",
"tags" : [],
"desc" : "",
"emailed" : False,
"forwarded" : False,
"english" : False
}  , {
"index" : 13,
"articleIndex" : "22616",
"favor" :  False ,
     "read" : False,    
"title" : "聪明人完美的刷钱循环：终生享总裁待遇",
"titleTip" : "聪明人完美的刷钱循环：终生享总裁待遇",
"titleSummary" : "聪明人完美的刷钱循环：终生享总裁待遇",
"descSummary" : "",
"url" : "http:\/\/go.rss.sina.com.cn\/redirect.php?url=http:\/\/finance.sina.com.cn\/money\/zcsh\/20131025\/093917112695.shtml",
"pubDate" : "2013年10月25日 (5天前)",
"enterDate" : "384200:30:00",
"channelId" : "80030570565215661",
"channelName" : "理财要闻-新浪财经",
"channelNameSummary" : "理财要闻-新浪财经",
"channelUrl" : "http:\/\/finance.sina.com.cn\/old\/money\/index.shtml",
"author" : "WWW.SINA.COM.CN",
"tags" : [],
"desc" : "",
"emailed" : False,
"forwarded" : False,
"english" : False
}  , {
"index" : 14,
"articleIndex" : "22615",
"favor" :  False ,
     "read" : False,    
"title" : "美国少女做小首饰赚大钱 销售额超千万美元",
"titleTip" : "美国少女做小首饰赚大钱 销售额超千万美元",
"titleSummary" : "美国少女做小首饰赚大钱 销售额超千万美元",
"descSummary" : "",
"url" : "http:\/\/go.rss.sina.com.cn\/redirect.php?url=http:\/\/finance.sina.com.cn\/money\/cfgs\/20131025\/092217112397.shtml",
"pubDate" : "2013年10月25日 (5天前)",
"enterDate" : "384200:43:06",
"channelId" : "80030570565215661",
"channelName" : "理财要闻-新浪财经",
"channelNameSummary" : "理财要闻-新浪财经",
"channelUrl" : "http:\/\/finance.sina.com.cn\/old\/money\/index.shtml",
"author" : "WWW.SINA.COM.CN",
"tags" : [],
"desc" : "",
"emailed" : False,
"forwarded" : False,
"english" : False
}  , {
"index" : 15,
"articleIndex" : "22613",
"favor" :  False ,
     "read" : False,    
"title" : "富不过三代是中国的特例吗 家族财富可N代传承",
"titleTip" : "富不过三代是中国的特例吗 家族财富可N代传承",
"titleSummary" : "富不过三代是中国的特例吗 家族财富可N代传承",
"descSummary" : "",
"url" : "http:\/\/go.rss.sina.com.cn\/redirect.php?url=http:\/\/finance.sina.com.cn\/money\/cfgs\/20131025\/072917111073.shtml",
"pubDate" : "2013年10月25日 (5天前)",
"enterDate" : "384200:50:23",
"channelId" : "80030570565215661",
"channelName" : "理财要闻-新浪财经",
"channelNameSummary" : "理财要闻-新浪财经",
"channelUrl" : "http:\/\/finance.sina.com.cn\/old\/money\/index.shtml",
"author" : "WWW.SINA.COM.CN",
"tags" : [],
"desc" : "",
"emailed" : False,
"forwarded" : False,
"english" : False
}  , {
"index" : 16,
"articleIndex" : "22612",
"favor" :  False ,
     "read" : False,    
"title" : "中国保姆在美最高年薪15万美元 保险假期俱全",
"titleTip" : "中国保姆在美最高年薪15万美元 保险假期俱全",
"titleSummary" : "中国保姆在美最高年薪15万美元 保险假期俱全",
"descSummary" : "",
"url" : "http:\/\/go.rss.sina.com.cn\/redirect.php?url=http:\/\/finance.sina.com.cn\/money\/zcsh\/20131025\/070217110013.shtml",
"pubDate" : "2013年10月25日 (5天前)",
"enterDate" : "384200:23:23",
"channelId" : "80030570565215661",
"channelName" : "理财要闻-新浪财经",
"channelNameSummary" : "理财要闻-新浪财经",
"channelUrl" : "http:\/\/finance.sina.com.cn\/old\/money\/index.shtml",
"author" : "WWW.SINA.COM.CN",
"tags" : [],
"desc" : "",
"emailed" : False,
"forwarded" : False,
"english" : False
}  , {
"index" : 17,
"articleIndex" : "22611",
"favor" :  False ,
     "read" : False,    
"title" : "中产阶层移民潮：投资是主力买房成新宠",
"titleTip" : "中产阶层移民潮：投资是主力买房成新宠",
"titleSummary" : "中产阶层移民潮：投资是主力买房成新宠",
"descSummary" : "",
"url" : "http:\/\/go.rss.sina.com.cn\/redirect.php?url=http:\/\/finance.sina.com.cn\/money\/zcsh\/20131025\/070017109880.shtml",
"pubDate" : "2013年10月25日 (5天前)",
"enterDate" : "384200:21:23",
"channelId" : "80030570565215661",
"channelName" : "理财要闻-新浪财经",
"channelNameSummary" : "理财要闻-新浪财经",
"channelUrl" : "http:\/\/finance.sina.com.cn\/old\/money\/index.shtml",
"author" : "WWW.SINA.COM.CN",
"tags" : [],
"desc" : "",
"emailed" : False,
"forwarded" : False,
"english" : False
}  , {
"index" : 18,
"articleIndex" : "22610",
"favor" :  False ,
     "read" : False,    
"title" : "新生代移民：买房压力比国内小焦虑并幸福着",
"titleTip" : "新生代移民：买房压力比国内小焦虑并幸福着",
"titleSummary" : "新生代移民：买房压力比国内小焦虑并幸福着",
"descSummary" : "",
"url" : "http:\/\/go.rss.sina.com.cn\/redirect.php?url=http:\/\/finance.sina.com.cn\/money\/zcsh\/20131025\/013717105497.shtml",
"pubDate" : "2013年10月25日 (6天前)",
"enterDate" : "384194:58:23",
"channelId" : "80030570565215661",
"channelName" : "理财要闻-新浪财经",
"channelNameSummary" : "理财要闻-新浪财经",
"channelUrl" : "http:\/\/finance.sina.com.cn\/old\/money\/index.shtml",
"author" : "WWW.SINA.COM.CN",
"tags" : [],
"desc" : "",
"emailed" : False,
"forwarded" : False,
"english" : False
}  , {
"index" : 19,
"articleIndex" : "22614",
"favor" :  False ,
     "read" : False,    
"title" : "小三口多买银行理财品 老三口之家增买股票",
"titleTip" : "小三口多买银行理财品 老三口之家增买股票",
"titleSummary" : "小三口多买银行理财品 老三口之家增买股票",
"descSummary" : "",
"url" : "http:\/\/go.rss.sina.com.cn\/redirect.php?url=http:\/\/finance.sina.com.cn\/money\/lcgh\/20131024\/073917094837.shtml",
"pubDate" : "2013年10月24日 (6天前)",
"enterDate" : "384175:00:06",
"channelId" : "80030570565215661",
"channelName" : "理财要闻-新浪财经",
"channelNameSummary" : "理财要闻-新浪财经",
"channelUrl" : "http:\/\/finance.sina.com.cn\/old\/money\/index.shtml",
"author" : "WWW.SINA.COM.CN",
"tags" : [],
"desc" : "",
"emailed" : False,
"forwarded" : False,
"english" : False
} ]
}
