{
"mode" : {"viewTitle" : 1,   "viewNew" : 0,  "pageIndex" : 1 },
 "channel" : {"id" : "5145540878677721832", "booked" : False, "subNumber" : 636, "name" : "国际足坛-意甲", "url" : "http:\/\/sports.sina.com.cn\/global\/index.shtml", "feed" : "http:\/\/rss.sina.com.cn\/sports\/global\/italy.xml", "author" : "WWW.SINA.COM.CN", "desc" : "国际足坛-意甲", "imageUrl" : "http:\/\/www.sinaimg.cn\/ty\/deco\/2010\/0601\/logo_home_sports_nonike2.gif", "postPerWeek" : "120", "lastCrawTime" : "16:51:40", "crawDateTime" : "16:51:40", "lastHttpCode" : "200"}, "page" : {
"startIndex" : 0,
"totalCount" : 5000,
"pageIndex" : 1,
"lastPage" : 250,
"pageSize" : 20,
"english" :  False },
 "unreadNum" : 0, "shotIndex" : -1,
"articles" : [
{
"index" : 0,
"articleIndex" : "33969",
"favor" :  False ,
     "read" : False,    
"title" : "AC米兰遭土豪6500万挖两天王 阿森纳切尔西联手抢人",
"titleTip" : "AC米兰遭土豪6500万挖两天王 阿森纳切尔西联手抢人",
"titleSummary" : "AC米兰遭土豪6500万挖两天王 阿森纳切尔西联手抢人",
"descSummary" : "",
"url" : "http:\/\/go.rss.sina.com.cn\/redirect.php?url=http:\/\/sports.sina.com.cn\/g\/seriea\/2013-10-30\/11366858294.shtml",
"pubDate" : "11:36:30",
"enterDate" : "384201:05:42",
"channelId" : "5145540878677721832",
"channelName" : "国际足坛-意甲",
"channelNameSummary" : "国际足坛-意甲",
"channelUrl" : "http:\/\/sports.sina.com.cn\/global\/index.shtml",
"author" : "WWW.SINA.COM.CN",
"tags" : [],
"desc" : "",
"emailed" : False,
"forwarded" : False,
"english" : False
}  , {
"index" : 1,
"articleIndex" : "33968",
"favor" :  False ,
     "read" : False,    
"title" : "国米购巨头钦点悍将获表态 要来豪门：看看切尔西那谁",
"titleTip" : "国米购巨头钦点悍将获表态 要来豪门：看看切尔西那谁",
"titleSummary" : "国米购巨头钦点悍将获表态 要来豪门：看看切尔西那谁",
"descSummary" : "",
"url" : "http:\/\/go.rss.sina.com.cn\/redirect.php?url=http:\/\/sports.sina.com.cn\/g\/seriea\/2013-10-30\/11156858244.shtml",
"pubDate" : "11:15:16",
"enterDate" : "384201:14:33",
"channelId" : "5145540878677721832",
"channelName" : "国际足坛-意甲",
"channelNameSummary" : "国际足坛-意甲",
"channelUrl" : "http:\/\/sports.sina.com.cn\/global\/index.shtml",
"author" : "WWW.SINA.COM.CN",
"tags" : [],
"desc" : "",
"emailed" : False,
"forwarded" : False,
"english" : False
}  , {
"index" : 2,
"articleIndex" : "33967",
"favor" :  False ,
     "read" : False,    
"title" : "高清图-因扎吉女友火辣真空床照 秀紧身超短裙挺热火",
"titleTip" : "高清图-因扎吉女友火辣真空床照 秀紧身超短裙挺热火",
"titleSummary" : "高清图-因扎吉女友火辣真空床照 秀紧身超短裙挺热火",
"descSummary" : "",
"url" : "http:\/\/go.rss.sina.com.cn\/redirect.php?url=http:\/\/slide.sports.sina.com.cn\/g_seriea\/slide_2_730_55452.html",
"pubDate" : "10:44:58",
"enterDate" : "384201:14:20",
"channelId" : "5145540878677721832",
"channelName" : "国际足坛-意甲",
"channelNameSummary" : "国际足坛-意甲",
"channelUrl" : "http:\/\/sports.sina.com.cn\/global\/index.shtml",
"author" : "WWW.SINA.COM.CN",
"tags" : [],
"desc" : "",
"emailed" : False,
"forwarded" : False,
"english" : False
}  , {
"index" : 3,
"articleIndex" : "33966",
"favor" :  False ,
     "read" : False,    
"title" : "这就叫天赋！巴神训练场神视频曝光 玩得真嗨(视频)",
"titleTip" : "这就叫天赋！巴神训练场神视频曝光 玩得真嗨(视频)",
"titleSummary" : "这就叫天赋！巴神训练场神视频曝光 玩得真嗨(视频)",
"descSummary" : "",
"url" : "http:\/\/go.rss.sina.com.cn\/redirect.php?url=http:\/\/sports.sina.com.cn\/g\/seriea\/2013-10-30\/10316858136.shtml",
"pubDate" : "10:31:19",
"enterDate" : "384201:00:41",
"channelId" : "5145540878677721832",
"channelName" : "国际足坛-意甲",
"channelNameSummary" : "国际足坛-意甲",
"channelUrl" : "http:\/\/sports.sina.com.cn\/global\/index.shtml",
"author" : "WWW.SINA.COM.CN",
"tags" : [],
"desc" : "",
"emailed" : False,
"forwarded" : False,
"english" : False
}  , {
"index" : 4,
"articleIndex" : "33965",
"favor" :  False ,
     "read" : False,    
"title" : "AC米兰巨头暴怒阿帅又站悬崖边 三玩命仗一场也输不起",
"titleTip" : "AC米兰巨头暴怒阿帅又站悬崖边 三玩命仗一场也输不起",
"titleSummary" : "AC米兰巨头暴怒阿帅又站悬崖边 三玩命仗一场也输不起",
"descSummary" : "",
"url" : "http:\/\/go.rss.sina.com.cn\/redirect.php?url=http:\/\/sports.sina.com.cn\/g\/seriea\/2013-10-30\/09466858000.shtml",
"pubDate" : "09:46:15",
"enterDate" : "384201:15:47",
"channelId" : "5145540878677721832",
"channelName" : "国际足坛-意甲",
"channelNameSummary" : "国际足坛-意甲",
"channelUrl" : "http:\/\/sports.sina.com.cn\/global\/index.shtml",
"author" : "WWW.SINA.COM.CN",
"tags" : [],
"desc" : "",
"emailed" : False,
"forwarded" : False,
"english" : False
}  , {
"index" : 5,
"articleIndex" : "33964",
"favor" :  False ,
     "read" : False,    
"title" : "高清-意甲教母超性感蕾丝透视装 纯白网眼长裙太诱人",
"titleTip" : "高清-意甲教母超性感蕾丝透视装 纯白网眼长裙太诱人",
"titleSummary" : "高清-意甲教母超性感蕾丝透视装 纯白网眼长裙太诱人",
"descSummary" : "",
"url" : "http:\/\/go.rss.sina.com.cn\/redirect.php?url=http:\/\/slide.sports.sina.com.cn\/g_seriea\/slide_2_730_55448.html",
"pubDate" : "09:40:23",
"enterDate" : "384201:09:55",
"channelId" : "5145540878677721832",
"channelName" : "国际足坛-意甲",
"channelNameSummary" : "国际足坛-意甲",
"channelUrl" : "http:\/\/sports.sina.com.cn\/global\/index.shtml",
"author" : "WWW.SINA.COM.CN",
"tags" : [],
"desc" : "",
"emailed" : False,
"forwarded" : False,
"english" : False
}  , {
"index" : 6,
"articleIndex" : "33963",
"favor" :  False ,
     "read" : False,    
"title" : "国米头号霸王11场狂造12球 新老板来第1件事和他续约",
"titleTip" : "国米头号霸王11场狂造12球 新老板来第1件事和他续约",
"titleSummary" : "国米头号霸王11场狂造12球 新老板来第1件事和他续约",
"descSummary" : "",
"url" : "http:\/\/go.rss.sina.com.cn\/redirect.php?url=http:\/\/sports.sina.com.cn\/g\/seriea\/2013-10-30\/09346857968.shtml",
"pubDate" : "09:34:36",
"enterDate" : "384201:04:08",
"channelId" : "5145540878677721832",
"channelName" : "国际足坛-意甲",
"channelNameSummary" : "国际足坛-意甲",
"channelUrl" : "http:\/\/sports.sina.com.cn\/global\/index.shtml",
"author" : "WWW.SINA.COM.CN",
"tags" : [],
"desc" : "",
"emailed" : False,
"forwarded" : False,
"english" : False
}  , {
"index" : 7,
"articleIndex" : "33962",
"favor" :  False ,
     "read" : False,    
"title" : "国米1300万终买来真命天神 真是妖！这个卡卡更会过人",
"titleTip" : "国米1300万终买来真命天神 真是妖！这个卡卡更会过人",
"titleSummary" : "国米1300万终买来真命天神 真是妖！这个卡卡更会过人",
"descSummary" : "",
"url" : "http:\/\/go.rss.sina.com.cn\/redirect.php?url=http:\/\/sports.sina.com.cn\/g\/seriea\/2013-10-30\/07496857665.shtml",
"pubDate" : "07:49:34",
"enterDate" : "384200:49:20",
"channelId" : "5145540878677721832",
"channelName" : "国际足坛-意甲",
"channelNameSummary" : "国际足坛-意甲",
"channelUrl" : "http:\/\/sports.sina.com.cn\/global\/index.shtml",
"author" : "WWW.SINA.COM.CN",
"tags" : [],
"desc" : "",
"emailed" : False,
"forwarded" : False,
"english" : False
}  , {
"index" : 8,
"articleIndex" : "33961",
"favor" :  False ,
     "read" : False,    
"title" : "阿帅:AC米兰踢得差我就该被质疑 卡卡的价值技术+精神",
"titleTip" : "阿帅:AC米兰踢得差我就该被质疑 卡卡的价值技术+精神",
"titleSummary" : "阿帅:AC米兰踢得差我就该被质疑 卡卡的价值技术+精神",
"descSummary" : "",
"url" : "http:\/\/go.rss.sina.com.cn\/redirect.php?url=http:\/\/sports.sina.com.cn\/g\/seriea\/2013-10-30\/07396857659.shtml",
"pubDate" : "07:39:33",
"enterDate" : "384201:09:25",
"channelId" : "5145540878677721832",
"channelName" : "国际足坛-意甲",
"channelNameSummary" : "国际足坛-意甲",
"channelUrl" : "http:\/\/sports.sina.com.cn\/global\/index.shtml",
"author" : "WWW.SINA.COM.CN",
"tags" : [],
"desc" : "",
"emailed" : False,
"forwarded" : False,
"english" : False
}  , {
"index" : 9,
"articleIndex" : "33960",
"favor" :  False ,
     "read" : False,    
"title" : "国米憾平马扎里大呼理应赢球 亲口确认队内铁主力伤情",
"titleTip" : "国米憾平马扎里大呼理应赢球 亲口确认队内铁主力伤情",
"titleSummary" : "国米憾平马扎里大呼理应赢球 亲口确认队内铁主力伤情",
"descSummary" : "",
"url" : "http:\/\/go.rss.sina.com.cn\/redirect.php?url=http:\/\/sports.sina.com.cn\/g\/seriea\/2013-10-30\/07346857657.shtml",
"pubDate" : "07:34:50",
"enterDate" : "384201:04:42",
"channelId" : "5145540878677721832",
"channelName" : "国际足坛-意甲",
"channelNameSummary" : "国际足坛-意甲",
"channelUrl" : "http:\/\/sports.sina.com.cn\/global\/index.shtml",
"author" : "WWW.SINA.COM.CN",
"tags" : [],
"desc" : "",
"emailed" : False,
"forwarded" : False,
"english" : False
}  , {
"index" : 10,
"articleIndex" : "33959",
"favor" :  False ,
     "read" : False,    
"title" : "意大利世界杯球衣谍照曝光:一颠覆设计 这是大V啊(图)",
"titleTip" : "意大利世界杯球衣谍照曝光:一颠覆设计 这是大V啊(图)",
"titleSummary" : "意大利世界杯球衣谍照曝光:一颠覆设计 这是大V啊(图)",
"descSummary" : "",
"url" : "http:\/\/go.rss.sina.com.cn\/redirect.php?url=http:\/\/sports.sina.com.cn\/g\/seriea\/2013-10-30\/05546857575.shtml",
"pubDate" : "05:54:43",
"enterDate" : "384200:54:50",
"channelId" : "5145540878677721832",
"channelName" : "国际足坛-意甲",
"channelNameSummary" : "国际足坛-意甲",
"channelUrl" : "http:\/\/sports.sina.com.cn\/global\/index.shtml",
"author" : "WWW.SINA.COM.CN",
"tags" : [],
"desc" : "",
"emailed" : False,
"forwarded" : False,
"english" : False
}  , {
"index" : 11,
"articleIndex" : "33958",
"favor" :  False ,
     "read" : False,    
"title" : "尤文官方贺皮尔洛孔蒂争金球 防线大将超速驾驶遭拦",
"titleTip" : "尤文官方贺皮尔洛孔蒂争金球 防线大将超速驾驶遭拦",
"titleSummary" : "尤文官方贺皮尔洛孔蒂争金球 防线大将超速驾驶遭拦",
"descSummary" : "",
"url" : "http:\/\/go.rss.sina.com.cn\/redirect.php?url=http:\/\/sports.sina.com.cn\/g\/seriea\/2013-10-30\/05496857559.shtml",
"pubDate" : "05:49:06",
"enterDate" : "384200:49:13",
"channelId" : "5145540878677721832",
"channelName" : "国际足坛-意甲",
"channelNameSummary" : "国际足坛-意甲",
"channelUrl" : "http:\/\/sports.sina.com.cn\/global\/index.shtml",
"author" : "WWW.SINA.COM.CN",
"tags" : [],
"desc" : "",
"emailed" : False,
"forwarded" : False,
"english" : False
}  , {
"index" : 12,
"articleIndex" : "33957",
"favor" :  False ,
     "read" : False,    
"title" : "高清-国米日本飞翼突破留神图 马扎里急啊场边直跺脚",
"titleTip" : "高清-国米日本飞翼突破留神图 马扎里急啊场边直跺脚",
"titleSummary" : "高清-国米日本飞翼突破留神图 马扎里急啊场边直跺脚",
"descSummary" : "",
"url" : "http:\/\/go.rss.sina.com.cn\/redirect.php?url=http:\/\/slide.sports.sina.com.cn\/g_seriea\/slide_2_730_55439.html",
"pubDate" : "05:44:18",
"enterDate" : "384201:14:30",
"channelId" : "5145540878677721832",
"channelName" : "国际足坛-意甲",
"channelNameSummary" : "国际足坛-意甲",
"channelUrl" : "http:\/\/sports.sina.com.cn\/global\/index.shtml",
"author" : "WWW.SINA.COM.CN",
"tags" : [],
"desc" : "",
"emailed" : False,
"forwarded" : False,
"english" : False
}  , {
"index" : 13,
"articleIndex" : "33956",
"favor" :  False ,
     "read" : False,    
"title" : "意甲-辫帅助攻阿尔瓦雷斯门神伤退 国米两中柱1-1",
"titleTip" : "意甲-辫帅助攻阿尔瓦雷斯门神伤退 国米两中柱1-1",
"titleSummary" : "意甲-辫帅助攻阿尔瓦雷斯门神伤退 国米两中柱1-1",
"descSummary" : "",
"url" : "http:\/\/go.rss.sina.com.cn\/redirect.php?url=http:\/\/sports.sina.com.cn\/g\/seriea\/2013-10-30\/04426857507.shtml",
"pubDate" : "05:37:33",
"enterDate" : "384201:07:45",
"channelId" : "5145540878677721832",
"channelName" : "国际足坛-意甲",
"channelNameSummary" : "国际足坛-意甲",
"channelUrl" : "http:\/\/sports.sina.com.cn\/global\/index.shtml",
"author" : "WWW.SINA.COM.CN",
"tags" : [],
"desc" : "",
"emailed" : False,
"forwarded" : False,
"english" : False
}  , {
"index" : 14,
"articleIndex" : "33955",
"favor" :  False ,
     "read" : False,    
"title" : "意甲国米首发：岩石复出门神解禁 帕拉西奥单箭头",
"titleTip" : "意甲国米首发：岩石复出门神解禁 帕拉西奥单箭头",
"titleSummary" : "意甲国米首发：岩石复出门神解禁 帕拉西奥单箭头",
"descSummary" : "",
"url" : "http:\/\/go.rss.sina.com.cn\/redirect.php?url=http:\/\/sports.sina.com.cn\/g\/seriea\/2013-10-30\/03006857387.shtml",
"pubDate" : "昨天03:00:25",
"enterDate" : "384201:01:02",
"channelId" : "5145540878677721832",
"channelName" : "国际足坛-意甲",
"channelNameSummary" : "国际足坛-意甲",
"channelUrl" : "http:\/\/sports.sina.com.cn\/global\/index.shtml",
"author" : "WWW.SINA.COM.CN",
"tags" : [],
"desc" : "",
"emailed" : False,
"forwarded" : False,
"english" : False
}  , {
"index" : 15,
"articleIndex" : "33954",
"favor" :  False ,
     "read" : False,    
"title" : "这是多大仇啊!AC米兰主帅被摆上货架 售价1欧(图)",
"titleTip" : "这是多大仇啊!AC米兰主帅被摆上货架 售价1欧(图)",
"titleSummary" : "这是多大仇啊!AC米兰主帅被摆上货架 售价1欧(图)",
"descSummary" : "",
"url" : "http:\/\/go.rss.sina.com.cn\/redirect.php?url=http:\/\/sports.sina.com.cn\/g\/seriea\/2013-10-30\/01486857306.shtml",
"pubDate" : "昨天01:48:47",
"enterDate" : "384199:19:19",
"channelId" : "5145540878677721832",
"channelName" : "国际足坛-意甲",
"channelNameSummary" : "国际足坛-意甲",
"channelUrl" : "http:\/\/sports.sina.com.cn\/global\/index.shtml",
"author" : "WWW.SINA.COM.CN",
"tags" : [],
"desc" : "",
"emailed" : False,
"forwarded" : False,
"english" : False
}  , {
"index" : 16,
"articleIndex" : "33953",
"favor" :  False ,
     "read" : False,    
"title" : "AC米兰不倒1人命再大也悬了 废他曝选2功勋+1欧冠传奇",
"titleTip" : "AC米兰不倒1人命再大也悬了 废他曝选2功勋+1欧冠传奇",
"titleSummary" : "AC米兰不倒1人命再大也悬了 废他曝选2功勋+1欧冠传奇",
"descSummary" : "",
"url" : "http:\/\/go.rss.sina.com.cn\/redirect.php?url=http:\/\/sports.sina.com.cn\/g\/seriea\/2013-10-29\/13026856773.shtml",
"pubDate" : "昨天13:02:28",
"enterDate" : "384201:05:20",
"channelId" : "5145540878677721832",
"channelName" : "国际足坛-意甲",
"channelNameSummary" : "国际足坛-意甲",
"channelUrl" : "http:\/\/sports.sina.com.cn\/global\/index.shtml",
"author" : "WWW.SINA.COM.CN",
"tags" : [],
"desc" : "",
"emailed" : False,
"forwarded" : False,
"english" : False
}  , {
"index" : 17,
"articleIndex" : "33952",
"favor" :  False ,
     "read" : False,    
"title" : "国米敲定购国字号天才关键人确认 新招签1500万小梅西",
"titleTip" : "国米敲定购国字号天才关键人确认 新招签1500万小梅西",
"titleSummary" : "国米敲定购国字号天才关键人确认 新招签1500万小梅西",
"descSummary" : "",
"url" : "http:\/\/go.rss.sina.com.cn\/redirect.php?url=http:\/\/sports.sina.com.cn\/g\/seriea\/2013-10-29\/12436856755.shtml",
"pubDate" : "昨天12:43:27",
"enterDate" : "384201:16:24",
"channelId" : "5145540878677721832",
"channelName" : "国际足坛-意甲",
"channelNameSummary" : "国际足坛-意甲",
"channelUrl" : "http:\/\/sports.sina.com.cn\/global\/index.shtml",
"author" : "WWW.SINA.COM.CN",
"tags" : [],
"desc" : "",
"emailed" : False,
"forwarded" : False,
"english" : False
}  , {
"index" : 18,
"articleIndex" : "33951",
"favor" :  False ,
     "read" : False,    
"title" : "罗纳尔多：全世界看到我们98年遭坑害 穆帅1点让人服",
"titleTip" : "罗纳尔多：全世界看到我们98年遭坑害 穆帅1点让人服",
"titleSummary" : "罗纳尔多：全世界看到我们98年遭坑害 穆帅1点让人服",
"descSummary" : "",
"url" : "http:\/\/go.rss.sina.com.cn\/redirect.php?url=http:\/\/sports.sina.com.cn\/g\/seriea\/2013-10-29\/12206856701.shtml",
"pubDate" : "昨天12:20:01",
"enterDate" : "384200:52:58",
"channelId" : "5145540878677721832",
"channelName" : "国际足坛-意甲",
"channelNameSummary" : "国际足坛-意甲",
"channelUrl" : "http:\/\/sports.sina.com.cn\/global\/index.shtml",
"author" : "WWW.SINA.COM.CN",
"tags" : [],
"desc" : "",
"emailed" : False,
"forwarded" : False,
"english" : False
}  , {
"index" : 19,
"articleIndex" : "33950",
"favor" :  False ,
     "read" : False,    
"title" : "AC米兰遭黑？巨头开炮:裁判必须道歉 队长遭批像40岁",
"titleTip" : "AC米兰遭黑？巨头开炮:裁判必须道歉 队长遭批像40岁",
"titleSummary" : "AC米兰遭黑？巨头开炮:裁判必须道歉 队长遭批像40岁",
"descSummary" : "",
"url" : "http:\/\/go.rss.sina.com.cn\/redirect.php?url=http:\/\/sports.sina.com.cn\/g\/seriea\/2013-10-29\/11046856585.shtml",
"pubDate" : "昨天11:04:26",
"enterDate" : "384201:07:37",
"channelId" : "5145540878677721832",
"channelName" : "国际足坛-意甲",
"channelNameSummary" : "国际足坛-意甲",
"channelUrl" : "http:\/\/sports.sina.com.cn\/global\/index.shtml",
"author" : "WWW.SINA.COM.CN",
"tags" : [],
"desc" : "",
"emailed" : False,
"forwarded" : False,
"english" : False
} ]
}
