{
"mode" : {"viewTitle" : 1,   "viewNew" : 0,  "pageIndex" : 2 },
 "channel" : {"id" : "5145540878677721832", "booked" : False, "subNumber" : 636, "name" : "国际足坛-意甲", "url" : "http:\/\/sports.sina.com.cn\/global\/index.shtml", "feed" : "http:\/\/rss.sina.com.cn\/sports\/global\/italy.xml", "author" : "WWW.SINA.COM.CN", "desc" : "国际足坛-意甲", "imageUrl" : "http:\/\/www.sinaimg.cn\/ty\/deco\/2010\/0601\/logo_home_sports_nonike2.gif", "postPerWeek" : "120", "lastCrawTime" : "16:51:40", "crawDateTime" : "16:51:40", "lastHttpCode" : "200"}, "page" : {
"startIndex" : 20,
"totalCount" : 5000,
"pageIndex" : 2,
"lastPage" : 250,
"pageSize" : 20,
"english" :  False },
 "unreadNum" : 0, "shotIndex" : -1,
"articles" : [
{
"index" : 0,
"articleIndex" : "33949",
"favor" :  False ,
     "read" : False,    
"title" : "高清图-意甲超美足球宝贝 意大利小姐纯美笑容剪刀手",
"titleTip" : "高清图-意甲超美足球宝贝 意大利小姐纯美笑容剪刀手",
"titleSummary" : "高清图-意甲超美足球宝贝 意大利小姐纯美笑容剪刀手",
"descSummary" : "",
"url" : "http:\/\/go.rss.sina.com.cn\/redirect.php?url=http:\/\/slide.sports.sina.com.cn\/g_seriea\/slide_2_730_55393.html",
"pubDate" : "昨天10:53:26",
"enterDate" : "384200:56:37",
"channelId" : "5145540878677721832",
"channelName" : "国际足坛-意甲",
"channelNameSummary" : "国际足坛-意甲",
"channelUrl" : "http:\/\/sports.sina.com.cn\/global\/index.shtml",
"author" : "WWW.SINA.COM.CN",
"tags" : [],
"desc" : "",
"emailed" : False,
"forwarded" : False,
"english" : False
}  , {
"index" : 1,
"articleIndex" : "33948",
"favor" :  False ,
     "read" : False,    
"title" : "AC米兰惊人裂痕巴神惹阿帅暴怒 自我救赎变提前遭否定",
"titleTip" : "AC米兰惊人裂痕巴神惹阿帅暴怒 自我救赎变提前遭否定",
"titleSummary" : "AC米兰惊人裂痕巴神惹阿帅暴怒 自我救赎变提前遭否定",
"descSummary" : "",
"url" : "http:\/\/go.rss.sina.com.cn\/redirect.php?url=http:\/\/sports.sina.com.cn\/g\/seriea\/2013-10-29\/10336856518.shtml",
"pubDate" : "昨天10:33:22",
"enterDate" : "384201:06:38",
"channelId" : "5145540878677721832",
"channelName" : "国际足坛-意甲",
"channelNameSummary" : "国际足坛-意甲",
"channelUrl" : "http:\/\/sports.sina.com.cn\/global\/index.shtml",
"author" : "WWW.SINA.COM.CN",
"tags" : [],
"desc" : "",
"emailed" : False,
"forwarded" : False,
"english" : False
}  , {
"index" : 2,
"articleIndex" : "33947",
"favor" :  False ,
     "read" : False,    
"title" : "太澹\u201C蜕衽友携女伴逛街遭恶搞 猥琐男恶俗调戏(图)",
"titleTip" : "太澹\u201C蜕衽友携女伴逛街遭恶搞 猥琐男恶俗调戏(图)",
"titleSummary" : "太澹\u201C蜕衽友携女伴逛街遭恶搞 猥琐男恶俗调戏(图)",
"descSummary" : "",
"url" : "http:\/\/go.rss.sina.com.cn\/redirect.php?url=http:\/\/slide.sports.sina.com.cn\/g_seriea\/slide_2_730_55394.html",
"pubDate" : "昨天10:11:29",
"enterDate" : "384201:14:51",
"channelId" : "5145540878677721832",
"channelName" : "国际足坛-意甲",
"channelNameSummary" : "国际足坛-意甲",
"channelUrl" : "http:\/\/sports.sina.com.cn\/global\/index.shtml",
"author" : "WWW.SINA.COM.CN",
"tags" : [],
"desc" : "",
"emailed" : False,
"forwarded" : False,
"english" : False
}  , {
"index" : 3,
"articleIndex" : "33946",
"favor" :  False ,
     "read" : False,    
"title" : "AC米兰巨头怒骂送场上大将 又伤了！纸糊防线都没人了",
"titleTip" : "AC米兰巨头怒骂送场上大将 又伤了！纸糊防线都没人了",
"titleSummary" : "AC米兰巨头怒骂送场上大将 又伤了！纸糊防线都没人了",
"descSummary" : "",
"url" : "http:\/\/go.rss.sina.com.cn\/redirect.php?url=http:\/\/sports.sina.com.cn\/g\/seriea\/2013-10-29\/10016856441.shtml",
"pubDate" : "昨天10:01:56",
"enterDate" : "384201:05:18",
"channelId" : "5145540878677721832",
"channelName" : "国际足坛-意甲",
"channelNameSummary" : "国际足坛-意甲",
"channelUrl" : "http:\/\/sports.sina.com.cn\/global\/index.shtml",
"author" : "WWW.SINA.COM.CN",
"tags" : [],
"desc" : "",
"emailed" : False,
"forwarded" : False,
"english" : False
}  , {
"index" : 4,
"articleIndex" : "33945",
"favor" :  False ,
     "read" : False,    
"title" : "国米树立新领袖最被低估之人重生 拜仁4000万购1妖星",
"titleTip" : "国米树立新领袖最被低估之人重生 拜仁4000万购1妖星",
"titleSummary" : "国米树立新领袖最被低估之人重生 拜仁4000万购1妖星",
"descSummary" : "",
"url" : "http:\/\/go.rss.sina.com.cn\/redirect.php?url=http:\/\/sports.sina.com.cn\/g\/seriea\/2013-10-29\/09416856407.shtml",
"pubDate" : "昨天09:41:26",
"enterDate" : "384201:14:53",
"channelId" : "5145540878677721832",
"channelName" : "国际足坛-意甲",
"channelNameSummary" : "国际足坛-意甲",
"channelUrl" : "http:\/\/sports.sina.com.cn\/global\/index.shtml",
"author" : "WWW.SINA.COM.CN",
"tags" : [],
"desc" : "",
"emailed" : False,
"forwarded" : False,
"english" : False
}  , {
"index" : 5,
"articleIndex" : "33944",
"favor" :  False ,
     "read" : False,    
"title" : "尤文禁区外遭侵犯获点又引争议 主帅+两核心矛盾曝光",
"titleTip" : "尤文禁区外遭侵犯获点又引争议 主帅+两核心矛盾曝光",
"titleSummary" : "尤文禁区外遭侵犯获点又引争议 主帅+两核心矛盾曝光",
"descSummary" : "",
"url" : "http:\/\/go.rss.sina.com.cn\/redirect.php?url=http:\/\/sports.sina.com.cn\/g\/seriea\/2013-10-29\/09166856344.shtml",
"pubDate" : "昨天09:16:08",
"enterDate" : "384200:49:35",
"channelId" : "5145540878677721832",
"channelName" : "国际足坛-意甲",
"channelNameSummary" : "国际足坛-意甲",
"channelUrl" : "http:\/\/sports.sina.com.cn\/global\/index.shtml",
"author" : "WWW.SINA.COM.CN",
"tags" : [],
"desc" : "",
"emailed" : False,
"forwarded" : False,
"english" : False
}  , {
"index" : 6,
"articleIndex" : "33943",
"favor" :  False ,
     "read" : False,    
"title" : "疯狂罗马引口水战：尤文那次不算数 惊曝国米挖一功勋",
"titleTip" : "疯狂罗马引口水战：尤文那次不算数 惊曝国米挖一功勋",
"titleSummary" : "疯狂罗马引口水战：尤文那次不算数 惊曝国米挖一功勋",
"descSummary" : "",
"url" : "http:\/\/go.rss.sina.com.cn\/redirect.php?url=http:\/\/sports.sina.com.cn\/g\/seriea\/2013-10-29\/09056856311.shtml",
"pubDate" : "昨天09:05:53",
"enterDate" : "384201:09:25",
"channelId" : "5145540878677721832",
"channelName" : "国际足坛-意甲",
"channelNameSummary" : "国际足坛-意甲",
"channelUrl" : "http:\/\/sports.sina.com.cn\/global\/index.shtml",
"author" : "WWW.SINA.COM.CN",
"tags" : [],
"desc" : "",
"emailed" : False,
"forwarded" : False,
"english" : False
}  , {
"index" : 7,
"articleIndex" : "33942",
"favor" :  False ,
     "read" : False,    
"title" : "尤文购曼联队内1200万英国脚 抢1妖星阿森纳皇马猎物",
"titleTip" : "尤文购曼联队内1200万英国脚 抢1妖星阿森纳皇马猎物",
"titleSummary" : "尤文购曼联队内1200万英国脚 抢1妖星阿森纳皇马猎物",
"descSummary" : "",
"url" : "http:\/\/go.rss.sina.com.cn\/redirect.php?url=http:\/\/sports.sina.com.cn\/g\/seriea\/2013-10-29\/08526856288.shtml",
"pubDate" : "昨天08:52:19",
"enterDate" : "384200:55:51",
"channelId" : "5145540878677721832",
"channelName" : "国际足坛-意甲",
"channelNameSummary" : "国际足坛-意甲",
"channelUrl" : "http:\/\/sports.sina.com.cn\/global\/index.shtml",
"author" : "WWW.SINA.COM.CN",
"tags" : [],
"desc" : "",
"emailed" : False,
"forwarded" : False,
"english" : False
}  , {
"index" : 8,
"articleIndex" : "33941",
"favor" :  False ,
     "read" : False,    
"title" : "马扎里宣布国米支柱回归首发 称来球队前已想买一锋神",
"titleTip" : "马扎里宣布国米支柱回归首发 称来球队前已想买一锋神",
"titleSummary" : "马扎里宣布国米支柱回归首发 称来球队前已想买一锋神",
"descSummary" : "",
"url" : "http:\/\/go.rss.sina.com.cn\/redirect.php?url=http:\/\/sports.sina.com.cn\/g\/seriea\/2013-10-29\/08486856267.shtml",
"pubDate" : "昨天08:48:18",
"enterDate" : "384200:21:45",
"channelId" : "5145540878677721832",
"channelName" : "国际足坛-意甲",
"channelNameSummary" : "国际足坛-意甲",
"channelUrl" : "http:\/\/sports.sina.com.cn\/global\/index.shtml",
"author" : "WWW.SINA.COM.CN",
"tags" : [],
"desc" : "",
"emailed" : False,
"forwarded" : False,
"english" : False
}  , {
"index" : 9,
"articleIndex" : "33940",
"favor" :  False ,
     "read" : False,    
"title" : "曝巴神看望家人途中遭车祸 座驾损毁幸未受伤平安回家",
"titleTip" : "曝巴神看望家人途中遭车祸 座驾损毁幸未受伤平安回家",
"titleSummary" : "曝巴神看望家人途中遭车祸 座驾损毁幸未受伤平安回家",
"descSummary" : "",
"url" : "http:\/\/go.rss.sina.com.cn\/redirect.php?url=http:\/\/sports.sina.com.cn\/g\/seriea\/2013-10-29\/03566855954.shtml",
"pubDate" : "前天03:56:24",
"enterDate" : "384199:00:25",
"channelId" : "5145540878677721832",
"channelName" : "国际足坛-意甲",
"channelNameSummary" : "国际足坛-意甲",
"channelUrl" : "http:\/\/sports.sina.com.cn\/global\/index.shtml",
"author" : "WWW.SINA.COM.CN",
"tags" : [],
"desc" : "",
"emailed" : False,
"forwarded" : False,
"english" : False
}  , {
"index" : 10,
"articleIndex" : "33939",
"favor" :  False ,
     "read" : False,    
"title" : "AC米兰官方抗议被绝杀球违规：向前移动了8米(图)",
"titleTip" : "AC米兰官方抗议被绝杀球违规：向前移动了8米(图)",
"titleSummary" : "AC米兰官方抗议被绝杀球违规：向前移动了8米(图)",
"descSummary" : "",
"url" : "http:\/\/go.rss.sina.com.cn\/redirect.php?url=http:\/\/sports.sina.com.cn\/g\/seriea\/2013-10-29\/00466855774.shtml",
"pubDate" : "前天00:46:02",
"enterDate" : "384200:50:54",
"channelId" : "5145540878677721832",
"channelName" : "国际足坛-意甲",
"channelNameSummary" : "国际足坛-意甲",
"channelUrl" : "http:\/\/sports.sina.com.cn\/global\/index.shtml",
"author" : "WWW.SINA.COM.CN",
"tags" : [],
"desc" : "",
"emailed" : False,
"forwarded" : False,
"english" : False
}  , {
"index" : 11,
"articleIndex" : "33938",
"favor" :  False ,
     "read" : False,    
"title" : "AC米兰敲定冬季第3援签国脚天才 1天王英超4豪门哄抢",
"titleTip" : "AC米兰敲定冬季第3援签国脚天才 1天王英超4豪门哄抢",
"titleSummary" : "AC米兰敲定冬季第3援签国脚天才 1天王英超4豪门哄抢",
"descSummary" : "",
"url" : "http:\/\/go.rss.sina.com.cn\/redirect.php?url=http:\/\/sports.sina.com.cn\/g\/seriea\/2013-10-28\/09556854782.shtml",
"pubDate" : "前天09:55:43",
"enterDate" : "384201:03:04",
"channelId" : "5145540878677721832",
"channelName" : "国际足坛-意甲",
"channelNameSummary" : "国际足坛-意甲",
"channelUrl" : "http:\/\/sports.sina.com.cn\/global\/index.shtml",
"author" : "WWW.SINA.COM.CN",
"tags" : [],
"desc" : "",
"emailed" : False,
"forwarded" : False,
"english" : False
}  , {
"index" : 12,
"articleIndex" : "33937",
"favor" :  False ,
     "read" : False,    
"title" : "国米敲定3500万冬季豪购 抢阿森纳领袖强人+巴黎猛将",
"titleTip" : "国米敲定3500万冬季豪购 抢阿森纳领袖强人+巴黎猛将",
"titleSummary" : "国米敲定3500万冬季豪购 抢阿森纳领袖强人+巴黎猛将",
"descSummary" : "",
"url" : "http:\/\/go.rss.sina.com.cn\/redirect.php?url=http:\/\/sports.sina.com.cn\/g\/seriea\/2013-10-28\/09496854755.shtml",
"pubDate" : "前天09:49:18",
"enterDate" : "384200:56:39",
"channelId" : "5145540878677721832",
"channelName" : "国际足坛-意甲",
"channelNameSummary" : "国际足坛-意甲",
"channelUrl" : "http:\/\/sports.sina.com.cn\/global\/index.shtml",
"author" : "WWW.SINA.COM.CN",
"tags" : [],
"desc" : "",
"emailed" : False,
"forwarded" : False,
"english" : False
}  , {
"index" : 13,
"articleIndex" : "33936",
"favor" :  False ,
     "read" : False,    
"title" : "AC米兰靠卡卡续命2废人活了 1200万先生就等这1救星",
"titleTip" : "AC米兰靠卡卡续命2废人活了 1200万先生就等这1救星",
"titleSummary" : "AC米兰靠卡卡续命2废人活了 1200万先生就等这1救星",
"descSummary" : "",
"url" : "http:\/\/go.rss.sina.com.cn\/redirect.php?url=http:\/\/sports.sina.com.cn\/g\/seriea\/2013-10-28\/09136854514.shtml",
"pubDate" : "前天09:13:36",
"enterDate" : "384200:51:03",
"channelId" : "5145540878677721832",
"channelName" : "国际足坛-意甲",
"channelNameSummary" : "国际足坛-意甲",
"channelUrl" : "http:\/\/sports.sina.com.cn\/global\/index.shtml",
"author" : "WWW.SINA.COM.CN",
"tags" : [],
"desc" : "",
"emailed" : False,
"forwarded" : False,
"english" : False
}  , {
"index" : 14,
"articleIndex" : "33935",
"favor" :  False ,
     "read" : False,    
"title" : "高清-意甲教母深夜狂欢嗨翻天 变身性感超人挺豪乳",
"titleTip" : "高清-意甲教母深夜狂欢嗨翻天 变身性感超人挺豪乳",
"titleSummary" : "高清-意甲教母深夜狂欢嗨翻天 变身性感超人挺豪乳",
"descSummary" : "",
"url" : "http:\/\/go.rss.sina.com.cn\/redirect.php?url=http:\/\/slide.sports.sina.com.cn\/g_seriea\/slide_2_730_55349.html",
"pubDate" : "前天08:44:21",
"enterDate" : "384200:51:52",
"channelId" : "5145540878677721832",
"channelName" : "国际足坛-意甲",
"channelNameSummary" : "国际足坛-意甲",
"channelUrl" : "http:\/\/sports.sina.com.cn\/global\/index.shtml",
"author" : "WWW.SINA.COM.CN",
"tags" : [],
"desc" : "",
"emailed" : False,
"forwarded" : False,
"english" : False
}  , {
"index" : 15,
"articleIndex" : "33933",
"favor" :  False ,
     "read" : False,    
"title" : "AC米兰灾星上场比少打1人还惨 手握最强组合等1神归位",
"titleTip" : "AC米兰灾星上场比少打1人还惨 手握最强组合等1神归位",
"titleSummary" : "AC米兰灾星上场比少打1人还惨 手握最强组合等1神归位",
"descSummary" : "",
"url" : "http:\/\/go.rss.sina.com.cn\/redirect.php?url=http:\/\/sports.sina.com.cn\/g\/seriea\/2013-10-28\/08356854389.shtml",
"pubDate" : "前天08:35:30",
"enterDate" : "384201:13:06",
"channelId" : "5145540878677721832",
"channelName" : "国际足坛-意甲",
"channelNameSummary" : "国际足坛-意甲",
"channelUrl" : "http:\/\/sports.sina.com.cn\/global\/index.shtml",
"author" : "WWW.SINA.COM.CN",
"tags" : [],
"desc" : "",
"emailed" : False,
"forwarded" : False,
"english" : False
}  , {
"index" : 16,
"articleIndex" : "33932",
"favor" :  False ,
     "read" : False,    
"title" : "国米新老板首签是NBA巨星？！传奇号码亲赠艾弗森(图)",
"titleTip" : "国米新老板首签是NBA巨星？！传奇号码亲赠艾弗森(图)",
"titleSummary" : "国米新老板首签是NBA巨星？！传奇号码亲赠艾弗森(图)",
"descSummary" : "",
"url" : "http:\/\/go.rss.sina.com.cn\/redirect.php?url=http:\/\/sports.sina.com.cn\/g\/seriea\/2013-10-28\/08286854386.shtml",
"pubDate" : "前天08:28:57",
"enterDate" : "384201:06:33",
"channelId" : "5145540878677721832",
"channelName" : "国际足坛-意甲",
"channelNameSummary" : "国际足坛-意甲",
"channelUrl" : "http:\/\/sports.sina.com.cn\/global\/index.shtml",
"author" : "WWW.SINA.COM.CN",
"tags" : [],
"desc" : "",
"emailed" : False,
"forwarded" : False,
"english" : False
}  , {
"index" : 17,
"articleIndex" : "33931",
"favor" :  False ,
     "read" : False,    
"title" : "尤文PK阿森纳拜仁抢4000万神锋 惊购瓜迪奥拉手下核心",
"titleTip" : "尤文PK阿森纳拜仁抢4000万神锋 惊购瓜迪奥拉手下核心",
"titleSummary" : "尤文PK阿森纳拜仁抢4000万神锋 惊购瓜迪奥拉手下核心",
"descSummary" : "",
"url" : "http:\/\/go.rss.sina.com.cn\/redirect.php?url=http:\/\/sports.sina.com.cn\/g\/seriea\/2013-10-28\/07576854287.shtml",
"pubDate" : "前天07:57:21",
"enterDate" : "384201:05:02",
"channelId" : "5145540878677721832",
"channelName" : "国际足坛-意甲",
"channelNameSummary" : "国际足坛-意甲",
"channelUrl" : "http:\/\/sports.sina.com.cn\/global\/index.shtml",
"author" : "WWW.SINA.COM.CN",
"tags" : [],
"desc" : "",
"emailed" : False,
"forwarded" : False,
"english" : False
}  , {
"index" : 18,
"articleIndex" : "33930",
"favor" :  False ,
     "read" : False,    
"title" : "尤文苦寻世界顶级获英超一神 皮尔洛真走他接旗当核心",
"titleTip" : "尤文苦寻世界顶级获英超一神 皮尔洛真走他接旗当核心",
"titleSummary" : "尤文苦寻世界顶级获英超一神 皮尔洛真走他接旗当核心",
"descSummary" : "",
"url" : "http:\/\/go.rss.sina.com.cn\/redirect.php?url=http:\/\/sports.sina.com.cn\/g\/seriea\/2013-10-28\/07516854282.shtml",
"pubDate" : "前天07:51:09",
"enterDate" : "384200:58:50",
"channelId" : "5145540878677721832",
"channelName" : "国际足坛-意甲",
"channelNameSummary" : "国际足坛-意甲",
"channelUrl" : "http:\/\/sports.sina.com.cn\/global\/index.shtml",
"author" : "WWW.SINA.COM.CN",
"tags" : [],
"desc" : "",
"emailed" : False,
"forwarded" : False,
"english" : False
}  , {
"index" : 19,
"articleIndex" : "33934",
"favor" :  False ,
     "read" : False,    
"title" : "意甲-10人罗马9连胜平纪录 伊瓜因2球那不勒斯胜",
"titleTip" : "意甲-10人罗马9连胜平纪录 伊瓜因2球那不勒斯胜",
"titleSummary" : "意甲-10人罗马9连胜平纪录 伊瓜因2球那不勒斯胜",
"descSummary" : "",
"url" : "http:\/\/go.rss.sina.com.cn\/redirect.php?url=http:\/\/sports.sina.com.cn\/g\/seriea\/2013-10-27\/23556853624.shtml",
"pubDate" : "2013年10月27日 (3天前)",
"enterDate" : "384192:02:58",
"channelId" : "5145540878677721832",
"channelName" : "国际足坛-意甲",
"channelNameSummary" : "国际足坛-意甲",
"channelUrl" : "http:\/\/sports.sina.com.cn\/global\/index.shtml",
"author" : "WWW.SINA.COM.CN",
"tags" : [],
"desc" : "",
"emailed" : False,
"forwarded" : False,
"english" : False
} ]
}
