{
"mode" : {"viewTitle" : 1,   "viewNew" : 0,  "pageIndex" : 1 },
 "channel" : {"id" : "6093935285404243006", "booked" : False, "subNumber" : 1, "name" : "北京房产-购房指导", "url" : "http:\/\/bj.house.sina.com.cn\/scan\/daogou\/index.html", "feed" : "http:\/\/rss.sina.com.cn\/bjhouse\/scan\/daogou.xml", "author" : "WWW.SINA.COM.CN", "desc" : "北京房产-购房指导", "imageUrl" : "http:\/\/www.sinaimg.cn\/house\/sina_fc.gif", "postPerWeek" : "0", "lastCrawTime" : "2013年10月19日 (1周前)", "crawDateTime" : "2013年1月10日", "lastHttpCode" : "304"}, "page" : {
"startIndex" : 0,
"totalCount" : 5000,
"pageIndex" : 1,
"lastPage" : 250,
"pageSize" : 20,
"english" :  False },
 "unreadNum" : 0, "shotIndex" : -1,
"articles" : [
{
"index" : 0,
"articleIndex" : "13367",
"favor" :  False ,
     "read" : False,    
"title" : "朝阳远洋一方预2013年加推140平起3-4居(图)",
"titleTip" : "朝阳远洋一方预2013年加推140平起3-4居(图)",
"titleSummary" : "朝阳远洋一方预2013年加推140平起3-4居(图)",
"descSummary" : "新浪乐居讯(编辑 刘楠)远洋一方(论坛 相册 户型 样板间 点评...",
"url" : "http:\/\/go.rss.sina.com.cn\/redirect.php?url=http:\/\/house.sina.com.cn\/scan\/2012-12-31\/2124427127.shtml?source=rss",
"pubDate" : "2012年12月31日",
"enterDate" : "384200:57:13",
"channelId" : "6093935285404243006",
"channelName" : "北京房产-购房指导",
"channelNameSummary" : "北京房产-购房指导",
"channelUrl" : "http:\/\/bj.house.sina.com.cn\/scan\/daogou\/index.html",
"author" : "WWW.SINA.COM.CN",
"tags" : [],
"desc" : "新浪乐居讯(编辑 刘楠)远洋一方(论坛 相册 户型 样板间 点评 地图搜索)项目在售三期房源，户型面积为140平米三居，170平米四居和240平米跃层结构，现已售罄。目前仅剩114平米尾房在售，均价为23000-24000元\/平米，项目为现房，预计2013年推出新房源。项目内部情况为毛坯，70年....",
"emailed" : False,
"forwarded" : False,
"english" : False
}  , {
"index" : 1,
"articleIndex" : "13366",
"favor" :  False ,
     "read" : False,    
"title" : "燕郊现代幸福城推98-140平2-3居(图)",
"titleTip" : "燕郊现代幸福城推98-140平2-3居(图)",
"titleSummary" : "燕郊现代幸福城推98-140平2-3居(图)",
"descSummary" : "新浪乐居讯(编辑 刘楠)现代幸福城(论坛 相册 户型 样板间 点评 地图搜...",
"url" : "http:\/\/go.rss.sina.com.cn\/redirect.php?url=http:\/\/house.sina.com.cn\/scan\/2012-12-31\/2120427126.shtml?source=rss",
"pubDate" : "2012年12月31日",
"enterDate" : "384200:54:01",
"channelId" : "6093935285404243006",
"channelName" : "北京房产-购房指导",
"channelNameSummary" : "北京房产-购房指导",
"channelUrl" : "http:\/\/bj.house.sina.com.cn\/scan\/daogou\/index.html",
"author" : "WWW.SINA.COM.CN",
"tags" : [],
"desc" : "新浪乐居讯(编辑 刘楠)现代幸福城(论坛&#160;相册&#160;户型&#160;样板间&#160;点评&#160;地图搜索)项目尾盘在售，房源为A区20号楼，在售房源户型包括98-101平米两居、101平米三居和120、140平米三居。均价4700元\/平米，最低4620元\/平米，最高4960元\/平米，均价4700元\/平米，....",
"emailed" : False,
"forwarded" : False,
"english" : False
}  , {
"index" : 2,
"articleIndex" : "13365",
"favor" :  False ,
     "read" : False,    
"title" : "燕郊华堂高尔夫庄园推304-450平别墅(图)",
"titleTip" : "燕郊华堂高尔夫庄园推304-450平别墅(图)",
"titleSummary" : "燕郊华堂高尔夫庄园推304-450平别墅(图)",
"descSummary" : "新浪乐居讯(编辑 刘楠)华堂高尔夫庄园(论坛 相册 户型 样板间...",
"url" : "http:\/\/go.rss.sina.com.cn\/redirect.php?url=http:\/\/house.sina.com.cn\/scan\/2012-12-31\/2118427125.shtml?source=rss",
"pubDate" : "2012年12月31日",
"enterDate" : "384200:51:53",
"channelId" : "6093935285404243006",
"channelName" : "北京房产-购房指导",
"channelNameSummary" : "北京房产-购房指导",
"channelUrl" : "http:\/\/bj.house.sina.com.cn\/scan\/daogou\/index.html",
"author" : "WWW.SINA.COM.CN",
"tags" : [],
"desc" : "新浪乐居讯(编辑 刘楠)华堂高尔夫庄园(论坛&#160;相册&#160;户型&#160;样板间&#160;点评&#160;地图搜索)项目在售，房源为联排、独栋别墅，联排304-370平米；独栋420-450平米，均价为15000元\/平方米，413万\/套起，毛坯交房，现房入住，产权70年。现在购买一次性付款可享受9折优....",
"emailed" : False,
"forwarded" : False,
"english" : False
}  , {
"index" : 3,
"articleIndex" : "13364",
"favor" :  False ,
     "read" : False,    
"title" : "燕郊欧逸丽庭待推40-200平1-4居(图)",
"titleTip" : "燕郊欧逸丽庭待推40-200平1-4居(图)",
"titleSummary" : "燕郊欧逸丽庭待推40-200平1-4居(图)",
"descSummary" : "新浪乐居讯(编辑 刘楠)欧逸丽庭(论坛 相册 户型 样板间 点评 地图搜索...",
"url" : "http:\/\/go.rss.sina.com.cn\/redirect.php?url=http:\/\/house.sina.com.cn\/scan\/2012-12-31\/2115427124.shtml?source=rss",
"pubDate" : "2012年12月31日",
"enterDate" : "384200:49:02",
"channelId" : "6093935285404243006",
"channelName" : "北京房产-购房指导",
"channelNameSummary" : "北京房产-购房指导",
"channelUrl" : "http:\/\/bj.house.sina.com.cn\/scan\/daogou\/index.html",
"author" : "WWW.SINA.COM.CN",
"tags" : [],
"desc" : "新浪乐居讯(编辑 刘楠)欧逸丽庭(论坛&#160;相册&#160;户型&#160;样板间&#160;点评&#160;地图搜索)项目待推，现均价待定，户型为40-200平米1-4居，其中一居48平米；两居85\/99\/100\/103平米；三居118 \/146平米；四居室166\/169\/177\/188\/200平米。目前可以登记，项目位于燕郊经济技....",
"emailed" : False,
"forwarded" : False,
"english" : False
}  , {
"index" : 4,
"articleIndex" : "13363",
"favor" :  False ,
     "read" : False,    
"title" : "海南合景汀澜海岸推精装公寓及别墅(图)",
"titleTip" : "海南合景汀澜海岸推精装公寓及别墅(图)",
"titleSummary" : "海南合景汀澜海岸推精装公寓及别墅(图)",
"descSummary" : "新浪乐居讯(编辑 刘楠)合景汀澜海岸(论坛 相册 户型 样板间 点评...",
"url" : "http:\/\/go.rss.sina.com.cn\/redirect.php?url=http:\/\/house.sina.com.cn\/scan\/2012-12-31\/2112427123.shtml?source=rss",
"pubDate" : "2012年12月31日",
"enterDate" : "384200:45:23",
"channelId" : "6093935285404243006",
"channelName" : "北京房产-购房指导",
"channelNameSummary" : "北京房产-购房指导",
"channelUrl" : "http:\/\/bj.house.sina.com.cn\/scan\/daogou\/index.html",
"author" : "WWW.SINA.COM.CN",
"tags" : [],
"desc" : "新浪乐居讯(编辑 刘楠)合景汀澜海岸(论坛 相册 户型 样板间 点评 地图搜索)项目目前在售，主推53-124平米小户型，别墅197-367平米，起价15000元\/平米，均价20000元\/平米，含精装可拎包入住。小区公寓与别墅都外立面已做好，小区景观将近成型，2012年末交第一批毛坯房源，小区....",
"emailed" : False,
"forwarded" : False,
"english" : False
}  , {
"index" : 5,
"articleIndex" : "13362",
"favor" :  False ,
     "read" : False,    
"title" : "海南东方山水绿洲推46-81平1-2居(图)",
"titleTip" : "海南东方山水绿洲推46-81平1-2居(图)",
"titleSummary" : "海南东方山水绿洲推46-81平1-2居(图)",
"descSummary" : "新浪乐居讯(编辑 刘楠)东方山水绿洲(论坛 相册 户型 样板间 点评 地...",
"url" : "http:\/\/go.rss.sina.com.cn\/redirect.php?url=http:\/\/house.sina.com.cn\/scan\/2012-12-31\/2109427122.shtml?source=rss",
"pubDate" : "2012年12月31日",
"enterDate" : "384201:12:22",
"channelId" : "6093935285404243006",
"channelName" : "北京房产-购房指导",
"channelNameSummary" : "北京房产-购房指导",
"channelUrl" : "http:\/\/bj.house.sina.com.cn\/scan\/daogou\/index.html",
"author" : "WWW.SINA.COM.CN",
"tags" : [],
"desc" : "新浪乐居讯(编辑 刘楠)东方山水绿洲(论坛 相册 户型 样板间 点评 地图搜索)项目在售，主推46-81平米1-2居小户型公寓，均价4180元\/平方米。项目预计2013年8月入住，毛坯交房，50年产权。 东方山水绿洲位于海南省东方市的东部地区，紧邻东方市主干道东方大道，沿东方大道....",
"emailed" : False,
"forwarded" : False,
"english" : False
}  , {
"index" : 6,
"articleIndex" : "13361",
"favor" :  False ,
     "read" : False,    
"title" : "昌平玫瑰产业基地推精装公寓38万起(图)",
"titleTip" : "昌平玫瑰产业基地推精装公寓38万起(图)",
"titleSummary" : "昌平玫瑰产业基地推精装公寓38万起(图)",
"descSummary" : "新浪乐居讯(编辑 刘楠)玫瑰产业基地(论坛 相册 户型 样板间 点评...",
"url" : "http:\/\/go.rss.sina.com.cn\/redirect.php?url=http:\/\/house.sina.com.cn\/scan\/2012-12-31\/2105427121.shtml?source=rss",
"pubDate" : "2012年12月31日",
"enterDate" : "384201:08:29",
"channelId" : "6093935285404243006",
"channelName" : "北京房产-购房指导",
"channelNameSummary" : "北京房产-购房指导",
"channelUrl" : "http:\/\/bj.house.sina.com.cn\/scan\/daogou\/index.html",
"author" : "WWW.SINA.COM.CN",
"tags" : [],
"desc" : "新浪乐居讯(编辑 刘楠)玫瑰产业基地(论坛 相册 户型 样板间 点评 地图搜索)项目在售精装修温泉酒店，户型面积为47-180平米。装修标准为四星级酒店式装修，总价38万起\/套，需一次性付款。 玫瑰产业基地西至八达岭高速、北至北六环、东至京承高速、立汤路、机场北线周围....",
"emailed" : False,
"forwarded" : False,
"english" : False
}  , {
"index" : 7,
"articleIndex" : "13360",
"favor" :  False ,
     "read" : False,    
"title" : "延庆观澜国际公寓售55-135平1-3居(图)",
"titleTip" : "延庆观澜国际公寓售55-135平1-3居(图)",
"titleSummary" : "延庆观澜国际公寓售55-135平1-3居(图)",
"descSummary" : "新浪乐居讯(编辑 刘楠)观澜国际公寓(论坛 相册 户型 样板间 点评 地...",
"url" : "http:\/\/go.rss.sina.com.cn\/redirect.php?url=http:\/\/house.sina.com.cn\/scan\/2012-12-31\/2100427120.shtml?source=rss",
"pubDate" : "2012年12月31日",
"enterDate" : "384201:04:04",
"channelId" : "6093935285404243006",
"channelName" : "北京房产-购房指导",
"channelNameSummary" : "北京房产-购房指导",
"channelUrl" : "http:\/\/bj.house.sina.com.cn\/scan\/daogou\/index.html",
"author" : "WWW.SINA.COM.CN",
"tags" : [],
"desc" : "新浪乐居讯(编辑 刘楠)观澜国际公寓(论坛 相册 户型 样板间 点评 地图搜索)项目在售55平米一居，84平米两居及135平米三居，起价为11000元\/平米。项目推出319户房源，内部装修为简装，现房入住。购房一次性付款可享97折，银行按揭享98折。 观澜国际公寓位于延庆县八达岭....",
"emailed" : False,
"forwarded" : False,
"english" : False
}  , {
"index" : 8,
"articleIndex" : "13359",
"favor" :  False ,
     "read" : False,    
"title" : "延庆辉煌云上推300-600平独栋别墅(图)",
"titleTip" : "延庆辉煌云上推300-600平独栋别墅(图)",
"titleSummary" : "延庆辉煌云上推300-600平独栋别墅(图)",
"descSummary" : "新浪乐居讯(编辑 刘楠)辉煌云上(论坛 相册 户型 样板间 点评 地图...",
"url" : "http:\/\/go.rss.sina.com.cn\/redirect.php?url=http:\/\/house.sina.com.cn\/scan\/2012-12-31\/2058427119.shtml?source=rss",
"pubDate" : "2012年12月31日",
"enterDate" : "384201:01:37",
"channelId" : "6093935285404243006",
"channelName" : "北京房产-购房指导",
"channelNameSummary" : "北京房产-购房指导",
"channelUrl" : "http:\/\/bj.house.sina.com.cn\/scan\/daogou\/index.html",
"author" : "WWW.SINA.COM.CN",
"tags" : [],
"desc" : "新浪乐居讯(编辑 刘楠)辉煌云上(论坛 相册 户型 样板间 点评 地图搜索)项目在售，房源为一期私人会所式独栋别墅，主力户型为300-600平米独栋别墅，均价18000元\/平米，物业费6.6元\/平米\/月。现房入住，交房标准为毛坯，40年产权。目前购房可享价值46万元高尔夫终生会员卡，一次....",
"emailed" : False,
"forwarded" : False,
"english" : False
}  , {
"index" : 9,
"articleIndex" : "13358",
"favor" :  False ,
     "read" : False,    
"title" : "延庆清凉盛景推258平起独栋赠送花园(图)",
"titleTip" : "延庆清凉盛景推258平起独栋赠送花园(图)",
"titleSummary" : "延庆清凉盛景推258平起独栋赠送花园(图)",
"descSummary" : "新浪乐居讯(编辑 刘楠)清凉盛景(论坛 相册 户型 样板间 点评 地...",
"url" : "http:\/\/go.rss.sina.com.cn\/redirect.php?url=http:\/\/house.sina.com.cn\/scan\/2012-12-31\/2056427118.shtml?source=rss",
"pubDate" : "2012年12月31日",
"enterDate" : "384200:59:43",
"channelId" : "6093935285404243006",
"channelName" : "北京房产-购房指导",
"channelNameSummary" : "北京房产-购房指导",
"channelUrl" : "http:\/\/bj.house.sina.com.cn\/scan\/daogou\/index.html",
"author" : "WWW.SINA.COM.CN",
"tags" : [],
"desc" : "新浪乐居讯(编辑 刘楠)清凉盛景(论坛 相册 户型 样板间 点评 地图搜索)项目在售，房源为258-350平米独栋别墅，均价为26000元\/平米。项目内部装修为毛坯，项目入住提供车库，赠送600-1000平米私家花园。 清凉盛景占地1200亩，约合80万平方米，其中的建设用地为800亩，山....",
"emailed" : False,
"forwarded" : False,
"english" : False
}  , {
"index" : 10,
"articleIndex" : "13357",
"favor" :  False ,
     "read" : False,    
"title" : "延庆融景美庐推精装60-70平复式及两居(图)",
"titleTip" : "延庆融景美庐推精装60-70平复式及两居(图)",
"titleSummary" : "延庆融景美庐推精装60-70平复式及两居(图)",
"descSummary" : "新浪乐居讯(编辑 刘楠)融景美庐(论坛 相册 户型 样板间 点评...",
"url" : "http:\/\/go.rss.sina.com.cn\/redirect.php?url=http:\/\/house.sina.com.cn\/scan\/2012-12-31\/2054427109.shtml?source=rss",
"pubDate" : "2012年12月31日",
"enterDate" : "384200:57:37",
"channelId" : "6093935285404243006",
"channelName" : "北京房产-购房指导",
"channelNameSummary" : "北京房产-购房指导",
"channelUrl" : "http:\/\/bj.house.sina.com.cn\/scan\/daogou\/index.html",
"author" : "WWW.SINA.COM.CN",
"tags" : [],
"desc" : "新浪乐居讯(编辑 刘楠)融景美庐(论坛 相册 户型 样板间 点评 地图搜索)项目在售，房源为1-5号楼，均价8100元\/平米，主力户型为60-70平米复式及100平米两居。项目内部情况为精装修，40年产权，入住时间预计为2013年5月31日，项目位于延庆县妫水南街8号。 融景美庐所 在....",
"emailed" : False,
"forwarded" : False,
"english" : False
}  , {
"index" : 11,
"articleIndex" : "13356",
"favor" :  False ,
     "read" : False,    
"title" : "延庆上都首府推89平起2-4居均价12100(图)",
"titleTip" : "延庆上都首府推89平起2-4居均价12100(图)",
"titleSummary" : "延庆上都首府推89平起2-4居均价12100(图)",
"descSummary" : "新浪乐居讯(编辑 刘楠)上都首府(论坛 相册 户型 样板间 点评 地...",
"url" : "http:\/\/go.rss.sina.com.cn\/redirect.php?url=http:\/\/house.sina.com.cn\/scan\/2012-12-31\/2050427108.shtml?source=rss",
"pubDate" : "2012年12月31日",
"enterDate" : "384200:53:50",
"channelId" : "6093935285404243006",
"channelName" : "北京房产-购房指导",
"channelNameSummary" : "北京房产-购房指导",
"channelUrl" : "http:\/\/bj.house.sina.com.cn\/scan\/daogou\/index.html",
"author" : "WWW.SINA.COM.CN",
"tags" : [],
"desc" : "新浪乐居讯(编辑 刘楠)上都首府(论坛 相册 户型 样板间 点评 地图搜索)项目在售，房源为1-6号楼，均价为12100元\/平米，房源户型为89平米两居，154平米三居及225平米大四居，物业费2.85元\/平米\/月。内部情况为简装，现房入住。项目位于延庆区妫水街南菜园环岛西南侧。 ....",
"emailed" : False,
"forwarded" : False,
"english" : False
}  , {
"index" : 12,
"articleIndex" : "13355",
"favor" :  False ,
     "read" : False,    
"title" : "延庆原乡美利坚推178平起独栋330万起(图)",
"titleTip" : "延庆原乡美利坚推178平起独栋330万起(图)",
"titleSummary" : "延庆原乡美利坚推178平起独栋330万起(图)",
"descSummary" : "新浪乐居讯(编辑 刘楠)原乡美利坚(论坛 相册 户型 样板间 点评...",
"url" : "http:\/\/go.rss.sina.com.cn\/redirect.php?url=http:\/\/house.sina.com.cn\/scan\/2012-12-31\/2048427106.shtml?source=rss",
"pubDate" : "2012年12月31日",
"enterDate" : "384200:51:59",
"channelId" : "6093935285404243006",
"channelName" : "北京房产-购房指导",
"channelNameSummary" : "北京房产-购房指导",
"channelUrl" : "http:\/\/bj.house.sina.com.cn\/scan\/daogou\/index.html",
"author" : "WWW.SINA.COM.CN",
"tags" : [],
"desc" : "新浪乐居讯(编辑 刘楠)原乡美利坚(论坛 相册 户型 样板间 点评 地图搜索)项目在售，房源为三期独栋别墅，面积为178-318平米，总价330万\/套起。项目内部为精装修，预计2013年4月交房，一次性付款可享98折优惠，项目位于延庆县古崖居西侧。 原乡美利坚位于延庆古崖居西侧....",
"emailed" : False,
"forwarded" : False,
"english" : False
}  , {
"index" : 13,
"articleIndex" : "13354",
"favor" :  False ,
     "read" : False,    
"title" : "平谷首城汇景推90平起2-3居住宅及别墅(图)",
"titleTip" : "平谷首城汇景推90平起2-3居住宅及别墅(图)",
"titleSummary" : "平谷首城汇景推90平起2-3居住宅及别墅(图)",
"descSummary" : "新浪乐居讯(编辑 刘楠)首城汇景湾(论坛 相册 户型 样板间 点...",
"url" : "http:\/\/go.rss.sina.com.cn\/redirect.php?url=http:\/\/house.sina.com.cn\/scan\/2012-12-31\/2045427105.shtml?source=rss",
"pubDate" : "2012年12月31日",
"enterDate" : "384200:48:54",
"channelId" : "6093935285404243006",
"channelName" : "北京房产-购房指导",
"channelNameSummary" : "北京房产-购房指导",
"channelUrl" : "http:\/\/bj.house.sina.com.cn\/scan\/daogou\/index.html",
"author" : "WWW.SINA.COM.CN",
"tags" : [],
"desc" : "新浪乐居讯(编辑 刘楠)首城汇景湾(论坛 相册 户型 样板间 点评 地图搜索)项目待推，现价格及优惠政策待定。主力户型为90平米两居、130、150平米三居、230、260平米双拼、联排别墅，项目位于马坊镇京平高速打铁庄收费站南。 首城汇景湾项目地块临近万亩森林公园及滨河公....",
"emailed" : False,
"forwarded" : False,
"english" : False
}  , {
"index" : 14,
"articleIndex" : "13353",
"favor" :  False ,
     "read" : False,    
"title" : "平谷天润香墅湾1号推100-180平2-3居(图)",
"titleTip" : "平谷天润香墅湾1号推100-180平2-3居(图)",
"titleSummary" : "平谷天润香墅湾1号推100-180平2-3居(图)",
"descSummary" : "新浪乐居讯(编辑 刘楠)天润・香墅湾1号(论坛 相册 户型 样板间...",
"url" : "http:\/\/go.rss.sina.com.cn\/redirect.php?url=http:\/\/house.sina.com.cn\/scan\/2012-12-31\/2041427104.shtml?source=rss",
"pubDate" : "2012年12月31日",
"enterDate" : "384200:44:44",
"channelId" : "6093935285404243006",
"channelName" : "北京房产-购房指导",
"channelNameSummary" : "北京房产-购房指导",
"channelUrl" : "http:\/\/bj.house.sina.com.cn\/scan\/daogou\/index.html",
"author" : "WWW.SINA.COM.CN",
"tags" : [],
"desc" : "新浪乐居讯(编辑 刘楠)天润・香墅湾1号(论坛 相册 户型 样板间 点评 地图搜索)项目在售，一期主推高层房源，户型面积为100-180平2-3居，折后均价20000-25000元\/平米。项目内部为毛坯，带地暖，预计2014年4月底入住。项目位于平谷区岳各庄大桥西南角洳河西畔。 天润・香....",
"emailed" : False,
"forwarded" : False,
"english" : False
}  , {
"index" : 15,
"articleIndex" : "13352",
"favor" :  False ,
     "read" : False,    
"title" : "燕郊首尔甜城推82-119平2-3居(图)",
"titleTip" : "燕郊首尔甜城推82-119平2-3居(图)",
"titleSummary" : "燕郊首尔甜城推82-119平2-3居(图)",
"descSummary" : "新浪乐居讯(编辑 刘楠)首尔・甜城(论坛 相册 户型 样板间 点评 地图搜索...",
"url" : "http:\/\/go.rss.sina.com.cn\/redirect.php?url=http:\/\/house.sina.com.cn\/scan\/2012-12-31\/2037427103.shtml?source=rss",
"pubDate" : "2012年12月31日",
"enterDate" : "384201:10:26",
"channelId" : "6093935285404243006",
"channelName" : "北京房产-购房指导",
"channelNameSummary" : "北京房产-购房指导",
"channelUrl" : "http:\/\/bj.house.sina.com.cn\/scan\/daogou\/index.html",
"author" : "WWW.SINA.COM.CN",
"tags" : [],
"desc" : "新浪乐居讯(编辑 刘楠)首尔・甜城(论坛 相册 户型 样板间 点评 地图搜索)项目首期开盘，排号开盘当日可享多重万元优惠。首期推出住宅、公寓和商住三种房源，通透薄板，一期销售的都是住宅项 目，具体为B4、B5、B6、B7座。户型为南北通透及全朝南，主推82-86平米两居，68万\/套....",
"emailed" : False,
"forwarded" : False,
"english" : False
}  , {
"index" : 16,
"articleIndex" : "13351",
"favor" :  False ,
     "read" : False,    
"title" : "燕郊温泉丽都推57-110平1-3居(图)",
"titleTip" : "燕郊温泉丽都推57-110平1-3居(图)",
"titleSummary" : "燕郊温泉丽都推57-110平1-3居(图)",
"descSummary" : "新浪乐居讯(编辑 刘楠)温泉丽都(论坛 相册 户型 样板间 点评 地图搜索)...",
"url" : "http:\/\/go.rss.sina.com.cn\/redirect.php?url=http:\/\/house.sina.com.cn\/scan\/2012-12-31\/2032427102.shtml?source=rss",
"pubDate" : "2012年12月31日",
"enterDate" : "384201:05:24",
"channelId" : "6093935285404243006",
"channelName" : "北京房产-购房指导",
"channelNameSummary" : "北京房产-购房指导",
"channelUrl" : "http:\/\/bj.house.sina.com.cn\/scan\/daogou\/index.html",
"author" : "WWW.SINA.COM.CN",
"tags" : [],
"desc" : "新浪乐居讯(编辑 刘楠)温泉丽都(论坛 相册 户型 样板间 点评 地图搜索)项目在售，主推57-105平米一居，一居室为SOHO类型，78平米二居，110平米三居，均价4800元\/平米。SOHO预计2012下半年开盘，预 计均价4400元\/平米。项目规划总占地面积7.5万平方米，总建筑面积近18万平方米....",
"emailed" : False,
"forwarded" : False,
"english" : False
}  , {
"index" : 17,
"articleIndex" : "13350",
"favor" :  False ,
     "read" : False,    
"title" : "燕郊@北京在售70平米两居(图)",
"titleTip" : "燕郊@北京在售70平米两居(图)",
"titleSummary" : "燕郊@北京在售70平米两居(图)",
"descSummary" : "新浪乐居讯(编辑 刘楠)@北京(论坛 相册 户型 样板间 点评 地图搜索)项目...",
"url" : "http:\/\/go.rss.sina.com.cn\/redirect.php?url=http:\/\/house.sina.com.cn\/scan\/2012-12-31\/2029427101.shtml?source=rss",
"pubDate" : "2012年12月31日",
"enterDate" : "384201:02:42",
"channelId" : "6093935285404243006",
"channelName" : "北京房产-购房指导",
"channelNameSummary" : "北京房产-购房指导",
"channelUrl" : "http:\/\/bj.house.sina.com.cn\/scan\/daogou\/index.html",
"author" : "WWW.SINA.COM.CN",
"tags" : [],
"desc" : "新浪乐居讯(编辑 刘楠)@北京(论坛 相册 户型 样板间 点评 地图搜索)项目在售，房源为70平米两居，均价8500元\/平米，物业费2元\/平米\/月。@北京位于燕郊区中心位置，交房状态为毛坯，预计2013年10月交付使用。项目位于燕郊城区中心位置，燕郊火车站对面，行宫东大街与汉王路交汇....",
"emailed" : False,
"forwarded" : False,
"english" : False
}  , {
"index" : 18,
"articleIndex" : "13349",
"favor" :  False ,
     "read" : False,    
"title" : "廊坊北京青果推44平起0-3居(图)",
"titleTip" : "廊坊北京青果推44平起0-3居(图)",
"titleSummary" : "廊坊北京青果推44平起0-3居(图)",
"descSummary" : "新浪乐居讯(编辑 刘楠)北京青果(论坛 相册 户型 样板间 点评 地图搜索)...",
"url" : "http:\/\/go.rss.sina.com.cn\/redirect.php?url=http:\/\/house.sina.com.cn\/scan\/2012-12-31\/2026427100.shtml?source=rss",
"pubDate" : "2012年12月31日",
"enterDate" : "384201:00:14",
"channelId" : "6093935285404243006",
"channelName" : "北京房产-购房指导",
"channelNameSummary" : "北京房产-购房指导",
"channelUrl" : "http:\/\/bj.house.sina.com.cn\/scan\/daogou\/index.html",
"author" : "WWW.SINA.COM.CN",
"tags" : [],
"desc" : "新浪乐居讯(编辑 刘楠)北京青果(论坛 相册 户型 样板间 点评 地图搜索)项目在售，排号可享5000元优惠，项目共计10种房源面积出售，包含44-130平米0-3居，参考价格待定。项目为毛坯交房，70年大产权，预计2013年10月中旬交付使用。项目位于京东102国道北，国际渔具城东300米。....",
"emailed" : False,
"forwarded" : False,
"english" : False
}  , {
"index" : 19,
"articleIndex" : "13348",
"favor" :  False ,
     "read" : False,    
"title" : "廊坊华夏第九园洋房及复式房源全款95折(图)",
"titleTip" : "廊坊华夏第九园洋房及复式房源全款95折(图)",
"titleSummary" : "廊坊华夏第九园洋房及复式房源全款95折(图)",
"descSummary" : "新浪乐居讯(编辑 季善云)华夏第九园・兰亭(论坛 相册 户型 ...",
"url" : "http:\/\/go.rss.sina.com.cn\/redirect.php?url=http:\/\/house.sina.com.cn\/scan\/2012-12-31\/1823427098.shtml?source=rss",
"pubDate" : "2012年12月31日",
"enterDate" : "384200:57:21",
"channelId" : "6093935285404243006",
"channelName" : "北京房产-购房指导",
"channelNameSummary" : "北京房产-购房指导",
"channelUrl" : "http:\/\/bj.house.sina.com.cn\/scan\/daogou\/index.html",
"author" : "WWW.SINA.COM.CN",
"tags" : [],
"desc" : "新浪乐居讯(编辑 季善云)华夏第九园・兰亭(论坛&#160;相册&#160;户型&#160;样板间&#160;点评&#160;地图搜索) 目前二期2-4号楼为塔楼住宅，5-7号楼为洋房，洋房首层送小院，顶层为复式。项目在售剩余两套花园洋房，208平米顶层复式，住宅均价6800元\/平 米，洋房价格11000元....",
"emailed" : False,
"forwarded" : False,
"english" : False
} ]
}
