{
"mode" : {"viewTitle" : 1,   "viewNew" : 0,  "pageIndex" : 2 },
 "channel" : {"id" : "6093935285404243006", "booked" : False, "subNumber" : 1, "name" : "北京房产-购房指导", "url" : "http:\/\/bj.house.sina.com.cn\/scan\/daogou\/index.html", "feed" : "http:\/\/rss.sina.com.cn\/bjhouse\/scan\/daogou.xml", "author" : "WWW.SINA.COM.CN", "desc" : "北京房产-购房指导", "imageUrl" : "http:\/\/www.sinaimg.cn\/house\/sina_fc.gif", "postPerWeek" : "0", "lastCrawTime" : "2013年10月19日 (1周前)", "crawDateTime" : "2013年1月10日", "lastHttpCode" : "304"}, "page" : {
"startIndex" : 20,
"totalCount" : 5000,
"pageIndex" : 2,
"lastPage" : 250,
"pageSize" : 20,
"english" :  False },
 "unreadNum" : 0, "shotIndex" : -1,
"articles" : [
{
"index" : 0,
"articleIndex" : "13347",
"favor" :  False ,
     "read" : False,    
"title" : "涞水华银天鹅湖别墅及洋房总价40万起(图)",
"titleTip" : "涞水华银天鹅湖别墅及洋房总价40万起(图)",
"titleSummary" : "涞水华银天鹅湖别墅及洋房总价40万起(图)",
"descSummary" : "新浪乐居讯(编辑 季善云)华银城・天鹅湖山水生态卫星城(论坛...",
"url" : "http:\/\/go.rss.sina.com.cn\/redirect.php?url=http:\/\/house.sina.com.cn\/scan\/2012-12-31\/1820427097.shtml?source=rss",
"pubDate" : "2012年12月31日",
"enterDate" : "384200:53:56",
"channelId" : "6093935285404243006",
"channelName" : "北京房产-购房指导",
"channelNameSummary" : "北京房产-购房指导",
"channelUrl" : "http:\/\/bj.house.sina.com.cn\/scan\/daogou\/index.html",
"author" : "WWW.SINA.COM.CN",
"tags" : [],
"desc" : "新浪乐居讯(编辑 季善云)华银城・天鹅湖山水生态卫星城(论坛 相册 户型 样板间 点评 地图搜索)目前天鹅湖有金海岸、金峪谷部分产品在售，产品包含联排、洋房、HOLI公馆等，户型面积40-500平米左右，总价从30-1000万左右。项目位于房山区张坊镇西行2公里。西山系列西山廊桥首期....",
"emailed" : False,
"forwarded" : False,
"english" : False
}  , {
"index" : 1,
"articleIndex" : "13346",
"favor" :  False ,
     "read" : False,    
"title" : "张家口黄帝城小镇220-300平独栋现房180万起(图)",
"titleTip" : "张家口黄帝城小镇220-300平独栋现房180万起(图)",
"titleSummary" : "张家口黄帝城小镇220-300平独栋现房180万起(图)",
"descSummary" : "新浪乐居讯(编辑 季善云)黄帝城小镇(论坛 相册 户型 样...",
"url" : "http:\/\/go.rss.sina.com.cn\/redirect.php?url=http:\/\/house.sina.com.cn\/scan\/2012-12-31\/1817427096.shtml?source=rss",
"pubDate" : "2012年12月31日",
"enterDate" : "384200:51:49",
"channelId" : "6093935285404243006",
"channelName" : "北京房产-购房指导",
"channelNameSummary" : "北京房产-购房指导",
"channelUrl" : "http:\/\/bj.house.sina.com.cn\/scan\/daogou\/index.html",
"author" : "WWW.SINA.COM.CN",
"tags" : [],
"desc" : "新浪乐居讯(编辑 季善云)黄帝城小镇(论坛&#160;相册&#160;户型&#160;样板间&#160;点评&#160;地图搜索)项目独栋别墅现房在售，户型面积为220-300平米，送将近1000平米庭院。均价8000元\/平米，起价180万元\/套，全款可享97折优惠。毛坯交房，70年产权。 黄帝城小镇项目为....",
"emailed" : False,
"forwarded" : False,
"english" : False
}  , {
"index" : 2,
"articleIndex" : "13345",
"favor" :  False ,
     "read" : False,    
"title" : "廊坊嘉都TIME1-4居毛坯房起价6300(图)",
"titleTip" : "廊坊嘉都TIME1-4居毛坯房起价6300(图)",
"titleSummary" : "廊坊嘉都TIME1-4居毛坯房起价6300(图)",
"descSummary" : "新浪乐居讯(编辑 季善云)嘉都TIME(论坛 相册 户型 样板间 点评 ...",
"url" : "http:\/\/go.rss.sina.com.cn\/redirect.php?url=http:\/\/house.sina.com.cn\/scan\/2012-12-31\/1816427095.shtml?source=rss",
"pubDate" : "2012年12月31日",
"enterDate" : "384200:49:51",
"channelId" : "6093935285404243006",
"channelName" : "北京房产-购房指导",
"channelNameSummary" : "北京房产-购房指导",
"channelUrl" : "http:\/\/bj.house.sina.com.cn\/scan\/daogou\/index.html",
"author" : "WWW.SINA.COM.CN",
"tags" : [],
"desc" : "新浪乐居讯(编辑 季善云)嘉都TIME(论坛 相册 户型 样板间 点评 地图搜索)项目位于廊坊市广阳道董村商业街。项目房源为24层板塔结合楼，1梯2户、2梯4户。目前1、2、3、4、6号楼在售，户型面积为42-44平米一居，82-94平二居，113-168平米三 居，215平米四居，起价6300元\/平米....",
"emailed" : False,
"forwarded" : False,
"english" : False
}  , {
"index" : 3,
"articleIndex" : "13344",
"favor" :  False ,
     "read" : False,    
"title" : "秦皇岛金海戴河首岭60-120平精装公寓在售(图)",
"titleTip" : "秦皇岛金海戴河首岭60-120平精装公寓在售(图)",
"titleSummary" : "秦皇岛金海戴河首岭60-120平精装公寓在售(图)",
"descSummary" : "新浪乐居讯(编辑 季善云)金海戴河首岭(论坛 相册 户型 样...",
"url" : "http:\/\/go.rss.sina.com.cn\/redirect.php?url=http:\/\/house.sina.com.cn\/scan\/2012-12-31\/1813427093.shtml?source=rss",
"pubDate" : "2012年12月31日",
"enterDate" : "384200:47:27",
"channelId" : "6093935285404243006",
"channelName" : "北京房产-购房指导",
"channelNameSummary" : "北京房产-购房指导",
"channelUrl" : "http:\/\/bj.house.sina.com.cn\/scan\/daogou\/index.html",
"author" : "WWW.SINA.COM.CN",
"tags" : [],
"desc" : "新浪乐居讯(编辑 季善云)金海戴河首岭(论坛&#160;相册&#160;户型&#160;样板间&#160;点评&#160;地图搜索)项目一期酒店式公寓在售，户型为60平米标间和120平米套房；均价13000元\/平米，现房，二期均价9000元\/平米。目前购房可享受全款99折优惠，精装修送家电。 金海戴河....",
"emailed" : False,
"forwarded" : False,
"english" : False
}  , {
"index" : 4,
"articleIndex" : "13343",
"favor" :  False ,
     "read" : False,    
"title" : "承德金山岭和庄洋房及别墅现房9折优惠(图)",
"titleTip" : "承德金山岭和庄洋房及别墅现房9折优惠(图)",
"titleSummary" : "承德金山岭和庄洋房及别墅现房9折优惠(图)",
"descSummary" : "新浪乐居讯(编辑 季善云)金山岭和庄(论坛 相册 户型 样板间...",
"url" : "http:\/\/go.rss.sina.com.cn\/redirect.php?url=http:\/\/house.sina.com.cn\/scan\/2012-12-31\/1811427092.shtml?source=rss",
"pubDate" : "2012年12月31日",
"enterDate" : "384200:44:51",
"channelId" : "6093935285404243006",
"channelName" : "北京房产-购房指导",
"channelNameSummary" : "北京房产-购房指导",
"channelUrl" : "http:\/\/bj.house.sina.com.cn\/scan\/daogou\/index.html",
"author" : "WWW.SINA.COM.CN",
"tags" : [],
"desc" : "新浪乐居讯(编辑 季善云)金山岭和庄(论坛&#160;相册&#160;户型&#160;样板间&#160;点评&#160;地图搜索)项目全部为现房在售，70年产权。目前三期在售，房源户型为联排240-260平米，花园洋房134-200平米，花墅106-156平米，均为毛坯交房。洋房均价4900元\/平米，花墅均价6000元\/平....",
"emailed" : False,
"forwarded" : False,
"english" : False
}  , {
"index" : 5,
"articleIndex" : "13342",
"favor" :  False ,
     "read" : False,    
"title" : "涿州金竹首府79平起2-3居现房每平减200(图)",
"titleTip" : "涿州金竹首府79平起2-3居现房每平减200(图)",
"titleSummary" : "涿州金竹首府79平起2-3居现房每平减200(图)",
"descSummary" : "新浪乐居讯(编辑 季善云)金竹首府(论坛 相册 户型 样板间 点...",
"url" : "http:\/\/go.rss.sina.com.cn\/redirect.php?url=http:\/\/house.sina.com.cn\/scan\/2012-12-31\/1808427091.shtml?source=rss",
"pubDate" : "2012年12月31日",
"enterDate" : "384201:12:28",
"channelId" : "6093935285404243006",
"channelName" : "北京房产-购房指导",
"channelNameSummary" : "北京房产-购房指导",
"channelUrl" : "http:\/\/bj.house.sina.com.cn\/scan\/daogou\/index.html",
"author" : "WWW.SINA.COM.CN",
"tags" : [],
"desc" : "新浪乐居讯(编辑 季善云)金竹首府(论坛&#160;相册&#160;户型&#160;样板间&#160;点评&#160;地图搜索)项目为70年产权，2012年12月交房，毛坯。项目位于涿州市范阳东路天下第一州牌楼南侧。项目目前二期在售，均价7300元\/平米，目前购房享受全款每平米减200元，贷款每平米减150元....",
"emailed" : False,
"forwarded" : False,
"english" : False
}  , {
"index" : 6,
"articleIndex" : "13341",
"favor" :  False ,
     "read" : False,    
"title" : "香河京东新城54平起1-3居准现房均价4800(图)",
"titleTip" : "香河京东新城54平起1-3居准现房均价4800(图)",
"titleSummary" : "香河京东新城54平起1-3居准现房均价4800(图)",
"descSummary" : "新浪乐居讯(编辑 季善云)京东新城(论坛 相册 户型 样板间...",
"url" : "http:\/\/go.rss.sina.com.cn\/redirect.php?url=http:\/\/house.sina.com.cn\/scan\/2012-12-31\/1806427090.shtml?source=rss",
"pubDate" : "2012年12月31日",
"enterDate" : "384201:10:23",
"channelId" : "6093935285404243006",
"channelName" : "北京房产-购房指导",
"channelNameSummary" : "北京房产-购房指导",
"channelUrl" : "http:\/\/bj.house.sina.com.cn\/scan\/daogou\/index.html",
"author" : "WWW.SINA.COM.CN",
"tags" : [],
"desc" : "新浪乐居讯(编辑 季善云)京东新城(论坛&#160;相册&#160;户型&#160;样板间&#160;点评&#160;地图搜索项目在售房源户型面积为54、56平一居米，86平米两居、109、132平米三居。均价4800元\/平米，预计2013年5月入住。毛坯交房，70年产权。 京东新城距离北京国贸40公里，公交....",
"emailed" : False,
"forwarded" : False,
"english" : False
}  , {
"index" : 7,
"articleIndex" : "13340",
"favor" :  False ,
     "read" : False,    
"title" : "香河京汉君庭130平起4居及复式现房起价4100(图)",
"titleTip" : "香河京汉君庭130平起4居及复式现房起价4100(图)",
"titleSummary" : "香河京汉君庭130平起4居及复式现房起价4100(图)",
"descSummary" : "新浪乐居讯(编辑 季善云)京汉君庭(论坛 相册 户型 样板...",
"url" : "http:\/\/go.rss.sina.com.cn\/redirect.php?url=http:\/\/house.sina.com.cn\/scan\/2012-12-31\/1804427089.shtml?source=rss",
"pubDate" : "2012年12月31日",
"enterDate" : "384201:08:04",
"channelId" : "6093935285404243006",
"channelName" : "北京房产-购房指导",
"channelNameSummary" : "北京房产-购房指导",
"channelUrl" : "http:\/\/bj.house.sina.com.cn\/scan\/daogou\/index.html",
"author" : "WWW.SINA.COM.CN",
"tags" : [],
"desc" : "新浪乐居讯(编辑 季善云)京汉君庭(论坛&#160;相册&#160;户型&#160;样板间&#160;点评&#160;地图搜索)项目位于香河秀水大街贵都家具城南侧。现推特价房活动，130-205平米的四居和3-4居复式户型(现房产品)。起价4100元\/平米，均价5500元\/平米，一次性付款享98折，贷款99折优惠。7....",
"emailed" : False,
"forwarded" : False,
"english" : False
}  , {
"index" : 8,
"articleIndex" : "13339",
"favor" :  False ,
     "read" : False,    
"title" : "固安橘洲通透1-3居毛坯现房均价5700(图)",
"titleTip" : "固安橘洲通透1-3居毛坯现房均价5700(图)",
"titleSummary" : "固安橘洲通透1-3居毛坯现房均价5700(图)",
"descSummary" : "新浪乐居讯(编辑 季善云)橘洲(论坛 相册 户型 样板间 点评 地图...",
"url" : "http:\/\/go.rss.sina.com.cn\/redirect.php?url=http:\/\/house.sina.com.cn\/scan\/2012-12-31\/1801427088.shtml?source=rss",
"pubDate" : "2012年12月31日",
"enterDate" : "384201:05:19",
"channelId" : "6093935285404243006",
"channelName" : "北京房产-购房指导",
"channelNameSummary" : "北京房产-购房指导",
"channelUrl" : "http:\/\/bj.house.sina.com.cn\/scan\/daogou\/index.html",
"author" : "WWW.SINA.COM.CN",
"tags" : [],
"desc" : "新浪乐居讯(编辑 季善云)橘洲(论坛 相册 户型 样板间 点评 地图搜索)项目一期和二期均有房源在售，房源户型南北通透，部分南向。一期户型面积为70平米一居，95平米二 居，120-130平米三居，均价5700-6500元\/平米，现房入住；二期户型为50-210平米一居至三居，均价6500元\/平....",
"emailed" : False,
"forwarded" : False,
"english" : False
}  , {
"index" : 9,
"articleIndex" : "13338",
"favor" :  False ,
     "read" : False,    
"title" : "京石高速澜溪庄园独栋临水现房330万起(图)",
"titleTip" : "京石高速澜溪庄园独栋临水现房330万起(图)",
"titleSummary" : "京石高速澜溪庄园独栋临水现房330万起(图)",
"descSummary" : "新浪乐居讯(编辑 季善云)澜溪庄园(论坛 相册 户型 样板间 点...",
"url" : "http:\/\/go.rss.sina.com.cn\/redirect.php?url=http:\/\/house.sina.com.cn\/scan\/2012-12-31\/1754427087.shtml?source=rss",
"pubDate" : "2012年12月31日",
"enterDate" : "384200:58:40",
"channelId" : "6093935285404243006",
"channelName" : "北京房产-购房指导",
"channelNameSummary" : "北京房产-购房指导",
"channelUrl" : "http:\/\/bj.house.sina.com.cn\/scan\/daogou\/index.html",
"author" : "WWW.SINA.COM.CN",
"tags" : [],
"desc" : "新浪乐居讯(编辑 季善云)澜溪庄园(论坛&#160;相册&#160;户型&#160;样板间&#160;点评&#160;地图搜索)项目位于京石高速CCTV涿州影视城对面。项目在售房源为314-403平米现房独栋别墅，阳光双首层，户户临水，送250平米花园，每户赠送一个车库。均价14000元\/平米，总价330万元起\/....",
"emailed" : False,
"forwarded" : False,
"english" : False
}  , {
"index" : 10,
"articleIndex" : "13337",
"favor" :  False ,
     "read" : False,    
"title" : "廊坊万达广场2-3居毛坯现房起价8千(图)",
"titleTip" : "廊坊万达广场2-3居毛坯现房起价8千(图)",
"titleSummary" : "廊坊万达广场2-3居毛坯现房起价8千(图)",
"descSummary" : "新浪乐居讯(编辑 季善云)廊坊万达广场(论坛 相册 户型 样板间 点...",
"url" : "http:\/\/go.rss.sina.com.cn\/redirect.php?url=http:\/\/house.sina.com.cn\/scan\/2012-12-31\/1750427086.shtml?source=rss",
"pubDate" : "2012年12月31日",
"enterDate" : "384200:54:46",
"channelId" : "6093935285404243006",
"channelName" : "北京房产-购房指导",
"channelNameSummary" : "北京房产-购房指导",
"channelUrl" : "http:\/\/bj.house.sina.com.cn\/scan\/daogou\/index.html",
"author" : "WWW.SINA.COM.CN",
"tags" : [],
"desc" : "新浪乐居讯(编辑 季善云)廊坊万达广场(论坛&#160;相册&#160;户型&#160;样板间&#160;点评&#160;地图搜索)项目房源户型为80-130平米二、三居，123、112三居。目前现房在售，房源为6号楼，板塔结合，起价8000元\/平米，均价8500元\/平米。2012年9月底入住，毛坯交房，70年产权。项....",
"emailed" : False,
"forwarded" : False,
"english" : False
}  , {
"index" : 11,
"articleIndex" : "13336",
"favor" :  False ,
     "read" : False,    
"title" : "怀来礼拜日温泉小镇精装修四层公寓98折(图)",
"titleTip" : "怀来礼拜日温泉小镇精装修四层公寓98折(图)",
"titleSummary" : "怀来礼拜日温泉小镇精装修四层公寓98折(图)",
"descSummary" : "新浪乐居讯(编辑 季善云)礼拜日温泉小镇(论坛 相册 户型 样...",
"url" : "http:\/\/go.rss.sina.com.cn\/redirect.php?url=http:\/\/house.sina.com.cn\/scan\/2012-12-31\/1748427081.shtml?source=rss",
"pubDate" : "2012年12月31日",
"enterDate" : "384200:52:01",
"channelId" : "6093935285404243006",
"channelName" : "北京房产-购房指导",
"channelNameSummary" : "北京房产-购房指导",
"channelUrl" : "http:\/\/bj.house.sina.com.cn\/scan\/daogou\/index.html",
"author" : "WWW.SINA.COM.CN",
"tags" : [],
"desc" : "新浪乐居讯(编辑 季善云)礼拜日温泉小镇(论坛 相册 户型 样板间 点评 地图搜索)项目前精装公寓在售，均价6500元\/平米，主力户型面积为40-60平米1居。目前项目只接受全款支付方式，全款98折。项目为4层带电梯洋房，共计620户，2013年10月入住。 礼拜日温泉小镇拥有丰富....",
"emailed" : False,
"forwarded" : False,
"english" : False
}  , {
"index" : 12,
"articleIndex" : "13335",
"favor" :  False ,
     "read" : False,    
"title" : "香河龙盛现代华庭58平起1-3居现房均价5500(图)",
"titleTip" : "香河龙盛现代华庭58平起1-3居现房均价5500(图)",
"titleSummary" : "香河龙盛现代华庭58平起1-3居现房均价5500(图)",
"descSummary" : "新浪乐居讯(编辑 季善云)龙盛・现代华庭(论坛 相册 户型...",
"url" : "http:\/\/go.rss.sina.com.cn\/redirect.php?url=http:\/\/house.sina.com.cn\/scan\/2012-12-31\/1744427080.shtml?source=rss",
"pubDate" : "2012年12月31日",
"enterDate" : "384200:48:10",
"channelId" : "6093935285404243006",
"channelName" : "北京房产-购房指导",
"channelNameSummary" : "北京房产-购房指导",
"channelUrl" : "http:\/\/bj.house.sina.com.cn\/scan\/daogou\/index.html",
"author" : "WWW.SINA.COM.CN",
"tags" : [],
"desc" : "新浪乐居讯(编辑 季善云)龙盛・现代华庭(论坛 相册 户型 样板间 点评 地图搜索)项目房源为3栋板楼，其中1栋为6层板楼，无电梯，3个单元，一梯两户。2栋为11层电梯板楼，3个单元，一梯四户；项目在售户型面积为58-129平方米1-3居，均价5500元\/平米。70年产权，毛坯现房。 ....",
"emailed" : False,
"forwarded" : False,
"english" : False
}  , {
"index" : 13,
"articleIndex" : "13334",
"favor" :  False ,
     "read" : False,    
"title" : "涿州北京院子大面积独栋现房送私家车库(图)",
"titleTip" : "涿州北京院子大面积独栋现房送私家车库(图)",
"titleSummary" : "涿州北京院子大面积独栋现房送私家车库(图)",
"descSummary" : "新浪乐居讯(编辑 季善云)北京院子(论坛 相册 户型 样板间 点...",
"url" : "http:\/\/go.rss.sina.com.cn\/redirect.php?url=http:\/\/house.sina.com.cn\/scan\/2012-12-31\/1644427070.shtml?source=rss",
"pubDate" : "2012年12月31日",
"enterDate" : "384200:48:45",
"channelId" : "6093935285404243006",
"channelName" : "北京房产-购房指导",
"channelNameSummary" : "北京房产-购房指导",
"channelUrl" : "http:\/\/bj.house.sina.com.cn\/scan\/daogou\/index.html",
"author" : "WWW.SINA.COM.CN",
"tags" : [],
"desc" : "新浪乐居讯(编辑 季善云)北京院子(论坛&#160;相册&#160;户型&#160;样板间&#160;点评&#160;地图搜索)项目在售房源为224-750平米独栋别墅，目前在售中式独栋别墅，均价20000元\/平米，送私家院子与车库。具体户型面积如下：A1户型244.33平米；A2户型251.87平米；B1户型 291.13....",
"emailed" : False,
"forwarded" : False,
"english" : False
}  , {
"index" : 14,
"articleIndex" : "13333",
"favor" :  False ,
     "read" : False,    
"title" : "潮白河孔雀庄园240-280平低密住宅在售(图)",
"titleTip" : "潮白河孔雀庄园240-280平低密住宅在售(图)",
"titleSummary" : "潮白河孔雀庄园240-280平低密住宅在售(图)",
"descSummary" : "新浪乐居讯(编辑 季善云)孔雀庄园 (论坛 相册 户型 样板间 点...",
"url" : "http:\/\/go.rss.sina.com.cn\/redirect.php?url=http:\/\/house.sina.com.cn\/scan\/2012-12-31\/1637427068.shtml?source=rss",
"pubDate" : "2012年12月31日",
"enterDate" : "384201:12:05",
"channelId" : "6093935285404243006",
"channelName" : "北京房产-购房指导",
"channelNameSummary" : "北京房产-购房指导",
"channelUrl" : "http:\/\/bj.house.sina.com.cn\/scan\/daogou\/index.html",
"author" : "WWW.SINA.COM.CN",
"tags" : [],
"desc" : "新浪乐居讯(编辑 季善云)孔雀庄园 (论坛 相册 户型 样板间 点评 地图搜索)目前240-280平米的水岸低密度住宅在售，均价12000元\/平米。项目总共422户，毛坯交房，2014年10月入住。 孔雀庄园项目为英伦建筑风格，建筑立面设计充分运用了英国花园小镇的元素，主要体现在：....",
"emailed" : False,
"forwarded" : False,
"english" : False
}  , {
"index" : 15,
"articleIndex" : "13332",
"favor" :  False ,
     "read" : False,    
"title" : "昌黎阿那亚Aranya精装大户型在售起价125万(图)",
"titleTip" : "昌黎阿那亚Aranya精装大户型在售起价125万(图)",
"titleSummary" : "昌黎阿那亚Aranya精装大户型在售起价125万(图)",
"descSummary" : "新浪乐居讯(编辑 季善云)阿那亚Aranya(论坛 相册 户型...",
"url" : "http:\/\/go.rss.sina.com.cn\/redirect.php?url=http:\/\/house.sina.com.cn\/scan\/2012-12-31\/1627427066.shtml?source=rss",
"pubDate" : "2012年12月31日",
"enterDate" : "384201:01:50",
"channelId" : "6093935285404243006",
"channelName" : "北京房产-购房指导",
"channelNameSummary" : "北京房产-购房指导",
"channelUrl" : "http:\/\/bj.house.sina.com.cn\/scan\/daogou\/index.html",
"author" : "WWW.SINA.COM.CN",
"tags" : [],
"desc" : "新浪乐居讯(编辑 季善云)阿那亚Aranya(论坛 相册 户型 样板间 点评 地图搜索)一期发售共63套，其中洋房16套，别墅47套。洋房总价125万\/套起，别墅总价220万元\/套起，精装修交房。项目配建标准高尔夫球场，别墅户型面积为151.15-332.34平米，洋房户型面积为73.83-123.17平米。....",
"emailed" : False,
"forwarded" : False,
"english" : False
}  , {
"index" : 16,
"articleIndex" : "13331",
"favor" :  False ,
     "read" : False,    
"title" : "4号线孔雀大卫城111-126平米3居推团购房源(图)",
"titleTip" : "4号线孔雀大卫城111-126平米3居推团购房源(图)",
"titleSummary" : "4号线孔雀大卫城111-126平米3居推团购房源(图)",
"descSummary" : "新浪乐居讯(编辑 季善云)4号线孔雀大卫城(论坛 相册 户...",
"url" : "http:\/\/go.rss.sina.com.cn\/redirect.php?url=http:\/\/house.sina.com.cn\/scan\/2012-12-31\/1613427062.shtml?source=rss",
"pubDate" : "2012年12月31日",
"enterDate" : "384200:47:36",
"channelId" : "6093935285404243006",
"channelName" : "北京房产-购房指导",
"channelNameSummary" : "北京房产-购房指导",
"channelUrl" : "http:\/\/bj.house.sina.com.cn\/scan\/daogou\/index.html",
"author" : "WWW.SINA.COM.CN",
"tags" : [],
"desc" : "新浪乐居讯(编辑 季善云)4号线孔雀大卫城(论坛 相册 户型 样板间 点评 地图搜索)六期在售，房源为11层板楼，1梯2户；21层板塔结合，2梯4户。户型面积为61.19平米一居，80-85平米二居，其中111-126平米三居项目目前推出团购房源，全款支付可享受5千抵7万优惠，贷款享受五千抵4....",
"emailed" : False,
"forwarded" : False,
"english" : False
}  , {
"index" : 17,
"articleIndex" : "13330",
"favor" :  False ,
     "read" : False,    
"title" : "大兴B悦国际65平起精装修公寓均价1.5万(图)",
"titleTip" : "大兴B悦国际65平起精装修公寓均价1.5万(图)",
"titleSummary" : "大兴B悦国际65平起精装修公寓均价1.5万(图)",
"descSummary" : "新浪乐居讯(编辑 季善云)B悦国际(论坛 相册 户型 样板间 点...",
"url" : "http:\/\/go.rss.sina.com.cn\/redirect.php?url=http:\/\/house.sina.com.cn\/scan\/2012-12-31\/1604427061.shtml?source=rss",
"pubDate" : "2012年12月31日",
"enterDate" : "384201:08:45",
"channelId" : "6093935285404243006",
"channelName" : "北京房产-购房指导",
"channelNameSummary" : "北京房产-购房指导",
"channelUrl" : "http:\/\/bj.house.sina.com.cn\/scan\/daogou\/index.html",
"author" : "WWW.SINA.COM.CN",
"tags" : [],
"desc" : "新浪乐居讯(编辑 季善云)B悦国际(论坛 相册 户型 样板间 点评 地图搜索)目前1号楼在售，均价为15000-16000元\/平米，含3500元\/平米精装标准，户型为65平一居，80、100平两居和130平三居。项目为50年产权，预计2014年10月交房。 B悦国际项目交通十分便利，350米地铁至4....",
"emailed" : False,
"forwarded" : False,
"english" : False
}  , {
"index" : 18,
"articleIndex" : "13329",
"favor" :  False ,
     "read" : False,    
"title" : "张北印象凤凰城寓50平洋房在售现房入住(图)",
"titleTip" : "张北印象凤凰城寓50平洋房在售现房入住(图)",
"titleSummary" : "张北印象凤凰城寓50平洋房在售现房入住(图)",
"descSummary" : "新浪乐居讯(编辑 季善云)张北印象凤凰城寓(论坛 相册 户型 ...",
"url" : "http:\/\/go.rss.sina.com.cn\/redirect.php?url=http:\/\/house.sina.com.cn\/scan\/2012-12-31\/1555427059.shtml?source=rss",
"pubDate" : "2012年12月31日",
"enterDate" : "384200:59:26",
"channelId" : "6093935285404243006",
"channelName" : "北京房产-购房指导",
"channelNameSummary" : "北京房产-购房指导",
"channelUrl" : "http:\/\/bj.house.sina.com.cn\/scan\/daogou\/index.html",
"author" : "WWW.SINA.COM.CN",
"tags" : [],
"desc" : "新浪乐居讯(编辑 季善云)张北印象凤凰城寓(论坛&#160;相册&#160;户型&#160;样板间&#160;点评&#160;地图搜索)项目50、60、70、80和94平米洋房在售，项目在售3层、4层不带电梯板楼洋房，洋房均价2800元\/平米，毛坯交房。 张北印象凤凰城寓由涿州市弘基房地产开发有限公司....",
"emailed" : False,
"forwarded" : False,
"english" : False
}  , {
"index" : 19,
"articleIndex" : "13328",
"favor" :  False ,
     "read" : False,    
"title" : "张家口雪绒堡50平起精装公寓买房送农场(图)",
"titleTip" : "张家口雪绒堡50平起精装公寓买房送农场(图)",
"titleSummary" : "张家口雪绒堡50平起精装公寓买房送农场(图)",
"descSummary" : "新浪乐居讯(编辑 季善云)雪绒堡(论坛 相册 户型 样板间 点评...",
"url" : "http:\/\/go.rss.sina.com.cn\/redirect.php?url=http:\/\/house.sina.com.cn\/scan\/2012-12-31\/1551427058.shtml?source=rss",
"pubDate" : "2012年12月31日",
"enterDate" : "384200:55:41",
"channelId" : "6093935285404243006",
"channelName" : "北京房产-购房指导",
"channelNameSummary" : "北京房产-购房指导",
"channelUrl" : "http:\/\/bj.house.sina.com.cn\/scan\/daogou\/index.html",
"author" : "WWW.SINA.COM.CN",
"tags" : [],
"desc" : "新浪乐居讯(编辑 季善云)雪绒堡(论坛 相册 户型 样板间 点评 地图搜索)在售50-60平米1居，60-80平米2居，酒店式公寓，精装修并配送美式家具及生活电器。起价5000元\/平米，均价5300元\/平米，平均总价30万元\/套。一次性付款优惠100元\/平米，现场定房优惠100元\/平米。买房赠送开....",
"emailed" : False,
"forwarded" : False,
"english" : False
} ]
}
