{
"mode" : {"viewTitle" : 1,   "viewNew" : 0,  "pageIndex" : 1 },
 "channel" : {"id" : "7726442344711109319", "booked" : False, "subNumber" : 1, "name" : "美食-新浪博客", "url" : "http:\/\/blog.sina.com.cn\/lm\/bj\/", "feed" : "http:\/\/rss.sina.com.cn\/blog\/food\/ms.xml", "author" : "WWW.SINA.COM.CN", "desc" : "美食列表", "imageUrl" : "http:\/\/www.sinaimg.cn\/blog\/main\/index2010\/blog_logo.png", "postPerWeek" : "0", "lastCrawTime" : "17:04:00", "crawDateTime" : "16:03:50", "lastHttpCode" : "304"}, "page" : {
"startIndex" : 0,
"totalCount" : 5000,
"pageIndex" : 1,
"lastPage" : 250,
"pageSize" : 20,
"english" :  False },
 "unreadNum" : 0, "shotIndex" : -1,
"articles" : [
{
"index" : 0,
"articleIndex" : "11924",
"favor" :  False ,
     "read" : False,    
"title" : "轻松自制小朋友喜爱的健康零食",
"titleTip" : "轻松自制小朋友喜爱的健康零食",
"titleSummary" : "轻松自制小朋友喜爱的健康零食",
"descSummary" : "",
"url" : "http:\/\/go.rss.sina.com.cn\/redirect.php?url=http:\/\/blog.sina.com.cn\/s\/blog_ad8db1f40101ijls.html",
"pubDate" : "14:44:29",
"enterDate" : "384200:00:17",
"channelId" : "7726442344711109319",
"channelName" : "美食-新浪博客",
"channelNameSummary" : "美食-新浪博客",
"channelUrl" : "http:\/\/blog.sina.com.cn\/lm\/bj\/",
"author" : "WWW.SINA.COM.CN",
"tags" : [],
"desc" : "",
"emailed" : False,
"forwarded" : False,
"english" : False
}  , {
"index" : 1,
"articleIndex" : "11923",
"favor" :  False ,
     "read" : False,    
"title" : "深秋一碗滋阴润燥的清补汤",
"titleTip" : "深秋一碗滋阴润燥的清补汤",
"titleSummary" : "深秋一碗滋阴润燥的清补汤",
"descSummary" : "",
"url" : "http:\/\/go.rss.sina.com.cn\/redirect.php?url=http:\/\/blog.sina.com.cn\/s\/blog_5ddc957b0102f442.html",
"pubDate" : "11:16:12",
"enterDate" : "384200:47:45",
"channelId" : "7726442344711109319",
"channelName" : "美食-新浪博客",
"channelNameSummary" : "美食-新浪博客",
"channelUrl" : "http:\/\/blog.sina.com.cn\/lm\/bj\/",
"author" : "WWW.SINA.COM.CN",
"tags" : [],
"desc" : "",
"emailed" : False,
"forwarded" : False,
"english" : False
}  , {
"index" : 2,
"articleIndex" : "11922",
"favor" :  False ,
     "read" : False,    
"title" : "极具万圣节气氛的女巫手指面包",
"titleTip" : "极具万圣节气氛的女巫手指面包",
"titleSummary" : "极具万圣节气氛的女巫手指面包",
"descSummary" : "",
"url" : "http:\/\/go.rss.sina.com.cn\/redirect.php?url=http:\/\/blog.sina.com.cn\/s\/blog_7a1d978a0101f0aa.html",
"pubDate" : "11:14:17",
"enterDate" : "384200:45:50",
"channelId" : "7726442344711109319",
"channelName" : "美食-新浪博客",
"channelNameSummary" : "美食-新浪博客",
"channelUrl" : "http:\/\/blog.sina.com.cn\/lm\/bj\/",
"author" : "WWW.SINA.COM.CN",
"tags" : [],
"desc" : "",
"emailed" : False,
"forwarded" : False,
"english" : False
}  , {
"index" : 3,
"articleIndex" : "11921",
"favor" :  False ,
     "read" : False,    
"title" : "亲手酿一瓶香浓醇厚的葡萄酒",
"titleTip" : "亲手酿一瓶香浓醇厚的葡萄酒",
"titleSummary" : "亲手酿一瓶香浓醇厚的葡萄酒",
"descSummary" : "",
"url" : "http:\/\/go.rss.sina.com.cn\/redirect.php?url=http:\/\/blog.sina.com.cn\/s\/blog_691576ec0101dxv0.html",
"pubDate" : "11:13:42",
"enterDate" : "384200:45:15",
"channelId" : "7726442344711109319",
"channelName" : "美食-新浪博客",
"channelNameSummary" : "美食-新浪博客",
"channelUrl" : "http:\/\/blog.sina.com.cn\/lm\/bj\/",
"author" : "WWW.SINA.COM.CN",
"tags" : [],
"desc" : "",
"emailed" : False,
"forwarded" : False,
"english" : False
}  , {
"index" : 4,
"articleIndex" : "11920",
"favor" :  False ,
     "read" : False,    
"title" : "看图说话菊黄蟹肥时包蟹黄馄饨",
"titleTip" : "看图说话菊黄蟹肥时包蟹黄馄饨",
"titleSummary" : "看图说话菊黄蟹肥时包蟹黄馄饨",
"descSummary" : "",
"url" : "http:\/\/go.rss.sina.com.cn\/redirect.php?url=http:\/\/blog.sina.com.cn\/s\/blog_436e37200101ou9m.html",
"pubDate" : "11:12:51",
"enterDate" : "384200:44:24",
"channelId" : "7726442344711109319",
"channelName" : "美食-新浪博客",
"channelNameSummary" : "美食-新浪博客",
"channelUrl" : "http:\/\/blog.sina.com.cn\/lm\/bj\/",
"author" : "WWW.SINA.COM.CN",
"tags" : [],
"desc" : "",
"emailed" : False,
"forwarded" : False,
"english" : False
}  , {
"index" : 5,
"articleIndex" : "11919",
"favor" :  False ,
     "read" : False,    
"title" : "当归鸭头翅炖盅女人秋补为暖冬",
"titleTip" : "当归鸭头翅炖盅女人秋补为暖冬",
"titleSummary" : "当归鸭头翅炖盅女人秋补为暖冬",
"descSummary" : "",
"url" : "http:\/\/go.rss.sina.com.cn\/redirect.php?url=http:\/\/blog.sina.com.cn\/s\/blog_6aa951540101o29o.html",
"pubDate" : "11:12:21",
"enterDate" : "384200:43:54",
"channelId" : "7726442344711109319",
"channelName" : "美食-新浪博客",
"channelNameSummary" : "美食-新浪博客",
"channelUrl" : "http:\/\/blog.sina.com.cn\/lm\/bj\/",
"author" : "WWW.SINA.COM.CN",
"tags" : [],
"desc" : "",
"emailed" : False,
"forwarded" : False,
"english" : False
}  , {
"index" : 6,
"articleIndex" : "11918",
"favor" :  False ,
     "read" : False,    
"title" : "不同种类的糖对在烘焙中的应用",
"titleTip" : "不同种类的糖对在烘焙中的应用",
"titleSummary" : "不同种类的糖对在烘焙中的应用",
"descSummary" : "",
"url" : "http:\/\/go.rss.sina.com.cn\/redirect.php?url=http:\/\/blog.sina.com.cn\/s\/blog_5e15a7120102e78l.html",
"pubDate" : "11:11:25",
"enterDate" : "384200:42:58",
"channelId" : "7726442344711109319",
"channelName" : "美食-新浪博客",
"channelNameSummary" : "美食-新浪博客",
"channelUrl" : "http:\/\/blog.sina.com.cn\/lm\/bj\/",
"author" : "WWW.SINA.COM.CN",
"tags" : [],
"desc" : "",
"emailed" : False,
"forwarded" : False,
"english" : False
}  , {
"index" : 7,
"articleIndex" : "11917",
"favor" :  False ,
     "read" : False,    
"title" : "贾母为什么宵夜弃粥而选择杏仁茶",
"titleTip" : "贾母为什么宵夜弃粥而选择杏仁茶",
"titleSummary" : "贾母为什么宵夜弃粥而选择杏仁茶",
"descSummary" : "",
"url" : "http:\/\/go.rss.sina.com.cn\/redirect.php?url=http:\/\/blog.sina.com.cn\/s\/blog_530dbb750102eb9w.html",
"pubDate" : "11:10:23",
"enterDate" : "384200:41:56",
"channelId" : "7726442344711109319",
"channelName" : "美食-新浪博客",
"channelNameSummary" : "美食-新浪博客",
"channelUrl" : "http:\/\/blog.sina.com.cn\/lm\/bj\/",
"author" : "WWW.SINA.COM.CN",
"tags" : [],
"desc" : "",
"emailed" : False,
"forwarded" : False,
"english" : False
}  , {
"index" : 8,
"articleIndex" : "11916",
"favor" :  False ,
     "read" : False,    
"title" : "家常下饭的青椒塞肉",
"titleTip" : "家常下饭的青椒塞肉",
"titleSummary" : "家常下饭的青椒塞肉",
"descSummary" : "",
"url" : "http:\/\/go.rss.sina.com.cn\/redirect.php?url=http:\/\/blog.sina.com.cn\/s\/blog_4d3f53270102e5mz.html",
"pubDate" : "11:09:41",
"enterDate" : "384200:41:14",
"channelId" : "7726442344711109319",
"channelName" : "美食-新浪博客",
"channelNameSummary" : "美食-新浪博客",
"channelUrl" : "http:\/\/blog.sina.com.cn\/lm\/bj\/",
"author" : "WWW.SINA.COM.CN",
"tags" : [],
"desc" : "",
"emailed" : False,
"forwarded" : False,
"english" : False
}  , {
"index" : 9,
"articleIndex" : "11915",
"favor" :  False ,
     "read" : False,    
"title" : "川菜点单率最高的米饭杀手",
"titleTip" : "川菜点单率最高的米饭杀手",
"titleSummary" : "川菜点单率最高的米饭杀手",
"descSummary" : "",
"url" : "http:\/\/go.rss.sina.com.cn\/redirect.php?url=http:\/\/blog.sina.com.cn\/s\/blog_ae8beee00101gjgp.html",
"pubDate" : "11:09:00",
"enterDate" : "384200:40:33",
"channelId" : "7726442344711109319",
"channelName" : "美食-新浪博客",
"channelNameSummary" : "美食-新浪博客",
"channelUrl" : "http:\/\/blog.sina.com.cn\/lm\/bj\/",
"author" : "WWW.SINA.COM.CN",
"tags" : [],
"desc" : "",
"emailed" : False,
"forwarded" : False,
"english" : False
}  , {
"index" : 10,
"articleIndex" : "11914",
"favor" :  False ,
     "read" : False,    
"title" : "最传统的方法制作超级美味原料",
"titleTip" : "最传统的方法制作超级美味原料",
"titleSummary" : "最传统的方法制作超级美味原料",
"descSummary" : "",
"url" : "http:\/\/go.rss.sina.com.cn\/redirect.php?url=http:\/\/blog.sina.com.cn\/s\/blog_bcfe1c840101hjih.html",
"pubDate" : "11:08:37",
"enterDate" : "384200:40:10",
"channelId" : "7726442344711109319",
"channelName" : "美食-新浪博客",
"channelNameSummary" : "美食-新浪博客",
"channelUrl" : "http:\/\/blog.sina.com.cn\/lm\/bj\/",
"author" : "WWW.SINA.COM.CN",
"tags" : [],
"desc" : "",
"emailed" : False,
"forwarded" : False,
"english" : False
}  , {
"index" : 11,
"articleIndex" : "11913",
"favor" :  False ,
     "read" : False,    
"title" : "让宝贝也爱吃粗粮的秘诀",
"titleTip" : "让宝贝也爱吃粗粮的秘诀",
"titleSummary" : "让宝贝也爱吃粗粮的秘诀",
"descSummary" : "",
"url" : "http:\/\/go.rss.sina.com.cn\/redirect.php?url=http:\/\/blog.sina.com.cn\/s\/blog_74cf69a20101brpk.html",
"pubDate" : "11:07:46",
"enterDate" : "384200:39:19",
"channelId" : "7726442344711109319",
"channelName" : "美食-新浪博客",
"channelNameSummary" : "美食-新浪博客",
"channelUrl" : "http:\/\/blog.sina.com.cn\/lm\/bj\/",
"author" : "WWW.SINA.COM.CN",
"tags" : [],
"desc" : "",
"emailed" : False,
"forwarded" : False,
"english" : False
}  , {
"index" : 12,
"articleIndex" : "11912",
"favor" :  False ,
     "read" : False,    
"title" : "百年流传的北京名小吃",
"titleTip" : "百年流传的北京名小吃",
"titleSummary" : "百年流传的北京名小吃",
"descSummary" : "",
"url" : "http:\/\/go.rss.sina.com.cn\/redirect.php?url=http:\/\/blog.sina.com.cn\/s\/blog_98a3573d0101dw1q.html",
"pubDate" : "11:06:23",
"enterDate" : "384200:37:56",
"channelId" : "7726442344711109319",
"channelName" : "美食-新浪博客",
"channelNameSummary" : "美食-新浪博客",
"channelUrl" : "http:\/\/blog.sina.com.cn\/lm\/bj\/",
"author" : "WWW.SINA.COM.CN",
"tags" : [],
"desc" : "",
"emailed" : False,
"forwarded" : False,
"english" : False
}  , {
"index" : 13,
"articleIndex" : "11911",
"favor" :  False ,
     "read" : False,    
"title" : "珍奇怪农家院里实惠的农家饭",
"titleTip" : "珍奇怪农家院里实惠的农家饭",
"titleSummary" : "珍奇怪农家院里实惠的农家饭",
"descSummary" : "",
"url" : "http:\/\/go.rss.sina.com.cn\/redirect.php?url=http:\/\/blog.sina.com.cn\/s\/blog_48ee5c690102ec78.html",
"pubDate" : "10:50:37",
"enterDate" : "384200:22:10",
"channelId" : "7726442344711109319",
"channelName" : "美食-新浪博客",
"channelNameSummary" : "美食-新浪博客",
"channelUrl" : "http:\/\/blog.sina.com.cn\/lm\/bj\/",
"author" : "WWW.SINA.COM.CN",
"tags" : [],
"desc" : "",
"emailed" : False,
"forwarded" : False,
"english" : False
}  , {
"index" : 14,
"articleIndex" : "11910",
"favor" :  False ,
     "read" : False,    
"title" : "用自制奶酪做椰香舒芙蕾乳酪蛋糕",
"titleTip" : "用自制奶酪做椰香舒芙蕾乳酪蛋糕",
"titleSummary" : "用自制奶酪做椰香舒芙蕾乳酪蛋糕",
"descSummary" : "",
"url" : "http:\/\/go.rss.sina.com.cn\/redirect.php?url=http:\/\/blog.sina.com.cn\/s\/blog_93b4a9ee0101e239.html",
"pubDate" : "10:48:52",
"enterDate" : "384200:20:25",
"channelId" : "7726442344711109319",
"channelName" : "美食-新浪博客",
"channelNameSummary" : "美食-新浪博客",
"channelUrl" : "http:\/\/blog.sina.com.cn\/lm\/bj\/",
"author" : "WWW.SINA.COM.CN",
"tags" : [],
"desc" : "",
"emailed" : False,
"forwarded" : False,
"english" : False
}  , {
"index" : 15,
"articleIndex" : "11909",
"favor" :  False ,
     "read" : False,    
"title" : "风靡北美华人圈的肋排做法",
"titleTip" : "风靡北美华人圈的肋排做法",
"titleSummary" : "风靡北美华人圈的肋排做法",
"descSummary" : "",
"url" : "http:\/\/go.rss.sina.com.cn\/redirect.php?url=http:\/\/blog.sina.com.cn\/s\/blog_7b56bb790101octh.html",
"pubDate" : "10:47:56",
"enterDate" : "384200:19:29",
"channelId" : "7726442344711109319",
"channelName" : "美食-新浪博客",
"channelNameSummary" : "美食-新浪博客",
"channelUrl" : "http:\/\/blog.sina.com.cn\/lm\/bj\/",
"author" : "WWW.SINA.COM.CN",
"tags" : [],
"desc" : "",
"emailed" : False,
"forwarded" : False,
"english" : False
}  , {
"index" : 16,
"articleIndex" : "11908",
"favor" :  False ,
     "read" : False,    
"title" : "10分钟美味下饭菜小炒刀豆丝",
"titleTip" : "10分钟美味下饭菜小炒刀豆丝",
"titleSummary" : "10分钟美味下饭菜小炒刀豆丝",
"descSummary" : "",
"url" : "http:\/\/go.rss.sina.com.cn\/redirect.php?url=http:\/\/blog.sina.com.cn\/s\/blog_53bd83160102elth.html",
"pubDate" : "10:45:59",
"enterDate" : "384200:17:32",
"channelId" : "7726442344711109319",
"channelName" : "美食-新浪博客",
"channelNameSummary" : "美食-新浪博客",
"channelUrl" : "http:\/\/blog.sina.com.cn\/lm\/bj\/",
"author" : "WWW.SINA.COM.CN",
"tags" : [],
"desc" : "",
"emailed" : False,
"forwarded" : False,
"english" : False
}  , {
"index" : 17,
"articleIndex" : "11907",
"favor" :  False ,
     "read" : False,    
"title" : "新疆最好吃的手抓肉",
"titleTip" : "新疆最好吃的手抓肉",
"titleSummary" : "新疆最好吃的手抓肉",
"descSummary" : "",
"url" : "http:\/\/go.rss.sina.com.cn\/redirect.php?url=http:\/\/blog.sina.com.cn\/s\/blog_6acaee7c0101dqi0.html",
"pubDate" : "10:45:19",
"enterDate" : "384200:16:52",
"channelId" : "7726442344711109319",
"channelName" : "美食-新浪博客",
"channelNameSummary" : "美食-新浪博客",
"channelUrl" : "http:\/\/blog.sina.com.cn\/lm\/bj\/",
"author" : "WWW.SINA.COM.CN",
"tags" : [],
"desc" : "",
"emailed" : False,
"forwarded" : False,
"english" : False
}  , {
"index" : 18,
"articleIndex" : "11906",
"favor" :  False ,
     "read" : False,    
"title" : "千层花朵面包用快乐劳动犒赏自己",
"titleTip" : "千层花朵面包用快乐劳动犒赏自己",
"titleSummary" : "千层花朵面包用快乐劳动犒赏自己",
"descSummary" : "",
"url" : "http:\/\/go.rss.sina.com.cn\/redirect.php?url=http:\/\/blog.sina.com.cn\/s\/blog_65adc8600101gmyn.html",
"pubDate" : "10:40:16",
"enterDate" : "384200:11:49",
"channelId" : "7726442344711109319",
"channelName" : "美食-新浪博客",
"channelNameSummary" : "美食-新浪博客",
"channelUrl" : "http:\/\/blog.sina.com.cn\/lm\/bj\/",
"author" : "WWW.SINA.COM.CN",
"tags" : [],
"desc" : "",
"emailed" : False,
"forwarded" : False,
"english" : False
}  , {
"index" : 19,
"articleIndex" : "11905",
"favor" :  False ,
     "read" : False,    
"title" : "原来南瓜藤是秋季不可错过的美味",
"titleTip" : "原来南瓜藤是秋季不可错过的美味",
"titleSummary" : "原来南瓜藤是秋季不可错过的美味",
"descSummary" : "",
"url" : "http:\/\/go.rss.sina.com.cn\/redirect.php?url=http:\/\/blog.sina.com.cn\/s\/blog_63925fe30102ecic.html",
"pubDate" : "10:38:44",
"enterDate" : "384201:10:27",
"channelId" : "7726442344711109319",
"channelName" : "美食-新浪博客",
"channelNameSummary" : "美食-新浪博客",
"channelUrl" : "http:\/\/blog.sina.com.cn\/lm\/bj\/",
"author" : "WWW.SINA.COM.CN",
"tags" : [],
"desc" : "",
"emailed" : False,
"forwarded" : False,
"english" : False
} ]
}
