{
"mode" : {"viewTitle" : 1,   "viewNew" : 0,  "pageIndex" : 2 },
 "channel" : {"id" : "7726442344711109319", "booked" : False, "subNumber" : 1, "name" : "美食-新浪博客", "url" : "http:\/\/blog.sina.com.cn\/lm\/bj\/", "feed" : "http:\/\/rss.sina.com.cn\/blog\/food\/ms.xml", "author" : "WWW.SINA.COM.CN", "desc" : "美食列表", "imageUrl" : "http:\/\/www.sinaimg.cn\/blog\/main\/index2010\/blog_logo.png", "postPerWeek" : "0", "lastCrawTime" : "17:04:00", "crawDateTime" : "16:03:50", "lastHttpCode" : "304"}, "page" : {
"startIndex" : 20,
"totalCount" : 5000,
"pageIndex" : 2,
"lastPage" : 250,
"pageSize" : 20,
"english" :  False },
 "unreadNum" : 0, "shotIndex" : -1,
"articles" : [
{
"index" : 0,
"articleIndex" : "11904",
"favor" :  False ,
     "read" : False,    
"title" : "以万圣节之名享心花怒放的香滑布丁",
"titleTip" : "以万圣节之名享心花怒放的香滑布丁",
"titleSummary" : "以万圣节之名享心花怒放的香滑布丁",
"descSummary" : "",
"url" : "http:\/\/go.rss.sina.com.cn\/redirect.php?url=http:\/\/blog.sina.com.cn\/s\/blog_715fb65e0102hsln.html",
"pubDate" : "10:36:42",
"enterDate" : "384201:08:25",
"channelId" : "7726442344711109319",
"channelName" : "美食-新浪博客",
"channelNameSummary" : "美食-新浪博客",
"channelUrl" : "http:\/\/blog.sina.com.cn\/lm\/bj\/",
"author" : "WWW.SINA.COM.CN",
"tags" : [],
"desc" : "",
"emailed" : False,
"forwarded" : False,
"english" : False
}  , {
"index" : 1,
"articleIndex" : "11903",
"favor" :  False ,
     "read" : False,    
"title" : "妙做外酥内嫩的酸甜小排骨",
"titleTip" : "妙做外酥内嫩的酸甜小排骨",
"titleSummary" : "妙做外酥内嫩的酸甜小排骨",
"descSummary" : "",
"url" : "http:\/\/go.rss.sina.com.cn\/redirect.php?url=http:\/\/blog.sina.com.cn\/s\/blog_8232a37e0101e1dy.html",
"pubDate" : "10:35:14",
"enterDate" : "384201:06:57",
"channelId" : "7726442344711109319",
"channelName" : "美食-新浪博客",
"channelNameSummary" : "美食-新浪博客",
"channelUrl" : "http:\/\/blog.sina.com.cn\/lm\/bj\/",
"author" : "WWW.SINA.COM.CN",
"tags" : [],
"desc" : "",
"emailed" : False,
"forwarded" : False,
"english" : False
}  , {
"index" : 2,
"articleIndex" : "11902",
"favor" :  False ,
     "read" : False,    
"title" : "让平凡花生快速变抢手零食",
"titleTip" : "让平凡花生快速变抢手零食",
"titleSummary" : "让平凡花生快速变抢手零食",
"descSummary" : "",
"url" : "http:\/\/go.rss.sina.com.cn\/redirect.php?url=http:\/\/blog.sina.com.cn\/s\/blog_4502e2870102e9hv.html",
"pubDate" : "10:34:34",
"enterDate" : "384201:06:17",
"channelId" : "7726442344711109319",
"channelName" : "美食-新浪博客",
"channelNameSummary" : "美食-新浪博客",
"channelUrl" : "http:\/\/blog.sina.com.cn\/lm\/bj\/",
"author" : "WWW.SINA.COM.CN",
"tags" : [],
"desc" : "",
"emailed" : False,
"forwarded" : False,
"english" : False
}  , {
"index" : 3,
"articleIndex" : "11901",
"favor" :  False ,
     "read" : False,    
"title" : "温暖素食之金针烧豆腐",
"titleTip" : "温暖素食之金针烧豆腐",
"titleSummary" : "温暖素食之金针烧豆腐",
"descSummary" : "",
"url" : "http:\/\/go.rss.sina.com.cn\/redirect.php?url=http:\/\/blog.sina.com.cn\/s\/blog_4a1897270101ebsv.html",
"pubDate" : "10:33:12",
"enterDate" : "384201:04:55",
"channelId" : "7726442344711109319",
"channelName" : "美食-新浪博客",
"channelNameSummary" : "美食-新浪博客",
"channelUrl" : "http:\/\/blog.sina.com.cn\/lm\/bj\/",
"author" : "WWW.SINA.COM.CN",
"tags" : [],
"desc" : "",
"emailed" : False,
"forwarded" : False,
"english" : False
}  , {
"index" : 4,
"articleIndex" : "11900",
"favor" :  False ,
     "read" : False,    
"title" : "迷迭香鸡腿卷",
"titleTip" : "迷迭香鸡腿卷",
"titleSummary" : "迷迭香鸡腿卷",
"descSummary" : "",
"url" : "http:\/\/go.rss.sina.com.cn\/redirect.php?url=http:\/\/blog.sina.com.cn\/s\/blog_acf811700101dxko.html",
"pubDate" : "10:32:37",
"enterDate" : "384201:04:20",
"channelId" : "7726442344711109319",
"channelName" : "美食-新浪博客",
"channelNameSummary" : "美食-新浪博客",
"channelUrl" : "http:\/\/blog.sina.com.cn\/lm\/bj\/",
"author" : "WWW.SINA.COM.CN",
"tags" : [],
"desc" : "",
"emailed" : False,
"forwarded" : False,
"english" : False
}  , {
"index" : 5,
"articleIndex" : "11899",
"favor" :  False ,
     "read" : False,    
"title" : "清而不寡的清汤牛肉面",
"titleTip" : "清而不寡的清汤牛肉面",
"titleSummary" : "清而不寡的清汤牛肉面",
"descSummary" : "",
"url" : "http:\/\/go.rss.sina.com.cn\/redirect.php?url=http:\/\/blog.sina.com.cn\/s\/blog_0cebf1af0102e165.html",
"pubDate" : "10:32:18",
"enterDate" : "384201:04:01",
"channelId" : "7726442344711109319",
"channelName" : "美食-新浪博客",
"channelNameSummary" : "美食-新浪博客",
"channelUrl" : "http:\/\/blog.sina.com.cn\/lm\/bj\/",
"author" : "WWW.SINA.COM.CN",
"tags" : [],
"desc" : "",
"emailed" : False,
"forwarded" : False,
"english" : False
}  , {
"index" : 6,
"articleIndex" : "11898",
"favor" :  False ,
     "read" : False,    
"title" : "新浪美食试吃小队相约鱼火锅",
"titleTip" : "新浪美食试吃小队相约鱼火锅",
"titleSummary" : "新浪美食试吃小队相约鱼火锅",
"descSummary" : "",
"url" : "http:\/\/go.rss.sina.com.cn\/redirect.php?url=http:\/\/blog.sina.com.cn\/s\/blog_5d3e674b0102eey3.html",
"pubDate" : "10:29:19",
"enterDate" : "384201:01:02",
"channelId" : "7726442344711109319",
"channelName" : "美食-新浪博客",
"channelNameSummary" : "美食-新浪博客",
"channelUrl" : "http:\/\/blog.sina.com.cn\/lm\/bj\/",
"author" : "WWW.SINA.COM.CN",
"tags" : [],
"desc" : "",
"emailed" : False,
"forwarded" : False,
"english" : False
}  , {
"index" : 7,
"articleIndex" : "11897",
"favor" :  False ,
     "read" : False,    
"title" : "蒜香烤茄比路边老王老张烧烤还好吃",
"titleTip" : "蒜香烤茄比路边老王老张烧烤还好吃",
"titleSummary" : "蒜香烤茄比路边老王老张烧烤还好吃",
"descSummary" : "",
"url" : "http:\/\/go.rss.sina.com.cn\/redirect.php?url=http:\/\/blog.sina.com.cn\/s\/blog_62c1972d0101bbue.html",
"pubDate" : "10:27:34",
"enterDate" : "384200:59:17",
"channelId" : "7726442344711109319",
"channelName" : "美食-新浪博客",
"channelNameSummary" : "美食-新浪博客",
"channelUrl" : "http:\/\/blog.sina.com.cn\/lm\/bj\/",
"author" : "WWW.SINA.COM.CN",
"tags" : [],
"desc" : "",
"emailed" : False,
"forwarded" : False,
"english" : False
}  , {
"index" : 8,
"articleIndex" : "11896",
"favor" :  False ,
     "read" : False,    
"title" : "外酥里嫩简单干爽的家常香煎黄花鱼",
"titleTip" : "外酥里嫩简单干爽的家常香煎黄花鱼",
"titleSummary" : "外酥里嫩简单干爽的家常香煎黄花鱼",
"descSummary" : "",
"url" : "http:\/\/go.rss.sina.com.cn\/redirect.php?url=http:\/\/blog.sina.com.cn\/s\/blog_4fbe436f0101dns3.html",
"pubDate" : "10:23:29",
"enterDate" : "384200:55:12",
"channelId" : "7726442344711109319",
"channelName" : "美食-新浪博客",
"channelNameSummary" : "美食-新浪博客",
"channelUrl" : "http:\/\/blog.sina.com.cn\/lm\/bj\/",
"author" : "WWW.SINA.COM.CN",
"tags" : [],
"desc" : "",
"emailed" : False,
"forwarded" : False,
"english" : False
}  , {
"index" : 9,
"articleIndex" : "11895",
"favor" :  False ,
     "read" : False,    
"title" : "有滋有味的家常健康剁椒木耳鸡片",
"titleTip" : "有滋有味的家常健康剁椒木耳鸡片",
"titleSummary" : "有滋有味的家常健康剁椒木耳鸡片",
"descSummary" : "",
"url" : "http:\/\/go.rss.sina.com.cn\/redirect.php?url=http:\/\/blog.sina.com.cn\/s\/blog_76b248a60101bcyl.html",
"pubDate" : "10:22:29",
"enterDate" : "384200:54:12",
"channelId" : "7726442344711109319",
"channelName" : "美食-新浪博客",
"channelNameSummary" : "美食-新浪博客",
"channelUrl" : "http:\/\/blog.sina.com.cn\/lm\/bj\/",
"author" : "WWW.SINA.COM.CN",
"tags" : [],
"desc" : "",
"emailed" : False,
"forwarded" : False,
"english" : False
}  , {
"index" : 10,
"articleIndex" : "11894",
"favor" :  False ,
     "read" : False,    
"title" : "遭食客哄抢的农家菜土豆烧鸡",
"titleTip" : "遭食客哄抢的农家菜土豆烧鸡",
"titleSummary" : "遭食客哄抢的农家菜土豆烧鸡",
"descSummary" : "",
"url" : "http:\/\/go.rss.sina.com.cn\/redirect.php?url=http:\/\/blog.sina.com.cn\/s\/blog_67a261ee0101aorf.html",
"pubDate" : "10:21:09",
"enterDate" : "384200:52:52",
"channelId" : "7726442344711109319",
"channelName" : "美食-新浪博客",
"channelNameSummary" : "美食-新浪博客",
"channelUrl" : "http:\/\/blog.sina.com.cn\/lm\/bj\/",
"author" : "WWW.SINA.COM.CN",
"tags" : [],
"desc" : "",
"emailed" : False,
"forwarded" : False,
"english" : False
}  , {
"index" : 11,
"articleIndex" : "11893",
"favor" :  False ,
     "read" : False,    
"title" : "轻松学做人气广式早茶金沙包",
"titleTip" : "轻松学做人气广式早茶金沙包",
"titleSummary" : "轻松学做人气广式早茶金沙包",
"descSummary" : "",
"url" : "http:\/\/go.rss.sina.com.cn\/redirect.php?url=http:\/\/blog.sina.com.cn\/s\/blog_72d0cc2e0101e3fy.html",
"pubDate" : "10:11:50",
"enterDate" : "384200:43:33",
"channelId" : "7726442344711109319",
"channelName" : "美食-新浪博客",
"channelNameSummary" : "美食-新浪博客",
"channelUrl" : "http:\/\/blog.sina.com.cn\/lm\/bj\/",
"author" : "WWW.SINA.COM.CN",
"tags" : [],
"desc" : "",
"emailed" : False,
"forwarded" : False,
"english" : False
}  , {
"index" : 12,
"articleIndex" : "11892",
"favor" :  False ,
     "read" : False,    
"title" : "轻松制作热销开胃小菜",
"titleTip" : "轻松制作热销开胃小菜",
"titleSummary" : "轻松制作热销开胃小菜",
"descSummary" : "",
"url" : "http:\/\/go.rss.sina.com.cn\/redirect.php?url=http:\/\/blog.sina.com.cn\/s\/blog_5505ed4b0102ef7h.html",
"pubDate" : "10:10:53",
"enterDate" : "384200:42:36",
"channelId" : "7726442344711109319",
"channelName" : "美食-新浪博客",
"channelNameSummary" : "美食-新浪博客",
"channelUrl" : "http:\/\/blog.sina.com.cn\/lm\/bj\/",
"author" : "WWW.SINA.COM.CN",
"tags" : [],
"desc" : "",
"emailed" : False,
"forwarded" : False,
"english" : False
}  , {
"index" : 13,
"articleIndex" : "11891",
"favor" :  False ,
     "read" : False,    
"title" : "用心蒸锅天下一品的五丁包子",
"titleTip" : "用心蒸锅天下一品的五丁包子",
"titleSummary" : "用心蒸锅天下一品的五丁包子",
"descSummary" : "",
"url" : "http:\/\/go.rss.sina.com.cn\/redirect.php?url=http:\/\/blog.sina.com.cn\/s\/blog_abf70be70101grc3.html",
"pubDate" : "10:10:13",
"enterDate" : "384200:41:56",
"channelId" : "7726442344711109319",
"channelName" : "美食-新浪博客",
"channelNameSummary" : "美食-新浪博客",
"channelUrl" : "http:\/\/blog.sina.com.cn\/lm\/bj\/",
"author" : "WWW.SINA.COM.CN",
"tags" : [],
"desc" : "",
"emailed" : False,
"forwarded" : False,
"english" : False
}  , {
"index" : 14,
"articleIndex" : "11890",
"favor" :  False ,
     "read" : False,    
"title" : "减肥必备无油低糖南瓜核桃蒸蛋糕",
"titleTip" : "减肥必备无油低糖南瓜核桃蒸蛋糕",
"titleSummary" : "减肥必备无油低糖南瓜核桃蒸蛋糕",
"descSummary" : "",
"url" : "http:\/\/go.rss.sina.com.cn\/redirect.php?url=http:\/\/blog.sina.com.cn\/s\/blog_606f1f540102gdnt.html",
"pubDate" : "10:07:46",
"enterDate" : "384200:39:29",
"channelId" : "7726442344711109319",
"channelName" : "美食-新浪博客",
"channelNameSummary" : "美食-新浪博客",
"channelUrl" : "http:\/\/blog.sina.com.cn\/lm\/bj\/",
"author" : "WWW.SINA.COM.CN",
"tags" : [],
"desc" : "",
"emailed" : False,
"forwarded" : False,
"english" : False
}  , {
"index" : 15,
"articleIndex" : "11889",
"favor" :  False ,
     "read" : False,    
"title" : "天然酵母麦胚螺纹面包",
"titleTip" : "天然酵母麦胚螺纹面包",
"titleSummary" : "天然酵母麦胚螺纹面包",
"descSummary" : "",
"url" : "http:\/\/go.rss.sina.com.cn\/redirect.php?url=http:\/\/blog.sina.com.cn\/s\/blog_664dd3170101mjuo.html",
"pubDate" : "10:07:04",
"enterDate" : "384200:38:47",
"channelId" : "7726442344711109319",
"channelName" : "美食-新浪博客",
"channelNameSummary" : "美食-新浪博客",
"channelUrl" : "http:\/\/blog.sina.com.cn\/lm\/bj\/",
"author" : "WWW.SINA.COM.CN",
"tags" : [],
"desc" : "",
"emailed" : False,
"forwarded" : False,
"english" : False
}  , {
"index" : 16,
"articleIndex" : "11888",
"favor" :  False ,
     "read" : False,    
"title" : "24张图细说口酥的掉渣的手抓饼",
"titleTip" : "24张图细说口酥的掉渣的手抓饼",
"titleSummary" : "24张图细说口酥的掉渣的手抓饼",
"descSummary" : "",
"url" : "http:\/\/go.rss.sina.com.cn\/redirect.php?url=http:\/\/blog.sina.com.cn\/s\/blog_844d7ba90101g5ay.html",
"pubDate" : "10:06:24",
"enterDate" : "384200:38:07",
"channelId" : "7726442344711109319",
"channelName" : "美食-新浪博客",
"channelNameSummary" : "美食-新浪博客",
"channelUrl" : "http:\/\/blog.sina.com.cn\/lm\/bj\/",
"author" : "WWW.SINA.COM.CN",
"tags" : [],
"desc" : "",
"emailed" : False,
"forwarded" : False,
"english" : False
}  , {
"index" : 17,
"articleIndex" : "11887",
"favor" :  False ,
     "read" : False,    
"title" : "营养鲜美的快手菌菇肉丸子汤",
"titleTip" : "营养鲜美的快手菌菇肉丸子汤",
"titleSummary" : "营养鲜美的快手菌菇肉丸子汤",
"descSummary" : "",
"url" : "http:\/\/go.rss.sina.com.cn\/redirect.php?url=http:\/\/blog.sina.com.cn\/s\/blog_4b23705a0102e8nl.html",
"pubDate" : "10:04:35",
"enterDate" : "384200:36:18",
"channelId" : "7726442344711109319",
"channelName" : "美食-新浪博客",
"channelNameSummary" : "美食-新浪博客",
"channelUrl" : "http:\/\/blog.sina.com.cn\/lm\/bj\/",
"author" : "WWW.SINA.COM.CN",
"tags" : [],
"desc" : "",
"emailed" : False,
"forwarded" : False,
"english" : False
}  , {
"index" : 18,
"articleIndex" : "11886",
"favor" :  False ,
     "read" : False,    
"title" : "原味香浓菌菇蒸菜料理",
"titleTip" : "原味香浓菌菇蒸菜料理",
"titleSummary" : "原味香浓菌菇蒸菜料理",
"descSummary" : "",
"url" : "http:\/\/go.rss.sina.com.cn\/redirect.php?url=http:\/\/blog.sina.com.cn\/s\/blog_687721fe01019hge.html",
"pubDate" : "10:03:31",
"enterDate" : "384200:35:14",
"channelId" : "7726442344711109319",
"channelName" : "美食-新浪博客",
"channelNameSummary" : "美食-新浪博客",
"channelUrl" : "http:\/\/blog.sina.com.cn\/lm\/bj\/",
"author" : "WWW.SINA.COM.CN",
"tags" : [],
"desc" : "",
"emailed" : False,
"forwarded" : False,
"english" : False
}  , {
"index" : 19,
"articleIndex" : "11885",
"favor" :  False ,
     "read" : False,    
"title" : "自制成都名小吃蛋烘糕",
"titleTip" : "自制成都名小吃蛋烘糕",
"titleSummary" : "自制成都名小吃蛋烘糕",
"descSummary" : "",
"url" : "http:\/\/go.rss.sina.com.cn\/redirect.php?url=http:\/\/blog.sina.com.cn\/s\/blog_4a38d9b70102e8sl.html",
"pubDate" : "昨天15:12:05",
"enterDate" : "384200:47:14",
"channelId" : "7726442344711109319",
"channelName" : "美食-新浪博客",
"channelNameSummary" : "美食-新浪博客",
"channelUrl" : "http:\/\/blog.sina.com.cn\/lm\/bj\/",
"author" : "WWW.SINA.COM.CN",
"tags" : [],
"desc" : "",
"emailed" : False,
"forwarded" : False,
"english" : False
} ]
}
