{
"mode" : {"viewTitle" : 1,   "viewNew" : 0,  "pageIndex" : 1 },
 "channel" : {"id" : "-5160346006276610225", "booked" : False, "subNumber" : 1, "name" : "情感-新浪博客", "url" : "http:\/\/blog.sina.com.cn\/lm\/eladies\/index.html", "feed" : "http:\/\/rss.sina.com.cn\/blog\/index\/feel.xml", "author" : "ayawawa,一束清寒,元小易,刘士元...", "desc" : "情感博客列表", "imageUrl" : "http:\/\/www.sinaimg.cn\/blog\/main\/index2010\/blog_logo.png", "postPerWeek" : "0", "lastCrawTime" : "17:17:02", "crawDateTime" : "15:46:40", "lastHttpCode" : "304"}, "page" : {
"startIndex" : 0,
"totalCount" : 5000,
"pageIndex" : 1,
"lastPage" : 250,
"pageSize" : 20,
"english" :  False },
 "unreadNum" : 0, "shotIndex" : -1,
"articles" : [
{
"index" : 0,
"articleIndex" : "12019",
"favor" :  False ,
     "read" : False,    
"title" : "异国之爱：国界锁不住她的欲望和情债",
"titleTip" : "异国之爱：国界锁不住她的欲望和情债",
"titleSummary" : "异国之爱：国界锁不住她的欲望和情债",
"descSummary" : "爱的智慧（三十八） 异国之爱 国界锁不住欲望和情债 文\/胡曼荻...",
"url" : "http:\/\/go.rss.sina.com.cn\/redirect.php?url=http:\/\/blog.sina.com.cn\/s\/blog_4870bbec0101cftl.html",
"pubDate" : "08:05:53",
"enterDate" : "384193:38:43",
"channelId" : "-5160346006276610225",
"channelName" : "情感-新浪博客",
"channelNameSummary" : "情感-新浪博客",
"channelUrl" : "http:\/\/blog.sina.com.cn\/lm\/eladies\/index.html",
"author" : "胡曼荻",
"tags" : [],
"desc" : "爱的智慧（三十八） 异国之爱 国界锁不住欲望和情债 文\/胡曼荻 一直以为两个人相爱，是要有深度交流的。认识个中国女人花花，却颠覆了这个看法。她嫁给了美国人，住在费城郊外的一个小城上，谱写着异国情缘。她不太会说英语，有胆量嫁到一个陌生的国度，在一个语言完全陌生的环境里生活，很让人佩服，也让人...",
"emailed" : False,
"forwarded" : False,
"english" : False
}  , {
"index" : 1,
"articleIndex" : "12018",
"favor" :  False ,
     "read" : False,    
"title" : "一名售楼小姐的隐秘情感生活",
"titleTip" : "一名售楼小姐的隐秘情感生活",
"titleSummary" : "一名售楼小姐的隐秘情感生活",
"descSummary" : "一名叫阳光女人的朋友来信：龙儿姐姐说句实话说，说起我和公公的事情我...",
"url" : "http:\/\/go.rss.sina.com.cn\/redirect.php?url=http:\/\/blog.sina.com.cn\/s\/blog_492904350102e4f2.html",
"pubDate" : "06:53:13",
"enterDate" : "384199:27:22",
"channelId" : "-5160346006276610225",
"channelName" : "情感-新浪博客",
"channelNameSummary" : "情感-新浪博客",
"channelUrl" : "http:\/\/blog.sina.com.cn\/lm\/eladies\/index.html",
"author" : "龙儿杨雪",
"tags" : [],
"desc" : "一名叫阳光女人的朋友来信：龙儿姐姐说句实话说，说起我和公公的事情我难以启齿，我在2005年嫁到了一个单亲家庭，婚后的生活还算可以，老公在一家旅游公司工作，公公是公务员；而我在一家房地产公司做售楼小姐，一家人收入还算可以，算是有房有车，在外人眼里看起来也挺幸福美满。老公经常出差，每次出差回来我们小两口就...",
"emailed" : False,
"forwarded" : False,
"english" : False
}  , {
"index" : 2,
"articleIndex" : "12017",
"favor" :  False ,
     "read" : False,    
"title" : "大哥频繁嫖妓我该不该告诉嫂子",
"titleTip" : "大哥频繁嫖妓我该不该告诉嫂子",
"titleSummary" : "大哥频繁嫖妓我该不该告诉嫂子",
"descSummary" : "如果你问女人如何看待男人的嫖妓行为，得到的答案肯定有什么千刀万刮...",
"url" : "http:\/\/go.rss.sina.com.cn\/redirect.php?url=http:\/\/blog.sina.com.cn\/s\/blog_69fe9a160101hszm.html",
"pubDate" : "昨天17:40:41",
"enterDate" : "384186:14:50",
"channelId" : "-5160346006276610225",
"channelName" : "情感-新浪博客",
"channelNameSummary" : "情感-新浪博客",
"channelUrl" : "http:\/\/blog.sina.com.cn\/lm\/eladies\/index.html",
"author" : "大爱无疆",
"tags" : [],
"desc" : "如果你问女人如何看待男人的嫖妓行为，得到的答案肯定有什么千刀万刮、禽兽行为不可原谅，更狠一点的恐怕是一刀切之。此时，与其说是女人恨男人的嫖妓行为，还不如说恨男人嫖的是妓女。许多女人对于男人的嫖妓行为远恨于男女养个小情人的行为。因为女人们认为前者是不负责任和道德败坏，而后者则不过是生理需求而已，是人性...",
"emailed" : False,
"forwarded" : False,
"english" : False
}  , {
"index" : 3,
"articleIndex" : "12015",
"favor" :  False ,
     "read" : False,    
"title" : "离婚后在外面转了一圈又想复婚怎么办",
"titleTip" : "离婚后在外面转了一圈又想复婚怎么办",
"titleSummary" : "离婚后在外面转了一圈又想复婚怎么办",
"descSummary" : "来访者问：起初，我天天嚷着和我对象说：\u201C咱们结婚吧！\u201D但真...",
"url" : "http:\/\/go.rss.sina.com.cn\/redirect.php?url=http:\/\/blog.sina.com.cn\/s\/blog_610bed990101efib.html",
"pubDate" : "昨天11:29:35",
"enterDate" : "384197:07:20",
"channelId" : "-5160346006276610225",
"channelName" : "情感-新浪博客",
"channelNameSummary" : "情感-新浪博客",
"channelUrl" : "http:\/\/blog.sina.com.cn\/lm\/eladies\/index.html",
"author" : "金苑",
"tags" : [],
"desc" : "来访者问：起初，我天天嚷着和我对象说：\u201C咱们结婚吧！\u201D但真的要谈婚论嫁了，又不是原来那样的心情。怎么办？ 金苑答：恨嫁的时候，可能是你还找不到被人爱的感觉；也可能是你周围的人都有了恋人，你也想凑个热闹；也可能是你的父母催着你快点解决婚姻大事；也可能是你看中的是这个男孩外在的形象或他的家世\u2026...",
"emailed" : False,
"forwarded" : False,
"english" : False
}  , {
"index" : 4,
"articleIndex" : "12014",
"favor" :  False ,
     "read" : False,    
"title" : "帐篷内女友强行同房野战我享尽性福",
"titleTip" : "帐篷内女友强行同房野战我享尽性福",
"titleSummary" : "帐篷内女友强行同房野战我享尽性福",
"descSummary" : "帐篷内女友强行同房野战我享尽性福 文：?士元口述：强飞 女友特...",
"url" : "http:\/\/go.rss.sina.com.cn\/redirect.php?url=http:\/\/blog.sina.com.cn\/s\/blog_5db0ec6b0102ek33.html",
"pubDate" : "昨天08:54:44",
"enterDate" : "384194:32:29",
"channelId" : "-5160346006276610225",
"channelName" : "情感-新浪博客",
"channelNameSummary" : "情感-新浪博客",
"channelUrl" : "http:\/\/blog.sina.com.cn\/lm\/eladies\/index.html",
"author" : "刘士元",
"tags" : [],
"desc" : "帐篷内女友强行同房野战我享尽性福 文：?士元口述：强飞 女友特别喜欢户外运动，特别是爬山、野炊、山涧漂流等这些运动。而且每个月，她至少会出去两三次，我要是没时间的话，她就会喊着她的同事，三五个人一起出去玩，到了晚上也不会回来，这一点让我很担心。 或许你可能以为我的担心是多余的，其实不是的，因为我担心自...",
"emailed" : False,
"forwarded" : False,
"english" : False
}  , {
"index" : 5,
"articleIndex" : "12013",
"favor" :  False ,
     "read" : False,    
"title" : "老公爱爱时昏厥婆婆给我下禁欲令",
"titleTip" : "老公爱爱时昏厥婆婆给我下禁欲令",
"titleSummary" : "老公爱爱时昏厥婆婆给我下禁欲令",
"descSummary" : "绵绵\/口述 我和老公都是90后，刚结婚一年，婚前觉得结婚很好玩，婚...",
"url" : "http:\/\/go.rss.sina.com.cn\/redirect.php?url=http:\/\/blog.sina.com.cn\/s\/blog_6301ba240102e7zy.html",
"pubDate" : "昨天08:48:48",
"enterDate" : "384194:26:33",
"channelId" : "-5160346006276610225",
"channelName" : "情感-新浪博客",
"channelNameSummary" : "情感-新浪博客",
"channelUrl" : "http:\/\/blog.sina.com.cn\/lm\/eladies\/index.html",
"author" : "夏七年",
"tags" : [],
"desc" : "绵绵\/口述 我和老公都是90后，刚结婚一年，婚前觉得结婚很好玩，婚后发现婚姻是一座迷城。如果不是真心的爱他，我早就选择离婚。有些事羞于启齿，却时刻困扰着我。 首先我要说明，我和老公的家庭条件都很一般。结婚时，我没要求他买房车。即便要求，他也做不到。为了爱情，我做出牺牲。老公觉得愧对于我，婚后倍加努力。 ...",
"emailed" : False,
"forwarded" : False,
"english" : False
}  , {
"index" : 6,
"articleIndex" : "12012",
"favor" :  False ,
     "read" : False,    
"title" : "阿莲：最让女人受伤的五种男人特质",
"titleTip" : "阿莲：最让女人受伤的五种男人特质",
"titleSummary" : "阿莲：最让女人受伤的五种男人特质",
"descSummary" : "这个世界上，只有两种人：男人和女人。而男人与女人之间的纠结，...",
"url" : "http:\/\/go.rss.sina.com.cn\/redirect.php?url=http:\/\/blog.sina.com.cn\/s\/blog_608cc5060102e7u7.html",
"pubDate" : "昨天08:37:37",
"enterDate" : "384194:15:22",
"channelId" : "-5160346006276610225",
"channelName" : "情感-新浪博客",
"channelNameSummary" : "情感-新浪博客",
"channelUrl" : "http:\/\/blog.sina.com.cn\/lm\/eladies\/index.html",
"author" : "阿莲",
"tags" : [],
"desc" : "这个世界上，只有两种人：男人和女人。而男人与女人之间的纠结，又是个永恒的话题。在这个话题里，女人更重视婚恋，或者说把家庭与男人看得更重要，这也让女人成了婚恋中最容易受伤的群体。可是，话又说回来了，女人之所以不断受伤，不断被男人欺骗，除了女人心太软之外，最关键的还在于自己。也因此，懂得最能欺骗女人...",
"emailed" : False,
"forwarded" : False,
"english" : False
}  , {
"index" : 7,
"articleIndex" : "12011",
"favor" :  False ,
     "read" : False,    
"title" : "女友撞我爸在家偷情后不愿嫁给我",
"titleTip" : "女友撞我爸在家偷情后不愿嫁给我",
"titleSummary" : "女友撞我爸在家偷情后不愿嫁给我",
"descSummary" : "倾述\/枫叶 图文无关 决定带小蝶回家时，我没通知爸妈，只为给他们...",
"url" : "http:\/\/go.rss.sina.com.cn\/redirect.php?url=http:\/\/blog.sina.com.cn\/s\/blog_51177cc40102eh9r.html",
"pubDate" : "昨天08:02:06",
"enterDate" : "384193:39:51",
"channelId" : "-5160346006276610225",
"channelName" : "情感-新浪博客",
"channelNameSummary" : "情感-新浪博客",
"channelUrl" : "http:\/\/blog.sina.com.cn\/lm\/eladies\/index.html",
"author" : "夏莫MO",
"tags" : [],
"desc" : "倾述\/枫叶 图文无关 决定带小蝶回家时，我没通知爸妈，只为给他们一个惊喜。可就在我推开门的那一刹那，我看到一个陌生女人慌张地从沙发上坐起来，手慌乱的在地上寻找着衣服遮掩身体，在一旁的老爸更是慌乱，躲在沙发旁，抱成一团，命令我们出去！ 我大脑一片空白，拉着小蝶的手，闪电般退了出来。良久，门才打开，那个...",
"emailed" : False,
"forwarded" : False,
"english" : False
}  , {
"index" : 8,
"articleIndex" : "12016",
"favor" :  False ,
     "read" : False,    
"title" : "老公出轨的理由可气又可恨",
"titleTip" : "老公出轨的理由可气又可恨",
"titleSummary" : "老公出轨的理由可气又可恨",
"descSummary" : "车老师： 这些天我一直很压抑，因为我的老公在出差时和前女友出轨了，原...",
"url" : "http:\/\/go.rss.sina.com.cn\/redirect.php?url=http:\/\/blog.sina.com.cn\/s\/blog_499ed1890102e9s3.html",
"pubDate" : "昨天07:10:10",
"enterDate" : "384190:32:29",
"channelId" : "-5160346006276610225",
"channelName" : "情感-新浪博客",
"channelNameSummary" : "情感-新浪博客",
"channelUrl" : "http:\/\/blog.sina.com.cn\/lm\/eladies\/index.html",
"author" : "广秀",
"tags" : [],
"desc" : "车老师： 这些天我一直很压抑，因为我的老公在出差时和前女友出轨了，原来在老公心里一直都有她的存在，我的心被一层层撕裂，好痛好痛。 我和老公认识三个月就奉子成婚。他和前女友谈了六年，最终没能走在一起，老公一直觉得亏欠她。从跟我认识到结婚，他们一直都有联系，我说了很多次叫他不要再联系了，每次都信誓旦...",
"emailed" : False,
"forwarded" : False,
"english" : False
}  , {
"index" : 9,
"articleIndex" : "12009",
"favor" :  False ,
     "read" : False,    
"title" : "为男人付出的底线是：你要输得起",
"titleTip" : "为男人付出的底线是：你要输得起",
"titleSummary" : "为男人付出的底线是：你要输得起",
"descSummary" : "撰文 咪蒙 对我的朋友们来说，连我这种白痴混啊混地，居然混成了情...",
"url" : "http:\/\/go.rss.sina.com.cn\/redirect.php?url=http:\/\/blog.sina.com.cn\/s\/blog_60f286c90102ea0q.html",
"pubDate" : "前天21:18:14",
"enterDate" : "384187:41:49",
"channelId" : "-5160346006276610225",
"channelName" : "情感-新浪博客",
"channelNameSummary" : "情感-新浪博客",
"channelUrl" : "http:\/\/blog.sina.com.cn\/lm\/eladies\/index.html",
"author" : "咪蒙",
"tags" : [],
"desc" : "撰文 咪蒙 对我的朋友们来说，连我这种白痴混啊混地，居然混成了情感导师，要写情感专栏，出两性书了，世风日下国将不国啊。 切，我都懒得说我刚解决了两个姑娘的终极困惑，人家夸我高屋建瓴醍醐灌顶，好吗？ A姑娘的困惑是：即将大学毕业，男友没通知她一声，就决定去天津工作，她该为了爱情跟去天津，还是遵从...",
"emailed" : False,
"forwarded" : False,
"english" : False
}  , {
"index" : 10,
"articleIndex" : "12010",
"favor" :  False ,
     "read" : False,    
"title" : "如何避免老公婚后报复：莫欺他少年穷",
"titleTip" : "如何避免老公婚后报复：莫欺他少年穷",
"titleSummary" : "如何避免老公婚后报复：莫欺他少年穷",
"descSummary" : "我的公众平台微信名字是ayawawa，查找我可以查ayawawavip添...",
"url" : "http:\/\/go.rss.sina.com.cn\/redirect.php?url=http:\/\/blog.sina.com.cn\/s\/blog_48a2f5fd0102efg5.html",
"pubDate" : "前天19:52:44",
"enterDate" : "384181:30:29",
"channelId" : "-5160346006276610225",
"channelName" : "情感-新浪博客",
"channelNameSummary" : "情感-新浪博客",
"channelUrl" : "http:\/\/blog.sina.com.cn\/lm\/eladies\/index.html",
"author" : "ayawawa",
"tags" : [],
"desc" : "我的公众平台微信名字是ayawawa，查找我可以查ayawawavip添加。 娃娃微信答，解答一些粉丝疑问。如果你也想问的话 请尽量把字数控制在600以内。超过这个值的请 发email给ayawawa2013@163.com. 另外，所有提问都请注明\u201C娃娃微信答\u201D字样 #娃娃微信答# 娃娃 你好 我是老粉了，最近又打算把你的书再看一次。个人情况是...",
"emailed" : False,
"forwarded" : False,
"english" : False
}  , {
"index" : 11,
"articleIndex" : "12008",
"favor" :  False ,
     "read" : False,    
"title" : "各出奇招看男星怎么搞定丈母娘",
"titleTip" : "各出奇招看男星怎么搞定丈母娘",
"titleSummary" : "各出奇招看男星怎么搞定丈母娘",
"descSummary" : "文\/暴走蜗牛 提起丈母娘，两眼泪汪汪。丈母娘恐怕应该是?丝和高富帅...",
"url" : "http:\/\/go.rss.sina.com.cn\/redirect.php?url=http:\/\/blog.sina.com.cn\/s\/blog_d844841d0101hajs.html",
"pubDate" : "前天13:52:13",
"enterDate" : "384180:15:48",
"channelId" : "-5160346006276610225",
"channelName" : "情感-新浪博客",
"channelNameSummary" : "情感-新浪博客",
"channelUrl" : "http:\/\/blog.sina.com.cn\/lm\/eladies\/index.html",
"author" : "辣妈正二",
"tags" : [],
"desc" : "文\/暴走蜗牛 提起丈母娘，两眼泪汪汪。丈母娘恐怕应该是?丝和高富帅把俏娇娘迎娶回家都要经历的终极大BOSS。俗话说女追男??隔层纱，那么男追女??隔个妈一定是不少男士们心中真实的赶脚了。从网上盛传的丈母娘择婿的新标准，就能看出这关有多难过： ①一套100㎡以上的房; ②一辆20万以上的车; ③10万以...",
"emailed" : False,
"forwarded" : False,
"english" : False
}  , {
"index" : 12,
"articleIndex" : "12006",
"favor" :  False ,
     "read" : False,    
"title" : "和村长约炮沙土坑险些被落土活埋",
"titleTip" : "和村长约炮沙土坑险些被落土活埋",
"titleSummary" : "和村长约炮沙土坑险些被落土活埋",
"descSummary" : "和村长约炮沙土坑差点被落土活埋 讲述：韩美美 文：许柏祥 我是个乡...",
"url" : "http:\/\/go.rss.sina.com.cn\/redirect.php?url=http:\/\/blog.sina.com.cn\/s\/blog_521bb8cb0102erwz.html",
"pubDate" : "前天13:30:22",
"enterDate" : "384196:57:27",
"channelId" : "-5160346006276610225",
"channelName" : "情感-新浪博客",
"channelNameSummary" : "情感-新浪博客",
"channelUrl" : "http:\/\/blog.sina.com.cn\/lm\/eladies\/index.html",
"author" : "许柏祥",
"tags" : [],
"desc" : "和村长约炮沙土坑差点被落土活埋 讲述：韩美美 文：许柏祥 我是个乡村美少妇,今年才25岁,结婚两年和老公聚少离多,为了生活27岁的老公,每年春夏秋三季都在外边干工程,只有冬季才能经常陪我在家.每次回来,我俩久别胜新婚,我是个性欲强烈的女人,每夜都要欢愉三次才罢休.我是夜晚离开男人怀就睡不着觉的骚女人.公公不到50岁...",
"emailed" : False,
"forwarded" : False,
"english" : False
}  , {
"index" : 13,
"articleIndex" : "12005",
"favor" :  False ,
     "read" : False,    
"title" : "妻和驴友自驾游荒郊野外玩车震",
"titleTip" : "妻和驴友自驾游荒郊野外玩车震",
"titleSummary" : "妻和驴友自驾游荒郊野外玩车震",
"descSummary" : "【小冯倾诉】 老婆是旅游爱好者，性格比较活泼。婚前，她每年都会参...",
"url" : "http:\/\/go.rss.sina.com.cn\/redirect.php?url=http:\/\/blog.sina.com.cn\/s\/blog_9698ac210101ftim.html",
"pubDate" : "前天13:18:32",
"enterDate" : "384196:45:37",
"channelId" : "-5160346006276610225",
"channelName" : "情感-新浪博客",
"channelNameSummary" : "情感-新浪博客",
"channelUrl" : "http:\/\/blog.sina.com.cn\/lm\/eladies\/index.html",
"author" : "苏-雯",
"tags" : [],
"desc" : "【小冯倾诉】 老婆是旅游爱好者，性格比较活泼。婚前，她每年都会参加旅行团或网上自发的旅游活动。婚后第二个月，老婆怀孕，心情很差。生完孩子，她感觉生活乏味，心情差到极点。因我工作较忙，孩子的事由她一个人管理，经常对我发脾气。我理解她，她为了孩子和家庭，付出很多牺牲，从一个调皮的姑娘，转瞬间变成了家庭主...",
"emailed" : False,
"forwarded" : False,
"english" : False
}  , {
"index" : 14,
"articleIndex" : "12004",
"favor" :  False ,
     "read" : False,    
"title" : "女孩：该把第一次留给洞房还是开房？",
"titleTip" : "女孩：该把第一次留给洞房还是开房？",
"titleSummary" : "女孩：该把第一次留给洞房还是开房？",
"descSummary" : "链接1：养蜂人的女儿告诉你蜂蜜的真相 链接2：仰望蜜蜂的纯粹...",
"url" : "http:\/\/go.rss.sina.com.cn\/redirect.php?url=http:\/\/blog.sina.com.cn\/s\/blog_4c9d35090102eenp.html",
"pubDate" : "前天12:18:38",
"enterDate" : "384197:31:03",
"channelId" : "-5160346006276610225",
"channelName" : "情感-新浪博客",
"channelNameSummary" : "情感-新浪博客",
"channelUrl" : "http:\/\/blog.sina.com.cn\/lm\/eladies\/index.html",
"author" : "邹小六",
"tags" : [],
"desc" : "链接1：养蜂人的女儿告诉你蜂蜜的真相 链接2：仰望蜜蜂的纯粹 低看蒙尘的那些人 链接2：假蜂蜜我们心中永远的痛 链接3：答蜜友问：蜂产品都怎么吃\u2026\u2026 链接4：购买蜂蜜流程详情 答疑：关于蜂蜜结晶 倾诉人：小雪 女 24岁 害怕，怕死了。看来我真的得独身了！嫁不出去了。我和男友最近又分手了，还是因为他要跟我上床...",
"emailed" : False,
"forwarded" : False,
"english" : False
}  , {
"index" : 15,
"articleIndex" : "12003",
"favor" :  False ,
     "read" : False,    
"title" : "老公出轨回归后为何总要我演小三？",
"titleTip" : "老公出轨回归后为何总要我演小三？",
"titleSummary" : "老公出轨回归后为何总要我演小三？",
"descSummary" : "2013（133）秋心老师，你好。丈夫在我孕期出轨了，被发现的时候...",
"url" : "http:\/\/go.rss.sina.com.cn\/redirect.php?url=http:\/\/blog.sina.com.cn\/s\/blog_624fc8a20102e90c.html",
"pubDate" : "前天12:13:40",
"enterDate" : "384197:26:05",
"channelId" : "-5160346006276610225",
"channelName" : "情感-新浪博客",
"channelNameSummary" : "情感-新浪博客",
"channelUrl" : "http:\/\/blog.sina.com.cn\/lm\/eladies\/index.html",
"author" : "秋心",
"tags" : [],
"desc" : "2013（133）秋心老师，你好。丈夫在我孕期出轨了，被发现的时候，他从死不承认到有一点证据，他就吐露一点实情。他们是通过工作开始联系的，开始聊天都是谈公事，后来涉及私事，由好感转变为喜欢，然后认识快2个月就滚床单了，快三个月的时候，车震了。（这些都是通过侦探收集来的证据，还有部分他自己口述的。） 得知这些...",
"emailed" : False,
"forwarded" : False,
"english" : False
}  , {
"index" : 16,
"articleIndex" : "12002",
"favor" :  False ,
     "read" : False,    
"title" : "高中女教师：情迷男学生我们夜夜欢愉",
"titleTip" : "高中女教师：情迷男学生我们夜夜欢愉",
"titleSummary" : "高中女教师：情迷男学生我们夜夜欢愉",
"descSummary" : "【说出你的故事】系列第7期。NO.1 今年都32岁了，爸妈也总是...",
"url" : "http:\/\/go.rss.sina.com.cn\/redirect.php?url=http:\/\/blog.sina.com.cn\/s\/blog_8e59d2630101ogk3.html",
"pubDate" : "前天12:04:51",
"enterDate" : "384197:17:16",
"channelId" : "-5160346006276610225",
"channelName" : "情感-新浪博客",
"channelNameSummary" : "情感-新浪博客",
"channelUrl" : "http:\/\/blog.sina.com.cn\/lm\/eladies\/index.html",
"author" : "元小易",
"tags" : [],
"desc" : "【说出你的故事】系列第7期。 NO.1 今年都32岁了，爸妈也总是催促我找对象，可是就是对男人没什么兴趣。今年四月份突然发现自己对小十几岁的一个高中男生产生了，可是又感觉很不现实，他给不了我什么，可是他很爱我，各个方面都能感觉出。可是我和他已经那个了\u2026我是他的英语老师，他才高三。。我不知道这段感情会发展...",
"emailed" : False,
"forwarded" : False,
"english" : False
}  , {
"index" : 17,
"articleIndex" : "12001",
"favor" :  False ,
     "read" : False,    
"title" : "微信摇出\u201C高富帅\u201D竟是诈骗犯",
"titleTip" : "微信摇出\u201C高富帅\u201D竟是诈骗犯",
"titleSummary" : "微信摇出\u201C高富帅\u201D竟是诈骗犯",
"descSummary" : "微信情人竟是诈骗犯 口诉：小田 整理：女人智慧眼 我是去年离得婚。离...",
"url" : "http:\/\/go.rss.sina.com.cn\/redirect.php?url=http:\/\/blog.sina.com.cn\/s\/blog_4b8e32bd0101bk6i.html",
"pubDate" : "前天11:11:26",
"enterDate" : "384196:23:51",
"channelId" : "-5160346006276610225",
"channelName" : "情感-新浪博客",
"channelNameSummary" : "情感-新浪博客",
"channelUrl" : "http:\/\/blog.sina.com.cn\/lm\/eladies\/index.html",
"author" : "女人智慧眼",
"tags" : [],
"desc" : "微信情人竟是诈骗犯 口诉：小田 整理：女人智慧眼 我是去年离得婚。离婚以后小孩归男方。一个人在外地上班挺无聊的，下了班也不知道干什么好，我想趁着自己还年轻，也许能够重新找到一个男的。我这人平时不爱出去交往朋友，下了班就躲在家里。自从微信开通了以后，就常常挂在微信上。在微信里有个男人的网名叫夜...",
"emailed" : False,
"forwarded" : False,
"english" : False
}  , {
"index" : 18,
"articleIndex" : "12007",
"favor" :  False ,
     "read" : False,    
"title" : "情人催我抛弃\u201C糟糠\u201D娶她进门",
"titleTip" : "情人催我抛弃\u201C糟糠\u201D娶她进门",
"titleSummary" : "情人催我抛弃\u201C糟糠\u201D娶她进门",
"descSummary" : "情人催我抛\u201D糟糠\u201D我该如何抉择 来信照登 钟老师: 您好！很冒昧地打...",
"url" : "http:\/\/go.rss.sina.com.cn\/redirect.php?url=http:\/\/blog.sina.com.cn\/s\/blog_48934fb10102e8ru.html",
"pubDate" : "前天10:13:16",
"enterDate" : "384191:39:56",
"channelId" : "-5160346006276610225",
"channelName" : "情感-新浪博客",
"channelNameSummary" : "情感-新浪博客",
"channelUrl" : "http:\/\/blog.sina.com.cn\/lm\/eladies\/index.html",
"author" : "钟雪灵",
"tags" : [],
"desc" : "情人催我抛\u201D糟糠\u201D我该如何抉择 来信照登 钟老师: 您好！ 很冒昧地打扰您，我在感情上陷入了困顿，一直看您做的情感咨询案例并很赞同您的观点，所以很希望得到您的指点。我尽量简单地把事情说一下。 我今年四十岁，在广州开一家小公司，是盈利的，但是赚的钱不多，一年几十万这个样子吧。我太太比我大几岁，...",
"emailed" : False,
"forwarded" : False,
"english" : False
}  , {
"index" : 19,
"articleIndex" : "12000",
"favor" :  False ,
     "read" : False,    
"title" : "产妇自述：怀孕8个月时老公傍上富婆",
"titleTip" : "产妇自述：怀孕8个月时老公傍上富婆",
"titleSummary" : "产妇自述：怀孕8个月时老公傍上富婆",
"descSummary" : "文：一束清寒 讲述：风中的雨燕 http:\/\/blog.sina.com.cn\/u\/3306...",
"url" : "http:\/\/go.rss.sina.com.cn\/redirect.php?url=http:\/\/blog.sina.com.cn\/s\/blog_c5180f890101geae.html",
"pubDate" : "2013年10月27日 (3天前)",
"enterDate" : "384181:31:29",
"channelId" : "-5160346006276610225",
"channelName" : "情感-新浪博客",
"channelNameSummary" : "情感-新浪博客",
"channelUrl" : "http:\/\/blog.sina.com.cn\/lm\/eladies\/index.html",
"author" : "一束清寒",
"tags" : [],
"desc" : "文：一束清寒 讲述：风中的雨燕 http:\/\/blog.sina.com.cn\/u\/3306688393 当我还沉浸在怀孕的幸福中时，老公在外面傍上了富婆。那时我怀孕已经八个月了，行动不便，每天都在家里。老公每天出去打牌，从不回家照顾我。我跟他生气，他说是出去挣钱了。 一天他又醉醺醺的回家来了，到家倒头就睡。电话铃响了，他也没醒，我接...",
"emailed" : False,
"forwarded" : False,
"english" : False
} ]
}
