{
"mode" : {"viewTitle" : 1,   "viewNew" : 0,  "pageIndex" : 2 },
 "channel" : {"id" : "-5160346006276610225", "booked" : False, "subNumber" : 1, "name" : "情感-新浪博客", "url" : "http:\/\/blog.sina.com.cn\/lm\/eladies\/index.html", "feed" : "http:\/\/rss.sina.com.cn\/blog\/index\/feel.xml", "author" : "ayawawa,一束清寒,元小易,刘士元...", "desc" : "情感博客列表", "imageUrl" : "http:\/\/www.sinaimg.cn\/blog\/main\/index2010\/blog_logo.png", "postPerWeek" : "0", "lastCrawTime" : "17:17:02", "crawDateTime" : "15:46:40", "lastHttpCode" : "304"}, "page" : {
"startIndex" : 20,
"totalCount" : 5000,
"pageIndex" : 2,
"lastPage" : 250,
"pageSize" : 20,
"english" :  False },
 "unreadNum" : 0, "shotIndex" : -1,
"articles" : [
{
"index" : 0,
"articleIndex" : "11999",
"favor" :  False ,
     "read" : False,    
"title" : "晚睡姐姐：倒贴的女人没有好结果",
"titleTip" : "晚睡姐姐：倒贴的女人没有好结果",
"titleSummary" : "晚睡姐姐：倒贴的女人没有好结果",
"descSummary" : "葛优在电影《大撒把》塑造了一个其貌不扬的小人物顾颜，他倾尽所有...",
"url" : "http:\/\/go.rss.sina.com.cn\/redirect.php?url=http:\/\/blog.sina.com.cn\/s\/blog_573c3a4d0101h9o6.html",
"pubDate" : "前天08:57:04",
"enterDate" : "384198:10:20",
"channelId" : "-5160346006276610225",
"channelName" : "情感-新浪博客",
"channelNameSummary" : "情感-新浪博客",
"channelUrl" : "http:\/\/blog.sina.com.cn\/lm\/eladies\/index.html",
"author" : "晚睡姐姐",
"tags" : [],
"desc" : "葛优在电影《大撒把》塑造了一个其貌不扬的小人物顾颜，他倾尽所有，把老婆送到加拿大留学，等来的却是老婆通过律师给他送来离婚协议书。律师的原话是：她不愿和你当面接触。 顾颜二话不说签了字。律师又掏出一沓美元转交给他，说是他前妻弥补她出国拉的亏空。顾颜接过钱，用葛优特有的淡定语气说了句：丫还挺够意思。 ...",
"emailed" : False,
"forwarded" : False,
"english" : False
}  , {
"index" : 1,
"articleIndex" : "11998",
"favor" :  False ,
     "read" : False,    
"title" : "温柔妻忘挂电话让我听到在家偷情",
"titleTip" : "温柔妻忘挂电话让我听到在家偷情",
"titleSummary" : "温柔妻忘挂电话让我听到在家偷情",
"descSummary" : "博友自述： 我和老婆是高中同学，大学开始谈恋爱，十年了，风风雨...",
"url" : "http:\/\/go.rss.sina.com.cn\/redirect.php?url=http:\/\/blog.sina.com.cn\/s\/blog_643584de0102e9q2.html",
"pubDate" : "前天06:50:32",
"enterDate" : "384199:04:23",
"channelId" : "-5160346006276610225",
"channelName" : "情感-新浪博客",
"channelNameSummary" : "情感-新浪博客",
"channelUrl" : "http:\/\/blog.sina.com.cn\/lm\/eladies\/index.html",
"author" : "故宫蟋蟀",
"tags" : [],
"desc" : "博友自述： 我和老婆是高中同学，大学开始谈恋爱，十年了，风风雨雨，从一穷二白到岁谈不上富足，也是小康之家，衣食无忧。 我一直认为，女人是男人拿来爱的，男人应该给女人她想要的所有东西，十年来，只要我在家，她基本上不用干什么，我不要她做饭，因为我怕油烟会伤害她的容颜；我不要她洗碗，我怕洗洁精会伤害她的皮...",
"emailed" : False,
"forwarded" : False,
"english" : False
}  , {
"index" : 2,
"articleIndex" : "11997",
"favor" :  False ,
     "read" : False,    
"title" : "女友要买婚房让我爸妈还贷款怎么办",
"titleTip" : "女友要买婚房让我爸妈还贷款怎么办",
"titleSummary" : "女友要买婚房让我爸妈还贷款怎么办",
"descSummary" : "爱一个人，总是全部去爱，付出的和得到的便不会成为正比，不是多...",
"url" : "http:\/\/go.rss.sina.com.cn\/redirect.php?url=http:\/\/blog.sina.com.cn\/s\/blog_49be626b0102e69k.html",
"pubDate" : "2013年10月27日 (3天前)",
"enterDate" : "384198:35:20",
"channelId" : "-5160346006276610225",
"channelName" : "情感-新浪博客",
"channelNameSummary" : "情感-新浪博客",
"channelUrl" : "http:\/\/blog.sina.com.cn\/lm\/eladies\/index.html",
"author" : "枪久久",
"tags" : [],
"desc" : "爱一个人，总是全部去爱，付出的和得到的便不会成为正比，不是多也不是少，只是爱的多了便淡了。 枪久久您好：最近比较烦，这样说吧！我和她是相亲认识的。已经接触半年了，我很喜欢她。我俩感情还好，可自从她去了外地创业，就什么都变了。打电话就忙，交流少了。让我觉得缺乏安全感。这次回来本来很高兴去接她，可是...",
"emailed" : False,
"forwarded" : False,
"english" : False
}  , {
"index" : 3,
"articleIndex" : "11996",
"favor" :  False ,
     "read" : False,    
"title" : "如何鉴别男人出轨的真正原因",
"titleTip" : "如何鉴别男人出轨的真正原因",
"titleSummary" : "如何鉴别男人出轨的真正原因",
"descSummary" : "不能生育的男人为啥还出轨？文\/爱燕双飞 网友咨询：爱燕老师您好！我想...",
"url" : "http:\/\/go.rss.sina.com.cn\/redirect.php?url=http:\/\/blog.sina.com.cn\/s\/blog_4ae876850102ea2b.html",
"pubDate" : "2013年10月27日 (3天前)",
"enterDate" : "384194:14:18",
"channelId" : "-5160346006276610225",
"channelName" : "情感-新浪博客",
"channelNameSummary" : "情感-新浪博客",
"channelUrl" : "http:\/\/blog.sina.com.cn\/lm\/eladies\/index.html",
"author" : "爱燕双飞",
"tags" : [],
"desc" : "不能生育的男人为啥还出轨？ 文\/爱燕双飞 网友咨询：爱燕老师您好！我想请你给点处理婚姻的建议。我是一个22岁的女人，可我结婚已有一年半了。从拍拖后期、结婚一直到现在，我们总是会因为一些很小的事情吵架。之前吵过很快就会好。可现在。总是要冷战几天。6号那天晚上我们又吵了，我还打了他，因为这次我看到他手机里给...",
"emailed" : False,
"forwarded" : False,
"english" : False
}  , {
"index" : 4,
"articleIndex" : "11995",
"favor" :  False ,
     "read" : False,    
"title" : "日本年轻女性为何独爱\u201C40男\u201D",
"titleTip" : "日本年轻女性为何独爱\u201C40男\u201D",
"titleSummary" : "日本年轻女性为何独爱\u201C40男\u201D",
"descSummary" : "日本年轻女性为何独爱\u201C40男\u201D",
"url" : "http:\/\/go.rss.sina.com.cn\/redirect.php?url=http:\/\/blog.sina.com.cn\/s\/blog_615fb6320102eeno.html?tj=1",
"pubDate" : "2013年10月26日 (4天前)",
"enterDate" : "384200:24:56",
"channelId" : "-5160346006276610225",
"channelName" : "情感-新浪博客",
"channelNameSummary" : "情感-新浪博客",
"channelUrl" : "http:\/\/blog.sina.com.cn\/lm\/eladies\/index.html",
"author" : "蒋丰,ayawawa,凭海菱风,吴淡如...",
"tags" : [],
"desc" : "日本年轻女性为何独爱\u201C40男\u201D",
"emailed" : False,
"forwarded" : False,
"english" : False
}  , {
"index" : 5,
"articleIndex" : "11994",
"favor" :  False ,
     "read" : False,    
"title" : "对女生用情最专一的五种男生(图)",
"titleTip" : "对女生用情最专一的五种男生(图)",
"titleSummary" : "对女生用情最专一的五种男生(图)",
"descSummary" : "每个女生都希望自己遇到的男生是一个既风流倜傥的情圣又要对自己用情...",
"url" : "http:\/\/go.rss.sina.com.cn\/redirect.php?url=http:\/\/blog.sina.com.cn\/s\/blog_48d934ff0102e7kf.html",
"pubDate" : "2013年10月26日 (4天前)",
"enterDate" : "384199:07:40",
"channelId" : "-5160346006276610225",
"channelName" : "情感-新浪博客",
"channelNameSummary" : "情感-新浪博客",
"channelUrl" : "http:\/\/blog.sina.com.cn\/lm\/eladies\/index.html",
"author" : "小晨故事",
"tags" : [],
"desc" : "每个女生都希望自己遇到的男生是一个既风流倜傥的情圣又要对自己用情专一的人，可是这样的好事恐怕真得是因人而议！到底哪几个星座男生能做到\u201C手里里的宝\u201D般呢？ 第一种：对真爱无敌信仰的天蝎男 如果不是因为相信真爱，犯有疑心病中的天蝎男不可能对一段恋情牢牢的抓紧不放，依个性来说，他们可能因为难以相信别人...",
"emailed" : False,
"forwarded" : False,
"english" : False
}  , {
"index" : 6,
"articleIndex" : "11993",
"favor" :  False ,
     "read" : False,    
"title" : "\u201C剩女\u201D怎么就不孝了？",
"titleTip" : "\u201C剩女\u201D怎么就不孝了？",
"titleSummary" : "\u201C剩女\u201D怎么就不孝了？",
"descSummary" : "在多年前我看到一篇文章中说：为了你的父母，去结婚吧！结婚就是最好的尽孝...",
"url" : "http:\/\/go.rss.sina.com.cn\/redirect.php?url=http:\/\/blog.sina.com.cn\/s\/blog_49110bea0101e4bk.html",
"pubDate" : "2013年10月25日 (5天前)",
"enterDate" : "384199:45:12",
"channelId" : "-5160346006276610225",
"channelName" : "情感-新浪博客",
"channelNameSummary" : "情感-新浪博客",
"channelUrl" : "http:\/\/blog.sina.com.cn\/lm\/eladies\/index.html",
"author" : "李轶男",
"tags" : [],
"desc" : "在多年前我看到一篇文章中说：为了你的父母，去结婚吧！结婚就是最好的尽孝。所以看到每年都有一批租男友租女友回家过年的人，我给他们找到了理由??尽孝。 在餐厅里等人时，偶然听到对面桌的男子与一女子倾谈，有一句刮到我的耳朵里，他说：不结婚的女人不完整，况且对家人也不公平。我抬眼看那女子，彼时一脸尴尬地低下...",
"emailed" : False,
"forwarded" : False,
"english" : False
}  , {
"index" : 7,
"articleIndex" : "11992",
"favor" :  False ,
     "read" : False,    
"title" : "吴淡如：跟女汉子谈恋爱的下场",
"titleTip" : "吴淡如：跟女汉子谈恋爱的下场",
"titleSummary" : "吴淡如：跟女汉子谈恋爱的下场",
"descSummary" : "阿信和阿珍本来是哥儿们。阿珍从来没有把阿信当成男的，而阿信也没有...",
"url" : "http:\/\/go.rss.sina.com.cn\/redirect.php?url=http:\/\/blog.sina.com.cn\/s\/blog_498fd66f0102eetp.html",
"pubDate" : "2013年10月25日 (5天前)",
"enterDate" : "384199:17:46",
"channelId" : "-5160346006276610225",
"channelName" : "情感-新浪博客",
"channelNameSummary" : "情感-新浪博客",
"channelUrl" : "http:\/\/blog.sina.com.cn\/lm\/eladies\/index.html",
"author" : "吴淡如",
"tags" : [],
"desc" : "阿信和阿珍本来是哥儿们。阿珍从来没有把阿信当成男的，而阿信也没有把阿珍当成女的。 相识时，阿珍是阿信女朋友阿琴的好姐妹。那个时候，阿珍穿着很中性，从来不穿裙子，阿信本来以为阿珍是个Ｔ。 阿琴是个心眼很细，超级爱问各式各样古怪且无聊的假设性问题：「如果你不爱我了，我该怎么办？」「如果哪一天你忍不住要...",
"emailed" : False,
"forwarded" : False,
"english" : False
}  , {
"index" : 8,
"articleIndex" : "11991",
"favor" :  False ,
     "read" : False,    
"title" : "查小欣：恶女怀疑男友出轨连掴14巴掌",
"titleTip" : "查小欣：恶女怀疑男友出轨连掴14巴掌",
"titleSummary" : "查小欣：恶女怀疑男友出轨连掴14巴掌",
"descSummary" : "近期热话\u201C14巴恶女\u201D，国际传媒也做报道。事源\u201C14巴恶女\u201D...",
"url" : "http:\/\/go.rss.sina.com.cn\/redirect.php?url=http:\/\/blog.sina.com.cn\/s\/blog_4949b3d50102e86a.html",
"pubDate" : "2013年10月25日 (5天前)",
"enterDate" : "384197:46:56",
"channelId" : "-5160346006276610225",
"channelName" : "情感-新浪博客",
"channelNameSummary" : "情感-新浪博客",
"channelUrl" : "http:\/\/blog.sina.com.cn\/lm\/eladies\/index.html",
"author" : "查小欣",
"tags" : [],
"desc" : "近期热话\u201C14巴恶女\u201D，国际传媒也做报道。 事源\u201C14巴恶女\u201D发现男友背着她带小三返家，她怒火中烧，当街大兴问罪之师，男友跪地求饶，她变本加厉，狠扯男友头发，连环狂掴他14巴掌，边打边质问、喝骂男友。男友端端正正跪在人行道中心，任由女友肆虐，打不还手，只嚎哭否认背叛女友，表演懦弱，是\u201C懦弱男\u201D典范。真人...",
"emailed" : False,
"forwarded" : False,
"english" : False
}  , {
"index" : 9,
"articleIndex" : "11990",
"favor" :  False ,
     "read" : False,    
"title" : "日本年轻女性为何独爱\u201C40男\u201D",
"titleTip" : "日本年轻女性为何独爱\u201C40男\u201D",
"titleSummary" : "日本年轻女性为何独爱\u201C40男\u201D",
"descSummary" : "日本天天\u201C蒋\u201D（10月24日篇） 男人四十一支花？在日本年轻女性心中...",
"url" : "http:\/\/go.rss.sina.com.cn\/redirect.php?url=http:\/\/blog.sina.com.cn\/s\/blog_615fb6320102eeno.html",
"pubDate" : "2013年10月25日 (5天前)",
"enterDate" : "384196:48:07",
"channelId" : "-5160346006276610225",
"channelName" : "情感-新浪博客",
"channelNameSummary" : "情感-新浪博客",
"channelUrl" : "http:\/\/blog.sina.com.cn\/lm\/eladies\/index.html",
"author" : "蒋丰",
"tags" : [],
"desc" : "??日本天天\u201C蒋\u201D（10月24日篇） 男人四十一支花？ 在日本年轻女性心中，什么年纪的男性才是理想对象？最近，日本媒体以1000名20岁?30岁未婚女性为对象，开展了全国大调查。让人有点意外的是，大多数女性的选择既不是青春年少的20多岁小帅哥，也不是潜力无限的30多岁奋斗男，而是事业小成、为人豁达的40多岁男性。 不少人...",
"emailed" : False,
"forwarded" : False,
"english" : False
}  , {
"index" : 10,
"articleIndex" : "11989",
"favor" :  False ,
     "read" : False,    
"title" : "明星如章子怡就不要性生活？",
"titleTip" : "明星如章子怡就不要性生活？",
"titleSummary" : "明星如章子怡就不要性生活？",
"descSummary" : "月色只是迷离风景，胸口的绸缎、指尖的暖意才是你我的万卷柔情。（罗西...",
"url" : "http:\/\/go.rss.sina.com.cn\/redirect.php?url=http:\/\/blog.sina.com.cn\/s\/blog_4763e9e80102e49m.html",
"pubDate" : "2013年10月25日 (5天前)",
"enterDate" : "384194:29:36",
"channelId" : "-5160346006276610225",
"channelName" : "情感-新浪博客",
"channelNameSummary" : "情感-新浪博客",
"channelUrl" : "http:\/\/blog.sina.com.cn\/lm\/eladies\/index.html",
"author" : "罗西",
"tags" : [],
"desc" : "月色只是迷离风景，胸口的绸缎、指尖的暖意才是你我的万卷柔情。（罗西?卡片机摄影） 中国人的情感洁癖 罗西 章子怡再谈恋爱，就被人批为贱，明星就不要性生活？\u201C非诚勿扰\u201D里的男女嘉宾都可以谈平均三次以上的恋爱，章子怡汪峰为什么就不可以？ 耽于意淫的国人是很洁癖的，甚至过去上吊也讲究要用洁白的上等绫罗...",
"emailed" : False,
"forwarded" : False,
"english" : False
}  , {
"index" : 11,
"articleIndex" : "11988",
"favor" :  False ,
     "read" : False,    
"title" : "嫁给了个股疯男人我生不如死",
"titleTip" : "嫁给了个股疯男人我生不如死",
"titleSummary" : "嫁给了个股疯男人我生不如死",
"descSummary" : "阿简 她是坐在他的自行车前梁上，一路欢歌地嫁到他的出租屋的。怕被交...",
"url" : "http:\/\/go.rss.sina.com.cn\/redirect.php?url=http:\/\/blog.sina.com.cn\/s\/blog_543b5d6b0102e6t6.html",
"pubDate" : "2013年10月25日 (5天前)",
"enterDate" : "384193:36:07",
"channelId" : "-5160346006276610225",
"channelName" : "情感-新浪博客",
"channelNameSummary" : "情感-新浪博客",
"channelUrl" : "http:\/\/blog.sina.com.cn\/lm\/eladies\/index.html",
"author" : "阿简",
"tags" : [],
"desc" : "阿简 她是坐在他的自行车前梁上，一路欢歌地嫁到他的出租屋的。怕被交警抓住，他载着她走街串巷，专拣胡同钻??毕业三年，所有的积蓄都添置了家当，打车，成了一件奢侈的事情。15平米的筒子楼虽然清苦简陋，咬咬牙总会过去的。他已经跳槽到了一家广告公司，她也转行去了外企。用他的话说：一切都会好起来。 确实是...",
"emailed" : False,
"forwarded" : False,
"english" : False
}  , {
"index" : 12,
"articleIndex" : "11987",
"favor" :  False ,
     "read" : False,    
"title" : "怎满足熊孩子层出不穷的性好奇",
"titleTip" : "怎满足熊孩子层出不穷的性好奇",
"titleSummary" : "怎满足熊孩子层出不穷的性好奇",
"descSummary" : "每一个家庭都会遇到这样的事情，孩子会问父母，他们是从哪里来的，为...",
"url" : "http:\/\/go.rss.sina.com.cn\/redirect.php?url=http:\/\/blog.sina.com.cn\/s\/blog_48e4b2930102ef47.html",
"pubDate" : "2013年10月25日 (5天前)",
"enterDate" : "384193:28:55",
"channelId" : "-5160346006276610225",
"channelName" : "情感-新浪博客",
"channelNameSummary" : "情感-新浪博客",
"channelUrl" : "http:\/\/blog.sina.com.cn\/lm\/eladies\/index.html",
"author" : "甜甜妈妈",
"tags" : [],
"desc" : "每一个家庭都会遇到这样的事情，孩子会问父母，他们是从哪里来的，为什么弟弟（妹妹）会和我不一样。性教育一直是家庭教育中的雷区，很多人都不愿意去碰及它，但是孩子们在意识启蒙期，总是对它充满好奇。 最近桐桐妈妈遇到一个很苦恼的问题，她五岁的女儿竟然哭着要和爸爸一起洗澡，爸爸不给洗澡她就不愿意洗澡，甚...",
"emailed" : False,
"forwarded" : False,
"english" : False
}  , {
"index" : 13,
"articleIndex" : "11986",
"favor" :  False ,
     "read" : False,    
"title" : "30岁的我产后跟他不和谐了",
"titleTip" : "30岁的我产后跟他不和谐了",
"titleSummary" : "30岁的我产后跟他不和谐了",
"descSummary" : "你可以用微信咨询我，我微信号是huaibuliao。但微信咨询超过70字我八成不...",
"url" : "http:\/\/go.rss.sina.com.cn\/redirect.php?url=http:\/\/blog.sina.com.cn\/s\/blog_46a8677c0102eccv.html",
"pubDate" : "2013年10月25日 (5天前)",
"enterDate" : "384192:35:03",
"channelId" : "-5160346006276610225",
"channelName" : "情感-新浪博客",
"channelNameSummary" : "情感-新浪博客",
"channelUrl" : "http:\/\/blog.sina.com.cn\/lm\/eladies\/index.html",
"author" : "鱼顺顺",
"tags" : [],
"desc" : "你可以用微信咨询我，我微信号是huaibuliao。但微信咨询超过70字我八成不回你，而且微信排队的时间比顺口答排队还要长。 你还可以用微博私信咨询我......&gt;&gt;点击查看新浪博客原文青春就应该这样绽放游戏测试：三国时期谁是你最好的兄弟！！你不得不信的星座秘密",
"emailed" : False,
"forwarded" : False,
"english" : False
}  , {
"index" : 14,
"articleIndex" : "11984",
"favor" :  False ,
     "read" : False,    
"title" : "评《性爱大师》：女人为何要伪装高潮",
"titleTip" : "评《性爱大师》：女人为何要伪装高潮",
"titleSummary" : "评《性爱大师》：女人为何要伪装高潮",
"descSummary" : "美国开始热播电视剧《性学大师》，我还没有看，但是已经有朋友...",
"url" : "http:\/\/go.rss.sina.com.cn\/redirect.php?url=http:\/\/blog.sina.com.cn\/s\/blog_472302e90102ewr0.html",
"pubDate" : "2013年10月25日 (5天前)",
"enterDate" : "384196:26:44",
"channelId" : "-5160346006276610225",
"channelName" : "情感-新浪博客",
"channelNameSummary" : "情感-新浪博客",
"channelUrl" : "http:\/\/blog.sina.com.cn\/lm\/eladies\/index.html",
"author" : "马晓年",
"tags" : [],
"desc" : "美国开始热播电视剧《性学大师》，我还没有看，但是已经有朋友和我探讨由电视剧联想到的女性假装高潮问题，这是为了满足男人的虚荣心、不愿意给对方施加什么压力或者不愿意伤害对方时故意而为的。假装高潮，对于女性来说不是什么神秘的事情（当然也不仅是性服务工作者在工作中才发生的）。不过也可以出现另外的几种情况...",
"emailed" : False,
"forwarded" : False,
"english" : False
}  , {
"index" : 15,
"articleIndex" : "11983",
"favor" :  False ,
     "read" : False,    
"title" : "老公出轨逼我离婚要我卖房还首饰",
"titleTip" : "老公出轨逼我离婚要我卖房还首饰",
"titleSummary" : "老公出轨逼我离婚要我卖房还首饰",
"descSummary" : "博友自述： 交代下背景：交往6年，结婚5年，我大他2岁，我们是大学...",
"url" : "http:\/\/go.rss.sina.com.cn\/redirect.php?url=http:\/\/blog.sina.com.cn\/s\/blog_643584de0102e9ow.html",
"pubDate" : "2013年10月25日 (6天前)",
"enterDate" : "384197:16:44",
"channelId" : "-5160346006276610225",
"channelName" : "情感-新浪博客",
"channelNameSummary" : "情感-新浪博客",
"channelUrl" : "http:\/\/blog.sina.com.cn\/lm\/eladies\/index.html",
"author" : "故宫蟋蟀",
"tags" : [],
"desc" : "博友自述： 交代下背景：交往6年，结婚5年，我大他2岁，我们是大学同学。孩子2个月开始异地，异地两年。我在老家，他在首都。老家婚房他家首付，婚后他家出部分钱，我俩出小部分，提前还了一多半房贷。车，他家，我家，我俩平均出的钱。 去年元旦，他说以后想我过去，就在那边买房子，他家拿大头，咱俩的存款首付。这两年...",
"emailed" : False,
"forwarded" : False,
"english" : False
}  , {
"index" : 16,
"articleIndex" : "11982",
"favor" :  False ,
     "read" : False,    
"title" : "我和男友恋爱3年为何男友仍不碰我",
"titleTip" : "我和男友恋爱3年为何男友仍不碰我",
"titleSummary" : "我和男友恋爱3年为何男友仍不碰我",
"descSummary" : "很多人反映自己不用微信，所以我会陆续把微信答的内容放在博客上。...",
"url" : "http:\/\/go.rss.sina.com.cn\/redirect.php?url=http:\/\/blog.sina.com.cn\/s\/blog_48a2f5fd0102efdd.html",
"pubDate" : "2013年10月24日 (6天前)",
"enterDate" : "384199:31:14",
"channelId" : "-5160346006276610225",
"channelName" : "情感-新浪博客",
"channelNameSummary" : "情感-新浪博客",
"channelUrl" : "http:\/\/blog.sina.com.cn\/lm\/eladies\/index.html",
"author" : "ayawawa",
"tags" : [],
"desc" : "很多人反映自己不用微信，所以我会陆续把微信答的内容放在博客上。但速度会更慢，见谅。想要每晚都收到信息，请订阅ayawawavip公众账号，每日免费情感分析推送。 我的公众平台微信名字是ayawawa，查找我可以查ayawawavip添加。 娃娃微信答，解答一些粉丝疑问。如果你也想问的话 请尽量把字数控制在600以内。超过这个值...",
"emailed" : False,
"forwarded" : False,
"english" : False
}  , {
"index" : 17,
"articleIndex" : "11985",
"favor" :  False ,
     "read" : False,    
"title" : "女人该如何驾驭自己的老公",
"titleTip" : "女人该如何驾驭自己的老公",
"titleSummary" : "女人该如何驾驭自己的老公",
"descSummary" : "女人如何驾驭自己的老公？华夏思源的婚姻家庭咨询师分析说男人天生就是为...",
"url" : "http:\/\/go.rss.sina.com.cn\/redirect.php?url=http:\/\/blog.sina.com.cn\/s\/blog_67e2e95c0101buhk.html",
"pubDate" : "2013年10月24日 (6天前)",
"enterDate" : "384174:42:56",
"channelId" : "-5160346006276610225",
"channelName" : "情感-新浪博客",
"channelNameSummary" : "情感-新浪博客",
"channelUrl" : "http:\/\/blog.sina.com.cn\/lm\/eladies\/index.html",
"author" : "婚姻家庭咨询师",
"tags" : [],
"desc" : "女人如何驾驭自己的老公？华夏思源的婚姻家庭咨询师分析说男人天生就是为了女人而存在，女人天生就想掌控男人。尤其是结婚以后，老婆的言行举止往往会对老公产生潜移默化的影响，同样，老公也会很在意老婆日常生活中的很多细节，那么女人如何驾驭自己的老公？ 女人如何驾驭自己的老公？每个女人都想让老公听话，女人要学会...",
"emailed" : False,
"forwarded" : False,
"english" : False
}  , {
"index" : 18,
"articleIndex" : "11981",
"favor" :  False ,
     "read" : False,    
"title" : "我性格长相都不错为什么还单身",
"titleTip" : "我性格长相都不错为什么还单身",
"titleSummary" : "我性格长相都不错为什么还单身",
"descSummary" : "时常有姑娘，小伙子抱怨说：我其实挺不错，长得不错，工作挺好，性格...",
"url" : "http:\/\/go.rss.sina.com.cn\/redirect.php?url=http:\/\/blog.sina.com.cn\/s\/blog_4b1c20890102e5oz.html",
"pubDate" : "2013年10月24日 (6天前)",
"enterDate" : "384196:46:58",
"channelId" : "-5160346006276610225",
"channelName" : "情感-新浪博客",
"channelNameSummary" : "情感-新浪博客",
"channelUrl" : "http:\/\/blog.sina.com.cn\/lm\/eladies\/index.html",
"author" : "凭海菱风",
"tags" : [],
"desc" : "时常有姑娘，小伙子抱怨说：我其实挺不错，长得不错，工作挺好，性格也不错，朋友很多，但就是单身！当高中大学同学陆陆续续结婚抱娃了，你单身；当身边闺蜜死党纠结在各种混乱复杂新人旧人的恋爱里，你单身；当公司那个各方面条件不如你的职场小贱人，有一天不声不响结婚了，得意洋洋恨不得把喜糖洒满办公室每个角落，你...",
"emailed" : False,
"forwarded" : False,
"english" : False
}  , {
"index" : 19,
"articleIndex" : "11980",
"favor" :  False ,
     "read" : False,    
"title" : "潘坷瞎在我怀孕期间玩出轨",
"titleTip" : "潘坷瞎在我怀孕期间玩出轨",
"titleSummary" : "潘坷瞎在我怀孕期间玩出轨",
"descSummary" : "你好，李老师！ 我给你说一下我的情况吧，结婚7年，孩子5岁，我们自己谈...",
"url" : "http:\/\/go.rss.sina.com.cn\/redirect.php?url=http:\/\/blog.sina.com.cn\/s\/blog_5d3e4f830102e5x3.html",
"pubDate" : "2013年10月24日 (6天前)",
"enterDate" : "384196:00:13",
"channelId" : "-5160346006276610225",
"channelName" : "情感-新浪博客",
"channelNameSummary" : "情感-新浪博客",
"channelUrl" : "http:\/\/blog.sina.com.cn\/lm\/eladies\/index.html",
"author" : "李歌",
"tags" : [],
"desc" : "你好，李老师！ 我给你说一下我的情况吧，结婚7年，孩子5岁，我们自己谈的恋爱结的婚,他家条件不好。 我父母也觉得他家人经常打牌说给我们家不是一个类型的人不愿意。我找这样的人家，我当时觉得这都不是问题，只要两人有感情。 婚后我怀孕后时候就休假不上班了，生孩子时回老家了。再后来的日子里我和婆家人生活在老家，...",
"emailed" : False,
"forwarded" : False,
"english" : False
} ]
}
