{
"mode" : {"viewTitle" : 1,   "viewNew" : 0,  "pageIndex" : 1 },
 "channel" : {"id" : "-2228969383350841313", "booked" : False, "subNumber" : 1, "name" : "电子竞技新闻-新浪游戏", "url" : "http:\/\/games.sina.com.cn\/news\/dzjj\/index.shtml", "feed" : "http:\/\/rss.sina.com.cn\/games\/dzjj.xml", "author" : "WWW.SINA.COM.CN", "desc" : "新浪游戏之电子竞技新闻", "imageUrl" : "http:\/\/www.sinaimg.cn\/home\/images\/sina_logo2.gif", "postPerWeek" : "0", "lastCrawTime" : "2013年10月20日 (1周前)", "crawDateTime" : "2013年10月20日 (1周前)", "lastHttpCode" : "304"}, "page" : {
"startIndex" : 0,
"totalCount" : 5000,
"pageIndex" : 1,
"lastPage" : 250,
"pageSize" : 20,
"english" :  False },
 "unreadNum" : 0, "shotIndex" : -1,
"articles" : [
{
"index" : 0,
"articleIndex" : "6325",
"favor" :  False ,
     "read" : False,    
"title" : "15万奖金 艺极杯电子竞技锦标赛开启",
"titleTip" : "15万奖金 艺极杯电子竞技锦标赛开启",
"titleSummary" : "15万奖金 艺极杯电子竞技锦标赛开启",
"descSummary" : "各位电竞迷们！广大的\u201C斗粉\u201D们！经过几个月的紧张筹备，由我们...",
"url" : "http:\/\/go.rss.sina.com.cn\/redirect.php?url=http:\/\/games.sina.com.cn\/e\/n\/2013-10-18\/1549738706.shtml",
"pubDate" : "2013年10月18日 (1周前)",
"enterDate" : "384186:51:48",
"channelId" : "-2228969383350841313",
"channelName" : "电子竞技新闻-新浪游戏",
"channelNameSummary" : "电子竞技新闻-新浪游...",
"channelUrl" : "http:\/\/games.sina.com.cn\/news\/dzjj\/index.shtml",
"author" : "WWW.SINA.COM.CN",
"tags" : [],
"desc" : "各位电竞迷们！广大的\u201C斗粉\u201D们！经过几个月的紧张筹备，由我们《三秦游戏中心》联合深圳市电子竞技运动协会一起举办的：\u201C艺极杯\u201D2013年深圳市电子竞技锦标赛终于要正式开启，本次电竞锦标的比赛项目包括了：\u201C星际争霸2项目\u201D\u201CCS1.6团体项目\u201D、\u201CDota2团体项目\u201D、\u201C英....",
"emailed" : False,
"forwarded" : False,
"english" : False
}  , {
"index" : 1,
"articleIndex" : "6324",
"favor" :  False ,
     "read" : False,    
"title" : "魔兽AWC#3正赛B组 Infi Lyn 晋级八强",
"titleTip" : "魔兽AWC#3正赛B组 Infi Lyn 晋级八强",
"titleSummary" : "魔兽AWC#3正赛B组 Infi Lyn 晋级八强",
"descSummary" : "韩国AWC线上魔兽锦标赛近日将拉开第三赛季的战幕（此前两个赛...",
"url" : "http:\/\/go.rss.sina.com.cn\/redirect.php?url=http:\/\/games.sina.com.cn\/e\/n\/2013-10-18\/1452738699.shtml",
"pubDate" : "2013年10月18日 (1周前)",
"enterDate" : "384185:54:47",
"channelId" : "-2228969383350841313",
"channelName" : "电子竞技新闻-新浪游戏",
"channelNameSummary" : "电子竞技新闻-新浪游...",
"channelUrl" : "http:\/\/games.sina.com.cn\/news\/dzjj\/index.shtml",
"author" : "WWW.SINA.COM.CN",
"tags" : [],
"desc" : "韩国AWC线上魔兽锦标赛近日将拉开第三赛季的战幕（此前两个赛季的冠军分别由Fly100%和Lyn获得)。而主办方表示，今年是WAR3在WCG世界总决赛舞台的最后一年，这届AWC也可能将是AWC魔兽锦标赛的绝唱。 比赛奖金共250万韩元（约合人民币14100元），全由韩国的魔兽爱好者赞....",
"emailed" : False,
"forwarded" : False,
"english" : False
}  , {
"index" : 2,
"articleIndex" : "6323",
"favor" :  False ,
     "read" : False,    
"title" : "WCG2013韩国区魔兽预选赛 Lyn惨遭淘汰",
"titleTip" : "WCG2013韩国区魔兽预选赛 Lyn惨遭淘汰",
"titleSummary" : "WCG2013韩国区魔兽预选赛 Lyn惨遭淘汰",
"descSummary" : "WCG2013韩国预选赛-魔兽争霸3项目于日前拉开战幕，除了M...",
"url" : "http:\/\/go.rss.sina.com.cn\/redirect.php?url=http:\/\/games.sina.com.cn\/e\/n\/2013-10-18\/1451738698.shtml",
"pubDate" : "2013年10月18日 (1周前)",
"enterDate" : "384185:53:30",
"channelId" : "-2228969383350841313",
"channelName" : "电子竞技新闻-新浪游戏",
"channelNameSummary" : "电子竞技新闻-新浪游...",
"channelUrl" : "http:\/\/games.sina.com.cn\/news\/dzjj\/index.shtml",
"author" : "WWW.SINA.COM.CN",
"tags" : [],
"desc" : "WCG2013韩国预选赛-魔兽争霸3项目于日前拉开战幕，除了Moon通过投票直接晋级世界总决赛外，其余选手将通过海选来争夺另外两个出线名额。共有20人参加了预选赛，他们将被分为四组进行BO3小组循环赛，小组第一晋级四强，四强阶段的赛制为BO3单淘，前二晋级昆山世界总决赛。....",
"emailed" : False,
"forwarded" : False,
"english" : False
}  , {
"index" : 3,
"articleIndex" : "6322",
"favor" :  False ,
     "read" : False,    
"title" : "DOTA2司夜刺客中单及辅助位打法的攻略",
"titleTip" : "DOTA2司夜刺客中单及辅助位打法的攻略",
"titleSummary" : "DOTA2司夜刺客中单及辅助位打法的攻略",
"descSummary" : "一.背景故事 在秘湮学院的禁断圣所中，在那些研究龙类遗传学...",
"url" : "http:\/\/go.rss.sina.com.cn\/redirect.php?url=http:\/\/games.sina.com.cn\/e\/n\/2013-10-18\/1448738694.shtml",
"pubDate" : "2013年10月18日 (1周前)",
"enterDate" : "384185:50:33",
"channelId" : "-2228969383350841313",
"channelName" : "电子竞技新闻-新浪游戏",
"channelNameSummary" : "电子竞技新闻-新浪游...",
"channelUrl" : "http:\/\/games.sina.com.cn\/news\/dzjj\/index.shtml",
"author" : "WWW.SINA.COM.CN",
"tags" : [],
"desc" : "一.背景故事 在秘湮学院的禁断圣所中，在那些研究龙类遗传学论文和艰深晦涩的咒语书之间，藏有一本记录着古代昆虫学的珍贵书籍。这本凝聚了学者们心血的书里面记录了一种天生具有读心术的狂热圣甲虫，这种具有社会性的昆虫在七个位面的所以世界中都是独一无二的。和他领地....",
"emailed" : False,
"forwarded" : False,
"english" : False
}  , {
"index" : 4,
"articleIndex" : "6321",
"favor" :  False ,
     "read" : False,    
"title" : "大斧怒切水果 DOTA2斧王动态表情福利",
"titleTip" : "大斧怒切水果 DOTA2斧王动态表情福利",
"titleSummary" : "大斧怒切水果 DOTA2斧王动态表情福利",
"descSummary" : "提到DOTA2斧王这位英雄，可能大多数玩家脑海中的第一印象就...",
"url" : "http:\/\/go.rss.sina.com.cn\/redirect.php?url=http:\/\/games.sina.com.cn\/e\/n\/2013-10-18\/1446738691.shtml",
"pubDate" : "2013年10月18日 (1周前)",
"enterDate" : "384185:48:58",
"channelId" : "-2228969383350841313",
"channelName" : "电子竞技新闻-新浪游戏",
"channelNameSummary" : "电子竞技新闻-新浪游...",
"channelUrl" : "http:\/\/games.sina.com.cn\/news\/dzjj\/index.shtml",
"author" : "WWW.SINA.COM.CN",
"tags" : [],
"desc" : "提到DOTA2斧王这位英雄，可能大多数玩家脑海中的第一印象就是红色的皮肤和威武的大斧。DOTA2中斧王拥有全新的模型，不仅更加细腻，同时也更加雄壮霸气，符合其个性特点。而相对于原作DotA中的斧王，DOTA2的斧王也延续了其主要的模型特点，让玩家一眼就能认出。今天为大家带来....",
"emailed" : False,
"forwarded" : False,
"english" : False
}  , {
"index" : 5,
"articleIndex" : "6320",
"favor" :  False ,
     "read" : False,    
"title" : "实测：DOTA2新版本血魔20秒能穿越全图",
"titleTip" : "实测：DOTA2新版本血魔20秒能穿越全图",
"titleSummary" : "实测：DOTA2新版本血魔20秒能穿越全图",
"descSummary" : "突破极限速度522，血魔20秒横穿地图，飞一样的感觉，尽在D...",
"url" : "http:\/\/go.rss.sina.com.cn\/redirect.php?url=http:\/\/games.sina.com.cn\/e\/n\/2013-10-18\/1442738687.shtml",
"pubDate" : "2013年10月18日 (1周前)",
"enterDate" : "384185:44:29",
"channelId" : "-2228969383350841313",
"channelName" : "电子竞技新闻-新浪游戏",
"channelNameSummary" : "电子竞技新闻-新浪游...",
"channelUrl" : "http:\/\/games.sina.com.cn\/news\/dzjj\/index.shtml",
"author" : "WWW.SINA.COM.CN",
"tags" : [],
"desc" : "突破极限速度522，血魔20秒横穿地图，飞一样的感觉，尽在DOTA2新版本！",
"emailed" : False,
"forwarded" : False,
"english" : False
}  , {
"index" : 6,
"articleIndex" : "6319",
"favor" :  False ,
     "read" : False,    
"title" : "著名解说海涛微博:揭露电竞圈服装骗子",
"titleTip" : "著名解说海涛微博:揭露电竞圈服装骗子",
"titleSummary" : "著名解说海涛微博:揭露电竞圈服装骗子",
"descSummary" : "著名DOTA2解说海涛微博透露，自己被衣服供应商所骗，这一事...",
"url" : "http:\/\/go.rss.sina.com.cn\/redirect.php?url=http:\/\/games.sina.com.cn\/e\/n\/2013-10-18\/1439738683.shtml",
"pubDate" : "2013年10月18日 (1周前)",
"enterDate" : "384185:41:18",
"channelId" : "-2228969383350841313",
"channelName" : "电子竞技新闻-新浪游戏",
"channelNameSummary" : "电子竞技新闻-新浪游...",
"channelUrl" : "http:\/\/games.sina.com.cn\/news\/dzjj\/index.shtml",
"author" : "WWW.SINA.COM.CN",
"tags" : [],
"desc" : "&#160; 著名DOTA2解说海涛微博透露，自己被衣服供应商所骗，这一事件再次引起了大家关注，和上次某解说所卖食品一样是因为质量问题引起，解说淘宝店的商品质量到底如何可以说是众说纷纭，希望所有的电竞人都抱着对自己粉丝负责的态度经营。 &#160; 微博全文如下：....",
"emailed" : False,
"forwarded" : False,
"english" : False
}  , {
"index" : 7,
"articleIndex" : "6318",
"favor" :  False ,
     "read" : False,    
"title" : "DOTA2强势亮相2013网博会 众美女助阵",
"titleTip" : "DOTA2强势亮相2013网博会 众美女助阵",
"titleSummary" : "DOTA2强势亮相2013网博会 众美女助阵",
"descSummary" : "以\u201C文化力量，创意未来\u201D为主题的2013第十一届网博会于2013...",
"url" : "http:\/\/go.rss.sina.com.cn\/redirect.php?url=http:\/\/games.sina.com.cn\/e\/n\/2013-10-18\/1435738681.shtml",
"pubDate" : "2013年10月18日 (1周前)",
"enterDate" : "384185:37:11",
"channelId" : "-2228969383350841313",
"channelName" : "电子竞技新闻-新浪游戏",
"channelNameSummary" : "电子竞技新闻-新浪游...",
"channelUrl" : "http:\/\/games.sina.com.cn\/news\/dzjj\/index.shtml",
"author" : "WWW.SINA.COM.CN",
"tags" : [],
"desc" : "以\u201C文化力量，创意未来\u201D为主题的2013第十一届网博会于2013年10月11日至13日在北京展览馆隆重举办，DOTA2也于期间强势亮相，在展会中大放光彩！在完美世界DOTA2展台，诸多青春靓丽的Showgirl美眉更是现身为DOTA2加油助阵，吸引了现场无数玩家的眼球和欢呼，同时也引爆了本届....",
"emailed" : False,
"forwarded" : False,
"english" : False
}  , {
"index" : 8,
"articleIndex" : "6317",
"favor" :  False ,
     "read" : False,    
"title" : "WCG2013各国LOL队伍出炉 韩国仍未确定",
"titleTip" : "WCG2013各国LOL队伍出炉 韩国仍未确定",
"titleSummary" : "WCG2013各国LOL队伍出炉 韩国仍未确定",
"descSummary" : "WCG2013世界总决赛时间早前就已经确认了，将于11月28日在...",
"url" : "http:\/\/go.rss.sina.com.cn\/redirect.php?url=http:\/\/games.sina.com.cn\/e\/n\/2013-10-18\/1426738675.shtml",
"pubDate" : "2013年10月18日 (1周前)",
"enterDate" : "384185:28:32",
"channelId" : "-2228969383350841313",
"channelName" : "电子竞技新闻-新浪游戏",
"channelNameSummary" : "电子竞技新闻-新浪游...",
"channelUrl" : "http:\/\/games.sina.com.cn\/news\/dzjj\/index.shtml",
"author" : "WWW.SINA.COM.CN",
"tags" : [],
"desc" : "WCG2013世界总决赛时间早前就已经确认了，将于11月28日在昆山举行，其中影响联盟无疑是备受玩家欢迎的游戏之一，下面为大家带来WCG2013世界总决赛英雄联盟各个国家参赛队伍。Season系列的英雄联盟的世界锦标赛并非代表着国家，而是每个队伍。他们是为自己而战斗的，并非国家。....",
"emailed" : False,
"forwarded" : False,
"english" : False
}  , {
"index" : 9,
"articleIndex" : "6316",
"favor" :  False ,
     "read" : False,    
"title" : "前iG分析师TT:谈谈教练与分析师这东西",
"titleTip" : "前iG分析师TT:谈谈教练与分析师这东西",
"titleSummary" : "前iG分析师TT:谈谈教练与分析师这东西",
"descSummary" : "\u201C看到最近皇族改动在招教练，刚好NGA有一个帖子讨论了很多...",
"url" : "http:\/\/go.rss.sina.com.cn\/redirect.php?url=http:\/\/games.sina.com.cn\/e\/n\/2013-10-18\/1423738671.shtml",
"pubDate" : "2013年10月18日 (1周前)",
"enterDate" : "384185:25:46",
"channelId" : "-2228969383350841313",
"channelName" : "电子竞技新闻-新浪游戏",
"channelNameSummary" : "电子竞技新闻-新浪游...",
"channelUrl" : "http:\/\/games.sina.com.cn\/news\/dzjj\/index.shtml",
"author" : "WWW.SINA.COM.CN",
"tags" : [],
"desc" : "\u201C看到最近皇族改动在招教练，刚好NGA有一个帖子讨论了很多关于教练需不需要游戏业务水平很高这个问题，我就突发奇想想跟大家聊聊关于国内的这个\u201C电竞教练\u201D行业。 说到教练，或者应该说教练组。应该是有两部分组成，教练 和 数据分析师 韩国的教练好多都是前....",
"emailed" : False,
"forwarded" : False,
"english" : False
}  , {
"index" : 10,
"articleIndex" : "6315",
"favor" :  False ,
     "read" : False,    
"title" : "领土战战况 \u201C屠\u201D掌控Arab将备战非洲",
"titleTip" : "领土战战况 \u201C屠\u201D掌控Arab将备战非洲",
"titleSummary" : "领土战战况 \u201C屠\u201D掌控Arab将备战非洲",
"descSummary" : "\u201C屠 TOP15\u201D从WCG满誉而归，领土战中\u201C屠\u201D各个军团也属春...",
"url" : "http:\/\/go.rss.sina.com.cn\/redirect.php?url=http:\/\/games.sina.com.cn\/e\/n\/2013-10-18\/1419738665.shtml",
"pubDate" : "2013年10月18日 (1周前)",
"enterDate" : "384185:21:09",
"channelId" : "-2228969383350841313",
"channelName" : "电子竞技新闻-新浪游戏",
"channelNameSummary" : "电子竞技新闻-新浪游...",
"channelUrl" : "http:\/\/games.sina.com.cn\/news\/dzjj\/index.shtml",
"author" : "WWW.SINA.COM.CN",
"tags" : [],
"desc" : "\u201C屠 TOP15\u201D从WCG满誉而归，领土战中\u201C屠\u201D各个军团也属春风得意占据了整个Arab和Iran。而Africa随着\u201C黄盟\u201D各个军团疲于战争土地大幅度缩水，但是\u201CGL HF\u201D\u201C陷阵营\u201D\u201C吾辈为何战\u201D\u201C横扫千军\u201D等组建的进攻阵营还在继续进攻。 Arab和Iran地区被\u201C屠\u201D收入囊中，....",
"emailed" : False,
"forwarded" : False,
"english" : False
}  , {
"index" : 11,
"articleIndex" : "6314",
"favor" :  False ,
     "read" : False,    
"title" : "完美的诠释血之狂暴 逼真DOTA2血魔COS",
"titleTip" : "完美的诠释血之狂暴 逼真DOTA2血魔COS",
"titleSummary" : "完美的诠释血之狂暴 逼真DOTA2血魔COS",
"descSummary" : "\u201C在战斗时他像豺狼一样残暴。\u201D这句话正是对DOTA2英雄血...",
"url" : "http:\/\/go.rss.sina.com.cn\/redirect.php?url=http:\/\/games.sina.com.cn\/e\/n\/2013-10-17\/1150738377.shtml",
"pubDate" : "2013年10月17日 (1周前)",
"enterDate" : "384182:42:57",
"channelId" : "-2228969383350841313",
"channelName" : "电子竞技新闻-新浪游戏",
"channelNameSummary" : "电子竞技新闻-新浪游...",
"channelUrl" : "http:\/\/games.sina.com.cn\/news\/dzjj\/index.shtml",
"author" : "WWW.SINA.COM.CN",
"tags" : [],
"desc" : "\u201C在战斗时他像豺狼一样残暴。\u201D这句话正是对DOTA2英雄血魔的完美诠释。国内人气COSPLAY团体\u201C粉红色猴子天堂\u201D带来了一组DOTA2中血魔的COS。Coser极具张力的动作与富有肌肉感的身材，是否让你们感受到了在血魔那涌动着对鲜血渴望的面具之下，隐藏的狂暴之力。更多激情竞技体....",
"emailed" : False,
"forwarded" : False,
"english" : False
}  , {
"index" : 12,
"articleIndex" : "6313",
"favor" :  False ,
     "read" : False,    
"title" : "DOTA2冠军联赛即将启动 外国豪门争霸",
"titleTip" : "DOTA2冠军联赛即将启动 外国豪门争霸",
"titleSummary" : "DOTA2冠军联赛即将启动 外国豪门争霸",
"descSummary" : "DOTA2冠军联赛（Dota 2 Champions League，简称D2CL）公布...",
"url" : "http:\/\/go.rss.sina.com.cn\/redirect.php?url=http:\/\/games.sina.com.cn\/e\/n\/2013-10-17\/1148738374.shtml",
"pubDate" : "2013年10月17日 (1周前)",
"enterDate" : "384182:41:41",
"channelId" : "-2228969383350841313",
"channelName" : "电子竞技新闻-新浪游戏",
"channelNameSummary" : "电子竞技新闻-新浪游...",
"channelUrl" : "http:\/\/games.sina.com.cn\/news\/dzjj\/index.shtml",
"author" : "WWW.SINA.COM.CN",
"tags" : [],
"desc" : "DOTA2冠军联赛（Dota 2 Champions League，简称D2CL）公布了详细赛程，十支外国豪门都将参赛，揭幕战在北京时间10月18日凌晨一点打响，由NaVi对阵Liquid。 中文解说尚待公布（估计仍由民间解说直播），官方英文解说由joinDOTA的TobiWan担当，俄语解说则由NaVi战队和VP....",
"emailed" : False,
"forwarded" : False,
"english" : False
}  , {
"index" : 13,
"articleIndex" : "6312",
"favor" :  False ,
     "read" : False,    
"title" : "Mouz战队宣布重组 全新丹麦人阵容亮相",
"titleTip" : "Mouz战队宣布重组 全新丹麦人阵容亮相",
"titleSummary" : "Mouz战队宣布重组 全新丹麦人阵容亮相",
"descSummary" : "TI3归来后，挂着德国国旗的Mouz战队确认重组，变成了全丹麦人...",
"url" : "http:\/\/go.rss.sina.com.cn\/redirect.php?url=http:\/\/games.sina.com.cn\/e\/n\/2013-10-17\/1146738371.shtml",
"pubDate" : "2013年10月17日 (1周前)",
"enterDate" : "384182:39:44",
"channelId" : "-2228969383350841313",
"channelName" : "电子竞技新闻-新浪游戏",
"channelNameSummary" : "电子竞技新闻-新浪游...",
"channelUrl" : "http:\/\/games.sina.com.cn\/news\/dzjj\/index.shtml",
"author" : "WWW.SINA.COM.CN",
"tags" : [],
"desc" : "TI3归来后，挂着德国国旗的Mouz战队确认重组，变成了全丹麦人阵容，只保留队长&#160;syndereN。 syndereN、Ryze和Link在DreamHack2011冬季赛上 新阵容的其他队员都有比赛经验，其中&#160;Link和&#160;Ryze曾在TI1时期就赫赫有名的&#160;Monkey战队效力（后被SK Gami....",
"emailed" : False,
"forwarded" : False,
"english" : False
}  , {
"index" : 14,
"articleIndex" : "6311",
"favor" :  False ,
     "read" : False,    
"title" : "Steam DOTA2 快速加好友链接生成攻略",
"titleTip" : "Steam DOTA2 快速加好友链接生成攻略",
"titleSummary" : "Steam DOTA2 快速加好友链接生成攻略",
"descSummary" : "作者：蛇发med 童靴们一直问我，DOTA2快速链接怎么生成的？...",
"url" : "http:\/\/go.rss.sina.com.cn\/redirect.php?url=http:\/\/games.sina.com.cn\/e\/n\/2013-10-17\/1144738370.shtml",
"pubDate" : "2013年10月17日 (1周前)",
"enterDate" : "384182:37:10",
"channelId" : "-2228969383350841313",
"channelName" : "电子竞技新闻-新浪游戏",
"channelNameSummary" : "电子竞技新闻-新浪游...",
"channelUrl" : "http:\/\/games.sina.com.cn\/news\/dzjj\/index.shtml",
"author" : "WWW.SINA.COM.CN",
"tags" : [],
"desc" : "作者：蛇发med 童靴们一直问我，DOTA2快速链接怎么生成的？为何这个链接能直接加好友？今天蛇发给大家一一解答这些问题，并手把手的教大家如何生成Steam快速加好友链接。 蛇发先给大家展示一个自己的快速加好友链接：steam:\/\/friends\/add\/76561198110929419&#160;....",
"emailed" : False,
"forwarded" : False,
"english" : False
}  , {
"index" : 15,
"articleIndex" : "6310",
"favor" :  False ,
     "read" : False,    
"title" : "DOTA2实力美女战队FOX战队写真大曝光",
"titleTip" : "DOTA2实力美女战队FOX战队写真大曝光",
"titleSummary" : "DOTA2实力美女战队FOX战队写真大曝光",
"descSummary" : "近日，在DOTA2的赛场上，一只全新的美女战队大放光彩，成...",
"url" : "http:\/\/go.rss.sina.com.cn\/redirect.php?url=http:\/\/games.sina.com.cn\/e\/n\/2013-10-17\/1140738365.shtml",
"pubDate" : "2013年10月17日 (1周前)",
"enterDate" : "384182:33:15",
"channelId" : "-2228969383350841313",
"channelName" : "电子竞技新闻-新浪游戏",
"channelNameSummary" : "电子竞技新闻-新浪游...",
"channelUrl" : "http:\/\/games.sina.com.cn\/news\/dzjj\/index.shtml",
"author" : "WWW.SINA.COM.CN",
"tags" : [],
"desc" : "近日，在DOTA2的赛场上，一只全新的美女战队大放光彩，成为了玩家关注的焦点。她们正是在DOTA2全国争霸赛・中国网吧超级赛表现出色的FOX战队，几位美眉成功诠释的顶级竞技，全民共享的概念。享受竞技娱乐就应该是不分男女，不分职业，不分年龄，不分水平高低。而目前DOTA2全国....",
"emailed" : False,
"forwarded" : False,
"english" : False
}  , {
"index" : 16,
"articleIndex" : "6309",
"favor" :  False ,
     "read" : False,    
"title" : "采访ZhouXixi:输赢看睡眠 昆山看好3蛋",
"titleTip" : "采访ZhouXixi:输赢看睡眠 昆山看好3蛋",
"titleSummary" : "采访ZhouXixi:输赢看睡眠 昆山看好3蛋",
"descSummary" : "WCG中国区总决赛已经落幕，第一暗夜ZHou_Xixi在死亡之组C组中...",
"url" : "http:\/\/go.rss.sina.com.cn\/redirect.php?url=http:\/\/games.sina.com.cn\/e\/n\/2013-10-17\/1135738358.shtml",
"pubDate" : "2013年10月17日 (1周前)",
"enterDate" : "384182:28:42",
"channelId" : "-2228969383350841313",
"channelName" : "电子竞技新闻-新浪游戏",
"channelNameSummary" : "电子竞技新闻-新浪游...",
"channelUrl" : "http:\/\/games.sina.com.cn\/news\/dzjj\/index.shtml",
"author" : "WWW.SINA.COM.CN",
"tags" : [],
"desc" : "WCG中国区总决赛已经落幕，第一暗夜ZHou_Xixi在死亡之组C组中傲然以小组第一力压三蛋出线，虽然在随后的半决赛中不敌虎王，但是在争夺最后一张世界总决赛门票时，西爷发挥异常出色，2:0干净利落的淘汰了去年的世界冠军TeD。赛后，我们对西爷进行了一次采访，并祝愿西爷能在之....",
"emailed" : False,
"forwarded" : False,
"english" : False
}  , {
"index" : 17,
"articleIndex" : "6308",
"favor" :  False ,
     "read" : False,    
"title" : "PDD接受韩媒专访：我要当世界最强上单",
"titleTip" : "PDD接受韩媒专访：我要当世界最强上单",
"titleSummary" : "PDD接受韩媒专访：我要当世界最强上单",
"descSummary" : "\u201C去转告PDD!\u201D\u201C啪!\u201D 各位召唤师，您知道刘谋PDD选手么?...",
"url" : "http:\/\/go.rss.sina.com.cn\/redirect.php?url=http:\/\/games.sina.com.cn\/e\/n\/2013-10-17\/1132738353.shtml",
"pubDate" : "2013年10月17日 (1周前)",
"enterDate" : "384182:25:07",
"channelId" : "-2228969383350841313",
"channelName" : "电子竞技新闻-新浪游戏",
"channelNameSummary" : "电子竞技新闻-新浪游...",
"channelUrl" : "http:\/\/games.sina.com.cn\/news\/dzjj\/index.shtml",
"author" : "WWW.SINA.COM.CN",
"tags" : [],
"desc" : "\u201C去转告PDD!\u201D\u201C啪!\u201D 各位召唤师，您知道刘谋PDD选手么?在中国职业战队IG中担任上单的这位选手，虽然大家可以通过IG的比赛来看到他的身影，但是更多的，可以在Inven-今日话题栏上看到的选手。 无论是什么情况，只要加上\u201C去转告PDD!\"这句话和一段想象力就可以....",
"emailed" : False,
"forwarded" : False,
"english" : False
}  , {
"index" : 18,
"articleIndex" : "6307",
"favor" :  False ,
     "read" : False,    
"title" : "WCG2013韩国区预选赛 Lyn不敌LawLiet",
"titleTip" : "WCG2013韩国区预选赛 Lyn不敌LawLiet",
"titleSummary" : "WCG2013韩国区预选赛 Lyn不敌LawLiet",
"descSummary" : "WCG2013韩国预选赛-魔兽争霸3项目于日前拉开战幕，除了Moo...",
"url" : "http:\/\/go.rss.sina.com.cn\/redirect.php?url=http:\/\/games.sina.com.cn\/e\/n\/2013-10-17\/1130738352.shtml",
"pubDate" : "2013年10月17日 (1周前)",
"enterDate" : "384182:23:10",
"channelId" : "-2228969383350841313",
"channelName" : "电子竞技新闻-新浪游戏",
"channelNameSummary" : "电子竞技新闻-新浪游...",
"channelUrl" : "http:\/\/games.sina.com.cn\/news\/dzjj\/index.shtml",
"author" : "WWW.SINA.COM.CN",
"tags" : [],
"desc" : "WCG2013韩国预选赛-魔兽争霸3项目于日前拉开战幕，除了Moon通过投票直接晋级世界总决赛外，其余选手将通过海选来争夺另外两个出线名额。共有20人参加了预选赛，他们将被分为四组进行BO3小组循环赛，小组第一晋级四强，四强阶段的赛制为BO3单淘，前二晋级昆山世界总决赛。 ....",
"emailed" : False,
"forwarded" : False,
"english" : False
}  , {
"index" : 19,
"articleIndex" : "6306",
"favor" :  False ,
     "read" : False,    
"title" : "魔兽选手排名榜#20 TH000凭借WCG登顶",
"titleTip" : "魔兽选手排名榜#20 TH000凭借WCG登顶",
"titleSummary" : "魔兽选手排名榜#20 TH000凭借WCG登顶",
"descSummary" : "魔兽争霸3选手排名榜由资深电竞人，WCG中国区总决赛连续7...",
"url" : "http:\/\/go.rss.sina.com.cn\/redirect.php?url=http:\/\/games.sina.com.cn\/e\/n\/2013-10-17\/1122738341.shtml",
"pubDate" : "2013年10月17日 (1周前)",
"enterDate" : "384182:15:32",
"channelId" : "-2228969383350841313",
"channelName" : "电子竞技新闻-新浪游戏",
"channelNameSummary" : "电子竞技新闻-新浪游...",
"channelUrl" : "http:\/\/games.sina.com.cn\/news\/dzjj\/index.shtml",
"author" : "WWW.SINA.COM.CN",
"tags" : [],
"desc" : "魔兽争霸3选手排名榜由资深电竞人，WCG中国区总决赛连续7年的裁判\u2015\u2015巴金，为大家做统计和持续更新，排名标准是看选手们在近期各大赛事上的表现。中国已经成为世界魔兽的中心，比起国外媒体GoSuGamers的排名，这个排行更能体现选手们的活跃度和水平。 排名每半个月更....",
"emailed" : False,
"forwarded" : False,
"english" : False
} ]
}
