{
"mode" : {"viewTitle" : 1,   "viewNew" : 0,  "pageIndex" : 2 },
 "channel" : {"id" : "-2228969383350841313", "booked" : False, "subNumber" : 1, "name" : "电子竞技新闻-新浪游戏", "url" : "http:\/\/games.sina.com.cn\/news\/dzjj\/index.shtml", "feed" : "http:\/\/rss.sina.com.cn\/games\/dzjj.xml", "author" : "WWW.SINA.COM.CN", "desc" : "新浪游戏之电子竞技新闻", "imageUrl" : "http:\/\/www.sinaimg.cn\/home\/images\/sina_logo2.gif", "postPerWeek" : "0", "lastCrawTime" : "2013年10月20日 (1周前)", "crawDateTime" : "2013年10月20日 (1周前)", "lastHttpCode" : "304"}, "page" : {
"startIndex" : 20,
"totalCount" : 5000,
"pageIndex" : 2,
"lastPage" : 250,
"pageSize" : 20,
"english" :  False },
 "unreadNum" : 0, "shotIndex" : -1,
"articles" : [
{
"index" : 0,
"articleIndex" : "6305",
"favor" :  False ,
     "read" : False,    
"title" : "锦州博爱俱乐部WCG照片集锦：颁奖典礼",
"titleTip" : "锦州博爱俱乐部WCG照片集锦：颁奖典礼",
"titleSummary" : "锦州博爱俱乐部WCG照片集锦：颁奖典礼",
"descSummary" : "EP.怯薛军!WCG中国区冠军!随着决赛第四局比赛时间的最后一...",
"url" : "http:\/\/go.rss.sina.com.cn\/redirect.php?url=http:\/\/games.sina.com.cn\/e\/n\/2013-10-17\/1118738339.shtml",
"pubDate" : "2013年10月17日 (1周前)",
"enterDate" : "384182:11:05",
"channelId" : "-2228969383350841313",
"channelName" : "电子竞技新闻-新浪游戏",
"channelNameSummary" : "电子竞技新闻-新浪游...",
"channelUrl" : "http:\/\/games.sina.com.cn\/news\/dzjj\/index.shtml",
"author" : "WWW.SINA.COM.CN",
"tags" : [],
"desc" : "EP.怯薛军!WCG中国区冠军!随着决赛第四局比赛时间的最后一秒跳动，EP.怯薛军以3:0(第三局平)的总比分，战胜屠灬TOP15，拿下目前为止最为重要的一个冠军，成为当之无愧的王者。超级杯赛冠军、英伟达中国区冠军、超级联赛冠军，以及今天的WCG中国区冠军，EP.怯薛军用无可阻挡的....",
"emailed" : False,
"forwarded" : False,
"english" : False
}  , {
"index" : 1,
"articleIndex" : "6304",
"favor" :  False ,
     "read" : False,    
"title" : "社会偏见阻碍电竞发展 盈利问题要重视",
"titleTip" : "社会偏见阻碍电竞发展 盈利问题要重视",
"titleSummary" : "社会偏见阻碍电竞发展 盈利问题要重视",
"descSummary" : "10月5日，电子竞技项目《英雄联盟》S3赛季世界总决赛落下帷幕...",
"url" : "http:\/\/go.rss.sina.com.cn\/redirect.php?url=http:\/\/games.sina.com.cn\/e\/n\/2013-10-17\/1114738335.shtml",
"pubDate" : "2013年10月17日 (1周前)",
"enterDate" : "384182:07:02",
"channelId" : "-2228969383350841313",
"channelName" : "电子竞技新闻-新浪游戏",
"channelNameSummary" : "电子竞技新闻-新浪游...",
"channelUrl" : "http:\/\/games.sina.com.cn\/news\/dzjj\/index.shtml",
"author" : "WWW.SINA.COM.CN",
"tags" : [],
"desc" : "10月5日，电子竞技项目《英雄联盟》S3赛季世界总决赛落下帷幕，中国的皇族战队并没有像国人期待那样夺下冠军，最终以0-3的惨败输给了韩国SKTT1战队。近年来，国内电竞频频倒在韩国手下，让人们不禁发出疑问，难道国内连电竞也\u201C恐韩\u201D了吗？ 英雄联盟S3大赛前不久才刚刚结....",
"emailed" : False,
"forwarded" : False,
"english" : False
}  , {
"index" : 2,
"articleIndex" : "6303",
"favor" :  False ,
     "read" : False,    
"title" : "ACE前瞻:走势初显 干爹iG大战一触即发",
"titleTip" : "ACE前瞻:走势初显 干爹iG大战一触即发",
"titleSummary" : "ACE前瞻:走势初显 干爹iG大战一触即发",
"descSummary" : "10月16日，WPC-ACE DOTA2联赛战火重燃。保持全胜的DK在本...",
"url" : "http:\/\/go.rss.sina.com.cn\/redirect.php?url=http:\/\/games.sina.com.cn\/e\/n\/2013-10-16\/1702738247.shtml",
"pubDate" : "2013年10月16日 (2周前)",
"enterDate" : "384188:01:57",
"channelId" : "-2228969383350841313",
"channelName" : "电子竞技新闻-新浪游戏",
"channelNameSummary" : "电子竞技新闻-新浪游...",
"channelUrl" : "http:\/\/games.sina.com.cn\/news\/dzjj\/index.shtml",
"author" : "WWW.SINA.COM.CN",
"tags" : [],
"desc" : "10月16日，WPC-ACE DOTA2联赛战火重燃。保持全胜的DK在本周将迎来HGT与LGD.int的挑战，不出意外他们将继续领跑积分榜。在其他场次的比赛中，iG与LGD.cn将迎来一场巅峰对决，LGD.cn想要在积分榜更进一步，与iG这一战则必须拿下。在完成本周的比赛过后，WPC常规赛已接近半程，联....",
"emailed" : False,
"forwarded" : False,
"english" : False
}  , {
"index" : 3,
"articleIndex" : "6302",
"favor" :  False ,
     "read" : False,    
"title" : "ACE上周盘点:DK独领风骚 豪强陷入鏖战",
"titleTip" : "ACE上周盘点:DK独领风骚 豪强陷入鏖战",
"titleSummary" : "ACE上周盘点:DK独领风骚 豪强陷入鏖战",
"descSummary" : "WPC-ACE DOTA2联赛第三周的比赛可谓精彩万分，iG在与To...",
"url" : "http:\/\/go.rss.sina.com.cn\/redirect.php?url=http:\/\/games.sina.com.cn\/e\/n\/2013-10-16\/1659738244.shtml",
"pubDate" : "2013年10月16日 (2周前)",
"enterDate" : "384187:59:06",
"channelId" : "-2228969383350841313",
"channelName" : "电子竞技新闻-新浪游戏",
"channelNameSummary" : "电子竞技新闻-新浪游...",
"channelUrl" : "http:\/\/games.sina.com.cn\/news\/dzjj\/index.shtml",
"author" : "WWW.SINA.COM.CN",
"tags" : [],
"desc" : "WPC-ACE DOTA2联赛第三周的比赛可谓精彩万分，iG在与TongFu的焦点战中轻取对手获得胜利，而VG也在与TongFu的比赛中展现了超强的实力。此外年轻的HGT在与iG的比赛中打出了极高的水平，险些将状态正佳的iG掀翻在地。在经历了一周的鏖战之后，积分榜各队的排名也发生了翻天覆地的....",
"emailed" : False,
"forwarded" : False,
"english" : False
}  , {
"index" : 4,
"articleIndex" : "6301",
"favor" :  False ,
     "read" : False,    
"title" : "DOTA2树精卫士的攻略 护体神甲的逆袭",
"titleTip" : "DOTA2树精卫士的攻略 护体神甲的逆袭",
"titleSummary" : "DOTA2树精卫士的攻略 护体神甲的逆袭",
"descSummary" : "首先大家得了解大树这个英雄以及技能了解！下面会慢慢深入的让...",
"url" : "http:\/\/go.rss.sina.com.cn\/redirect.php?url=http:\/\/games.sina.com.cn\/e\/n\/2013-10-16\/1619738235.shtml",
"pubDate" : "2013年10月16日 (2周前)",
"enterDate" : "384187:18:20",
"channelId" : "-2228969383350841313",
"channelName" : "电子竞技新闻-新浪游戏",
"channelNameSummary" : "电子竞技新闻-新浪游...",
"channelUrl" : "http:\/\/games.sina.com.cn\/news\/dzjj\/index.shtml",
"author" : "WWW.SINA.COM.CN",
"tags" : [],
"desc" : "首先大家得了解大树这个英雄以及技能了解！下面会慢慢深入的让大家提高自己DOTA2知识。 在遥远的西方之外，预兆之谷远方的群山中，蕴藏着一股强大的古老力量，一股隐藏在树木中，令人敬畏的力量之源。据说生长在这片区域的物种都很奇特。对于自然之力而言，这是一....",
"emailed" : False,
"forwarded" : False,
"english" : False
}  , {
"index" : 5,
"articleIndex" : "6300",
"favor" :  False ,
     "read" : False,    
"title" : "水友：DOTA2才是MOBA游戏玩家的归属",
"titleTip" : "水友：DOTA2才是MOBA游戏玩家的归属",
"titleSummary" : "水友：DOTA2才是MOBA游戏玩家的归属",
"descSummary" : "说到\u201CMOBA\u201D这个词，可能许多玩家都会感到陌生，但提到...",
"url" : "http:\/\/go.rss.sina.com.cn\/redirect.php?url=http:\/\/games.sina.com.cn\/e\/n\/2013-10-16\/1614738233.shtml",
"pubDate" : "2013年10月16日 (2周前)",
"enterDate" : "384187:13:12",
"channelId" : "-2228969383350841313",
"channelName" : "电子竞技新闻-新浪游戏",
"channelNameSummary" : "电子竞技新闻-新浪游...",
"channelUrl" : "http:\/\/games.sina.com.cn\/news\/dzjj\/index.shtml",
"author" : "WWW.SINA.COM.CN",
"tags" : [],
"desc" : "说到\u201CMOBA\u201D这个词，可能许多玩家都会感到陌生，但提到\u201C英雄对战网游\u201D\u201C联机\u201D\u201C在线竞技\u201D等词汇，相信大家立刻就会联想篇幅，倍感熟悉。没错，MOBA就是\u201C多人联机在线竞技游戏\u201D的英文简写，是目前非常火爆的一类游戏。而目前市场上最主流最火热的MOBA竞技游戏应该就是DO....",
"emailed" : False,
"forwarded" : False,
"english" : False
}  , {
"index" : 6,
"articleIndex" : "6299",
"favor" :  False ,
     "read" : False,    
"title" : "AWC#3正赛A组赛况 FoCuS EleGaNt 晋级",
"titleTip" : "AWC#3正赛A组赛况 FoCuS EleGaNt 晋级",
"titleSummary" : "AWC#3正赛A组赛况 FoCuS EleGaNt 晋级",
"descSummary" : "韩国AWC线上魔兽锦标赛近日将拉开第三赛季的战幕（此前...",
"url" : "http:\/\/go.rss.sina.com.cn\/redirect.php?url=http:\/\/games.sina.com.cn\/e\/n\/2013-10-16\/1611738232.shtml",
"pubDate" : "2013年10月16日 (2周前)",
"enterDate" : "384187:10:26",
"channelId" : "-2228969383350841313",
"channelName" : "电子竞技新闻-新浪游戏",
"channelNameSummary" : "电子竞技新闻-新浪游...",
"channelUrl" : "http:\/\/games.sina.com.cn\/news\/dzjj\/index.shtml",
"author" : "WWW.SINA.COM.CN",
"tags" : [],
"desc" : "韩国AWC线上魔兽锦标赛近日将拉开第三赛季的战幕（此前两个赛季的冠军分别由Fly100%和Lyn获得)。而主办方表示，今年是WAR3在WCG世界总决赛舞台的最后一年，这届AWC也可能将是AWC魔兽锦标赛的绝唱。 比赛奖金共250万韩元（约合人民币14100元），全由韩国的魔兽爱好者赞....",
"emailed" : False,
"forwarded" : False,
"english" : False
}  , {
"index" : 7,
"articleIndex" : "6298",
"favor" :  False ,
     "read" : False,    
"title" : "采访TH000：为了WCG 两个月怒练800盘",
"titleTip" : "采访TH000：为了WCG 两个月怒练800盘",
"titleSummary" : "采访TH000：为了WCG 两个月怒练800盘",
"descSummary" : "WCG中国区总决赛已经落幕了，TH000过关斩将最后勇夺冠军...",
"url" : "http:\/\/go.rss.sina.com.cn\/redirect.php?url=http:\/\/games.sina.com.cn\/e\/n\/2013-10-16\/1609738231.shtml",
"pubDate" : "2013年10月16日 (2周前)",
"enterDate" : "384187:09:08",
"channelId" : "-2228969383350841313",
"channelName" : "电子竞技新闻-新浪游戏",
"channelNameSummary" : "电子竞技新闻-新浪游...",
"channelUrl" : "http:\/\/games.sina.com.cn\/news\/dzjj\/index.shtml",
"author" : "WWW.SINA.COM.CN",
"tags" : [],
"desc" : "WCG中国区总决赛已经落幕了，TH000过关斩将最后勇夺冠军。虽然看似轻松，但背后却蕴含着无数的练习与思考。成功是一个付出的结果，胜利并不是偶然。在比赛结束后，我们对TH000进行了一次采访，并祝愿他在昆山能稳住，发挥出色。 Q：恭喜WCG中国区总决赛冠军，先发表一....",
"emailed" : False,
"forwarded" : False,
"english" : False
}  , {
"index" : 8,
"articleIndex" : "6297",
"favor" :  False ,
     "read" : False,    
"title" : "重庆晨报：电竞参与者多 但产业化不足",
"titleTip" : "重庆晨报：电竞参与者多 但产业化不足",
"titleSummary" : "重庆晨报：电竞参与者多 但产业化不足",
"descSummary" : "10月19-20日，由重庆晨报和重庆社会体育竞赛中心联合主办，腾...",
"url" : "http:\/\/go.rss.sina.com.cn\/redirect.php?url=http:\/\/games.sina.com.cn\/e\/n\/2013-10-16\/1559738226.shtml",
"pubDate" : "2013年10月16日 (2周前)",
"enterDate" : "384186:58:39",
"channelId" : "-2228969383350841313",
"channelName" : "电子竞技新闻-新浪游戏",
"channelNameSummary" : "电子竞技新闻-新浪游...",
"channelUrl" : "http:\/\/games.sina.com.cn\/news\/dzjj\/index.shtml",
"author" : "WWW.SINA.COM.CN",
"tags" : [],
"desc" : "10月19-20日，由重庆晨报和重庆社会体育竞赛中心联合主办，腾搏体育、跃动网络、腾讯游戏、YY语音联合承办的重庆首届BGW杯电子竞技（英雄联盟）超级联赛，将在沙坪坝区、九龙坡区和渝北区进行选拔赛，在5万元冠军奖的激励下，上百支战队报名参加重庆电竞的盛大集会。 人山....",
"emailed" : False,
"forwarded" : False,
"english" : False
}  , {
"index" : 9,
"articleIndex" : "6296",
"favor" :  False ,
     "read" : False,    
"title" : "S3决赛信息回顾:从BAN PICK看英雄兴衰",
"titleTip" : "S3决赛信息回顾:从BAN PICK看英雄兴衰",
"titleSummary" : "S3决赛信息回顾:从BAN PICK看英雄兴衰",
"descSummary" : "飞机大热 地区赛Pick\/Ban 2.5% S3决赛 93.5% 绿翔人暴跌 地...",
"url" : "http:\/\/go.rss.sina.com.cn\/redirect.php?url=http:\/\/games.sina.com.cn\/e\/n\/2013-10-16\/1558738225.shtml",
"pubDate" : "2013年10月16日 (2周前)",
"enterDate" : "384186:57:45",
"channelId" : "-2228969383350841313",
"channelName" : "电子竞技新闻-新浪游戏",
"channelNameSummary" : "电子竞技新闻-新浪游...",
"channelUrl" : "http:\/\/games.sina.com.cn\/news\/dzjj\/index.shtml",
"author" : "WWW.SINA.COM.CN",
"tags" : [],
"desc" : "飞机大热 地区赛Pick\/Ban 2.5% → S3决赛 93.5% 绿翔人暴跌 地区赛Pick\/Ban 73&amp; → S3决赛 26.2% 争夺最多的英雄 劫 51Bans\/10Picks 胜率 50% 慎 34Bans\/25Picks 胜率 52% 飞机 25Bans\/32Picks 胜率 50% 胜率最高(Picks) ....",
"emailed" : False,
"forwarded" : False,
"english" : False
}  , {
"index" : 10,
"articleIndex" : "6295",
"favor" :  False ,
     "read" : False,    
"title" : "WCG-WOT冠军怯薛军:进军昆山扬国之威",
"titleTip" : "WCG-WOT冠军怯薛军:进军昆山扬国之威",
"titleSummary" : "WCG-WOT冠军怯薛军:进军昆山扬国之威",
"descSummary" : "EP.怯薛军!WCG中国区冠军!随着决赛第四局比赛时间的最后一...",
"url" : "http:\/\/go.rss.sina.com.cn\/redirect.php?url=http:\/\/games.sina.com.cn\/e\/n\/2013-10-16\/1555738223.shtml",
"pubDate" : "2013年10月16日 (2周前)",
"enterDate" : "384186:54:18",
"channelId" : "-2228969383350841313",
"channelName" : "电子竞技新闻-新浪游戏",
"channelNameSummary" : "电子竞技新闻-新浪游...",
"channelUrl" : "http:\/\/games.sina.com.cn\/news\/dzjj\/index.shtml",
"author" : "WWW.SINA.COM.CN",
"tags" : [],
"desc" : "EP.怯薛军!WCG中国区冠军!随着决赛第四局比赛时间的最后一秒跳动，EP.怯薛军以3:0(第三局平)的总比分，战胜屠灬TOP15，拿下目前为止最为重要的一个冠军，成为当之无愧的王者。超级杯赛冠军、英伟达中国区冠军、超级联赛冠军，以及今天的WCG中国区冠军，EP.怯薛军用无可阻挡的....",
"emailed" : False,
"forwarded" : False,
"english" : False
}  , {
"index" : 11,
"articleIndex" : "6294",
"favor" :  False ,
     "read" : False,    
"title" : "逆战WCG巴西总决赛 GAME7击败playArt",
"titleTip" : "逆战WCG巴西总决赛 GAME7击败playArt",
"titleSummary" : "逆战WCG巴西总决赛 GAME7击败playArt",
"descSummary" : "逆战WCG2013巴西总决赛 WCG，创立于2000年，是一个全球...",
"url" : "http:\/\/go.rss.sina.com.cn\/redirect.php?url=http:\/\/games.sina.com.cn\/e\/n\/2013-10-16\/1553738220.shtml",
"pubDate" : "2013年10月16日 (2周前)",
"enterDate" : "384186:52:28",
"channelId" : "-2228969383350841313",
"channelName" : "电子竞技新闻-新浪游戏",
"channelNameSummary" : "电子竞技新闻-新浪游...",
"channelUrl" : "http:\/\/games.sina.com.cn\/news\/dzjj\/index.shtml",
"author" : "WWW.SINA.COM.CN",
"tags" : [],
"desc" : "逆战WCG2013巴西总决赛 WCG，创立于2000年，是一个全球性的电子竞技赛事。 大赛一直以 \u201Cbeyond the game\u201D 为口号，以推动电子竞技的全球发展为目标，旨在促进人们在网络时代的沟通、互动和交流，促进人类生活的和谐与愉快。WCG2013中国区总决赛将于10.11-10.13在成都举行....",
"emailed" : False,
"forwarded" : False,
"english" : False
}  , {
"index" : 12,
"articleIndex" : "6293",
"favor" :  False ,
     "read" : False,    
"title" : "萌系恶搞DOTA2虚空假面动态表情系列",
"titleTip" : "萌系恶搞DOTA2虚空假面动态表情系列",
"titleSummary" : "萌系恶搞DOTA2虚空假面动态表情系列",
"descSummary" : "虚空假面一直是大家最喜爱的DOTA2后期Carry之一，霸气侧露有...",
"url" : "http:\/\/go.rss.sina.com.cn\/redirect.php?url=http:\/\/games.sina.com.cn\/e\/n\/2013-10-15\/1744738014.shtml",
"pubDate" : "2013年10月15日 (2周前)",
"enterDate" : "384188:50:22",
"channelId" : "-2228969383350841313",
"channelName" : "电子竞技新闻-新浪游戏",
"channelNameSummary" : "电子竞技新闻-新浪游...",
"channelUrl" : "http:\/\/games.sina.com.cn\/news\/dzjj\/index.shtml",
"author" : "WWW.SINA.COM.CN",
"tags" : [],
"desc" : "虚空假面一直是大家最喜爱的DOTA2后期Carry之一，霸气侧露有木有？今天给大家带来的是虚空的动态表情包，赶快和朋友分享吧！ 怒躲神箭 时间漫游 我要拯救世界了！",
"emailed" : False,
"forwarded" : False,
"english" : False
}  , {
"index" : 13,
"articleIndex" : "6292",
"favor" :  False ,
     "read" : False,    
"title" : "SL联赛进击的NaVi:一场足载史册的胜利",
"titleTip" : "SL联赛进击的NaVi:一场足载史册的胜利",
"titleSummary" : "SL联赛进击的NaVi:一场足载史册的胜利",
"descSummary" : "TI3总决赛，NaVi和Alliance的世纪大战还历历在目，两个月后，...",
"url" : "http:\/\/go.rss.sina.com.cn\/redirect.php?url=http:\/\/games.sina.com.cn\/e\/n\/2013-10-15\/1743738013.shtml",
"pubDate" : "2013年10月15日 (2周前)",
"enterDate" : "384188:49:12",
"channelId" : "-2228969383350841313",
"channelName" : "电子竞技新闻-新浪游戏",
"channelNameSummary" : "电子竞技新闻-新浪游...",
"channelUrl" : "http:\/\/games.sina.com.cn\/news\/dzjj\/index.shtml",
"author" : "WWW.SINA.COM.CN",
"tags" : [],
"desc" : "TI3总决赛，NaVi和Alliance的世纪大战还历历在目，两个月后，这对对手又重新在SL7的总决赛上相遇，两队又是经历了惨烈的大战才决出胜负， 这一次NaVi在家门口成功复仇，而这两支队伍给我们带来的不仅仅是四场精彩的比赛，更是为一段旷日持久的恩怨埋下了伏笔，无论未来的走向....",
"emailed" : False,
"forwarded" : False,
"english" : False
}  , {
"index" : 14,
"articleIndex" : "6291",
"favor" :  False ,
     "read" : False,    
"title" : "首届DOTA2全国争霸赛 线上赛火爆开战",
"titleTip" : "首届DOTA2全国争霸赛 线上赛火爆开战",
"titleSummary" : "首届DOTA2全国争霸赛 线上赛火爆开战",
"descSummary" : "10月1日开赛，12天的线上激战！中国网吧超级赛？首届DOTA2全...",
"url" : "http:\/\/go.rss.sina.com.cn\/redirect.php?url=http:\/\/games.sina.com.cn\/e\/n\/2013-10-15\/1736738010.shtml",
"pubDate" : "2013年10月15日 (2周前)",
"enterDate" : "384188:41:37",
"channelId" : "-2228969383350841313",
"channelName" : "电子竞技新闻-新浪游戏",
"channelNameSummary" : "电子竞技新闻-新浪游...",
"channelUrl" : "http:\/\/games.sina.com.cn\/news\/dzjj\/index.shtml",
"author" : "WWW.SINA.COM.CN",
"tags" : [],
"desc" : "10月1日开赛，12天的线上激战！中国网吧超级赛？首届DOTA2全国争霸赛，随着全国25个赛点前32强名单揭晓，为期12天激烈无比的线上积分赛部分于2013年10月12日完美收官！而线上晋级赛的角逐即将于10月15日火爆开战！ 一场更为火爆的争夺战正悄然临近，谁能首个突围，谁能....",
"emailed" : False,
"forwarded" : False,
"english" : False
}  , {
"index" : 15,
"articleIndex" : "6290",
"favor" :  False ,
     "read" : False,    
"title" : "美眉玩家转型DOTA2 全新火女Cos图集",
"titleTip" : "美眉玩家转型DOTA2 全新火女Cos图集",
"titleSummary" : "美眉玩家转型DOTA2 全新火女Cos图集",
"descSummary" : "DOTA2相比原作DotA，拥有全新的英雄模型，更加彰显英雄性格...",
"url" : "http:\/\/go.rss.sina.com.cn\/redirect.php?url=http:\/\/games.sina.com.cn\/e\/n\/2013-10-15\/1734738008.shtml",
"pubDate" : "2013年10月15日 (2周前)",
"enterDate" : "384188:39:45",
"channelId" : "-2228969383350841313",
"channelName" : "电子竞技新闻-新浪游戏",
"channelNameSummary" : "电子竞技新闻-新浪游...",
"channelUrl" : "http:\/\/games.sina.com.cn\/news\/dzjj\/index.shtml",
"author" : "WWW.SINA.COM.CN",
"tags" : [],
"desc" : "DOTA2相比原作DotA，拥有全新的英雄模型，更加彰显英雄性格与特点。国内人气COSPLAY团体\u201C粉红色猴子天堂\u201D这次为我们带来的正是DOTA2中一位相当火爆的女性英雄\u2015\u2015火女莉娜的精美COS。Coser本身具有的邪魅气质，将这位火药味十足的高爆发英雄的自信与高贵，体现得淋漓尽致。",
"emailed" : False,
"forwarded" : False,
"english" : False
}  , {
"index" : 16,
"articleIndex" : "6289",
"favor" :  False ,
     "read" : False,    
"title" : "前冠军Ted博文:七年职业生涯 释然放手",
"titleTip" : "前冠军Ted博文:七年职业生涯 释然放手",
"titleSummary" : "前冠军Ted博文:七年职业生涯 释然放手",
"descSummary" : "去年WCG世界区总决赛魔兽争霸3项目由亡灵选手TeD一路过关斩...",
"url" : "http:\/\/go.rss.sina.com.cn\/redirect.php?url=http:\/\/games.sina.com.cn\/e\/n\/2013-10-15\/1727738002.shtml",
"pubDate" : "2013年10月15日 (2周前)",
"enterDate" : "384188:33:04",
"channelId" : "-2228969383350841313",
"channelName" : "电子竞技新闻-新浪游戏",
"channelNameSummary" : "电子竞技新闻-新浪游...",
"channelUrl" : "http:\/\/games.sina.com.cn\/news\/dzjj\/index.shtml",
"author" : "WWW.SINA.COM.CN",
"tags" : [],
"desc" : "去年WCG世界区总决赛魔兽争霸3项目由亡灵选手TeD一路过关斩将获得冠军，打破了WCG冠军无亡灵的尴尬，而那时他已退役很久了。今年再战WCG的他，在中国区的赛场却一败再败只获得第四名。在赛后TeD写了一篇博文，阐述本次WCG的相关得失。 以下为博文全文： 7年职业....",
"emailed" : False,
"forwarded" : False,
"english" : False
}  , {
"index" : 17,
"articleIndex" : "6288",
"favor" :  False ,
     "read" : False,    
"title" : "ZCup第309周 Rudan大胜Cechi 问鼎冠军",
"titleTip" : "ZCup第309周 Rudan大胜Cechi 问鼎冠军",
"titleSummary" : "ZCup第309周 Rudan大胜Cechi 问鼎冠军",
"descSummary" : "由ZOTAC(索泰显卡)赞助，德国网站Gamesports.de主办的ZOTA...",
"url" : "http:\/\/go.rss.sina.com.cn\/redirect.php?url=http:\/\/games.sina.com.cn\/e\/n\/2013-10-15\/1726738001.shtml",
"pubDate" : "2013年10月15日 (2周前)",
"enterDate" : "384188:32:04",
"channelId" : "-2228969383350841313",
"channelName" : "电子竞技新闻-新浪游戏",
"channelNameSummary" : "电子竞技新闻-新浪游...",
"channelUrl" : "http:\/\/games.sina.com.cn\/news\/dzjj\/index.shtml",
"author" : "WWW.SINA.COM.CN",
"tags" : [],
"desc" : "由ZOTAC(索泰显卡)赞助，德国网站Gamesports.de主办的ZOTAC WarcraftIII Cup(简称ZCup)于日前进行了第309周的争夺。由于WCG中国区总决赛正在进行，本周并没有国手参赛，塞尔维亚精灵Rudan发挥出色，先后战胜Sonik、Cechi等欧洲线上好手，问鼎冠军。....",
"emailed" : False,
"forwarded" : False,
"english" : False
}  , {
"index" : 18,
"articleIndex" : "6287",
"favor" :  False ,
     "read" : False,    
"title" : "EWCL第16赛季联赛第三轮 各级别的综述",
"titleTip" : "EWCL第16赛季联赛第三轮 各级别的综述",
"titleSummary" : "EWCL第16赛季联赛第三轮 各级别的综述",
"descSummary" : "本周EWCL战队联赛第三轮也已经结束，在各个级别的比赛中，...",
"url" : "http:\/\/go.rss.sina.com.cn\/redirect.php?url=http:\/\/games.sina.com.cn\/e\/n\/2013-10-15\/1717737999.shtml",
"pubDate" : "2013年10月15日 (2周前)",
"enterDate" : "384188:22:35",
"channelId" : "-2228969383350841313",
"channelName" : "电子竞技新闻-新浪游戏",
"channelNameSummary" : "电子竞技新闻-新浪游...",
"channelUrl" : "http:\/\/games.sina.com.cn\/news\/dzjj\/index.shtml",
"author" : "WWW.SINA.COM.CN",
"tags" : [],
"desc" : "本周EWCL战队联赛第三轮也已经结束，在各个级别的比赛中，存在着不同的竞争，有的争冠，有的冲级，有的保级，各个战队有着各个战队的目标，没有WCG的舞台和梦想，但有E-WCL的坚持和荣耀。 首先在超级联赛中，直播场次的u2m和PK双方握手言和，PK引以为傲的2V2最终在51和....",
"emailed" : False,
"forwarded" : False,
"english" : False
}  , {
"index" : 19,
"articleIndex" : "6286",
"favor" :  False ,
     "read" : False,    
"title" : "草莓：训练不足影响发挥 S4对我们有利",
"titleTip" : "草莓：训练不足影响发挥 S4对我们有利",
"titleSummary" : "草莓：训练不足影响发挥 S4对我们有利",
"descSummary" : "Q：草莓你好，欢迎草莓接受采访，之前WE的状态并不是很好，...",
"url" : "http:\/\/go.rss.sina.com.cn\/redirect.php?url=http:\/\/games.sina.com.cn\/e\/n\/2013-10-15\/1714737998.shtml",
"pubDate" : "2013年10月15日 (2周前)",
"enterDate" : "384188:20:13",
"channelId" : "-2228969383350841313",
"channelName" : "电子竞技新闻-新浪游戏",
"channelNameSummary" : "电子竞技新闻-新浪游...",
"channelUrl" : "http:\/\/games.sina.com.cn\/news\/dzjj\/index.shtml",
"author" : "WWW.SINA.COM.CN",
"tags" : [],
"desc" : "Q：草莓你好，欢迎草莓接受采访，之前WE的状态并不是很好，为什么这次重出江湖就取得了这么好的成绩，一路打上了总决赛？ WE草莓：其实我们也是最近才恢复训练，他们打S3的时候我们都是放假了，在家休息了大半个月吧，才回来集合训练不到7天，这次能够进入决赛可能只是....",
"emailed" : False,
"forwarded" : False,
"english" : False
} ]
}
