{
"mode" : {"viewTitle" : 1,   "viewNew" : 0,  "pageIndex" : 1 },
 "channel" : {"id" : "-8389204056491424107", "booked" : False, "subNumber" : 1, "name" : "育儿-新浪博客", "url" : "http:\/\/blog.sina.com.cn\/lm\/baby\/", "feed" : "http:\/\/rss.sina.com.cn\/blog\/baby\/ye.xml", "author" : "WWW.SINA.COM.CN", "desc" : "育儿博客列表", "imageUrl" : "http:\/\/www.sinaimg.cn\/blog\/main\/index2010\/blog_logo.png", "postPerWeek" : "0", "lastCrawTime" : "16:58:41", "crawDateTime" : "15:43:25", "lastHttpCode" : "200"}, "page" : {
"startIndex" : 0,
"totalCount" : 5000,
"pageIndex" : 1,
"lastPage" : 250,
"pageSize" : 20,
"english" :  False },
 "unreadNum" : 0, "shotIndex" : -1,
"articles" : [
{
"index" : 0,
"articleIndex" : "100059",
"favor" :  False ,
     "read" : False,    
"title" : "秋意",
"titleTip" : "秋意",
"titleSummary" : "秋意",
"descSummary" : "",
"url" : "http:\/\/go.rss.sina.com.cn\/redirect.php?url=http:\/\/blog.sina.com.cn\/s\/blog_67fed3190101ekuh.html",
"pubDate" : "14:54:08",
"enterDate" : "384200:30:22",
"channelId" : "-8389204056491424107",
"channelName" : "育儿-新浪博客",
"channelNameSummary" : "育儿-新浪博客",
"channelUrl" : "http:\/\/blog.sina.com.cn\/lm\/baby\/",
"author" : "WWW.SINA.COM.CN",
"tags" : [],
"desc" : "",
"emailed" : False,
"forwarded" : False,
"english" : False
}  , {
"index" : 1,
"articleIndex" : "100058",
"favor" :  False ,
     "read" : False,    
"title" : "宝贝的画画作品秀",
"titleTip" : "宝贝的画画作品秀",
"titleSummary" : "宝贝的画画作品秀",
"descSummary" : "",
"url" : "http:\/\/go.rss.sina.com.cn\/redirect.php?url=http:\/\/blog.sina.com.cn\/s\/blog_6599af790101hz6p.html",
"pubDate" : "14:54:07",
"enterDate" : "384200:30:21",
"channelId" : "-8389204056491424107",
"channelName" : "育儿-新浪博客",
"channelNameSummary" : "育儿-新浪博客",
"channelUrl" : "http:\/\/blog.sina.com.cn\/lm\/baby\/",
"author" : "WWW.SINA.COM.CN",
"tags" : [],
"desc" : "",
"emailed" : False,
"forwarded" : False,
"english" : False
}  , {
"index" : 2,
"articleIndex" : "100057",
"favor" :  False ,
     "read" : False,    
"title" : "培养孩子独立完成作业的能力",
"titleTip" : "培养孩子独立完成作业的能力",
"titleSummary" : "培养孩子独立完成作业的能力",
"descSummary" : "",
"url" : "http:\/\/go.rss.sina.com.cn\/redirect.php?url=http:\/\/blog.sina.com.cn\/s\/blog_54fae40b0101jej5.html",
"pubDate" : "14:33:59",
"enterDate" : "384200:10:13",
"channelId" : "-8389204056491424107",
"channelName" : "育儿-新浪博客",
"channelNameSummary" : "育儿-新浪博客",
"channelUrl" : "http:\/\/blog.sina.com.cn\/lm\/baby\/",
"author" : "WWW.SINA.COM.CN",
"tags" : [],
"desc" : "",
"emailed" : False,
"forwarded" : False,
"english" : False
}  , {
"index" : 3,
"articleIndex" : "100056",
"favor" :  False ,
     "read" : False,    
"title" : "愿娃娃们的友谊地久天长",
"titleTip" : "愿娃娃们的友谊地久天长",
"titleSummary" : "愿娃娃们的友谊地久天长",
"descSummary" : "",
"url" : "http:\/\/go.rss.sina.com.cn\/redirect.php?url=http:\/\/blog.sina.com.cn\/s\/blog_6b27ede50101ger6.html",
"pubDate" : "13:54:07",
"enterDate" : "384199:30:21",
"channelId" : "-8389204056491424107",
"channelName" : "育儿-新浪博客",
"channelNameSummary" : "育儿-新浪博客",
"channelUrl" : "http:\/\/blog.sina.com.cn\/lm\/baby\/",
"author" : "WWW.SINA.COM.CN",
"tags" : [],
"desc" : "",
"emailed" : False,
"forwarded" : False,
"english" : False
}  , {
"index" : 4,
"articleIndex" : "100055",
"favor" :  False ,
     "read" : False,    
"title" : "儿子学习跆拳道点滴小记",
"titleTip" : "儿子学习跆拳道点滴小记",
"titleSummary" : "儿子学习跆拳道点滴小记",
"descSummary" : "",
"url" : "http:\/\/go.rss.sina.com.cn\/redirect.php?url=http:\/\/blog.sina.com.cn\/s\/blog_724ce33d0101dr7g.html",
"pubDate" : "13:54:01",
"enterDate" : "384199:30:15",
"channelId" : "-8389204056491424107",
"channelName" : "育儿-新浪博客",
"channelNameSummary" : "育儿-新浪博客",
"channelUrl" : "http:\/\/blog.sina.com.cn\/lm\/baby\/",
"author" : "WWW.SINA.COM.CN",
"tags" : [],
"desc" : "",
"emailed" : False,
"forwarded" : False,
"english" : False
}  , {
"index" : 5,
"articleIndex" : "100053",
"favor" :  False ,
     "read" : False,    
"title" : "5岁女儿的成长5件事",
"titleTip" : "5岁女儿的成长5件事",
"titleSummary" : "5岁女儿的成长5件事",
"descSummary" : "",
"url" : "http:\/\/go.rss.sina.com.cn\/redirect.php?url=http:\/\/blog.sina.com.cn\/s\/blog_4f7b31680102egmq.html",
"pubDate" : "13:48:58",
"enterDate" : "384199:25:12",
"channelId" : "-8389204056491424107",
"channelName" : "育儿-新浪博客",
"channelNameSummary" : "育儿-新浪博客",
"channelUrl" : "http:\/\/blog.sina.com.cn\/lm\/baby\/",
"author" : "WWW.SINA.COM.CN",
"tags" : [],
"desc" : "",
"emailed" : False,
"forwarded" : False,
"english" : False
}  , {
"index" : 6,
"articleIndex" : "100054",
"favor" :  False ,
     "read" : False,    
"title" : "女儿10月趣语趣事",
"titleTip" : "女儿10月趣语趣事",
"titleSummary" : "女儿10月趣语趣事",
"descSummary" : "",
"url" : "http:\/\/go.rss.sina.com.cn\/redirect.php?url=http:\/\/blog.sina.com.cn\/s\/blog_407a04aa0102e9sj.html",
"pubDate" : "13:48:58",
"enterDate" : "384199:25:12",
"channelId" : "-8389204056491424107",
"channelName" : "育儿-新浪博客",
"channelNameSummary" : "育儿-新浪博客",
"channelUrl" : "http:\/\/blog.sina.com.cn\/lm\/baby\/",
"author" : "WWW.SINA.COM.CN",
"tags" : [],
"desc" : "",
"emailed" : False,
"forwarded" : False,
"english" : False
}  , {
"index" : 7,
"articleIndex" : "100052",
"favor" :  False ,
     "read" : False,    
"title" : "饱览温哥华的色彩",
"titleTip" : "饱览温哥华的色彩",
"titleSummary" : "饱览温哥华的色彩",
"descSummary" : "",
"url" : "http:\/\/go.rss.sina.com.cn\/redirect.php?url=http:\/\/blog.sina.com.cn\/s\/blog_67e524910101q2gz.html",
"pubDate" : "13:44:08",
"enterDate" : "384199:20:22",
"channelId" : "-8389204056491424107",
"channelName" : "育儿-新浪博客",
"channelNameSummary" : "育儿-新浪博客",
"channelUrl" : "http:\/\/blog.sina.com.cn\/lm\/baby\/",
"author" : "WWW.SINA.COM.CN",
"tags" : [],
"desc" : "",
"emailed" : False,
"forwarded" : False,
"english" : False
}  , {
"index" : 8,
"articleIndex" : "100051",
"favor" :  False ,
     "read" : False,    
"title" : "扔掉橡皮写作业",
"titleTip" : "扔掉橡皮写作业",
"titleSummary" : "扔掉橡皮写作业",
"descSummary" : "",
"url" : "http:\/\/go.rss.sina.com.cn\/redirect.php?url=http:\/\/blog.sina.com.cn\/s\/blog_56f8ec690102espi.html",
"pubDate" : "12:59:07",
"enterDate" : "384198:35:21",
"channelId" : "-8389204056491424107",
"channelName" : "育儿-新浪博客",
"channelNameSummary" : "育儿-新浪博客",
"channelUrl" : "http:\/\/blog.sina.com.cn\/lm\/baby\/",
"author" : "WWW.SINA.COM.CN",
"tags" : [],
"desc" : "",
"emailed" : False,
"forwarded" : False,
"english" : False
}  , {
"index" : 9,
"articleIndex" : "100050",
"favor" :  False ,
     "read" : False,    
"title" : "两岁小儿陪妈妈秋游",
"titleTip" : "两岁小儿陪妈妈秋游",
"titleSummary" : "两岁小儿陪妈妈秋游",
"descSummary" : "",
"url" : "http:\/\/go.rss.sina.com.cn\/redirect.php?url=http:\/\/blog.sina.com.cn\/s\/blog_8de634e30101etwz.html",
"pubDate" : "11:53:59",
"enterDate" : "384197:30:13",
"channelId" : "-8389204056491424107",
"channelName" : "育儿-新浪博客",
"channelNameSummary" : "育儿-新浪博客",
"channelUrl" : "http:\/\/blog.sina.com.cn\/lm\/baby\/",
"author" : "WWW.SINA.COM.CN",
"tags" : [],
"desc" : "",
"emailed" : False,
"forwarded" : False,
"english" : False
}  , {
"index" : 10,
"articleIndex" : "100046",
"favor" :  False ,
     "read" : False,    
"title" : "美国孩子说要杀光中国人的背后",
"titleTip" : "美国孩子说要杀光中国人的背后",
"titleSummary" : "美国孩子说要杀光中国人的背后",
"descSummary" : "",
"url" : "http:\/\/go.rss.sina.com.cn\/redirect.php?url=http:\/\/blog.sina.com.cn\/s\/blog_640e23a10102ea7b.html",
"pubDate" : "11:40:18",
"enterDate" : "384200:02:12",
"channelId" : "-8389204056491424107",
"channelName" : "育儿-新浪博客",
"channelNameSummary" : "育儿-新浪博客",
"channelUrl" : "http:\/\/blog.sina.com.cn\/lm\/baby\/",
"author" : "WWW.SINA.COM.CN",
"tags" : [],
"desc" : "",
"emailed" : False,
"forwarded" : False,
"english" : False
}  , {
"index" : 11,
"articleIndex" : "100045",
"favor" :  False ,
     "read" : False,    
"title" : "捉蟹也快乐",
"titleTip" : "捉蟹也快乐",
"titleSummary" : "捉蟹也快乐",
"descSummary" : "",
"url" : "http:\/\/go.rss.sina.com.cn\/redirect.php?url=http:\/\/blog.sina.com.cn\/s\/blog_bb77c9c80101jcna.html",
"pubDate" : "11:19:09",
"enterDate" : "384199:41:03",
"channelId" : "-8389204056491424107",
"channelName" : "育儿-新浪博客",
"channelNameSummary" : "育儿-新浪博客",
"channelUrl" : "http:\/\/blog.sina.com.cn\/lm\/baby\/",
"author" : "WWW.SINA.COM.CN",
"tags" : [],
"desc" : "",
"emailed" : False,
"forwarded" : False,
"english" : False
}  , {
"index" : 12,
"articleIndex" : "100049",
"favor" :  False ,
     "read" : False,    
"title" : "新西兰农场生活感受日",
"titleTip" : "新西兰农场生活感受日",
"titleSummary" : "新西兰农场生活感受日",
"descSummary" : "",
"url" : "http:\/\/go.rss.sina.com.cn\/redirect.php?url=http:\/\/blog.sina.com.cn\/s\/blog_6a2bc3630101emat.html",
"pubDate" : "11:14:03",
"enterDate" : "384196:50:17",
"channelId" : "-8389204056491424107",
"channelName" : "育儿-新浪博客",
"channelNameSummary" : "育儿-新浪博客",
"channelUrl" : "http:\/\/blog.sina.com.cn\/lm\/baby\/",
"author" : "WWW.SINA.COM.CN",
"tags" : [],
"desc" : "",
"emailed" : False,
"forwarded" : False,
"english" : False
}  , {
"index" : 13,
"articleIndex" : "100044",
"favor" :  False ,
     "read" : False,    
"title" : "秋天的叶子",
"titleTip" : "秋天的叶子",
"titleSummary" : "秋天的叶子",
"descSummary" : "",
"url" : "http:\/\/go.rss.sina.com.cn\/redirect.php?url=http:\/\/blog.sina.com.cn\/s\/blog_7aae8f460101agba.html",
"pubDate" : "11:09:06",
"enterDate" : "384199:31:00",
"channelId" : "-8389204056491424107",
"channelName" : "育儿-新浪博客",
"channelNameSummary" : "育儿-新浪博客",
"channelUrl" : "http:\/\/blog.sina.com.cn\/lm\/baby\/",
"author" : "WWW.SINA.COM.CN",
"tags" : [],
"desc" : "",
"emailed" : False,
"forwarded" : False,
"english" : False
}  , {
"index" : 14,
"articleIndex" : "100048",
"favor" :  False ,
     "read" : False,    
"title" : "孕期见红不用太慌张",
"titleTip" : "孕期见红不用太慌张",
"titleSummary" : "孕期见红不用太慌张",
"descSummary" : "",
"url" : "http:\/\/go.rss.sina.com.cn\/redirect.php?url=http:\/\/blog.sina.com.cn\/s\/blog_5ee578f60101bm0z.html",
"pubDate" : "10:49:07",
"enterDate" : "384196:25:21",
"channelId" : "-8389204056491424107",
"channelName" : "育儿-新浪博客",
"channelNameSummary" : "育儿-新浪博客",
"channelUrl" : "http:\/\/blog.sina.com.cn\/lm\/baby\/",
"author" : "WWW.SINA.COM.CN",
"tags" : [],
"desc" : "",
"emailed" : False,
"forwarded" : False,
"english" : False
}  , {
"index" : 15,
"articleIndex" : "100047",
"favor" :  False ,
     "read" : False,    
"title" : "新西兰热水海滩带娃玩沙",
"titleTip" : "新西兰热水海滩带娃玩沙",
"titleSummary" : "新西兰热水海滩带娃玩沙",
"descSummary" : "",
"url" : "http:\/\/go.rss.sina.com.cn\/redirect.php?url=http:\/\/blog.sina.com.cn\/s\/blog_4b4da1810102escn.html",
"pubDate" : "10:09:07",
"enterDate" : "384195:45:21",
"channelId" : "-8389204056491424107",
"channelName" : "育儿-新浪博客",
"channelNameSummary" : "育儿-新浪博客",
"channelUrl" : "http:\/\/blog.sina.com.cn\/lm\/baby\/",
"author" : "WWW.SINA.COM.CN",
"tags" : [],
"desc" : "",
"emailed" : False,
"forwarded" : False,
"english" : False
}  , {
"index" : 16,
"articleIndex" : "100043",
"favor" :  False ,
     "read" : False,    
"title" : "孕妈如何清洗蔬菜水果最健康？",
"titleTip" : "孕妈如何清洗蔬菜水果最健康？",
"titleSummary" : "孕妈如何清洗蔬菜水果最健康？",
"descSummary" : "",
"url" : "http:\/\/go.rss.sina.com.cn\/redirect.php?url=http:\/\/blog.sina.com.cn\/s\/blog_6fc8045f0101g2dv.html",
"pubDate" : "09:54:52",
"enterDate" : "384200:17:05",
"channelId" : "-8389204056491424107",
"channelName" : "育儿-新浪博客",
"channelNameSummary" : "育儿-新浪博客",
"channelUrl" : "http:\/\/blog.sina.com.cn\/lm\/baby\/",
"author" : "WWW.SINA.COM.CN",
"tags" : [],
"desc" : "",
"emailed" : False,
"forwarded" : False,
"english" : False
}  , {
"index" : 17,
"articleIndex" : "100042",
"favor" :  False ,
     "read" : False,    
"title" : "这个秋天让宝宝不\u201C上火\u201D",
"titleTip" : "这个秋天让宝宝不\u201C上火\u201D",
"titleSummary" : "这个秋天让宝宝不\u201C上火\u201D",
"descSummary" : "",
"url" : "http:\/\/go.rss.sina.com.cn\/redirect.php?url=http:\/\/blog.sina.com.cn\/s\/blog_4b4ecf930101gi0o.html",
"pubDate" : "09:54:20",
"enterDate" : "384200:16:33",
"channelId" : "-8389204056491424107",
"channelName" : "育儿-新浪博客",
"channelNameSummary" : "育儿-新浪博客",
"channelUrl" : "http:\/\/blog.sina.com.cn\/lm\/baby\/",
"author" : "WWW.SINA.COM.CN",
"tags" : [],
"desc" : "",
"emailed" : False,
"forwarded" : False,
"english" : False
}  , {
"index" : 18,
"articleIndex" : "100040",
"favor" :  False ,
     "read" : False,    
"title" : "南通园博园开心之旅",
"titleTip" : "南通园博园开心之旅",
"titleSummary" : "南通园博园开心之旅",
"descSummary" : "",
"url" : "http:\/\/go.rss.sina.com.cn\/redirect.php?url=http:\/\/blog.sina.com.cn\/s\/blog_4a35e4180101botl.html",
"pubDate" : "09:54:05",
"enterDate" : "384200:16:18",
"channelId" : "-8389204056491424107",
"channelName" : "育儿-新浪博客",
"channelNameSummary" : "育儿-新浪博客",
"channelUrl" : "http:\/\/blog.sina.com.cn\/lm\/baby\/",
"author" : "WWW.SINA.COM.CN",
"tags" : [],
"desc" : "",
"emailed" : False,
"forwarded" : False,
"english" : False
}  , {
"index" : 19,
"articleIndex" : "100041",
"favor" :  False ,
     "read" : False,    
"title" : "第一个幼儿园开放日",
"titleTip" : "第一个幼儿园开放日",
"titleSummary" : "第一个幼儿园开放日",
"descSummary" : "",
"url" : "http:\/\/go.rss.sina.com.cn\/redirect.php?url=http:\/\/blog.sina.com.cn\/s\/blog_65306d610101cb71.html",
"pubDate" : "09:54:05",
"enterDate" : "384200:16:18",
"channelId" : "-8389204056491424107",
"channelName" : "育儿-新浪博客",
"channelNameSummary" : "育儿-新浪博客",
"channelUrl" : "http:\/\/blog.sina.com.cn\/lm\/baby\/",
"author" : "WWW.SINA.COM.CN",
"tags" : [],
"desc" : "",
"emailed" : False,
"forwarded" : False,
"english" : False
} ]
}
