{
"mode" : {"viewTitle" : 1,   "viewNew" : 0,  "pageIndex" : 2 },
 "channel" : {"id" : "-8389204056491424107", "booked" : False, "subNumber" : 1, "name" : "育儿-新浪博客", "url" : "http:\/\/blog.sina.com.cn\/lm\/baby\/", "feed" : "http:\/\/rss.sina.com.cn\/blog\/baby\/ye.xml", "author" : "WWW.SINA.COM.CN", "desc" : "育儿博客列表", "imageUrl" : "http:\/\/www.sinaimg.cn\/blog\/main\/index2010\/blog_logo.png", "postPerWeek" : "0", "lastCrawTime" : "16:58:41", "crawDateTime" : "15:43:25", "lastHttpCode" : "200"}, "page" : {
"startIndex" : 20,
"totalCount" : 5000,
"pageIndex" : 2,
"lastPage" : 250,
"pageSize" : 20,
"english" :  False },
 "unreadNum" : 0, "shotIndex" : -1,
"articles" : [
{
"index" : 0,
"articleIndex" : "100039",
"favor" :  False ,
     "read" : False,    
"title" : "孩子的问题从哪来？",
"titleTip" : "孩子的问题从哪来？",
"titleSummary" : "孩子的问题从哪来？",
"descSummary" : "",
"url" : "http:\/\/go.rss.sina.com.cn\/redirect.php?url=http:\/\/blog.sina.com.cn\/s\/blog_5a7932370102e3ny.html",
"pubDate" : "09:52:33",
"enterDate" : "384200:14:46",
"channelId" : "-8389204056491424107",
"channelName" : "育儿-新浪博客",
"channelNameSummary" : "育儿-新浪博客",
"channelUrl" : "http:\/\/blog.sina.com.cn\/lm\/baby\/",
"author" : "WWW.SINA.COM.CN",
"tags" : [],
"desc" : "",
"emailed" : False,
"forwarded" : False,
"english" : False
}  , {
"index" : 1,
"articleIndex" : "100038",
"favor" :  False ,
     "read" : False,    
"title" : "丛林探险：植物自我保护有高招",
"titleTip" : "丛林探险：植物自我保护有高招",
"titleSummary" : "丛林探险：植物自我保护有高招",
"descSummary" : "",
"url" : "http:\/\/go.rss.sina.com.cn\/redirect.php?url=http:\/\/blog.sina.com.cn\/s\/blog_50e73d510102e1pl.html",
"pubDate" : "09:51:35",
"enterDate" : "384200:13:48",
"channelId" : "-8389204056491424107",
"channelName" : "育儿-新浪博客",
"channelNameSummary" : "育儿-新浪博客",
"channelUrl" : "http:\/\/blog.sina.com.cn\/lm\/baby\/",
"author" : "WWW.SINA.COM.CN",
"tags" : [],
"desc" : "",
"emailed" : False,
"forwarded" : False,
"english" : False
}  , {
"index" : 2,
"articleIndex" : "100037",
"favor" :  False ,
     "read" : False,    
"title" : "如何更快更好地完成作业",
"titleTip" : "如何更快更好地完成作业",
"titleSummary" : "如何更快更好地完成作业",
"descSummary" : "",
"url" : "http:\/\/go.rss.sina.com.cn\/redirect.php?url=http:\/\/blog.sina.com.cn\/s\/blog_88e47c4d0101pys4.html",
"pubDate" : "09:50:51",
"enterDate" : "384200:13:04",
"channelId" : "-8389204056491424107",
"channelName" : "育儿-新浪博客",
"channelNameSummary" : "育儿-新浪博客",
"channelUrl" : "http:\/\/blog.sina.com.cn\/lm\/baby\/",
"author" : "WWW.SINA.COM.CN",
"tags" : [],
"desc" : "",
"emailed" : False,
"forwarded" : False,
"english" : False
}  , {
"index" : 3,
"articleIndex" : "100036",
"favor" :  False ,
     "read" : False,    
"title" : "乳房肿块的原因及护理",
"titleTip" : "乳房肿块的原因及护理",
"titleSummary" : "乳房肿块的原因及护理",
"descSummary" : "",
"url" : "http:\/\/go.rss.sina.com.cn\/redirect.php?url=http:\/\/blog.sina.com.cn\/s\/blog_58f74e6a0101h2nl.html",
"pubDate" : "09:49:15",
"enterDate" : "384200:11:28",
"channelId" : "-8389204056491424107",
"channelName" : "育儿-新浪博客",
"channelNameSummary" : "育儿-新浪博客",
"channelUrl" : "http:\/\/blog.sina.com.cn\/lm\/baby\/",
"author" : "WWW.SINA.COM.CN",
"tags" : [],
"desc" : "",
"emailed" : False,
"forwarded" : False,
"english" : False
}  , {
"index" : 4,
"articleIndex" : "100035",
"favor" :  False ,
     "read" : False,    
"title" : "羊水穿刺术注意事项",
"titleTip" : "羊水穿刺术注意事项",
"titleSummary" : "羊水穿刺术注意事项",
"descSummary" : "",
"url" : "http:\/\/go.rss.sina.com.cn\/redirect.php?url=http:\/\/blog.sina.com.cn\/s\/blog_928029570101e1ce.html",
"pubDate" : "09:48:17",
"enterDate" : "384200:10:30",
"channelId" : "-8389204056491424107",
"channelName" : "育儿-新浪博客",
"channelNameSummary" : "育儿-新浪博客",
"channelUrl" : "http:\/\/blog.sina.com.cn\/lm\/baby\/",
"author" : "WWW.SINA.COM.CN",
"tags" : [],
"desc" : "",
"emailed" : False,
"forwarded" : False,
"english" : False
}  , {
"index" : 5,
"articleIndex" : "100034",
"favor" :  False ,
     "read" : False,    
"title" : "何种感冒对胎儿有影响",
"titleTip" : "何种感冒对胎儿有影响",
"titleSummary" : "何种感冒对胎儿有影响",
"descSummary" : "",
"url" : "http:\/\/go.rss.sina.com.cn\/redirect.php?url=http:\/\/blog.sina.com.cn\/s\/blog_4deabd570102esa2.html",
"pubDate" : "09:46:45",
"enterDate" : "384200:08:58",
"channelId" : "-8389204056491424107",
"channelName" : "育儿-新浪博客",
"channelNameSummary" : "育儿-新浪博客",
"channelUrl" : "http:\/\/blog.sina.com.cn\/lm\/baby\/",
"author" : "WWW.SINA.COM.CN",
"tags" : [],
"desc" : "",
"emailed" : False,
"forwarded" : False,
"english" : False
}  , {
"index" : 6,
"articleIndex" : "100033",
"favor" :  False ,
     "read" : False,    
"title" : "女性不孕的一般治疗法",
"titleTip" : "女性不孕的一般治疗法",
"titleSummary" : "女性不孕的一般治疗法",
"descSummary" : "",
"url" : "http:\/\/go.rss.sina.com.cn\/redirect.php?url=http:\/\/blog.sina.com.cn\/s\/blog_67ef463f0102ed3l.html",
"pubDate" : "09:46:04",
"enterDate" : "384200:08:17",
"channelId" : "-8389204056491424107",
"channelName" : "育儿-新浪博客",
"channelNameSummary" : "育儿-新浪博客",
"channelUrl" : "http:\/\/blog.sina.com.cn\/lm\/baby\/",
"author" : "WWW.SINA.COM.CN",
"tags" : [],
"desc" : "",
"emailed" : False,
"forwarded" : False,
"english" : False
}  , {
"index" : 7,
"articleIndex" : "100032",
"favor" :  False ,
     "read" : False,    
"title" : "早餐的黄金搭档",
"titleTip" : "早餐的黄金搭档",
"titleSummary" : "早餐的黄金搭档",
"descSummary" : "",
"url" : "http:\/\/go.rss.sina.com.cn\/redirect.php?url=http:\/\/blog.sina.com.cn\/s\/blog_665ddb350101fap1.html",
"pubDate" : "09:45:17",
"enterDate" : "384200:07:30",
"channelId" : "-8389204056491424107",
"channelName" : "育儿-新浪博客",
"channelNameSummary" : "育儿-新浪博客",
"channelUrl" : "http:\/\/blog.sina.com.cn\/lm\/baby\/",
"author" : "WWW.SINA.COM.CN",
"tags" : [],
"desc" : "",
"emailed" : False,
"forwarded" : False,
"english" : False
}  , {
"index" : 8,
"articleIndex" : "100031",
"favor" :  False ,
     "read" : False,    
"title" : "童话：桃叶上的桃小青",
"titleTip" : "童话：桃叶上的桃小青",
"titleSummary" : "童话：桃叶上的桃小青",
"descSummary" : "",
"url" : "http:\/\/go.rss.sina.com.cn\/redirect.php?url=http:\/\/blog.sina.com.cn\/s\/blog_5ead47490102e7lg.html",
"pubDate" : "09:44:13",
"enterDate" : "384200:06:26",
"channelId" : "-8389204056491424107",
"channelName" : "育儿-新浪博客",
"channelNameSummary" : "育儿-新浪博客",
"channelUrl" : "http:\/\/blog.sina.com.cn\/lm\/baby\/",
"author" : "WWW.SINA.COM.CN",
"tags" : [],
"desc" : "",
"emailed" : False,
"forwarded" : False,
"english" : False
}  , {
"index" : 9,
"articleIndex" : "100030",
"favor" :  False ,
     "read" : False,    
"title" : "产前优生遗传诊断是万能的吗？",
"titleTip" : "产前优生遗传诊断是万能的吗？",
"titleSummary" : "产前优生遗传诊断是万能的吗？",
"descSummary" : "",
"url" : "http:\/\/go.rss.sina.com.cn\/redirect.php?url=http:\/\/blog.sina.com.cn\/s\/blog_bbff5f0a0101dmvy.html",
"pubDate" : "09:43:29",
"enterDate" : "384200:05:42",
"channelId" : "-8389204056491424107",
"channelName" : "育儿-新浪博客",
"channelNameSummary" : "育儿-新浪博客",
"channelUrl" : "http:\/\/blog.sina.com.cn\/lm\/baby\/",
"author" : "WWW.SINA.COM.CN",
"tags" : [],
"desc" : "",
"emailed" : False,
"forwarded" : False,
"english" : False
}  , {
"index" : 10,
"articleIndex" : "100029",
"favor" :  False ,
     "read" : False,    
"title" : "减肥圣品：魔芋",
"titleTip" : "减肥圣品：魔芋",
"titleSummary" : "减肥圣品：魔芋",
"descSummary" : "",
"url" : "http:\/\/go.rss.sina.com.cn\/redirect.php?url=http:\/\/blog.sina.com.cn\/s\/blog_665ddb350101fazx.html",
"pubDate" : "09:42:27",
"enterDate" : "384200:04:40",
"channelId" : "-8389204056491424107",
"channelName" : "育儿-新浪博客",
"channelNameSummary" : "育儿-新浪博客",
"channelUrl" : "http:\/\/blog.sina.com.cn\/lm\/baby\/",
"author" : "WWW.SINA.COM.CN",
"tags" : [],
"desc" : "",
"emailed" : False,
"forwarded" : False,
"english" : False
}  , {
"index" : 11,
"articleIndex" : "100028",
"favor" :  False ,
     "read" : False,    
"title" : "女人玩好人生五张牌",
"titleTip" : "女人玩好人生五张牌",
"titleSummary" : "女人玩好人生五张牌",
"descSummary" : "",
"url" : "http:\/\/go.rss.sina.com.cn\/redirect.php?url=http:\/\/blog.sina.com.cn\/s\/blog_892344fa0101hzmh.html",
"pubDate" : "09:41:19",
"enterDate" : "384200:03:32",
"channelId" : "-8389204056491424107",
"channelName" : "育儿-新浪博客",
"channelNameSummary" : "育儿-新浪博客",
"channelUrl" : "http:\/\/blog.sina.com.cn\/lm\/baby\/",
"author" : "WWW.SINA.COM.CN",
"tags" : [],
"desc" : "",
"emailed" : False,
"forwarded" : False,
"english" : False
}  , {
"index" : 12,
"articleIndex" : "100027",
"favor" :  False ,
     "read" : False,    
"title" : "鼓励孩子敢于对老师说\u201C不\u201D",
"titleTip" : "鼓励孩子敢于对老师说\u201C不\u201D",
"titleSummary" : "鼓励孩子敢于对老师说\u201C不\u201D",
"descSummary" : "",
"url" : "http:\/\/go.rss.sina.com.cn\/redirect.php?url=http:\/\/blog.sina.com.cn\/s\/blog_531b1f8a0102epd0.html",
"pubDate" : "09:39:11",
"enterDate" : "384200:01:24",
"channelId" : "-8389204056491424107",
"channelName" : "育儿-新浪博客",
"channelNameSummary" : "育儿-新浪博客",
"channelUrl" : "http:\/\/blog.sina.com.cn\/lm\/baby\/",
"author" : "WWW.SINA.COM.CN",
"tags" : [],
"desc" : "",
"emailed" : False,
"forwarded" : False,
"english" : False
}  , {
"index" : 13,
"articleIndex" : "100026",
"favor" :  False ,
     "read" : False,    
"title" : "亲子游，因为难忘所以记忆",
"titleTip" : "亲子游，因为难忘所以记忆",
"titleSummary" : "亲子游，因为难忘所以记忆",
"descSummary" : "",
"url" : "http:\/\/go.rss.sina.com.cn\/redirect.php?url=http:\/\/blog.sina.com.cn\/s\/blog_91a805850101h7u9.html",
"pubDate" : "09:39:08",
"enterDate" : "384200:01:21",
"channelId" : "-8389204056491424107",
"channelName" : "育儿-新浪博客",
"channelNameSummary" : "育儿-新浪博客",
"channelUrl" : "http:\/\/blog.sina.com.cn\/lm\/baby\/",
"author" : "WWW.SINA.COM.CN",
"tags" : [],
"desc" : "",
"emailed" : False,
"forwarded" : False,
"english" : False
}  , {
"index" : 14,
"articleIndex" : "100025",
"favor" :  False ,
     "read" : False,    
"title" : "哪些斜视是可以通过手术治疗的？",
"titleTip" : "哪些斜视是可以通过手术治疗的？",
"titleSummary" : "哪些斜视是可以通过手术治疗的？",
"descSummary" : "",
"url" : "http:\/\/go.rss.sina.com.cn\/redirect.php?url=http:\/\/blog.sina.com.cn\/s\/blog_b339be0f0101mubv.html",
"pubDate" : "09:38:10",
"enterDate" : "384200:00:23",
"channelId" : "-8389204056491424107",
"channelName" : "育儿-新浪博客",
"channelNameSummary" : "育儿-新浪博客",
"channelUrl" : "http:\/\/blog.sina.com.cn\/lm\/baby\/",
"author" : "WWW.SINA.COM.CN",
"tags" : [],
"desc" : "",
"emailed" : False,
"forwarded" : False,
"english" : False
}  , {
"index" : 15,
"articleIndex" : "100024",
"favor" :  False ,
     "read" : False,    
"title" : "母子俩巧手打造桂花酸奶蛋糕",
"titleTip" : "母子俩巧手打造桂花酸奶蛋糕",
"titleSummary" : "母子俩巧手打造桂花酸奶蛋糕",
"descSummary" : "",
"url" : "http:\/\/go.rss.sina.com.cn\/redirect.php?url=http:\/\/blog.sina.com.cn\/s\/blog_50c4c9290102dz15.html",
"pubDate" : "09:36:53",
"enterDate" : "384199:59:06",
"channelId" : "-8389204056491424107",
"channelName" : "育儿-新浪博客",
"channelNameSummary" : "育儿-新浪博客",
"channelUrl" : "http:\/\/blog.sina.com.cn\/lm\/baby\/",
"author" : "WWW.SINA.COM.CN",
"tags" : [],
"desc" : "",
"emailed" : False,
"forwarded" : False,
"english" : False
}  , {
"index" : 16,
"articleIndex" : "100023",
"favor" :  False ,
     "read" : False,    
"title" : "享受孩子包的爱心饺子",
"titleTip" : "享受孩子包的爱心饺子",
"titleSummary" : "享受孩子包的爱心饺子",
"descSummary" : "",
"url" : "http:\/\/go.rss.sina.com.cn\/redirect.php?url=http:\/\/blog.sina.com.cn\/s\/blog_4b9deabd0102e9oi.html",
"pubDate" : "09:35:37",
"enterDate" : "384199:57:50",
"channelId" : "-8389204056491424107",
"channelName" : "育儿-新浪博客",
"channelNameSummary" : "育儿-新浪博客",
"channelUrl" : "http:\/\/blog.sina.com.cn\/lm\/baby\/",
"author" : "WWW.SINA.COM.CN",
"tags" : [],
"desc" : "",
"emailed" : False,
"forwarded" : False,
"english" : False
}  , {
"index" : 17,
"articleIndex" : "100022",
"favor" :  False ,
     "read" : False,    
"title" : "幼教杂说：必须谨慎沟通",
"titleTip" : "幼教杂说：必须谨慎沟通",
"titleSummary" : "幼教杂说：必须谨慎沟通",
"descSummary" : "",
"url" : "http:\/\/go.rss.sina.com.cn\/redirect.php?url=http:\/\/blog.sina.com.cn\/s\/blog_c02d93740101opfe.html",
"pubDate" : "09:34:39",
"enterDate" : "384199:56:52",
"channelId" : "-8389204056491424107",
"channelName" : "育儿-新浪博客",
"channelNameSummary" : "育儿-新浪博客",
"channelUrl" : "http:\/\/blog.sina.com.cn\/lm\/baby\/",
"author" : "WWW.SINA.COM.CN",
"tags" : [],
"desc" : "",
"emailed" : False,
"forwarded" : False,
"english" : False
}  , {
"index" : 18,
"articleIndex" : "100020",
"favor" :  False ,
     "read" : False,    
"title" : "秋冬季适合全家喝的排骨时蔬汤",
"titleTip" : "秋冬季适合全家喝的排骨时蔬汤",
"titleSummary" : "秋冬季适合全家喝的排骨时蔬汤",
"descSummary" : "",
"url" : "http:\/\/go.rss.sina.com.cn\/redirect.php?url=http:\/\/blog.sina.com.cn\/s\/blog_4b9c41e00102ee65.html",
"pubDate" : "09:29:08",
"enterDate" : "384199:51:21",
"channelId" : "-8389204056491424107",
"channelName" : "育儿-新浪博客",
"channelNameSummary" : "育儿-新浪博客",
"channelUrl" : "http:\/\/blog.sina.com.cn\/lm\/baby\/",
"author" : "WWW.SINA.COM.CN",
"tags" : [],
"desc" : "",
"emailed" : False,
"forwarded" : False,
"english" : False
}  , {
"index" : 19,
"articleIndex" : "100021",
"favor" :  False ,
     "read" : False,    
"title" : "秋天的色彩",
"titleTip" : "秋天的色彩",
"titleSummary" : "秋天的色彩",
"descSummary" : "",
"url" : "http:\/\/go.rss.sina.com.cn\/redirect.php?url=http:\/\/blog.sina.com.cn\/s\/blog_53e104320102efrv.html",
"pubDate" : "09:29:08",
"enterDate" : "384199:51:21",
"channelId" : "-8389204056491424107",
"channelName" : "育儿-新浪博客",
"channelNameSummary" : "育儿-新浪博客",
"channelUrl" : "http:\/\/blog.sina.com.cn\/lm\/baby\/",
"author" : "WWW.SINA.COM.CN",
"tags" : [],
"desc" : "",
"emailed" : False,
"forwarded" : False,
"english" : False
} ]
}
