{
"mode" : {"viewTitle" : 1,   "viewNew" : 0,  "pageIndex" : 1 },
 "channel" : {"id" : "-3451966196746390396", "booked" : False, "subNumber" : 1, "name" : "女性-新浪博客", "url" : "http:\/\/blog.sina.com.cn\/lm\/eladies\/", "feed" : "http:\/\/rss.sina.com.cn\/blog\/eladies\/nx.xml", "author" : "WWW.SINA.COM.CN", "desc" : "女性博客列表", "imageUrl" : "http:\/\/www.sinaimg.cn\/blog\/main\/index2010\/blog_logo.png", "postPerWeek" : "0", "lastCrawTime" : "16:48:41", "crawDateTime" : "15:48:30", "lastHttpCode" : "200"}, "page" : {
"startIndex" : 0,
"totalCount" : 5000,
"pageIndex" : 1,
"lastPage" : 250,
"pageSize" : 20,
"english" :  False },
 "unreadNum" : 0, "shotIndex" : -1,
"articles" : [
{
"index" : 0,
"articleIndex" : "8618",
"favor" :  False ,
     "read" : False,    
"title" : "少妇床上沦陷炮友每天都换",
"titleTip" : "少妇床上沦陷炮友每天都换",
"titleSummary" : "少妇床上沦陷炮友每天都换",
"descSummary" : "",
"url" : "http:\/\/go.rss.sina.com.cn\/redirect.php?url=http:\/\/blog.sina.com.cn\/s\/blog_e2bcbf7a0101nnnn.html",
"pubDate" : "15:26:22",
"enterDate" : "384200:57:26",
"channelId" : "-3451966196746390396",
"channelName" : "女性-新浪博客",
"channelNameSummary" : "女性-新浪博客",
"channelUrl" : "http:\/\/blog.sina.com.cn\/lm\/eladies\/",
"author" : "WWW.SINA.COM.CN",
"tags" : [],
"desc" : "",
"emailed" : False,
"forwarded" : False,
"english" : False
}  , {
"index" : 1,
"articleIndex" : "8617",
"favor" :  False ,
     "read" : False,    
"title" : "新婚夜我逼妻装处致关系破裂",
"titleTip" : "新婚夜我逼妻装处致关系破裂",
"titleSummary" : "新婚夜我逼妻装处致关系破裂",
"descSummary" : "",
"url" : "http:\/\/go.rss.sina.com.cn\/redirect.php?url=http:\/\/blog.sina.com.cn\/s\/blog_6f3ba5d90102es8d.html",
"pubDate" : "14:51:30",
"enterDate" : "384200:22:34",
"channelId" : "-3451966196746390396",
"channelName" : "女性-新浪博客",
"channelNameSummary" : "女性-新浪博客",
"channelUrl" : "http:\/\/blog.sina.com.cn\/lm\/eladies\/",
"author" : "WWW.SINA.COM.CN",
"tags" : [],
"desc" : "",
"emailed" : False,
"forwarded" : False,
"english" : False
}  , {
"index" : 2,
"articleIndex" : "8616",
"favor" :  False ,
     "read" : False,    
"title" : "我去宾馆捉奸被野蛮小三扒衣暴打",
"titleTip" : "我去宾馆捉奸被野蛮小三扒衣暴打",
"titleSummary" : "我去宾馆捉奸被野蛮小三扒衣暴打",
"descSummary" : "",
"url" : "http:\/\/go.rss.sina.com.cn\/redirect.php?url=http:\/\/blog.sina.com.cn\/s\/blog_9698ac210101fuy4.html",
"pubDate" : "14:27:38",
"enterDate" : "384199:58:42",
"channelId" : "-3451966196746390396",
"channelName" : "女性-新浪博客",
"channelNameSummary" : "女性-新浪博客",
"channelUrl" : "http:\/\/blog.sina.com.cn\/lm\/eladies\/",
"author" : "WWW.SINA.COM.CN",
"tags" : [],
"desc" : "",
"emailed" : False,
"forwarded" : False,
"english" : False
}  , {
"index" : 3,
"articleIndex" : "8615",
"favor" :  False ,
     "read" : False,    
"title" : "前男友交新欢我想把他一脚踩扁",
"titleTip" : "前男友交新欢我想把他一脚踩扁",
"titleSummary" : "前男友交新欢我想把他一脚踩扁",
"descSummary" : "",
"url" : "http:\/\/go.rss.sina.com.cn\/redirect.php?url=http:\/\/blog.sina.com.cn\/s\/blog_729233c30101hwzw.html",
"pubDate" : "14:27:12",
"enterDate" : "384199:58:16",
"channelId" : "-3451966196746390396",
"channelName" : "女性-新浪博客",
"channelNameSummary" : "女性-新浪博客",
"channelUrl" : "http:\/\/blog.sina.com.cn\/lm\/eladies\/",
"author" : "WWW.SINA.COM.CN",
"tags" : [],
"desc" : "",
"emailed" : False,
"forwarded" : False,
"english" : False
}  , {
"index" : 4,
"articleIndex" : "8614",
"favor" :  False ,
     "read" : False,    
"title" : "老婆怀孕我与小姨子在厨房激情做爱",
"titleTip" : "老婆怀孕我与小姨子在厨房激情做爱",
"titleSummary" : "老婆怀孕我与小姨子在厨房激情做爱",
"descSummary" : "",
"url" : "http:\/\/go.rss.sina.com.cn\/redirect.php?url=http:\/\/blog.sina.com.cn\/s\/blog_db93f3e301019w9x.html",
"pubDate" : "14:26:34",
"enterDate" : "384199:57:38",
"channelId" : "-3451966196746390396",
"channelName" : "女性-新浪博客",
"channelNameSummary" : "女性-新浪博客",
"channelUrl" : "http:\/\/blog.sina.com.cn\/lm\/eladies\/",
"author" : "WWW.SINA.COM.CN",
"tags" : [],
"desc" : "",
"emailed" : False,
"forwarded" : False,
"english" : False
}  , {
"index" : 5,
"articleIndex" : "8613",
"favor" :  False ,
     "read" : False,    
"title" : "男人为何喜欢上不如老婆的女人？",
"titleTip" : "男人为何喜欢上不如老婆的女人？",
"titleSummary" : "男人为何喜欢上不如老婆的女人？",
"descSummary" : "",
"url" : "http:\/\/go.rss.sina.com.cn\/redirect.php?url=http:\/\/blog.sina.com.cn\/s\/blog_5031f2930101he5f.html",
"pubDate" : "14:25:54",
"enterDate" : "384199:56:58",
"channelId" : "-3451966196746390396",
"channelName" : "女性-新浪博客",
"channelNameSummary" : "女性-新浪博客",
"channelUrl" : "http:\/\/blog.sina.com.cn\/lm\/eladies\/",
"author" : "WWW.SINA.COM.CN",
"tags" : [],
"desc" : "",
"emailed" : False,
"forwarded" : False,
"english" : False
}  , {
"index" : 6,
"articleIndex" : "8612",
"favor" :  False ,
     "read" : False,    
"title" : "失恋男神与仨女约炮竟让我买单",
"titleTip" : "失恋男神与仨女约炮竟让我买单",
"titleSummary" : "失恋男神与仨女约炮竟让我买单",
"descSummary" : "",
"url" : "http:\/\/go.rss.sina.com.cn\/redirect.php?url=http:\/\/blog.sina.com.cn\/s\/blog_4a302c450102eduz.html",
"pubDate" : "14:25:32",
"enterDate" : "384199:56:36",
"channelId" : "-3451966196746390396",
"channelName" : "女性-新浪博客",
"channelNameSummary" : "女性-新浪博客",
"channelUrl" : "http:\/\/blog.sina.com.cn\/lm\/eladies\/",
"author" : "WWW.SINA.COM.CN",
"tags" : [],
"desc" : "",
"emailed" : False,
"forwarded" : False,
"english" : False
}  , {
"index" : 7,
"articleIndex" : "8611",
"favor" :  False ,
     "read" : False,    
"title" : "不肯模仿黄片里恶心镜头遭老公暴打",
"titleTip" : "不肯模仿黄片里恶心镜头遭老公暴打",
"titleSummary" : "不肯模仿黄片里恶心镜头遭老公暴打",
"descSummary" : "",
"url" : "http:\/\/go.rss.sina.com.cn\/redirect.php?url=http:\/\/blog.sina.com.cn\/s\/blog_c426d3a70101b8yi.html",
"pubDate" : "14:25:11",
"enterDate" : "384199:56:15",
"channelId" : "-3451966196746390396",
"channelName" : "女性-新浪博客",
"channelNameSummary" : "女性-新浪博客",
"channelUrl" : "http:\/\/blog.sina.com.cn\/lm\/eladies\/",
"author" : "WWW.SINA.COM.CN",
"tags" : [],
"desc" : "",
"emailed" : False,
"forwarded" : False,
"english" : False
}  , {
"index" : 8,
"articleIndex" : "8610",
"favor" :  False ,
     "read" : False,    
"title" : "半夜撞破小姨子厕所求欢我激情相迎",
"titleTip" : "半夜撞破小姨子厕所求欢我激情相迎",
"titleSummary" : "半夜撞破小姨子厕所求欢我激情相迎",
"descSummary" : "",
"url" : "http:\/\/go.rss.sina.com.cn\/redirect.php?url=http:\/\/blog.sina.com.cn\/s\/blog_8e59d2630101oic9.html",
"pubDate" : "14:24:04",
"enterDate" : "384199:55:08",
"channelId" : "-3451966196746390396",
"channelName" : "女性-新浪博客",
"channelNameSummary" : "女性-新浪博客",
"channelUrl" : "http:\/\/blog.sina.com.cn\/lm\/eladies\/",
"author" : "WWW.SINA.COM.CN",
"tags" : [],
"desc" : "",
"emailed" : False,
"forwarded" : False,
"english" : False
}  , {
"index" : 9,
"articleIndex" : "8609",
"favor" :  False ,
     "read" : False,    
"title" : "和老公激情爱爱他竟喊出初恋的名字",
"titleTip" : "和老公激情爱爱他竟喊出初恋的名字",
"titleSummary" : "和老公激情爱爱他竟喊出初恋的名字",
"descSummary" : "",
"url" : "http:\/\/go.rss.sina.com.cn\/redirect.php?url=http:\/\/blog.sina.com.cn\/s\/blog_c5180f890101ggiz.html",
"pubDate" : "14:23:28",
"enterDate" : "384199:54:32",
"channelId" : "-3451966196746390396",
"channelName" : "女性-新浪博客",
"channelNameSummary" : "女性-新浪博客",
"channelUrl" : "http:\/\/blog.sina.com.cn\/lm\/eladies\/",
"author" : "WWW.SINA.COM.CN",
"tags" : [],
"desc" : "",
"emailed" : False,
"forwarded" : False,
"english" : False
}  , {
"index" : 10,
"articleIndex" : "8608",
"favor" :  False ,
     "read" : False,    
"title" : "少妇吐槽：老公精力旺盛经常强暴我",
"titleTip" : "少妇吐槽：老公精力旺盛经常强暴我",
"titleSummary" : "少妇吐槽：老公精力旺盛经常强暴我",
"descSummary" : "",
"url" : "http:\/\/go.rss.sina.com.cn\/redirect.php?url=http:\/\/blog.sina.com.cn\/s\/blog_6301ba240102e80l.html",
"pubDate" : "14:22:23",
"enterDate" : "384199:53:27",
"channelId" : "-3451966196746390396",
"channelName" : "女性-新浪博客",
"channelNameSummary" : "女性-新浪博客",
"channelUrl" : "http:\/\/blog.sina.com.cn\/lm\/eladies\/",
"author" : "WWW.SINA.COM.CN",
"tags" : [],
"desc" : "",
"emailed" : False,
"forwarded" : False,
"english" : False
}  , {
"index" : 11,
"articleIndex" : "8607",
"favor" :  False ,
     "read" : False,    
"title" : "在男友家渔塘水战遭遇的尴尬事",
"titleTip" : "在男友家渔塘水战遭遇的尴尬事",
"titleSummary" : "在男友家渔塘水战遭遇的尴尬事",
"descSummary" : "",
"url" : "http:\/\/go.rss.sina.com.cn\/redirect.php?url=http:\/\/blog.sina.com.cn\/s\/blog_521bb8cb0102erys.html",
"pubDate" : "14:20:43",
"enterDate" : "384199:51:47",
"channelId" : "-3451966196746390396",
"channelName" : "女性-新浪博客",
"channelNameSummary" : "女性-新浪博客",
"channelUrl" : "http:\/\/blog.sina.com.cn\/lm\/eladies\/",
"author" : "WWW.SINA.COM.CN",
"tags" : [],
"desc" : "",
"emailed" : False,
"forwarded" : False,
"english" : False
}  , {
"index" : 12,
"articleIndex" : "8606",
"favor" :  False ,
     "read" : False,    
"title" : "邻居的叫床声让我乱了方寸出了轨",
"titleTip" : "邻居的叫床声让我乱了方寸出了轨",
"titleSummary" : "邻居的叫床声让我乱了方寸出了轨",
"descSummary" : "",
"url" : "http:\/\/go.rss.sina.com.cn\/redirect.php?url=http:\/\/blog.sina.com.cn\/s\/blog_61165a1a0102e90j.html",
"pubDate" : "13:52:22",
"enterDate" : "384199:23:26",
"channelId" : "-3451966196746390396",
"channelName" : "女性-新浪博客",
"channelNameSummary" : "女性-新浪博客",
"channelUrl" : "http:\/\/blog.sina.com.cn\/lm\/eladies\/",
"author" : "WWW.SINA.COM.CN",
"tags" : [],
"desc" : "",
"emailed" : False,
"forwarded" : False,
"english" : False
}  , {
"index" : 13,
"articleIndex" : "8605",
"favor" :  False ,
     "read" : False,    
"title" : "乱性女人口述：老公和情人都甩我",
"titleTip" : "乱性女人口述：老公和情人都甩我",
"titleSummary" : "乱性女人口述：老公和情人都甩我",
"descSummary" : "",
"url" : "http:\/\/go.rss.sina.com.cn\/redirect.php?url=http:\/\/blog.sina.com.cn\/s\/blog_c3b3c9fd0101ej6m.html",
"pubDate" : "09:21:24",
"enterDate" : "384199:53:23",
"channelId" : "-3451966196746390396",
"channelName" : "女性-新浪博客",
"channelNameSummary" : "女性-新浪博客",
"channelUrl" : "http:\/\/blog.sina.com.cn\/lm\/eladies\/",
"author" : "WWW.SINA.COM.CN",
"tags" : [],
"desc" : "",
"emailed" : False,
"forwarded" : False,
"english" : False
}  , {
"index" : 14,
"articleIndex" : "8604",
"favor" :  False ,
     "read" : False,    
"title" : "女大学生：爱上大我15岁的已婚男好纠结",
"titleTip" : "女大学生：爱上大我15岁的已婚男好纠结",
"titleSummary" : "女大学生：爱上大我15岁的已婚男好纠结",
"descSummary" : "",
"url" : "http:\/\/go.rss.sina.com.cn\/redirect.php?url=http:\/\/blog.sina.com.cn\/s\/blog_4832fbe10102eztq.html",
"pubDate" : "09:20:09",
"enterDate" : "384199:52:08",
"channelId" : "-3451966196746390396",
"channelName" : "女性-新浪博客",
"channelNameSummary" : "女性-新浪博客",
"channelUrl" : "http:\/\/blog.sina.com.cn\/lm\/eladies\/",
"author" : "WWW.SINA.COM.CN",
"tags" : [],
"desc" : "",
"emailed" : False,
"forwarded" : False,
"english" : False
}  , {
"index" : 15,
"articleIndex" : "8603",
"favor" :  False ,
     "read" : False,    
"title" : "土豪哥们3月挖走我2任女友",
"titleTip" : "土豪哥们3月挖走我2任女友",
"titleSummary" : "土豪哥们3月挖走我2任女友",
"descSummary" : "",
"url" : "http:\/\/go.rss.sina.com.cn\/redirect.php?url=http:\/\/blog.sina.com.cn\/s\/blog_51177cc40102eh9n.html",
"pubDate" : "09:18:58",
"enterDate" : "384199:50:57",
"channelId" : "-3451966196746390396",
"channelName" : "女性-新浪博客",
"channelNameSummary" : "女性-新浪博客",
"channelUrl" : "http:\/\/blog.sina.com.cn\/lm\/eladies\/",
"author" : "WWW.SINA.COM.CN",
"tags" : [],
"desc" : "",
"emailed" : False,
"forwarded" : False,
"english" : False
}  , {
"index" : 16,
"articleIndex" : "8602",
"favor" :  False ,
     "read" : False,    
"title" : "每一次房事老公都逼我扮学生妹",
"titleTip" : "每一次房事老公都逼我扮学生妹",
"titleSummary" : "每一次房事老公都逼我扮学生妹",
"descSummary" : "",
"url" : "http:\/\/go.rss.sina.com.cn\/redirect.php?url=http:\/\/blog.sina.com.cn\/s\/blog_4cedc5290102ebbl.html",
"pubDate" : "09:18:48",
"enterDate" : "384199:50:47",
"channelId" : "-3451966196746390396",
"channelName" : "女性-新浪博客",
"channelNameSummary" : "女性-新浪博客",
"channelUrl" : "http:\/\/blog.sina.com.cn\/lm\/eladies\/",
"author" : "WWW.SINA.COM.CN",
"tags" : [],
"desc" : "",
"emailed" : False,
"forwarded" : False,
"english" : False
}  , {
"index" : 17,
"articleIndex" : "8601",
"favor" :  False ,
     "read" : False,    
"title" : "五年后遇前男友我们干柴烈火度春宵",
"titleTip" : "五年后遇前男友我们干柴烈火度春宵",
"titleSummary" : "五年后遇前男友我们干柴烈火度春宵",
"descSummary" : "",
"url" : "http:\/\/go.rss.sina.com.cn\/redirect.php?url=http:\/\/blog.sina.com.cn\/s\/blog_64d61f9a0102ecn6.html",
"pubDate" : "09:18:29",
"enterDate" : "384199:50:28",
"channelId" : "-3451966196746390396",
"channelName" : "女性-新浪博客",
"channelNameSummary" : "女性-新浪博客",
"channelUrl" : "http:\/\/blog.sina.com.cn\/lm\/eladies\/",
"author" : "WWW.SINA.COM.CN",
"tags" : [],
"desc" : "",
"emailed" : False,
"forwarded" : False,
"english" : False
}  , {
"index" : 18,
"articleIndex" : "8600",
"favor" :  False ,
     "read" : False,    
"title" : "16岁伴娘遭壮男猥亵将其压身下",
"titleTip" : "16岁伴娘遭壮男猥亵将其压身下",
"titleSummary" : "16岁伴娘遭壮男猥亵将其压身下",
"descSummary" : "",
"url" : "http:\/\/go.rss.sina.com.cn\/redirect.php?url=http:\/\/blog.sina.com.cn\/s\/blog_4fac6ac30102ehye.html",
"pubDate" : "09:17:58",
"enterDate" : "384199:49:57",
"channelId" : "-3451966196746390396",
"channelName" : "女性-新浪博客",
"channelNameSummary" : "女性-新浪博客",
"channelUrl" : "http:\/\/blog.sina.com.cn\/lm\/eladies\/",
"author" : "WWW.SINA.COM.CN",
"tags" : [],
"desc" : "",
"emailed" : False,
"forwarded" : False,
"english" : False
}  , {
"index" : 19,
"articleIndex" : "8599",
"favor" :  False ,
     "read" : False,    
"title" : "为生存我靠抖胸吸引男客户",
"titleTip" : "为生存我靠抖胸吸引男客户",
"titleSummary" : "为生存我靠抖胸吸引男客户",
"descSummary" : "",
"url" : "http:\/\/go.rss.sina.com.cn\/redirect.php?url=http:\/\/blog.sina.com.cn\/s\/blog_6f3ba5d90102es7x.html",
"pubDate" : "09:17:21",
"enterDate" : "384199:49:20",
"channelId" : "-3451966196746390396",
"channelName" : "女性-新浪博客",
"channelNameSummary" : "女性-新浪博客",
"channelUrl" : "http:\/\/blog.sina.com.cn\/lm\/eladies\/",
"author" : "WWW.SINA.COM.CN",
"tags" : [],
"desc" : "",
"emailed" : False,
"forwarded" : False,
"english" : False
} ]
}
