{
"mode" : {"viewTitle" : 1,   "viewNew" : 0,  "pageIndex" : 2 },
 "channel" : {"id" : "-3451966196746390396", "booked" : False, "subNumber" : 1, "name" : "女性-新浪博客", "url" : "http:\/\/blog.sina.com.cn\/lm\/eladies\/", "feed" : "http:\/\/rss.sina.com.cn\/blog\/eladies\/nx.xml", "author" : "WWW.SINA.COM.CN", "desc" : "女性博客列表", "imageUrl" : "http:\/\/www.sinaimg.cn\/blog\/main\/index2010\/blog_logo.png", "postPerWeek" : "0", "lastCrawTime" : "16:48:41", "crawDateTime" : "15:48:30", "lastHttpCode" : "200"}, "page" : {
"startIndex" : 20,
"totalCount" : 5000,
"pageIndex" : 2,
"lastPage" : 250,
"pageSize" : 20,
"english" :  False },
 "unreadNum" : 0, "shotIndex" : -1,
"articles" : [
{
"index" : 0,
"articleIndex" : "8598",
"favor" :  False ,
     "read" : False,    
"title" : "寂寞女护士床功了得把我彻底征服",
"titleTip" : "寂寞女护士床功了得把我彻底征服",
"titleSummary" : "寂寞女护士床功了得把我彻底征服",
"descSummary" : "",
"url" : "http:\/\/go.rss.sina.com.cn\/redirect.php?url=http:\/\/blog.sina.com.cn\/s\/blog_5da6f8020102evqs.html",
"pubDate" : "09:17:09",
"enterDate" : "384199:49:08",
"channelId" : "-3451966196746390396",
"channelName" : "女性-新浪博客",
"channelNameSummary" : "女性-新浪博客",
"channelUrl" : "http:\/\/blog.sina.com.cn\/lm\/eladies\/",
"author" : "WWW.SINA.COM.CN",
"tags" : [],
"desc" : "",
"emailed" : False,
"forwarded" : False,
"english" : False
}  , {
"index" : 1,
"articleIndex" : "8597",
"favor" :  False ,
     "read" : False,    
"title" : "欲望妻梦中呓语有5个性伴侣",
"titleTip" : "欲望妻梦中呓语有5个性伴侣",
"titleSummary" : "欲望妻梦中呓语有5个性伴侣",
"descSummary" : "",
"url" : "http:\/\/go.rss.sina.com.cn\/redirect.php?url=http:\/\/blog.sina.com.cn\/s\/blog_6f7986130101drm6.html",
"pubDate" : "09:16:34",
"enterDate" : "384199:48:33",
"channelId" : "-3451966196746390396",
"channelName" : "女性-新浪博客",
"channelNameSummary" : "女性-新浪博客",
"channelUrl" : "http:\/\/blog.sina.com.cn\/lm\/eladies\/",
"author" : "WWW.SINA.COM.CN",
"tags" : [],
"desc" : "",
"emailed" : False,
"forwarded" : False,
"english" : False
}  , {
"index" : 2,
"articleIndex" : "8596",
"favor" :  False ,
     "read" : False,    
"title" : "小三赖床上不走把丈夫逼疯",
"titleTip" : "小三赖床上不走把丈夫逼疯",
"titleSummary" : "小三赖床上不走把丈夫逼疯",
"descSummary" : "",
"url" : "http:\/\/go.rss.sina.com.cn\/redirect.php?url=http:\/\/blog.sina.com.cn\/s\/blog_6fe2992d0102ej2e.html",
"pubDate" : "09:14:15",
"enterDate" : "384199:46:14",
"channelId" : "-3451966196746390396",
"channelName" : "女性-新浪博客",
"channelNameSummary" : "女性-新浪博客",
"channelUrl" : "http:\/\/blog.sina.com.cn\/lm\/eladies\/",
"author" : "WWW.SINA.COM.CN",
"tags" : [],
"desc" : "",
"emailed" : False,
"forwarded" : False,
"english" : False
}  , {
"index" : 3,
"articleIndex" : "8595",
"favor" :  False ,
     "read" : False,    
"title" : "老婆规定1夜嘿咻3次防止我出轨",
"titleTip" : "老婆规定1夜嘿咻3次防止我出轨",
"titleSummary" : "老婆规定1夜嘿咻3次防止我出轨",
"descSummary" : "",
"url" : "http:\/\/go.rss.sina.com.cn\/redirect.php?url=http:\/\/blog.sina.com.cn\/s\/blog_9698ac210101fuak.html",
"pubDate" : "09:14:05",
"enterDate" : "384199:46:04",
"channelId" : "-3451966196746390396",
"channelName" : "女性-新浪博客",
"channelNameSummary" : "女性-新浪博客",
"channelUrl" : "http:\/\/blog.sina.com.cn\/lm\/eladies\/",
"author" : "WWW.SINA.COM.CN",
"tags" : [],
"desc" : "",
"emailed" : False,
"forwarded" : False,
"english" : False
}  , {
"index" : 4,
"articleIndex" : "8594",
"favor" :  False ,
     "read" : False,    
"title" : "我要不要向男友坦白曾经堕胎的往事",
"titleTip" : "我要不要向男友坦白曾经堕胎的往事",
"titleSummary" : "我要不要向男友坦白曾经堕胎的往事",
"descSummary" : "",
"url" : "http:\/\/go.rss.sina.com.cn\/redirect.php?url=http:\/\/blog.sina.com.cn\/s\/blog_4b8eaa580102ebv3.html",
"pubDate" : "昨天17:33:26",
"enterDate" : "384201:08:30",
"channelId" : "-3451966196746390396",
"channelName" : "女性-新浪博客",
"channelNameSummary" : "女性-新浪博客",
"channelUrl" : "http:\/\/blog.sina.com.cn\/lm\/eladies\/",
"author" : "WWW.SINA.COM.CN",
"tags" : [],
"desc" : "",
"emailed" : False,
"forwarded" : False,
"english" : False
}  , {
"index" : 5,
"articleIndex" : "8593",
"favor" :  False ,
     "read" : False,    
"title" : "一周六次收到小三发来床照炫耀",
"titleTip" : "一周六次收到小三发来床照炫耀",
"titleSummary" : "一周六次收到小三发来床照炫耀",
"descSummary" : "",
"url" : "http:\/\/go.rss.sina.com.cn\/redirect.php?url=http:\/\/blog.sina.com.cn\/s\/blog_4fac6ac30102ehy5.html",
"pubDate" : "昨天17:30:35",
"enterDate" : "384201:05:39",
"channelId" : "-3451966196746390396",
"channelName" : "女性-新浪博客",
"channelNameSummary" : "女性-新浪博客",
"channelUrl" : "http:\/\/blog.sina.com.cn\/lm\/eladies\/",
"author" : "WWW.SINA.COM.CN",
"tags" : [],
"desc" : "",
"emailed" : False,
"forwarded" : False,
"english" : False
}  , {
"index" : 6,
"articleIndex" : "8592",
"favor" :  False ,
     "read" : False,    
"title" : "90后妻当人体模特和老画家翻云覆雨",
"titleTip" : "90后妻当人体模特和老画家翻云覆雨",
"titleSummary" : "90后妻当人体模特和老画家翻云覆雨",
"descSummary" : "",
"url" : "http:\/\/go.rss.sina.com.cn\/redirect.php?url=http:\/\/blog.sina.com.cn\/s\/blog_9698ac210101fuba.html",
"pubDate" : "昨天17:29:53",
"enterDate" : "384201:04:57",
"channelId" : "-3451966196746390396",
"channelName" : "女性-新浪博客",
"channelNameSummary" : "女性-新浪博客",
"channelUrl" : "http:\/\/blog.sina.com.cn\/lm\/eladies\/",
"author" : "WWW.SINA.COM.CN",
"tags" : [],
"desc" : "",
"emailed" : False,
"forwarded" : False,
"english" : False
}  , {
"index" : 7,
"articleIndex" : "8591",
"favor" :  False ,
     "read" : False,    
"title" : "少妇有9个炮友却仍然是我真爱",
"titleTip" : "少妇有9个炮友却仍然是我真爱",
"titleSummary" : "少妇有9个炮友却仍然是我真爱",
"descSummary" : "",
"url" : "http:\/\/go.rss.sina.com.cn\/redirect.php?url=http:\/\/blog.sina.com.cn\/s\/blog_729233c30101hwat.html",
"pubDate" : "昨天17:29:10",
"enterDate" : "384201:04:14",
"channelId" : "-3451966196746390396",
"channelName" : "女性-新浪博客",
"channelNameSummary" : "女性-新浪博客",
"channelUrl" : "http:\/\/blog.sina.com.cn\/lm\/eladies\/",
"author" : "WWW.SINA.COM.CN",
"tags" : [],
"desc" : "",
"emailed" : False,
"forwarded" : False,
"english" : False
}  , {
"index" : 8,
"articleIndex" : "8590",
"favor" :  False ,
     "read" : False,    
"title" : "倒追老总遭玩弄我白献初夜",
"titleTip" : "倒追老总遭玩弄我白献初夜",
"titleSummary" : "倒追老总遭玩弄我白献初夜",
"descSummary" : "",
"url" : "http:\/\/go.rss.sina.com.cn\/redirect.php?url=http:\/\/blog.sina.com.cn\/s\/blog_6f3ba5d90102es6p.html",
"pubDate" : "昨天17:28:30",
"enterDate" : "384201:03:34",
"channelId" : "-3451966196746390396",
"channelName" : "女性-新浪博客",
"channelNameSummary" : "女性-新浪博客",
"channelUrl" : "http:\/\/blog.sina.com.cn\/lm\/eladies\/",
"author" : "WWW.SINA.COM.CN",
"tags" : [],
"desc" : "",
"emailed" : False,
"forwarded" : False,
"english" : False
}  , {
"index" : 9,
"articleIndex" : "8589",
"favor" :  False ,
     "read" : False,    
"title" : "结婚七年他出轨四次反嘲笑我是寄生虫",
"titleTip" : "结婚七年他出轨四次反嘲笑我是寄生虫",
"titleSummary" : "结婚七年他出轨四次反嘲笑我是寄生虫",
"descSummary" : "",
"url" : "http:\/\/go.rss.sina.com.cn\/redirect.php?url=http:\/\/blog.sina.com.cn\/s\/blog_4beb941a0102exzc.html",
"pubDate" : "昨天17:27:25",
"enterDate" : "384201:02:29",
"channelId" : "-3451966196746390396",
"channelName" : "女性-新浪博客",
"channelNameSummary" : "女性-新浪博客",
"channelUrl" : "http:\/\/blog.sina.com.cn\/lm\/eladies\/",
"author" : "WWW.SINA.COM.CN",
"tags" : [],
"desc" : "",
"emailed" : False,
"forwarded" : False,
"english" : False
}  , {
"index" : 10,
"articleIndex" : "8588",
"favor" :  False ,
     "read" : False,    
"title" : "老公一夜偷吃3女人染上性病真崩溃",
"titleTip" : "老公一夜偷吃3女人染上性病真崩溃",
"titleSummary" : "老公一夜偷吃3女人染上性病真崩溃",
"descSummary" : "",
"url" : "http:\/\/go.rss.sina.com.cn\/redirect.php?url=http:\/\/blog.sina.com.cn\/s\/blog_5db0ec6b0102ek2l.html",
"pubDate" : "昨天17:24:52",
"enterDate" : "384200:59:56",
"channelId" : "-3451966196746390396",
"channelName" : "女性-新浪博客",
"channelNameSummary" : "女性-新浪博客",
"channelUrl" : "http:\/\/blog.sina.com.cn\/lm\/eladies\/",
"author" : "WWW.SINA.COM.CN",
"tags" : [],
"desc" : "",
"emailed" : False,
"forwarded" : False,
"english" : False
}  , {
"index" : 11,
"articleIndex" : "8587",
"favor" :  False ,
     "read" : False,    
"title" : "欲望来袭我把女友拖进小树林纵欲",
"titleTip" : "欲望来袭我把女友拖进小树林纵欲",
"titleSummary" : "欲望来袭我把女友拖进小树林纵欲",
"descSummary" : "",
"url" : "http:\/\/go.rss.sina.com.cn\/redirect.php?url=http:\/\/blog.sina.com.cn\/s\/blog_6f7986130101dqzi.html",
"pubDate" : "昨天17:24:20",
"enterDate" : "384200:59:24",
"channelId" : "-3451966196746390396",
"channelName" : "女性-新浪博客",
"channelNameSummary" : "女性-新浪博客",
"channelUrl" : "http:\/\/blog.sina.com.cn\/lm\/eladies\/",
"author" : "WWW.SINA.COM.CN",
"tags" : [],
"desc" : "",
"emailed" : False,
"forwarded" : False,
"english" : False
}  , {
"index" : 12,
"articleIndex" : "8586",
"favor" :  False ,
     "read" : False,    
"title" : "丈夫与小三夜夜缠绵导致虚脱住院",
"titleTip" : "丈夫与小三夜夜缠绵导致虚脱住院",
"titleSummary" : "丈夫与小三夜夜缠绵导致虚脱住院",
"descSummary" : "",
"url" : "http:\/\/go.rss.sina.com.cn\/redirect.php?url=http:\/\/blog.sina.com.cn\/s\/blog_63a4c6870101c4j6.html",
"pubDate" : "昨天17:22:57",
"enterDate" : "384200:58:01",
"channelId" : "-3451966196746390396",
"channelName" : "女性-新浪博客",
"channelNameSummary" : "女性-新浪博客",
"channelUrl" : "http:\/\/blog.sina.com.cn\/lm\/eladies\/",
"author" : "WWW.SINA.COM.CN",
"tags" : [],
"desc" : "",
"emailed" : False,
"forwarded" : False,
"english" : False
}  , {
"index" : 13,
"articleIndex" : "8585",
"favor" :  False ,
     "read" : False,    
"title" : "女子发现怀孕才知是醉酒后被人强奸",
"titleTip" : "女子发现怀孕才知是醉酒后被人强奸",
"titleSummary" : "女子发现怀孕才知是醉酒后被人强奸",
"descSummary" : "",
"url" : "http:\/\/go.rss.sina.com.cn\/redirect.php?url=http:\/\/blog.sina.com.cn\/s\/blog_5830db210102e8og.html",
"pubDate" : "昨天17:22:29",
"enterDate" : "384200:57:33",
"channelId" : "-3451966196746390396",
"channelName" : "女性-新浪博客",
"channelNameSummary" : "女性-新浪博客",
"channelUrl" : "http:\/\/blog.sina.com.cn\/lm\/eladies\/",
"author" : "WWW.SINA.COM.CN",
"tags" : [],
"desc" : "",
"emailed" : False,
"forwarded" : False,
"english" : False
}  , {
"index" : 14,
"articleIndex" : "8584",
"favor" :  False ,
     "read" : False,    
"title" : "因我出墙老公用辣椒当套上床报复我",
"titleTip" : "因我出墙老公用辣椒当套上床报复我",
"titleSummary" : "因我出墙老公用辣椒当套上床报复我",
"descSummary" : "",
"url" : "http:\/\/go.rss.sina.com.cn\/redirect.php?url=http:\/\/blog.sina.com.cn\/s\/blog_521bb8cb0102erru.html",
"pubDate" : "昨天17:20:09",
"enterDate" : "384200:55:13",
"channelId" : "-3451966196746390396",
"channelName" : "女性-新浪博客",
"channelNameSummary" : "女性-新浪博客",
"channelUrl" : "http:\/\/blog.sina.com.cn\/lm\/eladies\/",
"author" : "WWW.SINA.COM.CN",
"tags" : [],
"desc" : "",
"emailed" : False,
"forwarded" : False,
"english" : False
}  , {
"index" : 15,
"articleIndex" : "8583",
"favor" :  False ,
     "read" : False,    
"title" : "男友酒吧骗我身遭备胎搅局",
"titleTip" : "男友酒吧骗我身遭备胎搅局",
"titleSummary" : "男友酒吧骗我身遭备胎搅局",
"descSummary" : "",
"url" : "http:\/\/go.rss.sina.com.cn\/redirect.php?url=http:\/\/blog.sina.com.cn\/s\/blog_6f3ba5d90102es6n.html",
"pubDate" : "昨天13:39:14",
"enterDate" : "384200:59:58",
"channelId" : "-3451966196746390396",
"channelName" : "女性-新浪博客",
"channelNameSummary" : "女性-新浪博客",
"channelUrl" : "http:\/\/blog.sina.com.cn\/lm\/eladies\/",
"author" : "WWW.SINA.COM.CN",
"tags" : [],
"desc" : "",
"emailed" : False,
"forwarded" : False,
"english" : False
}  , {
"index" : 16,
"articleIndex" : "8582",
"favor" :  False ,
     "read" : False,    
"title" : "妻妹让我床技真人秀示范给她老公",
"titleTip" : "妻妹让我床技真人秀示范给她老公",
"titleSummary" : "妻妹让我床技真人秀示范给她老公",
"descSummary" : "",
"url" : "http:\/\/go.rss.sina.com.cn\/redirect.php?url=http:\/\/blog.sina.com.cn\/s\/blog_64d61f9a0102edd2.html",
"pubDate" : "昨天13:38:36",
"enterDate" : "384200:59:20",
"channelId" : "-3451966196746390396",
"channelName" : "女性-新浪博客",
"channelNameSummary" : "女性-新浪博客",
"channelUrl" : "http:\/\/blog.sina.com.cn\/lm\/eladies\/",
"author" : "WWW.SINA.COM.CN",
"tags" : [],
"desc" : "",
"emailed" : False,
"forwarded" : False,
"english" : False
}  , {
"index" : 17,
"articleIndex" : "8581",
"favor" :  False ,
     "read" : False,    
"title" : "半夜如厕后走错房间上了丈母娘的床",
"titleTip" : "半夜如厕后走错房间上了丈母娘的床",
"titleSummary" : "半夜如厕后走错房间上了丈母娘的床",
"descSummary" : "",
"url" : "http:\/\/go.rss.sina.com.cn\/redirect.php?url=http:\/\/blog.sina.com.cn\/s\/blog_c426d3a70101b8k8.html",
"pubDate" : "昨天13:37:43",
"enterDate" : "384200:58:27",
"channelId" : "-3451966196746390396",
"channelName" : "女性-新浪博客",
"channelNameSummary" : "女性-新浪博客",
"channelUrl" : "http:\/\/blog.sina.com.cn\/lm\/eladies\/",
"author" : "WWW.SINA.COM.CN",
"tags" : [],
"desc" : "",
"emailed" : False,
"forwarded" : False,
"english" : False
}  , {
"index" : 18,
"articleIndex" : "8580",
"favor" :  False ,
     "read" : False,    
"title" : "与邻女稻草跺里约炮险些当猪被捉",
"titleTip" : "与邻女稻草跺里约炮险些当猪被捉",
"titleSummary" : "与邻女稻草跺里约炮险些当猪被捉",
"descSummary" : "",
"url" : "http:\/\/go.rss.sina.com.cn\/redirect.php?url=http:\/\/blog.sina.com.cn\/s\/blog_521bb8cb0102errr.html",
"pubDate" : "昨天13:36:44",
"enterDate" : "384200:57:28",
"channelId" : "-3451966196746390396",
"channelName" : "女性-新浪博客",
"channelNameSummary" : "女性-新浪博客",
"channelUrl" : "http:\/\/blog.sina.com.cn\/lm\/eladies\/",
"author" : "WWW.SINA.COM.CN",
"tags" : [],
"desc" : "",
"emailed" : False,
"forwarded" : False,
"english" : False
}  , {
"index" : 19,
"articleIndex" : "8579",
"favor" :  False ,
     "read" : False,    
"title" : "娇妻微博自曝开房记录刺激我",
"titleTip" : "娇妻微博自曝开房记录刺激我",
"titleSummary" : "娇妻微博自曝开房记录刺激我",
"descSummary" : "",
"url" : "http:\/\/go.rss.sina.com.cn\/redirect.php?url=http:\/\/blog.sina.com.cn\/s\/blog_4fac6ac30102ehxv.html",
"pubDate" : "昨天12:11:53",
"enterDate" : "384200:32:47",
"channelId" : "-3451966196746390396",
"channelName" : "女性-新浪博客",
"channelNameSummary" : "女性-新浪博客",
"channelUrl" : "http:\/\/blog.sina.com.cn\/lm\/eladies\/",
"author" : "WWW.SINA.COM.CN",
"tags" : [],
"desc" : "",
"emailed" : False,
"forwarded" : False,
"english" : False
} ]
}
