{
"mode" : {"viewTitle" : 1,   "viewNew" : 0,  "pageIndex" : 1 },
 "channel" : {"id" : "-5037815234532154355", "booked" : False, "subNumber" : 1, "name" : "基金要闻-新浪财经", "url" : "http:\/\/finance.sina.com.cn\/547\/2009\/0714\/4.html", "feed" : "http:\/\/rss.sina.com.cn\/finance\/fund.xml", "author" : "WWW.SINA.COM.CN", "desc" : "财经频道-基金要闻", "imageUrl" : "http:\/\/i1.sinaimg.cn\/cj\/pic\/newLogo\/logo_home_fin.gif", "postPerWeek" : "0", "lastCrawTime" : "17:17:55", "crawDateTime" : "17:17:55", "lastHttpCode" : "200"}, "page" : {
"startIndex" : 0,
"totalCount" : 5000,
"pageIndex" : 1,
"lastPage" : 250,
"pageSize" : 20,
"english" :  False },
 "unreadNum" : 0, "shotIndex" : -1,
"articles" : [
{
"index" : 0,
"articleIndex" : "9844",
"favor" :  False ,
     "read" : False,    
"title" : "基金托管资格或将有限放开 多家城商行将受益",
"titleTip" : "基金托管资格或将有限放开 多家城商行将受益",
"titleSummary" : "基金托管资格或将有限放开 多家城商行将受益",
"descSummary" : "大智慧阿思达克通讯社10月30日讯，据多位业内人士透露...",
"url" : "http:\/\/go.rss.sina.com.cn\/redirect.php?url=http:\/\/finance.sina.com.cn\/money\/fund\/20131030\/122017164203.shtml",
"pubDate" : "12:20:20",
"enterDate" : "384199:22:10",
"channelId" : "-5037815234532154355",
"channelName" : "基金要闻-新浪财经",
"channelNameSummary" : "基金要闻-新浪财经",
"channelUrl" : "http:\/\/finance.sina.com.cn\/547\/2009\/0714\/4.html",
"author" : "WWW.SINA.COM.CN",
"tags" : [],
"desc" : "大智慧阿思达克通讯社10月30日讯，据多位业内人士透露，监管层将对银行进行基金托管业务的资格有限放开，包括浙商银行、杭州银行等在内的多家城商行或将受益。 \u201C是逐步放开，已经有好些城商行在申请了，跟监管领导沟通过，目前浙商、杭州、徽商几家比较靠前。\u201D华北一....",
"emailed" : False,
"forwarded" : False,
"english" : False
}  , {
"index" : 1,
"articleIndex" : "9843",
"favor" :  False ,
     "read" : False,    
"title" : "李旭利案终审：维持一审原判",
"titleTip" : "李旭利案终审：维持一审原判",
"titleSummary" : "李旭利案终审：维持一审原判",
"descSummary" : "李旭利案二审维持原判，图为其昨日在法庭上受审。早报记者 严晓蝶 李燕...",
"url" : "http:\/\/go.rss.sina.com.cn\/redirect.php?url=http:\/\/finance.sina.com.cn\/money\/fund\/20131030\/101017162415.shtml",
"pubDate" : "10:10:10",
"enterDate" : "384200:42:35",
"channelId" : "-5037815234532154355",
"channelName" : "基金要闻-新浪财经",
"channelNameSummary" : "基金要闻-新浪财经",
"channelUrl" : "http:\/\/finance.sina.com.cn\/547\/2009\/0714\/4.html",
"author" : "WWW.SINA.COM.CN",
"tags" : [],
"desc" : "李旭利案二审维持原判，图为其昨日在法庭上受审。 早报记者 严晓蝶 李燕 原交银施罗德基金公司投资总监李旭利利用未公开信息交易案，昨日在上海市高级人民法院(下称\u201C上海市高院\u201D)终审宣判，法院裁定驳回上诉，维持一审原判。 现年40岁的李旭利于2011年9月....",
"emailed" : False,
"forwarded" : False,
"english" : False
}  , {
"index" : 2,
"articleIndex" : "9842",
"favor" :  False ,
     "read" : False,    
"title" : "10月30日基金交易提示",
"titleTip" : "10月30日基金交易提示",
"titleSummary" : "10月30日基金交易提示",
"descSummary" : "基金权益登记日 000241 宝盈核心优势混合C 每10份基金税前分红：0.18元，每1...",
"url" : "http:\/\/go.rss.sina.com.cn\/redirect.php?url=http:\/\/finance.sina.com.cn\/money\/fund\/20131030\/094217161900.shtml",
"pubDate" : "09:42:15",
"enterDate" : "384200:44:45",
"channelId" : "-5037815234532154355",
"channelName" : "基金要闻-新浪财经",
"channelNameSummary" : "基金要闻-新浪财经",
"channelUrl" : "http:\/\/finance.sina.com.cn\/547\/2009\/0714\/4.html",
"author" : "WWW.SINA.COM.CN",
"tags" : [],
"desc" : "基金权益登记日 000241 宝盈核心优势混合C 每10份基金税前分红：0.18元，每10份基金税后分红：0.18元，基金权益登记日：2013-10-30，基金场外除息日：2013-10-30，基金场外红利发放日：2013-10-31 213006....",
"emailed" : False,
"forwarded" : False,
"english" : False
}  , {
"index" : 3,
"articleIndex" : "9841",
"favor" :  False ,
     "read" : False,    
"title" : "国泰淘金互联网债基或早产",
"titleTip" : "国泰淘金互联网债基或早产",
"titleSummary" : "国泰淘金互联网债基或早产",
"descSummary" : "淘宝店能不能准时上线说不准 金证券记者 管伟 昨日，国泰淘金互联网债券基...",
"url" : "http:\/\/go.rss.sina.com.cn\/redirect.php?url=http:\/\/finance.sina.com.cn\/money\/fund\/20131030\/093917161794.shtml",
"pubDate" : "09:39:52",
"enterDate" : "384200:42:22",
"channelId" : "-5037815234532154355",
"channelName" : "基金要闻-新浪财经",
"channelNameSummary" : "基金要闻-新浪财经",
"channelUrl" : "http:\/\/finance.sina.com.cn\/547\/2009\/0714\/4.html",
"author" : "WWW.SINA.COM.CN",
"tags" : [],
"desc" : "淘宝店能不能准时上线说不准 金证券记者 管伟 昨日，国泰淘金互联网债券基金发布招募说明书，公告其将于11月1日正式发行。据了解，国泰基金是第一批在淘宝基金店上线的基金公司，但淘宝店方面表示，目前还没有确切的上线时间，也就是说，国泰淘金互联网债券基金....",
"emailed" : False,
"forwarded" : False,
"english" : False
}  , {
"index" : 4,
"articleIndex" : "9840",
"favor" :  False ,
     "read" : False,    
"title" : "互联网理财大战爆发 余额宝百度百发竞相吸金",
"titleTip" : "互联网理财大战爆发 余额宝百度百发竞相吸金",
"titleSummary" : "互联网理财大战爆发 余额宝百度百发竞相吸金",
"descSummary" : "互联网金融专家、中央财经大学教授黄震建议，百度应该从...",
"url" : "http:\/\/go.rss.sina.com.cn\/redirect.php?url=http:\/\/finance.sina.com.cn\/money\/fund\/20131030\/083217161017.shtml",
"pubDate" : "08:32:00",
"enterDate" : "384199:34:30",
"channelId" : "-5037815234532154355",
"channelName" : "基金要闻-新浪财经",
"channelNameSummary" : "基金要闻-新浪财经",
"channelUrl" : "http:\/\/finance.sina.com.cn\/547\/2009\/0714\/4.html",
"author" : "WWW.SINA.COM.CN",
"tags" : [],
"desc" : "互联网金融专家、中央财经大学教授黄震建议，百度应该从大数据出发，从数据的深入挖掘来服务金融业 ■本报见习记者 唐振伟&#160; 传统的金融理财行业因互联网巨头阿里巴巴、百度的加入而产生颠覆性的变化，互联网巨头展现出疯狂的\u201C吸金力\u201D，同时巨头间也正在....",
"emailed" : False,
"forwarded" : False,
"english" : False
}  , {
"index" : 5,
"articleIndex" : "9839",
"favor" :  False ,
     "read" : False,    
"title" : "绝口不提8% 高收益百发首日销售破10亿",
"titleTip" : "绝口不提8% 高收益百发首日销售破10亿",
"titleSummary" : "绝口不提8% 高收益百发首日销售破10亿",
"descSummary" : "截至10月25日，\u201C百发\u201D挂钩产品收益不足5%。本报记者 王雪姣...",
"url" : "http:\/\/go.rss.sina.com.cn\/redirect.php?url=http:\/\/finance.sina.com.cn\/money\/fund\/20131030\/080817160729.shtml",
"pubDate" : "08:08:57",
"enterDate" : "384199:11:27",
"channelId" : "-5037815234532154355",
"channelName" : "基金要闻-新浪财经",
"channelNameSummary" : "基金要闻-新浪财经",
"channelUrl" : "http:\/\/finance.sina.com.cn\/547\/2009\/0714\/4.html",
"author" : "WWW.SINA.COM.CN",
"tags" : [],
"desc" : "截至10月25日，\u201C百发\u201D挂钩产品收益不足5%。 本报记者 王雪姣 10月28日，在百度精心挑选的上午10点28分，百度金融中心理财平台正式上线，备受业界和投资者期待的\u201C百发\u201D理财计划开始发售。还没过多久，该平台便出现技术故障，众多投资者就纷纷吐槽其糟糕的用....",
"emailed" : False,
"forwarded" : False,
"english" : False
}  , {
"index" : 6,
"articleIndex" : "9838",
"favor" :  False ,
     "read" : False,    
"title" : "银监会欲规制互联网金融 传正加紧制定系列监管措施",
"titleTip" : "银监会欲规制互联网金融 传正加紧制定系列监管措施",
"titleSummary" : "银监会欲规制互联网金融 传正加紧制定系列监管措施",
"descSummary" : "互联网金融来了，但配套的监管却没有同步。互联网...",
"url" : "http:\/\/go.rss.sina.com.cn\/redirect.php?url=http:\/\/finance.sina.com.cn\/money\/fund\/20131030\/072317159883.shtml",
"pubDate" : "07:23:40",
"enterDate" : "384198:26:10",
"channelId" : "-5037815234532154355",
"channelName" : "基金要闻-新浪财经",
"channelNameSummary" : "基金要闻-新浪财经",
"channelUrl" : "http:\/\/finance.sina.com.cn\/547\/2009\/0714\/4.html",
"author" : "WWW.SINA.COM.CN",
"tags" : [],
"desc" : "互联网金融来了，但配套的监管却没有同步。互联网金融在高收益的诱惑之下，还潜藏着巨大风险 互联网金融来了，但配套的监管却没有同步。互联网金融在高收益的诱惑之下，还潜藏着巨大风险 法治周末见习记者 刘子阳 今年互联网金融的浪潮一触即发。继余额宝之....",
"emailed" : False,
"forwarded" : False,
"english" : False
}  , {
"index" : 7,
"articleIndex" : "9837",
"favor" :  False ,
     "read" : False,    
"title" : "资金面趋紧短期利率跳涨 货基高收益四季度有望持续",
"titleTip" : "资金面趋紧短期利率跳涨 货基高收益四季度有望持续",
"titleSummary" : "资金面趋紧短期利率跳涨 货基高收益四季度有望持续",
"descSummary" : "资金面趋紧 月末短期Shibor\u201C跳涨\u201D 本报讯 (记者...",
"url" : "http:\/\/go.rss.sina.com.cn\/redirect.php?url=http:\/\/finance.sina.com.cn\/money\/fund\/20131030\/071917159901.shtml",
"pubDate" : "07:19:11",
"enterDate" : "384198:21:41",
"channelId" : "-5037815234532154355",
"channelName" : "基金要闻-新浪财经",
"channelNameSummary" : "基金要闻-新浪财经",
"channelUrl" : "http:\/\/finance.sina.com.cn\/547\/2009\/0714\/4.html",
"author" : "WWW.SINA.COM.CN",
"tags" : [],
"desc" : "资金面趋紧 月末短期Shibor\u201C跳涨\u201D 本报讯 (记者吴倩)进入10月下旬，市场资金层面再次趋紧，昨日，短期Shibor值(上海银行间同业拆放利率)继续上涨。业内人士分析，预计在未来较长一段时期内，利率中枢都将处于较高水平，四季度货币基金的高收益或有望持续。 货....",
"emailed" : False,
"forwarded" : False,
"english" : False
}  , {
"index" : 8,
"articleIndex" : "9836",
"favor" :  False ,
     "read" : False,    
"title" : "百度理财又推百赚 同为华夏现金增利货币基金",
"titleTip" : "百度理财又推百赚 同为华夏现金增利货币基金",
"titleSummary" : "百度理财又推百赚 同为华夏现金增利货币基金",
"descSummary" : "证券时报记者 邱h 10月28日，百度理财平台的首款产品\u201C...",
"url" : "http:\/\/go.rss.sina.com.cn\/redirect.php?url=http:\/\/finance.sina.com.cn\/money\/fund\/20131030\/071517160063.shtml",
"pubDate" : "07:15:00",
"enterDate" : "384198:17:30",
"channelId" : "-5037815234532154355",
"channelName" : "基金要闻-新浪财经",
"channelNameSummary" : "基金要闻-新浪财经",
"channelUrl" : "http:\/\/finance.sina.com.cn\/547\/2009\/0714\/4.html",
"author" : "WWW.SINA.COM.CN",
"tags" : [],
"desc" : "证券时报记者 邱h 10月28日，百度理财平台的首款产品\u201C百度理财B\u201D上市遭哄抢，10亿元额度4小时售罄。不过，没有买到的投资者也不用气馁，百度理财的第二款理财产品\u2015\u2015\u201C百赚\u201D即将登场，而投资标的仍然是华夏现金增利E。 昨日，百度理财平台上又发布了一条广....",
"emailed" : False,
"forwarded" : False,
"english" : False
}  , {
"index" : 9,
"articleIndex" : "9834",
"favor" :  False ,
     "read" : False,    
"title" : "自贸区招商 基金公司举棋不定",
"titleTip" : "自贸区招商 基金公司举棋不定",
"titleSummary" : "自贸区招商 基金公司举棋不定",
"descSummary" : "证券时报记者 张哲 昨日，上海自贸区正式挂牌满一个月。一个月来，自贸...",
"url" : "http:\/\/go.rss.sina.com.cn\/redirect.php?url=http:\/\/finance.sina.com.cn\/money\/fund\/20131030\/044017158318.shtml",
"pubDate" : "昨天04:40:08",
"enterDate" : "384195:42:38",
"channelId" : "-5037815234532154355",
"channelName" : "基金要闻-新浪财经",
"channelNameSummary" : "基金要闻-新浪财经",
"channelUrl" : "http:\/\/finance.sina.com.cn\/547\/2009\/0714\/4.html",
"author" : "WWW.SINA.COM.CN",
"tags" : [],
"desc" : "证券时报记者 张哲 昨日，上海自贸区正式挂牌满一个月。一个月来，自贸区备受各界关注，其中也包括了位于上海的基金公司们。不过，由于相关细则仍未明朗，是否将子公司落户自贸区，基金公司仍在踌躇。 据知情人士透露，上海一家大型基金公司计划将还未成立的子....",
"emailed" : False,
"forwarded" : False,
"english" : False
}  , {
"index" : 10,
"articleIndex" : "9835",
"favor" :  False ,
     "read" : False,    
"title" : "李旭利案二审维持原判 律师称不排除继续申诉可能",
"titleTip" : "李旭利案二审维持原判 律师称不排除继续申诉可能",
"titleSummary" : "李旭利案二审维持原判 律师称不排除继续申诉可能",
"descSummary" : "证券时报记者 吴昊 昨日上午，李旭利\u201C老鼠仓案\u201D在...",
"url" : "http:\/\/go.rss.sina.com.cn\/redirect.php?url=http:\/\/finance.sina.com.cn\/money\/fund\/20131030\/044017158309.shtml",
"pubDate" : "昨天04:40:08",
"enterDate" : "384195:42:38",
"channelId" : "-5037815234532154355",
"channelName" : "基金要闻-新浪财经",
"channelNameSummary" : "基金要闻-新浪财经",
"channelUrl" : "http:\/\/finance.sina.com.cn\/547\/2009\/0714\/4.html",
"author" : "WWW.SINA.COM.CN",
"tags" : [],
"desc" : "证券时报记者 吴昊 昨日上午，李旭利\u201C老鼠仓案\u201D在上海市高级人民法院二审公开宣判。法院认为，李旭利涉嫌利用未公开信息交易罪名成立，维持一审有期徒刑4年的原判，罚金1800万，违法所得一千余万予以追缴，此判决为终审判决。 对此，李旭利辩护律师周泽对证券....",
"emailed" : False,
"forwarded" : False,
"english" : False
}  , {
"index" : 11,
"articleIndex" : "9833",
"favor" :  False ,
     "read" : False,    
"title" : "百度理财B收益今日将公布 百度百发产品仍在审批",
"titleTip" : "百度理财B收益今日将公布 百度百发产品仍在审批",
"titleSummary" : "百度理财B收益今日将公布 百度百发产品仍在审批",
"descSummary" : "百度理财又推\u201C百赚\u201D 证券时报记者 邱h 10月28日，...",
"url" : "http:\/\/go.rss.sina.com.cn\/redirect.php?url=http:\/\/finance.sina.com.cn\/money\/fund\/20131030\/044017158263.shtml",
"pubDate" : "昨天04:40:06",
"enterDate" : "384195:42:36",
"channelId" : "-5037815234532154355",
"channelName" : "基金要闻-新浪财经",
"channelNameSummary" : "基金要闻-新浪财经",
"channelUrl" : "http:\/\/finance.sina.com.cn\/547\/2009\/0714\/4.html",
"author" : "WWW.SINA.COM.CN",
"tags" : [],
"desc" : "百度理财又推\u201C百赚\u201D 证券时报记者 邱h 10月28日，百度理财平台的首款产品\u201C百度理财B\u201D上市遭哄抢，10亿元额度4小时售罄。不过，没有买到的投资者也不用气馁，百度理财的第二款理财产品\u2015\u2015\u201C百赚\u201D即将登场，而投资标的仍然是华夏现金增利E。 昨日，....",
"emailed" : False,
"forwarded" : False,
"english" : False
}  , {
"index" : 12,
"articleIndex" : "9831",
"favor" :  False ,
     "read" : False,    
"title" : "为对接网络平台产品 大基金公司纷纷成立新货基",
"titleTip" : "为对接网络平台产品 大基金公司纷纷成立新货基",
"titleSummary" : "为对接网络平台产品 大基金公司纷纷成立新货基",
"descSummary" : "证券时报记者 姚波 余额宝的榜样作用，引得不少基金公...",
"url" : "http:\/\/go.rss.sina.com.cn\/redirect.php?url=http:\/\/finance.sina.com.cn\/money\/fund\/20131030\/044017158242.shtml",
"pubDate" : "昨天04:40:05",
"enterDate" : "384195:42:35",
"channelId" : "-5037815234532154355",
"channelName" : "基金要闻-新浪财经",
"channelNameSummary" : "基金要闻-新浪财经",
"channelUrl" : "http:\/\/finance.sina.com.cn\/547\/2009\/0714\/4.html",
"author" : "WWW.SINA.COM.CN",
"tags" : [],
"desc" : "证券时报记者 姚波 余额宝的榜样作用，引得不少基金公司意图走上货币型基金与互联网金融结合之路。证券时报记者了解到，10月以来新成立的货币基金中，不少大公司的产品是为了对接类似余额宝的新型网络平台而设立，并注重对其网络功能的开发。不过，基金电商人士对一窝....",
"emailed" : False,
"forwarded" : False,
"english" : False
}  , {
"index" : 13,
"articleIndex" : "9832",
"favor" :  False ,
     "read" : False,    
"title" : "华融和中金两券商公募基金资格在审",
"titleTip" : "华融和中金两券商公募基金资格在审",
"titleSummary" : "华融和中金两券商公募基金资格在审",
"descSummary" : "证券时报记者 杨庆婉 公募基金版图扩张速度加快。东方证券资产管...",
"url" : "http:\/\/go.rss.sina.com.cn\/redirect.php?url=http:\/\/finance.sina.com.cn\/money\/fund\/20131030\/044017158221.shtml",
"pubDate" : "昨天04:40:05",
"enterDate" : "384195:42:35",
"channelId" : "-5037815234532154355",
"channelName" : "基金要闻-新浪财经",
"channelNameSummary" : "基金要闻-新浪财经",
"channelUrl" : "http:\/\/finance.sina.com.cn\/547\/2009\/0714\/4.html",
"author" : "WWW.SINA.COM.CN",
"tags" : [],
"desc" : "证券时报记者 杨庆婉 公募基金版图扩张速度加快。东方证券资产管理公司日前获批公募基金资格，首家保险系公募基金国寿安保基金管理有限公司也获批成立，其他资管公司入围的步子也在加快。证监会新闻发言人近日透露，正在审核华融证券和中金公司的全资子公司中金基金的....",
"emailed" : False,
"forwarded" : False,
"english" : False
}  , {
"index" : 14,
"articleIndex" : "9830",
"favor" :  False ,
     "read" : False,    
"title" : "多空分级基金获新反馈 海外风控经验待明确",
"titleTip" : "多空分级基金获新反馈 海外风控经验待明确",
"titleSummary" : "多空分级基金获新反馈 海外风控经验待明确",
"descSummary" : "证券时报记者 程俊琳 备受关注的多空分级基金又有新动向。...",
"url" : "http:\/\/go.rss.sina.com.cn\/redirect.php?url=http:\/\/finance.sina.com.cn\/money\/fund\/20131030\/044017158208.shtml",
"pubDate" : "昨天04:40:04",
"enterDate" : "384195:42:34",
"channelId" : "-5037815234532154355",
"channelName" : "基金要闻-新浪财经",
"channelNameSummary" : "基金要闻-新浪财经",
"channelUrl" : "http:\/\/finance.sina.com.cn\/547\/2009\/0714\/4.html",
"author" : "WWW.SINA.COM.CN",
"tags" : [],
"desc" : "证券时报记者 程俊琳 备受关注的多空分级基金又有新动向。证券时报记者了解到，在接受基金公司反馈意见提交2个月后，首批反馈的基金公司迎来新一轮反馈意见补充。 证券时报记者从上海一家基金公司了解到，监管部门对第一次的补充意见进行了研究讨论，已将反馈意....",
"emailed" : False,
"forwarded" : False,
"english" : False
}  , {
"index" : 15,
"articleIndex" : "9829",
"favor" :  False ,
     "read" : False,    
"title" : "上周基金新增7.8万开户数 10月份以来新增23万户",
"titleTip" : "上周基金新增7.8万开户数 10月份以来新增23万户",
"titleSummary" : "上周基金新增7.8万开户数 10月份以来新增23万户",
"descSummary" : "截至10月25日，基金账户总数为4351.98万户，环比增长...",
"url" : "http:\/\/go.rss.sina.com.cn\/redirect.php?url=http:\/\/finance.sina.com.cn\/money\/fund\/20131030\/035317157602.shtml",
"pubDate" : "昨天03:53:50",
"enterDate" : "384194:56:20",
"channelId" : "-5037815234532154355",
"channelName" : "基金要闻-新浪财经",
"channelNameSummary" : "基金要闻-新浪财经",
"channelUrl" : "http:\/\/finance.sina.com.cn\/547\/2009\/0714\/4.html",
"author" : "WWW.SINA.COM.CN",
"tags" : [],
"desc" : "截至10月25日，基金账户总数为4351.98万户，环比增长17.91% ■本报见习记者 唐 芳 《证券日报》基金新闻部根据中国登记结算有限公司公示数据整理显示，在上周上证综指累计下跌2.77%的环境下，基金新增开户数同期也出现下降。上周新增开户数为7.78万户，环比减少....",
"emailed" : False,
"forwarded" : False,
"english" : False
}  , {
"index" : 16,
"articleIndex" : "9828",
"favor" :  False ,
     "read" : False,    
"title" : "李旭利案始末",
"titleTip" : "李旭利案始末",
"titleSummary" : "李旭利案始末",
"descSummary" : "2010年10月25日 重阳投资发布公告称：\u201C重阳投资首席投资官李旭利先生由于身体原因和...",
"url" : "http:\/\/go.rss.sina.com.cn\/redirect.php?url=http:\/\/finance.sina.com.cn\/money\/fund\/20131030\/034117157517.shtml",
"pubDate" : "昨天03:41:52",
"enterDate" : "384194:44:22",
"channelId" : "-5037815234532154355",
"channelName" : "基金要闻-新浪财经",
"channelNameSummary" : "基金要闻-新浪财经",
"channelUrl" : "http:\/\/finance.sina.com.cn\/547\/2009\/0714\/4.html",
"author" : "WWW.SINA.COM.CN",
"tags" : [],
"desc" : "●2010年10月25日 重阳投资发布公告称：\u201C重阳投资首席投资官李旭利先生由于身体原因和自身的安排，已于近期辞去该公司的职务，正式离开重阳投资。\u201D ●2011年8月13日 李旭利在北京被拘押。 ●2012年6月12日 李旭利利用未公开信息交易罪一....",
"emailed" : False,
"forwarded" : False,
"english" : False
}  , {
"index" : 17,
"articleIndex" : "9827",
"favor" :  False ,
     "read" : False,    
"title" : "上海高院解释为何维持原判：李旭利认罪供述笔录合法有效",
"titleTip" : "上海高院解释为何维持原判：李旭利认罪供述笔录合法有效",
"titleSummary" : "上海高院解释为何维持原判：李旭利认罪供述笔录合法有效",
"descSummary" : "记者 丁宁 编辑 于勇 宣判结束后，上海高院...",
"url" : "http:\/\/go.rss.sina.com.cn\/redirect.php?url=http:\/\/finance.sina.com.cn\/money\/fund\/20131030\/033917157460.shtml",
"pubDate" : "昨天03:39:33",
"enterDate" : "384194:42:03",
"channelId" : "-5037815234532154355",
"channelName" : "基金要闻-新浪财经",
"channelNameSummary" : "基金要闻-新浪财经",
"channelUrl" : "http:\/\/finance.sina.com.cn\/547\/2009\/0714\/4.html",
"author" : "WWW.SINA.COM.CN",
"tags" : [],
"desc" : "⊙记者 丁宁 ○编辑 于勇 宣判结束后，上海高院召开新闻发布会，上海高院副院长邹碧华就李旭利一案的基本案情及审理经过做了通报，并就为何维持原判作出解释。 本案最大的争议焦点是涉案股票是否李旭利指令李智君购买。邹碧华表示，在案证据证实，李旭利因其职....",
"emailed" : False,
"forwarded" : False,
"english" : False
}  , {
"index" : 18,
"articleIndex" : "9826",
"favor" :  False ,
     "read" : False,    
"title" : "两只资源类分级基金逼近折算预警线",
"titleTip" : "两只资源类分级基金逼近折算预警线",
"titleSummary" : "两只资源类分级基金逼近折算预警线",
"descSummary" : "记者 王诚诚 编辑 于勇 鹏华基金今日发布公告称，旗下分级基金鹏...",
"url" : "http:\/\/go.rss.sina.com.cn\/redirect.php?url=http:\/\/finance.sina.com.cn\/money\/fund\/20131030\/033117157213.shtml",
"pubDate" : "昨天03:31:24",
"enterDate" : "384194:33:54",
"channelId" : "-5037815234532154355",
"channelName" : "基金要闻-新浪财经",
"channelNameSummary" : "基金要闻-新浪财经",
"channelUrl" : "http:\/\/finance.sina.com.cn\/547\/2009\/0714\/4.html",
"author" : "WWW.SINA.COM.CN",
"tags" : [],
"desc" : "⊙记者 王诚诚 ○编辑 于勇 鹏华基金今日发布公告称，旗下分级基金鹏华资源分级B份额参考净值跌至0.250元时，鹏华资源份额将进行不定期份额折算。 公告表示，由于近期A股市场波动较大，截至2013年10月29日，资源B的基金份额参考净值接近基金合同规定的不定期份....",
"emailed" : False,
"forwarded" : False,
"english" : False
}  , {
"index" : 19,
"articleIndex" : "9825",
"favor" :  False ,
     "read" : False,    
"title" : "互联网金融战火蔓延至POS市场 汇付生利宝将上线",
"titleTip" : "互联网金融战火蔓延至POS市场 汇付生利宝将上线",
"titleSummary" : "互联网金融战火蔓延至POS市场 汇付生利宝将上线",
"descSummary" : "张静 日前，第三方支付公司汇付天下正式推出国内首...",
"url" : "http:\/\/go.rss.sina.com.cn\/redirect.php?url=http:\/\/finance.sina.com.cn\/money\/fund\/20131030\/021817156737.shtml",
"pubDate" : "昨天02:18:07",
"enterDate" : "384193:20:37",
"channelId" : "-5037815234532154355",
"channelName" : "基金要闻-新浪财经",
"channelNameSummary" : "基金要闻-新浪财经",
"channelUrl" : "http:\/\/finance.sina.com.cn\/547\/2009\/0714\/4.html",
"author" : "WWW.SINA.COM.CN",
"tags" : [],
"desc" : "张静 日前，第三方支付公司汇付天下正式推出国内首款基于POS商户的移动化理财产品\u201C汇付天下生利宝\u201D，将为其中小商户提供移动平台金融增值服务，这款理财产品将通过货币基金等固定收益产品达到预期年化3.7%的收益率。 根据赛迪顾问数据显示，2013年上半年银行....",
"emailed" : False,
"forwarded" : False,
"english" : False
} ]
}
