{
"mode" : {"viewTitle" : 1,   "viewNew" : 0,  "pageIndex" : 2 },
 "channel" : {"id" : "-5037815234532154355", "booked" : False, "subNumber" : 1, "name" : "基金要闻-新浪财经", "url" : "http:\/\/finance.sina.com.cn\/547\/2009\/0714\/4.html", "feed" : "http:\/\/rss.sina.com.cn\/finance\/fund.xml", "author" : "WWW.SINA.COM.CN", "desc" : "财经频道-基金要闻", "imageUrl" : "http:\/\/i1.sinaimg.cn\/cj\/pic\/newLogo\/logo_home_fin.gif", "postPerWeek" : "0", "lastCrawTime" : "17:17:55", "crawDateTime" : "17:17:55", "lastHttpCode" : "200"}, "page" : {
"startIndex" : 20,
"totalCount" : 5000,
"pageIndex" : 2,
"lastPage" : 250,
"pageSize" : 20,
"english" :  False },
 "unreadNum" : 0, "shotIndex" : -1,
"articles" : [
{
"index" : 0,
"articleIndex" : "9824",
"favor" :  False ,
     "read" : False,    
"title" : "首只互联网债基周五发售 分析师称债市难现大牛",
"titleTip" : "首只互联网债基周五发售 分析师称债市难现大牛",
"titleSummary" : "首只互联网债基周五发售 分析师称债市难现大牛",
"descSummary" : "首只互联网债基本周五发售，淘宝非唯一售卖渠道 很快...",
"url" : "http:\/\/go.rss.sina.com.cn\/redirect.php?url=http:\/\/finance.sina.com.cn\/money\/fund\/20131030\/021017156679.shtml",
"pubDate" : "昨天02:10:11",
"enterDate" : "384193:12:41",
"channelId" : "-5037815234532154355",
"channelName" : "基金要闻-新浪财经",
"channelNameSummary" : "基金要闻-新浪财经",
"channelUrl" : "http:\/\/finance.sina.com.cn\/547\/2009\/0714\/4.html",
"author" : "WWW.SINA.COM.CN",
"tags" : [],
"desc" : "首只互联网债基本周五发售，淘宝非唯一售卖渠道 很快您可以像买衣服一样在淘宝上买基金了。互联网基金销售如火如荼，业内人士透露，淘宝网近期将获批基金销售平台资格，预计11月1日将开张，而国泰淘金互联网债基有望成为首只在淘宝理财平台上发售的基金。 好买....",
"emailed" : False,
"forwarded" : False,
"english" : False
}  , {
"index" : 1,
"articleIndex" : "9823",
"favor" :  False ,
     "read" : False,    
"title" : "李旭利案二审维持原判 面临四年有期徒刑及1800万罚金",
"titleTip" : "李旭利案二审维持原判 面临四年有期徒刑及1800万罚金",
"titleSummary" : "李旭利案二审维持原判 面临四年有期徒刑及1800万罚金",
"descSummary" : "程亮亮 昨日，受各界高度关注的\u201C李旭利老鼠仓...",
"url" : "http:\/\/go.rss.sina.com.cn\/redirect.php?url=http:\/\/finance.sina.com.cn\/money\/fund\/20131030\/020317156563.shtml",
"pubDate" : "昨天02:03:50",
"enterDate" : "384193:06:20",
"channelId" : "-5037815234532154355",
"channelName" : "基金要闻-新浪财经",
"channelNameSummary" : "基金要闻-新浪财经",
"channelUrl" : "http:\/\/finance.sina.com.cn\/547\/2009\/0714\/4.html",
"author" : "WWW.SINA.COM.CN",
"tags" : [],
"desc" : "程亮亮 昨日，受各界高度关注的\u201C李旭利老鼠仓案\u201D在上海高院终审宣判，法院裁定驳回上诉，维持原判。李旭利因犯利用未公开信息交易罪，被判处有期徒刑4年、并处罚金1800万元、违法所得1071万余元予以追缴。 2010年6月，稽查人员在查办一起上市公司异常交易案过....",
"emailed" : False,
"forwarded" : False,
"english" : False
}  , {
"index" : 2,
"articleIndex" : "9819",
"favor" :  False ,
     "read" : False,    
"title" : "大摩品质生活股票基金首募逾27亿",
"titleTip" : "大摩品质生活股票基金首募逾27亿",
"titleSummary" : "大摩品质生活股票基金首募逾27亿",
"descSummary" : "摩根士丹利华鑫基金10月30日发布公告，大摩品质生活股票基金10月...",
"url" : "http:\/\/go.rss.sina.com.cn\/redirect.php?url=http:\/\/finance.sina.com.cn\/money\/fund\/20131030\/013017155529.shtml",
"pubDate" : "昨天01:30:05",
"enterDate" : "384192:32:35",
"channelId" : "-5037815234532154355",
"channelName" : "基金要闻-新浪财经",
"channelNameSummary" : "基金要闻-新浪财经",
"channelUrl" : "http:\/\/finance.sina.com.cn\/547\/2009\/0714\/4.html",
"author" : "WWW.SINA.COM.CN",
"tags" : [],
"desc" : "摩根士丹利华鑫基金10月30日发布公告，大摩品质生活股票基金10月29日正式成立，首募规模达27.54亿元，远超行业同期同类产品平均募集水平。Wind统计显示，今年前三季度，股票型基金共成立58只，平均首募规模为8.22亿元。 据了解，大摩品质生活股票基金实现逆市销售，很....",
"emailed" : False,
"forwarded" : False,
"english" : False
}  , {
"index" : 3,
"articleIndex" : "9820",
"favor" :  False ,
     "read" : False,    
"title" : "易方达新兴成长今起发行",
"titleTip" : "易方达新兴成长今起发行",
"titleSummary" : "易方达新兴成长今起发行",
"descSummary" : "今年以来，新兴产业热点密集，资本市场持续关注，股价表现非常抢眼，主投新...",
"url" : "http:\/\/go.rss.sina.com.cn\/redirect.php?url=http:\/\/finance.sina.com.cn\/money\/fund\/20131030\/013017155520.shtml",
"pubDate" : "昨天01:30:05",
"enterDate" : "384192:32:35",
"channelId" : "-5037815234532154355",
"channelName" : "基金要闻-新浪财经",
"channelNameSummary" : "基金要闻-新浪财经",
"channelUrl" : "http:\/\/finance.sina.com.cn\/547\/2009\/0714\/4.html",
"author" : "WWW.SINA.COM.CN",
"tags" : [],
"desc" : "今年以来，新兴产业热点密集，资本市场持续关注，股价表现非常抢眼，主投新兴产业的基金净值涨势喜人。易方达基金10月30日将开始向全国发售一只新兴产业类基金，该产品设计较有特色，由于看好未来新兴产业投资机会，将以新兴产业中预期成长性较好的公司为主要投资目标，捕捉新....",
"emailed" : False,
"forwarded" : False,
"english" : False
}  , {
"index" : 4,
"articleIndex" : "9821",
"favor" :  False ,
     "read" : False,    
"title" : "华安生态优先11月1日起发行",
"titleTip" : "华安生态优先11月1日起发行",
"titleSummary" : "华安生态优先11月1日起发行",
"descSummary" : "华安生态优先股票基金将于11月1日至11月26日发行，该产品着眼于\u201C大生态...",
"url" : "http:\/\/go.rss.sina.com.cn\/redirect.php?url=http:\/\/finance.sina.com.cn\/money\/fund\/20131030\/013017155548.shtml",
"pubDate" : "昨天01:30:05",
"enterDate" : "384192:32:35",
"channelId" : "-5037815234532154355",
"channelName" : "基金要闻-新浪财经",
"channelNameSummary" : "基金要闻-新浪财经",
"channelUrl" : "http:\/\/finance.sina.com.cn\/547\/2009\/0714\/4.html",
"author" : "WWW.SINA.COM.CN",
"tags" : [],
"desc" : "华安生态优先股票基金将于11月1日至11月26日发行，该产品着眼于\u201C大生态\u201D主题，不仅投资于跟大气、水源等环境保护相关的股票，同时也将智慧城市、大消费、养老产业等城市生态和人文生态纳入长期投资重点。 据了解，华安生态优先基金的股票投资比例占基金资产的60%-95%....",
"emailed" : False,
"forwarded" : False,
"english" : False
}  , {
"index" : 5,
"articleIndex" : "9822",
"favor" :  False ,
     "read" : False,    
"title" : "首只市政债基万家市政即将发行",
"titleTip" : "首只市政债基万家市政即将发行",
"titleSummary" : "首只市政债基万家市政即将发行",
"descSummary" : "国内首只市政建设主题债基--万家市政纯债定期开放债券基金将于11月1...",
"url" : "http:\/\/go.rss.sina.com.cn\/redirect.php?url=http:\/\/finance.sina.com.cn\/money\/fund\/20131030\/013017155523.shtml",
"pubDate" : "昨天01:30:05",
"enterDate" : "384192:32:35",
"channelId" : "-5037815234532154355",
"channelName" : "基金要闻-新浪财经",
"channelNameSummary" : "基金要闻-新浪财经",
"channelUrl" : "http:\/\/finance.sina.com.cn\/547\/2009\/0714\/4.html",
"author" : "WWW.SINA.COM.CN",
"tags" : [],
"desc" : "国内首只市政建设主题债基\u2015\u2015万家市政纯债定期开放债券基金将于11月1日至11月22日发行，在当前债市重现入场配置良机的背景下，为投资者提供契合市场节奏变化的理财选择。据了解，这只以市政建设为投资主题的新基金是指广义的投向市政建设的债券，承担城市建设相关业务、承担....",
"emailed" : False,
"forwarded" : False,
"english" : False
}  , {
"index" : 6,
"articleIndex" : "9818",
"favor" :  False ,
     "read" : False,    
"title" : "百度百发疑胎死腹中 新品混淆售卖总规模破10亿",
"titleTip" : "百度百发疑胎死腹中 新品混淆售卖总规模破10亿",
"titleSummary" : "百度百发疑胎死腹中 新品混淆售卖总规模破10亿",
"descSummary" : "如果你以为你昨天在百度理财平台认购的是说好的\u201C8%...",
"url" : "http:\/\/go.rss.sina.com.cn\/redirect.php?url=http:\/\/finance.sina.com.cn\/money\/fund\/20131029\/174517153372.shtml",
"pubDate" : "昨天17:45:41",
"enterDate" : "384184:48:11",
"channelId" : "-5037815234532154355",
"channelName" : "基金要闻-新浪财经",
"channelNameSummary" : "基金要闻-新浪财经",
"channelUrl" : "http:\/\/finance.sina.com.cn\/547\/2009\/0714\/4.html",
"author" : "WWW.SINA.COM.CN",
"tags" : [],
"desc" : "如果你以为你昨天在百度理财平台认购的是说好的\u201C8%\u201D的\u201C百发\u201D，那你就错了。 据百度介绍，10月28日在百度理财平台上线的是华夏基金公司旗下的华夏现金增利货币基金。华夏基金官网最新数据显示，华夏基金增利货币七日年化收益率为4.933%，近一年收益4.07%\u2015\u2015一款再....",
"emailed" : False,
"forwarded" : False,
"english" : False
}  , {
"index" : 7,
"articleIndex" : "9817",
"favor" :  False ,
     "read" : False,    
"title" : "百发昨日首发未能百中 百度理财被指搞饥饿营销",
"titleTip" : "百发昨日首发未能百中 百度理财被指搞饥饿营销",
"titleSummary" : "百发昨日首发未能百中 百度理财被指搞饥饿营销",
"descSummary" : "羊城晚报讯记者林曦、实习生宋清报道：昨日上午，百度...",
"url" : "http:\/\/go.rss.sina.com.cn\/redirect.php?url=http:\/\/finance.sina.com.cn\/money\/fund\/20131029\/152017151685.shtml",
"pubDate" : "昨天15:20:05",
"enterDate" : "384182:22:35",
"channelId" : "-5037815234532154355",
"channelName" : "基金要闻-新浪财经",
"channelNameSummary" : "基金要闻-新浪财经",
"channelUrl" : "http:\/\/finance.sina.com.cn\/547\/2009\/0714\/4.html",
"author" : "WWW.SINA.COM.CN",
"tags" : [],
"desc" : "羊城晚报讯记者林曦、实习生宋清报道：昨日上午，百度金融中心\u2015\u2015理财平台正式上线，一同上线的还有此前因打出8%收益而引发争议的理财计划\u201C百发\u201D。但由于页面访问瞬间并发数巨大，导致许多网友吐槽称百度理财官网出现无法登录的状况，原本登录状态的账号被频繁退出登录，随....",
"emailed" : False,
"forwarded" : False,
"english" : False
}  , {
"index" : 8,
"articleIndex" : "9816",
"favor" :  False ,
     "read" : False,    
"title" : "李旭利律师：不排除继续申诉可能",
"titleTip" : "李旭利律师：不排除继续申诉可能",
"titleSummary" : "李旭利律师：不排除继续申诉可能",
"descSummary" : "本月29日上午，李旭利\u201C老鼠仓\u201D案于上海市高级人民法院二审公开...",
"url" : "http:\/\/go.rss.sina.com.cn\/redirect.php?url=http:\/\/finance.sina.com.cn\/money\/fund\/20131029\/145017151574.shtml",
"pubDate" : "昨天14:50:00",
"enterDate" : "384181:52:30",
"channelId" : "-5037815234532154355",
"channelName" : "基金要闻-新浪财经",
"channelNameSummary" : "基金要闻-新浪财经",
"channelUrl" : "http:\/\/finance.sina.com.cn\/547\/2009\/0714\/4.html",
"author" : "WWW.SINA.COM.CN",
"tags" : [],
"desc" : "本月29日上午，李旭利\u201C老鼠仓\u201D案于上海市高级人民法院二审公开宣判。法院认为，李旭利涉嫌利用未公开信息交易罪名成立，维持一审原判，判处李旭利有期徒刑4年，罚金1800万人民币，违法所得一千余万予以追缴，此判决为终审判决。 对此，李旭利辩护律师周泽在接受证券....",
"emailed" : False,
"forwarded" : False,
"english" : False
}  , {
"index" : 9,
"articleIndex" : "9814",
"favor" :  False ,
     "read" : False,    
"title" : "国泰基金将推国内首只互联网主题债券基金",
"titleTip" : "国泰基金将推国内首只互联网主题债券基金",
"titleSummary" : "国泰基金将推国内首只互联网主题债券基金",
"descSummary" : "大智慧阿思达克通讯社10月29日讯，国泰基金管理公司将推...",
"url" : "http:\/\/go.rss.sina.com.cn\/redirect.php?url=http:\/\/finance.sina.com.cn\/money\/fund\/20131029\/143017151172.shtml",
"pubDate" : "昨天14:30:21",
"enterDate" : "384199:37:11",
"channelId" : "-5037815234532154355",
"channelName" : "基金要闻-新浪财经",
"channelNameSummary" : "基金要闻-新浪财经",
"channelUrl" : "http:\/\/finance.sina.com.cn\/547\/2009\/0714\/4.html",
"author" : "WWW.SINA.COM.CN",
"tags" : [],
"desc" : "大智慧阿思达克通讯社10月29日讯，国泰基金管理公司将推出一只互联网为主要销售渠道的债券型基金，这是国内首只针对互联网特性量身定做的基金产品，将于11月1日至12月15日发售。值得注意的是，该基金名为：国泰淘金互联网债券型基金，而并不是此前所传闻的\u201C淘宝互联网债券型....",
"emailed" : False,
"forwarded" : False,
"english" : False
}  , {
"index" : 10,
"articleIndex" : "9813",
"favor" :  False ,
     "read" : False,    
"title" : "百度搅局 互联网金融平台硝烟再起",
"titleTip" : "百度搅局 互联网金融平台硝烟再起",
"titleSummary" : "百度搅局 互联网金融平台硝烟再起",
"descSummary" : "作者：本报记者郭奎涛 百度百发只是百度互联网金融业务的冰山一角...",
"url" : "http:\/\/go.rss.sina.com.cn\/redirect.php?url=http:\/\/finance.sina.com.cn\/money\/fund\/20131029\/141117150964.shtml",
"pubDate" : "昨天14:11:05",
"enterDate" : "384200:48:10",
"channelId" : "-5037815234532154355",
"channelName" : "基金要闻-新浪财经",
"channelNameSummary" : "基金要闻-新浪财经",
"channelUrl" : "http:\/\/finance.sina.com.cn\/547\/2009\/0714\/4.html",
"author" : "WWW.SINA.COM.CN",
"tags" : [],
"desc" : "作者：本报记者郭奎涛 百度百发只是百度互联网金融业务的冰山一角，其目标是要做成互联网金融平台。而立志于做互联网金融平台的决不只百度一家。王利博制图 28日，一波三折的百度版余额宝百度百发正式发售。虽然被迫取消了多买多送和收益保8的承诺，截至发稿，....",
"emailed" : False,
"forwarded" : False,
"english" : False
}  , {
"index" : 11,
"articleIndex" : "9812",
"favor" :  False ,
     "read" : False,    
"title" : "细数历年基金经理老鼠仓案(表)",
"titleTip" : "细数历年基金经理老鼠仓案(表)",
"titleSummary" : "细数历年基金经理老鼠仓案(表)",
"descSummary" : "新浪财经讯 备受关注的基金经理李旭利\u201C老鼠仓\u201D案二审日前公开宣判，...",
"url" : "http:\/\/go.rss.sina.com.cn\/redirect.php?url=http:\/\/finance.sina.com.cn\/money\/fund\/20131029\/133717150632.shtml",
"pubDate" : "昨天13:37:43",
"enterDate" : "384200:44:53",
"channelId" : "-5037815234532154355",
"channelName" : "基金要闻-新浪财经",
"channelNameSummary" : "基金要闻-新浪财经",
"channelUrl" : "http:\/\/finance.sina.com.cn\/547\/2009\/0714\/4.html",
"author" : "WWW.SINA.COM.CN",
"tags" : [],
"desc" : "新浪财经讯 备受关注的基金经理李旭利\u201C老鼠仓\u201D案二审日前公开宣判，法院维持一审原判，判处李旭利有期徒刑4年，罚金1800万人民币，违法所得一千余万予以追缴。 从2007年的基金老鼠仓第一人唐建到今年的史上最大的\u201C老鼠仓\u201D马乐(注：马乐案还在审查中)，证监会共查处....",
"emailed" : False,
"forwarded" : False,
"english" : False
}  , {
"index" : 12,
"articleIndex" : "9808",
"favor" :  False ,
     "read" : False,    
"title" : "快讯：明星基金经理李旭利案二审驳回上诉维持原判",
"titleTip" : "快讯：明星基金经理李旭利案二审驳回上诉维持原判",
"titleSummary" : "快讯：明星基金经理李旭利案二审驳回上诉维持原判",
"descSummary" : "明星基金经理李旭利案二审驳回上诉，维持原判。...",
"url" : "http:\/\/go.rss.sina.com.cn\/redirect.php?url=http:\/\/finance.sina.com.cn\/money\/fund\/20131029\/104217148999.shtml",
"pubDate" : "昨天10:42:57",
"enterDate" : "384200:50:36",
"channelId" : "-5037815234532154355",
"channelName" : "基金要闻-新浪财经",
"channelNameSummary" : "基金要闻-新浪财经",
"channelUrl" : "http:\/\/finance.sina.com.cn\/547\/2009\/0714\/4.html",
"author" : "WWW.SINA.COM.CN",
"tags" : [],
"desc" : "明星基金经理李旭利案二审驳回上诉，维持原判。 新浪财经讯 10月29日上午消息，明星基金经理李旭利案二审驳回上诉，维持原判。(王霄) 相关新闻： 李旭利老鼠仓案二审维持原判 获刑4年罚1800万元",
"emailed" : False,
"forwarded" : False,
"english" : False
}  , {
"index" : 13,
"articleIndex" : "9815",
"favor" :  False ,
     "read" : False,    
"title" : "百度理财两小时卖10亿：最终收益成谜",
"titleTip" : "百度理财两小时卖10亿：最终收益成谜",
"titleSummary" : "百度理财两小时卖10亿：最终收益成谜",
"descSummary" : "【中国经营网综合报道】昨日，备受关注的百度理财产品首日发行...",
"url" : "http:\/\/go.rss.sina.com.cn\/redirect.php?url=http:\/\/finance.sina.com.cn\/money\/fund\/20131029\/103717148982.shtml",
"pubDate" : "昨天10:37:10",
"enterDate" : "384177:39:40",
"channelId" : "-5037815234532154355",
"channelName" : "基金要闻-新浪财经",
"channelNameSummary" : "基金要闻-新浪财经",
"channelUrl" : "http:\/\/finance.sina.com.cn\/547\/2009\/0714\/4.html",
"author" : "WWW.SINA.COM.CN",
"tags" : [],
"desc" : "【中国经营网综合报道】昨日，备受关注的百度理财产品首日发行。虽然前期已经做过澄清说明，仍有大批投资者奔着8%的收益在电脑前严阵以待。在系统瘫痪大半天之后，百度\u201C百发\u201D在两个小时内卖出10亿元。有媒体报道称百度理财产品系统瘫痪遭到吐槽，8%收益率是否能达到，也成了....",
"emailed" : False,
"forwarded" : False,
"english" : False
}  , {
"index" : 14,
"articleIndex" : "9807",
"favor" :  False ,
     "read" : False,    
"title" : "李旭利老鼠仓案二审维持原判 获刑4年罚1800万元",
"titleTip" : "李旭利老鼠仓案二审维持原判 获刑4年罚1800万元",
"titleSummary" : "李旭利老鼠仓案二审维持原判 获刑4年罚1800万元",
"descSummary" : "明星基金经理李旭利案二审驳回上诉，维持原判。(图片...",
"url" : "http:\/\/go.rss.sina.com.cn\/redirect.php?url=http:\/\/finance.sina.com.cn\/money\/fund\/20131029\/102717148746.shtml",
"pubDate" : "昨天10:27:00",
"enterDate" : "384200:34:39",
"channelId" : "-5037815234532154355",
"channelName" : "基金要闻-新浪财经",
"channelNameSummary" : "基金要闻-新浪财经",
"channelUrl" : "http:\/\/finance.sina.com.cn\/547\/2009\/0714\/4.html",
"author" : "WWW.SINA.COM.CN",
"tags" : [],
"desc" : "明星基金经理李旭利案二审驳回上诉，维持原判。(图片来源：新浪财经) 东方网记者毛丽君、鲁琳10月29日报道：今天上午，备受关注的基金经理李旭利\u201C老鼠仓\u201D案在上海市高级人民法院二审公开宣判，法院认为，李旭利涉嫌利用未公开信息交易罪名成立，维持一审原判，判处李旭利....",
"emailed" : False,
"forwarded" : False,
"english" : False
}  , {
"index" : 15,
"articleIndex" : "9810",
"favor" :  False ,
     "read" : False,    
"title" : "百度理财首日限额销售货基逾10亿",
"titleTip" : "百度理财首日限额销售货基逾10亿",
"titleSummary" : "百度理财首日限额销售货基逾10亿",
"descSummary" : "早报记者 庄春晖 施颖楠 昨日10时28分，前期主打超高收益率的\u201C百...",
"url" : "http:\/\/go.rss.sina.com.cn\/redirect.php?url=http:\/\/finance.sina.com.cn\/money\/fund\/20131029\/100717148408.shtml",
"pubDate" : "昨天10:07:13",
"enterDate" : "384199:44:47",
"channelId" : "-5037815234532154355",
"channelName" : "基金要闻-新浪财经",
"channelNameSummary" : "基金要闻-新浪财经",
"channelUrl" : "http:\/\/finance.sina.com.cn\/547\/2009\/0714\/4.html",
"author" : "WWW.SINA.COM.CN",
"tags" : [],
"desc" : "早报记者 庄春晖 施颖楠 昨日10时28分，前期主打超高收益率的\u201C百度金融中心\u2015\u2015理财平台\u201D正式上线，该平台首期支持的产品为华夏现金增利货币基金。据百度方面提供的数据，截至昨日14时50分，百度理财销售已超过10亿元，参与购买用户超过12万户，首批创始会员额度已满....",
"emailed" : False,
"forwarded" : False,
"english" : False
}  , {
"index" : 16,
"articleIndex" : "9811",
"favor" :  False ,
     "read" : False,    
"title" : "首批淘宝基金店备战周五开业",
"titleTip" : "首批淘宝基金店备战周五开业",
"titleSummary" : "首批淘宝基金店备战周五开业",
"descSummary" : "首批基金淘宝店有望于11月1日低调上线，对系统稳定程度、购买量做测试...",
"url" : "http:\/\/go.rss.sina.com.cn\/redirect.php?url=http:\/\/finance.sina.com.cn\/money\/fund\/20131029\/100717148403.shtml",
"pubDate" : "昨天10:07:13",
"enterDate" : "384199:44:47",
"channelId" : "-5037815234532154355",
"channelName" : "基金要闻-新浪财经",
"channelNameSummary" : "基金要闻-新浪财经",
"channelUrl" : "http:\/\/finance.sina.com.cn\/547\/2009\/0714\/4.html",
"author" : "WWW.SINA.COM.CN",
"tags" : [],
"desc" : "首批基金淘宝店有望于11月1日低调上线，对系统稳定程度、购买量做测试。根据计划，\u201C双十一\u201D当日，淘宝将会在首页对基金直营店展开大规模的广告推广\u2015\u2015在显著广告位投放\u201C双十一理财分会场\u201D，对部分基金公司的产品重点推荐。 早报记者 施颖楠 基金公司在淘宝....",
"emailed" : False,
"forwarded" : False,
"english" : False
}  , {
"index" : 17,
"articleIndex" : "9806",
"favor" :  False ,
     "read" : False,    
"title" : "10月29日基金交易提示",
"titleTip" : "10月29日基金交易提示",
"titleSummary" : "10月29日基金交易提示",
"descSummary" : "基金场外赎回起始日 000181 景顺长城四季金利纯债债券A 基金场外赎回起始日：...",
"url" : "http:\/\/go.rss.sina.com.cn\/redirect.php?url=http:\/\/finance.sina.com.cn\/money\/fund\/20131029\/094917148066.shtml",
"pubDate" : "昨天09:49:16",
"enterDate" : "384200:57:05",
"channelId" : "-5037815234532154355",
"channelName" : "基金要闻-新浪财经",
"channelNameSummary" : "基金要闻-新浪财经",
"channelUrl" : "http:\/\/finance.sina.com.cn\/547\/2009\/0714\/4.html",
"author" : "WWW.SINA.COM.CN",
"tags" : [],
"desc" : "基金场外赎回起始日 000181 景顺长城四季金利纯债债券A 基金场外赎回起始日：2013-10-29，基金管理人：景顺长城基金管理有限公司 000182 景顺长城四季金利纯债债券C 基金场外赎回起始日：2013-10-....",
"emailed" : False,
"forwarded" : False,
"english" : False
}  , {
"index" : 18,
"articleIndex" : "9805",
"favor" :  False ,
     "read" : False,    
"title" : "百度理财正式上线 互联网金融监管问题再被热议",
"titleTip" : "百度理财正式上线 互联网金融监管问题再被热议",
"titleSummary" : "百度理财正式上线 互联网金融监管问题再被热议",
"descSummary" : "见习记者张末冬 几经波折之后，百度理财正式上线。作...",
"url" : "http:\/\/go.rss.sina.com.cn\/redirect.php?url=http:\/\/finance.sina.com.cn\/money\/fund\/20131029\/090417147164.shtml",
"pubDate" : "昨天09:04:17",
"enterDate" : "384200:42:11",
"channelId" : "-5037815234532154355",
"channelName" : "基金要闻-新浪财经",
"channelNameSummary" : "基金要闻-新浪财经",
"channelUrl" : "http:\/\/finance.sina.com.cn\/547\/2009\/0714\/4.html",
"author" : "WWW.SINA.COM.CN",
"tags" : [],
"desc" : "见习记者张末冬 几经波折之后，百度理财正式上线。 作为国内最大搜索引擎巨头的百度和国内最大的基金公司之一华夏基金携手进军互联网金融行业的第一个产品，百度理财从确定合作之初就引人关注。加上之前外界传言\u201C百发\u201D拥有8%的年化收益率后，证监会表示将对其....",
"emailed" : False,
"forwarded" : False,
"english" : False
}  , {
"index" : 19,
"articleIndex" : "9809",
"favor" :  False ,
     "read" : False,    
"title" : "首批淘宝基金店备战周五开业",
"titleTip" : "首批淘宝基金店备战周五开业",
"titleSummary" : "首批淘宝基金店备战周五开业",
"descSummary" : "尚待证监会批文 \u201C淘宝计划双十一大规模推广\u201D 早报记者 施颖楠 首批基...",
"url" : "http:\/\/go.rss.sina.com.cn\/redirect.php?url=http:\/\/finance.sina.com.cn\/money\/fund\/20131029\/073417148736.shtml",
"pubDate" : "昨天07:34:00",
"enterDate" : "384197:11:34",
"channelId" : "-5037815234532154355",
"channelName" : "基金要闻-新浪财经",
"channelNameSummary" : "基金要闻-新浪财经",
"channelUrl" : "http:\/\/finance.sina.com.cn\/547\/2009\/0714\/4.html",
"author" : "WWW.SINA.COM.CN",
"tags" : [],
"desc" : "■ 尚待证监会批文 \u201C淘宝计划双十一大规模推广\u201D 早报记者 施颖楠 首批基金淘宝店有望于11月1日低调上线，对系统稳定程度、购买量做测试。根据计划，\u201C双十一\u201D当日，淘宝将会在首页对基金直营店展开大规模的广告推广\u2015\u2015在显著广告位投放\u201C双十一理财分会场\u201D....",
"emailed" : False,
"forwarded" : False,
"english" : False
} ]
}
