{
"mode" : {"viewTitle" : 1,   "viewNew" : 0,  "pageIndex" : 1 },
 "channel" : {"id" : "7925691158886209856", "booked" : False, "subNumber" : 1570, "name" : "科技要闻-新浪科技", "url" : "http:\/\/tech.sina.com.cn\/roll.shtml", "feed" : "http:\/\/rss.sina.com.cn\/tech\/rollnews.xml", "author" : "WWW.SINA.COM.CN", "desc" : "科技时代-科技要闻", "imageUrl" : "http:\/\/www.sinaimg.cn\/home\/deco\/2009\/0330\/logo_home_tech_news.gif", "postPerWeek" : "207", "lastCrawTime" : "16:56:55", "crawDateTime" : "16:56:55", "lastHttpCode" : "200"}, "page" : {
"startIndex" : 0,
"totalCount" : 5000,
"pageIndex" : 1,
"lastPage" : 250,
"pageSize" : 20,
"english" :  False },
 "unreadNum" : 0, "shotIndex" : -1,
"articles" : [
{
"index" : 0,
"articleIndex" : "364648",
"favor" :  False ,
     "read" : False,    
"title" : "科学家发布最大宇宙3D地图 有助于揭秘暗物质",
"titleTip" : "科学家发布最大宇宙3D地图 有助于揭秘暗物质",
"titleSummary" : "科学家发布最大宇宙3D地图 有助于揭秘暗物质",
"descSummary" : "一项独特的绘制工程耗费6年时间才完成，科学家最新发布...",
"url" : "http:\/\/go.rss.sina.com.cn\/redirect.php?url=http:\/\/tech.sina.com.cn\/d\/2013-10-30\/16488868339.shtml",
"pubDate" : "16:48:05",
"enterDate" : "384201:10:10",
"channelId" : "7925691158886209856",
"channelName" : "科技要闻-新浪科技",
"channelNameSummary" : "科技要闻-新浪科技",
"channelUrl" : "http:\/\/tech.sina.com.cn\/roll.shtml",
"author" : "WWW.SINA.COM.CN",
"tags" : [],
"desc" : "一项独特的绘制工程耗费6年时间才完成，科学家最新发布的这张开创性3D宇宙漫游图中，包含着2亿多个星系和许多的黑洞。 这是迄今为止绘制最大的宇宙地图，覆盖了夜空三分之一区域。 该研究小组负责人纽约大学物理学教授迈克尔-布兰顿说：\u201C我们的目标是创建宇宙....",
"emailed" : False,
"forwarded" : False,
"english" : False
}  , {
"index" : 1,
"articleIndex" : "364647",
"favor" :  False ,
     "read" : False,    
"title" : "天文学家发现酷似太阳系行星系 距地2500光年",
"titleTip" : "天文学家发现酷似太阳系行星系 距地2500光年",
"titleSummary" : "天文学家发现酷似太阳系行星系 距地2500光年",
"descSummary" : "新华网柏林10月28日电 德国航空航天中心28日宣布，欧洲...",
"url" : "http:\/\/go.rss.sina.com.cn\/redirect.php?url=http:\/\/tech.sina.com.cn\/d\/2013-10-30\/15478868175.shtml",
"pubDate" : "15:47:12",
"enterDate" : "384201:09:27",
"channelId" : "7925691158886209856",
"channelName" : "科技要闻-新浪科技",
"channelNameSummary" : "科技要闻-新浪科技",
"channelUrl" : "http:\/\/tech.sina.com.cn\/roll.shtml",
"author" : "WWW.SINA.COM.CN",
"tags" : [],
"desc" : "新华网柏林10月28日电 德国航空航天中心28日宣布，欧洲天文学家新发现类似太阳系\u201C家族\u201D的行星系，其距离地球约2500光年。天文学家称，这是迄今发现的行星最多的太阳系外行星系。 天文学家在美国《天体物理学杂志》上报告说，太阳系有8颗行星，最新发现的以恒星KOI－3....",
"emailed" : False,
"forwarded" : False,
"english" : False
}  , {
"index" : 2,
"articleIndex" : "364646",
"favor" :  False ,
     "read" : False,    
"title" : "女孩武汉丢iPhone5定位郑州 警方嫌麻烦不受理",
"titleTip" : "女孩武汉丢iPhone5定位郑州 警方嫌麻烦不受理",
"titleSummary" : "女孩武汉丢iPhone5定位郑州 警方嫌麻烦不受理",
"descSummary" : "一女孩武汉丢了iPhone5 手机现在定位在郑州市二七区某手...",
"url" : "http:\/\/go.rss.sina.com.cn\/redirect.php?url=http:\/\/tech.sina.com.cn\/t\/2013-10-30\/15268868122.shtml",
"pubDate" : "15:26:24",
"enterDate" : "384200:48:39",
"channelId" : "7925691158886209856",
"channelName" : "科技要闻-新浪科技",
"channelNameSummary" : "科技要闻-新浪科技",
"channelUrl" : "http:\/\/tech.sina.com.cn\/roll.shtml",
"author" : "WWW.SINA.COM.CN",
"tags" : [],
"desc" : "一女孩武汉丢了iPhone5 手机现在定位在郑州市二七区某手机店 想要回手机，警方答曰\u201C太复杂\u201D 你丢过\u201C苹果\u201D没？ 定位追踪要回来没有？ 苹果手机可定位 丢失手机能找到 找到手机要不回 只会让你更生气 武汉....",
"emailed" : False,
"forwarded" : False,
"english" : False
}  , {
"index" : 3,
"articleIndex" : "364645",
"favor" :  False ,
     "read" : False,    
"title" : "环球地理每日一图：挪威峡湾如海洋之手",
"titleTip" : "环球地理每日一图：挪威峡湾如海洋之手",
"titleSummary" : "环球地理每日一图：挪威峡湾如海洋之手",
"descSummary" : "挪威西部的峡湾，如卑尔根东北部的纳柔依峡湾（N r yfjord）...",
"url" : "http:\/\/go.rss.sina.com.cn\/redirect.php?url=http:\/\/tech.sina.com.cn\/geo\/pod\/nature\/20131030\/1266.shtml",
"pubDate" : "15:01:43",
"enterDate" : "384200:54:01",
"channelId" : "7925691158886209856",
"channelName" : "科技要闻-新浪科技",
"channelNameSummary" : "科技要闻-新浪科技",
"channelUrl" : "http:\/\/tech.sina.com.cn\/roll.shtml",
"author" : "WWW.SINA.COM.CN",
"tags" : [],
"desc" : "挪威西部的峡湾，如卑尔根东北部的纳柔依峡湾（Nærøyfjord）\u2015\u2015已被联合国教科文组织列为世界遗产\u2015\u2015看起来就像是海洋伸入陆地的手指。这些峡湾还是天然的淡水容器，接纳了来自周围群山的水流。",
"emailed" : False,
"forwarded" : False,
"english" : False
}  , {
"index" : 4,
"articleIndex" : "364644",
"favor" :  False ,
     "read" : False,    
"title" : "谷歌曝神秘\u201C漂浮建筑\u201D项目 或为眼镜销售中心",
"titleTip" : "谷歌曝神秘\u201C漂浮建筑\u201D项目 或为眼镜销售中心",
"titleSummary" : "谷歌曝神秘\u201C漂浮建筑\u201D项目 或为眼镜销售中心",
"descSummary" : "波特兰的谷歌\u201C漂浮建筑\u201D项目 晚报记者 章磊 综合报道...",
"url" : "http:\/\/go.rss.sina.com.cn\/redirect.php?url=http:\/\/tech.sina.com.cn\/i\/2013-10-30\/14488867983.shtml",
"pubDate" : "14:48:15",
"enterDate" : "384201:10:40",
"channelId" : "7925691158886209856",
"channelName" : "科技要闻-新浪科技",
"channelNameSummary" : "科技要闻-新浪科技",
"channelUrl" : "http:\/\/tech.sina.com.cn\/roll.shtml",
"author" : "WWW.SINA.COM.CN",
"tags" : [],
"desc" : "波特兰的谷歌\u201C漂浮建筑\u201D项目 □晚报记者 章磊 综合报道 自谷歌公司被曝出在旧金山金银岛建造神秘大型游船的消息后，美国媒体近日再度报道称，缅因州波特兰出现一个类似\u201C漂浮建筑\u201D，据称也与谷歌公司有关。消息一出，立刻引发更多猜想。 谷歌公司尚未就此....",
"emailed" : False,
"forwarded" : False,
"english" : False
}  , {
"index" : 5,
"articleIndex" : "364643",
"favor" :  False ,
     "read" : False,    
"title" : "联想发布两款Yoga平板电脑：宣称全球最轻",
"titleTip" : "联想发布两款Yoga平板电脑：宣称全球最轻",
"titleSummary" : "联想发布两款Yoga平板电脑：宣称全球最轻",
"descSummary" : "新浪科技讯 10月30日下午消息，联想集团昨天在美国正式发...",
"url" : "http:\/\/go.rss.sina.com.cn\/redirect.php?url=http:\/\/tech.sina.com.cn\/it\/2013-10-30\/14308867931.shtml",
"pubDate" : "14:30:24",
"enterDate" : "384200:52:49",
"channelId" : "7925691158886209856",
"channelName" : "科技要闻-新浪科技",
"channelNameSummary" : "科技要闻-新浪科技",
"channelUrl" : "http:\/\/tech.sina.com.cn\/roll.shtml",
"author" : "WWW.SINA.COM.CN",
"tags" : [],
"desc" : "新浪科技讯 10月30日下午消息，联想集团昨天在美国正式发布其本年度最重要的产品\u2015\u2015Yoga平板电脑。这款搭载Android操作系统的平板电脑分为8英寸和10英寸两个版本，其中8英寸版售价249美元，10英寸版售价299美元，10月30日起上市发售。 Yoga平板电脑运行Android 4.2.2....",
"emailed" : False,
"forwarded" : False,
"english" : False
}  , {
"index" : 6,
"articleIndex" : "364642",
"favor" :  False ,
     "read" : False,    
"title" : "索尼全画幅微单相机A7r感光度测试",
"titleTip" : "索尼全画幅微单相机A7r感光度测试",
"titleSummary" : "索尼全画幅微单相机A7r感光度测试",
"descSummary" : "索尼A7r 索尼A7r搭载3600万像素全画幅无低通滤镜传感器，全新BIO...",
"url" : "http:\/\/go.rss.sina.com.cn\/redirect.php?url=http:\/\/tech.sina.com.cn\/digi\/dc\/2013-10-30\/14248867922.shtml",
"pubDate" : "14:24:32",
"enterDate" : "384200:46:57",
"channelId" : "7925691158886209856",
"channelName" : "科技要闻-新浪科技",
"channelNameSummary" : "科技要闻-新浪科技",
"channelUrl" : "http:\/\/tech.sina.com.cn\/roll.shtml",
"author" : "WWW.SINA.COM.CN",
"tags" : [],
"desc" : "索尼A7r 索尼A7r搭载3600万像素全画幅无低通滤镜传感器，全新BIONZ X图像处理器，并采用无间隙微透镜技术，理论上可以提高传感器实际进光量，从而提升信噪比表现。而作为在分辨率上唯一可以与尼康D800系列抗衡的可更换镜头相机，我们也很关心A7r在感光度方面的表现。 无....",
"emailed" : False,
"forwarded" : False,
"english" : False
}  , {
"index" : 7,
"articleIndex" : "364641",
"favor" :  False ,
     "read" : False,    
"title" : "传腾讯领投Snapchat：估值或达40亿美元",
"titleTip" : "传腾讯领投Snapchat：估值或达40亿美元",
"titleSummary" : "传腾讯领投Snapchat：估值或达40亿美元",
"descSummary" : "新浪科技讯 北京时间10月30日下午消息，据科技博客AllThings...",
"url" : "http:\/\/go.rss.sina.com.cn\/redirect.php?url=http:\/\/tech.sina.com.cn\/i\/2013-10-30\/14028867876.shtml",
"pubDate" : "14:02:43",
"enterDate" : "384200:55:13",
"channelId" : "7925691158886209856",
"channelName" : "科技要闻-新浪科技",
"channelNameSummary" : "科技要闻-新浪科技",
"channelUrl" : "http:\/\/tech.sina.com.cn\/roll.shtml",
"author" : "WWW.SINA.COM.CN",
"tags" : [],
"desc" : "新浪科技讯 北京时间10月30日下午消息，据科技博客AllThingsD报道，知情人士透露，美国\u201C阅后即焚\u201D照片和视频分享应用Snapchat将于本周晚些时候宣布新一轮融资。该公司有可能以36亿至40亿美元的估值，获得腾讯领投的最高2亿美元融资。 就在几个月前，Snapchat刚刚以8....",
"emailed" : False,
"forwarded" : False,
"english" : False
}  , {
"index" : 8,
"articleIndex" : "364640",
"favor" :  False ,
     "read" : False,    
"title" : "来往公众账号平台上线",
"titleTip" : "来往公众账号平台上线",
"titleSummary" : "来往公众账号平台上线",
"descSummary" : "来往公众账号平台全免费上线 新浪科技讯 10月30日下午消息，阿里巴巴今日宣布...",
"url" : "http:\/\/go.rss.sina.com.cn\/redirect.php?url=http:\/\/tech.sina.com.cn\/i\/2013-10-30\/13598867868.shtml",
"pubDate" : "13:59:50",
"enterDate" : "384200:52:20",
"channelId" : "7925691158886209856",
"channelName" : "科技要闻-新浪科技",
"channelNameSummary" : "科技要闻-新浪科技",
"channelUrl" : "http:\/\/tech.sina.com.cn\/roll.shtml",
"author" : "WWW.SINA.COM.CN",
"tags" : [],
"desc" : "来往公众账号平台全免费上线 新浪科技讯 10月30日下午消息，阿里巴巴今日宣布旗下移动社交平台来往发布安卓4.1.1版本，新版本推出了全免费的公众账号平台。首批上线的公众账号包括新浪娱乐、冷笑话精选、吃货食堂、穷游等。 来往方面表示，除了常规的信息推送，将....",
"emailed" : False,
"forwarded" : False,
"english" : False
}  , {
"index" : 9,
"articleIndex" : "364639",
"favor" :  False ,
     "read" : False,    
"title" : "传索尼仍将继续推出全幅单电相机",
"titleTip" : "传索尼仍将继续推出全幅单电相机",
"titleSummary" : "传索尼仍将继续推出全幅单电相机",
"descSummary" : "索尼单电 在A7、A7r发布之初，索尼高层便宣布抛弃\u201CNEX\u201D的命名...",
"url" : "http:\/\/go.rss.sina.com.cn\/redirect.php?url=http:\/\/tech.sina.com.cn\/digi\/dc\/2013-10-30\/13528867867.shtml",
"pubDate" : "13:52:37",
"enterDate" : "384200:45:07",
"channelId" : "7925691158886209856",
"channelName" : "科技要闻-新浪科技",
"channelNameSummary" : "科技要闻-新浪科技",
"channelUrl" : "http:\/\/tech.sina.com.cn\/roll.shtml",
"author" : "WWW.SINA.COM.CN",
"tags" : [],
"desc" : "索尼单电 在A7、A7r发布之初，索尼高层便宣布抛弃\u201CNEX\u201D的命名方式，并将E、A卡口系统一并归入A系列，而先前各项消息也表明，索尼相机系统已开始进入无反化轨道。 不过最新消息显示，A卡口无反相机来得并没有想象中那么快。2个匿名来源向SAR透露，索尼现在正在测试....",
"emailed" : False,
"forwarded" : False,
"english" : False
}  , {
"index" : 10,
"articleIndex" : "364638",
"favor" :  False ,
     "read" : False,    
"title" : "叙利亚黑客自称\u201C黑了\u201D奥巴马",
"titleTip" : "叙利亚黑客自称\u201C黑了\u201D奥巴马",
"titleSummary" : "叙利亚黑客自称\u201C黑了\u201D奥巴马",
"descSummary" : "一个自称\u201C叙利亚电子军\u201D的叙利亚黑客组织28日声称，控制了一个关...",
"url" : "http:\/\/go.rss.sina.com.cn\/redirect.php?url=http:\/\/tech.sina.com.cn\/i\/2013-10-30\/12038867764.shtml",
"pubDate" : "12:03:34",
"enterDate" : "384200:56:24",
"channelId" : "7925691158886209856",
"channelName" : "科技要闻-新浪科技",
"channelNameSummary" : "科技要闻-新浪科技",
"channelUrl" : "http:\/\/tech.sina.com.cn\/roll.shtml",
"author" : "WWW.SINA.COM.CN",
"tags" : [],
"desc" : "一个自称\u201C叙利亚电子军\u201D的叙利亚黑客组织28日声称，控制了一个关联美国总统贝拉克・奥巴马社交网站账号的网页链接。 \u201C叙利亚电子军\u201D在微博客网站\u201C推特\u201D上发布消息说：\u201C由于我们的行动，\u2018推特\u2019现在阻断奥巴马的危险宣传链接。\u201D 奥巴马在\u201C脸谱\u201D和\u201C推....",
"emailed" : False,
"forwarded" : False,
"english" : False
}  , {
"index" : 11,
"articleIndex" : "364637",
"favor" :  False ,
     "read" : False,    
"title" : "网络空间如何清朗起来 鲁炜提出\u201C六个目标\u201D",
"titleTip" : "网络空间如何清朗起来 鲁炜提出\u201C六个目标\u201D",
"titleSummary" : "网络空间如何清朗起来 鲁炜提出\u201C六个目标\u201D",
"descSummary" : "国家互联网信息办公室主任鲁炜做主旨演讲 图片来自中国...",
"url" : "http:\/\/go.rss.sina.com.cn\/redirect.php?url=http:\/\/tech.sina.com.cn\/i\/2013-10-30\/11538867733.shtml",
"pubDate" : "11:53:19",
"enterDate" : "384200:46:09",
"channelId" : "7925691158886209856",
"channelName" : "科技要闻-新浪科技",
"channelNameSummary" : "科技要闻-新浪科技",
"channelUrl" : "http:\/\/tech.sina.com.cn\/roll.shtml",
"author" : "WWW.SINA.COM.CN",
"tags" : [],
"desc" : "国家互联网信息办公室主任鲁炜做主旨演讲 图片来自中国网 新华网郑州10月30日电 在今天刚刚开幕的第13届中国网络媒体论坛上，国家互联网信息办公室主任鲁炜提出，实现网络空间清朗起来，就是要把建设为民、文明、诚信、法治、安全、创新网络空间作为互联网发展目标。 ....",
"emailed" : False,
"forwarded" : False,
"english" : False
}  , {
"index" : 12,
"articleIndex" : "364636",
"favor" :  False ,
     "read" : False,    
"title" : "小米天猫店参战双十一促销",
"titleTip" : "小米天猫店参战双十一促销",
"titleSummary" : "小米天猫店参战双十一促销",
"descSummary" : "新浪科技讯 10月30日上午消息，据官方消息确认，今年小米手机全线产品将...",
"url" : "http:\/\/go.rss.sina.com.cn\/redirect.php?url=http:\/\/tech.sina.com.cn\/i\/2013-10-30\/11528867732.shtml",
"pubDate" : "11:52:18",
"enterDate" : "384201:15:12",
"channelId" : "7925691158886209856",
"channelName" : "科技要闻-新浪科技",
"channelNameSummary" : "科技要闻-新浪科技",
"channelUrl" : "http:\/\/tech.sina.com.cn\/roll.shtml",
"author" : "WWW.SINA.COM.CN",
"tags" : [],
"desc" : "新浪科技讯 10月30日上午消息，据官方消息确认，今年小米手机全线产品将参与\u201C双十一\u201D电商促销。从11月11日零点起，在小米手机天猫旗舰店上，将有11万台小米手机3、11万台红米、11万台小米手机2S、5万台小米盒子开放购买。 据悉在双十一当天，小米手机天猫旗舰店全场....",
"emailed" : False,
"forwarded" : False,
"english" : False
}  , {
"index" : 13,
"articleIndex" : "364635",
"favor" :  False ,
     "read" : False,    
"title" : "微信再遇BUG 第一次语音发不出",
"titleTip" : "微信再遇BUG 第一次语音发不出",
"titleSummary" : "微信再遇BUG 第一次语音发不出",
"descSummary" : "之前，不少用户表示微信的语音通信存在问题。用户达到6亿的微信，又...",
"url" : "http:\/\/go.rss.sina.com.cn\/redirect.php?url=http:\/\/tech.sina.com.cn\/i\/2013-10-30\/11478867725.shtml",
"pubDate" : "11:47:26",
"enterDate" : "384201:10:20",
"channelId" : "7925691158886209856",
"channelName" : "科技要闻-新浪科技",
"channelNameSummary" : "科技要闻-新浪科技",
"channelUrl" : "http:\/\/tech.sina.com.cn\/roll.shtml",
"author" : "WWW.SINA.COM.CN",
"tags" : [],
"desc" : "之前，不少用户表示微信的语音通信存在问题。 用户达到6亿的微信，又一次令用户纠结。 日前，有用户反映，无论在iOS系统还是Android系统的手机，用微信发送语音，第一次总是发不出去，按住界面说话后灵敏度下降，要重复操作才能成功发出。\u201C习惯了按住就说话，结果....",
"emailed" : False,
"forwarded" : False,
"english" : False
}  , {
"index" : 14,
"articleIndex" : "364634",
"favor" :  False ,
     "read" : False,    
"title" : "赛迪传媒发布第三季度财报：亏损同比收窄",
"titleTip" : "赛迪传媒发布第三季度财报：亏损同比收窄",
"titleSummary" : "赛迪传媒发布第三季度财报：亏损同比收窄",
"descSummary" : "新浪科技讯 10月30日上午消息，赛迪传媒(A股简称：*ST传...",
"url" : "http:\/\/go.rss.sina.com.cn\/redirect.php?url=http:\/\/tech.sina.com.cn\/i\/2013-10-30\/11248867693.shtml",
"pubDate" : "11:24:16",
"enterDate" : "384200:47:10",
"channelId" : "7925691158886209856",
"channelName" : "科技要闻-新浪科技",
"channelNameSummary" : "科技要闻-新浪科技",
"channelUrl" : "http:\/\/tech.sina.com.cn\/roll.shtml",
"author" : "WWW.SINA.COM.CN",
"tags" : [],
"desc" : "新浪科技讯 10月30日上午消息，赛迪传媒(A股简称：*ST传媒)近日发布未经审计的第三季度财报，财报显示本季度赛迪传媒总营收709万元，较去年同期下降61.17%；净亏损226万元，较去年同期的亏损297万有所收窄。 2013年前三季度，赛迪传媒实现总收入1721万，较去年同期减少....",
"emailed" : False,
"forwarded" : False,
"english" : False
}  , {
"index" : 15,
"articleIndex" : "364632",
"favor" :  False ,
     "read" : False,    
"title" : "苹果公司因电池生产缺陷召回部分iPhone 5s",
"titleTip" : "苹果公司因电池生产缺陷召回部分iPhone 5s",
"titleSummary" : "苹果公司因电池生产缺陷召回部分iPhone 5s",
"descSummary" : "新浪科技讯 北京时间10月30日上午消息，虽然外界认为iPho...",
"url" : "http:\/\/go.rss.sina.com.cn\/redirect.php?url=http:\/\/tech.sina.com.cn\/mobile\/n\/apple\/2013-10-30\/11218867690.shtml",
"pubDate" : "11:21:09",
"enterDate" : "384201:14:09",
"channelId" : "7925691158886209856",
"channelName" : "科技要闻-新浪科技",
"channelNameSummary" : "科技要闻-新浪科技",
"channelUrl" : "http:\/\/tech.sina.com.cn\/roll.shtml",
"author" : "WWW.SINA.COM.CN",
"tags" : [],
"desc" : "新浪科技讯 北京时间10月30日上午消息，虽然外界认为iPhone 5s的电池续航时间将较之前的产品大幅提升，但苹果公司却表示，有一小部分新机型因为生产制造缺陷导致电量流失过快，因此决定为受影响的用户更换新机。 苹果公司发言人特雷萨・布鲁尔(Teresa Brewer)说：\u201C我....",
"emailed" : False,
"forwarded" : False,
"english" : False
}  , {
"index" : 16,
"articleIndex" : "364631",
"favor" :  False ,
     "read" : False,    
"title" : "三星曲面屏手机Galaxy Round真机上手",
"titleTip" : "三星曲面屏手机Galaxy Round真机上手",
"titleSummary" : "三星曲面屏手机Galaxy Round真机上手",
"descSummary" : "",
"url" : "http:\/\/go.rss.sina.com.cn\/redirect.php?url=http:\/\/slide.tech.sina.com.cn\/mobile\/slide_5_22298_37586.html",
"pubDate" : "11:19:38",
"enterDate" : "384201:12:38",
"channelId" : "7925691158886209856",
"channelName" : "科技要闻-新浪科技",
"channelNameSummary" : "科技要闻-新浪科技",
"channelUrl" : "http:\/\/tech.sina.com.cn\/roll.shtml",
"author" : "WWW.SINA.COM.CN",
"tags" : [],
"desc" : "",
"emailed" : False,
"forwarded" : False,
"english" : False
}  , {
"index" : 17,
"articleIndex" : "364630",
"favor" :  False ,
     "read" : False,    
"title" : "企业大佬微博分享：指点创业 感叹人生",
"titleTip" : "企业大佬微博分享：指点创业 感叹人生",
"titleSummary" : "企业大佬微博分享：指点创业 感叹人生",
"descSummary" : "【中国企业家网】中国99%的企业是传统企业，如何拥抱互联网，...",
"url" : "http:\/\/go.rss.sina.com.cn\/redirect.php?url=http:\/\/tech.sina.com.cn\/i\/2013-10-30\/11188867667.shtml",
"pubDate" : "11:18:18",
"enterDate" : "384201:11:18",
"channelId" : "7925691158886209856",
"channelName" : "科技要闻-新浪科技",
"channelNameSummary" : "科技要闻-新浪科技",
"channelUrl" : "http:\/\/tech.sina.com.cn\/roll.shtml",
"author" : "WWW.SINA.COM.CN",
"tags" : [],
"desc" : "【中国企业家网】中国99%的企业是传统企业，如何拥抱互联网，进行大融合？从未念过商学院，从未被灌输做事的\u201C正确\u201D方法，创业的秘诀是什么？为未来做决定很不容易，至少30%的人会反对你，怎么办？机会就像小偷，来无踪去无影，怎么抓住？一个没有敢批评老板的企业该不该呆呢....",
"emailed" : False,
"forwarded" : False,
"english" : False
}  , {
"index" : 18,
"articleIndex" : "364629",
"favor" :  False ,
     "read" : False,    
"title" : "土豪金低价拿 时尚蓝牙音响仅248元",
"titleTip" : "土豪金低价拿 时尚蓝牙音响仅248元",
"titleSummary" : "土豪金低价拿 时尚蓝牙音响仅248元",
"descSummary" : "如今谈到\u201C蓝牙音响\u201D大家已经非常熟悉了，以往我们介绍的产品在外...",
"url" : "http:\/\/go.rss.sina.com.cn\/redirect.php?url=http:\/\/tech.sina.com.cn\/digi\/mp3\/2013-10-30\/11158867665.shtml",
"pubDate" : "11:15:14",
"enterDate" : "384201:08:14",
"channelId" : "7925691158886209856",
"channelName" : "科技要闻-新浪科技",
"channelNameSummary" : "科技要闻-新浪科技",
"channelUrl" : "http:\/\/tech.sina.com.cn\/roll.shtml",
"author" : "WWW.SINA.COM.CN",
"tags" : [],
"desc" : "如今谈到\u201C蓝牙音响\u201D大家已经非常熟悉了，以往我们介绍的产品在外观设计上基本都是使用塑料材质打造，不过今天要为大家介绍一款个性前卫的产品\u201C艾特铭客&#160;金刚3\u201D的机身则是采用了全金属材质打造，而且今天这款还是其中一款特别的\u201C土豪金\u201D版，外观非常靓丽，机身做工....",
"emailed" : False,
"forwarded" : False,
"english" : False
}  , {
"index" : 19,
"articleIndex" : "364633",
"favor" :  False ,
     "read" : False,    
"title" : "乌云报告称来往存安全漏洞 波及余额宝支付宝",
"titleTip" : "乌云报告称来往存安全漏洞 波及余额宝支付宝",
"titleSummary" : "乌云报告称来往存安全漏洞 波及余额宝支付宝",
"descSummary" : "中新网10月30日电 昨日，国内安全问题反馈平台WooYun...",
"url" : "http:\/\/go.rss.sina.com.cn\/redirect.php?url=http:\/\/tech.sina.com.cn\/i\/2013-10-30\/10538867630.shtml",
"pubDate" : "10:53:00",
"enterDate" : "384200:15:54",
"channelId" : "7925691158886209856",
"channelName" : "科技要闻-新浪科技",
"channelNameSummary" : "科技要闻-新浪科技",
"channelUrl" : "http:\/\/tech.sina.com.cn\/roll.shtml",
"author" : "WWW.SINA.COM.CN",
"tags" : [],
"desc" : "中新网10月30日电 昨日，国内安全问题反馈平台WooYun(乌云)发布报告称，阿里推出的移动即时通讯\u201C来往\u201D可导致淘宝账号被破解，并威胁到余额宝、支付宝的安全。 乌云在漏洞信息中将该漏洞的等级定为\u201C中\u201D。并认为这是设计缺陷及逻辑错误。乌云已将该漏洞细节通知厂商....",
"emailed" : False,
"forwarded" : False,
"english" : False
} ]
}
