{
"mode" : {"viewTitle" : 1,   "viewNew" : 0,  "pageIndex" : 2 },
 "channel" : {"id" : "7925691158886209856", "booked" : False, "subNumber" : 1570, "name" : "科技要闻-新浪科技", "url" : "http:\/\/tech.sina.com.cn\/roll.shtml", "feed" : "http:\/\/rss.sina.com.cn\/tech\/rollnews.xml", "author" : "WWW.SINA.COM.CN", "desc" : "科技时代-科技要闻", "imageUrl" : "http:\/\/www.sinaimg.cn\/home\/deco\/2009\/0330\/logo_home_tech_news.gif", "postPerWeek" : "207", "lastCrawTime" : "16:56:55", "crawDateTime" : "16:56:55", "lastHttpCode" : "200"}, "page" : {
"startIndex" : 20,
"totalCount" : 5000,
"pageIndex" : 2,
"lastPage" : 250,
"pageSize" : 20,
"english" :  False },
 "unreadNum" : 0, "shotIndex" : -1,
"articles" : [
{
"index" : 0,
"articleIndex" : "364628",
"favor" :  False ,
     "read" : False,    
"title" : "时尚靓丽 飞利浦DVD家庭影院698元",
"titleTip" : "时尚靓丽 飞利浦DVD家庭影院698元",
"titleSummary" : "时尚靓丽 飞利浦DVD家庭影院698元",
"descSummary" : "今天为大家介绍一款时尚靓丽的桌面迷你DVD家庭影院音响\u201C飞利...",
"url" : "http:\/\/go.rss.sina.com.cn\/redirect.php?url=http:\/\/tech.sina.com.cn\/digi\/mp3\/2013-10-30\/11128867664.shtml",
"pubDate" : "11:12:36",
"enterDate" : "384201:05:36",
"channelId" : "7925691158886209856",
"channelName" : "科技要闻-新浪科技",
"channelNameSummary" : "科技要闻-新浪科技",
"channelUrl" : "http:\/\/tech.sina.com.cn\/roll.shtml",
"author" : "WWW.SINA.COM.CN",
"tags" : [],
"desc" : "今天为大家介绍一款时尚靓丽的桌面迷你DVD家庭影院音响\u201C飞利浦MCD2010\/93\u201D，这款音响系统由一台多功能DVD机，两个音箱，以及一个无线红外遥控器组成，它的造型简约时尚，DVD机身正面设计了大尺寸的LCD液晶显示屏，可清晰显示大量信息，显示屏旁边是金属材质的音量调节旋钮，....",
"emailed" : False,
"forwarded" : False,
"english" : False
}  , {
"index" : 1,
"articleIndex" : "364627",
"favor" :  False ,
     "read" : False,    
"title" : "预算只有500元 入门2.0书架音箱帮您选",
"titleTip" : "预算只有500元 入门2.0书架音箱帮您选",
"titleSummary" : "预算只有500元 入门2.0书架音箱帮您选",
"descSummary" : "谈到2.0音箱，喜爱听音乐的朋友一定不会感到陌生了，它可以说...",
"url" : "http:\/\/go.rss.sina.com.cn\/redirect.php?url=http:\/\/tech.sina.com.cn\/digi\/mp3\/2013-10-30\/11018867642.shtml",
"pubDate" : "11:01:36",
"enterDate" : "384200:54:36",
"channelId" : "7925691158886209856",
"channelName" : "科技要闻-新浪科技",
"channelNameSummary" : "科技要闻-新浪科技",
"channelUrl" : "http:\/\/tech.sina.com.cn\/roll.shtml",
"author" : "WWW.SINA.COM.CN",
"tags" : [],
"desc" : "谈到2.0音箱，喜爱听音乐的朋友一定不会感到陌生了，它可以说是每一家音箱制造厂商技术水平的重要体现，它们研发和销售的周期相对较长，而在声音方面经过了音频工程师的精心调试，保证三频均衡、中高频细节以及低频的力度。当然，每个品牌的产品在调音风格上都会有所不同，这....",
"emailed" : False,
"forwarded" : False,
"english" : False
}  , {
"index" : 2,
"articleIndex" : "364625",
"favor" :  False ,
     "read" : False,    
"title" : "路透社母公司汤森路透集团裁员3000人",
"titleTip" : "路透社母公司汤森路透集团裁员3000人",
"titleSummary" : "路透社母公司汤森路透集团裁员3000人",
"descSummary" : "新浪科技讯 北京时间10月30日上午消息，路透社母公司汤森路透...",
"url" : "http:\/\/go.rss.sina.com.cn\/redirect.php?url=http:\/\/tech.sina.com.cn\/i\/2013-10-30\/10508867601.shtml",
"pubDate" : "10:50:46",
"enterDate" : "384201:13:50",
"channelId" : "7925691158886209856",
"channelName" : "科技要闻-新浪科技",
"channelNameSummary" : "科技要闻-新浪科技",
"channelUrl" : "http:\/\/tech.sina.com.cn\/roll.shtml",
"author" : "WWW.SINA.COM.CN",
"tags" : [],
"desc" : "新浪科技讯 北京时间10月30日上午消息，路透社母公司汤森路透集团周二宣布裁员3000人，以削减成本。 汤森路透同时宣布，第三季度，该公司的金融终端系统的销量自2011年以来首次超过了退订量。（彦飞）",
"emailed" : False,
"forwarded" : False,
"english" : False
}  , {
"index" : 3,
"articleIndex" : "364626",
"favor" :  False ,
     "read" : False,    
"title" : "别为预算发愁 100元以下2.1音箱推荐",
"titleTip" : "别为预算发愁 100元以下2.1音箱推荐",
"titleSummary" : "别为预算发愁 100元以下2.1音箱推荐",
"descSummary" : "很多攒机的用户对于所攒的机器在硬件上和软件上都有着较高的需求...",
"url" : "http:\/\/go.rss.sina.com.cn\/redirect.php?url=http:\/\/tech.sina.com.cn\/digi\/mp3\/2013-10-30\/10458867579.shtml",
"pubDate" : "10:45:19",
"enterDate" : "384200:38:19",
"channelId" : "7925691158886209856",
"channelName" : "科技要闻-新浪科技",
"channelNameSummary" : "科技要闻-新浪科技",
"channelUrl" : "http:\/\/tech.sina.com.cn\/roll.shtml",
"author" : "WWW.SINA.COM.CN",
"tags" : [],
"desc" : "很多攒机的用户对于所攒的机器在硬件上和软件上都有着较高的需求，其预算也很大程度上都花在了这上面，对于很多预算就不是特别充足的用户来说，对于外设的选择上，要不就会选择其攒机时自带的外设产品，或者是选择一些入门级的外设产品，但是很多攒机的地方虽然会赠送鼠标跟键....",
"emailed" : False,
"forwarded" : False,
"english" : False
}  , {
"index" : 4,
"articleIndex" : "364624",
"favor" :  False ,
     "read" : False,    
"title" : "新手解疑：12个配置三脚架的理由",
"titleTip" : "新手解疑：12个配置三脚架的理由",
"titleSummary" : "新手解疑：12个配置三脚架的理由",
"descSummary" : "在新手眼中，三脚架只是一个辅助的工具，并不会常常用到，而且体积...",
"url" : "http:\/\/go.rss.sina.com.cn\/redirect.php?url=http:\/\/tech.sina.com.cn\/digi\/dc\/2013-10-30\/10418867573.shtml",
"pubDate" : "10:41:27",
"enterDate" : "384201:04:31",
"channelId" : "7925691158886209856",
"channelName" : "科技要闻-新浪科技",
"channelNameSummary" : "科技要闻-新浪科技",
"channelUrl" : "http:\/\/tech.sina.com.cn\/roll.shtml",
"author" : "WWW.SINA.COM.CN",
"tags" : [],
"desc" : "在新手眼中，三脚架只是一个辅助的工具，并不会常常用到，而且体积大，重量沉，如果在加上单反相机、镜 头、闪光灯等，外出拍摄会很辛苦，因此三脚架最终会被长期放到家中，变得没有用处。其实这是大错特错的，很多相片和效果也需要三脚架才能完成，它不是摄影 的\u201C辅助工具\u201D....",
"emailed" : False,
"forwarded" : False,
"english" : False
}  , {
"index" : 5,
"articleIndex" : "364623",
"favor" :  False ,
     "read" : False,    
"title" : "大佬们业余癖好：小马哥爱天文 郭台铭爱写诗",
"titleTip" : "大佬们业余癖好：小马哥爱天文 郭台铭爱写诗",
"titleSummary" : "大佬们业余癖好：小马哥爱天文 郭台铭爱写诗",
"descSummary" : "IT大佬们不少都已创立了国内互联网顶尖企业，但不论他们...",
"url" : "http:\/\/go.rss.sina.com.cn\/redirect.php?url=http:\/\/tech.sina.com.cn\/i\/2013-10-30\/10348867548.shtml",
"pubDate" : "10:34:08",
"enterDate" : "384200:57:12",
"channelId" : "7925691158886209856",
"channelName" : "科技要闻-新浪科技",
"channelNameSummary" : "科技要闻-新浪科技",
"channelUrl" : "http:\/\/tech.sina.com.cn\/roll.shtml",
"author" : "WWW.SINA.COM.CN",
"tags" : [],
"desc" : "IT大佬们不少都已创立了国内互联网顶尖企业，但不论他们的经历如何传奇，他们也有自己特别的兴趣。如马化腾喜欢天文；史玉柱爱全国各地冒险；郭台铭爱写诗\u2026\u2026 IT时代周刊点评】IT大佬们不少都已创立了国内互联网顶尖企业，但不论他们的经历如何传奇，他们获得了怎么样....",
"emailed" : False,
"forwarded" : False,
"english" : False
}  , {
"index" : 6,
"articleIndex" : "364622",
"favor" :  False ,
     "read" : False,    
"title" : "喜大普奔 iPad Air全球媒体评测精选",
"titleTip" : "喜大普奔 iPad Air全球媒体评测精选",
"titleSummary" : "喜大普奔 iPad Air全球媒体评测精选",
"descSummary" : "新浪手机讯 10月30日上午消息，iPad Air上市日期临近，全球媒体也纷...",
"url" : "http:\/\/go.rss.sina.com.cn\/redirect.php?url=http:\/\/tech.sina.com.cn\/mobile\/n\/apple\/2013-10-30\/10338867547.shtml",
"pubDate" : "10:33:53",
"enterDate" : "384200:56:57",
"channelId" : "7925691158886209856",
"channelName" : "科技要闻-新浪科技",
"channelNameSummary" : "科技要闻-新浪科技",
"channelUrl" : "http:\/\/tech.sina.com.cn\/roll.shtml",
"author" : "WWW.SINA.COM.CN",
"tags" : [],
"desc" : "新浪手机讯 10月30日上午消息，iPad Air上市日期临近，全球媒体也纷纷放出这款产品测评测。整体来说，大家对它的评价都很高，更轻更薄性能更好的新一代iPad给人留下了良好印象。舆论整体呈现一片欢乐和谐景象。 以下是部分国外媒体的评测精选： The Loop ....",
"emailed" : False,
"forwarded" : False,
"english" : False
}  , {
"index" : 7,
"articleIndex" : "364621",
"favor" :  False ,
     "read" : False,    
"title" : "5.9英寸金属旗舰 HTC One Max售5288元",
"titleTip" : "5.9英寸金属旗舰 HTC One Max售5288元",
"titleSummary" : "5.9英寸金属旗舰 HTC One Max售5288元",
"descSummary" : "文\/杨辰 [广东行情] 相比HTC One的个头儿，HTC One Max的...",
"url" : "http:\/\/go.rss.sina.com.cn\/redirect.php?url=http:\/\/tech.sina.com.cn\/mobile\/n\/2013-10-30\/10328867546.shtml",
"pubDate" : "10:32:25",
"enterDate" : "384200:55:29",
"channelId" : "7925691158886209856",
"channelName" : "科技要闻-新浪科技",
"channelNameSummary" : "科技要闻-新浪科技",
"channelUrl" : "http:\/\/tech.sina.com.cn\/roll.shtml",
"author" : "WWW.SINA.COM.CN",
"tags" : [],
"desc" : "文\/杨辰 [广东行情] 相比HTC One的个头儿，HTC One Max的5.9英寸屏幕也就意味着该机的机身要比前作大出一圈，而在这个大屏当道的时代，HTC One Max的大屏和全金属机身正是它高人气的保证。HTC于九月中全球同步首发了其首款大屏4G LTE智能手机\u2015\u2015HTC One MAX(参数 论....",
"emailed" : False,
"forwarded" : False,
"english" : False
}  , {
"index" : 8,
"articleIndex" : "364620",
"favor" :  False ,
     "read" : False,    
"title" : "地图行业的裂变：工具向左，平台向右",
"titleTip" : "地图行业的裂变：工具向左，平台向右",
"titleSummary" : "地图行业的裂变：工具向左，平台向右",
"descSummary" : "听闻高百大战上演\u201C第二季\u201D了，这次的噱头不是\u201C免费\u201D改玩\u201C...",
"url" : "http:\/\/go.rss.sina.com.cn\/redirect.php?url=http:\/\/tech.sina.com.cn\/zl\/post\/detail\/i\/2013-10-30\/pid_8436294.htm",
"pubDate" : "10:31:34",
"enterDate" : "384200:54:38",
"channelId" : "7925691158886209856",
"channelName" : "科技要闻-新浪科技",
"channelNameSummary" : "科技要闻-新浪科技",
"channelUrl" : "http:\/\/tech.sina.com.cn\/roll.shtml",
"author" : "WWW.SINA.COM.CN",
"tags" : [],
"desc" : "听闻高百大战上演\u201C第二季\u201D了，这次的噱头不是\u201C免费\u201D改玩\u201C起诉\u201D了。不过，笔者看来，无论双方的公关战如何花样百出，高百大战的实质就是入口之争或者说是平台之争。但是，在两家都在齐推平台之时，笔者不免有些疑问，布局平台实现O2O，两家真的准备好了吗？ 布局....",
"emailed" : False,
"forwarded" : False,
"english" : False
}  , {
"index" : 9,
"articleIndex" : "364619",
"favor" :  False ,
     "read" : False,    
"title" : "同程网获中信银行20亿授信",
"titleTip" : "同程网获中信银行20亿授信",
"titleSummary" : "同程网获中信银行20亿授信",
"descSummary" : "新浪科技讯 10月30日上午消息，同程网与中信银行苏州分行签署协议，宣布...",
"url" : "http:\/\/go.rss.sina.com.cn\/redirect.php?url=http:\/\/tech.sina.com.cn\/i\/2013-10-30\/10308867540.shtml",
"pubDate" : "10:30:44",
"enterDate" : "384200:53:48",
"channelId" : "7925691158886209856",
"channelName" : "科技要闻-新浪科技",
"channelNameSummary" : "科技要闻-新浪科技",
"channelUrl" : "http:\/\/tech.sina.com.cn\/roll.shtml",
"author" : "WWW.SINA.COM.CN",
"tags" : [],
"desc" : "新浪科技讯 10月30日上午消息，同程网与中信银行苏州分行签署协议，宣布获得中信银行20亿授信，并在商旅、会员营销及移动电商领域展开合作。 同程网CEO吴志祥表示，此次所获得的20亿元授信将主要用于无线业务的拓展，同时也将继续完善同程网\u201C一站式\u201D自助游平台。....",
"emailed" : False,
"forwarded" : False,
"english" : False
}  , {
"index" : 10,
"articleIndex" : "364618",
"favor" :  False ,
     "read" : False,    
"title" : "视频业下个收购对象：迅雷酷六均在列",
"titleTip" : "视频业下个收购对象：迅雷酷六均在列",
"titleSummary" : "视频业下个收购对象：迅雷酷六均在列",
"descSummary" : "",
"url" : "http:\/\/go.rss.sina.com.cn\/redirect.php?url=http:\/\/blog.sina.com.cn\/s\/blog_6ec2431a0101h0m8.html",
"pubDate" : "10:27:10",
"enterDate" : "384200:50:14",
"channelId" : "7925691158886209856",
"channelName" : "科技要闻-新浪科技",
"channelNameSummary" : "科技要闻-新浪科技",
"channelUrl" : "http:\/\/tech.sina.com.cn\/roll.shtml",
"author" : "WWW.SINA.COM.CN",
"tags" : [],
"desc" : "",
"emailed" : False,
"forwarded" : False,
"english" : False
}  , {
"index" : 11,
"articleIndex" : "364617",
"favor" :  False ,
     "read" : False,    
"title" : "女神都应该找摄影师当男友的10个理由",
"titleTip" : "女神都应该找摄影师当男友的10个理由",
"titleSummary" : "女神都应该找摄影师当男友的10个理由",
"descSummary" : "认真来说，各位女神确实要好好择偶，甚至想要个更好的男友，不...",
"url" : "http:\/\/go.rss.sina.com.cn\/redirect.php?url=http:\/\/tech.sina.com.cn\/digi\/dc\/2013-10-30\/10258867525.shtml",
"pubDate" : "10:25:42",
"enterDate" : "384200:48:46",
"channelId" : "7925691158886209856",
"channelName" : "科技要闻-新浪科技",
"channelNameSummary" : "科技要闻-新浪科技",
"channelUrl" : "http:\/\/tech.sina.com.cn\/roll.shtml",
"author" : "WWW.SINA.COM.CN",
"tags" : [],
"desc" : "认真来说，各位女神确实要好好择偶，甚至想要个更好的男友，不妨找摄影师来当啊，10个理由如下U 1. 他会给你好好拍照 一个摄影师当然会好好为你拍照片，保证角度、光线、画质、背景通通完美他才会收货，甚至可能比你要求更高，连皮肤都帮你磨好。唯一问题是，....",
"emailed" : False,
"forwarded" : False,
"english" : False
}  , {
"index" : 12,
"articleIndex" : "364616",
"favor" :  False ,
     "read" : False,    
"title" : "完美世界推游戏机顶盒靠谱吗？",
"titleTip" : "完美世界推游戏机顶盒靠谱吗？",
"titleSummary" : "完美世界推游戏机顶盒靠谱吗？",
"descSummary" : "最近互联网公司是争先恐后做硬件的节奏。雷军的小米估值飙到百亿美金...",
"url" : "http:\/\/go.rss.sina.com.cn\/redirect.php?url=http:\/\/tech.sina.com.cn\/zl\/post\/detail\/i\/2013-10-30\/pid_8436487.htm",
"pubDate" : "10:25:03",
"enterDate" : "384200:48:07",
"channelId" : "7925691158886209856",
"channelName" : "科技要闻-新浪科技",
"channelNameSummary" : "科技要闻-新浪科技",
"channelUrl" : "http:\/\/tech.sina.com.cn\/roll.shtml",
"author" : "WWW.SINA.COM.CN",
"tags" : [],
"desc" : "最近互联网公司是争先恐后做硬件的节奏。雷军的小米估值飙到百亿美金就不说了，360先是出随身WiFi、接着是儿童卫士手环，百度推小度WiFi、小度路由、小度影棒\u201C三剑客\u201D还不够，另外拉上咕咚跟映趣等一众小伙伴开搞可百度云穿戴设备网站。 游戏公司也没闲着，上周四中....",
"emailed" : False,
"forwarded" : False,
"english" : False
}  , {
"index" : 13,
"articleIndex" : "364615",
"favor" :  False ,
     "read" : False,    
"title" : "巴西拟用热气球为偏远地区部署宽带:与谷歌无关",
"titleTip" : "巴西拟用热气球为偏远地区部署宽带:与谷歌无关",
"titleSummary" : "巴西拟用热气球为偏远地区部署宽带:与谷歌无关",
"descSummary" : "刘长安 姚文文 本报讯 巴西政府正在计划利用热气球把互...",
"url" : "http:\/\/go.rss.sina.com.cn\/redirect.php?url=http:\/\/tech.sina.com.cn\/t\/2013-10-30\/10238867520.shtml",
"pubDate" : "10:23:51",
"enterDate" : "384200:46:55",
"channelId" : "7925691158886209856",
"channelName" : "科技要闻-新浪科技",
"channelNameSummary" : "科技要闻-新浪科技",
"channelUrl" : "http:\/\/tech.sina.com.cn\/roll.shtml",
"author" : "WWW.SINA.COM.CN",
"tags" : [],
"desc" : "刘长安 姚文文 本报讯 巴西政府正在计划利用热气球把互联网接入带至该国的偏远地区。该项目与谷歌的热气球项目(Google Loon)并无关联。 10月初，谷歌公司的代表与巴西政府官员举行了会谈，讨论了双方合作的可能，不过，由巴西公共电信公司Telebrás和巴西空间技....",
"emailed" : False,
"forwarded" : False,
"english" : False
}  , {
"index" : 14,
"articleIndex" : "364614",
"favor" :  False ,
     "read" : False,    
"title" : "5英寸屏四核双卡 索尼S39h仅1799元",
"titleTip" : "5英寸屏四核双卡 索尼S39h仅1799元",
"titleSummary" : "5英寸屏四核双卡 索尼S39h仅1799元",
"descSummary" : "文\/庞超 [广东行情] 2013年10月30日，索尼S39h(参数 报价 论坛 软...",
"url" : "http:\/\/go.rss.sina.com.cn\/redirect.php?url=http:\/\/tech.sina.com.cn\/mobile\/n\/2013-10-30\/10228867511.shtml",
"pubDate" : "10:22:42",
"enterDate" : "384200:45:46",
"channelId" : "7925691158886209856",
"channelName" : "科技要闻-新浪科技",
"channelNameSummary" : "科技要闻-新浪科技",
"channelUrl" : "http:\/\/tech.sina.com.cn\/roll.shtml",
"author" : "WWW.SINA.COM.CN",
"tags" : [],
"desc" : "文\/庞超 [广东行情] 2013年10月30日，索尼S39h(参数 报价 论坛 软件)(行货)正进行火热促销活动，促销价为1799元，配件有：单电、单充、耳机、数据线等。索尼S39h是一款配备了5英寸大屏四核处理器的双卡智能手机。 点击图片查看索尼S39h详细资料 外观方面，索....",
"emailed" : False,
"forwarded" : False,
"english" : False
}  , {
"index" : 15,
"articleIndex" : "364613",
"favor" :  False ,
     "read" : False,    
"title" : "天灏资本上调携程评级至买入 目标价64美元",
"titleTip" : "天灏资本上调携程评级至买入 目标价64美元",
"titleSummary" : "天灏资本上调携程评级至买入 目标价64美元",
"descSummary" : "新浪科技讯 北京时间10月30日上午消息，天灏资本今天发布...",
"url" : "http:\/\/go.rss.sina.com.cn\/redirect.php?url=http:\/\/tech.sina.com.cn\/i\/2013-10-30\/10228867509.shtml",
"pubDate" : "10:22:32",
"enterDate" : "384200:45:36",
"channelId" : "7925691158886209856",
"channelName" : "科技要闻-新浪科技",
"channelNameSummary" : "科技要闻-新浪科技",
"channelUrl" : "http:\/\/tech.sina.com.cn\/roll.shtml",
"author" : "WWW.SINA.COM.CN",
"tags" : [],
"desc" : "新浪科技讯 北京时间10月30日上午消息，天灏资本今天发布研究报告，将携程(Nasdaq:CTRP)股票评级从\u201C持有\u201D(Hold)上调至\u201C买入\u201D(Buy)，目标股价为64美元。 以下为报告概要： 我们认为，携程2013年2月以来的执行力一直很好，使得该公司成为了中国顶尖的移动旅行....",
"emailed" : False,
"forwarded" : False,
"english" : False
}  , {
"index" : 16,
"articleIndex" : "364612",
"favor" :  False ,
     "read" : False,    
"title" : "魏武挥：智能手机与PC的增长逻辑",
"titleTip" : "魏武挥：智能手机与PC的增长逻辑",
"titleSummary" : "魏武挥：智能手机与PC的增长逻辑",
"descSummary" : "",
"url" : "http:\/\/go.rss.sina.com.cn\/redirect.php?url=http:\/\/blog.sina.com.cn\/s\/blog_538fa7900101b2gp.html",
"pubDate" : "10:19:44",
"enterDate" : "384201:12:54",
"channelId" : "7925691158886209856",
"channelName" : "科技要闻-新浪科技",
"channelNameSummary" : "科技要闻-新浪科技",
"channelUrl" : "http:\/\/tech.sina.com.cn\/roll.shtml",
"author" : "WWW.SINA.COM.CN",
"tags" : [],
"desc" : "",
"emailed" : False,
"forwarded" : False,
"english" : False
}  , {
"index" : 17,
"articleIndex" : "364611",
"favor" :  False ,
     "read" : False,    
"title" : "蔡司55mm F1.4新定焦镜：标头中的土豪金",
"titleTip" : "蔡司55mm F1.4新定焦镜：标头中的土豪金",
"titleSummary" : "蔡司55mm F1.4新定焦镜：标头中的土豪金",
"descSummary" : "以顶尖规格光学镜片与材料组合，开发一支世界最高画质的5...",
"url" : "http:\/\/go.rss.sina.com.cn\/redirect.php?url=http:\/\/tech.sina.com.cn\/digi\/dc\/2013-10-30\/10168867430.shtml",
"pubDate" : "10:16:45",
"enterDate" : "384201:09:55",
"channelId" : "7925691158886209856",
"channelName" : "科技要闻-新浪科技",
"channelNameSummary" : "科技要闻-新浪科技",
"channelUrl" : "http:\/\/tech.sina.com.cn\/roll.shtml",
"author" : "WWW.SINA.COM.CN",
"tags" : [],
"desc" : "以顶尖规格光学镜片与材料组合，开发一支世界最高画质的55mm 标准定焦镜头，似乎也只有德国老牌镜头大厂卡尔蔡司能做得到，在不考虑成本与组装困难度的前提下，绝对不向画质妥协，完成一支全开光圈、边缘画质都极为优秀的Otus 55mm F1.4 定焦镜，无论画质、对比与色彩表现都令....",
"emailed" : False,
"forwarded" : False,
"english" : False
}  , {
"index" : 18,
"articleIndex" : "364610",
"favor" :  False ,
     "read" : False,    
"title" : "2013景观摄影获奖作品集 美轮美奂的景观",
"titleTip" : "2013景观摄影获奖作品集 美轮美奂的景观",
"titleSummary" : "2013景观摄影获奖作品集 美轮美奂的景观",
"descSummary" : "",
"url" : "http:\/\/go.rss.sina.com.cn\/redirect.php?url=http:\/\/slide.tech.sina.com.cn\/digi\/slide_5_30939_37583.html",
"pubDate" : "10:11:52",
"enterDate" : "384201:05:02",
"channelId" : "7925691158886209856",
"channelName" : "科技要闻-新浪科技",
"channelNameSummary" : "科技要闻-新浪科技",
"channelUrl" : "http:\/\/tech.sina.com.cn\/roll.shtml",
"author" : "WWW.SINA.COM.CN",
"tags" : [],
"desc" : "",
"emailed" : False,
"forwarded" : False,
"english" : False
}  , {
"index" : 19,
"articleIndex" : "364609",
"favor" :  False ,
     "read" : False,    
"title" : "清新超薄手机 华为P6现货带票仅2150元",
"titleTip" : "清新超薄手机 华为P6现货带票仅2150元",
"titleSummary" : "清新超薄手机 华为P6现货带票仅2150元",
"descSummary" : "文\/张航 [陕西行情] 华为Ascend P6(参数 报价 论坛 软件)(行货)今...",
"url" : "http:\/\/go.rss.sina.com.cn\/redirect.php?url=http:\/\/tech.sina.com.cn\/mobile\/n\/2013-10-30\/10108867401.shtml",
"pubDate" : "10:10:09",
"enterDate" : "384201:03:19",
"channelId" : "7925691158886209856",
"channelName" : "科技要闻-新浪科技",
"channelNameSummary" : "科技要闻-新浪科技",
"channelUrl" : "http:\/\/tech.sina.com.cn\/roll.shtml",
"author" : "WWW.SINA.COM.CN",
"tags" : [],
"desc" : "文\/张航 [陕西行情] 华为Ascend P6(参数 报价 论坛 软件)(行货)今日报出了2150元的最新价格。该机配件为充电器，耳机，数据线，说明书等。移动版华为Ascend P6是一款前置500万像素摄像头的四核智能3G手机。 点击图片查看华为Ascend P6详细资料 华为Ascend....",
"emailed" : False,
"forwarded" : False,
"english" : False
} ]
}
