{
"mode" : {"viewTitle" : 1,   "viewNew" : 0,  "pageIndex" : 1 },
 "channel" : {"id" : "-8941090282289717584", "booked" : False, "subNumber" : 1, "name" : "电视前沿-焦点新闻", "url" : "http:\/\/ent.sina.com.cn\/tv\/index.shtml", "feed" : "http:\/\/rss.sina.com.cn\/ent\/tv\/focus7.xml", "author" : "WWW.SINA.COM.CN", "desc" : "电视前沿-焦点新闻", "imageUrl" : "http:\/\/www.sinaimg.cn\/home\/deco\/2009\/0330\/logo_home_ent.gif", "postPerWeek" : "0", "lastCrawTime" : "16:56:51", "crawDateTime" : "16:56:51", "lastHttpCode" : "200"}, "page" : {
"startIndex" : 0,
"totalCount" : 5000,
"pageIndex" : 1,
"lastPage" : 250,
"pageSize" : 20,
"english" :  False },
 "unreadNum" : 0, "shotIndex" : -1,
"articles" : [
{
"index" : 0,
"articleIndex" : "52000",
"favor" :  False ,
     "read" : False,    
"title" : "专家驳于正：虞姬确有其人但不是正妻",
"titleTip" : "专家驳于正：虞姬确有其人但不是正妻",
"titleSummary" : "专家驳于正：虞姬确有其人但不是正妻",
"descSummary" : "",
"url" : "http:\/\/go.rss.sina.com.cn\/redirect.php?url=http:\/\/ent.sina.com.cn\/v\/m\/2013-10-30\/16454033670.shtml",
"pubDate" : "16:45:31",
"enterDate" : "384201:07:49",
"channelId" : "-8941090282289717584",
"channelName" : "电视前沿-焦点新闻",
"channelNameSummary" : "电视前沿-焦点新闻",
"channelUrl" : "http:\/\/ent.sina.com.cn\/tv\/index.shtml",
"author" : "WWW.SINA.COM.CN",
"tags" : [],
"desc" : "",
"emailed" : False,
"forwarded" : False,
"english" : False
}  , {
"index" : 1,
"articleIndex" : "51999",
"favor" :  False ,
     "read" : False,    
"title" : "郭靖宇全家加盟《打狗棍》 家人演家族事",
"titleTip" : "郭靖宇全家加盟《打狗棍》 家人演家族事",
"titleSummary" : "郭靖宇全家加盟《打狗棍》 家人演家族事",
"descSummary" : "",
"url" : "http:\/\/go.rss.sina.com.cn\/redirect.php?url=http:\/\/ent.sina.com.cn\/v\/m\/2013-10-30\/16454033669.shtml",
"pubDate" : "16:45:30",
"enterDate" : "384201:07:48",
"channelId" : "-8941090282289717584",
"channelName" : "电视前沿-焦点新闻",
"channelNameSummary" : "电视前沿-焦点新闻",
"channelUrl" : "http:\/\/ent.sina.com.cn\/tv\/index.shtml",
"author" : "WWW.SINA.COM.CN",
"tags" : [],
"desc" : "",
"emailed" : False,
"forwarded" : False,
"english" : False
}  , {
"index" : 2,
"articleIndex" : "51998",
"favor" :  False ,
     "read" : False,    
"title" : "2014荧屏亲子喜剧节目潮涌 剧集分野加剧",
"titleTip" : "2014荧屏亲子喜剧节目潮涌 剧集分野加剧",
"titleSummary" : "2014荧屏亲子喜剧节目潮涌 剧集分野加剧",
"descSummary" : "",
"url" : "http:\/\/go.rss.sina.com.cn\/redirect.php?url=http:\/\/ent.sina.com.cn\/v\/m\/2013-10-30\/16434033667.shtml",
"pubDate" : "16:43:01",
"enterDate" : "384201:05:19",
"channelId" : "-8941090282289717584",
"channelName" : "电视前沿-焦点新闻",
"channelNameSummary" : "电视前沿-焦点新闻",
"channelUrl" : "http:\/\/ent.sina.com.cn\/tv\/index.shtml",
"author" : "WWW.SINA.COM.CN",
"tags" : [],
"desc" : "",
"emailed" : False,
"forwarded" : False,
"english" : False
}  , {
"index" : 3,
"articleIndex" : "51997",
"favor" :  False ,
     "read" : False,    
"title" : "《星星知我心》出炉好爸妈 临时父母抢镜",
"titleTip" : "《星星知我心》出炉好爸妈 临时父母抢镜",
"titleSummary" : "《星星知我心》出炉好爸妈 临时父母抢镜",
"descSummary" : "",
"url" : "http:\/\/go.rss.sina.com.cn\/redirect.php?url=http:\/\/ent.sina.com.cn\/v\/m\/2013-10-30\/16394033664.shtml",
"pubDate" : "16:39:38",
"enterDate" : "384201:01:56",
"channelId" : "-8941090282289717584",
"channelName" : "电视前沿-焦点新闻",
"channelNameSummary" : "电视前沿-焦点新闻",
"channelUrl" : "http:\/\/ent.sina.com.cn\/tv\/index.shtml",
"author" : "WWW.SINA.COM.CN",
"tags" : [],
"desc" : "",
"emailed" : False,
"forwarded" : False,
"english" : False
}  , {
"index" : 4,
"articleIndex" : "51996",
"favor" :  False ,
     "read" : False,    
"title" : "《纯真的年代》卫视首播 等待五年终面世",
"titleTip" : "《纯真的年代》卫视首播 等待五年终面世",
"titleSummary" : "《纯真的年代》卫视首播 等待五年终面世",
"descSummary" : "",
"url" : "http:\/\/go.rss.sina.com.cn\/redirect.php?url=http:\/\/ent.sina.com.cn\/v\/m\/2013-10-30\/16314033660.shtml",
"pubDate" : "16:31:23",
"enterDate" : "384200:53:41",
"channelId" : "-8941090282289717584",
"channelName" : "电视前沿-焦点新闻",
"channelNameSummary" : "电视前沿-焦点新闻",
"channelUrl" : "http:\/\/ent.sina.com.cn\/tv\/index.shtml",
"author" : "WWW.SINA.COM.CN",
"tags" : [],
"desc" : "",
"emailed" : False,
"forwarded" : False,
"english" : False
}  , {
"index" : 5,
"articleIndex" : "51995",
"favor" :  False ,
     "read" : False,    
"title" : "《金玉满堂》编剧称洒狗血是电视台需要",
"titleTip" : "《金玉满堂》编剧称洒狗血是电视台需要",
"titleSummary" : "《金玉满堂》编剧称洒狗血是电视台需要",
"descSummary" : "",
"url" : "http:\/\/go.rss.sina.com.cn\/redirect.php?url=http:\/\/ent.sina.com.cn\/v\/m\/2013-10-30\/15544033627.shtml",
"pubDate" : "15:54:58",
"enterDate" : "384200:17:16",
"channelId" : "-8941090282289717584",
"channelName" : "电视前沿-焦点新闻",
"channelNameSummary" : "电视前沿-焦点新闻",
"channelUrl" : "http:\/\/ent.sina.com.cn\/tv\/index.shtml",
"author" : "WWW.SINA.COM.CN",
"tags" : [],
"desc" : "",
"emailed" : False,
"forwarded" : False,
"english" : False
}  , {
"index" : 6,
"articleIndex" : "51994",
"favor" :  False ,
     "read" : False,    
"title" : "《女人帮-妞儿》甘薇演绎落魄千金成长记",
"titleTip" : "《女人帮-妞儿》甘薇演绎落魄千金成长记",
"titleSummary" : "《女人帮-妞儿》甘薇演绎落魄千金成长记",
"descSummary" : "",
"url" : "http:\/\/go.rss.sina.com.cn\/redirect.php?url=http:\/\/ent.sina.com.cn\/v\/m\/2013-10-30\/15354033606.shtml",
"pubDate" : "15:35:28",
"enterDate" : "384199:57:46",
"channelId" : "-8941090282289717584",
"channelName" : "电视前沿-焦点新闻",
"channelNameSummary" : "电视前沿-焦点新闻",
"channelUrl" : "http:\/\/ent.sina.com.cn\/tv\/index.shtml",
"author" : "WWW.SINA.COM.CN",
"tags" : [],
"desc" : "",
"emailed" : False,
"forwarded" : False,
"english" : False
}  , {
"index" : 7,
"articleIndex" : "51993",
"favor" :  False ,
     "read" : False,    
"title" : "电视购物广告杜绝叫卖 明年起晚间禁播",
"titleTip" : "电视购物广告杜绝叫卖 明年起晚间禁播",
"titleSummary" : "电视购物广告杜绝叫卖 明年起晚间禁播",
"descSummary" : "",
"url" : "http:\/\/go.rss.sina.com.cn\/redirect.php?url=http:\/\/ent.sina.com.cn\/v\/m\/2013-10-30\/15304033601.shtml",
"pubDate" : "15:30:58",
"enterDate" : "384199:53:16",
"channelId" : "-8941090282289717584",
"channelName" : "电视前沿-焦点新闻",
"channelNameSummary" : "电视前沿-焦点新闻",
"channelUrl" : "http:\/\/ent.sina.com.cn\/tv\/index.shtml",
"author" : "WWW.SINA.COM.CN",
"tags" : [],
"desc" : "",
"emailed" : False,
"forwarded" : False,
"english" : False
}  , {
"index" : 8,
"articleIndex" : "51992",
"favor" :  False ,
     "read" : False,    
"title" : "《爸爸去哪儿》田亮女儿沙漠火力全开",
"titleTip" : "《爸爸去哪儿》田亮女儿沙漠火力全开",
"titleSummary" : "《爸爸去哪儿》田亮女儿沙漠火力全开",
"descSummary" : "",
"url" : "http:\/\/go.rss.sina.com.cn\/redirect.php?url=http:\/\/ent.sina.com.cn\/v\/m\/2013-10-30\/15304033600.shtml",
"pubDate" : "15:30:55",
"enterDate" : "384199:53:13",
"channelId" : "-8941090282289717584",
"channelName" : "电视前沿-焦点新闻",
"channelNameSummary" : "电视前沿-焦点新闻",
"channelUrl" : "http:\/\/ent.sina.com.cn\/tv\/index.shtml",
"author" : "WWW.SINA.COM.CN",
"tags" : [],
"desc" : "",
"emailed" : False,
"forwarded" : False,
"english" : False
}  , {
"index" : 9,
"articleIndex" : "51991",
"favor" :  False ,
     "read" : False,    
"title" : "《On Call36小时2》将播 大夫能医不自医",
"titleTip" : "《On Call36小时2》将播 大夫能医不自医",
"titleSummary" : "《On Call36小时2》将播 大夫能医不自医",
"descSummary" : "",
"url" : "http:\/\/go.rss.sina.com.cn\/redirect.php?url=http:\/\/ent.sina.com.cn\/v\/h\/2013-10-30\/14454033552.shtml",
"pubDate" : "14:45:22",
"enterDate" : "384200:37:56",
"channelId" : "-8941090282289717584",
"channelName" : "电视前沿-焦点新闻",
"channelNameSummary" : "电视前沿-焦点新闻",
"channelUrl" : "http:\/\/ent.sina.com.cn\/tv\/index.shtml",
"author" : "WWW.SINA.COM.CN",
"tags" : [],
"desc" : "",
"emailed" : False,
"forwarded" : False,
"english" : False
}  , {
"index" : 10,
"articleIndex" : "51985",
"favor" :  False ,
     "read" : False,    
"title" : "《继承者们》花美男6人组电力十足(组图)",
"titleTip" : "《继承者们》花美男6人组电力十足(组图)",
"titleSummary" : "《继承者们》花美男6人组电力十足(组图)",
"descSummary" : "",
"url" : "http:\/\/go.rss.sina.com.cn\/redirect.php?url=http:\/\/ent.sina.com.cn\/v\/j\/k\/2013-10-30\/14124033519.shtml",
"pubDate" : "14:12:02",
"enterDate" : "384201:04:46",
"channelId" : "-8941090282289717584",
"channelName" : "电视前沿-焦点新闻",
"channelNameSummary" : "电视前沿-焦点新闻",
"channelUrl" : "http:\/\/ent.sina.com.cn\/tv\/index.shtml",
"author" : "WWW.SINA.COM.CN",
"tags" : [],
"desc" : "",
"emailed" : False,
"forwarded" : False,
"english" : False
}  , {
"index" : 11,
"articleIndex" : "51984",
"favor" :  False ,
     "read" : False,    
"title" : "《大清宝典》曝片花 讲述四大家族悲剧",
"titleTip" : "《大清宝典》曝片花 讲述四大家族悲剧",
"titleSummary" : "《大清宝典》曝片花 讲述四大家族悲剧",
"descSummary" : "",
"url" : "http:\/\/go.rss.sina.com.cn\/redirect.php?url=http:\/\/ent.sina.com.cn\/v\/m\/2013-10-30\/12304033491.shtml",
"pubDate" : "12:30:41",
"enterDate" : "384199:23:25",
"channelId" : "-8941090282289717584",
"channelName" : "电视前沿-焦点新闻",
"channelNameSummary" : "电视前沿-焦点新闻",
"channelUrl" : "http:\/\/ent.sina.com.cn\/tv\/index.shtml",
"author" : "WWW.SINA.COM.CN",
"tags" : [],
"desc" : "",
"emailed" : False,
"forwarded" : False,
"english" : False
}  , {
"index" : 12,
"articleIndex" : "51990",
"favor" :  False ,
     "read" : False,    
"title" : "《爸爸》走红网友呼吁用儿童安全座椅",
"titleTip" : "《爸爸》走红网友呼吁用儿童安全座椅",
"titleSummary" : "《爸爸》走红网友呼吁用儿童安全座椅",
"descSummary" : "",
"url" : "http:\/\/go.rss.sina.com.cn\/redirect.php?url=http:\/\/ent.sina.com.cn\/v\/m\/w\/2013-10-30\/12034033471.shtml",
"pubDate" : "12:03:01",
"enterDate" : "384198:25:39",
"channelId" : "-8941090282289717584",
"channelName" : "电视前沿-焦点新闻",
"channelNameSummary" : "电视前沿-焦点新闻",
"channelUrl" : "http:\/\/ent.sina.com.cn\/tv\/index.shtml",
"author" : "WWW.SINA.COM.CN",
"tags" : [],
"desc" : "",
"emailed" : False,
"forwarded" : False,
"english" : False
}  , {
"index" : 13,
"articleIndex" : "51989",
"favor" :  False ,
     "read" : False,    
"title" : "《金玉满堂》苑琼丹曝胡杏儿分手有隐情",
"titleTip" : "《金玉满堂》苑琼丹曝胡杏儿分手有隐情",
"titleSummary" : "《金玉满堂》苑琼丹曝胡杏儿分手有隐情",
"descSummary" : "",
"url" : "http:\/\/go.rss.sina.com.cn\/redirect.php?url=http:\/\/ent.sina.com.cn\/v\/m\/2013-10-30\/12014033470.shtml",
"pubDate" : "12:01:54",
"enterDate" : "384198:24:32",
"channelId" : "-8941090282289717584",
"channelName" : "电视前沿-焦点新闻",
"channelNameSummary" : "电视前沿-焦点新闻",
"channelUrl" : "http:\/\/ent.sina.com.cn\/tv\/index.shtml",
"author" : "WWW.SINA.COM.CN",
"tags" : [],
"desc" : "",
"emailed" : False,
"forwarded" : False,
"english" : False
}  , {
"index" : 14,
"articleIndex" : "51983",
"favor" :  False ,
     "read" : False,    
"title" : "《全能星战》龚琳娜又放招 《忐忑》再现",
"titleTip" : "《全能星战》龚琳娜又放招 《忐忑》再现",
"titleSummary" : "《全能星战》龚琳娜又放招 《忐忑》再现",
"descSummary" : "",
"url" : "http:\/\/go.rss.sina.com.cn\/redirect.php?url=http:\/\/ent.sina.com.cn\/v\/m\/2013-10-30\/11564033464.shtml",
"pubDate" : "11:56:08",
"enterDate" : "384198:48:52",
"channelId" : "-8941090282289717584",
"channelName" : "电视前沿-焦点新闻",
"channelNameSummary" : "电视前沿-焦点新闻",
"channelUrl" : "http:\/\/ent.sina.com.cn\/tv\/index.shtml",
"author" : "WWW.SINA.COM.CN",
"tags" : [],
"desc" : "",
"emailed" : False,
"forwarded" : False,
"english" : False
}  , {
"index" : 15,
"articleIndex" : "51988",
"favor" :  False ,
     "read" : False,    
"title" : "《纯真的年代》江西首播 李亚鹏演虐心恋",
"titleTip" : "《纯真的年代》江西首播 李亚鹏演虐心恋",
"titleSummary" : "《纯真的年代》江西首播 李亚鹏演虐心恋",
"descSummary" : "",
"url" : "http:\/\/go.rss.sina.com.cn\/redirect.php?url=http:\/\/ent.sina.com.cn\/v\/m\/2013-10-30\/11544033461.shtml",
"pubDate" : "11:54:10",
"enterDate" : "384198:16:48",
"channelId" : "-8941090282289717584",
"channelName" : "电视前沿-焦点新闻",
"channelNameSummary" : "电视前沿-焦点新闻",
"channelUrl" : "http:\/\/ent.sina.com.cn\/tv\/index.shtml",
"author" : "WWW.SINA.COM.CN",
"tags" : [],
"desc" : "",
"emailed" : False,
"forwarded" : False,
"english" : False
}  , {
"index" : 16,
"articleIndex" : "51987",
"favor" :  False ,
     "read" : False,    
"title" : "《爸爸去哪儿》走红 引进版权仍存隐忧",
"titleTip" : "《爸爸去哪儿》走红 引进版权仍存隐忧",
"titleSummary" : "《爸爸去哪儿》走红 引进版权仍存隐忧",
"descSummary" : "",
"url" : "http:\/\/go.rss.sina.com.cn\/redirect.php?url=http:\/\/ent.sina.com.cn\/v\/m\/2013-10-30\/11534033460.shtml",
"pubDate" : "11:53:50",
"enterDate" : "384198:16:28",
"channelId" : "-8941090282289717584",
"channelName" : "电视前沿-焦点新闻",
"channelNameSummary" : "电视前沿-焦点新闻",
"channelUrl" : "http:\/\/ent.sina.com.cn\/tv\/index.shtml",
"author" : "WWW.SINA.COM.CN",
"tags" : [],
"desc" : "",
"emailed" : False,
"forwarded" : False,
"english" : False
}  , {
"index" : 17,
"articleIndex" : "51982",
"favor" :  False ,
     "read" : False,    
"title" : "抗战剧偶像化趋势渐浓 要青春不要猎奇",
"titleTip" : "抗战剧偶像化趋势渐浓 要青春不要猎奇",
"titleSummary" : "抗战剧偶像化趋势渐浓 要青春不要猎奇",
"descSummary" : "",
"url" : "http:\/\/go.rss.sina.com.cn\/redirect.php?url=http:\/\/ent.sina.com.cn\/v\/m\/2013-10-30\/11084033377.shtml",
"pubDate" : "11:08:39",
"enterDate" : "384200:31:47",
"channelId" : "-8941090282289717584",
"channelName" : "电视前沿-焦点新闻",
"channelNameSummary" : "电视前沿-焦点新闻",
"channelUrl" : "http:\/\/ent.sina.com.cn\/tv\/index.shtml",
"author" : "WWW.SINA.COM.CN",
"tags" : [],
"desc" : "",
"emailed" : False,
"forwarded" : False,
"english" : False
}  , {
"index" : 18,
"articleIndex" : "51981",
"favor" :  False ,
     "read" : False,    
"title" : "星爸喊话愿上《爸爸》 节目组谈选娃秘笈",
"titleTip" : "星爸喊话愿上《爸爸》 节目组谈选娃秘笈",
"titleSummary" : "星爸喊话愿上《爸爸》 节目组谈选娃秘笈",
"descSummary" : "",
"url" : "http:\/\/go.rss.sina.com.cn\/redirect.php?url=http:\/\/ent.sina.com.cn\/v\/m\/2013-10-30\/10594033350.shtml",
"pubDate" : "10:59:55",
"enterDate" : "384200:53:08",
"channelId" : "-8941090282289717584",
"channelName" : "电视前沿-焦点新闻",
"channelNameSummary" : "电视前沿-焦点新闻",
"channelUrl" : "http:\/\/ent.sina.com.cn\/tv\/index.shtml",
"author" : "WWW.SINA.COM.CN",
"tags" : [],
"desc" : "",
"emailed" : False,
"forwarded" : False,
"english" : False
}  , {
"index" : 19,
"articleIndex" : "51986",
"favor" :  False ,
     "read" : False,    
"title" : "田亮谈女儿：平时也爱哭 比想象的坚强",
"titleTip" : "田亮谈女儿：平时也爱哭 比想象的坚强",
"titleSummary" : "田亮谈女儿：平时也爱哭 比想象的坚强",
"descSummary" : "",
"url" : "http:\/\/go.rss.sina.com.cn\/redirect.php?url=http:\/\/ent.sina.com.cn\/v\/m\/2013-10-30\/10594033351.shtml",
"pubDate" : "10:59:55",
"enterDate" : "384197:22:33",
"channelId" : "-8941090282289717584",
"channelName" : "电视前沿-焦点新闻",
"channelNameSummary" : "电视前沿-焦点新闻",
"channelUrl" : "http:\/\/ent.sina.com.cn\/tv\/index.shtml",
"author" : "WWW.SINA.COM.CN",
"tags" : [],
"desc" : "",
"emailed" : False,
"forwarded" : False,
"english" : False
} ]
}
