{
"mode" : {"viewTitle" : 1,   "viewNew" : 0,  "pageIndex" : 2 },
 "channel" : {"id" : "-8941090282289717584", "booked" : False, "subNumber" : 1, "name" : "电视前沿-焦点新闻", "url" : "http:\/\/ent.sina.com.cn\/tv\/index.shtml", "feed" : "http:\/\/rss.sina.com.cn\/ent\/tv\/focus7.xml", "author" : "WWW.SINA.COM.CN", "desc" : "电视前沿-焦点新闻", "imageUrl" : "http:\/\/www.sinaimg.cn\/home\/deco\/2009\/0330\/logo_home_ent.gif", "postPerWeek" : "0", "lastCrawTime" : "16:56:51", "crawDateTime" : "16:56:51", "lastHttpCode" : "200"}, "page" : {
"startIndex" : 20,
"totalCount" : 5000,
"pageIndex" : 2,
"lastPage" : 250,
"pageSize" : 20,
"english" :  False },
 "unreadNum" : 0, "shotIndex" : -1,
"articles" : [
{
"index" : 0,
"articleIndex" : "51980",
"favor" :  False ,
     "read" : False,    
"title" : "河智苑新剧《奇皇后》开播两天收视夺冠",
"titleTip" : "河智苑新剧《奇皇后》开播两天收视夺冠",
"titleSummary" : "河智苑新剧《奇皇后》开播两天收视夺冠",
"descSummary" : "",
"url" : "http:\/\/go.rss.sina.com.cn\/redirect.php?url=http:\/\/ent.sina.com.cn\/v\/j\/k\/2013-10-30\/10594033347.shtml",
"pubDate" : "10:59:32",
"enterDate" : "384200:52:45",
"channelId" : "-8941090282289717584",
"channelName" : "电视前沿-焦点新闻",
"channelNameSummary" : "电视前沿-焦点新闻",
"channelUrl" : "http:\/\/ent.sina.com.cn\/tv\/index.shtml",
"author" : "WWW.SINA.COM.CN",
"tags" : [],
"desc" : "",
"emailed" : False,
"forwarded" : False,
"english" : False
}  , {
"index" : 1,
"articleIndex" : "51979",
"favor" :  False ,
     "read" : False,    
"title" : "王珞丹与姐姐爸爸合影获赞靓丽姐妹花",
"titleTip" : "王珞丹与姐姐爸爸合影获赞靓丽姐妹花",
"titleSummary" : "王珞丹与姐姐爸爸合影获赞靓丽姐妹花",
"descSummary" : "",
"url" : "http:\/\/go.rss.sina.com.cn\/redirect.php?url=http:\/\/ent.sina.com.cn\/v\/m\/w\/2013-10-30\/10564033335.shtml",
"pubDate" : "10:56:14",
"enterDate" : "384200:49:27",
"channelId" : "-8941090282289717584",
"channelName" : "电视前沿-焦点新闻",
"channelNameSummary" : "电视前沿-焦点新闻",
"channelUrl" : "http:\/\/ent.sina.com.cn\/tv\/index.shtml",
"author" : "WWW.SINA.COM.CN",
"tags" : [],
"desc" : "",
"emailed" : False,
"forwarded" : False,
"english" : False
}  , {
"index" : 2,
"articleIndex" : "51978",
"favor" :  False ,
     "read" : False,    
"title" : "TVB拟改颁奖赛制 视帝后民意专业各一半？",
"titleTip" : "TVB拟改颁奖赛制 视帝后民意专业各一半？",
"titleSummary" : "TVB拟改颁奖赛制 视帝后民意专业各一半？",
"descSummary" : "",
"url" : "http:\/\/go.rss.sina.com.cn\/redirect.php?url=http:\/\/ent.sina.com.cn\/v\/h\/2013-10-30\/10494033311.shtml",
"pubDate" : "10:49:48",
"enterDate" : "384200:43:01",
"channelId" : "-8941090282289717584",
"channelName" : "电视前沿-焦点新闻",
"channelNameSummary" : "电视前沿-焦点新闻",
"channelUrl" : "http:\/\/ent.sina.com.cn\/tv\/index.shtml",
"author" : "WWW.SINA.COM.CN",
"tags" : [],
"desc" : "",
"emailed" : False,
"forwarded" : False,
"english" : False
}  , {
"index" : 3,
"articleIndex" : "51977",
"favor" :  False ,
     "read" : False,    
"title" : "《含苞》金钟大赢 探讨大龄未婚女青年",
"titleTip" : "《含苞》金钟大赢 探讨大龄未婚女青年",
"titleSummary" : "《含苞》金钟大赢 探讨大龄未婚女青年",
"descSummary" : "",
"url" : "http:\/\/go.rss.sina.com.cn\/redirect.php?url=http:\/\/ent.sina.com.cn\/v\/h\/2013-10-30\/10404033292.shtml",
"pubDate" : "10:40:30",
"enterDate" : "384200:33:43",
"channelId" : "-8941090282289717584",
"channelName" : "电视前沿-焦点新闻",
"channelNameSummary" : "电视前沿-焦点新闻",
"channelUrl" : "http:\/\/ent.sina.com.cn\/tv\/index.shtml",
"author" : "WWW.SINA.COM.CN",
"tags" : [],
"desc" : "",
"emailed" : False,
"forwarded" : False,
"english" : False
}  , {
"index" : 4,
"articleIndex" : "51976",
"favor" :  False ,
     "read" : False,    
"title" : "《破产姐妹》将现新角色 Max有望遇真爱",
"titleTip" : "《破产姐妹》将现新角色 Max有望遇真爱",
"titleSummary" : "《破产姐妹》将现新角色 Max有望遇真爱",
"descSummary" : "",
"url" : "http:\/\/go.rss.sina.com.cn\/redirect.php?url=http:\/\/ent.sina.com.cn\/v\/u\/2013-10-30\/10354033280.shtml",
"pubDate" : "10:35:18",
"enterDate" : "384200:28:31",
"channelId" : "-8941090282289717584",
"channelName" : "电视前沿-焦点新闻",
"channelNameSummary" : "电视前沿-焦点新闻",
"channelUrl" : "http:\/\/ent.sina.com.cn\/tv\/index.shtml",
"author" : "WWW.SINA.COM.CN",
"tags" : [],
"desc" : "",
"emailed" : False,
"forwarded" : False,
"english" : False
}  , {
"index" : 5,
"articleIndex" : "51974",
"favor" :  False ,
     "read" : False,    
"title" : "《漂亮男人》首曝张根硕概念宣传照(组图)",
"titleTip" : "《漂亮男人》首曝张根硕概念宣传照(组图)",
"titleSummary" : "《漂亮男人》首曝张根硕概念宣传照(组图)",
"descSummary" : "",
"url" : "http:\/\/go.rss.sina.com.cn\/redirect.php?url=http:\/\/ent.sina.com.cn\/v\/j\/k\/p\/2013-10-30\/10354033278.shtml",
"pubDate" : "10:35:01",
"enterDate" : "384200:58:20",
"channelId" : "-8941090282289717584",
"channelName" : "电视前沿-焦点新闻",
"channelNameSummary" : "电视前沿-焦点新闻",
"channelUrl" : "http:\/\/ent.sina.com.cn\/tv\/index.shtml",
"author" : "WWW.SINA.COM.CN",
"tags" : [],
"desc" : "",
"emailed" : False,
"forwarded" : False,
"english" : False
}  , {
"index" : 6,
"articleIndex" : "51973",
"favor" :  False ,
     "read" : False,    
"title" : "《同在屋檐下》笑泪收官 虐心触摸爱与痛",
"titleTip" : "《同在屋檐下》笑泪收官 虐心触摸爱与痛",
"titleSummary" : "《同在屋檐下》笑泪收官 虐心触摸爱与痛",
"descSummary" : "",
"url" : "http:\/\/go.rss.sina.com.cn\/redirect.php?url=http:\/\/ent.sina.com.cn\/v\/m\/2013-10-30\/10304033270.shtml",
"pubDate" : "10:30:49",
"enterDate" : "384200:54:08",
"channelId" : "-8941090282289717584",
"channelName" : "电视前沿-焦点新闻",
"channelNameSummary" : "电视前沿-焦点新闻",
"channelUrl" : "http:\/\/ent.sina.com.cn\/tv\/index.shtml",
"author" : "WWW.SINA.COM.CN",
"tags" : [],
"desc" : "",
"emailed" : False,
"forwarded" : False,
"english" : False
}  , {
"index" : 7,
"articleIndex" : "51975",
"favor" :  False ,
     "read" : False,    
"title" : "《千金归来》开播 赵文u李沁掀豪门内战",
"titleTip" : "《千金归来》开播 赵文u李沁掀豪门内战",
"titleSummary" : "《千金归来》开播 赵文u李沁掀豪门内战",
"descSummary" : "",
"url" : "http:\/\/go.rss.sina.com.cn\/redirect.php?url=http:\/\/ent.sina.com.cn\/v\/m\/2013-10-30\/10144033243.shtml",
"pubDate" : "10:14:01",
"enterDate" : "384200:07:14",
"channelId" : "-8941090282289717584",
"channelName" : "电视前沿-焦点新闻",
"channelNameSummary" : "电视前沿-焦点新闻",
"channelUrl" : "http:\/\/ent.sina.com.cn\/tv\/index.shtml",
"author" : "WWW.SINA.COM.CN",
"tags" : [],
"desc" : "",
"emailed" : False,
"forwarded" : False,
"english" : False
}  , {
"index" : 8,
"articleIndex" : "51972",
"favor" :  False ,
     "read" : False,    
"title" : "吴奇隆刘诗诗《步步惊情》剧情版MV首发",
"titleTip" : "吴奇隆刘诗诗《步步惊情》剧情版MV首发",
"titleSummary" : "吴奇隆刘诗诗《步步惊情》剧情版MV首发",
"descSummary" : "",
"url" : "http:\/\/go.rss.sina.com.cn\/redirect.php?url=http:\/\/ent.sina.com.cn\/v\/m\/2013-10-30\/09434033188.shtml",
"pubDate" : "09:43:07",
"enterDate" : "384200:36:30",
"channelId" : "-8941090282289717584",
"channelName" : "电视前沿-焦点新闻",
"channelNameSummary" : "电视前沿-焦点新闻",
"channelUrl" : "http:\/\/ent.sina.com.cn\/tv\/index.shtml",
"author" : "WWW.SINA.COM.CN",
"tags" : [],
"desc" : "",
"emailed" : False,
"forwarded" : False,
"english" : False
}  , {
"index" : 9,
"articleIndex" : "51971",
"favor" :  False ,
     "read" : False,    
"title" : "视频：《步步惊情》剧情版MV首发",
"titleTip" : "视频：《步步惊情》剧情版MV首发",
"titleSummary" : "视频：《步步惊情》剧情版MV首发",
"descSummary" : "",
"url" : "http:\/\/go.rss.sina.com.cn\/redirect.php?url=http:\/\/video.sina.com.cn\/p\/ent\/v\/m\/2013-10-30\/094163082575.html",
"pubDate" : "09:41:39",
"enterDate" : "384200:35:02",
"channelId" : "-8941090282289717584",
"channelName" : "电视前沿-焦点新闻",
"channelNameSummary" : "电视前沿-焦点新闻",
"channelUrl" : "http:\/\/ent.sina.com.cn\/tv\/index.shtml",
"author" : "WWW.SINA.COM.CN",
"tags" : [],
"desc" : "",
"emailed" : False,
"forwarded" : False,
"english" : False
}  , {
"index" : 10,
"articleIndex" : "51969",
"favor" :  False ,
     "read" : False,    
"title" : "视频：刘烨调侃加盟《达人秀》望保持端庄",
"titleTip" : "视频：刘烨调侃加盟《达人秀》望保持端庄",
"titleSummary" : "视频：刘烨调侃加盟《达人秀》望保持端庄",
"descSummary" : "",
"url" : "http:\/\/go.rss.sina.com.cn\/redirect.php?url=http:\/\/video.sina.com.cn\/p\/ent\/v\/m\/2013-10-30\/091263082545.html",
"pubDate" : "09:12:28",
"enterDate" : "384200:35:57",
"channelId" : "-8941090282289717584",
"channelName" : "电视前沿-焦点新闻",
"channelNameSummary" : "电视前沿-焦点新闻",
"channelUrl" : "http:\/\/ent.sina.com.cn\/tv\/index.shtml",
"author" : "WWW.SINA.COM.CN",
"tags" : [],
"desc" : "",
"emailed" : False,
"forwarded" : False,
"english" : False
}  , {
"index" : 11,
"articleIndex" : "51970",
"favor" :  False ,
     "read" : False,    
"title" : "韩剧收视：《丑闻》《火之女神》低调收官",
"titleTip" : "韩剧收视：《丑闻》《火之女神》低调收官",
"titleSummary" : "韩剧收视：《丑闻》《火之女神》低调收官",
"descSummary" : "",
"url" : "http:\/\/go.rss.sina.com.cn\/redirect.php?url=http:\/\/ent.sina.com.cn\/v\/j\/k\/2013-10-30\/08544033156.shtml",
"pubDate" : "08:54:30",
"enterDate" : "384199:47:53",
"channelId" : "-8941090282289717584",
"channelName" : "电视前沿-焦点新闻",
"channelNameSummary" : "电视前沿-焦点新闻",
"channelUrl" : "http:\/\/ent.sina.com.cn\/tv\/index.shtml",
"author" : "WWW.SINA.COM.CN",
"tags" : [],
"desc" : "",
"emailed" : False,
"forwarded" : False,
"english" : False
}  , {
"index" : 12,
"articleIndex" : "51968",
"favor" :  False ,
     "read" : False,    
"title" : "\u201C兰陵王\u201D冯绍峰抵台 粉丝挤爆引骚乱",
"titleTip" : "\u201C兰陵王\u201D冯绍峰抵台 粉丝挤爆引骚乱",
"titleSummary" : "\u201C兰陵王\u201D冯绍峰抵台 粉丝挤爆引骚乱",
"descSummary" : "",
"url" : "http:\/\/go.rss.sina.com.cn\/redirect.php?url=http:\/\/slide.ent.sina.com.cn\/tv\/slide_4_704_68369.html",
"pubDate" : "07:59:01",
"enterDate" : "384199:52:35",
"channelId" : "-8941090282289717584",
"channelName" : "电视前沿-焦点新闻",
"channelNameSummary" : "电视前沿-焦点新闻",
"channelUrl" : "http:\/\/ent.sina.com.cn\/tv\/index.shtml",
"author" : "WWW.SINA.COM.CN",
"tags" : [],
"desc" : "",
"emailed" : False,
"forwarded" : False,
"english" : False
}  , {
"index" : 13,
"articleIndex" : "51967",
"favor" :  False ,
     "read" : False,    
"title" : "《邓小平》举行座谈会 唐国强张嘉译出席",
"titleTip" : "《邓小平》举行座谈会 唐国强张嘉译出席",
"titleSummary" : "《邓小平》举行座谈会 唐国强张嘉译出席",
"descSummary" : "",
"url" : "http:\/\/go.rss.sina.com.cn\/redirect.php?url=http:\/\/ent.sina.com.cn\/v\/m\/2013-10-30\/00024033014.shtml",
"pubDate" : "昨天00:02:21",
"enterDate" : "384193:26:10",
"channelId" : "-8941090282289717584",
"channelName" : "电视前沿-焦点新闻",
"channelNameSummary" : "电视前沿-焦点新闻",
"channelUrl" : "http:\/\/ent.sina.com.cn\/tv\/index.shtml",
"author" : "WWW.SINA.COM.CN",
"tags" : [],
"desc" : "",
"emailed" : False,
"forwarded" : False,
"english" : False
}  , {
"index" : 14,
"articleIndex" : "51966",
"favor" :  False ,
     "read" : False,    
"title" : "刘烨调侃加盟达人秀：希望能保持端庄",
"titleTip" : "刘烨调侃加盟达人秀：希望能保持端庄",
"titleSummary" : "刘烨调侃加盟达人秀：希望能保持端庄",
"descSummary" : "",
"url" : "http:\/\/go.rss.sina.com.cn\/redirect.php?url=http:\/\/ent.sina.com.cn\/v\/m\/w\/2013-10-29\/23334033008.shtml",
"pubDate" : "昨天23:33:37",
"enterDate" : "384190:57:06",
"channelId" : "-8941090282289717584",
"channelName" : "电视前沿-焦点新闻",
"channelNameSummary" : "电视前沿-焦点新闻",
"channelUrl" : "http:\/\/ent.sina.com.cn\/tv\/index.shtml",
"author" : "WWW.SINA.COM.CN",
"tags" : [],
"desc" : "",
"emailed" : False,
"forwarded" : False,
"english" : False
}  , {
"index" : 15,
"articleIndex" : "51965",
"favor" :  False ,
     "read" : False,    
"title" : "龙门升级版将杀青 宁财神称剧情改动大",
"titleTip" : "龙门升级版将杀青 宁财神称剧情改动大",
"titleSummary" : "龙门升级版将杀青 宁财神称剧情改动大",
"descSummary" : "",
"url" : "http:\/\/go.rss.sina.com.cn\/redirect.php?url=http:\/\/ent.sina.com.cn\/v\/m\/w\/2013-10-29\/22074032995.shtml",
"pubDate" : "昨天22:07:43",
"enterDate" : "384189:31:12",
"channelId" : "-8941090282289717584",
"channelName" : "电视前沿-焦点新闻",
"channelNameSummary" : "电视前沿-焦点新闻",
"channelUrl" : "http:\/\/ent.sina.com.cn\/tv\/index.shtml",
"author" : "WWW.SINA.COM.CN",
"tags" : [],
"desc" : "",
"emailed" : False,
"forwarded" : False,
"english" : False
}  , {
"index" : 16,
"articleIndex" : "51964",
"favor" :  False ,
     "read" : False,    
"title" : "多卫视放弃跨年推特别节目 湖南浙江待审",
"titleTip" : "多卫视放弃跨年推特别节目 湖南浙江待审",
"titleSummary" : "多卫视放弃跨年推特别节目 湖南浙江待审",
"descSummary" : "",
"url" : "http:\/\/go.rss.sina.com.cn\/redirect.php?url=http:\/\/ent.sina.com.cn\/v\/m\/2013-10-29\/20494032982.shtml",
"pubDate" : "昨天20:49:13",
"enterDate" : "384188:12:42",
"channelId" : "-8941090282289717584",
"channelName" : "电视前沿-焦点新闻",
"channelNameSummary" : "电视前沿-焦点新闻",
"channelUrl" : "http:\/\/ent.sina.com.cn\/tv\/index.shtml",
"author" : "WWW.SINA.COM.CN",
"tags" : [],
"desc" : "",
"emailed" : False,
"forwarded" : False,
"english" : False
}  , {
"index" : 17,
"articleIndex" : "51963",
"favor" :  False ,
     "read" : False,    
"title" : "《咱们结婚吧》高圆圆诠释无死角美女",
"titleTip" : "《咱们结婚吧》高圆圆诠释无死角美女",
"titleSummary" : "《咱们结婚吧》高圆圆诠释无死角美女",
"descSummary" : "",
"url" : "http:\/\/go.rss.sina.com.cn\/redirect.php?url=http:\/\/slide.ent.sina.com.cn\/tv\/slide_4_704_68360.html",
"pubDate" : "昨天18:17:15",
"enterDate" : "384200:43:14",
"channelId" : "-8941090282289717584",
"channelName" : "电视前沿-焦点新闻",
"channelNameSummary" : "电视前沿-焦点新闻",
"channelUrl" : "http:\/\/ent.sina.com.cn\/tv\/index.shtml",
"author" : "WWW.SINA.COM.CN",
"tags" : [],
"desc" : "",
"emailed" : False,
"forwarded" : False,
"english" : False
}  , {
"index" : 18,
"articleIndex" : "51962",
"favor" :  False ,
     "read" : False,    
"title" : "《爸爸去哪儿》提示父亲的时代转型",
"titleTip" : "《爸爸去哪儿》提示父亲的时代转型",
"titleSummary" : "《爸爸去哪儿》提示父亲的时代转型",
"descSummary" : "",
"url" : "http:\/\/go.rss.sina.com.cn\/redirect.php?url=http:\/\/ent.sina.com.cn\/v\/m\/2013-10-29\/17514032942.shtml",
"pubDate" : "昨天17:51:59",
"enterDate" : "384200:17:58",
"channelId" : "-8941090282289717584",
"channelName" : "电视前沿-焦点新闻",
"channelNameSummary" : "电视前沿-焦点新闻",
"channelUrl" : "http:\/\/ent.sina.com.cn\/tv\/index.shtml",
"author" : "WWW.SINA.COM.CN",
"tags" : [],
"desc" : "",
"emailed" : False,
"forwarded" : False,
"english" : False
}  , {
"index" : 19,
"articleIndex" : "51961",
"favor" :  False ,
     "read" : False,    
"title" : "第五季《达人秀》启动 刘烨赵薇加盟",
"titleTip" : "第五季《达人秀》启动 刘烨赵薇加盟",
"titleSummary" : "第五季《达人秀》启动 刘烨赵薇加盟",
"descSummary" : "",
"url" : "http:\/\/go.rss.sina.com.cn\/redirect.php?url=http:\/\/ent.sina.com.cn\/v\/m\/2013-10-29\/17494032940.shtml",
"pubDate" : "昨天17:49:50",
"enterDate" : "384199:15:39",
"channelId" : "-8941090282289717584",
"channelName" : "电视前沿-焦点新闻",
"channelNameSummary" : "电视前沿-焦点新闻",
"channelUrl" : "http:\/\/ent.sina.com.cn\/tv\/index.shtml",
"author" : "WWW.SINA.COM.CN",
"tags" : [],
"desc" : "",
"emailed" : False,
"forwarded" : False,
"english" : False
} ]
}
