{
"mode" : {"viewTitle" : 1,   "viewNew" : 0,  "pageIndex" : 1 },
 "channel" : {"id" : "6806493520829634501", "booked" : False, "subNumber" : 1, "name" : "股票-新浪博客", "url" : "http:\/\/blog.sina.com.cn\/lm\/finance\/", "feed" : "http:\/\/rss.sina.com.cn\/blog\/index\/stocks.xml", "author" : "一杯沧海,丁大卫,付兵涛,凯恩斯,吴国平...", "desc" : "股票博客列表", "imageUrl" : "http:\/\/www.sinaimg.cn\/blog\/main\/index2010\/blog_logo.png", "postPerWeek" : "0", "lastCrawTime" : "2013年10月12日 (2周前)", "crawDateTime" : "2013年10月12日 (2周前)", "lastHttpCode" : "200"}, "page" : {
"startIndex" : 0,
"totalCount" : 5000,
"pageIndex" : 1,
"lastPage" : 250,
"pageSize" : 20,
"english" :  False },
 "unreadNum" : 0, "shotIndex" : -1,
"articles" : [
{
"index" : 0,
"articleIndex" : "125666",
"favor" :  False ,
     "read" : False,    
"title" : "IPO严格把关仍然十分必要",
"titleTip" : "IPO严格把关仍然十分必要",
"titleSummary" : "IPO严格把关仍然十分必要",
"descSummary" : "10月11日，证监会通报了IPO财务专项现场检查工作。证监会表示，本次检查过...",
"url" : "http:\/\/go.rss.sina.com.cn\/redirect.php?url=http:\/\/blog.sina.com.cn\/s\/blog_662e30760101me0i.html",
"pubDate" : "2013年10月12日 (2周前)",
"enterDate" : "384201:01:52",
"channelId" : "6806493520829634501",
"channelName" : "股票-新浪博客",
"channelNameSummary" : "股票-新浪博客",
"channelUrl" : "http:\/\/blog.sina.com.cn\/lm\/finance\/",
"author" : "一杯沧海",
"tags" : [],
"desc" : "10月11日，证监会通报了IPO财务专项现场检查工作。证监会表示，本次检查过程中，共622家企业提交自查报告，268家企业提交终止审查申请，终止审查数量占此前在审IPO企业家数的30.49%。虽然IPO审批制度备受市场诟病，很多学者提出应该推行备案制，证监会也表示未来应实行\u201C宽进严管\u201D，但一杯沧海认为，目前形势下，IPO实行...",
"emailed" : False,
"forwarded" : False,
"english" : False
}  , {
"index" : 1,
"articleIndex" : "125665",
"favor" :  False ,
     "read" : False,    
"title" : "50股业绩与股价悬殊过大",
"titleTip" : "50股业绩与股价悬殊过大",
"titleSummary" : "50股业绩与股价悬殊过大",
"descSummary" : "今年以来，沪深300总体下跌2.16%，下半年上涨12.19%。在三季报预减预亏超...",
"url" : "http:\/\/go.rss.sina.com.cn\/redirect.php?url=http:\/\/blog.sina.com.cn\/s\/blog_53f684830102ebba.html",
"pubDate" : "2013年10月12日 (2周前)",
"enterDate" : "384200:52:41",
"channelId" : "6806493520829634501",
"channelName" : "股票-新浪博客",
"channelNameSummary" : "股票-新浪博客",
"channelUrl" : "http:\/\/blog.sina.com.cn\/lm\/finance\/",
"author" : "黄珏老鹅",
"tags" : [],
"desc" : "今年以来，沪深300总体下跌2.16%，下半年上涨12.19%。在三季报预减预亏超过20%的公司中，有50只个股在今年三个报告期内，业绩连续下滑，且逐级递增，但其年内无一下跌，甚至在下半年的涨幅全部达到了指数的2倍以上。眼下三季报大幕开启，在业绩考核的关键时间段，对于背离过于悬殊的个股需警惕风险。 代码 简...",
"emailed" : False,
"forwarded" : False,
"english" : False
}  , {
"index" : 2,
"articleIndex" : "125664",
"favor" :  False ,
     "read" : False,    
"title" : "创业板上涨到何时",
"titleTip" : "创业板上涨到何时",
"titleSummary" : "创业板上涨到何时",
"descSummary" : "随着创业板的不断新高，关于创业板的泡沫争论也越来越多。越是争论，股民越是不敢...",
"url" : "http:\/\/go.rss.sina.com.cn\/redirect.php?url=http:\/\/blog.sina.com.cn\/s\/blog_4c8a693a0102e61d.html",
"pubDate" : "2013年10月12日 (2周前)",
"enterDate" : "384200:10:53",
"channelId" : "6806493520829634501",
"channelName" : "股票-新浪博客",
"channelNameSummary" : "股票-新浪博客",
"channelUrl" : "http:\/\/blog.sina.com.cn\/lm\/finance\/",
"author" : "凯恩斯",
"tags" : [],
"desc" : "随着创业板的不断新高，关于创业板的泡沫争论也越来越多。越是争论，股民越是不敢持股。股民越不敢持股，创业板涨的越好。我不知道这些唱......&gt;&gt;点击查看新浪博客原文青春就应该这样绽放游戏测试：三国时期谁是你最好的兄弟！！你不得不信的星座秘密",
"emailed" : False,
"forwarded" : False,
"english" : False
}  , {
"index" : 3,
"articleIndex" : "125663",
"favor" :  False ,
     "read" : False,    
"title" : "下周将是大赔大赚 重仓者不会很轻松",
"titleTip" : "下周将是大赔大赚 重仓者不会很轻松",
"titleSummary" : "下周将是大赔大赚 重仓者不会很轻松",
"descSummary" : "下周将是大赔大赚，重仓者不会很轻松！周六没事，偶尔翻翻手边的...",
"url" : "http:\/\/go.rss.sina.com.cn\/redirect.php?url=http:\/\/blog.sina.com.cn\/s\/blog_4c49f8fa0102ehs3.html",
"pubDate" : "2013年10月12日 (2周前)",
"enterDate" : "384200:35:07",
"channelId" : "6806493520829634501",
"channelName" : "股票-新浪博客",
"channelNameSummary" : "股票-新浪博客",
"channelUrl" : "http:\/\/blog.sina.com.cn\/lm\/finance\/",
"author" : "揭幕者",
"tags" : [],
"desc" : "下周将是大赔大赚，重仓者不会很轻松！ 周六没事，偶尔翻翻手边的旧书，重温了《股票作手回忆录》里的精彩片段，大家如果有兴趣看看这本书，你就能感受到杰西?利弗莫尔绝对是抓大牛股的高手中的高手，但斗牛士最终死在牛角之上。当前的行情我看就和斗牛十分的相似，天天有几十个涨停板出现，并且还有很多是连续涨停。让无...",
"emailed" : False,
"forwarded" : False,
"english" : False
}  , {
"index" : 4,
"articleIndex" : "125662",
"favor" :  False ,
     "read" : False,    
"title" : "技术分析为什么下周2270点很重要",
"titleTip" : "技术分析为什么下周2270点很重要",
"titleSummary" : "技术分析为什么下周2270点很重要",
"descSummary" : "上周我在《大盘处于长期压力和中期支撑区域中》一文中画的图，主要...",
"url" : "http:\/\/go.rss.sina.com.cn\/redirect.php?url=http:\/\/blog.sina.com.cn\/s\/blog_4debf6a60102ep9j.html",
"pubDate" : "2013年10月12日 (2周前)",
"enterDate" : "384200:28:50",
"channelId" : "6806493520829634501",
"channelName" : "股票-新浪博客",
"channelNameSummary" : "股票-新浪博客",
"channelUrl" : "http:\/\/blog.sina.com.cn\/lm\/finance\/",
"author" : "丁大卫",
"tags" : [],
"desc" : "上周我在《大盘处于长期压力和中期支撑区域中》一文中画的图，主要是针对大盘中长期走势而言的。具体来说，长期压力线就是指，从今年2月18日的2444点连接今年5月29日的2334点，这根连线就是大盘的长期压力位。上月一度突破，但不是有效突破，后来又在这条线附近反复确认，直到上周五，才再次突破，由于这条线是每天3点的速率...",
"emailed" : False,
"forwarded" : False,
"english" : False
}  , {
"index" : 5,
"articleIndex" : "125661",
"favor" :  False ,
     "read" : False,    
"title" : "中长期向上的趋势还没有改变",
"titleTip" : "中长期向上的趋势还没有改变",
"titleSummary" : "中长期向上的趋势还没有改变",
"descSummary" : "从资金情况看，2013年6月25日这天是各路机构的资金净流出累计值为-0.3...",
"url" : "http:\/\/go.rss.sina.com.cn\/redirect.php?url=http:\/\/blog.sina.com.cn\/s\/blog_50790c2c0102enpf.html",
"pubDate" : "2013年10月12日 (2周前)",
"enterDate" : "384200:20:09",
"channelId" : "6806493520829634501",
"channelName" : "股票-新浪博客",
"channelNameSummary" : "股票-新浪博客",
"channelUrl" : "http:\/\/blog.sina.com.cn\/lm\/finance\/",
"author" : "音乐老大",
"tags" : [],
"desc" : "从资金情况看，2013年6月25日这天是各路机构的资金净流出累计值为-0.311，(当时也是内地市场近几年的最低位置1849.65点)从2010年到2013年6月25日之前，各路机构的资金净流出累计值均为-0.13左右，如果各路机构的资金净流出累计值为-0.311话，说明各路机构资金净流出已经超出了正常的净流出，也就是说该离场的各路机构资金已...",
"emailed" : False,
"forwarded" : False,
"english" : False
}  , {
"index" : 6,
"articleIndex" : "125660",
"favor" :  False ,
     "read" : False,    
"title" : "这里再度启动的可能性有多大",
"titleTip" : "这里再度启动的可能性有多大",
"titleSummary" : "这里再度启动的可能性有多大",
"descSummary" : "节后首周四个交易日，三阳一阴，周线以一根上涨2.46%光头中阳重返220...",
"url" : "http:\/\/go.rss.sina.com.cn\/redirect.php?url=http:\/\/blog.sina.com.cn\/s\/blog_506d52650102e5hh.html",
"pubDate" : "2013年10月12日 (2周前)",
"enterDate" : "384200:14:32",
"channelId" : "6806493520829634501",
"channelName" : "股票-新浪博客",
"channelNameSummary" : "股票-新浪博客",
"channelUrl" : "http:\/\/blog.sina.com.cn\/lm\/finance\/",
"author" : "李正金",
"tags" : [],
"desc" : "节后首周四个交易日，三阳一阴，周线以一根上涨2.46%光头中阳重返2200上方。下周股市如何演绎，市场能否续写新高，我们还是从多角度...",
"emailed" : False,
"forwarded" : False,
"english" : False
}  , {
"index" : 7,
"articleIndex" : "125659",
"favor" :  False ,
     "read" : False,    
"title" : "长安B是如何一飞冲天的",
"titleTip" : "长安B是如何一飞冲天的",
"titleSummary" : "长安B是如何一飞冲天的",
"descSummary" : "很多时候，有些股票的上涨，看似是事件驱动的，其背后可能是质变。比如长安B...",
"url" : "http:\/\/go.rss.sina.com.cn\/redirect.php?url=http:\/\/blog.sina.com.cn\/s\/blog_62d66b010102e4jv.html",
"pubDate" : "2013年10月12日 (2周前)",
"enterDate" : "384199:15:37",
"channelId" : "6806493520829634501",
"channelName" : "股票-新浪博客",
"channelNameSummary" : "股票-新浪博客",
"channelUrl" : "http:\/\/blog.sina.com.cn\/lm\/finance\/",
"author" : "理想便宜卖",
"tags" : [],
"desc" : "很多时候，有些股票的上涨，看似是事件驱动的，其背后可能是质变。 比如长安B的回购事件。 最初讨论时，很多人质疑，说08年搞过，最终只回购了几千万港币糊弄事，这次怎么样？ 结果从不到3港币到现在14块港币。。。。 最终原因就是福克斯大卖。 是什么原因导致了福克斯大卖？仅仅是因为中国汽车市场的水多了，导致，福克斯这...",
"emailed" : False,
"forwarded" : False,
"english" : False
}  , {
"index" : 8,
"articleIndex" : "125658",
"favor" :  False ,
     "read" : False,    
"title" : "苏泊尔零元送期权公然抢劫",
"titleTip" : "苏泊尔零元送期权公然抢劫",
"titleSummary" : "苏泊尔零元送期权公然抢劫",
"descSummary" : "2013年10月11日，苏泊尔发布\u201C限制性股票激励计划\u201D，以0元价格授予580...",
"url" : "http:\/\/go.rss.sina.com.cn\/redirect.php?url=http:\/\/blog.sina.com.cn\/s\/blog_6e28d5980101fvx7.html",
"pubDate" : "2013年10月12日 (2周前)",
"enterDate" : "384199:02:58",
"channelId" : "6806493520829634501",
"channelName" : "股票-新浪博客",
"channelNameSummary" : "股票-新浪博客",
"channelUrl" : "http:\/\/blog.sina.com.cn\/lm\/finance\/",
"author" : "黄建平",
"tags" : [],
"desc" : "2013年10月11日，苏泊尔发布\u201C限制性股票激励计划\u201D，以0元价格授予580万股限制性股票给苏显泽为首的管理层。 \u201C限制性股票的业绩考核要求为： A、公司对激励对象设置公司业绩考核期，考核期自2013年起至2016年止；考核期内，公司每个考核年度的净资产收益率不低于13 %； B、考核期内，根据每个考核年度的内销收入及内销...",
"emailed" : False,
"forwarded" : False,
"english" : False
}  , {
"index" : 9,
"articleIndex" : "125657",
"favor" :  False ,
     "read" : False,    
"title" : "一旦突破5350点中小板潜力大",
"titleTip" : "一旦突破5350点中小板潜力大",
"titleSummary" : "一旦突破5350点中小板潜力大",
"descSummary" : "金谷观察1012 一旦突破5350中小板潜力大 金谷明 节前，大盘处于短期调...",
"url" : "http:\/\/go.rss.sina.com.cn\/redirect.php?url=http:\/\/blog.sina.com.cn\/s\/blog_48d59ae30102erre.html",
"pubDate" : "2013年10月12日 (2周前)",
"enterDate" : "384198:36:31",
"channelId" : "6806493520829634501",
"channelName" : "股票-新浪博客",
"channelNameSummary" : "股票-新浪博客",
"channelUrl" : "http:\/\/blog.sina.com.cn\/lm\/finance\/",
"author" : "金谷明",
"tags" : [],
"desc" : "金谷观察1012 一旦突破5350中小板潜力大 金谷明 节前，大盘处于短期调整当中，中期则仍然属于升势，行情处于十字路口??短期的调整压力挑战中期的上行方向。节后，本周4个交易日大盘走出了短期回调格局恢复上行，中期趋势战胜了短期调整，大盘重上年线重上2200点之上，多头格局延续。可贵之处在于，节后大盘是顶...",
"emailed" : False,
"forwarded" : False,
"english" : False
}  , {
"index" : 10,
"articleIndex" : "125656",
"favor" :  False ,
     "read" : False,    
"title" : "回避传媒股 关注海南及资源",
"titleTip" : "回避传媒股 关注海南及资源",
"titleSummary" : "回避传媒股 关注海南及资源",
"descSummary" : "回避传媒股 关注海南及资源 吴国平 [不论哪个阶段，我们都要清楚，股指早...",
"url" : "http:\/\/go.rss.sina.com.cn\/redirect.php?url=http:\/\/blog.sina.com.cn\/s\/blog_45a5f7760102ecba.html",
"pubDate" : "2013年10月12日 (2周前)",
"enterDate" : "384198:19:51",
"channelId" : "6806493520829634501",
"channelName" : "股票-新浪博客",
"channelNameSummary" : "股票-新浪博客",
"channelUrl" : "http:\/\/blog.sina.com.cn\/lm\/finance\/",
"author" : "吴国平",
"tags" : [],
"desc" : "回避传媒股 关注海南及资源 吴国平 [不论哪个阶段，我们都要清楚，股指早就已经摆脱60日均线压制，趋势行情已经展开，按照我的理解，随时突破上去是可以的，但反复震荡下也是健康的，此刻，最重要的是抓好个股机会，说白了，就是轻大盘重个股] 国庆后第一周的市场波动，验证了节前对市场的研判，尤其是土改主题，成...",
"emailed" : False,
"forwarded" : False,
"english" : False
}  , {
"index" : 11,
"articleIndex" : "125655",
"favor" :  False ,
     "read" : False,    
"title" : "火上浇油 深挖上海资产整合概念",
"titleTip" : "火上浇油 深挖上海资产整合概念",
"titleSummary" : "火上浇油 深挖上海资产整合概念",
"descSummary" : "昨日上海国资改革和自贸区金改细则的利好刺激上海本地股集中爆发，沪...",
"url" : "http:\/\/go.rss.sina.com.cn\/redirect.php?url=http:\/\/blog.sina.com.cn\/s\/blog_a38947380101a45d.html",
"pubDate" : "2013年10月12日 (2周前)",
"enterDate" : "384197:55:02",
"channelId" : "6806493520829634501",
"channelName" : "股票-新浪博客",
"channelNameSummary" : "股票-新浪博客",
"channelUrl" : "http:\/\/blog.sina.com.cn\/lm\/finance\/",
"author" : "概念爱好者",
"tags" : [],
"desc" : "昨日上海国资改革和自贸区金改细则的利好刺激上海本地股集中爆发，沪指上涨1.7%，徐家汇、上海九百、陆家嘴、新世界、东方创业等多股涨停，上海自贸区概念已被炒作多时，我们来盘点一下上海国资改革概念的投资策略和个股情况。 上海国资国企改革3.0版方案曝光 据上海证券报求证，国资改革方案已提至上海市政府，市政府拟...",
"emailed" : False,
"forwarded" : False,
"english" : False
}  , {
"index" : 12,
"articleIndex" : "125654",
"favor" :  False ,
     "read" : False,    
"title" : "下周两种可能的走势",
"titleTip" : "下周两种可能的走势",
"titleSummary" : "下周两种可能的走势",
"descSummary" : "节前大盘周线是缩量小阳，10月3日认为《节后一周有望大力度变盘》，其中说\u201C节...",
"url" : "http:\/\/go.rss.sina.com.cn\/redirect.php?url=http:\/\/blog.sina.com.cn\/s\/blog_476507aa0101hn58.html",
"pubDate" : "2013年10月12日 (2周前)",
"enterDate" : "384196:54:24",
"channelId" : "6806493520829634501",
"channelName" : "股票-新浪博客",
"channelNameSummary" : "股票-新浪博客",
"channelUrl" : "http:\/\/blog.sina.com.cn\/lm\/finance\/",
"author" : "道易简",
"tags" : [],
"desc" : "节前大盘周线是缩量小阳，10月3日认为《节后一周有望大力度变盘》，其中说\u201C节后第一周向上有望突破2210点，调整结束。\u201D 本周大盘没有向下继续挖坑，而是向上突破，收盘2228点，超过说的2210点，这样按原来的假设，大盘调整结束，既然调整结束，接下来多是振荡上涨为主，短期有望突破前高点2270点左右。 本周是涨幅2....",
"emailed" : False,
"forwarded" : False,
"english" : False
}  , {
"index" : 13,
"articleIndex" : "125653",
"favor" :  False ,
     "read" : False,    
"title" : "三中全会相关题材汇总及个股机会分析",
"titleTip" : "三中全会相关题材汇总及个股机会分析",
"titleSummary" : "三中全会相关题材汇总及个股机会分析",
"descSummary" : "本周大家议论最多的莫过于三中全会预期所带来的各类个股机会，...",
"url" : "http:\/\/go.rss.sina.com.cn\/redirect.php?url=http:\/\/blog.sina.com.cn\/s\/blog_4dcf4f020102ekjs.html",
"pubDate" : "2013年10月12日 (2周前)",
"enterDate" : "384196:45:44",
"channelId" : "6806493520829634501",
"channelName" : "股票-新浪博客",
"channelNameSummary" : "股票-新浪博客",
"channelUrl" : "http:\/\/blog.sina.com.cn\/lm\/finance\/",
"author" : "赢在龙头",
"tags" : [],
"desc" : "本周大家议论最多的莫过于三中全会预期所带来的各类个股机会，确实是这样，涨停潮频频出现令朋友们羡慕不已，而接下来政策导向股依然是下周的香饽饽，我们不妨汇总分析下十八届三中全议题及分析其中个股机会。 改革是十八届三中全会主议题，无可非议也是本轮行情的主要推动力量，大家从上海自贸区的炒作中也可感知改革的力...",
"emailed" : False,
"forwarded" : False,
"english" : False
}  , {
"index" : 14,
"articleIndex" : "125652",
"favor" :  False ,
     "read" : False,    
"title" : "真正的牛市不是概念炒作",
"titleTip" : "真正的牛市不是概念炒作",
"titleSummary" : "真正的牛市不是概念炒作",
"descSummary" : "大盘自6月25号见底1849点以来，至今涨到2228点，上涨了379点，涨幅达到20...",
"url" : "http:\/\/go.rss.sina.com.cn\/redirect.php?url=http:\/\/blog.sina.com.cn\/s\/blog_49548d340102ejpd.html",
"pubDate" : "2013年10月12日 (2周前)",
"enterDate" : "384196:37:17",
"channelId" : "6806493520829634501",
"channelName" : "股票-新浪博客",
"channelNameSummary" : "股票-新浪博客",
"channelUrl" : "http:\/\/blog.sina.com.cn\/lm\/finance\/",
"author" : "黄家茶社",
"tags" : [],
"desc" : "大盘自6月25号见底1849点以来，至今涨到2228点，上涨了379点，涨幅达到20%，你说现在的股市是不是牛市？我说这不是牛市，而是一种牛市到来的迷茫市。在此阶段没有形成固定的投资理念，不讲价值，只讲概念，属于一种典型的概念炒作。市场虽然表现活跃，但却很难获得实在的收益，大部分投资者只能是雾里看花，白跟着忙活。真...",
"emailed" : False,
"forwarded" : False,
"english" : False
}  , {
"index" : 15,
"articleIndex" : "125651",
"favor" :  False ,
     "read" : False,    
"title" : "机构投资者赢利模式发生重大改变",
"titleTip" : "机构投资者赢利模式发生重大改变",
"titleSummary" : "机构投资者赢利模式发生重大改变",
"descSummary" : "机构投资者赢利模式发生重大改变 声明：本文归玉名博客所有，各位...",
"url" : "http:\/\/go.rss.sina.com.cn\/redirect.php?url=http:\/\/blog.sina.com.cn\/s\/blog_557f024c0102e4a9.html",
"pubDate" : "2013年10月12日 (2周前)",
"enterDate" : "384196:10:35",
"channelId" : "6806493520829634501",
"channelName" : "股票-新浪博客",
"channelNameSummary" : "股票-新浪博客",
"channelUrl" : "http:\/\/blog.sina.com.cn\/lm\/finance\/",
"author" : "玉名",
"tags" : [],
"desc" : "机构投资者赢利模式发生重大改变 声明：本文归玉名博客所有，各位如果要是转载，请注明出处和相关链接，转载于本博客，感谢各位的支持 近期股民在热点方面有很多困惑，感觉创业板要调整了，但偏偏就大涨了，刚要追又跌下来了；同样主板也是类似的情况，总感觉一些大盘股没有机会，但却突然大涨了，这是为何呢？其实是源...",
"emailed" : False,
"forwarded" : False,
"english" : False
}  , {
"index" : 16,
"articleIndex" : "125650",
"favor" :  False ,
     "read" : False,    
"title" : "中期看到2700点附近",
"titleTip" : "中期看到2700点附近",
"titleSummary" : "中期看到2700点附近",
"descSummary" : "如国庆节之前预期一样，本周大盘指数上涨，幅度达到了2.46%，并且近期行情表现...",
"url" : "http:\/\/go.rss.sina.com.cn\/redirect.php?url=http:\/\/blog.sina.com.cn\/s\/blog_532f3c410102e9fr.html",
"pubDate" : "2013年10月12日 (2周前)",
"enterDate" : "384189:43:08",
"channelId" : "6806493520829634501",
"channelName" : "股票-新浪博客",
"channelNameSummary" : "股票-新浪博客",
"channelUrl" : "http:\/\/blog.sina.com.cn\/lm\/finance\/",
"author" : "王海专",
"tags" : [],
"desc" : "如国庆节之前预期一样，本周大盘指数上涨，幅度达到了2.46%，并且近期行情表现出现牛市特征明显，每日两市涨停板的数量多能在50只以上，市场赚钱效应较为明显，投资者理应继续看多做多。在今年的行情特征中，分化严重程度较往年都要大，主题较为突破，如果作对板块和行业受益会非常的好，如果没有作对板块和个股感觉今年的...",
"emailed" : False,
"forwarded" : False,
"english" : False
}  , {
"index" : 17,
"articleIndex" : "125649",
"favor" :  False ,
     "read" : False,    
"title" : "大话创业板风险",
"titleTip" : "大话创业板风险",
"titleSummary" : "大话创业板风险",
"descSummary" : "创业板的事，说多了 坏人家原始股东发财好事?惹人恨 耽误散户到创业板上发财?惹人怨...",
"url" : "http:\/\/go.rss.sina.com.cn\/redirect.php?url=http:\/\/blog.sina.com.cn\/s\/blog_4c480f870101rorv.html",
"pubDate" : "2013年10月11日 (2周前)",
"enterDate" : "384187:20:00",
"channelId" : "6806493520829634501",
"channelName" : "股票-新浪博客",
"channelNameSummary" : "股票-新浪博客",
"channelUrl" : "http:\/\/blog.sina.com.cn\/lm\/finance\/",
"author" : "小赢妇",
"tags" : [],
"desc" : "创业板的事，说多了 坏人家原始股东发财好事??惹人恨 耽误散户到创业板上发财??惹人怨 两头不落好，驴肝肺感觉没趣不再发言 关于创业板原始股东该不该发横财，那是证监会和税务总局该考虑的事；它是不是\u201C近代最恶劣样板\u201D，那也只能靠刘纪鹏等进宫谏言，全与吾辈无关。 今天，小妇人只想聊聊创业板股价目前可能给股...",
"emailed" : False,
"forwarded" : False,
"english" : False
}  , {
"index" : 18,
"articleIndex" : "125648",
"favor" :  False ,
     "read" : False,    
"title" : "那些擦肩而过的公司",
"titleTip" : "那些擦肩而过的公司",
"titleSummary" : "那些擦肩而过的公司",
"descSummary" : "\u201C今夜八零后\u201D里有个笑话，要求用一句话把老大老二老三老四老五都用上，答案很...",
"url" : "http:\/\/go.rss.sina.com.cn\/redirect.php?url=http:\/\/blog.sina.com.cn\/s\/blog_493f30c50101i12f.html",
"pubDate" : "2013年10月11日 (2周前)",
"enterDate" : "384186:41:09",
"channelId" : "6806493520829634501",
"channelName" : "股票-新浪博客",
"channelNameSummary" : "股票-新浪博客",
"channelUrl" : "http:\/\/blog.sina.com.cn\/lm\/finance\/",
"author" : "老姜",
"tags" : [],
"desc" : "\u201C今夜八零后\u201D里有个笑话，要求用一句话把老大老二老三老四老五都用上，答案很搞，在后面。 一年多以来，仔细看过好几家公司，有的还看了好几个月，甚至一年多近两年，可最终都放弃了，按老大老二这样数一数也挺有意思。 第一家是世联地产，上市不久买过，盈利还好。又仔细看了公司的主营，轻资产嘛，赚钱方便，公司...",
"emailed" : False,
"forwarded" : False,
"english" : False
}  , {
"index" : 19,
"articleIndex" : "125647",
"favor" :  False ,
     "read" : False,    
"title" : "关于民营银行热的冷思考",
"titleTip" : "关于民营银行热的冷思考",
"titleSummary" : "关于民营银行热的冷思考",
"descSummary" : "面对民营企业申办银行的热潮，我们第一个要思考的问题，显然是他们为什么要...",
"url" : "http:\/\/go.rss.sina.com.cn\/redirect.php?url=http:\/\/blog.sina.com.cn\/s\/blog_591a68ad0101fq8p.html",
"pubDate" : "2013年10月11日 (2周前)",
"enterDate" : "384185:31:56",
"channelId" : "6806493520829634501",
"channelName" : "股票-新浪博客",
"channelNameSummary" : "股票-新浪博客",
"channelUrl" : "http:\/\/blog.sina.com.cn\/lm\/finance\/",
"author" : "付兵涛",
"tags" : [],
"desc" : "面对民营企业申办银行的热潮，我们第一个要思考的问题，显然是他们为什么要办银行？如果去问这些提出申请的企业，他们的理由可能会有很多，但归根到底无非司马迁的那句话：天下熙熙皆为利来。过去这五六年，得益于宏观经济的快速发展，以及稳定的存贷利差，银行业利润在各行业中可谓一马当先。特别是从2011年开始，实体经济...",
"emailed" : False,
"forwarded" : False,
"english" : False
} ]
}
