{
"mode" : {"viewTitle" : 1,   "viewNew" : 0,  "pageIndex" : 2 },
 "channel" : {"id" : "6806493520829634501", "booked" : False, "subNumber" : 1, "name" : "股票-新浪博客", "url" : "http:\/\/blog.sina.com.cn\/lm\/finance\/", "feed" : "http:\/\/rss.sina.com.cn\/blog\/index\/stocks.xml", "author" : "一杯沧海,丁大卫,付兵涛,凯恩斯,吴国平...", "desc" : "股票博客列表", "imageUrl" : "http:\/\/www.sinaimg.cn\/blog\/main\/index2010\/blog_logo.png", "postPerWeek" : "0", "lastCrawTime" : "2013年10月12日 (2周前)", "crawDateTime" : "2013年10月12日 (2周前)", "lastHttpCode" : "200"}, "page" : {
"startIndex" : 20,
"totalCount" : 5000,
"pageIndex" : 2,
"lastPage" : 250,
"pageSize" : 20,
"english" :  False },
 "unreadNum" : 0, "shotIndex" : -1,
"articles" : [
{
"index" : 0,
"articleIndex" : "125646",
"favor" :  False ,
     "read" : False,    
"title" : "自贸区热点蔓延 阳包阴挑战前高",
"titleTip" : "自贸区热点蔓延 阳包阴挑战前高",
"titleSummary" : "自贸区热点蔓延 阳包阴挑战前高",
"descSummary" : "自贸区热点蔓延 阳包阴挑战前高玖福投资组合 一则上海自贸区开建\u201C国...",
"url" : "http:\/\/go.rss.sina.com.cn\/redirect.php?url=http:\/\/blog.sina.com.cn\/s\/blog_4bea3e400102e7fg.html",
"pubDate" : "2013年10月11日 (2周前)",
"enterDate" : "384183:15:43",
"channelId" : "6806493520829634501",
"channelName" : "股票-新浪博客",
"channelNameSummary" : "股票-新浪博客",
"channelUrl" : "http:\/\/blog.sina.com.cn\/lm\/finance\/",
"author" : "陈玖福",
"tags" : [],
"desc" : "自贸区热点蔓延 阳包阴挑战前高玖福投资组合 一则上海自贸区开建\u201C国际板\u201D的传闻引发周四大跌，尽管管理层及时澄清，但市场依旧将信将疑，由于A股多次闻国际板色变，市场均以大跌表现，国际板的阴影一直笼罩在A股头上，市场依然以下跌报收。一根中阴线将周三阳线全部吞噬，形成阴包阳看跌走势。但是，我通过对基本面和趋...",
"emailed" : False,
"forwarded" : False,
"english" : False
}  , {
"index" : 1,
"articleIndex" : "125645",
"favor" :  False ,
     "read" : False,    
"title" : "创业板经过调整还能恢复上涨",
"titleTip" : "创业板经过调整还能恢复上涨",
"titleSummary" : "创业板经过调整还能恢复上涨",
"descSummary" : "创业板经过调整还能恢复上涨 周线收阳，十月周线开门红！上证指数周四...",
"url" : "http:\/\/go.rss.sina.com.cn\/redirect.php?url=http:\/\/blog.sina.com.cn\/s\/blog_550b61170101nyw0.html",
"pubDate" : "2013年10月11日 (2周前)",
"enterDate" : "384181:54:16",
"channelId" : "6806493520829634501",
"channelName" : "股票-新浪博客",
"channelNameSummary" : "股票-新浪博客",
"channelUrl" : "http:\/\/blog.sina.com.cn\/lm\/finance\/",
"author" : "刘东声",
"tags" : [],
"desc" : "创业板经过调整还能恢复上涨 周线收阳，十月周线开门红！ 上证指数周四的阴霾今天又不见了，行情要是一天一天的琢磨，非得神经病不可。所以，刘子股斋常说，不以涨跌盈亏而悲喜；常说，眼离市场要近，心离市场要远。 目前看上证指数，可以理解为1849点以来的上涨趋势仍在持续。这是一个好的背景，至于它是什么性质，暂时不...",
"emailed" : False,
"forwarded" : False,
"english" : False
}  , {
"index" : 2,
"articleIndex" : "125644",
"favor" :  False ,
     "read" : False,    
"title" : "指标修复 上攻仍需量配合",
"titleTip" : "指标修复 上攻仍需量配合",
"titleSummary" : "指标修复 上攻仍需量配合",
"descSummary" : "银行股的崛起是午后大盘维持强势的关键，虽然资金流入幅度相对不大，但一涨...",
"url" : "http:\/\/go.rss.sina.com.cn\/redirect.php?url=http:\/\/blog.sina.com.cn\/s\/blog_4c2eadcd0102e4ws.html",
"pubDate" : "2013年10月11日 (2周前)",
"enterDate" : "384181:49:23",
"channelId" : "6806493520829634501",
"channelName" : "股票-新浪博客",
"channelNameSummary" : "股票-新浪博客",
"channelUrl" : "http:\/\/blog.sina.com.cn\/lm\/finance\/",
"author" : "展锋",
"tags" : [],
"desc" : "银行股的崛起是午后大盘维持强势的关键，虽然资金流入幅度相对不大，但一涨遮百丑的架势还是挺明显的。截至收盘，沪市资金净流入42.28亿，深市资金净流出51.75亿，资金在两个市场中出现的分歧还是比较大的，这位后市统一思想带来了极大的难度。经过今天这么一涨，大盘的各项指标又都开始趋好，但如果没有隔夜外围大涨的消息...",
"emailed" : False,
"forwarded" : False,
"english" : False
}  , {
"index" : 3,
"articleIndex" : "125643",
"favor" :  False ,
     "read" : False,    
"title" : "如何看待周四的高开中阴",
"titleTip" : "如何看待周四的高开中阴",
"titleSummary" : "如何看待周四的高开中阴",
"descSummary" : "今天大盘高开后振荡下探，午前出现盘中的小幅跳水，下午探低反弹，冲高回落...",
"url" : "http:\/\/go.rss.sina.com.cn\/redirect.php?url=http:\/\/blog.sina.com.cn\/s\/blog_4c3030840102eona.html",
"pubDate" : "2013年10月10日 (2周前)",
"enterDate" : "384201:05:39",
"channelId" : "6806493520829634501",
"channelName" : "股票-新浪博客",
"channelNameSummary" : "股票-新浪博客",
"channelUrl" : "http:\/\/blog.sina.com.cn\/lm\/finance\/",
"author" : "股民大张",
"tags" : [],
"desc" : "今天大盘高开后振荡下探，午前出现盘中的小幅跳水，下午探低反弹，冲高回落振荡收出高开中阴，如何看待呢？ 今天大盘出现调整的原因主要有如下二点： A、消息面上关于国际板的传闻使得原来预计的在时间节点的冲高回落的走势演变为盘中跳水； B、昨天已经讲过创业板的风险，昨天讲到的二点今天盘面已经出现，尤其是前...",
"emailed" : False,
"forwarded" : False,
"english" : False
}  , {
"index" : 4,
"articleIndex" : "125642",
"favor" :  False ,
     "read" : False,    
"title" : "调整提示将热点转换",
"titleTip" : "调整提示将热点转换",
"titleSummary" : "调整提示将热点转换",
"descSummary" : "中国股市的自己特色越来越明显，昨天晚上奥巴马宣布提名耶伦为下一任美联储主席...",
"url" : "http:\/\/go.rss.sina.com.cn\/redirect.php?url=http:\/\/blog.sina.com.cn\/s\/blog_4a4e16fb0102e8u9.html",
"pubDate" : "2013年10月10日 (2周前)",
"enterDate" : "384201:05:29",
"channelId" : "6806493520829634501",
"channelName" : "股票-新浪博客",
"channelNameSummary" : "股票-新浪博客",
"channelUrl" : "http:\/\/blog.sina.com.cn\/lm\/finance\/",
"author" : "老倪先生",
"tags" : [],
"desc" : "中国股市的自己特色越来越明显，昨天晚上奥巴马宣布提名耶伦为下一任美联储主席，由于耶伦是量化宽松的支持者，美国股市昨晚大幅反弹，在之前的美国股市连续下跌的时候，中国股市是连续上涨，拉出四连阳，却在外围反弹之后，意外的杀跌，凸显中国特色。 从中长期看，美国的量化宽松还有较长的路要走，增量货币资金必将推...",
"emailed" : False,
"forwarded" : False,
"english" : False
}  , {
"index" : 5,
"articleIndex" : "125641",
"favor" :  False ,
     "read" : False,    
"title" : "创业板10月有望见顶",
"titleTip" : "创业板10月有望见顶",
"titleSummary" : "创业板10月有望见顶",
"descSummary" : "记得9月博主曾经引用了2007年预测上证指数6300多点的例子，来说明四维太玄测量...",
"url" : "http:\/\/go.rss.sina.com.cn\/redirect.php?url=http:\/\/blog.sina.com.cn\/s\/blog_80c18d0d0101kto8.html",
"pubDate" : "2013年10月10日 (2周前)",
"enterDate" : "384201:03:16",
"channelId" : "6806493520829634501",
"channelName" : "股票-新浪博客",
"channelNameSummary" : "股票-新浪博客",
"channelUrl" : "http:\/\/blog.sina.com.cn\/lm\/finance\/",
"author" : "犀首猎庄",
"tags" : [],
"desc" : "记得9月博主曾经引用了2007年预测上证指数6300多点的例子，来说明四维太玄测量顶部空间的区域问题，现在的创业板就是在这样的预测之中。 上图为上证指数月线图，10月将迎来创业板指数最为重要的月份。 上图为创业板空间轮中轮，此轮上行，创业板空间位置已经进入尾声。 明日操作建议：就市场而言，博主近期一直...",
"emailed" : False,
"forwarded" : False,
"english" : False
}  , {
"index" : 6,
"articleIndex" : "125640",
"favor" :  False ,
     "read" : False,    
"title" : "创业板为何鹤立鸡群",
"titleTip" : "创业板为何鹤立鸡群",
"titleSummary" : "创业板为何鹤立鸡群",
"descSummary" : "现在的股市是一边是海水，一边是火焰：创业板指数沾上了1400点，而沪指仍然在...",
"url" : "http:\/\/go.rss.sina.com.cn\/redirect.php?url=http:\/\/blog.sina.com.cn\/s\/blog_4c8a693a0102e60f.html",
"pubDate" : "2013年10月10日 (2周前)",
"enterDate" : "384200:54:09",
"channelId" : "6806493520829634501",
"channelName" : "股票-新浪博客",
"channelNameSummary" : "股票-新浪博客",
"channelUrl" : "http:\/\/blog.sina.com.cn\/lm\/finance\/",
"author" : "凯恩斯",
"tags" : [],
"desc" : "现在的股市是一边是海水，一边是火焰：创业板指数沾上了1400点，而沪指仍然在2200点附近像孤魂野鬼一样游荡。沪市已强周期股票居多，仍然在经历经济......&gt;&gt;点击查看新浪博客原文青春就应该这样绽放游戏测试：三国时期谁是你最好的兄弟！！你不得不信的星座秘密",
"emailed" : False,
"forwarded" : False,
"english" : False
}  , {
"index" : 7,
"articleIndex" : "125639",
"favor" :  False ,
     "read" : False,    
"title" : "这个调整的走势应该积极对待",
"titleTip" : "这个调整的走势应该积极对待",
"titleSummary" : "这个调整的走势应该积极对待",
"descSummary" : "午秀里对于早盘的走势还是认为会有一个围绕2195点的整理走势，但因为...",
"url" : "http:\/\/go.rss.sina.com.cn\/redirect.php?url=http:\/\/blog.sina.com.cn\/s\/blog_49adef7f0102e96b.html",
"pubDate" : "2013年10月10日 (2周前)",
"enterDate" : "384200:52:25",
"channelId" : "6806493520829634501",
"channelName" : "股票-新浪博客",
"channelNameSummary" : "股票-新浪博客",
"channelUrl" : "http:\/\/blog.sina.com.cn\/lm\/finance\/",
"author" : "空空道人",
"tags" : [],
"desc" : "午秀里对于早盘的走势还是认为会有一个围绕2195点的整理走势，但因为前面的跳水，是否有机会就要至少等到2:15看看方向才行，从午后的走势来看基本是这样的，但最后还是没有起来，那也就是等待了。 看看上面的图，主要是箭头处的阴线太大，使得后面的整理多少带有一点力不从心的感觉，所以，尾市再度下来也不是多么意外的...",
"emailed" : False,
"forwarded" : False,
"english" : False
}  , {
"index" : 8,
"articleIndex" : "125638",
"favor" :  False ,
     "read" : False,    
"title" : "大盘异动勇买两类股",
"titleTip" : "大盘异动勇买两类股",
"titleSummary" : "大盘异动勇买两类股",
"descSummary" : "大盘异动勇买两类赚钱股 其实,节后这几天的A股行情,投资者可以看到,沪深两地股指...",
"url" : "http:\/\/go.rss.sina.com.cn\/redirect.php?url=http:\/\/blog.sina.com.cn\/s\/blog_48874cec0102ec9a.html",
"pubDate" : "2013年10月10日 (2周前)",
"enterDate" : "384200:55:34",
"channelId" : "6806493520829634501",
"channelName" : "股票-新浪博客",
"channelNameSummary" : "股票-新浪博客",
"channelUrl" : "http:\/\/blog.sina.com.cn\/lm\/finance\/",
"author" : "wu2198",
"tags" : [],
"desc" : "大盘异动勇买两类赚钱股 其实,节后这几天的A股行情,投资者可以看到,沪深两地股指,虽然表现不算出色,但是盘中个股......&gt;&gt;点击查看新浪博客原文青春就应该这样绽放游戏测试：三国时期谁是你最好的兄弟！！你不得不信的星座秘密",
"emailed" : False,
"forwarded" : False,
"english" : False
}  , {
"index" : 9,
"articleIndex" : "125637",
"favor" :  False ,
     "read" : False,    
"title" : "推出国际板利好中国股市",
"titleTip" : "推出国际板利好中国股市",
"titleSummary" : "推出国际板利好中国股市",
"descSummary" : "姜国华 北京大学光华管理学院 教授、博士生导师 《徽商》杂志，2010年第3期...",
"url" : "http:\/\/go.rss.sina.com.cn\/redirect.php?url=http:\/\/blog.sina.com.cn\/s\/blog_5ef23acb0101g0v2.html",
"pubDate" : "2013年10月10日 (2周前)",
"enterDate" : "384200:39:05",
"channelId" : "6806493520829634501",
"channelName" : "股票-新浪博客",
"channelNameSummary" : "股票-新浪博客",
"channelUrl" : "http:\/\/blog.sina.com.cn\/lm\/finance\/",
"author" : "姜国华",
"tags" : [],
"desc" : "姜国华 北京大学光华管理学院 教授、博士生导师 《徽商》杂志，2010年第3期 2009年国务院19号文件提出，结合上海国际金融中心的建设，在适当的时候，启动符合条件的境外企业在境内发行股票，即启动国际板。2010年1月31日，上海市长韩正在回答记者提问时表示，上海市政府将努力配合上海证券交易所，争取尽早推出国际板。据...",
"emailed" : False,
"forwarded" : False,
"english" : False
}  , {
"index" : 10,
"articleIndex" : "125636",
"favor" :  False ,
     "read" : False,    
"title" : "财富景气度全面反弹",
"titleTip" : "财富景气度全面反弹",
"titleSummary" : "财富景气度全面反弹",
"descSummary" : "10月10日交通银行金融研究中心在上海发布了最新一期的《交银中国财富景气指数...",
"url" : "http:\/\/go.rss.sina.com.cn\/redirect.php?url=http:\/\/blog.sina.com.cn\/s\/blog_7cf4a75d0101rk79.html",
"pubDate" : "2013年10月10日 (2周前)",
"enterDate" : "384200:42:46",
"channelId" : "6806493520829634501",
"channelName" : "股票-新浪博客",
"channelNameSummary" : "股票-新浪博客",
"channelUrl" : "http:\/\/blog.sina.com.cn\/lm\/finance\/",
"author" : "连平",
"tags" : [],
"desc" : "10月10日交通银行金融研究中心在上海发布了最新一期的《交银中国财富景气指数报告》（第19期）。报告调研时间为9月10日至9月22日，共收集了国内26个省市的近2000户小康家庭数据。本期结果显示，在国务院推出的一系列确保\u201C经济运行在合理区间\u201D的政策支持下，企业经营前景有所改善，股市氛围持续好转，经济增速开始企稳已...",
"emailed" : False,
"forwarded" : False,
"english" : False
}  , {
"index" : 11,
"articleIndex" : "125635",
"favor" :  False ,
     "read" : False,    
"title" : "炒股贵在坚持",
"titleTip" : "炒股贵在坚持",
"titleSummary" : "炒股贵在坚持",
"descSummary" : "2007年的10月16日这一天注定是要在中国的证券历史上载入史册，因为在这一天中国的A股...",
"url" : "http:\/\/go.rss.sina.com.cn\/redirect.php?url=http:\/\/blog.sina.com.cn\/s\/blog_c10aef510101gj2c.html",
"pubDate" : "2013年10月10日 (2周前)",
"enterDate" : "384200:42:45",
"channelId" : "6806493520829634501",
"channelName" : "股票-新浪博客",
"channelNameSummary" : "股票-新浪博客",
"channelUrl" : "http:\/\/blog.sina.com.cn\/lm\/finance\/",
"author" : "神仙看盘",
"tags" : [],
"desc" : "2007年的10月16日这一天注定是要在中国的证券历史上载入史册，因为在这一天中国的A股市场上证指数创造了开市20年以来的最高点6124.04点，中国股市2006年2007年的最牛市创造了一批批的百万富翁，千万富翁，亿万富翁，创造了\u201C全民炒股\u201D的热潮景观。而这一天也成为中国投资者未来几年噩梦不断的开始，这一最高点也成为中国...",
"emailed" : False,
"forwarded" : False,
"english" : False
}  , {
"index" : 12,
"articleIndex" : "125634",
"favor" :  False ,
     "read" : False,    
"title" : "传媒板块带领创业板进入调整周期",
"titleTip" : "传媒板块带领创业板进入调整周期",
"titleSummary" : "传媒板块带领创业板进入调整周期",
"descSummary" : "传媒板块带领创业板进入调整周期 留意我的实盘直播分析：http:\/\/bl...",
"url" : "http:\/\/go.rss.sina.com.cn\/redirect.php?url=http:\/\/blog.sina.com.cn\/s\/blog_61accd560102e8u9.html",
"pubDate" : "2013年10月10日 (2周前)",
"enterDate" : "384200:36:10",
"channelId" : "6806493520829634501",
"channelName" : "股票-新浪博客",
"channelNameSummary" : "股票-新浪博客",
"channelUrl" : "http:\/\/blog.sina.com.cn\/lm\/finance\/",
"author" : "趋势之友",
"tags" : [],
"desc" : "传媒板块带领创业板进入调整周期 留意我的实盘直播分析：http:\/\/blog.sina.com.cn\/s\/blog_61accd560102e8u6.html 趋势分析： 1、盘面特征： ⑴早盘两市震荡下跌，创业板主动展开回调。 ⑵26只涨停，早盘受创业板回调影响涨停量比昨天略少，个股也因为创业板回调也相对降温，但是能涨的个股依旧强悍表现。...",
"emailed" : False,
"forwarded" : False,
"english" : False
}  , {
"index" : 13,
"articleIndex" : "125633",
"favor" :  False ,
     "read" : False,    
"title" : "看趋势看强弱重在格局",
"titleTip" : "看趋势看强弱重在格局",
"titleSummary" : "看趋势看强弱重在格局",
"descSummary" : "看趋势看强弱重在格局 上午行情回落，节前节后的短期强市特征好象全部消失了...",
"url" : "http:\/\/go.rss.sina.com.cn\/redirect.php?url=http:\/\/blog.sina.com.cn\/s\/blog_550b61170101ny0j.html",
"pubDate" : "2013年10月10日 (2周前)",
"enterDate" : "384200:28:37",
"channelId" : "6806493520829634501",
"channelName" : "股票-新浪博客",
"channelNameSummary" : "股票-新浪博客",
"channelUrl" : "http:\/\/blog.sina.com.cn\/lm\/finance\/",
"author" : "刘东声",
"tags" : [],
"desc" : "看趋势看强弱重在格局 上午行情回落，节前节后的短期强市特征好象全部消失了一下。 做股票不要在乎一天的得失，看趋势也好，看强弱也好，重在格局。 目前，创业板仍在全部均线之上运行，而且个股活跃度未变。如此说来，个股表现的旗舰就没有沉没。后市的机会还在，起码是没有证据表现，创业板已经见到头部。 上证指数呢？也...",
"emailed" : False,
"forwarded" : False,
"english" : False
}  , {
"index" : 14,
"articleIndex" : "125632",
"favor" :  False ,
     "read" : False,    
"title" : "A股的稳健还能维持多久",
"titleTip" : "A股的稳健还能维持多久",
"titleSummary" : "A股的稳健还能维持多久",
"descSummary" : "近几天的A股，不仅指数稳步攀升，而且连续上演涨停潮，从目前迹象来看，A股...",
"url" : "http:\/\/go.rss.sina.com.cn\/redirect.php?url=http:\/\/blog.sina.com.cn\/s\/blog_662e30760101mclj.html",
"pubDate" : "2013年10月10日 (2周前)",
"enterDate" : "384200:08:38",
"channelId" : "6806493520829634501",
"channelName" : "股票-新浪博客",
"channelNameSummary" : "股票-新浪博客",
"channelUrl" : "http:\/\/blog.sina.com.cn\/lm\/finance\/",
"author" : "一杯沧海",
"tags" : [],
"desc" : "近几天的A股，不仅指数稳步攀升，而且连续上演涨停潮，从目前迹象来看，A股的行情还有可能延续一段，或许时间并不会很长，但是不得不承认，A股如此稳健非常难得。 A股难得如此稳健??美国股持续下跌，A股持续攀升??看看道琼斯股指，已经连续下跌多日，虽然纳斯达克相对稳健，但是近两天也有些扛不住了；再看看欧洲股市，除...",
"emailed" : False,
"forwarded" : False,
"english" : False
}  , {
"index" : 15,
"articleIndex" : "125631",
"favor" :  False ,
     "read" : False,    
"title" : "阿里入主天弘 互联网金融如日中天",
"titleTip" : "阿里入主天弘 互联网金融如日中天",
"titleSummary" : "阿里入主天弘 互联网金融如日中天",
"descSummary" : "今日开盘后互联网金融概念股强势上涨，内蒙君正、金证股份等五股涨...",
"url" : "http:\/\/go.rss.sina.com.cn\/redirect.php?url=http:\/\/blog.sina.com.cn\/s\/blog_a38947380101a2k3.html",
"pubDate" : "2013年10月10日 (2周前)",
"enterDate" : "384200:07:48",
"channelId" : "6806493520829634501",
"channelName" : "股票-新浪博客",
"channelNameSummary" : "股票-新浪博客",
"channelUrl" : "http:\/\/blog.sina.com.cn\/lm\/finance\/",
"author" : "概念爱好者",
"tags" : [],
"desc" : "今日开盘后互联网金融概念股强势上涨，内蒙君正、金证股份等五股涨停，当然是受阿里巴巴控股天弘基金事件的影响，我们来具体看下该事件。 阿里11.8亿控股天弘基金乌鸡变凤凰上演 内蒙君正9日公告称，天弘基金与阿里巴巴达成框架协议，认购完成后，阿里巴巴持有51%的股份，内蒙君正持有15.6的股份，管理层持股11%，天津信托...",
"emailed" : False,
"forwarded" : False,
"english" : False
}  , {
"index" : 16,
"articleIndex" : "125629",
"favor" :  False ,
     "read" : False,    
"title" : "快速跳水 做多模式遇威胁",
"titleTip" : "快速跳水 做多模式遇威胁",
"titleSummary" : "快速跳水 做多模式遇威胁",
"descSummary" : "前市大盘呈现弱势震荡格局，在传媒、券商信托、电子元器件板块打压下，市场...",
"url" : "http:\/\/go.rss.sina.com.cn\/redirect.php?url=http:\/\/blog.sina.com.cn\/s\/blog_4c2eadcd0102e4w5.html",
"pubDate" : "2013年10月10日 (2周前)",
"enterDate" : "384200:54:42",
"channelId" : "6806493520829634501",
"channelName" : "股票-新浪博客",
"channelNameSummary" : "股票-新浪博客",
"channelUrl" : "http:\/\/blog.sina.com.cn\/lm\/finance\/",
"author" : "展锋",
"tags" : [],
"desc" : "前市大盘呈现弱势震荡格局，在传媒、券商信托、电子元器件板块打压下，市场各方谁都不肯轻易出手，三驾马车之一的房地产板块表现优异，虽然资金流入仅仅只有1.45亿，但态度却对信心提振很大。昨天说过，纯技术角度看，大盘的反弹仍有望再延续，而今天前市市场的萎靡，却将60分钟大盘淘金线再次推下了悬崖，也就是说，前市...",
"emailed" : False,
"forwarded" : False,
"english" : False
}  , {
"index" : 17,
"articleIndex" : "125628",
"favor" :  False ,
     "read" : False,    
"title" : "盘整回调时需要注意的两点",
"titleTip" : "盘整回调时需要注意的两点",
"titleSummary" : "盘整回调时需要注意的两点",
"descSummary" : "【更新提示】：股市点评 市场面现在可确认的是IPO暂时不会重启，这一点对...",
"url" : "http:\/\/go.rss.sina.com.cn\/redirect.php?url=http:\/\/blog.sina.com.cn\/s\/blog_4d6613930102eow7.html",
"pubDate" : "2013年10月10日 (2周前)",
"enterDate" : "384200:54:06",
"channelId" : "6806493520829634501",
"channelName" : "股票-新浪博客",
"channelNameSummary" : "股票-新浪博客",
"channelUrl" : "http:\/\/blog.sina.com.cn\/lm\/finance\/",
"author" : "占豪",
"tags" : [],
"desc" : "【更新提示】：股市点评 市场面现在可确认的是IPO暂时不会重启，这一点对大势起到稳定剂的作用，但对PE压力较大，无论哪个层面，现在最好的结果就是让大盘走好，然后重启IPO才有可能。早盘大势有些忽上忽下，开盘稍作高开，然后就是震荡盘整格局，早盘尾盘杀跌。不过，就整个震荡格局上看，大盘在我们的分析范畴内，即市场没...",
"emailed" : False,
"forwarded" : False,
"english" : False
}  , {
"index" : 18,
"articleIndex" : "125627",
"favor" :  False ,
     "read" : False,    
"title" : "提前入戏的狂欢 午后要先下手为强",
"titleTip" : "提前入戏的狂欢 午后要先下手为强",
"titleSummary" : "提前入戏的狂欢 午后要先下手为强",
"descSummary" : "提前入戏的狂欢，午后要先下手为强！今天早上开车的时候一听新闻，...",
"url" : "http:\/\/go.rss.sina.com.cn\/redirect.php?url=http:\/\/blog.sina.com.cn\/s\/blog_4c49f8fa0102ehpv.html",
"pubDate" : "2013年10月10日 (2周前)",
"enterDate" : "384200:52:33",
"channelId" : "6806493520829634501",
"channelName" : "股票-新浪博客",
"channelNameSummary" : "股票-新浪博客",
"channelUrl" : "http:\/\/blog.sina.com.cn\/lm\/finance\/",
"author" : "揭幕者",
"tags" : [],
"desc" : "提前入戏的狂欢，午后要先下手为强！ 今天早上开车的时候一听新闻，就知道互联网金融这个热点跑不了了，结果也确实如此，马云收购天弘基金就意味着那些有用户基础的互联网上市公司也能收购基金，那还不一线涨停？ 但我更关注其中的交易行为，因为早上文章里也说过，现在题材股的上涨可能提前都预谋好了，昨天厦门自贸概...",
"emailed" : False,
"forwarded" : False,
"english" : False
}  , {
"index" : 19,
"articleIndex" : "125630",
"favor" :  False ,
     "read" : False,    
"title" : "巴菲特最有价值的投资建议是什么？",
"titleTip" : "巴菲特最有价值的投资建议是什么？",
"titleSummary" : "巴菲特最有价值的投资建议是什么？",
"descSummary" : "在我的转变过程中，为了正确理解和实践价值投资思想，我尽可能广...",
"url" : "http:\/\/go.rss.sina.com.cn\/redirect.php?url=http:\/\/blog.sina.com.cn\/s\/blog_6571b4ad0101egsi.html",
"pubDate" : "2013年10月10日 (2周前)",
"enterDate" : "384199:50:52",
"channelId" : "6806493520829634501",
"channelName" : "股票-新浪博客",
"channelNameSummary" : "股票-新浪博客",
"channelUrl" : "http:\/\/blog.sina.com.cn\/lm\/finance\/",
"author" : "杨宝忠",
"tags" : [],
"desc" : "在我的转变过程中，为了正确理解和实践价值投资思想，我尽可能广泛的收集并反复阅读巴菲特和格雷厄姆关于投资方面的论述。我认为在《巴菲特致股东的信》中，巴菲特的一段话是对投资者最有价值的建议。 巴菲特指出：\u201C让我对你们自己的投资谈一些看法。大多数投资者，机构投资者和个人投资者，会发现拥有普通股的最佳途径是...",
"emailed" : False,
"forwarded" : False,
"english" : False
} ]
}
