{
"mode" : {"viewTitle" : 1,   "viewNew" : 0,  "pageIndex" : 1 },
 "channel" : {"id" : "3854395524223685988", "booked" : False, "subNumber" : 3699, "name" : "焦点新闻-新浪体育", "url" : "http:\/\/sports.sina.com.cn", "feed" : "http:\/\/rss.sina.com.cn\/news\/allnews\/sports.xml", "author" : "SINA.com", "desc" : "体育焦点新闻", "imageUrl" : "http:\/\/www.sinaimg.cn\/home\/deco\/2009\/0330\/logo_home.gif", "postPerWeek" : "502", "lastCrawTime" : "2013年10月17日 (1周前)", "crawDateTime" : "2013年10月17日 (1周前)", "lastHttpCode" : "200"}, "page" : {
"startIndex" : 0,
"totalCount" : 5000,
"pageIndex" : 1,
"lastPage" : 250,
"pageSize" : 20,
"english" :  False },
 "unreadNum" : 0, "shotIndex" : -1,
"articles" : [
{
"index" : 0,
"articleIndex" : "194612",
"favor" :  False ,
     "read" : False,    
"title" : "男乒世界杯张继科伤退 闫安替补参赛携手许昕冲冠",
"titleTip" : "男乒世界杯张继科伤退 闫安替补参赛携手许昕冲冠",
"titleSummary" : "男乒世界杯张继科伤退 闫安替补参赛携手许昕冲冠",
"descSummary" : "比利时韦尔维耶10月16日消息，国际乒联[微博]周三宣...",
"url" : "http:\/\/go.rss.sina.com.cn\/redirect.php?url=http:\/\/sports.sina.com.cn\/o\/2013-10-17\/09516835243.shtml",
"pubDate" : "2013年10月17日 (1周前)",
"enterDate" : "384201:13:55",
"channelId" : "3854395524223685988",
"channelName" : "焦点新闻-新浪体育",
"channelNameSummary" : "焦点新闻-新浪体育",
"channelUrl" : "http:\/\/sports.sina.com.cn",
"author" : "SINA.com",
"tags" : [],
"desc" : "比利时韦尔维耶10月16日消息，国际乒联[微博]周三宣布，中国男子单打名将张继科因伤退出本月底举行的男子乒乓球[微博]世界杯赛，世界排名第八的中国20岁小将闫安将顶替张继科参赛，与许昕携手冲击冠军奖杯。 2013年男子乒乓球世界杯赛定于本月25-17日在比利时韦尔维耶....",
"emailed" : False,
"forwarded" : False,
"english" : False
}  , {
"index" : 1,
"articleIndex" : "194611",
"favor" :  False ,
     "read" : False,    
"title" : "姜末：国奥已死比国足平印尼更可怕",
"titleTip" : "姜末：国奥已死比国足平印尼更可怕",
"titleSummary" : "姜末：国奥已死比国足平印尼更可怕",
"descSummary" : "",
"url" : "http:\/\/go.rss.sina.com.cn\/redirect.php?url=http:\/\/blog.sina.com.cn\/s\/blog_53dec2740102eevz.html",
"pubDate" : "2013年10月17日 (1周前)",
"enterDate" : "384201:05:21",
"channelId" : "3854395524223685988",
"channelName" : "焦点新闻-新浪体育",
"channelNameSummary" : "焦点新闻-新浪体育",
"channelUrl" : "http:\/\/sports.sina.com.cn",
"author" : "SINA.com",
"tags" : [],
"desc" : "",
"emailed" : False,
"forwarded" : False,
"english" : False
}  , {
"index" : 2,
"articleIndex" : "194610",
"favor" :  False ,
     "read" : False,    
"title" : "申鑫被曝深夜群殴！毛剑卿被开除 队员停训回家",
"titleTip" : "申鑫被曝深夜群殴！毛剑卿被开除 队员停训回家",
"titleSummary" : "申鑫被曝深夜群殴！毛剑卿被开除 队员停训回家",
"descSummary" : "特约记者陈晓报道 泰达中能一战，让此前保级形势明朗...",
"url" : "http:\/\/go.rss.sina.com.cn\/redirect.php?url=http:\/\/sports.sina.com.cn\/j\/2013-10-17\/09436835226.shtml",
"pubDate" : "2013年10月17日 (1周前)",
"enterDate" : "384201:05:18",
"channelId" : "3854395524223685988",
"channelName" : "焦点新闻-新浪体育",
"channelNameSummary" : "焦点新闻-新浪体育",
"channelUrl" : "http:\/\/sports.sina.com.cn",
"author" : "SINA.com",
"tags" : [],
"desc" : "特约记者陈晓报道 泰达中能一战，让此前保级形势明朗的上海申鑫[微博]再次被拖住，接下来的三轮，申鑫上下必须打足精神全力争取胜利。可是，申鑫的内部并不平静，鲜为人知的是，就在保级大战的最严峻阶段，申鑫内部曾经爆发了一次打架事件。时至今日，距离\u201C群殴事件\u201D已经过....",
"emailed" : False,
"forwarded" : False,
"english" : False
}  , {
"index" : 3,
"articleIndex" : "194609",
"favor" :  False ,
     "read" : False,    
"title" : "沈雷：欧洲红魔靠什么从落魄走向崛起？",
"titleTip" : "沈雷：欧洲红魔靠什么从落魄走向崛起？",
"titleSummary" : "沈雷：欧洲红魔靠什么从落魄走向崛起？",
"descSummary" : "",
"url" : "http:\/\/go.rss.sina.com.cn\/redirect.php?url=http:\/\/blog.sina.com.cn\/s\/blog_54bddc220101hk2k.html",
"pubDate" : "2013年10月17日 (1周前)",
"enterDate" : "384200:57:37",
"channelId" : "3854395524223685988",
"channelName" : "焦点新闻-新浪体育",
"channelNameSummary" : "焦点新闻-新浪体育",
"channelUrl" : "http:\/\/sports.sina.com.cn",
"author" : "SINA.com",
"tags" : [],
"desc" : "",
"emailed" : False,
"forwarded" : False,
"english" : False
}  , {
"index" : 4,
"articleIndex" : "194608",
"favor" :  False ,
     "read" : False,    
"title" : "伍兹休整一周开始恢复训练 接受成堆治疗感觉很棒",
"titleTip" : "伍兹休整一周开始恢复训练 接受成堆治疗感觉很棒",
"titleSummary" : "伍兹休整一周开始恢复训练 接受成堆治疗感觉很棒",
"descSummary" : "北京时间10月17日，高尔夫世界第一伍兹在星期二接...",
"url" : "http:\/\/go.rss.sina.com.cn\/redirect.php?url=http:\/\/sports.sina.com.cn\/golf\/2013-10-17\/09216835149.shtml",
"pubDate" : "2013年10月17日 (1周前)",
"enterDate" : "384201:13:48",
"channelId" : "3854395524223685988",
"channelName" : "焦点新闻-新浪体育",
"channelNameSummary" : "焦点新闻-新浪体育",
"channelUrl" : "http:\/\/sports.sina.com.cn",
"author" : "SINA.com",
"tags" : [],
"desc" : "北京时间10月17日，高尔夫世界第一伍兹在星期二接受采访时表示他的腰伤仍在接受治疗，不过他相信这不是什么长期的问题。两个月之前在巴克莱精英赛上，伍兹看上去受了严重的腰伤。可是他坚称并不担心这一伤势的长期后果。 他的行动验证了他的言语，因为余下来的三场联邦....",
"emailed" : False,
"forwarded" : False,
"english" : False
}  , {
"index" : 5,
"articleIndex" : "194607",
"favor" :  False ,
     "read" : False,    
"title" : "视频-贝利20大精彩进球 一代球王最华丽瞬间",
"titleTip" : "视频-贝利20大精彩进球 一代球王最华丽瞬间",
"titleSummary" : "视频-贝利20大精彩进球 一代球王最华丽瞬间",
"descSummary" : "贝利是公认的世界足坛的第一位球王，就足球技艺而言，他的...",
"url" : "http:\/\/go.rss.sina.com.cn\/redirect.php?url=http:\/\/video.sina.com.cn\/p\/sports\/g\/v\/2013-10-17\/091763029771.html",
"pubDate" : "2013年10月17日 (1周前)",
"enterDate" : "384201:09:23",
"channelId" : "3854395524223685988",
"channelName" : "焦点新闻-新浪体育",
"channelNameSummary" : "焦点新闻-新浪体育",
"channelUrl" : "http:\/\/sports.sina.com.cn",
"author" : "SINA.com",
"tags" : [],
"desc" : "贝利是公认的世界足坛的第一位球王，就足球技艺而言，他的才华毋庸置疑。在有限的影像记录中，贝利向人们展示了那个年代足球的最高水平。在整个足球生涯中，贝利一共打进1283粒进球，这个纪录至今无人可以超越。一起来欣赏贝利最精彩的20大进球。",
"emailed" : False,
"forwarded" : False,
"english" : False
}  , {
"index" : 6,
"articleIndex" : "194606",
"favor" :  False ,
     "read" : False,    
"title" : "哈登半场21+5+3虐魔术 霍华德篮板暂时落后贝弗利",
"titleTip" : "哈登半场21+5+3虐魔术 霍华德篮板暂时落后贝弗利",
"titleSummary" : "哈登半场21+5+3虐魔术 霍华德篮板暂时落后贝弗利",
"descSummary" : "北京时间10月17日，休斯顿火箭回到主场对阵奥兰多...",
"url" : "http:\/\/go.rss.sina.com.cn\/redirect.php?url=http:\/\/sports.sina.com.cn\/nba\/2013-10-17\/09166835136.shtml",
"pubDate" : "2013年10月17日 (1周前)",
"enterDate" : "384201:08:39",
"channelId" : "3854395524223685988",
"channelName" : "焦点新闻-新浪体育",
"channelNameSummary" : "焦点新闻-新浪体育",
"channelUrl" : "http:\/\/sports.sina.com.cn",
"author" : "SINA.com",
"tags" : [],
"desc" : "北京时间10月17日，休斯顿火箭回到主场对阵奥兰多魔术。半场，火箭以61-53领先，詹姆斯-哈登12投7中，其中三分球6投4中得到21分5个篮板3次助攻，魔兽8分、4篮板，帕特里克-贝弗利得到10分6个篮板。魔术方面则多点开花。 火箭开局先声夺人，打出一波6-0，魔术见状不妙暂....",
"emailed" : False,
"forwarded" : False,
"english" : False
}  , {
"index" : 7,
"articleIndex" : "194605",
"favor" :  False ,
     "read" : False,    
"title" : "反赌案中人今何在：谢亚龙帮狱友按摩 杨一民苦读",
"titleTip" : "反赌案中人今何在：谢亚龙帮狱友按摩 杨一民苦读",
"titleSummary" : "反赌案中人今何在：谢亚龙帮狱友按摩 杨一民苦读",
"descSummary" : "中新网10月17日电(于晓)日前，网友曝光了在\u201C反赌风...",
"url" : "http:\/\/go.rss.sina.com.cn\/redirect.php?url=http:\/\/sports.sina.com.cn\/c\/2013-10-17\/08556835126.shtml",
"pubDate" : "2013年10月17日 (1周前)",
"enterDate" : "384200:47:05",
"channelId" : "3854395524223685988",
"channelName" : "焦点新闻-新浪体育",
"channelNameSummary" : "焦点新闻-新浪体育",
"channelUrl" : "http:\/\/sports.sina.com.cn",
"author" : "SINA.com",
"tags" : [],
"desc" : "中新网10月17日电(于晓)日前，网友曝光了在\u201C反赌风暴\u201D中锒铛入狱的前国脚申思的照片，图中的申思正身着民俗服装参加文艺演出。不过在中国足坛反赌案中，申思并不是最大的\u201C大鱼\u201D。那么，当年的入狱的巨头们在狱中的生活如何呢？ 谢亚龙自称老总年薪百万 主动帮狱友....",
"emailed" : False,
"forwarded" : False,
"english" : False
}  , {
"index" : 8,
"articleIndex" : "194604",
"favor" :  False ,
     "read" : False,    
"title" : "贝尔伤愈复出首训练 周六必上！C罗都来帮他找状态",
"titleTip" : "贝尔伤愈复出首训练 周六必上！C罗都来帮他找状态",
"titleSummary" : "贝尔伤愈复出首训练 周六必上！C罗都来帮他找状态",
"descSummary" : "新一轮的国家队比赛已经全部落幕，球员的重点再一...",
"url" : "http:\/\/go.rss.sina.com.cn\/redirect.php?url=http:\/\/sports.sina.com.cn\/g\/laliga\/2013-10-17\/08486835115.shtml",
"pubDate" : "2013年10月17日 (1周前)",
"enterDate" : "384200:40:11",
"channelId" : "3854395524223685988",
"channelName" : "焦点新闻-新浪体育",
"channelNameSummary" : "焦点新闻-新浪体育",
"channelUrl" : "http:\/\/sports.sina.com.cn",
"author" : "SINA.com",
"tags" : [],
"desc" : "新一轮的国家队比赛已经全部落幕，球员的重点再一次回到俱乐部身上。周三，传闻腰部有伤的贝尔[微博]首次出现在皇马[微博]巴尔德贝拉斯训练场，跟随皇马大部队积极备战周末与马拉加[微博]的比赛。 这是贝尔自9月28号出现肌肉撕裂伤势后首次跟随大部队训练。贝尔在参加....",
"emailed" : False,
"forwarded" : False,
"english" : False
}  , {
"index" : 9,
"articleIndex" : "194603",
"favor" :  False ,
     "read" : False,    
"title" : "视频-神！罗伊斯连打3脚横梁 蒙着眼都能踢中",
"titleTip" : "视频-神！罗伊斯连打3脚横梁 蒙着眼都能踢中",
"titleSummary" : "视频-神！罗伊斯连打3脚横梁 蒙着眼都能踢中",
"descSummary" : "还记得当年小罗著名的连续4脚命中横梁吗？近日，多特蒙...",
"url" : "http:\/\/go.rss.sina.com.cn\/redirect.php?url=http:\/\/video.sina.com.cn\/p\/sports\/g\/v\/2013-10-17\/082363029283.html",
"pubDate" : "2013年10月17日 (1周前)",
"enterDate" : "384200:45:58",
"channelId" : "3854395524223685988",
"channelName" : "焦点新闻-新浪体育",
"channelNameSummary" : "焦点新闻-新浪体育",
"channelUrl" : "http:\/\/sports.sina.com.cn",
"author" : "SINA.com",
"tags" : [],
"desc" : "还记得当年小罗著名的连续4脚命中横梁吗？近日，多特蒙德球星罗伊斯也表演了打横梁的绝活，和小罗不同的是，罗伊斯是把球放在地上尝试将皮球射中横梁，在连续两脚命中目标后，难度提高，罗伊斯将眼睛蒙上，助跑，起脚，同样命中！",
"emailed" : False,
"forwarded" : False,
"english" : False
}  , {
"index" : 10,
"articleIndex" : "194600",
"favor" :  False ,
     "read" : False,    
"title" : "AC米兰冬季第一援获官方宣布 法国国脚空霸加盟",
"titleTip" : "AC米兰冬季第一援获官方宣布 法国国脚空霸加盟",
"titleSummary" : "AC米兰冬季第一援获官方宣布 法国国脚空霸加盟",
"descSummary" : "北京时间10月17日，瓦伦西亚官方宣布队内的法国国脚...",
"url" : "http:\/\/go.rss.sina.com.cn\/redirect.php?url=http:\/\/sports.sina.com.cn\/g\/seriea\/2013-10-17\/08206835056.shtml",
"pubDate" : "2013年10月17日 (1周前)",
"enterDate" : "384200:42:39",
"channelId" : "3854395524223685988",
"channelName" : "焦点新闻-新浪体育",
"channelNameSummary" : "焦点新闻-新浪体育",
"channelUrl" : "http:\/\/sports.sina.com.cn",
"author" : "SINA.com",
"tags" : [],
"desc" : "北京时间10月17日，瓦伦西亚官方宣布队内的法国国脚中卫拉米加盟意甲豪门AC米兰[微博]，他将于明年1月正式入队。 实际上拉米早已经开始了自己在意大利的生活，由于同瓦伦西亚[微博]方面关系破裂，这位法国中卫已经开始同AC米兰训练了，他也在上周顺利通过了俱乐部的体....",
"emailed" : False,
"forwarded" : False,
"english" : False
}  , {
"index" : 11,
"articleIndex" : "194602",
"favor" :  False ,
     "read" : False,    
"title" : "恒大首尔决战逼CBA揭幕战延期 篮协确定为亚冠让路",
"titleTip" : "恒大首尔决战逼CBA揭幕战延期 篮协确定为亚冠让路",
"titleSummary" : "恒大首尔决战逼CBA揭幕战延期 篮协确定为亚冠让路",
"descSummary" : "本报讯(华商晨报 华商响网记者 佟阳)原定11月9日的...",
"url" : "http:\/\/go.rss.sina.com.cn\/redirect.php?url=http:\/\/sports.sina.com.cn\/j\/2013-10-17\/08106835016.shtml",
"pubDate" : "2013年10月17日 (1周前)",
"enterDate" : "384200:32:20",
"channelId" : "3854395524223685988",
"channelName" : "焦点新闻-新浪体育",
"channelNameSummary" : "焦点新闻-新浪体育",
"channelUrl" : "http:\/\/sports.sina.com.cn",
"author" : "SINA.com",
"tags" : [],
"desc" : "本报讯(华商晨报 华商响网记者 佟阳)原定11月9日的CBA[微博]揭幕战将要推迟一天，而延后的原因是要错开恒大[微博]和首尔的亚冠终极对决。 在今年9月份的篮协会议上，篮协将新赛季的CBA揭幕战日期定在了11月9日，但随着恒大晋级决赛，且最后主场迎战首尔的日期也定在了1....",
"emailed" : False,
"forwarded" : False,
"english" : False
}  , {
"index" : 12,
"articleIndex" : "194599",
"favor" :  False ,
     "read" : False,    
"title" : "奇!大洋洲冠军联赛输球也赚1分 主席:不让球员伤心",
"titleTip" : "奇!大洋洲冠军联赛输球也赚1分 主席:不让球员伤心",
"titleSummary" : "奇!大洋洲冠军联赛输球也赚1分 主席:不让球员伤心",
"descSummary" : "太平洋岛国塔希提，这个国家对中国球迷并不陌生，现...",
"url" : "http:\/\/go.rss.sina.com.cn\/redirect.php?url=http:\/\/sports.sina.com.cn\/g\/pl\/2013-10-17\/08016834976.shtml",
"pubDate" : "2013年10月17日 (1周前)",
"enterDate" : "384200:53:31",
"channelId" : "3854395524223685988",
"channelName" : "焦点新闻-新浪体育",
"channelNameSummary" : "焦点新闻-新浪体育",
"channelUrl" : "http:\/\/sports.sina.com.cn",
"author" : "SINA.com",
"tags" : [],
"desc" : "太平洋岛国塔希提，这个国家对中国球迷并不陌生，现贵州人和[微博]的主帅宫磊就曾在球员时代登陆塔希提联赛并6获最佳球员和最佳射手，被誉为\u201C塔希提球王\u201D。现如今塔希提又因该国足协公布的一项奇葩规定而成为关注焦点。 塔希提足协宣布，将对联赛积分制度进行大幅度....",
"emailed" : False,
"forwarded" : False,
"english" : False
}  , {
"index" : 13,
"articleIndex" : "194601",
"favor" :  False ,
     "read" : False,    
"title" : "0得票!没人选詹皇执行最后1投 他不在意球员评价?",
"titleTip" : "0得票!没人选詹皇执行最后1投 他不在意球员评价?",
"titleSummary" : "0得票!没人选詹皇执行最后1投 他不在意球员评价?",
"descSummary" : "北京时间10月17日，《ESPN》杂志近日对26名NBA...",
"url" : "http:\/\/go.rss.sina.com.cn\/redirect.php?url=http:\/\/sports.sina.com.cn\/nba\/2013-10-17\/07446834947.shtml",
"pubDate" : "2013年10月17日 (1周前)",
"enterDate" : "384199:36:54",
"channelId" : "3854395524223685988",
"channelName" : "焦点新闻-新浪体育",
"channelNameSummary" : "焦点新闻-新浪体育",
"channelUrl" : "http:\/\/sports.sina.com.cn",
"author" : "SINA.com",
"tags" : [],
"desc" : "北京时间10月17日，《ESPN》杂志近日对26名NBA球员进行了问卷调查，如果乔丹、科比、詹姆斯同时在场，你选谁执行最后一投？结果显示没有一人愿意把这个机会交给勒布朗-詹姆斯，乔丹支持率为88%，科比12%。得知这个消息后，詹姆斯本人并不在意。 \u201C虽然比赛最后时刻我愿....",
"emailed" : False,
"forwarded" : False,
"english" : False
}  , {
"index" : 14,
"articleIndex" : "194598",
"favor" :  False ,
     "read" : False,    
"title" : "夫妇中7480万大奖已送出5413万：这样才幸福(图)",
"titleTip" : "夫妇中7480万大奖已送出5413万：这样才幸福(图)",
"titleSummary" : "夫妇中7480万大奖已送出5413万：这样才幸福(图)",
"descSummary" : "中了760万英镑巨奖(约合7480万元人民币)到底怎样花才...",
"url" : "http:\/\/go.rss.sina.com.cn\/redirect.php?url=http:\/\/sports.sina.com.cn\/l\/2013-10-17\/07406834946.shtml",
"pubDate" : "2013年10月17日 (1周前)",
"enterDate" : "384201:02:27",
"channelId" : "3854395524223685988",
"channelName" : "焦点新闻-新浪体育",
"channelNameSummary" : "焦点新闻-新浪体育",
"channelUrl" : "http:\/\/sports.sina.com.cn",
"author" : "SINA.com",
"tags" : [],
"desc" : "中了760万英镑巨奖(约合7480万元人民币)到底怎样花才能幸福快乐呢？有人会认为是买车买房，有人则认为存起来给孩子，但来自英国谢菲尔德的雷伊(Ray)和芭芭拉-拉格(Barbara Wragg)夫妇却身体力行的给出了令人瞠目结舌的答案：他们已经将其中的550万英镑奖金(约合5413万元人民币....",
"emailed" : False,
"forwarded" : False,
"english" : False
}  , {
"index" : 15,
"articleIndex" : "194597",
"favor" :  False ,
     "read" : False,    
"title" : "甜瓜亲承明夏希望跳出合同 坚称仍没有做任何决定",
"titleTip" : "甜瓜亲承明夏希望跳出合同 坚称仍没有做任何决定",
"titleSummary" : "甜瓜亲承明夏希望跳出合同 坚称仍没有做任何决定",
"descSummary" : "北京时间10月17日，根据《纽约邮报》的报道，纽约...",
"url" : "http:\/\/go.rss.sina.com.cn\/redirect.php?url=http:\/\/sports.sina.com.cn\/nba\/2013-10-17\/05586834914.shtml",
"pubDate" : "2013年10月17日 (1周前)",
"enterDate" : "384200:50:44",
"channelId" : "3854395524223685988",
"channelName" : "焦点新闻-新浪体育",
"channelNameSummary" : "焦点新闻-新浪体育",
"channelUrl" : "http:\/\/sports.sina.com.cn",
"author" : "SINA.com",
"tags" : [],
"desc" : "北京时间10月17日，根据《纽约邮报》的报道，纽约尼克斯队球星卡梅罗-安东尼[微博]在最近的一次采访中表示，自己希望跳出最后一年的合同，在明年夏天试水自由球员市场。 \u201C我想成为一名自由球员，\u201D安东尼说道，\u201C我想每个NBA的球员，都希望在职业生涯中有至少一次成为....",
"emailed" : False,
"forwarded" : False,
"english" : False
}  , {
"index" : 16,
"articleIndex" : "194596",
"favor" :  False ,
     "read" : False,    
"title" : "ESPN排名科比第25？你没看错！ 嗜血曼巴能回来吗",
"titleTip" : "ESPN排名科比第25？你没看错！ 嗜血曼巴能回来吗",
"titleSummary" : "ESPN排名科比第25？你没看错！ 嗜血曼巴能回来吗",
"descSummary" : "北京时间10月17日，ESPN与TrueHoop联合推出的...",
"url" : "http:\/\/go.rss.sina.com.cn\/redirect.php?url=http:\/\/sports.sina.com.cn\/nba\/2013-10-17\/05406834912.shtml",
"pubDate" : "2013年10月17日 (1周前)",
"enterDate" : "384201:03:32",
"channelId" : "3854395524223685988",
"channelName" : "焦点新闻-新浪体育",
"channelNameSummary" : "焦点新闻-新浪体育",
"channelUrl" : "http:\/\/sports.sina.com.cn",
"author" : "SINA.com",
"tags" : [],
"desc" : "北京时间10月17日，ESPN与TrueHoop联合推出的现役球员大排名今天公布了第21至第25位的名单，上赛季常规赛最后阶段遭遇跟腱重伤的洛杉矶湖人[微博]队球星科比[微博]-布莱恩特排在第25位，相比去年下滑了19位。 在教练们的眼中，科比似乎永远都停留在巅峰期，即使他今年....",
"emailed" : False,
"forwarded" : False,
"english" : False
}  , {
"index" : 17,
"articleIndex" : "194595",
"favor" :  False ,
     "read" : False,    
"title" : "丹麦羽球赛谌龙李雪芮领衔晋级 风云拆对均过首轮",
"titleTip" : "丹麦羽球赛谌龙李雪芮领衔晋级 风云拆对均过首轮",
"titleSummary" : "丹麦羽球赛谌龙李雪芮领衔晋级 风云拆对均过首轮",
"descSummary" : "北京时间10月17日消息，2013年世界羽联超级系列赛...",
"url" : "http:\/\/go.rss.sina.com.cn\/redirect.php?url=http:\/\/sports.sina.com.cn\/o\/2013-10-17\/04486834898.shtml",
"pubDate" : "2013年10月17日 (2周前)",
"enterDate" : "384198:10:35",
"channelId" : "3854395524223685988",
"channelName" : "焦点新闻-新浪体育",
"channelNameSummary" : "焦点新闻-新浪体育",
"channelUrl" : "http:\/\/sports.sina.com.cn",
"author" : "SINA.com",
"tags" : [],
"desc" : "北京时间10月17日消息，2013年世界羽联超级系列赛之丹麦公开赛继续在欧登塞进行，谌龙、杜鹏宇和陈跃坤晋级男单次轮，王睁茗则惨遭逆转被淘汰；李雪芮带领五位中国姑娘在女单中闯入第二轮，韩利不敌德国名将申克出局；男女双打均有三对组合晋级。 男单首轮2号种子谌龙....",
"emailed" : False,
"forwarded" : False,
"english" : False
}  , {
"index" : 18,
"articleIndex" : "194594",
"favor" :  False ,
     "read" : False,    
"title" : "ESPN预测尼克斯新季仅37胜 射手流失严重拳王已老",
"titleTip" : "ESPN预测尼克斯新季仅37胜 射手流失严重拳王已老",
"titleSummary" : "ESPN预测尼克斯新季仅37胜 射手流失严重拳王已老",
"descSummary" : "北京时间10月17日，ESPN数据专家凯文-佩尔顿根...",
"url" : "http:\/\/go.rss.sina.com.cn\/redirect.php?url=http:\/\/sports.sina.com.cn\/nba\/2013-10-17\/04316834896.shtml",
"pubDate" : "2013年10月17日 (2周前)",
"enterDate" : "384200:54:05",
"channelId" : "3854395524223685988",
"channelName" : "焦点新闻-新浪体育",
"channelNameSummary" : "焦点新闻-新浪体育",
"channelUrl" : "http:\/\/sports.sina.com.cn",
"author" : "SINA.com",
"tags" : [],
"desc" : "北京时间10月17日，ESPN数据专家凯文-佩尔顿根据\u201C夏尼投射系统(SCHOENE projection system)\u201D预测了新赛季尼克斯可能的战绩，根据他的分析，尼克斯的预测胜场令人震惊：37场。要知道，尼克斯上赛季赢下了54场，高居东部第二。 夏尼投射系统是在约翰-霍林格数据体系基....",
"emailed" : False,
"forwarded" : False,
"english" : False
}  , {
"index" : 19,
"articleIndex" : "194593",
"favor" :  False ,
     "read" : False,    
"title" : "平局令足协骑虎难下 傅博到期后里皮是否接手存疑",
"titleTip" : "平局令足协骑虎难下 傅博到期后里皮是否接手存疑",
"titleSummary" : "平局令足协骑虎难下 傅博到期后里皮是否接手存疑",
"descSummary" : "京华时报[微博]讯(记者张晓敏)被印尼队逼平，中国队...",
"url" : "http:\/\/go.rss.sina.com.cn\/redirect.php?url=http:\/\/sports.sina.com.cn\/n\/2013-10-17\/01506834751.shtml",
"pubDate" : "2013年10月17日 (2周前)",
"enterDate" : "384198:12:53",
"channelId" : "3854395524223685988",
"channelName" : "焦点新闻-新浪体育",
"channelNameSummary" : "焦点新闻-新浪体育",
"channelUrl" : "http:\/\/sports.sina.com.cn",
"author" : "SINA.com",
"tags" : [],
"desc" : "京华时报[微博]讯(记者张晓敏)被印尼队逼平，中国队又被推至风口浪尖。接下来，足协如何来调整中国队？昨晚，一位消息灵通人士表示：\u201C1比1的平局，真让中国足协有点骑虎难下，现在最让领导们头疼的是，傅博[微博]到期后，谁来接手？看到中国队这副烂摊子，里皮还愿不愿意接手....",
"emailed" : False,
"forwarded" : False,
"english" : False
} ]
}
