{
"mode" : {"viewTitle" : 1,   "viewNew" : 0,  "pageIndex" : 2 },
 "channel" : {"id" : "3854395524223685988", "booked" : False, "subNumber" : 3699, "name" : "焦点新闻-新浪体育", "url" : "http:\/\/sports.sina.com.cn", "feed" : "http:\/\/rss.sina.com.cn\/news\/allnews\/sports.xml", "author" : "SINA.com", "desc" : "体育焦点新闻", "imageUrl" : "http:\/\/www.sinaimg.cn\/home\/deco\/2009\/0330\/logo_home.gif", "postPerWeek" : "502", "lastCrawTime" : "2013年10月17日 (1周前)", "crawDateTime" : "2013年10月17日 (1周前)", "lastHttpCode" : "200"}, "page" : {
"startIndex" : 20,
"totalCount" : 5000,
"pageIndex" : 2,
"lastPage" : 250,
"pageSize" : 20,
"english" :  False },
 "unreadNum" : 0, "shotIndex" : -1,
"articles" : [
{
"index" : 0,
"articleIndex" : "194592",
"favor" :  False ,
     "read" : False,    
"title" : "科比：伤病也会让我害怕失败 复出是我的最后一章",
"titleTip" : "科比：伤病也会让我害怕失败 复出是我的最后一章",
"titleSummary" : "科比：伤病也会让我害怕失败 复出是我的最后一章",
"descSummary" : "北京时间10月17日，据美国《体育画报》报道，洛杉...",
"url" : "http:\/\/go.rss.sina.com.cn\/redirect.php?url=http:\/\/sports.sina.com.cn\/nba\/2013-10-17\/04166834878.shtml",
"pubDate" : "2013年10月17日 (2周前)",
"enterDate" : "384201:09:04",
"channelId" : "3854395524223685988",
"channelName" : "焦点新闻-新浪体育",
"channelNameSummary" : "焦点新闻-新浪体育",
"channelUrl" : "http:\/\/sports.sina.com.cn",
"author" : "SINA.com",
"tags" : [],
"desc" : "北京时间10月17日，据美国《体育画报》报道，洛杉矶湖人[微博]队球星科比[微博]常常会被拿来与NBA历史上一些非常伟大的球员进行比较，但是现在的他更希望能够以拥有不败战绩的拳王弗洛伊德-梅威瑟作为参照，并争取在职业生涯的最后阶段绽放出更耀眼的光芒。 据湖人队的....",
"emailed" : False,
"forwarded" : False,
"english" : False
}  , {
"index" : 1,
"articleIndex" : "194591",
"favor" :  False ,
     "read" : False,    
"title" : "科比忆往事：篮球无可替代 与沙克合作让我成长",
"titleTip" : "科比忆往事：篮球无可替代 与沙克合作让我成长",
"titleSummary" : "科比忆往事：篮球无可替代 与沙克合作让我成长",
"descSummary" : "北京时间10月17日，洛杉矶湖人队球星科比-布莱恩特接...",
"url" : "http:\/\/go.rss.sina.com.cn\/redirect.php?url=http:\/\/sports.sina.com.cn\/nba\/2013-10-17\/04096834857.shtml",
"pubDate" : "2013年10月17日 (2周前)",
"enterDate" : "384198:02:04",
"channelId" : "3854395524223685988",
"channelName" : "焦点新闻-新浪体育",
"channelNameSummary" : "焦点新闻-新浪体育",
"channelUrl" : "http:\/\/sports.sina.com.cn",
"author" : "SINA.com",
"tags" : [],
"desc" : "北京时间10月17日，洛杉矶湖人队球星科比-布莱恩特接受了美国《体育画报》的独家专访。通过这次专访，《体育画报》用时间线的方式呈现出科比在人生每个不同阶段所发生的一个个小故事，从而让读者能够更加全面地了解他。 1983年春 4岁的科比在一家休斯顿柔道馆报....",
"emailed" : False,
"forwarded" : False,
"english" : False
}  , {
"index" : 2,
"articleIndex" : "194590",
"favor" :  False ,
     "read" : False,    
"title" : "苏媒曝篮协将裁决韩硕是否归江苏 身份问题已呈交",
"titleTip" : "苏媒曝篮协将裁决韩硕是否归江苏 身份问题已呈交",
"titleSummary" : "苏媒曝篮协将裁决韩硕是否归江苏 身份问题已呈交",
"descSummary" : "上周，韩硕[微博]来到南京，与江苏南钢俱乐部高层进...",
"url" : "http:\/\/go.rss.sina.com.cn\/redirect.php?url=http:\/\/sports.sina.com.cn\/cba\/2013-10-17\/04036834855.shtml",
"pubDate" : "2013年10月17日 (2周前)",
"enterDate" : "384200:56:14",
"channelId" : "3854395524223685988",
"channelName" : "焦点新闻-新浪体育",
"channelNameSummary" : "焦点新闻-新浪体育",
"channelUrl" : "http:\/\/sports.sina.com.cn",
"author" : "SINA.com",
"tags" : [],
"desc" : "上周，韩硕[微博]来到南京，与江苏南钢俱乐部高层进行了短暂的交流，不过双方都没有对外公布商谈的结果。昨天，现代快报记者从一位知情人士处了解到，韩硕的身份问题已呈交中国篮协处理 ，篮协目前正在就此进行调查，预计将在本周内给出最终裁决。&#160;&#160; 抵达南....",
"emailed" : False,
"forwarded" : False,
"english" : False
}  , {
"index" : 3,
"articleIndex" : "194589",
"favor" :  False ,
     "read" : False,    
"title" : "川媒曝小奥多姆已成金强目标 湖人悍将有望征战CBA",
"titleTip" : "川媒曝小奥多姆已成金强目标 湖人悍将有望征战CBA",
"titleSummary" : "川媒曝小奥多姆已成金强目标 湖人悍将有望征战CBA",
"descSummary" : "刚升上CBA的四川金强男篮新赛季揭幕战的对手是...",
"url" : "http:\/\/go.rss.sina.com.cn\/redirect.php?url=http:\/\/sports.sina.com.cn\/cba\/2013-10-17\/04006834838.shtml",
"pubDate" : "2013年10月17日 (2周前)",
"enterDate" : "384200:53:00",
"channelId" : "3854395524223685988",
"channelName" : "焦点新闻-新浪体育",
"channelNameSummary" : "焦点新闻-新浪体育",
"channelUrl" : "http:\/\/sports.sina.com.cn",
"author" : "SINA.com",
"tags" : [],
"desc" : "刚升上CBA的四川金强男篮新赛季揭幕战的对手是谁，已成为四川球迷关注的焦点。昨天记者从金强俱乐部获悉，中国篮协已初步确定2013-2014赛季CBA赛程，四川金强的揭幕战是11月10日客场挑战卫冕冠军广东宏远。有意思的是，篮协此前确定的CBA揭幕战时间为11月9日，之所以延后一天....",
"emailed" : False,
"forwarded" : False,
"english" : False
}  , {
"index" : 4,
"articleIndex" : "194588",
"favor" :  False ,
     "read" : False,    
"title" : "贝利推新书《1283》动情落泪 追忆拒绝披头士(图)",
"titleTip" : "贝利推新书《1283》动情落泪 追忆拒绝披头士(图)",
"titleSummary" : "贝利推新书《1283》动情落泪 追忆拒绝披头士(图)",
"descSummary" : "北京时间10月17日消息，巴西球王贝利[微博]周三在圣...",
"url" : "http:\/\/go.rss.sina.com.cn\/redirect.php?url=http:\/\/sports.sina.com.cn\/g\/2013-10-17\/02546834807.shtml",
"pubDate" : "2013年10月17日 (2周前)",
"enterDate" : "384200:47:17",
"channelId" : "3854395524223685988",
"channelName" : "焦点新闻-新浪体育",
"channelNameSummary" : "焦点新闻-新浪体育",
"channelUrl" : "http:\/\/sports.sina.com.cn",
"author" : "SINA.com",
"tags" : [],
"desc" : "北京时间10月17日消息，巴西球王贝利[微博]周三在圣保罗推出了自己最新著作《1283》，在新书的发布会上，还播放了一段贝利职业生涯3分钟的回顾短片，球王贝利在片尾时也忍不住动情落泪。贝利的这本新书，讲诉了贝利球员生涯许多不为人知的故事，并有一些珍藏的图片，贝利发布....",
"emailed" : False,
"forwarded" : False,
"english" : False
}  , {
"index" : 5,
"articleIndex" : "194587",
"favor" :  False ,
     "read" : False,    
"title" : "不听医嘱致伤势反复 新赛季小斯场均20分钟以内？",
"titleTip" : "不听医嘱致伤势反复 新赛季小斯场均20分钟以内？",
"titleSummary" : "不听医嘱致伤势反复 新赛季小斯场均20分钟以内？",
"descSummary" : "北京时间10月17日《ESPN》报道，纽约尼克斯主帅迈...",
"url" : "http:\/\/go.rss.sina.com.cn\/redirect.php?url=http:\/\/sports.sina.com.cn\/nba\/2013-10-17\/01196834734.shtml",
"pubDate" : "2013年10月17日 (2周前)",
"enterDate" : "384200:43:11",
"channelId" : "3854395524223685988",
"channelName" : "焦点新闻-新浪体育",
"channelNameSummary" : "焦点新闻-新浪体育",
"channelUrl" : "http:\/\/sports.sina.com.cn",
"author" : "SINA.com",
"tags" : [],
"desc" : "北京时间10月17日《ESPN》报道，纽约尼克斯主帅迈克-伍德森在今天接受采访时暗示，新赛季阿玛雷-斯塔德迈尔[微博]的场均出场时间可能会因健康原因被限制在20分钟以内。 \u201C我们需要搞清楚他能不能打10分钟、15分钟或20分钟。目前而言我们还无法得出结论，只有等到他复出....",
"emailed" : False,
"forwarded" : False,
"english" : False
}  , {
"index" : 6,
"articleIndex" : "194586",
"favor" :  False ,
     "read" : False,    
"title" : "魔兽：我是德克萨斯人 火箭进总决赛我将牛仔装扮",
"titleTip" : "魔兽：我是德克萨斯人 火箭进总决赛我将牛仔装扮",
"titleSummary" : "魔兽：我是德克萨斯人 火箭进总决赛我将牛仔装扮",
"descSummary" : "北京时间10月17日，据《休斯顿纪事报》的詹妮-戴尔...",
"url" : "http:\/\/go.rss.sina.com.cn\/redirect.php?url=http:\/\/sports.sina.com.cn\/nba\/2013-10-17\/00466834733.shtml",
"pubDate" : "2013年10月17日 (2周前)",
"enterDate" : "384201:10:11",
"channelId" : "3854395524223685988",
"channelName" : "焦点新闻-新浪体育",
"channelNameSummary" : "焦点新闻-新浪体育",
"channelUrl" : "http:\/\/sports.sina.com.cn",
"author" : "SINA.com",
"tags" : [],
"desc" : "北京时间10月17日，据《休斯顿纪事报》的詹妮-戴尔-克里奇报道，在驾临休斯顿后心情大好的德怀特-霍华德，近日更开玩笑地宣称，他已是德克萨斯州人，并正在将自己打扮成一位牛仔。 当地时间周二的训练结束后，霍华德和记者们开起了玩笑，表示自他转投休斯顿后，已成为....",
"emailed" : False,
"forwarded" : False,
"english" : False
}  , {
"index" : 7,
"articleIndex" : "194585",
"favor" :  False ,
     "read" : False,    
"title" : "韦德：我大学时是科比的粉丝 人们只会记得夺冠者",
"titleTip" : "韦德：我大学时是科比的粉丝 人们只会记得夺冠者",
"titleSummary" : "韦德：我大学时是科比的粉丝 人们只会记得夺冠者",
"descSummary" : "北京时间10月17日《太阳哨兵报》报道，上赛季，在...",
"url" : "http:\/\/go.rss.sina.com.cn\/redirect.php?url=http:\/\/sports.sina.com.cn\/nba\/2013-10-17\/00396834732.shtml",
"pubDate" : "2013年10月17日 (2周前)",
"enterDate" : "384201:03:20",
"channelId" : "3854395524223685988",
"channelName" : "焦点新闻-新浪体育",
"channelNameSummary" : "焦点新闻-新浪体育",
"channelUrl" : "http:\/\/sports.sina.com.cn",
"author" : "SINA.com",
"tags" : [],
"desc" : "北京时间10月17日《太阳哨兵报》报道，上赛季，在迈阿密热火[微博]成功卫冕的过程中，有几次涉险过关，可以说运气在其中占据了一定的比重。然而热火将帅对此并不介意，因为绝大多数赢得总冠军的球队也都有类似经历。他们认为，东部决赛以及总决赛中两次被逼到抢七决战的经历，....",
"emailed" : False,
"forwarded" : False,
"english" : False
}  , {
"index" : 8,
"articleIndex" : "194584",
"favor" :  False ,
     "read" : False,    
"title" : "新浪体育评现役50大第13星 37岁邓肯作回第一大前",
"titleTip" : "新浪体育评现役50大第13星 37岁邓肯作回第一大前",
"titleSummary" : "新浪体育评现役50大第13星 37岁邓肯作回第一大前",
"descSummary" : "蒂姆-邓肯在上赛季重焕青春， \u201C石佛\u201D再次回归第一...",
"url" : "http:\/\/go.rss.sina.com.cn\/redirect.php?url=http:\/\/sports.sina.com.cn\/nba\/2013-10-17\/00336834731.shtml",
"pubDate" : "2013年10月17日 (2周前)",
"enterDate" : "384200:56:37",
"channelId" : "3854395524223685988",
"channelName" : "焦点新闻-新浪体育",
"channelNameSummary" : "焦点新闻-新浪体育",
"channelUrl" : "http:\/\/sports.sina.com.cn",
"author" : "SINA.com",
"tags" : [],
"desc" : "蒂姆-邓肯在上赛季重焕青春， \u201C石佛\u201D再次回归第一大前锋的讨论。他的个人表现创下近三年最佳\u2015\u2015正如圣安东尼奥马刺的表现，黑白军团第五次闯进总决赛，距离总冠军只差一个防守篮板 球。37岁的邓肯重回NBA最佳阵容第一队，再次屹立在大前锋之巅，我们也迅速调整了他在新浪....",
"emailed" : False,
"forwarded" : False,
"english" : False
}  , {
"index" : 9,
"articleIndex" : "194583",
"favor" :  False ,
     "read" : False,    
"title" : "詹皇未来成历史最伟大？关键球乔丹科比更受信任",
"titleTip" : "詹皇未来成历史最伟大？关键球乔丹科比更受信任",
"titleSummary" : "詹皇未来成历史最伟大？关键球乔丹科比更受信任",
"descSummary" : "北京时间10月17日，《ESPN》杂志近日对26名NBA...",
"url" : "http:\/\/go.rss.sina.com.cn\/redirect.php?url=http:\/\/sports.sina.com.cn\/nba\/2013-10-17\/00276834730.shtml",
"pubDate" : "2013年10月17日 (2周前)",
"enterDate" : "384200:50:49",
"channelId" : "3854395524223685988",
"channelName" : "焦点新闻-新浪体育",
"channelNameSummary" : "焦点新闻-新浪体育",
"channelUrl" : "http:\/\/sports.sina.com.cn",
"author" : "SINA.com",
"tags" : [],
"desc" : "北京时间10月17日，《ESPN》杂志近日对26名NBA球员进行了问卷调查，虽然其中有近1\/4的人认为勒布朗-詹姆斯在未来将成为NBA历史上最优秀的球员，但是一说到关键球，他们均表示更愿意把这个机会留给迈克尔-乔丹或者科比[微博]-布莱恩特。 根据这次问卷调查的结果来看，有....",
"emailed" : False,
"forwarded" : False,
"english" : False
}  , {
"index" : 10,
"articleIndex" : "194582",
"favor" :  False ,
     "read" : False,    
"title" : "英格兰内讧!前曼联天才掌掴曼联飞翼 点球惹祸(图)",
"titleTip" : "英格兰内讧!前曼联天才掌掴曼联飞翼 点球惹祸(图)",
"titleSummary" : "英格兰内讧!前曼联天才掌掴曼联飞翼 点球惹祸(图)",
"descSummary" : "英格兰[微博]队进军世界杯，英格兰U21也没有闲着，...",
"url" : "http:\/\/go.rss.sina.com.cn\/redirect.php?url=http:\/\/sports.sina.com.cn\/g\/pl\/2013-10-17\/00046834724.shtml",
"pubDate" : "2013年10月17日 (2周前)",
"enterDate" : "384200:58:13",
"channelId" : "3854395524223685988",
"channelName" : "焦点新闻-新浪体育",
"channelNameSummary" : "焦点新闻-新浪体育",
"channelUrl" : "http:\/\/sports.sina.com.cn",
"author" : "SINA.com",
"tags" : [],
"desc" : "英格兰[微博]队进军世界杯，英格兰U21也没有闲着，他们在欧洲U21预赛中5-0大胜立陶宛，但是这场胜利之下却发生了一起不愉快的事件\u2015\u2015前曼联[微博][微博]天才中场莫里森和自己的队友、曼联飞翼扎哈爆发了冲突。 本场比赛，莫里森为英格兰打进两球，是球队获胜的重要功....",
"emailed" : False,
"forwarded" : False,
"english" : False
}  , {
"index" : 11,
"articleIndex" : "194580",
"favor" :  False ,
     "read" : False,    
"title" : "乒超-郭跃擒丁宁八一逆转北京 刘诗雯输球山西负",
"titleTip" : "乒超-郭跃擒丁宁八一逆转北京 刘诗雯输球山西负",
"titleSummary" : "乒超-郭跃擒丁宁八一逆转北京 刘诗雯输球山西负",
"descSummary" : "北京时间10月16日消息，2013年中国乒乓球俱乐部超级...",
"url" : "http:\/\/go.rss.sina.com.cn\/redirect.php?url=http:\/\/sports.sina.com.cn\/o\/2013-10-16\/23276834718.shtml",
"pubDate" : "2013年10月16日 (2周前)",
"enterDate" : "384200:51:15",
"channelId" : "3854395524223685988",
"channelName" : "焦点新闻-新浪体育",
"channelNameSummary" : "焦点新闻-新浪体育",
"channelUrl" : "http:\/\/sports.sina.com.cn",
"author" : "SINA.com",
"tags" : [],
"desc" : "北京时间10月16日消息，2013年中国乒乓球俱乐部超级联赛女子团体展开第16轮的争夺，虽然郭焱和丁宁先各赢一盘，但八一队的郭跃、曹臻、木子\/曹臻随后各扳回一盘，她们以3比2逆转北京队；武杨带领的大同队以3比0横扫刘诗雯压阵的山西队，八一队、大同队和山西队都提前锁定争冠....",
"emailed" : False,
"forwarded" : False,
"english" : False
}  , {
"index" : 12,
"articleIndex" : "194579",
"favor" :  False ,
     "read" : False,    
"title" : "乒超-宁波横扫天津确保头名 上海输球仍进争冠组",
"titleTip" : "乒超-宁波横扫天津确保头名 上海输球仍进争冠组",
"titleSummary" : "乒超-宁波横扫天津确保头名 上海输球仍进争冠组",
"descSummary" : "北京时间10月16日消息，2013年中国乒乓球[微博]俱乐部...",
"url" : "http:\/\/go.rss.sina.com.cn\/redirect.php?url=http:\/\/sports.sina.com.cn\/o\/2013-10-16\/23166834709.shtml",
"pubDate" : "2013年10月16日 (2周前)",
"enterDate" : "384200:40:02",
"channelId" : "3854395524223685988",
"channelName" : "焦点新闻-新浪体育",
"channelNameSummary" : "焦点新闻-新浪体育",
"channelUrl" : "http:\/\/sports.sina.com.cn",
"author" : "SINA.com",
"tags" : [],
"desc" : "北京时间10月16日消息，2013年中国乒乓球[微博]俱乐部超级联赛男子团体结束第17轮的争夺，马龙带领的宁波队3比0轻取天津队，他们确保第一阶段头名进入争冠组；张继科独得两分帮助山东队3比1力克上海队，输球的上海队仍确保一个争冠组席位；缺少了王皓的八一队战斗力强劲，他们....",
"emailed" : False,
"forwarded" : False,
"english" : False
}  , {
"index" : 13,
"articleIndex" : "194578",
"favor" :  False ,
     "read" : False,    
"title" : "新浪VS斯特恩：匿名上微博看评论 湖人会超出预期",
"titleTip" : "新浪VS斯特恩：匿名上微博看评论 湖人会超出预期",
"titleSummary" : "新浪VS斯特恩：匿名上微博看评论 湖人会超出预期",
"descSummary" : "北京时间10月16日，NBA总裁大卫-斯特恩在下榻酒店...",
"url" : "http:\/\/go.rss.sina.com.cn\/redirect.php?url=http:\/\/sports.sina.com.cn\/nba\/2013-10-16\/23016834707.shtml",
"pubDate" : "2013年10月16日 (2周前)",
"enterDate" : "384200:55:44",
"channelId" : "3854395524223685988",
"channelName" : "焦点新闻-新浪体育",
"channelNameSummary" : "焦点新闻-新浪体育",
"channelUrl" : "http:\/\/sports.sina.com.cn",
"author" : "SINA.com",
"tags" : [],
"desc" : "北京时间10月16日，NBA总裁大卫-斯特恩在下榻酒店接受了新浪体育的独家专访，他透露，自己偷偷上微博看球迷对NBA各方的评论，希望NBA官方帐号的粉丝能由目前的2500万涨到1亿2500万。斯特恩还再次谈到了\u201C那个著名的\u2018中国球员\u2019科比[微博]-布莱恩特\u201D，并预测，科比回归后，湖....",
"emailed" : False,
"forwarded" : False,
"english" : False
}  , {
"index" : 14,
"articleIndex" : "194577",
"favor" :  False ,
     "read" : False,    
"title" : "京媒：国足踢老虎杯才棋逢对手 还没死先别忙开骂",
"titleTip" : "京媒：国足踢老虎杯才棋逢对手 还没死先别忙开骂",
"titleSummary" : "京媒：国足踢老虎杯才棋逢对手 还没死先别忙开骂",
"descSummary" : "北京时间10月16日，国足战平印尼再次引起了轩然大...",
"url" : "http:\/\/go.rss.sina.com.cn\/redirect.php?url=http:\/\/sports.sina.com.cn\/n\/2013-10-16\/22376834703.shtml",
"pubDate" : "2013年10月16日 (2周前)",
"enterDate" : "384201:01:42",
"channelId" : "3854395524223685988",
"channelName" : "焦点新闻-新浪体育",
"channelNameSummary" : "焦点新闻-新浪体育",
"channelUrl" : "http:\/\/sports.sina.com.cn",
"author" : "SINA.com",
"tags" : [],
"desc" : "北京时间10月16日，国足战平印尼再次引起了轩然大波，北京体育频道在今晚发表了\u201C国足还没死，先别忙开骂\u201D的特评，中国足坛名宿金志扬、前国脚徐阳等球员教练也都对国足的比赛进行了一番点评。金志扬表示现在需要给国足鼓劲。 中国足坛名宿金志扬直言国足老毛病没有改....",
"emailed" : False,
"forwarded" : False,
"english" : False
}  , {
"index" : 15,
"articleIndex" : "194576",
"favor" :  False ,
     "read" : False,    
"title" : "广东体育：热身胜利成精神鸦片 平印尼节操碎一地",
"titleTip" : "广东体育：热身胜利成精神鸦片 平印尼节操碎一地",
"titleSummary" : "广东体育：热身胜利成精神鸦片 平印尼节操碎一地",
"descSummary" : "北京时间10月16日晚20:00，广东电视台体育频道《足...",
"url" : "http:\/\/go.rss.sina.com.cn\/redirect.php?url=http:\/\/sports.sina.com.cn\/n\/2013-10-16\/22116834691.shtml",
"pubDate" : "2013年10月16日 (2周前)",
"enterDate" : "384201:05:22",
"channelId" : "3854395524223685988",
"channelName" : "焦点新闻-新浪体育",
"channelNameSummary" : "焦点新闻-新浪体育",
"channelUrl" : "http:\/\/sports.sina.com.cn",
"author" : "SINA.com",
"tags" : [],
"desc" : "北京时间10月16日晚20:00，广东电视台体育频道《足球周刊》特别节目聚焦中国队客场1-1战平印尼队，该节目认为这场比赛给人的感觉是节操碎了一地，沉浸热身赛胜利是中国足球的精神鸦片。 在谈到国足目标是不是需要一再调低的问题时，该节目主持人表示：\u201C光是调低那是没....",
"emailed" : False,
"forwarded" : False,
"english" : False
}  , {
"index" : 16,
"articleIndex" : "194574",
"favor" :  False ,
     "read" : False,    
"title" : "沪媒：足协领导乌鸦嘴说中了 监军失败不适请里皮",
"titleTip" : "沪媒：足协领导乌鸦嘴说中了 监军失败不适请里皮",
"titleSummary" : "沪媒：足协领导乌鸦嘴说中了 监军失败不适请里皮",
"descSummary" : "国足正式比赛又掉链子，客场平印尼，一夜之间打回原...",
"url" : "http:\/\/go.rss.sina.com.cn\/redirect.php?url=http:\/\/sports.sina.com.cn\/n\/2013-10-16\/20356834641.shtml",
"pubDate" : "2013年10月16日 (2周前)",
"enterDate" : "384200:59:46",
"channelId" : "3854395524223685988",
"channelName" : "焦点新闻-新浪体育",
"channelNameSummary" : "焦点新闻-新浪体育",
"channelUrl" : "http:\/\/sports.sina.com.cn",
"author" : "SINA.com",
"tags" : [],
"desc" : "国足正式比赛又掉链子，客场平印尼，一夜之间打回原形。傅博[微博]临场指挥有问题，轻敌思想暴露无遗，足协更要承担战略责任。出线形势变复杂，这个节骨眼儿是否该请里皮出山救火？今晚上海五星体育《今日体育快评》就对国足的表现进行了一番点评。&#160; 国足昨晚在客....",
"emailed" : False,
"forwarded" : False,
"english" : False
}  , {
"index" : 17,
"articleIndex" : "194575",
"favor" :  False ,
     "read" : False,    
"title" : "NBA中国赛自有利器观赛 捕捉巨星风采见证勇士逆转",
"titleTip" : "NBA中国赛自有利器观赛 捕捉巨星风采见证勇士逆转",
"titleSummary" : "NBA中国赛自有利器观赛 捕捉巨星风采见证勇士逆转",
"descSummary" : "北京时间10月15日，NBA中国赛在北京万事达中心...",
"url" : "http:\/\/go.rss.sina.com.cn\/redirect.php?url=http:\/\/sports.sina.com.cn\/nba\/2013-10-16\/20206834637.shtml",
"pubDate" : "2013年10月16日 (2周前)",
"enterDate" : "384200:14:05",
"channelId" : "3854395524223685988",
"channelName" : "焦点新闻-新浪体育",
"channelNameSummary" : "焦点新闻-新浪体育",
"channelUrl" : "http:\/\/sports.sina.com.cn",
"author" : "SINA.com",
"tags" : [],
"desc" : "北京时间10月15日，NBA中国赛在北京万事达中心拉开帷幕。勇士队凭借着大卫-李和库里[微博]两员大将的出色发挥最终以100-95击败湖人[微博]。科比[微博]-布莱恩特因伤只能坐在场边，但依然引得球迷狂热的欢呼。 虽然只是一场略带表演性质的季前赛，但场上球员的对抗却非....",
"emailed" : False,
"forwarded" : False,
"english" : False
}  , {
"index" : 18,
"articleIndex" : "194573",
"favor" :  False ,
     "read" : False,    
"title" : "首尔:德扬莫利纳远超孔卡穆里奇 钱是恒大唯一优势",
"titleTip" : "首尔:德扬莫利纳远超孔卡穆里奇 钱是恒大唯一优势",
"titleSummary" : "首尔:德扬莫利纳远超孔卡穆里奇 钱是恒大唯一优势",
"descSummary" : "16日，首尔FC俱乐部在GS冠军会馆举行媒体公开见面...",
"url" : "http:\/\/go.rss.sina.com.cn\/redirect.php?url=http:\/\/sports.sina.com.cn\/j\/2013-10-16\/19116834606.shtml",
"pubDate" : "2013年10月16日 (2周前)",
"enterDate" : "384201:06:09",
"channelId" : "3854395524223685988",
"channelName" : "焦点新闻-新浪体育",
"channelNameSummary" : "焦点新闻-新浪体育",
"channelUrl" : "http:\/\/sports.sina.com.cn",
"author" : "SINA.com",
"tags" : [],
"desc" : "16日，首尔FC俱乐部在GS冠军会馆举行媒体公开见面会，埃斯库德罗和右后卫崔孝镇列席。 在展望不久即将打响的亚冠决赛时，首尔球员认为，里皮领衔的广州恒大[微博]始终炫耀着莫大的资金实力，尤其队内外援的破坏力超乎想象。不过，埃斯库德罗和崔孝镇均表示，不必太忧虑 ，首尔....",
"emailed" : False,
"forwarded" : False,
"english" : False
}  , {
"index" : 19,
"articleIndex" : "194581",
"favor" :  False ,
     "read" : False,    
"title" : "篮协确认CBA揭幕战广东战四川 易建联大战哈达迪",
"titleTip" : "篮协确认CBA揭幕战广东战四川 易建联大战哈达迪",
"titleSummary" : "篮协确认CBA揭幕战广东战四川 易建联大战哈达迪",
"descSummary" : "华奥星空10月16日上海电(记者 杨宝岩) 今天下午，C...",
"url" : "http:\/\/go.rss.sina.com.cn\/redirect.php?url=http:\/\/sports.sina.com.cn\/cba\/2013-10-16\/17336834549.shtml",
"pubDate" : "2013年10月16日 (2周前)",
"enterDate" : "384194:26:35",
"channelId" : "3854395524223685988",
"channelName" : "焦点新闻-新浪体育",
"channelNameSummary" : "焦点新闻-新浪体育",
"channelUrl" : "http:\/\/sports.sina.com.cn",
"author" : "SINA.com",
"tags" : [],
"desc" : "华奥星空10月16日上海电(记者 杨宝岩) 今天下午，CBA[微博]联赛委员会召开了联赛前的准备会议，同时研讨了本赛季相关的内容。在会上，篮协批复了宏远俱乐部关于承办本赛季的CBA揭幕战的请求。CBA揭幕战将由广东宏远[微博]对阵四川金强，地点在深圳分赛区，这就意味着球迷们可....",
"emailed" : False,
"forwarded" : False,
"english" : False
} ]
}
