{
"mode" : {"viewTitle" : 1,   "viewNew" : 0,  "pageIndex" : 1 },
 "channel" : {"id" : "8232096713584728058", "booked" : False, "subNumber" : 22, "name" : "公务员-新浪教育", "url" : "http:\/\/roll.edu.sina.com.cn\/all\/zgks\/kaoshi\/index.shtml", "feed" : "http:\/\/rss.sina.com.cn\/edu\/gwy.xml", "author" : "WWW.SINA.COM.CN", "desc" : "文化教育-公务员", "imageUrl" : "http:\/\/www.sinaimg.cn\/home\/deco\/2009\/0330\/logo_home_edu.gif", "postPerWeek" : "0", "lastCrawTime" : "2013年10月21日 (1周前)", "crawDateTime" : "2013年10月21日 (1周前)", "lastHttpCode" : "200"}, "page" : {
"startIndex" : 0,
"totalCount" : 5000,
"pageIndex" : 1,
"lastPage" : 250,
"pageSize" : 20,
"english" :  False },
 "unreadNum" : 0, "shotIndex" : -1,
"articles" : [
{
"index" : 0,
"articleIndex" : "7522",
"favor" :  False ,
     "read" : False,    
"title" : "2014年国考报名第六日点击最冷50部门",
"titleTip" : "2014年国考报名第六日点击最冷50部门",
"titleSummary" : "2014年国考报名第六日点击最冷50部门",
"descSummary" : "新浪教育讯 今天是2014年国家公务员考试报名的第六天，为了方...",
"url" : "http:\/\/go.rss.sina.com.cn\/redirect.php?url=http:\/\/edu.sina.com.cn\/official\/2013-10-21\/1528398586.shtml",
"pubDate" : "2013年10月21日 (1周前)",
"enterDate" : "384200:29:08",
"channelId" : "8232096713584728058",
"channelName" : "公务员-新浪教育",
"channelNameSummary" : "公务员-新浪教育",
"channelUrl" : "http:\/\/roll.edu.sina.com.cn\/all\/zgks\/kaoshi\/index.shtml",
"author" : "WWW.SINA.COM.CN",
"tags" : [],
"desc" : "新浪教育讯 今天是2014年国家公务员考试报名的第六天，为了方便广大考生了解最新报名信息，小编特别整理了网友点击最冷最热职位及部门，供广大考生参考。截止到21日15点，网友点击的最冷部门为： 排名 部门名称 查看此部门所有职位....",
"emailed" : False,
"forwarded" : False,
"english" : False
}  , {
"index" : 1,
"articleIndex" : "7520",
"favor" :  False ,
     "read" : False,    
"title" : "2014年国考报名第六日点击最热50部门",
"titleTip" : "2014年国考报名第六日点击最热50部门",
"titleSummary" : "2014年国考报名第六日点击最热50部门",
"descSummary" : "新浪教育讯 今天是2014年国家公务员考试报名的第六天，为了方...",
"url" : "http:\/\/go.rss.sina.com.cn\/redirect.php?url=http:\/\/edu.sina.com.cn\/official\/2013-10-21\/1525398585.shtml",
"pubDate" : "2013年10月21日 (1周前)",
"enterDate" : "384200:56:29",
"channelId" : "8232096713584728058",
"channelName" : "公务员-新浪教育",
"channelNameSummary" : "公务员-新浪教育",
"channelUrl" : "http:\/\/roll.edu.sina.com.cn\/all\/zgks\/kaoshi\/index.shtml",
"author" : "WWW.SINA.COM.CN",
"tags" : [],
"desc" : "新浪教育讯 今天是2014年国家公务员考试报名的第六天，为了方便广大考生了解最新报名信息，小编特别整理了网友点击最冷最热职位及部门，供广大考生参考。截止到21日15点，网友点击的最热部门为： 排名 部门名称 查看此部门所有职位....",
"emailed" : False,
"forwarded" : False,
"english" : False
}  , {
"index" : 2,
"articleIndex" : "7519",
"favor" :  False ,
     "read" : False,    
"title" : "2014年国考报名第六日点击最冷50职位",
"titleTip" : "2014年国考报名第六日点击最冷50职位",
"titleSummary" : "2014年国考报名第六日点击最冷50职位",
"descSummary" : "新浪教育讯 今天是2014年国家公务员考试报名的第六天，为了方...",
"url" : "http:\/\/go.rss.sina.com.cn\/redirect.php?url=http:\/\/edu.sina.com.cn\/official\/2013-10-21\/1523398583.shtml",
"pubDate" : "2013年10月21日 (1周前)",
"enterDate" : "384200:53:48",
"channelId" : "8232096713584728058",
"channelName" : "公务员-新浪教育",
"channelNameSummary" : "公务员-新浪教育",
"channelUrl" : "http:\/\/roll.edu.sina.com.cn\/all\/zgks\/kaoshi\/index.shtml",
"author" : "WWW.SINA.COM.CN",
"tags" : [],
"desc" : "新浪教育讯 今天是2014年国家公务员考试报名的第六天，为了方便广大考生了解最新报名信息，小编特别整理了网友点击最冷最热职位及部门，供广大考生参考。截止到21日15点，网友点击的最冷职位为： 排名 部门名称 职位名称 职位代....",
"emailed" : False,
"forwarded" : False,
"english" : False
}  , {
"index" : 3,
"articleIndex" : "7518",
"favor" :  False ,
     "read" : False,    
"title" : "2014年国考报名第六日点击最热50职位",
"titleTip" : "2014年国考报名第六日点击最热50职位",
"titleSummary" : "2014年国考报名第六日点击最热50职位",
"descSummary" : "新浪教育讯 今天是2014年国家公务员考试报名的第六天，为了方...",
"url" : "http:\/\/go.rss.sina.com.cn\/redirect.php?url=http:\/\/edu.sina.com.cn\/official\/2013-10-21\/1515398581.shtml",
"pubDate" : "2013年10月21日 (1周前)",
"enterDate" : "384201:16:05",
"channelId" : "8232096713584728058",
"channelName" : "公务员-新浪教育",
"channelNameSummary" : "公务员-新浪教育",
"channelUrl" : "http:\/\/roll.edu.sina.com.cn\/all\/zgks\/kaoshi\/index.shtml",
"author" : "WWW.SINA.COM.CN",
"tags" : [],
"desc" : "新浪教育讯 今天是2014年国家公务员考试报名的第六天，为了方便广大考生了解最新报名信息，小编特别整理了网友点击最冷最热职位及部门，供广大考生参考。截止到21日15点，网友点击的最热职位为： 排名 部门名称 职位名称 职位代....",
"emailed" : False,
"forwarded" : False,
"english" : False
}  , {
"index" : 4,
"articleIndex" : "7521",
"favor" :  False ,
     "read" : False,    
"title" : "2014年国考报名各省市报名情况汇总(21日)",
"titleTip" : "2014年国考报名各省市报名情况汇总(21日)",
"titleSummary" : "2014年国考报名各省市报名情况汇总(21日)",
"descSummary" : "新浪教育讯 今天是2014年国家公务员考试报名的第六天，为了...",
"url" : "http:\/\/go.rss.sina.com.cn\/redirect.php?url=http:\/\/edu.sina.com.cn\/official\/2013-10-21\/1508398575.shtml",
"pubDate" : "2013年10月21日 (1周前)",
"enterDate" : "384200:08:55",
"channelId" : "8232096713584728058",
"channelName" : "公务员-新浪教育",
"channelNameSummary" : "公务员-新浪教育",
"channelUrl" : "http:\/\/roll.edu.sina.com.cn\/all\/zgks\/kaoshi\/index.shtml",
"author" : "WWW.SINA.COM.CN",
"tags" : [],
"desc" : "新浪教育讯 今天是2014年国家公务员考试报名的第六天，为了方便广大考生了解最新报名信息，小编特别整理了全国各各省市的报名情况，供广大考生参考。 广东：审核人数达44056人，最热职位931:1 宁夏：审核人数达2455人，最热职位504:1 山西：审核人数达80....",
"emailed" : False,
"forwarded" : False,
"english" : False
}  , {
"index" : 5,
"articleIndex" : "7517",
"favor" :  False ,
     "read" : False,    
"title" : "国考报名：重庆地区最热职位286:1(21日)",
"titleTip" : "国考报名：重庆地区最热职位286:1(21日)",
"titleSummary" : "国考报名：重庆地区最热职位286:1(21日)",
"descSummary" : "还剩3天报名，该出手时就出手！无人报考职位只剩两个，竞争...",
"url" : "http:\/\/go.rss.sina.com.cn\/redirect.php?url=http:\/\/edu.sina.com.cn\/official\/2013-10-21\/1453398569.shtml",
"pubDate" : "2013年10月21日 (1周前)",
"enterDate" : "384200:53:59",
"channelId" : "8232096713584728058",
"channelName" : "公务员-新浪教育",
"channelNameSummary" : "公务员-新浪教育",
"channelUrl" : "http:\/\/roll.edu.sina.com.cn\/all\/zgks\/kaoshi\/index.shtml",
"author" : "WWW.SINA.COM.CN",
"tags" : [],
"desc" : "还剩3天报名，该出手时就出手！无人报考职位只剩两个，竞争逐渐体现出来！渝中区国家税务局1：286的竞争比例持续此次重庆地区第一位 2014国家公务员考试考生报名已进入第六天。据中公教育统计，截至21日8时，国考职位中重庆地区所属职位通过审核总人数为9736人，共有2....",
"emailed" : False,
"forwarded" : False,
"english" : False
}  , {
"index" : 6,
"articleIndex" : "7516",
"favor" :  False ,
     "read" : False,    
"title" : "国考报名：江苏最热职位357:1(21日)",
"titleTip" : "国考报名：江苏最热职位357:1(21日)",
"titleSummary" : "国考报名：江苏最热职位357:1(21日)",
"descSummary" : "截至10月21日8时，2014国家公务员考试考生报名江苏所属职位通过...",
"url" : "http:\/\/go.rss.sina.com.cn\/redirect.php?url=http:\/\/edu.sina.com.cn\/official\/2013-10-21\/1451398567.shtml",
"pubDate" : "2013年10月21日 (1周前)",
"enterDate" : "384200:51:52",
"channelId" : "8232096713584728058",
"channelName" : "公务员-新浪教育",
"channelNameSummary" : "公务员-新浪教育",
"channelUrl" : "http:\/\/roll.edu.sina.com.cn\/all\/zgks\/kaoshi\/index.shtml",
"author" : "WWW.SINA.COM.CN",
"tags" : [],
"desc" : "截至10月21日8时，2014国家公务员考试考生报名江苏所属职位通过审核总人数为11445人，共有17个职位无人通过审核。 一、各部门报名人数分析 截止到21日8时，通过审核人数前三位的部门依次是：江苏省国家税务局、南京海关、上海铁路公安局，三部门通过审核总人数....",
"emailed" : False,
"forwarded" : False,
"english" : False
}  , {
"index" : 7,
"articleIndex" : "7515",
"favor" :  False ,
     "read" : False,    
"title" : "国考报名：湖北最热职位418:1(21日)",
"titleTip" : "国考报名：湖北最热职位418:1(21日)",
"titleSummary" : "国考报名：湖北最热职位418:1(21日)",
"descSummary" : "2014国家公务员考试网上报名已进入第六天，据中公教育统计，截...",
"url" : "http:\/\/go.rss.sina.com.cn\/redirect.php?url=http:\/\/edu.sina.com.cn\/official\/2013-10-21\/1449398566.shtml",
"pubDate" : "2013年10月21日 (1周前)",
"enterDate" : "384200:50:06",
"channelId" : "8232096713584728058",
"channelName" : "公务员-新浪教育",
"channelNameSummary" : "公务员-新浪教育",
"channelUrl" : "http:\/\/roll.edu.sina.com.cn\/all\/zgks\/kaoshi\/index.shtml",
"author" : "WWW.SINA.COM.CN",
"tags" : [],
"desc" : "2014国家公务员考试网上报名已进入第六天，据中公教育统计，截止2013年10月21日上午8时，全国报名合格人数432331人，整体竞争比22.1:1。报名合格人数最多及竞争比例最大的职位仍然为国家民族事务委员会民族理论政策研究室的研究一处主任科员及以下岗位，合格人数达到6032人，....",
"emailed" : False,
"forwarded" : False,
"english" : False
}  , {
"index" : 8,
"articleIndex" : "7514",
"favor" :  False ,
     "read" : False,    
"title" : "国考报名：黑龙江最热职位323:1(21日)",
"titleTip" : "国考报名：黑龙江最热职位323:1(21日)",
"titleSummary" : "国考报名：黑龙江最热职位323:1(21日)",
"descSummary" : "2014国家公务员考试报名目前正在进行中，截止至2013年10月21...",
"url" : "http:\/\/go.rss.sina.com.cn\/redirect.php?url=http:\/\/edu.sina.com.cn\/official\/2013-10-21\/1446398565.shtml",
"pubDate" : "2013年10月21日 (1周前)",
"enterDate" : "384201:16:59",
"channelId" : "8232096713584728058",
"channelName" : "公务员-新浪教育",
"channelNameSummary" : "公务员-新浪教育",
"channelUrl" : "http:\/\/roll.edu.sina.com.cn\/all\/zgks\/kaoshi\/index.shtml",
"author" : "WWW.SINA.COM.CN",
"tags" : [],
"desc" : "2014国家公务员考试报名目前正在进行中，截止至2013年10月21日8时，国考职位中黑龙江所属职位通过审核总人数为17928人，共有32个职位无人通过审核，平均竞争比例为17.61:1，是昨日的2倍，建议考生在报考时尽量避开热度较高的职位，黑龙江中公教育将每日为您提供最新的报考数据....",
"emailed" : False,
"forwarded" : False,
"english" : False
}  , {
"index" : 9,
"articleIndex" : "7513",
"favor" :  False ,
     "read" : False,    
"title" : "国考报名：河南最热职位213:1(21日)",
"titleTip" : "国考报名：河南最热职位213:1(21日)",
"titleSummary" : "国考报名：河南最热职位213:1(21日)",
"descSummary" : "据中公教育统计，截至21日8时，国考职位中河南省所属职位通过审...",
"url" : "http:\/\/go.rss.sina.com.cn\/redirect.php?url=http:\/\/edu.sina.com.cn\/official\/2013-10-21\/1420398561.shtml",
"pubDate" : "2013年10月21日 (1周前)",
"enterDate" : "384200:51:16",
"channelId" : "8232096713584728058",
"channelName" : "公务员-新浪教育",
"channelNameSummary" : "公务员-新浪教育",
"channelUrl" : "http:\/\/roll.edu.sina.com.cn\/all\/zgks\/kaoshi\/index.shtml",
"author" : "WWW.SINA.COM.CN",
"tags" : [],
"desc" : "据中公教育统计，截至21日8时，国考职位中河南省所属职位通过审核总人数为9399人，共有3个职位无人通过审核，平均竞争比例为20:1。 一、各部门报名人数分析 截止到21日8时，通过审核人数前三位的部门依次是：河南税务局、中国银行业监督管理委员会河南监管局、....",
"emailed" : False,
"forwarded" : False,
"english" : False
}  , {
"index" : 10,
"articleIndex" : "7512",
"favor" :  False ,
     "read" : False,    
"title" : "国考报名：河北审核人数达13027人(21日)",
"titleTip" : "国考报名：河北审核人数达13027人(21日)",
"titleSummary" : "国考报名：河北审核人数达13027人(21日)",
"descSummary" : "2014国家公务员考试报名进入第六天，据中公教育统计，国考...",
"url" : "http:\/\/go.rss.sina.com.cn\/redirect.php?url=http:\/\/edu.sina.com.cn\/official\/2013-10-21\/1418398560.shtml",
"pubDate" : "2013年10月21日 (1周前)",
"enterDate" : "384200:49:42",
"channelId" : "8232096713584728058",
"channelName" : "公务员-新浪教育",
"channelNameSummary" : "公务员-新浪教育",
"channelUrl" : "http:\/\/roll.edu.sina.com.cn\/all\/zgks\/kaoshi\/index.shtml",
"author" : "WWW.SINA.COM.CN",
"tags" : [],
"desc" : "2014国家公务员考试报名进入第六天，据中公教育统计，国考职位中河北所属职位通过审核总人数已经过万，为13027人，河北省国税局由于招录人数和职位较多，报名人数也相对较多，其中报名审核人数通过最多的岗位为秦皇岛市北戴河区国家税务局389人。目前报名工作正在进行，所以中....",
"emailed" : False,
"forwarded" : False,
"english" : False
}  , {
"index" : 11,
"articleIndex" : "7511",
"favor" :  False ,
     "read" : False,    
"title" : "国考报名：北京地区最热职位474:1(21日)",
"titleTip" : "国考报名：北京地区最热职位474:1(21日)",
"titleSummary" : "国考报名：北京地区最热职位474:1(21日)",
"descSummary" : "据中公教育统计，截止到21日8时，国考职位中北京所属职位通...",
"url" : "http:\/\/go.rss.sina.com.cn\/redirect.php?url=http:\/\/edu.sina.com.cn\/official\/2013-10-21\/1417398559.shtml",
"pubDate" : "2013年10月21日 (1周前)",
"enterDate" : "384200:48:07",
"channelId" : "8232096713584728058",
"channelName" : "公务员-新浪教育",
"channelNameSummary" : "公务员-新浪教育",
"channelUrl" : "http:\/\/roll.edu.sina.com.cn\/all\/zgks\/kaoshi\/index.shtml",
"author" : "WWW.SINA.COM.CN",
"tags" : [],
"desc" : "据中公教育统计，截止到21日8时，国考职位中北京所属职位通过审核总人数为9138人，共有5个职位无人通过审核，平均竞争比例为14.53:1，这与昨天的竞争比例10.66:1相比，上升速度是很快的。在之后报名的三天中，数据还会有很大变化，希望大家及时关注。。为帮助广大考生了解现在....",
"emailed" : False,
"forwarded" : False,
"english" : False
}  , {
"index" : 12,
"articleIndex" : "7510",
"favor" :  False ,
     "read" : False,    
"title" : "国考报名：云南最热职位968:1(21日)",
"titleTip" : "国考报名：云南最热职位968:1(21日)",
"titleSummary" : "国考报名：云南最热职位968:1(21日)",
"descSummary" : "10月21日8时，2014国家公务员考试考生报名环节已经结束。据云南...",
"url" : "http:\/\/go.rss.sina.com.cn\/redirect.php?url=http:\/\/edu.sina.com.cn\/official\/2013-10-21\/1415398557.shtml",
"pubDate" : "2013年10月21日 (1周前)",
"enterDate" : "384201:16:25",
"channelId" : "8232096713584728058",
"channelName" : "公务员-新浪教育",
"channelNameSummary" : "公务员-新浪教育",
"channelUrl" : "http:\/\/roll.edu.sina.com.cn\/all\/zgks\/kaoshi\/index.shtml",
"author" : "WWW.SINA.COM.CN",
"tags" : [],
"desc" : "10月21日8时，2014国家公务员考试考生报名环节已经结束。据云南中公教育统计，国考职位中云南所属职位通过审核总人数为9551人，共有12个职位无人通过审核，平均竞争比例为31:1。需注意这并不是最终的报名人数，审核时间是截至到2014年10月24日18:00。 一、各部门报名人....",
"emailed" : False,
"forwarded" : False,
"english" : False
}  , {
"index" : 13,
"articleIndex" : "7509",
"favor" :  False ,
     "read" : False,    
"title" : "国考报名：内蒙古最热职位227:1(21日)",
"titleTip" : "国考报名：内蒙古最热职位227:1(21日)",
"titleSummary" : "国考报名：内蒙古最热职位227:1(21日)",
"descSummary" : "10月21日，已进入2014国家公务员考试考生报名的第六天。据中...",
"url" : "http:\/\/go.rss.sina.com.cn\/redirect.php?url=http:\/\/edu.sina.com.cn\/official\/2013-10-21\/1413398555.shtml",
"pubDate" : "2013年10月21日 (1周前)",
"enterDate" : "384201:14:47",
"channelId" : "8232096713584728058",
"channelName" : "公务员-新浪教育",
"channelNameSummary" : "公务员-新浪教育",
"channelUrl" : "http:\/\/roll.edu.sina.com.cn\/all\/zgks\/kaoshi\/index.shtml",
"author" : "WWW.SINA.COM.CN",
"tags" : [],
"desc" : "10月21日，已进入2014国家公务员考试考生报名的第六天。据中公教育统计，国考职位中内蒙所属职位通过审核总人数为8381人，共有18个职位无人通过审核，平均竞争比例为20.6：1。需注意这并不是最终的报名人数，审核时间是截至到2014年10月24日18:00。一、各部门报名人数分析截止....",
"emailed" : False,
"forwarded" : False,
"english" : False
}  , {
"index" : 14,
"articleIndex" : "7508",
"favor" :  False ,
     "read" : False,    
"title" : "国考报名：福建最热职位338:1(21日)",
"titleTip" : "国考报名：福建最热职位338:1(21日)",
"titleSummary" : "国考报名：福建最热职位338:1(21日)",
"descSummary" : "一、各部门报名人数分析 截止21日8时，通过审核人数前三位的部门...",
"url" : "http:\/\/go.rss.sina.com.cn\/redirect.php?url=http:\/\/edu.sina.com.cn\/official\/2013-10-21\/1412398553.shtml",
"pubDate" : "2013年10月21日 (1周前)",
"enterDate" : "384201:13:32",
"channelId" : "8232096713584728058",
"channelName" : "公务员-新浪教育",
"channelNameSummary" : "公务员-新浪教育",
"channelUrl" : "http:\/\/roll.edu.sina.com.cn\/all\/zgks\/kaoshi\/index.shtml",
"author" : "WWW.SINA.COM.CN",
"tags" : [],
"desc" : "一、各部门报名人数分析 截止21日8时，通过审核人数前三位的部门依次是：福建省国家税务局、福州海关、厦门市国家税务局，三部门通过审核总人数达7709人，占通过审核总人数的59%。 为帮助广大考生更清晰的了解今日报名情况，中公教育整理了审核通过人数前十位的....",
"emailed" : False,
"forwarded" : False,
"english" : False
}  , {
"index" : 15,
"articleIndex" : "7507",
"favor" :  False ,
     "read" : False,    
"title" : "国考报名：天津审核人数达13723人(21日)",
"titleTip" : "国考报名：天津审核人数达13723人(21日)",
"titleSummary" : "国考报名：天津审核人数达13723人(21日)",
"descSummary" : "10月21日 早8时，2014国家公务员考试考生报名环节进入到第...",
"url" : "http:\/\/go.rss.sina.com.cn\/redirect.php?url=http:\/\/edu.sina.com.cn\/official\/2013-10-21\/1411398552.shtml",
"pubDate" : "2013年10月21日 (1周前)",
"enterDate" : "384201:12:17",
"channelId" : "8232096713584728058",
"channelName" : "公务员-新浪教育",
"channelNameSummary" : "公务员-新浪教育",
"channelUrl" : "http:\/\/roll.edu.sina.com.cn\/all\/zgks\/kaoshi\/index.shtml",
"author" : "WWW.SINA.COM.CN",
"tags" : [],
"desc" : "10月21日 早8时，2014国家公务员考试考生报名环节进入到第六个报名日。据中公教育统计，国考职位中天津所属职位通过审核总人数为13723人，共有3个职位无人通过审核，平均竞争比例为34.2:1。 一、各部门报名人数分析 截止21日早8时，通过审核人数前三位的部门依....",
"emailed" : False,
"forwarded" : False,
"english" : False
}  , {
"index" : 16,
"articleIndex" : "7506",
"favor" :  False ,
     "read" : False,    
"title" : "国考报名：山西审核人数达8028人(21日)",
"titleTip" : "国考报名：山西审核人数达8028人(21日)",
"titleSummary" : "国考报名：山西审核人数达8028人(21日)",
"descSummary" : "截止21日8时，通过审核人数前三位的部门依次是：国家统计局山...",
"url" : "http:\/\/go.rss.sina.com.cn\/redirect.php?url=http:\/\/edu.sina.com.cn\/official\/2013-10-21\/1409398551.shtml",
"pubDate" : "2013年10月21日 (1周前)",
"enterDate" : "384201:10:45",
"channelId" : "8232096713584728058",
"channelName" : "公务员-新浪教育",
"channelNameSummary" : "公务员-新浪教育",
"channelUrl" : "http:\/\/roll.edu.sina.com.cn\/all\/zgks\/kaoshi\/index.shtml",
"author" : "WWW.SINA.COM.CN",
"tags" : [],
"desc" : "截止21日8时，通过审核人数前三位的部门依次是：国家统计局山西调查总队、中国银行业监督管理委员会山西监管局(辖内银监分局)、中国证券监督管理委员会山西监管局三部门通过审核总人数达764人，占通过审核总人数的9.5%。 为帮助广大考生更清晰的了解今日报名情况，中公....",
"emailed" : False,
"forwarded" : False,
"english" : False
}  , {
"index" : 17,
"articleIndex" : "7505",
"favor" :  False ,
     "read" : False,    
"title" : "国考报名：宁夏最热职位504:1(21日)",
"titleTip" : "国考报名：宁夏最热职位504:1(21日)",
"titleSummary" : "国考报名：宁夏最热职位504:1(21日)",
"descSummary" : "最新消息。今年全国共招19538万人，其中宁夏今年招考人数163人...",
"url" : "http:\/\/go.rss.sina.com.cn\/redirect.php?url=http:\/\/edu.sina.com.cn\/official\/2013-10-21\/1407398550.shtml",
"pubDate" : "2013年10月21日 (1周前)",
"enterDate" : "384201:08:50",
"channelId" : "8232096713584728058",
"channelName" : "公务员-新浪教育",
"channelNameSummary" : "公务员-新浪教育",
"channelUrl" : "http:\/\/roll.edu.sina.com.cn\/all\/zgks\/kaoshi\/index.shtml",
"author" : "WWW.SINA.COM.CN",
"tags" : [],
"desc" : "最新消息。今年全国共招19538万人，其中宁夏今年招考人数163人。中央国家行政机关直属机构招考岗位76个，招收人数128；国务院系统参照公务员法管理事业单位招考岗位16个，招收人数35。 10月21日 8时，2013国家公务员考试考生报名第五天环节已经结束。据中公教育统计，....",
"emailed" : False,
"forwarded" : False,
"english" : False
}  , {
"index" : 18,
"articleIndex" : "7504",
"favor" :  False ,
     "read" : False,    
"title" : "国考报名：广东审核人数达44056人(21日)",
"titleTip" : "国考报名：广东审核人数达44056人(21日)",
"titleSummary" : "国考报名：广东审核人数达44056人(21日)",
"descSummary" : "10月21日8时，2014国家公务员考试考生报名环节进入第六天。...",
"url" : "http:\/\/go.rss.sina.com.cn\/redirect.php?url=http:\/\/edu.sina.com.cn\/official\/2013-10-21\/1407398549.shtml",
"pubDate" : "2013年10月21日 (1周前)",
"enterDate" : "384201:07:55",
"channelId" : "8232096713584728058",
"channelName" : "公务员-新浪教育",
"channelNameSummary" : "公务员-新浪教育",
"channelUrl" : "http:\/\/roll.edu.sina.com.cn\/all\/zgks\/kaoshi\/index.shtml",
"author" : "WWW.SINA.COM.CN",
"tags" : [],
"desc" : "10月21日8时，2014国家公务员考试考生报名环节进入第六天。据中公教育统计，国考职位中广东所属职位通过审核总人数为44056人，共有43职位暂无一人通过审核，平均竞争比例为20.9:1。需注意这并不是最终的报名人数，审核时间是截至到2013年10月24日18:00。 一、各部门报....",
"emailed" : False,
"forwarded" : False,
"english" : False
}  , {
"index" : 19,
"articleIndex" : "7503",
"favor" :  False ,
     "read" : False,    
"title" : "国考报名把握报考黄金时期 小心人数激增",
"titleTip" : "国考报名把握报考黄金时期 小心人数激增",
"titleSummary" : "国考报名把握报考黄金时期 小心人数激增",
"descSummary" : "今天是2014国家公务员考试报名的第六天，随着国考报名进入...",
"url" : "http:\/\/go.rss.sina.com.cn\/redirect.php?url=http:\/\/edu.sina.com.cn\/official\/2013-10-21\/1404398548.shtml",
"pubDate" : "2013年10月21日 (1周前)",
"enterDate" : "384201:04:55",
"channelId" : "8232096713584728058",
"channelName" : "公务员-新浪教育",
"channelNameSummary" : "公务员-新浪教育",
"channelUrl" : "http:\/\/roll.edu.sina.com.cn\/all\/zgks\/kaoshi\/index.shtml",
"author" : "WWW.SINA.COM.CN",
"tags" : [],
"desc" : "今天是2014国家公务员考试报名的第六天，随着国考报名进入后期阶段，持观望态度的考生也已出手。中公教育统计，截止到21日上午8时，共有432331人通过审核，从统计的数据来看，20日下午15:30时至今早8时，通过审核人数共计增长53703人。中公教育专家提醒还在观望的考生要把握住....",
"emailed" : False,
"forwarded" : False,
"english" : False
} ]
}
