{
"mode" : {"viewTitle" : 1,   "viewNew" : 0,  "pageIndex" : 2 },
 "channel" : {"id" : "8232096713584728058", "booked" : False, "subNumber" : 22, "name" : "公务员-新浪教育", "url" : "http:\/\/roll.edu.sina.com.cn\/all\/zgks\/kaoshi\/index.shtml", "feed" : "http:\/\/rss.sina.com.cn\/edu\/gwy.xml", "author" : "WWW.SINA.COM.CN", "desc" : "文化教育-公务员", "imageUrl" : "http:\/\/www.sinaimg.cn\/home\/deco\/2009\/0330\/logo_home_edu.gif", "postPerWeek" : "0", "lastCrawTime" : "2013年10月21日 (1周前)", "crawDateTime" : "2013年10月21日 (1周前)", "lastHttpCode" : "200"}, "page" : {
"startIndex" : 20,
"totalCount" : 5000,
"pageIndex" : 2,
"lastPage" : 250,
"pageSize" : 20,
"english" :  False },
 "unreadNum" : 0, "shotIndex" : -1,
"articles" : [
{
"index" : 0,
"articleIndex" : "7502",
"favor" :  False ,
     "read" : False,    
"title" : "2014国考申论范文：破解\u201C垃圾围城\u201D",
"titleTip" : "2014国考申论范文：破解\u201C垃圾围城\u201D",
"titleSummary" : "2014国考申论范文：破解\u201C垃圾围城\u201D",
"descSummary" : "相信已经有很多考生奋斗在2014国家公务员考试路上了，尤其对...",
"url" : "http:\/\/go.rss.sina.com.cn\/redirect.php?url=http:\/\/edu.sina.com.cn\/official\/2013-10-21\/1401398547.shtml",
"pubDate" : "2013年10月21日 (1周前)",
"enterDate" : "384201:02:52",
"channelId" : "8232096713584728058",
"channelName" : "公务员-新浪教育",
"channelNameSummary" : "公务员-新浪教育",
"channelUrl" : "http:\/\/roll.edu.sina.com.cn\/all\/zgks\/kaoshi\/index.shtml",
"author" : "WWW.SINA.COM.CN",
"tags" : [],
"desc" : "相信已经有很多考生奋斗在2014国家公务员考试路上了，尤其对于申论而言，必须是一个渐进的逐步的过程，很多考生正在为写文章而发愁，中公教育专家建议考生，平时可以先参考一些范文，培养语感，积累素材。 【标题】政府民众共同努力 破解\u201C垃圾围城\u201D难题 【范....",
"emailed" : False,
"forwarded" : False,
"english" : False
}  , {
"index" : 1,
"articleIndex" : "7501",
"favor" :  False ,
     "read" : False,    
"title" : "2014国考申论范文：建立社会安全阀",
"titleTip" : "2014国考申论范文：建立社会安全阀",
"titleSummary" : "2014国考申论范文：建立社会安全阀",
"descSummary" : "相信已经有很多考生奋斗在2014国家公务员考试路上了，尤其对于...",
"url" : "http:\/\/go.rss.sina.com.cn\/redirect.php?url=http:\/\/edu.sina.com.cn\/official\/2013-10-21\/1358398546.shtml",
"pubDate" : "2013年10月21日 (1周前)",
"enterDate" : "384200:59:28",
"channelId" : "8232096713584728058",
"channelName" : "公务员-新浪教育",
"channelNameSummary" : "公务员-新浪教育",
"channelUrl" : "http:\/\/roll.edu.sina.com.cn\/all\/zgks\/kaoshi\/index.shtml",
"author" : "WWW.SINA.COM.CN",
"tags" : [],
"desc" : "相信已经有很多考生奋斗在2014国家公务员考试路上了，尤其对于申论而言，必须是一个渐进的逐步的过程，很多考生正在为写文章而发愁，中公教育专家建议考生，平时可以先参考一些范文，培养语感，积累素材。 【范文示例】 建立社会安全阀 化解社会戾气瘤 ....",
"emailed" : False,
"forwarded" : False,
"english" : False
}  , {
"index" : 2,
"articleIndex" : "7500",
"favor" :  False ,
     "read" : False,    
"title" : "2014国考申论范文：海洋的健康",
"titleTip" : "2014国考申论范文：海洋的健康",
"titleSummary" : "2014国考申论范文：海洋的健康",
"descSummary" : "很多考生已经奋斗在2014国家公务员考试路上了，尤其对于申论而言，...",
"url" : "http:\/\/go.rss.sina.com.cn\/redirect.php?url=http:\/\/edu.sina.com.cn\/official\/2013-10-21\/1354398545.shtml",
"pubDate" : "2013年10月21日 (1周前)",
"enterDate" : "384200:55:08",
"channelId" : "8232096713584728058",
"channelName" : "公务员-新浪教育",
"channelNameSummary" : "公务员-新浪教育",
"channelUrl" : "http:\/\/roll.edu.sina.com.cn\/all\/zgks\/kaoshi\/index.shtml",
"author" : "WWW.SINA.COM.CN",
"tags" : [],
"desc" : "很多考生已经奋斗在2014国家公务员考试路上了，尤其对于申论而言，必须是一个渐进的逐步的过程，写文章算是申论的第一难，中公教育专家建议考生，平时可以先参考一些范文，培养语感，积累素材。 【范文示例】 海洋的健康 \u2015\u2015努力做好海洋环保工作 ....",
"emailed" : False,
"forwarded" : False,
"english" : False
}  , {
"index" : 3,
"articleIndex" : "7499",
"favor" :  False ,
     "read" : False,    
"title" : "2014国考行测资料分析计算题提速技巧",
"titleTip" : "2014国考行测资料分析计算题提速技巧",
"titleSummary" : "2014国考行测资料分析计算题提速技巧",
"descSummary" : "在国家公务员行测考试的各题型中，资料分析部分题量较多，总分...",
"url" : "http:\/\/go.rss.sina.com.cn\/redirect.php?url=http:\/\/edu.sina.com.cn\/official\/2013-10-21\/1353398544.shtml",
"pubDate" : "2013年10月21日 (1周前)",
"enterDate" : "384200:54:06",
"channelId" : "8232096713584728058",
"channelName" : "公务员-新浪教育",
"channelNameSummary" : "公务员-新浪教育",
"channelUrl" : "http:\/\/roll.edu.sina.com.cn\/all\/zgks\/kaoshi\/index.shtml",
"author" : "WWW.SINA.COM.CN",
"tags" : [],
"desc" : "在国家公务员行测考试的各题型中，资料分析部分题量较多，总分值较高，但因为知识点相对比较固定，掌握其中的技巧不难。许多考生在备考资料分析时往往存在的问题就是如何才能在保证资料分析正确率的基础上提高解题的速度。下面我们就从解资料分析题的步骤方面对资料分析题进行....",
"emailed" : False,
"forwarded" : False,
"english" : False
}  , {
"index" : 4,
"articleIndex" : "7498",
"favor" :  False ,
     "read" : False,    
"title" : "国考最热职竞争比3016:1 703个职位无人报",
"titleTip" : "国考最热职竞争比3016:1 703个职位无人报",
"titleSummary" : "国考最热职竞争比3016:1 703个职位无人报",
"descSummary" : "晨报讯(记者 肖丹)16日到24日进行的国考报名已进入\u201C下半场...",
"url" : "http:\/\/go.rss.sina.com.cn\/redirect.php?url=http:\/\/edu.sina.com.cn\/official\/2013-10-21\/1218398542.shtml",
"pubDate" : "2013年10月21日 (1周前)",
"enterDate" : "384200:49:39",
"channelId" : "8232096713584728058",
"channelName" : "公务员-新浪教育",
"channelNameSummary" : "公务员-新浪教育",
"channelUrl" : "http:\/\/roll.edu.sina.com.cn\/all\/zgks\/kaoshi\/index.shtml",
"author" : "WWW.SINA.COM.CN",
"tags" : [],
"desc" : "晨报讯(记者 肖丹)16日到24日进行的国考报名已进入\u201C下半场\u201D，截至昨天17：00，已经有将近39万名考生通过审核，仍有703个职位无人报考。 经过前四天的激烈角逐，报名态势逐渐趋于稳定，各系统的报名审核都在有条不紊进行中。截止到昨天17:00，已经有11026个职位有考生....",
"emailed" : False,
"forwarded" : False,
"english" : False
}  , {
"index" : 5,
"articleIndex" : "7497",
"favor" :  False ,
     "read" : False,    
"title" : "2014国家公务员考试行测行程问题核心公式",
"titleTip" : "2014国家公务员考试行测行程问题核心公式",
"titleSummary" : "2014国家公务员考试行测行程问题核心公式",
"descSummary" : "在近几年的国家公务员考试中，行程问题是必考题目，对于行...",
"url" : "http:\/\/go.rss.sina.com.cn\/redirect.php?url=http:\/\/edu.sina.com.cn\/official\/2013-10-21\/1212398538.shtml",
"pubDate" : "2013年10月21日 (1周前)",
"enterDate" : "384201:13:41",
"channelId" : "8232096713584728058",
"channelName" : "公务员-新浪教育",
"channelNameSummary" : "公务员-新浪教育",
"channelUrl" : "http:\/\/roll.edu.sina.com.cn\/all\/zgks\/kaoshi\/index.shtml",
"author" : "WWW.SINA.COM.CN",
"tags" : [],
"desc" : "在近几年的国家公务员考试中，行程问题是必考题目，对于行程问题，我们从小学初中高中就一直在学习，但是这一部分题目做起来感觉还是有一定的难度，然而如果能分清行程问题的几种类别，并掌握相应的解题方法，其实这类题目还是可以拿到分数的，下面中公教育专家通过几道例题来....",
"emailed" : False,
"forwarded" : False,
"english" : False
}  , {
"index" : 6,
"articleIndex" : "7496",
"favor" :  False ,
     "read" : False,    
"title" : "2014国家公务员考试行测特殊题型讲解",
"titleTip" : "2014国家公务员考试行测特殊题型讲解",
"titleSummary" : "2014国家公务员考试行测特殊题型讲解",
"descSummary" : "在国家公务员考试中定义判断所占题量一直很稳定，都是10道题...",
"url" : "http:\/\/go.rss.sina.com.cn\/redirect.php?url=http:\/\/edu.sina.com.cn\/official\/2013-10-21\/1205398535.shtml",
"pubDate" : "2013年10月21日 (1周前)",
"enterDate" : "384201:07:07",
"channelId" : "8232096713584728058",
"channelName" : "公务员-新浪教育",
"channelNameSummary" : "公务员-新浪教育",
"channelUrl" : "http:\/\/roll.edu.sina.com.cn\/all\/zgks\/kaoshi\/index.shtml",
"author" : "WWW.SINA.COM.CN",
"tags" : [],
"desc" : "在国家公务员考试中定义判断所占题量一直很稳定，都是10道题，但近两年来，定义判断的题目越来越长，很多考生不愿意去做，而这种题目得分率又比较高，中公教育专家在此以国家公务员考试行测真题为例给大家简单介绍下做定义判断中一些特殊题型的解题技巧： 1.含有例子题....",
"emailed" : False,
"forwarded" : False,
"english" : False
}  , {
"index" : 7,
"articleIndex" : "7495",
"favor" :  False ,
     "read" : False,    
"title" : "2014国考行测数学运算选项设置特点分析",
"titleTip" : "2014国考行测数学运算选项设置特点分析",
"titleSummary" : "2014国考行测数学运算选项设置特点分析",
"descSummary" : "通过分析最近几年国家公务员考试数学运算的选项，我们发现很...",
"url" : "http:\/\/go.rss.sina.com.cn\/redirect.php?url=http:\/\/edu.sina.com.cn\/official\/2013-10-21\/1203398534.shtml",
"pubDate" : "2013年10月21日 (1周前)",
"enterDate" : "384201:05:14",
"channelId" : "8232096713584728058",
"channelName" : "公务员-新浪教育",
"channelNameSummary" : "公务员-新浪教育",
"channelUrl" : "http:\/\/roll.edu.sina.com.cn\/all\/zgks\/kaoshi\/index.shtml",
"author" : "WWW.SINA.COM.CN",
"tags" : [],
"desc" : "通过分析最近几年国家公务员考试数学运算的选项，我们发现很多选项的设置都很有特点，了解这些特点可以帮助我们在考试的过程中取得更好的分数。下面中公教育专家就给大家分析下选项设置的特点。 (一) 平行关系： 1.一个班的学生排队，如果排成3人一排的队列，则....",
"emailed" : False,
"forwarded" : False,
"english" : False
}  , {
"index" : 8,
"articleIndex" : "7494",
"favor" :  False ,
     "read" : False,    
"title" : "2014国考行测数量关系之抽屉问题",
"titleTip" : "2014国考行测数量关系之抽屉问题",
"titleSummary" : "2014国考行测数量关系之抽屉问题",
"descSummary" : "抽屉问题是公务员考试行测数量关系部分中重要的考察点。那么何为抽...",
"url" : "http:\/\/go.rss.sina.com.cn\/redirect.php?url=http:\/\/edu.sina.com.cn\/official\/2013-10-21\/1201398532.shtml",
"pubDate" : "2013年10月21日 (1周前)",
"enterDate" : "384201:02:44",
"channelId" : "8232096713584728058",
"channelName" : "公务员-新浪教育",
"channelNameSummary" : "公务员-新浪教育",
"channelUrl" : "http:\/\/roll.edu.sina.com.cn\/all\/zgks\/kaoshi\/index.shtml",
"author" : "WWW.SINA.COM.CN",
"tags" : [],
"desc" : "抽屉问题是公务员考试行测数量关系部分中重要的考察点。那么何为抽屉问题呢？中公教育专家带考生来看两个例子： 例1：调研人员在一次市场调查活动中收回了435份调查问卷，其中80%的调查问卷上填写了被调查者的手机号码。那么调研人员需要从这些调查问卷中随机抽多少份....",
"emailed" : False,
"forwarded" : False,
"english" : False
}  , {
"index" : 9,
"articleIndex" : "7493",
"favor" :  False ,
     "read" : False,    
"title" : "2014国考申论写作：哪些标题见光死",
"titleTip" : "2014国考申论写作：哪些标题见光死",
"titleSummary" : "2014国考申论写作：哪些标题见光死",
"descSummary" : "对于备战国家公务员考试的考生们来说，申论作文一直都是拦路虎，...",
"url" : "http:\/\/go.rss.sina.com.cn\/redirect.php?url=http:\/\/edu.sina.com.cn\/official\/2013-10-21\/1159398531.shtml",
"pubDate" : "2013年10月21日 (1周前)",
"enterDate" : "384201:00:50",
"channelId" : "8232096713584728058",
"channelName" : "公务员-新浪教育",
"channelNameSummary" : "公务员-新浪教育",
"channelUrl" : "http:\/\/roll.edu.sina.com.cn\/all\/zgks\/kaoshi\/index.shtml",
"author" : "WWW.SINA.COM.CN",
"tags" : [],
"desc" : "对于备战国家公务员考试的考生们来说，申论作文一直都是拦路虎，而作文标题更是让考生绞尽脑汁，咬碎笔头的难中之难，其实之所以认为标题比较难拟定，除了对作文的本质不了解，对申论理论学习不到位外，更重要的一点是很多考生在拟定标题上存在误区。中公教育专家在此将通过实....",
"emailed" : False,
"forwarded" : False,
"english" : False
}  , {
"index" : 10,
"articleIndex" : "7492",
"favor" :  False ,
     "read" : False,    
"title" : "2014国考申论归纳概括的解答逻辑",
"titleTip" : "2014国考申论归纳概括的解答逻辑",
"titleSummary" : "2014国考申论归纳概括的解答逻辑",
"descSummary" : "在国家公务员考试申论的五大常见题型中，归纳概括可谓是最基础的一...",
"url" : "http:\/\/go.rss.sina.com.cn\/redirect.php?url=http:\/\/edu.sina.com.cn\/official\/2013-10-21\/1157398530.shtml",
"pubDate" : "2013年10月21日 (1周前)",
"enterDate" : "384200:58:23",
"channelId" : "8232096713584728058",
"channelName" : "公务员-新浪教育",
"channelNameSummary" : "公务员-新浪教育",
"channelUrl" : "http:\/\/roll.edu.sina.com.cn\/all\/zgks\/kaoshi\/index.shtml",
"author" : "WWW.SINA.COM.CN",
"tags" : [],
"desc" : "在国家公务员考试申论的五大常见题型中，归纳概括可谓是最基础的一种了。相对于其他几种题型而言，无论是题目难度还是分值都属于偏低的。但归纳概括题目的重要性却并没有因此下降，在现有的几种申论题型中，归纳概括可谓出镜率最高的一种题型，通常在申论考察过程中是逢考必出....",
"emailed" : False,
"forwarded" : False,
"english" : False
}  , {
"index" : 11,
"articleIndex" : "7491",
"favor" :  False ,
     "read" : False,    
"title" : "国考行测推理判断技巧：十大关键词汇",
"titleTip" : "国考行测推理判断技巧：十大关键词汇",
"titleSummary" : "国考行测推理判断技巧：十大关键词汇",
"descSummary" : "公务员行测考试中，判断推理占有很大的比重，其中的逻辑判断是...",
"url" : "http:\/\/go.rss.sina.com.cn\/redirect.php?url=http:\/\/edu.sina.com.cn\/official\/2013-10-21\/1150398528.shtml",
"pubDate" : "2013年10月21日 (1周前)",
"enterDate" : "384200:52:16",
"channelId" : "8232096713584728058",
"channelName" : "公务员-新浪教育",
"channelNameSummary" : "公务员-新浪教育",
"channelUrl" : "http:\/\/roll.edu.sina.com.cn\/all\/zgks\/kaoshi\/index.shtml",
"author" : "WWW.SINA.COM.CN",
"tags" : [],
"desc" : "公务员行测考试中，判断推理占有很大的比重，其中的逻辑判断是最为核心的内容又是难度较大的一部分。在近几年的公务员国考中，论证题占到逻辑判断部分的三分之一，可见做好论证题对行测总体成绩影响之大。对于论证类题目而言，无论是加强还是削弱，首先题目中一定会给出论点，....",
"emailed" : False,
"forwarded" : False,
"english" : False
}  , {
"index" : 12,
"articleIndex" : "7490",
"favor" :  False ,
     "read" : False,    
"title" : "国考数学运算之倍数及比例问题速算技巧",
"titleTip" : "国考数学运算之倍数及比例问题速算技巧",
"titleSummary" : "国考数学运算之倍数及比例问题速算技巧",
"descSummary" : "我们对2012年，2012年，2013年的国考数学运算题做出解析时...",
"url" : "http:\/\/go.rss.sina.com.cn\/redirect.php?url=http:\/\/edu.sina.com.cn\/official\/2013-10-21\/1148398526.shtml",
"pubDate" : "2013年10月21日 (1周前)",
"enterDate" : "384200:49:22",
"channelId" : "8232096713584728058",
"channelName" : "公务员-新浪教育",
"channelNameSummary" : "公务员-新浪教育",
"channelUrl" : "http:\/\/roll.edu.sina.com.cn\/all\/zgks\/kaoshi\/index.shtml",
"author" : "WWW.SINA.COM.CN",
"tags" : [],
"desc" : "我们对2012年，2012年，2013年的国考数学运算题做出解析时发现，都有倍数和比例问题。但是一般倍数和比例问题因没有具体数字而看上去比较复杂和花时间。很多考生一看到倍数或者比例问题时容易放弃或花较长时间。 针对这些问题华图教育经过研究发现，其实倍数和比例问题....",
"emailed" : False,
"forwarded" : False,
"english" : False
}  , {
"index" : 13,
"articleIndex" : "7489",
"favor" :  False ,
     "read" : False,    
"title" : "2014年国考类比推理中常考的六大逻辑关系",
"titleTip" : "2014年国考类比推理中常考的六大逻辑关系",
"titleSummary" : "2014年国考类比推理中常考的六大逻辑关系",
"descSummary" : "类比推理的考试形式是先给出一组相关的词，然后要求应试者...",
"url" : "http:\/\/go.rss.sina.com.cn\/redirect.php?url=http:\/\/edu.sina.com.cn\/official\/2013-10-21\/1146398525.shtml",
"pubDate" : "2013年10月21日 (1周前)",
"enterDate" : "384200:48:02",
"channelId" : "8232096713584728058",
"channelName" : "公务员-新浪教育",
"channelNameSummary" : "公务员-新浪教育",
"channelUrl" : "http:\/\/roll.edu.sina.com.cn\/all\/zgks\/kaoshi\/index.shtml",
"author" : "WWW.SINA.COM.CN",
"tags" : [],
"desc" : "类比推理的考试形式是先给出一组相关的词，然后要求应试者在备选的选项中选出一个与题干有逻辑关系的最为相似或接近的词。类比推理题目不难，是整张试卷最好挤时间的点，但并不代表我们都能做对。如果在这里失分，将非常可惜。要做到又快又好，一定要在考试时注意做题的技巧。....",
"emailed" : False,
"forwarded" : False,
"english" : False
}  , {
"index" : 14,
"articleIndex" : "7488",
"favor" :  False ,
     "read" : False,    
"title" : "2014年国考解题技巧之集合推理必备知识",
"titleTip" : "2014年国考解题技巧之集合推理必备知识",
"titleSummary" : "2014年国考解题技巧之集合推理必备知识",
"descSummary" : "导语：在国家公务员考试笔试行测考试中，判断推理部分一般有...",
"url" : "http:\/\/go.rss.sina.com.cn\/redirect.php?url=http:\/\/edu.sina.com.cn\/official\/2013-10-21\/1140398523.shtml",
"pubDate" : "2013年10月21日 (1周前)",
"enterDate" : "384201:11:28",
"channelId" : "8232096713584728058",
"channelName" : "公务员-新浪教育",
"channelNameSummary" : "公务员-新浪教育",
"channelUrl" : "http:\/\/roll.edu.sina.com.cn\/all\/zgks\/kaoshi\/index.shtml",
"author" : "WWW.SINA.COM.CN",
"tags" : [],
"desc" : "导语：在国家公务员考试笔试行测考试中，判断推理部分一般有四类题型组成，分别是图形推理、类比推理、定义判断和逻辑判断。其中，逻辑判断部分，通常每年会出10道题目。这些题目对于大多数考生而言，由于做题惯性思维，加入生活常识等，极易落入命题人所命制的思维陷阱，出现....",
"emailed" : False,
"forwarded" : False,
"english" : False
}  , {
"index" : 15,
"articleIndex" : "7487",
"favor" :  False ,
     "read" : False,    
"title" : "2014年国考翻译推理解题技巧：否定肯定式",
"titleTip" : "2014年国考翻译推理解题技巧：否定肯定式",
"titleSummary" : "2014年国考翻译推理解题技巧：否定肯定式",
"descSummary" : "导语：判断推理是公务员考试的重要组成，其中翻译推理是其...",
"url" : "http:\/\/go.rss.sina.com.cn\/redirect.php?url=http:\/\/edu.sina.com.cn\/official\/2013-10-21\/1136398521.shtml",
"pubDate" : "2013年10月21日 (1周前)",
"enterDate" : "384201:07:30",
"channelId" : "8232096713584728058",
"channelName" : "公务员-新浪教育",
"channelNameSummary" : "公务员-新浪教育",
"channelUrl" : "http:\/\/roll.edu.sina.com.cn\/all\/zgks\/kaoshi\/index.shtml",
"author" : "WWW.SINA.COM.CN",
"tags" : [],
"desc" : "导语：判断推理是公务员考试的重要组成，其中翻译推理是其中重要的一部分，主要考察考生的逻辑思维能力，此类题目变化较多，涉及的逻辑学知识较多、考生较难掌握，现华图公务员考试研究中心对翻译推理中常考难度较大的选言命题中的否定肯定式进行详细说明： 一、选言命....",
"emailed" : False,
"forwarded" : False,
"english" : False
}  , {
"index" : 16,
"articleIndex" : "7486",
"favor" :  False ,
     "read" : False,    
"title" : "2014年国考备考之真假判断中六种矛盾关系",
"titleTip" : "2014年国考备考之真假判断中六种矛盾关系",
"titleSummary" : "2014年国考备考之真假判断中六种矛盾关系",
"descSummary" : "真假推理题目是逻辑判断中的高频考题，2014国考此类题型...",
"url" : "http:\/\/go.rss.sina.com.cn\/redirect.php?url=http:\/\/edu.sina.com.cn\/official\/2013-10-21\/1134398519.shtml",
"pubDate" : "2013年10月21日 (1周前)",
"enterDate" : "384201:06:14",
"channelId" : "8232096713584728058",
"channelName" : "公务员-新浪教育",
"channelNameSummary" : "公务员-新浪教育",
"channelUrl" : "http:\/\/roll.edu.sina.com.cn\/all\/zgks\/kaoshi\/index.shtml",
"author" : "WWW.SINA.COM.CN",
"tags" : [],
"desc" : "真假推理题目是逻辑判断中的高频考题，2014国考此类题型固然必不可少，要想快速准确的解决此类题目，其关键点要从题干诸多真假不定的条件中，确定唯一一假或唯一一真的条件，然后再根据其余条件的真假特性来进行判断。 真假推理题目中，确定唯一一真或唯一一假条件的方....",
"emailed" : False,
"forwarded" : False,
"english" : False
}  , {
"index" : 17,
"articleIndex" : "7485",
"favor" :  False ,
     "read" : False,    
"title" : "2014年国考备考之判断推理解题四大误区",
"titleTip" : "2014年国考备考之判断推理解题四大误区",
"titleSummary" : "2014年国考备考之判断推理解题四大误区",
"descSummary" : "判断推理模块是一个发散性极强的一个模块，在思维发散的过程...",
"url" : "http:\/\/go.rss.sina.com.cn\/redirect.php?url=http:\/\/edu.sina.com.cn\/official\/2013-10-21\/1132398517.shtml",
"pubDate" : "2013年10月21日 (1周前)",
"enterDate" : "384201:04:15",
"channelId" : "8232096713584728058",
"channelName" : "公务员-新浪教育",
"channelNameSummary" : "公务员-新浪教育",
"channelUrl" : "http:\/\/roll.edu.sina.com.cn\/all\/zgks\/kaoshi\/index.shtml",
"author" : "WWW.SINA.COM.CN",
"tags" : [],
"desc" : "判断推理模块是一个发散性极强的一个模块，在思维发散的过程中往往存在一些误区，使得考生在做题时不仅不能提高解题效率，反而损耗了大量时间，事倍功半。在此，华图教育研究员为广大考生列出判断推理模块的四大误区，并指出了避免的方法，供广大考生参考。 一、图形推....",
"emailed" : False,
"forwarded" : False,
"english" : False
}  , {
"index" : 18,
"articleIndex" : "7484",
"favor" :  False ,
     "read" : False,    
"title" : "国家公务员考试众生相：炮灰向前冲",
"titleTip" : "国家公务员考试众生相：炮灰向前冲",
"titleSummary" : "国家公务员考试众生相：炮灰向前冲",
"descSummary" : "10月19日，2014年国家公务员考试报名进入第4天，报名依然火爆。...",
"url" : "http:\/\/go.rss.sina.com.cn\/redirect.php?url=http:\/\/edu.sina.com.cn\/official\/2013-10-21\/1107398513.shtml",
"pubDate" : "2013年10月21日 (1周前)",
"enterDate" : "384200:38:51",
"channelId" : "8232096713584728058",
"channelName" : "公务员-新浪教育",
"channelNameSummary" : "公务员-新浪教育",
"channelUrl" : "http:\/\/roll.edu.sina.com.cn\/all\/zgks\/kaoshi\/index.shtml",
"author" : "WWW.SINA.COM.CN",
"tags" : [],
"desc" : "10月19日，2014年国家公务员考试报名进入第4天，报名依然火爆。截至10月19日晚7：30，记者查询报名信息发现，竞争最激烈的岗位达2014：1，国家民族事务委员会一岗位需求2人 ，报名人数达到了4029人。(10月20日《南方都市报》) 天下熙熙，利来利往。这数十万的考生虽都....",
"emailed" : False,
"forwarded" : False,
"english" : False
}  , {
"index" : 19,
"articleIndex" : "7483",
"favor" :  False ,
     "read" : False,    
"title" : "国考报名时间过半：700职位尚无人报名",
"titleTip" : "国考报名时间过半：700职位尚无人报名",
"titleSummary" : "国考报名时间过半：700职位尚无人报名",
"descSummary" : "最热门职位报考比例达3000比1 扬子晚报网讯 (记者肖姗)昨天是国...",
"url" : "http:\/\/go.rss.sina.com.cn\/redirect.php?url=http:\/\/edu.sina.com.cn\/official\/2013-10-21\/1051398508.shtml",
"pubDate" : "2013年10月21日 (1周前)",
"enterDate" : "384200:52:27",
"channelId" : "8232096713584728058",
"channelName" : "公务员-新浪教育",
"channelNameSummary" : "公务员-新浪教育",
"channelUrl" : "http:\/\/roll.edu.sina.com.cn\/all\/zgks\/kaoshi\/index.shtml",
"author" : "WWW.SINA.COM.CN",
"tags" : [],
"desc" : "最热门职位报考比例达3000比1 扬子晚报网讯 (记者肖姗)昨天是国家公务员考试报名的第5天，距24日截止，时间已经过半。截至下午5点，共11026个职位已有考生报名，占总职位数的94%，报名人数总量达到388293人。 报名人数最多的国家民族事务委员会，计划招录2人，....",
"emailed" : False,
"forwarded" : False,
"english" : False
} ]
}
