{
"mode" : {"viewTitle" : 1,   "viewNew" : 0,  "pageIndex" : 1 },
 "channel" : {"id" : "2827980091218209168", "booked" : False, "subNumber" : 1, "name" : "考研-新浪教育", "url" : "http:\/\/edu.sina.com.cn\/rss\/index.html", "feed" : "http:\/\/rss.sina.com.cn\/edu\/kaoyan.xml", "author" : "WWW.SINA.COM.CN", "desc" : "文化教育-考研", "imageUrl" : "http:\/\/www.sinaimg.cn\/home\/deco\/2009\/0330\/logo_home_edu.gif", "postPerWeek" : "0", "lastCrawTime" : "16:50:16", "crawDateTime" : "16:50:16", "lastHttpCode" : "200"}, "page" : {
"startIndex" : 0,
"totalCount" : 5000,
"pageIndex" : 1,
"lastPage" : 250,
"pageSize" : 20,
"english" :  False },
 "unreadNum" : 0, "shotIndex" : -1,
"articles" : [
{
"index" : 0,
"articleIndex" : "21827",
"favor" :  False ,
     "read" : False,    
"title" : "考研网报明日结束 11月10日至14日现场确认",
"titleTip" : "考研网报明日结束 11月10日至14日现场确认",
"titleSummary" : "考研网报明日结束 11月10日至14日现场确认",
"descSummary" : "现场确认时间：2013年11月10日-14日 打印准考证时间：20...",
"url" : "http:\/\/go.rss.sina.com.cn\/redirect.php?url=http:\/\/edu.sina.com.cn\/kaoyan\/2013-10-30\/1615399808.shtml",
"pubDate" : "16:15:58",
"enterDate" : "384201:15:42",
"channelId" : "2827980091218209168",
"channelName" : "考研-新浪教育",
"channelNameSummary" : "考研-新浪教育",
"channelUrl" : "http:\/\/edu.sina.com.cn\/rss\/index.html",
"author" : "WWW.SINA.COM.CN",
"tags" : [],
"desc" : "现场确认时间：2013年11月10日\u201514日 打印准考证时间：2013年12月25日\u20152014年1月6日 本报10月29日讯(记者 王冠兴)2014年硕士研究生招生网上报名将于10月31日结束。今日，省招生考试管理中心提醒广大考生，一定要注意现场确认、准考证打印时间，以免因自己大意对考试造....",
"emailed" : False,
"forwarded" : False,
"english" : False
}  , {
"index" : 1,
"articleIndex" : "21825",
"favor" :  False ,
     "read" : False,    
"title" : "考研大纲有变：超八成学生选报班应考",
"titleTip" : "考研大纲有变：超八成学生选报班应考",
"titleSummary" : "考研大纲有变：超八成学生选报班应考",
"descSummary" : "年底将是考研冲刺的关键时刻。新华社发 在刚刚过去的9月，琳琅...",
"url" : "http:\/\/go.rss.sina.com.cn\/redirect.php?url=http:\/\/edu.sina.com.cn\/kaoyan\/2013-10-30\/0747399735.shtml",
"pubDate" : "07:47:49",
"enterDate" : "384200:48:53",
"channelId" : "2827980091218209168",
"channelName" : "考研-新浪教育",
"channelNameSummary" : "考研-新浪教育",
"channelUrl" : "http:\/\/edu.sina.com.cn\/rss\/index.html",
"author" : "WWW.SINA.COM.CN",
"tags" : [],
"desc" : "年底将是考研冲刺的关键时刻。 新华社发 在刚刚过去的9月，琳琅满目的考研信息纷至沓来，先是2014年各院校研究生招生简章陆续公布，紧接着备受瞩目的2014年考研大纲于9月13日发布， 而9月25日至9月28日，是应届考生网上预报名。各类考研资讯在短时间内集中爆发，对于第一....",
"emailed" : False,
"forwarded" : False,
"english" : False
}  , {
"index" : 2,
"articleIndex" : "21826",
"favor" :  False ,
     "read" : False,    
"title" : "名校学霸怕被剩 160人硕博相亲会实到800人",
"titleTip" : "名校学霸怕被剩 160人硕博相亲会实到800人",
"titleSummary" : "名校学霸怕被剩 160人硕博相亲会实到800人",
"descSummary" : "160人硕博相亲实到800人 楚天都市报讯 本报记者李晓梦 他...",
"url" : "http:\/\/go.rss.sina.com.cn\/redirect.php?url=http:\/\/edu.sina.com.cn\/kaoyan\/2013-10-29\/1817399729.shtml",
"pubDate" : "昨天18:17:52",
"enterDate" : "384184:48:32",
"channelId" : "2827980091218209168",
"channelName" : "考研-新浪教育",
"channelNameSummary" : "考研-新浪教育",
"channelUrl" : "http:\/\/edu.sina.com.cn\/rss\/index.html",
"author" : "WWW.SINA.COM.CN",
"tags" : [],
"desc" : "160人硕博相亲实到800人 楚天都市报讯 本报记者李晓梦 他们已经考取了名校的研究生，是在读硕士或者博士，他们有超强的学习能力，不愁毕业论文或将来找工作，他们最大的担心是，被\u201C剩\u201D成孤男寡女。前日下午，一场专为在汉硕士、博士生举行的相亲会在中南财经政法....",
"emailed" : False,
"forwarded" : False,
"english" : False
}  , {
"index" : 3,
"articleIndex" : "21824",
"favor" :  False ,
     "read" : False,    
"title" : "\u201C最失败\u201D专科生考研传奇：没人比我笨",
"titleTip" : "\u201C最失败\u201D专科生考研传奇：没人比我笨",
"titleSummary" : "\u201C最失败\u201D专科生考研传奇：没人比我笨",
"descSummary" : "就像大雁对南方有一种天生的直觉，当自己一路前行，终于飞到...",
"url" : "http:\/\/go.rss.sina.com.cn\/redirect.php?url=http:\/\/edu.sina.com.cn\/kaoyan\/2013-10-29\/1809399728.shtml",
"pubDate" : "昨天18:09:41",
"enterDate" : "384200:43:00",
"channelId" : "2827980091218209168",
"channelName" : "考研-新浪教育",
"channelNameSummary" : "考研-新浪教育",
"channelUrl" : "http:\/\/edu.sina.com.cn\/rss\/index.html",
"author" : "WWW.SINA.COM.CN",
"tags" : [],
"desc" : "就像大雁对南方有一种天生的直觉，当自己一路前行，终于飞到了这里，我知道，我找到了自己的南方。 当我坐在所报大学里听了生平第一节研究生课后这是我由心发出的感慨，不是说校园还有多纯洁也不是说大家学习的目的有多纯粹，而是作为一名考研草根，无论何时我们都可以....",
"emailed" : False,
"forwarded" : False,
"english" : False
}  , {
"index" : 4,
"articleIndex" : "21822",
"favor" :  False ,
     "read" : False,    
"title" : "兰大硕士研究生报名安排：只接受四类考生",
"titleTip" : "兰大硕士研究生报名安排：只接受四类考生",
"titleSummary" : "兰大硕士研究生报名安排：只接受四类考生",
"descSummary" : "10月28日，兰州大学公布2014年全国硕士研究生网上报名现...",
"url" : "http:\/\/go.rss.sina.com.cn\/redirect.php?url=http:\/\/edu.sina.com.cn\/kaoyan\/2013-10-29\/1740399726.shtml",
"pubDate" : "昨天17:40:48",
"enterDate" : "384201:14:17",
"channelId" : "2827980091218209168",
"channelName" : "考研-新浪教育",
"channelNameSummary" : "考研-新浪教育",
"channelUrl" : "http:\/\/edu.sina.com.cn\/rss\/index.html",
"author" : "WWW.SINA.COM.CN",
"tags" : [],
"desc" : "10月28日，兰州大学公布2014年全国硕士研究生网上报名现场确认工作安排。该校报考点只接受四类考生报名现场确认，时间为11月10日\u201514日。 据了解，兰州大学报考点只接受以下四类考生的报名现场确认：一是报考全国统考、推荐免试方式的兰州大学、甘肃中医学院的应届本科....",
"emailed" : False,
"forwarded" : False,
"english" : False
}  , {
"index" : 5,
"articleIndex" : "21823",
"favor" :  False ,
     "read" : False,    
"title" : "山东财经再现考研占座疯狂：玻璃门被挤爆(图)",
"titleTip" : "山东财经再现考研占座疯狂：玻璃门被挤爆(图)",
"titleSummary" : "山东财经再现考研占座疯狂：玻璃门被挤爆(图)",
"descSummary" : "济南时报讯 27日中午12点，山财大舜耕校区上演\u201C疯狂占...",
"url" : "http:\/\/go.rss.sina.com.cn\/redirect.php?url=http:\/\/edu.sina.com.cn\/kaoyan\/2013-10-29\/1726399724.shtml",
"pubDate" : "昨天17:26:55",
"enterDate" : "384200:00:14",
"channelId" : "2827980091218209168",
"channelName" : "考研-新浪教育",
"channelNameSummary" : "考研-新浪教育",
"channelUrl" : "http:\/\/edu.sina.com.cn\/rss\/index.html",
"author" : "WWW.SINA.COM.CN",
"tags" : [],
"desc" : "济南时报讯 27日中午12点，山财大舜耕校区上演\u201C疯狂占座\u201D，教学楼大门玻璃被挤爆。28日，在山财大舜耕校区 3号教学楼，课桌上占座的字迹处处可见。 距离2014年考研还有2个多月，复习已进入冲刺阶段。27日中午12点，山财大舜耕校区再次上演疯狂的考研占座，学生为争抢....",
"emailed" : False,
"forwarded" : False,
"english" : False
}  , {
"index" : 6,
"articleIndex" : "21821",
"favor" :  False ,
     "read" : False,    
"title" : "2014硕士研究生网上报名将于10月31日结束",
"titleTip" : "2014硕士研究生网上报名将于10月31日结束",
"titleSummary" : "2014硕士研究生网上报名将于10月31日结束",
"descSummary" : "2014年全国硕士研究生招生考试报名工作将于10月31日22时...",
"url" : "http:\/\/go.rss.sina.com.cn\/redirect.php?url=http:\/\/edu.sina.com.cn\/kaoyan\/2013-10-29\/1613399709.shtml",
"pubDate" : "昨天16:13:43",
"enterDate" : "384200:47:22",
"channelId" : "2827980091218209168",
"channelName" : "考研-新浪教育",
"channelNameSummary" : "考研-新浪教育",
"channelUrl" : "http:\/\/edu.sina.com.cn\/rss\/index.html",
"author" : "WWW.SINA.COM.CN",
"tags" : [],
"desc" : "2014年全国硕士研究生招生考试报名工作将于10月31日22时结束。研招网提醒考生尽早完成网上报名和网上缴费(网上缴费仅限报考点选择在北京、天津、河北、山东、河南、四川、湖南和广西的考生)，以免由于错过网上报名造成不必要的损失。 考生要认真阅读省级教育招生考试管....",
"emailed" : False,
"forwarded" : False,
"english" : False
}  , {
"index" : 7,
"articleIndex" : "21820",
"favor" :  False ,
     "read" : False,    
"title" : "2014考研政治：十八大相关知识点考查题型",
"titleTip" : "2014考研政治：十八大相关知识点考查题型",
"titleSummary" : "2014考研政治：十八大相关知识点考查题型",
"descSummary" : "2014年考研政治大纲发生了一些变化，在整个考研政治中，...",
"url" : "http:\/\/go.rss.sina.com.cn\/redirect.php?url=http:\/\/edu.sina.com.cn\/kaoyan\/2013-10-29\/1548399698.shtml",
"pubDate" : "昨天15:48:25",
"enterDate" : "384200:52:10",
"channelId" : "2827980091218209168",
"channelName" : "考研-新浪教育",
"channelNameSummary" : "考研-新浪教育",
"channelUrl" : "http:\/\/edu.sina.com.cn\/rss\/index.html",
"author" : "WWW.SINA.COM.CN",
"tags" : [],
"desc" : "2014年考研政治大纲发生了一些变化，在整个考研政治中，各个科目都有所体现，应该说全面贯彻了党的十八大报告重要观点、重要思想，因此来说对于备考2014年考研政治来说，十八大报告仍然是一个指导性的重要文献，所以说十八大报告里面重要观点、重要思想，一定要认真领会。下面....",
"emailed" : False,
"forwarded" : False,
"english" : False
}  , {
"index" : 8,
"articleIndex" : "21819",
"favor" :  False ,
     "read" : False,    
"title" : "2014考研英语写作冲刺黄金复习方案",
"titleTip" : "2014考研英语写作冲刺黄金复习方案",
"titleSummary" : "2014考研英语写作冲刺黄金复习方案",
"descSummary" : "在距离2014年研究生考试已经不到70天了，在这个冲刺复习的黄金...",
"url" : "http:\/\/go.rss.sina.com.cn\/redirect.php?url=http:\/\/edu.sina.com.cn\/kaoyan\/2013-10-29\/1546399697.shtml",
"pubDate" : "昨天15:46:39",
"enterDate" : "384200:50:24",
"channelId" : "2827980091218209168",
"channelName" : "考研-新浪教育",
"channelNameSummary" : "考研-新浪教育",
"channelUrl" : "http:\/\/edu.sina.com.cn\/rss\/index.html",
"author" : "WWW.SINA.COM.CN",
"tags" : [],
"desc" : "在距离2014年研究生考试已经不到70天了，在这个冲刺复习的黄金时间里，太奇考研小编为大家针对考研英语写作部分备考方案进行总结分享，希望对考生们有所帮助，在所剩不多的日子里可以在英语写作部分上提高一些分数。 一、词汇与语法错误 考研英语写作让很多同学....",
"emailed" : False,
"forwarded" : False,
"english" : False
}  , {
"index" : 9,
"articleIndex" : "21818",
"favor" :  False ,
     "read" : False,    
"title" : "2013年10月GCT在职硕士联考真题及答案汇总",
"titleTip" : "2013年10月GCT在职硕士联考真题及答案汇总",
"titleSummary" : "2013年10月GCT在职硕士联考真题及答案汇总",
"descSummary" : "新浪教育讯 2013年10月GCT在职硕士全国联考已结束。小...",
"url" : "http:\/\/go.rss.sina.com.cn\/redirect.php?url=http:\/\/edu.sina.com.cn\/kaoyan\/2013-10-29\/1531399696.shtml",
"pubDate" : "昨天15:31:55",
"enterDate" : "384201:05:45",
"channelId" : "2827980091218209168",
"channelName" : "考研-新浪教育",
"channelNameSummary" : "考研-新浪教育",
"channelUrl" : "http:\/\/edu.sina.com.cn\/rss\/index.html",
"author" : "WWW.SINA.COM.CN",
"tags" : [],
"desc" : "新浪教育讯 2013年10月GCT在职硕士全国联考已结束。小编汇总在职联考真题及参考答案供网友参考。祝考研人考出好成绩。详情如下： &gt;&gt;2013年10月GCT在职硕士联考《语文(A卷)》真题及参考答案 &gt;&gt;2013年10月GCT在职硕士联考《语文(B卷)》真题及参考答案....",
"emailed" : False,
"forwarded" : False,
"english" : False
}  , {
"index" : 10,
"articleIndex" : "21817",
"favor" :  False ,
     "read" : False,    
"title" : "2014考研史纲高频考点：土地革命解读",
"titleTip" : "2014考研史纲高频考点：土地革命解读",
"titleSummary" : "2014考研史纲高频考点：土地革命解读",
"descSummary" : "2014年的全国研究生入学考试越来越近了，考研在复习考研政治...",
"url" : "http:\/\/go.rss.sina.com.cn\/redirect.php?url=http:\/\/edu.sina.com.cn\/kaoyan\/2013-10-29\/1528399693.shtml",
"pubDate" : "昨天15:28:11",
"enterDate" : "384201:02:01",
"channelId" : "2827980091218209168",
"channelName" : "考研-新浪教育",
"channelNameSummary" : "考研-新浪教育",
"channelUrl" : "http:\/\/edu.sina.com.cn\/rss\/index.html",
"author" : "WWW.SINA.COM.CN",
"tags" : [],
"desc" : "2014年的全国研究生入学考试越来越近了，考研在复习考研政治近代史纲这部分时，要善于总结，合并相关联知识点，按照时间顺序把所有知识点串联起来。为了帮助并能够给考生的考研复习节省下时间，下面，太奇考研小编为考生们总结了2014考研史纲高频考点之土地革命解读，供考生借....",
"emailed" : False,
"forwarded" : False,
"english" : False
}  , {
"index" : 11,
"articleIndex" : "21816",
"favor" :  False ,
     "read" : False,    
"title" : "2014考研英语冲刺：重要连接词整理汇总",
"titleTip" : "2014考研英语冲刺：重要连接词整理汇总",
"titleSummary" : "2014考研英语冲刺：重要连接词整理汇总",
"descSummary" : "距离2014年考研的日子越来越近了，相信考生朋友在经历了基...",
"url" : "http:\/\/go.rss.sina.com.cn\/redirect.php?url=http:\/\/edu.sina.com.cn\/kaoyan\/2013-10-29\/1526399692.shtml",
"pubDate" : "昨天15:26:10",
"enterDate" : "384201:00:00",
"channelId" : "2827980091218209168",
"channelName" : "考研-新浪教育",
"channelNameSummary" : "考研-新浪教育",
"channelUrl" : "http:\/\/edu.sina.com.cn\/rss\/index.html",
"author" : "WWW.SINA.COM.CN",
"tags" : [],
"desc" : "距离2014年考研的日子越来越近了，相信考生朋友在经历了基础、强化、提高阶段打下了坚实的基础，如今考研冲刺阶段，大家如何正确有效的复习考研英语的阅读理解部分？接来下太奇考研小编就为大家整理分享关于考研阅读理解中重要连接词汇总，以帮助大家在英语复习时抓住要点。....",
"emailed" : False,
"forwarded" : False,
"english" : False
}  , {
"index" : 12,
"articleIndex" : "21815",
"favor" :  False ,
     "read" : False,    
"title" : "2014考研英语：基础不好冲刺复习如何逆袭？",
"titleTip" : "2014考研英语：基础不好冲刺复习如何逆袭？",
"titleSummary" : "2014考研英语：基础不好冲刺复习如何逆袭？",
"descSummary" : "考研是勇气的选择，想要达成梦想就要有莫大的运气卖出第...",
"url" : "http:\/\/go.rss.sina.com.cn\/redirect.php?url=http:\/\/edu.sina.com.cn\/kaoyan\/2013-10-29\/1523399690.shtml",
"pubDate" : "昨天15:23:58",
"enterDate" : "384200:57:48",
"channelId" : "2827980091218209168",
"channelName" : "考研-新浪教育",
"channelNameSummary" : "考研-新浪教育",
"channelUrl" : "http:\/\/edu.sina.com.cn\/rss\/index.html",
"author" : "WWW.SINA.COM.CN",
"tags" : [],
"desc" : "考研是勇气的选择，想要达成梦想就要有莫大的运气卖出第一步。而对于勇敢选择考研的考生来说，考研英语应该说是比较薄弱环节，我们都知道英语是一门需要长期积累和经验的学科，对于英语基础不好的学生在考研复习时应该有哪些注意点呢，太奇考研今天为大家进行一下考研英语复习....",
"emailed" : False,
"forwarded" : False,
"english" : False
}  , {
"index" : 13,
"articleIndex" : "21814",
"favor" :  False ,
     "read" : False,    
"title" : "2013年10月GCT在职硕士联考英语(B卷)真题",
"titleTip" : "2013年10月GCT在职硕士联考英语(B卷)真题",
"titleSummary" : "2013年10月GCT在职硕士联考英语(B卷)真题",
"descSummary" : "",
"url" : "http:\/\/go.rss.sina.com.cn\/redirect.php?url=http:\/\/edu.sina.com.cn\/shiti\/2013\/1029\/1519013128.html",
"pubDate" : "昨天15:19:05",
"enterDate" : "384200:52:55",
"channelId" : "2827980091218209168",
"channelName" : "考研-新浪教育",
"channelNameSummary" : "考研-新浪教育",
"channelUrl" : "http:\/\/edu.sina.com.cn\/rss\/index.html",
"author" : "WWW.SINA.COM.CN",
"tags" : [],
"desc" : "",
"emailed" : False,
"forwarded" : False,
"english" : False
}  , {
"index" : 14,
"articleIndex" : "21813",
"favor" :  False ,
     "read" : False,    
"title" : "2013年10月GCT在职硕士联考英语(A卷)真题",
"titleTip" : "2013年10月GCT在职硕士联考英语(A卷)真题",
"titleSummary" : "2013年10月GCT在职硕士联考英语(A卷)真题",
"descSummary" : "",
"url" : "http:\/\/go.rss.sina.com.cn\/redirect.php?url=http:\/\/edu.sina.com.cn\/shiti\/2013\/1029\/1518013127.html",
"pubDate" : "昨天15:18:20",
"enterDate" : "384200:52:10",
"channelId" : "2827980091218209168",
"channelName" : "考研-新浪教育",
"channelNameSummary" : "考研-新浪教育",
"channelUrl" : "http:\/\/edu.sina.com.cn\/rss\/index.html",
"author" : "WWW.SINA.COM.CN",
"tags" : [],
"desc" : "",
"emailed" : False,
"forwarded" : False,
"english" : False
}  , {
"index" : 15,
"articleIndex" : "21812",
"favor" :  False ,
     "read" : False,    
"title" : "2013年10月GCT在职硕士联考逻辑(B卷)真题",
"titleTip" : "2013年10月GCT在职硕士联考逻辑(B卷)真题",
"titleSummary" : "2013年10月GCT在职硕士联考逻辑(B卷)真题",
"descSummary" : "",
"url" : "http:\/\/go.rss.sina.com.cn\/redirect.php?url=http:\/\/edu.sina.com.cn\/shiti\/2013\/1029\/1517013126.html",
"pubDate" : "昨天15:17:47",
"enterDate" : "384200:51:37",
"channelId" : "2827980091218209168",
"channelName" : "考研-新浪教育",
"channelNameSummary" : "考研-新浪教育",
"channelUrl" : "http:\/\/edu.sina.com.cn\/rss\/index.html",
"author" : "WWW.SINA.COM.CN",
"tags" : [],
"desc" : "",
"emailed" : False,
"forwarded" : False,
"english" : False
}  , {
"index" : 16,
"articleIndex" : "21811",
"favor" :  False ,
     "read" : False,    
"title" : "2013年10月GCT在职硕士联考逻辑(A卷)真题",
"titleTip" : "2013年10月GCT在职硕士联考逻辑(A卷)真题",
"titleSummary" : "2013年10月GCT在职硕士联考逻辑(A卷)真题",
"descSummary" : "",
"url" : "http:\/\/go.rss.sina.com.cn\/redirect.php?url=http:\/\/edu.sina.com.cn\/shiti\/2013\/1029\/1517013125.html",
"pubDate" : "昨天15:17:13",
"enterDate" : "384200:51:03",
"channelId" : "2827980091218209168",
"channelName" : "考研-新浪教育",
"channelNameSummary" : "考研-新浪教育",
"channelUrl" : "http:\/\/edu.sina.com.cn\/rss\/index.html",
"author" : "WWW.SINA.COM.CN",
"tags" : [],
"desc" : "",
"emailed" : False,
"forwarded" : False,
"english" : False
}  , {
"index" : 17,
"articleIndex" : "21810",
"favor" :  False ,
     "read" : False,    
"title" : "2013年10月GCT在职硕士联考数学(B卷)真题",
"titleTip" : "2013年10月GCT在职硕士联考数学(B卷)真题",
"titleSummary" : "2013年10月GCT在职硕士联考数学(B卷)真题",
"descSummary" : "",
"url" : "http:\/\/go.rss.sina.com.cn\/redirect.php?url=http:\/\/edu.sina.com.cn\/shiti\/2013\/1029\/1516013124.html",
"pubDate" : "昨天15:16:14",
"enterDate" : "384200:50:04",
"channelId" : "2827980091218209168",
"channelName" : "考研-新浪教育",
"channelNameSummary" : "考研-新浪教育",
"channelUrl" : "http:\/\/edu.sina.com.cn\/rss\/index.html",
"author" : "WWW.SINA.COM.CN",
"tags" : [],
"desc" : "",
"emailed" : False,
"forwarded" : False,
"english" : False
}  , {
"index" : 18,
"articleIndex" : "21809",
"favor" :  False ,
     "read" : False,    
"title" : "2013年10月GCT在职硕士联考数学(A卷)真题",
"titleTip" : "2013年10月GCT在职硕士联考数学(A卷)真题",
"titleSummary" : "2013年10月GCT在职硕士联考数学(A卷)真题",
"descSummary" : "",
"url" : "http:\/\/go.rss.sina.com.cn\/redirect.php?url=http:\/\/edu.sina.com.cn\/shiti\/2013\/1029\/1515013123.html",
"pubDate" : "昨天15:15:32",
"enterDate" : "384200:49:22",
"channelId" : "2827980091218209168",
"channelName" : "考研-新浪教育",
"channelNameSummary" : "考研-新浪教育",
"channelUrl" : "http:\/\/edu.sina.com.cn\/rss\/index.html",
"author" : "WWW.SINA.COM.CN",
"tags" : [],
"desc" : "",
"emailed" : False,
"forwarded" : False,
"english" : False
}  , {
"index" : 19,
"articleIndex" : "21808",
"favor" :  False ,
     "read" : False,    
"title" : "2013年10月GCT在职硕士联考语文(B卷)真题",
"titleTip" : "2013年10月GCT在职硕士联考语文(B卷)真题",
"titleSummary" : "2013年10月GCT在职硕士联考语文(B卷)真题",
"descSummary" : "",
"url" : "http:\/\/go.rss.sina.com.cn\/redirect.php?url=http:\/\/edu.sina.com.cn\/shiti\/2013\/1029\/1514013122.html",
"pubDate" : "昨天15:14:26",
"enterDate" : "384200:48:16",
"channelId" : "2827980091218209168",
"channelName" : "考研-新浪教育",
"channelNameSummary" : "考研-新浪教育",
"channelUrl" : "http:\/\/edu.sina.com.cn\/rss\/index.html",
"author" : "WWW.SINA.COM.CN",
"tags" : [],
"desc" : "",
"emailed" : False,
"forwarded" : False,
"english" : False
} ]
}
