{
"mode" : {"viewTitle" : 1,   "viewNew" : 0,  "pageIndex" : 2 },
 "channel" : {"id" : "2827980091218209168", "booked" : False, "subNumber" : 1, "name" : "考研-新浪教育", "url" : "http:\/\/edu.sina.com.cn\/rss\/index.html", "feed" : "http:\/\/rss.sina.com.cn\/edu\/kaoyan.xml", "author" : "WWW.SINA.COM.CN", "desc" : "文化教育-考研", "imageUrl" : "http:\/\/www.sinaimg.cn\/home\/deco\/2009\/0330\/logo_home_edu.gif", "postPerWeek" : "0", "lastCrawTime" : "16:50:16", "crawDateTime" : "16:50:16", "lastHttpCode" : "200"}, "page" : {
"startIndex" : 20,
"totalCount" : 5000,
"pageIndex" : 2,
"lastPage" : 250,
"pageSize" : 20,
"english" :  False },
 "unreadNum" : 0, "shotIndex" : -1,
"articles" : [
{
"index" : 0,
"articleIndex" : "21807",
"favor" :  False ,
     "read" : False,    
"title" : "2013年10月GCT在职硕士联考语文(A卷)真题",
"titleTip" : "2013年10月GCT在职硕士联考语文(A卷)真题",
"titleSummary" : "2013年10月GCT在职硕士联考语文(A卷)真题",
"descSummary" : "",
"url" : "http:\/\/go.rss.sina.com.cn\/redirect.php?url=http:\/\/edu.sina.com.cn\/shiti\/2013\/1029\/1513013121.html",
"pubDate" : "昨天15:13:29",
"enterDate" : "384200:47:19",
"channelId" : "2827980091218209168",
"channelName" : "考研-新浪教育",
"channelNameSummary" : "考研-新浪教育",
"channelUrl" : "http:\/\/edu.sina.com.cn\/rss\/index.html",
"author" : "WWW.SINA.COM.CN",
"tags" : [],
"desc" : "",
"emailed" : False,
"forwarded" : False,
"english" : False
}  , {
"index" : 1,
"articleIndex" : "21806",
"favor" :  False ,
     "read" : False,    
"title" : "2014考研数学复习：考研数学到底考什么？",
"titleTip" : "2014考研数学复习：考研数学到底考什么？",
"titleSummary" : "2014考研数学复习：考研数学到底考什么？",
"descSummary" : "数学命题的基本原则是重在考查能力，在考查数学的基本概念...",
"url" : "http:\/\/go.rss.sina.com.cn\/redirect.php?url=http:\/\/edu.sina.com.cn\/kaoyan\/2013-10-29\/1438399665.shtml",
"pubDate" : "昨天14:38:15",
"enterDate" : "384201:12:15",
"channelId" : "2827980091218209168",
"channelName" : "考研-新浪教育",
"channelNameSummary" : "考研-新浪教育",
"channelUrl" : "http:\/\/edu.sina.com.cn\/rss\/index.html",
"author" : "WWW.SINA.COM.CN",
"tags" : [],
"desc" : "数学命题的基本原则是重在考查能力，在考查数学的基本概念，基本方法和基本原理的基础上注重对考生的运算能力、抽象概括能力、逻辑思维能力、空间想象能力和综合运用所学知识解决实际问题能力的考查，特别是对考生综合能力、应用能力和建模能力等创新能力的考查。海天考研辅导....",
"emailed" : False,
"forwarded" : False,
"english" : False
}  , {
"index" : 2,
"articleIndex" : "21805",
"favor" :  False ,
     "read" : False,    
"title" : "培养考研意识 勇敢的青春不盲从也不退缩",
"titleTip" : "培养考研意识 勇敢的青春不盲从也不退缩",
"titleSummary" : "培养考研意识 勇敢的青春不盲从也不退缩",
"descSummary" : "当市场上的本科毕业生一夜之间出现过剩，就业得不到保障时，...",
"url" : "http:\/\/go.rss.sina.com.cn\/redirect.php?url=http:\/\/edu.sina.com.cn\/kaoyan\/2013-10-29\/1436399664.shtml",
"pubDate" : "昨天14:36:18",
"enterDate" : "384201:10:18",
"channelId" : "2827980091218209168",
"channelName" : "考研-新浪教育",
"channelNameSummary" : "考研-新浪教育",
"channelUrl" : "http:\/\/edu.sina.com.cn\/rss\/index.html",
"author" : "WWW.SINA.COM.CN",
"tags" : [],
"desc" : "当市场上的本科毕业生一夜之间出现过剩，就业得不到保障时，大家纷纷转而考研，为求得一纸硕士文凭而再战几年。辛辛苦苦等到找工作的时候，看上的用人单位开出的条件却是非博士不招。这种怪现象，使得原本就存在的考研无意识更为加剧。海天考研辅导专家提醒考生，要想培养考研....",
"emailed" : False,
"forwarded" : False,
"english" : False
}  , {
"index" : 3,
"articleIndex" : "21804",
"favor" :  False ,
     "read" : False,    
"title" : "山东技校办\u201C大学生回炉班\u201D 名校硕士学测绘",
"titleTip" : "山东技校办\u201C大学生回炉班\u201D 名校硕士学测绘",
"titleSummary" : "山东技校办\u201C大学生回炉班\u201D 名校硕士学测绘",
"descSummary" : "不少大学毕业生重新到技校\u201C回炉\u201D学技术谋就业 记者 王...",
"url" : "http:\/\/go.rss.sina.com.cn\/redirect.php?url=http:\/\/edu.sina.com.cn\/kaoyan\/2013-10-29\/1057399636.shtml",
"pubDate" : "昨天10:57:36",
"enterDate" : "384200:02:01",
"channelId" : "2827980091218209168",
"channelName" : "考研-新浪教育",
"channelNameSummary" : "考研-新浪教育",
"channelUrl" : "http:\/\/edu.sina.com.cn\/rss\/index.html",
"author" : "WWW.SINA.COM.CN",
"tags" : [],
"desc" : "不少大学毕业生重新到技校\u201C回炉\u201D学技术谋就业 记者 王晓峰 摄 商报济南消息(记者 孙)不久前，在山东冶金技师学院举行的开学典礼上，有近50名特别的学生\u2015\u2015他们是拥有正规大专院校学历和文凭的大学毕业生。大学毕业生为何出现在技校的开学典礼上，记者采访得知，他们是....",
"emailed" : False,
"forwarded" : False,
"english" : False
}  , {
"index" : 4,
"articleIndex" : "21803",
"favor" :  False ,
     "read" : False,    
"title" : "女研究生和黑车司机14天闪婚 同居2天男方失踪",
"titleTip" : "女研究生和黑车司机14天闪婚 同居2天男方失踪",
"titleSummary" : "女研究生和黑车司机14天闪婚 同居2天男方失踪",
"descSummary" : "黑车司机与女硕士认识14天闪婚，婚后2天失踪，让女方替...",
"url" : "http:\/\/go.rss.sina.com.cn\/redirect.php?url=http:\/\/edu.sina.com.cn\/kaoyan\/2013-10-29\/1048399630.shtml",
"pubDate" : "昨天10:48:10",
"enterDate" : "384199:52:35",
"channelId" : "2827980091218209168",
"channelName" : "考研-新浪教育",
"channelNameSummary" : "考研-新浪教育",
"channelUrl" : "http:\/\/edu.sina.com.cn\/rss\/index.html",
"author" : "WWW.SINA.COM.CN",
"tags" : [],
"desc" : "黑车司机与女硕士认识14天闪婚，婚后2天失踪，让女方替他还债才同意离婚。 资料图 重庆晚报讯 30岁的女研究生陈丽，与黑车司机张军结识14天后，就领取结婚证。更让人意外的是，婚后同居仅两天，张军就玩起了失踪。10月21日，江津区法院以双方认识仅14天就结婚、没能建立....",
"emailed" : False,
"forwarded" : False,
"english" : False
}  , {
"index" : 5,
"articleIndex" : "21802",
"favor" :  False ,
     "read" : False,    
"title" : "中山大学首届公益慈善硕士研修班开学",
"titleTip" : "中山大学首届公益慈善硕士研修班开学",
"titleSummary" : "中山大学首届公益慈善硕士研修班开学",
"descSummary" : "南方日报讯 (记者\/赵新星)中山大学首届民族学专业(公益慈善方向...",
"url" : "http:\/\/go.rss.sina.com.cn\/redirect.php?url=http:\/\/edu.sina.com.cn\/kaoyan\/2013-10-29\/1034399624.shtml",
"pubDate" : "昨天10:34:45",
"enterDate" : "384201:09:25",
"channelId" : "2827980091218209168",
"channelName" : "考研-新浪教育",
"channelNameSummary" : "考研-新浪教育",
"channelUrl" : "http:\/\/edu.sina.com.cn\/rss\/index.html",
"author" : "WWW.SINA.COM.CN",
"tags" : [],
"desc" : "南方日报讯 (记者\/赵新星)中山大学首届民族学专业(公益慈善方向)硕士研究生课程研修班开学仪式近日在中山大学举行。 据了解，本届研修班共招收了58名学员，其中不乏民间公益组织、政府、企业、媒体等领域的资深专业人士。开学仪式结束后，华民慈善基金会理事长、中国社....",
"emailed" : False,
"forwarded" : False,
"english" : False
}  , {
"index" : 6,
"articleIndex" : "21801",
"favor" :  False ,
     "read" : False,    
"title" : "2013在职硕士专业学位全国联考结束(图)",
"titleTip" : "2013在职硕士专业学位全国联考结束(图)",
"titleSummary" : "2013在职硕士专业学位全国联考结束(图)",
"descSummary" : "2013年在职攻读硕士专业学位全国联考结束 2013年在职攻读硕士...",
"url" : "http:\/\/go.rss.sina.com.cn\/redirect.php?url=http:\/\/edu.sina.com.cn\/kaoyan\/2013-10-29\/1033399623.shtml",
"pubDate" : "昨天10:33:21",
"enterDate" : "384201:08:01",
"channelId" : "2827980091218209168",
"channelName" : "考研-新浪教育",
"channelNameSummary" : "考研-新浪教育",
"channelUrl" : "http:\/\/edu.sina.com.cn\/rss\/index.html",
"author" : "WWW.SINA.COM.CN",
"tags" : [],
"desc" : "2013年在职攻读硕士专业学位全国联考结束 2013年在职攻读硕士专业学位全国联考结束 2013年在职攻读硕士专业学位全国联考于10月27日在上海交通大学闵行校区进行。上午，5794人在196个考场参加了GCT考试(含工程硕士、农业推广、兽医、风景园林)；下午，3515人在121个考场....",
"emailed" : False,
"forwarded" : False,
"english" : False
}  , {
"index" : 7,
"articleIndex" : "21800",
"favor" :  False ,
     "read" : False,    
"title" : "湖南出台研究生收费标准 学术型硕士每年8千",
"titleTip" : "湖南出台研究生收费标准 学术型硕士每年8千",
"titleSummary" : "湖南出台研究生收费标准 学术型硕士每年8千",
"descSummary" : "据长沙晚报报道(记者 陈暄)记者昨日从湖南省物价局获悉，省...",
"url" : "http:\/\/go.rss.sina.com.cn\/redirect.php?url=http:\/\/edu.sina.com.cn\/kaoyan\/2013-10-29\/1027399619.shtml",
"pubDate" : "昨天10:27:08",
"enterDate" : "384201:01:48",
"channelId" : "2827980091218209168",
"channelName" : "考研-新浪教育",
"channelNameSummary" : "考研-新浪教育",
"channelUrl" : "http:\/\/edu.sina.com.cn\/rss\/index.html",
"author" : "WWW.SINA.COM.CN",
"tags" : [],
"desc" : "据长沙晚报报道(记者 陈暄)记者昨日从湖南省物价局获悉，省物价局、省财政厅、省教育厅于近日联合下发《关于加强我省研究生收费管理的通知》，明确2014年湖南省研究生教育基准收费标准不高于2011年的收费水平。 《通知》指出，湖南省统一制定了全省研究生教育基准收费....",
"emailed" : False,
"forwarded" : False,
"english" : False
}  , {
"index" : 8,
"articleIndex" : "21799",
"favor" :  False ,
     "read" : False,    
"title" : "李亚鹏晒硕士服照 网友叹世事无常(组图)",
"titleTip" : "李亚鹏晒硕士服照 网友叹世事无常(组图)",
"titleSummary" : "李亚鹏晒硕士服照 网友叹世事无常(组图)",
"descSummary" : "李亚鹏硕士服照 长江商学院的明星：王石(左)、赵本山(中)、陈鲁...",
"url" : "http:\/\/go.rss.sina.com.cn\/redirect.php?url=http:\/\/edu.sina.com.cn\/kaoyan\/2013-10-29\/1016399609.shtml",
"pubDate" : "昨天10:16:23",
"enterDate" : "384200:51:03",
"channelId" : "2827980091218209168",
"channelName" : "考研-新浪教育",
"channelNameSummary" : "考研-新浪教育",
"channelUrl" : "http:\/\/edu.sina.com.cn\/rss\/index.html",
"author" : "WWW.SINA.COM.CN",
"tags" : [],
"desc" : "李亚鹏硕士服照 长江商学院的明星：王石(左)、赵本山(中)、陈鲁豫(右)。 近日，李亚鹏在微博上晒出身着硕士服自拍照，宣布自己正式从长江商学院毕业了。2011年5月，李亚鹏曾在微博宣布入读长江商学院，当时的太太王菲还\u201C醋溜溜\u201D送行，并笑称其班里\u201C狼多肉少\u201D，如今....",
"emailed" : False,
"forwarded" : False,
"english" : False
}  , {
"index" : 9,
"articleIndex" : "21798",
"favor" :  False ,
     "read" : False,    
"title" : "2014考研推免生必读：一场水平与公平之争",
"titleTip" : "2014考研推免生必读：一场水平与公平之争",
"titleSummary" : "2014考研推免生必读：一场水平与公平之争",
"descSummary" : "每年的10月都是一个与\u201C考试\u201D有关的月份。公务员报名、...",
"url" : "http:\/\/go.rss.sina.com.cn\/redirect.php?url=http:\/\/edu.sina.com.cn\/kaoyan\/2013-10-29\/1010399603.shtml",
"pubDate" : "昨天10:10:45",
"enterDate" : "384201:15:30",
"channelId" : "2827980091218209168",
"channelName" : "考研-新浪教育",
"channelNameSummary" : "考研-新浪教育",
"channelUrl" : "http:\/\/edu.sina.com.cn\/rss\/index.html",
"author" : "WWW.SINA.COM.CN",
"tags" : [],
"desc" : "每年的10月都是一个与\u201C考试\u201D有关的月份。公务员报名、高考改革政策出台吸引了众人眼球，而10月也注定是高校招收本科毕业生免试攻读研究生(以下简称\u201C推免生\u201D)最忙碌的月份\u2015\u2015高校迎来一场接一场的推免生笔试、面试。 推免生，一个特殊的群体，他们虽然不用参加常规....",
"emailed" : False,
"forwarded" : False,
"english" : False
}  , {
"index" : 10,
"articleIndex" : "21797",
"favor" :  False ,
     "read" : False,    
"title" : "2014考研报名31日结束 11月10日信息确认",
"titleTip" : "2014考研报名31日结束 11月10日信息确认",
"titleSummary" : "2014考研报名31日结束 11月10日信息确认",
"descSummary" : "2014年硕士研究生招生考试报名工作将于10月31日结束，提醒...",
"url" : "http:\/\/go.rss.sina.com.cn\/redirect.php?url=http:\/\/edu.sina.com.cn\/kaoyan\/2013-10-29\/1004399597.shtml",
"pubDate" : "昨天10:04:32",
"enterDate" : "384201:09:17",
"channelId" : "2827980091218209168",
"channelName" : "考研-新浪教育",
"channelNameSummary" : "考研-新浪教育",
"channelUrl" : "http:\/\/edu.sina.com.cn\/rss\/index.html",
"author" : "WWW.SINA.COM.CN",
"tags" : [],
"desc" : "2014年硕士研究生招生考试报名工作将于10月31日结束，提醒考生在规定的网上报名时间内完成网上报名和网上交费，否则报名信息无效。 在报名时，考生应真实、完整、准确填写网上报名信息，完成网上报名后，请打印出清单并牢记本人在网上报名中生成的报名号。考生如发现报....",
"emailed" : False,
"forwarded" : False,
"english" : False
}  , {
"index" : 11,
"articleIndex" : "21796",
"favor" :  False ,
     "read" : False,    
"title" : "考研复习后期 注意把书读\u201C薄\u201D",
"titleTip" : "考研复习后期 注意把书读\u201C薄\u201D",
"titleSummary" : "考研复习后期 注意把书读\u201C薄\u201D",
"descSummary" : "如果说复习前期是把复习的相关内容总体过一遍，搞清楚思路的过程，那...",
"url" : "http:\/\/go.rss.sina.com.cn\/redirect.php?url=http:\/\/edu.sina.com.cn\/kaoyan\/2013-10-29\/0957399590.shtml",
"pubDate" : "昨天09:57:11",
"enterDate" : "384201:01:56",
"channelId" : "2827980091218209168",
"channelName" : "考研-新浪教育",
"channelNameSummary" : "考研-新浪教育",
"channelUrl" : "http:\/\/edu.sina.com.cn\/rss\/index.html",
"author" : "WWW.SINA.COM.CN",
"tags" : [],
"desc" : "如果说复习前期是把复习的相关内容总体过一遍，搞清楚思路的过程，那么从现在开始，大家的任务就是把你所掌握的内容分门别类，然后进行整合记忆。换言之，如果前半部分的任务是把书读厚，那么接下来的时间，你需要做的就是把书读薄。海天考研辅导专家提醒考生，在之前的复习过....",
"emailed" : False,
"forwarded" : False,
"english" : False
}  , {
"index" : 12,
"articleIndex" : "21795",
"favor" :  False ,
     "read" : False,    
"title" : "2014考研报名仅剩三天 避免高峰网络堵塞",
"titleTip" : "2014考研报名仅剩三天 避免高峰网络堵塞",
"titleSummary" : "2014考研报名仅剩三天 避免高峰网络堵塞",
"descSummary" : "2014年全国硕士研究生招生考试网上报名将于31日22时截止，...",
"url" : "http:\/\/go.rss.sina.com.cn\/redirect.php?url=http:\/\/edu.sina.com.cn\/kaoyan\/2013-10-29\/0952399588.shtml",
"pubDate" : "昨天09:52:59",
"enterDate" : "384200:57:44",
"channelId" : "2827980091218209168",
"channelName" : "考研-新浪教育",
"channelNameSummary" : "考研-新浪教育",
"channelUrl" : "http:\/\/edu.sina.com.cn\/rss\/index.html",
"author" : "WWW.SINA.COM.CN",
"tags" : [],
"desc" : "2014年全国硕士研究生招生考试网上报名将于31日22时截止，还未报名的考生要抓紧上网报名，以免最后集中登录造成网络堵塞。已经报名的考生也不能掉以轻心，须随时登录所报考院校网站，查询是否有错误需要修改。有的高校要求网上缴费，也请考生不要错过缴费时间。 2014年....",
"emailed" : False,
"forwarded" : False,
"english" : False
}  , {
"index" : 13,
"articleIndex" : "21794",
"favor" :  False ,
     "read" : False,    
"title" : "教育学家葛剑雄：一味求多造成博士贬值",
"titleTip" : "教育学家葛剑雄：一味求多造成博士贬值",
"titleSummary" : "教育学家葛剑雄：一味求多造成博士贬值",
"descSummary" : "齐鲁晚报：最近诺贝尔奖评选结果公布后，因为我们没有在自然...",
"url" : "http:\/\/go.rss.sina.com.cn\/redirect.php?url=http:\/\/edu.sina.com.cn\/kaoyan\/2013-10-29\/0759399578.shtml",
"pubDate" : "昨天07:59:32",
"enterDate" : "384200:34:32",
"channelId" : "2827980091218209168",
"channelName" : "考研-新浪教育",
"channelNameSummary" : "考研-新浪教育",
"channelUrl" : "http:\/\/edu.sina.com.cn\/rss\/index.html",
"author" : "WWW.SINA.COM.CN",
"tags" : [],
"desc" : "齐鲁晚报：最近诺贝尔奖评选结果公布后，因为我们没有在自然科学领域有所突破，引发了不少学者对教育、科研体制的反思。您如何看？ 葛剑雄：诺贝尔奖情结其实没有必要，发达国家得诺贝尔奖也是不平均的。诺贝尔奖不是哪个大学教育出来的，莫言是哪个学校培养的？所以，....",
"emailed" : False,
"forwarded" : False,
"english" : False
}  , {
"index" : 14,
"articleIndex" : "21793",
"favor" :  False ,
     "read" : False,    
"title" : "2014考研英语：阅读理解举一反三综合提升",
"titleTip" : "2014考研英语：阅读理解举一反三综合提升",
"titleSummary" : "2014考研英语：阅读理解举一反三综合提升",
"descSummary" : "冲刺阶段中各位考生的学习重点应该在于\u201C消化笔记，深化理...",
"url" : "http:\/\/go.rss.sina.com.cn\/redirect.php?url=http:\/\/edu.sina.com.cn\/kaoyan\/2013-10-28\/1808399572.shtml",
"pubDate" : "前天18:08:40",
"enterDate" : "384200:46:00",
"channelId" : "2827980091218209168",
"channelName" : "考研-新浪教育",
"channelNameSummary" : "考研-新浪教育",
"channelUrl" : "http:\/\/edu.sina.com.cn\/rss\/index.html",
"author" : "WWW.SINA.COM.CN",
"tags" : [],
"desc" : "冲刺阶段中各位考生的学习重点应该在于\u201C消化笔记，深化理解，操练总结\u201D，也即是说，各位考生在现阶段应该花一定时间，整理总结暑期强化课程笔记，并借助大量的练习，先谁是否能熟练应用解题技巧及方法，再通过大量练习，加以总结和提升解题技巧和能力。 就英语而言，....",
"emailed" : False,
"forwarded" : False,
"english" : False
}  , {
"index" : 15,
"articleIndex" : "21792",
"favor" :  False ,
     "read" : False,    
"title" : "2014考研数学：阶段性复习重点之概率",
"titleTip" : "2014考研数学：阶段性复习重点之概率",
"titleSummary" : "2014考研数学：阶段性复习重点之概率",
"descSummary" : "现在已进入考研备考的冲刺阶段，通过半年多的学习备考，对于数...",
"url" : "http:\/\/go.rss.sina.com.cn\/redirect.php?url=http:\/\/edu.sina.com.cn\/kaoyan\/2013-10-28\/1807399571.shtml",
"pubDate" : "前天18:07:15",
"enterDate" : "384200:44:35",
"channelId" : "2827980091218209168",
"channelName" : "考研-新浪教育",
"channelNameSummary" : "考研-新浪教育",
"channelUrl" : "http:\/\/edu.sina.com.cn\/rss\/index.html",
"author" : "WWW.SINA.COM.CN",
"tags" : [],
"desc" : "现在已进入考研备考的冲刺阶段，通过半年多的学习备考，对于数学的复习大家一定也也有了自己的方法，现在不仅是巩固之前的备考成果，更需要抓住备考的重点，进行有针对性的复习，把该掌握的掌握住，该提分的地方把握住，做到不漏一分。下面我们把数学概率的每章节考试重点抽取....",
"emailed" : False,
"forwarded" : False,
"english" : False
}  , {
"index" : 16,
"articleIndex" : "21791",
"favor" :  False ,
     "read" : False,    
"title" : "2014考研农学：有机化学备考重难点详解",
"titleTip" : "2014考研农学：有机化学备考重难点详解",
"titleSummary" : "2014考研农学：有机化学备考重难点详解",
"descSummary" : "通过2014年新大纲可知有机化学考试内容主要包括有机化合物...",
"url" : "http:\/\/go.rss.sina.com.cn\/redirect.php?url=http:\/\/edu.sina.com.cn\/kaoyan\/2013-10-28\/1759399569.shtml",
"pubDate" : "前天17:59:15",
"enterDate" : "384201:06:39",
"channelId" : "2827980091218209168",
"channelName" : "考研-新浪教育",
"channelNameSummary" : "考研-新浪教育",
"channelUrl" : "http:\/\/edu.sina.com.cn\/rss\/index.html",
"author" : "WWW.SINA.COM.CN",
"tags" : [],
"desc" : "通过2014年新大纲可知有机化学考试内容主要包括有机化合物的命名、结构、物理性质、化学性质、合成方法及其应用；有机化合物各种类型的异构现象；有机化合物分子结构与理化性质的关系，典型有机化学反应机制。要求考生掌握有机化学的基础知识和基础理论，具有独立分析解决有关....",
"emailed" : False,
"forwarded" : False,
"english" : False
}  , {
"index" : 17,
"articleIndex" : "21790",
"favor" :  False ,
     "read" : False,    
"title" : "2014考研教育学：教育学原理考点解析",
"titleTip" : "2014考研教育学：教育学原理考点解析",
"titleSummary" : "2014考研教育学：教育学原理考点解析",
"descSummary" : "1. 教育学概述：本章主要内容是教育学的研究对象、研究任务以...",
"url" : "http:\/\/go.rss.sina.com.cn\/redirect.php?url=http:\/\/edu.sina.com.cn\/kaoyan\/2013-10-28\/1756399568.shtml",
"pubDate" : "前天17:56:27",
"enterDate" : "384201:03:51",
"channelId" : "2827980091218209168",
"channelName" : "考研-新浪教育",
"channelNameSummary" : "考研-新浪教育",
"channelUrl" : "http:\/\/edu.sina.com.cn\/rss\/index.html",
"author" : "WWW.SINA.COM.CN",
"tags" : [],
"desc" : "1.&#160;&#160;&#160; 教育学概述：本章主要内容是教育学的研究对象、研究任务以及教育学的产生与发展，是对教育学的一个宏观上的介绍，为的是让考生对教育学学科有一个宏观上的整体理解。因此，对本章内容的复习应以记忆和理解为主，个别重要知识点往往会考选择题，如教育学....",
"emailed" : False,
"forwarded" : False,
"english" : False
}  , {
"index" : 18,
"articleIndex" : "21789",
"favor" :  False ,
     "read" : False,    
"title" : "2014翻译硕士备考 各科冲刺复习攻略",
"titleTip" : "2014翻译硕士备考 各科冲刺复习攻略",
"titleSummary" : "2014翻译硕士备考 各科冲刺复习攻略",
"descSummary" : "十月已尽，距离1月份的2014年全国研究生入学考试的时间也越来越...",
"url" : "http:\/\/go.rss.sina.com.cn\/redirect.php?url=http:\/\/edu.sina.com.cn\/kaoyan\/2013-10-28\/1717399556.shtml",
"pubDate" : "前天17:17:33",
"enterDate" : "384200:55:03",
"channelId" : "2827980091218209168",
"channelName" : "考研-新浪教育",
"channelNameSummary" : "考研-新浪教育",
"channelUrl" : "http:\/\/edu.sina.com.cn\/rss\/index.html",
"author" : "WWW.SINA.COM.CN",
"tags" : [],
"desc" : "十月已尽，距离1月份的2014年全国研究生入学考试的时间也越来越近，考生们经历了漫长的几轮基础和强化复习后，现在都进入了考前冲刺阶段。为了帮助广大考生鼓足全力拼好冲刺战，新东方在线网络课堂考研辅导团队对翻译硕士的各科冲刺复习方法进行了总结，希望帮助考生们更好地....",
"emailed" : False,
"forwarded" : False,
"english" : False
}  , {
"index" : 19,
"articleIndex" : "21788",
"favor" :  False ,
     "read" : False,    
"title" : "课本真题加笔记 冲刺2014考研翻译硕士",
"titleTip" : "课本真题加笔记 冲刺2014考研翻译硕士",
"titleSummary" : "课本真题加笔记 冲刺2014考研翻译硕士",
"descSummary" : "距离1月份的2014年全国研究生入学考试时间还有两个多月，考生...",
"url" : "http:\/\/go.rss.sina.com.cn\/redirect.php?url=http:\/\/edu.sina.com.cn\/kaoyan\/2013-10-28\/1716399555.shtml",
"pubDate" : "前天17:16:33",
"enterDate" : "384200:54:03",
"channelId" : "2827980091218209168",
"channelName" : "考研-新浪教育",
"channelNameSummary" : "考研-新浪教育",
"channelUrl" : "http:\/\/edu.sina.com.cn\/rss\/index.html",
"author" : "WWW.SINA.COM.CN",
"tags" : [],
"desc" : "距离1月份的2014年全国研究生入学考试时间还有两个多月，考生们经历了漫长的几轮基础和强化复习后，现在都进入了考前冲刺阶段。此时，同学们应该抖擞精神，消除不良情绪，做好11、12月考前最后的冲刺。为了帮助广大考生鼓足全力拼好冲刺战，新东方在线网络课堂考研辅导团队为....",
"emailed" : False,
"forwarded" : False,
"english" : False
} ]
}
