{
"mode" : {"viewTitle" : 1,   "viewNew" : 0,  "pageIndex" : 1 },
 "channel" : {"id" : "631487833073860808", "booked" : False, "subNumber" : 1, "name" : "读书要闻汇总-新浪读书", "url" : "http:\/\/book.sina.com.cn\/old2012\/index.shtml", "feed" : "http:\/\/rss.sina.com.cn\/book\/info.xml", "author" : "WWW.SINA.COM.CN", "desc" : "读书要闻汇总", "imageUrl" : "http:\/\/www.sinaimg.cn\/book\/deco\/2010\/0826\/logo_v3.gif", "postPerWeek" : "0", "lastCrawTime" : "2013年10月13日 (2周前)", "crawDateTime" : "2013年1月4日", "lastHttpCode" : "304"}, "page" : {
"startIndex" : 0,
"totalCount" : 2509,
"pageIndex" : 1,
"lastPage" : 126,
"pageSize" : 20,
"english" :  False },
 "unreadNum" : 0, "shotIndex" : -1,
"articles" : [
{
"index" : 0,
"articleIndex" : "2508",
"favor" :  False ,
     "read" : False,    
"title" : "\u201C潘俊蔽唇年度十大流行语榜引争议",
"titleTip" : "\u201C潘俊蔽唇年度十大流行语榜引争议",
"titleSummary" : "\u201C潘俊蔽唇年度十大流行语榜引争议",
"descSummary" : "《咬文嚼字》编辑部昨（2012年12月30日）在沪发布\u201C2012十大流...",
"url" : "http:\/\/go.rss.sina.com.cn\/redirect.php?url=http:\/\/book.sina.com.cn\/news\/c\/2013-01-04\/0943394975.shtml",
"pubDate" : "2013年1月4日",
"enterDate" : "384199:16:16",
"channelId" : "631487833073860808",
"channelName" : "读书要闻汇总-新浪读书",
"channelNameSummary" : "读书要闻汇总-新浪读...",
"channelUrl" : "http:\/\/book.sina.com.cn\/old2012\/index.shtml",
"author" : "WWW.SINA.COM.CN",
"tags" : [],
"desc" : "《咬文嚼字》编辑部昨（2012年12月30日）在沪发布\u201C2012十大流行语\u201D，年度热词\u201C正能量\u201D位居榜首。现整理如下： 1) 正能量指的是一种健康乐观、积极向上的动力和情感。\u201C正能量\u201D本是物理学名词。 2) 元芳，你怎么看？ 出自电视剧《神探狄仁杰》。 3)....",
"emailed" : False,
"forwarded" : False,
"english" : False
}  , {
"index" : 1,
"articleIndex" : "2507",
"favor" :  False ,
     "read" : False,    
"title" : "史铁生逝世两周年 骨灰安葬地仍然悬而未决",
"titleTip" : "史铁生逝世两周年 骨灰安葬地仍然悬而未决",
"titleSummary" : "史铁生逝世两周年 骨灰安葬地仍然悬而未决",
"descSummary" : "2010年的最后一天，著名作家史铁生去世。2012年的最后一...",
"url" : "http:\/\/go.rss.sina.com.cn\/redirect.php?url=http:\/\/book.sina.com.cn\/news\/a\/2013-01-04\/0928394948.shtml",
"pubDate" : "2013年1月4日",
"enterDate" : "384199:01:13",
"channelId" : "631487833073860808",
"channelName" : "读书要闻汇总-新浪读书",
"channelNameSummary" : "读书要闻汇总-新浪读...",
"channelUrl" : "http:\/\/book.sina.com.cn\/old2012\/index.shtml",
"author" : "WWW.SINA.COM.CN",
"tags" : [],
"desc" : "2010年的最后一天，著名作家史铁生去世。2012年的最后一天，由史铁生丛书\u201C写作之夜\u201D编委会和史铁生研究会举办的史铁生纪念\u2015\u2015\u201C2013，史铁生和我们在一起\u201D在京举行。记者在会上获悉，尽管热爱史铁生的人们都希望他的骨灰能安葬在地坛公园，并且为他建造一尊雕像，但直到昨....",
"emailed" : False,
"forwarded" : False,
"english" : False
}  , {
"index" : 2,
"articleIndex" : "2506",
"favor" :  False ,
     "read" : False,    
"title" : "溥仪批校本《我的前半生》出版 收录其百余处墨迹",
"titleTip" : "溥仪批校本《我的前半生》出版 收录其百余处墨迹",
"titleSummary" : "溥仪批校本《我的前半生》出版 收录其百余处墨迹",
"descSummary" : "《我的前半生(批校本)》和《我的前半生(图录)》近日...",
"url" : "http:\/\/go.rss.sina.com.cn\/redirect.php?url=http:\/\/book.sina.com.cn\/news\/c\/2013-01-04\/0810394784.shtml",
"pubDate" : "2013年1月4日",
"enterDate" : "384197:43:13",
"channelId" : "631487833073860808",
"channelName" : "读书要闻汇总-新浪读书",
"channelNameSummary" : "读书要闻汇总-新浪读...",
"channelUrl" : "http:\/\/book.sina.com.cn\/old2012\/index.shtml",
"author" : "WWW.SINA.COM.CN",
"tags" : [],
"desc" : "《我的前半生(批校本)》和《我的前半生(图录)》近日由群众出版社正式出版，出版方介绍，溥仪所著的《我的前半生(批校本)》是继群众出版社1964年公开出版的《我的前半生》、2007年公开出版的《我的前半生(全本)》和2011年公开出版的《我的前半生(灰皮本)》之后推出的具有史料价....",
"emailed" : False,
"forwarded" : False,
"english" : False
}  , {
"index" : 3,
"articleIndex" : "2505",
"favor" :  False ,
     "read" : False,    
"title" : "中国首次摸清古籍家底约20万种",
"titleTip" : "中国首次摸清古籍家底约20万种",
"titleSummary" : "中国首次摸清古籍家底约20万种",
"descSummary" : "原标题 [中国首次摸清古籍家底约20万种] 中新社北京12月28日电(记者 ...",
"url" : "http:\/\/go.rss.sina.com.cn\/redirect.php?url=http:\/\/book.sina.com.cn\/news\/c\/2012-12-30\/0926393254.shtml",
"pubDate" : "2012年12月30日",
"enterDate" : "384079:00:01",
"channelId" : "631487833073860808",
"channelName" : "读书要闻汇总-新浪读书",
"channelNameSummary" : "读书要闻汇总-新浪读...",
"channelUrl" : "http:\/\/book.sina.com.cn\/old2012\/index.shtml",
"author" : "WWW.SINA.COM.CN",
"tags" : [],
"desc" : "&#160;&#160;&#160; 原标题 [中国首次摸清古籍家底约20万种] &#160;&#160;&#160;&#160; 中新社北京12月28日电(记者 应妮)记者从28日在此间举办的中国古籍整理出版奠基性工程《中国古籍总目》出版座谈会上获悉，中国首次摸清古籍家底约有20万种。 《中国古籍总目》是现存中国....",
"emailed" : False,
"forwarded" : False,
"english" : False
}  , {
"index" : 4,
"articleIndex" : "2504",
"favor" :  False ,
     "read" : False,    
"title" : "于丹回应\u201C被轰\u201D事件称\u201C问心无愧\u201D",
"titleTip" : "于丹回应\u201C被轰\u201D事件称\u201C问心无愧\u201D",
"titleSummary" : "于丹回应\u201C被轰\u201D事件称\u201C问心无愧\u201D",
"descSummary" : "骆新和于丹（右） 28日，东方卫视《东方直播室》召开新闻发布...",
"url" : "http:\/\/go.rss.sina.com.cn\/redirect.php?url=http:\/\/book.sina.com.cn\/news\/a\/2012-12-30\/0919393264.shtml",
"pubDate" : "2012年12月30日",
"enterDate" : "384078:52:13",
"channelId" : "631487833073860808",
"channelName" : "读书要闻汇总-新浪读书",
"channelNameSummary" : "读书要闻汇总-新浪读...",
"channelUrl" : "http:\/\/book.sina.com.cn\/old2012\/index.shtml",
"author" : "WWW.SINA.COM.CN",
"tags" : [],
"desc" : "骆新和于丹（右） 28日，东方卫视《东方直播室》召开新闻发布会，于丹将受聘担任特约评论员。一个月前，于丹曾在北大的某场昆曲演出上被观众轰下台，发布会当天，于丹首度公开解释了当天的细节。她说：\u201C首先这不是一场商业活动，其次我从小就喜欢昆曲，也写过这方面....",
"emailed" : False,
"forwarded" : False,
"english" : False
}  , {
"index" : 5,
"articleIndex" : "2503",
"favor" :  False ,
     "read" : False,    
"title" : "《收获》将曝光沈从文巴金通信:此间文人不一样",
"titleTip" : "《收获》将曝光沈从文巴金通信:此间文人不一样",
"titleSummary" : "《收获》将曝光沈从文巴金通信:此间文人不一样",
"descSummary" : "原标题 [沈从文巴金手信曝光] 28日上午，文学杂志《收...",
"url" : "http:\/\/go.rss.sina.com.cn\/redirect.php?url=http:\/\/book.sina.com.cn\/news\/c\/2012-12-30\/0908393250.shtml",
"pubDate" : "2012年12月30日",
"enterDate" : "384078:41:26",
"channelId" : "631487833073860808",
"channelName" : "读书要闻汇总-新浪读书",
"channelNameSummary" : "读书要闻汇总-新浪读...",
"channelUrl" : "http:\/\/book.sina.com.cn\/old2012\/index.shtml",
"author" : "WWW.SINA.COM.CN",
"tags" : [],
"desc" : "&#160;&#160; 原标题 [沈从文巴金手信曝光] 28日上午，文学杂志《收获》执行主编程永新在微博上透露，在《收获》杂志2013年第一期上，将\u201C首次披露沈从文写给巴金的几十封信，从中看出的沈从文与以前不太一样啊！\u201D随后，华西都市报记者联系到程永新，他详细向记者介绍，\u201C....",
"emailed" : False,
"forwarded" : False,
"english" : False
}  , {
"index" : 6,
"articleIndex" : "2502",
"favor" :  False ,
     "read" : False,    
"title" : "新译圣经成为挪威头号畅销书",
"titleTip" : "新译圣经成为挪威头号畅销书",
"titleSummary" : "新译圣经成为挪威头号畅销书",
"descSummary" : "在挪威人民最喜欢的书里，固然也有一夫数妻，有娼妓，有体罚，但它不是...",
"url" : "http:\/\/go.rss.sina.com.cn\/redirect.php?url=http:\/\/book.sina.com.cn\/news\/c\/2012-12-30\/0848393242.shtml",
"pubDate" : "2012年12月30日",
"enterDate" : "384078:21:13",
"channelId" : "631487833073860808",
"channelName" : "读书要闻汇总-新浪读书",
"channelNameSummary" : "读书要闻汇总-新浪读...",
"channelUrl" : "http:\/\/book.sina.com.cn\/old2012\/index.shtml",
"author" : "WWW.SINA.COM.CN",
"tags" : [],
"desc" : "在挪威人民最喜欢的书里，固然也有一夫数妻，有娼妓，有体罚，但它不是可耻的《五十层灰》。《卫报》上周告诉我们，圣经才是挪威的头号畅销书。 自去年10月出版以来，挪语新译圣经一直受到人民群众的热烈欢迎。在56周的时间里，圣经有54周排在该国畅销书榜的头名。将EL....",
"emailed" : False,
"forwarded" : False,
"english" : False
}  , {
"index" : 7,
"articleIndex" : "2501",
"favor" :  False ,
     "read" : False,    
"title" : "传统家具散古蕴 形在意中妙古风",
"titleTip" : "传统家具散古蕴 形在意中妙古风",
"titleSummary" : "传统家具散古蕴 形在意中妙古风",
"descSummary" : "传统家具与中国文化并容的精华大典 近日随着楠书房主办的《美成在久...",
"url" : "http:\/\/go.rss.sina.com.cn\/redirect.php?url=http:\/\/book.sina.com.cn\/news\/v\/2012-12-28\/1658392722.shtml",
"pubDate" : "2012年12月28日",
"enterDate" : "384038:31:19",
"channelId" : "631487833073860808",
"channelName" : "读书要闻汇总-新浪读书",
"channelNameSummary" : "读书要闻汇总-新浪读...",
"channelUrl" : "http:\/\/book.sina.com.cn\/old2012\/index.shtml",
"author" : "WWW.SINA.COM.CN",
"tags" : [],
"desc" : "&#160; 传统家具与中国文化并容的精华大典 近日随着楠书房主办的《美成在久・金丝楠艺术展》在国家博物馆[微博]隆重开幕，金丝楠木也引起了很多文化爱好者的浓厚兴趣。而由故宫[微博]出版社与楠书房合作出版的《美成在久・金丝楠之美》和《道在器中・传统家具与中国文化....",
"emailed" : False,
"forwarded" : False,
"english" : False
}  , {
"index" : 8,
"articleIndex" : "2497",
"favor" :  False ,
     "read" : False,    
"title" : "张新颖：沈从文与20世纪中国(4)",
"titleTip" : "张新颖：沈从文与20世纪中国(4)",
"titleSummary" : "张新颖：沈从文与20世纪中国(4)",
"descSummary" : "这个叙述是说有这么一条路，沿着这条路能够找到这么一个地方和这地方...",
"url" : "http:\/\/go.rss.sina.com.cn\/redirect.php?url=http:\/\/book.sina.com.cn\/news\/c\/2012-12-28\/1644392712_4.shtml",
"pubDate" : "2012年12月28日",
"enterDate" : "384038:17:22",
"channelId" : "631487833073860808",
"channelName" : "读书要闻汇总-新浪读书",
"channelNameSummary" : "读书要闻汇总-新浪读...",
"channelUrl" : "http:\/\/book.sina.com.cn\/old2012\/index.shtml",
"author" : "WWW.SINA.COM.CN",
"tags" : [],
"desc" : "这个叙述是说有这么一条路，沿着这条路能够找到这么一个地方和这地方的人。有路，就不是封闭的了。沈从文画这幅路线图，是假设外面有人来，由外而里的，是给外面的人来找这里用的，是\u201C求诸野\u201D的路。《边城》不是陶渊明的《桃花源记》，桃花源似真似幻，\u201C不足为外人道也\u201D，....",
"emailed" : False,
"forwarded" : False,
"english" : False
}  , {
"index" : 9,
"articleIndex" : "2498",
"favor" :  False ,
     "read" : False,    
"title" : "张新颖：沈从文与20世纪中国(3)",
"titleTip" : "张新颖：沈从文与20世纪中国(3)",
"titleSummary" : "张新颖：沈从文与20世纪中国(3)",
"descSummary" : "《边城》的故事很简单，但有个问题我们不能忽略：为什么\u201C素朴的良善...",
"url" : "http:\/\/go.rss.sina.com.cn\/redirect.php?url=http:\/\/book.sina.com.cn\/news\/c\/2012-12-28\/1644392712_3.shtml",
"pubDate" : "2012年12月28日",
"enterDate" : "384038:17:22",
"channelId" : "631487833073860808",
"channelName" : "读书要闻汇总-新浪读书",
"channelNameSummary" : "读书要闻汇总-新浪读...",
"channelUrl" : "http:\/\/book.sina.com.cn\/old2012\/index.shtml",
"author" : "WWW.SINA.COM.CN",
"tags" : [],
"desc" : "《边城》的故事很简单，但有个问题我们不能忽略：为什么\u201C素朴的良善与单纯的希望终难免产生悲剧\u201D？为什么在人事的安排上，从翠翠父母到翠翠，都那么不能如人意愿？这个问题，老船夫很深地想过。\u201C祖父是一个在自然里活了七十年的人，但在人事上的自然现象，就有了些不能安排....",
"emailed" : False,
"forwarded" : False,
"english" : False
}  , {
"index" : 10,
"articleIndex" : "2499",
"favor" :  False ,
     "read" : False,    
"title" : "张新颖：沈从文与20世纪中国(2)",
"titleTip" : "张新颖：沈从文与20世纪中国(2)",
"titleSummary" : "张新颖：沈从文与20世纪中国(2)",
"descSummary" : "大家都熟悉新文学开始时期一个掷地有声、影响深远的理论，即\u201C人的文...",
"url" : "http:\/\/go.rss.sina.com.cn\/redirect.php?url=http:\/\/book.sina.com.cn\/news\/c\/2012-12-28\/1644392712_2.shtml",
"pubDate" : "2012年12月28日",
"enterDate" : "384038:17:22",
"channelId" : "631487833073860808",
"channelName" : "读书要闻汇总-新浪读书",
"channelNameSummary" : "读书要闻汇总-新浪读...",
"channelUrl" : "http:\/\/book.sina.com.cn\/old2012\/index.shtml",
"author" : "WWW.SINA.COM.CN",
"tags" : [],
"desc" : "大家都熟悉新文学开始时期一个掷地有声、影响深远的理论，即\u201C人的文学\u201D的倡导。我们看沈从文的文学，不妨就从人谈起。我要说，沈从文作品里的人，和时代潮流中新文学里的人，不一样。 新文学是新文化极为重要的部分，它对\u201C人\u201D的重新\u201C发现\u201D，是与现代中国的文化启....",
"emailed" : False,
"forwarded" : False,
"english" : False
}  , {
"index" : 11,
"articleIndex" : "2500",
"favor" :  False ,
     "read" : False,    
"title" : "张新颖：沈从文与20世纪中国",
"titleTip" : "张新颖：沈从文与20世纪中国",
"titleSummary" : "张新颖：沈从文与20世纪中国",
"descSummary" : "（载2012年12月《文景》，纪念沈从文诞辰110周年。） 我想一开始就说...",
"url" : "http:\/\/go.rss.sina.com.cn\/redirect.php?url=http:\/\/book.sina.com.cn\/news\/c\/2012-12-28\/1644392712.shtml",
"pubDate" : "2012年12月28日",
"enterDate" : "384038:17:22",
"channelId" : "631487833073860808",
"channelName" : "读书要闻汇总-新浪读书",
"channelNameSummary" : "读书要闻汇总-新浪读...",
"channelUrl" : "http:\/\/book.sina.com.cn\/old2012\/index.shtml",
"author" : "WWW.SINA.COM.CN",
"tags" : [],
"desc" : "（载2012年12月《文景》，纪念沈从文诞辰110周年。） &#160;&#160;&#160; 我想一开始就说明我的意图。大家可能注意到了题目中的\u201C与\u201D这个字，它是一个表示关系的连接词：我想用沈从文的例子，把这个关系突出出来，变成一个问题，进入我们的意识，进而我们能够注意、能够思....",
"emailed" : False,
"forwarded" : False,
"english" : False
}  , {
"index" : 12,
"articleIndex" : "2496",
"favor" :  False ,
     "read" : False,    
"title" : "阎连科：拿诺奖拯救不了文学如今已走向衰弱",
"titleTip" : "阎连科：拿诺奖拯救不了文学如今已走向衰弱",
"titleSummary" : "阎连科：拿诺奖拯救不了文学如今已走向衰弱",
"descSummary" : "\u201C作家访谈录\u201D从2012年4月10日开始，至今共刊出八期，...",
"url" : "http:\/\/go.rss.sina.com.cn\/redirect.php?url=http:\/\/book.sina.com.cn\/news\/a\/2012-12-28\/1003392422.shtml",
"pubDate" : "2012年12月28日",
"enterDate" : "384031:36:13",
"channelId" : "631487833073860808",
"channelName" : "读书要闻汇总-新浪读书",
"channelNameSummary" : "读书要闻汇总-新浪读...",
"channelUrl" : "http:\/\/book.sina.com.cn\/old2012\/index.shtml",
"author" : "WWW.SINA.COM.CN",
"tags" : [],
"desc" : "\u201C作家访谈录\u201D从2012年4月10日开始，至今共刊出八期，对话马原、翟永明、刘心武、池莉、贾平凹、刘索拉、徐星、阎连科八位作家，到此结束。感谢读者关注。 2012年，阎连科重新回到桌前，沉静写作。此前的一年对他来讲太不平静：一场突如其来的拆迁、小说《四....",
"emailed" : False,
"forwarded" : False,
"english" : False
}  , {
"index" : 13,
"articleIndex" : "2495",
"favor" :  False ,
     "read" : False,    
"title" : "朱幼棣新书《怅望山河》出版探讨中国江河灾变",
"titleTip" : "朱幼棣新书《怅望山河》出版探讨中国江河灾变",
"titleSummary" : "朱幼棣新书《怅望山河》出版探讨中国江河灾变",
"descSummary" : "《怅望山河》书封 朱幼棣 朱幼棣 1950年生于浙江黄岩...",
"url" : "http:\/\/go.rss.sina.com.cn\/redirect.php?url=http:\/\/book.sina.com.cn\/news\/a\/2012-12-28\/0945392399.shtml",
"pubDate" : "2012年12月28日",
"enterDate" : "384031:18:44",
"channelId" : "631487833073860808",
"channelName" : "读书要闻汇总-新浪读书",
"channelNameSummary" : "读书要闻汇总-新浪读...",
"channelUrl" : "http:\/\/book.sina.com.cn\/old2012\/index.shtml",
"author" : "WWW.SINA.COM.CN",
"tags" : [],
"desc" : "《怅望山河》书封 朱幼棣 朱幼棣 1950年生于浙江黄岩，做过矿山技术员，历任新华社国内部副主编、中共山西省委办公厅副主任、国务院研究室司长等职。代表作有《后望书》《大国医改》等，新作《怅望山河》日前由世界图书出版公司出版。 晚明时期袁中道在《游....",
"emailed" : False,
"forwarded" : False,
"english" : False
}  , {
"index" : 14,
"articleIndex" : "2494",
"favor" :  False ,
     "read" : False,    
"title" : "郭敬明蝉联\u201C错字大王\u201D称太庙为天安门后门",
"titleTip" : "郭敬明蝉联\u201C错字大王\u201D称太庙为天安门后门",
"titleSummary" : "郭敬明蝉联\u201C错字大王\u201D称太庙为天安门后门",
"descSummary" : "今年2月，语言文字期刊《咬文嚼字》对众多作家和网络写...",
"url" : "http:\/\/go.rss.sina.com.cn\/redirect.php?url=http:\/\/book.sina.com.cn\/news\/a\/2012-12-28\/0842392257.shtml",
"pubDate" : "2012年12月28日",
"enterDate" : "384030:15:13",
"channelId" : "631487833073860808",
"channelName" : "读书要闻汇总-新浪读书",
"channelNameSummary" : "读书要闻汇总-新浪读...",
"channelUrl" : "http:\/\/book.sina.com.cn\/old2012\/index.shtml",
"author" : "WWW.SINA.COM.CN",
"tags" : [],
"desc" : "今年2月，语言文字期刊《咬文嚼字》对众多作家和网络写手的博客、微博出错率做过统计，郭敬明高居榜首。12月，《咬文嚼字》揭晓了\u201C名家博客差错榜\u201D，郭敬明蝉联\u201C错别字大王\u201D，另外一位80后作家韩寒也榜上有名。除了错别字，郭敬明与韩寒还经常犯常识性错误，比如韩寒把水....",
"emailed" : False,
"forwarded" : False,
"english" : False
}  , {
"index" : 15,
"articleIndex" : "2493",
"favor" :  False ,
     "read" : False,    
"title" : "十三陵明年再开放6座陵寝 游客必须提前预约",
"titleTip" : "十三陵明年再开放6座陵寝 游客必须提前预约",
"titleSummary" : "十三陵明年再开放6座陵寝 游客必须提前预约",
"descSummary" : "十三陵明年再开放6座陵寝 除长陵、定陵、昭陵外，明十三陵...",
"url" : "http:\/\/go.rss.sina.com.cn\/redirect.php?url=http:\/\/book.sina.com.cn\/news\/c\/2012-12-28\/0750392221.shtml",
"pubDate" : "2012年12月28日",
"enterDate" : "384029:23:13",
"channelId" : "631487833073860808",
"channelName" : "读书要闻汇总-新浪读书",
"channelNameSummary" : "读书要闻汇总-新浪读...",
"channelUrl" : "http:\/\/book.sina.com.cn\/old2012\/index.shtml",
"author" : "WWW.SINA.COM.CN",
"tags" : [],
"desc" : "十三陵明年再开放6座陵寝 除长陵、定陵、昭陵外，明十三陵又将有6座陵寝对游客开放。笔者从十三陵特区办事处了解到，从明年1月1日起，十三陵景区将推出高端游线路，康陵等6座修缮后一直实行封闭管理的陵寝将对游客适度开放，游客到这6座陵寝参观必须提前预约。 ....",
"emailed" : False,
"forwarded" : False,
"english" : False
}  , {
"index" : 16,
"articleIndex" : "2492",
"favor" :  False ,
     "read" : False,    
"title" : "中文在线诉苹果公司侵权法院判苹果赔偿60万元",
"titleTip" : "中文在线诉苹果公司侵权法院判苹果赔偿60万元",
"titleSummary" : "中文在线诉苹果公司侵权法院判苹果赔偿60万元",
"descSummary" : "中新网北京12月27日电(记者 张中江)中文在线诉苹果公...",
"url" : "http:\/\/go.rss.sina.com.cn\/redirect.php?url=http:\/\/book.sina.com.cn\/news\/c\/2012-12-28\/0729392190.shtml",
"pubDate" : "2012年12月28日",
"enterDate" : "384029:02:13",
"channelId" : "631487833073860808",
"channelName" : "读书要闻汇总-新浪读书",
"channelNameSummary" : "读书要闻汇总-新浪读...",
"channelUrl" : "http:\/\/book.sina.com.cn\/old2012\/index.shtml",
"author" : "WWW.SINA.COM.CN",
"tags" : [],
"desc" : "中新网北京12月27日电(记者 张中江)中文在线诉苹果公司侵权案27日宣判。法院判决苹果公司停止涉案侵害中文在线对涉案作品的信息网络权侵权行为，赔偿中文在线经济损失人民币60万元，及因诉讼支出的合理费用5000元。 北京市第二中级人民法院2012年1月4日受理原告北京中....",
"emailed" : False,
"forwarded" : False,
"english" : False
}  , {
"index" : 17,
"articleIndex" : "2491",
"favor" :  False ,
     "read" : False,    
"title" : "袁腾飞磨剑写战史：战争就这么回事儿",
"titleTip" : "袁腾飞磨剑写战史：战争就这么回事儿",
"titleSummary" : "袁腾飞磨剑写战史：战争就这么回事儿",
"descSummary" : "在沉寂了整整四年后，袁腾飞日前在湖南人民出版社推出自己全新...",
"url" : "http:\/\/go.rss.sina.com.cn\/redirect.php?url=http:\/\/book.sina.com.cn\/news\/a\/2012-12-27\/1614391910.shtml",
"pubDate" : "2012年12月27日",
"enterDate" : "384013:47:14",
"channelId" : "631487833073860808",
"channelName" : "读书要闻汇总-新浪读书",
"channelNameSummary" : "读书要闻汇总-新浪读...",
"channelUrl" : "http:\/\/book.sina.com.cn\/old2012\/index.shtml",
"author" : "WWW.SINA.COM.CN",
"tags" : [],
"desc" : "在沉寂了整整四年后，袁腾飞日前在湖南人民出版社推出自己全新作品《战争就是这么回事儿》书系。对于自己用四年时间创作而成的\u201C战史\u201D系列，袁腾飞对其质量非常自信：我从小就是个军事发烧友，研究战史已近20年，我70%知识积累，都在战史方面。 ● 四年磨一剑，袁腾飞....",
"emailed" : False,
"forwarded" : False,
"english" : False
}  , {
"index" : 18,
"articleIndex" : "2490",
"favor" :  False ,
     "read" : False,    
"title" : "作家维权联盟诉苹果侵权案宣判8作家获赔40万",
"titleTip" : "作家维权联盟诉苹果侵权案宣判8作家获赔40万",
"titleSummary" : "作家维权联盟诉苹果侵权案宣判8作家获赔40万",
"descSummary" : "中新网北京12月27日电 (记者 张中江)作家维权联盟起诉苹...",
"url" : "http:\/\/go.rss.sina.com.cn\/redirect.php?url=http:\/\/book.sina.com.cn\/news\/c\/2012-12-27\/1610391907.shtml",
"pubDate" : "2012年12月27日",
"enterDate" : "384013:43:17",
"channelId" : "631487833073860808",
"channelName" : "读书要闻汇总-新浪读书",
"channelNameSummary" : "读书要闻汇总-新浪读...",
"channelUrl" : "http:\/\/book.sina.com.cn\/old2012\/index.shtml",
"author" : "WWW.SINA.COM.CN",
"tags" : [],
"desc" : "中新网北京12月27日电 (记者 张中江)作家维权联盟起诉苹果公司侵权案，27日上午在北京市第二中级人民法院宣判。苹果公司被判赔偿慕容雪村[微博]等8位作家经济损失41.2万元，及因诉讼支出的合理费用1.8万元。 当天共涉及8个案件，其中7个与作家维权联盟有关，宣判结果分....",
"emailed" : False,
"forwarded" : False,
"english" : False
}  , {
"index" : 19,
"articleIndex" : "2489",
"favor" :  False ,
     "read" : False,    
"title" : "《甄执》\u201C帧倍痢huán\u201D因传播需要",
"titleTip" : "《甄执》\u201C帧倍痢huán\u201D因传播需要",
"titleSummary" : "《甄执》\u201C帧倍痢huán\u201D因传播需要",
"descSummary" : "新浪文化读书讯 热播剧《甄执》里备受观众喜爱的角色\u201C甄帧钡摹帧...",
"url" : "http:\/\/go.rss.sina.com.cn\/redirect.php?url=http:\/\/book.sina.com.cn\/news\/c\/2012-12-27\/1507391853.shtml",
"pubDate" : "2012年12月27日",
"enterDate" : "384012:41:12",
"channelId" : "631487833073860808",
"channelName" : "读书要闻汇总-新浪读书",
"channelNameSummary" : "读书要闻汇总-新浪读...",
"channelUrl" : "http:\/\/book.sina.com.cn\/old2012\/index.shtml",
"author" : "WWW.SINA.COM.CN",
"tags" : [],
"desc" : "新浪文化读书讯&#160; 热播剧《甄执》里备受观众喜爱的角色\u201C甄帧钡摹帧钡降子Χ痢xuān\u201D还是\u201Chuán\u201D？今天上午这一话题在网上引发热议。《咬文嚼字》的总编郝铭鉴称按剧情分析，\u201C帧庇Χ磷鳌xuān\u201D。对此，《甄执》作者、编剧流潋紫[微博]的经纪人山风接受新浪....",
"emailed" : False,
"forwarded" : False,
"english" : False
} ]
}
