{
"mode" : {"viewTitle" : 1,   "viewNew" : 0,  "pageIndex" : 2 },
 "channel" : {"id" : "631487833073860808", "booked" : False, "subNumber" : 1, "name" : "读书要闻汇总-新浪读书", "url" : "http:\/\/book.sina.com.cn\/old2012\/index.shtml", "feed" : "http:\/\/rss.sina.com.cn\/book\/info.xml", "author" : "WWW.SINA.COM.CN", "desc" : "读书要闻汇总", "imageUrl" : "http:\/\/www.sinaimg.cn\/book\/deco\/2010\/0826\/logo_v3.gif", "postPerWeek" : "0", "lastCrawTime" : "2013年10月13日 (2周前)", "crawDateTime" : "2013年1月4日", "lastHttpCode" : "304"}, "page" : {
"startIndex" : 20,
"totalCount" : 2509,
"pageIndex" : 2,
"lastPage" : 126,
"pageSize" : 20,
"english" :  False },
 "unreadNum" : 0, "shotIndex" : -1,
"articles" : [
{
"index" : 0,
"articleIndex" : "2488",
"favor" :  False ,
     "read" : False,    
"title" : "王朔：读书使我在一帆风顺中也有机会绝望(图)",
"titleTip" : "王朔：读书使我在一帆风顺中也有机会绝望(图)",
"titleSummary" : "王朔：读书使我在一帆风顺中也有机会绝望(图)",
"descSummary" : "1958年出生于江苏省南京市，祖籍辽宁岫岩。著名作家，...",
"url" : "http:\/\/go.rss.sina.com.cn\/redirect.php?url=http:\/\/book.sina.com.cn\/news\/a\/2012-12-27\/1043391646.shtml",
"pubDate" : "2012年12月27日",
"enterDate" : "384008:16:13",
"channelId" : "631487833073860808",
"channelName" : "读书要闻汇总-新浪读书",
"channelNameSummary" : "读书要闻汇总-新浪读...",
"channelUrl" : "http:\/\/book.sina.com.cn\/old2012\/index.shtml",
"author" : "WWW.SINA.COM.CN",
"tags" : [],
"desc" : "1958年出生于江苏省南京市，祖籍辽宁岫岩。著名作家，编剧。代表作有《玩的就是心跳》、《看上去很美》、《我是流氓我怕谁》等。 其实也不过是一个密友，需要了，找人家聊聊，不需要了，也很久想不起来打个电话 基本上，当我空虚的时候，想要加倍空虚，我就读小....",
"emailed" : False,
"forwarded" : False,
"english" : False
}  , {
"index" : 1,
"articleIndex" : "2487",
"favor" :  False ,
     "read" : False,    
"title" : "王安忆新书《众声喧哗》将推出 续写上海市井传奇",
"titleTip" : "王安忆新书《众声喧哗》将推出 续写上海市井传奇",
"titleSummary" : "王安忆新书《众声喧哗》将推出 续写上海市井传奇",
"descSummary" : "王安忆新书《众声喧哗》 由上海九久读书人与上海文...",
"url" : "http:\/\/go.rss.sina.com.cn\/redirect.php?url=http:\/\/book.sina.com.cn\/news\/a\/2012-12-27\/0943391539.shtml",
"pubDate" : "2012年12月27日",
"enterDate" : "384007:16:51",
"channelId" : "631487833073860808",
"channelName" : "读书要闻汇总-新浪读书",
"channelNameSummary" : "读书要闻汇总-新浪读...",
"channelUrl" : "http:\/\/book.sina.com.cn\/old2012\/index.shtml",
"author" : "WWW.SINA.COM.CN",
"tags" : [],
"desc" : "王安忆新书《众声喧哗》 由上海九久读书人与上海文艺出版社联合策划出版的王安忆最新小说《众声喧哗》将于明年1月8日推出。12月25日起，该书开始在当当、卓越、京东、博库网、99网上书城等5大网络书店预售。 《众声喧哗》收入王安忆最新创作的中篇小说《众声喧哗》....",
"emailed" : False,
"forwarded" : False,
"english" : False
}  , {
"index" : 2,
"articleIndex" : "2486",
"favor" :  False ,
     "read" : False,    
"title" : "《安魂》获《当代》2012年度最佳长篇小说",
"titleTip" : "《安魂》获《当代》2012年度最佳长篇小说",
"titleSummary" : "《安魂》获《当代》2012年度最佳长篇小说",
"descSummary" : "\u201C今年长篇小说没有特别让人眼前一亮的，也没有特别掉下来...",
"url" : "http:\/\/go.rss.sina.com.cn\/redirect.php?url=http:\/\/book.sina.com.cn\/news\/c\/2012-12-27\/0933391518.shtml",
"pubDate" : "2012年12月27日",
"enterDate" : "384007:07:02",
"channelId" : "631487833073860808",
"channelName" : "读书要闻汇总-新浪读书",
"channelNameSummary" : "读书要闻汇总-新浪读...",
"channelUrl" : "http:\/\/book.sina.com.cn\/old2012\/index.shtml",
"author" : "WWW.SINA.COM.CN",
"tags" : [],
"desc" : "\u201C今年长篇小说没有特别让人眼前一亮的，也没有特别掉下来的。总体来说，是一个持平之年。\u201D文学评论家白烨甚至率先发出了预言，他觉得2012年度最佳小说会被河南人拿到。昨天，在《当代》长篇小说2012年度论坛上，白烨的\u201C预言\u201D很准确，河南籍作家周大新因《安魂》获得《当代....",
"emailed" : False,
"forwarded" : False,
"english" : False
}  , {
"index" : 3,
"articleIndex" : "2485",
"favor" :  False ,
     "read" : False,    
"title" : "《咬文嚼字》发布\u201C2012年十大语文差错\u201D",
"titleTip" : "《咬文嚼字》发布\u201C2012年十大语文差错\u201D",
"titleSummary" : "《咬文嚼字》发布\u201C2012年十大语文差错\u201D",
"descSummary" : "自2006年以来，《咬文嚼字》编辑部都会在年底公布\u201C年度...",
"url" : "http:\/\/go.rss.sina.com.cn\/redirect.php?url=http:\/\/book.sina.com.cn\/news\/c\/2012-12-27\/0926391513.shtml",
"pubDate" : "2012年12月27日",
"enterDate" : "384006:59:26",
"channelId" : "631487833073860808",
"channelName" : "读书要闻汇总-新浪读书",
"channelNameSummary" : "读书要闻汇总-新浪读...",
"channelUrl" : "http:\/\/book.sina.com.cn\/old2012\/index.shtml",
"author" : "WWW.SINA.COM.CN",
"tags" : [],
"desc" : "自2006年以来，《咬文嚼字》编辑部都会在年底公布\u201C年度十大语文差错\u201D，纠正国人在当年常犯的\u201C语文差错\u201D，也从一个角度回顾当年的热点事件。昨天，《咬文嚼字》编辑部公布的\u201C2012年十大语文差错\u201D包含了常读错的字\u201C酵\u201D，也有媒体常会搞混的\u201C酒驾\u201D和\u201C醉驾\u201D，还有明星....",
"emailed" : False,
"forwarded" : False,
"english" : False
}  , {
"index" : 4,
"articleIndex" : "2484",
"favor" :  False ,
     "read" : False,    
"title" : "大学生观摩诺奖颁奖典礼称作为中国人深感自豪",
"titleTip" : "大学生观摩诺奖颁奖典礼称作为中国人深感自豪",
"titleSummary" : "大学生观摩诺奖颁奖典礼称作为中国人深感自豪",
"descSummary" : "\u201C此次赴斯德哥尔摩见证诺奖颁奖典礼的整个行程中，我...",
"url" : "http:\/\/go.rss.sina.com.cn\/redirect.php?url=http:\/\/book.sina.com.cn\/news\/c\/2012-12-26\/0820390295.shtml",
"pubDate" : "2012年12月26日",
"enterDate" : "383981:53:13",
"channelId" : "631487833073860808",
"channelName" : "读书要闻汇总-新浪读书",
"channelNameSummary" : "读书要闻汇总-新浪读...",
"channelUrl" : "http:\/\/book.sina.com.cn\/old2012\/index.shtml",
"author" : "WWW.SINA.COM.CN",
"tags" : [],
"desc" : "\u201C此次赴斯德哥尔摩见证诺奖颁奖典礼的整个行程中，我深深地感到作为一名中国人的骄傲和自豪，当莫言在台上用中文演讲时，在现场的我觉得会中文是一件多么美妙的事情！\u201D北京大学工学院大一学生许令玮本月初飞赴瑞典，参加了斯德哥尔摩青年科学研讨会并观摩诺贝尔奖颁奖典礼。....",
"emailed" : False,
"forwarded" : False,
"english" : False
}  , {
"index" : 5,
"articleIndex" : "2483",
"favor" :  False ,
     "read" : False,    
"title" : "贾平凹谈《带灯》：以女干部为原型讲述上访事",
"titleTip" : "贾平凹谈《带灯》：以女干部为原型讲述上访事",
"titleSummary" : "贾平凹谈《带灯》：以女干部为原型讲述上访事",
"descSummary" : "南都讯 记者陈晓勤 实习生赵力 今年，贾平凹在他60岁时...",
"url" : "http:\/\/go.rss.sina.com.cn\/redirect.php?url=http:\/\/book.sina.com.cn\/news\/a\/2012-12-26\/0818390275.shtml",
"pubDate" : "2012年12月26日",
"enterDate" : "383981:51:13",
"channelId" : "631487833073860808",
"channelName" : "读书要闻汇总-新浪读书",
"channelNameSummary" : "读书要闻汇总-新浪读...",
"channelUrl" : "http:\/\/book.sina.com.cn\/old2012\/index.shtml",
"author" : "WWW.SINA.COM.CN",
"tags" : [],
"desc" : "南都讯 记者陈晓勤 实习生赵力 今年，贾平凹在他60岁时完成了一部新的长篇小说，作为献给自己的礼物。这部长篇取名为《带灯》，讲述一位充满文艺气息的女大学生\u201C带灯\u201D，来到樱镇镇政府工作，负责综合治理办公室的维稳工作，接触了形形色色的上访人员。全篇40多万字，上半部....",
"emailed" : False,
"forwarded" : False,
"english" : False
}  , {
"index" : 6,
"articleIndex" : "2482",
"favor" :  False ,
     "read" : False,    
"title" : "列宁墓31日前因修缮关闭科学家称遗体状况良好",
"titleTip" : "列宁墓31日前因修缮关闭科学家称遗体状况良好",
"titleSummary" : "列宁墓31日前因修缮关闭科学家称遗体状况良好",
"descSummary" : "新华网莫斯科12月25日电 （记者曹妍）俄塔社24日援引...",
"url" : "http:\/\/go.rss.sina.com.cn\/redirect.php?url=http:\/\/book.sina.com.cn\/news\/c\/2012-12-26\/0732390304.shtml",
"pubDate" : "2012年12月26日",
"enterDate" : "383981:05:13",
"channelId" : "631487833073860808",
"channelName" : "读书要闻汇总-新浪读书",
"channelNameSummary" : "读书要闻汇总-新浪读...",
"channelUrl" : "http:\/\/book.sina.com.cn\/old2012\/index.shtml",
"author" : "WWW.SINA.COM.CN",
"tags" : [],
"desc" : "新华网莫斯科12月25日电 （记者曹妍）俄塔社24日援引俄联邦安全局消息人士的话说，莫斯科红场上的列宁墓将在本月31日前关闭以便进行维修。维修工作预计将持续至明年4月底。 报道说，陵墓下面的土壤不稳定，造成地基下沉、陵墓位置移动。此外，近年来全球气候异....",
"emailed" : False,
"forwarded" : False,
"english" : False
}  , {
"index" : 7,
"articleIndex" : "2481",
"favor" :  False ,
     "read" : False,    
"title" : "《花溪》杂志微博道别并非停刊",
"titleTip" : "《花溪》杂志微博道别并非停刊",
"titleSummary" : "《花溪》杂志微博道别并非停刊",
"descSummary" : "新浪文化读书讯 昨日(24日)下午，《花溪》杂志官方微博发布告别微博，...",
"url" : "http:\/\/go.rss.sina.com.cn\/redirect.php?url=http:\/\/book.sina.com.cn\/news\/c\/2012-12-25\/1523389923.shtml",
"pubDate" : "2012年12月25日",
"enterDate" : "383964:57:02",
"channelId" : "631487833073860808",
"channelName" : "读书要闻汇总-新浪读书",
"channelNameSummary" : "读书要闻汇总-新浪读...",
"channelUrl" : "http:\/\/book.sina.com.cn\/old2012\/index.shtml",
"author" : "WWW.SINA.COM.CN",
"tags" : [],
"desc" : "新浪文化读书讯&#160; 昨日(24日)下午，《花溪》杂志官方微博发布告别微博，宣布与新力传媒合作结束。不少网友疑为此乃停刊讯号，纷纷留言表达怀念惋惜之情。今日，新浪读书联系新力传媒负责人得知，《花溪》杂志只是从明年开始不再由新力传媒继续运营，并非停刊。 《....",
"emailed" : False,
"forwarded" : False,
"english" : False
}  , {
"index" : 8,
"articleIndex" : "2480",
"favor" :  False ,
     "read" : False,    
"title" : "2012中国年度诗人诞生杜涯施茂盛等5人入选",
"titleTip" : "2012中国年度诗人诞生杜涯施茂盛等5人入选",
"titleSummary" : "2012中国年度诗人诞生杜涯施茂盛等5人入选",
"descSummary" : "12月23日，第二届深圳诗歌节暨2012中国诗歌年会的重要活...",
"url" : "http:\/\/go.rss.sina.com.cn\/redirect.php?url=http:\/\/book.sina.com.cn\/news\/a\/2012-12-25\/0935389571.shtml",
"pubDate" : "2012年12月25日",
"enterDate" : "383959:08:20",
"channelId" : "631487833073860808",
"channelName" : "读书要闻汇总-新浪读书",
"channelNameSummary" : "读书要闻汇总-新浪读...",
"channelUrl" : "http:\/\/book.sina.com.cn\/old2012\/index.shtml",
"author" : "WWW.SINA.COM.CN",
"tags" : [],
"desc" : "12月23日，第二届深圳诗歌节暨2012中国诗歌年会的重要活动之一《面朝大海・2012年深圳诗歌大展》一书的首发式，在观澜山水田园美术馆举行。同时举行了 \u201C中国年度诗人研讨会\u201D。 《面朝大海・2012年深圳诗歌大展》一书历时两个多月选编、由海天出版社出版。本书共收录129位....",
"emailed" : False,
"forwarded" : False,
"english" : False
}  , {
"index" : 9,
"articleIndex" : "2479",
"favor" :  False ,
     "read" : False,    
"title" : "东吴大帝落户南京：孙权纪念馆昨正式开馆",
"titleTip" : "东吴大帝落户南京：孙权纪念馆昨正式开馆",
"titleSummary" : "东吴大帝落户南京：孙权纪念馆昨正式开馆",
"descSummary" : "孙权纪念馆内，游人正在参观。龙虎网讯 东吴大帝孙权纪念...",
"url" : "http:\/\/go.rss.sina.com.cn\/redirect.php?url=http:\/\/book.sina.com.cn\/news\/c\/2012-12-25\/0931389568.shtml",
"pubDate" : "2012年12月25日",
"enterDate" : "383959:04:21",
"channelId" : "631487833073860808",
"channelName" : "读书要闻汇总-新浪读书",
"channelNameSummary" : "读书要闻汇总-新浪读...",
"channelUrl" : "http:\/\/book.sina.com.cn\/old2012\/index.shtml",
"author" : "WWW.SINA.COM.CN",
"tags" : [],
"desc" : "孙权纪念馆内，游人正在参观。 &#160;&#160; 龙虎网讯 东吴大帝孙权纪念馆昨日正式开馆，省委常委、南京市委书记杨卫泽，市长季建业为纪念馆广场的孙权像揭幕。 通讯员 高炜 王广勇 A 扇形建筑再现汉代江南民居风格 南京市委、市政府\u201C建设新南京千日行动....",
"emailed" : False,
"forwarded" : False,
"english" : False
}  , {
"index" : 10,
"articleIndex" : "2478",
"favor" :  False ,
     "read" : False,    
"title" : "南京图书馆首次涉足拍卖通过竞买丰富自身馆藏",
"titleTip" : "南京图书馆首次涉足拍卖通过竞买丰富自身馆藏",
"titleSummary" : "南京图书馆首次涉足拍卖通过竞买丰富自身馆藏",
"descSummary" : "继参与过云楼古籍拍卖之后，南京图书馆9月2日在南京...",
"url" : "http:\/\/go.rss.sina.com.cn\/redirect.php?url=http:\/\/book.sina.com.cn\/news\/c\/2012-09-04\/1120327006.shtml",
"pubDate" : "2012年9月4日",
"enterDate" : "384200:05:52",
"channelId" : "631487833073860808",
"channelName" : "读书要闻汇总-新浪读书",
"channelNameSummary" : "读书要闻汇总-新浪读...",
"channelUrl" : "http:\/\/book.sina.com.cn\/old2012\/index.shtml",
"author" : "WWW.SINA.COM.CN",
"tags" : [],
"desc" : "继参与过云楼古籍拍卖之后，南京图书馆9月2日在南京真德拍卖行举行的古籍善本和江苏文献专场拍卖中竞得两部古籍和一部现代笺谱稿。这也是这座百年老馆首次进入拍卖场通过竞买来丰富自身馆藏。 据了解，拍卖的三部文献均与江苏历史有关，1500元拍下的《新刻长毛出身卷》....",
"emailed" : False,
"forwarded" : False,
"english" : False
}  , {
"index" : 11,
"articleIndex" : "2477",
"favor" :  False ,
     "read" : False,    
"title" : "藏书家搬家发愁数万册书归宿",
"titleTip" : "藏书家搬家发愁数万册书归宿",
"titleSummary" : "藏书家搬家发愁数万册书归宿",
"descSummary" : "瞿永发家里堆满各种书籍。记者 吴恺 摄 默默无闻了40多年，隐匿在虹镇老...",
"url" : "http:\/\/go.rss.sina.com.cn\/redirect.php?url=http:\/\/book.sina.com.cn\/news\/c\/2012-09-04\/1002326901.shtml",
"pubDate" : "2012年9月4日",
"enterDate" : "384200:18:02",
"channelId" : "631487833073860808",
"channelName" : "读书要闻汇总-新浪读书",
"channelNameSummary" : "读书要闻汇总-新浪读...",
"channelUrl" : "http:\/\/book.sina.com.cn\/old2012\/index.shtml",
"author" : "WWW.SINA.COM.CN",
"tags" : [],
"desc" : "瞿永发家里堆满各种书籍。记者 吴恺 摄 默默无闻了40多年，隐匿在虹镇老街棚户区的私人\u201C现代文学史料藏馆\u201D瞬间火了。这个民间\u201C藏经阁\u201D里竟有6万多册书和10多万页的珍贵手稿。如今，虹镇老街七号地块面临房屋征收，为了让宝贝能妥善保存，为世人所用，这些天\u201C....",
"emailed" : False,
"forwarded" : False,
"english" : False
}  , {
"index" : 12,
"articleIndex" : "2476",
"favor" :  False ,
     "read" : False,    
"title" : "舒婷：中国的诗歌比过去更发达没以前那么\u201C酸\u201D",
"titleTip" : "舒婷：中国的诗歌比过去更发达没以前那么\u201C酸\u201D",
"titleSummary" : "舒婷：中国的诗歌比过去更发达没以前那么\u201C酸\u201D",
"descSummary" : "著名诗人舒婷 上周五晚，一向低调的诗人舒婷受邀参...",
"url" : "http:\/\/go.rss.sina.com.cn\/redirect.php?url=http:\/\/book.sina.com.cn\/news\/a\/2012-09-04\/0801326720.shtml",
"pubDate" : "2012年9月4日",
"enterDate" : "384198:47:06",
"channelId" : "631487833073860808",
"channelName" : "读书要闻汇总-新浪读书",
"channelNameSummary" : "读书要闻汇总-新浪读...",
"channelUrl" : "http:\/\/book.sina.com.cn\/old2012\/index.shtml",
"author" : "WWW.SINA.COM.CN",
"tags" : [],
"desc" : "著名诗人舒婷 上周五晚，一向低调的诗人舒婷受邀参加了本届北京国际图书博览会(简称书博会)的\u201C主宾国文学之夜\u201D，而在论坛上，舒婷坚决地表达了：现在中国的诗歌比过去更发达。 \u201C诗歌是轻便的小武器\u201D 本届书博会的\u201C主宾国文学之夜\u201D是在北京798艺术区内....",
"emailed" : False,
"forwarded" : False,
"english" : False
}  , {
"index" : 13,
"articleIndex" : "2475",
"favor" :  False ,
     "read" : False,    
"title" : "李雪顺：我与何伟的江城之情",
"titleTip" : "李雪顺：我与何伟的江城之情",
"titleSummary" : "李雪顺：我与何伟的江城之情",
"descSummary" : "我与何伟的江城之情 李雪顺 (长江师范学院 教授) 一 何伟于1996年8月底来...",
"url" : "http:\/\/go.rss.sina.com.cn\/redirect.php?url=http:\/\/book.sina.com.cn\/news\/c\/2012-09-03\/1755326531.shtml",
"pubDate" : "2012年9月3日",
"enterDate" : "384185:12:01",
"channelId" : "631487833073860808",
"channelName" : "读书要闻汇总-新浪读书",
"channelNameSummary" : "读书要闻汇总-新浪读...",
"channelUrl" : "http:\/\/book.sina.com.cn\/old2012\/index.shtml",
"author" : "WWW.SINA.COM.CN",
"tags" : [],
"desc" : "我与何伟的江城之情 李雪顺&#160; (长江师范学院 教授) 一 何伟于1996年8月底来到当时的涪陵师专教书。在那之前，他在成都参加了由\u201C美中友好志愿者\u201D组织的短期培训，学习一些汉语口语和中国文化，以及基本的英语教学方法。到了涪陵之后，他和另外一个....",
"emailed" : False,
"forwarded" : False,
"english" : False
}  , {
"index" : 14,
"articleIndex" : "2473",
"favor" :  False ,
     "read" : False,    
"title" : "学术杂志《中国报道》遭遇山寨求证成最大困难",
"titleTip" : "学术杂志《中国报道》遭遇山寨求证成最大困难",
"titleSummary" : "学术杂志《中国报道》遭遇山寨求证成最大困难",
"descSummary" : "\u201C你们杂志出过\u2018学术刊\u2019吗？\u201D \u201C\u2018学术刊\u2019？从来...",
"url" : "http:\/\/go.rss.sina.com.cn\/redirect.php?url=http:\/\/book.sina.com.cn\/news\/c\/2012-09-03\/0905326067.shtml",
"pubDate" : "2012年9月3日",
"enterDate" : "384200:58:40",
"channelId" : "631487833073860808",
"channelName" : "读书要闻汇总-新浪读书",
"channelNameSummary" : "读书要闻汇总-新浪读...",
"channelUrl" : "http:\/\/book.sina.com.cn\/old2012\/index.shtml",
"author" : "WWW.SINA.COM.CN",
"tags" : [],
"desc" : "\u201C你们杂志出过\u2018学术刊\u2019吗？\u201D \u201C\u2018学术刊\u2019？从来没听说过。\u201D 今年6月，一名读者打来的求证电话让《中国报道》杂志社总编室的编辑感到意外。随后，该读者寄来了一本杂志，编辑这才发现，有一本与他们刊名、刊号甚至内页中的主编人员等都完全相同的\u201C山寨\u201D....",
"emailed" : False,
"forwarded" : False,
"english" : False
}  , {
"index" : 15,
"articleIndex" : "2474",
"favor" :  False ,
     "read" : False,    
"title" : "两岸共推\u201C这世代\u201D书系毕飞宇等人入选",
"titleTip" : "两岸共推\u201C这世代\u201D书系毕飞宇等人入选",
"titleSummary" : "两岸共推\u201C这世代\u201D书系毕飞宇等人入选",
"descSummary" : "海峡两岸\u201C这世代\u201D书系新书发布会9月2日在人民教育出版社...",
"url" : "http:\/\/go.rss.sina.com.cn\/redirect.php?url=http:\/\/book.sina.com.cn\/news\/a\/2012-09-03\/0900326048.shtml",
"pubDate" : "2012年9月3日",
"enterDate" : "384199:23:48",
"channelId" : "631487833073860808",
"channelName" : "读书要闻汇总-新浪读书",
"channelNameSummary" : "读书要闻汇总-新浪读...",
"channelUrl" : "http:\/\/book.sina.com.cn\/old2012\/index.shtml",
"author" : "WWW.SINA.COM.CN",
"tags" : [],
"desc" : "海峡两岸\u201C这世代\u201D书系新书发布会9月2日在人民教育出版社(微博)进行。新闻出版总署副署长孙寿山在会上表示，同时在大陆和台湾推出毕飞宇等新生代作家的作品，将极大促进这些优秀作家以及他们的作品在两岸民众中传播。 由人民教育出版社与重庆出版集团联合召开的海峡两....",
"emailed" : False,
"forwarded" : False,
"english" : False
}  , {
"index" : 16,
"articleIndex" : "2472",
"favor" :  False ,
     "read" : False,    
"title" : "舒婷：当今诗歌创作比80年代写作更纯粹",
"titleTip" : "舒婷：当今诗歌创作比80年代写作更纯粹",
"titleSummary" : "舒婷：当今诗歌创作比80年代写作更纯粹",
"descSummary" : "从左至右：舒婷、黄东奎、韩国翻译、刘震云、黄 新浪文化读...",
"url" : "http:\/\/go.rss.sina.com.cn\/redirect.php?url=http:\/\/book.sina.com.cn\/news\/c\/2012-09-01\/0017325375.shtml",
"pubDate" : "2012年9月1日",
"enterDate" : "384187:23:36",
"channelId" : "631487833073860808",
"channelName" : "读书要闻汇总-新浪读书",
"channelNameSummary" : "读书要闻汇总-新浪读...",
"channelUrl" : "http:\/\/book.sina.com.cn\/old2012\/index.shtml",
"author" : "WWW.SINA.COM.CN",
"tags" : [],
"desc" : "从左至右：舒婷、黄东奎、韩国翻译、刘震云、黄 &#160;&#160;&#160; 新浪文化读书讯&#160; 8月31日晚上，2012年北京国际图书博览会主宾国文学之夜在北京798艺术区举行。刘震云、舒婷、黄！⒒贫奎等四位中韩著名诗人和小说家通过朗诵彼此作品、与现场观众互动交流的形式....",
"emailed" : False,
"forwarded" : False,
"english" : False
}  , {
"index" : 17,
"articleIndex" : "2471",
"favor" :  False ,
     "read" : False,    
"title" : "蒋方舟对房车无焦虑感与毕淑敏话青春",
"titleTip" : "蒋方舟对房车无焦虑感与毕淑敏话青春",
"titleSummary" : "蒋方舟对房车无焦虑感与毕淑敏话青春",
"descSummary" : "(记者唐平)昨天，一场由韩国畅销书《因为痛，所以叫青春》引起...",
"url" : "http:\/\/go.rss.sina.com.cn\/redirect.php?url=http:\/\/book.sina.com.cn\/news\/a\/2012-08-31\/1009325113.shtml",
"pubDate" : "2012年8月31日",
"enterDate" : "384199:38:05",
"channelId" : "631487833073860808",
"channelName" : "读书要闻汇总-新浪读书",
"channelNameSummary" : "读书要闻汇总-新浪读...",
"channelUrl" : "http:\/\/book.sina.com.cn\/old2012\/index.shtml",
"author" : "WWW.SINA.COM.CN",
"tags" : [],
"desc" : "(记者唐平)昨天，一场由韩国畅销书《因为痛，所以叫青春》引起的主题沙龙在图博会上举行，该书作者、首尔大学教授金兰都，中国作家毕淑敏(微博)、《新周刊》副主编蒋方舟(微博)就青春这个话题展开讨论。毕淑敏鼓励年轻人不要因没有房子而焦虑，因为那不是成功的标志。 ....",
"emailed" : False,
"forwarded" : False,
"english" : False
}  , {
"index" : 18,
"articleIndex" : "2470",
"favor" :  False ,
     "read" : False,    
"title" : "郎朗：最喜欢的作家是莎士比亚",
"titleTip" : "郎朗：最喜欢的作家是莎士比亚",
"titleSummary" : "郎朗：最喜欢的作家是莎士比亚",
"descSummary" : "新浪文化读书讯 8月30日下午，由郎朗(微博)父亲郎国任撰写的《我和郎...",
"url" : "http:\/\/go.rss.sina.com.cn\/redirect.php?url=http:\/\/book.sina.com.cn\/news\/c\/2012-08-30\/2308324718.shtml",
"pubDate" : "2012年8月30日",
"enterDate" : "384190:37:44",
"channelId" : "631487833073860808",
"channelName" : "读书要闻汇总-新浪读书",
"channelNameSummary" : "读书要闻汇总-新浪读...",
"channelUrl" : "http:\/\/book.sina.com.cn\/old2012\/index.shtml",
"author" : "WWW.SINA.COM.CN",
"tags" : [],
"desc" : "新浪文化读书讯&#160; 8月30日下午，由郎朗(微博)父亲郎国任撰写的《我和郎朗30年》新书发布会在京举行。该书讲述了郎朗从一个普通孩子迅速成长为超一流钢琴家背后闻所未闻的故事，首次完整地披露了郎朗从出生到30岁的成长历程，为我们解开了郎朗成长和成功的谜团。书中还收录....",
"emailed" : False,
"forwarded" : False,
"english" : False
}  , {
"index" : 19,
"articleIndex" : "2469",
"favor" :  False ,
     "read" : False,    
"title" : "《现汉》修订者：汉语不会因字母词的产生而灭亡",
"titleTip" : "《现汉》修订者：汉语不会因字母词的产生而灭亡",
"titleSummary" : "《现汉》修订者：汉语不会因字母词的产生而灭亡",
"descSummary" : "中新网北京8月30日电(记者 张中江)第6版《现代汉语...",
"url" : "http:\/\/go.rss.sina.com.cn\/redirect.php?url=http:\/\/book.sina.com.cn\/news\/c\/2012-08-30\/0848324273.shtml",
"pubDate" : "2012年8月30日",
"enterDate" : "384200:09:46",
"channelId" : "631487833073860808",
"channelName" : "读书要闻汇总-新浪读书",
"channelNameSummary" : "读书要闻汇总-新浪读...",
"channelUrl" : "http:\/\/book.sina.com.cn\/old2012\/index.shtml",
"author" : "WWW.SINA.COM.CN",
"tags" : [],
"desc" : "中新网北京8月30日电(记者 张中江)第6版《现代汉语词典》(简称《现汉》)收录239个外文字母开头词语一事，日前引发波澜，有学者联名举报称此举违法。29日，《现汉》第6版修订主持人江蓝生称字母词的产生有必然性和合理性，\u201C汉语不会因为字母词的产生而灭亡，我们应该对汉字文....",
"emailed" : False,
"forwarded" : False,
"english" : False
} ]
}
