{
"mode" : {"viewTitle" : 1,   "viewNew" : 0,  "pageIndex" : 1 },
 "channel" : {"id" : "1535960103577258473", "booked" : False, "subNumber" : 626, "name" : "CBA新闻-新浪体育", "url" : "http:\/\/sports.sina.com.cn\/cba\/index.shtml", "feed" : "http:\/\/rss.sina.com.cn\/sports\/basketball\/cba.xml", "author" : "WWW.SINA.COM.CN", "desc" : "篮球-CBA新闻", "imageUrl" : "http:\/\/www.sinaimg.cn\/ty\/deco\/2010\/0601\/logo_home_sports_nonike2.gif", "postPerWeek" : "174", "lastCrawTime" : "17:09:25", "crawDateTime" : "16:24:15", "lastHttpCode" : "304"}, "page" : {
"startIndex" : 0,
"totalCount" : 5000,
"pageIndex" : 1,
"lastPage" : 250,
"pageSize" : 20,
"english" :  False },
 "unreadNum" : 0, "shotIndex" : -1,
"articles" : [
{
"index" : 0,
"articleIndex" : "47478",
"favor" :  False ,
     "read" : False,    
"title" : "美国专家持续看低王哲林 选秀排名3次下滑至81位",
"titleTip" : "美国专家持续看低王哲林 选秀排名3次下滑至81位",
"titleSummary" : "美国专家持续看低王哲林 选秀排名3次下滑至81位",
"descSummary" : "北京时间10月30日消息，美国权威选秀网站《Draft Exp...",
"url" : "http:\/\/go.rss.sina.com.cn\/redirect.php?url=http:\/\/sports.sina.com.cn\/cba\/2013-10-30\/15416858658.shtml",
"pubDate" : "15:41:42",
"enterDate" : "384201:07:40",
"channelId" : "1535960103577258473",
"channelName" : "CBA新闻-新浪体育",
"channelNameSummary" : "CBA新闻-新浪体育",
"channelUrl" : "http:\/\/sports.sina.com.cn\/cba\/index.shtml",
"author" : "WWW.SINA.COM.CN",
"tags" : [],
"desc" : "北京时间10月30日消息，美国权威选秀网站《Draft Express》更新了全球百强新秀\u201CTop 100 \u201D名单，来自福建队的中锋王哲林[微博]继续出现在这份榜单当中，不过他的排名相比之前有所下滑，在所有球员中排第81位，而在国际球员排名中则是第17位。 虽然依旧是全亚洲唯一一....",
"emailed" : False,
"forwarded" : False,
"english" : False
}  , {
"index" : 1,
"articleIndex" : "47477",
"favor" :  False ,
     "read" : False,    
"title" : "篮协出台女篮球员转会价格 国手5万普通球员仅2万",
"titleTip" : "篮协出台女篮球员转会价格 国手5万普通球员仅2万",
"titleSummary" : "篮协出台女篮球员转会价格 国手5万普通球员仅2万",
"descSummary" : "日前，中国篮协下发了一份《关于2013-2014 中国女子...",
"url" : "http:\/\/go.rss.sina.com.cn\/redirect.php?url=http:\/\/sports.sina.com.cn\/cba\/2013-10-30\/14256858485.shtml",
"pubDate" : "14:25:58",
"enterDate" : "384200:52:10",
"channelId" : "1535960103577258473",
"channelName" : "CBA新闻-新浪体育",
"channelNameSummary" : "CBA新闻-新浪体育",
"channelUrl" : "http:\/\/sports.sina.com.cn\/cba\/index.shtml",
"author" : "WWW.SINA.COM.CN",
"tags" : [],
"desc" : "日前，中国篮协下发了一份《关于2013-2014&#160;中国女子篮球甲级联赛运动员短期交流有关事宜的通知》，在通知中有一项关于球员转会费的细则。在这项细则中规定了一名女篮国手的转会费是5万元人民币。在市场化、职业化的今天，这样的价格还是让人有些意外。 通知中说明....",
"emailed" : False,
"forwarded" : False,
"english" : False
}  , {
"index" : 2,
"articleIndex" : "47476",
"favor" :  False ,
     "read" : False,    
"title" : "CUBA锋霸的故事:30+20已经过去 他的未来不在CBA",
"titleTip" : "CUBA锋霸的故事:30+20已经过去 他的未来不在CBA",
"titleSummary" : "CUBA锋霸的故事:30+20已经过去 他的未来不在CBA",
"descSummary" : "\u201C下面入场的是北京大学的12号，程--驰--！\u201D伴随...",
"url" : "http:\/\/go.rss.sina.com.cn\/redirect.php?url=http:\/\/sports.sina.com.cn\/cba\/2013-10-30\/14146858474.shtml",
"pubDate" : "14:14:22",
"enterDate" : "384199:40:20",
"channelId" : "1535960103577258473",
"channelName" : "CBA新闻-新浪体育",
"channelNameSummary" : "CBA新闻-新浪体育",
"channelUrl" : "http:\/\/sports.sina.com.cn\/cba\/index.shtml",
"author" : "WWW.SINA.COM.CN",
"tags" : [],
"desc" : "\u201C下面入场的是北京大学的12号，程\u2015\u2015驰\u2015\u2015！\u201D伴随着现场主持人刘芳宇[微博]标志性的嗓音，首都师范大学体育馆内立刻响起了振聋发聩的呐喊和欢呼声，其受欢迎的程度甚至超过了任何一名身穿白色球衣，本场揭幕战主队清华大学队的队员，就连场馆外负责维持秩序的安保人员，在....",
"emailed" : False,
"forwarded" : False,
"english" : False
}  , {
"index" : 3,
"articleIndex" : "47474",
"favor" :  False ,
     "read" : False,    
"title" : "广东：大外本想签迪奥古但没成 双援受尤纳斯认可",
"titleTip" : "广东：大外本想签迪奥古但没成 双援受尤纳斯认可",
"titleSummary" : "广东：大外本想签迪奥古但没成 双援受尤纳斯认可",
"descSummary" : "今天，广东队方面已经确认球队双外援人选，小外援是...",
"url" : "http:\/\/go.rss.sina.com.cn\/redirect.php?url=http:\/\/sports.sina.com.cn\/cba\/2013-10-30\/12136858336.shtml",
"pubDate" : "12:13:58",
"enterDate" : "384201:10:35",
"channelId" : "1535960103577258473",
"channelName" : "CBA新闻-新浪体育",
"channelNameSummary" : "CBA新闻-新浪体育",
"channelUrl" : "http:\/\/sports.sina.com.cn\/cba\/index.shtml",
"author" : "WWW.SINA.COM.CN",
"tags" : [],
"desc" : "今天，广东队方面已经确认球队双外援人选，小外援是卡里夫-怀艾特(身高1米93)大外援是辽宁旧将约什-鲍威尔(身高2米06)。 据总经理刘宏疆[微博]介绍，尽管小外援怀艾特没有CBA[微博]经历，但他还是得到了主帅尤纳斯的认可。而大外援鲍威尔和上赛季的迪奥古原本就是双选....",
"emailed" : False,
"forwarded" : False,
"english" : False
}  , {
"index" : 4,
"articleIndex" : "47473",
"favor" :  False ,
     "read" : False,    
"title" : "胡雪峰透露易立归期：季前赛打完归队 他恢复很快",
"titleTip" : "胡雪峰透露易立归期：季前赛打完归队 他恢复很快",
"titleSummary" : "胡雪峰透露易立归期：季前赛打完归队 他恢复很快",
"descSummary" : "CBA[微博]季前赛海南赛区的比赛今天打响，昨天下午...",
"url" : "http:\/\/go.rss.sina.com.cn\/redirect.php?url=http:\/\/sports.sina.com.cn\/cba\/2013-10-30\/12016858326.shtml",
"pubDate" : "12:01:26",
"enterDate" : "384200:58:03",
"channelId" : "1535960103577258473",
"channelName" : "CBA新闻-新浪体育",
"channelNameSummary" : "CBA新闻-新浪体育",
"channelUrl" : "http:\/\/sports.sina.com.cn\/cba\/index.shtml",
"author" : "WWW.SINA.COM.CN",
"tags" : [],
"desc" : "CBA[微博]季前赛海南赛区的比赛今天打响，昨天下午，江苏中天队抵达海南琼海，包括两名外援在内的13名队员随队前往，除了受伤的易立[微博]没来之外，这13名队员就将是中天的基本阵容。主教练胡雪峰[微博]说，\u201C这次季前赛打完，易立就会归队训练。\u201D&#160;&#160; 对于....",
"emailed" : False,
"forwarded" : False,
"english" : False
}  , {
"index" : 5,
"articleIndex" : "47472",
"favor" :  False ,
     "read" : False,    
"title" : "江苏队：新季电视转播敲定了！ 电视台：无可奉告",
"titleTip" : "江苏队：新季电视转播敲定了！ 电视台：无可奉告",
"titleSummary" : "江苏队：新季电视转播敲定了！ 电视台：无可奉告",
"descSummary" : "每到CBA[微博]开始前，江苏中天队的转播问题就颇受...",
"url" : "http:\/\/go.rss.sina.com.cn\/redirect.php?url=http:\/\/sports.sina.com.cn\/cba\/2013-10-30\/11526858319.shtml",
"pubDate" : "11:52:39",
"enterDate" : "384200:49:16",
"channelId" : "1535960103577258473",
"channelName" : "CBA新闻-新浪体育",
"channelNameSummary" : "CBA新闻-新浪体育",
"channelUrl" : "http:\/\/sports.sina.com.cn\/cba\/index.shtml",
"author" : "WWW.SINA.COM.CN",
"tags" : [],
"desc" : "每到CBA[微博]开始前，江苏中天队的转播问题就颇受关注。昨天，俱乐部高层告诉现代快报记者，CBA新赛季的转播已经基本敲定了。 \u201C和江苏体育休闲频道已经谈妥了，他们新赛季会对我们的比赛进行转播。\u201D 这位俱乐部高层说，\u201C有了转播，省内其他城市的球迷也能看到我们....",
"emailed" : False,
"forwarded" : False,
"english" : False
}  , {
"index" : 6,
"articleIndex" : "47469",
"favor" :  False ,
     "read" : False,    
"title" : "广东内线外援确定：2米06辽宁旧将 CBA场均16+8",
"titleTip" : "广东内线外援确定：2米06辽宁旧将 CBA场均16+8",
"titleSummary" : "广东内线外援确定：2米06辽宁旧将 CBA场均16+8",
"descSummary" : "北京时间10月30日，据悉广东队内线外援的人选已经...",
"url" : "http:\/\/go.rss.sina.com.cn\/redirect.php?url=http:\/\/sports.sina.com.cn\/cba\/2013-10-30\/10186858116.shtml",
"pubDate" : "10:18:32",
"enterDate" : "384200:45:25",
"channelId" : "1535960103577258473",
"channelName" : "CBA新闻-新浪体育",
"channelNameSummary" : "CBA新闻-新浪体育",
"channelUrl" : "http:\/\/sports.sina.com.cn\/cba\/index.shtml",
"author" : "WWW.SINA.COM.CN",
"tags" : [],
"desc" : "北京时间10月30日，据悉广东队内线外援的人选已经确定，是身高2米06曾在辽宁队效力过的约什-鲍威尔，2011-2012他在辽宁队场均能贡献16.6分和8.3个篮板。就在昨天美国媒体《RealGM》爆料广东小外援为卡里夫-怀艾特，如果消息属实，那么广东两个外援就已经全部确定。 约....",
"emailed" : False,
"forwarded" : False,
"english" : False
}  , {
"index" : 7,
"articleIndex" : "47468",
"favor" :  False ,
     "read" : False,    
"title" : "盘点CBA退烧三大原因 曾星光璀璨现伊朗双星最大牌",
"titleTip" : "盘点CBA退烧三大原因 曾星光璀璨现伊朗双星最大牌",
"titleSummary" : "盘点CBA退烧三大原因 曾星光璀璨现伊朗双星最大牌",
"descSummary" : "再过大约一周时间，新赛季的CBA[微博]全国男子篮...",
"url" : "http:\/\/go.rss.sina.com.cn\/redirect.php?url=http:\/\/sports.sina.com.cn\/cba\/2013-10-30\/09376857979.shtml",
"pubDate" : "09:37:38",
"enterDate" : "384201:04:41",
"channelId" : "1535960103577258473",
"channelName" : "CBA新闻-新浪体育",
"channelNameSummary" : "CBA新闻-新浪体育",
"channelUrl" : "http:\/\/sports.sina.com.cn\/cba\/index.shtml",
"author" : "WWW.SINA.COM.CN",
"tags" : [],
"desc" : "再过大约一周时间，新赛季的CBA[微博]全国男子篮球联赛常规赛又将燃起烽烟。与过往相比，舆论和圈内普遍认为，常规赛的战况会比以往更为惨烈。尽管卫冕总冠军广东宏远[微博]队的外援迟迟都没有到位，不过多数人都认同新赛季他们将一枝独秀，而其他球队则很可能陷入一片\u201C混战....",
"emailed" : False,
"forwarded" : False,
"english" : False
}  , {
"index" : 8,
"articleIndex" : "47475",
"favor" :  False ,
     "read" : False,    
"title" : "篮管中心回应质疑：没弄虚作假 搞体测是为球队好",
"titleTip" : "篮管中心回应质疑：没弄虚作假 搞体测是为球队好",
"titleSummary" : "篮管中心回应质疑：没弄虚作假 搞体测是为球队好",
"descSummary" : "CBA[微博]体测最近引发各种话题，围绕补测全程封闭...",
"url" : "http:\/\/go.rss.sina.com.cn\/redirect.php?url=http:\/\/sports.sina.com.cn\/cba\/2013-10-30\/08306857739.shtml",
"pubDate" : "08:30:07",
"enterDate" : "384195:56:30",
"channelId" : "1535960103577258473",
"channelName" : "CBA新闻-新浪体育",
"channelNameSummary" : "CBA新闻-新浪体育",
"channelUrl" : "http:\/\/sports.sina.com.cn\/cba\/index.shtml",
"author" : "WWW.SINA.COM.CN",
"tags" : [],
"desc" : "CBA[微博]体测最近引发各种话题，围绕补测全程封闭、集中体测是否篮管中心越权等争议不断，10月29日，篮管中心运动管理部部长、主抓体测工作的宫鲁鸣接受媒体专访时对这些疑问一一作出解读。 质疑一： 补测为何全程封闭？ 有专业媒体质疑，在正式体....",
"emailed" : False,
"forwarded" : False,
"english" : False
}  , {
"index" : 9,
"articleIndex" : "47467",
"favor" :  False ,
     "read" : False,    
"title" : "媒曝江苏答应韩硕留守八一 新球票含芯片难倒黄牛",
"titleTip" : "媒曝江苏答应韩硕留守八一 新球票含芯片难倒黄牛",
"titleSummary" : "媒曝江苏答应韩硕留守八一 新球票含芯片难倒黄牛",
"descSummary" : "昨日，2013-2014CBA[微博]宁波赛区新闻通气会召开...",
"url" : "http:\/\/go.rss.sina.com.cn\/redirect.php?url=http:\/\/sports.sina.com.cn\/cba\/2013-10-30\/06346857608.shtml",
"pubDate" : "06:34:18",
"enterDate" : "384200:46:49",
"channelId" : "1535960103577258473",
"channelName" : "CBA新闻-新浪体育",
"channelNameSummary" : "CBA新闻-新浪体育",
"channelUrl" : "http:\/\/sports.sina.com.cn\/cba\/index.shtml",
"author" : "WWW.SINA.COM.CN",
"tags" : [],
"desc" : "昨日，2013-2014CBA[微博]宁波赛区新闻通气会召开。会上八一富邦[微博]俱乐部总经理徐积为[微博]就本赛季球队阵容、赛季目标，以及门票等事宜一一作了介绍。&#160;&#160;&#160;&#160; ［揭幕战］ 八一主场对阵吉林 季前赛，韩硕[微博]在八一双鹿打得风生....",
"emailed" : False,
"forwarded" : False,
"english" : False
}  , {
"index" : 10,
"articleIndex" : "47466",
"favor" :  False ,
     "read" : False,    
"title" : "广东新援吐槽中国司机开车疯狂 出门逛街被吓坏",
"titleTip" : "广东新援吐槽中国司机开车疯狂 出门逛街被吓坏",
"titleSummary" : "广东新援吐槽中国司机开车疯狂 出门逛街被吓坏",
"descSummary" : "没有太多NBA镀金史，却能在欧洲篮球赛场叱咤风云，...",
"url" : "http:\/\/go.rss.sina.com.cn\/redirect.php?url=http:\/\/sports.sina.com.cn\/cba\/2013-10-30\/05556857576.shtml",
"pubDate" : "05:55:18",
"enterDate" : "384201:07:59",
"channelId" : "1535960103577258473",
"channelName" : "CBA新闻-新浪体育",
"channelNameSummary" : "CBA新闻-新浪体育",
"channelUrl" : "http:\/\/sports.sina.com.cn\/cba\/index.shtml",
"author" : "WWW.SINA.COM.CN",
"tags" : [],
"desc" : "没有太多NBA镀金史，却能在欧洲篮球赛场叱咤风云，仅凭这一点就不难看出鲍比・布朗肯定不是那种浮夸的球星，而是一个真正实用型球员，而\u201C欧冠得分王\u201D这个头衔又让他难免被寄予厚望，这个小外援会是新赛季C&#160;B&#160;A东莞队的\u201C大杀器\u201D吗？用他自己的话说：\u201C我很有信心....",
"emailed" : False,
"forwarded" : False,
"english" : False
}  , {
"index" : 11,
"articleIndex" : "47465",
"favor" :  False ,
     "read" : False,    
"title" : "朱芳雨：各队水平越来越接近 卫冕难度大要打硬仗",
"titleTip" : "朱芳雨：各队水平越来越接近 卫冕难度大要打硬仗",
"titleSummary" : "朱芳雨：各队水平越来越接近 卫冕难度大要打硬仗",
"descSummary" : "南都讯 日前，\u201C珠江0度・拼个痛快・社区篮球争霸赛...",
"url" : "http:\/\/go.rss.sina.com.cn\/redirect.php?url=http:\/\/sports.sina.com.cn\/cba\/2013-10-30\/04206857486.shtml",
"pubDate" : "昨天04:20:07",
"enterDate" : "384200:02:54",
"channelId" : "1535960103577258473",
"channelName" : "CBA新闻-新浪体育",
"channelNameSummary" : "CBA新闻-新浪体育",
"channelUrl" : "http:\/\/sports.sina.com.cn\/cba\/index.shtml",
"author" : "WWW.SINA.COM.CN",
"tags" : [],
"desc" : "南都讯 日前，\u201C珠江0度・拼个痛快・社区篮球争霸赛\u201D总决赛在广州二沙岛体育馆举行，活动高潮出现在\u201C珠江啤酒篮球大使\u201D朱芳雨[微博]亲临现场时，他与四个城市的灌篮高手进行了精彩互动，并向最后的总冠军颁发锦旗。事实上，朱芳雨这次是在备战新赛季的百忙之中抽身前来的。....",
"emailed" : False,
"forwarded" : False,
"english" : False
}  , {
"index" : 12,
"articleIndex" : "47471",
"favor" :  False ,
     "read" : False,    
"title" : "欧洲篮球纯粹到只有篮球 高强度比赛1季长达8个月",
"titleTip" : "欧洲篮球纯粹到只有篮球 高强度比赛1季长达8个月",
"titleSummary" : "欧洲篮球纯粹到只有篮球 高强度比赛1季长达8个月",
"descSummary" : "尚平[微博]的名字，京城球迷肯定会有印象，2009年时...",
"url" : "http:\/\/go.rss.sina.com.cn\/redirect.php?url=http:\/\/sports.sina.com.cn\/cba\/2013-10-30\/04206857475.shtml",
"pubDate" : "昨天04:20:06",
"enterDate" : "384193:46:49",
"channelId" : "1535960103577258473",
"channelName" : "CBA新闻-新浪体育",
"channelNameSummary" : "CBA新闻-新浪体育",
"channelUrl" : "http:\/\/sports.sina.com.cn\/cba\/index.shtml",
"author" : "WWW.SINA.COM.CN",
"tags" : [],
"desc" : "尚平[微博]的名字，京城球迷肯定会有印象，2009年时他效力过北京金隅队。大约三个月前，尚平远走欧洲，加盟了希腊最成功的球队帕纳辛奈科斯。上周，在和彭内勒斯尼亚科斯队的希腊联赛比赛中，尚平迎来了自己的欧陆首秀：替补出场5分钟，2投2中，得到4分。尚平是第一位在欧洲篮....",
"emailed" : False,
"forwarded" : False,
"english" : False
}  , {
"index" : 13,
"articleIndex" : "47464",
"favor" :  False ,
     "read" : False,    
"title" : "宫鲁鸣回应体测质疑：没弄虚作假 篮协出力不讨好",
"titleTip" : "宫鲁鸣回应体测质疑：没弄虚作假 篮协出力不讨好",
"titleSummary" : "宫鲁鸣回应体测质疑：没弄虚作假 篮协出力不讨好",
"descSummary" : "围绕体测争议总是不断，昨天，篮管中心运动管理部部...",
"url" : "http:\/\/go.rss.sina.com.cn\/redirect.php?url=http:\/\/sports.sina.com.cn\/cba\/2013-10-30\/02476857379.shtml",
"pubDate" : "昨天02:47:00",
"enterDate" : "384200:15:08",
"channelId" : "1535960103577258473",
"channelName" : "CBA新闻-新浪体育",
"channelNameSummary" : "CBA新闻-新浪体育",
"channelUrl" : "http:\/\/sports.sina.com.cn\/cba\/index.shtml",
"author" : "WWW.SINA.COM.CN",
"tags" : [],
"desc" : "围绕体测争议总是不断，昨天，篮管中心运动管理部部长、主抓体测工作的宫鲁鸣接受本报独家专访时对疑问一一作出解读。 质疑一：补测为何全程封闭？ 某专业媒体质疑，在正式体测时，把央视拉来进行报道，但却在最后的补测环节中全程封闭，篮协所要达到的，难道只....",
"emailed" : False,
"forwarded" : False,
"english" : False
}  , {
"index" : 14,
"articleIndex" : "47470",
"favor" :  False ,
     "read" : False,    
"title" : "山西不敌新疆赛季前遭遇4连败 裤衩组合空砍47分",
"titleTip" : "山西不敌新疆赛季前遭遇4连败 裤衩组合空砍47分",
"titleSummary" : "山西不敌新疆赛季前遭遇4连败 裤衩组合空砍47分",
"descSummary" : "重新回归的马库斯。威廉姆斯希望帮助山西队在新赛季走...",
"url" : "http:\/\/go.rss.sina.com.cn\/redirect.php?url=http:\/\/sports.sina.com.cn\/cba\/2013-10-30\/00436857259.shtml",
"pubDate" : "昨天00:43:00",
"enterDate" : "384190:09:43",
"channelId" : "1535960103577258473",
"channelName" : "CBA新闻-新浪体育",
"channelNameSummary" : "CBA新闻-新浪体育",
"channelUrl" : "http:\/\/sports.sina.com.cn\/cba\/index.shtml",
"author" : "WWW.SINA.COM.CN",
"tags" : [],
"desc" : "重新回归的马库斯。威廉姆斯希望帮助山西队在新赛季走得更远。 宋立超 摄 \u201C裤衩\u201D组合在比赛中与新疆队双外援对抗。 宋立超 摄 中新网晋中10月29日电 (宋立超 胡健)29日晚，山西汾酒男篮与新疆广汇男篮一场热身赛在山西省晋中市榆次区进行。新赛季重新走到....",
"emailed" : False,
"forwarded" : False,
"english" : False
}  , {
"index" : 15,
"articleIndex" : "47463",
"favor" :  False ,
     "read" : False,    
"title" : "CUBA-京城德比引爆新赛季 揭幕战北大绝杀清华",
"titleTip" : "CUBA-京城德比引爆新赛季 揭幕战北大绝杀清华",
"titleSummary" : "CUBA-京城德比引爆新赛季 揭幕战北大绝杀清华",
"descSummary" : "北京时间10月29日消息，第16届中国大学生篮球联赛(C...",
"url" : "http:\/\/go.rss.sina.com.cn\/redirect.php?url=http:\/\/sports.sina.com.cn\/cba\/2013-10-29\/17476857015.shtml",
"pubDate" : "昨天17:47:27",
"enterDate" : "384201:02:25",
"channelId" : "1535960103577258473",
"channelName" : "CBA新闻-新浪体育",
"channelNameSummary" : "CBA新闻-新浪体育",
"channelUrl" : "http:\/\/sports.sina.com.cn\/cba\/index.shtml",
"author" : "WWW.SINA.COM.CN",
"tags" : [],
"desc" : "北京时间10月29日消息，第16届中国大学生篮球联赛(CUBA)的揭幕战于首都师范大学体育馆举行，对阵双方为老牌劲旅清华大学队和联赛新贵北京大学队，最终经过四节激战，刘鸿博在最后12秒里完成了准绝杀，北大队以76-74击败对手，取得了新赛季的开门红，同时也获得了本次\u201C京城德....",
"emailed" : False,
"forwarded" : False,
"english" : False
}  , {
"index" : 16,
"articleIndex" : "47462",
"favor" :  False ,
     "read" : False,    
"title" : "新疆俱乐部放弃艾尔索顿 第二外援暂使用辛格尔顿",
"titleTip" : "新疆俱乐部放弃艾尔索顿 第二外援暂使用辛格尔顿",
"titleSummary" : "新疆俱乐部放弃艾尔索顿 第二外援暂使用辛格尔顿",
"descSummary" : "北京时间10月29日消息，新疆队的总经理郭舰向记者...",
"url" : "http:\/\/go.rss.sina.com.cn\/redirect.php?url=http:\/\/sports.sina.com.cn\/cba\/2013-10-29\/16046856934.shtml",
"pubDate" : "昨天16:04:22",
"enterDate" : "384200:34:34",
"channelId" : "1535960103577258473",
"channelName" : "CBA新闻-新浪体育",
"channelNameSummary" : "CBA新闻-新浪体育",
"channelUrl" : "http:\/\/sports.sina.com.cn\/cba\/index.shtml",
"author" : "WWW.SINA.COM.CN",
"tags" : [],
"desc" : "北京时间10月29日消息，新疆队的总经理郭舰向记者确认，新疆队已经决定放弃此前在球队试训的外援索顿。 目前，另一名外援辛格尔顿还留在队中。在开赛时间所剩无几的情况下，新疆队恐怕已经没有时间再寻找更加合适的外援了。如果在开赛前不能找到其他更好的外援，新疆队....",
"emailed" : False,
"forwarded" : False,
"english" : False
}  , {
"index" : 17,
"articleIndex" : "47461",
"favor" :  False ,
     "read" : False,    
"title" : "韦弗真情告白：遇上姚明我是如此幸运 欠他太多了",
"titleTip" : "韦弗真情告白：遇上姚明我是如此幸运 欠他太多了",
"titleSummary" : "韦弗真情告白：遇上姚明我是如此幸运 欠他太多了",
"descSummary" : "本报记者 周国强 实习生 高宇辰 摄28岁的韦弗，在老...",
"url" : "http:\/\/go.rss.sina.com.cn\/redirect.php?url=http:\/\/sports.sina.com.cn\/cba\/2013-10-29\/15506856923.shtml",
"pubDate" : "昨天15:50:07",
"enterDate" : "384200:50:24",
"channelId" : "1535960103577258473",
"channelName" : "CBA新闻-新浪体育",
"channelNameSummary" : "CBA新闻-新浪体育",
"channelUrl" : "http:\/\/sports.sina.com.cn\/cba\/index.shtml",
"author" : "WWW.SINA.COM.CN",
"tags" : [],
"desc" : "本报记者 周国强 实习生 高宇辰 摄28岁的韦弗，在老家路易斯安那，至今开着人生第一辆车，那是他刚进大学时买的雪佛兰。他说自己是个怀旧的人，喜欢回忆过往的美好。 所以，四年之后，同姚明以另一种形式再合作，让他感到很快乐。我们的对话，就从2009年他在火箭最辉煌....",
"emailed" : False,
"forwarded" : False,
"english" : False
}  , {
"index" : 18,
"articleIndex" : "47460",
"favor" :  False ,
     "read" : False,    
"title" : "尤纳斯抱怨季前赛安排不合理 广东外援或3天后确定",
"titleTip" : "尤纳斯抱怨季前赛安排不合理 广东外援或3天后确定",
"titleSummary" : "尤纳斯抱怨季前赛安排不合理 广东外援或3天后确定",
"descSummary" : "羊城晚报讯 记者周方平[微博]报道：离揭幕战只有不到...",
"url" : "http:\/\/go.rss.sina.com.cn\/redirect.php?url=http:\/\/sports.sina.com.cn\/cba\/2013-10-29\/15206856886.shtml",
"pubDate" : "昨天15:20:09",
"enterDate" : "384200:50:32",
"channelId" : "1535960103577258473",
"channelName" : "CBA新闻-新浪体育",
"channelNameSummary" : "CBA新闻-新浪体育",
"channelUrl" : "http:\/\/sports.sina.com.cn\/cba\/index.shtml",
"author" : "WWW.SINA.COM.CN",
"tags" : [],
"desc" : "羊城晚报讯 记者周方平[微博]报道：离揭幕战只有不到两周的时间，但广东队的外援还没有消息。对此，执行教练尤纳斯让大家放心，他表示球队会要到想要的外援并很快会到位。 东莞德比历来都是火药味十足，慈善赛亦不例外。比赛一开始，东莞队就派上了布朗和格林的双外援....",
"emailed" : False,
"forwarded" : False,
"english" : False
}  , {
"index" : 19,
"articleIndex" : "47459",
"favor" :  False ,
     "read" : False,    
"title" : "高清-李慕豪劲酷造型秀身材 孟铎霸气持球宣告回归",
"titleTip" : "高清-李慕豪劲酷造型秀身材 孟铎霸气持球宣告回归",
"titleSummary" : "高清-李慕豪劲酷造型秀身材 孟铎霸气持球宣告回归",
"descSummary" : "",
"url" : "http:\/\/go.rss.sina.com.cn\/redirect.php?url=http:\/\/slide.sports.sina.com.cn\/cba\/slide_2_792_55402.html\/d\/1",
"pubDate" : "昨天12:27:32",
"enterDate" : "384200:58:25",
"channelId" : "1535960103577258473",
"channelName" : "CBA新闻-新浪体育",
"channelNameSummary" : "CBA新闻-新浪体育",
"channelUrl" : "http:\/\/sports.sina.com.cn\/cba\/index.shtml",
"author" : "WWW.SINA.COM.CN",
"tags" : [],
"desc" : "",
"emailed" : False,
"forwarded" : False,
"english" : False
} ]
}
