{
"mode" : {"viewTitle" : 1,   "viewNew" : 0,  "pageIndex" : 2 },
 "channel" : {"id" : "1535960103577258473", "booked" : False, "subNumber" : 626, "name" : "CBA新闻-新浪体育", "url" : "http:\/\/sports.sina.com.cn\/cba\/index.shtml", "feed" : "http:\/\/rss.sina.com.cn\/sports\/basketball\/cba.xml", "author" : "WWW.SINA.COM.CN", "desc" : "篮球-CBA新闻", "imageUrl" : "http:\/\/www.sinaimg.cn\/ty\/deco\/2010\/0601\/logo_home_sports_nonike2.gif", "postPerWeek" : "174", "lastCrawTime" : "17:09:25", "crawDateTime" : "16:24:15", "lastHttpCode" : "304"}, "page" : {
"startIndex" : 20,
"totalCount" : 5000,
"pageIndex" : 2,
"lastPage" : 250,
"pageSize" : 20,
"english" :  False },
 "unreadNum" : 0, "shotIndex" : -1,
"articles" : [
{
"index" : 0,
"articleIndex" : "47458",
"favor" :  False ,
     "read" : False,    
"title" : "季前赛各队主帅为何频繁吃T 技术代表解释新标准",
"titleTip" : "季前赛各队主帅为何频繁吃T 技术代表解释新标准",
"titleSummary" : "季前赛各队主帅为何频繁吃T 技术代表解释新标准",
"descSummary" : "季前赛原本是各队磨合阵容，考察队员的热身赛，既不关...",
"url" : "http:\/\/go.rss.sina.com.cn\/redirect.php?url=http:\/\/sports.sina.com.cn\/cba\/2013-10-29\/12176856696.shtml",
"pubDate" : "昨天12:17:46",
"enterDate" : "384200:48:39",
"channelId" : "1535960103577258473",
"channelName" : "CBA新闻-新浪体育",
"channelNameSummary" : "CBA新闻-新浪体育",
"channelUrl" : "http:\/\/sports.sina.com.cn\/cba\/index.shtml",
"author" : "WWW.SINA.COM.CN",
"tags" : [],
"desc" : "季前赛原本是各队磨合阵容，考察队员的热身赛，既不关乎成绩，也没有名次排列。但这丝毫没有影响季前赛这火爆程度，单从教练吃的\u201CT\u201D便可看出端倪。 在成都赛区，吴庆龙第一场就被夺权罚出了场地。山西队领队王兴江因为冲进场地质疑裁判导致替补席领到一次技术犯规。....",
"emailed" : False,
"forwarded" : False,
"english" : False
}  , {
"index" : 1,
"articleIndex" : "47457",
"favor" :  False ,
     "read" : False,    
"title" : "视频-Youtube点击千万广告 感人短片诠释何谓兄弟",
"titleTip" : "视频-Youtube点击千万广告 感人短片诠释何谓兄弟",
"titleSummary" : "视频-Youtube点击千万广告 感人短片诠释何谓兄弟",
"descSummary" : "近日，一则啤酒广告在youtube上点击上千万次并广泛...",
"url" : "http:\/\/go.rss.sina.com.cn\/redirect.php?url=http:\/\/video.sina.com.cn\/p\/sports\/cba\/v\/2013-10-29\/113363078235.html",
"pubDate" : "昨天11:33:01",
"enterDate" : "384201:04:04",
"channelId" : "1535960103577258473",
"channelName" : "CBA新闻-新浪体育",
"channelNameSummary" : "CBA新闻-新浪体育",
"channelUrl" : "http:\/\/sports.sina.com.cn\/cba\/index.shtml",
"author" : "WWW.SINA.COM.CN",
"tags" : [],
"desc" : "近日，一则啤酒广告在youtube上点击上千万次并广泛传播，视频开始是一群人一起坐轮椅上打篮球挥汗如雨，但是看到最后才知道实际上只有一个人是残疾人，其他人都是他的朋友陪他一起玩轮椅篮球，一则广告将兄弟精神诠释的淋漓尽致。 以上是相关视频。",
"emailed" : False,
"forwarded" : False,
"english" : False
}  , {
"index" : 2,
"articleIndex" : "47456",
"favor" :  False ,
     "read" : False,    
"title" : "高清-孙悦婚礼伴娘团大揭秘 超女+模特+选秀冠军",
"titleTip" : "高清-孙悦婚礼伴娘团大揭秘 超女+模特+选秀冠军",
"titleSummary" : "高清-孙悦婚礼伴娘团大揭秘 超女+模特+选秀冠军",
"descSummary" : "",
"url" : "http:\/\/go.rss.sina.com.cn\/redirect.php?url=http:\/\/slide.sports.sina.com.cn\/cba\/slide_2_792_55398.html",
"pubDate" : "昨天11:15:37",
"enterDate" : "384200:46:40",
"channelId" : "1535960103577258473",
"channelName" : "CBA新闻-新浪体育",
"channelNameSummary" : "CBA新闻-新浪体育",
"channelUrl" : "http:\/\/sports.sina.com.cn\/cba\/index.shtml",
"author" : "WWW.SINA.COM.CN",
"tags" : [],
"desc" : "",
"emailed" : False,
"forwarded" : False,
"english" : False
}  , {
"index" : 3,
"articleIndex" : "47455",
"favor" :  False ,
     "read" : False,    
"title" : "高清-阿联酷帅写真只露半张脸 刘晓宇亮出新POSE",
"titleTip" : "高清-阿联酷帅写真只露半张脸 刘晓宇亮出新POSE",
"titleSummary" : "高清-阿联酷帅写真只露半张脸 刘晓宇亮出新POSE",
"descSummary" : "",
"url" : "http:\/\/go.rss.sina.com.cn\/redirect.php?url=http:\/\/slide.sports.sina.com.cn\/cba\/slide_2_792_55399.html#p=1",
"pubDate" : "昨天11:15:05",
"enterDate" : "384201:16:13",
"channelId" : "1535960103577258473",
"channelName" : "CBA新闻-新浪体育",
"channelNameSummary" : "CBA新闻-新浪体育",
"channelUrl" : "http:\/\/sports.sina.com.cn\/cba\/index.shtml",
"author" : "WWW.SINA.COM.CN",
"tags" : [],
"desc" : "",
"emailed" : False,
"forwarded" : False,
"english" : False
}  , {
"index" : 4,
"articleIndex" : "47454",
"favor" :  False ,
     "read" : False,    
"title" : "媒体曝CBA体测补测:象征性掐表 队员走过场后通过",
"titleTip" : "媒体曝CBA体测补测:象征性掐表 队员走过场后通过",
"titleSummary" : "媒体曝CBA体测补测:象征性掐表 队员走过场后通过",
"descSummary" : "随着CBA各赛区季前赛的开始，为期4天的CBA统一体...",
"url" : "http:\/\/go.rss.sina.com.cn\/redirect.php?url=http:\/\/sports.sina.com.cn\/cba\/2013-10-29\/11116856593.shtml",
"pubDate" : "昨天11:11:48",
"enterDate" : "384201:12:56",
"channelId" : "1535960103577258473",
"channelName" : "CBA新闻-新浪体育",
"channelNameSummary" : "CBA新闻-新浪体育",
"channelUrl" : "http:\/\/sports.sina.com.cn\/cba\/index.shtml",
"author" : "WWW.SINA.COM.CN",
"tags" : [],
"desc" : "随着CBA各赛区季前赛的开始，为期4天的CBA统一体测已经告一段落，和去年篮协为队员们设置了10项测试项相比，今年只有4个考核项已经算得上\u201C宽容\u201D，但在体测进行的这几天里，球迷教练怨声载道，媒体高呼毫无意义，就连球迷也跟着起哄，似乎篮协又做了一件开倒车的事情。 ....",
"emailed" : False,
"forwarded" : False,
"english" : False
}  , {
"index" : 5,
"articleIndex" : "47453",
"favor" :  False ,
     "read" : False,    
"title" : "蒋兴权魔鬼训练累坏白魔兽:这是见过的最严酷训练",
"titleTip" : "蒋兴权魔鬼训练累坏白魔兽:这是见过的最严酷训练",
"titleSummary" : "蒋兴权魔鬼训练累坏白魔兽:这是见过的最严酷训练",
"descSummary" : "佛山日报 记者肖山报道：昨日上午，佛山农商银行队...",
"url" : "http:\/\/go.rss.sina.com.cn\/redirect.php?url=http:\/\/sports.sina.com.cn\/cba\/2013-10-29\/10586856575.shtml",
"pubDate" : "昨天10:58:08",
"enterDate" : "384200:59:16",
"channelId" : "1535960103577258473",
"channelName" : "CBA新闻-新浪体育",
"channelNameSummary" : "CBA新闻-新浪体育",
"channelUrl" : "http:\/\/sports.sina.com.cn\/cba\/index.shtml",
"author" : "WWW.SINA.COM.CN",
"tags" : [],
"desc" : "佛山日报 记者肖山报道：昨日上午，佛山农商银行队2013~2014CBA新赛季启动仪式在佛山恒安瑞士大酒店隆重举行。仪式上，球队新赛季阵容首次亮相。据悉，下个月佛山农商银行队开赛前两轮均为广东\u201C内战\u201D。 13名球员齐亮相 上赛季，佛山队的战绩是15胜17负，排名....",
"emailed" : False,
"forwarded" : False,
"english" : False
}  , {
"index" : 6,
"articleIndex" : "47452",
"favor" :  False ,
     "read" : False,    
"title" : "CBA已告别大牌外援时代 新赛季外援平均身价下降",
"titleTip" : "CBA已告别大牌外援时代 新赛季外援平均身价下降",
"titleSummary" : "CBA已告别大牌外援时代 新赛季外援平均身价下降",
"descSummary" : "2013-2014赛季CBA联赛下个月8日将拉开战幕，新赛...",
"url" : "http:\/\/go.rss.sina.com.cn\/redirect.php?url=http:\/\/sports.sina.com.cn\/cba\/2013-10-29\/10276856501.shtml",
"pubDate" : "昨天10:27:29",
"enterDate" : "384200:58:42",
"channelId" : "1535960103577258473",
"channelName" : "CBA新闻-新浪体育",
"channelNameSummary" : "CBA新闻-新浪体育",
"channelUrl" : "http:\/\/sports.sina.com.cn\/cba\/index.shtml",
"author" : "WWW.SINA.COM.CN",
"tags" : [],
"desc" : "2013-2014赛季CBA联赛下个月8日将拉开战幕，新赛季给广大球迷最直观的感受就是缺少了像麦蒂、阿里纳斯、JR史密斯这样的大牌外援。是中国市场对大牌的吸引力减小了？还是CBA已经不再需要靠大牌来攒人气？令球迷如痴如醉的NBA\u201C明星秀\u201D，本赛季肯定见不到了\u2015\u2015 上赛季....",
"emailed" : False,
"forwarded" : False,
"english" : False
}  , {
"index" : 7,
"articleIndex" : "47450",
"favor" :  False ,
     "read" : False,    
"title" : "遇老队友他故意做鬼脸 阿巴斯:怀念在山东的日子",
"titleTip" : "遇老队友他故意做鬼脸 阿巴斯:怀念在山东的日子",
"titleSummary" : "遇老队友他故意做鬼脸 阿巴斯:怀念在山东的日子",
"descSummary" : "在此次季前赛惠州站的比赛中，山东黄金男篮还遇到一位...",
"url" : "http:\/\/go.rss.sina.com.cn\/redirect.php?url=http:\/\/sports.sina.com.cn\/cba\/2013-10-29\/10106856456.shtml",
"pubDate" : "昨天10:10:35",
"enterDate" : "384201:11:53",
"channelId" : "1535960103577258473",
"channelName" : "CBA新闻-新浪体育",
"channelNameSummary" : "CBA新闻-新浪体育",
"channelUrl" : "http:\/\/sports.sina.com.cn\/cba\/index.shtml",
"author" : "WWW.SINA.COM.CN",
"tags" : [],
"desc" : "在此次季前赛惠州站的比赛中，山东黄金男篮还遇到一位老熟人，那就是目前正效力于天津男篮的阿巴斯。而对山东球迷，阿巴斯则表示：\u201C很怀念去年的时光，希望继续得到球迷的鼓励，我非常想念他们。\u201D 上赛季，阿巴斯作为亚洲外援加盟山东，和杰特、弗罗曼一起帮助山东男....",
"emailed" : False,
"forwarded" : False,
"english" : False
}  , {
"index" : 8,
"articleIndex" : "47449",
"favor" :  False ,
     "read" : False,    
"title" : "山东队取消台湾行今日回济 许家晗变身\u201C录像师\u201D",
"titleTip" : "山东队取消台湾行今日回济 许家晗变身\u201C录像师\u201D",
"titleSummary" : "山东队取消台湾行今日回济 许家晗变身\u201C录像师\u201D",
"descSummary" : "27日晚，在CBA季前赛惠州站的比赛中，山东黄金男...",
"url" : "http:\/\/go.rss.sina.com.cn\/redirect.php?url=http:\/\/sports.sina.com.cn\/cba\/2013-10-29\/10056856449.shtml",
"pubDate" : "昨天10:05:24",
"enterDate" : "384201:06:42",
"channelId" : "1535960103577258473",
"channelName" : "CBA新闻-新浪体育",
"channelNameSummary" : "CBA新闻-新浪体育",
"channelUrl" : "http:\/\/sports.sina.com.cn\/cba\/index.shtml",
"author" : "WWW.SINA.COM.CN",
"tags" : [],
"desc" : "27日晚，在CBA季前赛惠州站的比赛中，山东黄金男篮迎来了最后一个对手广东东莞银行，这也是上赛季总决赛的重演。最终山东男篮77：85不敌对手，本次季前赛取得两胜一负的战绩。赴宝岛台湾参加海峡杯的计划临时取消，黄金男篮将于28日返回济南备战CBA新赛季。 大巴车上的....",
"emailed" : False,
"forwarded" : False,
"english" : False
}  , {
"index" : 9,
"articleIndex" : "47448",
"favor" :  False ,
     "read" : False,    
"title" : "浙大男篮学霸阵容:高考超600分 球员有硕士和博士",
"titleTip" : "浙大男篮学霸阵容:高考超600分 球员有硕士和博士",
"titleSummary" : "浙大男篮学霸阵容:高考超600分 球员有硕士和博士",
"descSummary" : "2013赛季浙江省大学生篮球联赛甲组的赛程，已经进...",
"url" : "http:\/\/go.rss.sina.com.cn\/redirect.php?url=http:\/\/sports.sina.com.cn\/cba\/2013-10-29\/10006856440.shtml",
"pubDate" : "昨天10:00:42",
"enterDate" : "384200:31:55",
"channelId" : "1535960103577258473",
"channelName" : "CBA新闻-新浪体育",
"channelNameSummary" : "CBA新闻-新浪体育",
"channelUrl" : "http:\/\/sports.sina.com.cn\/cba\/index.shtml",
"author" : "WWW.SINA.COM.CN",
"tags" : [],
"desc" : "2013赛季浙江省大学生篮球联赛甲组的赛程，已经进入一场定胜负的1\/8决赛阶段。昨天下午浙江大学对杭州师范大学的比赛打到第四节最后4分钟，球场上出现了一个不易令人察觉的细节。已经以73-39遥遥领先的浙大队换人，15号张嘉骐换下4号张骋，这是控卫换控卫，也是硕士换硕士\u2015\u2015....",
"emailed" : False,
"forwarded" : False,
"english" : False
}  , {
"index" : 10,
"articleIndex" : "47447",
"favor" :  False ,
     "read" : False,    
"title" : "哈达迪受伤骨头大无碍 中国篮协首席医生亲自治疗",
"titleTip" : "哈达迪受伤骨头大无碍 中国篮协首席医生亲自治疗",
"titleSummary" : "哈达迪受伤骨头大无碍 中国篮协首席医生亲自治疗",
"descSummary" : "华西都市报：经过核磁共振与X光照片的双重检查，哈...",
"url" : "http:\/\/go.rss.sina.com.cn\/redirect.php?url=http:\/\/sports.sina.com.cn\/cba\/2013-10-29\/09496856424.shtml",
"pubDate" : "昨天09:49:40",
"enterDate" : "384200:50:58",
"channelId" : "1535960103577258473",
"channelName" : "CBA新闻-新浪体育",
"channelNameSummary" : "CBA新闻-新浪体育",
"channelUrl" : "http:\/\/sports.sina.com.cn\/cba\/index.shtml",
"author" : "WWW.SINA.COM.CN",
"tags" : [],
"desc" : "华西都市报：经过核磁共振与X光照片的双重检查，哈达迪的脚伤有了一个较为明晰的结果：没有骨折，只是距骨骨挫伤。而为让这位川男篮强援赶上主场揭幕战，俱乐部已于昨日送哈达迪进京求医。 昨日，本报独家披露了哈达迪的伤情：距骨骨挫伤，或将休战3至6周。在CBA联赛转....",
"emailed" : False,
"forwarded" : False,
"english" : False
}  , {
"index" : 11,
"articleIndex" : "47446",
"favor" :  False ,
     "read" : False,    
"title" : "美国媒体曝广东确定小外援 签下76人季前赛2号位",
"titleTip" : "美国媒体曝广东确定小外援 签下76人季前赛2号位",
"titleSummary" : "美国媒体曝广东确定小外援 签下76人季前赛2号位",
"descSummary" : "北京时间10月29日，来自美国《RealGM》的消息，今年...",
"url" : "http:\/\/go.rss.sina.com.cn\/redirect.php?url=http:\/\/sports.sina.com.cn\/cba\/2013-10-29\/08376856255.shtml",
"pubDate" : "昨天08:37:00",
"enterDate" : "384201:08:33",
"channelId" : "1535960103577258473",
"channelName" : "CBA新闻-新浪体育",
"channelNameSummary" : "CBA新闻-新浪体育",
"channelUrl" : "http:\/\/sports.sina.com.cn\/cba\/index.shtml",
"author" : "WWW.SINA.COM.CN",
"tags" : [],
"desc" : "北京时间10月29日，来自美国《RealGM》的消息，今年夏天代表费城76人队打季前赛的卡里夫-怀艾特已经和广东队签订一年合同。 怀艾特身高1米93，今年22岁，在球场出任得分后卫。在NBA季前赛场均拿下4.3分和1.0助攻，在大学时期怀艾特场均可以拿下20.5分和4.0助攻。 ....",
"emailed" : False,
"forwarded" : False,
"english" : False
}  , {
"index" : 12,
"articleIndex" : "47451",
"favor" :  False ,
     "read" : False,    
"title" : "四川总经理:为哈达迪配置五星级酒店+特制床+专车",
"titleTip" : "四川总经理:为哈达迪配置五星级酒店+特制床+专车",
"titleSummary" : "四川总经理:为哈达迪配置五星级酒店+特制床+专车",
"descSummary" : "本报讯（记者郭超豪）尽管名气不如麦迪、马布里等前...",
"url" : "http:\/\/go.rss.sina.com.cn\/redirect.php?url=http:\/\/sports.sina.com.cn\/cba\/2013-10-29\/06506856071.shtml",
"pubDate" : "昨天06:50:07",
"enterDate" : "384197:21:20",
"channelId" : "1535960103577258473",
"channelName" : "CBA新闻-新浪体育",
"channelNameSummary" : "CBA新闻-新浪体育",
"channelUrl" : "http:\/\/sports.sina.com.cn\/cba\/index.shtml",
"author" : "WWW.SINA.COM.CN",
"tags" : [],
"desc" : "本报讯（记者郭超豪）尽管名气不如麦迪、马布里等前NBA巨星，身为当今亚洲篮球\u201C第一人\u201D，刚刚加盟四川男篮的哈达迪也不好\u201C伺候\u201D。一次意外受伤，让伊朗中锋铁定错过CBA揭幕战，也令\u201C升班马\u201D四川队吃足了苦头。 上周六，哈达迪在季前赛中不慎受伤，被立即送往四川....",
"emailed" : False,
"forwarded" : False,
"english" : False
}  , {
"index" : 13,
"articleIndex" : "47445",
"favor" :  False ,
     "read" : False,    
"title" : "女篮1米97新人看到陈楠身影 未来或是亚洲第一中锋",
"titleTip" : "女篮1米97新人看到陈楠身影 未来或是亚洲第一中锋",
"titleSummary" : "女篮1米97新人看到陈楠身影 未来或是亚洲第一中锋",
"descSummary" : "北京时间10月28日，女篮亚锦赛第二日的比赛，中国...",
"url" : "http:\/\/go.rss.sina.com.cn\/redirect.php?url=http:\/\/sports.sina.com.cn\/cba\/2013-10-28\/19206855576.shtml",
"pubDate" : "前天19:20:22",
"enterDate" : "384199:23:49",
"channelId" : "1535960103577258473",
"channelName" : "CBA新闻-新浪体育",
"channelNameSummary" : "CBA新闻-新浪体育",
"channelUrl" : "http:\/\/sports.sina.com.cn\/cba\/index.shtml",
"author" : "WWW.SINA.COM.CN",
"tags" : [],
"desc" : "北京时间10月28日，女篮亚锦赛第二日的比赛，中国队以103-62大比分击败哈萨克斯坦队，来自WCBA[微博]八一队的小将孙梦然[微博]在这场比赛中表现出色，上场17分33秒，得到10分5个篮板，从她扎实的脚步动作中已依稀能看见陈楠[微博]的身影。 如果说昨天的比赛中给球迷最....",
"emailed" : False,
"forwarded" : False,
"english" : False
}  , {
"index" : 14,
"articleIndex" : "47444",
"favor" :  False ,
     "read" : False,    
"title" : "WCBA第一杀器找到手感 女篮要夺冠必须让她开火",
"titleTip" : "WCBA第一杀器找到手感 女篮要夺冠必须让她开火",
"titleSummary" : "WCBA第一杀器找到手感 女篮要夺冠必须让她开火",
"descSummary" : "北京时间10月28日，第25届女篮亚锦赛的第二场比赛...",
"url" : "http:\/\/go.rss.sina.com.cn\/redirect.php?url=http:\/\/sports.sina.com.cn\/cba\/2013-10-28\/18536855557.shtml",
"pubDate" : "前天18:53:43",
"enterDate" : "384200:57:34",
"channelId" : "1535960103577258473",
"channelName" : "CBA新闻-新浪体育",
"channelNameSummary" : "CBA新闻-新浪体育",
"channelUrl" : "http:\/\/sports.sina.com.cn\/cba\/index.shtml",
"author" : "WWW.SINA.COM.CN",
"tags" : [],
"desc" : "北京时间10月28日，第25届女篮亚锦赛的第二场比赛，中国队以103-62大比分击败哈萨克斯坦队，纪妍妍[微博]在本场比赛中获得18分41秒的出场时间，得到14分2助攻，两场比赛下来纪妍妍一共只获得了30分钟的上场时间，\u201C最近进苗立杰[微博]\u201D的人在本届亚锦赛里却并不怎么受重用。....",
"emailed" : False,
"forwarded" : False,
"english" : False
}  , {
"index" : 15,
"articleIndex" : "47443",
"favor" :  False ,
     "read" : False,    
"title" : "哈达迪赴京查看脚踝伤势 四川队确认将缺席揭幕战",
"titleTip" : "哈达迪赴京查看脚踝伤势 四川队确认将缺席揭幕战",
"titleSummary" : "哈达迪赴京查看脚踝伤势 四川队确认将缺席揭幕战",
"descSummary" : "北京时间10月28日消息，哈达迪在季前赛中扭伤脚踝...",
"url" : "http:\/\/go.rss.sina.com.cn\/redirect.php?url=http:\/\/sports.sina.com.cn\/cba\/2013-10-28\/17506855516.shtml",
"pubDate" : "前天17:50:59",
"enterDate" : "384200:55:02",
"channelId" : "1535960103577258473",
"channelName" : "CBA新闻-新浪体育",
"channelNameSummary" : "CBA新闻-新浪体育",
"channelUrl" : "http:\/\/sports.sina.com.cn\/cba\/index.shtml",
"author" : "WWW.SINA.COM.CN",
"tags" : [],
"desc" : "北京时间10月28日消息，哈达迪在季前赛中扭伤脚踝之后，他的伤势成为了大家关注的焦点。今天中午，哈达迪从四川乘坐飞机前往北京，重新检查他的伤势情况。 哈达迪是在第二场比赛对阵辽宁队时受伤的，第二节他在落地过程中踩到对方的脚上扭伤了脚踝，比赛过程中就被送往....",
"emailed" : False,
"forwarded" : False,
"english" : False
}  , {
"index" : 16,
"articleIndex" : "47442",
"favor" :  False ,
     "read" : False,    
"title" : "北京夺冠功臣自曝将打NBL 待退役之后再回北京队",
"titleTip" : "北京夺冠功臣自曝将打NBL 待退役之后再回北京队",
"titleSummary" : "北京夺冠功臣自曝将打NBL 待退役之后再回北京队",
"descSummary" : "法制晚报讯(记者 邵化谦)打不了CBA[微博]，28岁的解...",
"url" : "http:\/\/go.rss.sina.com.cn\/redirect.php?url=http:\/\/sports.sina.com.cn\/cba\/2013-10-28\/16376855437.shtml",
"pubDate" : "前天16:37:50",
"enterDate" : "384200:42:03",
"channelId" : "1535960103577258473",
"channelName" : "CBA新闻-新浪体育",
"channelNameSummary" : "CBA新闻-新浪体育",
"channelUrl" : "http:\/\/sports.sina.com.cn\/cba\/index.shtml",
"author" : "WWW.SINA.COM.CN",
"tags" : [],
"desc" : "法制晚报讯(记者 邵化谦)打不了CBA[微博]，28岁的解立彬[微博]想去NBL试试身手。&#160;&#160;&#160;&#160; 昨晚，\u201C红牛城市传奇篮球争霸赛\u201D总决赛在北京开战，记者在比赛现场见到了广州队的主教练、前北京首钢男篮后卫解立彬。 解立彬告诉记者，虽然今年没能....",
"emailed" : False,
"forwarded" : False,
"english" : False
}  , {
"index" : 17,
"articleIndex" : "47441",
"favor" :  False ,
     "read" : False,    
"title" : "季前赛让亚洲第一中锋彻底清醒:曾经我以为很轻松",
"titleTip" : "季前赛让亚洲第一中锋彻底清醒:曾经我以为很轻松",
"titleSummary" : "季前赛让亚洲第一中锋彻底清醒:曾经我以为很轻松",
"descSummary" : "记者陈月泽成都报道 距离广东宏远[微博]和四川金强的...",
"url" : "http:\/\/go.rss.sina.com.cn\/redirect.php?url=http:\/\/sports.sina.com.cn\/cba\/2013-10-28\/16086855413.shtml",
"pubDate" : "前天16:08:14",
"enterDate" : "384201:12:36",
"channelId" : "1535960103577258473",
"channelName" : "CBA新闻-新浪体育",
"channelNameSummary" : "CBA新闻-新浪体育",
"channelUrl" : "http:\/\/sports.sina.com.cn\/cba\/index.shtml",
"author" : "WWW.SINA.COM.CN",
"tags" : [],
"desc" : "记者陈月泽成都报道 距离广东宏远[微博]和四川金强的CBA[微博]揭幕战只有10天，但易建联[微博]与哈达迪的亚洲巅峰内线之争，却要打上一个问号。在10月26日季前赛中意外受伤的哈达迪，很大可能赶不上揭幕战了。 10月27日一早，哈达迪接受了核磁共振检查，结果显....",
"emailed" : False,
"forwarded" : False,
"english" : False
}  , {
"index" : 18,
"articleIndex" : "47440",
"favor" :  False ,
     "read" : False,    
"title" : "2米20大个其实并不冷 训练中爱开玩笑干扰队友罚篮",
"titleTip" : "2米20大个其实并不冷 训练中爱开玩笑干扰队友罚篮",
"titleSummary" : "2米20大个其实并不冷 训练中爱开玩笑干扰队友罚篮",
"descSummary" : "记者陈月泽成都报道 虽然刚刚来到CBA[微博]，哈达...",
"url" : "http:\/\/go.rss.sina.com.cn\/redirect.php?url=http:\/\/sports.sina.com.cn\/cba\/2013-10-28\/16006855401.shtml",
"pubDate" : "前天16:00:10",
"enterDate" : "384199:34:17",
"channelId" : "1535960103577258473",
"channelName" : "CBA新闻-新浪体育",
"channelNameSummary" : "CBA新闻-新浪体育",
"channelUrl" : "http:\/\/sports.sina.com.cn\/cba\/index.shtml",
"author" : "WWW.SINA.COM.CN",
"tags" : [],
"desc" : "记者陈月泽成都报道 虽然刚刚来到CBA[微博]，哈达迪无论在哪里都一直保持着谦虚低调的状态，可平时的生活中，他身上的\u201C孩子气\u201D总是时不时地显露出来。 在四川队训练基地的赛前日常训练中，哈达迪很好地诠释了\u201C团结紧张，严肃活泼\u201D的含义。在主教练普拉达布....",
"emailed" : False,
"forwarded" : False,
"english" : False
}  , {
"index" : 19,
"articleIndex" : "47439",
"favor" :  False ,
     "read" : False,    
"title" : "俱乐部回应哈达迪抱怨 四川：曾派专人为他买披萨",
"titleTip" : "俱乐部回应哈达迪抱怨 四川：曾派专人为他买披萨",
"titleSummary" : "俱乐部回应哈达迪抱怨 四川：曾派专人为他买披萨",
"descSummary" : "记者陈月泽成都报道虽然网络上近日爆出了哈达迪在意...",
"url" : "http:\/\/go.rss.sina.com.cn\/redirect.php?url=http:\/\/sports.sina.com.cn\/cba\/2013-10-28\/15296855372.shtml",
"pubDate" : "前天15:29:49",
"enterDate" : "384200:34:11",
"channelId" : "1535960103577258473",
"channelName" : "CBA新闻-新浪体育",
"channelNameSummary" : "CBA新闻-新浪体育",
"channelUrl" : "http:\/\/sports.sina.com.cn\/cba\/index.shtml",
"author" : "WWW.SINA.COM.CN",
"tags" : [],
"desc" : "记者陈月泽成都报道虽然网络上近日爆出了哈达迪在意外受伤之后，情绪激动地抱怨球队对自己照顾不周的传闻，但四川金强方面则强调，对于哈达迪的生活起居，俱乐部一直给予了高度的重视。 \u201C要想让他更好地融入球队，踏踏实实地安下心来为球队打球，帮助他尽快地适应生活....",
"emailed" : False,
"forwarded" : False,
"english" : False
} ]
}
