{
"mode" : {"viewTitle" : 1,   "viewNew" : 0,  "pageIndex" : 1 },
 "channel" : {"id" : "7793128217951905408", "booked" : False, "subNumber" : 1, "name" : "市场信息-新浪汽车", "url" : "http:\/\/auto.sina.com.cn\/sales\/index.shtml", "feed" : "http:\/\/rss.sina.com.cn\/auto\/sales\/index.xml", "author" : "WWW.SINA.COM.CN", "desc" : "市场信息-要闻列表", "imageUrl" : "http:\/\/www.sinaimg.cn\/dy\/auto\/index\/topbar_03.gif", "postPerWeek" : "0", "lastCrawTime" : "17:18:40", "crawDateTime" : "17:18:40", "lastHttpCode" : "200"}, "page" : {
"startIndex" : 0,
"totalCount" : 5000,
"pageIndex" : 1,
"lastPage" : 250,
"pageSize" : 20,
"english" :  False },
 "unreadNum" : 0, "shotIndex" : -1,
"articles" : [
{
"index" : 0,
"articleIndex" : "28109",
"favor" :  False ,
     "read" : False,    
"title" : "广汽三菱劲炫ASX最高现金优惠20000元",
"titleTip" : "广汽三菱劲炫ASX最高现金优惠20000元",
"titleSummary" : "广汽三菱劲炫ASX最高现金优惠20000元",
"descSummary" : "",
"url" : "http:\/\/go.rss.sina.com.cn\/redirect.php?url=http:\/\/auto.sina.com.cn\/car\/2013-10-30\/16491241643.shtml",
"pubDate" : "16:49:14",
"enterDate" : "384200:50:23",
"channelId" : "7793128217951905408",
"channelName" : "市场信息-新浪汽车",
"channelNameSummary" : "市场信息-新浪汽车",
"channelUrl" : "http:\/\/auto.sina.com.cn\/sales\/index.shtml",
"author" : "WWW.SINA.COM.CN",
"tags" : [],
"desc" : "",
"emailed" : False,
"forwarded" : False,
"english" : False
}  , {
"index" : 1,
"articleIndex" : "28108",
"favor" :  False ,
     "read" : False,    
"title" : "大众辉腾最高现金优惠37.28万 有现车",
"titleTip" : "大众辉腾最高现金优惠37.28万 有现车",
"titleSummary" : "大众辉腾最高现金优惠37.28万 有现车",
"descSummary" : "",
"url" : "http:\/\/go.rss.sina.com.cn\/redirect.php?url=http:\/\/auto.sina.com.cn\/car\/2013-10-30\/16491241642.shtml",
"pubDate" : "16:49:12",
"enterDate" : "384200:50:21",
"channelId" : "7793128217951905408",
"channelName" : "市场信息-新浪汽车",
"channelNameSummary" : "市场信息-新浪汽车",
"channelUrl" : "http:\/\/auto.sina.com.cn\/sales\/index.shtml",
"author" : "WWW.SINA.COM.CN",
"tags" : [],
"desc" : "",
"emailed" : False,
"forwarded" : False,
"english" : False
}  , {
"index" : 2,
"articleIndex" : "28107",
"favor" :  False ,
     "read" : False,    
"title" : "奇瑞瑞虎最高优惠1.2万 最低仅7.78万",
"titleTip" : "奇瑞瑞虎最高优惠1.2万 最低仅7.78万",
"titleSummary" : "奇瑞瑞虎最高优惠1.2万 最低仅7.78万",
"descSummary" : "",
"url" : "http:\/\/go.rss.sina.com.cn\/redirect.php?url=http:\/\/auto.sina.com.cn\/car\/2013-10-30\/15541241635.shtml",
"pubDate" : "15:54:18",
"enterDate" : "384199:55:27",
"channelId" : "7793128217951905408",
"channelName" : "市场信息-新浪汽车",
"channelNameSummary" : "市场信息-新浪汽车",
"channelUrl" : "http:\/\/auto.sina.com.cn\/sales\/index.shtml",
"author" : "WWW.SINA.COM.CN",
"tags" : [],
"desc" : "",
"emailed" : False,
"forwarded" : False,
"english" : False
}  , {
"index" : 3,
"articleIndex" : "28106",
"favor" :  False ,
     "read" : False,    
"title" : "银川本田思铂睿最后2天钜惠35000",
"titleTip" : "银川本田思铂睿最后2天钜惠35000",
"titleSummary" : "银川本田思铂睿最后2天钜惠35000",
"descSummary" : "",
"url" : "http:\/\/go.rss.sina.com.cn\/redirect.php?url=http:\/\/auto.sina.com.cn\/car\/2013-10-30\/15241241633.shtml",
"pubDate" : "15:24:12",
"enterDate" : "384199:25:21",
"channelId" : "7793128217951905408",
"channelName" : "市场信息-新浪汽车",
"channelNameSummary" : "市场信息-新浪汽车",
"channelUrl" : "http:\/\/auto.sina.com.cn\/sales\/index.shtml",
"author" : "WWW.SINA.COM.CN",
"tags" : [],
"desc" : "",
"emailed" : False,
"forwarded" : False,
"english" : False
}  , {
"index" : 4,
"articleIndex" : "28104",
"favor" :  False ,
     "read" : False,    
"title" : "宝马5系优惠4万元 部分车型需预订",
"titleTip" : "宝马5系优惠4万元 部分车型需预订",
"titleSummary" : "宝马5系优惠4万元 部分车型需预订",
"descSummary" : "",
"url" : "http:\/\/go.rss.sina.com.cn\/redirect.php?url=http:\/\/auto.sina.com.cn\/car\/2013-10-30\/14541241609.shtml",
"pubDate" : "14:54:20",
"enterDate" : "384200:56:04",
"channelId" : "7793128217951905408",
"channelName" : "市场信息-新浪汽车",
"channelNameSummary" : "市场信息-新浪汽车",
"channelUrl" : "http:\/\/auto.sina.com.cn\/sales\/index.shtml",
"author" : "WWW.SINA.COM.CN",
"tags" : [],
"desc" : "",
"emailed" : False,
"forwarded" : False,
"english" : False
}  , {
"index" : 5,
"articleIndex" : "28103",
"favor" :  False ,
     "read" : False,    
"title" : "贵阳购沃尔沃XC90最高优惠9万",
"titleTip" : "贵阳购沃尔沃XC90最高优惠9万",
"titleSummary" : "贵阳购沃尔沃XC90最高优惠9万",
"descSummary" : "",
"url" : "http:\/\/go.rss.sina.com.cn\/redirect.php?url=http:\/\/auto.sina.com.cn\/car\/2013-10-30\/14541241608.shtml",
"pubDate" : "14:54:13",
"enterDate" : "384200:55:57",
"channelId" : "7793128217951905408",
"channelName" : "市场信息-新浪汽车",
"channelNameSummary" : "市场信息-新浪汽车",
"channelUrl" : "http:\/\/auto.sina.com.cn\/sales\/index.shtml",
"author" : "WWW.SINA.COM.CN",
"tags" : [],
"desc" : "",
"emailed" : False,
"forwarded" : False,
"english" : False
}  , {
"index" : 6,
"articleIndex" : "28102",
"favor" :  False ,
     "read" : False,    
"title" : "东风轩逸购车优惠6000元 店内现车销售",
"titleTip" : "东风轩逸购车优惠6000元 店内现车销售",
"titleSummary" : "东风轩逸购车优惠6000元 店内现车销售",
"descSummary" : "",
"url" : "http:\/\/go.rss.sina.com.cn\/redirect.php?url=http:\/\/auto.sina.com.cn\/car\/2013-10-30\/14491241607.shtml",
"pubDate" : "14:49:17",
"enterDate" : "384200:51:01",
"channelId" : "7793128217951905408",
"channelName" : "市场信息-新浪汽车",
"channelNameSummary" : "市场信息-新浪汽车",
"channelUrl" : "http:\/\/auto.sina.com.cn\/sales\/index.shtml",
"author" : "WWW.SINA.COM.CN",
"tags" : [],
"desc" : "",
"emailed" : False,
"forwarded" : False,
"english" : False
}  , {
"index" : 7,
"articleIndex" : "28101",
"favor" :  False ,
     "read" : False,    
"title" : "贵阳购沃尔沃S80L可享8.6折优惠 限量两台",
"titleTip" : "贵阳购沃尔沃S80L可享8.6折优惠 限量两台",
"titleSummary" : "贵阳购沃尔沃S80L可享8.6折优惠 限量两台",
"descSummary" : "",
"url" : "http:\/\/go.rss.sina.com.cn\/redirect.php?url=http:\/\/auto.sina.com.cn\/car\/2013-10-30\/14491241606.shtml",
"pubDate" : "14:49:13",
"enterDate" : "384200:50:57",
"channelId" : "7793128217951905408",
"channelName" : "市场信息-新浪汽车",
"channelNameSummary" : "市场信息-新浪汽车",
"channelUrl" : "http:\/\/auto.sina.com.cn\/sales\/index.shtml",
"author" : "WWW.SINA.COM.CN",
"tags" : [],
"desc" : "",
"emailed" : False,
"forwarded" : False,
"english" : False
}  , {
"index" : 8,
"articleIndex" : "28100",
"favor" :  False ,
     "read" : False,    
"title" : "奔驰C级店内现车在售 最高优惠10万元",
"titleTip" : "奔驰C级店内现车在售 最高优惠10万元",
"titleSummary" : "奔驰C级店内现车在售 最高优惠10万元",
"descSummary" : "",
"url" : "http:\/\/go.rss.sina.com.cn\/redirect.php?url=http:\/\/auto.sina.com.cn\/car\/2013-10-30\/14391241601.shtml",
"pubDate" : "14:39:27",
"enterDate" : "384200:41:11",
"channelId" : "7793128217951905408",
"channelName" : "市场信息-新浪汽车",
"channelNameSummary" : "市场信息-新浪汽车",
"channelUrl" : "http:\/\/auto.sina.com.cn\/sales\/index.shtml",
"author" : "WWW.SINA.COM.CN",
"tags" : [],
"desc" : "",
"emailed" : False,
"forwarded" : False,
"english" : False
}  , {
"index" : 9,
"articleIndex" : "28099",
"favor" :  False ,
     "read" : False,    
"title" : "翼神最高现金优惠2万元 现车充足",
"titleTip" : "翼神最高现金优惠2万元 现车充足",
"titleSummary" : "翼神最高现金优惠2万元 现车充足",
"descSummary" : "",
"url" : "http:\/\/go.rss.sina.com.cn\/redirect.php?url=http:\/\/auto.sina.com.cn\/car\/2013-10-30\/14391241600.shtml",
"pubDate" : "14:39:20",
"enterDate" : "384200:41:04",
"channelId" : "7793128217951905408",
"channelName" : "市场信息-新浪汽车",
"channelNameSummary" : "市场信息-新浪汽车",
"channelUrl" : "http:\/\/auto.sina.com.cn\/sales\/index.shtml",
"author" : "WWW.SINA.COM.CN",
"tags" : [],
"desc" : "",
"emailed" : False,
"forwarded" : False,
"english" : False
}  , {
"index" : 10,
"articleIndex" : "28098",
"favor" :  False ,
     "read" : False,    
"title" : "贵阳购东风悦达起亚秀尔最高现金优惠1.4万元",
"titleTip" : "贵阳购东风悦达起亚秀尔最高现金优惠1.4万元",
"titleSummary" : "贵阳购东风悦达起亚秀尔最高现金优惠1.4万元",
"descSummary" : "",
"url" : "http:\/\/go.rss.sina.com.cn\/redirect.php?url=http:\/\/auto.sina.com.cn\/car\/2013-10-30\/14341241599.shtml",
"pubDate" : "14:34:13",
"enterDate" : "384200:35:57",
"channelId" : "7793128217951905408",
"channelName" : "市场信息-新浪汽车",
"channelNameSummary" : "市场信息-新浪汽车",
"channelUrl" : "http:\/\/auto.sina.com.cn\/sales\/index.shtml",
"author" : "WWW.SINA.COM.CN",
"tags" : [],
"desc" : "",
"emailed" : False,
"forwarded" : False,
"english" : False
}  , {
"index" : 11,
"articleIndex" : "28097",
"favor" :  False ,
     "read" : False,    
"title" : "进口大众甲壳虫购车部分优惠3万元",
"titleTip" : "进口大众甲壳虫购车部分优惠3万元",
"titleSummary" : "进口大众甲壳虫购车部分优惠3万元",
"descSummary" : "",
"url" : "http:\/\/go.rss.sina.com.cn\/redirect.php?url=http:\/\/auto.sina.com.cn\/car\/2013-10-30\/14291241598.shtml",
"pubDate" : "14:29:09",
"enterDate" : "384200:30:53",
"channelId" : "7793128217951905408",
"channelName" : "市场信息-新浪汽车",
"channelNameSummary" : "市场信息-新浪汽车",
"channelUrl" : "http:\/\/auto.sina.com.cn\/sales\/index.shtml",
"author" : "WWW.SINA.COM.CN",
"tags" : [],
"desc" : "",
"emailed" : False,
"forwarded" : False,
"english" : False
}  , {
"index" : 12,
"articleIndex" : "28096",
"favor" :  False ,
     "read" : False,    
"title" : "甲壳虫最高优惠4万元 少量现车",
"titleTip" : "甲壳虫最高优惠4万元 少量现车",
"titleSummary" : "甲壳虫最高优惠4万元 少量现车",
"descSummary" : "",
"url" : "http:\/\/go.rss.sina.com.cn\/redirect.php?url=http:\/\/auto.sina.com.cn\/car\/2013-10-30\/14291241597.shtml",
"pubDate" : "14:29:08",
"enterDate" : "384200:30:52",
"channelId" : "7793128217951905408",
"channelName" : "市场信息-新浪汽车",
"channelNameSummary" : "市场信息-新浪汽车",
"channelUrl" : "http:\/\/auto.sina.com.cn\/sales\/index.shtml",
"author" : "WWW.SINA.COM.CN",
"tags" : [],
"desc" : "",
"emailed" : False,
"forwarded" : False,
"english" : False
}  , {
"index" : 13,
"articleIndex" : "28095",
"favor" :  False ,
     "read" : False,    
"title" : "贵阳购新宝来可享贴息4500元 送3000元保险",
"titleTip" : "贵阳购新宝来可享贴息4500元 送3000元保险",
"titleSummary" : "贵阳购新宝来可享贴息4500元 送3000元保险",
"descSummary" : "",
"url" : "http:\/\/go.rss.sina.com.cn\/redirect.php?url=http:\/\/auto.sina.com.cn\/car\/2013-10-30\/14191241596.shtml",
"pubDate" : "14:19:24",
"enterDate" : "384200:21:08",
"channelId" : "7793128217951905408",
"channelName" : "市场信息-新浪汽车",
"channelNameSummary" : "市场信息-新浪汽车",
"channelUrl" : "http:\/\/auto.sina.com.cn\/sales\/index.shtml",
"author" : "WWW.SINA.COM.CN",
"tags" : [],
"desc" : "",
"emailed" : False,
"forwarded" : False,
"english" : False
}  , {
"index" : 14,
"articleIndex" : "28094",
"favor" :  False ,
     "read" : False,    
"title" : "贵阳购新捷达贴息并送6000元保险",
"titleTip" : "贵阳购新捷达贴息并送6000元保险",
"titleSummary" : "贵阳购新捷达贴息并送6000元保险",
"descSummary" : "",
"url" : "http:\/\/go.rss.sina.com.cn\/redirect.php?url=http:\/\/auto.sina.com.cn\/car\/2013-10-30\/14141241595.shtml",
"pubDate" : "14:14:15",
"enterDate" : "384200:15:59",
"channelId" : "7793128217951905408",
"channelName" : "市场信息-新浪汽车",
"channelNameSummary" : "市场信息-新浪汽车",
"channelUrl" : "http:\/\/auto.sina.com.cn\/sales\/index.shtml",
"author" : "WWW.SINA.COM.CN",
"tags" : [],
"desc" : "",
"emailed" : False,
"forwarded" : False,
"english" : False
}  , {
"index" : 15,
"articleIndex" : "28093",
"favor" :  False ,
     "read" : False,    
"title" : "主流掀背车大比拼 科鲁兹彰显绝对实力",
"titleTip" : "主流掀背车大比拼 科鲁兹彰显绝对实力",
"titleSummary" : "主流掀背车大比拼 科鲁兹彰显绝对实力",
"descSummary" : "",
"url" : "http:\/\/go.rss.sina.com.cn\/redirect.php?url=http:\/\/auto.sina.com.cn\/car\/2013-10-30\/14141241594.shtml",
"pubDate" : "14:14:12",
"enterDate" : "384200:15:56",
"channelId" : "7793128217951905408",
"channelName" : "市场信息-新浪汽车",
"channelNameSummary" : "市场信息-新浪汽车",
"channelUrl" : "http:\/\/auto.sina.com.cn\/sales\/index.shtml",
"author" : "WWW.SINA.COM.CN",
"tags" : [],
"desc" : "",
"emailed" : False,
"forwarded" : False,
"english" : False
}  , {
"index" : 16,
"articleIndex" : "28092",
"favor" :  False ,
     "read" : False,    
"title" : "帕萨特最高优惠1.1万元 天津现车供应中",
"titleTip" : "帕萨特最高优惠1.1万元 天津现车供应中",
"titleSummary" : "帕萨特最高优惠1.1万元 天津现车供应中",
"descSummary" : "",
"url" : "http:\/\/go.rss.sina.com.cn\/redirect.php?url=http:\/\/auto.sina.com.cn\/car\/2013-10-30\/14041241593.shtml",
"pubDate" : "14:04:22",
"enterDate" : "384200:06:06",
"channelId" : "7793128217951905408",
"channelName" : "市场信息-新浪汽车",
"channelNameSummary" : "市场信息-新浪汽车",
"channelUrl" : "http:\/\/auto.sina.com.cn\/sales\/index.shtml",
"author" : "WWW.SINA.COM.CN",
"tags" : [],
"desc" : "",
"emailed" : False,
"forwarded" : False,
"english" : False
}  , {
"index" : 17,
"articleIndex" : "28091",
"favor" :  False ,
     "read" : False,    
"title" : "丰田凯美瑞现车充足 最高优惠2.3万元",
"titleTip" : "丰田凯美瑞现车充足 最高优惠2.3万元",
"titleSummary" : "丰田凯美瑞现车充足 最高优惠2.3万元",
"descSummary" : "",
"url" : "http:\/\/go.rss.sina.com.cn\/redirect.php?url=http:\/\/auto.sina.com.cn\/car\/2013-10-30\/14041241592.shtml",
"pubDate" : "14:04:20",
"enterDate" : "384200:06:04",
"channelId" : "7793128217951905408",
"channelName" : "市场信息-新浪汽车",
"channelNameSummary" : "市场信息-新浪汽车",
"channelUrl" : "http:\/\/auto.sina.com.cn\/sales\/index.shtml",
"author" : "WWW.SINA.COM.CN",
"tags" : [],
"desc" : "",
"emailed" : False,
"forwarded" : False,
"english" : False
}  , {
"index" : 18,
"articleIndex" : "28090",
"favor" :  False ,
     "read" : False,    
"title" : "一汽大众宝来最高优惠8000元 现车供应中",
"titleTip" : "一汽大众宝来最高优惠8000元 现车供应中",
"titleSummary" : "一汽大众宝来最高优惠8000元 现车供应中",
"descSummary" : "",
"url" : "http:\/\/go.rss.sina.com.cn\/redirect.php?url=http:\/\/auto.sina.com.cn\/car\/2013-10-30\/13491241586.shtml",
"pubDate" : "13:49:20",
"enterDate" : "384199:51:04",
"channelId" : "7793128217951905408",
"channelName" : "市场信息-新浪汽车",
"channelNameSummary" : "市场信息-新浪汽车",
"channelUrl" : "http:\/\/auto.sina.com.cn\/sales\/index.shtml",
"author" : "WWW.SINA.COM.CN",
"tags" : [],
"desc" : "",
"emailed" : False,
"forwarded" : False,
"english" : False
}  , {
"index" : 19,
"articleIndex" : "28105",
"favor" :  False ,
     "read" : False,    
"title" : "海马丘比特最高优惠0.2万 售5.19万起",
"titleTip" : "海马丘比特最高优惠0.2万 售5.19万起",
"titleSummary" : "海马丘比特最高优惠0.2万 售5.19万起",
"descSummary" : "",
"url" : "http:\/\/go.rss.sina.com.cn\/redirect.php?url=http:\/\/auto.sina.com.cn\/car\/2013-10-30\/13401241582.shtml",
"pubDate" : "13:40:07",
"enterDate" : "384197:41:16",
"channelId" : "7793128217951905408",
"channelName" : "市场信息-新浪汽车",
"channelNameSummary" : "市场信息-新浪汽车",
"channelUrl" : "http:\/\/auto.sina.com.cn\/sales\/index.shtml",
"author" : "WWW.SINA.COM.CN",
"tags" : [],
"desc" : "",
"emailed" : False,
"forwarded" : False,
"english" : False
} ]
}
