{
"mode" : {"viewTitle" : 1,   "viewNew" : 0,  "pageIndex" : 2 },
 "channel" : {"id" : "7793128217951905408", "booked" : False, "subNumber" : 1, "name" : "市场信息-新浪汽车", "url" : "http:\/\/auto.sina.com.cn\/sales\/index.shtml", "feed" : "http:\/\/rss.sina.com.cn\/auto\/sales\/index.xml", "author" : "WWW.SINA.COM.CN", "desc" : "市场信息-要闻列表", "imageUrl" : "http:\/\/www.sinaimg.cn\/dy\/auto\/index\/topbar_03.gif", "postPerWeek" : "0", "lastCrawTime" : "17:18:40", "crawDateTime" : "17:18:40", "lastHttpCode" : "200"}, "page" : {
"startIndex" : 20,
"totalCount" : 5000,
"pageIndex" : 2,
"lastPage" : 250,
"pageSize" : 20,
"english" :  False },
 "unreadNum" : 0, "shotIndex" : -1,
"articles" : [
{
"index" : 0,
"articleIndex" : "28089",
"favor" :  False ,
     "read" : False,    
"title" : "一汽丰田普拉多全系购车优惠1.5万元",
"titleTip" : "一汽丰田普拉多全系购车优惠1.5万元",
"titleSummary" : "一汽丰田普拉多全系购车优惠1.5万元",
"descSummary" : "",
"url" : "http:\/\/go.rss.sina.com.cn\/redirect.php?url=http:\/\/auto.sina.com.cn\/car\/2013-10-30\/13491241585.shtml",
"pubDate" : "13:49:09",
"enterDate" : "384199:50:53",
"channelId" : "7793128217951905408",
"channelName" : "市场信息-新浪汽车",
"channelNameSummary" : "市场信息-新浪汽车",
"channelUrl" : "http:\/\/auto.sina.com.cn\/sales\/index.shtml",
"author" : "WWW.SINA.COM.CN",
"tags" : [],
"desc" : "",
"emailed" : False,
"forwarded" : False,
"english" : False
}  , {
"index" : 1,
"articleIndex" : "28088",
"favor" :  False ,
     "read" : False,    
"title" : "马自达8最高优惠1.5万元 可到店试乘试驾",
"titleTip" : "马自达8最高优惠1.5万元 可到店试乘试驾",
"titleSummary" : "马自达8最高优惠1.5万元 可到店试乘试驾",
"descSummary" : "",
"url" : "http:\/\/go.rss.sina.com.cn\/redirect.php?url=http:\/\/auto.sina.com.cn\/car\/2013-10-30\/13441241584.shtml",
"pubDate" : "13:44:15",
"enterDate" : "384199:45:59",
"channelId" : "7793128217951905408",
"channelName" : "市场信息-新浪汽车",
"channelNameSummary" : "市场信息-新浪汽车",
"channelUrl" : "http:\/\/auto.sina.com.cn\/sales\/index.shtml",
"author" : "WWW.SINA.COM.CN",
"tags" : [],
"desc" : "",
"emailed" : False,
"forwarded" : False,
"english" : False
}  , {
"index" : 2,
"articleIndex" : "28087",
"favor" :  False ,
     "read" : False,    
"title" : "进口三菱帕杰罗 购车暂无现金优惠",
"titleTip" : "进口三菱帕杰罗 购车暂无现金优惠",
"titleSummary" : "进口三菱帕杰罗 购车暂无现金优惠",
"descSummary" : "",
"url" : "http:\/\/go.rss.sina.com.cn\/redirect.php?url=http:\/\/auto.sina.com.cn\/car\/2013-10-30\/13391241578.shtml",
"pubDate" : "13:39:16",
"enterDate" : "384199:41:00",
"channelId" : "7793128217951905408",
"channelName" : "市场信息-新浪汽车",
"channelNameSummary" : "市场信息-新浪汽车",
"channelUrl" : "http:\/\/auto.sina.com.cn\/sales\/index.shtml",
"author" : "WWW.SINA.COM.CN",
"tags" : [],
"desc" : "",
"emailed" : False,
"forwarded" : False,
"english" : False
}  , {
"index" : 3,
"articleIndex" : "28074",
"favor" :  False ,
     "read" : False,    
"title" : "悦动致尚版最高优惠2万 送3000元礼包",
"titleTip" : "悦动致尚版最高优惠2万 送3000元礼包",
"titleSummary" : "悦动致尚版最高优惠2万 送3000元礼包",
"descSummary" : "",
"url" : "http:\/\/go.rss.sina.com.cn\/redirect.php?url=http:\/\/auto.sina.com.cn\/car\/2013-10-30\/12591241559.shtml",
"pubDate" : "12:59:33",
"enterDate" : "384201:01:52",
"channelId" : "7793128217951905408",
"channelName" : "市场信息-新浪汽车",
"channelNameSummary" : "市场信息-新浪汽车",
"channelUrl" : "http:\/\/auto.sina.com.cn\/sales\/index.shtml",
"author" : "WWW.SINA.COM.CN",
"tags" : [],
"desc" : "",
"emailed" : False,
"forwarded" : False,
"english" : False
}  , {
"index" : 4,
"articleIndex" : "28075",
"favor" :  False ,
     "read" : False,    
"title" : "奔驰E级轿跑最高现金优惠8万元 少量现车",
"titleTip" : "奔驰E级轿跑最高现金优惠8万元 少量现车",
"titleSummary" : "奔驰E级轿跑最高现金优惠8万元 少量现车",
"descSummary" : "",
"url" : "http:\/\/go.rss.sina.com.cn\/redirect.php?url=http:\/\/auto.sina.com.cn\/car\/2013-10-30\/12591241560.shtml",
"pubDate" : "12:59:33",
"enterDate" : "384201:01:52",
"channelId" : "7793128217951905408",
"channelName" : "市场信息-新浪汽车",
"channelNameSummary" : "市场信息-新浪汽车",
"channelUrl" : "http:\/\/auto.sina.com.cn\/sales\/index.shtml",
"author" : "WWW.SINA.COM.CN",
"tags" : [],
"desc" : "",
"emailed" : False,
"forwarded" : False,
"english" : False
}  , {
"index" : 5,
"articleIndex" : "28076",
"favor" :  False ,
     "read" : False,    
"title" : "东风悦达起亚K5全系现金优惠2.6万元 有现车",
"titleTip" : "东风悦达起亚K5全系现金优惠2.6万元 有现车",
"titleSummary" : "东风悦达起亚K5全系现金优惠2.6万元 有现车",
"descSummary" : "",
"url" : "http:\/\/go.rss.sina.com.cn\/redirect.php?url=http:\/\/auto.sina.com.cn\/car\/2013-10-30\/12591241561.shtml",
"pubDate" : "12:59:33",
"enterDate" : "384201:01:52",
"channelId" : "7793128217951905408",
"channelName" : "市场信息-新浪汽车",
"channelNameSummary" : "市场信息-新浪汽车",
"channelUrl" : "http:\/\/auto.sina.com.cn\/sales\/index.shtml",
"author" : "WWW.SINA.COM.CN",
"tags" : [],
"desc" : "",
"emailed" : False,
"forwarded" : False,
"english" : False
}  , {
"index" : 6,
"articleIndex" : "28077",
"favor" :  False ,
     "read" : False,    
"title" : "经典福克斯全系优惠0.8万 送5000元礼包",
"titleTip" : "经典福克斯全系优惠0.8万 送5000元礼包",
"titleSummary" : "经典福克斯全系优惠0.8万 送5000元礼包",
"descSummary" : "",
"url" : "http:\/\/go.rss.sina.com.cn\/redirect.php?url=http:\/\/auto.sina.com.cn\/car\/2013-10-30\/12591241562.shtml",
"pubDate" : "12:59:33",
"enterDate" : "384201:01:52",
"channelId" : "7793128217951905408",
"channelName" : "市场信息-新浪汽车",
"channelNameSummary" : "市场信息-新浪汽车",
"channelUrl" : "http:\/\/auto.sina.com.cn\/sales\/index.shtml",
"author" : "WWW.SINA.COM.CN",
"tags" : [],
"desc" : "",
"emailed" : False,
"forwarded" : False,
"english" : False
}  , {
"index" : 7,
"articleIndex" : "28078",
"favor" :  False ,
     "read" : False,    
"title" : "雪铁龙新世嘉全系优惠5000元送礼包 现车销售",
"titleTip" : "雪铁龙新世嘉全系优惠5000元送礼包 现车销售",
"titleSummary" : "雪铁龙新世嘉全系优惠5000元送礼包 现车销售",
"descSummary" : "",
"url" : "http:\/\/go.rss.sina.com.cn\/redirect.php?url=http:\/\/auto.sina.com.cn\/car\/2013-10-30\/12591241563.shtml",
"pubDate" : "12:59:33",
"enterDate" : "384201:01:52",
"channelId" : "7793128217951905408",
"channelName" : "市场信息-新浪汽车",
"channelNameSummary" : "市场信息-新浪汽车",
"channelUrl" : "http:\/\/auto.sina.com.cn\/sales\/index.shtml",
"author" : "WWW.SINA.COM.CN",
"tags" : [],
"desc" : "",
"emailed" : False,
"forwarded" : False,
"english" : False
}  , {
"index" : 8,
"articleIndex" : "28079",
"favor" :  False ,
     "read" : False,    
"title" : "2014款沃尔沃S60最高优惠2万 送全保险",
"titleTip" : "2014款沃尔沃S60最高优惠2万 送全保险",
"titleSummary" : "2014款沃尔沃S60最高优惠2万 送全保险",
"descSummary" : "",
"url" : "http:\/\/go.rss.sina.com.cn\/redirect.php?url=http:\/\/auto.sina.com.cn\/car\/2013-10-30\/12591241564.shtml",
"pubDate" : "12:59:33",
"enterDate" : "384201:01:52",
"channelId" : "7793128217951905408",
"channelName" : "市场信息-新浪汽车",
"channelNameSummary" : "市场信息-新浪汽车",
"channelUrl" : "http:\/\/auto.sina.com.cn\/sales\/index.shtml",
"author" : "WWW.SINA.COM.CN",
"tags" : [],
"desc" : "",
"emailed" : False,
"forwarded" : False,
"english" : False
}  , {
"index" : 9,
"articleIndex" : "28080",
"favor" :  False ,
     "read" : False,    
"title" : "东风标致3008购车送万元大礼包 现车充足",
"titleTip" : "东风标致3008购车送万元大礼包 现车充足",
"titleSummary" : "东风标致3008购车送万元大礼包 现车充足",
"descSummary" : "",
"url" : "http:\/\/go.rss.sina.com.cn\/redirect.php?url=http:\/\/auto.sina.com.cn\/car\/2013-10-30\/12591241565.shtml",
"pubDate" : "12:59:33",
"enterDate" : "384201:01:52",
"channelId" : "7793128217951905408",
"channelName" : "市场信息-新浪汽车",
"channelNameSummary" : "市场信息-新浪汽车",
"channelUrl" : "http:\/\/auto.sina.com.cn\/sales\/index.shtml",
"author" : "WWW.SINA.COM.CN",
"tags" : [],
"desc" : "",
"emailed" : False,
"forwarded" : False,
"english" : False
}  , {
"index" : 10,
"articleIndex" : "28081",
"favor" :  False ,
     "read" : False,    
"title" : "2013款丰田RAV4暂无优惠 少量现车",
"titleTip" : "2013款丰田RAV4暂无优惠 少量现车",
"titleSummary" : "2013款丰田RAV4暂无优惠 少量现车",
"descSummary" : "",
"url" : "http:\/\/go.rss.sina.com.cn\/redirect.php?url=http:\/\/auto.sina.com.cn\/car\/2013-10-30\/12591241566.shtml",
"pubDate" : "12:59:33",
"enterDate" : "384201:01:52",
"channelId" : "7793128217951905408",
"channelName" : "市场信息-新浪汽车",
"channelNameSummary" : "市场信息-新浪汽车",
"channelUrl" : "http:\/\/auto.sina.com.cn\/sales\/index.shtml",
"author" : "WWW.SINA.COM.CN",
"tags" : [],
"desc" : "",
"emailed" : False,
"forwarded" : False,
"english" : False
}  , {
"index" : 11,
"articleIndex" : "28082",
"favor" :  False ,
     "read" : False,    
"title" : "一汽丰田皇冠综合优惠3万元 现车销售",
"titleTip" : "一汽丰田皇冠综合优惠3万元 现车销售",
"titleSummary" : "一汽丰田皇冠综合优惠3万元 现车销售",
"descSummary" : "",
"url" : "http:\/\/go.rss.sina.com.cn\/redirect.php?url=http:\/\/auto.sina.com.cn\/car\/2013-10-30\/12591241567.shtml",
"pubDate" : "12:59:33",
"enterDate" : "384201:01:52",
"channelId" : "7793128217951905408",
"channelName" : "市场信息-新浪汽车",
"channelNameSummary" : "市场信息-新浪汽车",
"channelUrl" : "http:\/\/auto.sina.com.cn\/sales\/index.shtml",
"author" : "WWW.SINA.COM.CN",
"tags" : [],
"desc" : "",
"emailed" : False,
"forwarded" : False,
"english" : False
}  , {
"index" : 12,
"articleIndex" : "28083",
"favor" :  False ,
     "read" : False,    
"title" : "别克君越最高优惠现金3.6万 现车充足",
"titleTip" : "别克君越最高优惠现金3.6万 现车充足",
"titleSummary" : "别克君越最高优惠现金3.6万 现车充足",
"descSummary" : "",
"url" : "http:\/\/go.rss.sina.com.cn\/redirect.php?url=http:\/\/auto.sina.com.cn\/car\/2013-10-30\/12591241568.shtml",
"pubDate" : "12:59:33",
"enterDate" : "384201:01:52",
"channelId" : "7793128217951905408",
"channelName" : "市场信息-新浪汽车",
"channelNameSummary" : "市场信息-新浪汽车",
"channelUrl" : "http:\/\/auto.sina.com.cn\/sales\/index.shtml",
"author" : "WWW.SINA.COM.CN",
"tags" : [],
"desc" : "",
"emailed" : False,
"forwarded" : False,
"english" : False
}  , {
"index" : 13,
"articleIndex" : "28084",
"favor" :  False ,
     "read" : False,    
"title" : "2011款菲亚特500最高优惠8.06万 少量现车",
"titleTip" : "2011款菲亚特500最高优惠8.06万 少量现车",
"titleSummary" : "2011款菲亚特500最高优惠8.06万 少量现车",
"descSummary" : "",
"url" : "http:\/\/go.rss.sina.com.cn\/redirect.php?url=http:\/\/auto.sina.com.cn\/car\/2013-10-30\/12591241569.shtml",
"pubDate" : "12:59:33",
"enterDate" : "384201:01:52",
"channelId" : "7793128217951905408",
"channelName" : "市场信息-新浪汽车",
"channelNameSummary" : "市场信息-新浪汽车",
"channelUrl" : "http:\/\/auto.sina.com.cn\/sales\/index.shtml",
"author" : "WWW.SINA.COM.CN",
"tags" : [],
"desc" : "",
"emailed" : False,
"forwarded" : False,
"english" : False
}  , {
"index" : 14,
"articleIndex" : "28085",
"favor" :  False ,
     "read" : False,    
"title" : "起亚新狮跑最高现金优惠2.6万 有现车",
"titleTip" : "起亚新狮跑最高现金优惠2.6万 有现车",
"titleSummary" : "起亚新狮跑最高现金优惠2.6万 有现车",
"descSummary" : "",
"url" : "http:\/\/go.rss.sina.com.cn\/redirect.php?url=http:\/\/auto.sina.com.cn\/car\/2013-10-30\/12591241570.shtml",
"pubDate" : "12:59:33",
"enterDate" : "384201:01:52",
"channelId" : "7793128217951905408",
"channelName" : "市场信息-新浪汽车",
"channelNameSummary" : "市场信息-新浪汽车",
"channelUrl" : "http:\/\/auto.sina.com.cn\/sales\/index.shtml",
"author" : "WWW.SINA.COM.CN",
"tags" : [],
"desc" : "",
"emailed" : False,
"forwarded" : False,
"english" : False
}  , {
"index" : 15,
"articleIndex" : "28073",
"favor" :  False ,
     "read" : False,    
"title" : "车展优惠提前享 贵阳购凯美瑞紫金版综合优惠4万元",
"titleTip" : "车展优惠提前享 贵阳购凯美瑞紫金版综合优惠4万元",
"titleSummary" : "车展优惠提前享 贵阳购凯美瑞紫金版综合优惠4万元",
"descSummary" : "",
"url" : "http:\/\/go.rss.sina.com.cn\/redirect.php?url=http:\/\/auto.sina.com.cn\/car\/2013-10-30\/12591241558.shtml",
"pubDate" : "12:59:32",
"enterDate" : "384201:01:51",
"channelId" : "7793128217951905408",
"channelName" : "市场信息-新浪汽车",
"channelNameSummary" : "市场信息-新浪汽车",
"channelUrl" : "http:\/\/auto.sina.com.cn\/sales\/index.shtml",
"author" : "WWW.SINA.COM.CN",
"tags" : [],
"desc" : "",
"emailed" : False,
"forwarded" : False,
"english" : False
}  , {
"index" : 16,
"articleIndex" : "28072",
"favor" :  False ,
     "read" : False,    
"title" : "贵阳购经典款凯美瑞优惠3.3万元",
"titleTip" : "贵阳购经典款凯美瑞优惠3.3万元",
"titleSummary" : "贵阳购经典款凯美瑞优惠3.3万元",
"descSummary" : "",
"url" : "http:\/\/go.rss.sina.com.cn\/redirect.php?url=http:\/\/auto.sina.com.cn\/car\/2013-10-30\/12541241557.shtml",
"pubDate" : "12:54:14",
"enterDate" : "384200:56:33",
"channelId" : "7793128217951905408",
"channelName" : "市场信息-新浪汽车",
"channelNameSummary" : "市场信息-新浪汽车",
"channelUrl" : "http:\/\/auto.sina.com.cn\/sales\/index.shtml",
"author" : "WWW.SINA.COM.CN",
"tags" : [],
"desc" : "",
"emailed" : False,
"forwarded" : False,
"english" : False
}  , {
"index" : 17,
"articleIndex" : "28071",
"favor" :  False ,
     "read" : False,    
"title" : "贵阳购东风日产新轩逸综合优惠1万元",
"titleTip" : "贵阳购东风日产新轩逸综合优惠1万元",
"titleSummary" : "贵阳购东风日产新轩逸综合优惠1万元",
"descSummary" : "",
"url" : "http:\/\/go.rss.sina.com.cn\/redirect.php?url=http:\/\/auto.sina.com.cn\/car\/2013-10-30\/12391241556.shtml",
"pubDate" : "12:39:22",
"enterDate" : "384200:41:41",
"channelId" : "7793128217951905408",
"channelName" : "市场信息-新浪汽车",
"channelNameSummary" : "市场信息-新浪汽车",
"channelUrl" : "http:\/\/auto.sina.com.cn\/sales\/index.shtml",
"author" : "WWW.SINA.COM.CN",
"tags" : [],
"desc" : "",
"emailed" : False,
"forwarded" : False,
"english" : False
}  , {
"index" : 18,
"articleIndex" : "28070",
"favor" :  False ,
     "read" : False,    
"title" : "贵阳购东风日产天籁可享1.2万元礼包优惠",
"titleTip" : "贵阳购东风日产天籁可享1.2万元礼包优惠",
"titleSummary" : "贵阳购东风日产天籁可享1.2万元礼包优惠",
"descSummary" : "",
"url" : "http:\/\/go.rss.sina.com.cn\/redirect.php?url=http:\/\/auto.sina.com.cn\/car\/2013-10-30\/12291241555.shtml",
"pubDate" : "12:29:13",
"enterDate" : "384200:31:32",
"channelId" : "7793128217951905408",
"channelName" : "市场信息-新浪汽车",
"channelNameSummary" : "市场信息-新浪汽车",
"channelUrl" : "http:\/\/auto.sina.com.cn\/sales\/index.shtml",
"author" : "WWW.SINA.COM.CN",
"tags" : [],
"desc" : "",
"emailed" : False,
"forwarded" : False,
"english" : False
}  , {
"index" : 19,
"articleIndex" : "28086",
"favor" :  False ,
     "read" : False,    
"title" : "丰田凯美瑞最高优惠3.1万 售17.78万起",
"titleTip" : "丰田凯美瑞最高优惠3.1万 售17.78万起",
"titleSummary" : "丰田凯美瑞最高优惠3.1万 售17.78万起",
"descSummary" : "",
"url" : "http:\/\/go.rss.sina.com.cn\/redirect.php?url=http:\/\/auto.sina.com.cn\/car\/2013-10-30\/12001241544.shtml",
"pubDate" : "12:00:07",
"enterDate" : "384198:01:51",
"channelId" : "7793128217951905408",
"channelName" : "市场信息-新浪汽车",
"channelNameSummary" : "市场信息-新浪汽车",
"channelUrl" : "http:\/\/auto.sina.com.cn\/sales\/index.shtml",
"author" : "WWW.SINA.COM.CN",
"tags" : [],
"desc" : "",
"emailed" : False,
"forwarded" : False,
"english" : False
} ]
}
