{
"mode" : {"viewTitle" : 1,   "viewNew" : 0,  "pageIndex" : 1 },
 "channel" : {"id" : "-4196504422746458002", "booked" : False, "subNumber" : 1, "name" : "会计考试-新浪教育", "url" : "http:\/\/edu.sina.com.cn\/cpa\/index.shtml", "feed" : "http:\/\/rss.sina.com.cn\/edu\/cpa.xml", "author" : "WWW.SINA.COM.CN", "desc" : "会计考试新闻列表", "imageUrl" : "http:\/\/www.sinaimg.cn\/home\/deco\/2009\/0330\/logo_home_edu.gif", "postPerWeek" : "0", "lastCrawTime" : "17:18:26", "crawDateTime" : "17:18:26", "lastHttpCode" : "200"}, "page" : {
"startIndex" : 0,
"totalCount" : 1428,
"pageIndex" : 1,
"lastPage" : 72,
"pageSize" : 20,
"english" :  False },
 "unreadNum" : 0, "shotIndex" : -1,
"articles" : [
{
"index" : 0,
"articleIndex" : "1427",
"favor" :  False ,
     "read" : False,    
"title" : "北京注册会计师协会搭桥：事务所现场挑人才",
"titleTip" : "北京注册会计师协会搭桥：事务所现场挑人才",
"titleSummary" : "北京注册会计师协会搭桥：事务所现场挑人才",
"descSummary" : "北京考试报讯(记者 蔡文玲) 10月23日，经过10余天的专业...",
"url" : "http:\/\/go.rss.sina.com.cn\/redirect.php?url=http:\/\/edu.sina.com.cn\/zgks\/2013-10-27\/1052399445.shtml",
"pubDate" : "2013年10月27日 (3天前)",
"enterDate" : "384201:07:22",
"channelId" : "-4196504422746458002",
"channelName" : "会计考试-新浪教育",
"channelNameSummary" : "会计考试-新浪教育",
"channelUrl" : "http:\/\/edu.sina.com.cn\/cpa\/index.shtml",
"author" : "WWW.SINA.COM.CN",
"tags" : [],
"desc" : "北京考试报讯(记者&#160; 蔡文玲)&#160; 10月23日，经过10余天的专业培训，北京工商大学嘉华学院的156名2014届毕业生通过笔试、面试，获得了北京注册会计师协会职业基础技能培训合格证书。在面试现场，会计师事务所现场挑人才，和心仪的学生敲定实习协议。 北京注册会....",
"emailed" : False,
"forwarded" : False,
"english" : False
}  , {
"index" : 1,
"articleIndex" : "1426",
"favor" :  False ,
     "read" : False,    
"title" : "北京会计资格考试3月举行 11月18日起报名",
"titleTip" : "北京会计资格考试3月举行 11月18日起报名",
"titleSummary" : "北京会计资格考试3月举行 11月18日起报名",
"descSummary" : "北京考试报讯(记者 蔡文玲) 记者从北京市财政局获悉，2014年...",
"url" : "http:\/\/go.rss.sina.com.cn\/redirect.php?url=http:\/\/edu.sina.com.cn\/zgks\/2013-10-27\/1051399444.shtml",
"pubDate" : "2013年10月27日 (3天前)",
"enterDate" : "384201:06:14",
"channelId" : "-4196504422746458002",
"channelName" : "会计考试-新浪教育",
"channelNameSummary" : "会计考试-新浪教育",
"channelUrl" : "http:\/\/edu.sina.com.cn\/cpa\/index.shtml",
"author" : "WWW.SINA.COM.CN",
"tags" : [],
"desc" : "北京考试报讯(记者&#160; 蔡文玲)&#160; 记者从北京市财政局获悉，2014年北京市将组织两次会计从业资格无纸化考试，上半年考试定于2014年3月22日举行。符合《会计法》等有关法律、法规规定，申请取得会计从业资格的人员均可报名考试。 会计资格考试采用网上报名、网上....",
"emailed" : False,
"forwarded" : False,
"english" : False
}  , {
"index" : 2,
"articleIndex" : "1425",
"favor" :  False ,
     "read" : False,    
"title" : "赵祯一：从ACCA零基础到单科全球第一",
"titleTip" : "赵祯一：从ACCA零基础到单科全球第一",
"titleSummary" : "赵祯一：从ACCA零基础到单科全球第一",
"descSummary" : "北京考试报记者 蔡文玲 今年9月，ACCA(特许公认会计师公会)公...",
"url" : "http:\/\/go.rss.sina.com.cn\/redirect.php?url=http:\/\/edu.sina.com.cn\/zgks\/2013-10-19\/1352398430.shtml",
"pubDate" : "2013年10月19日 (1周前)",
"enterDate" : "384201:08:31",
"channelId" : "-4196504422746458002",
"channelName" : "会计考试-新浪教育",
"channelNameSummary" : "会计考试-新浪教育",
"channelUrl" : "http:\/\/edu.sina.com.cn\/cpa\/index.shtml",
"author" : "WWW.SINA.COM.CN",
"tags" : [],
"desc" : "北京考试报记者 蔡文玲 今年9月，ACCA(特许公认会计师公会)公布全球6月份考试成绩。在12811名考生参加的F4《公司法与商法》考试中，中国考生赵祯一以93分获得了F4《公司法与商法》考试的全球第一。 从零基础到特许公认会计师考试(ACCA)F4科目全球第一名，赵祯一....",
"emailed" : False,
"forwarded" : False,
"english" : False
}  , {
"index" : 3,
"articleIndex" : "1424",
"favor" :  False ,
     "read" : False,    
"title" : "2013年会计职称考试十招答题技巧",
"titleTip" : "2013年会计职称考试十招答题技巧",
"titleSummary" : "2013年会计职称考试十招答题技巧",
"descSummary" : "距离2013年会计职称考试越来越近了，全面进入冲刺阶段需要我们掌...",
"url" : "http:\/\/go.rss.sina.com.cn\/redirect.php?url=http:\/\/edu.sina.com.cn\/zgks\/2013-10-08\/1410396767.shtml",
"pubDate" : "2013年10月8日 (3周前)",
"enterDate" : "384200:49:47",
"channelId" : "-4196504422746458002",
"channelName" : "会计考试-新浪教育",
"channelNameSummary" : "会计考试-新浪教育",
"channelUrl" : "http:\/\/edu.sina.com.cn\/cpa\/index.shtml",
"author" : "WWW.SINA.COM.CN",
"tags" : [],
"desc" : "距离2013年会计职称考试越来越近了，全面进入冲刺阶段需要我们掌握各个题型的答题技巧，从容自信的走进考场！下面是十招考试答题技巧，都来看看吧！ 第一招 计划答题时间 计划答题时间，保持稳定的答题速度。选择题考试通常要求在短时间内作答，考试开始时，你....",
"emailed" : False,
"forwarded" : False,
"english" : False
}  , {
"index" : 4,
"articleIndex" : "1423",
"favor" :  False ,
     "read" : False,    
"title" : "2013年注会考场\u201C巧得分\u201D六大准则",
"titleTip" : "2013年注会考场\u201C巧得分\u201D六大准则",
"titleSummary" : "2013年注会考场\u201C巧得分\u201D六大准则",
"descSummary" : "2013年注册会计师考试的脚步渐行渐近，相信大家都在准备着最后...",
"url" : "http:\/\/go.rss.sina.com.cn\/redirect.php?url=http:\/\/edu.sina.com.cn\/zgks\/2013-10-08\/1409396766.shtml",
"pubDate" : "2013年10月8日 (3周前)",
"enterDate" : "384200:48:32",
"channelId" : "-4196504422746458002",
"channelName" : "会计考试-新浪教育",
"channelNameSummary" : "会计考试-新浪教育",
"channelUrl" : "http:\/\/edu.sina.com.cn\/cpa\/index.shtml",
"author" : "WWW.SINA.COM.CN",
"tags" : [],
"desc" : "2013年注册会计师考试的脚步渐行渐近，相信大家都在准备着最后的冲刺，大家在专心备考的同时，同时也有考过的\u201C大师\u201D们给大家出谋划策，根据自己切身体会总结出以下考试技巧。 1.表述清楚 条理分明 表现在做简答题的时候。有的考生长篇大论，洋洋洒洒，可是在....",
"emailed" : False,
"forwarded" : False,
"english" : False
}  , {
"index" : 5,
"articleIndex" : "1422",
"favor" :  False ,
     "read" : False,    
"title" : "2013年注册会计师综合阶段考试今天举行",
"titleTip" : "2013年注册会计师综合阶段考试今天举行",
"titleSummary" : "2013年注册会计师综合阶段考试今天举行",
"descSummary" : "北京考试报讯(记者 蔡文玲) 2013年注册会计师综合阶段考试今...",
"url" : "http:\/\/go.rss.sina.com.cn\/redirect.php?url=http:\/\/edu.sina.com.cn\/zgks\/2013-09-29\/1014396614.shtml",
"pubDate" : "2013年9月29日",
"enterDate" : "384183:30:16",
"channelId" : "-4196504422746458002",
"channelName" : "会计考试-新浪教育",
"channelNameSummary" : "会计考试-新浪教育",
"channelUrl" : "http:\/\/edu.sina.com.cn\/cpa\/index.shtml",
"author" : "WWW.SINA.COM.CN",
"tags" : [],
"desc" : "北京考试报讯(记者 蔡文玲)&#160; 2013年注册会计师综合阶段考试今天在全国各省会城市开考。 按照2012年修订的考场守则，考试开始前40分钟，考生可以凭准考证和有效的身份证件进入考场。在入场时，考生要在《考场情况记录表》中的\u201C考生签字\u201D栏内签名，并在拍照后对号....",
"emailed" : False,
"forwarded" : False,
"english" : False
}  , {
"index" : 6,
"articleIndex" : "1421",
"favor" :  False ,
     "read" : False,    
"title" : "85万人参加会计初级无纸化考试",
"titleTip" : "85万人参加会计初级无纸化考试",
"titleSummary" : "85万人参加会计初级无纸化考试",
"descSummary" : "北京考试报讯(记者 蔡文玲)2013年全国会计专业技术初级资格无纸化考...",
"url" : "http:\/\/go.rss.sina.com.cn\/redirect.php?url=http:\/\/edu.sina.com.cn\/zgks\/2013-09-25\/1055396270.shtml",
"pubDate" : "2013年9月25日",
"enterDate" : "384184:09:12",
"channelId" : "-4196504422746458002",
"channelName" : "会计考试-新浪教育",
"channelNameSummary" : "会计考试-新浪教育",
"channelUrl" : "http:\/\/edu.sina.com.cn\/cpa\/index.shtml",
"author" : "WWW.SINA.COM.CN",
"tags" : [],
"desc" : "北京考试报讯(记者 蔡文玲)2013年全国会计专业技术初级资格无纸化考试日前在全国434个考点2413个考场举行。今年，部分省市实行了无纸化考试，全国共有85万人参加了机考。 今年共有135万名考生报名参加全国会计专业技术初级资格考试，其中，参加无纸化考试的考生达85万....",
"emailed" : False,
"forwarded" : False,
"english" : False
}  , {
"index" : 7,
"articleIndex" : "1420",
"favor" :  False ,
     "read" : False,    
"title" : "2012年注册会计师《经济法》试题及答案",
"titleTip" : "2012年注册会计师《经济法》试题及答案",
"titleSummary" : "2012年注册会计师《经济法》试题及答案",
"descSummary" : "2012年度注册会计师全国统一考试(专业阶段考试) 《经济法》...",
"url" : "http:\/\/go.rss.sina.com.cn\/redirect.php?url=http:\/\/edu.sina.com.cn\/zgks\/2013-09-18\/1632395823.shtml",
"pubDate" : "2013年9月18日",
"enterDate" : "384201:00:47",
"channelId" : "-4196504422746458002",
"channelName" : "会计考试-新浪教育",
"channelNameSummary" : "会计考试-新浪教育",
"channelUrl" : "http:\/\/edu.sina.com.cn\/cpa\/index.shtml",
"author" : "WWW.SINA.COM.CN",
"tags" : [],
"desc" : "2012年度注册会计师全国统一考试(专业阶段考试) 《经济法》(A卷)试题及答案解析 一、单项选择题(本题型共24小题，每小题1分，共24分。每小题只有一个正确答案，请从每小题的备选答案中选出一个你认为正确的答案，用鼠标点击相应的选项。 1、经济法的法律渊源包括....",
"emailed" : False,
"forwarded" : False,
"english" : False
}  , {
"index" : 8,
"articleIndex" : "1419",
"favor" :  False ,
     "read" : False,    
"title" : "2012年注会《财务成本管理》试题及答案",
"titleTip" : "2012年注会《财务成本管理》试题及答案",
"titleSummary" : "2012年注会《财务成本管理》试题及答案",
"descSummary" : "2012年度注册会计师全国统一考试(专业阶段考试) 《财务成本...",
"url" : "http:\/\/go.rss.sina.com.cn\/redirect.php?url=http:\/\/edu.sina.com.cn\/zgks\/2013-09-18\/1624395814.shtml",
"pubDate" : "2013年9月18日",
"enterDate" : "384200:53:17",
"channelId" : "-4196504422746458002",
"channelName" : "会计考试-新浪教育",
"channelNameSummary" : "会计考试-新浪教育",
"channelUrl" : "http:\/\/edu.sina.com.cn\/cpa\/index.shtml",
"author" : "WWW.SINA.COM.CN",
"tags" : [],
"desc" : "2012年度注册会计师全国统一考试(专业阶段考试) 《财务成本管理》试题及答案解析 一、单项选择题 1.企业的下列财务活动中，不符合债权人目标的是( )。 A。提高利润留存比率 B。降低财务杠杆比率 C。发行公司债券 D。非公开增发新股....",
"emailed" : False,
"forwarded" : False,
"english" : False
}  , {
"index" : 9,
"articleIndex" : "1418",
"favor" :  False ,
     "read" : False,    
"title" : "2012年注册会计师《审计》试题及答案解析",
"titleTip" : "2012年注册会计师《审计》试题及答案解析",
"titleSummary" : "2012年注册会计师《审计》试题及答案解析",
"descSummary" : "2012年度注册会计师全国统一考试(专业阶段考试) 《审计》...",
"url" : "http:\/\/go.rss.sina.com.cn\/redirect.php?url=http:\/\/edu.sina.com.cn\/zgks\/2013-09-18\/1616395809.shtml",
"pubDate" : "2013年9月18日",
"enterDate" : "384200:44:34",
"channelId" : "-4196504422746458002",
"channelName" : "会计考试-新浪教育",
"channelNameSummary" : "会计考试-新浪教育",
"channelUrl" : "http:\/\/edu.sina.com.cn\/cpa\/index.shtml",
"author" : "WWW.SINA.COM.CN",
"tags" : [],
"desc" : "2012年度注册会计师全国统一考试(专业阶段考试) 《审计》(A卷)试题及答案解析 一、单项选择题(本题型共25小题，每一题1分，共25分。每小题只有一个正确答案，请从每小题的备选答案中选出一个你认为正确的答案，用鼠标点击相应的选项。) 1.下列各项对注册会计师法....",
"emailed" : False,
"forwarded" : False,
"english" : False
}  , {
"index" : 10,
"articleIndex" : "1417",
"favor" :  False ,
     "read" : False,    
"title" : "2012年注会《公司战略与风险管理》真题",
"titleTip" : "2012年注会《公司战略与风险管理》真题",
"titleSummary" : "2012年注会《公司战略与风险管理》真题",
"descSummary" : "2012年度注册会计师全国统一考试--专业阶段考试 《公司战略...",
"url" : "http:\/\/go.rss.sina.com.cn\/redirect.php?url=http:\/\/edu.sina.com.cn\/zgks\/2013-09-18\/1610395799.shtml",
"pubDate" : "2013年9月18日",
"enterDate" : "384201:08:58",
"channelId" : "-4196504422746458002",
"channelName" : "会计考试-新浪教育",
"channelNameSummary" : "会计考试-新浪教育",
"channelUrl" : "http:\/\/edu.sina.com.cn\/cpa\/index.shtml",
"author" : "WWW.SINA.COM.CN",
"tags" : [],
"desc" : "2012年度注册会计师全国统一考试\u2015\u2015专业阶段考试 《公司战略与风险管理》(A卷)试题及答案解析 一、单项选择题 1. (本题涉及的考点2013年教材已经删除)IT行业作为一个变化迅速且受到复杂因素影响的行业，宜采取( )。 A。分权型机械式组织设计 B。....",
"emailed" : False,
"forwarded" : False,
"english" : False
}  , {
"index" : 11,
"articleIndex" : "1416",
"favor" :  False ,
     "read" : False,    
"title" : "2012年注册会计师《税法》试题及答案解析",
"titleTip" : "2012年注册会计师《税法》试题及答案解析",
"titleSummary" : "2012年注册会计师《税法》试题及答案解析",
"descSummary" : "2012年度注册会计师全国统一考试(专业阶段考试)《税法》(...",
"url" : "http:\/\/go.rss.sina.com.cn\/redirect.php?url=http:\/\/edu.sina.com.cn\/zgks\/2013-09-18\/1600395789.shtml",
"pubDate" : "2013年9月18日",
"enterDate" : "384200:59:10",
"channelId" : "-4196504422746458002",
"channelName" : "会计考试-新浪教育",
"channelNameSummary" : "会计考试-新浪教育",
"channelUrl" : "http:\/\/edu.sina.com.cn\/cpa\/index.shtml",
"author" : "WWW.SINA.COM.CN",
"tags" : [],
"desc" : "2012年度注册会计师全国统一考试(专业阶段考试)《税法》(A卷)试题及答案解析 一、单项选择题 1.下列关于我国现行税收征收管理范围划分的表述中，正确的是( )。 A。车辆购置税由地方税务局系统负责征收和管理 B。各银行总行缴纳的印花税由国家税务局系....",
"emailed" : False,
"forwarded" : False,
"english" : False
}  , {
"index" : 12,
"articleIndex" : "1415",
"favor" :  False ,
     "read" : False,    
"title" : "2012年注册会计师考试《会计》试题及解析",
"titleTip" : "2012年注册会计师考试《会计》试题及解析",
"titleSummary" : "2012年注册会计师考试《会计》试题及解析",
"descSummary" : "2012年度注册会计师全国统一考试(专业阶段考试)《会计》(...",
"url" : "http:\/\/go.rss.sina.com.cn\/redirect.php?url=http:\/\/edu.sina.com.cn\/zgks\/2013-09-18\/1522395777.shtml",
"pubDate" : "2013年9月18日",
"enterDate" : "384200:51:27",
"channelId" : "-4196504422746458002",
"channelName" : "会计考试-新浪教育",
"channelNameSummary" : "会计考试-新浪教育",
"channelUrl" : "http:\/\/edu.sina.com.cn\/cpa\/index.shtml",
"author" : "WWW.SINA.COM.CN",
"tags" : [],
"desc" : "2012年度注册会计师全国统一考试(专业阶段考试)《会计》(A卷)试题及答案解析 一、单项选择题 本题型共16小题，每小题1.5分，共24分。每小题只有一个正确答案，请从每小题的备选答案中选出一个你认为正确的答案，用鼠标点击相应的选项。 1.20×6年6月30日....",
"emailed" : False,
"forwarded" : False,
"english" : False
}  , {
"index" : 13,
"articleIndex" : "1414",
"favor" :  False ,
     "read" : False,    
"title" : "2013年会计职称冲刺备考四周学习法",
"titleTip" : "2013年会计职称冲刺备考四周学习法",
"titleSummary" : "2013年会计职称冲刺备考四周学习法",
"descSummary" : "2013年初、中级职称考试时间渐行渐近，有很多考生反映不知道该...",
"url" : "http:\/\/go.rss.sina.com.cn\/redirect.php?url=http:\/\/edu.sina.com.cn\/zgks\/2013-09-16\/1700395553.shtml",
"pubDate" : "2013年9月16日",
"enterDate" : "384201:06:44",
"channelId" : "-4196504422746458002",
"channelName" : "会计考试-新浪教育",
"channelNameSummary" : "会计考试-新浪教育",
"channelUrl" : "http:\/\/edu.sina.com.cn\/cpa\/index.shtml",
"author" : "WWW.SINA.COM.CN",
"tags" : [],
"desc" : "2013年初、中级职称考试时间渐行渐近，有很多考生反映不知道该如何学习了，在冲刺阶段出现了小小的瓶颈。经过几个月的学习，相信同学们对书本已经很熟悉了，配套的课后练习也做了不少，冲刺阶段主要是查缺补漏、巩固重点、调整状态迎接考试。从习题出发，查漏补缺，强化模拟训....",
"emailed" : False,
"forwarded" : False,
"english" : False
}  , {
"index" : 14,
"articleIndex" : "1413",
"favor" :  False ,
     "read" : False,    
"title" : "学生实习北注协当\u201C红娘\u201D",
"titleTip" : "学生实习北注协当\u201C红娘\u201D",
"titleSummary" : "学生实习北注协当\u201C红娘\u201D",
"descSummary" : "北京考试报讯(记者 蔡文玲) \u201C老师，请问到瑞华会计师事务所实习需要具备...",
"url" : "http:\/\/go.rss.sina.com.cn\/redirect.php?url=http:\/\/edu.sina.com.cn\/zgks\/2013-09-14\/1314395276.shtml",
"pubDate" : "2013年9月14日",
"enterDate" : "384162:30:28",
"channelId" : "-4196504422746458002",
"channelName" : "会计考试-新浪教育",
"channelNameSummary" : "会计考试-新浪教育",
"channelUrl" : "http:\/\/edu.sina.com.cn\/cpa\/index.shtml",
"author" : "WWW.SINA.COM.CN",
"tags" : [],
"desc" : "北京考试报讯(记者&#160; 蔡文玲)&#160; \u201C老师，请问到瑞华会计师事务所实习需要具备什么条件？拥有哪些证书可以被优先考虑？\u201D日前在北京城市学院举行的北京注协注会职业技能培训动员会上，一名金融专业的学生提出了这样一个问题。北京注协近期陆续在大学举办职业技能培训，....",
"emailed" : False,
"forwarded" : False,
"english" : False
}  , {
"index" : 15,
"articleIndex" : "1412",
"favor" :  False ,
     "read" : False,    
"title" : "注册会计师考试机考遇故障可延考",
"titleTip" : "注册会计师考试机考遇故障可延考",
"titleSummary" : "注册会计师考试机考遇故障可延考",
"descSummary" : "北京考试报讯(记者 蔡文玲)注册会计师考试自从去年统一实行机考后，...",
"url" : "http:\/\/go.rss.sina.com.cn\/redirect.php?url=http:\/\/edu.sina.com.cn\/zgks\/2013-09-11\/1500394834.shtml",
"pubDate" : "2013年9月11日",
"enterDate" : "384201:06:44",
"channelId" : "-4196504422746458002",
"channelName" : "会计考试-新浪教育",
"channelNameSummary" : "会计考试-新浪教育",
"channelUrl" : "http:\/\/edu.sina.com.cn\/cpa\/index.shtml",
"author" : "WWW.SINA.COM.CN",
"tags" : [],
"desc" : "北京考试报讯(记者 蔡文玲)注册会计师考试自从去年统一实行机考后，不少考生担心考试过程中遇到问题耽误考试甚至影响考试时间。中国注册会计师协会对考试中可能会遇到的故障已制定详细处理办法，如故障无法排除，考生仍可在11月重新参加考试。 根据中注协出台的《注册....",
"emailed" : False,
"forwarded" : False,
"english" : False
}  , {
"index" : 16,
"articleIndex" : "1411",
"favor" :  False ,
     "read" : False,    
"title" : "初级会计职称无纸化考试提醒",
"titleTip" : "初级会计职称无纸化考试提醒",
"titleSummary" : "初级会计职称无纸化考试提醒",
"descSummary" : "http:\/\/blog.sina.com.cn\/u\/2959097580",
"url" : "http:\/\/go.rss.sina.com.cn\/redirect.php?url=http:\/\/blog.sina.com.cn\/s\/blog_b0603eec0101meoz.html",
"pubDate" : "2013年9月11日",
"enterDate" : "384201:09:39",
"channelId" : "-4196504422746458002",
"channelName" : "会计考试-新浪教育",
"channelNameSummary" : "会计考试-新浪教育",
"channelUrl" : "http:\/\/edu.sina.com.cn\/cpa\/index.shtml",
"author" : "WWW.SINA.COM.CN",
"tags" : [],
"desc" : "http:\/\/blog.sina.com.cn\/u\/2959097580",
"emailed" : False,
"forwarded" : False,
"english" : False
}  , {
"index" : 17,
"articleIndex" : "1410",
"favor" :  False ,
     "read" : False,    
"title" : "会计从业资格财经法规必背考点",
"titleTip" : "会计从业资格财经法规必背考点",
"titleSummary" : "会计从业资格财经法规必背考点",
"descSummary" : "http:\/\/blog.sina.com.cn\/u\/2712037701",
"url" : "http:\/\/go.rss.sina.com.cn\/redirect.php?url=http:\/\/blog.sina.com.cn\/s\/blog_a1a669450101h4v5.html",
"pubDate" : "2013年9月11日",
"enterDate" : "384201:07:50",
"channelId" : "-4196504422746458002",
"channelName" : "会计考试-新浪教育",
"channelNameSummary" : "会计考试-新浪教育",
"channelUrl" : "http:\/\/edu.sina.com.cn\/cpa\/index.shtml",
"author" : "WWW.SINA.COM.CN",
"tags" : [],
"desc" : "http:\/\/blog.sina.com.cn\/u\/2712037701",
"emailed" : False,
"forwarded" : False,
"english" : False
}  , {
"index" : 18,
"articleIndex" : "1409",
"favor" :  False ,
     "read" : False,    
"title" : "交易性金融资产知识点",
"titleTip" : "交易性金融资产知识点",
"titleSummary" : "交易性金融资产知识点",
"descSummary" : "http:\/\/blog.sina.com.cn\/u\/2712037701",
"url" : "http:\/\/go.rss.sina.com.cn\/redirect.php?url=http:\/\/blog.sina.com.cn\/s\/blog_a1a669450101h4v9.html",
"pubDate" : "2013年9月11日",
"enterDate" : "384201:06:59",
"channelId" : "-4196504422746458002",
"channelName" : "会计考试-新浪教育",
"channelNameSummary" : "会计考试-新浪教育",
"channelUrl" : "http:\/\/edu.sina.com.cn\/cpa\/index.shtml",
"author" : "WWW.SINA.COM.CN",
"tags" : [],
"desc" : "http:\/\/blog.sina.com.cn\/u\/2712037701",
"emailed" : False,
"forwarded" : False,
"english" : False
}  , {
"index" : 19,
"articleIndex" : "1408",
"favor" :  False ,
     "read" : False,    
"title" : "会计从业资格考试备考指导之记忆口诀",
"titleTip" : "会计从业资格考试备考指导之记忆口诀",
"titleSummary" : "会计从业资格考试备考指导之记忆口诀",
"descSummary" : "利用口诀来理解记忆资产负债表有关项目的填列 在编制资产负债...",
"url" : "http:\/\/go.rss.sina.com.cn\/redirect.php?url=http:\/\/edu.sina.com.cn\/zgks\/2013-09-11\/1429394826.shtml",
"pubDate" : "2013年9月11日",
"enterDate" : "384201:05:30",
"channelId" : "-4196504422746458002",
"channelName" : "会计考试-新浪教育",
"channelNameSummary" : "会计考试-新浪教育",
"channelUrl" : "http:\/\/edu.sina.com.cn\/cpa\/index.shtml",
"author" : "WWW.SINA.COM.CN",
"tags" : [],
"desc" : "利用口诀来理解记忆资产负债表有关项目的填列 在编制资产负债表，填写\u201C应收账款\u201D、\u201C预付账款\u201D、\u201C应付账款\u201D、\u201C预收账款\u201D这四个项目时，要区分对应明细账户的借方或者贷方余额来计算填列。我曾经总结了四个计算公式给学员，如下： 1、资产方应收账款项目....",
"emailed" : False,
"forwarded" : False,
"english" : False
} ]
}
