{
"mode" : {"viewTitle" : 1,   "viewNew" : 0,  "pageIndex" : 2 },
 "channel" : {"id" : "-4196504422746458002", "booked" : False, "subNumber" : 1, "name" : "会计考试-新浪教育", "url" : "http:\/\/edu.sina.com.cn\/cpa\/index.shtml", "feed" : "http:\/\/rss.sina.com.cn\/edu\/cpa.xml", "author" : "WWW.SINA.COM.CN", "desc" : "会计考试新闻列表", "imageUrl" : "http:\/\/www.sinaimg.cn\/home\/deco\/2009\/0330\/logo_home_edu.gif", "postPerWeek" : "0", "lastCrawTime" : "17:18:26", "crawDateTime" : "17:18:26", "lastHttpCode" : "200"}, "page" : {
"startIndex" : 20,
"totalCount" : 1428,
"pageIndex" : 2,
"lastPage" : 72,
"pageSize" : 20,
"english" :  False },
 "unreadNum" : 0, "shotIndex" : -1,
"articles" : [
{
"index" : 0,
"articleIndex" : "1407",
"favor" :  False ,
     "read" : False,    
"title" : "2013年注册会计师综合阶段考试四大技巧",
"titleTip" : "2013年注册会计师综合阶段考试四大技巧",
"titleSummary" : "2013年注册会计师综合阶段考试四大技巧",
"descSummary" : "1.合理控制答题时间--\u201C好钢用在刀刃上\u201D 2012年注册会计师考...",
"url" : "http:\/\/go.rss.sina.com.cn\/redirect.php?url=http:\/\/edu.sina.com.cn\/zgks\/2013-09-11\/1427394825.shtml",
"pubDate" : "2013年9月11日",
"enterDate" : "384201:03:52",
"channelId" : "-4196504422746458002",
"channelName" : "会计考试-新浪教育",
"channelNameSummary" : "会计考试-新浪教育",
"channelUrl" : "http:\/\/edu.sina.com.cn\/cpa\/index.shtml",
"author" : "WWW.SINA.COM.CN",
"tags" : [],
"desc" : "1.合理控制答题时间\u2015\u2015\u201C好钢用在刀刃上\u201D 2012年注册会计师考试改为机考，考生在抽取试卷后，应大概浏览该综合题目包含多少个题目要求，对题量有一个大体的把握，合理分配210分钟的考试时间。在做题的过程中如果遇到难度比较大，没有思路的题目一定要避其锋芒，暂时....",
"emailed" : False,
"forwarded" : False,
"english" : False
}  , {
"index" : 1,
"articleIndex" : "1406",
"favor" :  False ,
     "read" : False,    
"title" : "会计职称考试中常犯的错误及应对策略",
"titleTip" : "会计职称考试中常犯的错误及应对策略",
"titleSummary" : "会计职称考试中常犯的错误及应对策略",
"descSummary" : "【常犯的错误】 最大的粗心是：题目中问\u201C错误\u201D或\u201C不正确\u201D...",
"url" : "http:\/\/go.rss.sina.com.cn\/redirect.php?url=http:\/\/edu.sina.com.cn\/zgks\/2013-09-11\/1424394824.shtml",
"pubDate" : "2013年9月11日",
"enterDate" : "384201:00:12",
"channelId" : "-4196504422746458002",
"channelName" : "会计考试-新浪教育",
"channelNameSummary" : "会计考试-新浪教育",
"channelUrl" : "http:\/\/edu.sina.com.cn\/cpa\/index.shtml",
"author" : "WWW.SINA.COM.CN",
"tags" : [],
"desc" : "【常犯的错误】 ①最大的粗心是：题目中问\u201C错误\u201D或\u201C不正确\u201D的选项有哪些，经常就把\u201C正确\u201D的选项给选上了。还有是客观题ABCD选项，在试卷上做的答案是BC项，在填答题卡时，却填成了AB或CD项。经常犯两个错误啊！唉，总不记心啊。刚刚做完模拟题，就把已知答案为B....",
"emailed" : False,
"forwarded" : False,
"english" : False
}  , {
"index" : 2,
"articleIndex" : "1405",
"favor" :  False ,
     "read" : False,    
"title" : "2013年会计从业资格考试备考指导",
"titleTip" : "2013年会计从业资格考试备考指导",
"titleSummary" : "2013年会计从业资格考试备考指导",
"descSummary" : "备考阶段考生如何应对外在因素--善于调节情绪才有利于高效学习 一是...",
"url" : "http:\/\/go.rss.sina.com.cn\/redirect.php?url=http:\/\/edu.sina.com.cn\/zgks\/2013-09-11\/1421394822.shtml",
"pubDate" : "2013年9月11日",
"enterDate" : "384200:57:45",
"channelId" : "-4196504422746458002",
"channelName" : "会计考试-新浪教育",
"channelNameSummary" : "会计考试-新浪教育",
"channelUrl" : "http:\/\/edu.sina.com.cn\/cpa\/index.shtml",
"author" : "WWW.SINA.COM.CN",
"tags" : [],
"desc" : "备考阶段考生如何应对外在因素\u2015\u2015善于调节情绪才有利于高效学习 一是转移。当火气上涌时，有意识地转移话题或做点别的事情来分散注意力，便可使情绪得到缓解。打打球、散散步、听听流行音乐，也有助于转移不愉快情绪。许多看似令人烦恼的事物，用转移的方法应对，往往....",
"emailed" : False,
"forwarded" : False,
"english" : False
}  , {
"index" : 3,
"articleIndex" : "1404",
"favor" :  False ,
     "read" : False,    
"title" : "2012年高级会计师考试案例分析题",
"titleTip" : "2012年高级会计师考试案例分析题",
"titleSummary" : "2012年高级会计师考试案例分析题",
"descSummary" : "http:\/\/blog.sina.com.cn\/chinaacc",
"url" : "http:\/\/go.rss.sina.com.cn\/redirect.php?url=http:\/\/blog.sina.com.cn\/s\/blog_476dfe9e0102e7ot.html",
"pubDate" : "2013年9月11日",
"enterDate" : "384200:55:31",
"channelId" : "-4196504422746458002",
"channelName" : "会计考试-新浪教育",
"channelNameSummary" : "会计考试-新浪教育",
"channelUrl" : "http:\/\/edu.sina.com.cn\/cpa\/index.shtml",
"author" : "WWW.SINA.COM.CN",
"tags" : [],
"desc" : "http:\/\/blog.sina.com.cn\/chinaacc",
"emailed" : False,
"forwarded" : False,
"english" : False
}  , {
"index" : 4,
"articleIndex" : "1403",
"favor" :  False ,
     "read" : False,    
"title" : "如何成功攻克中级会计师考试",
"titleTip" : "如何成功攻克中级会计师考试",
"titleSummary" : "如何成功攻克中级会计师考试",
"descSummary" : "http:\/\/blog.sina.com.cn\/chinaacc",
"url" : "http:\/\/go.rss.sina.com.cn\/redirect.php?url=http:\/\/blog.sina.com.cn\/s\/blog_476dfe9e0102e7oq.html",
"pubDate" : "2013年9月11日",
"enterDate" : "384200:53:52",
"channelId" : "-4196504422746458002",
"channelName" : "会计考试-新浪教育",
"channelNameSummary" : "会计考试-新浪教育",
"channelUrl" : "http:\/\/edu.sina.com.cn\/cpa\/index.shtml",
"author" : "WWW.SINA.COM.CN",
"tags" : [],
"desc" : "http:\/\/blog.sina.com.cn\/chinaacc",
"emailed" : False,
"forwarded" : False,
"english" : False
}  , {
"index" : 5,
"articleIndex" : "1402",
"favor" :  False ,
     "read" : False,    
"title" : "培训机构\u201C有关系\u201D帮拿中级会计证？",
"titleTip" : "培训机构\u201C有关系\u201D帮拿中级会计证？",
"titleSummary" : "培训机构\u201C有关系\u201D帮拿中级会计证？",
"descSummary" : "信息时报讯 (见习记者 陈博齐 记者 魏伯航) \u201C资历不够、学历不...",
"url" : "http:\/\/go.rss.sina.com.cn\/redirect.php?url=http:\/\/edu.sina.com.cn\/zgks\/2013-09-11\/1414394819.shtml",
"pubDate" : "2013年9月11日",
"enterDate" : "384200:50:46",
"channelId" : "-4196504422746458002",
"channelName" : "会计考试-新浪教育",
"channelNameSummary" : "会计考试-新浪教育",
"channelUrl" : "http:\/\/edu.sina.com.cn\/cpa\/index.shtml",
"author" : "WWW.SINA.COM.CN",
"tags" : [],
"desc" : "信息时报讯 (见习记者 陈博齐 记者 魏伯航) \u201C资历不够、学历不达标？没有关系，公司有特殊渠道能帮忙报名并拿到中级会计证。\u201D这是广州佰平人才培训有限公司工作人员在招生时的承诺。但学员偶然发现报名用的资料、会计资格证信息与实际不符，于是130名学员多次到佰平公司总部....",
"emailed" : False,
"forwarded" : False,
"english" : False
}  , {
"index" : 6,
"articleIndex" : "1401",
"favor" :  False ,
     "read" : False,    
"title" : "如何走出注册会计师学习\u201C疲劳期\u201D",
"titleTip" : "如何走出注册会计师学习\u201C疲劳期\u201D",
"titleSummary" : "如何走出注册会计师学习\u201C疲劳期\u201D",
"descSummary" : "一、要树立打大仗，打持久战的心态，切不可有闪电战的想法。注册...",
"url" : "http:\/\/go.rss.sina.com.cn\/redirect.php?url=http:\/\/edu.sina.com.cn\/zgks\/2013-08-07\/1019391413.shtml",
"pubDate" : "2013年8月7日",
"enterDate" : "384200:57:03",
"channelId" : "-4196504422746458002",
"channelName" : "会计考试-新浪教育",
"channelNameSummary" : "会计考试-新浪教育",
"channelUrl" : "http:\/\/edu.sina.com.cn\/cpa\/index.shtml",
"author" : "WWW.SINA.COM.CN",
"tags" : [],
"desc" : "一、要树立打大仗，打持久战的心态，切不可有闪电战的想法。 注册会计师难度较大，要记的知识多，考注册会计师，一定要有打持久战的心态。一年不行，用二年。 二、与其树立远大目标，不如先树立几个小目标分步实现。 一年内考5科。不如先看准2-3科动手。....",
"emailed" : False,
"forwarded" : False,
"english" : False
}  , {
"index" : 7,
"articleIndex" : "1400",
"favor" :  False ,
     "read" : False,    
"title" : "会计职称复习时需留意的三大问题",
"titleTip" : "会计职称复习时需留意的三大问题",
"titleSummary" : "会计职称复习时需留意的三大问题",
"descSummary" : "第一、只关注解题步骤，不关心解题思路 有很多学员本身的学习太多...",
"url" : "http:\/\/go.rss.sina.com.cn\/redirect.php?url=http:\/\/edu.sina.com.cn\/zgks\/2013-07-23\/1615389976.shtml",
"pubDate" : "2013年7月23日",
"enterDate" : "384200:49:15",
"channelId" : "-4196504422746458002",
"channelName" : "会计考试-新浪教育",
"channelNameSummary" : "会计考试-新浪教育",
"channelUrl" : "http:\/\/edu.sina.com.cn\/cpa\/index.shtml",
"author" : "WWW.SINA.COM.CN",
"tags" : [],
"desc" : "第一、只关注解题步骤，不关心解题思路 有很多学员本身的学习太多很认真，在做题的过程中，对于没有做对的题目也是很重视。对于没有思路的题目，看了答案，虽然不知在做什么，但会认认真真地从第一步开始，一步一步的看是怎么得来的，直到每一步都能搞清楚是如何计算所....",
"emailed" : False,
"forwarded" : False,
"english" : False
}  , {
"index" : 8,
"articleIndex" : "1399",
"favor" :  False ,
     "read" : False,    
"title" : "2013年会计从业资格考试备考战略",
"titleTip" : "2013年会计从业资格考试备考战略",
"titleSummary" : "2013年会计从业资格考试备考战略",
"descSummary" : "一、选择适合自己的复习方式 如果你是第一年考，底子又薄弱，第一...",
"url" : "http:\/\/go.rss.sina.com.cn\/redirect.php?url=http:\/\/edu.sina.com.cn\/zgks\/2013-07-23\/1614389975.shtml",
"pubDate" : "2013年7月23日",
"enterDate" : "384200:48:01",
"channelId" : "-4196504422746458002",
"channelName" : "会计考试-新浪教育",
"channelNameSummary" : "会计考试-新浪教育",
"channelUrl" : "http:\/\/edu.sina.com.cn\/cpa\/index.shtml",
"author" : "WWW.SINA.COM.CN",
"tags" : [],
"desc" : "一、选择适合自己的复习方式 如果你是第一年考，底子又薄弱，第一步，你需要报一个辅导班(要慎重选择，师资是决定因素)请有经验的教师为你把握各科重点，解析难点、分析考题，了解命题的思路；第二步，在理解全书的基础上适当做题；第三步，通过做题暴露出不足的之处，....",
"emailed" : False,
"forwarded" : False,
"english" : False
}  , {
"index" : 9,
"articleIndex" : "1398",
"favor" :  False ,
     "read" : False,    
"title" : "2013年注册税务师：考前准备及答卷技巧",
"titleTip" : "2013年注册税务师：考前准备及答卷技巧",
"titleSummary" : "2013年注册税务师：考前准备及答卷技巧",
"descSummary" : "考前应做那些准备？一、制定合理的考试目标。目标的确定应考...",
"url" : "http:\/\/go.rss.sina.com.cn\/redirect.php?url=http:\/\/edu.sina.com.cn\/zgks\/2013-07-18\/1437389309.shtml",
"pubDate" : "2013年7月18日",
"enterDate" : "384200:52:02",
"channelId" : "-4196504422746458002",
"channelName" : "会计考试-新浪教育",
"channelNameSummary" : "会计考试-新浪教育",
"channelUrl" : "http:\/\/edu.sina.com.cn\/cpa\/index.shtml",
"author" : "WWW.SINA.COM.CN",
"tags" : [],
"desc" : "考前应做那些准备？ 一、制定合理的考试目标。 目标的确定应考虑自己的实际情况。制定目标时可征求老师和家长的意见。目标一旦确定，就应努力达到。 二、制定周密的复习计划。 考前做好复习计划，有针对性地进行复习，这样才能有条不紊、张弛有度....",
"emailed" : False,
"forwarded" : False,
"english" : False
}  , {
"index" : 10,
"articleIndex" : "1397",
"favor" :  False ,
     "read" : False,    
"title" : "2013年会计从业资格考试之记忆口诀",
"titleTip" : "2013年会计从业资格考试之记忆口诀",
"titleSummary" : "2013年会计从业资格考试之记忆口诀",
"descSummary" : "利用口诀来理解记忆资产负债表有关项目的填列 在编制资产负债表...",
"url" : "http:\/\/go.rss.sina.com.cn\/redirect.php?url=http:\/\/edu.sina.com.cn\/zgks\/2013-07-18\/1433389307.shtml",
"pubDate" : "2013年7月18日",
"enterDate" : "384200:48:32",
"channelId" : "-4196504422746458002",
"channelName" : "会计考试-新浪教育",
"channelNameSummary" : "会计考试-新浪教育",
"channelUrl" : "http:\/\/edu.sina.com.cn\/cpa\/index.shtml",
"author" : "WWW.SINA.COM.CN",
"tags" : [],
"desc" : "利用口诀来理解记忆资产负债表有关项目的填列 在编制资产负债表，填写\u201C应收账款\u201D、\u201C预付账款\u201D、\u201C应付账款\u201D、\u201C预收账款\u201D这四个项目时，要区分对应明细账户的借方或者贷方余额来计算填列。我曾经总结了四个计算公式给学员，如下： 1、资产方应收账款项目....",
"emailed" : False,
"forwarded" : False,
"english" : False
}  , {
"index" : 11,
"articleIndex" : "1396",
"favor" :  False ,
     "read" : False,    
"title" : "轻松备考2013年注册会计师11大技巧",
"titleTip" : "轻松备考2013年注册会计师11大技巧",
"titleSummary" : "轻松备考2013年注册会计师11大技巧",
"descSummary" : "不要急于想知道别人是具体用什么方法来通过注册会计师考试的，而...",
"url" : "http:\/\/go.rss.sina.com.cn\/redirect.php?url=http:\/\/edu.sina.com.cn\/zgks\/2013-07-18\/1416389298.shtml",
"pubDate" : "2013年7月18日",
"enterDate" : "384201:01:23",
"channelId" : "-4196504422746458002",
"channelName" : "会计考试-新浪教育",
"channelNameSummary" : "会计考试-新浪教育",
"channelUrl" : "http:\/\/edu.sina.com.cn\/cpa\/index.shtml",
"author" : "WWW.SINA.COM.CN",
"tags" : [],
"desc" : "不要急于想知道别人是具体用什么方法来通过注册会计师考试的，而是要知道为什么别人用这样方法却通过了考试。在参考别人的方法时，你要抱着对待方法论的眼光看之。 1、看书时第一遍不要看得太细，要粗略地看，这样看的目的是为了将教材的相关内容大概了解一下，因为有....",
"emailed" : False,
"forwarded" : False,
"english" : False
}  , {
"index" : 12,
"articleIndex" : "1395",
"favor" :  False ,
     "read" : False,    
"title" : "会计从业资格管理7月1日起实施新办法",
"titleTip" : "会计从业资格管理7月1日起实施新办法",
"titleSummary" : "会计从业资格管理7月1日起实施新办法",
"descSummary" : "北京考试报讯(记者 蔡文玲) 根据财政部令第73号修订的《会计从...",
"url" : "http:\/\/go.rss.sina.com.cn\/redirect.php?url=http:\/\/edu.sina.com.cn\/zgks\/2013-07-03\/1446387272.shtml",
"pubDate" : "2013年7月3日",
"enterDate" : "384188:02:15",
"channelId" : "-4196504422746458002",
"channelName" : "会计考试-新浪教育",
"channelNameSummary" : "会计考试-新浪教育",
"channelUrl" : "http:\/\/edu.sina.com.cn\/cpa\/index.shtml",
"author" : "WWW.SINA.COM.CN",
"tags" : [],
"desc" : "北京考试报讯(记者 蔡文玲) 根据财政部令第73号修订的《会计从业资格管理办法》自7月1日起施行。 修订后的《会计从业资格管理办法》共分五个章节，规范了会计人员行为，对从事会计工作人员取证作了规定。根据规定：不具备会计从业资格的人员，不得从事会计工作，不得参....",
"emailed" : False,
"forwarded" : False,
"english" : False
}  , {
"index" : 13,
"articleIndex" : "1394",
"favor" :  False ,
     "read" : False,    
"title" : "2013会计专业技术资格考试206万考生报考",
"titleTip" : "2013会计专业技术资格考试206万考生报考",
"titleSummary" : "2013会计专业技术资格考试206万考生报考",
"descSummary" : "北京考试报讯(记者 蔡文玲) 2013年全国会计专业技术资格考试...",
"url" : "http:\/\/go.rss.sina.com.cn\/redirect.php?url=http:\/\/edu.sina.com.cn\/zgks\/2013-06-13\/1017384182.shtml",
"pubDate" : "2013年6月13日",
"enterDate" : "384201:03:06",
"channelId" : "-4196504422746458002",
"channelName" : "会计考试-新浪教育",
"channelNameSummary" : "会计考试-新浪教育",
"channelUrl" : "http:\/\/edu.sina.com.cn\/cpa\/index.shtml",
"author" : "WWW.SINA.COM.CN",
"tags" : [],
"desc" : "北京考试报讯(记者 蔡文玲)&#160; 2013年全国会计专业技术资格考试报名日前结束。记者从财政部会计资格评价中心获悉，由于会计资格证书的信誉和含金量不断提高，吸引了较多有志于从事会计工作的谋职者参加考试。此次考试报名人数超200万，创20年来新高。 2013年度全国....",
"emailed" : False,
"forwarded" : False,
"english" : False
}  , {
"index" : 14,
"articleIndex" : "1393",
"favor" :  False ,
     "read" : False,    
"title" : "首届IMA管理会计论坛在京举行",
"titleTip" : "首届IMA管理会计论坛在京举行",
"titleSummary" : "首届IMA管理会计论坛在京举行",
"descSummary" : "5月24日，首届IMA管理会计论坛在北京大学举行。本次论坛由美国管理会...",
"url" : "http:\/\/go.rss.sina.com.cn\/redirect.php?url=http:\/\/edu.sina.com.cn\/zgks\/2013-05-29\/1034381639.shtml",
"pubDate" : "2013年5月29日",
"enterDate" : "384201:02:52",
"channelId" : "-4196504422746458002",
"channelName" : "会计考试-新浪教育",
"channelNameSummary" : "会计考试-新浪教育",
"channelUrl" : "http:\/\/edu.sina.com.cn\/cpa\/index.shtml",
"author" : "WWW.SINA.COM.CN",
"tags" : [],
"desc" : "5月24日，首届IMA管理会计论坛在北京大学举行。本次论坛由美国管理会计师协会(IMA)和北京大学国际会计与财务研究中心主办，聚焦IMA《管理会计公告》和案例的研究及使用，国资委综合局局长刘南昌、国资委研究中心主任助理王志钢、北京大学光华管理学院副院长吴联生教授和IMA研....",
"emailed" : False,
"forwarded" : False,
"english" : False
}  , {
"index" : 15,
"articleIndex" : "1392",
"favor" :  False ,
     "read" : False,    
"title" : "高级审计资格考试启用新大纲",
"titleTip" : "高级审计资格考试启用新大纲",
"titleSummary" : "高级审计资格考试启用新大纲",
"descSummary" : "北京考试报讯(记者 蔡文玲)记者从审计署考试中心获悉，2013年审计资格...",
"url" : "http:\/\/go.rss.sina.com.cn\/redirect.php?url=http:\/\/edu.sina.com.cn\/zgks\/2013-05-22\/1440381110.shtml",
"pubDate" : "2013年5月22日",
"enterDate" : "384201:08:31",
"channelId" : "-4196504422746458002",
"channelName" : "会计考试-新浪教育",
"channelNameSummary" : "会计考试-新浪教育",
"channelUrl" : "http:\/\/edu.sina.com.cn\/cpa\/index.shtml",
"author" : "WWW.SINA.COM.CN",
"tags" : [],
"desc" : "北京考试报讯(记者 蔡文玲)记者从审计署考试中心获悉，2013年审计资格考试报名已经开始，北京地区网上报名已于5月17日启动。本次考试中的高级资格将使用2013年大纲。 审计署考试中心处长李云玲介绍，2013年高级考试大纲在社会主义市场经济部分做了一些调整，随着十八大....",
"emailed" : False,
"forwarded" : False,
"english" : False
}  , {
"index" : 16,
"articleIndex" : "1391",
"favor" :  False ,
     "read" : False,    
"title" : "注会考试经验：非会计专业一次过六门",
"titleTip" : "注会考试经验：非会计专业一次过六门",
"titleSummary" : "注会考试经验：非会计专业一次过六门",
"descSummary" : "我是非会计专业的，本科学的是市场营销，但是上大学的时候，我...",
"url" : "http:\/\/go.rss.sina.com.cn\/redirect.php?url=http:\/\/edu.sina.com.cn\/zgks\/2013-05-20\/1443380843.shtml",
"pubDate" : "2013年5月20日",
"enterDate" : "384200:48:57",
"channelId" : "-4196504422746458002",
"channelName" : "会计考试-新浪教育",
"channelNameSummary" : "会计考试-新浪教育",
"channelUrl" : "http:\/\/edu.sina.com.cn\/cpa\/index.shtml",
"author" : "WWW.SINA.COM.CN",
"tags" : [],
"desc" : "我是非会计专业的，本科学的是市场营销，但是上大学的时候，我学过了32个学时的会计基础，对会计便产生了浓厚的兴趣，想在大学的时候利用空余时间学一点技术方面的，拓宽自己的就业面，我就报考了注会，当时因为年龄不够，所以报考了2012年度的注册会计师考试。 开始一....",
"emailed" : False,
"forwarded" : False,
"english" : False
}  , {
"index" : 17,
"articleIndex" : "1390",
"favor" :  False ,
     "read" : False,    
"title" : "2013年会计从业资格考试知识点记忆方法",
"titleTip" : "2013年会计从业资格考试知识点记忆方法",
"titleSummary" : "2013年会计从业资格考试知识点记忆方法",
"descSummary" : "在学习过程中，记忆是所有人通往成功的一大障碍，有时在考试...",
"url" : "http:\/\/go.rss.sina.com.cn\/redirect.php?url=http:\/\/edu.sina.com.cn\/zgks\/2013-05-20\/1438380841.shtml",
"pubDate" : "2013年5月20日",
"enterDate" : "384201:13:52",
"channelId" : "-4196504422746458002",
"channelName" : "会计考试-新浪教育",
"channelNameSummary" : "会计考试-新浪教育",
"channelUrl" : "http:\/\/edu.sina.com.cn\/cpa\/index.shtml",
"author" : "WWW.SINA.COM.CN",
"tags" : [],
"desc" : "在学习过程中，记忆是所有人通往成功的一大障碍，有时在考试过程中我们会感觉某个知识点学习过，并不难，就是不能清晰的记忆和熟练的运用。如果这样的试题我们都可以清楚记忆并准确作答，那我们所面对的考试就简单的多了。好的记忆能够帮助我们更好的达到学习效果，为帮助大家....",
"emailed" : False,
"forwarded" : False,
"english" : False
}  , {
"index" : 18,
"articleIndex" : "1389",
"favor" :  False ,
     "read" : False,    
"title" : "会计硕士报考特许公认会计师可免试9科",
"titleTip" : "会计硕士报考特许公认会计师可免试9科",
"titleSummary" : "会计硕士报考特许公认会计师可免试9科",
"descSummary" : "北京考试报讯(记者 蔡文玲)特许公认会计师公会(ACCA)近日公布...",
"url" : "http:\/\/go.rss.sina.com.cn\/redirect.php?url=http:\/\/edu.sina.com.cn\/zgks\/2013-05-15\/1438380352.shtml",
"pubDate" : "2013年5月15日",
"enterDate" : "384201:13:48",
"channelId" : "-4196504422746458002",
"channelName" : "会计考试-新浪教育",
"channelNameSummary" : "会计考试-新浪教育",
"channelUrl" : "http:\/\/edu.sina.com.cn\/cpa\/index.shtml",
"author" : "WWW.SINA.COM.CN",
"tags" : [],
"desc" : "北京考试报讯(记者 蔡文玲)特许公认会计师公会(ACCA)近日公布一项针对会计专业硕士(MPAcc)学位持有者及MPAcc在校生的最新免试政策。根据该政策，会计硕士报考特许公认会计师最多可免试9科。 对MPAcc学位持有者，ACCA将给予其9门科目(F1-F9)免试；对MPAcc教育指导委员会....",
"emailed" : False,
"forwarded" : False,
"english" : False
}  , {
"index" : 19,
"articleIndex" : "1388",
"favor" :  False ,
     "read" : False,    
"title" : "中级会计师职称考试经验分享",
"titleTip" : "中级会计师职称考试经验分享",
"titleSummary" : "中级会计师职称考试经验分享",
"descSummary" : "2012年一次性全科通过中级会计师职称考试，虽然一出考场就比较有信心...",
"url" : "http:\/\/go.rss.sina.com.cn\/redirect.php?url=http:\/\/edu.sina.com.cn\/zgks\/2013-05-14\/1425380142.shtml",
"pubDate" : "2013年5月14日",
"enterDate" : "384201:05:02",
"channelId" : "-4196504422746458002",
"channelName" : "会计考试-新浪教育",
"channelNameSummary" : "会计考试-新浪教育",
"channelUrl" : "http:\/\/edu.sina.com.cn\/cpa\/index.shtml",
"author" : "WWW.SINA.COM.CN",
"tags" : [],
"desc" : "2012年一次性全科通过中级会计师职称考试，虽然一出考场就比较有信心，但分数出来的时候还是很惊喜，能在毕业6年之后重新拾起书本备战考试，辛苦自不必说，感谢网校，但是更感谢自己，能坚持过来没有放弃，坚持就是对自己最好的认可。在此，将我的学习心得写出来，希望能对后....",
"emailed" : False,
"forwarded" : False,
"english" : False
} ]
}
