{
"mode" : {"viewTitle" : 1,   "viewNew" : 0,  "pageIndex" : 1 },
 "channel" : {"id" : "673187875072618404", "booked" : False, "subNumber" : 1, "name" : "体育要闻汇总-新浪娱乐", "url" : "http:\/\/news.sina.com.cn\/news1000\/index.shtml?requestOrder=4", "feed" : "http:\/\/rss.sina.com.cn\/roll\/sports\/hot_roll.xml", "author" : "WWW.SINA.COM.CN", "desc" : "体育要闻汇总", "imageUrl" : "http:\/\/www.sinaimg.cn\/ty\/deco\/2010\/0601\/logo_home_sports_nonike2.gif", "postPerWeek" : "0", "lastCrawTime" : "2013年10月23日 (1周前)", "crawDateTime" : "2013年10月23日 (1周前)", "lastHttpCode" : "200"}, "page" : {
"startIndex" : 0,
"totalCount" : 5000,
"pageIndex" : 1,
"lastPage" : 250,
"pageSize" : 20,
"english" :  False },
 "unreadNum" : 0, "shotIndex" : -1,
"articles" : [
{
"index" : 0,
"articleIndex" : "496678",
"favor" :  False ,
     "read" : False,    
"title" : "欧冠曼城首发:阿圭罗纳瓦斯出战 内格雷多单前锋",
"titleTip" : "欧冠曼城首发:阿圭罗纳瓦斯出战 内格雷多单前锋",
"titleSummary" : "欧冠曼城首发:阿圭罗纳瓦斯出战 内格雷多单前锋",
"descSummary" : "北京时间10月24日0时，2013-14赛季欧冠小组赛第3轮的...",
"url" : "http:\/\/go.rss.sina.com.cn\/redirect.php?url=http:\/\/sports.sina.com.cn\/g\/ucl\/2013-10-23\/23116846253.shtml",
"pubDate" : "2013年10月23日 (1周前)",
"enterDate" : "384200:57:52",
"channelId" : "673187875072618404",
"channelName" : "体育要闻汇总-新浪娱乐",
"channelNameSummary" : "体育要闻汇总-新浪娱...",
"channelUrl" : "http:\/\/news.sina.com.cn\/news1000\/index.shtml?requestOrder=4",
"author" : "WWW.SINA.COM.CN",
"tags" : [],
"desc" : "北京时间10月24日0时，2013-14赛季欧冠小组赛第3轮的比赛继续进行，在D组率先进行的一场比赛中，曼城客场挑战莫斯科中央陆军队。赛前，新浪体育为您带来双方首发。 曼城：4231 门将：1-乔哈特 后卫：5-萨巴莱塔、14-哈维-加西亚、33-纳斯塔西奇、13-科拉....",
"emailed" : False,
"forwarded" : False,
"english" : False
}  , {
"index" : 1,
"articleIndex" : "496677",
"favor" :  False ,
     "read" : False,    
"title" : "小球迷举标语示爱李娜 阿扎教练观战刺探军情(图)",
"titleTip" : "小球迷举标语示爱李娜 阿扎教练观战刺探军情(图)",
"titleSummary" : "小球迷举标语示爱李娜 阿扎教练观战刺探军情(图)",
"descSummary" : "北京时间10月23日消息，连续第三年，李娜[微博]出现在...",
"url" : "http:\/\/go.rss.sina.com.cn\/redirect.php?url=http:\/\/sports.sina.com.cn\/t\/2013-10-23\/22586846248.shtml",
"pubDate" : "2013年10月23日 (1周前)",
"enterDate" : "384201:14:43",
"channelId" : "673187875072618404",
"channelName" : "体育要闻汇总-新浪娱乐",
"channelNameSummary" : "体育要闻汇总-新浪娱...",
"channelUrl" : "http:\/\/news.sina.com.cn\/news1000\/index.shtml?requestOrder=4",
"author" : "WWW.SINA.COM.CN",
"tags" : [],
"desc" : "北京时间10月23日消息，连续第三年，李娜[微博]出现在了WTA[微博]年终总决赛中。在赛前的采访中，李娜也表示十分期待着能够重返伊斯坦布尔，而面对着首战的对手埃拉尼，她也希望自己能够打得更有侵略性。 在前一日的比赛中，埃拉尼与阿扎伦卡[微博]的首盘争夺异常激烈....",
"emailed" : False,
"forwarded" : False,
"english" : False
}  , {
"index" : 2,
"articleIndex" : "496676",
"favor" :  False ,
     "read" : False,    
"title" : "24日13时视频直播世界象棋锦标赛第5轮精彩对局",
"titleTip" : "24日13时视频直播世界象棋锦标赛第5轮精彩对局",
"titleSummary" : "24日13时视频直播世界象棋锦标赛第5轮精彩对局",
"descSummary" : "10月24日，\u201C碧桂园杯\u201D第十三届世界象棋锦标赛将于...",
"url" : "http:\/\/go.rss.sina.com.cn\/redirect.php?url=http:\/\/sports.sina.com.cn\/go\/2013-10-23\/22516846244.shtml",
"pubDate" : "2013年10月23日 (1周前)",
"enterDate" : "384201:07:36",
"channelId" : "673187875072618404",
"channelName" : "体育要闻汇总-新浪娱乐",
"channelNameSummary" : "体育要闻汇总-新浪娱...",
"channelUrl" : "http:\/\/news.sina.com.cn\/news1000\/index.shtml?requestOrder=4",
"author" : "WWW.SINA.COM.CN",
"tags" : [],
"desc" : "10月24日，\u201C碧桂园杯\u201D第十三届世界象棋锦标赛将于13时在广东省惠东县碧桂园十里银滩酒店打响第5轮的比赛。届时新浪将为您视频直播焦点对局，欢迎广大棋迷收看。 点击进入视频直播间",
"emailed" : False,
"forwarded" : False,
"english" : False
}  , {
"index" : 3,
"articleIndex" : "496675",
"favor" :  False ,
     "read" : False,    
"title" : "筷子功PK赛梁文冲轻松取胜 斯滕森称技巧类似握杆",
"titleTip" : "筷子功PK赛梁文冲轻松取胜 斯滕森称技巧类似握杆",
"titleSummary" : "筷子功PK赛梁文冲轻松取胜 斯滕森称技巧类似握杆",
"descSummary" : "北京时间10月23日，在2013年BMW大师赛的周三，欧...",
"url" : "http:\/\/go.rss.sina.com.cn\/redirect.php?url=http:\/\/sports.sina.com.cn\/golf\/2013-10-23\/22336846240.shtml",
"pubDate" : "2013年10月23日 (1周前)",
"enterDate" : "384200:49:00",
"channelId" : "673187875072618404",
"channelName" : "体育要闻汇总-新浪娱乐",
"channelNameSummary" : "体育要闻汇总-新浪娱...",
"channelUrl" : "http:\/\/news.sina.com.cn\/news1000\/index.shtml?requestOrder=4",
"author" : "WWW.SINA.COM.CN",
"tags" : [],
"desc" : "北京时间10月23日，在2013年BMW大师赛的周三，欧巡电视方举办了一场球员筷子夹球PK赛，在一分钟的时间里，球员需要将筐子里的高尔夫球夹移到另一个框里，工具是中国的传统餐具\u2015\u2015筷子。而最终由夹出球的个数来决定胜利。焦点之争发生在梁文冲和斯滕森之间。 联邦杯总....",
"emailed" : False,
"forwarded" : False,
"english" : False
}  , {
"index" : 4,
"articleIndex" : "496674",
"favor" :  False ,
     "read" : False,    
"title" : "乒超女团-刘诗雯2分山西2-3送八一榜首 广东16连败",
"titleTip" : "乒超女团-刘诗雯2分山西2-3送八一榜首 广东16连败",
"titleSummary" : "乒超女团-刘诗雯2分山西2-3送八一榜首 广东16连败",
"descSummary" : "北京时间10月23日消息，2013年中国乒乓球[微博]俱乐...",
"url" : "http:\/\/go.rss.sina.com.cn\/redirect.php?url=http:\/\/sports.sina.com.cn\/o\/2013-10-23\/22306846239.shtml",
"pubDate" : "2013年10月23日 (1周前)",
"enterDate" : "384200:46:47",
"channelId" : "673187875072618404",
"channelName" : "体育要闻汇总-新浪娱乐",
"channelNameSummary" : "体育要闻汇总-新浪娱...",
"channelUrl" : "http:\/\/news.sina.com.cn\/news1000\/index.shtml?requestOrder=4",
"author" : "WWW.SINA.COM.CN",
"tags" : [],
"desc" : "北京时间10月23日消息，2013年中国乒乓球[微博]俱乐部超级联赛女子团体结束第18轮的争夺，虽然刘诗雯[微博]独得两分，她仍无法阻止山西队2比3不敌八一队，八一队拿到第一阶段头名；大同队3比1战胜大连队，大同队和山西队分列二三位；丁宁拿到两分带领北京队3比1战胜金华队，排....",
"emailed" : False,
"forwarded" : False,
"english" : False
}  , {
"index" : 5,
"articleIndex" : "496673",
"favor" :  False ,
     "read" : False,    
"title" : "孙继海：落后因精神不集中 起跑赢先机冲刺结果难说",
"titleTip" : "孙继海：落后因精神不集中 起跑赢先机冲刺结果难说",
"titleSummary" : "孙继海：落后因精神不集中 起跑赢先机冲刺结果难说",
"descSummary" : "足协杯半决赛首回合阿尔滨主场1-2不敌贵州人和，...",
"url" : "http:\/\/go.rss.sina.com.cn\/redirect.php?url=http:\/\/sports.sina.com.cn\/j\/2013-10-23\/22236846234.shtml",
"pubDate" : "2013年10月23日 (1周前)",
"enterDate" : "384201:09:10",
"channelId" : "673187875072618404",
"channelName" : "体育要闻汇总-新浪娱乐",
"channelNameSummary" : "体育要闻汇总-新浪娱...",
"channelUrl" : "http:\/\/news.sina.com.cn\/news1000\/index.shtml?requestOrder=4",
"author" : "WWW.SINA.COM.CN",
"tags" : [],
"desc" : "足协杯半决赛首回合阿尔滨主场1-2不敌贵州人和，阿尔滨进军决赛的希望变得渺茫，而贵州距离连续两年闯进足协杯决赛越来越近。赛后孙继海接受记者采访时表示：\u201C 上半场贵州队先丢一球，孙继海指出了球队防守上的不足，他说：\u201C在上半时我们曾经比分落后，当时因为我们....",
"emailed" : False,
"forwarded" : False,
"english" : False
}  , {
"index" : 6,
"articleIndex" : "496672",
"favor" :  False ,
     "read" : False,    
"title" : "大乐透13125期攻略：重码防二区 后区看小大组合",
"titleTip" : "大乐透13125期攻略：重码防二区 后区看小大组合",
"titleSummary" : "大乐透13125期攻略：重码防二区 后区看小大组合",
"descSummary" : "10月23日晚，大乐透13124期开出奖号为05、07、18、2...",
"url" : "http:\/\/go.rss.sina.com.cn\/redirect.php?url=http:\/\/sports.sina.com.cn\/l\/2013-10-23\/21576846223.shtml",
"pubDate" : "2013年10月23日 (1周前)",
"enterDate" : "384201:14:09",
"channelId" : "673187875072618404",
"channelName" : "体育要闻汇总-新浪娱乐",
"channelNameSummary" : "体育要闻汇总-新浪娱...",
"channelUrl" : "http:\/\/news.sina.com.cn\/news1000\/index.shtml?requestOrder=4",
"author" : "WWW.SINA.COM.CN",
"tags" : [],
"desc" : "10月23日晚，大乐透13124期开出奖号为05、07、18、21、32+10、11，回顾当期开奖，三区间比开出2:2:1，一区自结束断区后奖号回补较为平稳，在123期3枚奖号热势影响下，重码仍暂时遗漏1期；而受123期2组连号强势影响，124连号期亦暂时隐身。后区再接连重码的热势开出下，跨度急....",
"emailed" : False,
"forwarded" : False,
"english" : False
}  , {
"index" : 7,
"articleIndex" : "496671",
"favor" :  False ,
     "read" : False,    
"title" : "双色球历年亿元派奖首期 重码同尾火热蓝球必大号",
"titleTip" : "双色球历年亿元派奖首期 重码同尾火热蓝球必大号",
"titleSummary" : "双色球历年亿元派奖首期 重码同尾火热蓝球必大号",
"descSummary" : "我国彩票史上最大派奖活动于125期正式启动！本次活...",
"url" : "http:\/\/go.rss.sina.com.cn\/redirect.php?url=http:\/\/sports.sina.com.cn\/l\/2013-10-23\/21546846219.shtml",
"pubDate" : "2013年10月23日 (1周前)",
"enterDate" : "384201:10:31",
"channelId" : "673187875072618404",
"channelName" : "体育要闻汇总-新浪娱乐",
"channelNameSummary" : "体育要闻汇总-新浪娱...",
"channelUrl" : "http:\/\/news.sina.com.cn\/news1000\/index.shtml?requestOrder=4",
"author" : "WWW.SINA.COM.CN",
"tags" : [],
"desc" : "我国彩票史上最大派奖活动于125期正式启动！本次活动以派奖金额最大(3亿)、派奖期数最少(30期)、2元可中1500万而广受大家欢迎。自2007年起，今年已是双色球亿元大派奖活动的第七个年头，而每年活动的开奖首期呈现怎样的状况，值得我们探究。 蓝球100%开出大号 重码同尾....",
"emailed" : False,
"forwarded" : False,
"english" : False
}  , {
"index" : 8,
"articleIndex" : "496670",
"favor" :  False ,
     "read" : False,    
"title" : "克鲁尼奇：非常不满意主场输球 客场定拼到最后一刻",
"titleTip" : "克鲁尼奇：非常不满意主场输球 客场定拼到最后一刻",
"titleSummary" : "克鲁尼奇：非常不满意主场输球 客场定拼到最后一刻",
"descSummary" : "足协杯半决赛首回合阿尔滨主场1-2不敌贵州人和[微...",
"url" : "http:\/\/go.rss.sina.com.cn\/redirect.php?url=http:\/\/sports.sina.com.cn\/j\/2013-10-23\/21506846218.shtml",
"pubDate" : "2013年10月23日 (1周前)",
"enterDate" : "384201:06:41",
"channelId" : "673187875072618404",
"channelName" : "体育要闻汇总-新浪娱乐",
"channelNameSummary" : "体育要闻汇总-新浪娱...",
"channelUrl" : "http:\/\/news.sina.com.cn\/news1000\/index.shtml?requestOrder=4",
"author" : "WWW.SINA.COM.CN",
"tags" : [],
"desc" : "足协杯半决赛首回合阿尔滨主场1-2不敌贵州人和[微博]，阿尔滨进军决赛的希望变得渺茫，而贵州距离连续两年闯进足协杯决赛越来越近。赛后两队主帅出席了新闻发布会，阿尔滨克鲁尼奇表示：\u201C今天的结果我非常不满意。很遗憾领先时候我们没有保持住，下回合比赛我们还需全力以赴....",
"emailed" : False,
"forwarded" : False,
"english" : False
}  , {
"index" : 9,
"articleIndex" : "496669",
"favor" :  False ,
     "read" : False,    
"title" : "宫磊：半场调整战术奏效 双线好状态要确保亚冠资格",
"titleTip" : "宫磊：半场调整战术奏效 双线好状态要确保亚冠资格",
"titleSummary" : "宫磊：半场调整战术奏效 双线好状态要确保亚冠资格",
"descSummary" : "足协杯半决赛首回合阿尔滨主场1-2不敌贵州人和，...",
"url" : "http:\/\/go.rss.sina.com.cn\/redirect.php?url=http:\/\/sports.sina.com.cn\/j\/2013-10-23\/21486846216.shtml",
"pubDate" : "2013年10月23日 (1周前)",
"enterDate" : "384201:05:04",
"channelId" : "673187875072618404",
"channelName" : "体育要闻汇总-新浪娱乐",
"channelNameSummary" : "体育要闻汇总-新浪娱...",
"channelUrl" : "http:\/\/news.sina.com.cn\/news1000\/index.shtml?requestOrder=4",
"author" : "WWW.SINA.COM.CN",
"tags" : [],
"desc" : "足协杯半决赛首回合阿尔滨主场1-2不敌贵州人和，阿尔滨进军决赛的希望变得渺茫，而贵州距离连续两年闯进足协杯决赛越来越近。赛后两队主帅出席了新闻发布会，贵州主帅宫磊表示：\u201C为了备战本场比赛我们做了很多功课，逆转取胜要恭喜队员。接下来以好的状态迎战联赛和杯赛双线....",
"emailed" : False,
"forwarded" : False,
"english" : False
}  , {
"index" : 10,
"articleIndex" : "496668",
"favor" :  False ,
     "read" : False,    
"title" : "双色球第13125期数据提醒：蓝球看奇数 一同尾疯狂",
"titleTip" : "双色球第13125期数据提醒：蓝球看奇数 一同尾疯狂",
"titleSummary" : "双色球第13125期数据提醒：蓝球看奇数 一同尾疯狂",
"descSummary" : "1.双色球124期开出头奖8注500万，奖池时隔4期再上...",
"url" : "http:\/\/go.rss.sina.com.cn\/redirect.php?url=http:\/\/sports.sina.com.cn\/l\/2013-10-23\/21486846215.shtml",
"pubDate" : "2013年10月23日 (1周前)",
"enterDate" : "384201:04:34",
"channelId" : "673187875072618404",
"channelName" : "体育要闻汇总-新浪娱乐",
"channelNameSummary" : "体育要闻汇总-新浪娱...",
"channelUrl" : "http:\/\/news.sina.com.cn\/news1000\/index.shtml?requestOrder=4",
"author" : "WWW.SINA.COM.CN",
"tags" : [],
"desc" : "1.双色球124期开出头奖8注500万，奖池时隔4期再上一亿大关。返奖率连续4期低迷，而销量也不过3.47亿。但即将改写历史的双色球3亿奖金马上开始，第125期就可冲击2元中1500万，销量势必也将大涨！大家可不要错失机会！ 2.从2003--2012年，双色球125期有8次开奖，奇偶比例....",
"emailed" : False,
"forwarded" : False,
"english" : False
}  , {
"index" : 11,
"articleIndex" : "496667",
"favor" :  False ,
     "read" : False,    
"title" : "米西表态回主场赢球进决赛 穆斯利破球荒欲再度进球",
"titleTip" : "米西表态回主场赢球进决赛 穆斯利破球荒欲再度进球",
"titleSummary" : "米西表态回主场赢球进决赛 穆斯利破球荒欲再度进球",
"descSummary" : "客场2比1逆转，贵州人和[微博]在足协杯半决赛首回...",
"url" : "http:\/\/go.rss.sina.com.cn\/redirect.php?url=http:\/\/sports.sina.com.cn\/j\/2013-10-23\/21436846214.shtml",
"pubDate" : "2013年10月23日 (1周前)",
"enterDate" : "384200:59:36",
"channelId" : "673187875072618404",
"channelName" : "体育要闻汇总-新浪娱乐",
"channelNameSummary" : "体育要闻汇总-新浪娱...",
"channelUrl" : "http:\/\/news.sina.com.cn\/news1000\/index.shtml?requestOrder=4",
"author" : "WWW.SINA.COM.CN",
"tags" : [],
"desc" : "客场2比1逆转，贵州人和[微博]在足协杯半决赛首回合收获了一个不能在满意的结果。而这场客场胜利也基本上让贵州人和的一只脚踏入决赛。但是，贵州人和的高层和核心米西莫维奇都表示比赛还有90分钟，客场获胜并不能代表球队已经进入决赛，\u201C回到主场，我们会忘记这场胜利，在主....",
"emailed" : False,
"forwarded" : False,
"english" : False
}  , {
"index" : 12,
"articleIndex" : "496666",
"favor" :  False ,
     "read" : False,    
"title" : "国安内部教学赛考察边卫 乌塔卡邵佳一2球主力5-0胜",
"titleTip" : "国安内部教学赛考察边卫 乌塔卡邵佳一2球主力5-0胜",
"titleSummary" : "国安内部教学赛考察边卫 乌塔卡邵佳一2球主力5-0胜",
"descSummary" : "联赛还有两轮，国安[微博]只领先人和1分，还有争...",
"url" : "http:\/\/go.rss.sina.com.cn\/redirect.php?url=http:\/\/sports.sina.com.cn\/j\/2013-10-23\/21406846210.shtml",
"pubDate" : "2013年10月23日 (1周前)",
"enterDate" : "384200:56:49",
"channelId" : "673187875072618404",
"channelName" : "体育要闻汇总-新浪娱乐",
"channelNameSummary" : "体育要闻汇总-新浪娱...",
"channelUrl" : "http:\/\/news.sina.com.cn\/news1000\/index.shtml?requestOrder=4",
"author" : "WWW.SINA.COM.CN",
"tags" : [],
"desc" : "联赛还有两轮，国安[微博]只领先人和1分，还有争夺亚冠名额的任务。可就在这个时候，国安的两个边后卫却受伤了。在今天的内部对抗赛中，国安主力5-0击败预备队，邵佳一[微博]和乌塔卡[微博]各进两球，张稀哲[微博]也打入一球。比赛中李提香和张呈栋[微博]出现在边后卫的位置上....",
"emailed" : False,
"forwarded" : False,
"english" : False
}  , {
"index" : 13,
"articleIndex" : "496665",
"favor" :  False ,
     "read" : False,    
"title" : "安蒂奇称重用小将多给吴兴涵机会 球迷笑言4-0国安",
"titleTip" : "安蒂奇称重用小将多给吴兴涵机会 球迷笑言4-0国安",
"titleSummary" : "安蒂奇称重用小将多给吴兴涵机会 球迷笑言4-0国安",
"descSummary" : "北京时间10月23日，山东鲁能[微博]在基地备战30日进...",
"url" : "http:\/\/go.rss.sina.com.cn\/redirect.php?url=http:\/\/sports.sina.com.cn\/j\/2013-10-23\/21346846181.shtml",
"pubDate" : "2013年10月23日 (1周前)",
"enterDate" : "384200:50:15",
"channelId" : "673187875072618404",
"channelName" : "体育要闻汇总-新浪娱乐",
"channelNameSummary" : "体育要闻汇总-新浪娱...",
"channelUrl" : "http:\/\/news.sina.com.cn\/news1000\/index.shtml?requestOrder=4",
"author" : "WWW.SINA.COM.CN",
"tags" : [],
"desc" : "北京时间10月23日，山东鲁能[微博]在基地备战30日进行的京鲁大战。在训练后接受采访时，鲁能主帅安蒂奇表态，未来的两轮联赛会多给小将机会，尤其是吴兴涵[微博]。 在客场与舜天的比赛中，安蒂奇启用了小将李松益[微博]，这位93年的中卫发挥也不错，此外吴兴涵、刘彬彬....",
"emailed" : False,
"forwarded" : False,
"english" : False
}  , {
"index" : 14,
"articleIndex" : "496664",
"favor" :  False ,
     "read" : False,    
"title" : "张连伟连续两周大赛前20名 本周BMW大师赛信心足",
"titleTip" : "张连伟连续两周大赛前20名 本周BMW大师赛信心足",
"titleSummary" : "张连伟连续两周大赛前20名 本周BMW大师赛信心足",
"descSummary" : "北京时间10月23日，上一周在澳门公开赛获得并列第...",
"url" : "http:\/\/go.rss.sina.com.cn\/redirect.php?url=http:\/\/sports.sina.com.cn\/golf\/2013-10-23\/21316846180.shtml",
"pubDate" : "2013年10月23日 (1周前)",
"enterDate" : "384200:48:00",
"channelId" : "673187875072618404",
"channelName" : "体育要闻汇总-新浪娱乐",
"channelNameSummary" : "体育要闻汇总-新浪娱...",
"channelUrl" : "http:\/\/news.sina.com.cn\/news1000\/index.shtml?requestOrder=4",
"author" : "WWW.SINA.COM.CN",
"tags" : [],
"desc" : "北京时间10月23日，上一周在澳门公开赛获得并列第17名后，中国高尔夫\u201C大哥\u201D张连伟[微博]继续征战本周BMW大师赛，这也是他连续第三场国际大赛。在今天练习日，笔者在场上碰到他时，这位老将显得心情不错，对本周比赛也非常有信心。 见到张连伟的时候，他正在练习果岭....",
"emailed" : False,
"forwarded" : False,
"english" : False
}  , {
"index" : 15,
"articleIndex" : "496662",
"favor" :  False ,
     "read" : False,    
"title" : "大乐透13124期：江苏揽1注1000万头奖 奖池2.07亿",
"titleTip" : "大乐透13124期：江苏揽1注1000万头奖 奖池2.07亿",
"titleSummary" : "大乐透13124期：江苏揽1注1000万头奖 奖池2.07亿",
"descSummary" : "35选5加12选2第13124期 基本玩法开奖结果 中奖号码...",
"url" : "http:\/\/go.rss.sina.com.cn\/redirect.php?url=http:\/\/sports.sina.com.cn\/l\/2013-10-23\/21246846166.shtml",
"pubDate" : "2013年10月23日 (1周前)",
"enterDate" : "384201:11:12",
"channelId" : "673187875072618404",
"channelName" : "体育要闻汇总-新浪娱乐",
"channelNameSummary" : "体育要闻汇总-新浪娱...",
"channelUrl" : "http:\/\/news.sina.com.cn\/news1000\/index.shtml?requestOrder=4",
"author" : "WWW.SINA.COM.CN",
"tags" : [],
"desc" : "35选5加12选2第13124期 基本玩法开奖结果 中奖号码：05 07 18 21 32+10 11 奖 级 中奖注数(注) 每注奖金(元) 一 等 奖 1 10,000,000....",
"emailed" : False,
"forwarded" : False,
"english" : False
}  , {
"index" : 16,
"articleIndex" : "496663",
"favor" :  False ,
     "read" : False,    
"title" : "东京FC下赛季不续聘波波维奇 国米飞翼恩师或入主",
"titleTip" : "东京FC下赛季不续聘波波维奇 国米飞翼恩师或入主",
"titleSummary" : "东京FC下赛季不续聘波波维奇 国米飞翼恩师或入主",
"descSummary" : "新华社东京10月23日体育专电 日本J联赛俱乐部东京F...",
"url" : "http:\/\/go.rss.sina.com.cn\/redirect.php?url=http:\/\/sports.sina.com.cn\/c\/2013-10-23\/21236846170.shtml",
"pubDate" : "2013年10月23日 (1周前)",
"enterDate" : "384200:39:12",
"channelId" : "673187875072618404",
"channelName" : "体育要闻汇总-新浪娱乐",
"channelNameSummary" : "体育要闻汇总-新浪娱...",
"channelUrl" : "http:\/\/news.sina.com.cn\/news1000\/index.shtml?requestOrder=4",
"author" : "WWW.SINA.COM.CN",
"tags" : [],
"desc" : "新华社东京10月23日体育专电 日本J联赛俱乐部东京FC23日声明，下赛季他们将不再续聘主帅波波维奇。 俱乐部并没有马上公布替代的人选，但曾在意甲联赛中指导过日本国家队主力后卫长友佑都的切塞纳前主教练菲卡登蒂，被认为可能出任这一空缺职位。 虽然球队目前已....",
"emailed" : False,
"forwarded" : False,
"english" : False
}  , {
"index" : 17,
"articleIndex" : "496661",
"favor" :  False ,
     "read" : False,    
"title" : "穆斯利庆祝与曲波击掌 孙继海这脚吓坏于大宝(高清)",
"titleTip" : "穆斯利庆祝与曲波击掌 孙继海这脚吓坏于大宝(高清)",
"titleSummary" : "穆斯利庆祝与曲波击掌 孙继海这脚吓坏于大宝(高清)",
"descSummary" : "",
"url" : "http:\/\/go.rss.sina.com.cn\/redirect.php?url=http:\/\/slide.sports.sina.com.cn\/n\/slide_2_41759_55071.html",
"pubDate" : "2013年10月23日 (1周前)",
"enterDate" : "384201:08:34",
"channelId" : "673187875072618404",
"channelName" : "体育要闻汇总-新浪娱乐",
"channelNameSummary" : "体育要闻汇总-新浪娱...",
"channelUrl" : "http:\/\/news.sina.com.cn\/news1000\/index.shtml?requestOrder=4",
"author" : "WWW.SINA.COM.CN",
"tags" : [],
"desc" : "",
"emailed" : False,
"forwarded" : False,
"english" : False
}  , {
"index" : 18,
"articleIndex" : "496660",
"favor" :  False ,
     "read" : False,    
"title" : "富力高层曝或从恒大买人 孔卡？这只是美好的想法",
"titleTip" : "富力高层曝或从恒大买人 孔卡？这只是美好的想法",
"titleSummary" : "富力高层曝或从恒大买人 孔卡？这只是美好的想法",
"descSummary" : "尽管这个赛季没能完成冲入前四的目标，但广州富力[...",
"url" : "http:\/\/go.rss.sina.com.cn\/redirect.php?url=http:\/\/sports.sina.com.cn\/j\/2013-10-23\/21196846159.shtml",
"pubDate" : "2013年10月23日 (1周前)",
"enterDate" : "384201:06:00",
"channelId" : "673187875072618404",
"channelName" : "体育要闻汇总-新浪娱乐",
"channelNameSummary" : "体育要闻汇总-新浪娱...",
"channelUrl" : "http:\/\/news.sina.com.cn\/news1000\/index.shtml?requestOrder=4",
"author" : "WWW.SINA.COM.CN",
"tags" : [],
"desc" : "尽管这个赛季没能完成冲入前四的目标，但广州富力[微博]在埃里克森的带领下依然能够紧贴亚冠集团，相较于去年末段的混乱状态，今年无疑稳定许多。不过俱乐部高层心里很清楚，即使自己有所进步，但与同城球队比较还是高下立现：\u201C作为搞足球来说，我们确实感觉到有压力。比如说....",
"emailed" : False,
"forwarded" : False,
"english" : False
}  , {
"index" : 19,
"articleIndex" : "496659",
"favor" :  False ,
     "read" : False,    
"title" : "视频集锦-穆伦破门穆斯利传射 米西凌空绝杀阿尔滨",
"titleTip" : "视频集锦-穆伦破门穆斯利传射 米西凌空绝杀阿尔滨",
"titleSummary" : "视频集锦-穆伦破门穆斯利传射 米西凌空绝杀阿尔滨",
"descSummary" : "",
"url" : "http:\/\/go.rss.sina.com.cn\/redirect.php?url=http:\/\/sports.sina.com.cn\/video\/c\/j\/match\/2013\/1023\/dalian\/",
"pubDate" : "2013年10月23日 (1周前)",
"enterDate" : "384200:26:18",
"channelId" : "673187875072618404",
"channelName" : "体育要闻汇总-新浪娱乐",
"channelNameSummary" : "体育要闻汇总-新浪娱...",
"channelUrl" : "http:\/\/news.sina.com.cn\/news1000\/index.shtml?requestOrder=4",
"author" : "WWW.SINA.COM.CN",
"tags" : [],
"desc" : "",
"emailed" : False,
"forwarded" : False,
"english" : False
} ]
}
