{
"mode" : {"viewTitle" : 1,   "viewNew" : 0,  "pageIndex" : 2 },
 "channel" : {"id" : "673187875072618404", "booked" : False, "subNumber" : 1, "name" : "体育要闻汇总-新浪娱乐", "url" : "http:\/\/news.sina.com.cn\/news1000\/index.shtml?requestOrder=4", "feed" : "http:\/\/rss.sina.com.cn\/roll\/sports\/hot_roll.xml", "author" : "WWW.SINA.COM.CN", "desc" : "体育要闻汇总", "imageUrl" : "http:\/\/www.sinaimg.cn\/ty\/deco\/2010\/0601\/logo_home_sports_nonike2.gif", "postPerWeek" : "0", "lastCrawTime" : "2013年10月23日 (1周前)", "crawDateTime" : "2013年10月23日 (1周前)", "lastHttpCode" : "200"}, "page" : {
"startIndex" : 20,
"totalCount" : 5000,
"pageIndex" : 2,
"lastPage" : 250,
"pageSize" : 20,
"english" :  False },
 "unreadNum" : 0, "shotIndex" : -1,
"articles" : [
{
"index" : 0,
"articleIndex" : "496658",
"favor" :  False ,
     "read" : False,    
"title" : "焦研峰吐槽阿尔滨成败皆因1人 人和有点像是篮球队",
"titleTip" : "焦研峰吐槽阿尔滨成败皆因1人 人和有点像是篮球队",
"titleSummary" : "焦研峰吐槽阿尔滨成败皆因1人 人和有点像是篮球队",
"descSummary" : "北京时间10月23日19点，大连金州体育场将迎来东芝...",
"url" : "http:\/\/go.rss.sina.com.cn\/redirect.php?url=http:\/\/sports.sina.com.cn\/j\/2013-10-23\/21086846152.shtml",
"pubDate" : "2013年10月23日 (1周前)",
"enterDate" : "384200:55:11",
"channelId" : "673187875072618404",
"channelName" : "体育要闻汇总-新浪娱乐",
"channelNameSummary" : "体育要闻汇总-新浪娱...",
"channelUrl" : "http:\/\/news.sina.com.cn\/news1000\/index.shtml?requestOrder=4",
"author" : "WWW.SINA.COM.CN",
"tags" : [],
"desc" : "北京时间10月23日19点，大连金州体育场将迎来东芝2013中国足协杯赛半决赛首回合的比赛，大连阿尔滨[微博]将坐镇主场迎战贵州人和[微博]，最终贵州人和客场2-1战胜阿尔滨队，大连文体频道对这场比赛进行了直播，著名解说员焦研峰[微博]对这场比赛进行了精彩的解说，焦研峰认为....",
"emailed" : False,
"forwarded" : False,
"english" : False
}  , {
"index" : 1,
"articleIndex" : "496657",
"favor" :  False ,
     "read" : False,    
"title" : "郑州赛希金斯多特爆冷出局 肖国栋吕昊天半决赛PK",
"titleTip" : "郑州赛希金斯多特爆冷出局 肖国栋吕昊天半决赛PK",
"titleSummary" : "郑州赛希金斯多特爆冷出局 肖国栋吕昊天半决赛PK",
"descSummary" : "北京时间10月23日晚，CBSA世界斯诺克[微博]球员巡...",
"url" : "http:\/\/go.rss.sina.com.cn\/redirect.php?url=http:\/\/sports.sina.com.cn\/o\/2013-10-23\/21076846151.shtml",
"pubDate" : "2013年10月23日 (1周前)",
"enterDate" : "384200:54:14",
"channelId" : "673187875072618404",
"channelName" : "体育要闻汇总-新浪娱乐",
"channelNameSummary" : "体育要闻汇总-新浪娱...",
"channelUrl" : "http:\/\/news.sina.com.cn\/news1000\/index.shtml?requestOrder=4",
"author" : "WWW.SINA.COM.CN",
"tags" : [],
"desc" : "北京时间10月23日晚，CBSA世界斯诺克[微博]球员巡回赛郑州公开赛(APTC3)继续进行。当天持续爆冷，希金斯不敌麦吉尔止步32强，同样止步的还有上站黑马冠军居热提，前世界冠军多特则被吕昊天[微博]挡在8强门外。四强产生后中国选手占到三席，半决赛对阵为梁文博[微博]VS麦吉尔，....",
"emailed" : False,
"forwarded" : False,
"english" : False
}  , {
"index" : 2,
"articleIndex" : "496656",
"favor" :  False ,
     "read" : False,    
"title" : "央视：阿尔滨人和两将该入国足 恒大鲁能哪点更好",
"titleTip" : "央视：阿尔滨人和两将该入国足 恒大鲁能哪点更好",
"titleSummary" : "央视：阿尔滨人和两将该入国足 恒大鲁能哪点更好",
"descSummary" : "北京时间10月23日19点，东芝2013中国足协杯展开半...",
"url" : "http:\/\/go.rss.sina.com.cn\/redirect.php?url=http:\/\/sports.sina.com.cn\/j\/2013-10-23\/21046846140.shtml",
"pubDate" : "2013年10月23日 (1周前)",
"enterDate" : "384200:50:34",
"channelId" : "673187875072618404",
"channelName" : "体育要闻汇总-新浪娱乐",
"channelNameSummary" : "体育要闻汇总-新浪娱...",
"channelUrl" : "http:\/\/news.sina.com.cn\/news1000\/index.shtml?requestOrder=4",
"author" : "WWW.SINA.COM.CN",
"tags" : [],
"desc" : "北京时间10月23日19点，东芝2013中国足协杯展开半决赛首回合的首场较量，大连阿尔滨[微博]坐镇主场迎战贵州人和[微博]。央视足球评论员刘嘉远和徐阳对本场比赛进行了点评，两位评论员直言穆伦打入的首球越位在先。徐阳认为贵州张成林[微博]和阿尔滨吕鹏在国家队都该有一席之地....",
"emailed" : False,
"forwarded" : False,
"english" : False
}  , {
"index" : 3,
"articleIndex" : "496655",
"favor" :  False ,
     "read" : False,    
"title" : "足协杯-米西凌空斩 人和客场2-1阿尔滨进决赛在望",
"titleTip" : "足协杯-米西凌空斩 人和客场2-1阿尔滨进决赛在望",
"titleSummary" : "足协杯-米西凌空斩 人和客场2-1阿尔滨进决赛在望",
"descSummary" : "北京时间10月23日，东芝2013中国足协杯展开半决赛首...",
"url" : "http:\/\/go.rss.sina.com.cn\/redirect.php?url=http:\/\/sports.sina.com.cn\/j\/2013-10-23\/20536846121.shtml",
"pubDate" : "2013年10月23日 (1周前)",
"enterDate" : "384201:10:05",
"channelId" : "673187875072618404",
"channelName" : "体育要闻汇总-新浪娱乐",
"channelNameSummary" : "体育要闻汇总-新浪娱...",
"channelUrl" : "http:\/\/news.sina.com.cn\/news1000\/index.shtml?requestOrder=4",
"author" : "WWW.SINA.COM.CN",
"tags" : [],
"desc" : "北京时间10月23日，东芝2013中国足协杯展开半决赛首回合的首场较量，大连阿尔滨[微博]坐镇主场迎战贵州人和[微博]。7分钟，穆伦疑似越位球破门。18分钟，陈雷[微博]解围失误，穆斯利推射扳平比分。76分钟，穆斯利助攻米西抽射破门反超。90分钟激战，贵州人和客场2-1大连阿尔滨....",
"emailed" : False,
"forwarded" : False,
"english" : False
}  , {
"index" : 4,
"articleIndex" : "496654",
"favor" :  False ,
     "read" : False,    
"title" : "进球视频-穆斯利头球摆度 米西凌空扫射破门",
"titleTip" : "进球视频-穆斯利头球摆度 米西凌空扫射破门",
"titleSummary" : "进球视频-穆斯利头球摆度 米西凌空扫射破门",
"descSummary" : "北京时间10月23日，东芝2013中国足协杯展开半决赛首回合...",
"url" : "http:\/\/go.rss.sina.com.cn\/redirect.php?url=http:\/\/video.sina.com.cn\/p\/sports\/c\/v\/2013-10-23\/205263056301.html",
"pubDate" : "2013年10月23日 (1周前)",
"enterDate" : "384201:08:55",
"channelId" : "673187875072618404",
"channelName" : "体育要闻汇总-新浪娱乐",
"channelNameSummary" : "体育要闻汇总-新浪娱...",
"channelUrl" : "http:\/\/news.sina.com.cn\/news1000\/index.shtml?requestOrder=4",
"author" : "WWW.SINA.COM.CN",
"tags" : [],
"desc" : "北京时间10月23日，东芝2013中国足协杯展开半决赛首回合的首场较量，大连阿尔滨坐镇主场迎战贵州人和。第76分钟，人和高球传中，穆斯利头球摆度，米西凌空扫射破门。",
"emailed" : False,
"forwarded" : False,
"english" : False
}  , {
"index" : 5,
"articleIndex" : "496653",
"favor" :  False ,
     "read" : False,    
"title" : "视频-凯塔硬吃于海造杀机 贵州门将后卫门线救主",
"titleTip" : "视频-凯塔硬吃于海造杀机 贵州门将后卫门线救主",
"titleSummary" : "视频-凯塔硬吃于海造杀机 贵州门将后卫门线救主",
"descSummary" : "北京时间10月23日，东芝2013中国足协杯展开半决赛首...",
"url" : "http:\/\/go.rss.sina.com.cn\/redirect.php?url=http:\/\/video.sina.com.cn\/p\/sports\/c\/v\/2013-10-23\/204663056319.html",
"pubDate" : "2013年10月23日 (1周前)",
"enterDate" : "384201:02:29",
"channelId" : "673187875072618404",
"channelName" : "体育要闻汇总-新浪娱乐",
"channelNameSummary" : "体育要闻汇总-新浪娱...",
"channelUrl" : "http:\/\/news.sina.com.cn\/news1000\/index.shtml?requestOrder=4",
"author" : "WWW.SINA.COM.CN",
"tags" : [],
"desc" : "北京时间10月23日，东芝2013中国足协杯展开半决赛首回合的首场较量，大连阿尔滨坐镇主场迎战贵州人和。第81分钟，凯塔右路强吃于海传中，贵州人和门将后卫连续在门线解围。",
"emailed" : False,
"forwarded" : False,
"english" : False
}  , {
"index" : 6,
"articleIndex" : "496652",
"favor" :  False ,
     "read" : False,    
"title" : "视频-萨利后场玩火酿险情 宫磊场边怒吼不满",
"titleTip" : "视频-萨利后场玩火酿险情 宫磊场边怒吼不满",
"titleSummary" : "视频-萨利后场玩火酿险情 宫磊场边怒吼不满",
"descSummary" : "北京时间10月23日，东芝2013中国足协杯展开半决赛首回合...",
"url" : "http:\/\/go.rss.sina.com.cn\/redirect.php?url=http:\/\/video.sina.com.cn\/p\/sports\/c\/v\/2013-10-23\/204163056299.html",
"pubDate" : "2013年10月23日 (1周前)",
"enterDate" : "384200:57:52",
"channelId" : "673187875072618404",
"channelName" : "体育要闻汇总-新浪娱乐",
"channelNameSummary" : "体育要闻汇总-新浪娱...",
"channelUrl" : "http:\/\/news.sina.com.cn\/news1000\/index.shtml?requestOrder=4",
"author" : "WWW.SINA.COM.CN",
"tags" : [],
"desc" : "北京时间10月23日，东芝2013中国足协杯展开半决赛首回合的首场较量，大连阿尔滨坐镇主场迎战贵州人和。第71分钟，贵州人和萨利在后场玩火被凯塔断下，好在孙继海即时解围。",
"emailed" : False,
"forwarded" : False,
"english" : False
}  , {
"index" : 7,
"articleIndex" : "496651",
"favor" :  False ,
     "read" : False,    
"title" : "斯滕森上海医院看手腕 酷哥不理医生建议强行比赛",
"titleTip" : "斯滕森上海医院看手腕 酷哥不理医生建议强行比赛",
"titleSummary" : "斯滕森上海医院看手腕 酷哥不理医生建议强行比赛",
"descSummary" : "北京时间10月23日，根据陪同斯滕森一起到上海医院...",
"url" : "http:\/\/go.rss.sina.com.cn\/redirect.php?url=http:\/\/sports.sina.com.cn\/golf\/2013-10-23\/20326846104.shtml",
"pubDate" : "2013年10月23日 (1周前)",
"enterDate" : "384200:48:47",
"channelId" : "673187875072618404",
"channelName" : "体育要闻汇总-新浪娱乐",
"channelNameSummary" : "体育要闻汇总-新浪娱...",
"channelUrl" : "http:\/\/news.sina.com.cn\/news1000\/index.shtml?requestOrder=4",
"author" : "WWW.SINA.COM.CN",
"tags" : [],
"desc" : "北京时间10月23日，根据陪同斯滕森一起到上海医院看病的一位BMW大师赛工作人员介绍，瑞典高尔夫酷哥不理会中国医生的建议，强打精神参加了今天的职业\/业余配对赛，并且要打接下来即将举行的正式赛事。 \u201C我昨天陪同他到静安寺的一家医院去看了病。\u201D媒体公关People Mar....",
"emailed" : False,
"forwarded" : False,
"english" : False
}  , {
"index" : 8,
"articleIndex" : "496650",
"favor" :  False ,
     "read" : False,    
"title" : "弗格森自传:C罗第一天才比梅西强在哪 为C罗卖掉范尼",
"titleTip" : "弗格森自传:C罗第一天才比梅西强在哪 为C罗卖掉范尼",
"titleSummary" : "弗格森自传:C罗第一天才比梅西强在哪 为C罗卖掉范尼",
"descSummary" : "前曼联[微博][微博]主教练弗格森发布了自己的最...",
"url" : "http:\/\/go.rss.sina.com.cn\/redirect.php?url=http:\/\/sports.sina.com.cn\/g\/pl\/2013-10-23\/20296846098.shtml",
"pubDate" : "2013年10月23日 (1周前)",
"enterDate" : "384201:15:50",
"channelId" : "673187875072618404",
"channelName" : "体育要闻汇总-新浪娱乐",
"channelNameSummary" : "体育要闻汇总-新浪娱...",
"channelUrl" : "http:\/\/news.sina.com.cn\/news1000\/index.shtml?requestOrder=4",
"author" : "WWW.SINA.COM.CN",
"tags" : [],
"desc" : "前曼联[微博][微博]主教练弗格森发布了自己的最新自传《阿莱克斯-弗格森，我的自传》，书中披露了大量执教期间的内幕，以及弗格森本人的观点。该书售价25英镑。 在自传中，弗格森称克里斯蒂亚诺-罗纳尔多是他合作过的最好的球员，\u201C我执教过的最具天赋的球员\u201D，仅有的....",
"emailed" : False,
"forwarded" : False,
"english" : False
}  , {
"index" : 9,
"articleIndex" : "496649",
"favor" :  False ,
     "read" : False,    
"title" : "视频-筷子夹球PK战 梁文冲完胜斯滕森怒摔筷子",
"titleTip" : "视频-筷子夹球PK战 梁文冲完胜斯滕森怒摔筷子",
"titleSummary" : "视频-筷子夹球PK战 梁文冲完胜斯滕森怒摔筷子",
"descSummary" : "北京时间10月23日，2013年BMW大师赛本周将在上海美...",
"url" : "http:\/\/go.rss.sina.com.cn\/redirect.php?url=http:\/\/video.sina.com.cn\/p\/sports\/golf\/v\/2013-10-23\/202263056281.html",
"pubDate" : "2013年10月23日 (1周前)",
"enterDate" : "384201:08:48",
"channelId" : "673187875072618404",
"channelName" : "体育要闻汇总-新浪娱乐",
"channelNameSummary" : "体育要闻汇总-新浪娱...",
"channelUrl" : "http:\/\/news.sina.com.cn\/news1000\/index.shtml?requestOrder=4",
"author" : "WWW.SINA.COM.CN",
"tags" : [],
"desc" : "北京时间10月23日，2013年BMW大师赛本周将在上海美兰湖高尔夫俱乐部举行，在赛前的配对赛日，欧巡电视方举办了一场球员筷子夹球大PK，球员限时一分钟，用筷子将高尔夫球由其中的一个筐子中夹到另一个里面。谁最终夹的个数最多，谁将最终获得胜利？ 梁文冲在这次活动中....",
"emailed" : False,
"forwarded" : False,
"english" : False
}  , {
"index" : 10,
"articleIndex" : "496648",
"favor" :  False ,
     "read" : False,    
"title" : "郑州赛吕昊天爆冷世界冠军晋级 谈英国练球:很安静",
"titleTip" : "郑州赛吕昊天爆冷世界冠军晋级 谈英国练球:很安静",
"titleSummary" : "郑州赛吕昊天爆冷世界冠军晋级 谈英国练球:很安静",
"descSummary" : "北京时间10月23日，CBSA世界斯诺克[微博]巡回赛郑...",
"url" : "http:\/\/go.rss.sina.com.cn\/redirect.php?url=http:\/\/sports.sina.com.cn\/o\/2013-10-23\/19596846091.shtml",
"pubDate" : "2013年10月23日 (1周前)",
"enterDate" : "384201:15:44",
"channelId" : "673187875072618404",
"channelName" : "体育要闻汇总-新浪娱乐",
"channelNameSummary" : "体育要闻汇总-新浪娱...",
"channelUrl" : "http:\/\/news.sina.com.cn\/news1000\/index.shtml?requestOrder=4",
"author" : "WWW.SINA.COM.CN",
"tags" : [],
"desc" : "北京时间10月23日，CBSA世界斯诺克[微博]巡回赛郑州公开赛进入第四日的较量。在今天一日三轮的艰巨赛程中，继希金斯爆冷不敌同胞麦克吉尔后，又一夺冠热门多特2-4败于中国小将吕昊天[微博]，结束了郑州公开赛的征程。 \u201C吕昊天他今天打得很出色，将来他还可以变得更好....",
"emailed" : False,
"forwarded" : False,
"english" : False
}  , {
"index" : 11,
"articleIndex" : "496647",
"favor" :  False ,
     "read" : False,    
"title" : "象棋世锦赛女子组成绩更新：唐丹阮黄燕三连胜",
"titleTip" : "象棋世锦赛女子组成绩更新：唐丹阮黄燕三连胜",
"titleSummary" : "象棋世锦赛女子组成绩更新：唐丹阮黄燕三连胜",
"descSummary" : "女子组赛果更新： 第1轮：10月22日13:00-17:00 苏盈盈...",
"url" : "http:\/\/go.rss.sina.com.cn\/redirect.php?url=http:\/\/sports.sina.com.cn\/go\/2013-10-23\/19516846081.shtml",
"pubDate" : "2013年10月23日 (1周前)",
"enterDate" : "384201:07:32",
"channelId" : "673187875072618404",
"channelName" : "体育要闻汇总-新浪娱乐",
"channelNameSummary" : "体育要闻汇总-新浪娱...",
"channelUrl" : "http:\/\/news.sina.com.cn\/news1000\/index.shtml?requestOrder=4",
"author" : "WWW.SINA.COM.CN",
"tags" : [],
"desc" : "女子组赛果更新： 第1轮：10月22日13:00-17:00 苏盈盈 2-0 陈珈韵 唐丹 2-0 常虹 阮黄燕&#160;2-0 林嘉佩 吴彩芳 0-2 贾丹 李孟儒 2-0 詹惠Z 第2轮：10月22日19:30-22:30 陈珈韵 0-2 詹惠Z 贾丹 2-0 李孟儒....",
"emailed" : False,
"forwarded" : False,
"english" : False
}  , {
"index" : 12,
"articleIndex" : "496646",
"favor" :  False ,
     "read" : False,    
"title" : "半场-穆伦争议球穆斯利推射 足协杯阿尔滨1-1人和",
"titleTip" : "半场-穆伦争议球穆斯利推射 足协杯阿尔滨1-1人和",
"titleSummary" : "半场-穆伦争议球穆斯利推射 足协杯阿尔滨1-1人和",
"descSummary" : "北京时间10月23日，东芝2013中国足协杯展开半决赛首...",
"url" : "http:\/\/go.rss.sina.com.cn\/redirect.php?url=http:\/\/sports.sina.com.cn\/j\/2013-10-23\/19496846078.shtml",
"pubDate" : "2013年10月23日 (1周前)",
"enterDate" : "384201:05:38",
"channelId" : "673187875072618404",
"channelName" : "体育要闻汇总-新浪娱乐",
"channelNameSummary" : "体育要闻汇总-新浪娱...",
"channelUrl" : "http:\/\/news.sina.com.cn\/news1000\/index.shtml?requestOrder=4",
"author" : "WWW.SINA.COM.CN",
"tags" : [],
"desc" : "北京时间10月23日，东芝2013中国足协杯展开半决赛首回合的首场较量，大连阿尔滨[微博]坐镇主场迎战贵州人和[微博]。7分钟，穆伦疑似越位球破门。18分钟，陈雷[微博]解围失误，穆斯利推射扳平比分。半场结束，大连阿尔滨主场1-1贵州人和。 大连阿尔滨之前2-0战胜天津松....",
"emailed" : False,
"forwarded" : False,
"english" : False
}  , {
"index" : 13,
"articleIndex" : "496645",
"favor" :  False ,
     "read" : False,    
"title" : "进球视频-米西策划于海传中 穆利斯无人防守扳平",
"titleTip" : "进球视频-米西策划于海传中 穆利斯无人防守扳平",
"titleSummary" : "进球视频-米西策划于海传中 穆利斯无人防守扳平",
"descSummary" : "北京时间10月23日，东芝2013中国足协杯展开半决赛首...",
"url" : "http:\/\/go.rss.sina.com.cn\/redirect.php?url=http:\/\/video.sina.com.cn\/p\/sports\/c\/v\/2013-10-23\/193163056127.html",
"pubDate" : "2013年10月23日 (1周前)",
"enterDate" : "384200:47:36",
"channelId" : "673187875072618404",
"channelName" : "体育要闻汇总-新浪娱乐",
"channelNameSummary" : "体育要闻汇总-新浪娱...",
"channelUrl" : "http:\/\/news.sina.com.cn\/news1000\/index.shtml?requestOrder=4",
"author" : "WWW.SINA.COM.CN",
"tags" : [],
"desc" : "北京时间10月23日，东芝2013中国足协杯展开半决赛首回合的首场较量，大连阿尔滨坐镇主场迎战贵州人和。第18分钟，米西策划做球给左路的于海，后者下底传中，穆斯利推射扳平。",
"emailed" : False,
"forwarded" : False,
"english" : False
}  , {
"index" : 14,
"articleIndex" : "496644",
"favor" :  False ,
     "read" : False,    
"title" : "正视频直播世界象棋锦标赛第4轮：王天一VS陈振杰",
"titleTip" : "正视频直播世界象棋锦标赛第4轮：王天一VS陈振杰",
"titleSummary" : "正视频直播世界象棋锦标赛第4轮：王天一VS陈振杰",
"descSummary" : "",
"url" : "http:\/\/go.rss.sina.com.cn\/redirect.php?url=http:\/\/sports.sina.com.cn\/go\/xiangqizhibo2012\/",
"pubDate" : "2013年10月23日 (1周前)",
"enterDate" : "384201:08:44",
"channelId" : "673187875072618404",
"channelName" : "体育要闻汇总-新浪娱乐",
"channelNameSummary" : "体育要闻汇总-新浪娱...",
"channelUrl" : "http:\/\/news.sina.com.cn\/news1000\/index.shtml?requestOrder=4",
"author" : "WWW.SINA.COM.CN",
"tags" : [],
"desc" : "",
"emailed" : False,
"forwarded" : False,
"english" : False
}  , {
"index" : 15,
"articleIndex" : "496643",
"favor" :  False ,
     "read" : False,    
"title" : "于海传中造成阿尔滨后卫失误 穆斯利推射扳平比分",
"titleTip" : "于海传中造成阿尔滨后卫失误 穆斯利推射扳平比分",
"titleSummary" : "于海传中造成阿尔滨后卫失误 穆斯利推射扳平比分",
"descSummary" : "北京时间10月23日，东芝2013中国足协杯展开半决赛...",
"url" : "http:\/\/go.rss.sina.com.cn\/redirect.php?url=http:\/\/sports.sina.com.cn\/j\/2013-10-23\/19226846067.shtml",
"pubDate" : "2013年10月23日 (1周前)",
"enterDate" : "384201:08:40",
"channelId" : "673187875072618404",
"channelName" : "体育要闻汇总-新浪娱乐",
"channelNameSummary" : "体育要闻汇总-新浪娱...",
"channelUrl" : "http:\/\/news.sina.com.cn\/news1000\/index.shtml?requestOrder=4",
"author" : "WWW.SINA.COM.CN",
"tags" : [],
"desc" : "北京时间10月23日，东芝2013中国足协杯展开半决赛首回合的首场较量，大连阿尔滨[微博]坐镇主场迎战贵州人和[微博]。7分钟，穆伦疑似越位球破门。18分钟，陈雷[微博]解围失误，穆斯利推射扳平比分。 第18分钟，贵州人和扳平比分。米西莫维奇将球准确分到了左路，于海快....",
"emailed" : False,
"forwarded" : False,
"english" : False
}  , {
"index" : 16,
"articleIndex" : "496642",
"favor" :  False ,
     "read" : False,    
"title" : "进球视频-阿尔滨先声夺人 穆伦疑似越位球破门",
"titleTip" : "进球视频-阿尔滨先声夺人 穆伦疑似越位球破门",
"titleSummary" : "进球视频-阿尔滨先声夺人 穆伦疑似越位球破门",
"descSummary" : "北京时间10月23日，东芝2013中国足协杯展开半决赛首回...",
"url" : "http:\/\/go.rss.sina.com.cn\/redirect.php?url=http:\/\/video.sina.com.cn\/p\/sports\/c\/v\/2013-10-23\/192163056031.html",
"pubDate" : "2013年10月23日 (1周前)",
"enterDate" : "384200:07:36",
"channelId" : "673187875072618404",
"channelName" : "体育要闻汇总-新浪娱乐",
"channelNameSummary" : "体育要闻汇总-新浪娱...",
"channelUrl" : "http:\/\/news.sina.com.cn\/news1000\/index.shtml?requestOrder=4",
"author" : "WWW.SINA.COM.CN",
"tags" : [],
"desc" : "北京时间10月23日，东芝2013中国足协杯展开半决赛首回合的首场较量，大连阿尔滨坐镇主场迎战贵州人和。第7分钟，大连阿尔滨右路传中，凯塔中路头球做球，穆伦厚点轻松推射破门。",
"emailed" : False,
"forwarded" : False,
"english" : False
}  , {
"index" : 17,
"articleIndex" : "496641",
"favor" :  False ,
     "read" : False,    
"title" : "阿尔滨外援中卫包抄破僵局 央视：进球有越位嫌疑",
"titleTip" : "阿尔滨外援中卫包抄破僵局 央视：进球有越位嫌疑",
"titleSummary" : "阿尔滨外援中卫包抄破僵局 央视：进球有越位嫌疑",
"descSummary" : "北京时间10月23日，东芝2013中国足协杯展开半决赛...",
"url" : "http:\/\/go.rss.sina.com.cn\/redirect.php?url=http:\/\/sports.sina.com.cn\/j\/2013-10-23\/19166846061.shtml",
"pubDate" : "2013年10月23日 (1周前)",
"enterDate" : "384201:02:59",
"channelId" : "673187875072618404",
"channelName" : "体育要闻汇总-新浪娱乐",
"channelNameSummary" : "体育要闻汇总-新浪娱...",
"channelUrl" : "http:\/\/news.sina.com.cn\/news1000\/index.shtml?requestOrder=4",
"author" : "WWW.SINA.COM.CN",
"tags" : [],
"desc" : "北京时间10月23日，东芝2013中国足协杯展开半决赛首回合的首场较量，大连阿尔滨[微博]坐镇主场迎战贵州人和[微博]。阿尔滨目前联赛排名第8，人和排名第4，两队联赛两次交手阿尔滨1平1负处于劣势。7分钟，穆伦疑似越位球破门。 第7分钟，阿尔滨率先打破僵局。陈涛[微博]....",
"emailed" : False,
"forwarded" : False,
"english" : False
}  , {
"index" : 18,
"articleIndex" : "496640",
"favor" :  False ,
     "read" : False,    
"title" : "用拳头说话的武林高手 称霸散打跆拳道泰拳各项冠军",
"titleTip" : "用拳头说话的武林高手 称霸散打跆拳道泰拳各项冠军",
"titleSummary" : "用拳头说话的武林高手 称霸散打跆拳道泰拳各项冠军",
"descSummary" : "私人定制 卢学斌 年龄：32岁 职业：武术散打冠军 ...",
"url" : "http:\/\/go.rss.sina.com.cn\/redirect.php?url=http:\/\/sports.sina.com.cn\/o\/2013-10-23\/18586846057.shtml",
"pubDate" : "2013年10月23日 (1周前)",
"enterDate" : "384201:15:24",
"channelId" : "673187875072618404",
"channelName" : "体育要闻汇总-新浪娱乐",
"channelNameSummary" : "体育要闻汇总-新浪娱...",
"channelUrl" : "http:\/\/news.sina.com.cn\/news1000\/index.shtml?requestOrder=4",
"author" : "WWW.SINA.COM.CN",
"tags" : [],
"desc" : "私人定制 卢学斌 年龄：32岁 职业：武术散打冠军 习练：散打、跆拳道黑带五段、泰拳 战绩：赛24场胜18场，其中6次KO对手 本期私人定制的主角是一位武术高手卢学斌。他自9岁开始习武，练习过散打、跆拳道和泰拳，在沈阳体育学院上过....",
"emailed" : False,
"forwarded" : False,
"english" : False
}  , {
"index" : 19,
"articleIndex" : "496639",
"favor" :  False ,
     "read" : False,    
"title" : "正视频播2013中国足协杯半决赛：阿尔滨VS贵州",
"titleTip" : "正视频播2013中国足协杯半决赛：阿尔滨VS贵州",
"titleSummary" : "正视频播2013中国足协杯半决赛：阿尔滨VS贵州",
"descSummary" : "",
"url" : "http:\/\/go.rss.sina.com.cn\/redirect.php?url=http:\/\/live.video.sina.com.cn\/room\/sports2",
"pubDate" : "2013年10月23日 (1周前)",
"enterDate" : "384200:40:49",
"channelId" : "673187875072618404",
"channelName" : "体育要闻汇总-新浪娱乐",
"channelNameSummary" : "体育要闻汇总-新浪娱...",
"channelUrl" : "http:\/\/news.sina.com.cn\/news1000\/index.shtml?requestOrder=4",
"author" : "WWW.SINA.COM.CN",
"tags" : [],
"desc" : "",
"emailed" : False,
"forwarded" : False,
"english" : False
} ]
}
