{
"mode" : {"viewTitle" : 1,   "viewNew" : 0,  "pageIndex" : 1 },
 "channel" : {"id" : "3069113315128241565", "booked" : False, "subNumber" : 333, "name" : "中国之队-新浪体育", "url" : "http:\/\/sports.sina.com.cn\/china\/index.shtml", "feed" : "http:\/\/rss.sina.com.cn\/sports\/china\/team.xml", "author" : "WWW.SINA.COM.CN", "desc" : "中国之队-新浪体育", "imageUrl" : "http:\/\/www.sinaimg.cn\/ty\/china\/chinaimage\/gnzq04.gif", "postPerWeek" : "68", "lastCrawTime" : "16:50:25", "crawDateTime" : "16:50:25", "lastHttpCode" : "200"}, "page" : {
"startIndex" : 0,
"totalCount" : 5000,
"pageIndex" : 1,
"lastPage" : 250,
"pageSize" : 20,
"english" :  False },
 "unreadNum" : 0, "shotIndex" : -1,
"articles" : [
{
"index" : 0,
"articleIndex" : "27171",
"favor" :  False ,
     "read" : False,    
"title" : "金汕：谁是新中国在国际赛的第一进球人？",
"titleTip" : "金汕：谁是新中国在国际赛的第一进球人？",
"titleSummary" : "金汕：谁是新中国在国际赛的第一进球人？",
"descSummary" : "",
"url" : "http:\/\/go.rss.sina.com.cn\/redirect.php?url=http:\/\/blog.sina.com.cn\/s\/blog_4eddf60c0102e11i.html",
"pubDate" : "14:05:13",
"enterDate" : "384201:05:20",
"channelId" : "3069113315128241565",
"channelName" : "中国之队-新浪体育",
"channelNameSummary" : "中国之队-新浪体育",
"channelUrl" : "http:\/\/sports.sina.com.cn\/china\/index.shtml",
"author" : "WWW.SINA.COM.CN",
"tags" : [],
"desc" : "",
"emailed" : False,
"forwarded" : False,
"english" : False
}  , {
"index" : 1,
"articleIndex" : "27170",
"favor" :  False ,
     "read" : False,    
"title" : "傅博承认平印尼指挥失误 祝恒大夺亚冠国脚别受伤",
"titleTip" : "傅博承认平印尼指挥失误 祝恒大夺亚冠国脚别受伤",
"titleSummary" : "傅博承认平印尼指挥失误 祝恒大夺亚冠国脚别受伤",
"descSummary" : "今天上午，中国足协将在南京召开国字号教练组例行总...",
"url" : "http:\/\/go.rss.sina.com.cn\/redirect.php?url=http:\/\/sports.sina.com.cn\/n\/2013-10-29\/08516856281.shtml",
"pubDate" : "昨天08:51:06",
"enterDate" : "384200:56:02",
"channelId" : "3069113315128241565",
"channelName" : "中国之队-新浪体育",
"channelNameSummary" : "中国之队-新浪体育",
"channelUrl" : "http:\/\/sports.sina.com.cn\/china\/index.shtml",
"author" : "WWW.SINA.COM.CN",
"tags" : [],
"desc" : "今天上午，中国足协将在南京召开国字号教练组例行总结会，国足主帅傅博[微博]将在会议上对前不久与印尼队的比赛进行总结，并就下月初的集训以及随后15日和19日的两场亚预赛提交计划。昨晚，本报记者就此以及恒大[微博]国脚征战亚冠等问题电话采访了刚刚抵达南京的傅博。 ....",
"emailed" : False,
"forwarded" : False,
"english" : False
}  , {
"index" : 2,
"articleIndex" : "27169",
"favor" :  False ,
     "read" : False,    
"title" : "津媒：国足亚洲三流谈何世界杯 增强自身实力最重要",
"titleTip" : "津媒：国足亚洲三流谈何世界杯 增强自身实力最重要",
"titleSummary" : "津媒：国足亚洲三流谈何世界杯 增强自身实力最重要",
"descSummary" : "本报讯 (记者 李航)昨天，网上一则有关俄罗斯世界...",
"url" : "http:\/\/go.rss.sina.com.cn\/redirect.php?url=http:\/\/sports.sina.com.cn\/n\/2013-10-29\/08376856256.shtml",
"pubDate" : "昨天08:37:21",
"enterDate" : "384201:12:22",
"channelId" : "3069113315128241565",
"channelName" : "中国之队-新浪体育",
"channelNameSummary" : "中国之队-新浪体育",
"channelUrl" : "http:\/\/sports.sina.com.cn\/china\/index.shtml",
"author" : "WWW.SINA.COM.CN",
"tags" : [],
"desc" : "本报讯&#160;(记者&#160;&#160;李航)昨天，网上一则有关俄罗斯世界杯亚洲名额有望增加的消息引起国内球迷的关注，大家认为这对中国队来说算是一个重返世界杯的好消息。不过，亚洲区即便增加世界杯的名额，但从目前国足亚预赛的表现来看，也没有太大的意义，毕竟一支连印尼这样....",
"emailed" : False,
"forwarded" : False,
"english" : False
}  , {
"index" : 3,
"articleIndex" : "27168",
"favor" :  False ,
     "read" : False,    
"title" : "葛爱平:中国足球弱者心态根深蒂固 战略方向出问题",
"titleTip" : "葛爱平:中国足球弱者心态根深蒂固 战略方向出问题",
"titleSummary" : "葛爱平:中国足球弱者心态根深蒂固 战略方向出问题",
"descSummary" : "葛爱平 首尔队主教练崔龙洙在接受中国记者采访时说...",
"url" : "http:\/\/go.rss.sina.com.cn\/redirect.php?url=http:\/\/sports.sina.com.cn\/n\/2013-10-29\/07336856104.shtml",
"pubDate" : "昨天07:33:26",
"enterDate" : "384201:08:35",
"channelId" : "3069113315128241565",
"channelName" : "中国之队-新浪体育",
"channelNameSummary" : "中国之队-新浪体育",
"channelUrl" : "http:\/\/sports.sina.com.cn\/china\/index.shtml",
"author" : "WWW.SINA.COM.CN",
"tags" : [],
"desc" : "葛爱平 首尔队主教练崔龙洙在接受中国记者采访时说：\u201C恒大[微博]的足球很有进攻性，与过去的中国足球不一样。\u201D 崔龙洙说，过去的中国足球太注重防守了，他不明白为什么这样。他回忆与他交手过的中国一代球员范志毅[微博]、郝海东[微博]、张恩华、李明等，\u201C认....",
"emailed" : False,
"forwarded" : False,
"english" : False
}  , {
"index" : 4,
"articleIndex" : "27167",
"favor" :  False ,
     "read" : False,    
"title" : "刘建宏：加20名额国足才有戏 搞足球不为踢世界杯",
"titleTip" : "刘建宏：加20名额国足才有戏 搞足球不为踢世界杯",
"titleSummary" : "刘建宏：加20名额国足才有戏 搞足球不为踢世界杯",
"descSummary" : "昨天，欧足联主席普拉蒂尼在接受英国《每日邮报》采...",
"url" : "http:\/\/go.rss.sina.com.cn\/redirect.php?url=http:\/\/sports.sina.com.cn\/n\/2013-10-29\/04156855977.shtml",
"pubDate" : "前天04:15:50",
"enterDate" : "384197:20:54",
"channelId" : "3069113315128241565",
"channelName" : "中国之队-新浪体育",
"channelNameSummary" : "中国之队-新浪体育",
"channelUrl" : "http:\/\/sports.sina.com.cn\/china\/index.shtml",
"author" : "WWW.SINA.COM.CN",
"tags" : [],
"desc" : "昨天，欧足联主席普拉蒂尼在接受英国《每日邮报》采访时称，他希望到2018年俄罗斯世界杯时，将现有的32支参赛队伍增加到40支，亚洲区名额将增至6.5个。那么对于中国足球而言，似乎是件好事，不过名嘴刘建宏坦言，与中国队关系不大，\u201C若亚洲增加20个名额，我看国足才有望进世....",
"emailed" : False,
"forwarded" : False,
"english" : False
}  , {
"index" : 5,
"articleIndex" : "27166",
"favor" :  False ,
     "read" : False,    
"title" : "照顾亚洲和非洲！普拉蒂尼提议世界杯扩军至40队",
"titleTip" : "照顾亚洲和非洲！普拉蒂尼提议世界杯扩军至40队",
"titleSummary" : "照顾亚洲和非洲！普拉蒂尼提议世界杯扩军至40队",
"descSummary" : "北京时间10月28日，据《路透社》报道，欧足联主席...",
"url" : "http:\/\/go.rss.sina.com.cn\/redirect.php?url=http:\/\/sports.sina.com.cn\/n\/2013-10-28\/18306855543.shtml",
"pubDate" : "前天18:30:00",
"enterDate" : "384200:07:12",
"channelId" : "3069113315128241565",
"channelName" : "中国之队-新浪体育",
"channelNameSummary" : "中国之队-新浪体育",
"channelUrl" : "http:\/\/sports.sina.com.cn\/china\/index.shtml",
"author" : "WWW.SINA.COM.CN",
"tags" : [],
"desc" : "北京时间10月28日，据《路透社》报道，欧足联主席普拉蒂尼提议从2018年俄罗斯世界杯起，决赛圈球队的数量从目前的32支提升至40支，多出的8个名额将主要分配给亚洲和非洲的球队，欧洲的名额得以将不再削减。 欧洲目前在决赛圈32支球队中占据13个席位，相比之下非洲仅有5....",
"emailed" : False,
"forwarded" : False,
"english" : False
}  , {
"index" : 6,
"articleIndex" : "27165",
"favor" :  False ,
     "read" : False,    
"title" : "印尼后卫：客场赢中国让他们震惊 轻视我们是优势",
"titleTip" : "印尼后卫：客场赢中国让他们震惊 轻视我们是优势",
"titleSummary" : "印尼后卫：客场赢中国让他们震惊 轻视我们是优势",
"descSummary" : "北京时间10月28日消息，据 印尼媒体《共和线上》报...",
"url" : "http:\/\/go.rss.sina.com.cn\/redirect.php?url=http:\/\/sports.sina.com.cn\/n\/2013-10-28\/17056855451.shtml",
"pubDate" : "前天17:05:34",
"enterDate" : "384201:13:10",
"channelId" : "3069113315128241565",
"channelName" : "中国之队-新浪体育",
"channelNameSummary" : "中国之队-新浪体育",
"channelUrl" : "http:\/\/sports.sina.com.cn\/china\/index.shtml",
"author" : "WWW.SINA.COM.CN",
"tags" : [],
"desc" : "北京时间10月28日消息，据 印尼媒体《共和线上》报道，印尼国家队目前正在积极备战客场与中国国家队的2015亚洲杯预选赛小组赛第4轮的比赛。印尼国脚后卫罗比放出豪言将在客场全取三分，让中国队感到震惊，并指出如果中国队轻视他们，那将是他们的一个优势。 据该媒体报....",
"emailed" : False,
"forwarded" : False,
"english" : False
}  , {
"index" : 7,
"articleIndex" : "27164",
"favor" :  False ,
     "read" : False,    
"title" : "亚洲世界杯席位有望增至5席 十强赛取消改25强赛",
"titleTip" : "亚洲世界杯席位有望增至5席 十强赛取消改25强赛",
"titleSummary" : "亚洲世界杯席位有望增至5席 十强赛取消改25强赛",
"descSummary" : "种种迹象表明，2018年世界杯亚洲区世预赛有望改制，...",
"url" : "http:\/\/go.rss.sina.com.cn\/redirect.php?url=http:\/\/sports.sina.com.cn\/n\/2013-10-28\/10066854830.shtml",
"pubDate" : "前天10:06:07",
"enterDate" : "384199:44:39",
"channelId" : "3069113315128241565",
"channelName" : "中国之队-新浪体育",
"channelNameSummary" : "中国之队-新浪体育",
"channelUrl" : "http:\/\/sports.sina.com.cn\/china\/index.shtml",
"author" : "WWW.SINA.COM.CN",
"tags" : [],
"desc" : "种种迹象表明，2018年世界杯亚洲区世预赛有望改制，亚洲的世界杯席位很可能从目前的4.5席增加到5席，而亚洲区十强赛也将会随之取消，变成最后阶段的25强赛，5个小组的第一名直接出线。这样连续三届倒在20强赛的国足无需再为十强赛奋斗，相信获得25强赛资格应该不是难事。 ....",
"emailed" : False,
"forwarded" : False,
"english" : False
}  , {
"index" : 8,
"articleIndex" : "27163",
"favor" :  False ,
     "read" : False,    
"title" : "中国足协召开国字号教练组交流会 傅博将做述职报告",
"titleTip" : "中国足协召开国字号教练组交流会 傅博将做述职报告",
"titleSummary" : "中国足协召开国字号教练组交流会 傅博将做述职报告",
"descSummary" : "新报讯【记者 赵睿】今天，中国足协在南京召开例...",
"url" : "http:\/\/go.rss.sina.com.cn\/redirect.php?url=http:\/\/sports.sina.com.cn\/n\/2013-10-28\/00006854370.shtml",
"pubDate" : "2013年10月28日 (3天前)",
"enterDate" : "384191:38:50",
"channelId" : "3069113315128241565",
"channelName" : "中国之队-新浪体育",
"channelNameSummary" : "中国之队-新浪体育",
"channelUrl" : "http:\/\/sports.sina.com.cn\/china\/index.shtml",
"author" : "WWW.SINA.COM.CN",
"tags" : [],
"desc" : "新报讯【记者 赵睿】今天，中国足协在南京召开例行的国字号教练组总结交流会，比较引人关注的是中国队代理主教练傅博[微博]的述职。由于亚预赛客场战平印尼队，给中国队小组出线形势增添了不确定因素，因此傅博面临一定压力。另外，新的国管部负责人刘殿秋也在这次会议上露面....",
"emailed" : False,
"forwarded" : False,
"english" : False
}  , {
"index" : 9,
"articleIndex" : "27161",
"favor" :  False ,
     "read" : False,    
"title" : "足协中层副职出炉 朱琪林竞聘成功兼任中超经理成疑",
"titleTip" : "足协中层副职出炉 朱琪林竞聘成功兼任中超经理成疑",
"titleSummary" : "足协中层副职出炉 朱琪林竞聘成功兼任中超经理成疑",
"descSummary" : "5名足协中层\u201C副手\u201D出炉 新京报讯 (记者赵宇)昨日...",
"url" : "http:\/\/go.rss.sina.com.cn\/redirect.php?url=http:\/\/sports.sina.com.cn\/n\/2013-10-26\/02446850419.shtml",
"pubDate" : "2013年10月26日 (5天前)",
"enterDate" : "384201:02:07",
"channelId" : "3069113315128241565",
"channelName" : "中国之队-新浪体育",
"channelNameSummary" : "中国之队-新浪体育",
"channelUrl" : "http:\/\/sports.sina.com.cn\/china\/index.shtml",
"author" : "WWW.SINA.COM.CN",
"tags" : [],
"desc" : "&#160; 5名足协中层\u201C副手\u201D出炉 新京报讯 (记者赵宇)昨日，中国足协公布了中层干部竞聘结果。其中最引人注目的是中超公司总经理朱琪林，他成功竞聘为足管中心市场部副主任。这样一来，他有了足管中心事业编制，属于副处级干部。 各部门正职干部竞聘结束后，....",
"emailed" : False,
"forwarded" : False,
"english" : False
}  , {
"index" : 10,
"articleIndex" : "27162",
"favor" :  False ,
     "read" : False,    
"title" : "足协公示中层副职聘用名单 各岗位仍存在调整可能",
"titleTip" : "足协公示中层副职聘用名单 各岗位仍存在调整可能",
"titleSummary" : "足协公示中层副职聘用名单 各岗位仍存在调整可能",
"descSummary" : "京华时报讯(记者孙永军)足管中心竞聘工作随着昨天副...",
"url" : "http:\/\/go.rss.sina.com.cn\/redirect.php?url=http:\/\/sports.sina.com.cn\/n\/2013-10-26\/02406850383.shtml",
"pubDate" : "2013年10月26日 (5天前)",
"enterDate" : "384200:27:54",
"channelId" : "3069113315128241565",
"channelName" : "中国之队-新浪体育",
"channelNameSummary" : "中国之队-新浪体育",
"channelUrl" : "http:\/\/sports.sina.com.cn\/china\/index.shtml",
"author" : "WWW.SINA.COM.CN",
"tags" : [],
"desc" : "京华时报讯(记者孙永军)足管中心竞聘工作随着昨天副职竞聘结果的公布已基本结束。根据足管中心贴出的公示名单，包括苏小春、董华等在内的9人将担任部门副主任。 在完成了正职竞聘后，足管中心于10月16日启动副职岗位竞聘，共有28人竞聘9个副职岗位。据悉，足管中心走廊....",
"emailed" : False,
"forwarded" : False,
"english" : False
}  , {
"index" : 11,
"articleIndex" : "27160",
"favor" :  False ,
     "read" : False,    
"title" : "陕省体国足赛时供24小时热水 近期重新修整保养草皮",
"titleTip" : "陕省体国足赛时供24小时热水 近期重新修整保养草皮",
"titleSummary" : "陕省体国足赛时供24小时热水 近期重新修整保养草皮",
"descSummary" : "经历了4580多天的等待之后，中国男子足球队终于...",
"url" : "http:\/\/go.rss.sina.com.cn\/redirect.php?url=http:\/\/sports.sina.com.cn\/n\/2013-10-25\/06376848750.shtml",
"pubDate" : "2013年10月25日 (5天前)",
"enterDate" : "384200:58:32",
"channelId" : "3069113315128241565",
"channelName" : "中国之队-新浪体育",
"channelNameSummary" : "中国之队-新浪体育",
"channelUrl" : "http:\/\/sports.sina.com.cn\/china\/index.shtml",
"author" : "WWW.SINA.COM.CN",
"tags" : [],
"desc" : "经历了4580多天的等待之后，中国男子足球队终于把国际正式比赛的主场再一次放在了西安，而陕西也绝对称得上是国足的福地。 12年，是中国传统的一个轮回，在这12年不知不觉的岁月中，你的生活或许已经发生了天翻地覆的变化，而那份对于足球、对于国足的热爱改变了么？....",
"emailed" : False,
"forwarded" : False,
"english" : False
}  , {
"index" : 12,
"articleIndex" : "27159",
"favor" :  False ,
     "read" : False,    
"title" : "成耀东被曝成国奥新帅热门候选 对比傅博有三优势",
"titleTip" : "成耀东被曝成国奥新帅热门候选 对比傅博有三优势",
"titleSummary" : "成耀东被曝成国奥新帅热门候选 对比傅博有三优势",
"descSummary" : "特约记者 申友 自从带领上海队在全运会夺冠后，主帅...",
"url" : "http:\/\/go.rss.sina.com.cn\/redirect.php?url=http:\/\/sports.sina.com.cn\/n\/2013-10-24\/07516846805.shtml",
"pubDate" : "2013年10月24日 (6天前)",
"enterDate" : "384201:16:22",
"channelId" : "3069113315128241565",
"channelName" : "中国之队-新浪体育",
"channelNameSummary" : "中国之队-新浪体育",
"channelUrl" : "http:\/\/sports.sina.com.cn\/china\/index.shtml",
"author" : "WWW.SINA.COM.CN",
"tags" : [],
"desc" : "特约记者 申友 自从带领上海队在全运会夺冠后，主帅成耀东下一步的去向就成为人们纷纷猜测的一个热门话题，而记者日前得到消息，他已经被有关方面列为下一任中国国奥队主帅最热门人选之一，这也意味着，成耀东将有望首次以国字号主帅身份，带领国奥队出征下一届里约热....",
"emailed" : False,
"forwarded" : False,
"english" : False
}  , {
"index" : 13,
"articleIndex" : "27158",
"favor" :  False ,
     "read" : False,    
"title" : "02世界杯中日韩国脚现在都干啥？ 中国：前途各异",
"titleTip" : "02世界杯中日韩国脚现在都干啥？ 中国：前途各异",
"titleSummary" : "02世界杯中日韩国脚现在都干啥？ 中国：前途各异",
"descSummary" : "",
"url" : "http:\/\/go.rss.sina.com.cn\/redirect.php?url=http:\/\/blog.sina.com.cn\/s\/blog_7872466f0101ht71.html?tj=tiyu",
"pubDate" : "2013年10月23日 (1周前)",
"enterDate" : "384201:16:07",
"channelId" : "3069113315128241565",
"channelName" : "中国之队-新浪体育",
"channelNameSummary" : "中国之队-新浪体育",
"channelUrl" : "http:\/\/sports.sina.com.cn\/china\/index.shtml",
"author" : "WWW.SINA.COM.CN",
"tags" : [],
"desc" : "",
"emailed" : False,
"forwarded" : False,
"english" : False
}  , {
"index" : 14,
"articleIndex" : "27157",
"favor" :  False ,
     "read" : False,    
"title" : "生死战国足再遇老熟人 金东进多次执法中国队比赛",
"titleTip" : "生死战国足再遇老熟人 金东进多次执法中国队比赛",
"titleSummary" : "生死战国足再遇老熟人 金东进多次执法中国队比赛",
"descSummary" : "新京报讯 (记者赵宇[微博])近日，亚足联确定了国足接...",
"url" : "http:\/\/go.rss.sina.com.cn\/redirect.php?url=http:\/\/sports.sina.com.cn\/n\/2013-10-23\/02206844465.shtml",
"pubDate" : "2013年10月23日 (1周前)",
"enterDate" : "384192:49:01",
"channelId" : "3069113315128241565",
"channelName" : "中国之队-新浪体育",
"channelNameSummary" : "中国之队-新浪体育",
"channelUrl" : "http:\/\/sports.sina.com.cn\/china\/index.shtml",
"author" : "WWW.SINA.COM.CN",
"tags" : [],
"desc" : "新京报讯 (记者赵宇[微博])近日，亚足联确定了国足接下来两场亚洲杯预选赛的主裁判，分别是澳大利亚人格林和韩国人金东进。其中金东进曾多次执法中国队的比赛。 11月15日、19日，国足将在西安分别迎战印尼和沙特队，这两场比赛将决定国足能否出线。国足15日同印尼的比....",
"emailed" : False,
"forwarded" : False,
"english" : False
}  , {
"index" : 15,
"articleIndex" : "27156",
"favor" :  False ,
     "read" : False,    
"title" : "国足亚预赛关键战主裁确定 韩国\u201C老友\u201D吹战沙特",
"titleTip" : "国足亚预赛关键战主裁确定 韩国\u201C老友\u201D吹战沙特",
"titleSummary" : "国足亚预赛关键战主裁确定 韩国\u201C老友\u201D吹战沙特",
"descSummary" : "据来自亚足联的消息，国足11月15日、19日迎战印尼...",
"url" : "http:\/\/go.rss.sina.com.cn\/redirect.php?url=http:\/\/sports.sina.com.cn\/n\/2013-10-21\/16386842314.shtml",
"pubDate" : "2013年10月21日 (1周前)",
"enterDate" : "384201:14:00",
"channelId" : "3069113315128241565",
"channelName" : "中国之队-新浪体育",
"channelNameSummary" : "中国之队-新浪体育",
"channelUrl" : "http:\/\/sports.sina.com.cn\/china\/index.shtml",
"author" : "WWW.SINA.COM.CN",
"tags" : [],
"desc" : "据来自亚足联的消息，国足11月15日、19日迎战印尼和沙特两场亚预赛关键战的裁判组业已确定，主裁判分别是澳洲裁判格林和韩国裁判金东进，其中格林出牌温和中规中矩，知根知底的金东进则是今年执法国足比赛最多的外国裁判之一，可以说国足基本上避免了主场被\u201C黑\u201D的厄运。....",
"emailed" : False,
"forwarded" : False,
"english" : False
}  , {
"index" : 16,
"articleIndex" : "27155",
"favor" :  False ,
     "read" : False,    
"title" : "视频集锦-U19女足8-0狂胜 挤掉日本晋级世青赛",
"titleTip" : "视频集锦-U19女足8-0狂胜 挤掉日本晋级世青赛",
"titleSummary" : "视频集锦-U19女足8-0狂胜 挤掉日本晋级世青赛",
"descSummary" : "北京时间10月20日16:30，2013年U19女足亚锦赛最后一轮...",
"url" : "http:\/\/go.rss.sina.com.cn\/redirect.php?url=http:\/\/video.sina.com.cn\/p\/sports\/n\/v\/2013-10-21\/081863044945.html",
"pubDate" : "2013年10月21日 (1周前)",
"enterDate" : "384200:55:12",
"channelId" : "3069113315128241565",
"channelName" : "中国之队-新浪体育",
"channelNameSummary" : "中国之队-新浪体育",
"channelUrl" : "http:\/\/sports.sina.com.cn\/china\/index.shtml",
"author" : "WWW.SINA.COM.CN",
"tags" : [],
"desc" : "北京时间10月20日16:30，2013年U19女足亚锦赛最后一轮比赛在南京继续进行，中国女足8-0大胜缅甸女足，从而以1个净胜球优势力压日本队，获得亚锦赛季军，同时获得明年U20世锦赛入场券。上半场比赛，王霜梅开二度、李梦雯、吕悦云、宋端、赵歆翟各人一球；下半场李诤屯跛进球....",
"emailed" : False,
"forwarded" : False,
"english" : False
}  , {
"index" : 17,
"articleIndex" : "27154",
"favor" :  False ,
     "read" : False,    
"title" : "谢晖:国足学巴萨?别把裤子套头上 里皮是唯一选择",
"titleTip" : "谢晖:国足学巴萨?别把裤子套头上 里皮是唯一选择",
"titleSummary" : "谢晖:国足学巴萨?别把裤子套头上 里皮是唯一选择",
"descSummary" : "国足客场被印尼战平，再次引发了不小轰动。今天中午...",
"url" : "http:\/\/go.rss.sina.com.cn\/redirect.php?url=http:\/\/sports.sina.com.cn\/n\/2013-10-19\/13026838422.shtml",
"pubDate" : "2013年10月19日 (1周前)",
"enterDate" : "384200:46:49",
"channelId" : "3069113315128241565",
"channelName" : "中国之队-新浪体育",
"channelNameSummary" : "中国之队-新浪体育",
"channelUrl" : "http:\/\/sports.sina.com.cn\/china\/index.shtml",
"author" : "WWW.SINA.COM.CN",
"tags" : [],
"desc" : "国足客场被印尼战平，再次引发了不小轰动。今天中午上海五星体育广播《足球上海滩》节目连线前国脚谢晖[微博]，请他谈谈国足的问题。谈到国足学巴萨[微博]风格时，谢晖颇为讽刺的表示国足就是山里人，先弄块遮羞布别让人家看笑话，先学怎么穿衣服，别把裤子套头上。谢晖认为里....",
"emailed" : False,
"forwarded" : False,
"english" : False
}  , {
"index" : 18,
"articleIndex" : "27153",
"favor" :  False ,
     "read" : False,    
"title" : "7支国字号下周南京总结 傅博自我剖析临场指挥不足",
"titleTip" : "7支国字号下周南京总结 傅博自我剖析临场指挥不足",
"titleSummary" : "7支国字号下周南京总结 傅博自我剖析临场指挥不足",
"descSummary" : "新京报讯 (记者赵宇[微博])下周，7支国字号球队的教...",
"url" : "http:\/\/go.rss.sina.com.cn\/redirect.php?url=http:\/\/sports.sina.com.cn\/n\/2013-10-19\/02256837773.shtml",
"pubDate" : "2013年10月19日 (1周前)",
"enterDate" : "384199:40:53",
"channelId" : "3069113315128241565",
"channelName" : "中国之队-新浪体育",
"channelNameSummary" : "中国之队-新浪体育",
"channelUrl" : "http:\/\/sports.sina.com.cn\/china\/index.shtml",
"author" : "WWW.SINA.COM.CN",
"tags" : [],
"desc" : "新京报讯 (记者赵宇[微博])下周，7支国字号球队的教练员将在南京集结，总结过去一段时间的工作。届时，国家队教练组的工作总结将备受关注，以傅博[微博]为首的国足教练组将对中印之战进行总结，并且展望接下来的两个主场热身赛。 过去一个多月，各级别国字号球队全部有....",
"emailed" : False,
"forwarded" : False,
"english" : False
}  , {
"index" : 19,
"articleIndex" : "27152",
"favor" :  False ,
     "read" : False,    
"title" : "视频-名嘴称国足学巴萨无意义 不赞同里皮带国足",
"titleTip" : "视频-名嘴称国足学巴萨无意义 不赞同里皮带国足",
"titleSummary" : "视频-名嘴称国足学巴萨无意义 不赞同里皮带国足",
"descSummary" : "国足战平印尼引发的大讨论还在继续，10月17日晚北京...",
"url" : "http:\/\/go.rss.sina.com.cn\/redirect.php?url=http:\/\/video.sina.com.cn\/p\/sports\/n\/v\/2013-10-17\/232763033239.html",
"pubDate" : "2013年10月17日 (1周前)",
"enterDate" : "384192:46:52",
"channelId" : "3069113315128241565",
"channelName" : "中国之队-新浪体育",
"channelNameSummary" : "中国之队-新浪体育",
"channelUrl" : "http:\/\/sports.sina.com.cn\/china\/index.shtml",
"author" : "WWW.SINA.COM.CN",
"tags" : [],
"desc" : "国足战平印尼引发的大讨论还在继续，10月17日晚北京体育频道《体育议起来》节目邀请到北京体育广播主持人梁言、评论员李戈和名记汪大昭、傅亚雨，对国足的话题进行了一番讨论。傅亚雨给国足下半场的糟糕表现打0分，直言国内教练执教国足没希望。四位媒体人就里皮是否该执教国....",
"emailed" : False,
"forwarded" : False,
"english" : False
} ]
}
