{
"mode" : {"viewTitle" : 1,   "viewNew" : 0,  "pageIndex" : 2 },
 "channel" : {"id" : "3069113315128241565", "booked" : False, "subNumber" : 333, "name" : "中国之队-新浪体育", "url" : "http:\/\/sports.sina.com.cn\/china\/index.shtml", "feed" : "http:\/\/rss.sina.com.cn\/sports\/china\/team.xml", "author" : "WWW.SINA.COM.CN", "desc" : "中国之队-新浪体育", "imageUrl" : "http:\/\/www.sinaimg.cn\/ty\/china\/chinaimage\/gnzq04.gif", "postPerWeek" : "68", "lastCrawTime" : "16:50:25", "crawDateTime" : "16:50:25", "lastHttpCode" : "200"}, "page" : {
"startIndex" : 20,
"totalCount" : 5000,
"pageIndex" : 2,
"lastPage" : 250,
"pageSize" : 20,
"english" :  False },
 "unreadNum" : 0, "shotIndex" : -1,
"articles" : [
{
"index" : 0,
"articleIndex" : "27151",
"favor" :  False ,
     "read" : False,    
"title" : "人民日报:捧杀棒杀国足都无益 惨淡因未遵足球规律",
"titleTip" : "人民日报:捧杀棒杀国足都无益 惨淡因未遵足球规律",
"titleSummary" : "人民日报:捧杀棒杀国足都无益 惨淡因未遵足球规律",
"descSummary" : "中国足球的成长探索，走了不少弯路，付出几多惨痛的...",
"url" : "http:\/\/go.rss.sina.com.cn\/redirect.php?url=http:\/\/sports.sina.com.cn\/n\/2013-10-18\/05026836395.shtml",
"pubDate" : "2013年10月18日 (1周前)",
"enterDate" : "384200:51:58",
"channelId" : "3069113315128241565",
"channelName" : "中国之队-新浪体育",
"channelNameSummary" : "中国之队-新浪体育",
"channelUrl" : "http:\/\/sports.sina.com.cn\/china\/index.shtml",
"author" : "WWW.SINA.COM.CN",
"tags" : [],
"desc" : "中国足球的成长探索，走了不少弯路，付出几多惨痛的代价，其中常被诟病的一条是管理者的急功近利。中国足球必须看清自己的实力和底气，明白要走的路还长。否则，在捧杀和棒杀之间，中国足球依然会被扭曲。 中国男足踢平印尼队，又迎来一阵讨伐之声。代理主教练傅博[微....",
"emailed" : False,
"forwarded" : False,
"english" : False
}  , {
"index" : 1,
"articleIndex" : "27150",
"favor" :  False ,
     "read" : False,    
"title" : "足协28人竞聘9个副职 内部不看好普通干部受重用",
"titleTip" : "足协28人竞聘9个副职 内部不看好普通干部受重用",
"titleSummary" : "足协28人竞聘9个副职 内部不看好普通干部受重用",
"descSummary" : "京华时报讯(记者孙永军)完成中层8个正职岗位的竞聘后...",
"url" : "http:\/\/go.rss.sina.com.cn\/redirect.php?url=http:\/\/sports.sina.com.cn\/n\/2013-10-18\/02006836206.shtml",
"pubDate" : "2013年10月18日 (1周前)",
"enterDate" : "384192:18:38",
"channelId" : "3069113315128241565",
"channelName" : "中国之队-新浪体育",
"channelNameSummary" : "中国之队-新浪体育",
"channelUrl" : "http:\/\/sports.sina.com.cn\/china\/index.shtml",
"author" : "WWW.SINA.COM.CN",
"tags" : [],
"desc" : "京华时报讯(记者孙永军)完成中层8个正职岗位的竞聘后，足管中心昨天启动了9个副职的竞聘工作。昨天下午5点，参加竞聘人员的报名、调整业已截止。据了解，竞聘人员今天将进行竞聘演讲。 足管中心在上周进行了部门正职竞聘，10月12日，足管中心把参与中层干部竞聘的结果....",
"emailed" : False,
"forwarded" : False,
"english" : False
}  , {
"index" : 2,
"articleIndex" : "27148",
"favor" :  False ,
     "read" : False,    
"title" : "陕西球迷借习主席寄语鼓励傅博 誓当国足第十二人",
"titleTip" : "陕西球迷借习主席寄语鼓励傅博 誓当国足第十二人",
"titleSummary" : "陕西球迷借习主席寄语鼓励傅博 誓当国足第十二人",
"descSummary" : "\u201C习主席曾说，中国足球很努力，我们球迷也希望国足...",
"url" : "http:\/\/go.rss.sina.com.cn\/redirect.php?url=http:\/\/sports.sina.com.cn\/n\/2013-10-18\/01106836143.shtml",
"pubDate" : "2013年10月18日 (1周前)",
"enterDate" : "384201:00:09",
"channelId" : "3069113315128241565",
"channelName" : "中国之队-新浪体育",
"channelNameSummary" : "中国之队-新浪体育",
"channelUrl" : "http:\/\/sports.sina.com.cn\/china\/index.shtml",
"author" : "WWW.SINA.COM.CN",
"tags" : [],
"desc" : "\u201C习主席曾说，中国足球很努力，我们球迷也希望国足能在西安的主场比赛中努力拼搏。\u201D在昨天国足亚预赛新闻发布会的现场，资深球迷柯兴平对国足代理主帅傅博[微博]说出这番话。柯兴平对记者说：\u201C国足在亚预赛客场被印尼队逼平，成绩不理想，我想了想就用习主席不久前关于中国....",
"emailed" : False,
"forwarded" : False,
"english" : False
}  , {
"index" : 3,
"articleIndex" : "27149",
"favor" :  False ,
     "read" : False,    
"title" : "傅博用兵马俑励志打翻身仗 省体为迎国足全面升级",
"titleTip" : "傅博用兵马俑励志打翻身仗 省体为迎国足全面升级",
"titleSummary" : "傅博用兵马俑励志打翻身仗 省体为迎国足全面升级",
"descSummary" : "亚预赛客场被印尼逼平后，国足晋级变数增大，也让接...",
"url" : "http:\/\/go.rss.sina.com.cn\/redirect.php?url=http:\/\/sports.sina.com.cn\/n\/2013-10-18\/01006836141.shtml",
"pubDate" : "2013年10月18日 (1周前)",
"enterDate" : "384199:50:05",
"channelId" : "3069113315128241565",
"channelName" : "中国之队-新浪体育",
"channelNameSummary" : "中国之队-新浪体育",
"channelUrl" : "http:\/\/sports.sina.com.cn\/china\/index.shtml",
"author" : "WWW.SINA.COM.CN",
"tags" : [],
"desc" : "亚预赛客场被印尼逼平后，国足晋级变数增大，也让接下来两个主场赛事成了国足成败的关键。承办这两场赛事的西安主场也提前迎来临战前的气氛。昨天，国足代理主教练傅博[微博]现身西安，在组委会举行的新闻发布会上，傅博表示，客场对印尼成绩不佳，出线形势不乐观，西安主场对....",
"emailed" : False,
"forwarded" : False,
"english" : False
}  , {
"index" : 4,
"articleIndex" : "27146",
"favor" :  False ,
     "read" : False,    
"title" : "名嘴称国足学巴萨无意义 疑请里皮会成卡马乔第二",
"titleTip" : "名嘴称国足学巴萨无意义 疑请里皮会成卡马乔第二",
"titleSummary" : "名嘴称国足学巴萨无意义 疑请里皮会成卡马乔第二",
"descSummary" : "国足战平印尼引发的大讨论还在继续，今晚北京体育频...",
"url" : "http:\/\/go.rss.sina.com.cn\/redirect.php?url=http:\/\/sports.sina.com.cn\/n\/2013-10-17\/21346836064.shtml",
"pubDate" : "2013年10月17日 (1周前)",
"enterDate" : "384200:54:44",
"channelId" : "3069113315128241565",
"channelName" : "中国之队-新浪体育",
"channelNameSummary" : "中国之队-新浪体育",
"channelUrl" : "http:\/\/sports.sina.com.cn\/china\/index.shtml",
"author" : "WWW.SINA.COM.CN",
"tags" : [],
"desc" : "国足战平印尼引发的大讨论还在继续，今晚北京体育频道《体育议起来》节目邀请到北京体育广播主持人梁言、评论员李戈和名记汪大昭、傅亚雨，对国足的话题进行了一番讨论。傅亚雨给国足下半场的糟糕表现打0分，直言国内教练执教国足没希望。四位媒体人就里皮是否该执教国足产生....",
"emailed" : False,
"forwarded" : False,
"english" : False
}  , {
"index" : 5,
"articleIndex" : "27147",
"favor" :  False ,
     "read" : False,    
"title" : "视频-足夜深度解析国足 刘建宏：足协道歉是搪塞",
"titleTip" : "视频-足夜深度解析国足 刘建宏：足协道歉是搪塞",
"titleSummary" : "视频-足夜深度解析国足 刘建宏：足协道歉是搪塞",
"descSummary" : "在两天前的亚洲杯预选赛中，中国国家队被印尼队逼平，...",
"url" : "http:\/\/go.rss.sina.com.cn\/redirect.php?url=http:\/\/video.sina.com.cn\/p\/sports\/n\/v\/2013-10-17\/220863032357.html",
"pubDate" : "2013年10月17日 (1周前)",
"enterDate" : "384199:20:32",
"channelId" : "3069113315128241565",
"channelName" : "中国之队-新浪体育",
"channelNameSummary" : "中国之队-新浪体育",
"channelUrl" : "http:\/\/sports.sina.com.cn\/china\/index.shtml",
"author" : "WWW.SINA.COM.CN",
"tags" : [],
"desc" : "在两天前的亚洲杯预选赛中，中国国家队被印尼队逼平，这样的比赛结果和比赛表现都无法令人满意，可以说在印尼中国国家队再次拉响了警报。10月17日晚上央视《足球之夜》节目中，主持人刘建宏直言对印尼的比赛看到了1-5输球时国家队的影子，而傅博作为代理主教练，在比赛出现问....",
"emailed" : False,
"forwarded" : False,
"english" : False
}  , {
"index" : 6,
"articleIndex" : "27145",
"favor" :  False ,
     "read" : False,    
"title" : "刘建宏:傅博临时工心态暴露 足协道歉是搪塞社会",
"titleTip" : "刘建宏:傅博临时工心态暴露 足协道歉是搪塞社会",
"titleSummary" : "刘建宏:傅博临时工心态暴露 足协道歉是搪塞社会",
"descSummary" : "在两天前的亚洲杯预选赛中，中国国家队被印尼队逼平，...",
"url" : "http:\/\/go.rss.sina.com.cn\/redirect.php?url=http:\/\/sports.sina.com.cn\/n\/2013-10-17\/19396836025.shtml",
"pubDate" : "2013年10月17日 (1周前)",
"enterDate" : "384187:28:04",
"channelId" : "3069113315128241565",
"channelName" : "中国之队-新浪体育",
"channelNameSummary" : "中国之队-新浪体育",
"channelUrl" : "http:\/\/sports.sina.com.cn\/china\/index.shtml",
"author" : "WWW.SINA.COM.CN",
"tags" : [],
"desc" : "在两天前的亚洲杯预选赛中，中国国家队被印尼队逼平，这样的比赛结果和比赛表现都无法令人满意，可以说在印尼中国国家队再次拉响了警报。10月17日晚上央视《足球之夜[微博]》节目中，主持人刘建宏直言对印尼的比赛看到了1-5输球时国家队的影子，而傅博[微博]作为代理主教练，....",
"emailed" : False,
"forwarded" : False,
"english" : False
}  , {
"index" : 7,
"articleIndex" : "27144",
"favor" :  False ,
     "read" : False,    
"title" : "FIFA排名：国足平印尼排名上升 世界第97亚洲第9",
"titleTip" : "FIFA排名：国足平印尼排名上升 世界第97亚洲第9",
"titleSummary" : "FIFA排名：国足平印尼排名上升 世界第97亚洲第9",
"descSummary" : "北京时间10月17日，FIFA男足国家队排名更新，西班...",
"url" : "http:\/\/go.rss.sina.com.cn\/redirect.php?url=http:\/\/sports.sina.com.cn\/n\/2013-10-17\/16366835937.shtml",
"pubDate" : "2013年10月17日 (1周前)",
"enterDate" : "384200:57:59",
"channelId" : "3069113315128241565",
"channelName" : "中国之队-新浪体育",
"channelNameSummary" : "中国之队-新浪体育",
"channelUrl" : "http:\/\/sports.sina.com.cn\/china\/index.shtml",
"author" : "WWW.SINA.COM.CN",
"tags" : [],
"desc" : "北京时间10月17日，FIFA男足国家队排名更新，西班牙仍第1，德国超阿根廷位列世界第2，巴西跌出前10。亚洲方面，日本、伊朗、乌兹别克仍居亚洲前3，韩国超澳大利亚居亚洲第4。中国因为战平印尼，排名升2位至第97，亚洲第9。 上一期排名出炉时中国队虽然之前连续战胜马来....",
"emailed" : False,
"forwarded" : False,
"english" : False
}  , {
"index" : 8,
"articleIndex" : "27142",
"favor" :  False ,
     "read" : False,    
"title" : "傅博：当前出线形势不佳 国足会激发出更大力量",
"titleTip" : "傅博：当前出线形势不佳 国足会激发出更大力量",
"titleSummary" : "傅博：当前出线形势不佳 国足会激发出更大力量",
"descSummary" : "新华社西安10月17日体育专电（记者陈晨）15日晚被印...",
"url" : "http:\/\/go.rss.sina.com.cn\/redirect.php?url=http:\/\/sports.sina.com.cn\/n\/2013-10-17\/14326835810.shtml",
"pubDate" : "2013年10月17日 (1周前)",
"enterDate" : "384200:24:37",
"channelId" : "3069113315128241565",
"channelName" : "中国之队-新浪体育",
"channelNameSummary" : "中国之队-新浪体育",
"channelUrl" : "http:\/\/sports.sina.com.cn\/china\/index.shtml",
"author" : "WWW.SINA.COM.CN",
"tags" : [],
"desc" : "新华社西安10月17日体育专电（记者陈晨）15日晚被印度尼西亚队1：1逼平之后，国足代理主帅傅博马不停蹄来到西安，为下个月将在这里进行的两场亚洲杯预选赛\u201C踩场\u201D。17日上午，在接受新华社记者采访时傅博表示，与印尼一战国足表现不佳，目前出线形势不太乐观，但这样的情况会....",
"emailed" : False,
"forwarded" : False,
"english" : False
}  , {
"index" : 9,
"articleIndex" : "27141",
"favor" :  False ,
     "read" : False,    
"title" : "国足亚预赛主场迎战印尼沙特发布会召开 门票最低100",
"titleTip" : "国足亚预赛主场迎战印尼沙特发布会召开 门票最低100",
"titleSummary" : "国足亚预赛主场迎战印尼沙特发布会召开 门票最低100",
"descSummary" : "北京时间10月17日上午11时，亚足联2015澳大利亚...",
"url" : "http:\/\/go.rss.sina.com.cn\/redirect.php?url=http:\/\/sports.sina.com.cn\/n\/2013-10-17\/13196835652.shtml",
"pubDate" : "2013年10月17日 (1周前)",
"enterDate" : "384200:41:06",
"channelId" : "3069113315128241565",
"channelName" : "中国之队-新浪体育",
"channelNameSummary" : "中国之队-新浪体育",
"channelUrl" : "http:\/\/sports.sina.com.cn\/china\/index.shtml",
"author" : "WWW.SINA.COM.CN",
"tags" : [],
"desc" : "北京时间10月17日上午11时，亚足联2015澳大利亚亚洲杯预选赛新闻发布会在西安赛瑞喜来登大酒店召开。西安市人民政府副秘书长李彬、陕西省体育局副局长董利、中国足球协会竞赛部部长戚军、中国福特宝足球发展有限公司副总经理董铮、中国国家男子足球队主教练傅博以及北京体育之....",
"emailed" : False,
"forwarded" : False,
"english" : False
}  , {
"index" : 10,
"articleIndex" : "27140",
"favor" :  False ,
     "read" : False,    
"title" : "鲁媒将印尼比作国足照妖镜：至尊宝遇紫霞仙子三颗痣",
"titleTip" : "鲁媒将印尼比作国足照妖镜：至尊宝遇紫霞仙子三颗痣",
"titleSummary" : "鲁媒将印尼比作国足照妖镜：至尊宝遇紫霞仙子三颗痣",
"descSummary" : "北京时间10月17日消息，山东电视台体育频道《...",
"url" : "http:\/\/go.rss.sina.com.cn\/redirect.php?url=http:\/\/sports.sina.com.cn\/n\/2013-10-17\/13046835649.shtml",
"pubDate" : "2013年10月17日 (1周前)",
"enterDate" : "384200:56:51",
"channelId" : "3069113315128241565",
"channelName" : "中国之队-新浪体育",
"channelNameSummary" : "中国之队-新浪体育",
"channelUrl" : "http:\/\/sports.sina.com.cn\/china\/index.shtml",
"author" : "WWW.SINA.COM.CN",
"tags" : [],
"desc" : "北京时间10月17日消息，山东电视台体育频道《体育时报》节目就中国男足1-1客场战平印尼队发表了独家评论，该节目以《\u201C照妖镜\u201D后的国足》为题进行了深度分析，认为印尼队成了国足的\u201C照妖镜\u201D&#160;，国足进入了虚假繁荣何时休的恶性循环，需要有个人把国足从至尊宝变成真正....",
"emailed" : False,
"forwarded" : False,
"english" : False
}  , {
"index" : 11,
"articleIndex" : "27135",
"favor" :  False ,
     "read" : False,    
"title" : "印尼队员欲客场击败国足:那将是印尼足球最辉煌成功",
"titleTip" : "印尼队员欲客场击败国足:那将是印尼足球最辉煌成功",
"titleSummary" : "印尼队员欲客场击败国足:那将是印尼足球最辉煌成功",
"descSummary" : "记者寒冰报道 1比1逼平中国，印尼举国上下的气氛...",
"url" : "http:\/\/go.rss.sina.com.cn\/redirect.php?url=http:\/\/sports.sina.com.cn\/n\/2013-10-17\/12256835596.shtml",
"pubDate" : "2013年10月17日 (1周前)",
"enterDate" : "384201:17:19",
"channelId" : "3069113315128241565",
"channelName" : "中国之队-新浪体育",
"channelNameSummary" : "中国之队-新浪体育",
"channelUrl" : "http:\/\/sports.sina.com.cn\/china\/index.shtml",
"author" : "WWW.SINA.COM.CN",
"tags" : [],
"desc" : "记者寒冰报道 1比1逼平中国，印尼举国上下的气氛不是庆祝而是遗憾\u2015\u2015从主帅到球员再到媒体，都认为比赛最后阶段本该绝杀中国，但恩沃科沃却错失了良机。主帅蒂亚戈在赛后新闻会上表达了这样的遗憾，球员也不例外。效力巴东俱乐部的前锋博奈接受采访时认为，印尼主场错失3分是....",
"emailed" : False,
"forwarded" : False,
"english" : False
}  , {
"index" : 12,
"articleIndex" : "27139",
"favor" :  False ,
     "read" : False,    
"title" : "国足下期备战更紧张：时间严重不足 受恒大亚冠影响",
"titleTip" : "国足下期备战更紧张：时间严重不足 受恒大亚冠影响",
"titleSummary" : "国足下期备战更紧张：时间严重不足 受恒大亚冠影响",
"descSummary" : "记者赵震报道 昨天结束了与印尼队比赛的中国队大...",
"url" : "http:\/\/go.rss.sina.com.cn\/redirect.php?url=http:\/\/sports.sina.com.cn\/n\/2013-10-17\/12026835574.shtml",
"pubDate" : "2013年10月17日 (1周前)",
"enterDate" : "384200:24:23",
"channelId" : "3069113315128241565",
"channelName" : "中国之队-新浪体育",
"channelNameSummary" : "中国之队-新浪体育",
"channelUrl" : "http:\/\/sports.sina.com.cn\/china\/index.shtml",
"author" : "WWW.SINA.COM.CN",
"tags" : [],
"desc" : "记者赵震报道 昨天结束了与印尼队比赛的中国队大队人马返回了广州，全队就地解散，而主教练傅博[微博]则赶场前往西安。下个月初，备战主场关键两场比赛的集训就将开始，而摆在中国队面前的最大困难却是集训时间严重不足。 虽然联赛在11月3日就将结束，但是傅博却很难在....",
"emailed" : False,
"forwarded" : False,
"english" : False
}  , {
"index" : 13,
"articleIndex" : "27138",
"favor" :  False ,
     "read" : False,    
"title" : "国脚详解3疑问：傅博打法是否适合国足 因何半场疲软",
"titleTip" : "国脚详解3疑问：傅博打法是否适合国足 因何半场疲软",
"titleSummary" : "国脚详解3疑问：傅博打法是否适合国足 因何半场疲软",
"descSummary" : "记者赵震报道 从雅加达到广州，从教练组到队员们...",
"url" : "http:\/\/go.rss.sina.com.cn\/redirect.php?url=http:\/\/sports.sina.com.cn\/n\/2013-10-17\/11566835570.shtml",
"pubDate" : "2013年10月17日 (1周前)",
"enterDate" : "384200:18:40",
"channelId" : "3069113315128241565",
"channelName" : "中国之队-新浪体育",
"channelNameSummary" : "中国之队-新浪体育",
"channelUrl" : "http:\/\/sports.sina.com.cn\/china\/index.shtml",
"author" : "WWW.SINA.COM.CN",
"tags" : [],
"desc" : "记者赵震报道 从雅加达到广州，从教练组到队员们，一直都在交谈，他们谈论的自然是刚刚过去的这场比赛。到底傅博[微博]的打法适不适合中国队？为什么这场比赛中国队没有打出前几场的攻击？上、下半场为何打得如此脱节？这些问题在困扰着媒体与球迷，也在困扰着国脚们。一名国....",
"emailed" : False,
"forwarded" : False,
"english" : False
}  , {
"index" : 14,
"articleIndex" : "27137",
"favor" :  False ,
     "read" : False,    
"title" : "印尼主帅：中国1-5给我启发 后卫怕什么我偏打什么",
"titleTip" : "印尼主帅：中国1-5给我启发 后卫怕什么我偏打什么",
"titleSummary" : "印尼主帅：中国1-5给我启发 后卫怕什么我偏打什么",
"descSummary" : "记者赵震报道 印尼主教练蒂亚戈有着足球界闯荡者的...",
"url" : "http:\/\/go.rss.sina.com.cn\/redirect.php?url=http:\/\/sports.sina.com.cn\/n\/2013-10-17\/11336835519.shtml",
"pubDate" : "2013年10月17日 (1周前)",
"enterDate" : "384199:55:48",
"channelId" : "3069113315128241565",
"channelName" : "中国之队-新浪体育",
"channelNameSummary" : "中国之队-新浪体育",
"channelUrl" : "http:\/\/sports.sina.com.cn\/china\/index.shtml",
"author" : "WWW.SINA.COM.CN",
"tags" : [],
"desc" : "记者赵震报道 印尼主教练蒂亚戈有着足球界闯荡者的一切天份，天生的亲和力，惊人的语言天份，出色的认人能力，最重要的是\u201C人来疯\u201D。与中国队的比赛前，他就用一个\u201C下赛季执教天津松江[微博]\u201D成功抢了戏，在1比1逼平了中国队之后，他更是成为了这场比赛最大的英雄。 ....",
"emailed" : False,
"forwarded" : False,
"english" : False
}  , {
"index" : 15,
"articleIndex" : "27136",
"favor" :  False ,
     "read" : False,    
"title" : "傅博：国足前段太顺掩盖问题 早准备好承受这一切",
"titleTip" : "傅博：国足前段太顺掩盖问题 早准备好承受这一切",
"titleSummary" : "傅博：国足前段太顺掩盖问题 早准备好承受这一切",
"descSummary" : "记者赵震报道 出现在雅加达机场的傅博[微博]眼睛有些...",
"url" : "http:\/\/go.rss.sina.com.cn\/redirect.php?url=http:\/\/sports.sina.com.cn\/n\/2013-10-17\/11166835480.shtml",
"pubDate" : "2013年10月17日 (1周前)",
"enterDate" : "384199:38:16",
"channelId" : "3069113315128241565",
"channelName" : "中国之队-新浪体育",
"channelNameSummary" : "中国之队-新浪体育",
"channelUrl" : "http:\/\/sports.sina.com.cn\/china\/index.shtml",
"author" : "WWW.SINA.COM.CN",
"tags" : [],
"desc" : "记者赵震报道 出现在雅加达机场的傅博[微博]眼睛有些红，那是因为昨晚只睡了三个小时，但他的情绪并不坏，听着网上对自己铺天盖地的骂声，他还能宽容地笑出声，对一些过头的评语，傅博仍然一副宽容的姿态说：\u201C球打得不满意，人家总得骂骂，我觉得这么说的人也是气蒙了，他们....",
"emailed" : False,
"forwarded" : False,
"english" : False
}  , {
"index" : 16,
"articleIndex" : "27134",
"favor" :  False ,
     "read" : False,    
"title" : "英足总委员：中国15年可成足球强国 用我们的教程",
"titleTip" : "英足总委员：中国15年可成足球强国 用我们的教程",
"titleSummary" : "英足总委员：中国15年可成足球强国 用我们的教程",
"descSummary" : "记者王伟报道 30年前，日本足球引进了英格兰的青少...",
"url" : "http:\/\/go.rss.sina.com.cn\/redirect.php?url=http:\/\/sports.sina.com.cn\/n\/2013-10-17\/10216835354.shtml",
"pubDate" : "2013年10月17日 (1周前)",
"enterDate" : "384201:14:21",
"channelId" : "3069113315128241565",
"channelName" : "中国之队-新浪体育",
"channelNameSummary" : "中国之队-新浪体育",
"channelUrl" : "http:\/\/sports.sina.com.cn\/china\/index.shtml",
"author" : "WWW.SINA.COM.CN",
"tags" : [],
"desc" : "记者王伟报道 30年前，日本足球引进了英格兰的青少年足球教程，如今日本足球可以脱亚入欧了。谈到这一话题时，英足总理事会委员约翰-瑞德脱口而出的是：\u201C15年后中国足球可以成为世界一流强国。\u201D对这个预判的理由，他说：\u201C这些来自中国各地的学员来接受培训，15年之后他们培....",
"emailed" : False,
"forwarded" : False,
"english" : False
}  , {
"index" : 17,
"articleIndex" : "27133",
"favor" :  False ,
     "read" : False,    
"title" : "姚夏：国家队俱乐部是两回事 里皮未必能让国足雄起",
"titleTip" : "姚夏：国家队俱乐部是两回事 里皮未必能让国足雄起",
"titleSummary" : "姚夏：国家队俱乐部是两回事 里皮未必能让国足雄起",
"descSummary" : "虽然里皮对于执教国足一事已经有所松动，但不少圈...",
"url" : "http:\/\/go.rss.sina.com.cn\/redirect.php?url=http:\/\/sports.sina.com.cn\/n\/2013-10-17\/10036835280.shtml",
"pubDate" : "2013年10月17日 (1周前)",
"enterDate" : "384200:55:46",
"channelId" : "3069113315128241565",
"channelName" : "中国之队-新浪体育",
"channelNameSummary" : "中国之队-新浪体育",
"channelUrl" : "http:\/\/sports.sina.com.cn\/china\/index.shtml",
"author" : "WWW.SINA.COM.CN",
"tags" : [],
"desc" : "虽然里皮对于执教国足一事已经有所松动，但不少圈内人士表示，里皮能否把国足带到像恒大[微博]那样的高度恐怕还要打上一个问号。\u201C里皮能把恒大带得那么好，主要还是因为恒大集结了目前国内水平最好的球员，而且外援能力和水平也有保证，如果里皮真的执教国足，要想他把国足的....",
"emailed" : False,
"forwarded" : False,
"english" : False
}  , {
"index" : 18,
"articleIndex" : "27132",
"favor" :  False ,
     "read" : False,    
"title" : "中国足球十年堕落:04国足唯一高光 女足从劲旅到三流",
"titleTip" : "中国足球十年堕落:04国足唯一高光 女足从劲旅到三流",
"titleSummary" : "中国足球十年堕落:04国足唯一高光 女足从劲旅到三流",
"descSummary" : "大洋新闻 时间： 2013-10-17来源：信息时报 作者：...",
"url" : "http:\/\/go.rss.sina.com.cn\/redirect.php?url=http:\/\/sports.sina.com.cn\/n\/2013-10-17\/08106835041.shtml",
"pubDate" : "2013年10月17日 (1周前)",
"enterDate" : "384200:33:03",
"channelId" : "3069113315128241565",
"channelName" : "中国之队-新浪体育",
"channelNameSummary" : "中国之队-新浪体育",
"channelUrl" : "http:\/\/sports.sina.com.cn\/china\/index.shtml",
"author" : "WWW.SINA.COM.CN",
"tags" : [],
"desc" : "大洋新闻 时间： 2013-10-17来源： 信息时报 作者： 邹甜 2013年10月，中国足球再度进入\u201C寒冬\u201D\u2015\u2015国足在亚洲杯预选赛中以1∶1战平印尼队，这是国足近56年首次不胜印尼；U22在东亚运动会中四战3负1平垫底，面对中国香港也无法取胜\u2026\u2026 自2002年国足结束日....",
"emailed" : False,
"forwarded" : False,
"english" : False
}  , {
"index" : 19,
"articleIndex" : "27143",
"favor" :  False ,
     "read" : False,    
"title" : "浙媒：中国足球在闭门造车 亚洲小伙伴们在大干快上",
"titleTip" : "浙媒：中国足球在闭门造车 亚洲小伙伴们在大干快上",
"titleSummary" : "浙媒：中国足球在闭门造车 亚洲小伙伴们在大干快上",
"descSummary" : "继国足1:5惨败泰国以及1:1战平印尼后，东南亚足球...",
"url" : "http:\/\/go.rss.sina.com.cn\/redirect.php?url=http:\/\/sports.sina.com.cn\/n\/2013-10-17\/08106835019.shtml",
"pubDate" : "2013年10月17日 (1周前)",
"enterDate" : "384192:31:42",
"channelId" : "3069113315128241565",
"channelName" : "中国之队-新浪体育",
"channelNameSummary" : "中国之队-新浪体育",
"channelUrl" : "http:\/\/sports.sina.com.cn\/china\/index.shtml",
"author" : "WWW.SINA.COM.CN",
"tags" : [],
"desc" : "继国足1:5惨败泰国以及1:1战平印尼后，东南亚足球一扫之前在国人印象中鱼腩的形象。事实上，最近10年是中国足球水平严重退步的10年，但也是亚洲足球整体水平急剧上升的10年。除了日、韩、伊朗等东亚、西亚国家的足球水平仍保持相当的水准外，连那些我们眼中曾经的足球小国\u2015\u2015....",
"emailed" : False,
"forwarded" : False,
"english" : False
} ]
}
