{
"mode" : {"viewTitle" : 1,   "viewNew" : 0,  "pageIndex" : 1 },
 "channel" : {"id" : "-1163700457284398214", "booked" : False, "subNumber" : 1, "name" : "生活娱乐排行榜-新浪读书", "url" : "http:\/\/book.sina.com.cn\/lady\/", "feed" : "http:\/\/rss.sina.com.cn\/book\/life_rank.xml", "author" : "WWW.SINA.COM.CN", "desc" : "生活娱乐排行榜", "imageUrl" : "http:\/\/www.sinaimg.cn\/book\/deco\/2010\/0826\/logo_v3.gif", "postPerWeek" : "0", "lastCrawTime" : "17:08:55", "crawDateTime" : "昨天00:04:15", "lastHttpCode" : "304"}, "page" : {
"startIndex" : 0,
"totalCount" : 583,
"pageIndex" : 1,
"lastPage" : 30,
"pageSize" : 20,
"english" :  False },
 "unreadNum" : 0, "shotIndex" : -1,
"articles" : [
{
"index" : 0,
"articleIndex" : "577",
"favor" :  False ,
     "read" : False,    
"title" : "成功女人气质教科书：女人，最好的修行是气质",
"titleTip" : "成功女人气质教科书：女人，最好的修行是气质",
"titleSummary" : "成功女人气质教科书：女人，最好的修行是气质",
"descSummary" : "女人可以淡定地展现自己的魅力，为自己赢得更多成功的...",
"url" : "http:\/\/go.rss.sina.com.cn\/redirect.php?url=http:\/\/vip.book.sina.com.cn\/book\/index_246340.html",
"pubDate" : "2013年9月6日",
"enterDate" : "384144:12:52",
"channelId" : "-1163700457284398214",
"channelName" : "生活娱乐排行榜-新浪读书",
"channelNameSummary" : "生活娱乐排行榜-新浪...",
"channelUrl" : "http:\/\/book.sina.com.cn\/lady\/",
"author" : "WWW.SINA.COM.CN",
"tags" : [],
"desc" : "女人可以淡定地展现自己的魅力，为自己赢得更多成功的筹码！学会展示自己的气质，把气质当作自身的一个部分，用浑然天成的气质在众人中脱颖而出！作为一个有气质的女人，并不是随...",
"emailed" : False,
"forwarded" : False,
"english" : False
}  , {
"index" : 1,
"articleIndex" : "573",
"favor" :  False ,
     "read" : False,    
"title" : "中国性研究",
"titleTip" : "中国性研究",
"titleSummary" : "中国性研究",
"descSummary" : "《中国命研究》，李敖认为自己对天地、阴阳、日夜、善恶、贤愚、人鬼等的理解，已经超越...",
"url" : "http:\/\/go.rss.sina.com.cn\/redirect.php?url=http:\/\/vip.book.sina.com.cn\/book\/index_241012.html",
"pubDate" : "2013年8月9日",
"enterDate" : "384073:00:11",
"channelId" : "-1163700457284398214",
"channelName" : "生活娱乐排行榜-新浪读书",
"channelNameSummary" : "生活娱乐排行榜-新浪...",
"channelUrl" : "http:\/\/book.sina.com.cn\/lady\/",
"author" : "WWW.SINA.COM.CN",
"tags" : [],
"desc" : "《中国命研究》，李敖认为自己对天地、阴阳、日夜、善恶、贤愚、人鬼等的理解，已经超越古人。这是一本革命性、启发性极强的著作。\u201C生民以来，所未有也！\u201D《中国性研究》包括《...",
"emailed" : False,
"forwarded" : False,
"english" : False
}  , {
"index" : 2,
"articleIndex" : "570",
"favor" :  False ,
     "read" : False,    
"title" : "中国20位魅力女主播的人生智慧Ⅱ",
"titleTip" : "中国20位魅力女主播的人生智慧Ⅱ",
"titleSummary" : "中国20位魅力女主播的人生智慧Ⅱ",
"descSummary" : "董卿、陈辰、李思思等当红女主播化身成功导师，引爆魅力女人的智慧...",
"url" : "http:\/\/go.rss.sina.com.cn\/redirect.php?url=http:\/\/vip.book.sina.com.cn\/book\/index_242699.html",
"pubDate" : "2013年7月31日",
"enterDate" : "384155:02:59",
"channelId" : "-1163700457284398214",
"channelName" : "生活娱乐排行榜-新浪读书",
"channelNameSummary" : "生活娱乐排行榜-新浪...",
"channelUrl" : "http:\/\/book.sina.com.cn\/lady\/",
"author" : "WWW.SINA.COM.CN",
"tags" : [],
"desc" : "董卿、陈辰、李思思等当红女主播化身成功导师，引爆魅力女人的智慧力量一部让千万女性发生改变的智慧修习书，广受欢迎的提升女性魅力的新励志经典...",
"emailed" : False,
"forwarded" : False,
"english" : False
}  , {
"index" : 3,
"articleIndex" : "582",
"favor" :  False ,
     "read" : False,    
"title" : "我不是谁的偶像",
"titleTip" : "我不是谁的偶像",
"titleSummary" : "我不是谁的偶像",
"descSummary" : "从乖小孩到叛逆少年再到\u201C85后\u201D好青年，这个中国式成长的标本路径，魏晨一步都没...",
"url" : "http:\/\/go.rss.sina.com.cn\/redirect.php?url=http:\/\/vip.book.sina.com.cn\/book\/index_240843.html",
"pubDate" : "2013年7月10日",
"enterDate" : "382176:42:43",
"channelId" : "-1163700457284398214",
"channelName" : "生活娱乐排行榜-新浪读书",
"channelNameSummary" : "生活娱乐排行榜-新浪...",
"channelUrl" : "http:\/\/book.sina.com.cn\/lady\/",
"author" : "WWW.SINA.COM.CN",
"tags" : [],
"desc" : "从乖小孩到叛逆少年再到\u201C85后\u201D好青年，这个中国式成长的标本路径，魏晨一步都没少。只不过，剥开\u201C全能偶像\u201D标签，在貌似工业流水线的标准商品背后，本书为我们呈现出作者真实鲜...",
"emailed" : False,
"forwarded" : False,
"english" : False
}  , {
"index" : 4,
"articleIndex" : "563",
"favor" :  False ,
     "read" : False,    
"title" : "再见苏丝黄",
"titleTip" : "再见苏丝黄",
"titleSummary" : "再见苏丝黄",
"descSummary" : "虽是两性情感，作者在哲学、社会学、文学和情感甚至科学之间自如地跳跃，用广阔的视野来...",
"url" : "http:\/\/go.rss.sina.com.cn\/redirect.php?url=http:\/\/vip.book.sina.com.cn\/book\/index_240344.html",
"pubDate" : "2013年7月4日",
"enterDate" : "384178:45:04",
"channelId" : "-1163700457284398214",
"channelName" : "生活娱乐排行榜-新浪读书",
"channelNameSummary" : "生活娱乐排行榜-新浪...",
"channelUrl" : "http:\/\/book.sina.com.cn\/lady\/",
"author" : "WWW.SINA.COM.CN",
"tags" : [],
"desc" : "虽是两性情感，作者在哲学、社会学、文学和情感甚至科学之间自如地跳跃，用广阔的视野来解读他们各自的苦恼，困惑，他们的尴尬与和谐，他们的欲望与失望。...",
"emailed" : False,
"forwarded" : False,
"english" : False
}  , {
"index" : 5,
"articleIndex" : "565",
"favor" :  False ,
     "read" : False,    
"title" : "爱与性的实验报告",
"titleTip" : "爱与性的实验报告",
"titleSummary" : "爱与性的实验报告",
"descSummary" : "这群人化身为小说人物，轻松而又有趣地解读着，关于爱与性的那些科学实验报告。...",
"url" : "http:\/\/go.rss.sina.com.cn\/redirect.php?url=http:\/\/vip.book.sina.com.cn\/book\/index_173547.html",
"pubDate" : "2013年7月3日",
"enterDate" : "383907:42:39",
"channelId" : "-1163700457284398214",
"channelName" : "生活娱乐排行榜-新浪读书",
"channelNameSummary" : "生活娱乐排行榜-新浪...",
"channelUrl" : "http:\/\/book.sina.com.cn\/lady\/",
"author" : "WWW.SINA.COM.CN",
"tags" : [],
"desc" : "这群人化身为小说人物，轻松而又有趣地解读着，关于爱与性的那些科学实验报告。六十多篇短文，一段段生动的情感经历，一个个相关的假设验证和调查数据，既感性又理性地为你分析你...",
"emailed" : False,
"forwarded" : False,
"english" : False
}  , {
"index" : 6,
"articleIndex" : "569",
"favor" :  False ,
     "read" : False,    
"title" : "成为首富的9堂课",
"titleTip" : "成为首富的9堂课",
"titleSummary" : "成为首富的9堂课",
"descSummary" : "让月光族不在穷忙轻轻松松做个有钱人。在充满消费诱惑的世界，即使你拥高薪厚职，只...",
"url" : "http:\/\/go.rss.sina.com.cn\/redirect.php?url=http:\/\/vip.book.sina.com.cn\/book\/index_239483.html",
"pubDate" : "2013年6月21日",
"enterDate" : "383211:54:16",
"channelId" : "-1163700457284398214",
"channelName" : "生活娱乐排行榜-新浪读书",
"channelNameSummary" : "生活娱乐排行榜-新浪...",
"channelUrl" : "http:\/\/book.sina.com.cn\/lady\/",
"author" : "WWW.SINA.COM.CN",
"tags" : [],
"desc" : "让月光族不在穷忙轻轻松松做个有钱人。在充满消费诱惑的世界，即使你拥高薪厚职，只要稍一失守，每月薪金便如流水过网般溜过你的指缝，令你百思不得其解。本书作者美国著名理财大...",
"emailed" : False,
"forwarded" : False,
"english" : False
}  , {
"index" : 7,
"articleIndex" : "571",
"favor" :  False ,
     "read" : False,    
"title" : "正能量",
"titleTip" : "正能量",
"titleSummary" : "正能量",
"descSummary" : "通过一系列行之有效的方法，以帮助所有身处人生低谷、长期焦虑、沮丧、消沉、自我怀疑的人，...",
"url" : "http:\/\/go.rss.sina.com.cn\/redirect.php?url=http:\/\/vip.book.sina.com.cn\/book\/index_229317.html",
"pubDate" : "2013年2月19日",
"enterDate" : "380261:48:55",
"channelId" : "-1163700457284398214",
"channelName" : "生活娱乐排行榜-新浪读书",
"channelNameSummary" : "生活娱乐排行榜-新浪...",
"channelUrl" : "http:\/\/book.sina.com.cn\/lady\/",
"author" : "WWW.SINA.COM.CN",
"tags" : [],
"desc" : "通过一系列行之有效的方法，以帮助所有身处人生低谷、长期焦虑、沮丧、消沉、自我怀疑的人，过上幸福喜乐的生活。每一章都像一次心理咨询，详细论述了各种自我挫败行为，分析我们...",
"emailed" : False,
"forwarded" : False,
"english" : False
}  , {
"index" : 8,
"articleIndex" : "564",
"favor" :  False ,
     "read" : False,    
"title" : "男女内参",
"titleTip" : "男女内参",
"titleSummary" : "男女内参",
"descSummary" : "\u201C现在的人貌似有着反纯爱倾向，讨论备胎问题不再遮遮掩掩，男人也可以像个大闺蜜般给出最...",
"url" : "http:\/\/go.rss.sina.com.cn\/redirect.php?url=http:\/\/vip.book.sina.com.cn\/book\/index_221751.html",
"pubDate" : "2012年12月10日",
"enterDate" : "379183:37:23",
"channelId" : "-1163700457284398214",
"channelName" : "生活娱乐排行榜-新浪读书",
"channelNameSummary" : "生活娱乐排行榜-新浪...",
"channelUrl" : "http:\/\/book.sina.com.cn\/lady\/",
"author" : "WWW.SINA.COM.CN",
"tags" : [],
"desc" : "\u201C现在的人貌似有着反纯爱倾向，讨论备胎问题不再遮遮掩掩，男人也可以像个大闺蜜般给出最人道的支持了。酒是激烈了点，可是和酒结婚，酒就变成水了，哪还能激烈起来。\u201D当然，不...",
"emailed" : False,
"forwarded" : False,
"english" : False
}  , {
"index" : 9,
"articleIndex" : "568",
"favor" :  False ,
     "read" : False,    
"title" : "遇见未知的自己",
"titleTip" : "遇见未知的自己",
"titleSummary" : "遇见未知的自己",
"descSummary" : "\u201C为什么我不快乐？\u201D\u201C为什么我不能拥有我想要的生活？\u201D本书借由我们每天都可能遭...",
"url" : "http:\/\/go.rss.sina.com.cn\/redirect.php?url=http:\/\/vip.book.sina.com.cn\/book\/index_216648.html",
"pubDate" : "2012年10月10日",
"enterDate" : "377098:09:08",
"channelId" : "-1163700457284398214",
"channelName" : "生活娱乐排行榜-新浪读书",
"channelNameSummary" : "生活娱乐排行榜-新浪...",
"channelUrl" : "http:\/\/book.sina.com.cn\/lady\/",
"author" : "WWW.SINA.COM.CN",
"tags" : [],
"desc" : "\u201C为什么我不快乐？\u201D\u201C为什么我不能拥有我想要的生活？\u201D本书借由我们每天都可能遭遇到的种种事情，帮助我们看到主宰自己人生的模式是如何形成的，又如何在操控我们的身心。并以...",
"emailed" : False,
"forwarded" : False,
"english" : False
}  , {
"index" : 10,
"articleIndex" : "581",
"favor" :  False ,
     "read" : False,    
"title" : "男人是野性动物 女人是守巢动物",
"titleTip" : "男人是野性动物 女人是守巢动物",
"titleSummary" : "男人是野性动物 女人是守巢动物",
"descSummary" : "生活中的很多恋人或夫妻，多数情况下你不了解我，我不理解你；有时沟...",
"url" : "http:\/\/go.rss.sina.com.cn\/redirect.php?url=http:\/\/vip.book.sina.com.cn\/book\/index_214469.html",
"pubDate" : "2012年8月31日",
"enterDate" : "374647:13:43",
"channelId" : "-1163700457284398214",
"channelName" : "生活娱乐排行榜-新浪读书",
"channelNameSummary" : "生活娱乐排行榜-新浪...",
"channelUrl" : "http:\/\/book.sina.com.cn\/lady\/",
"author" : "WWW.SINA.COM.CN",
"tags" : [],
"desc" : "生活中的很多恋人或夫妻，多数情况下你不了解我，我不理解你；有时沟通困难，有时又误会频生。所以，男人和女人之间似乎是亲密的陌生人，其双方骨子里有着彼此的与众不同\u2015\u2015男人...",
"emailed" : False,
"forwarded" : False,
"english" : False
}  , {
"index" : 11,
"articleIndex" : "566",
"favor" :  False ,
     "read" : False,    
"title" : "时有女子",
"titleTip" : "时有女子",
"titleSummary" : "时有女子",
"descSummary" : "书中所选16个女子，皆世人之所爱，她们身处不同时期，来自不同国籍，她们是女政治家、第...",
"url" : "http:\/\/go.rss.sina.com.cn\/redirect.php?url=http:\/\/vip.book.sina.com.cn\/book\/index_211918.html",
"pubDate" : "2012年7月29日",
"enterDate" : "375746:28:52",
"channelId" : "-1163700457284398214",
"channelName" : "生活娱乐排行榜-新浪读书",
"channelNameSummary" : "生活娱乐排行榜-新浪...",
"channelUrl" : "http:\/\/book.sina.com.cn\/lady\/",
"author" : "WWW.SINA.COM.CN",
"tags" : [],
"desc" : "书中所选16个女子，皆世人之所爱，她们身处不同时期，来自不同国籍，她们是女政治家、第一夫人、杰出商人、影视明星，她们是平凡世界里一眸回望的亮色，她们是你，是我，是悲欢离合...",
"emailed" : False,
"forwarded" : False,
"english" : False
}  , {
"index" : 12,
"articleIndex" : "567",
"favor" :  False ,
     "read" : False,    
"title" : "人性的弱点全集",
"titleTip" : "人性的弱点全集",
"titleSummary" : "人性的弱点全集",
"descSummary" : "是改变无数人命运的伟大著作。出版后立即获得了广大读者的欢迎，成为西方世界最持久...",
"url" : "http:\/\/go.rss.sina.com.cn\/redirect.php?url=http:\/\/vip.book.sina.com.cn\/book\/index_211844.html",
"pubDate" : "2012年7月28日",
"enterDate" : "375484:33:50",
"channelId" : "-1163700457284398214",
"channelName" : "生活娱乐排行榜-新浪读书",
"channelNameSummary" : "生活娱乐排行榜-新浪...",
"channelUrl" : "http:\/\/book.sina.com.cn\/lady\/",
"author" : "WWW.SINA.COM.CN",
"tags" : [],
"desc" : "是改变无数人命运的伟大著作。出版后立即获得了广大读者的欢迎，成为西方世界最持久的人文畅销书，至今已译成多种语种出版，在全球畅销不衰。无数读者通过阅读和实践书中介绍的各...",
"emailed" : False,
"forwarded" : False,
"english" : False
}  , {
"index" : 13,
"articleIndex" : "574",
"favor" :  False ,
     "read" : False,    
"title" : "人性的优点全集",
"titleTip" : "人性的优点全集",
"titleSummary" : "人性的优点全集",
"descSummary" : "是改变无数人命运的伟大著作。出版后立即获得了广大读者的欢迎，成为西方世界最持久...",
"url" : "http:\/\/go.rss.sina.com.cn\/redirect.php?url=http:\/\/vip.book.sina.com.cn\/book\/index_211842.html",
"pubDate" : "2012年7月28日",
"enterDate" : "374883:58:17",
"channelId" : "-1163700457284398214",
"channelName" : "生活娱乐排行榜-新浪读书",
"channelNameSummary" : "生活娱乐排行榜-新浪...",
"channelUrl" : "http:\/\/book.sina.com.cn\/lady\/",
"author" : "WWW.SINA.COM.CN",
"tags" : [],
"desc" : "是改变无数人命运的伟大著作。出版后立即获得了广大读者的欢迎，成为西方世界最持久的人文畅销书，至今已译成多种语种出版，在全球畅销不衰。无数读者通过阅读和实践书中介绍的各...",
"emailed" : False,
"forwarded" : False,
"english" : False
}  , {
"index" : 14,
"articleIndex" : "580",
"favor" :  False ,
     "read" : False,    
"title" : "修炼魅力女人（第三版）",
"titleTip" : "修炼魅力女人（第三版）",
"titleSummary" : "修炼魅力女人（第三版）",
"descSummary" : "魅力是一种特有的力，获得和拥有它便有了对他人影响、感染、驱动的力量，就...",
"url" : "http:\/\/go.rss.sina.com.cn\/redirect.php?url=http:\/\/vip.book.sina.com.cn\/book\/index_197742.html",
"pubDate" : "2012年3月16日",
"enterDate" : "370618:22:42",
"channelId" : "-1163700457284398214",
"channelName" : "生活娱乐排行榜-新浪读书",
"channelNameSummary" : "生活娱乐排行榜-新浪...",
"channelUrl" : "http:\/\/book.sina.com.cn\/lady\/",
"author" : "WWW.SINA.COM.CN",
"tags" : [],
"desc" : "魅力是一种特有的力，获得和拥有它便有了对他人影响、感染、驱动的力量，就拥有了对生命未来的掌控力。这应该算是一种不错的理由和说法。你可以不大关心美，不大关心魅力，但你能...",
"emailed" : False,
"forwarded" : False,
"english" : False
}  , {
"index" : 15,
"articleIndex" : "575",
"favor" :  False ,
     "read" : False,    
"title" : "做人曾国藩 做事胡雪岩",
"titleTip" : "做人曾国藩 做事胡雪岩",
"titleSummary" : "做人曾国藩 做事胡雪岩",
"descSummary" : "最后却成为拥兵百万的封疆大吏、\u201C中兴名臣\u201D；一位深谙中国传统智慧权谋的传...",
"url" : "http:\/\/go.rss.sina.com.cn\/redirect.php?url=http:\/\/vip.book.sina.com.cn\/book\/index_182422.html",
"pubDate" : "2011年10月13日",
"enterDate" : "367837:36:54",
"channelId" : "-1163700457284398214",
"channelName" : "生活娱乐排行榜-新浪读书",
"channelNameSummary" : "生活娱乐排行榜-新浪...",
"channelUrl" : "http:\/\/book.sina.com.cn\/lady\/",
"author" : "WWW.SINA.COM.CN",
"tags" : [],
"desc" : "最后却成为拥兵百万的封疆大吏、\u201C中兴名臣\u201D；一位深谙中国传统智慧权谋的传奇商人，原本资质平平，最终却成了流芳百世的商界巨贾、\u201C红顶商人\u201D。一百多年来，他们的做人哲学、...",
"emailed" : False,
"forwarded" : False,
"english" : False
}  , {
"index" : 16,
"articleIndex" : "576",
"favor" :  False ,
     "read" : False,    
"title" : "七分做人 三分做事",
"titleTip" : "七分做人 三分做事",
"titleSummary" : "七分做人 三分做事",
"descSummary" : "两者相辅相成，缺一不可。只做人不做事，将一事无成；只做事不做人，将众叛亲离。...",
"url" : "http:\/\/go.rss.sina.com.cn\/redirect.php?url=http:\/\/vip.book.sina.com.cn\/book\/index_182421.html",
"pubDate" : "2011年10月13日",
"enterDate" : "367645:33:30",
"channelId" : "-1163700457284398214",
"channelName" : "生活娱乐排行榜-新浪读书",
"channelNameSummary" : "生活娱乐排行榜-新浪...",
"channelUrl" : "http:\/\/book.sina.com.cn\/lady\/",
"author" : "WWW.SINA.COM.CN",
"tags" : [],
"desc" : "两者相辅相成，缺一不可。只做人不做事，将一事无成；只做事不做人，将众叛亲离。很多人会有这样一些疑问：在现代社会中该如何做人做事？是做人重要还是做事重要？该如何处理做人...",
"emailed" : False,
"forwarded" : False,
"english" : False
}  , {
"index" : 17,
"articleIndex" : "578",
"favor" :  False ,
     "read" : False,    
"title" : "每天学点经济学",
"titleTip" : "每天学点经济学",
"titleSummary" : "每天学点经济学",
"descSummary" : "《每天学点经济学全集》最大的特点在于，采用生活化的语言，将经济学内在的深刻原理...",
"url" : "http:\/\/go.rss.sina.com.cn\/redirect.php?url=http:\/\/vip.book.sina.com.cn\/book\/index_182417.html",
"pubDate" : "2011年10月13日",
"enterDate" : "367233:11:21",
"channelId" : "-1163700457284398214",
"channelName" : "生活娱乐排行榜-新浪读书",
"channelNameSummary" : "生活娱乐排行榜-新浪...",
"channelUrl" : "http:\/\/book.sina.com.cn\/lady\/",
"author" : "WWW.SINA.COM.CN",
"tags" : [],
"desc" : "《每天学点经济学全集》最大的特点在于，采用生活化的语言，将经济学内在的深刻原理与奥妙之处娓娓道来，让读者在快乐和享受中，迅速了解经济学的全貌，轻轻松松地获得经济学的知...",
"emailed" : False,
"forwarded" : False,
"english" : False
}  , {
"index" : 18,
"articleIndex" : "579",
"favor" :  False ,
     "read" : False,    
"title" : "马云商道真经",
"titleTip" : "马云商道真经",
"titleSummary" : "马云商道真经",
"descSummary" : "有人说，对于马云，最好的解读就是不解读，他原生态的声音就是最大的逆势经营精髓。...",
"url" : "http:\/\/go.rss.sina.com.cn\/redirect.php?url=http:\/\/vip.book.sina.com.cn\/book\/index_182414.html",
"pubDate" : "2011年10月13日",
"enterDate" : "366897:02:57",
"channelId" : "-1163700457284398214",
"channelName" : "生活娱乐排行榜-新浪读书",
"channelNameSummary" : "生活娱乐排行榜-新浪...",
"channelUrl" : "http:\/\/book.sina.com.cn\/lady\/",
"author" : "WWW.SINA.COM.CN",
"tags" : [],
"desc" : "有人说，对于马云，最好的解读就是不解读，他原生态的声音就是最大的逆势经营精髓。从一个平凡的穷小子到世界电子商务巨头，马云无疑是这个时代的草根英雄和创业偶像。而马云艰苦...",
"emailed" : False,
"forwarded" : False,
"english" : False
}  , {
"index" : 19,
"articleIndex" : "572",
"favor" :  False ,
     "read" : False,    
"title" : "口才成就一生",
"titleTip" : "口才成就一生",
"titleSummary" : "口才成就一生",
"descSummary" : "笨嘴拙舌、词不达意的人往往四处碰壁；寸步难行。而巧舌如簧、能言善辩的人则可以左右...",
"url" : "http:\/\/go.rss.sina.com.cn\/redirect.php?url=http:\/\/vip.book.sina.com.cn\/book\/index_182405.html",
"pubDate" : "2011年10月13日",
"enterDate" : "368172:14:52",
"channelId" : "-1163700457284398214",
"channelName" : "生活娱乐排行榜-新浪读书",
"channelNameSummary" : "生活娱乐排行榜-新浪...",
"channelUrl" : "http:\/\/book.sina.com.cn\/lady\/",
"author" : "WWW.SINA.COM.CN",
"tags" : [],
"desc" : "笨嘴拙舌、词不达意的人往往四处碰壁；寸步难行。而巧舌如簧、能言善辩的人则可以左右逢源，无往不胜。口才好的人更容易成功，是因为他们总能把话说得恰到好处，说到他人心里。这...",
"emailed" : False,
"forwarded" : False,
"english" : False
} ]
}
