{
"mode" : {"viewTitle" : 1,   "viewNew" : 0,  "pageIndex" : 2 },
 "channel" : {"id" : "-1163700457284398214", "booked" : False, "subNumber" : 1, "name" : "生活娱乐排行榜-新浪读书", "url" : "http:\/\/book.sina.com.cn\/lady\/", "feed" : "http:\/\/rss.sina.com.cn\/book\/life_rank.xml", "author" : "WWW.SINA.COM.CN", "desc" : "生活娱乐排行榜", "imageUrl" : "http:\/\/www.sinaimg.cn\/book\/deco\/2010\/0826\/logo_v3.gif", "postPerWeek" : "0", "lastCrawTime" : "17:08:55", "crawDateTime" : "昨天00:04:15", "lastHttpCode" : "304"}, "page" : {
"startIndex" : 20,
"totalCount" : 583,
"pageIndex" : 2,
"lastPage" : 30,
"pageSize" : 20,
"english" :  False },
 "unreadNum" : 0, "shotIndex" : -1,
"articles" : [
{
"index" : 0,
"articleIndex" : "562",
"favor" :  False ,
     "read" : False,    
"title" : "单飞妈咪",
"titleTip" : "单飞妈咪",
"titleSummary" : "单飞妈咪",
"descSummary" : "从此告别了没有目标的人生，告别了难缠的婆婆和花心的丈夫，告别了一家三口的幸福生活，...",
"url" : "http:\/\/go.rss.sina.com.cn\/redirect.php?url=http:\/\/vip.book.sina.com.cn\/book\/index_239711.html",
"pubDate" : "2013年6月25日",
"enterDate" : "384033:47:24",
"channelId" : "-1163700457284398214",
"channelName" : "生活娱乐排行榜-新浪读书",
"channelNameSummary" : "生活娱乐排行榜-新浪...",
"channelUrl" : "http:\/\/book.sina.com.cn\/lady\/",
"author" : "WWW.SINA.COM.CN",
"tags" : [],
"desc" : "从此告别了没有目标的人生，告别了难缠的婆婆和花心的丈夫，告别了一家三口的幸福生活，带着三岁的幼子搬离大房子，来到一个偏僻到手机信号都没有的旧村屋里，开始了与\u201C小强\u201D作...",
"emailed" : False,
"forwarded" : False,
"english" : False
}  , {
"index" : 1,
"articleIndex" : "557",
"favor" :  False ,
     "read" : False,    
"title" : "卡耐基写给魅力女人全集",
"titleTip" : "卡耐基写给魅力女人全集",
"titleSummary" : "卡耐基写给魅力女人全集",
"descSummary" : "她们应该如何灵活运用戴尔・卡耐基的成功学理论、来改变自己的人生轨迹。",
"url" : "http:\/\/go.rss.sina.com.cn\/redirect.php?url=http:\/\/vip.book.sina.com.cn\/book\/index_237992.html",
"pubDate" : "2013年6月1日",
"enterDate" : "384149:58:30",
"channelId" : "-1163700457284398214",
"channelName" : "生活娱乐排行榜-新浪读书",
"channelNameSummary" : "生活娱乐排行榜-新浪...",
"channelUrl" : "http:\/\/book.sina.com.cn\/lady\/",
"author" : "WWW.SINA.COM.CN",
"tags" : [],
"desc" : "她们应该如何灵活运用戴尔・卡耐基的成功学理论、来改变自己的人生轨迹。...",
"emailed" : False,
"forwarded" : False,
"english" : False
}  , {
"index" : 2,
"articleIndex" : "553",
"favor" :  False ,
     "read" : False,    
"title" : "这样上班就对了",
"titleTip" : "这样上班就对了",
"titleSummary" : "这样上班就对了",
"descSummary" : "工作就是工作，就是在完成雇主要求的同时，获取食物和住房的报酬，除此之外的任何收...",
"url" : "http:\/\/go.rss.sina.com.cn\/redirect.php?url=http:\/\/vip.book.sina.com.cn\/book\/index_237062.html",
"pubDate" : "2013年5月21日",
"enterDate" : "383983:09:25",
"channelId" : "-1163700457284398214",
"channelName" : "生活娱乐排行榜-新浪读书",
"channelNameSummary" : "生活娱乐排行榜-新浪...",
"channelUrl" : "http:\/\/book.sina.com.cn\/lady\/",
"author" : "WWW.SINA.COM.CN",
"tags" : [],
"desc" : "工作就是工作，就是在完成雇主要求的同时，获取食物和住房的报酬，除此之外的任何收获都应该视之为额外盈余。尊重自己工作的人才能寻觅到更多快乐，而工作的尊严感就藏在工作的细...",
"emailed" : False,
"forwarded" : False,
"english" : False
}  , {
"index" : 3,
"articleIndex" : "556",
"favor" :  False ,
     "read" : False,    
"title" : "世界这么大，还是遇见你",
"titleTip" : "世界这么大，还是遇见你",
"titleSummary" : "世界这么大，还是遇见你",
"descSummary" : "刀劈三观荔枝、邓安庆、花衣云影、嘉倩、了之、流云在天、毛路、没头脑也很...",
"url" : "http:\/\/go.rss.sina.com.cn\/redirect.php?url=http:\/\/vip.book.sina.com.cn\/book\/index_236143.html",
"pubDate" : "2013年5月10日",
"enterDate" : "383644:23:39",
"channelId" : "-1163700457284398214",
"channelName" : "生活娱乐排行榜-新浪读书",
"channelNameSummary" : "生活娱乐排行榜-新浪...",
"channelUrl" : "http:\/\/book.sina.com.cn\/lady\/",
"author" : "WWW.SINA.COM.CN",
"tags" : [],
"desc" : "刀劈三观荔枝、邓安庆、花衣云影、嘉倩、了之、流云在天、毛路、没头脑也很高兴、meiya、米没了、沐风而遇周星星、你看起来很美味、Su、书生柏小齐、吴桐、优等生杜小明、曾良君、紫...",
"emailed" : False,
"forwarded" : False,
"english" : False
}  , {
"index" : 4,
"articleIndex" : "558",
"favor" :  False ,
     "read" : False,    
"title" : "女人明白要趁早",
"titleTip" : "女人明白要趁早",
"titleSummary" : "女人明白要趁早",
"descSummary" : "本书旨在以轻松、口语化的风格提出这个崭新的理论，亲切而实际的将\u201C女性人生风险管...",
"url" : "http:\/\/go.rss.sina.com.cn\/redirect.php?url=http:\/\/vip.book.sina.com.cn\/book\/index_236137.html",
"pubDate" : "2013年5月10日",
"enterDate" : "383623:45:31",
"channelId" : "-1163700457284398214",
"channelName" : "生活娱乐排行榜-新浪读书",
"channelNameSummary" : "生活娱乐排行榜-新浪...",
"channelUrl" : "http:\/\/book.sina.com.cn\/lady\/",
"author" : "WWW.SINA.COM.CN",
"tags" : [],
"desc" : "本书旨在以轻松、口语化的风格提出这个崭新的理论，亲切而实际的将\u201C女性人生风险管理理论\u201D引入到实际问题的各个方面中来。整本书的主要内容将以第一人称的亲身故事讲出，但实则...",
"emailed" : False,
"forwarded" : False,
"english" : False
}  , {
"index" : 5,
"articleIndex" : "544",
"favor" :  False ,
     "read" : False,    
"title" : "空手套白狼",
"titleTip" : "空手套白狼",
"titleSummary" : "空手套白狼",
"descSummary" : "王建国、李海峰夫妇从国家机关下海创业，争得驼城市的群英煤矿的引资和改制项目。他俩找...",
"url" : "http:\/\/go.rss.sina.com.cn\/redirect.php?url=http:\/\/vip.book.sina.com.cn\/book\/index_235290.html",
"pubDate" : "2013年4月28日",
"enterDate" : "383866:35:34",
"channelId" : "-1163700457284398214",
"channelName" : "生活娱乐排行榜-新浪读书",
"channelNameSummary" : "生活娱乐排行榜-新浪...",
"channelUrl" : "http:\/\/book.sina.com.cn\/lady\/",
"author" : "WWW.SINA.COM.CN",
"tags" : [],
"desc" : "王建国、李海峰夫妇从国家机关下海创业，争得驼城市的群英煤矿的引资和改制项目。他俩找来港商钱进、赵牧之出资。50：50的股权结构设置和钱进悄悄在合资合同中将\u201C投入\u201D改为\u201C融资投入\u201D，就此埋下尔虞我诈、勾心斗角的导火索。随后王、李与赵、钱以及\u201C脚踩两只船\u201D的中...",
"emailed" : False,
"forwarded" : False,
"english" : False
}  , {
"index" : 6,
"articleIndex" : "551",
"favor" :  False ,
     "read" : False,    
"title" : "卖菜叔日记",
"titleTip" : "卖菜叔日记",
"titleSummary" : "卖菜叔日记",
"descSummary" : "在北京西城区天陶菜市场，每天都重复着这样一幕：在嘈杂的叫卖声中，一个卖生姜、大蒜的...",
"url" : "http:\/\/go.rss.sina.com.cn\/redirect.php?url=http:\/\/vip.book.sina.com.cn\/book\/index_233316.html",
"pubDate" : "2013年4月3日",
"enterDate" : "382978:03:29",
"channelId" : "-1163700457284398214",
"channelName" : "生活娱乐排行榜-新浪读书",
"channelNameSummary" : "生活娱乐排行榜-新浪...",
"channelUrl" : "http:\/\/book.sina.com.cn\/lady\/",
"author" : "WWW.SINA.COM.CN",
"tags" : [],
"desc" : "在北京西城区天陶菜市场，每天都重复着这样一幕：在嘈杂的叫卖声中，一个卖生姜、大蒜的中年男子在专注地一笔一画码字。他叫姚启中，今年40岁，1997年从安徽阜阳来北京打工。他靠卖...",
"emailed" : False,
"forwarded" : False,
"english" : False
}  , {
"index" : 7,
"articleIndex" : "550",
"favor" :  False ,
     "read" : False,    
"title" : "富翁只有一个秘密",
"titleTip" : "富翁只有一个秘密",
"titleSummary" : "富翁只有一个秘密",
"descSummary" : "妻子也因为生计的艰难而总是不给他好脸色。几乎所有人都断定，小人物索尔必将这么...",
"url" : "http:\/\/go.rss.sina.com.cn\/redirect.php?url=http:\/\/vip.book.sina.com.cn\/book\/index_223128.html",
"pubDate" : "2012年12月27日",
"enterDate" : "380650:24:35",
"channelId" : "-1163700457284398214",
"channelName" : "生活娱乐排行榜-新浪读书",
"channelNameSummary" : "生活娱乐排行榜-新浪...",
"channelUrl" : "http:\/\/book.sina.com.cn\/lady\/",
"author" : "WWW.SINA.COM.CN",
"tags" : [],
"desc" : "妻子也因为生计的艰难而总是不给他好脸色。几乎所有人都断定，小人物索尔必将这么窝囊憋屈地过一辈子。甚至连索尔自己也这么认为。直到有一天，索尔和已经成为超级富豪的伯父深谈...",
"emailed" : False,
"forwarded" : False,
"english" : False
}  , {
"index" : 8,
"articleIndex" : "555",
"favor" :  False ,
     "read" : False,    
"title" : "差异的爱情才保鲜",
"titleTip" : "差异的爱情才保鲜",
"titleSummary" : "差异的爱情才保鲜",
"descSummary" : "本书从女性心灵成长的视角，全方位渗透了作者多年对婚恋问题、爱情真意的心得；主...",
"url" : "http:\/\/go.rss.sina.com.cn\/redirect.php?url=http:\/\/vip.book.sina.com.cn\/book\/index_222236.html",
"pubDate" : "2012年12月16日",
"enterDate" : "380141:46:26",
"channelId" : "-1163700457284398214",
"channelName" : "生活娱乐排行榜-新浪读书",
"channelNameSummary" : "生活娱乐排行榜-新浪...",
"channelUrl" : "http:\/\/book.sina.com.cn\/lady\/",
"author" : "WWW.SINA.COM.CN",
"tags" : [],
"desc" : "本书从女性心灵成长的视角，全方位渗透了作者多年对婚恋问题、爱情真意的心得；主题涉及当下社会非常关注的相亲、网恋、两性相处、家庭烦恼、情感危机、小三、出轨、幸福婚姻等问...",
"emailed" : False,
"forwarded" : False,
"english" : False
}  , {
"index" : 9,
"articleIndex" : "549",
"favor" :  False ,
     "read" : False,    
"title" : "爱要深，心要狠，幸福不能等",
"titleTip" : "爱要深，心要狠，幸福不能等",
"titleSummary" : "爱要深，心要狠，幸福不能等",
"descSummary" : "《爱要深，心要狠，幸福不能等》是中国首席励志作家陆琪最新的两性新书...",
"url" : "http:\/\/go.rss.sina.com.cn\/redirect.php?url=http:\/\/vip.book.sina.com.cn\/book\/index_193666.html",
"pubDate" : "2012年12月4日",
"enterDate" : "380120:59:12",
"channelId" : "-1163700457284398214",
"channelName" : "生活娱乐排行榜-新浪读书",
"channelNameSummary" : "生活娱乐排行榜-新浪...",
"channelUrl" : "http:\/\/book.sina.com.cn\/lady\/",
"author" : "WWW.SINA.COM.CN",
"tags" : [],
"desc" : "《爱要深，心要狠，幸福不能等》是中国首席励志作家陆琪最新的两性新书，本书对未婚及已婚女性都有相当的启发意义。《爱要深，心要狠，幸福不能等》中，有性格各异的女生，她们在...",
"emailed" : False,
"forwarded" : False,
"english" : False
}  , {
"index" : 10,
"articleIndex" : "543",
"favor" :  False ,
     "read" : False,    
"title" : "婚姻密码",
"titleTip" : "婚姻密码",
"titleSummary" : "婚姻密码",
"descSummary" : "而远在上海单亲丈母娘也看不得女儿痛苦，亲自智斗寡居农村婆婆，只看谁法力无边！当这场家...",
"url" : "http:\/\/go.rss.sina.com.cn\/redirect.php?url=http:\/\/vip.book.sina.com.cn\/book\/index_161313.html",
"pubDate" : "2012年11月27日",
"enterDate" : "380290:37:45",
"channelId" : "-1163700457284398214",
"channelName" : "生活娱乐排行榜-新浪读书",
"channelNameSummary" : "生活娱乐排行榜-新浪...",
"channelUrl" : "http:\/\/book.sina.com.cn\/lady\/",
"author" : "WWW.SINA.COM.CN",
"tags" : [],
"desc" : "而远在上海单亲丈母娘也看不得女儿痛苦，亲自智斗寡居农村婆婆，只看谁法力无边！当这场家庭婚姻战争打响，他们才明白：结婚前，最动人的誓言是\u201C我爱你\u201D；结婚后，最美丽的声音却是\u201C在一起\u201D。...",
"emailed" : False,
"forwarded" : False,
"english" : False
}  , {
"index" : 11,
"articleIndex" : "554",
"favor" :  False ,
     "read" : False,    
"title" : "嫁人王道",
"titleTip" : "嫁人王道",
"titleSummary" : "嫁人王道",
"descSummary" : "《嫁人王道》是一本教女人如何掌握婚姻和恋爱智慧的书，一本\u201C婚商教母\u201D梁雅骊以自身经历...",
"url" : "http:\/\/go.rss.sina.com.cn\/redirect.php?url=http:\/\/vip.book.sina.com.cn\/book\/index_217396.html",
"pubDate" : "2012年10月19日",
"enterDate" : "378771:40:27",
"channelId" : "-1163700457284398214",
"channelName" : "生活娱乐排行榜-新浪读书",
"channelNameSummary" : "生活娱乐排行榜-新浪...",
"channelUrl" : "http:\/\/book.sina.com.cn\/lady\/",
"author" : "WWW.SINA.COM.CN",
"tags" : [],
"desc" : "《嫁人王道》是一本教女人如何掌握婚姻和恋爱智慧的书，一本\u201C婚商教母\u201D梁雅骊以自身经历及学员真实故事为原创的图书，是女人定制老公、打造幸福婚姻的范本。本书以幸福为女性的...",
"emailed" : False,
"forwarded" : False,
"english" : False
}  , {
"index" : 12,
"articleIndex" : "546",
"favor" :  False ,
     "read" : False,    
"title" : "女人的暧昧也精彩",
"titleTip" : "女人的暧昧也精彩",
"titleSummary" : "女人的暧昧也精彩",
"descSummary" : "暧昧是华丽的游戏，在我们中间上演：你没事，我吊着你；你有事，我帮你；你烦我，...",
"url" : "http:\/\/go.rss.sina.com.cn\/redirect.php?url=http:\/\/vip.book.sina.com.cn\/book\/index_217107.html",
"pubDate" : "2012年10月16日",
"enterDate" : "379138:20:41",
"channelId" : "-1163700457284398214",
"channelName" : "生活娱乐排行榜-新浪读书",
"channelNameSummary" : "生活娱乐排行榜-新浪...",
"channelUrl" : "http:\/\/book.sina.com.cn\/lady\/",
"author" : "WWW.SINA.COM.CN",
"tags" : [],
"desc" : "暧昧是华丽的游戏，在我们中间上演：你没事，我吊着你；你有事，我帮你；你烦我，我躲开你；你需要我，我靠近你；你没想明白，我给你时间；你想明白了不跟我说，我等着，等你跟我...",
"emailed" : False,
"forwarded" : False,
"english" : False
}  , {
"index" : 13,
"articleIndex" : "559",
"favor" :  False ,
     "read" : False,    
"title" : "正能量",
"titleTip" : "正能量",
"titleSummary" : "正能量",
"descSummary" : "而在此书中，正能量指的是一切予人向上和希望、促使人不断追求、让生活变得圆满幸福的动力和...",
"url" : "http:\/\/go.rss.sina.com.cn\/redirect.php?url=http:\/\/vip.book.sina.com.cn\/book\/index_212953.html",
"pubDate" : "2012年8月11日",
"enterDate" : "376927:23:56",
"channelId" : "-1163700457284398214",
"channelName" : "生活娱乐排行榜-新浪读书",
"channelNameSummary" : "生活娱乐排行榜-新浪...",
"channelUrl" : "http:\/\/book.sina.com.cn\/lady\/",
"author" : "WWW.SINA.COM.CN",
"tags" : [],
"desc" : "而在此书中，正能量指的是一切予人向上和希望、促使人不断追求、让生活变得圆满幸福的动力和感情。★《正能量》是一本世界级心理励志书。也是《怪诞心理学》作者的转型之作。这将...",
"emailed" : False,
"forwarded" : False,
"english" : False
}  , {
"index" : 14,
"articleIndex" : "561",
"favor" :  False ,
     "read" : False,    
"title" : "给我一个完整的婚姻",
"titleTip" : "给我一个完整的婚姻",
"titleSummary" : "给我一个完整的婚姻",
"descSummary" : "到底是真爱至上还是拜金主义？是执子之手还是玩世不恭？这些姐妹的选择，耐人寻...",
"url" : "http:\/\/go.rss.sina.com.cn\/redirect.php?url=http:\/\/vip.book.sina.com.cn\/book\/index_173451.html",
"pubDate" : "2011年8月17日",
"enterDate" : "367784:57:27",
"channelId" : "-1163700457284398214",
"channelName" : "生活娱乐排行榜-新浪读书",
"channelNameSummary" : "生活娱乐排行榜-新浪...",
"channelUrl" : "http:\/\/book.sina.com.cn\/lady\/",
"author" : "WWW.SINA.COM.CN",
"tags" : [],
"desc" : "到底是真爱至上还是拜金主义？是执子之手还是玩世不恭？这些姐妹的选择，耐人寻味。听听来自29位姐妹的心声，故事背后人性的挣扎和救赎，让人叹息，让人感悟。...",
"emailed" : False,
"forwarded" : False,
"english" : False
}  , {
"index" : 15,
"articleIndex" : "552",
"favor" :  False ,
     "read" : False,    
"title" : "一个外企女白领的日记",
"titleTip" : "一个外企女白领的日记",
"titleSummary" : "一个外企女白领的日记",
"descSummary" : "内容涉及作者在日常工作中积累的工作技巧，注意事项，人际关系处理，工作细节...",
"url" : "http:\/\/go.rss.sina.com.cn\/redirect.php?url=http:\/\/vip.book.sina.com.cn\/book\/index_166534.html",
"pubDate" : "2011年5月9日",
"enterDate" : "366169:08:01",
"channelId" : "-1163700457284398214",
"channelName" : "生活娱乐排行榜-新浪读书",
"channelNameSummary" : "生活娱乐排行榜-新浪...",
"channelUrl" : "http:\/\/book.sina.com.cn\/lady\/",
"author" : "WWW.SINA.COM.CN",
"tags" : [],
"desc" : "内容涉及作者在日常工作中积累的工作技巧，注意事项，人际关系处理，工作细节的把握等等，也有一些心情小故事。问答内容涉及面广，职场问题和感情人生问题应有尽有，问得精僻，解...",
"emailed" : False,
"forwarded" : False,
"english" : False
}  , {
"index" : 16,
"articleIndex" : "560",
"favor" :  False ,
     "read" : False,    
"title" : "小心！男人就这样骗你",
"titleTip" : "小心！男人就这样骗你",
"titleSummary" : "小心！男人就这样骗你",
"descSummary" : "本书直面现实，紧扣男女交往中不可避免的敏感环节，剖析男人真实心理，从大量...",
"url" : "http:\/\/go.rss.sina.com.cn\/redirect.php?url=http:\/\/vip.book.sina.com.cn\/book\/index_165439.html",
"pubDate" : "2011年4月26日",
"enterDate" : "365050:18:11",
"channelId" : "-1163700457284398214",
"channelName" : "生活娱乐排行榜-新浪读书",
"channelNameSummary" : "生活娱乐排行榜-新浪...",
"channelUrl" : "http:\/\/book.sina.com.cn\/lady\/",
"author" : "WWW.SINA.COM.CN",
"tags" : [],
"desc" : "本书直面现实，紧扣男女交往中不可避免的敏感环节，剖析男人真实心理，从大量真实案例中提取身心实用的智慧，教女人在男女交往中如何分辨，应对，避免，把握\u2026\u2026全书由\u201C24式女子防...",
"emailed" : False,
"forwarded" : False,
"english" : False
}  , {
"index" : 17,
"articleIndex" : "545",
"favor" :  False ,
     "read" : False,    
"title" : "女人不\u201C狠\u201D，地位不稳",
"titleTip" : "女人不\u201C狠\u201D，地位不稳",
"titleSummary" : "女人不\u201C狠\u201D，地位不稳",
"descSummary" : "其实，这类观念害人不浅，因为无数爱情消逝、婚姻解体的案例显示，女人倘若...",
"url" : "http:\/\/go.rss.sina.com.cn\/redirect.php?url=http:\/\/vip.book.sina.com.cn\/book\/index_142903.html",
"pubDate" : "2010年8月14日",
"enterDate" : "360083:46:39",
"channelId" : "-1163700457284398214",
"channelName" : "生活娱乐排行榜-新浪读书",
"channelNameSummary" : "生活娱乐排行榜-新浪...",
"channelUrl" : "http:\/\/book.sina.com.cn\/lady\/",
"author" : "WWW.SINA.COM.CN",
"tags" : [],
"desc" : "其实，这类观念害人不浅，因为无数爱情消逝、婚姻解体的案例显示，女人倘若在两性关系中盲目投入、付出过多，反倒让男人远离，得不偿失。在竞争如此激烈的现在社会，作为柔弱女性...",
"emailed" : False,
"forwarded" : False,
"english" : False
}  , {
"index" : 18,
"articleIndex" : "548",
"favor" :  False ,
     "read" : False,    
"title" : "修炼魅力女人",
"titleTip" : "修炼魅力女人",
"titleSummary" : "修炼魅力女人",
"descSummary" : "魅力女人，将健康地老去、优雅地老去。甚至，她的心，永远不老，甚至越来越有魅力。...",
"url" : "http:\/\/go.rss.sina.com.cn\/redirect.php?url=http:\/\/vip.book.sina.com.cn\/book\/index_40272.html",
"pubDate" : "2010年5月14日",
"enterDate" : "357680:24:05",
"channelId" : "-1163700457284398214",
"channelName" : "生活娱乐排行榜-新浪读书",
"channelNameSummary" : "生活娱乐排行榜-新浪...",
"channelUrl" : "http:\/\/book.sina.com.cn\/lady\/",
"author" : "WWW.SINA.COM.CN",
"tags" : [],
"desc" : "魅力女人，将健康地老去、优雅地老去。甚至，她的心，永远不老，甚至越来越有魅力。渴望充满魅力的女人们，我透露张晓梅的秘笈给你们：内外兼修。...",
"emailed" : False,
"forwarded" : False,
"english" : False
}  , {
"index" : 19,
"articleIndex" : "547",
"favor" :  False ,
     "read" : False,    
"title" : "20几岁，决定女人的一生",
"titleTip" : "20几岁，决定女人的一生",
"titleSummary" : "20几岁，决定女人的一生",
"descSummary" : "本书的可贵在于，前人花20几岁时的花样年华在用心与思考的，现在透过文字...",
"url" : "http:\/\/go.rss.sina.com.cn\/redirect.php?url=http:\/\/vip.book.sina.com.cn\/book\/index_42477.html",
"pubDate" : "2007年9月18日",
"enterDate" : "334405:45:52",
"channelId" : "-1163700457284398214",
"channelName" : "生活娱乐排行榜-新浪读书",
"channelNameSummary" : "生活娱乐排行榜-新浪...",
"channelUrl" : "http:\/\/book.sina.com.cn\/lady\/",
"author" : "WWW.SINA.COM.CN",
"tags" : [],
"desc" : "本书的可贵在于，前人花20几岁时的花样年华在用心与思考的，现在透过文字与经验告诉后辈，你可以更省力。那么，当中就看你如何撷取精华了。",
"emailed" : False,
"forwarded" : False,
"english" : False
} ]
}
