{
"mode" : {"viewTitle" : 1,   "viewNew" : 0,  "pageIndex" : 1 },
 "channel" : {"id" : "-2595574239822278602", "booked" : False, "subNumber" : 1, "name" : "美股快报-新浪财经", "url" : "http:\/\/finance.sina.com.cn\/stock\/usstock\/index.shtml", "feed" : "http:\/\/rss.sina.com.cn\/finance\/usstock.xml", "author" : "WWW.SINA.COM.CN", "desc" : "美股快报-基金要闻", "imageUrl" : "http:\/\/i1.sinaimg.cn\/cj\/pic\/newLogo\/logo_home_fin.gif", "postPerWeek" : "0", "lastCrawTime" : "17:06:10", "crawDateTime" : "17:06:10", "lastHttpCode" : "200"}, "page" : {
"startIndex" : 0,
"totalCount" : 5000,
"pageIndex" : 1,
"lastPage" : 250,
"pageSize" : 20,
"english" :  False },
 "unreadNum" : 0, "shotIndex" : -1,
"articles" : [
{
"index" : 0,
"articleIndex" : "33957",
"favor" :  False ,
     "read" : False,    
"title" : "西班牙正式结束长达两年的经济衰退",
"titleTip" : "西班牙正式结束长达两年的经济衰退",
"titleSummary" : "西班牙正式结束长达两年的经济衰退",
"descSummary" : "新浪财经讯 北京时间10月30日下午消息，据路透社，在经济连续九...",
"url" : "http:\/\/go.rss.sina.com.cn\/redirect.php?url=http:\/\/finance.sina.com.cn\/stock\/usstock\/c\/20131030\/164417167551.shtml",
"pubDate" : "16:44:34",
"enterDate" : "384200:57:41",
"channelId" : "-2595574239822278602",
"channelName" : "美股快报-新浪财经",
"channelNameSummary" : "美股快报-新浪财经",
"channelUrl" : "http:\/\/finance.sina.com.cn\/stock\/usstock\/index.shtml",
"author" : "WWW.SINA.COM.CN",
"tags" : [],
"desc" : "新浪财经讯 北京时间10月30日下午消息，据路透社，在经济连续九个季度萎缩后，西班牙今年第三季度实现增长，通胀在10月有所放缓，这为疲弱的国内需求有望转升打下基础。 西班牙统计局称，第三季度GDP环比增长0.1%，为2011年初以来首次增长，正式结束了长达两年的衰退。....",
"emailed" : False,
"forwarded" : False,
"english" : False
}  , {
"index" : 1,
"articleIndex" : "33956",
"favor" :  False ,
     "read" : False,    
"title" : "天猫公布\u201C双十一\u201D价格规则",
"titleTip" : "天猫公布\u201C双十一\u201D价格规则",
"titleSummary" : "天猫公布\u201C双十一\u201D价格规则",
"descSummary" : "新浪科技讯 10月30日下午消息，天猫今日公布了今年\u201C双十一\u201D的价格规...",
"url" : "http:\/\/go.rss.sina.com.cn\/redirect.php?url=http:\/\/tech.sina.com.cn\/i\/2013-10-30\/16448868338.shtml",
"pubDate" : "16:44:00",
"enterDate" : "384200:57:07",
"channelId" : "-2595574239822278602",
"channelName" : "美股快报-新浪财经",
"channelNameSummary" : "美股快报-新浪财经",
"channelUrl" : "http:\/\/finance.sina.com.cn\/stock\/usstock\/index.shtml",
"author" : "WWW.SINA.COM.CN",
"tags" : [],
"desc" : "新浪科技讯 10月30日下午消息，天猫今日公布了今年\u201C双十一\u201D的价格规则。根据规则，所有参加\u201C双十一\u201D的商品价格必须是最近50天(9月15日至11月10日)内最优惠。这一时间段比去年承诺的30天有所延长。 根据官方提供的数据，今年参加\u201C双十一\u201D的商家数量从去年的1万家....",
"emailed" : False,
"forwarded" : False,
"english" : False
}  , {
"index" : 2,
"articleIndex" : "33955",
"favor" :  False ,
     "read" : False,    
"title" : "赛诺菲三季度净利润大跌21% 中国业务受影响",
"titleTip" : "赛诺菲三季度净利润大跌21% 中国业务受影响",
"titleSummary" : "赛诺菲三季度净利润大跌21% 中国业务受影响",
"descSummary" : "新浪财经讯，北京时间10月30日下午消息 身处中国行贿调...",
"url" : "http:\/\/go.rss.sina.com.cn\/redirect.php?url=http:\/\/finance.sina.com.cn\/world\/ozjj\/20131030\/163517167421.shtml",
"pubDate" : "16:35:06",
"enterDate" : "384200:48:13",
"channelId" : "-2595574239822278602",
"channelName" : "美股快报-新浪财经",
"channelNameSummary" : "美股快报-新浪财经",
"channelUrl" : "http:\/\/finance.sina.com.cn\/stock\/usstock\/index.shtml",
"author" : "WWW.SINA.COM.CN",
"tags" : [],
"desc" : "新浪财经讯，北京时间10月30日下午消息 身处中国行贿调查漩涡边缘的法国赛诺菲(Sanofi SA)公司周三发布三季度财报。中国市场增速放缓至5%，拖累三季度净利润大跌21%，公司还再次下调了全年盈利预测。 赛诺菲是排名在辉瑞、葛兰素史克之后的世界第三大药企巨头。公司现....",
"emailed" : False,
"forwarded" : False,
"english" : False
}  , {
"index" : 3,
"articleIndex" : "33954",
"favor" :  False ,
     "read" : False,    
"title" : "大众汽车第三季度运营利润大幅增长",
"titleTip" : "大众汽车第三季度运营利润大幅增长",
"titleSummary" : "大众汽车第三季度运营利润大幅增长",
"descSummary" : "新浪财经讯 北京时间10月30日下午消息，据路透社，大众汽车第三...",
"url" : "http:\/\/go.rss.sina.com.cn\/redirect.php?url=http:\/\/finance.sina.com.cn\/stock\/usstock\/c\/20131030\/162617167287.shtml",
"pubDate" : "16:26:12",
"enterDate" : "384201:09:24",
"channelId" : "-2595574239822278602",
"channelName" : "美股快报-新浪财经",
"channelNameSummary" : "美股快报-新浪财经",
"channelUrl" : "http:\/\/finance.sina.com.cn\/stock\/usstock\/index.shtml",
"author" : "WWW.SINA.COM.CN",
"tags" : [],
"desc" : "新浪财经讯 北京时间10月30日下午消息，据路透社，大众汽车第三季度运营利润大幅增长，奥迪和保时捷高端车销量创新高，这帮助抵消了工程部门重组的成本。 大众汽车第三季度运营利润增长至27.8亿欧元，去年同期为23.2亿欧元。这符合接受路透社调查的分析师的预期。 ....",
"emailed" : False,
"forwarded" : False,
"english" : False
}  , {
"index" : 4,
"articleIndex" : "33953",
"favor" :  False ,
     "read" : False,    
"title" : "等待美联储声明 欧洲股市高开",
"titleTip" : "等待美联储声明 欧洲股市高开",
"titleSummary" : "等待美联储声明 欧洲股市高开",
"descSummary" : "新浪财经讯 北京时间10月30日下午消息 欧洲股市周三高开，投资者在等待...",
"url" : "http:\/\/go.rss.sina.com.cn\/redirect.php?url=http:\/\/finance.sina.com.cn\/world\/20131030\/161317167170.shtml",
"pubDate" : "16:13:18",
"enterDate" : "384200:56:30",
"channelId" : "-2595574239822278602",
"channelName" : "美股快报-新浪财经",
"channelNameSummary" : "美股快报-新浪财经",
"channelUrl" : "http:\/\/finance.sina.com.cn\/stock\/usstock\/index.shtml",
"author" : "WWW.SINA.COM.CN",
"tags" : [],
"desc" : "新浪财经讯 北京时间10月30日下午消息 欧洲股市周三高开，投资者在等待美国私营部门就业报告以及美联储货币政策会议声明。美国股指期货与亚太股市均有所上涨。 泛欧Stoxx 600指数上涨0.2%，报321.46点。泛欧Stoxx 600指数本月已上涨3.3%。英国金融时报100指数上涨0.3%....",
"emailed" : False,
"forwarded" : False,
"english" : False
}  , {
"index" : 5,
"articleIndex" : "33952",
"favor" :  False ,
     "read" : False,    
"title" : "贝莱德芬克：美联储急需缩减QE",
"titleTip" : "贝莱德芬克：美联储急需缩减QE",
"titleSummary" : "贝莱德芬克：美联储急需缩减QE",
"descSummary" : "新浪财经讯 北京时间10月30日下午消息，据彭博社，贝莱德(BlackRoc...",
"url" : "http:\/\/go.rss.sina.com.cn\/redirect.php?url=http:\/\/finance.sina.com.cn\/stock\/usstock\/c\/20131030\/160517167083.shtml",
"pubDate" : "16:05:56",
"enterDate" : "384200:49:08",
"channelId" : "-2595574239822278602",
"channelName" : "美股快报-新浪财经",
"channelNameSummary" : "美股快报-新浪财经",
"channelUrl" : "http:\/\/finance.sina.com.cn\/stock\/usstock\/index.shtml",
"author" : "WWW.SINA.COM.CN",
"tags" : [],
"desc" : "新浪财经讯 北京时间10月30日下午消息，据彭博社，贝莱德(BlackRock)CEO芬克周二称，美联储政策助长了\u201C泡沫般市场\u201D的形成，QE急需缩减。 芬克称：\u201C美联储急需开始缩减资产购买项目规模，我们看到股市大幅上涨，公司债息差显著收窄。\u201D 当芬克警告\u201C我们再次....",
"emailed" : False,
"forwarded" : False,
"english" : False
}  , {
"index" : 6,
"articleIndex" : "33951",
"favor" :  False ,
     "read" : False,    
"title" : "英特尔将代工首款64位四核ARM处理器",
"titleTip" : "英特尔将代工首款64位四核ARM处理器",
"titleSummary" : "英特尔将代工首款64位四核ARM处理器",
"descSummary" : "新浪科技讯 北京时间10月30日下午消息，美国芯片制造商Altera...",
"url" : "http:\/\/go.rss.sina.com.cn\/redirect.php?url=http:\/\/tech.sina.com.cn\/it\/2013-10-30\/16008868205.shtml",
"pubDate" : "16:00:26",
"enterDate" : "384200:43:38",
"channelId" : "-2595574239822278602",
"channelName" : "美股快报-新浪财经",
"channelNameSummary" : "美股快报-新浪财经",
"channelUrl" : "http:\/\/finance.sina.com.cn\/stock\/usstock\/index.shtml",
"author" : "WWW.SINA.COM.CN",
"tags" : [],
"desc" : "新浪科技讯 北京时间10月30日下午消息，美国芯片制造商Altera周二宣布，该公司的Stratix 10 SoC(片上系统)将整合\u201C高性能四核64位ARM Cortex-A53处理器\u201D。而具有讽刺意味的是，这款产品将由英特尔代工。 据悉，英特尔将使用目前最先进的14纳米制造工艺生产这款芯片，....",
"emailed" : False,
"forwarded" : False,
"english" : False
}  , {
"index" : 7,
"articleIndex" : "33950",
"favor" :  False ,
     "read" : False,    
"title" : "小摩与美司法部所达临时和解或破裂",
"titleTip" : "小摩与美司法部所达临时和解或破裂",
"titleSummary" : "小摩与美司法部所达临时和解或破裂",
"descSummary" : "新浪财经讯 北京时间10月30日下午消息，知情人士向《华尔街日报...",
"url" : "http:\/\/go.rss.sina.com.cn\/redirect.php?url=http:\/\/finance.sina.com.cn\/stock\/usstock\/c\/20131030\/154517166791.shtml",
"pubDate" : "15:45:31",
"enterDate" : "384200:58:48",
"channelId" : "-2595574239822278602",
"channelName" : "美股快报-新浪财经",
"channelNameSummary" : "美股快报-新浪财经",
"channelUrl" : "http:\/\/finance.sina.com.cn\/stock\/usstock\/index.shtml",
"author" : "WWW.SINA.COM.CN",
"tags" : [],
"desc" : "新浪财经讯 北京时间10月30日下午消息，知情人士向《华尔街日报》表示，摩根大通与美国司法部130亿美元的临时和解协议可能破裂，因双方对Washington Mutual基金的债务承担意见不一。 知情人士称，谈判症结在于摩根大通或联邦存款保险公司是否应该为Washington Mutual的....",
"emailed" : False,
"forwarded" : False,
"english" : False
}  , {
"index" : 8,
"articleIndex" : "33949",
"favor" :  False ,
     "read" : False,    
"title" : "美联储资产规模至少要到2019年才恢复正常",
"titleTip" : "美联储资产规模至少要到2019年才恢复正常",
"titleSummary" : "美联储资产规模至少要到2019年才恢复正常",
"descSummary" : "新浪财经讯 北京时间10月30日下午消息，据《华尔街日报》...",
"url" : "http:\/\/go.rss.sina.com.cn\/redirect.php?url=http:\/\/finance.sina.com.cn\/stock\/usstock\/c\/20131030\/153817166666.shtml",
"pubDate" : "15:38:07",
"enterDate" : "384200:51:24",
"channelId" : "-2595574239822278602",
"channelName" : "美股快报-新浪财经",
"channelNameSummary" : "美股快报-新浪财经",
"channelUrl" : "http:\/\/finance.sina.com.cn\/stock\/usstock\/index.shtml",
"author" : "WWW.SINA.COM.CN",
"tags" : [],
"desc" : "新浪财经讯 北京时间10月30日下午消息，据《华尔街日报》，美联储研究人员的新预测显示，美联储资产规模要到2019年年中至2021年年中的某个时间才会恢复正常水平。美联储的总资产规模正迅速逼近4万亿美元大关。 美联储经济学家设想的最基本的情况中，美联储不会出售其日....",
"emailed" : False,
"forwarded" : False,
"english" : False
}  , {
"index" : 9,
"articleIndex" : "33948",
"favor" :  False ,
     "read" : False,    
"title" : "巴克莱三季度利润下跌26% FICC营收下滑44%",
"titleTip" : "巴克莱三季度利润下跌26% FICC营收下滑44%",
"titleSummary" : "巴克莱三季度利润下跌26% FICC营收下滑44%",
"descSummary" : "新浪财经讯，北京时间10月30日下午消息 巴克莱银行周三...",
"url" : "http:\/\/go.rss.sina.com.cn\/redirect.php?url=http:\/\/finance.sina.com.cn\/world\/ozjj\/20131030\/153517166657.shtml",
"pubDate" : "15:35:49",
"enterDate" : "384200:49:06",
"channelId" : "-2595574239822278602",
"channelName" : "美股快报-新浪财经",
"channelNameSummary" : "美股快报-新浪财经",
"channelUrl" : "http:\/\/finance.sina.com.cn\/stock\/usstock\/index.shtml",
"author" : "WWW.SINA.COM.CN",
"tags" : [],
"desc" : "新浪财经讯，北京时间10月30日下午消息 巴克莱银行周三财报显示，不计自身债务价值变动影响，三季度税前利润下跌26%，从去年同期18.7亿英镑下滑至13.9亿英镑(22亿美元)。符合分析师预期。 与美国同行一样，巴克莱三季度FICC(固定收益、外汇和大宗商品)业务营收也大幅下....",
"emailed" : False,
"forwarded" : False,
"english" : False
}  , {
"index" : 10,
"articleIndex" : "33947",
"favor" :  False ,
     "read" : False,    
"title" : "比尔盖茨1995年对\u201C银行恐龙\u201D论的澄清",
"titleTip" : "比尔盖茨1995年对\u201C银行恐龙\u201D论的澄清",
"titleSummary" : "比尔盖茨1995年对\u201C银行恐龙\u201D论的澄清",
"descSummary" : "新浪财经讯 北京时间10月30日下午消息 盖茨在1994年接受《新...",
"url" : "http:\/\/go.rss.sina.com.cn\/redirect.php?url=http:\/\/finance.sina.com.cn\/world\/20131030\/151617166376.shtml",
"pubDate" : "15:16:56",
"enterDate" : "384201:00:18",
"channelId" : "-2595574239822278602",
"channelName" : "美股快报-新浪财经",
"channelNameSummary" : "美股快报-新浪财经",
"channelUrl" : "http:\/\/finance.sina.com.cn\/stock\/usstock\/index.shtml",
"author" : "WWW.SINA.COM.CN",
"tags" : [],
"desc" : "新浪财经讯 北京时间10月30日下午消息 盖茨在1994年接受《新闻周刊》采访时将银行比作恐龙，认为银行客户将在未来流失到其它高科技金融服务提供商。这篇报道被广泛传播，一些银行家将此视为人身攻击。 盖茨1995年在一次银行管理协会举办的研讨会上为他的讲话重新做了解....",
"emailed" : False,
"forwarded" : False,
"english" : False
}  , {
"index" : 11,
"articleIndex" : "33946",
"favor" :  False ,
     "read" : False,    
"title" : "谷歌曝神秘\u201C漂浮建筑\u201D项目 或为眼镜销售中心",
"titleTip" : "谷歌曝神秘\u201C漂浮建筑\u201D项目 或为眼镜销售中心",
"titleSummary" : "谷歌曝神秘\u201C漂浮建筑\u201D项目 或为眼镜销售中心",
"descSummary" : "波特兰的谷歌\u201C漂浮建筑\u201D项目 晚报记者 章磊 综合报道...",
"url" : "http:\/\/go.rss.sina.com.cn\/redirect.php?url=http:\/\/tech.sina.com.cn\/i\/2013-10-30\/14488867983.shtml",
"pubDate" : "14:48:15",
"enterDate" : "384201:01:41",
"channelId" : "-2595574239822278602",
"channelName" : "美股快报-新浪财经",
"channelNameSummary" : "美股快报-新浪财经",
"channelUrl" : "http:\/\/finance.sina.com.cn\/stock\/usstock\/index.shtml",
"author" : "WWW.SINA.COM.CN",
"tags" : [],
"desc" : "波特兰的谷歌\u201C漂浮建筑\u201D项目 □晚报记者 章磊 综合报道 自谷歌公司被曝出在旧金山金银岛建造神秘大型游船的消息后，美国媒体近日再度报道称，缅因州波特兰出现一个类似\u201C漂浮建筑\u201D，据称也与谷歌公司有关。消息一出，立刻引发更多猜想。 谷歌公司尚未就此....",
"emailed" : False,
"forwarded" : False,
"english" : False
}  , {
"index" : 12,
"articleIndex" : "33945",
"favor" :  False ,
     "read" : False,    
"title" : "传中国建行拟收购巴西Bicbanco银行",
"titleTip" : "传中国建行拟收购巴西Bicbanco银行",
"titleSummary" : "传中国建行拟收购巴西Bicbanco银行",
"descSummary" : "新浪财经讯 北京时间10月30日下午消息 据彭博社援引熟悉情况人士...",
"url" : "http:\/\/go.rss.sina.com.cn\/redirect.php?url=http:\/\/finance.sina.com.cn\/world\/20131030\/143217165807.shtml",
"pubDate" : "14:32:52",
"enterDate" : "384200:46:18",
"channelId" : "-2595574239822278602",
"channelName" : "美股快报-新浪财经",
"channelNameSummary" : "美股快报-新浪财经",
"channelUrl" : "http:\/\/finance.sina.com.cn\/stock\/usstock\/index.shtml",
"author" : "WWW.SINA.COM.CN",
"tags" : [],
"desc" : "新浪财经讯 北京时间10月30日下午消息 据彭博社援引熟悉情况人士报道，中国建设银行已接近达成购巴西Bicbanco银行达成协议。建行是中国资产值第二大银行。 消息人士透露，Bicbanco银行的最终售价或将高于其当前市值16.7亿雷亚尔(约合7.64亿美元)。根据双方协议，建行将....",
"emailed" : False,
"forwarded" : False,
"english" : False
}  , {
"index" : 13,
"articleIndex" : "33944",
"favor" :  False ,
     "read" : False,    
"title" : "亚太股市普涨 日经涨1.2%",
"titleTip" : "亚太股市普涨 日经涨1.2%",
"titleSummary" : "亚太股市普涨 日经涨1.2%",
"descSummary" : "新浪财经讯 北京时间10月30日下午消息 亚洲股市周三普遍上扬，日本股市领涨...",
"url" : "http:\/\/go.rss.sina.com.cn\/redirect.php?url=http:\/\/finance.sina.com.cn\/world\/20131030\/140817165520.shtml",
"pubDate" : "14:08:57",
"enterDate" : "384200:52:29",
"channelId" : "-2595574239822278602",
"channelName" : "美股快报-新浪财经",
"channelNameSummary" : "美股快报-新浪财经",
"channelUrl" : "http:\/\/finance.sina.com.cn\/stock\/usstock\/index.shtml",
"author" : "WWW.SINA.COM.CN",
"tags" : [],
"desc" : "新浪财经讯 北京时间10月30日下午消息 亚洲股市周三普遍上扬，日本股市领涨。美联储为期两天的货币政策会议将于周三结束，投资者普遍认为美联储在此次会议上不会做出退出当前的每月购买850亿美元债券的计划的决定。 美国股市昨晚继续上涨，标准普尔500再创历史新高。日....",
"emailed" : False,
"forwarded" : False,
"english" : False
}  , {
"index" : 14,
"articleIndex" : "33943",
"favor" :  False ,
     "read" : False,    
"title" : "传腾讯领投Snapchat：估值或达40亿美元",
"titleTip" : "传腾讯领投Snapchat：估值或达40亿美元",
"titleSummary" : "传腾讯领投Snapchat：估值或达40亿美元",
"descSummary" : "新浪科技讯 北京时间10月30日下午消息，据科技博客AllThings...",
"url" : "http:\/\/go.rss.sina.com.cn\/redirect.php?url=http:\/\/tech.sina.com.cn\/i\/2013-10-30\/14028867876.shtml",
"pubDate" : "14:02:43",
"enterDate" : "384200:46:15",
"channelId" : "-2595574239822278602",
"channelName" : "美股快报-新浪财经",
"channelNameSummary" : "美股快报-新浪财经",
"channelUrl" : "http:\/\/finance.sina.com.cn\/stock\/usstock\/index.shtml",
"author" : "WWW.SINA.COM.CN",
"tags" : [],
"desc" : "新浪科技讯 北京时间10月30日下午消息，据科技博客AllThingsD报道，知情人士透露，美国\u201C阅后即焚\u201D照片和视频分享应用Snapchat将于本周晚些时候宣布新一轮融资。该公司有可能以36亿至40亿美元的估值，获得腾讯领投的最高2亿美元融资。 就在几个月前，Snapchat刚刚以8....",
"emailed" : False,
"forwarded" : False,
"english" : False
}  , {
"index" : 15,
"articleIndex" : "33942",
"favor" :  False ,
     "read" : False,    
"title" : "来往公众账号平台上线",
"titleTip" : "来往公众账号平台上线",
"titleSummary" : "来往公众账号平台上线",
"descSummary" : "来往公众账号平台全免费上线 新浪科技讯 10月30日下午消息，阿里巴巴今日宣布...",
"url" : "http:\/\/go.rss.sina.com.cn\/redirect.php?url=http:\/\/tech.sina.com.cn\/i\/2013-10-30\/13598867868.shtml",
"pubDate" : "13:59:50",
"enterDate" : "384200:43:22",
"channelId" : "-2595574239822278602",
"channelName" : "美股快报-新浪财经",
"channelNameSummary" : "美股快报-新浪财经",
"channelUrl" : "http:\/\/finance.sina.com.cn\/stock\/usstock\/index.shtml",
"author" : "WWW.SINA.COM.CN",
"tags" : [],
"desc" : "来往公众账号平台全免费上线 新浪科技讯 10月30日下午消息，阿里巴巴今日宣布旗下移动社交平台来往发布安卓4.1.1版本，新版本推出了全免费的公众账号平台。首批上线的公众账号包括新浪娱乐、冷笑话精选、吃货食堂、穷游等。 来往方面表示，除了常规的信息推送，将....",
"emailed" : False,
"forwarded" : False,
"english" : False
}  , {
"index" : 16,
"articleIndex" : "33941",
"favor" :  False ,
     "read" : False,    
"title" : "熊晓鸽：中国有可能在安卓领域出现伟大公司",
"titleTip" : "熊晓鸽：中国有可能在安卓领域出现伟大公司",
"titleSummary" : "熊晓鸽：中国有可能在安卓领域出现伟大公司",
"descSummary" : "IDG全球常务副总裁熊晓鸽 新浪科技讯 10月30日上午消息...",
"url" : "http:\/\/go.rss.sina.com.cn\/redirect.php?url=http:\/\/tech.sina.com.cn\/i\/2013-10-30\/12208867777.shtml",
"pubDate" : "12:20:43",
"enterDate" : "384201:04:35",
"channelId" : "-2595574239822278602",
"channelName" : "美股快报-新浪财经",
"channelNameSummary" : "美股快报-新浪财经",
"channelUrl" : "http:\/\/finance.sina.com.cn\/stock\/usstock\/index.shtml",
"author" : "WWW.SINA.COM.CN",
"tags" : [],
"desc" : "IDG全球常务副总裁熊晓鸽 新浪科技讯 10月30日上午消息，2013年安卓全球开发者大会今日在深圳召开，IDG全球常务副总裁熊晓鸽在演讲中表示，移动互联网将是从业人员和中国经济发展的大机会，未来在安卓领域有可能出现伟大的中国公司。 熊晓鸽表示，在技术行业中间，....",
"emailed" : False,
"forwarded" : False,
"english" : False
}  , {
"index" : 17,
"articleIndex" : "33940",
"favor" :  False ,
     "read" : False,    
"title" : "小米天猫店参战双十一促销",
"titleTip" : "小米天猫店参战双十一促销",
"titleSummary" : "小米天猫店参战双十一促销",
"descSummary" : "新浪科技讯 10月30日上午消息，据官方消息确认，今年小米手机全线产品将...",
"url" : "http:\/\/go.rss.sina.com.cn\/redirect.php?url=http:\/\/tech.sina.com.cn\/i\/2013-10-30\/11528867732.shtml",
"pubDate" : "11:52:18",
"enterDate" : "384200:36:10",
"channelId" : "-2595574239822278602",
"channelName" : "美股快报-新浪财经",
"channelNameSummary" : "美股快报-新浪财经",
"channelUrl" : "http:\/\/finance.sina.com.cn\/stock\/usstock\/index.shtml",
"author" : "WWW.SINA.COM.CN",
"tags" : [],
"desc" : "新浪科技讯 10月30日上午消息，据官方消息确认，今年小米手机全线产品将参与\u201C双十一\u201D电商促销。从11月11日零点起，在小米手机天猫旗舰店上，将有11万台小米手机3、11万台红米、11万台小米手机2S、5万台小米盒子开放购买。 据悉在双十一当天，小米手机天猫旗舰店全场....",
"emailed" : False,
"forwarded" : False,
"english" : False
}  , {
"index" : 18,
"articleIndex" : "33938",
"favor" :  False ,
     "read" : False,    
"title" : "阿里推上网流量免单计划：首批四个省 每月2G",
"titleTip" : "阿里推上网流量免单计划：首批四个省 每月2G",
"titleSummary" : "阿里推上网流量免单计划：首批四个省 每月2G",
"descSummary" : "新浪科技讯 10月30日上午消息，阿里巴巴今天宣布将对外...",
"url" : "http:\/\/go.rss.sina.com.cn\/redirect.php?url=http:\/\/tech.sina.com.cn\/i\/2013-10-30\/11408867703.shtml",
"pubDate" : "11:40:01",
"enterDate" : "384200:23:53",
"channelId" : "-2595574239822278602",
"channelName" : "美股快报-新浪财经",
"channelNameSummary" : "美股快报-新浪财经",
"channelUrl" : "http:\/\/finance.sina.com.cn\/stock\/usstock\/index.shtml",
"author" : "WWW.SINA.COM.CN",
"tags" : [],
"desc" : "新浪科技讯 10月30日上午消息，阿里巴巴今天宣布将对外推出一项手机上网流量免单计划，从11月起，经常在手机上使用阿里巴巴旗下手机淘宝、来往、聚划算、天猫、支付宝等客户端的用户将可以申领阿里巴巴赠送的每月2G的定向免费流量包。 阿里巴巴官方透露，该流量免费计....",
"emailed" : False,
"forwarded" : False,
"english" : False
}  , {
"index" : 19,
"articleIndex" : "33939",
"favor" :  False ,
     "read" : False,    
"title" : "谷歌发布第二代Google Glass官方照片(图)",
"titleTip" : "谷歌发布第二代Google Glass官方照片(图)",
"titleSummary" : "谷歌发布第二代Google Glass官方照片(图)",
"descSummary" : "第二代Google Glass官方照片 第二代Google Glass官方照片 新...",
"url" : "http:\/\/go.rss.sina.com.cn\/redirect.php?url=http:\/\/tech.sina.com.cn\/i\/2013-10-30\/11268867694.shtml",
"pubDate" : "11:26:48",
"enterDate" : "384200:10:40",
"channelId" : "-2595574239822278602",
"channelName" : "美股快报-新浪财经",
"channelNameSummary" : "美股快报-新浪财经",
"channelUrl" : "http:\/\/finance.sina.com.cn\/stock\/usstock\/index.shtml",
"author" : "WWW.SINA.COM.CN",
"tags" : [],
"desc" : "第二代Google Glass官方照片 第二代Google Glass官方照片 新浪科技讯 北京时间10月30日上午消息，谷歌在宣布将于今年晚些时候对智能眼镜Google Glass进行升级后，今天又在Google+上发布了第二代谷歌眼镜的照片。 第一代谷歌眼镜使用了骨传导技术为用户播放声音，....",
"emailed" : False,
"forwarded" : False,
"english" : False
} ]
}
