{
"mode" : {"viewTitle" : 1,   "viewNew" : 0,  "pageIndex" : 2 },
 "channel" : {"id" : "-2595574239822278602", "booked" : False, "subNumber" : 1, "name" : "美股快报-新浪财经", "url" : "http:\/\/finance.sina.com.cn\/stock\/usstock\/index.shtml", "feed" : "http:\/\/rss.sina.com.cn\/finance\/usstock.xml", "author" : "WWW.SINA.COM.CN", "desc" : "美股快报-基金要闻", "imageUrl" : "http:\/\/i1.sinaimg.cn\/cj\/pic\/newLogo\/logo_home_fin.gif", "postPerWeek" : "0", "lastCrawTime" : "17:06:10", "crawDateTime" : "17:06:10", "lastHttpCode" : "200"}, "page" : {
"startIndex" : 20,
"totalCount" : 5000,
"pageIndex" : 2,
"lastPage" : 250,
"pageSize" : 20,
"english" :  False },
 "unreadNum" : 0, "shotIndex" : -1,
"articles" : [
{
"index" : 0,
"articleIndex" : "33937",
"favor" :  False ,
     "read" : False,    
"title" : "赛迪传媒发布第三季度财报：亏损同比收窄",
"titleTip" : "赛迪传媒发布第三季度财报：亏损同比收窄",
"titleSummary" : "赛迪传媒发布第三季度财报：亏损同比收窄",
"descSummary" : "新浪科技讯 10月30日上午消息，赛迪传媒(A股简称：*ST传...",
"url" : "http:\/\/go.rss.sina.com.cn\/redirect.php?url=http:\/\/tech.sina.com.cn\/i\/2013-10-30\/11248867693.shtml",
"pubDate" : "11:24:16",
"enterDate" : "384201:08:17",
"channelId" : "-2595574239822278602",
"channelName" : "美股快报-新浪财经",
"channelNameSummary" : "美股快报-新浪财经",
"channelUrl" : "http:\/\/finance.sina.com.cn\/stock\/usstock\/index.shtml",
"author" : "WWW.SINA.COM.CN",
"tags" : [],
"desc" : "新浪科技讯 10月30日上午消息，赛迪传媒(A股简称：*ST传媒)近日发布了未经审计的第三季度财报，财报显示本季度赛迪传媒总营收709万元，较去年同期下降61.17%；净亏损226万元，较去年同期的亏损297万有所收窄。 2013年前三季度，赛迪传媒实现总收入1721万，较去年同期减....",
"emailed" : False,
"forwarded" : False,
"english" : False
}  , {
"index" : 1,
"articleIndex" : "33936",
"favor" :  False ,
     "read" : False,    
"title" : "胡润研究院第二次发布\u201C印度富豪榜\u201D",
"titleTip" : "胡润研究院第二次发布\u201C印度富豪榜\u201D",
"titleSummary" : "胡润研究院第二次发布\u201C印度富豪榜\u201D",
"descSummary" : "能源大王安巴尼财富1,150亿人民币蝉联\u201C印度首富\u201D 制药大王迪...",
"url" : "http:\/\/go.rss.sina.com.cn\/redirect.php?url=http:\/\/finance.sina.com.cn\/world\/20131030\/111917163500.shtml",
"pubDate" : "11:19:21",
"enterDate" : "384201:03:22",
"channelId" : "-2595574239822278602",
"channelName" : "美股快报-新浪财经",
"channelNameSummary" : "美股快报-新浪财经",
"channelUrl" : "http:\/\/finance.sina.com.cn\/stock\/usstock\/index.shtml",
"author" : "WWW.SINA.COM.CN",
"tags" : [],
"desc" : "能源大王安巴尼财富1,150亿人民币蝉联\u201C印度首富\u201D 制药大王迪利普\u2022桑哈维首次进入前3名 胡润研究院第二次发布\u201C印度富豪榜\u201D 141位印度富豪财富达到3亿美金及以上，上榜门槛与去年保持一致，上榜人数比去年增加41位。财富达到百亿人民币....",
"emailed" : False,
"forwarded" : False,
"english" : False
}  , {
"index" : 2,
"articleIndex" : "33935",
"favor" :  False ,
     "read" : False,    
"title" : "企业大佬微博分享：指点创业 感叹人生",
"titleTip" : "企业大佬微博分享：指点创业 感叹人生",
"titleSummary" : "企业大佬微博分享：指点创业 感叹人生",
"descSummary" : "【中国企业家网】中国99%的企业是传统企业，如何拥抱互联网，...",
"url" : "http:\/\/go.rss.sina.com.cn\/redirect.php?url=http:\/\/tech.sina.com.cn\/i\/2013-10-30\/11188867667.shtml",
"pubDate" : "11:18:18",
"enterDate" : "384201:02:19",
"channelId" : "-2595574239822278602",
"channelName" : "美股快报-新浪财经",
"channelNameSummary" : "美股快报-新浪财经",
"channelUrl" : "http:\/\/finance.sina.com.cn\/stock\/usstock\/index.shtml",
"author" : "WWW.SINA.COM.CN",
"tags" : [],
"desc" : "【中国企业家网】中国99%的企业是传统企业，如何拥抱互联网，进行大融合？从未念过商学院，从未被灌输做事的\u201C正确\u201D方法，创业的秘诀是什么？为未来做决定很不容易，至少30%的人会反对你，怎么办？机会就像小偷，来无踪去无影，怎么抓住？一个没有敢批评老板的企业该不该呆呢....",
"emailed" : False,
"forwarded" : False,
"english" : False
}  , {
"index" : 3,
"articleIndex" : "33933",
"favor" :  False ,
     "read" : False,    
"title" : "新浪联席总裁许良杰：大数据将重塑新浪微博",
"titleTip" : "新浪联席总裁许良杰：大数据将重塑新浪微博",
"titleSummary" : "新浪联席总裁许良杰：大数据将重塑新浪微博",
"descSummary" : "新浪科技讯 10月30日上午消息，新浪联席总裁兼首席技术...",
"url" : "http:\/\/go.rss.sina.com.cn\/redirect.php?url=http:\/\/tech.sina.com.cn\/i\/2013-10-30\/10578867616.shtml",
"pubDate" : "10:57:10",
"enterDate" : "384201:11:16",
"channelId" : "-2595574239822278602",
"channelName" : "美股快报-新浪财经",
"channelNameSummary" : "美股快报-新浪财经",
"channelUrl" : "http:\/\/finance.sina.com.cn\/stock\/usstock\/index.shtml",
"author" : "WWW.SINA.COM.CN",
"tags" : [],
"desc" : "新浪科技讯 10月30日上午消息，新浪联席总裁兼首席技术官许良杰今日在2013安卓开发者大会上发表演讲，阐述大数据时代对社交媒体的影响，并分享新浪微博如何挖掘大数据资源，为用户带来新价值。 在演讲现场，许良杰首先分享了一张由新浪微博用户签到数据构成的世界地图....",
"emailed" : False,
"forwarded" : False,
"english" : False
}  , {
"index" : 4,
"articleIndex" : "33932",
"favor" :  False ,
     "read" : False,    
"title" : "传LG将为苹果智能手表提供柔性OLED屏幕",
"titleTip" : "传LG将为苹果智能手表提供柔性OLED屏幕",
"titleSummary" : "传LG将为苹果智能手表提供柔性OLED屏幕",
"descSummary" : "新浪科技讯 北京时间10月30日下午消息，据《韩国先驱报》...",
"url" : "http:\/\/go.rss.sina.com.cn\/redirect.php?url=http:\/\/tech.sina.com.cn\/it\/2013-10-30\/10438867578.shtml",
"pubDate" : "10:43:12",
"enterDate" : "384200:57:18",
"channelId" : "-2595574239822278602",
"channelName" : "美股快报-新浪财经",
"channelNameSummary" : "美股快报-新浪财经",
"channelUrl" : "http:\/\/finance.sina.com.cn\/stock\/usstock\/index.shtml",
"author" : "WWW.SINA.COM.CN",
"tags" : [],
"desc" : "新浪科技讯 北京时间10月30日下午消息，据《韩国先驱报》(The Korea Herald)报道，知情人士透露，苹果公司即将与LG Display签订iWatch智能手表的屏幕供应协议。 知情人士称，LG Display即将与苹果公司签订协议，为该公司的iWatch智能手表供应柔性OLED显示屏。不过，LG....",
"emailed" : False,
"forwarded" : False,
"english" : False
}  , {
"index" : 5,
"articleIndex" : "33931",
"favor" :  False ,
     "read" : False,    
"title" : "柯达将于周五重回纽约证交所上市",
"titleTip" : "柯达将于周五重回纽约证交所上市",
"titleSummary" : "柯达将于周五重回纽约证交所上市",
"descSummary" : "新浪财经讯 北京时间10月30日上午消息 柯达周二表示将重返纽约证交...",
"url" : "http:\/\/go.rss.sina.com.cn\/redirect.php?url=http:\/\/finance.sina.com.cn\/world\/20131030\/103017162835.shtml",
"pubDate" : "10:30:26",
"enterDate" : "384200:44:32",
"channelId" : "-2595574239822278602",
"channelName" : "美股快报-新浪财经",
"channelNameSummary" : "美股快报-新浪财经",
"channelUrl" : "http:\/\/finance.sina.com.cn\/stock\/usstock\/index.shtml",
"author" : "WWW.SINA.COM.CN",
"tags" : [],
"desc" : "新浪财经讯 北京时间10月30日上午消息 柯达周二表示将重返纽约证交所上市，柯达在去年经历了破产，卖出了大量宝贵的专利并进行了大规模裁员。 该公司表示，将于周五重新回到纽约证交所上市，股票代码为KODK。柯达股票此前可在柜台市场交易，股票代码是EKOD。 首....",
"emailed" : False,
"forwarded" : False,
"english" : False
}  , {
"index" : 6,
"articleIndex" : "33930",
"favor" :  False ,
     "read" : False,    
"title" : "视频业下个收购对象：迅雷酷六均在列",
"titleTip" : "视频业下个收购对象：迅雷酷六均在列",
"titleSummary" : "视频业下个收购对象：迅雷酷六均在列",
"descSummary" : "",
"url" : "http:\/\/go.rss.sina.com.cn\/redirect.php?url=http:\/\/blog.sina.com.cn\/s\/blog_6ec2431a0101h0m8.html",
"pubDate" : "10:27:10",
"enterDate" : "384201:11:21",
"channelId" : "-2595574239822278602",
"channelName" : "美股快报-新浪财经",
"channelNameSummary" : "美股快报-新浪财经",
"channelUrl" : "http:\/\/finance.sina.com.cn\/stock\/usstock\/index.shtml",
"author" : "WWW.SINA.COM.CN",
"tags" : [],
"desc" : "",
"emailed" : False,
"forwarded" : False,
"english" : False
}  , {
"index" : 7,
"articleIndex" : "33929",
"favor" :  False ,
     "read" : False,    
"title" : "天灏资本上调携程评级至买入 目标价64美元",
"titleTip" : "天灏资本上调携程评级至买入 目标价64美元",
"titleSummary" : "天灏资本上调携程评级至买入 目标价64美元",
"descSummary" : "新浪科技讯 北京时间10月30日上午消息，天灏资本今天发布...",
"url" : "http:\/\/go.rss.sina.com.cn\/redirect.php?url=http:\/\/tech.sina.com.cn\/i\/2013-10-30\/10228867509.shtml",
"pubDate" : "10:22:32",
"enterDate" : "384201:06:43",
"channelId" : "-2595574239822278602",
"channelName" : "美股快报-新浪财经",
"channelNameSummary" : "美股快报-新浪财经",
"channelUrl" : "http:\/\/finance.sina.com.cn\/stock\/usstock\/index.shtml",
"author" : "WWW.SINA.COM.CN",
"tags" : [],
"desc" : "新浪科技讯 北京时间10月30日上午消息，天灏资本今天发布研究报告，将携程(Nasdaq:CTRP)股票评级从\u201C持有\u201D(Hold)上调至\u201C买入\u201D(Buy)，目标股价为64美元。 以下为报告概要： 我们认为，携程2013年2月以来的执行力一直很好，使得该公司成为了中国顶尖的移动旅行....",
"emailed" : False,
"forwarded" : False,
"english" : False
}  , {
"index" : 8,
"articleIndex" : "33928",
"favor" :  False ,
     "read" : False,    
"title" : "等待美联储会议结果 亚洲股市上涨",
"titleTip" : "等待美联储会议结果 亚洲股市上涨",
"titleSummary" : "等待美联储会议结果 亚洲股市上涨",
"descSummary" : "新浪财经讯 北京时间10月30日上午消息 日本与澳大利亚股市周三上涨...",
"url" : "http:\/\/go.rss.sina.com.cn\/redirect.php?url=http:\/\/finance.sina.com.cn\/world\/20131030\/101517162566.shtml",
"pubDate" : "10:15:51",
"enterDate" : "384201:00:02",
"channelId" : "-2595574239822278602",
"channelName" : "美股快报-新浪财经",
"channelNameSummary" : "美股快报-新浪财经",
"channelUrl" : "http:\/\/finance.sina.com.cn\/stock\/usstock\/index.shtml",
"author" : "WWW.SINA.COM.CN",
"tags" : [],
"desc" : "新浪财经讯 北京时间10月30日上午消息 日本与澳大利亚股市周三上涨，美联储为期两天的货币政策会议将于周三结束，投资者普遍认为美联储在此次会议上不会做出退出当前的每月购买850亿美元债券的计划的决定。 美国股市昨晚继续上涨，标准普尔500再创历史新高。日元汇率在....",
"emailed" : False,
"forwarded" : False,
"english" : False
}  , {
"index" : 9,
"articleIndex" : "33927",
"favor" :  False ,
     "read" : False,    
"title" : "百度理财又推\u201C百赚\u201D 10月31日上线",
"titleTip" : "百度理财又推\u201C百赚\u201D 10月31日上线",
"titleSummary" : "百度理财又推\u201C百赚\u201D 10月31日上线",
"descSummary" : "证券时报记者 邱h 10月28日，百度理财平台的首款产品\u201C百度理财...",
"url" : "http:\/\/go.rss.sina.com.cn\/redirect.php?url=http:\/\/tech.sina.com.cn\/i\/2013-10-30\/10088867395.shtml",
"pubDate" : "10:08:29",
"enterDate" : "384200:52:40",
"channelId" : "-2595574239822278602",
"channelName" : "美股快报-新浪财经",
"channelNameSummary" : "美股快报-新浪财经",
"channelUrl" : "http:\/\/finance.sina.com.cn\/stock\/usstock\/index.shtml",
"author" : "WWW.SINA.COM.CN",
"tags" : [],
"desc" : "证券时报记者 邱h 10月28日，百度理财平台的首款产品\u201C百度理财B\u201D上市遭哄抢，10亿元额度4小时售罄。不过，没有买到的投资者也不用气馁，百度理财的第二款理财产品\u2015\u2015\u201C百赚\u201D即将登场，而投资标的仍然是华夏现金增利E。 昨日，百度理财平台上又发布了一条广....",
"emailed" : False,
"forwarded" : False,
"english" : False
}  , {
"index" : 10,
"articleIndex" : "33926",
"favor" :  False ,
     "read" : False,    
"title" : "网秦浑水大战升级 中概股A股式炒作渐热",
"titleTip" : "网秦浑水大战升级 中概股A股式炒作渐热",
"titleSummary" : "网秦浑水大战升级 中概股A股式炒作渐热",
"descSummary" : "网秦浑水大战升级 中概股A股式炒作渐热 CFP\/供图 市场人士...",
"url" : "http:\/\/go.rss.sina.com.cn\/redirect.php?url=http:\/\/tech.sina.com.cn\/i\/2013-10-30\/10018867384.shtml",
"pubDate" : "10:01:33",
"enterDate" : "384200:45:44",
"channelId" : "-2595574239822278602",
"channelName" : "美股快报-新浪财经",
"channelNameSummary" : "美股快报-新浪财经",
"channelUrl" : "http:\/\/finance.sina.com.cn\/stock\/usstock\/index.shtml",
"author" : "WWW.SINA.COM.CN",
"tags" : [],
"desc" : "网秦浑水大战升级 中概股A股式炒作渐热 CFP\/供图 市场人士担心，浑水的行动预示着对中概股的新一轮做空行动开始。 除了国外做空机构发布报告影响中概股的股价，一些资金也在美国股市上利用信息不对称对中概股进行短期炒作。 证券时报记者 吴家明 在....",
"emailed" : False,
"forwarded" : False,
"english" : False
}  , {
"index" : 11,
"articleIndex" : "33925",
"favor" :  False ,
     "read" : False,    
"title" : "阑夕：客户端游戏的末日和涅",
"titleTip" : "阑夕：客户端游戏的末日和涅",
"titleSummary" : "阑夕：客户端游戏的末日和涅",
"descSummary" : "",
"url" : "http:\/\/go.rss.sina.com.cn\/redirect.php?url=http:\/\/blog.sina.com.cn\/s\/blog_5d098bcc0102e882.html",
"pubDate" : "10:00:32",
"enterDate" : "384200:44:43",
"channelId" : "-2595574239822278602",
"channelName" : "美股快报-新浪财经",
"channelNameSummary" : "美股快报-新浪财经",
"channelUrl" : "http:\/\/finance.sina.com.cn\/stock\/usstock\/index.shtml",
"author" : "WWW.SINA.COM.CN",
"tags" : [],
"desc" : "",
"emailed" : False,
"forwarded" : False,
"english" : False
}  , {
"index" : 12,
"articleIndex" : "33934",
"favor" :  False ,
     "read" : False,    
"title" : "嘀嘀打车程维：聊些打车APP的正事儿",
"titleTip" : "嘀嘀打车程维：聊些打车APP的正事儿",
"titleSummary" : "嘀嘀打车程维：聊些打车APP的正事儿",
"descSummary" : "小桔科技(嘀嘀打车)创始人、CEO 程维 打车软件这一年经历了过...",
"url" : "http:\/\/go.rss.sina.com.cn\/redirect.php?url=http:\/\/tech.sina.com.cn\/zl\/post\/detail\/i\/2013-10-30\/pid_8436463.htm",
"pubDate" : "09:44:44",
"enterDate" : "384199:28:45",
"channelId" : "-2595574239822278602",
"channelName" : "美股快报-新浪财经",
"channelNameSummary" : "美股快报-新浪财经",
"channelUrl" : "http:\/\/finance.sina.com.cn\/stock\/usstock\/index.shtml",
"author" : "WWW.SINA.COM.CN",
"tags" : [],
"desc" : "小桔科技(嘀嘀打车)创始人、CEO 程维 打车软件这一年经历了过山车似的发展，凑热闹的居多，追捧的有，唱衰的也有。前些天，我参加了2013中国(深圳)公交都市发展论坛，并受邀做了演讲，\u201C2013年是智能电召元年\u201D的观点在会上得到了认同。这一年，政策风险、恶意竞争、固有观念、....",
"emailed" : False,
"forwarded" : False,
"english" : False
}  , {
"index" : 13,
"articleIndex" : "33924",
"favor" :  False ,
     "read" : False,    
"title" : "网秦子公司\u201C农民\u201DCEO将起诉浑水",
"titleTip" : "网秦子公司\u201C农民\u201DCEO将起诉浑水",
"titleSummary" : "网秦子公司\u201C农民\u201DCEO将起诉浑水",
"descSummary" : "导读：知名中概股网秦上周遭浑水机构做空，网秦创始人兼CEO林...",
"url" : "http:\/\/go.rss.sina.com.cn\/redirect.php?url=http:\/\/tech.sina.com.cn\/i\/2013-10-30\/09388867313.shtml",
"pubDate" : "09:38:26",
"enterDate" : "384200:22:37",
"channelId" : "-2595574239822278602",
"channelName" : "美股快报-新浪财经",
"channelNameSummary" : "美股快报-新浪财经",
"channelUrl" : "http:\/\/finance.sina.com.cn\/stock\/usstock\/index.shtml",
"author" : "WWW.SINA.COM.CN",
"tags" : [],
"desc" : "导读：知名中概股网秦上周遭浑水机构做空，网秦创始人兼CEO林宇昨天表示，已在北京起诉了浑水及其报告作者。同时，被浑水指为\u201C农民\u201DCEO的网秦子公司CEO钟亮也将以个人名义起诉浑水。昨天，林宇针对网友关注的一些问题给予了回应，但在\u201C幽灵公司\u201D易达通等关键问题上并未给....",
"emailed" : False,
"forwarded" : False,
"english" : False
}  , {
"index" : 14,
"articleIndex" : "33923",
"favor" :  False ,
     "read" : False,    
"title" : "百度高管解读财报：金融服务将成为重要业务",
"titleTip" : "百度高管解读财报：金融服务将成为重要业务",
"titleSummary" : "百度高管解读财报：金融服务将成为重要业务",
"descSummary" : "新浪科技讯 北京时间10月30日早间消息，百度(Nasdaq:B...",
"url" : "http:\/\/go.rss.sina.com.cn\/redirect.php?url=http:\/\/tech.sina.com.cn\/i\/2013-10-30\/09268867275.shtml",
"pubDate" : "09:26:46",
"enterDate" : "384200:10:57",
"channelId" : "-2595574239822278602",
"channelName" : "美股快报-新浪财经",
"channelNameSummary" : "美股快报-新浪财经",
"channelUrl" : "http:\/\/finance.sina.com.cn\/stock\/usstock\/index.shtml",
"author" : "WWW.SINA.COM.CN",
"tags" : [],
"desc" : "新浪科技讯 北京时间10月30日早间消息，百度(Nasdaq:BIDU)今天发布了截至9月30日的2013财年第三季度未经审计财报。报告显示，百度第三季度总营收为人民币88.92亿元(约合14.53亿美元)，比去年同期增长42.3%；第三季度净利润为人民币30.48亿元(约合4.980亿美元)，比去年同期增长....",
"emailed" : False,
"forwarded" : False,
"english" : False
}  , {
"index" : 15,
"articleIndex" : "33922",
"favor" :  False ,
     "read" : False,    
"title" : "Twitter低调启动上市路演：11月6日确定发行价",
"titleTip" : "Twitter低调启动上市路演：11月6日确定发行价",
"titleSummary" : "Twitter低调启动上市路演：11月6日确定发行价",
"descSummary" : "新浪科技讯 北京时间10月30日早间消息，Twitter本周在美...",
"url" : "http:\/\/go.rss.sina.com.cn\/redirect.php?url=http:\/\/tech.sina.com.cn\/i\/2013-10-30\/09048867223.shtml",
"pubDate" : "09:04:18",
"enterDate" : "384199:48:29",
"channelId" : "-2595574239822278602",
"channelName" : "美股快报-新浪财经",
"channelNameSummary" : "美股快报-新浪财经",
"channelUrl" : "http:\/\/finance.sina.com.cn\/stock\/usstock\/index.shtml",
"author" : "WWW.SINA.COM.CN",
"tags" : [],
"desc" : "新浪科技讯 北京时间10月30日早间消息，Twitter本周在美国费城丽思卡尔顿酒店一间能容纳25人的会议室启动了IPO(首次公开招股)路演。相对于Facebook此前在酒店大厅和户外的IPO路演，Twitter非常低调。 此次IPO路演为邀请参加，Twitter CEO迪克・科斯特洛(Dick Costolo)....",
"emailed" : False,
"forwarded" : False,
"english" : False
}  , {
"index" : 16,
"articleIndex" : "33921",
"favor" :  False ,
     "read" : False,    
"title" : "摩托罗拉开发DIY智能手机：可自由组装",
"titleTip" : "摩托罗拉开发DIY智能手机：可自由组装",
"titleSummary" : "摩托罗拉开发DIY智能手机：可自由组装",
"descSummary" : "新浪科技讯 北京时间10月30日上午消息，谷歌旗下摩托罗拉移动...",
"url" : "http:\/\/go.rss.sina.com.cn\/redirect.php?url=http:\/\/tech.sina.com.cn\/t\/2013-10-30\/08598867203.shtml",
"pubDate" : "08:59:48",
"enterDate" : "384199:43:59",
"channelId" : "-2595574239822278602",
"channelName" : "美股快报-新浪财经",
"channelNameSummary" : "美股快报-新浪财经",
"channelUrl" : "http:\/\/finance.sina.com.cn\/stock\/usstock\/index.shtml",
"author" : "WWW.SINA.COM.CN",
"tags" : [],
"desc" : "新浪科技讯 北京时间10月30日上午消息，谷歌旗下摩托罗拉移动本周表示，该公司已经启动了\u201CAra项目\u201D，希望创造一套免费、开放的标准化平台，让用户可以自由选择自己想要的手机配件，然后组装起来。 这个项目的目标是制作一套手机框架，可以根据用户的偏好向其中添加不....",
"emailed" : False,
"forwarded" : False,
"english" : False
}  , {
"index" : 17,
"articleIndex" : "33920",
"favor" :  False ,
     "read" : False,    
"title" : "日本股市劲升 软银上涨2.6%",
"titleTip" : "日本股市劲升 软银上涨2.6%",
"titleSummary" : "日本股市劲升 软银上涨2.6%",
"descSummary" : "新浪财经讯 北京时间10月30日上午消息 受日元疲软以及美国股市昨晚上涨推...",
"url" : "http:\/\/go.rss.sina.com.cn\/redirect.php?url=http:\/\/finance.sina.com.cn\/world\/20131030\/085217161218.shtml",
"pubDate" : "08:52:59",
"enterDate" : "384199:37:10",
"channelId" : "-2595574239822278602",
"channelName" : "美股快报-新浪财经",
"channelNameSummary" : "美股快报-新浪财经",
"channelUrl" : "http:\/\/finance.sina.com.cn\/stock\/usstock\/index.shtml",
"author" : "WWW.SINA.COM.CN",
"tags" : [],
"desc" : "新浪财经讯 北京时间10月30日上午消息 受日元疲软以及美国股市昨晚上涨推动，日本股市周三走强，日经指数上涨0.9%，报14495点。东证指数上涨0.8%。 三菱汽车上涨2.9%，本田汽车上涨0.8%。汽车制造商即将公布财报。 移动运营商软银上涨2.6%，《日本经济新闻》预....",
"emailed" : False,
"forwarded" : False,
"english" : False
}  , {
"index" : 18,
"articleIndex" : "33919",
"favor" :  False ,
     "read" : False,    
"title" : "美律所Block &amp; Leviton向网秦发起集团诉讼",
"titleTip" : "美律所Block &amp; Leviton向网秦发起集团诉讼",
"titleSummary" : "美律所Block &amp; Leviton向网秦发起集团诉讼",
"descSummary" : "新浪科技讯 北京时间10月30日早间消息，美国律师事务...",
"url" : "http:\/\/go.rss.sina.com.cn\/redirect.php?url=http:\/\/tech.sina.com.cn\/i\/2013-10-30\/08328867135.shtml",
"pubDate" : "08:32:16",
"enterDate" : "384199:16:27",
"channelId" : "-2595574239822278602",
"channelName" : "美股快报-新浪财经",
"channelNameSummary" : "美股快报-新浪财经",
"channelUrl" : "http:\/\/finance.sina.com.cn\/stock\/usstock\/index.shtml",
"author" : "WWW.SINA.COM.CN",
"tags" : [],
"desc" : "新浪科技讯 北京时间10月30日早间消息，美国律师事务所Block &amp; Leviton已经代表全美投资者向网秦(Nasdaq:NQ)及其部分高管和承销商发起集团诉讼，该案将等待美国纽约州南部地区法院的受理。 该案指控被告违反美国《1933年证券法案》第11、12(a)(2)和15条的规定，以....",
"emailed" : False,
"forwarded" : False,
"english" : False
}  , {
"index" : 19,
"articleIndex" : "33918",
"favor" :  False ,
     "read" : False,    
"title" : "Google+月活跃用户数达3亿：仅次于Facebook",
"titleTip" : "Google+月活跃用户数达3亿：仅次于Facebook",
"titleSummary" : "Google+月活跃用户数达3亿：仅次于Facebook",
"descSummary" : "新浪科技讯 北京时间10月30日早间消息，谷歌周二宣布，...",
"url" : "http:\/\/go.rss.sina.com.cn\/redirect.php?url=http:\/\/tech.sina.com.cn\/i\/2013-10-30\/08218867111.shtml",
"pubDate" : "08:21:06",
"enterDate" : "384199:05:17",
"channelId" : "-2595574239822278602",
"channelName" : "美股快报-新浪财经",
"channelNameSummary" : "美股快报-新浪财经",
"channelUrl" : "http:\/\/finance.sina.com.cn\/stock\/usstock\/index.shtml",
"author" : "WWW.SINA.COM.CN",
"tags" : [],
"desc" : "新浪科技讯 北京时间10月30日早间消息，谷歌周二宣布，Google+社交网络近几个月活跃用户数增长了58%，达到3亿，在主要社交网络中仅次于Facebook。 谷歌社交业务负责人维克・冈多特拉(Vic Gundotra)表示，Google+目前每月活跃用户数为3亿，高于5月份时的1.9亿。而过去30....",
"emailed" : False,
"forwarded" : False,
"english" : False
} ]
}
