{
"mode" : {"viewTitle" : 1,   "viewNew" : 0,  "pageIndex" : 1 },
 "channel" : {"id" : "1411316403337667041", "booked" : False, "subNumber" : 1, "name" : "八卦-新浪博客", "url" : "http:\/\/blog.sina.com.cn\/", "feed" : "http:\/\/rss.sina.com.cn\/blog\/index\/ent.xml", "author" : "StyleTV,一华独秀,一床情书,叶锦添工作室...", "desc" : "八卦博客列表", "imageUrl" : "http:\/\/www.sinaimg.cn\/blog\/main\/index2010\/blog_logo.png", "postPerWeek" : "0", "lastCrawTime" : "17:12:51", "crawDateTime" : "15:57:35", "lastHttpCode" : "200"}, "page" : {
"startIndex" : 0,
"totalCount" : 5000,
"pageIndex" : 1,
"lastPage" : 250,
"pageSize" : 20,
"english" :  False },
 "unreadNum" : 0, "shotIndex" : -1,
"articles" : [
{
"index" : 0,
"articleIndex" : "13328",
"favor" :  False ,
     "read" : False,    
"title" : "娱乐圈最为扑朔迷离的隐婚事件",
"titleTip" : "娱乐圈最为扑朔迷离的隐婚事件",
"titleSummary" : "娱乐圈最为扑朔迷离的隐婚事件",
"descSummary" : "大约20年前，偶像艺人不能结婚生子，还是一条准则。无论是成龙还是...",
"url" : "http:\/\/go.rss.sina.com.cn\/redirect.php?url=http:\/\/blog.sina.com.cn\/s\/blog_5dc6bd2f0102e7j9.html",
"pubDate" : "13:21:19",
"enterDate" : "384198:43:15",
"channelId" : "1411316403337667041",
"channelName" : "八卦-新浪博客",
"channelNameSummary" : "八卦-新浪博客",
"channelUrl" : "http:\/\/blog.sina.com.cn\/",
"author" : "说话的鱼",
"tags" : [],
"desc" : "大约20年前，偶像艺人不能结婚生子，还是一条准则。 无论是成龙还是刘德华，他们的隐婚，多少跟维护自己的事业有关。??明星，就应该永远生活在云端，被千万人仰望和幻想，而不可以确定地属于某一个人，亦没有任何一个对象是妥当的??若对方是富豪，会显得你贪财世俗；若对方是导演制片人，会引发\u201C有心机上位\u201D说；若对方同样...",
"emailed" : False,
"forwarded" : False,
"english" : False
}  , {
"index" : 1,
"articleIndex" : "13327",
"favor" :  False ,
     "read" : False,    
"title" : "\u201C杨澜之问\u201D为何陡生波澜",
"titleTip" : "\u201C杨澜之问\u201D为何陡生波澜",
"titleSummary" : "\u201C杨澜之问\u201D为何陡生波澜",
"descSummary" : "事由：10月28日，秘书长潘基文在纽约联合国总部正式任命中国著名钢琴家...",
"url" : "http:\/\/go.rss.sina.com.cn\/redirect.php?url=http:\/\/blog.sina.com.cn\/s\/blog_3e30aa000102egt2.html",
"pubDate" : "13:10:07",
"enterDate" : "384198:32:03",
"channelId" : "1411316403337667041",
"channelName" : "八卦-新浪博客",
"channelNameSummary" : "八卦-新浪博客",
"channelUrl" : "http:\/\/blog.sina.com.cn\/",
"author" : "平夫",
"tags" : [],
"desc" : "事由：10月28日，秘书长潘基文在纽约联合国总部正式任命中国著名钢琴家郎朗为关注全球教育的联合国和平使者。这是历史上最年轻，也是第一位中国人获此殊荣。北京时间10月29日晚21点，郎朗通过联合国官方微博做客微访谈，与大家畅聊他的最新使命，以及他的音乐人生，主持人杨澜也加入和郎朗的提问互动中。杨澜在提问中称：\u201C...",
"emailed" : False,
"forwarded" : False,
"english" : False
}  , {
"index" : 2,
"articleIndex" : "13326",
"favor" :  False ,
     "read" : False,    
"title" : "靠爆乳整容迎来事业第二春的十大女星",
"titleTip" : "靠爆乳整容迎来事业第二春的十大女星",
"titleSummary" : "靠爆乳整容迎来事业第二春的十大女星",
"descSummary" : "靠爆乳扯眼迎来事业第二春的十大女星 原创 转载联系QQ138676...",
"url" : "http:\/\/go.rss.sina.com.cn\/redirect.php?url=http:\/\/blog.sina.com.cn\/s\/blog_4a17027b0102ey04.html",
"pubDate" : "10:01:14",
"enterDate" : "384195:23:10",
"channelId" : "1411316403337667041",
"channelName" : "八卦-新浪博客",
"channelNameSummary" : "八卦-新浪博客",
"channelUrl" : "http:\/\/blog.sina.com.cn\/",
"author" : "李守智",
"tags" : [],
"desc" : "靠爆乳扯眼迎来事业第二春的十大女星 原创 转载联系QQ13867615 现在的娱乐圈真是百花齐放奇葩更是吃香，所以艺人们成名蹿红的方式不仅仅局限于努力德艺双馨，更是绝招百出才能出奇制胜，但爆乳整容成了女星们屡试不爽的绝招，有的人还以此为绝杀技迎来自己事业第二春。 李小璐 盯着童星光环又在16岁出演电影《天...",
"emailed" : False,
"forwarded" : False,
"english" : False
}  , {
"index" : 3,
"articleIndex" : "13323",
"favor" :  False ,
     "read" : False,    
"title" : "《猎仇者》充满血腥味道的复仇故事",
"titleTip" : "《猎仇者》充满血腥味道的复仇故事",
"titleSummary" : "《猎仇者》充满血腥味道的复仇故事",
"descSummary" : "文\/木易孝敦 关于仇恨和复仇，或许在现实生活中听过，但更多的是...",
"url" : "http:\/\/go.rss.sina.com.cn\/redirect.php?url=http:\/\/blog.sina.com.cn\/s\/blog_6a254f690101dswu.html",
"pubDate" : "09:25:59",
"enterDate" : "384199:48:45",
"channelId" : "1411316403337667041",
"channelName" : "八卦-新浪博客",
"channelNameSummary" : "八卦-新浪博客",
"channelUrl" : "http:\/\/blog.sina.com.cn\/",
"author" : "木易孝敦",
"tags" : [],
"desc" : "文\/木易孝敦 关于仇恨和复仇，或许在现实生活中听过，但更多的是在电影中看到的。但如果减轻程度，其实每个人都曾经历电影中的\u201C罪恶与宽恕\u201D，只不过，之于普通人而言，这种说法叫\u201C错误与原谅\u201D。试想，当你真正认为一个人做错的时候，是否能风轻云淡的轻易原谅他？这是个并不容易做出的决定，更不要说\u201C罪恶与宽恕\u201D...",
"emailed" : False,
"forwarded" : False,
"english" : False
}  , {
"index" : 4,
"articleIndex" : "13325",
"favor" :  False ,
     "read" : False,    
"title" : "杨澜微博质问郎朗暴露个人偏见？",
"titleTip" : "杨澜微博质问郎朗暴露个人偏见？",
"titleSummary" : "杨澜微博质问郎朗暴露个人偏见？",
"descSummary" : "10月28日，中国钢琴家郎朗在联合国总部被任命为关注全球教育的联...",
"url" : "http:\/\/go.rss.sina.com.cn\/redirect.php?url=http:\/\/blog.sina.com.cn\/s\/blog_3d98fb7b0102eesi.html",
"pubDate" : "07:49:10",
"enterDate" : "384193:11:06",
"channelId" : "1411316403337667041",
"channelName" : "八卦-新浪博客",
"channelNameSummary" : "八卦-新浪博客",
"channelUrl" : "http:\/\/blog.sina.com.cn\/",
"author" : "未艾",
"tags" : [],
"desc" : "10月28日，中国钢琴家郎朗在联合国总部被任命为关注全球教育的联合国和平使者。29日，著名电视节目主持人杨澜......&gt;&gt;点击查看新浪博客原文青春就应该这样绽放游戏测试：三国时期谁是你最好的兄弟！！你不得不信的星座秘密",
"emailed" : False,
"forwarded" : False,
"english" : False
}  , {
"index" : 5,
"articleIndex" : "13322",
"favor" :  False ,
     "read" : False,    
"title" : "京城土豪聚会赛海天盛筵引争议(图)",
"titleTip" : "京城土豪聚会赛海天盛筵引争议(图)",
"titleSummary" : "京城土豪聚会赛海天盛筵引争议(图)",
"descSummary" : "早上，打开网，看到赫然标题：《媒体曝京城土豪聚会超海天盛筵：如...",
"url" : "http:\/\/go.rss.sina.com.cn\/redirect.php?url=http:\/\/blog.sina.com.cn\/s\/blog_722919460102ed6n.html",
"pubDate" : "07:08:33",
"enterDate" : "384197:31:19",
"channelId" : "1411316403337667041",
"channelName" : "八卦-新浪博客",
"channelNameSummary" : "八卦-新浪博客",
"channelUrl" : "http:\/\/blog.sina.com.cn\/",
"author" : "盛京关捷",
"tags" : [],
"desc" : "早上，打开网，看到赫然标题：《媒体曝京城土豪聚会超海天盛筵：如肉类批发》这是人民网转载《深圳晚报》的消息。 记者赵伟君先生在消息中写道?? 曾经闹得轰轰烈烈的三亚\u201C海天盛筵\u201D，有了青出于蓝胜于蓝的京城版。昨天，有网友发帖爆料，自己国庆期间跟着朋友混入京城五环外一神秘山庄，亲见各种土豪、富二代...",
"emailed" : False,
"forwarded" : False,
"english" : False
}  , {
"index" : 6,
"articleIndex" : "13321",
"favor" :  False ,
     "read" : False,    
"title" : "盘点穿过\"土豪金\"礼服的女星们",
"titleTip" : "盘点穿过\"土豪金\"礼服的女星们",
"titleSummary" : "盘点穿过\"土豪金\"礼服的女星们",
"descSummary" : "巩俐《黄金甲》若放在现在，评价肯定又不一样?十足的土豪金电影！\u201C土...",
"url" : "http:\/\/go.rss.sina.com.cn\/redirect.php?url=http:\/\/blog.sina.com.cn\/s\/blog_56c89b680102eev5.html",
"pubDate" : "昨天01:26:51",
"enterDate" : "384193:49:57",
"channelId" : "1411316403337667041",
"channelName" : "八卦-新浪博客",
"channelNameSummary" : "八卦-新浪博客",
"channelUrl" : "http:\/\/blog.sina.com.cn\/",
"author" : "一华独秀",
"tags" : [],
"desc" : "巩俐《黄金甲》若放在现在，评价肯定又不一样??十足的土豪金电影！ \u201C土豪金\u201D大肆流行是一次成功的营销策划宣传，爱疯5指定是再疯一次。但是人们对土豪的调侃就此开始，这一种对财富和富人的爱恨交加，反映出人们一种无奈而又复杂的心态。如今，什么都可以冠以土豪，甚至是一碗面，一杯咖啡，甚至一件衣服\u2026\u2026只要土里...",
"emailed" : False,
"forwarded" : False,
"english" : False
}  , {
"index" : 7,
"articleIndex" : "13324",
"favor" :  False ,
     "read" : False,    
"title" : "嫩模为闯娱乐圈愿卖三年换钱隆胸",
"titleTip" : "嫩模为闯娱乐圈愿卖三年换钱隆胸",
"titleSummary" : "嫩模为闯娱乐圈愿卖三年换钱隆胸",
"descSummary" : "文\/长春国贸 前几天，长春国贸在与朋友聚会的时候，席间一位朋友谈...",
"url" : "http:\/\/go.rss.sina.com.cn\/redirect.php?url=http:\/\/blog.sina.com.cn\/s\/blog_532b88150101cbmh.html",
"pubDate" : "昨天22:06:05",
"enterDate" : "384187:28:41",
"channelId" : "1411316403337667041",
"channelName" : "八卦-新浪博客",
"channelNameSummary" : "八卦-新浪博客",
"channelUrl" : "http:\/\/blog.sina.com.cn\/",
"author" : "长春国贸",
"tags" : [],
"desc" : "文\/长春国贸 前几天，长春国贸在与朋友聚会的时候，席间一位朋友谈及，他认识的一个大四女孩儿姓董，参加了很多模特比赛并多次获奖，但似乎对自己的身材还不满意。即将毕业的她为了能够进入梦寐以求的娱乐圈发展，愿意出卖自己的三年青春来换取隆胸费用。听到这事后，长春国贸的第一感觉就是这个女孩想炒作自己，借机上位，...",
"emailed" : False,
"forwarded" : False,
"english" : False
}  , {
"index" : 8,
"articleIndex" : "13317",
"favor" :  False ,
     "read" : False,    
"title" : "15年回忆：还珠格格十二大经典画面",
"titleTip" : "15年回忆：还珠格格十二大经典画面",
"titleSummary" : "15年回忆：还珠格格十二大经典画面",
"descSummary" : "到今年，还珠格格已经走过了15个年头。这部剧对于多少人来说都...",
"url" : "http:\/\/go.rss.sina.com.cn\/redirect.php?url=http:\/\/blog.sina.com.cn\/s\/blog_d6290cca0101b0uf.html",
"pubDate" : "昨天12:20:41",
"enterDate" : "384197:31:42",
"channelId" : "1411316403337667041",
"channelName" : "八卦-新浪博客",
"channelNameSummary" : "八卦-新浪博客",
"channelUrl" : "http:\/\/blog.sina.com.cn\/",
"author" : "大麦网",
"tags" : [],
"desc" : "到今年，还珠格格已经走过了15个年头。这部剧对于多少人来说都是不可磨灭的记忆。无论后期有多少版的紫薇小燕子，林心如和赵薇永远都是我们心中紫薇和小燕子。15年来，每当电视上再次播出还珠格格，我都会停下来收看，那些一幕幕经典的画面，至今都萦绕在我心头，挥之不去。 1.五阿哥小燕子一箭定情 五阿哥与...",
"emailed" : False,
"forwarded" : False,
"english" : False
}  , {
"index" : 9,
"articleIndex" : "13316",
"favor" :  False ,
     "read" : False,    
"title" : "那些有婚姻\u201C拖延症\u201D的明星男女们",
"titleTip" : "那些有婚姻\u201C拖延症\u201D的明星男女们",
"titleSummary" : "那些有婚姻\u201C拖延症\u201D的明星男女们",
"descSummary" : "最近有传言,说导演陆川和女明星秦岚相恋四年，分手了。陆川是个...",
"url" : "http:\/\/go.rss.sina.com.cn\/redirect.php?url=http:\/\/blog.sina.com.cn\/s\/blog_68248f910102eg5h.html",
"pubDate" : "昨天12:05:21",
"enterDate" : "384195:16:01",
"channelId" : "1411316403337667041",
"channelName" : "八卦-新浪博客",
"channelNameSummary" : "八卦-新浪博客",
"channelUrl" : "http:\/\/blog.sina.com.cn\/",
"author" : "青岛高伟",
"tags" : [],
"desc" : "最近有传言,说导演陆川和女明星秦岚相恋四年，分手了。陆川是个有担当的导演，导出了一些有质地有思想的电影，比如《南京！南京！》秦岚是漂亮的女演员，她在这部片子里饰演女主角。陆川和秦岚是在拍这部片子的过程中好上的。然后他们接着共同拍了另一部电影《王的盛宴》。陆川和秦岚，不仅仅是郎才女貌，而且是郎才貌女才...",
"emailed" : False,
"forwarded" : False,
"english" : False
}  , {
"index" : 10,
"articleIndex" : "13320",
"favor" :  False ,
     "read" : False,    
"title" : "杨澜访尚雯婕：最享受做个毒舌",
"titleTip" : "杨澜访尚雯婕：最享受做个毒舌",
"titleSummary" : "杨澜访尚雯婕：最享受做个毒舌",
"descSummary" : "本期嘉宾尚雯婕 从冠军到\u201C雷神\u201D再到中国电音女王 人的惯性思维很容...",
"url" : "http:\/\/go.rss.sina.com.cn\/redirect.php?url=http:\/\/blog.sina.com.cn\/s\/blog_477614640102eqbz.html",
"pubDate" : "昨天10:43:57",
"enterDate" : "384193:54:37",
"channelId" : "1411316403337667041",
"channelName" : "八卦-新浪博客",
"channelNameSummary" : "八卦-新浪博客",
"channelUrl" : "http:\/\/blog.sina.com.cn\/",
"author" : "杨澜",
"tags" : [],
"desc" : "本期嘉宾尚雯婕 从冠军到\u201C雷神\u201D再到中国电音女王 人的惯性思维很容易将事物贴上一个固定的标签。在参加《我是歌手》之前，尚雯婕作为一个标新立异的的歌手已经在大众审美的轨道上渐行渐远。超女夺冠后，她经历了短暂的风光，继而就是沉寂、解约、质疑不断。六年的光阴让她从一个爱唱歌的大学生蜕变为新时代的电...",
"emailed" : False,
"forwarded" : False,
"english" : False
}  , {
"index" : 11,
"articleIndex" : "13313",
"favor" :  False ,
     "read" : False,    
"title" : "专访袁姗姗：当我面对铺天盖地的非议",
"titleTip" : "专访袁姗姗：当我面对铺天盖地的非议",
"titleSummary" : "专访袁姗姗：当我面对铺天盖地的非议",
"descSummary" : "专访袁姗姗：当我面对铺天盖地的非议",
"url" : "http:\/\/go.rss.sina.com.cn\/redirect.php?url=http:\/\/blog.sina.com.cn\/s\/blog_c5d787b60101hgsi.html",
"pubDate" : "昨天10:07:54",
"enterDate" : "384200:19:44",
"channelId" : "1411316403337667041",
"channelName" : "八卦-新浪博客",
"channelNameSummary" : "八卦-新浪博客",
"channelUrl" : "http:\/\/blog.sina.com.cn\/",
"author" : "StyleTV",
"tags" : [],
"desc" : "专访袁姗姗：当我面对铺天盖地的非议",
"emailed" : False,
"forwarded" : False,
"english" : False
}  , {
"index" : 12,
"articleIndex" : "13314",
"favor" :  False ,
     "read" : False,    
"title" : "《爸爸去哪儿》50元让哪个家庭最土豪",
"titleTip" : "《爸爸去哪儿》50元让哪个家庭最土豪",
"titleSummary" : "《爸爸去哪儿》50元让哪个家庭最土豪",
"descSummary" : "文\/黄鑫亮 从山清水秀的村落到干旱广袤的沙漠，其中的跨度不可...",
"url" : "http:\/\/go.rss.sina.com.cn\/redirect.php?url=http:\/\/blog.sina.com.cn\/s\/blog_487f6ff00102ehd8.html",
"pubDate" : "昨天09:10:03",
"enterDate" : "384198:21:44",
"channelId" : "1411316403337667041",
"channelName" : "八卦-新浪博客",
"channelNameSummary" : "八卦-新浪博客",
"channelUrl" : "http:\/\/blog.sina.com.cn\/",
"author" : "黄鑫亮",
"tags" : [],
"desc" : "文\/黄鑫亮 从山清水秀的村落到干旱广袤的沙漠，其中的跨度不可谓不大，所以看起来在风景优美的古村的生存体验更像是一场热身运动，这一场的重头戏是给每组家庭50元，让他们自行采购三天两夜的食品，这恐怕是让奶爸们比第一期更为挠头的决定，毕竟第一期的食材都是节目组准备好的，有了涂料怎么画几笔都能成为画，而这一期...",
"emailed" : False,
"forwarded" : False,
"english" : False
}  , {
"index" : 13,
"articleIndex" : "13319",
"favor" :  False ,
     "read" : False,    
"title" : "德云社十大班规透露何种信号",
"titleTip" : "德云社十大班规透露何种信号",
"titleSummary" : "德云社十大班规透露何种信号",
"descSummary" : "德云社十大班规透露何种信号？文\/陆地上的海蛎子 10月28日，相声演员郭...",
"url" : "http:\/\/go.rss.sina.com.cn\/redirect.php?url=http:\/\/blog.sina.com.cn\/s\/blog_4d449a3801019o5n.html",
"pubDate" : "昨天07:42:49",
"enterDate" : "384190:53:29",
"channelId" : "1411316403337667041",
"channelName" : "八卦-新浪博客",
"channelNameSummary" : "八卦-新浪博客",
"channelUrl" : "http:\/\/blog.sina.com.cn\/",
"author" : "海蛎子",
"tags" : [],
"desc" : "德云社十大班规透露何种信号？ 文\/陆地上的海蛎子 10月28日，相声演员郭德纲在微博上透露，德云社在南京的分社正式开张。郭德纲的老搭档于谦也在微博连发多张开张迎客的图片，从照片中可以看到主持人孟非到场祝贺，郭德纲儿子郭麒麟，弟子岳云鹏、孙越等德云社主力也都在开张当晚上台演出。此外，新剧场中悬挂了\u201C德云社...",
"emailed" : False,
"forwarded" : False,
"english" : False
}  , {
"index" : 14,
"articleIndex" : "13318",
"favor" :  False ,
     "read" : False,    
"title" : "叶锦添：和赖声川合作话剧的最大挑战",
"titleTip" : "叶锦添：和赖声川合作话剧的最大挑战",
"titleSummary" : "叶锦添：和赖声川合作话剧的最大挑战",
"descSummary" : "叶锦添：好奇不断艺术不断 撰文：Jane摄影：朱瑗瑗 伴着萧萧细...",
"url" : "http:\/\/go.rss.sina.com.cn\/redirect.php?url=http:\/\/blog.sina.com.cn\/s\/blog_72af81f90101fc0j.html",
"pubDate" : "前天17:24:54",
"enterDate" : "384176:35:34",
"channelId" : "1411316403337667041",
"channelName" : "八卦-新浪博客",
"channelNameSummary" : "八卦-新浪博客",
"channelUrl" : "http:\/\/blog.sina.com.cn\/",
"author" : "叶锦添工作室",
"tags" : [],
"desc" : "叶锦添：好奇不断艺术不断 撰文：Jane摄影：朱瑗瑗 伴着萧萧细雨，走进三影堂摄影艺术中心，这里正在展出的是著名视觉艺术大师叶锦添的\u201C梦 渡 间\u201D摄影艺术展。人们熟知叶锦添，多半由于电影、服装、舞台艺术，但却往往忽略了他的摄影。叶锦添毕业于香港理工学院高级摄影专业，他最开始便是一位摄影师。此...",
"emailed" : False,
"forwarded" : False,
"english" : False
}  , {
"index" : 15,
"articleIndex" : "13312",
"favor" :  False ,
     "read" : False,    
"title" : "《爸爸去哪儿》第二季明星你更期待谁",
"titleTip" : "《爸爸去哪儿》第二季明星你更期待谁",
"titleSummary" : "《爸爸去哪儿》第二季明星你更期待谁",
"descSummary" : "《爸爸去哪儿》第二季明星阵容你更期待谁 文\/一床情书 湖南卫...",
"url" : "http:\/\/go.rss.sina.com.cn\/redirect.php?url=http:\/\/blog.sina.com.cn\/s\/blog_7964e4ec0101qgph.html",
"pubDate" : "前天17:05:12",
"enterDate" : "384183:17:02",
"channelId" : "1411316403337667041",
"channelName" : "八卦-新浪博客",
"channelNameSummary" : "八卦-新浪博客",
"channelUrl" : "http:\/\/blog.sina.com.cn\/",
"author" : "一床情书",
"tags" : [],
"desc" : "《爸爸去哪儿》第二季明星阵容你更期待谁 文\/一床情书 湖南卫视推出的明星亲子生存体验秀《爸爸去哪儿》在毫无预兆的情况下火得一塌糊涂，一夜之间成为街头巷尾热议节目，贴吧、论坛、微博、博客上都是关于《爸爸去哪儿》的话题，而且好评如潮，而林志颖、田亮、郭涛、王岳伦、张亮嘉宾五位明星爸爸更是人气再度飙升，而五...",
"emailed" : False,
"forwarded" : False,
"english" : False
}  , {
"index" : 16,
"articleIndex" : "13315",
"favor" :  False ,
     "read" : False,    
"title" : "《打狗棍》刘芊含秀儿的悲喜剧",
"titleTip" : "《打狗棍》刘芊含秀儿的悲喜剧",
"titleSummary" : "《打狗棍》刘芊含秀儿的悲喜剧",
"descSummary" : "《打狗棍》刘芊含：做女神是要付出代价的 由导演郭靖宇编剧并执导，...",
"url" : "http:\/\/go.rss.sina.com.cn\/redirect.php?url=http:\/\/blog.sina.com.cn\/s\/blog_4c863d130102ef0h.html",
"pubDate" : "前天16:34:05",
"enterDate" : "384179:45:26",
"channelId" : "1411316403337667041",
"channelName" : "八卦-新浪博客",
"channelNameSummary" : "八卦-新浪博客",
"channelUrl" : "http:\/\/blog.sina.com.cn\/",
"author" : "周小白",
"tags" : [],
"desc" : "《打狗棍》刘芊含：做女神是要付出代价的 由导演郭靖宇编剧并执导，实力派演员巍子、岳丽娜、杨志刚、刘芊含等联袂出演的70集大型英雄传奇剧《打狗棍》正在天津、北京、重庆、安徽四大卫视播出。该剧一播出，便获得了观众们的一致好评。 在这部男人戏里，她聪慧漂亮，识大体顾大局；她从一个出身卑微的女子逆袭嫁给一个...",
"emailed" : False,
"forwarded" : False,
"english" : False
}  , {
"index" : 17,
"articleIndex" : "13310",
"favor" :  False ,
     "read" : False,    
"title" : "《铁血娇娃》一大波美女的丛林探险记",
"titleTip" : "《铁血娇娃》一大波美女的丛林探险记",
"titleSummary" : "《铁血娇娃》一大波美女的丛林探险记",
"descSummary" : "文\/木易孝敦 随着生活节奏的加快，很多都市白领、朝九晚五的上...",
"url" : "http:\/\/go.rss.sina.com.cn\/redirect.php?url=http:\/\/blog.sina.com.cn\/s\/blog_6a254f690101drqw.html",
"pubDate" : "前天15:34:20",
"enterDate" : "384198:49:31",
"channelId" : "1411316403337667041",
"channelName" : "八卦-新浪博客",
"channelNameSummary" : "八卦-新浪博客",
"channelUrl" : "http:\/\/blog.sina.com.cn\/",
"author" : "木易孝敦",
"tags" : [],
"desc" : "文\/木易孝敦 随着生活节奏的加快，很多都市白领、朝九晚五的上班族开始期待\u201C走出去\u201D的别样生活。当然走出去也分远离尘嚣的躲清静和追逐更加刺激的户外探险，很多人选择前者，但更多人向往后者。当许多人没有勇气选择后者时，不如跟随余男、潘霜霜和邹兆龙到傅华阳最新执导的电影《铁血娇娃》中感受一下惊险刺激的丛林...",
"emailed" : False,
"forwarded" : False,
"english" : False
}  , {
"index" : 18,
"articleIndex" : "13311",
"favor" :  False ,
     "read" : False,    
"title" : "一周娱乐TOP10:刘孜胸衣爆裂男助理补",
"titleTip" : "一周娱乐TOP10:刘孜胸衣爆裂男助理补",
"titleSummary" : "一周娱乐TOP10:刘孜胸衣爆裂男助理补",
"descSummary" : "娱乐圈总会上演光怪陆离的事，事件可以不大，镜头必须惹眼，来...",
"url" : "http:\/\/go.rss.sina.com.cn\/redirect.php?url=http:\/\/blog.sina.com.cn\/s\/blog_78f9fd9b0102ecw8.html",
"pubDate" : "前天13:02:09",
"enterDate" : "384194:31:59",
"channelId" : "1411316403337667041",
"channelName" : "八卦-新浪博客",
"channelNameSummary" : "八卦-新浪博客",
"channelUrl" : "http:\/\/blog.sina.com.cn\/",
"author" : "愚乐巴士",
"tags" : [],
"desc" : "娱乐圈总会上演光怪陆离的事，事件可以不大，镜头必须惹眼，来看看愚乐为大家盘点的过去一周娱乐圈发生了哪些眼睛为之一亮的大事小情： 1、刘孜胸衣突然爆裂男助理缝衣 10月26日，刘孜现身上海某酒店，刘孜候场时发现胸口衣服突然裂开，慌忙用手捂住，助理赶紧拿出围巾挡住刘孜，男助理当场缝衣服，场面显得十分尴尬，...",
"emailed" : False,
"forwarded" : False,
"english" : False
}  , {
"index" : 19,
"articleIndex" : "13309",
"favor" :  False ,
     "read" : False,    
"title" : "《特种兵之火凤凰》杨舒诠释治愈系女生",
"titleTip" : "《特种兵之火凤凰》杨舒诠释治愈系女生",
"titleSummary" : "《特种兵之火凤凰》杨舒诠释治愈系女生",
"descSummary" : "《特种兵之火凤凰》杨舒诠释治愈系女生 近日，由\u201C我是特种...",
"url" : "http:\/\/go.rss.sina.com.cn\/redirect.php?url=http:\/\/blog.sina.com.cn\/s\/blog_43ae7b1e0102ef4n.html",
"pubDate" : "前天12:37:38",
"enterDate" : "384195:52:49",
"channelId" : "1411316403337667041",
"channelName" : "八卦-新浪博客",
"channelNameSummary" : "八卦-新浪博客",
"channelUrl" : "http:\/\/blog.sina.com.cn\/",
"author" : "戎戎",
"tags" : [],
"desc" : "《特种兵之火凤凰》杨舒诠释治愈系女生 近日，由\u201C我是特种兵\u201D系列的导演刘猛担当编剧并执导，嵇道青担任制作总监的电视剧《特种兵之火凤......&gt;&gt;点击查看新浪博客原文青春就应该这样绽放游戏测试：三国时期谁是你最好的兄弟！！你不得不信的星座秘密",
"emailed" : False,
"forwarded" : False,
"english" : False
} ]
}
