{
"mode" : {"viewTitle" : 1,   "viewNew" : 0,  "pageIndex" : 2 },
 "channel" : {"id" : "1411316403337667041", "booked" : False, "subNumber" : 1, "name" : "八卦-新浪博客", "url" : "http:\/\/blog.sina.com.cn\/", "feed" : "http:\/\/rss.sina.com.cn\/blog\/index\/ent.xml", "author" : "StyleTV,一华独秀,一床情书,叶锦添工作室...", "desc" : "八卦博客列表", "imageUrl" : "http:\/\/www.sinaimg.cn\/blog\/main\/index2010\/blog_logo.png", "postPerWeek" : "0", "lastCrawTime" : "17:12:51", "crawDateTime" : "15:57:35", "lastHttpCode" : "200"}, "page" : {
"startIndex" : 20,
"totalCount" : 5000,
"pageIndex" : 2,
"lastPage" : 250,
"pageSize" : 20,
"english" :  False },
 "unreadNum" : 0, "shotIndex" : -1,
"articles" : [
{
"index" : 0,
"articleIndex" : "13308",
"favor" :  False ,
     "read" : False,    
"title" : "小S孙俪叶一茜等娱乐圈十大辣妈(图)",
"titleTip" : "小S孙俪叶一茜等娱乐圈十大辣妈(图)",
"titleSummary" : "小S孙俪叶一茜等娱乐圈十大辣妈(图)",
"descSummary" : "排名不分先后 NO.1 小S 本名徐熙娣。1978年6月14日出生。台湾著...",
"url" : "http:\/\/go.rss.sina.com.cn\/redirect.php?url=http:\/\/blog.sina.com.cn\/s\/blog_d6290cca0101b04a.html",
"pubDate" : "前天14:04:00",
"enterDate" : "384199:34:35",
"channelId" : "1411316403337667041",
"channelName" : "八卦-新浪博客",
"channelNameSummary" : "八卦-新浪博客",
"channelUrl" : "http:\/\/blog.sina.com.cn\/",
"author" : "大麦网",
"tags" : [],
"desc" : "排名不分先后 NO.1 小S 本名徐熙娣。1978年6月14日出生。台湾著名主持人、歌手。与陶晶莹、利菁，蔡康永并称为台湾主持界\u201C三后一王\u201D。2005年与许雅钧结婚后，分别于2006年，2007年和2012年产下三个女儿。作为三个孩子的母亲，小S的身材一直是众多产后苦于复原身形的妈妈们羡慕的对象。近期，因为家庭原因陷入苦恼...",
"emailed" : False,
"forwarded" : False,
"english" : False
}  , {
"index" : 1,
"articleIndex" : "13307",
"favor" :  False ,
     "read" : False,    
"title" : "专访李宇春：不爱去时装周跟风看秀",
"titleTip" : "专访李宇春：不爱去时装周跟风看秀",
"titleSummary" : "专访李宇春：不爱去时装周跟风看秀",
"descSummary" : "李宇春10月25日来上海参加活动的消息在网上传得沸沸扬扬，玉米...",
"url" : "http:\/\/go.rss.sina.com.cn\/redirect.php?url=http:\/\/blog.sina.com.cn\/s\/blog_c5d787b60101hhkw.html",
"pubDate" : "前天12:00:21",
"enterDate" : "384195:15:32",
"channelId" : "1411316403337667041",
"channelName" : "八卦-新浪博客",
"channelNameSummary" : "八卦-新浪博客",
"channelUrl" : "http:\/\/blog.sina.com.cn\/",
"author" : "StyleTV",
"tags" : [],
"desc" : "李宇春10月25日来上海参加活动的消息在网上传得沸沸扬扬，玉米们也已经早早做好了准备，提前好几个小时就来到活动现场。春春的魅力真的不容小觑，24日从北京飞来上海，狂热的玉米们把机场堵得水泄不通，今天在活动现场也是一片人头攒动。偏巧放晴多日的上海今天转阴，降了温又刮起风，但这也丝毫没有阻挡玉米们的热情。一位...",
"emailed" : False,
"forwarded" : False,
"english" : False
}  , {
"index" : 2,
"articleIndex" : "13306",
"favor" :  False ,
     "read" : False,    
"title" : "查小欣：甄子丹赵文卓交恶造就了谁",
"titleTip" : "查小欣：甄子丹赵文卓交恶造就了谁",
"titleSummary" : "查小欣：甄子丹赵文卓交恶造就了谁",
"descSummary" : "去年开镜即爆是非的动作电影《特殊身份》终于上画，身兼主角、动...",
"url" : "http:\/\/go.rss.sina.com.cn\/redirect.php?url=http:\/\/blog.sina.com.cn\/s\/blog_4949b3d50102e873.html",
"pubDate" : "前天11:40:43",
"enterDate" : "384197:11:18",
"channelId" : "1411316403337667041",
"channelName" : "八卦-新浪博客",
"channelNameSummary" : "八卦-新浪博客",
"channelUrl" : "http:\/\/blog.sina.com.cn\/",
"author" : "查小欣",
"tags" : [],
"desc" : "去年开镜即爆是非的动作电影《特殊身份》终于上画，身兼主角、动作导演、监制的甄子丹被翻炒与赵文卓交恶丑闻，甄子丹只简单回应，今后不会再与赵文卓合作，表态割席，就如他的功夫招式般爽快利落，不会拖泥带水。 甄子丹赵文卓反目过程很戏剧化。两功夫高手宣布合作，在记者会上摆出格斗架势，气氛融洽。未几赵文卓公开指...",
"emailed" : False,
"forwarded" : False,
"english" : False
}  , {
"index" : 3,
"articleIndex" : "13304",
"favor" :  False ,
     "read" : False,    
"title" : "龚琳娜：我扮成\u201C梦露\u201D不怕被笑",
"titleTip" : "龚琳娜：我扮成\u201C梦露\u201D不怕被笑",
"titleSummary" : "龚琳娜：我扮成\u201C梦露\u201D不怕被笑",
"descSummary" : "参加《全能星战》，我唱了豪情的苏东坡、抒情的小河淌水，再唱性感...",
"url" : "http:\/\/go.rss.sina.com.cn\/redirect.php?url=http:\/\/blog.sina.com.cn\/s\/blog_6616fd0f0101bx4p.html",
"pubDate" : "前天08:22:36",
"enterDate" : "384193:53:11",
"channelId" : "1411316403337667041",
"channelName" : "八卦-新浪博客",
"channelNameSummary" : "八卦-新浪博客",
"channelUrl" : "http:\/\/blog.sina.com.cn\/",
"author" : "龚琳娜",
"tags" : [],
"desc" : "参加《全能星战》，我唱了豪情的苏东坡、抒情的小河淌水，再唱性感的玛丽莲梦露。完全不同的性格，不同的音乐风格，不同的音色。如何在其中把魂留住？ 我爱玛丽莲梦露，爱她的纯真、可爱，做女人的感性、性感。 我要唱的龚梦露，中国式的，用中文和中国乐器，不是模仿秀，应该有变化有张力。 方向定了，老锣开始编...",
"emailed" : False,
"forwarded" : False,
"english" : False
}  , {
"index" : 4,
"articleIndex" : "13302",
"favor" :  False ,
     "read" : False,    
"title" : "40年后的今天李小龙情人讲的是真话吗",
"titleTip" : "40年后的今天李小龙情人讲的是真话吗",
"titleSummary" : "40年后的今天李小龙情人讲的是真话吗",
"descSummary" : "李小龙，实在是一条大龙。今年是他逝世40周年，40年来他一直...",
"url" : "http:\/\/go.rss.sina.com.cn\/redirect.php?url=http:\/\/blog.sina.com.cn\/s\/blog_722919460102ed38.html",
"pubDate" : "前天06:57:57",
"enterDate" : "384197:32:18",
"channelId" : "1411316403337667041",
"channelName" : "八卦-新浪博客",
"channelNameSummary" : "八卦-新浪博客",
"channelUrl" : "http:\/\/blog.sina.com.cn\/",
"author" : "盛京关捷",
"tags" : [],
"desc" : "李小龙，实在是一条大龙。今年是他逝世40周年，40年来他一直没有停止火，而今年似乎更火一点。 关于他的死因，一直是个谜。通常的说法，他死于训练与药物。李小龙生前大量服用各种药物（用于健身强体或抵抗精神压力等），其妻琳达也披露，李小龙后期每天服用的药物上百粒，\u201C把自己当做实验品\u201D。直至李小龙死亡闭...",
"emailed" : False,
"forwarded" : False,
"english" : False
}  , {
"index" : 5,
"articleIndex" : "13299",
"favor" :  False ,
     "read" : False,    
"title" : "李小龙生前与神秘女友温情合影(图)",
"titleTip" : "李小龙生前与神秘女友温情合影(图)",
"titleSummary" : "李小龙生前与神秘女友温情合影(图)",
"descSummary" : "李小龙生前与神秘女友丁佩的十张温情合影(图) 作者：三峡在线 今天...",
"url" : "http:\/\/go.rss.sina.com.cn\/redirect.php?url=http:\/\/blog.sina.com.cn\/s\/blog_4b71657f0102ec9p.html",
"pubDate" : "2013年10月28日 (3天前)",
"enterDate" : "384193:36:28",
"channelId" : "1411316403337667041",
"channelName" : "八卦-新浪博客",
"channelNameSummary" : "八卦-新浪博客",
"channelUrl" : "http:\/\/blog.sina.com.cn\/",
"author" : "三峡在线",
"tags" : [],
"desc" : "李小龙生前与神秘女友丁佩的十张温情合影(图) 作者：三峡在线 今天，三峡在线看到新闻报道：神秘女伴40年后开腔，揭李小龙猝死最后时刻。文章中提及：李小龙毫无预兆地在女友丁佩寓所内魂归天国，给世人留下各种谜团。近日，丁佩接受香港电台主持车淑梅专访，开腔忆述李小龙在家中去世一事以及李小龙往生对自己的影响。 ...",
"emailed" : False,
"forwarded" : False,
"english" : False
}  , {
"index" : 6,
"articleIndex" : "13301",
"favor" :  False ,
     "read" : False,    
"title" : "《爸爸去那哪儿》五个老爸都啥范儿",
"titleTip" : "《爸爸去那哪儿》五个老爸都啥范儿",
"titleSummary" : "《爸爸去那哪儿》五个老爸都啥范儿",
"descSummary" : "图：网络 沙漠之旅更像是一个野外郊游的活动，从搭帐篷到取水到...",
"url" : "http:\/\/go.rss.sina.com.cn\/redirect.php?url=http:\/\/blog.sina.com.cn\/s\/blog_53cd89330102e3hq.html",
"pubDate" : "2013年10月27日 (3天前)",
"enterDate" : "384181:43:42",
"channelId" : "1411316403337667041",
"channelName" : "八卦-新浪博客",
"channelNameSummary" : "八卦-新浪博客",
"channelUrl" : "http:\/\/blog.sina.com.cn\/",
"author" : "沙心语",
"tags" : [],
"desc" : "图：网络 沙漠之旅更像是一个野外郊游的活动，从搭帐篷到取水到玩滑沙，笑料频出。五个父亲中，只有张亮象个会过日子的男人，其余四个如果用五颗星为满分来评分的话，田亮有四颗，林志颖为三颗，王岳伦为两颗，郭涛只能得一颗。五个男人很显然这个环保意识严重不足，该补补课了，父亲们！ 50元买两天的菜，对这些没有用...",
"emailed" : False,
"forwarded" : False,
"english" : False
}  , {
"index" : 7,
"articleIndex" : "13297",
"favor" :  False ,
     "read" : False,    
"title" : "李小龙超有女人缘的风流艳史(图)",
"titleTip" : "李小龙超有女人缘的风流艳史(图)",
"titleSummary" : "李小龙超有女人缘的风流艳史(图)",
"descSummary" : "2013年，李小龙逝世四十周年，1973年，他离奇死在香港艳星丁佩的床...",
"url" : "http:\/\/go.rss.sina.com.cn\/redirect.php?url=http:\/\/blog.sina.com.cn\/s\/blog_476f46d50102ehmg.html",
"pubDate" : "2013年10月27日 (3天前)",
"enterDate" : "384200:06:19",
"channelId" : "1411316403337667041",
"channelName" : "八卦-新浪博客",
"channelNameSummary" : "八卦-新浪博客",
"channelUrl" : "http:\/\/blog.sina.com.cn\/",
"author" : "黄佟佟",
"tags" : [],
"desc" : "2013年，李小龙逝世四十周年，1973年，他离奇死在香港艳星丁佩的床上，此事轰动一时，但就算隔了四十年，人们对他的怀念有增无减，他的那条明黄黑带的功夫装依然还是世界上最畅销的功夫装束，李小龙的伟大早已不需论证，他是第一个世界性的功夫巨星，将Kung Fu一词带入英文词典，他让全世界的男人都知道中国有中国功...",
"emailed" : False,
"forwarded" : False,
"english" : False
}  , {
"index" : 8,
"articleIndex" : "13298",
"favor" :  False ,
     "read" : False,    
"title" : "董卿等人为何称朱军为\u201C男神\u201D(图)",
"titleTip" : "董卿等人为何称朱军为\u201C男神\u201D(图)",
"titleSummary" : "董卿等人为何称朱军为\u201C男神\u201D(图)",
"descSummary" : "董卿等人为何称朱军为\u201C男神\u201D 近日，朱军新书《朱军荧屏悟语》在...",
"url" : "http:\/\/go.rss.sina.com.cn\/redirect.php?url=http:\/\/blog.sina.com.cn\/s\/blog_4ac5b19f0102e66s.html",
"pubDate" : "2013年10月27日 (3天前)",
"enterDate" : "384197:27:49",
"channelId" : "1411316403337667041",
"channelName" : "八卦-新浪博客",
"channelNameSummary" : "八卦-新浪博客",
"channelUrl" : "http:\/\/blog.sina.com.cn\/",
"author" : "王南方",
"tags" : [],
"desc" : "董卿等人为何称朱军为\u201C男神\u201D 近日，朱军新书《朱军荧屏悟语》在北京首发，央视众\u201C女神\u201D董卿、敬一丹、李瑞英、朱迅均前往现场捧场，并笑着将朱军奉为\u201C男神\u201D。 朱军强调，新书是以严肃的态度谈自己所理解的主流传播的含义，\u201C我希望我的新书，不去上什么畅销书的排行榜、网站的推荐，而是可以长久地、有力量地放在晚...",
"emailed" : False,
"forwarded" : False,
"english" : False
}  , {
"index" : 9,
"articleIndex" : "13305",
"favor" :  False ,
     "read" : False,    
"title" : "董洁为何是谋女郎中混的比较差的一个",
"titleTip" : "董洁为何是谋女郎中混的比较差的一个",
"titleSummary" : "董洁为何是谋女郎中混的比较差的一个",
"descSummary" : "黄啸 西藏是一个神奇的地方，可以疗伤，可以遇见。在陈坤发起...",
"url" : "http:\/\/go.rss.sina.com.cn\/redirect.php?url=http:\/\/blog.sina.com.cn\/s\/blog_4be8c9b30102edoq.html",
"pubDate" : "2013年10月26日 (4天前)",
"enterDate" : "384150:28:46",
"channelId" : "1411316403337667041",
"channelName" : "八卦-新浪博客",
"channelNameSummary" : "八卦-新浪博客",
"channelUrl" : "http:\/\/blog.sina.com.cn\/",
"author" : "黄啸",
"tags" : [],
"desc" : "黄啸 西藏是一个神奇的地方，可以疗伤，可以遇见。在陈坤发起且在当快男评委期间请假去西藏领队的心灵建设公益活动\u201C行走的力量\u201D中，董洁\u201C一路上拍小野花，喝山泉水，累了也不肯卸下包，少女心未泯\u201D地出现在色拉乌孜山海拔3800米、20公里拓展训练的队伍里。因有众多明星参与而受到瞩目的\u201C行走的力量\u201D，旨在\u201C通过在安...",
"emailed" : False,
"forwarded" : False,
"english" : False
}  , {
"index" : 10,
"articleIndex" : "13296",
"favor" :  False ,
     "read" : False,    
"title" : "独家曝光：孙悦携娇妻亲密照(组图)",
"titleTip" : "独家曝光：孙悦携娇妻亲密照(组图)",
"titleSummary" : "独家曝光：孙悦携娇妻亲密照(组图)",
"descSummary" : "摄影：徐永明 化妆造型：岳岳 服装：EmilyMa 新人：孙悦&amp;陈露 这是...",
"url" : "http:\/\/go.rss.sina.com.cn\/redirect.php?url=http:\/\/blog.sina.com.cn\/s\/blog_49032c390102e4oi.html",
"pubDate" : "2013年10月26日 (4天前)",
"enterDate" : "384198:56:02",
"channelId" : "1411316403337667041",
"channelName" : "八卦-新浪博客",
"channelNameSummary" : "八卦-新浪博客",
"channelUrl" : "http:\/\/blog.sina.com.cn\/",
"author" : "徐永明",
"tags" : [],
"desc" : "摄影：徐永明 化妆造型：岳岳 服装：EmilyMa 新人：孙悦&amp;陈露 这是为前几天刚刚结婚的孙悦拍摄的婚纱照 当时他们托人找到我的时候其实已经让别的摄影师拍过一套婚纱照了 而且是在马尔代夫拍的，也花了很多钱 但他们非常不满意 觉得拍的完全不是自己 我喜欢我的客户有想法有要求 这样我在执行的时候才会更...",
"emailed" : False,
"forwarded" : False,
"english" : False
}  , {
"index" : 11,
"articleIndex" : "13295",
"favor" :  False ,
     "read" : False,    
"title" : "古天乐：新警匪大片即将上映(图)",
"titleTip" : "古天乐：新警匪大片即将上映(图)",
"titleSummary" : "古天乐：新警匪大片即将上映(图)",
"descSummary" : "接下??出席?洲?影?的活?， 宣?幕?影的《?毒》 ， 今年更是?洲???影?...",
"url" : "http:\/\/go.rss.sina.com.cn\/redirect.php?url=http:\/\/blog.sina.com.cn\/s\/blog_51205a7f0102epmy.html",
"pubDate" : "2013年10月26日 (5天前)",
"enterDate" : "384191:10:21",
"channelId" : "1411316403337667041",
"channelName" : "八卦-新浪博客",
"channelNameSummary" : "八卦-新浪博客",
"channelUrl" : "http:\/\/blog.sina.com.cn\/",
"author" : "古天乐",
"tags" : [],
"desc" : "接下??出席?洲???影?的活?， 宣??幕?影的《?毒》 ， 今年更是?洲???影?的第十?年?， 可?是更有意?， 如果有?趣率先看《?毒》的?， 就要留意售票的??了， 我自己也十分期待。 青春就应该这样绽放游戏测试：三国时期谁是你最好的兄弟！！你不得不信的星座秘密",
"emailed" : False,
"forwarded" : False,
"english" : False
}  , {
"index" : 12,
"articleIndex" : "13300",
"favor" :  False ,
     "read" : False,    
"title" : "导演：《梦想》立威廉张蓝心给我惊喜",
"titleTip" : "导演：《梦想》立威廉张蓝心给我惊喜",
"titleSummary" : "导演：《梦想》立威廉张蓝心给我惊喜",
"descSummary" : "导演王伟谈电影《谁动了我的梦想》男女主角立威廉、张蓝心！...",
"url" : "http:\/\/go.rss.sina.com.cn\/redirect.php?url=http:\/\/blog.sina.com.cn\/s\/blog_3d7ce7800101a83r.html",
"pubDate" : "2013年10月25日 (5天前)",
"enterDate" : "384140:54:17",
"channelId" : "1411316403337667041",
"channelName" : "八卦-新浪博客",
"channelNameSummary" : "八卦-新浪博客",
"channelUrl" : "http:\/\/blog.sina.com.cn\/",
"author" : "导演王伟",
"tags" : [],
"desc" : "导演王伟谈电影《谁动了我的梦想》男女主角立威廉、张蓝心！ 电影《谁动了我的梦想》女主角张蓝心！ 电影《谁动了我的梦想》男主角立威廉！ 由宁波新贵影视文化公司独家出品，导演王伟、Jackson Pat联合执导，立威廉、张蓝心、胡兵、贺彬等联袂主演的电影《谁动了我的梦想》，定档于11月8号全国上映。这部戏是以一个\u201C...",
"emailed" : False,
"forwarded" : False,
"english" : False
}  , {
"index" : 13,
"articleIndex" : "13290",
"favor" :  False ,
     "read" : False,    
"title" : "杨澜：蔡明王丽云不为人知的当妈一面",
"titleTip" : "杨澜：蔡明王丽云不为人知的当妈一面",
"titleSummary" : "杨澜：蔡明王丽云不为人知的当妈一面",
"descSummary" : "杨澜：蔡明王丽云不为人知的当妈一面",
"url" : "http:\/\/go.rss.sina.com.cn\/redirect.php?url=http:\/\/blog.sina.com.cn\/s\/blog_477614640102eq9f.html",
"pubDate" : "2013年10月25日 (5天前)",
"enterDate" : "384198:41:12",
"channelId" : "1411316403337667041",
"channelName" : "八卦-新浪博客",
"channelNameSummary" : "八卦-新浪博客",
"channelUrl" : "http:\/\/blog.sina.com.cn\/",
"author" : "杨澜",
"tags" : [],
"desc" : "杨澜：蔡明王丽云不为人知的当妈一面",
"emailed" : False,
"forwarded" : False,
"english" : False
}  , {
"index" : 14,
"articleIndex" : "13294",
"favor" :  False ,
     "read" : False,    
"title" : "《大明劫》冯波和戴立忍对戏有多难",
"titleTip" : "《大明劫》冯波和戴立忍对戏有多难",
"titleSummary" : "《大明劫》冯波和戴立忍对戏有多难",
"descSummary" : "王竞导演的古装片《大明劫》虽然有战乱四起的历史背景，讲述的是...",
"url" : "http:\/\/go.rss.sina.com.cn\/redirect.php?url=http:\/\/blog.sina.com.cn\/s\/blog_49b429b10102eckm.html",
"pubDate" : "2013年10月25日 (5天前)",
"enterDate" : "384196:07:12",
"channelId" : "1411316403337667041",
"channelName" : "八卦-新浪博客",
"channelNameSummary" : "八卦-新浪博客",
"channelUrl" : "http:\/\/blog.sina.com.cn\/",
"author" : "铁任",
"tags" : [],
"desc" : "王竞导演的古装片《大明劫》虽然有战乱四起的历史背景，讲述的是名将孙传庭和名医吴又可??两个男人的历史交集，故事中充满刚烈的气质，却并没有因此忽视对女性角色的塑造。冯波演绎的孙夫人，从一个具有东方传统文化底蕴的女性角度，对着那个遍布着杀戮、野心、黑暗、贪婪和饥饿的年代发出了一声深深的叹息，给这片被...",
"emailed" : False,
"forwarded" : False,
"english" : False
}  , {
"index" : 15,
"articleIndex" : "13303",
"favor" :  False ,
     "read" : False,    
"title" : "《特种兵之火凤凰》程愫为何受热捧",
"titleTip" : "《特种兵之火凤凰》程愫为何受热捧",
"titleSummary" : "《特种兵之火凤凰》程愫为何受热捧",
"descSummary" : "文\/阳光 现代军旅题材电视剧《我是特种兵》系列播出以来，在观众...",
"url" : "http:\/\/go.rss.sina.com.cn\/redirect.php?url=http:\/\/blog.sina.com.cn\/s\/blog_4911bd8a0102ek7s.html",
"pubDate" : "2013年10月25日 (5天前)",
"enterDate" : "384129:29:35",
"channelId" : "1411316403337667041",
"channelName" : "八卦-新浪博客",
"channelNameSummary" : "八卦-新浪博客",
"channelUrl" : "http:\/\/blog.sina.com.cn\/",
"author" : "阳光",
"tags" : [],
"desc" : "文\/阳光 现代军旅题材电视剧《我是特种兵》系列播出以来，在观众群体中引发了强烈的反响。作为该系列的第三部，《我是特种兵之火凤凰》延续了前两部的热血风范，讲述了中国第一支女子特战队\u201C火凤凰\u201D的组建经历，为观众揭开了女子特种兵的神秘面纱。其中，由知名演员程愫出演的教导员谭晓琳更是让观众为之惊艳。 在现代...",
"emailed" : False,
"forwarded" : False,
"english" : False
}  , {
"index" : 16,
"articleIndex" : "13291",
"favor" :  False ,
     "read" : False,    
"title" : "那一周我们一起追的德国电影",
"titleTip" : "那一周我们一起追的德国电影",
"titleSummary" : "那一周我们一起追的德国电影",
"descSummary" : "那一周，我们一起追的德国电影 黄啸 从上周四到昨晚，度过了和\u201C德国电...",
"url" : "http:\/\/go.rss.sina.com.cn\/redirect.php?url=http:\/\/blog.sina.com.cn\/s\/blog_4be8c9b30102edo0.html",
"pubDate" : "2013年10月25日 (5天前)",
"enterDate" : "384196:57:17",
"channelId" : "1411316403337667041",
"channelName" : "八卦-新浪博客",
"channelNameSummary" : "八卦-新浪博客",
"channelUrl" : "http:\/\/blog.sina.com.cn\/",
"author" : "黄啸",
"tags" : [],
"desc" : "那一周，我们一起追的德国电影 黄啸 从上周四到昨晚，度过了和\u201C德国电影在一起一周\u201D的日子，脑子有点辛苦，德国电影是真不娱乐啊，真是出马克思、黑格尔的国度啊，think就是他们电影的主旋律。迄今为止在百老汇影城看了6部，风格迥异，共同特点是画面洁癖，叙事天成，故事为辅，思辨为主。 第一部《欢迎来到德国》不能...",
"emailed" : False,
"forwarded" : False,
"english" : False
}  , {
"index" : 17,
"articleIndex" : "13293",
"favor" :  False ,
     "read" : False,    
"title" : "《唐男2》殷旭成黑马是偶然还是必然",
"titleTip" : "《唐男2》殷旭成黑马是偶然还是必然",
"titleSummary" : "《唐男2》殷旭成黑马是偶然还是必然",
"descSummary" : "文\/阳光 演艺江湖一直有\u201C黑马\u201D的传说。具备先天外形优势和后天...",
"url" : "http:\/\/go.rss.sina.com.cn\/redirect.php?url=http:\/\/blog.sina.com.cn\/s\/blog_4911bd8a0102ek7h.html",
"pubDate" : "2013年10月25日 (5天前)",
"enterDate" : "384193:20:17",
"channelId" : "1411316403337667041",
"channelName" : "八卦-新浪博客",
"channelNameSummary" : "八卦-新浪博客",
"channelUrl" : "http:\/\/blog.sina.com.cn\/",
"author" : "阳光",
"tags" : [],
"desc" : "文\/阳光 演艺江湖一直有\u201C黑马\u201D的传说。具备先天外形优势和后天演技水准的新生代演员脱颖而出，比老演员更有冲劲更具新鲜感，比其他新演员更努力更幸运、拥有更大发展空间。所以\u201C演艺黑马\u201D这一称呼总是与\u201C脱颖而出\u201D\u201C成功突围\u201D甚至是\u201C一夜成名\u201D\u201C前景无限\u201D等词语连接在一起。\u201C黑马\u201D总会更新换代，章子怡...",
"emailed" : False,
"forwarded" : False,
"english" : False
}  , {
"index" : 18,
"articleIndex" : "13289",
"favor" :  False ,
     "read" : False,    
"title" : "《特种兵之火凤凰》女人戏中猛汉徐佳",
"titleTip" : "《特种兵之火凤凰》女人戏中猛汉徐佳",
"titleSummary" : "《特种兵之火凤凰》女人戏中猛汉徐佳",
"descSummary" : "文\/芳菲小猪 随着谍战剧、抗战剧和家庭伦理剧的火爆，近年来反...",
"url" : "http:\/\/go.rss.sina.com.cn\/redirect.php?url=http:\/\/blog.sina.com.cn\/s\/blog_58a6d4ea0102f1fd.html",
"pubDate" : "2013年10月25日 (5天前)",
"enterDate" : "384195:18:05",
"channelId" : "1411316403337667041",
"channelName" : "八卦-新浪博客",
"channelNameSummary" : "八卦-新浪博客",
"channelUrl" : "http:\/\/blog.sina.com.cn\/",
"author" : "芳菲小猪",
"tags" : [],
"desc" : "文\/芳菲小猪 随着谍战剧、抗战剧和家庭伦理剧的火爆，近年来反映当代军人生活的军旅题材电视剧鲜有特别优秀的作品，而且总体数量也有所降低。不过，在为数不多的此类优秀影片中，由军旅作家刘猛原著、编剧、导演的\u201C我是特种兵\u201D系列无疑是最引人入胜、血脉贲张，看起来也最过瘾的一部。正因如此，作为《我是特种兵》续作的...",
"emailed" : False,
"forwarded" : False,
"english" : False
}  , {
"index" : 19,
"articleIndex" : "13292",
"favor" :  False ,
     "read" : False,    
"title" : "《打狗棍》收视为何不逊《铁梨花》",
"titleTip" : "《打狗棍》收视为何不逊《铁梨花》",
"titleSummary" : "《打狗棍》收视为何不逊《铁梨花》",
"descSummary" : "&gt;&gt;点击查看新浪博客原文青春就应该这样绽放游戏测试：三国时期...",
"url" : "http:\/\/go.rss.sina.com.cn\/redirect.php?url=http:\/\/blog.sina.com.cn\/s\/blog_44844cd80102e6ti.html",
"pubDate" : "2013年10月20日 (1周前)",
"enterDate" : "384083:30:17",
"channelId" : "1411316403337667041",
"channelName" : "八卦-新浪博客",
"channelNameSummary" : "八卦-新浪博客",
"channelUrl" : "http:\/\/blog.sina.com.cn\/",
"author" : "慕容天涯",
"tags" : [],
"desc" : "&gt;&gt;点击查看新浪博客原文青春就应该这样绽放游戏测试：三国时期谁是你最好的兄弟！！你不得不信的星座秘密",
"emailed" : False,
"forwarded" : False,
"english" : False
} ]
}
