{
"mode" : {"viewTitle" : 1,   "viewNew" : 0,  "pageIndex" : 1 },
 "channel" : {"id" : "-7282922922540877878", "booked" : False, "subNumber" : 1, "name" : "彩票新闻-新浪体育", "url" : "http:\/\/2008.sina.com.cn\/lottery\/index.shtml", "feed" : "http:\/\/rss.sina.com.cn\/sports\/global\/lottery.xml", "author" : "WWW.SINA.COM.CN", "desc" : "彩票新闻", "imageUrl" : "http:\/\/www.sinaimg.cn\/ty\/deco\/2010\/0601\/logo_home_sports_nonike2.gif", "postPerWeek" : "0", "lastCrawTime" : "16:54:50", "crawDateTime" : "15:54:45", "lastHttpCode" : "200"}, "page" : {
"startIndex" : 0,
"totalCount" : 5000,
"pageIndex" : 1,
"lastPage" : 250,
"pageSize" : 20,
"english" :  False },
 "unreadNum" : 0, "shotIndex" : -1,
"articles" : [
{
"index" : 0,
"articleIndex" : "27131",
"favor" :  False ,
     "read" : False,    
"title" : "数据提醒:蓝球紧盯大奇",
"titleTip" : "数据提醒:蓝球紧盯大奇",
"titleSummary" : "数据提醒:蓝球紧盯大奇",
"descSummary" : "",
"url" : "http:\/\/go.rss.sina.com.cn\/redirect.php?url=http:\/\/sports.sina.com.cn\/l\/2013-10-30\/12236858348.shtml",
"pubDate" : "12:23:10",
"enterDate" : "384198:18:40",
"channelId" : "-7282922922540877878",
"channelName" : "彩票新闻-新浪体育",
"channelNameSummary" : "彩票新闻-新浪体育",
"channelUrl" : "http:\/\/2008.sina.com.cn\/lottery\/index.shtml",
"author" : "WWW.SINA.COM.CN",
"tags" : [],
"desc" : "",
"emailed" : False,
"forwarded" : False,
"english" : False
}  , {
"index" : 1,
"articleIndex" : "27129",
"favor" :  False ,
     "read" : False,    
"title" : "红球精析:看好尾1出11 21",
"titleTip" : "红球精析:看好尾1出11 21",
"titleSummary" : "红球精析:看好尾1出11 21",
"descSummary" : "",
"url" : "http:\/\/go.rss.sina.com.cn\/redirect.php?url=http:\/\/sports.sina.com.cn\/l\/2013-10-30\/11076858218.shtml",
"pubDate" : "11:07:10",
"enterDate" : "384200:33:15",
"channelId" : "-7282922922540877878",
"channelName" : "彩票新闻-新浪体育",
"channelNameSummary" : "彩票新闻-新浪体育",
"channelUrl" : "http:\/\/2008.sina.com.cn\/lottery\/index.shtml",
"author" : "WWW.SINA.COM.CN",
"tags" : [],
"desc" : "",
"emailed" : False,
"forwarded" : False,
"english" : False
}  , {
"index" : 2,
"articleIndex" : "27128",
"favor" :  False ,
     "read" : False,    
"title" : "NBA篮彩攻略:火箭不宜高估",
"titleTip" : "NBA篮彩攻略:火箭不宜高估",
"titleSummary" : "NBA篮彩攻略:火箭不宜高估",
"descSummary" : "",
"url" : "http:\/\/go.rss.sina.com.cn\/redirect.php?url=http:\/\/sports.sina.com.cn\/l\/2013-10-30\/11036858214.shtml",
"pubDate" : "11:03:10",
"enterDate" : "384200:29:15",
"channelId" : "-7282922922540877878",
"channelName" : "彩票新闻-新浪体育",
"channelNameSummary" : "彩票新闻-新浪体育",
"channelUrl" : "http:\/\/2008.sina.com.cn\/lottery\/index.shtml",
"author" : "WWW.SINA.COM.CN",
"tags" : [],
"desc" : "",
"emailed" : False,
"forwarded" : False,
"english" : False
}  , {
"index" : 3,
"articleIndex" : "27127",
"favor" :  False ,
     "read" : False,    
"title" : "开局习惯性慢热",
"titleTip" : "开局习惯性慢热",
"titleSummary" : "开局习惯性慢热",
"descSummary" : "",
"url" : "http:\/\/go.rss.sina.com.cn\/redirect.php?url=http:\/\/sports.sina.com.cn\/l\/2013-10-30\/11016858206.shtml",
"pubDate" : "11:01:10",
"enterDate" : "384200:27:15",
"channelId" : "-7282922922540877878",
"channelName" : "彩票新闻-新浪体育",
"channelNameSummary" : "彩票新闻-新浪体育",
"channelUrl" : "http:\/\/2008.sina.com.cn\/lottery\/index.shtml",
"author" : "WWW.SINA.COM.CN",
"tags" : [],
"desc" : "",
"emailed" : False,
"forwarded" : False,
"english" : False
}  , {
"index" : 4,
"articleIndex" : "27126",
"favor" :  False ,
     "read" : False,    
"title" : "杀号:偶数杀04 10 20",
"titleTip" : "杀号:偶数杀04 10 20",
"titleSummary" : "杀号:偶数杀04 10 20",
"descSummary" : "",
"url" : "http:\/\/go.rss.sina.com.cn\/redirect.php?url=http:\/\/sports.sina.com.cn\/l\/2013-10-30\/10426858168.shtml",
"pubDate" : "10:42:10",
"enterDate" : "384200:08:15",
"channelId" : "-7282922922540877878",
"channelName" : "彩票新闻-新浪体育",
"channelNameSummary" : "彩票新闻-新浪体育",
"channelUrl" : "http:\/\/2008.sina.com.cn\/lottery\/index.shtml",
"author" : "WWW.SINA.COM.CN",
"tags" : [],
"desc" : "",
"emailed" : False,
"forwarded" : False,
"english" : False
}  , {
"index" : 5,
"articleIndex" : "27123",
"favor" :  False ,
     "read" : False,    
"title" : "周六彩澳盘",
"titleTip" : "周六彩澳盘",
"titleSummary" : "周六彩澳盘",
"descSummary" : "",
"url" : "http:\/\/go.rss.sina.com.cn\/redirect.php?url=http:\/\/sports.sina.com.cn\/l\/2013-10-30\/10236858123.shtml",
"pubDate" : "10:23:10",
"enterDate" : "384200:49:25",
"channelId" : "-7282922922540877878",
"channelName" : "彩票新闻-新浪体育",
"channelNameSummary" : "彩票新闻-新浪体育",
"channelUrl" : "http:\/\/2008.sina.com.cn\/lottery\/index.shtml",
"author" : "WWW.SINA.COM.CN",
"tags" : [],
"desc" : "",
"emailed" : False,
"forwarded" : False,
"english" : False
}  , {
"index" : 6,
"articleIndex" : "27133",
"favor" :  False ,
     "read" : False,    
"title" : "男子守号3年期期不落中904万",
"titleTip" : "男子守号3年期期不落中904万",
"titleSummary" : "男子守号3年期期不落中904万",
"descSummary" : "",
"url" : "http:\/\/go.rss.sina.com.cn\/redirect.php?url=http:\/\/sports.sina.com.cn\/l\/2013-10-30\/10106858099.shtml",
"pubDate" : "10:10:10",
"enterDate" : "384195:35:35",
"channelId" : "-7282922922540877878",
"channelName" : "彩票新闻-新浪体育",
"channelNameSummary" : "彩票新闻-新浪体育",
"channelUrl" : "http:\/\/2008.sina.com.cn\/lottery\/index.shtml",
"author" : "WWW.SINA.COM.CN",
"tags" : [],
"desc" : "",
"emailed" : False,
"forwarded" : False,
"english" : False
}  , {
"index" : 7,
"articleIndex" : "27132",
"favor" :  False ,
     "read" : False,    
"title" : "丈夫揽500万谢妻子支持",
"titleTip" : "丈夫揽500万谢妻子支持",
"titleSummary" : "丈夫揽500万谢妻子支持",
"descSummary" : "",
"url" : "http:\/\/go.rss.sina.com.cn\/redirect.php?url=http:\/\/sports.sina.com.cn\/l\/2013-10-30\/10006858042.shtml",
"pubDate" : "10:00:10",
"enterDate" : "384195:25:35",
"channelId" : "-7282922922540877878",
"channelName" : "彩票新闻-新浪体育",
"channelNameSummary" : "彩票新闻-新浪体育",
"channelUrl" : "http:\/\/2008.sina.com.cn\/lottery\/index.shtml",
"author" : "WWW.SINA.COM.CN",
"tags" : [],
"desc" : "",
"emailed" : False,
"forwarded" : False,
"english" : False
}  , {
"index" : 8,
"articleIndex" : "27125",
"favor" :  False ,
     "read" : False,    
"title" : "詹天佑:凤尾看好29 31",
"titleTip" : "詹天佑:凤尾看好29 31",
"titleSummary" : "詹天佑:凤尾看好29 31",
"descSummary" : "",
"url" : "http:\/\/go.rss.sina.com.cn\/redirect.php?url=http:\/\/sports.sina.com.cn\/l\/2013-10-30\/09466857998.shtml",
"pubDate" : "09:46:10",
"enterDate" : "384199:12:15",
"channelId" : "-7282922922540877878",
"channelName" : "彩票新闻-新浪体育",
"channelNameSummary" : "彩票新闻-新浪体育",
"channelUrl" : "http:\/\/2008.sina.com.cn\/lottery\/index.shtml",
"author" : "WWW.SINA.COM.CN",
"tags" : [],
"desc" : "",
"emailed" : False,
"forwarded" : False,
"english" : False
}  , {
"index" : 9,
"articleIndex" : "27124",
"favor" :  False ,
     "read" : False,    
"title" : "彩民周刊:奇数余热未消",
"titleTip" : "彩民周刊:奇数余热未消",
"titleSummary" : "彩民周刊:奇数余热未消",
"descSummary" : "",
"url" : "http:\/\/go.rss.sina.com.cn\/redirect.php?url=http:\/\/sports.sina.com.cn\/l\/2013-10-30\/09296857941.shtml",
"pubDate" : "09:29:10",
"enterDate" : "384198:55:15",
"channelId" : "-7282922922540877878",
"channelName" : "彩票新闻-新浪体育",
"channelNameSummary" : "彩票新闻-新浪体育",
"channelUrl" : "http:\/\/2008.sina.com.cn\/lottery\/index.shtml",
"author" : "WWW.SINA.COM.CN",
"tags" : [],
"desc" : "",
"emailed" : False,
"forwarded" : False,
"english" : False
}  , {
"index" : 10,
"articleIndex" : "27121",
"favor" :  False ,
     "read" : False,    
"title" : "大势：狂胜开启新赛季",
"titleTip" : "大势：狂胜开启新赛季",
"titleSummary" : "大势：狂胜开启新赛季",
"descSummary" : "",
"url" : "http:\/\/go.rss.sina.com.cn\/redirect.php?url=http:\/\/sports.sina.com.cn\/l\/2013-10-30\/09256857932.shtml",
"pubDate" : "09:25:10",
"enterDate" : "384198:51:15",
"channelId" : "-7282922922540877878",
"channelName" : "彩票新闻-新浪体育",
"channelNameSummary" : "彩票新闻-新浪体育",
"channelUrl" : "http:\/\/2008.sina.com.cn\/lottery\/index.shtml",
"author" : "WWW.SINA.COM.CN",
"tags" : [],
"desc" : "",
"emailed" : False,
"forwarded" : False,
"english" : False
}  , {
"index" : 11,
"articleIndex" : "27120",
"favor" :  False ,
     "read" : False,    
"title" : "男子8元中1000万彻夜无眠",
"titleTip" : "男子8元中1000万彻夜无眠",
"titleSummary" : "男子8元中1000万彻夜无眠",
"descSummary" : "",
"url" : "http:\/\/go.rss.sina.com.cn\/redirect.php?url=http:\/\/sports.sina.com.cn\/l\/2013-10-30\/08426857798.shtml",
"pubDate" : "08:42:10",
"enterDate" : "384200:38:40",
"channelId" : "-7282922922540877878",
"channelName" : "彩票新闻-新浪体育",
"channelNameSummary" : "彩票新闻-新浪体育",
"channelUrl" : "http:\/\/2008.sina.com.cn\/lottery\/index.shtml",
"author" : "WWW.SINA.COM.CN",
"tags" : [],
"desc" : "",
"emailed" : False,
"forwarded" : False,
"english" : False
}  , {
"index" : 12,
"articleIndex" : "27117",
"favor" :  False ,
     "read" : False,    
"title" : "男子买彩10年中800元犯精神病 菜刀猛砍妻",
"titleTip" : "男子买彩10年中800元犯精神病 菜刀猛砍妻",
"titleSummary" : "男子买彩10年中800元犯精神病 菜刀猛砍妻",
"descSummary" : "",
"url" : "http:\/\/go.rss.sina.com.cn\/redirect.php?url=http:\/\/sports.sina.com.cn\/l\/2013-10-30\/08086857692.shtml",
"pubDate" : "08:08:10",
"enterDate" : "384200:34:45",
"channelId" : "-7282922922540877878",
"channelName" : "彩票新闻-新浪体育",
"channelNameSummary" : "彩票新闻-新浪体育",
"channelUrl" : "http:\/\/2008.sina.com.cn\/lottery\/index.shtml",
"author" : "WWW.SINA.COM.CN",
"tags" : [],
"desc" : "",
"emailed" : False,
"forwarded" : False,
"english" : False
}  , {
"index" : 13,
"articleIndex" : "27119",
"favor" :  False ,
     "read" : False,    
"title" : "销售员打错票助彩民揽2791万",
"titleTip" : "销售员打错票助彩民揽2791万",
"titleSummary" : "销售员打错票助彩民揽2791万",
"descSummary" : "",
"url" : "http:\/\/go.rss.sina.com.cn\/redirect.php?url=http:\/\/sports.sina.com.cn\/l\/2013-10-30\/07496857664.shtml",
"pubDate" : "07:49:10",
"enterDate" : "384199:45:40",
"channelId" : "-7282922922540877878",
"channelName" : "彩票新闻-新浪体育",
"channelNameSummary" : "彩票新闻-新浪体育",
"channelUrl" : "http:\/\/2008.sina.com.cn\/lottery\/index.shtml",
"author" : "WWW.SINA.COM.CN",
"tags" : [],
"desc" : "",
"emailed" : False,
"forwarded" : False,
"english" : False
}  , {
"index" : 14,
"articleIndex" : "27118",
"favor" :  False ,
     "read" : False,    
"title" : "胜负彩13151期:国米平局巴萨大胜 销量2589万",
"titleTip" : "胜负彩13151期:国米平局巴萨大胜 销量2589万",
"titleSummary" : "胜负彩13151期:国米平局巴萨大胜 销量2589万",
"descSummary" : "",
"url" : "http:\/\/go.rss.sina.com.cn\/redirect.php?url=http:\/\/sports.sina.com.cn\/l\/2013-10-30\/07456857661.shtml",
"pubDate" : "07:45:10",
"enterDate" : "384194:10:44",
"channelId" : "-7282922922540877878",
"channelName" : "彩票新闻-新浪体育",
"channelNameSummary" : "彩票新闻-新浪体育",
"channelUrl" : "http:\/\/2008.sina.com.cn\/lottery\/index.shtml",
"author" : "WWW.SINA.COM.CN",
"tags" : [],
"desc" : "",
"emailed" : False,
"forwarded" : False,
"english" : False
}  , {
"index" : 15,
"articleIndex" : "27116",
"favor" :  False ,
     "read" : False,    
"title" : "攻略：同尾数热势逼人",
"titleTip" : "攻略：同尾数热势逼人",
"titleSummary" : "攻略：同尾数热势逼人",
"descSummary" : "",
"url" : "http:\/\/go.rss.sina.com.cn\/redirect.php?url=http:\/\/sports.sina.com.cn\/l\/2013-10-29\/23176857218.shtml",
"pubDate" : "昨天23:17:10",
"enterDate" : "384186:12:49",
"channelId" : "-7282922922540877878",
"channelName" : "彩票新闻-新浪体育",
"channelNameSummary" : "彩票新闻-新浪体育",
"channelUrl" : "http:\/\/2008.sina.com.cn\/lottery\/index.shtml",
"author" : "WWW.SINA.COM.CN",
"tags" : [],
"desc" : "",
"emailed" : False,
"forwarded" : False,
"english" : False
}  , {
"index" : 16,
"articleIndex" : "27115",
"favor" :  False ,
     "read" : False,    
"title" : "详细开奖：湖北揽39注二等奖",
"titleTip" : "详细开奖：湖北揽39注二等奖",
"titleSummary" : "详细开奖：湖北揽39注二等奖",
"descSummary" : "",
"url" : "http:\/\/go.rss.sina.com.cn\/redirect.php?url=http:\/\/sports.sina.com.cn\/l\/2013-10-29\/23006857223.shtml",
"pubDate" : "昨天23:00:10",
"enterDate" : "384200:28:34",
"channelId" : "-7282922922540877878",
"channelName" : "彩票新闻-新浪体育",
"channelNameSummary" : "彩票新闻-新浪体育",
"channelUrl" : "http:\/\/2008.sina.com.cn\/lottery\/index.shtml",
"author" : "WWW.SINA.COM.CN",
"tags" : [],
"desc" : "",
"emailed" : False,
"forwarded" : False,
"english" : False
}  , {
"index" : 17,
"articleIndex" : "27122",
"favor" :  False ,
     "read" : False,    
"title" : "四大欧赔",
"titleTip" : "四大欧赔",
"titleSummary" : "四大欧赔",
"descSummary" : "",
"url" : "http:\/\/go.rss.sina.com.cn\/redirect.php?url=http:\/\/sports.sina.com.cn\/l\/2013-10-29\/13586856821.shtml",
"pubDate" : "昨天13:58:10",
"enterDate" : "384180:24:25",
"channelId" : "-7282922922540877878",
"channelName" : "彩票新闻-新浪体育",
"channelNameSummary" : "彩票新闻-新浪体育",
"channelUrl" : "http:\/\/2008.sina.com.cn\/lottery\/index.shtml",
"author" : "WWW.SINA.COM.CN",
"tags" : [],
"desc" : "",
"emailed" : False,
"forwarded" : False,
"english" : False
}  , {
"index" : 18,
"articleIndex" : "27114",
"favor" :  False ,
     "read" : False,    
"title" : "下期攻略：大号有望热出",
"titleTip" : "下期攻略：大号有望热出",
"titleSummary" : "下期攻略：大号有望热出",
"descSummary" : "",
"url" : "http:\/\/go.rss.sina.com.cn\/redirect.php?url=http:\/\/sports.sina.com.cn\/l\/2013-10-28\/21516855698.shtml",
"pubDate" : "前天21:51:10",
"enterDate" : "384175:19:34",
"channelId" : "-7282922922540877878",
"channelName" : "彩票新闻-新浪体育",
"channelNameSummary" : "彩票新闻-新浪体育",
"channelUrl" : "http:\/\/2008.sina.com.cn\/lottery\/index.shtml",
"author" : "WWW.SINA.COM.CN",
"tags" : [],
"desc" : "",
"emailed" : False,
"forwarded" : False,
"english" : False
}  , {
"index" : 19,
"articleIndex" : "27130",
"favor" :  False ,
     "read" : False,    
"title" : "双色球3亿派奖将于13125期正式开始",
"titleTip" : "双色球3亿派奖将于13125期正式开始",
"titleSummary" : "双色球3亿派奖将于13125期正式开始",
"descSummary" : "",
"url" : "http:\/\/go.rss.sina.com.cn\/redirect.php?url=http:\/\/sports.sina.com.cn\/l\/2013-10-21\/09226841474.shtml",
"pubDate" : "2013年10月21日 (1周前)",
"enterDate" : "383982:18:10",
"channelId" : "-7282922922540877878",
"channelName" : "彩票新闻-新浪体育",
"channelNameSummary" : "彩票新闻-新浪体育",
"channelUrl" : "http:\/\/2008.sina.com.cn\/lottery\/index.shtml",
"author" : "WWW.SINA.COM.CN",
"tags" : [],
"desc" : "",
"emailed" : False,
"forwarded" : False,
"english" : False
} ]
}
