{
"mode" : {"viewTitle" : 1,   "viewNew" : 0,  "pageIndex" : 2 },
 "channel" : {"id" : "-7282922922540877878", "booked" : False, "subNumber" : 1, "name" : "彩票新闻-新浪体育", "url" : "http:\/\/2008.sina.com.cn\/lottery\/index.shtml", "feed" : "http:\/\/rss.sina.com.cn\/sports\/global\/lottery.xml", "author" : "WWW.SINA.COM.CN", "desc" : "彩票新闻", "imageUrl" : "http:\/\/www.sinaimg.cn\/ty\/deco\/2010\/0601\/logo_home_sports_nonike2.gif", "postPerWeek" : "0", "lastCrawTime" : "16:54:50", "crawDateTime" : "15:54:45", "lastHttpCode" : "200"}, "page" : {
"startIndex" : 20,
"totalCount" : 5000,
"pageIndex" : 2,
"lastPage" : 250,
"pageSize" : 20,
"english" :  False },
 "unreadNum" : 0, "shotIndex" : -1,
"articles" : [
{
"index" : 0,
"articleIndex" : "27113",
"favor" :  False ,
     "read" : False,    
"title" : "电视转播表",
"titleTip" : "电视转播表",
"titleSummary" : "电视转播表",
"descSummary" : "",
"url" : "http:\/\/go.rss.sina.com.cn\/redirect.php?url=http:\/\/sports.sina.com.cn\/l\/2013-10-29\/15366856909.shtml",
"pubDate" : "昨天15:36:10",
"enterDate" : "384200:51:05",
"channelId" : "-7282922922540877878",
"channelName" : "彩票新闻-新浪体育",
"channelNameSummary" : "彩票新闻-新浪体育",
"channelUrl" : "http:\/\/2008.sina.com.cn\/lottery\/index.shtml",
"author" : "WWW.SINA.COM.CN",
"tags" : [],
"desc" : "",
"emailed" : False,
"forwarded" : False,
"english" : False
}  , {
"index" : 1,
"articleIndex" : "27112",
"favor" :  False ,
     "read" : False,    
"title" : "必发:紫百合主场有难",
"titleTip" : "必发:紫百合主场有难",
"titleSummary" : "必发:紫百合主场有难",
"descSummary" : "",
"url" : "http:\/\/go.rss.sina.com.cn\/redirect.php?url=http:\/\/sports.sina.com.cn\/l\/2013-10-29\/15166856872.shtml",
"pubDate" : "昨天15:16:10",
"enterDate" : "384200:31:05",
"channelId" : "-7282922922540877878",
"channelName" : "彩票新闻-新浪体育",
"channelNameSummary" : "彩票新闻-新浪体育",
"channelUrl" : "http:\/\/2008.sina.com.cn\/lottery\/index.shtml",
"author" : "WWW.SINA.COM.CN",
"tags" : [],
"desc" : "",
"emailed" : False,
"forwarded" : False,
"english" : False
}  , {
"index" : 2,
"articleIndex" : "27111",
"favor" :  False ,
     "read" : False,    
"title" : "陆慧明:博胆紫百合主场 乌鸡盘热或遭连败",
"titleTip" : "陆慧明:博胆紫百合主场 乌鸡盘热或遭连败",
"titleSummary" : "陆慧明:博胆紫百合主场 乌鸡盘热或遭连败",
"descSummary" : "",
"url" : "http:\/\/go.rss.sina.com.cn\/redirect.php?url=http:\/\/sports.sina.com.cn\/l\/2013-10-29\/12116856687.shtml",
"pubDate" : "昨天12:11:10",
"enterDate" : "384200:56:40",
"channelId" : "-7282922922540877878",
"channelName" : "彩票新闻-新浪体育",
"channelNameSummary" : "彩票新闻-新浪体育",
"channelUrl" : "http:\/\/2008.sina.com.cn\/lottery\/index.shtml",
"author" : "WWW.SINA.COM.CN",
"tags" : [],
"desc" : "",
"emailed" : False,
"forwarded" : False,
"english" : False
}  , {
"index" : 3,
"articleIndex" : "27110",
"favor" :  False ,
     "read" : False,    
"title" : "胜负彩151期复式总汇",
"titleTip" : "胜负彩151期复式总汇",
"titleSummary" : "胜负彩151期复式总汇",
"descSummary" : "",
"url" : "http:\/\/go.rss.sina.com.cn\/redirect.php?url=http:\/\/sports.sina.com.cn\/l\/2013-10-29\/11386856633.shtml",
"pubDate" : "昨天11:38:10",
"enterDate" : "384200:23:40",
"channelId" : "-7282922922540877878",
"channelName" : "彩票新闻-新浪体育",
"channelNameSummary" : "彩票新闻-新浪体育",
"channelUrl" : "http:\/\/2008.sina.com.cn\/lottery\/index.shtml",
"author" : "WWW.SINA.COM.CN",
"tags" : [],
"desc" : "",
"emailed" : False,
"forwarded" : False,
"english" : False
}  , {
"index" : 4,
"articleIndex" : "27107",
"favor" :  False ,
     "read" : False,    
"title" : "男子中528万先斗地主再领奖",
"titleTip" : "男子中528万先斗地主再领奖",
"titleSummary" : "男子中528万先斗地主再领奖",
"descSummary" : "",
"url" : "http:\/\/go.rss.sina.com.cn\/redirect.php?url=http:\/\/sports.sina.com.cn\/l\/2013-10-29\/10506856568.shtml",
"pubDate" : "昨天10:50:10",
"enterDate" : "384200:35:50",
"channelId" : "-7282922922540877878",
"channelName" : "彩票新闻-新浪体育",
"channelNameSummary" : "彩票新闻-新浪体育",
"channelUrl" : "http:\/\/2008.sina.com.cn\/lottery\/index.shtml",
"author" : "WWW.SINA.COM.CN",
"tags" : [],
"desc" : "",
"emailed" : False,
"forwarded" : False,
"english" : False
}  , {
"index" : 5,
"articleIndex" : "27109",
"favor" :  False ,
     "read" : False,    
"title" : "佬牛:紫百合不惧那不勒",
"titleTip" : "佬牛:紫百合不惧那不勒",
"titleSummary" : "佬牛:紫百合不惧那不勒",
"descSummary" : "",
"url" : "http:\/\/go.rss.sina.com.cn\/redirect.php?url=http:\/\/sports.sina.com.cn\/l\/2013-10-29\/10396856539.shtml",
"pubDate" : "昨天10:39:10",
"enterDate" : "384199:54:45",
"channelId" : "-7282922922540877878",
"channelName" : "彩票新闻-新浪体育",
"channelNameSummary" : "彩票新闻-新浪体育",
"channelUrl" : "http:\/\/2008.sina.com.cn\/lottery\/index.shtml",
"author" : "WWW.SINA.COM.CN",
"tags" : [],
"desc" : "",
"emailed" : False,
"forwarded" : False,
"english" : False
}  , {
"index" : 6,
"articleIndex" : "27105",
"favor" :  False ,
     "read" : False,    
"title" : "东部",
"titleTip" : "东部",
"titleSummary" : "东部",
"descSummary" : "",
"url" : "http:\/\/go.rss.sina.com.cn\/redirect.php?url=http:\/\/sports.sina.com.cn\/l\/2013-10-29\/10246856490.shtml",
"pubDate" : "昨天10:24:10",
"enterDate" : "384175:50:15",
"channelId" : "-7282922922540877878",
"channelName" : "彩票新闻-新浪体育",
"channelNameSummary" : "彩票新闻-新浪体育",
"channelUrl" : "http:\/\/2008.sina.com.cn\/lottery\/index.shtml",
"author" : "WWW.SINA.COM.CN",
"tags" : [],
"desc" : "",
"emailed" : False,
"forwarded" : False,
"english" : False
}  , {
"index" : 7,
"articleIndex" : "27104",
"favor" :  False ,
     "read" : False,    
"title" : "西部",
"titleTip" : "西部",
"titleSummary" : "西部",
"descSummary" : "",
"url" : "http:\/\/go.rss.sina.com.cn\/redirect.php?url=http:\/\/sports.sina.com.cn\/l\/2013-10-29\/10226856488.shtml",
"pubDate" : "昨天10:22:10",
"enterDate" : "384201:08:00",
"channelId" : "-7282922922540877878",
"channelName" : "彩票新闻-新浪体育",
"channelNameSummary" : "彩票新闻-新浪体育",
"channelUrl" : "http:\/\/2008.sina.com.cn\/lottery\/index.shtml",
"author" : "WWW.SINA.COM.CN",
"tags" : [],
"desc" : "",
"emailed" : False,
"forwarded" : False,
"english" : False
}  , {
"index" : 8,
"articleIndex" : "27108",
"favor" :  False ,
     "read" : False,    
"title" : "欧亚比",
"titleTip" : "欧亚比",
"titleSummary" : "欧亚比",
"descSummary" : "",
"url" : "http:\/\/go.rss.sina.com.cn\/redirect.php?url=http:\/\/sports.sina.com.cn\/l\/2013-10-29\/10226856489.shtml",
"pubDate" : "昨天10:22:10",
"enterDate" : "384199:37:45",
"channelId" : "-7282922922540877878",
"channelName" : "彩票新闻-新浪体育",
"channelNameSummary" : "彩票新闻-新浪体育",
"channelUrl" : "http:\/\/2008.sina.com.cn\/lottery\/index.shtml",
"author" : "WWW.SINA.COM.CN",
"tags" : [],
"desc" : "",
"emailed" : False,
"forwarded" : False,
"english" : False
}  , {
"index" : 9,
"articleIndex" : "27103",
"favor" :  False ,
     "read" : False,    
"title" : "夺冠:热火绝对优势",
"titleTip" : "夺冠:热火绝对优势",
"titleSummary" : "夺冠:热火绝对优势",
"descSummary" : "",
"url" : "http:\/\/go.rss.sina.com.cn\/redirect.php?url=http:\/\/sports.sina.com.cn\/l\/2013-10-29\/10196856473.shtml",
"pubDate" : "昨天10:19:10",
"enterDate" : "384175:45:15",
"channelId" : "-7282922922540877878",
"channelName" : "彩票新闻-新浪体育",
"channelNameSummary" : "彩票新闻-新浪体育",
"channelUrl" : "http:\/\/2008.sina.com.cn\/lottery\/index.shtml",
"author" : "WWW.SINA.COM.CN",
"tags" : [],
"desc" : "",
"emailed" : False,
"forwarded" : False,
"english" : False
}  , {
"index" : 10,
"articleIndex" : "27101",
"favor" :  False ,
     "read" : False,    
"title" : "NBA开售！湖人战快船",
"titleTip" : "NBA开售！湖人战快船",
"titleSummary" : "NBA开售！湖人战快船",
"descSummary" : "",
"url" : "http:\/\/go.rss.sina.com.cn\/redirect.php?url=http:\/\/sports.sina.com.cn\/l\/2013-10-29\/09396856405.shtml",
"pubDate" : "昨天09:39:10",
"enterDate" : "384179:05:55",
"channelId" : "-7282922922540877878",
"channelName" : "彩票新闻-新浪体育",
"channelNameSummary" : "彩票新闻-新浪体育",
"channelUrl" : "http:\/\/2008.sina.com.cn\/lottery\/index.shtml",
"author" : "WWW.SINA.COM.CN",
"tags" : [],
"desc" : "",
"emailed" : False,
"forwarded" : False,
"english" : False
}  , {
"index" : 11,
"articleIndex" : "27100",
"favor" :  False ,
     "read" : False,    
"title" : "MVP赔率:科比第9",
"titleTip" : "MVP赔率:科比第9",
"titleSummary" : "MVP赔率:科比第9",
"descSummary" : "",
"url" : "http:\/\/go.rss.sina.com.cn\/redirect.php?url=http:\/\/sports.sina.com.cn\/l\/2013-10-29\/09196856350.shtml",
"pubDate" : "昨天09:19:10",
"enterDate" : "384177:15:40",
"channelId" : "-7282922922540877878",
"channelName" : "彩票新闻-新浪体育",
"channelNameSummary" : "彩票新闻-新浪体育",
"channelUrl" : "http:\/\/2008.sina.com.cn\/lottery\/index.shtml",
"author" : "WWW.SINA.COM.CN",
"tags" : [],
"desc" : "",
"emailed" : False,
"forwarded" : False,
"english" : False
}  , {
"index" : 12,
"articleIndex" : "27106",
"favor" :  False ,
     "read" : False,    
"title" : "中500万遭调侃:不够买房",
"titleTip" : "中500万遭调侃:不够买房",
"titleSummary" : "中500万遭调侃:不够买房",
"descSummary" : "",
"url" : "http:\/\/go.rss.sina.com.cn\/redirect.php?url=http:\/\/sports.sina.com.cn\/l\/2013-10-29\/09076856320.shtml",
"pubDate" : "昨天09:07:10",
"enterDate" : "384177:33:45",
"channelId" : "-7282922922540877878",
"channelName" : "彩票新闻-新浪体育",
"channelNameSummary" : "彩票新闻-新浪体育",
"channelUrl" : "http:\/\/2008.sina.com.cn\/lottery\/index.shtml",
"author" : "WWW.SINA.COM.CN",
"tags" : [],
"desc" : "",
"emailed" : False,
"forwarded" : False,
"english" : False
}  , {
"index" : 13,
"articleIndex" : "27102",
"favor" :  False ,
     "read" : False,    
"title" : "田伟:巴伦西亚扭颓势",
"titleTip" : "田伟:巴伦西亚扭颓势",
"titleSummary" : "田伟:巴伦西亚扭颓势",
"descSummary" : "",
"url" : "http:\/\/go.rss.sina.com.cn\/redirect.php?url=http:\/\/sports.sina.com.cn\/l\/2013-10-29\/08266856231.shtml",
"pubDate" : "昨天08:26:10",
"enterDate" : "384197:41:45",
"channelId" : "-7282922922540877878",
"channelName" : "彩票新闻-新浪体育",
"channelNameSummary" : "彩票新闻-新浪体育",
"channelUrl" : "http:\/\/2008.sina.com.cn\/lottery\/index.shtml",
"author" : "WWW.SINA.COM.CN",
"tags" : [],
"desc" : "",
"emailed" : False,
"forwarded" : False,
"english" : False
}  , {
"index" : 14,
"articleIndex" : "27099",
"favor" :  False ,
     "read" : False,    
"title" : "男子中611万隔2月再擒1223万",
"titleTip" : "男子中611万隔2月再擒1223万",
"titleSummary" : "男子中611万隔2月再擒1223万",
"descSummary" : "",
"url" : "http:\/\/go.rss.sina.com.cn\/redirect.php?url=http:\/\/sports.sina.com.cn\/l\/2013-10-29\/07586856110.shtml",
"pubDate" : "昨天07:58:10",
"enterDate" : "384197:43:50",
"channelId" : "-7282922922540877878",
"channelName" : "彩票新闻-新浪体育",
"channelNameSummary" : "彩票新闻-新浪体育",
"channelUrl" : "http:\/\/2008.sina.com.cn\/lottery\/index.shtml",
"author" : "WWW.SINA.COM.CN",
"tags" : [],
"desc" : "",
"emailed" : False,
"forwarded" : False,
"english" : False
}  , {
"index" : 15,
"articleIndex" : "27097",
"favor" :  False ,
     "read" : False,    
"title" : "大乐透3注716万",
"titleTip" : "大乐透3注716万",
"titleSummary" : "大乐透3注716万",
"descSummary" : "",
"url" : "http:\/\/go.rss.sina.com.cn\/redirect.php?url=http:\/\/sports.sina.com.cn\/l\/2013-10-28\/21146855677.shtml",
"pubDate" : "前天21:14:10",
"enterDate" : "384200:02:17",
"channelId" : "-7282922922540877878",
"channelName" : "彩票新闻-新浪体育",
"channelNameSummary" : "彩票新闻-新浪体育",
"channelUrl" : "http:\/\/2008.sina.com.cn\/lottery\/index.shtml",
"author" : "WWW.SINA.COM.CN",
"tags" : [],
"desc" : "",
"emailed" : False,
"forwarded" : False,
"english" : False
}  , {
"index" : 16,
"articleIndex" : "27095",
"favor" :  False ,
     "read" : False,    
"title" : "双色球第13127期数据提醒：连号已经4期未开",
"titleTip" : "双色球第13127期数据提醒：连号已经4期未开",
"titleSummary" : "双色球第13127期数据提醒：连号已经4期未开",
"descSummary" : "",
"url" : "http:\/\/go.rss.sina.com.cn\/redirect.php?url=http:\/\/sports.sina.com.cn\/l\/2013-10-28\/14166855241.shtml",
"pubDate" : "前天14:16:10",
"enterDate" : "384199:50:30",
"channelId" : "-7282922922540877878",
"channelName" : "彩票新闻-新浪体育",
"channelNameSummary" : "彩票新闻-新浪体育",
"channelUrl" : "http:\/\/2008.sina.com.cn\/lottery\/index.shtml",
"author" : "WWW.SINA.COM.CN",
"tags" : [],
"desc" : "",
"emailed" : False,
"forwarded" : False,
"english" : False
}  , {
"index" : 17,
"articleIndex" : "27094",
"favor" :  False ,
     "read" : False,    
"title" : "徐阳:皇马巴萨取胜 瓦伦西反弹",
"titleTip" : "徐阳:皇马巴萨取胜 瓦伦西反弹",
"titleSummary" : "徐阳:皇马巴萨取胜 瓦伦西反弹",
"descSummary" : "",
"url" : "http:\/\/go.rss.sina.com.cn\/redirect.php?url=http:\/\/sports.sina.com.cn\/l\/2013-10-28\/14026855216.shtml",
"pubDate" : "前天14:02:10",
"enterDate" : "384175:17:05",
"channelId" : "-7282922922540877878",
"channelName" : "彩票新闻-新浪体育",
"channelNameSummary" : "彩票新闻-新浪体育",
"channelUrl" : "http:\/\/2008.sina.com.cn\/lottery\/index.shtml",
"author" : "WWW.SINA.COM.CN",
"tags" : [],
"desc" : "",
"emailed" : False,
"forwarded" : False,
"english" : False
}  , {
"index" : 18,
"articleIndex" : "27098",
"favor" :  False ,
     "read" : False,    
"title" : "投注比",
"titleTip" : "投注比",
"titleSummary" : "投注比",
"descSummary" : "",
"url" : "http:\/\/go.rss.sina.com.cn\/redirect.php?url=http:\/\/sports.sina.com.cn\/l\/2013-10-28\/09366854643.shtml",
"pubDate" : "前天09:36:10",
"enterDate" : "384187:24:10",
"channelId" : "-7282922922540877878",
"channelName" : "彩票新闻-新浪体育",
"channelNameSummary" : "彩票新闻-新浪体育",
"channelUrl" : "http:\/\/2008.sina.com.cn\/lottery\/index.shtml",
"author" : "WWW.SINA.COM.CN",
"tags" : [],
"desc" : "",
"emailed" : False,
"forwarded" : False,
"english" : False
}  , {
"index" : 19,
"articleIndex" : "27096",
"favor" :  False ,
     "read" : False,    
"title" : "头奖5注1200万销量创今年新高",
"titleTip" : "头奖5注1200万销量创今年新高",
"titleSummary" : "头奖5注1200万销量创今年新高",
"descSummary" : "",
"url" : "http:\/\/go.rss.sina.com.cn\/redirect.php?url=http:\/\/sports.sina.com.cn\/l\/2013-10-27\/21386853629.shtml",
"pubDate" : "2013年10月27日 (3天前)",
"enterDate" : "384176:26:17",
"channelId" : "-7282922922540877878",
"channelName" : "彩票新闻-新浪体育",
"channelNameSummary" : "彩票新闻-新浪体育",
"channelUrl" : "http:\/\/2008.sina.com.cn\/lottery\/index.shtml",
"author" : "WWW.SINA.COM.CN",
"tags" : [],
"desc" : "",
"emailed" : False,
"forwarded" : False,
"english" : False
} ]
}
