{
"mode" : {"viewTitle" : 1,   "viewNew" : 0,  "pageIndex" : 1 },
 "channel" : {"id" : "-1590361397877572806", "booked" : False, "subNumber" : 1, "name" : "股市要闻汇总-新浪财经", "url" : "http:\/\/news.sina.com.cn\/news1000\/index.shtml?requestOrder=8", "feed" : "http:\/\/rss.sina.com.cn\/roll\/stock\/hot_roll.xml", "author" : "WWW.SINA.COM.CN", "desc" : "股市要闻汇总", "imageUrl" : "http:\/\/i1.sinaimg.cn\/cj\/pic\/newLogo\/logo_home_fin.gif", "postPerWeek" : "0", "lastCrawTime" : "17:05:05", "crawDateTime" : "17:05:05", "lastHttpCode" : "200"}, "page" : {
"startIndex" : 0,
"totalCount" : 5000,
"pageIndex" : 1,
"lastPage" : 250,
"pageSize" : 20,
"english" :  False },
 "unreadNum" : 0, "shotIndex" : -1,
"articles" : [
{
"index" : 0,
"articleIndex" : "92934",
"favor" :  False ,
     "read" : False,    
"title" : "交行第三季业绩净利润按季跌18.9%",
"titleTip" : "交行第三季业绩净利润按季跌18.9%",
"titleSummary" : "交行第三季业绩净利润按季跌18.9%",
"descSummary" : "新浪财经讯 10月30日消息，据财华社报道，交行公布第三季业绩，期...",
"url" : "http:\/\/go.rss.sina.com.cn\/redirect.php?url=http:\/\/finance.sina.com.cn\/stock\/hkstock\/ggscyd\/20131030\/165717167673.shtml",
"pubDate" : "16:57:01",
"enterDate" : "384201:11:11",
"channelId" : "-1590361397877572806",
"channelName" : "股市要闻汇总-新浪财经",
"channelNameSummary" : "股市要闻汇总-新浪财...",
"channelUrl" : "http:\/\/news.sina.com.cn\/news1000\/index.shtml?requestOrder=8",
"author" : "WWW.SINA.COM.CN",
"tags" : [],
"desc" : "新浪财经讯 10月30日消息，据财华社报道，交行公布第三季业绩，期内净利润按季跌18.9%达138.79亿元；其中利息收入按季跌1%达326.27亿元。净息差为2.36厘跌10个基点，核心资本充足率按季下降0.42个百分点至10.78%。(自然)",
"emailed" : False,
"forwarded" : False,
"english" : False
}  , {
"index" : 1,
"articleIndex" : "92933",
"favor" :  False ,
     "read" : False,    
"title" : "中国南车：负因素消除 高铁装备迎第二春",
"titleTip" : "中国南车：负因素消除 高铁装备迎第二春",
"titleSummary" : "中国南车：负因素消除 高铁装备迎第二春",
"descSummary" : "平安证券 事项： 中国南车今年1-9月实现营业收入565.2亿元，...",
"url" : "http:\/\/go.rss.sina.com.cn\/redirect.php?url=http:\/\/finance.sina.com.cn\/stock\/e\/20131030\/165617167674.shtml",
"pubDate" : "16:56:52",
"enterDate" : "384201:11:02",
"channelId" : "-1590361397877572806",
"channelName" : "股市要闻汇总-新浪财经",
"channelNameSummary" : "股市要闻汇总-新浪财...",
"channelUrl" : "http:\/\/news.sina.com.cn\/news1000\/index.shtml?requestOrder=8",
"author" : "WWW.SINA.COM.CN",
"tags" : [],
"desc" : "平安证券 事项： 中国南车今年1-9月实现营业收入565.2亿元，同比下降11.02%；归属上市公司股东净利润为25.1亿元，同比下降11.99%。每股收益0.18元。 平安观点： 度过最难关踏上金光大道。 除机车外，前三季度南车的主要产品全线下滑：客车....",
"emailed" : False,
"forwarded" : False,
"english" : False
}  , {
"index" : 2,
"articleIndex" : "92932",
"favor" :  False ,
     "read" : False,    
"title" : "任天堂上半财年营业亏损2.37亿美元",
"titleTip" : "任天堂上半财年营业亏损2.37亿美元",
"titleSummary" : "任天堂上半财年营业亏损2.37亿美元",
"descSummary" : "新浪财经讯 北京时间10月30日下午消息 世界最大电子游戏公司任天堂...",
"url" : "http:\/\/go.rss.sina.com.cn\/redirect.php?url=http:\/\/finance.sina.com.cn\/world\/yzjj\/20131030\/165417167664.shtml",
"pubDate" : "16:54:12",
"enterDate" : "384201:08:22",
"channelId" : "-1590361397877572806",
"channelName" : "股市要闻汇总-新浪财经",
"channelNameSummary" : "股市要闻汇总-新浪财...",
"channelUrl" : "http:\/\/news.sina.com.cn\/news1000\/index.shtml?requestOrder=8",
"author" : "WWW.SINA.COM.CN",
"tags" : [],
"desc" : "新浪财经讯 北京时间10月30日下午消息 世界最大电子游戏公司任天堂周三公布财报称，上半财年营业亏损为232.8亿日元(2.37亿美元)，使公司更难达到全财年1000亿日元的营业目标。上年同期亏损为291.6亿日元。上半财年净利润为6亿日元。 当下智能手机游戏应用和平板电脑正....",
"emailed" : False,
"forwarded" : False,
"english" : False
}  , {
"index" : 3,
"articleIndex" : "92931",
"favor" :  False ,
     "read" : False,    
"title" : "金证股份：金融IT业务具较强后劲",
"titleTip" : "金证股份：金融IT业务具较强后劲",
"titleSummary" : "金证股份：金融IT业务具较强后劲",
"descSummary" : "招商证券 刘雪峰 金证股份前三季度收入增速13%、净利润增速34%，符...",
"url" : "http:\/\/go.rss.sina.com.cn\/redirect.php?url=http:\/\/finance.sina.com.cn\/stock\/e\/20131030\/165417167660.shtml",
"pubDate" : "16:54:01",
"enterDate" : "384201:08:11",
"channelId" : "-1590361397877572806",
"channelName" : "股市要闻汇总-新浪财经",
"channelNameSummary" : "股市要闻汇总-新浪财...",
"channelUrl" : "http:\/\/news.sina.com.cn\/news1000\/index.shtml?requestOrder=8",
"author" : "WWW.SINA.COM.CN",
"tags" : [],
"desc" : "招商证券 刘雪峰 金证股份前三季度收入增速13%、净利润增速34%，符合我们预期。公司金融IT业务市场需求长期看好，重新战略聚焦金融IT领域后具有较强的后劲。此外，智能化业务进入收获期，商品销售业务贡献稳定的利润。预计2013、14年EPS分别为0.37、0.49元，维持\u201C审慎....",
"emailed" : False,
"forwarded" : False,
"english" : False
}  , {
"index" : 4,
"articleIndex" : "92930",
"favor" :  False ,
     "read" : False,    
"title" : "农业银行前三季度净利1380亿元 同比增长15%",
"titleTip" : "农业银行前三季度净利1380亿元 同比增长15%",
"titleSummary" : "农业银行前三季度净利1380亿元 同比增长15%",
"descSummary" : "新浪财经讯 10月30日消息，农业银行(01288.HK)周三盘后...",
"url" : "http:\/\/go.rss.sina.com.cn\/redirect.php?url=http:\/\/finance.sina.com.cn\/stock\/hkstock\/ggscyd\/20131030\/165217167658.shtml",
"pubDate" : "16:52:12",
"enterDate" : "384201:06:22",
"channelId" : "-1590361397877572806",
"channelName" : "股市要闻汇总-新浪财经",
"channelNameSummary" : "股市要闻汇总-新浪财...",
"channelUrl" : "http:\/\/news.sina.com.cn\/news1000\/index.shtml?requestOrder=8",
"author" : "WWW.SINA.COM.CN",
"tags" : [],
"desc" : "新浪财经讯 10月30日消息，农业银行(01288.HK)周三盘后公布三季报，首三季纯利增长14.91%至1379.88亿元，每股盈利0.42元。第三季纯利增长15.29%至456.36亿元。 报告显示，截至9月30日止九个月，实现营业收入3528.92亿元人民币(下同)，同比增长10.99%。净利息收入2,756.....",
"emailed" : False,
"forwarded" : False,
"english" : False
}  , {
"index" : 5,
"articleIndex" : "92929",
"favor" :  False ,
     "read" : False,    
"title" : "仪征化纤首9月亏损扩至6.92亿元",
"titleTip" : "仪征化纤首9月亏损扩至6.92亿元",
"titleSummary" : "仪征化纤首9月亏损扩至6.92亿元",
"descSummary" : "新浪财经讯 10月30日消息，据财华社报道，中国石化仪征化纤股份(010...",
"url" : "http:\/\/go.rss.sina.com.cn\/redirect.php?url=http:\/\/finance.sina.com.cn\/stock\/hkstock\/ggscyd\/20131030\/164817167575.shtml",
"pubDate" : "16:48:24",
"enterDate" : "384201:02:34",
"channelId" : "-1590361397877572806",
"channelName" : "股市要闻汇总-新浪财经",
"channelNameSummary" : "股市要闻汇总-新浪财...",
"channelUrl" : "http:\/\/news.sina.com.cn\/news1000\/index.shtml?requestOrder=8",
"author" : "WWW.SINA.COM.CN",
"tags" : [],
"desc" : "新浪财经讯 10月30日消息，据财华社报道，中国石化仪征化纤股份(01033)公布截至2013年9月底止9个月业绩，期内归属于母公司股东净亏损6.92亿元(人民币，下同)，每股亏损0.173元；而2012年同期亦录得亏损2.9亿元，每股亏损0.072元。 另外，期内营业收入133.49亿元，较201....",
"emailed" : False,
"forwarded" : False,
"english" : False
}  , {
"index" : 6,
"articleIndex" : "92928",
"favor" :  False ,
     "read" : False,    
"title" : "兆驰股份：与中青宝合作 参与运营新模式",
"titleTip" : "兆驰股份：与中青宝合作 参与运营新模式",
"titleSummary" : "兆驰股份：与中青宝合作 参与运营新模式",
"descSummary" : "国信证券 王念春 事项： 10月24日晚，公司公告与中青宝签署...",
"url" : "http:\/\/go.rss.sina.com.cn\/redirect.php?url=http:\/\/finance.sina.com.cn\/stock\/e\/20131030\/164717167572.shtml",
"pubDate" : "16:47:24",
"enterDate" : "384201:01:34",
"channelId" : "-1590361397877572806",
"channelName" : "股市要闻汇总-新浪财经",
"channelNameSummary" : "股市要闻汇总-新浪财...",
"channelUrl" : "http:\/\/news.sina.com.cn\/news1000\/index.shtml?requestOrder=8",
"author" : "WWW.SINA.COM.CN",
"tags" : [],
"desc" : "国信证券 王念春 事项： 10月24日晚，公司公告与中青宝签署战略合作协议，公司智能终端产品中内置中青宝游戏应用并向公司智能终端用户提供游戏娱乐服务事项达成协议，游戏产品通过开发平台、应用商城、终端预装等其他公司所有渠道产生的收益在冲抵完公司的前期....",
"emailed" : False,
"forwarded" : False,
"english" : False
}  , {
"index" : 7,
"articleIndex" : "92927",
"favor" :  False ,
     "read" : False,    
"title" : "徽商银行明起招股 入场费逾3919元",
"titleTip" : "徽商银行明起招股 入场费逾3919元",
"titleSummary" : "徽商银行明起招股 入场费逾3919元",
"descSummary" : "新浪财经讯 10月30日消息，据财华社报道，徽商银行举行新股招股记...",
"url" : "http:\/\/go.rss.sina.com.cn\/redirect.php?url=http:\/\/finance.sina.com.cn\/stock\/hkstock\/ggIPO\/20131030\/164617167563.shtml",
"pubDate" : "16:46:32",
"enterDate" : "384201:00:42",
"channelId" : "-1590361397877572806",
"channelName" : "股市要闻汇总-新浪财经",
"channelNameSummary" : "股市要闻汇总-新浪财...",
"channelUrl" : "http:\/\/news.sina.com.cn\/news1000\/index.shtml?requestOrder=8",
"author" : "WWW.SINA.COM.CN",
"tags" : [],
"desc" : "新浪财经讯 10月30日消息，据财华社报道，徽商银行举行新股招股记者会，是次招股逾26亿股，集资最多101港元。其中，90%为国际配售，10%在本港公开发售。是次招股作价介乎每股3.47至3.88元。每手1000股，入场费3919.1104元。 该股将于明日(10月31日)至下周二(11月5日)进....",
"emailed" : False,
"forwarded" : False,
"english" : False
}  , {
"index" : 8,
"articleIndex" : "92926",
"favor" :  False ,
     "read" : False,    
"title" : "消息指私募基金CVC拟3亿美元收购俏江南69%股权",
"titleTip" : "消息指私募基金CVC拟3亿美元收购俏江南69%股权",
"titleSummary" : "消息指私募基金CVC拟3亿美元收购俏江南69%股权",
"descSummary" : "外电引述消息人士指，内地连锁餐饮集团俏江南将向私...",
"url" : "http:\/\/go.rss.sina.com.cn\/redirect.php?url=http:\/\/finance.sina.com.cn\/stock\/hkstock\/hkstocknews\/20131030\/164517167557.shtml",
"pubDate" : "16:45:28",
"enterDate" : "384200:59:38",
"channelId" : "-1590361397877572806",
"channelName" : "股市要闻汇总-新浪财经",
"channelNameSummary" : "股市要闻汇总-新浪财...",
"channelUrl" : "http:\/\/news.sina.com.cn\/news1000\/index.shtml?requestOrder=8",
"author" : "WWW.SINA.COM.CN",
"tags" : [],
"desc" : "外电引述消息人士指，内地连锁餐饮集团俏江南将向私募基金CVC出售69%股权，作价3亿美元(约23.4亿港元)。据悉，交易的谈判已进入最後阶段。若收购完成，俏江南创办人张兰将保留该公司31%股权。 报道称，CVC已聘请美银任顾问，并正安排1.4亿美元贷款融资以支付收购代价。....",
"emailed" : False,
"forwarded" : False,
"english" : False
}  , {
"index" : 9,
"articleIndex" : "92925",
"favor" :  False ,
     "read" : False,    
"title" : "西班牙正式结束长达两年的经济衰退",
"titleTip" : "西班牙正式结束长达两年的经济衰退",
"titleSummary" : "西班牙正式结束长达两年的经济衰退",
"descSummary" : "新浪财经讯 北京时间10月30日下午消息，据路透社，在经济连续九...",
"url" : "http:\/\/go.rss.sina.com.cn\/redirect.php?url=http:\/\/finance.sina.com.cn\/stock\/usstock\/c\/20131030\/164417167551.shtml",
"pubDate" : "16:44:34",
"enterDate" : "384200:58:44",
"channelId" : "-1590361397877572806",
"channelName" : "股市要闻汇总-新浪财经",
"channelNameSummary" : "股市要闻汇总-新浪财...",
"channelUrl" : "http:\/\/news.sina.com.cn\/news1000\/index.shtml?requestOrder=8",
"author" : "WWW.SINA.COM.CN",
"tags" : [],
"desc" : "新浪财经讯 北京时间10月30日下午消息，据路透社，在经济连续九个季度萎缩后，西班牙今年第三季度实现增长，通胀在10月有所放缓，这为疲弱的国内需求有望转升打下基础。 西班牙统计局称，第三季度GDP环比增长0.1%，为2011年初以来首次增长，正式结束了长达两年的衰退。....",
"emailed" : False,
"forwarded" : False,
"english" : False
}  , {
"index" : 10,
"articleIndex" : "92924",
"favor" :  False ,
     "read" : False,    
"title" : "农行首三季净利润按年增14.92%",
"titleTip" : "农行首三季净利润按年增14.92%",
"titleSummary" : "农行首三季净利润按年增14.92%",
"descSummary" : "新浪财经讯 10月30日消息，据财华社报道，农行公布首三季业绩，期内...",
"url" : "http:\/\/go.rss.sina.com.cn\/redirect.php?url=http:\/\/finance.sina.com.cn\/stock\/hkstock\/ggscyd\/20131030\/164417167535.shtml",
"pubDate" : "16:44:18",
"enterDate" : "384200:58:28",
"channelId" : "-1590361397877572806",
"channelName" : "股市要闻汇总-新浪财经",
"channelNameSummary" : "股市要闻汇总-新浪财...",
"channelUrl" : "http:\/\/news.sina.com.cn\/news1000\/index.shtml?requestOrder=8",
"author" : "WWW.SINA.COM.CN",
"tags" : [],
"desc" : "新浪财经讯 10月30日消息，据财华社报道，农行公布首三季业绩，期内净利润按年增14.92%达1380.37亿元；营业收入增10.99%达3528.92亿元。净息差为2.6厘，比上半年上升2个基点。核心资本充足率上升0.97个百分点至10.08%。(自然)",
"emailed" : False,
"forwarded" : False,
"english" : False
}  , {
"index" : 11,
"articleIndex" : "92923",
"favor" :  False ,
     "read" : False,    
"title" : "拓维信息：转型方向明确 手游渐成规模",
"titleTip" : "拓维信息：转型方向明确 手游渐成规模",
"titleSummary" : "拓维信息：转型方向明确 手游渐成规模",
"descSummary" : "光大证券 顾建国 周励谦 宋嘉吉 Q3业绩符合预期，全年净利润有...",
"url" : "http:\/\/go.rss.sina.com.cn\/redirect.php?url=http:\/\/finance.sina.com.cn\/stock\/e\/20131030\/164417167538.shtml",
"pubDate" : "16:44:12",
"enterDate" : "384200:58:22",
"channelId" : "-1590361397877572806",
"channelName" : "股市要闻汇总-新浪财经",
"channelNameSummary" : "股市要闻汇总-新浪财...",
"channelUrl" : "http:\/\/news.sina.com.cn\/news1000\/index.shtml?requestOrder=8",
"author" : "WWW.SINA.COM.CN",
"tags" : [],
"desc" : "光大证券 顾建国 周励谦 宋嘉吉 Q3业绩符合预期，全年净利润有望转正。 公司发布三季报，1-9月份实现收入3.5亿元，同比增长19.2%，完成归属于母公司净利润2864万元，同比下滑14%。折算Q3单季度实现收入为1.2亿元，同比增长19.2%，完成净利润981万元，同比略微下....",
"emailed" : False,
"forwarded" : False,
"english" : False
}  , {
"index" : 12,
"articleIndex" : "92922",
"favor" :  False ,
     "read" : False,    
"title" : "权重股还有反弹要求 短线将延续反弹",
"titleTip" : "权重股还有反弹要求 短线将延续反弹",
"titleSummary" : "权重股还有反弹要求 短线将延续反弹",
"descSummary" : "伟晴 周三股指震荡走高收出中阳，股指自1825点见底1849点反弹到...",
"url" : "http:\/\/go.rss.sina.com.cn\/redirect.php?url=http:\/\/finance.sina.com.cn\/stock\/jsy\/20131030\/164117167502.shtml",
"pubDate" : "16:41:27",
"enterDate" : "384200:55:37",
"channelId" : "-1590361397877572806",
"channelName" : "股市要闻汇总-新浪财经",
"channelNameSummary" : "股市要闻汇总-新浪财...",
"channelUrl" : "http:\/\/news.sina.com.cn\/news1000\/index.shtml?requestOrder=8",
"author" : "WWW.SINA.COM.CN",
"tags" : [],
"desc" : "伟晴 周三股指震荡走高收出中阳，股指自1825点见底1849点反弹到2270点没出现过一个象样的调整，这也为本次下跌埋下伏笔，而当股指回补完前期缺口在60日线企稳后，主力完成诱空后的反弹的力度就会很大，压的越深，反弹的空间就越大。笔者还是坚持本次调整只是一次洗盘行....",
"emailed" : False,
"forwarded" : False,
"english" : False
}  , {
"index" : 13,
"articleIndex" : "92921",
"favor" :  False ,
     "read" : False,    
"title" : "权重酝酿全面反击战 十大博客看后市",
"titleTip" : "权重酝酿全面反击战 十大博客看后市",
"titleSummary" : "权重酝酿全面反击战 十大博客看后市",
"descSummary" : "新浪财经讯 早盘沪指低开后震荡走高，石油、电力、有色、保险等...",
"url" : "http:\/\/go.rss.sina.com.cn\/redirect.php?url=http:\/\/finance.sina.com.cn\/stock\/y\/20131030\/164017167459.shtml",
"pubDate" : "16:40:28",
"enterDate" : "384200:54:38",
"channelId" : "-1590361397877572806",
"channelName" : "股市要闻汇总-新浪财经",
"channelNameSummary" : "股市要闻汇总-新浪财...",
"channelUrl" : "http:\/\/news.sina.com.cn\/news1000\/index.shtml?requestOrder=8",
"author" : "WWW.SINA.COM.CN",
"tags" : [],
"desc" : "新浪财经讯 早盘沪指低开后震荡走高，石油、电力、有色、保险等权重板块集体上攻，股指快速走高，个股普涨，石油电力板块强势大涨，连续调整的文化传媒板块也出现了止跌回升，股指收复60日均线后维持震荡走势，临近午间收盘，银行、券商等发力上攻，大盘直线拉升。午后大盘延....",
"emailed" : False,
"forwarded" : False,
"english" : False
}  , {
"index" : 14,
"articleIndex" : "92920",
"favor" :  False ,
     "read" : False,    
"title" : "传腾讯斥2亿美元投资手机应用商Snapchat",
"titleTip" : "传腾讯斥2亿美元投资手机应用商Snapchat",
"titleSummary" : "传腾讯斥2亿美元投资手机应用商Snapchat",
"descSummary" : "新浪财经讯 10月30日消息，据财华社报道，市场消息指出，以...",
"url" : "http:\/\/go.rss.sina.com.cn\/redirect.php?url=http:\/\/finance.sina.com.cn\/stock\/hkstock\/ggscyd\/20131030\/162817167295.shtml",
"pubDate" : "16:28:15",
"enterDate" : "384201:12:30",
"channelId" : "-1590361397877572806",
"channelName" : "股市要闻汇总-新浪财经",
"channelNameSummary" : "股市要闻汇总-新浪财...",
"channelUrl" : "http:\/\/news.sina.com.cn\/news1000\/index.shtml?requestOrder=8",
"author" : "WWW.SINA.COM.CN",
"tags" : [],
"desc" : "新浪财经讯 10月30日消息，据财华社报道，市场消息指出，以\u201C阅后销毁\u201D为卖点的手机相片及视频分享应用Snapchat，稍后将会进行新一轮融资，并可能以高达36至40亿美元的估值，获得腾讯约2亿美元投资。 今年稍早时候，Snapchat进行了6000万美元的B轮融资，当时的估值只....",
"emailed" : False,
"forwarded" : False,
"english" : False
}  , {
"index" : 15,
"articleIndex" : "92919",
"favor" :  False ,
     "read" : False,    
"title" : "大众汽车第三季度运营利润大幅增长",
"titleTip" : "大众汽车第三季度运营利润大幅增长",
"titleSummary" : "大众汽车第三季度运营利润大幅增长",
"descSummary" : "新浪财经讯 北京时间10月30日下午消息，据路透社，大众汽车第三...",
"url" : "http:\/\/go.rss.sina.com.cn\/redirect.php?url=http:\/\/finance.sina.com.cn\/stock\/usstock\/c\/20131030\/162617167287.shtml",
"pubDate" : "16:26:12",
"enterDate" : "384201:10:27",
"channelId" : "-1590361397877572806",
"channelName" : "股市要闻汇总-新浪财经",
"channelNameSummary" : "股市要闻汇总-新浪财...",
"channelUrl" : "http:\/\/news.sina.com.cn\/news1000\/index.shtml?requestOrder=8",
"author" : "WWW.SINA.COM.CN",
"tags" : [],
"desc" : "新浪财经讯 北京时间10月30日下午消息，据路透社，大众汽车第三季度运营利润大幅增长，奥迪和保时捷高端车销量创新高，这帮助抵消了工程部门重组的成本。 大众汽车第三季度运营利润增长至27.8亿欧元，去年同期为23.2亿欧元。这符合接受路透社调查的分析师的预期。 ....",
"emailed" : False,
"forwarded" : False,
"english" : False
}  , {
"index" : 16,
"articleIndex" : "92918",
"favor" :  False ,
     "read" : False,    
"title" : "花旗：周大福维持买入评级 目标价14元",
"titleTip" : "花旗：周大福维持买入评级 目标价14元",
"titleSummary" : "花旗：周大福维持买入评级 目标价14元",
"descSummary" : "新浪财经讯 10月30日消息，据财华社报道，花旗发表研究报告，...",
"url" : "http:\/\/go.rss.sina.com.cn\/redirect.php?url=http:\/\/finance.sina.com.cn\/stock\/hkstock\/hkgg\/20131030\/162617167286.shtml",
"pubDate" : "16:26:08",
"enterDate" : "384201:10:23",
"channelId" : "-1590361397877572806",
"channelName" : "股市要闻汇总-新浪财经",
"channelNameSummary" : "股市要闻汇总-新浪财...",
"channelUrl" : "http:\/\/news.sina.com.cn\/news1000\/index.shtml?requestOrder=8",
"author" : "WWW.SINA.COM.CN",
"tags" : [],
"desc" : "新浪财经讯 10月30日消息，据财华社报道，花旗发表研究报告，上调周大福目标价，由11元升至14元，维持\u201C买入\u201D评级。 该行预期珠宝行业在今年10月至明年3月间会转弱，但预计周大福短期会较同业六福表现好，主要由于后者在港销售动力减慢，以及加大去杠杆化。 花....",
"emailed" : False,
"forwarded" : False,
"english" : False
}  , {
"index" : 17,
"articleIndex" : "92917",
"favor" :  False ,
     "read" : False,    
"title" : "瑞康医药：募投和增发助推业绩快速增长",
"titleTip" : "瑞康医药：募投和增发助推业绩快速增长",
"titleSummary" : "瑞康医药：募投和增发助推业绩快速增长",
"descSummary" : "招商证券 李珊珊 杨烨辉 徐列海 张同 公司公布三季报：收入4...",
"url" : "http:\/\/go.rss.sina.com.cn\/redirect.php?url=http:\/\/finance.sina.com.cn\/stock\/usstock\/gsyj\/20131030\/162417167280.shtml",
"pubDate" : "16:24:41",
"enterDate" : "384201:08:56",
"channelId" : "-1590361397877572806",
"channelName" : "股市要闻汇总-新浪财经",
"channelNameSummary" : "股市要闻汇总-新浪财...",
"channelUrl" : "http:\/\/news.sina.com.cn\/news1000\/index.shtml?requestOrder=8",
"author" : "WWW.SINA.COM.CN",
"tags" : [],
"desc" : "招商证券 李珊珊 杨烨辉 徐列海 张同 公司公布三季报：收入44亿元，净利9965万元，同比分别增长30.09%、29.41%，EPS1.06元，符合预期。公司预计全年净利增25%~35%。公司高端市场保持稳定增长，基础及器械配送市场快速成长，未来增发有助于缓解公司资金压力，提升公司业....",
"emailed" : False,
"forwarded" : False,
"english" : False
}  , {
"index" : 18,
"articleIndex" : "92916",
"favor" :  False ,
     "read" : False,    
"title" : "花旗：短期水泥价续升 行业仍供过于求",
"titleTip" : "花旗：短期水泥价续升 行业仍供过于求",
"titleSummary" : "花旗：短期水泥价续升 行业仍供过于求",
"descSummary" : "新浪财经讯 10月30日消息，据财华社报道，花旗银行投资策略及...",
"url" : "http:\/\/go.rss.sina.com.cn\/redirect.php?url=http:\/\/finance.sina.com.cn\/stock\/hkstock\/hkgg\/20131030\/162317167270.shtml",
"pubDate" : "16:23:53",
"enterDate" : "384201:08:08",
"channelId" : "-1590361397877572806",
"channelName" : "股市要闻汇总-新浪财经",
"channelNameSummary" : "股市要闻汇总-新浪财...",
"channelUrl" : "http:\/\/news.sina.com.cn\/news1000\/index.shtml?requestOrder=8",
"author" : "WWW.SINA.COM.CN",
"tags" : [],
"desc" : "新浪财经讯 10月30日消息，据财华社报道，花旗银行投资策略及研究部主管张敏华接受《大行观势》访问时表示，虽然个别内地水泥企业的业绩表现好，但整体水泥行业仍面对供过于求的情况，2013或2014年整体大部分需求增长约百分之4，但供应增长则为百分之4至5。中央推出政策，让大....",
"emailed" : False,
"forwarded" : False,
"english" : False
}  , {
"index" : 19,
"articleIndex" : "92915",
"favor" :  False ,
     "read" : False,    
"title" : "乐视网：广告收入大增 终端产能不断释放",
"titleTip" : "乐视网：广告收入大增 终端产能不断释放",
"titleSummary" : "乐视网：广告收入大增 终端产能不断释放",
"descSummary" : "渤海证券 蒋昊乐 前三季度业绩业绩增长稳定。乐视网公布了2...",
"url" : "http:\/\/go.rss.sina.com.cn\/redirect.php?url=http:\/\/finance.sina.com.cn\/stock\/usstock\/gsyj\/20131030\/162117167256.shtml",
"pubDate" : "16:21:38",
"enterDate" : "384201:05:53",
"channelId" : "-1590361397877572806",
"channelName" : "股市要闻汇总-新浪财经",
"channelNameSummary" : "股市要闻汇总-新浪财...",
"channelUrl" : "http:\/\/news.sina.com.cn\/news1000\/index.shtml?requestOrder=8",
"author" : "WWW.SINA.COM.CN",
"tags" : [],
"desc" : "渤海证券 蒋昊乐 前三季度业绩业绩增长稳定。 乐视网公布了2013年三季报，2013年前三季度公司实现营收13.65亿元，同比增长65%，归属于上市公司股东的净利润1.84亿元，同比增长37%。 网站运营指标优异，广告收入持续大幅增长。 公司业绩同比大幅上....",
"emailed" : False,
"forwarded" : False,
"english" : False
} ]
}
