{
"mode" : {"viewTitle" : 1,   "viewNew" : 0,  "pageIndex" : 2 },
 "channel" : {"id" : "-1590361397877572806", "booked" : False, "subNumber" : 1, "name" : "股市要闻汇总-新浪财经", "url" : "http:\/\/news.sina.com.cn\/news1000\/index.shtml?requestOrder=8", "feed" : "http:\/\/rss.sina.com.cn\/roll\/stock\/hot_roll.xml", "author" : "WWW.SINA.COM.CN", "desc" : "股市要闻汇总", "imageUrl" : "http:\/\/i1.sinaimg.cn\/cj\/pic\/newLogo\/logo_home_fin.gif", "postPerWeek" : "0", "lastCrawTime" : "17:05:05", "crawDateTime" : "17:05:05", "lastHttpCode" : "200"}, "page" : {
"startIndex" : 20,
"totalCount" : 5000,
"pageIndex" : 2,
"lastPage" : 250,
"pageSize" : 20,
"english" :  False },
 "unreadNum" : 0, "shotIndex" : -1,
"articles" : [
{
"index" : 0,
"articleIndex" : "92914",
"favor" :  False ,
     "read" : False,    
"title" : "股指深度回调后两因素决定后市",
"titleTip" : "股指深度回调后两因素决定后市",
"titleSummary" : "股指深度回调后两因素决定后市",
"descSummary" : "顶点财经 近期，在外围市场屡创反弹新高的情况下，A股市场继续展开...",
"url" : "http:\/\/go.rss.sina.com.cn\/redirect.php?url=http:\/\/finance.sina.com.cn\/stock\/jsy\/20131030\/161817167174.shtml",
"pubDate" : "16:18:04",
"enterDate" : "384201:02:19",
"channelId" : "-1590361397877572806",
"channelName" : "股市要闻汇总-新浪财经",
"channelNameSummary" : "股市要闻汇总-新浪财...",
"channelUrl" : "http:\/\/news.sina.com.cn\/news1000\/index.shtml?requestOrder=8",
"author" : "WWW.SINA.COM.CN",
"tags" : [],
"desc" : "顶点财经 近期，在外围市场屡创反弹新高的情况下，A股市场继续展开其特立独行的走势，截止本周二，近六个交易日连续收阴，为今年以来首次出现这种弱势情况。消息面上，近期国内还算比较平静，也无重大利空层面的消息出现，市场出现此轮下跌存在以及几个方面的原因。一....",
"emailed" : False,
"forwarded" : False,
"english" : False
}  , {
"index" : 1,
"articleIndex" : "92913",
"favor" :  False ,
     "read" : False,    
"title" : "等待美联储声明 欧洲股市高开",
"titleTip" : "等待美联储声明 欧洲股市高开",
"titleSummary" : "等待美联储声明 欧洲股市高开",
"descSummary" : "新浪财经讯 北京时间10月30日下午消息 欧洲股市周三高开，投资者在等待...",
"url" : "http:\/\/go.rss.sina.com.cn\/redirect.php?url=http:\/\/finance.sina.com.cn\/world\/20131030\/161317167170.shtml",
"pubDate" : "16:13:18",
"enterDate" : "384200:57:33",
"channelId" : "-1590361397877572806",
"channelName" : "股市要闻汇总-新浪财经",
"channelNameSummary" : "股市要闻汇总-新浪财...",
"channelUrl" : "http:\/\/news.sina.com.cn\/news1000\/index.shtml?requestOrder=8",
"author" : "WWW.SINA.COM.CN",
"tags" : [],
"desc" : "新浪财经讯 北京时间10月30日下午消息 欧洲股市周三高开，投资者在等待美国私营部门就业报告以及美联储货币政策会议声明。美国股指期货与亚太股市均有所上涨。 泛欧Stoxx 600指数上涨0.2%，报321.46点。泛欧Stoxx 600指数本月已上涨3.3%。英国金融时报100指数上涨0.3%....",
"emailed" : False,
"forwarded" : False,
"english" : False
}  , {
"index" : 2,
"articleIndex" : "92912",
"favor" :  False ,
     "read" : False,    
"title" : "天虹商场：新店培育侵净利 转型利好长远",
"titleTip" : "天虹商场：新店培育侵净利 转型利好长远",
"titleSummary" : "天虹商场：新店培育侵净利 转型利好长远",
"descSummary" : "广发证券 欧亚菲 毛利率持续提升，新店培育侵蚀净利。天虹商...",
"url" : "http:\/\/go.rss.sina.com.cn\/redirect.php?url=http:\/\/finance.sina.com.cn\/stock\/usstock\/gsyj\/20131030\/161217167168.shtml",
"pubDate" : "16:12:54",
"enterDate" : "384200:57:09",
"channelId" : "-1590361397877572806",
"channelName" : "股市要闻汇总-新浪财经",
"channelNameSummary" : "股市要闻汇总-新浪财...",
"channelUrl" : "http:\/\/news.sina.com.cn\/news1000\/index.shtml?requestOrder=8",
"author" : "WWW.SINA.COM.CN",
"tags" : [],
"desc" : "广发证券 欧亚菲 毛利率持续提升，新店培育侵蚀净利。 天虹商场2013年前三季度实现营收113.07亿，同比增长10.50%；3季度营收增长9.30%，较2季度13.51%有所放缓，符合预期。公司前三季度可比门店营收增长4.37%，华东、华中和东南增长较快。公司3季度在南昌新增一....",
"emailed" : False,
"forwarded" : False,
"english" : False
}  , {
"index" : 3,
"articleIndex" : "92911",
"favor" :  False ,
     "read" : False,    
"title" : "蓝筹题材共舞 超跌反弹进行时",
"titleTip" : "蓝筹题材共舞 超跌反弹进行时",
"titleSummary" : "蓝筹题材共舞 超跌反弹进行时",
"descSummary" : "李波 连续下跌之后，沪深两市今日终于迎来反弹，蓝筹板块领涨大盘，题...",
"url" : "http:\/\/go.rss.sina.com.cn\/redirect.php?url=http:\/\/finance.sina.com.cn\/stock\/jsy\/20131030\/161117167163.shtml",
"pubDate" : "16:11:23",
"enterDate" : "384200:55:38",
"channelId" : "-1590361397877572806",
"channelName" : "股市要闻汇总-新浪财经",
"channelNameSummary" : "股市要闻汇总-新浪财...",
"channelUrl" : "http:\/\/news.sina.com.cn\/news1000\/index.shtml?requestOrder=8",
"author" : "WWW.SINA.COM.CN",
"tags" : [],
"desc" : "李波 连续下跌之后，沪深两市今日终于迎来反弹，蓝筹板块领涨大盘，题材热点全面回暖。截至收盘，上证综指报2160.46点，上涨31.60点，涨幅为1.48%；深证成指上涨154.45点至8553.37点，涨幅为1.84%。创业板指数上涨0.92%。沪深两市分别成交952.34亿元和976.86亿元，量能....",
"emailed" : False,
"forwarded" : False,
"english" : False
}  , {
"index" : 4,
"articleIndex" : "92910",
"favor" :  False ,
     "read" : False,    
"title" : "金利丰证券：推介中海油 目标价16.48元",
"titleTip" : "金利丰证券：推介中海油 目标价16.48元",
"titleSummary" : "金利丰证券：推介中海油 目标价16.48元",
"descSummary" : "中海油 (883) 买入价U15元 目标价：16.48元 止蚀位U14.5元 资料...",
"url" : "http:\/\/go.rss.sina.com.cn\/redirect.php?url=http:\/\/finance.sina.com.cn\/stock\/hkstock\/hkgg\/20131030\/160917167099.shtml",
"pubDate" : "16:09:07",
"enterDate" : "384200:53:22",
"channelId" : "-1590361397877572806",
"channelName" : "股市要闻汇总-新浪财经",
"channelNameSummary" : "股市要闻汇总-新浪财...",
"channelUrl" : "http:\/\/news.sina.com.cn\/news1000\/index.shtml?requestOrder=8",
"author" : "WWW.SINA.COM.CN",
"tags" : [],
"desc" : "中海油 (883) 买入价U15元 目标价：16.48元 止蚀位U14.5元 资料来源：近期油价回落，令油企股价受压。中海油(883) 集中在上游业务，主要从事海上油气勘探、开发和生产，对油价的变动较为敏感。集团在第三季，平均实现油价为每桶106.26美元，按....",
"emailed" : False,
"forwarded" : False,
"english" : False
}  , {
"index" : 5,
"articleIndex" : "92909",
"favor" :  False ,
     "read" : False,    
"title" : "期指结算日恒指放量大涨2% 中资油气股强劲上涨",
"titleTip" : "期指结算日恒指放量大涨2% 中资油气股强劲上涨",
"titleSummary" : "期指结算日恒指放量大涨2% 中资油气股强劲上涨",
"descSummary" : "港股微博圈 港股官方微博 &gt;&gt;点此进入 点击体验新浪港...",
"url" : "http:\/\/go.rss.sina.com.cn\/redirect.php?url=http:\/\/finance.sina.com.cn\/stock\/hkstock\/marketalerts\/20131030\/160817167096.shtml",
"pubDate" : "16:08:02",
"enterDate" : "384200:52:17",
"channelId" : "-1590361397877572806",
"channelName" : "股市要闻汇总-新浪财经",
"channelNameSummary" : "股市要闻汇总-新浪财...",
"channelUrl" : "http:\/\/news.sina.com.cn\/news1000\/index.shtml?requestOrder=8",
"author" : "WWW.SINA.COM.CN",
"tags" : [],
"desc" : "港股微博圈 港股官方微博 &gt;&gt;点此进入&#160;点击体验新浪港股新版实时行情 新浪财经讯 10月30日消息，港股今日期指结算，三中全会改革预期带动中港两地相关股劲升，恒指高开高走，临近收盘更是在油气及金融股拉升带动下大幅飙升。截至收盘，恒生指数报23304.02点....",
"emailed" : False,
"forwarded" : False,
"english" : False
}  , {
"index" : 6,
"articleIndex" : "92908",
"favor" :  False ,
     "read" : False,    
"title" : "大摩投资：改革预期推动权重走强",
"titleTip" : "大摩投资：改革预期推动权重走强",
"titleSummary" : "大摩投资：改革预期推动权重走强",
"descSummary" : "大摩投资 今日上证指数报2160.46点，涨31.60点，涨幅1.48%，成交...",
"url" : "http:\/\/go.rss.sina.com.cn\/redirect.php?url=http:\/\/finance.sina.com.cn\/stock\/jsy\/20131030\/160717167088.shtml",
"pubDate" : "16:07:39",
"enterDate" : "384200:51:54",
"channelId" : "-1590361397877572806",
"channelName" : "股市要闻汇总-新浪财经",
"channelNameSummary" : "股市要闻汇总-新浪财...",
"channelUrl" : "http:\/\/news.sina.com.cn\/news1000\/index.shtml?requestOrder=8",
"author" : "WWW.SINA.COM.CN",
"tags" : [],
"desc" : "大摩投资 今日上证指数报2160.46点，涨31.60点，涨幅1.48%，成交952.34亿元；深成指报8553.37点，涨154.44点，涨幅1.84%，成交996.74亿元。中小板指报收5000.92点，涨50.40点，涨幅1.02%；创业板指报收1273.29点，涨11.61点，涨幅0.92%。两市共有2050家个股上涨，276跌....",
"emailed" : False,
"forwarded" : False,
"english" : False
}  , {
"index" : 7,
"articleIndex" : "92907",
"favor" :  False ,
     "read" : False,    
"title" : "辉立证券：推介西王特钢 目标价1.15美元",
"titleTip" : "辉立证券：推介西王特钢 目标价1.15美元",
"titleSummary" : "辉立证券：推介西王特钢 目标价1.15美元",
"descSummary" : "西王特钢(1266) 西王特钢(1266)走势呈现异动。集团是位于山东...",
"url" : "http:\/\/go.rss.sina.com.cn\/redirect.php?url=http:\/\/finance.sina.com.cn\/stock\/hkstock\/hkgg\/20131030\/160717167087.shtml",
"pubDate" : "16:07:37",
"enterDate" : "384200:51:52",
"channelId" : "-1590361397877572806",
"channelName" : "股市要闻汇总-新浪财经",
"channelNameSummary" : "股市要闻汇总-新浪财...",
"channelUrl" : "http:\/\/news.sina.com.cn\/news1000\/index.shtml?requestOrder=8",
"author" : "WWW.SINA.COM.CN",
"tags" : [],
"desc" : "西王特钢(1266) 西王特钢(1266)走势呈现异动。集团是位于山东省以电弧炉炼钢的领先特钢生产商，作为以电弧炉炼钢的生产商，集团拥有由炼钢到二次冶金、连铸及轧钢的一体化生产流程，产品包括普通钢(主要用于建筑及基建项目)和特钢(用于汽车、化工及石油化工、机械及设....",
"emailed" : False,
"forwarded" : False,
"english" : False
}  , {
"index" : 8,
"articleIndex" : "92906",
"favor" :  False ,
     "read" : False,    
"title" : "南方泵业：未来望保持持续较快发展",
"titleTip" : "南方泵业：未来望保持持续较快发展",
"titleSummary" : "南方泵业：未来望保持持续较快发展",
"descSummary" : "民生证券 刘利 一、事件概述： 公司于10月28日晚间发布13年三季...",
"url" : "http:\/\/go.rss.sina.com.cn\/redirect.php?url=http:\/\/finance.sina.com.cn\/stock\/usstock\/gsyj\/20131030\/160717167086.shtml",
"pubDate" : "16:07:22",
"enterDate" : "384200:51:37",
"channelId" : "-1590361397877572806",
"channelName" : "股市要闻汇总-新浪财经",
"channelNameSummary" : "股市要闻汇总-新浪财...",
"channelUrl" : "http:\/\/news.sina.com.cn\/news1000\/index.shtml?requestOrder=8",
"author" : "WWW.SINA.COM.CN",
"tags" : [],
"desc" : "民生证券 刘利 一、事件概述： 公司于10月28日晚间发布13年三季度报告：1-9月实现营业收入920.57百万元，同比增加25.43%；归属于上市公司股东的净利润108.61百万元，同比增加30.5%，处在业绩预告20%-35%的中值偏上位置，符合预期。公司主营业务发展稳健，营销网....",
"emailed" : False,
"forwarded" : False,
"english" : False
}  , {
"index" : 9,
"articleIndex" : "92905",
"favor" :  False ,
     "read" : False,    
"title" : "倍新咨询：震荡反弹行情短期仍将延续",
"titleTip" : "倍新咨询：震荡反弹行情短期仍将延续",
"titleSummary" : "倍新咨询：震荡反弹行情短期仍将延续",
"descSummary" : "倍新咨询 今天上午的盘面较为平淡，大盘一直处于小幅震荡行情...",
"url" : "http:\/\/go.rss.sina.com.cn\/redirect.php?url=http:\/\/finance.sina.com.cn\/stock\/jsy\/20131030\/155917166915.shtml",
"pubDate" : "15:59:07",
"enterDate" : "384201:13:27",
"channelId" : "-1590361397877572806",
"channelName" : "股市要闻汇总-新浪财经",
"channelNameSummary" : "股市要闻汇总-新浪财...",
"channelUrl" : "http:\/\/news.sina.com.cn\/news1000\/index.shtml?requestOrder=8",
"author" : "WWW.SINA.COM.CN",
"tags" : [],
"desc" : "倍新咨询 今天上午的盘面较为平淡，大盘一直处于小幅震荡行情中，上午以超跌股反弹为主，如手游股中浙报传媒和掌趣科技反弹力度较大，但其他手游股并没有跟上。油改和页岩气概念股则继续走强，全天都有不错的表现，在今日涨幅榜上排名居前。下午在电力、页岩气、铁路基....",
"emailed" : False,
"forwarded" : False,
"english" : False
}  , {
"index" : 10,
"articleIndex" : "92904",
"favor" :  False ,
     "read" : False,    
"title" : "宁波海顺：沪指如期反弹 量能稍显不足",
"titleTip" : "宁波海顺：沪指如期反弹 量能稍显不足",
"titleSummary" : "宁波海顺：沪指如期反弹 量能稍显不足",
"descSummary" : "宁波海顺 朱佳民 经历了周二宽幅震荡，沪指周三早盘以2126.69...",
"url" : "http:\/\/go.rss.sina.com.cn\/redirect.php?url=http:\/\/finance.sina.com.cn\/stock\/jsy\/20131030\/155417166901.shtml",
"pubDate" : "15:54:51",
"enterDate" : "384201:09:11",
"channelId" : "-1590361397877572806",
"channelName" : "股市要闻汇总-新浪财经",
"channelNameSummary" : "股市要闻汇总-新浪财...",
"channelUrl" : "http:\/\/news.sina.com.cn\/news1000\/index.shtml?requestOrder=8",
"author" : "WWW.SINA.COM.CN",
"tags" : [],
"desc" : "宁波海顺 朱佳民 经历了周二宽幅震荡，沪指周三早盘以2126.69点低开2.17点，开盘后前半小时沪指在低开探底2121.84点后开始翻红走强，午后汽车、家电、房地产的活跃带领股指一路向上收复领地，收盘沪指报2161.79点，上涨32.93点，涨幅1.55%，成交952.34亿元；深成指开盘....",
"emailed" : False,
"forwarded" : False,
"english" : False
}  , {
"index" : 11,
"articleIndex" : "92903",
"favor" :  False ,
     "read" : False,    
"title" : "震荡冲高 大蓝筹吹响反攻冲锋号",
"titleTip" : "震荡冲高 大蓝筹吹响反攻冲锋号",
"titleSummary" : "震荡冲高 大蓝筹吹响反攻冲锋号",
"descSummary" : "华讯投资 周三，三中全会召开时间的确定给了市场一剂强心针，沪指是...",
"url" : "http:\/\/go.rss.sina.com.cn\/redirect.php?url=http:\/\/finance.sina.com.cn\/stock\/jsy\/20131030\/155117166890.shtml",
"pubDate" : "15:51:57",
"enterDate" : "384201:06:17",
"channelId" : "-1590361397877572806",
"channelName" : "股市要闻汇总-新浪财经",
"channelNameSummary" : "股市要闻汇总-新浪财...",
"channelUrl" : "http:\/\/news.sina.com.cn\/news1000\/index.shtml?requestOrder=8",
"author" : "WWW.SINA.COM.CN",
"tags" : [],
"desc" : "华讯投资 周三，三中全会召开时间的确定给了市场一剂强心针，沪指是终结六连阴，大涨逾1%，突破2150点整数关口。深成指收复8500点，大涨近2%。创业板缩量企稳1250点附近，60日均线支撑力度有待进一步观察。近日创业板出现明显的高位震荡，短期注意风险控制。板块来....",
"emailed" : False,
"forwarded" : False,
"english" : False
}  , {
"index" : 12,
"articleIndex" : "92902",
"favor" :  False ,
     "read" : False,    
"title" : "战报：沪指涨1.48%站上半年线 高手巧用两思路掘金",
"titleTip" : "战报：沪指涨1.48%站上半年线 高手巧用两思路掘金",
"titleSummary" : "战报：沪指涨1.48%站上半年线 高手巧用两思路掘金",
"descSummary" : "新浪财经讯 新浪财经第二届交易策略大赛第三赛段...",
"url" : "http:\/\/go.rss.sina.com.cn\/redirect.php?url=http:\/\/finance.sina.com.cn\/stock\/t\/20131030\/154917166804.shtml",
"pubDate" : "15:49:22",
"enterDate" : "384201:03:42",
"channelId" : "-1590361397877572806",
"channelName" : "股市要闻汇总-新浪财经",
"channelNameSummary" : "股市要闻汇总-新浪财...",
"channelUrl" : "http:\/\/news.sina.com.cn\/news1000\/index.shtml?requestOrder=8",
"author" : "WWW.SINA.COM.CN",
"tags" : [],
"desc" : "新浪财经讯 新浪财经第二届交易策略大赛第三赛段比赛结束第13个交易日争夺。今日沪深在万众期待中展开强劲的反弹行情，截至收盘，沪指涨1.48%，重返包括半年线之内的多条重要均线之上，振奋人心。盘面上来看，电力、天津等板块出现井喷行情，多家个股盘中冲击涨停，林场改革、....",
"emailed" : False,
"forwarded" : False,
"english" : False
}  , {
"index" : 13,
"articleIndex" : "92901",
"favor" :  False ,
     "read" : False,    
"title" : "小摩与美司法部所达临时和解或破裂",
"titleTip" : "小摩与美司法部所达临时和解或破裂",
"titleSummary" : "小摩与美司法部所达临时和解或破裂",
"descSummary" : "新浪财经讯 北京时间10月30日下午消息，知情人士向《华尔街日报...",
"url" : "http:\/\/go.rss.sina.com.cn\/redirect.php?url=http:\/\/finance.sina.com.cn\/stock\/usstock\/c\/20131030\/154517166791.shtml",
"pubDate" : "15:45:31",
"enterDate" : "384200:59:51",
"channelId" : "-1590361397877572806",
"channelName" : "股市要闻汇总-新浪财经",
"channelNameSummary" : "股市要闻汇总-新浪财...",
"channelUrl" : "http:\/\/news.sina.com.cn\/news1000\/index.shtml?requestOrder=8",
"author" : "WWW.SINA.COM.CN",
"tags" : [],
"desc" : "新浪财经讯 北京时间10月30日下午消息，知情人士向《华尔街日报》表示，摩根大通与美国司法部130亿美元的临时和解协议可能破裂，因双方对Washington Mutual基金的债务承担意见不一。 知情人士称，谈判症结在于摩根大通或联邦存款保险公司是否应该为Washington Mutual的....",
"emailed" : False,
"forwarded" : False,
"english" : False
}  , {
"index" : 14,
"articleIndex" : "92900",
"favor" :  False ,
     "read" : False,    
"title" : "明日股市三大猜想及应对策略",
"titleTip" : "明日股市三大猜想及应对策略",
"titleSummary" : "明日股市三大猜想及应对策略",
"descSummary" : "大势猜想：反弹或10日线受阻？实现概率：75% 具体理由：6连阴之后，大...",
"url" : "http:\/\/go.rss.sina.com.cn\/redirect.php?url=http:\/\/finance.sina.com.cn\/stock\/jsy\/20131030\/154317166767.shtml",
"pubDate" : "15:43:56",
"enterDate" : "384200:58:16",
"channelId" : "-1590361397877572806",
"channelName" : "股市要闻汇总-新浪财经",
"channelNameSummary" : "股市要闻汇总-新浪财...",
"channelUrl" : "http:\/\/news.sina.com.cn\/news1000\/index.shtml?requestOrder=8",
"author" : "WWW.SINA.COM.CN",
"tags" : [],
"desc" : "大势猜想：反弹或10日线受阻？ 实现概率：75% 具体理由：6连阴之后，大盘迎来强势反弹，两市普涨，截至收盘，上综指报2160.46点，上涨1.48%；深成指报8553.37点，上涨1.84%。板块方面：天津自贸区、页岩气、合成革、电力、林业、特钢等板块涨幅居前，园区开发下....",
"emailed" : False,
"forwarded" : False,
"english" : False
}  , {
"index" : 15,
"articleIndex" : "92899",
"favor" :  False ,
     "read" : False,    
"title" : "中国集成金融明起招股 入场费5656.448元",
"titleTip" : "中国集成金融明起招股 入场费5656.448元",
"titleSummary" : "中国集成金融明起招股 入场费5656.448元",
"descSummary" : "新浪财经讯 10月30日消息，据财华社报道，内地融资担保服务...",
"url" : "http:\/\/go.rss.sina.com.cn\/redirect.php?url=http:\/\/finance.sina.com.cn\/stock\/hkstock\/ggIPO\/20131030\/154317166766.shtml",
"pubDate" : "15:43:10",
"enterDate" : "384200:57:30",
"channelId" : "-1590361397877572806",
"channelName" : "股市要闻汇总-新浪财经",
"channelNameSummary" : "股市要闻汇总-新浪财...",
"channelUrl" : "http:\/\/news.sina.com.cn\/news1000\/index.shtml?requestOrder=8",
"author" : "WWW.SINA.COM.CN",
"tags" : [],
"desc" : "新浪财经讯 10月30日消息，据财华社报道，内地融资担保服务及非融资担保服务与财务顾问服务供应商中国集成金融是日举行公开招股记者会。是次公开招股1亿股，集资最多2.8亿港元。其中，10%在本港公开发售，90%国际为国际配售，作价介乎每股1.8至2.8元。每手2000股，入场费5656.....",
"emailed" : False,
"forwarded" : False,
"english" : False
}  , {
"index" : 16,
"articleIndex" : "92898",
"favor" :  False ,
     "read" : False,    
"title" : "视频：黑马是怎样炼成的 老艾传授七大绝招",
"titleTip" : "视频：黑马是怎样炼成的 老艾传授七大绝招",
"titleSummary" : "视频：黑马是怎样炼成的 老艾传授七大绝招",
"descSummary" : "今年的十大牛股涨幅均超过3倍，中青宝更是上涨超过600%...",
"url" : "http:\/\/go.rss.sina.com.cn\/redirect.php?url=http:\/\/finance.sina.com.cn\/stock\/stocklearnclass\/20131030\/154117166764.shtml",
"pubDate" : "15:41:47",
"enterDate" : "384200:56:07",
"channelId" : "-1590361397877572806",
"channelName" : "股市要闻汇总-新浪财经",
"channelNameSummary" : "股市要闻汇总-新浪财...",
"channelUrl" : "http:\/\/news.sina.com.cn\/news1000\/index.shtml?requestOrder=8",
"author" : "WWW.SINA.COM.CN",
"tags" : [],
"desc" : "今年的十大牛股涨幅均超过3倍，中青宝更是上涨超过600%，老艾[微博]在两个月时间内在中青宝上斩获130%收益，他是怎么做到的？ 老艾做客北京电视台财经频道《投资者说》栏目，教您七大绝招擒住黑马： 1、盘子小：6只创业板，3只中小板，只有一只是主板股票 ....",
"emailed" : False,
"forwarded" : False,
"english" : False
}  , {
"index" : 17,
"articleIndex" : "92897",
"favor" :  False ,
     "read" : False,    
"title" : "美联储资产规模至少要到2019年才恢复正常",
"titleTip" : "美联储资产规模至少要到2019年才恢复正常",
"titleSummary" : "美联储资产规模至少要到2019年才恢复正常",
"descSummary" : "新浪财经讯 北京时间10月30日下午消息，据《华尔街日报》...",
"url" : "http:\/\/go.rss.sina.com.cn\/redirect.php?url=http:\/\/finance.sina.com.cn\/stock\/usstock\/c\/20131030\/153817166666.shtml",
"pubDate" : "15:38:07",
"enterDate" : "384200:52:27",
"channelId" : "-1590361397877572806",
"channelName" : "股市要闻汇总-新浪财经",
"channelNameSummary" : "股市要闻汇总-新浪财...",
"channelUrl" : "http:\/\/news.sina.com.cn\/news1000\/index.shtml?requestOrder=8",
"author" : "WWW.SINA.COM.CN",
"tags" : [],
"desc" : "新浪财经讯 北京时间10月30日下午消息，据《华尔街日报》，美联储研究人员的新预测显示，美联储资产规模要到2019年年中至2021年年中的某个时间才会恢复正常水平。美联储的总资产规模正迅速逼近4万亿美元大关。 美联储经济学家设想的最基本的情况中，美联储不会出售其日....",
"emailed" : False,
"forwarded" : False,
"english" : False
}  , {
"index" : 18,
"articleIndex" : "92896",
"favor" :  False ,
     "read" : False,    
"title" : "神仙看盘：优先股改革是牛市开启第一步",
"titleTip" : "神仙看盘：优先股改革是牛市开启第一步",
"titleSummary" : "神仙看盘：优先股改革是牛市开启第一步",
"descSummary" : "",
"url" : "http:\/\/go.rss.sina.com.cn\/redirect.php?url=http:\/\/blog.sina.com.cn\/s\/blog_c10aef510101gxtk.html",
"pubDate" : "15:37:06",
"enterDate" : "384200:51:26",
"channelId" : "-1590361397877572806",
"channelName" : "股市要闻汇总-新浪财经",
"channelNameSummary" : "股市要闻汇总-新浪财...",
"channelUrl" : "http:\/\/news.sina.com.cn\/news1000\/index.shtml?requestOrder=8",
"author" : "WWW.SINA.COM.CN",
"tags" : [],
"desc" : "",
"emailed" : False,
"forwarded" : False,
"english" : False
}  , {
"index" : 19,
"articleIndex" : "92895",
"favor" :  False ,
     "read" : False,    
"title" : "巴克莱三季度利润下跌26% FICC营收下滑44%",
"titleTip" : "巴克莱三季度利润下跌26% FICC营收下滑44%",
"titleSummary" : "巴克莱三季度利润下跌26% FICC营收下滑44%",
"descSummary" : "新浪财经讯，北京时间10月30日下午消息 巴克莱银行周三...",
"url" : "http:\/\/go.rss.sina.com.cn\/redirect.php?url=http:\/\/finance.sina.com.cn\/world\/ozjj\/20131030\/153517166657.shtml",
"pubDate" : "15:35:49",
"enterDate" : "384200:50:09",
"channelId" : "-1590361397877572806",
"channelName" : "股市要闻汇总-新浪财经",
"channelNameSummary" : "股市要闻汇总-新浪财...",
"channelUrl" : "http:\/\/news.sina.com.cn\/news1000\/index.shtml?requestOrder=8",
"author" : "WWW.SINA.COM.CN",
"tags" : [],
"desc" : "新浪财经讯，北京时间10月30日下午消息 巴克莱银行周三财报显示，不计自身债务价值变动影响，三季度税前利润下跌26%，从去年同期18.7亿英镑下滑至13.9亿英镑(22亿美元)。符合分析师预期。 与美国同行一样，巴克莱三季度FICC(固定收益、外汇和大宗商品)业务营收也大幅下....",
"emailed" : False,
"forwarded" : False,
"english" : False
} ]
}
