{
"mode" : {"viewTitle" : 1,   "viewNew" : 0,  "pageIndex" : 1 },
 "channel" : {"id" : "609562181473346797", "booked" : False, "subNumber" : 1, "name" : "星座-新浪博客", "url" : "http:\/\/blog.sina.com.cn\/lm\/astro\/", "feed" : "http:\/\/rss.sina.com.cn\/blog\/astro\/xz.xml", "author" : "WWW.SINA.COM.CN", "desc" : "星座博客列表", "imageUrl" : "http:\/\/www.sinaimg.cn\/blog\/main\/index2010\/blog_logo.png", "postPerWeek" : "0", "lastCrawTime" : "16:54:40", "crawDateTime" : "15:54:30", "lastHttpCode" : "200"}, "page" : {
"startIndex" : 0,
"totalCount" : 5000,
"pageIndex" : 1,
"lastPage" : 250,
"pageSize" : 20,
"english" :  False },
 "unreadNum" : 0, "shotIndex" : -1,
"articles" : [
{
"index" : 0,
"articleIndex" : "8967",
"favor" :  False ,
     "read" : False,    
"title" : "当12星座遭遇鸡肋婚姻",
"titleTip" : "当12星座遭遇鸡肋婚姻",
"titleSummary" : "当12星座遭遇鸡肋婚姻",
"descSummary" : "",
"url" : "http:\/\/go.rss.sina.com.cn\/redirect.php?url=http:\/\/blog.sina.com.cn\/s\/blog_5e1fb8420102e190.html",
"pubDate" : "14:53:17",
"enterDate" : "384200:18:23",
"channelId" : "609562181473346797",
"channelName" : "星座-新浪博客",
"channelNameSummary" : "星座-新浪博客",
"channelUrl" : "http:\/\/blog.sina.com.cn\/lm\/astro\/",
"author" : "WWW.SINA.COM.CN",
"tags" : [],
"desc" : "",
"emailed" : False,
"forwarded" : False,
"english" : False
}  , {
"index" : 1,
"articleIndex" : "8966",
"favor" :  False ,
     "read" : False,    
"title" : "当12星座走投无路时",
"titleTip" : "当12星座走投无路时",
"titleSummary" : "当12星座走投无路时",
"descSummary" : "",
"url" : "http:\/\/go.rss.sina.com.cn\/redirect.php?url=http:\/\/blog.sina.com.cn\/s\/blog_ad7734e90101a3b4.html",
"pubDate" : "14:52:43",
"enterDate" : "384200:17:49",
"channelId" : "609562181473346797",
"channelName" : "星座-新浪博客",
"channelNameSummary" : "星座-新浪博客",
"channelUrl" : "http:\/\/blog.sina.com.cn\/lm\/astro\/",
"author" : "WWW.SINA.COM.CN",
"tags" : [],
"desc" : "",
"emailed" : False,
"forwarded" : False,
"english" : False
}  , {
"index" : 2,
"articleIndex" : "8965",
"favor" :  False ,
     "read" : False,    
"title" : "啥面相的人艳遇不断",
"titleTip" : "啥面相的人艳遇不断",
"titleSummary" : "啥面相的人艳遇不断",
"descSummary" : "",
"url" : "http:\/\/go.rss.sina.com.cn\/redirect.php?url=http:\/\/blog.sina.com.cn\/s\/blog_af65d54c0101mhd2.html",
"pubDate" : "14:51:41",
"enterDate" : "384200:16:47",
"channelId" : "609562181473346797",
"channelName" : "星座-新浪博客",
"channelNameSummary" : "星座-新浪博客",
"channelUrl" : "http:\/\/blog.sina.com.cn\/lm\/astro\/",
"author" : "WWW.SINA.COM.CN",
"tags" : [],
"desc" : "",
"emailed" : False,
"forwarded" : False,
"english" : False
}  , {
"index" : 3,
"articleIndex" : "8964",
"favor" :  False ,
     "read" : False,    
"title" : "最看不清自己的星座",
"titleTip" : "最看不清自己的星座",
"titleSummary" : "最看不清自己的星座",
"descSummary" : "",
"url" : "http:\/\/go.rss.sina.com.cn\/redirect.php?url=http:\/\/blog.sina.com.cn\/s\/blog_b60e2cc90101jc7n.html",
"pubDate" : "14:51:02",
"enterDate" : "384200:16:08",
"channelId" : "609562181473346797",
"channelName" : "星座-新浪博客",
"channelNameSummary" : "星座-新浪博客",
"channelUrl" : "http:\/\/blog.sina.com.cn\/lm\/astro\/",
"author" : "WWW.SINA.COM.CN",
"tags" : [],
"desc" : "",
"emailed" : False,
"forwarded" : False,
"english" : False
}  , {
"index" : 4,
"articleIndex" : "8963",
"favor" :  False ,
     "read" : False,    
"title" : "命理分析：陆川秦岚\u201C被分手\u201D",
"titleTip" : "命理分析：陆川秦岚\u201C被分手\u201D",
"titleSummary" : "命理分析：陆川秦岚\u201C被分手\u201D",
"descSummary" : "",
"url" : "http:\/\/go.rss.sina.com.cn\/redirect.php?url=http:\/\/blog.sina.com.cn\/s\/blog_67e4313c0101eru2.html",
"pubDate" : "12:35:44",
"enterDate" : "384201:01:20",
"channelId" : "609562181473346797",
"channelName" : "星座-新浪博客",
"channelNameSummary" : "星座-新浪博客",
"channelUrl" : "http:\/\/blog.sina.com.cn\/lm\/astro\/",
"author" : "WWW.SINA.COM.CN",
"tags" : [],
"desc" : "",
"emailed" : False,
"forwarded" : False,
"english" : False
}  , {
"index" : 5,
"articleIndex" : "8962",
"favor" :  False ,
     "read" : False,    
"title" : "容易招大叔喜欢的星座女",
"titleTip" : "容易招大叔喜欢的星座女",
"titleSummary" : "容易招大叔喜欢的星座女",
"descSummary" : "",
"url" : "http:\/\/go.rss.sina.com.cn\/redirect.php?url=http:\/\/blog.sina.com.cn\/s\/blog_d9b37e500101t7po.html",
"pubDate" : "12:21:33",
"enterDate" : "384200:47:09",
"channelId" : "609562181473346797",
"channelName" : "星座-新浪博客",
"channelNameSummary" : "星座-新浪博客",
"channelUrl" : "http:\/\/blog.sina.com.cn\/lm\/astro\/",
"author" : "WWW.SINA.COM.CN",
"tags" : [],
"desc" : "",
"emailed" : False,
"forwarded" : False,
"english" : False
}  , {
"index" : 6,
"articleIndex" : "8961",
"favor" :  False ,
     "read" : False,    
"title" : "Geo谈2014星座运势",
"titleTip" : "Geo谈2014星座运势",
"titleSummary" : "Geo谈2014星座运势",
"descSummary" : "",
"url" : "http:\/\/go.rss.sina.com.cn\/redirect.php?url=http:\/\/blog.sina.com.cn\/s\/blog_3e39cefc0102ekod.html",
"pubDate" : "11:23:04",
"enterDate" : "384200:33:50",
"channelId" : "609562181473346797",
"channelName" : "星座-新浪博客",
"channelNameSummary" : "星座-新浪博客",
"channelUrl" : "http:\/\/blog.sina.com.cn\/lm\/astro\/",
"author" : "WWW.SINA.COM.CN",
"tags" : [],
"desc" : "",
"emailed" : False,
"forwarded" : False,
"english" : False
}  , {
"index" : 7,
"articleIndex" : "8960",
"favor" :  False ,
     "read" : False,    
"title" : "啥面相男易财色双兼",
"titleTip" : "啥面相男易财色双兼",
"titleSummary" : "啥面相男易财色双兼",
"descSummary" : "",
"url" : "http:\/\/go.rss.sina.com.cn\/redirect.php?url=http:\/\/blog.sina.com.cn\/s\/blog_5f2e43a30102ecmj.html",
"pubDate" : "09:54:37",
"enterDate" : "384200:20:37",
"channelId" : "609562181473346797",
"channelName" : "星座-新浪博客",
"channelNameSummary" : "星座-新浪博客",
"channelUrl" : "http:\/\/blog.sina.com.cn\/lm\/astro\/",
"author" : "WWW.SINA.COM.CN",
"tags" : [],
"desc" : "",
"emailed" : False,
"forwarded" : False,
"english" : False
}  , {
"index" : 8,
"articleIndex" : "8959",
"favor" :  False ,
     "read" : False,    
"title" : "如何巧用财神添福进财",
"titleTip" : "如何巧用财神添福进财",
"titleSummary" : "如何巧用财神添福进财",
"descSummary" : "",
"url" : "http:\/\/go.rss.sina.com.cn\/redirect.php?url=http:\/\/blog.sina.com.cn\/s\/blog_6d9f26c90102ebeu.html",
"pubDate" : "09:54:00",
"enterDate" : "384200:20:00",
"channelId" : "609562181473346797",
"channelName" : "星座-新浪博客",
"channelNameSummary" : "星座-新浪博客",
"channelUrl" : "http:\/\/blog.sina.com.cn\/lm\/astro\/",
"author" : "WWW.SINA.COM.CN",
"tags" : [],
"desc" : "",
"emailed" : False,
"forwarded" : False,
"english" : False
}  , {
"index" : 9,
"articleIndex" : "8958",
"favor" :  False ,
     "read" : False,    
"title" : "12星座运势(11.1-11.15)",
"titleTip" : "12星座运势(11.1-11.15)",
"titleSummary" : "12星座运势(11.1-11.15)",
"descSummary" : "",
"url" : "http:\/\/go.rss.sina.com.cn\/redirect.php?url=http:\/\/blog.sina.com.cn\/s\/blog_3e8e948a0102ej45.html",
"pubDate" : "09:51:43",
"enterDate" : "384200:17:43",
"channelId" : "609562181473346797",
"channelName" : "星座-新浪博客",
"channelNameSummary" : "星座-新浪博客",
"channelUrl" : "http:\/\/blog.sina.com.cn\/lm\/astro\/",
"author" : "WWW.SINA.COM.CN",
"tags" : [],
"desc" : "",
"emailed" : False,
"forwarded" : False,
"english" : False
}  , {
"index" : 10,
"articleIndex" : "8957",
"favor" :  False ,
     "read" : False,    
"title" : "啥星座好友千万别进阶成恋人",
"titleTip" : "啥星座好友千万别进阶成恋人",
"titleSummary" : "啥星座好友千万别进阶成恋人",
"descSummary" : "",
"url" : "http:\/\/go.rss.sina.com.cn\/redirect.php?url=http:\/\/blog.sina.com.cn\/s\/blog_4c660c7d0102e8is.html",
"pubDate" : "09:49:59",
"enterDate" : "384200:15:59",
"channelId" : "609562181473346797",
"channelName" : "星座-新浪博客",
"channelNameSummary" : "星座-新浪博客",
"channelUrl" : "http:\/\/blog.sina.com.cn\/lm\/astro\/",
"author" : "WWW.SINA.COM.CN",
"tags" : [],
"desc" : "",
"emailed" : False,
"forwarded" : False,
"english" : False
}  , {
"index" : 11,
"articleIndex" : "8956",
"favor" :  False ,
     "read" : False,    
"title" : "从面相看你的他可靠吗",
"titleTip" : "从面相看你的他可靠吗",
"titleSummary" : "从面相看你的他可靠吗",
"descSummary" : "",
"url" : "http:\/\/go.rss.sina.com.cn\/redirect.php?url=http:\/\/blog.sina.com.cn\/s\/blog_4726dd840102e9lz.html",
"pubDate" : "09:47:42",
"enterDate" : "384200:13:42",
"channelId" : "609562181473346797",
"channelName" : "星座-新浪博客",
"channelNameSummary" : "星座-新浪博客",
"channelUrl" : "http:\/\/blog.sina.com.cn\/lm\/astro\/",
"author" : "WWW.SINA.COM.CN",
"tags" : [],
"desc" : "",
"emailed" : False,
"forwarded" : False,
"english" : False
}  , {
"index" : 12,
"articleIndex" : "8955",
"favor" :  False ,
     "read" : False,    
"title" : "12星座十一月桃花运势",
"titleTip" : "12星座十一月桃花运势",
"titleSummary" : "12星座十一月桃花运势",
"descSummary" : "",
"url" : "http:\/\/go.rss.sina.com.cn\/redirect.php?url=http:\/\/blog.sina.com.cn\/s\/blog_603102330102e8zt.html",
"pubDate" : "09:47:05",
"enterDate" : "384200:13:05",
"channelId" : "609562181473346797",
"channelName" : "星座-新浪博客",
"channelNameSummary" : "星座-新浪博客",
"channelUrl" : "http:\/\/blog.sina.com.cn\/lm\/astro\/",
"author" : "WWW.SINA.COM.CN",
"tags" : [],
"desc" : "",
"emailed" : False,
"forwarded" : False,
"english" : False
}  , {
"index" : 13,
"articleIndex" : "8954",
"favor" :  False ,
     "read" : False,    
"title" : "农历十月12生肖财运",
"titleTip" : "农历十月12生肖财运",
"titleSummary" : "农历十月12生肖财运",
"descSummary" : "",
"url" : "http:\/\/go.rss.sina.com.cn\/redirect.php?url=http:\/\/blog.sina.com.cn\/s\/blog_5bd1ddf60102ge8h.html",
"pubDate" : "09:46:06",
"enterDate" : "384200:12:06",
"channelId" : "609562181473346797",
"channelName" : "星座-新浪博客",
"channelNameSummary" : "星座-新浪博客",
"channelUrl" : "http:\/\/blog.sina.com.cn\/lm\/astro\/",
"author" : "WWW.SINA.COM.CN",
"tags" : [],
"desc" : "",
"emailed" : False,
"forwarded" : False,
"english" : False
}  , {
"index" : 14,
"articleIndex" : "8953",
"favor" :  False ,
     "read" : False,    
"title" : "12星座何时重归旧爱的怀抱",
"titleTip" : "12星座何时重归旧爱的怀抱",
"titleSummary" : "12星座何时重归旧爱的怀抱",
"descSummary" : "",
"url" : "http:\/\/go.rss.sina.com.cn\/redirect.php?url=http:\/\/blog.sina.com.cn\/s\/blog_50939dbf0102g5rx.html",
"pubDate" : "昨天15:48:39",
"enterDate" : "384199:02:45",
"channelId" : "609562181473346797",
"channelName" : "星座-新浪博客",
"channelNameSummary" : "星座-新浪博客",
"channelUrl" : "http:\/\/blog.sina.com.cn\/lm\/astro\/",
"author" : "WWW.SINA.COM.CN",
"tags" : [],
"desc" : "",
"emailed" : False,
"forwarded" : False,
"english" : False
}  , {
"index" : 15,
"articleIndex" : "8952",
"favor" :  False ,
     "read" : False,    
"title" : "起啥名可避免多病多灾",
"titleTip" : "起啥名可避免多病多灾",
"titleSummary" : "起啥名可避免多病多灾",
"descSummary" : "",
"url" : "http:\/\/go.rss.sina.com.cn\/redirect.php?url=http:\/\/blog.sina.com.cn\/s\/blog_a59f9ebe0101g318.html",
"pubDate" : "昨天14:53:30",
"enterDate" : "384200:07:55",
"channelId" : "609562181473346797",
"channelName" : "星座-新浪博客",
"channelNameSummary" : "星座-新浪博客",
"channelUrl" : "http:\/\/blog.sina.com.cn\/lm\/astro\/",
"author" : "WWW.SINA.COM.CN",
"tags" : [],
"desc" : "",
"emailed" : False,
"forwarded" : False,
"english" : False
}  , {
"index" : 16,
"articleIndex" : "8951",
"favor" :  False ,
     "read" : False,    
"title" : "什么星座永远不必等",
"titleTip" : "什么星座永远不必等",
"titleSummary" : "什么星座永远不必等",
"descSummary" : "",
"url" : "http:\/\/go.rss.sina.com.cn\/redirect.php?url=http:\/\/blog.sina.com.cn\/s\/blog_d9b37e500101t702.html",
"pubDate" : "昨天13:49:26",
"enterDate" : "384199:03:51",
"channelId" : "609562181473346797",
"channelName" : "星座-新浪博客",
"channelNameSummary" : "星座-新浪博客",
"channelUrl" : "http:\/\/blog.sina.com.cn\/lm\/astro\/",
"author" : "WWW.SINA.COM.CN",
"tags" : [],
"desc" : "",
"emailed" : False,
"forwarded" : False,
"english" : False
}  , {
"index" : 17,
"articleIndex" : "8950",
"favor" :  False ,
     "read" : False,    
"title" : "12星座的寂寞时刻",
"titleTip" : "12星座的寂寞时刻",
"titleSummary" : "12星座的寂寞时刻",
"descSummary" : "",
"url" : "http:\/\/go.rss.sina.com.cn\/redirect.php?url=http:\/\/blog.sina.com.cn\/s\/blog_ad7734e90101a2ia.html",
"pubDate" : "昨天12:27:47",
"enterDate" : "384200:57:47",
"channelId" : "609562181473346797",
"channelName" : "星座-新浪博客",
"channelNameSummary" : "星座-新浪博客",
"channelUrl" : "http:\/\/blog.sina.com.cn\/lm\/astro\/",
"author" : "WWW.SINA.COM.CN",
"tags" : [],
"desc" : "",
"emailed" : False,
"forwarded" : False,
"english" : False
}  , {
"index" : 18,
"articleIndex" : "8949",
"favor" :  False ,
     "read" : False,    
"title" : "会主动求婚的星座女",
"titleTip" : "会主动求婚的星座女",
"titleSummary" : "会主动求婚的星座女",
"descSummary" : "",
"url" : "http:\/\/go.rss.sina.com.cn\/redirect.php?url=http:\/\/blog.sina.com.cn\/s\/blog_5e1fb8420102e16h.html",
"pubDate" : "昨天12:26:52",
"enterDate" : "384200:56:52",
"channelId" : "609562181473346797",
"channelName" : "星座-新浪博客",
"channelNameSummary" : "星座-新浪博客",
"channelUrl" : "http:\/\/blog.sina.com.cn\/lm\/astro\/",
"author" : "WWW.SINA.COM.CN",
"tags" : [],
"desc" : "",
"emailed" : False,
"forwarded" : False,
"english" : False
}  , {
"index" : 19,
"articleIndex" : "8948",
"favor" :  False ,
     "read" : False,    
"title" : "会一夜暴富的面相",
"titleTip" : "会一夜暴富的面相",
"titleSummary" : "会一夜暴富的面相",
"descSummary" : "",
"url" : "http:\/\/go.rss.sina.com.cn\/redirect.php?url=http:\/\/blog.sina.com.cn\/s\/blog_af65d54c0101mgjp.html",
"pubDate" : "昨天12:24:37",
"enterDate" : "384200:54:37",
"channelId" : "609562181473346797",
"channelName" : "星座-新浪博客",
"channelNameSummary" : "星座-新浪博客",
"channelUrl" : "http:\/\/blog.sina.com.cn\/lm\/astro\/",
"author" : "WWW.SINA.COM.CN",
"tags" : [],
"desc" : "",
"emailed" : False,
"forwarded" : False,
"english" : False
} ]
}
