{
"mode" : {"viewTitle" : 1,   "viewNew" : 0,  "pageIndex" : 2 },
 "channel" : {"id" : "609562181473346797", "booked" : False, "subNumber" : 1, "name" : "星座-新浪博客", "url" : "http:\/\/blog.sina.com.cn\/lm\/astro\/", "feed" : "http:\/\/rss.sina.com.cn\/blog\/astro\/xz.xml", "author" : "WWW.SINA.COM.CN", "desc" : "星座博客列表", "imageUrl" : "http:\/\/www.sinaimg.cn\/blog\/main\/index2010\/blog_logo.png", "postPerWeek" : "0", "lastCrawTime" : "16:54:40", "crawDateTime" : "15:54:30", "lastHttpCode" : "200"}, "page" : {
"startIndex" : 20,
"totalCount" : 5000,
"pageIndex" : 2,
"lastPage" : 250,
"pageSize" : 20,
"english" :  False },
 "unreadNum" : 0, "shotIndex" : -1,
"articles" : [
{
"index" : 0,
"articleIndex" : "8947",
"favor" :  False ,
     "read" : False,    
"title" : "10.28-11.3占星职场周运",
"titleTip" : "10.28-11.3占星职场周运",
"titleSummary" : "10.28-11.3占星职场周运",
"descSummary" : "",
"url" : "http:\/\/go.rss.sina.com.cn\/redirect.php?url=http:\/\/blog.sina.com.cn\/s\/blog_661a25640102eocs.html",
"pubDate" : "昨天11:50:58",
"enterDate" : "384200:20:58",
"channelId" : "609562181473346797",
"channelName" : "星座-新浪博客",
"channelNameSummary" : "星座-新浪博客",
"channelUrl" : "http:\/\/blog.sina.com.cn\/lm\/astro\/",
"author" : "WWW.SINA.COM.CN",
"tags" : [],
"desc" : "",
"emailed" : False,
"forwarded" : False,
"english" : False
}  , {
"index" : 1,
"articleIndex" : "8946",
"favor" :  False ,
     "read" : False,    
"title" : "生肖本周运势(10.27-11.2)",
"titleTip" : "生肖本周运势(10.27-11.2)",
"titleSummary" : "生肖本周运势(10.27-11.2)",
"descSummary" : "",
"url" : "http:\/\/go.rss.sina.com.cn\/redirect.php?url=http:\/\/blog.sina.com.cn\/s\/blog_6eceb2bc0101de9n.html",
"pubDate" : "昨天11:49:24",
"enterDate" : "384200:19:24",
"channelId" : "609562181473346797",
"channelName" : "星座-新浪博客",
"channelNameSummary" : "星座-新浪博客",
"channelUrl" : "http:\/\/blog.sina.com.cn\/lm\/astro\/",
"author" : "WWW.SINA.COM.CN",
"tags" : [],
"desc" : "",
"emailed" : False,
"forwarded" : False,
"english" : False
}  , {
"index" : 2,
"articleIndex" : "8945",
"favor" :  False ,
     "read" : False,    
"title" : "蓝蓝占星一周星座运程(10.28-11.3)",
"titleTip" : "蓝蓝占星一周星座运程(10.28-11.3)",
"titleSummary" : "蓝蓝占星一周星座运程(10.28-11.3)",
"descSummary" : "",
"url" : "http:\/\/go.rss.sina.com.cn\/redirect.php?url=http:\/\/blog.sina.com.cn\/s\/blog_5fa0a3100101ghry.html",
"pubDate" : "昨天11:47:36",
"enterDate" : "384200:17:36",
"channelId" : "609562181473346797",
"channelName" : "星座-新浪博客",
"channelNameSummary" : "星座-新浪博客",
"channelUrl" : "http:\/\/blog.sina.com.cn\/lm\/astro\/",
"author" : "WWW.SINA.COM.CN",
"tags" : [],
"desc" : "",
"emailed" : False,
"forwarded" : False,
"english" : False
}  , {
"index" : 3,
"articleIndex" : "8944",
"favor" :  False ,
     "read" : False,    
"title" : "佩妮每周占星运(10.28-11.3)",
"titleTip" : "佩妮每周占星运(10.28-11.3)",
"titleSummary" : "佩妮每周占星运(10.28-11.3)",
"descSummary" : "",
"url" : "http:\/\/go.rss.sina.com.cn\/redirect.php?url=http:\/\/blog.sina.com.cn\/s\/blog_61bd67650102e4gv.html",
"pubDate" : "昨天11:34:23",
"enterDate" : "384201:04:39",
"channelId" : "609562181473346797",
"channelName" : "星座-新浪博客",
"channelNameSummary" : "星座-新浪博客",
"channelUrl" : "http:\/\/blog.sina.com.cn\/lm\/astro\/",
"author" : "WWW.SINA.COM.CN",
"tags" : [],
"desc" : "",
"emailed" : False,
"forwarded" : False,
"english" : False
}  , {
"index" : 4,
"articleIndex" : "8943",
"favor" :  False ,
     "read" : False,    
"title" : "阿莎莉娅每周占星运(10.28-11.3)",
"titleTip" : "阿莎莉娅每周占星运(10.28-11.3)",
"titleSummary" : "阿莎莉娅每周占星运(10.28-11.3)",
"descSummary" : "",
"url" : "http:\/\/go.rss.sina.com.cn\/redirect.php?url=http:\/\/blog.sina.com.cn\/s\/blog_61bd67650102e4gu.html",
"pubDate" : "昨天11:32:29",
"enterDate" : "384201:02:45",
"channelId" : "609562181473346797",
"channelName" : "星座-新浪博客",
"channelNameSummary" : "星座-新浪博客",
"channelUrl" : "http:\/\/blog.sina.com.cn\/lm\/astro\/",
"author" : "WWW.SINA.COM.CN",
"tags" : [],
"desc" : "",
"emailed" : False,
"forwarded" : False,
"english" : False
}  , {
"index" : 5,
"articleIndex" : "8942",
"favor" :  False ,
     "read" : False,    
"title" : "盘点最爱炫苦的星座",
"titleTip" : "盘点最爱炫苦的星座",
"titleSummary" : "盘点最爱炫苦的星座",
"descSummary" : "",
"url" : "http:\/\/go.rss.sina.com.cn\/redirect.php?url=http:\/\/blog.sina.com.cn\/s\/blog_3e39cefc0102ekmq.html",
"pubDate" : "昨天11:03:40",
"enterDate" : "384200:33:56",
"channelId" : "609562181473346797",
"channelName" : "星座-新浪博客",
"channelNameSummary" : "星座-新浪博客",
"channelUrl" : "http:\/\/blog.sina.com.cn\/lm\/astro\/",
"author" : "WWW.SINA.COM.CN",
"tags" : [],
"desc" : "",
"emailed" : False,
"forwarded" : False,
"english" : False
}  , {
"index" : 6,
"articleIndex" : "8941",
"favor" :  False ,
     "read" : False,    
"title" : "10.28-11.3爱情周运",
"titleTip" : "10.28-11.3爱情周运",
"titleSummary" : "10.28-11.3爱情周运",
"descSummary" : "",
"url" : "http:\/\/go.rss.sina.com.cn\/redirect.php?url=http:\/\/blog.sina.com.cn\/s\/blog_be7808710101e0po.html",
"pubDate" : "昨天10:05:56",
"enterDate" : "384200:36:21",
"channelId" : "609562181473346797",
"channelName" : "星座-新浪博客",
"channelNameSummary" : "星座-新浪博客",
"channelUrl" : "http:\/\/blog.sina.com.cn\/lm\/astro\/",
"author" : "WWW.SINA.COM.CN",
"tags" : [],
"desc" : "",
"emailed" : False,
"forwarded" : False,
"english" : False
}  , {
"index" : 7,
"articleIndex" : "8940",
"favor" :  False ,
     "read" : False,    
"title" : "必知:开光有啥注意事项",
"titleTip" : "必知:开光有啥注意事项",
"titleSummary" : "必知:开光有啥注意事项",
"descSummary" : "",
"url" : "http:\/\/go.rss.sina.com.cn\/redirect.php?url=http:\/\/blog.sina.com.cn\/s\/blog_4726dd840102e9le.html",
"pubDate" : "昨天09:50:17",
"enterDate" : "384200:20:42",
"channelId" : "609562181473346797",
"channelName" : "星座-新浪博客",
"channelNameSummary" : "星座-新浪博客",
"channelUrl" : "http:\/\/blog.sina.com.cn\/lm\/astro\/",
"author" : "WWW.SINA.COM.CN",
"tags" : [],
"desc" : "",
"emailed" : False,
"forwarded" : False,
"english" : False
}  , {
"index" : 8,
"articleIndex" : "8939",
"favor" :  False ,
     "read" : False,    
"title" : "农历十月12生肖桃花运",
"titleTip" : "农历十月12生肖桃花运",
"titleSummary" : "农历十月12生肖桃花运",
"descSummary" : "",
"url" : "http:\/\/go.rss.sina.com.cn\/redirect.php?url=http:\/\/blog.sina.com.cn\/s\/blog_5bd1ddf60102ge5b.html",
"pubDate" : "昨天09:49:15",
"enterDate" : "384200:19:40",
"channelId" : "609562181473346797",
"channelName" : "星座-新浪博客",
"channelNameSummary" : "星座-新浪博客",
"channelUrl" : "http:\/\/blog.sina.com.cn\/lm\/astro\/",
"author" : "WWW.SINA.COM.CN",
"tags" : [],
"desc" : "",
"emailed" : False,
"forwarded" : False,
"english" : False
}  , {
"index" : 9,
"articleIndex" : "8938",
"favor" :  False ,
     "read" : False,    
"title" : "生命线看你健康如何",
"titleTip" : "生命线看你健康如何",
"titleSummary" : "生命线看你健康如何",
"descSummary" : "",
"url" : "http:\/\/go.rss.sina.com.cn\/redirect.php?url=http:\/\/blog.sina.com.cn\/s\/blog_613bd5580101o7zg.html",
"pubDate" : "昨天09:47:57",
"enterDate" : "384200:18:22",
"channelId" : "609562181473346797",
"channelName" : "星座-新浪博客",
"channelNameSummary" : "星座-新浪博客",
"channelUrl" : "http:\/\/blog.sina.com.cn\/lm\/astro\/",
"author" : "WWW.SINA.COM.CN",
"tags" : [],
"desc" : "",
"emailed" : False,
"forwarded" : False,
"english" : False
}  , {
"index" : 10,
"articleIndex" : "8937",
"favor" :  False ,
     "read" : False,    
"title" : "命理点评:秦岚与陆川分手之谜",
"titleTip" : "命理点评:秦岚与陆川分手之谜",
"titleSummary" : "命理点评:秦岚与陆川分手之谜",
"descSummary" : "",
"url" : "http:\/\/go.rss.sina.com.cn\/redirect.php?url=http:\/\/blog.sina.com.cn\/s\/blog_5c5c38a30102eexl.html",
"pubDate" : "昨天09:46:04",
"enterDate" : "384200:16:29",
"channelId" : "609562181473346797",
"channelName" : "星座-新浪博客",
"channelNameSummary" : "星座-新浪博客",
"channelUrl" : "http:\/\/blog.sina.com.cn\/lm\/astro\/",
"author" : "WWW.SINA.COM.CN",
"tags" : [],
"desc" : "",
"emailed" : False,
"forwarded" : False,
"english" : False
}  , {
"index" : 11,
"articleIndex" : "8936",
"favor" :  False ,
     "read" : False,    
"title" : "最适合做老公的面相男",
"titleTip" : "最适合做老公的面相男",
"titleSummary" : "最适合做老公的面相男",
"descSummary" : "",
"url" : "http:\/\/go.rss.sina.com.cn\/redirect.php?url=http:\/\/blog.sina.com.cn\/s\/blog_465c79a90102ec0k.html",
"pubDate" : "昨天09:42:01",
"enterDate" : "384200:12:26",
"channelId" : "609562181473346797",
"channelName" : "星座-新浪博客",
"channelNameSummary" : "星座-新浪博客",
"channelUrl" : "http:\/\/blog.sina.com.cn\/lm\/astro\/",
"author" : "WWW.SINA.COM.CN",
"tags" : [],
"desc" : "",
"emailed" : False,
"forwarded" : False,
"english" : False
}  , {
"index" : 12,
"articleIndex" : "8935",
"favor" :  False ,
     "read" : False,    
"title" : "如何利用\u201C午马\u201D旺事业",
"titleTip" : "如何利用\u201C午马\u201D旺事业",
"titleSummary" : "如何利用\u201C午马\u201D旺事业",
"descSummary" : "",
"url" : "http:\/\/go.rss.sina.com.cn\/redirect.php?url=http:\/\/blog.sina.com.cn\/s\/blog_4dbb3ffd0101fho2.html",
"pubDate" : "昨天09:41:04",
"enterDate" : "384200:11:29",
"channelId" : "609562181473346797",
"channelName" : "星座-新浪博客",
"channelNameSummary" : "星座-新浪博客",
"channelUrl" : "http:\/\/blog.sina.com.cn\/lm\/astro\/",
"author" : "WWW.SINA.COM.CN",
"tags" : [],
"desc" : "",
"emailed" : False,
"forwarded" : False,
"english" : False
}  , {
"index" : 13,
"articleIndex" : "8934",
"favor" :  False ,
     "read" : False,    
"title" : "小心:床头柜风水左右你的美梦",
"titleTip" : "小心:床头柜风水左右你的美梦",
"titleSummary" : "小心:床头柜风水左右你的美梦",
"descSummary" : "",
"url" : "http:\/\/go.rss.sina.com.cn\/redirect.php?url=http:\/\/blog.sina.com.cn\/s\/blog_61682aca0101ijmq.html",
"pubDate" : "昨天09:40:13",
"enterDate" : "384200:10:38",
"channelId" : "609562181473346797",
"channelName" : "星座-新浪博客",
"channelNameSummary" : "星座-新浪博客",
"channelUrl" : "http:\/\/blog.sina.com.cn\/lm\/astro\/",
"author" : "WWW.SINA.COM.CN",
"tags" : [],
"desc" : "",
"emailed" : False,
"forwarded" : False,
"english" : False
}  , {
"index" : 14,
"articleIndex" : "8933",
"favor" :  False ,
     "read" : False,    
"title" : "啥星座男就爱肉感女",
"titleTip" : "啥星座男就爱肉感女",
"titleSummary" : "啥星座男就爱肉感女",
"descSummary" : "",
"url" : "http:\/\/go.rss.sina.com.cn\/redirect.php?url=http:\/\/blog.sina.com.cn\/s\/blog_673153e90101in3y.html",
"pubDate" : "前天16:41:01",
"enterDate" : "384199:59:31",
"channelId" : "609562181473346797",
"channelName" : "星座-新浪博客",
"channelNameSummary" : "星座-新浪博客",
"channelUrl" : "http:\/\/blog.sina.com.cn\/lm\/astro\/",
"author" : "WWW.SINA.COM.CN",
"tags" : [],
"desc" : "",
"emailed" : False,
"forwarded" : False,
"english" : False
}  , {
"index" : 15,
"articleIndex" : "8932",
"favor" :  False ,
     "read" : False,    
"title" : "地下情隐藏最深的5大星座",
"titleTip" : "地下情隐藏最深的5大星座",
"titleSummary" : "地下情隐藏最深的5大星座",
"descSummary" : "",
"url" : "http:\/\/go.rss.sina.com.cn\/redirect.php?url=http:\/\/blog.sina.com.cn\/s\/blog_4b4cded40102e3ii.html",
"pubDate" : "前天16:32:39",
"enterDate" : "384199:51:09",
"channelId" : "609562181473346797",
"channelName" : "星座-新浪博客",
"channelNameSummary" : "星座-新浪博客",
"channelUrl" : "http:\/\/blog.sina.com.cn\/lm\/astro\/",
"author" : "WWW.SINA.COM.CN",
"tags" : [],
"desc" : "",
"emailed" : False,
"forwarded" : False,
"english" : False
}  , {
"index" : 16,
"articleIndex" : "8931",
"favor" :  False ,
     "read" : False,    
"title" : "箬耶一周星座运势播报(10.28-11.3)",
"titleTip" : "箬耶一周星座运势播报(10.28-11.3)",
"titleSummary" : "箬耶一周星座运势播报(10.28-11.3)",
"descSummary" : "",
"url" : "http:\/\/go.rss.sina.com.cn\/redirect.php?url=http:\/\/blog.sina.com.cn\/s\/blog_63bab31c0101a1mm.html",
"pubDate" : "前天16:31:31",
"enterDate" : "384199:50:01",
"channelId" : "609562181473346797",
"channelName" : "星座-新浪博客",
"channelNameSummary" : "星座-新浪博客",
"channelUrl" : "http:\/\/blog.sina.com.cn\/lm\/astro\/",
"author" : "WWW.SINA.COM.CN",
"tags" : [],
"desc" : "",
"emailed" : False,
"forwarded" : False,
"english" : False
}  , {
"index" : 17,
"articleIndex" : "8930",
"favor" :  False ,
     "read" : False,    
"title" : "让男人爱得无法自拔的星座女",
"titleTip" : "让男人爱得无法自拔的星座女",
"titleSummary" : "让男人爱得无法自拔的星座女",
"descSummary" : "",
"url" : "http:\/\/go.rss.sina.com.cn\/redirect.php?url=http:\/\/blog.sina.com.cn\/s\/blog_50939dbf0102g5pw.html",
"pubDate" : "前天16:19:37",
"enterDate" : "384199:38:07",
"channelId" : "609562181473346797",
"channelName" : "星座-新浪博客",
"channelNameSummary" : "星座-新浪博客",
"channelUrl" : "http:\/\/blog.sina.com.cn\/lm\/astro\/",
"author" : "WWW.SINA.COM.CN",
"tags" : [],
"desc" : "",
"emailed" : False,
"forwarded" : False,
"english" : False
}  , {
"index" : 18,
"articleIndex" : "8929",
"favor" :  False ,
     "read" : False,    
"title" : "占卜：你是痴情还是有劈腿基因",
"titleTip" : "占卜：你是痴情还是有劈腿基因",
"titleSummary" : "占卜：你是痴情还是有劈腿基因",
"descSummary" : "",
"url" : "http:\/\/go.rss.sina.com.cn\/redirect.php?url=http:\/\/blog.sina.com.cn\/s\/blog_6c0e30b40101cfou.html",
"pubDate" : "前天16:19:09",
"enterDate" : "384199:37:39",
"channelId" : "609562181473346797",
"channelName" : "星座-新浪博客",
"channelNameSummary" : "星座-新浪博客",
"channelUrl" : "http:\/\/blog.sina.com.cn\/lm\/astro\/",
"author" : "WWW.SINA.COM.CN",
"tags" : [],
"desc" : "",
"emailed" : False,
"forwarded" : False,
"english" : False
}  , {
"index" : 19,
"articleIndex" : "8928",
"favor" :  False ,
     "read" : False,    
"title" : "【水晶传奇】12星座周运(10.28-11.03)",
"titleTip" : "【水晶传奇】12星座周运(10.28-11.03)",
"titleSummary" : "【水晶传奇】12星座周运(10.28-11.03)",
"descSummary" : "",
"url" : "http:\/\/go.rss.sina.com.cn\/redirect.php?url=http:\/\/blog.sina.com.cn\/s\/blog_4758ccc20102ef2t.html",
"pubDate" : "前天16:18:09",
"enterDate" : "384199:36:39",
"channelId" : "609562181473346797",
"channelName" : "星座-新浪博客",
"channelNameSummary" : "星座-新浪博客",
"channelUrl" : "http:\/\/blog.sina.com.cn\/lm\/astro\/",
"author" : "WWW.SINA.COM.CN",
"tags" : [],
"desc" : "",
"emailed" : False,
"forwarded" : False,
"english" : False
} ]
}
