{
"mode" : {"viewTitle" : 1,   "viewNew" : 0,  "pageIndex" : 1 },
 "channel" : {"id" : "-3977413138435736249", "booked" : False, "subNumber" : 1, "name" : "社会万象-新浪新闻", "url" : "http:\/\/news.sina.com.cn\/society\/index.shtml", "feed" : "http:\/\/rss.sina.com.cn\/news\/society\/misc15.xml", "author" : "WWW.SINA.COM.CN", "desc" : "社会新闻-社会万象", "imageUrl" : "http:\/\/www.sinaimg.cn\/home\/deco\/2009\/0330\/logo_home_news.gif", "postPerWeek" : "0", "lastCrawTime" : "17:18:31", "crawDateTime" : "17:18:31", "lastHttpCode" : "200"}, "page" : {
"startIndex" : 0,
"totalCount" : 5000,
"pageIndex" : 1,
"lastPage" : 250,
"pageSize" : 20,
"english" :  False },
 "unreadNum" : 0, "shotIndex" : -1,
"articles" : [
{
"index" : 0,
"articleIndex" : "79399",
"favor" :  False ,
     "read" : False,    
"title" : "28岁小伙颈部遭不当按摩患上脑中风",
"titleTip" : "28岁小伙颈部遭不当按摩患上脑中风",
"titleSummary" : "28岁小伙颈部遭不当按摩患上脑中风",
"descSummary" : "按摩不当 28岁小伙脑中风 年轻人脑卒中发病率上升 低油盐多运动可...",
"url" : "http:\/\/go.rss.sina.com.cn\/redirect.php?url=http:\/\/news.sina.com.cn\/s\/2013-10-30\/170828574230.shtml",
"pubDate" : "17:08:15",
"enterDate" : "384201:08:42",
"channelId" : "-3977413138435736249",
"channelName" : "社会万象-新浪新闻",
"channelNameSummary" : "社会万象-新浪新闻",
"channelUrl" : "http:\/\/news.sina.com.cn\/society\/index.shtml",
"author" : "WWW.SINA.COM.CN",
"tags" : [],
"desc" : "按摩不当 28岁小伙脑中风 年轻人脑卒中发病率上升 低油盐多运动可预防 商报记者 叶惠娟 重庆商报讯 昨日是世界卒中日，今年的主题是\u201C预防脑卒中，从今天开始\u201D。记者昨日从西南医院、大坪医院了解到，这两家医院目前收治的脑卒中发病患者有年轻化的趋势，约7%的脑....",
"emailed" : False,
"forwarded" : False,
"english" : False
}  , {
"index" : 1,
"articleIndex" : "79398",
"favor" :  False ,
     "read" : False,    
"title" : "小伙疑被女友传染性病索赔 争执中将其掐死",
"titleTip" : "小伙疑被女友传染性病索赔 争执中将其掐死",
"titleSummary" : "小伙疑被女友传染性病索赔 争执中将其掐死",
"descSummary" : "天津北方网讯：记者从河西区检察院获悉，该院今年三季度批...",
"url" : "http:\/\/go.rss.sina.com.cn\/redirect.php?url=http:\/\/news.sina.com.cn\/s\/2013-10-30\/165628574138.shtml",
"pubDate" : "16:56:00",
"enterDate" : "384200:56:27",
"channelId" : "-3977413138435736249",
"channelName" : "社会万象-新浪新闻",
"channelNameSummary" : "社会万象-新浪新闻",
"channelUrl" : "http:\/\/news.sina.com.cn\/society\/index.shtml",
"author" : "WWW.SINA.COM.CN",
"tags" : [],
"desc" : "天津北方网讯：记者从河西区检察院获悉，该院今年三季度批捕涉嫌故意伤害罪和故意杀人罪案件激增。这些案件多是因双方不能正确处理生活中的小矛盾，妄图使用暴力解决引起。 据了解，河西区检察院今年三季度共批捕涉嫌故意伤害罪案件24件25人，涉嫌故意杀人罪案件4件4人....",
"emailed" : False,
"forwarded" : False,
"english" : False
}  , {
"index" : 2,
"articleIndex" : "79397",
"favor" :  False ,
     "read" : False,    
"title" : "肯德基半价桶遭吐槽：半价买半桶",
"titleTip" : "肯德基半价桶遭吐槽：半价买半桶",
"titleSummary" : "肯德基半价桶遭吐槽：半价买半桶",
"descSummary" : "本报讯(记者 陈杰)肯德基近日表示，自10月28日到11月10日，推出\u201C...",
"url" : "http:\/\/go.rss.sina.com.cn\/redirect.php?url=http:\/\/news.sina.com.cn\/s\/2013-10-30\/165128574115.shtml",
"pubDate" : "16:51:55",
"enterDate" : "384200:52:22",
"channelId" : "-3977413138435736249",
"channelName" : "社会万象-新浪新闻",
"channelNameSummary" : "社会万象-新浪新闻",
"channelUrl" : "http:\/\/news.sina.com.cn\/society\/index.shtml",
"author" : "WWW.SINA.COM.CN",
"tags" : [],
"desc" : "本报讯(记者 陈杰)肯德基近日表示，自10月28日到11月10日，推出\u201C桶桶半价\u201D活动。然而，不少消费者在28日到店消费时却发现，\u201C桶桶半价\u201D活动中的\u201C半价桶\u201D并非原来的\u201C全家桶\u201D打半价，容量也少于原来的全家桶。 据悉，原来的全家桶内含：吮指原味鸡5块、香辣鸡翅3....",
"emailed" : False,
"forwarded" : False,
"english" : False
}  , {
"index" : 3,
"articleIndex" : "79395",
"favor" :  False ,
     "read" : False,    
"title" : "男子在博物馆办公室内被泼酸毁容",
"titleTip" : "男子在博物馆办公室内被泼酸毁容",
"titleSummary" : "男子在博物馆办公室内被泼酸毁容",
"descSummary" : "28日上午，石家庄市博物馆办公区来了一位客人，说是要找该馆一名...",
"url" : "http:\/\/go.rss.sina.com.cn\/redirect.php?url=http:\/\/news.sina.com.cn\/s\/2013-10-30\/161828573901.shtml",
"pubDate" : "16:18:27",
"enterDate" : "384200:49:00",
"channelId" : "-3977413138435736249",
"channelName" : "社会万象-新浪新闻",
"channelNameSummary" : "社会万象-新浪新闻",
"channelUrl" : "http:\/\/news.sina.com.cn\/society\/index.shtml",
"author" : "WWW.SINA.COM.CN",
"tags" : [],
"desc" : "28日上午，石家庄市博物馆办公区来了一位客人，说是要找该馆一名工作人员。 可他进去不到5分钟，便跑了出来。 很快，该馆办公区弥漫着一股刺鼻的酸味。一位工作人员被酸性液体烧伤了。 男子办公室内遭袭击 昨日，有读者报料称，28日石家庄市博物....",
"emailed" : False,
"forwarded" : False,
"english" : False
}  , {
"index" : 4,
"articleIndex" : "79393",
"favor" :  False ,
     "read" : False,    
"title" : "夫妇两地贩烟赚差价被判刑 称以为是真烟就没事",
"titleTip" : "夫妇两地贩烟赚差价被判刑 称以为是真烟就没事",
"titleSummary" : "夫妇两地贩烟赚差价被判刑 称以为是真烟就没事",
"descSummary" : "\u201C我以为只要卖的是真烟就没事了，没想到因为赚个香烟...",
"url" : "http:\/\/go.rss.sina.com.cn\/redirect.php?url=http:\/\/news.sina.com.cn\/s\/2013-10-30\/150428573109.shtml",
"pubDate" : "15:04:15",
"enterDate" : "384201:05:03",
"channelId" : "-3977413138435736249",
"channelName" : "社会万象-新浪新闻",
"channelNameSummary" : "社会万象-新浪新闻",
"channelUrl" : "http:\/\/news.sina.com.cn\/society\/index.shtml",
"author" : "WWW.SINA.COM.CN",
"tags" : [],
"desc" : "\u201C我以为只要卖的是真烟就没事了，没想到因为赚个香烟的差价还要被判刑。\u201D浙江省天台人陆某甲站在新昌法院的被告席上懊悔地说道。 事情还得从去年的一次家庭聚会说起。在聚会中陆某甲从在山东经商的亲戚口中得知浙江和山东的香烟价格是不统一的，比如中华烟就是山东便....",
"emailed" : False,
"forwarded" : False,
"english" : False
}  , {
"index" : 5,
"articleIndex" : "79396",
"favor" :  False ,
     "read" : False,    
"title" : "女司机撞倒大片隔离带后弃车光脚逃逸(图)",
"titleTip" : "女司机撞倒大片隔离带后弃车光脚逃逸(图)",
"titleSummary" : "女司机撞倒大片隔离带后弃车光脚逃逸(图)",
"descSummary" : "肇事女司机光着脚就跑了 本报讯(记者许前程) 昨晚10时30分，...",
"url" : "http:\/\/go.rss.sina.com.cn\/redirect.php?url=http:\/\/news.sina.com.cn\/s\/p\/2013-10-30\/145928572916.shtml",
"pubDate" : "14:59:10",
"enterDate" : "384198:59:37",
"channelId" : "-3977413138435736249",
"channelName" : "社会万象-新浪新闻",
"channelNameSummary" : "社会万象-新浪新闻",
"channelUrl" : "http:\/\/news.sina.com.cn\/society\/index.shtml",
"author" : "WWW.SINA.COM.CN",
"tags" : [],
"desc" : "肇事女司机光着脚就跑了 本报讯(记者许前程) 昨晚10时30分，南三环外马家堡东路与洋桥北路交叉口处，一辆由北向南行驶的红色马六突然失控，将路中间隔离带撞倒了一大片。让众人错愕的是，事发后马六的女司机并没有停车的意思，她接连打火，想将熄火的车辆重新启动。失....",
"emailed" : False,
"forwarded" : False,
"english" : False
}  , {
"index" : 6,
"articleIndex" : "79392",
"favor" :  False ,
     "read" : False,    
"title" : "大三女生寄101封信请求校长增女厕(图)",
"titleTip" : "大三女生寄101封信请求校长增女厕(图)",
"titleSummary" : "大三女生寄101封信请求校长增女厕(图)",
"descSummary" : "28日早上，济南大学社工专业大三女生凌甜(化名)寄出了101封挂...",
"url" : "http:\/\/go.rss.sina.com.cn\/redirect.php?url=http:\/\/news.sina.com.cn\/s\/p\/2013-10-30\/144728572856.shtml",
"pubDate" : "14:47:31",
"enterDate" : "384200:48:19",
"channelId" : "-3977413138435736249",
"channelName" : "社会万象-新浪新闻",
"channelNameSummary" : "社会万象-新浪新闻",
"channelUrl" : "http:\/\/news.sina.com.cn\/society\/index.shtml",
"author" : "WWW.SINA.COM.CN",
"tags" : [],
"desc" : "28日早上，济南大学社工专业大三女生凌甜(化名)寄出了101封挂号信，收信人是省内101所高校校长。信的内容是同一个主题：呼吁大学校园扩建女厕至男厕2倍，以改善女大学生在校园里如厕难的问题。 此事迅速在网络上引起关注，有人质疑，如此高调，是不是炒作？ 29....",
"emailed" : False,
"forwarded" : False,
"english" : False
}  , {
"index" : 7,
"articleIndex" : "79391",
"favor" :  False ,
     "read" : False,    
"title" : "14岁女孩被罐车拖拽10米后抢救无效身亡(组图)",
"titleTip" : "14岁女孩被罐车拖拽10米后抢救无效身亡(组图)",
"titleSummary" : "14岁女孩被罐车拖拽10米后抢救无效身亡(组图)",
"descSummary" : "14岁女孩被罐车拖拽10米 抢救无效身亡在玉桥中学读初三...",
"url" : "http:\/\/go.rss.sina.com.cn\/redirect.php?url=http:\/\/news.sina.com.cn\/s\/p\/2013-10-30\/141628572630.shtml",
"pubDate" : "14:16:29",
"enterDate" : "384200:47:22",
"channelId" : "-3977413138435736249",
"channelName" : "社会万象-新浪新闻",
"channelNameSummary" : "社会万象-新浪新闻",
"channelUrl" : "http:\/\/news.sina.com.cn\/society\/index.shtml",
"author" : "WWW.SINA.COM.CN",
"tags" : [],
"desc" : "14岁女孩被罐车拖拽10米 抢救无效身亡在玉桥中学读初三再过13天就满15岁 昨天中午，通州区小圣庙附近，一辆水泥罐车撞倒一对骑着电动自行车的母女，并将后座的女孩拖拽近10米。 11月11日就是女孩15岁的生日，可她的生命，却只能定格在那块摔碎的手表上....",
"emailed" : False,
"forwarded" : False,
"english" : False
}  , {
"index" : 8,
"articleIndex" : "79390",
"favor" :  False ,
     "read" : False,    
"title" : "8旬老母起诉儿子要求每周探视1次 被告不服上诉",
"titleTip" : "8旬老母起诉儿子要求每周探视1次 被告不服上诉",
"titleSummary" : "8旬老母起诉儿子要求每周探视1次 被告不服上诉",
"descSummary" : "82岁的刘老太育有五女一子，可儿子李某却很少照顾母...",
"url" : "http:\/\/go.rss.sina.com.cn\/redirect.php?url=http:\/\/news.sina.com.cn\/s\/2013-10-30\/135728572548.shtml",
"pubDate" : "13:57:48",
"enterDate" : "384200:58:46",
"channelId" : "-3977413138435736249",
"channelName" : "社会万象-新浪新闻",
"channelNameSummary" : "社会万象-新浪新闻",
"channelUrl" : "http:\/\/news.sina.com.cn\/society\/index.shtml",
"author" : "WWW.SINA.COM.CN",
"tags" : [],
"desc" : "82岁的刘老太育有五女一子，可儿子李某却很少照顾母亲。无奈的刘老太搬去与女儿同住，谁知刘某既不支付赡养费，也几乎从不探视母亲。为此，刘老太将儿子告上法院，要求李某至少每周探望自己一次。记者昨日从龙岗法院获悉，该院横岗法庭一审判刘老太胜诉。据了解，这是自《老年....",
"emailed" : False,
"forwarded" : False,
"english" : False
}  , {
"index" : 9,
"articleIndex" : "79389",
"favor" :  False ,
     "read" : False,    
"title" : "卖论文网寄生350家学术期刊 买家多中小学老师",
"titleTip" : "卖论文网寄生350家学术期刊 买家多中小学老师",
"titleSummary" : "卖论文网寄生350家学术期刊 买家多中小学老师",
"descSummary" : "文\/本报记者沈度 图\/本报记者佘影 日前，一名高校学生向...",
"url" : "http:\/\/go.rss.sina.com.cn\/redirect.php?url=http:\/\/news.sina.com.cn\/s\/2013-10-30\/135628572543.shtml",
"pubDate" : "13:56:17",
"enterDate" : "384200:57:15",
"channelId" : "-3977413138435736249",
"channelName" : "社会万象-新浪新闻",
"channelNameSummary" : "社会万象-新浪新闻",
"channelUrl" : "http:\/\/news.sina.com.cn\/society\/index.shtml",
"author" : "WWW.SINA.COM.CN",
"tags" : [],
"desc" : "文\/本报记者沈度 图\/本报记者佘影 日前，一名高校学生向楚天金报报料称，他花高价买来的毕业论文，因抄袭率过高未能通过，被迫延迟毕业，对方也不愿退款。 在随后的工商执法行动中，金报记者发现，这家论文代写代发公司业务量火爆，代发刊物涉及国内350家学术期....",
"emailed" : False,
"forwarded" : False,
"english" : False
}  , {
"index" : 10,
"articleIndex" : "79394",
"favor" :  False ,
     "read" : False,    
"title" : "18岁少女钱包失窃求助保安被害",
"titleTip" : "18岁少女钱包失窃求助保安被害",
"titleSummary" : "18岁少女钱包失窃求助保安被害",
"descSummary" : "晚报记者程怡 报道 18岁少女小芳在钱包失窃后立即向小区保安寻求帮助...",
"url" : "http:\/\/go.rss.sina.com.cn\/redirect.php?url=http:\/\/news.sina.com.cn\/s\/2013-10-30\/132028572380.shtml",
"pubDate" : "13:20:45",
"enterDate" : "384197:51:18",
"channelId" : "-3977413138435736249",
"channelName" : "社会万象-新浪新闻",
"channelNameSummary" : "社会万象-新浪新闻",
"channelUrl" : "http:\/\/news.sina.com.cn\/society\/index.shtml",
"author" : "WWW.SINA.COM.CN",
"tags" : [],
"desc" : "□晚报记者程怡 报道 18岁少女小芳在钱包失窃后立即向小区保安寻求帮助，谁料却因颇有姿色被原本帮助自己的保安朱强见色起意，奋力反抗无果后，小芳被其杀害在了小区地下室的污水池内。近日，闵行区检察院以涉嫌故意杀人罪批准逮捕了犯罪嫌疑人朱强。 18岁女儿2....",
"emailed" : False,
"forwarded" : False,
"english" : False
}  , {
"index" : 11,
"articleIndex" : "79388",
"favor" :  False ,
     "read" : False,    
"title" : "农民科学家蓄须30余年研究出超级杂交油菜(图)",
"titleTip" : "农民科学家蓄须30余年研究出超级杂交油菜(图)",
"titleSummary" : "农民科学家蓄须30余年研究出超级杂交油菜(图)",
"descSummary" : "听油菜花开的声音 从湖南省常德市临澧县杨桥村采访归来...",
"url" : "http:\/\/go.rss.sina.com.cn\/redirect.php?url=http:\/\/news.sina.com.cn\/s\/p\/2013-10-30\/124528572073.shtml",
"pubDate" : "12:45:40",
"enterDate" : "384200:46:48",
"channelId" : "-3977413138435736249",
"channelName" : "社会万象-新浪新闻",
"channelNameSummary" : "社会万象-新浪新闻",
"channelUrl" : "http:\/\/news.sina.com.cn\/society\/index.shtml",
"author" : "WWW.SINA.COM.CN",
"tags" : [],
"desc" : "听油菜花开的声音 从湖南省常德市临澧县杨桥村采访归来，那一块与众不同的油菜地时常出现在记者的梦境中。地里每一株油菜的每一个分枝上都挂着标记。这是杨桥村农民科学家沈昌健全家的\u201C圣地\u201D\u2015\u2015超级杂交油菜科研基地。 这块土地诠释着沈昌健全家人的前赴后继....",
"emailed" : False,
"forwarded" : False,
"english" : False
}  , {
"index" : 12,
"articleIndex" : "79385",
"favor" :  False ,
     "read" : False,    
"title" : "在校大学生强迫妇女卖淫 少女写字条求救",
"titleTip" : "在校大学生强迫妇女卖淫 少女写字条求救",
"titleSummary" : "在校大学生强迫妇女卖淫 少女写字条求救",
"descSummary" : "南方农村报讯 (通讯员谢碧娟)阿桂和阿清都只有十几岁，原本只...",
"url" : "http:\/\/go.rss.sina.com.cn\/redirect.php?url=http:\/\/news.sina.com.cn\/s\/2013-10-30\/115328571788.shtml",
"pubDate" : "11:53:27",
"enterDate" : "384200:54:45",
"channelId" : "-3977413138435736249",
"channelName" : "社会万象-新浪新闻",
"channelNameSummary" : "社会万象-新浪新闻",
"channelUrl" : "http:\/\/news.sina.com.cn\/society\/index.shtml",
"author" : "WWW.SINA.COM.CN",
"tags" : [],
"desc" : "南方农村报讯 (通讯员谢碧娟)阿桂和阿清都只有十几岁，原本只是答应朋友去参加生日宴会，却不料想这个朋友竟是个披着\"狼皮\"的人贩子，狠心将她们卖掉不说，还将她们推向了卖淫组织，致使她们差点沦为卖淫女。而这个卖淫组织的其中一位组织者竟然是一名在校大学生。笔者日前从....",
"emailed" : False,
"forwarded" : False,
"english" : False
}  , {
"index" : 13,
"articleIndex" : "79384",
"favor" :  False ,
     "read" : False,    
"title" : "司机开残疾人爱心车 多次载瘾君子在车上吸毒",
"titleTip" : "司机开残疾人爱心车 多次载瘾君子在车上吸毒",
"titleSummary" : "司机开残疾人爱心车 多次载瘾君子在车上吸毒",
"descSummary" : "楚天都市报讯 本报首席驻站记者卢成汉 通讯员卢贻斌 一辆...",
"url" : "http:\/\/go.rss.sina.com.cn\/redirect.php?url=http:\/\/news.sina.com.cn\/s\/2013-10-30\/113228571532.shtml",
"pubDate" : "11:32:29",
"enterDate" : "384201:03:52",
"channelId" : "-3977413138435736249",
"channelName" : "社会万象-新浪新闻",
"channelNameSummary" : "社会万象-新浪新闻",
"channelUrl" : "http:\/\/news.sina.com.cn\/society\/index.shtml",
"author" : "WWW.SINA.COM.CN",
"tags" : [],
"desc" : "楚天都市报讯&#160;□本报首席驻站记者卢成汉 通讯员卢贻斌 一辆标有\u201C为残疾人奉献一份爱\u201D的轿车，不仅多次运送两名瘾君子前往买毒品，还任凭他们在车上\u201C过瘾\u201D。27日，石首警方成功拦载该车，现场抓获一对吸毒人员，该车司机因贪图区区几十元的运费，将面临法律的....",
"emailed" : False,
"forwarded" : False,
"english" : False
}  , {
"index" : 14,
"articleIndex" : "79383",
"favor" :  False ,
     "read" : False,    
"title" : "嫌犯借钱后伪造130多万面额支票作抵押",
"titleTip" : "嫌犯借钱后伪造130多万面额支票作抵押",
"titleSummary" : "嫌犯借钱后伪造130多万面额支票作抵押",
"descSummary" : "南方日报讯 (记者\/罗湛贤 通讯员\/三检宣) 伪造虚假支票只为瞒天...",
"url" : "http:\/\/go.rss.sina.com.cn\/redirect.php?url=http:\/\/news.sina.com.cn\/s\/2013-10-30\/112828571507.shtml",
"pubDate" : "11:28:33",
"enterDate" : "384200:59:56",
"channelId" : "-3977413138435736249",
"channelName" : "社会万象-新浪新闻",
"channelNameSummary" : "社会万象-新浪新闻",
"channelUrl" : "http:\/\/news.sina.com.cn\/society\/index.shtml",
"author" : "WWW.SINA.COM.CN",
"tags" : [],
"desc" : "南方日报讯&#160;(记者\/罗湛贤 通讯员\/三检宣) 伪造虚假支票只为瞒天过海借人钱财，但最终难逃法网。日前，三水区检察院以涉嫌伪造金融票证罪批捕一名为向他人借钱，伪造虚假支票以作抵押，伪造的虚假支票总面额达130多万元的犯罪嫌疑人作出批准逮捕的决定，该案是三水自2003....",
"emailed" : False,
"forwarded" : False,
"english" : False
}  , {
"index" : 15,
"articleIndex" : "79382",
"favor" :  False ,
     "read" : False,    
"title" : "男子逃离传销魔窟 手持砖头误闯交警宿舍区",
"titleTip" : "男子逃离传销魔窟 手持砖头误闯交警宿舍区",
"titleSummary" : "男子逃离传销魔窟 手持砖头误闯交警宿舍区",
"descSummary" : "楚天都市报讯 (记者陈咏 通讯员卫冬 孙修家)前日凌晨3时许...",
"url" : "http:\/\/go.rss.sina.com.cn\/redirect.php?url=http:\/\/news.sina.com.cn\/s\/2013-10-30\/111728571343.shtml",
"pubDate" : "11:17:39",
"enterDate" : "384200:49:02",
"channelId" : "-3977413138435736249",
"channelName" : "社会万象-新浪新闻",
"channelNameSummary" : "社会万象-新浪新闻",
"channelUrl" : "http:\/\/news.sina.com.cn\/society\/index.shtml",
"author" : "WWW.SINA.COM.CN",
"tags" : [],
"desc" : "楚天都市报讯&#160;(记者陈咏 通讯员卫冬 孙修家)前日凌晨3时许，一名手持砖头的陌生男子突然闯入安陆市交警大队一中队宿舍区内，差点被当盗贼抓获。交警询问得知，该男青年刚从传销魔窟跳楼逃脱，误闯误撞进了该宿舍区\u201C避难\u201D。 据该男子介绍，他姓赵，是河南汝阳人....",
"emailed" : False,
"forwarded" : False,
"english" : False
}  , {
"index" : 16,
"articleIndex" : "79381",
"favor" :  False ,
     "read" : False,    
"title" : "储户银行卡被跨省盗刷27万 银行赔偿7成损失",
"titleTip" : "储户银行卡被跨省盗刷27万 银行赔偿7成损失",
"titleSummary" : "储户银行卡被跨省盗刷27万 银行赔偿7成损失",
"descSummary" : "南方日报讯 (记者\/黄少宏 通讯员\/黄彩华) 身在东莞，银行卡...",
"url" : "http:\/\/go.rss.sina.com.cn\/redirect.php?url=http:\/\/news.sina.com.cn\/s\/2013-10-30\/083028569774.shtml",
"pubDate" : "08:30:06",
"enterDate" : "384198:01:29",
"channelId" : "-3977413138435736249",
"channelName" : "社会万象-新浪新闻",
"channelNameSummary" : "社会万象-新浪新闻",
"channelUrl" : "http:\/\/news.sina.com.cn\/society\/index.shtml",
"author" : "WWW.SINA.COM.CN",
"tags" : [],
"desc" : "南方日报讯 (记者\/黄少宏 通讯员\/黄彩华) 身在东莞，银行卡却被人在新疆刷走27万余元。东莞两审法院均认定涉案银行未能有效识别伪造的银行卡，应当承担赔偿责任，而吴先生未尽妥善保管银行卡密码的义务，也应承担部分责任。昨日，记者从法院获悉，法院最终判令银行应承担吴先....",
"emailed" : False,
"forwarded" : False,
"english" : False
}  , {
"index" : 17,
"articleIndex" : "79380",
"favor" :  False ,
     "read" : False,    
"title" : "部分大学生为给简历加分拍高价证件照",
"titleTip" : "部分大学生为给简历加分拍高价证件照",
"titleSummary" : "部分大学生为给简历加分拍高价证件照",
"descSummary" : "南方日报讯 (记者\/张婧 实习生\/曹菲 叶碧云) 又到一年求职毕业季...",
"url" : "http:\/\/go.rss.sina.com.cn\/redirect.php?url=http:\/\/news.sina.com.cn\/s\/2013-10-30\/083028569678.shtml",
"pubDate" : "08:30:05",
"enterDate" : "384198:01:28",
"channelId" : "-3977413138435736249",
"channelName" : "社会万象-新浪新闻",
"channelNameSummary" : "社会万象-新浪新闻",
"channelUrl" : "http:\/\/news.sina.com.cn\/society\/index.shtml",
"author" : "WWW.SINA.COM.CN",
"tags" : [],
"desc" : "南方日报讯 (记者\/张婧 实习生\/曹菲 叶碧云) 又到一年求职毕业季，暨南大学读研三的曹同学发现，身边不少同学甚至组队去拍\u201C高价\u201D证件照为自己简历\u201C加分\u201D，大学附近的一些照相馆因此生意火爆。然而，资深HR(人力资源)人士表示，求职照片是否漂亮一般不影响最终结果，只要整....",
"emailed" : False,
"forwarded" : False,
"english" : False
}  , {
"index" : 18,
"articleIndex" : "79387",
"favor" :  False ,
     "read" : False,    
"title" : "高校教师研发系统可发现老人跌倒",
"titleTip" : "高校教师研发系统可发现老人跌倒",
"titleSummary" : "高校教师研发系统可发现老人跌倒",
"descSummary" : "晨报记者 董川峰 近日，上海市教委举行了高校工博会参展项目发布会...",
"url" : "http:\/\/go.rss.sina.com.cn\/redirect.php?url=http:\/\/news.sina.com.cn\/s\/2013-10-30\/074028569227.shtml",
"pubDate" : "07:40:42",
"enterDate" : "384195:41:50",
"channelId" : "-3977413138435736249",
"channelName" : "社会万象-新浪新闻",
"channelNameSummary" : "社会万象-新浪新闻",
"channelUrl" : "http:\/\/news.sina.com.cn\/society\/index.shtml",
"author" : "WWW.SINA.COM.CN",
"tags" : [],
"desc" : "□晨报记者 董川峰 近日，上海市教委举行了高校工博会参展项目发布会。发布会上，一个可侦测、反馈独居老人异常信息的养老系统、一个可实现自动分类的垃圾桶引起了大家的关注。 系统还可定位走失老人 一款可侦测、反馈独居老人异常信息的系统\u2015\u2015\u201C基于....",
"emailed" : False,
"forwarded" : False,
"english" : False
}  , {
"index" : 19,
"articleIndex" : "79386",
"favor" :  False ,
     "read" : False,    
"title" : "打工仔放弃在城市购房回老家盖别墅",
"titleTip" : "打工仔放弃在城市购房回老家盖别墅",
"titleSummary" : "打工仔放弃在城市购房回老家盖别墅",
"descSummary" : "\u201C面对深圳浮云般的房价，放弃幻想，腰缠40万元，回老家乡下盖...",
"url" : "http:\/\/go.rss.sina.com.cn\/redirect.php?url=http:\/\/news.sina.com.cn\/s\/2013-10-30\/052128569395.shtml",
"pubDate" : "05:21:42",
"enterDate" : "384193:52:55",
"channelId" : "-3977413138435736249",
"channelName" : "社会万象-新浪新闻",
"channelNameSummary" : "社会万象-新浪新闻",
"channelUrl" : "http:\/\/news.sina.com.cn\/society\/index.shtml",
"author" : "WWW.SINA.COM.CN",
"tags" : [],
"desc" : "\u201C面对深圳浮云般的房价，放弃幻想，腰缠40万元，回老家乡下盖一个飘逸的独栋别墅！\u201D面对深圳高企的房价，外来务工者别说是买房，连租房的压力都难以承受。在大城市打工赚钱，回老家盖房，不少人通过这一策略实现了\u201C有房一族\u201D的梦想。 但也有人吐槽，对于继续在大城....",
"emailed" : False,
"forwarded" : False,
"english" : False
} ]
}
