{
"mode" : {"viewTitle" : 1,   "viewNew" : 0,  "pageIndex" : 2 },
 "channel" : {"id" : "-3977413138435736249", "booked" : False, "subNumber" : 1, "name" : "社会万象-新浪新闻", "url" : "http:\/\/news.sina.com.cn\/society\/index.shtml", "feed" : "http:\/\/rss.sina.com.cn\/news\/society\/misc15.xml", "author" : "WWW.SINA.COM.CN", "desc" : "社会新闻-社会万象", "imageUrl" : "http:\/\/www.sinaimg.cn\/home\/deco\/2009\/0330\/logo_home_news.gif", "postPerWeek" : "0", "lastCrawTime" : "17:18:31", "crawDateTime" : "17:18:31", "lastHttpCode" : "200"}, "page" : {
"startIndex" : 20,
"totalCount" : 5000,
"pageIndex" : 2,
"lastPage" : 250,
"pageSize" : 20,
"english" :  False },
 "unreadNum" : 0, "shotIndex" : -1,
"articles" : [
{
"index" : 0,
"articleIndex" : "79378",
"favor" :  False ,
     "read" : False,    
"title" : "女子花30多万办免费国学班(图)",
"titleTip" : "女子花30多万办免费国学班(图)",
"titleSummary" : "女子花30多万办免费国学班(图)",
"descSummary" : "楚天都市报讯 昨日，一堂生动的《弟子规》国学课，在武昌南湖都市桃源...",
"url" : "http:\/\/go.rss.sina.com.cn\/redirect.php?url=http:\/\/news.sina.com.cn\/s\/2013-10-30\/110628571313.shtml",
"pubDate" : "11:06:30",
"enterDate" : "384200:37:53",
"channelId" : "-3977413138435736249",
"channelName" : "社会万象-新浪新闻",
"channelNameSummary" : "社会万象-新浪新闻",
"channelUrl" : "http:\/\/news.sina.com.cn\/society\/index.shtml",
"author" : "WWW.SINA.COM.CN",
"tags" : [],
"desc" : "楚天都市报讯 昨日，一堂生动的《弟子规》国学课，在武昌南湖都市桃源社区举行。看到孩子们踊跃举手，阐述自己对\u201C善恶\u201D的理解，\u201C忠孝堂\u201D国学班的创办者\u2015\u2015黄桂琴脸上露出欣慰的笑容。 今年54岁的黄桂琴是武汉人，初中毕业后做过工人及行政干部。上世纪90年代初，....",
"emailed" : False,
"forwarded" : False,
"english" : False
}  , {
"index" : 1,
"articleIndex" : "79377",
"favor" :  False ,
     "read" : False,    
"title" : "大三女生如厕被隔板下咸猪手捏臀 吓哭当场",
"titleTip" : "大三女生如厕被隔板下咸猪手捏臀 吓哭当场",
"titleSummary" : "大三女生如厕被隔板下咸猪手捏臀 吓哭当场",
"descSummary" : "楚天都市报讯 (记者李曼英 陈倩 周丹)在教学楼上厕所，隔板...",
"url" : "http:\/\/go.rss.sina.com.cn\/redirect.php?url=http:\/\/news.sina.com.cn\/s\/2013-10-30\/110228571290.shtml",
"pubDate" : "11:02:19",
"enterDate" : "384201:03:47",
"channelId" : "-3977413138435736249",
"channelName" : "社会万象-新浪新闻",
"channelNameSummary" : "社会万象-新浪新闻",
"channelUrl" : "http:\/\/news.sina.com.cn\/society\/index.shtml",
"author" : "WWW.SINA.COM.CN",
"tags" : [],
"desc" : "楚天都市报讯&#160;(记者李曼英 陈倩 周丹)在教学楼上厕所，隔板下竟伸出一只手，女大学生乐乐(化名)当场吓得尖叫，半天不敢打开厕所门。现在一想起这件事时，乐乐仍惊魂未定，禁不住流泪。 乐乐在江汉大学读大三。28日，因下午在J01教学楼有课，她吃完中饭后便早早来....",
"emailed" : False,
"forwarded" : False,
"english" : False
}  , {
"index" : 2,
"articleIndex" : "79376",
"favor" :  False ,
     "read" : False,    
"title" : "武校学生一夜翻窗盗窃5户人家",
"titleTip" : "武校学生一夜翻窗盗窃5户人家",
"titleSummary" : "武校学生一夜翻窗盗窃5户人家",
"descSummary" : "武校学生沦为\u201C蜘蛛大盗\u201D 爬楼入室行窃 来无影去无踪 却被偷来的赃物\u201C...",
"url" : "http:\/\/go.rss.sina.com.cn\/redirect.php?url=http:\/\/news.sina.com.cn\/s\/2013-10-30\/104628571155.shtml",
"pubDate" : "10:46:39",
"enterDate" : "384200:48:07",
"channelId" : "-3977413138435736249",
"channelName" : "社会万象-新浪新闻",
"channelNameSummary" : "社会万象-新浪新闻",
"channelUrl" : "http:\/\/news.sina.com.cn\/society\/index.shtml",
"author" : "WWW.SINA.COM.CN",
"tags" : [],
"desc" : "武校学生沦为\u201C蜘蛛大盗\u201D 爬楼入室行窃 来无影去无踪 却被偷来的赃物\u201C出卖\u201D 性格内向、个头矮小、瘦骨嶙峋，这些词语很难想象和一名攀爬盗窃\u201C高手\u201D联系起来。近日，马鞍山市公安局花山分局将涉嫌盗窃的犯罪嫌疑人彭某及其同伙一举抓获，破获系列盗窃....",
"emailed" : False,
"forwarded" : False,
"english" : False
}  , {
"index" : 3,
"articleIndex" : "79373",
"favor" :  False ,
     "read" : False,    
"title" : "警方无法制服当街两犬 围人墙护送孩子上学",
"titleTip" : "警方无法制服当街两犬 围人墙护送孩子上学",
"titleSummary" : "警方无法制服当街两犬 围人墙护送孩子上学",
"descSummary" : "通讯员 肖冲 金陵晚报记者 姜静 凌晨，两条大型犬在路边结...",
"url" : "http:\/\/go.rss.sina.com.cn\/redirect.php?url=http:\/\/news.sina.com.cn\/s\/2013-10-30\/103728571094.shtml",
"pubDate" : "10:37:21",
"enterDate" : "384201:08:54",
"channelId" : "-3977413138435736249",
"channelName" : "社会万象-新浪新闻",
"channelNameSummary" : "社会万象-新浪新闻",
"channelUrl" : "http:\/\/news.sina.com.cn\/society\/index.shtml",
"author" : "WWW.SINA.COM.CN",
"tags" : [],
"desc" : "□通讯员 肖冲 金陵晚报记者 姜静&#160;&#160; 凌晨，两条大型犬在路边结伴散步，它们是悠闲了，可行人担惊受怕，不得不报警。警方随即展开搜捕，甚至出动了多种工具试图擒获，但都败下阵来，最后不得不出动兽医，在兽医的\u201C感情\u201D攻势下，两条大型犬终于投降。 ....",
"emailed" : False,
"forwarded" : False,
"english" : False
}  , {
"index" : 4,
"articleIndex" : "79372",
"favor" :  False ,
     "read" : False,    
"title" : "八旬老人思念20年未谋面表弟 求助警方还全家福",
"titleTip" : "八旬老人思念20年未谋面表弟 求助警方还全家福",
"titleSummary" : "八旬老人思念20年未谋面表弟 求助警方还全家福",
"descSummary" : "通讯员 杨维斌 金陵晚报记者 徐宁 为了送还一张全家福...",
"url" : "http:\/\/go.rss.sina.com.cn\/redirect.php?url=http:\/\/news.sina.com.cn\/s\/2013-10-30\/102828570873.shtml",
"pubDate" : "10:28:49",
"enterDate" : "384201:00:22",
"channelId" : "-3977413138435736249",
"channelName" : "社会万象-新浪新闻",
"channelNameSummary" : "社会万象-新浪新闻",
"channelUrl" : "http:\/\/news.sina.com.cn\/society\/index.shtml",
"author" : "WWW.SINA.COM.CN",
"tags" : [],
"desc" : "□通讯员 杨维斌&#160;&#160;金陵晚报记者 徐宁 为了送还一张全家福照片，八旬老人向警方求助，寻找已20多年未谋面的表弟。没想到，当民警联系上老人的表弟时，却被对方认为是骗子，屡次挂断电话。直到听到表哥的声音，表弟才激动万分地相信，真是表哥找来了。 ....",
"emailed" : False,
"forwarded" : False,
"english" : False
}  , {
"index" : 5,
"articleIndex" : "79371",
"favor" :  False ,
     "read" : False,    
"title" : "病重孕妇待产遭多家医院拒收 入院接病危通知",
"titleTip" : "病重孕妇待产遭多家医院拒收 入院接病危通知",
"titleSummary" : "病重孕妇待产遭多家医院拒收 入院接病危通知",
"descSummary" : "他俩网络相识，知道她重病，他瞒着家人，坚持与其相恋结...",
"url" : "http:\/\/go.rss.sina.com.cn\/redirect.php?url=http:\/\/news.sina.com.cn\/s\/2013-10-30\/101828570817.shtml",
"pubDate" : "10:18:51",
"enterDate" : "384200:50:24",
"channelId" : "-3977413138435736249",
"channelName" : "社会万象-新浪新闻",
"channelNameSummary" : "社会万象-新浪新闻",
"channelUrl" : "http:\/\/news.sina.com.cn\/society\/index.shtml",
"author" : "WWW.SINA.COM.CN",
"tags" : [],
"desc" : "他俩网络相识，知道她重病，他瞒着家人，坚持与其相恋结婚；她充满感动却无以为报，甘冒生命危险，坚持给他生个孩子。池州市民马革和妻子郭明相爱相扶的故事，经本报报道后，感动了很多人。如今，郭明怀孕已近9个月，断药近一年的她随时可能倒下，孩子必须尽早产下。然而，因....",
"emailed" : False,
"forwarded" : False,
"english" : False
}  , {
"index" : 6,
"articleIndex" : "79374",
"favor" :  False ,
     "read" : False,    
"title" : "男子卖淫秽光盘被抓 指纹比对牵出11年前抢劫案",
"titleTip" : "男子卖淫秽光盘被抓 指纹比对牵出11年前抢劫案",
"titleSummary" : "男子卖淫秽光盘被抓 指纹比对牵出11年前抢劫案",
"descSummary" : "南方日报讯 （记者\/赵杨 通讯员\/越检宣）一男子因贩卖...",
"url" : "http:\/\/go.rss.sina.com.cn\/redirect.php?url=http:\/\/news.sina.com.cn\/s\/2013-10-30\/083028569692.shtml",
"pubDate" : "08:30:05",
"enterDate" : "384198:31:33",
"channelId" : "-3977413138435736249",
"channelName" : "社会万象-新浪新闻",
"channelNameSummary" : "社会万象-新浪新闻",
"channelUrl" : "http:\/\/news.sina.com.cn\/society\/index.shtml",
"author" : "WWW.SINA.COM.CN",
"tags" : [],
"desc" : "南方日报讯 （记者\/赵杨 通讯员\/越检宣）一男子因贩卖淫秽光盘被公安机关立案侦查，经过指纹比对，发现其指纹与11年前两起假扮保姆合谋用安眠药迷倒雇主后实施入户抢劫案中提取的嫌疑人指纹一致。近日，广州市越秀区检察院对被告人曹某某以抢劫罪提起公诉。 2003年6月2....",
"emailed" : False,
"forwarded" : False,
"english" : False
}  , {
"index" : 7,
"articleIndex" : "79375",
"favor" :  False ,
     "read" : False,    
"title" : "工人下班后溺亡 家属获赔近8万非工伤死亡补助",
"titleTip" : "工人下班后溺亡 家属获赔近8万非工伤死亡补助",
"titleSummary" : "工人下班后溺亡 家属获赔近8万非工伤死亡补助",
"descSummary" : "南方日报讯 (记者\/胡良光 通讯员\/朱斌) 黄沙大道工地工人...",
"url" : "http:\/\/go.rss.sina.com.cn\/redirect.php?url=http:\/\/news.sina.com.cn\/s\/2013-10-30\/083028569671.shtml",
"pubDate" : "08:30:05",
"enterDate" : "384198:31:33",
"channelId" : "-3977413138435736249",
"channelName" : "社会万象-新浪新闻",
"channelNameSummary" : "社会万象-新浪新闻",
"channelUrl" : "http:\/\/news.sina.com.cn\/society\/index.shtml",
"author" : "WWW.SINA.COM.CN",
"tags" : [],
"desc" : "南方日报讯 (记者\/胡良光 通讯员\/朱斌) 黄沙大道工地工人陈某在下班后不幸溺亡，其多名亲友得知消息后聚集要求施工单位赔偿80万元，双方没有谈拢。近日，经荔湾区多宝司法所近一个月的介入协调，死者家属获得了近8万元的非工伤死亡一次补助金。 据多宝司法所介绍，在第....",
"emailed" : False,
"forwarded" : False,
"english" : False
}  , {
"index" : 8,
"articleIndex" : "79379",
"favor" :  False ,
     "read" : False,    
"title" : "93岁老人做裸模十余年:几个孩子都不愿养我(图)",
"titleTip" : "93岁老人做裸模十余年:几个孩子都不愿养我(图)",
"titleSummary" : "93岁老人做裸模十余年:几个孩子都不愿养我(图)",
"descSummary" : "一尺多长的胡子有些枯黄，银灰色的发髻，布满皱纹的脸，...",
"url" : "http:\/\/go.rss.sina.com.cn\/redirect.php?url=http:\/\/news.sina.com.cn\/s\/p\/2013-10-30\/083028569648.shtml",
"pubDate" : "08:30:04",
"enterDate" : "384198:01:27",
"channelId" : "-3977413138435736249",
"channelName" : "社会万象-新浪新闻",
"channelNameSummary" : "社会万象-新浪新闻",
"channelUrl" : "http:\/\/news.sina.com.cn\/society\/index.shtml",
"author" : "WWW.SINA.COM.CN",
"tags" : [],
"desc" : "一尺多长的胡子有些枯黄，银灰色的发髻，布满皱纹的脸，瘦小的身躯，上身穿着军绿色的衬衫，胸前佩戴着他参战时获得的勋章。 李继胜自称今年93岁。精神矍铄，非常健谈。早在十年前，他就是媒体聚焦的明星模特。如今虽年事已高，仍活跃在一些院校的美术课堂上，担任人体....",
"emailed" : False,
"forwarded" : False,
"english" : False
}  , {
"index" : 9,
"articleIndex" : "79370",
"favor" :  False ,
     "read" : False,    
"title" : "网友为重病患者募捐遭当地民政局约谈叫停",
"titleTip" : "网友为重病患者募捐遭当地民政局约谈叫停",
"titleSummary" : "网友为重病患者募捐遭当地民政局约谈叫停",
"descSummary" : "央广网北京10月30日消息 据中国之声《新闻纵横》报道，为...",
"url" : "http:\/\/go.rss.sina.com.cn\/redirect.php?url=http:\/\/news.sina.com.cn\/s\/2013-10-30\/080028569394.shtml",
"pubDate" : "08:00:00",
"enterDate" : "384200:31:53",
"channelId" : "-3977413138435736249",
"channelName" : "社会万象-新浪新闻",
"channelNameSummary" : "社会万象-新浪新闻",
"channelUrl" : "http:\/\/news.sina.com.cn\/society\/index.shtml",
"author" : "WWW.SINA.COM.CN",
"tags" : [],
"desc" : "央广网北京10月30日消息 据中国之声《新闻纵横》报道，为困难户募捐，这应该是值得鼓励的好事，民政部门怎么能叫停呢？ 最近，安徽省宁国市的几个热心网友了解到3户困难家庭没钱治病，为他们准备了一次募捐。没想到，却被当地民政局约谈，并直接把募捐活动叫停了。民政....",
"emailed" : False,
"forwarded" : False,
"english" : False
}  , {
"index" : 10,
"articleIndex" : "79366",
"favor" :  False ,
     "read" : False,    
"title" : "男子越狱潜逃14年 冒用弟弟身份打拼成大老板",
"titleTip" : "男子越狱潜逃14年 冒用弟弟身份打拼成大老板",
"titleSummary" : "男子越狱潜逃14年 冒用弟弟身份打拼成大老板",
"descSummary" : "\u201C早知道会有这样一天的，这些年来，没睡过一个安稳觉，...",
"url" : "http:\/\/go.rss.sina.com.cn\/redirect.php?url=http:\/\/news.sina.com.cn\/s\/2013-10-30\/061528567869.shtml",
"pubDate" : "06:15:35",
"enterDate" : "384200:47:48",
"channelId" : "-3977413138435736249",
"channelName" : "社会万象-新浪新闻",
"channelNameSummary" : "社会万象-新浪新闻",
"channelUrl" : "http:\/\/news.sina.com.cn\/society\/index.shtml",
"author" : "WWW.SINA.COM.CN",
"tags" : [],
"desc" : "\u201C早知道会有这样一天的，这些年来，没睡过一个安稳觉，现在终于心安了。\u201D见上门的民警报出了自己的真名，王超一点都不吃惊，反如释重负，只是请求民警给他几分钟时间，让他交代一下公司的事务。王超是四川内江人，16年前，他因在老家盗窃和抢劫，被判刑6年，可他服刑一年多....",
"emailed" : False,
"forwarded" : False,
"english" : False
}  , {
"index" : 11,
"articleIndex" : "79364",
"favor" :  False ,
     "read" : False,    
"title" : "工人遭电锯割下体 睾丸落地又被填回功能良好",
"titleTip" : "工人遭电锯割下体 睾丸落地又被填回功能良好",
"titleSummary" : "工人遭电锯割下体 睾丸落地又被填回功能良好",
"descSummary" : "时间：23日上午 地点：顺德伦教 南都讯 记者陈宇 建筑工...",
"url" : "http:\/\/go.rss.sina.com.cn\/redirect.php?url=http:\/\/news.sina.com.cn\/s\/2013-10-30\/055128567710.shtml",
"pubDate" : "05:51:40",
"enterDate" : "384200:53:58",
"channelId" : "-3977413138435736249",
"channelName" : "社会万象-新浪新闻",
"channelNameSummary" : "社会万象-新浪新闻",
"channelUrl" : "http:\/\/news.sina.com.cn\/society\/index.shtml",
"author" : "WWW.SINA.COM.CN",
"tags" : [],
"desc" : "时间：23日上午 地点：顺德伦教&#160;&#160; &#160; &#160; 南都讯 记者陈宇 建筑工人用电锯切割木块过程中，不慎伤及下体导致阴囊破裂睾丸\u201C跌落\u201D。所幸经过数个小时的手术，目前已得到修复，小便功能恢复良好。 年过40的广西男子陈某在顺德伦教的一处别墅工地当....",
"emailed" : False,
"forwarded" : False,
"english" : False
}  , {
"index" : 12,
"articleIndex" : "79365",
"favor" :  False ,
     "read" : False,    
"title" : "男子疑患艾滋用被子捂死妻儿 称不想让他们受苦",
"titleTip" : "男子疑患艾滋用被子捂死妻儿 称不想让他们受苦",
"titleSummary" : "男子疑患艾滋用被子捂死妻儿 称不想让他们受苦",
"descSummary" : "南都讯 记者刘晓燕 因怀疑自己得了艾滋病产生绝望心理...",
"url" : "http:\/\/go.rss.sina.com.cn\/redirect.php?url=http:\/\/news.sina.com.cn\/s\/2013-10-30\/053628567486.shtml",
"pubDate" : "05:36:56",
"enterDate" : "384200:09:09",
"channelId" : "-3977413138435736249",
"channelName" : "社会万象-新浪新闻",
"channelNameSummary" : "社会万象-新浪新闻",
"channelUrl" : "http:\/\/news.sina.com.cn\/society\/index.shtml",
"author" : "WWW.SINA.COM.CN",
"tags" : [],
"desc" : "南都讯 记者刘晓燕 因怀疑自己得了艾滋病产生绝望心理的文中元，用被子捂死睡梦中的妻儿，涉嫌故意杀人罪昨日在深圳中院出庭受审，他对所犯罪行供认不讳，称连续几个月没睡好，精神几近崩溃，杀死妻儿是不想让他们受苦。目前，该案还在进一步审理中。&#160;&#160;&#160;....",
"emailed" : False,
"forwarded" : False,
"english" : False
}  , {
"index" : 13,
"articleIndex" : "79369",
"favor" :  False ,
     "read" : False,    
"title" : "司机驾面包车冲下40米悬崖扎进江中奇迹生还",
"titleTip" : "司机驾面包车冲下40米悬崖扎进江中奇迹生还",
"titleSummary" : "司机驾面包车冲下40米悬崖扎进江中奇迹生还",
"descSummary" : "成都商报讯（罗佳明 记者 罗敏）28日，一辆面包车在宜宾...",
"url" : "http:\/\/go.rss.sina.com.cn\/redirect.php?url=http:\/\/news.sina.com.cn\/s\/2013-10-30\/042028566892.shtml",
"pubDate" : "昨天04:20:09",
"enterDate" : "384198:22:17",
"channelId" : "-3977413138435736249",
"channelName" : "社会万象-新浪新闻",
"channelNameSummary" : "社会万象-新浪新闻",
"channelUrl" : "http:\/\/news.sina.com.cn\/society\/index.shtml",
"author" : "WWW.SINA.COM.CN",
"tags" : [],
"desc" : "成都商报讯（罗佳明 记者 罗敏）28日，一辆面包车在宜宾市屏山县新安镇\u201C稀泥湾\u201D桥头冲下40多米高的悬崖，并扎进数十米深的金沙江，幸运的司机周某居然奇迹生还，只受了点轻伤。 据周某介绍，当日他途经\u201C稀泥湾\u201D桥头时，由于雨天路滑，车辆失去控制，直接栽进了金沙....",
"emailed" : False,
"forwarded" : False,
"english" : False
}  , {
"index" : 14,
"articleIndex" : "79368",
"favor" :  False ,
     "read" : False,    
"title" : "男子搬新居开错门被邻居误当小偷",
"titleTip" : "男子搬新居开错门被邻居误当小偷",
"titleSummary" : "男子搬新居开错门被邻居误当小偷",
"descSummary" : "扬子晚报讯（通讯员 秦公轩记者 曹卢杰）\u201C110吗，门外刚刚有人用...",
"url" : "http:\/\/go.rss.sina.com.cn\/redirect.php?url=http:\/\/news.sina.com.cn\/s\/2013-10-30\/041028566655.shtml",
"pubDate" : "昨天04:10:03",
"enterDate" : "384198:12:11",
"channelId" : "-3977413138435736249",
"channelName" : "社会万象-新浪新闻",
"channelNameSummary" : "社会万象-新浪新闻",
"channelUrl" : "http:\/\/news.sina.com.cn\/society\/index.shtml",
"author" : "WWW.SINA.COM.CN",
"tags" : [],
"desc" : "扬子晚报讯（通讯员 秦公轩记者 曹卢杰）\u201C110吗，门外刚刚有人用钥匙开我家的门，被我一把抓住了，你们赶紧来！\u201D昨天下午，南京市民王先生打电话到双塘派出所求助。派出所民警立刻赶到皇册家园的事发地点。刚到楼道，民警便听到两个男子的争吵声。王先生见民警到达现场，立....",
"emailed" : False,
"forwarded" : False,
"english" : False
}  , {
"index" : 15,
"articleIndex" : "79367",
"favor" :  False ,
     "read" : False,    
"title" : "男生校运会跑800米猝死 明年校运会或被取消",
"titleTip" : "男生校运会跑800米猝死 明年校运会或被取消",
"titleSummary" : "男生校运会跑800米猝死 明年校运会或被取消",
"descSummary" : "南都讯 记者许方健 黎湛均 见习记者黄露 还有一个星期，谢...",
"url" : "http:\/\/go.rss.sina.com.cn\/redirect.php?url=http:\/\/news.sina.com.cn\/s\/2013-10-30\/033028566395.shtml",
"pubDate" : "昨天03:30:10",
"enterDate" : "384197:32:18",
"channelId" : "-3977413138435736249",
"channelName" : "社会万象-新浪新闻",
"channelNameSummary" : "社会万象-新浪新闻",
"channelUrl" : "http:\/\/news.sina.com.cn\/society\/index.shtml",
"author" : "WWW.SINA.COM.CN",
"tags" : [],
"desc" : "南都讯 记者许方健 黎湛均 见习记者黄露 还有一个星期，谢赞辉就要前往一家单位顶班实习。谢先生夫妇满心期待儿子的生活开启新的一页。但厄运在本月24日降临。当天上午10时12分许，参加广州市黄埔区职业技术学校校运动会800米竞赛的谢赞辉在距离终点200米处倒下不治身亡。....",
"emailed" : False,
"forwarded" : False,
"english" : False
}  , {
"index" : 16,
"articleIndex" : "79361",
"favor" :  False ,
     "read" : False,    
"title" : "妻子为老赖丈夫打掩护 知其找小三立马供出下落",
"titleTip" : "妻子为老赖丈夫打掩护 知其找小三立马供出下落",
"titleSummary" : "妻子为老赖丈夫打掩护 知其找小三立马供出下落",
"descSummary" : "最初他欠钱时，妻子帮他一起找托词、打掩护。如今，他...",
"url" : "http:\/\/go.rss.sina.com.cn\/redirect.php?url=http:\/\/news.sina.com.cn\/s\/2013-10-30\/032028566238.shtml",
"pubDate" : "昨天03:20:00",
"enterDate" : "384198:52:22",
"channelId" : "-3977413138435736249",
"channelName" : "社会万象-新浪新闻",
"channelNameSummary" : "社会万象-新浪新闻",
"channelUrl" : "http:\/\/news.sina.com.cn\/society\/index.shtml",
"author" : "WWW.SINA.COM.CN",
"tags" : [],
"desc" : "最初他欠钱时，妻子帮他一起找托词、打掩护。如今，他有了外遇，妻子毫不犹豫地向法官供出了他的下落。 2009年，家住宁波北仑小港的陈某以开厂为名，向李某借了二十万元。 起初，陈某还按时归还利息，但没过几个月，他就开始百般推脱，一会是\u201C货款没到账\u201D，一....",
"emailed" : False,
"forwarded" : False,
"english" : False
}  , {
"index" : 17,
"articleIndex" : "79362",
"favor" :  False ,
     "read" : False,    
"title" : "六旬大爷患乳腺癌 医生称每100例患者中有1男性",
"titleTip" : "六旬大爷患乳腺癌 医生称每100例患者中有1男性",
"titleSummary" : "六旬大爷患乳腺癌 医生称每100例患者中有1男性",
"descSummary" : "本报讯 68岁的徐大爷不久前得了感冒，跑到永康第一人...",
"url" : "http:\/\/go.rss.sina.com.cn\/redirect.php?url=http:\/\/news.sina.com.cn\/s\/2013-10-30\/032028566244.shtml",
"pubDate" : "昨天03:20:00",
"enterDate" : "384198:52:22",
"channelId" : "-3977413138435736249",
"channelName" : "社会万象-新浪新闻",
"channelNameSummary" : "社会万象-新浪新闻",
"channelUrl" : "http:\/\/news.sina.com.cn\/society\/index.shtml",
"author" : "WWW.SINA.COM.CN",
"tags" : [],
"desc" : "本报讯 68岁的徐大爷不久前得了感冒，跑到永康第一人民医院看病。因为胸部有个肿块，他就顺便检查了一下。没想到，检查结果竟然是\u201CⅡ期乳腺癌\u201D。 徐大爷说，一个月前，他就感到右侧的胸部有些异样。由于肿块不痛不痒，一开始，他并没在意。后来，肿块变得越来越大，....",
"emailed" : False,
"forwarded" : False,
"english" : False
}  , {
"index" : 18,
"articleIndex" : "79363",
"favor" :  False ,
     "read" : False,    
"title" : "5岁男孩在家门口被陌生男子连砍3刀(图)",
"titleTip" : "5岁男孩在家门口被陌生男子连砍3刀(图)",
"titleSummary" : "5岁男孩在家门口被陌生男子连砍3刀(图)",
"descSummary" : "本报通讯员 陈瑞建 项志力 本报驻温州记者 苗丽娜 前天晚上18点...",
"url" : "http:\/\/go.rss.sina.com.cn\/redirect.php?url=http:\/\/news.sina.com.cn\/s\/p\/2013-10-30\/032028566235.shtml",
"pubDate" : "昨天03:20:00",
"enterDate" : "384198:22:18",
"channelId" : "-3977413138435736249",
"channelName" : "社会万象-新浪新闻",
"channelNameSummary" : "社会万象-新浪新闻",
"channelUrl" : "http:\/\/news.sina.com.cn\/society\/index.shtml",
"author" : "WWW.SINA.COM.CN",
"tags" : [],
"desc" : "本报通讯员 陈瑞建 项志力 本报驻温州记者 苗丽娜 前天晚上18点，瑞安仙降街道发生一起惨剧。年仅5岁的男孩小鹏在家门口散步时，被一名陌生中年男子手持菜刀连砍三刀，小鹏当场被砍伤后脑及鼻梁，血流如注。 目前，小鹏正在瑞安市人民医院接受治疗，行凶者已被....",
"emailed" : False,
"forwarded" : False,
"english" : False
}  , {
"index" : 19,
"articleIndex" : "79360",
"favor" :  False ,
     "read" : False,    
"title" : "出租屋现633万巨款续:租客妻子称系赚来的",
"titleTip" : "出租屋现633万巨款续:租客妻子称系赚来的",
"titleSummary" : "出租屋现633万巨款续:租客妻子称系赚来的",
"descSummary" : "两周前，东莞一房主在积灰的出租屋床下发现633万巨款，租客...",
"url" : "http:\/\/go.rss.sina.com.cn\/redirect.php?url=http:\/\/news.sina.com.cn\/s\/2013-10-30\/015928565343.shtml",
"pubDate" : "昨天01:59:06",
"enterDate" : "384197:31:28",
"channelId" : "-3977413138435736249",
"channelName" : "社会万象-新浪新闻",
"channelNameSummary" : "社会万象-新浪新闻",
"channelUrl" : "http:\/\/news.sina.com.cn\/society\/index.shtml",
"author" : "WWW.SINA.COM.CN",
"tags" : [],
"desc" : "两周前，东莞一房主在积灰的出租屋床下发现633万巨款，租客去向不明。据警方调查，租客为55岁男子郑锡波。但房主和郑锡波的家人、亲属已至少两年多没见过他。近两年房主3次收到从外地汇来的房租，却始终未能联系上他。郑锡波的妻子说：\u201C因为他说出去做生意（所以失踪两年没报....",
"emailed" : False,
"forwarded" : False,
"english" : False
} ]
}
