{
"mode" : {"viewTitle" : 1,   "viewNew" : 0,  "pageIndex" : 1 },
 "channel" : {"id" : "-4566444368717834423", "booked" : False, "subNumber" : 402, "name" : "国际足坛-欧陆烽火", "url" : "http:\/\/sports.sina.com.cn\/global\/index.shtml", "feed" : "http:\/\/rss.sina.com.cn\/sports\/global\/others.xml", "author" : "WWW.SINA.COM.CN", "desc" : "国际足坛-欧陆烽火", "imageUrl" : "", "postPerWeek" : "96", "lastCrawTime" : "2013年10月26日 (4天前)", "crawDateTime" : "2013年10月26日 (4天前)", "lastHttpCode" : "200"}, "page" : {
"startIndex" : 0,
"totalCount" : 5000,
"pageIndex" : 1,
"lastPage" : 250,
"pageSize" : 20,
"english" :  False },
 "unreadNum" : 0, "shotIndex" : -1,
"articles" : [
{
"index" : 0,
"articleIndex" : "54211",
"favor" :  False ,
     "read" : False,    
"title" : "视频-奇！疯狂小鸟空袭边裁 主裁暂停比赛接电话",
"titleTip" : "视频-奇！疯狂小鸟空袭边裁 主裁暂停比赛接电话",
"titleSummary" : "视频-奇！疯狂小鸟空袭边裁 主裁暂停比赛接电话",
"descSummary" : "",
"url" : "http:\/\/go.rss.sina.com.cn\/redirect.php?url=http:\/\/video.sina.com.cn\/p\/sports\/g\/v\/2013-10-26\/101663066827.html",
"pubDate" : "2013年10月26日 (4天前)",
"enterDate" : "384195:36:01",
"channelId" : "-4566444368717834423",
"channelName" : "国际足坛-欧陆烽火",
"channelNameSummary" : "国际足坛-欧陆烽火",
"channelUrl" : "http:\/\/sports.sina.com.cn\/global\/index.shtml",
"author" : "WWW.SINA.COM.CN",
"tags" : [],
"desc" : "",
"emailed" : False,
"forwarded" : False,
"english" : False
}  , {
"index" : 1,
"articleIndex" : "54210",
"favor" :  False ,
     "read" : False,    
"title" : "视频-前锋跪了！高中门将逆天4连扑力保大门不失",
"titleTip" : "视频-前锋跪了！高中门将逆天4连扑力保大门不失",
"titleSummary" : "视频-前锋跪了！高中门将逆天4连扑力保大门不失",
"descSummary" : "",
"url" : "http:\/\/go.rss.sina.com.cn\/redirect.php?url=http:\/\/video.sina.com.cn\/p\/sports\/g\/v\/2013-10-26\/101163066813.html",
"pubDate" : "2013年10月26日 (4天前)",
"enterDate" : "384195:31:14",
"channelId" : "-4566444368717834423",
"channelName" : "国际足坛-欧陆烽火",
"channelNameSummary" : "国际足坛-欧陆烽火",
"channelUrl" : "http:\/\/sports.sina.com.cn\/global\/index.shtml",
"author" : "WWW.SINA.COM.CN",
"tags" : [],
"desc" : "",
"emailed" : False,
"forwarded" : False,
"english" : False
}  , {
"index" : 2,
"articleIndex" : "54209",
"favor" :  False ,
     "read" : False,    
"title" : "巴西世界杯一在建场馆发生火灾 部分受损无人员伤亡",
"titleTip" : "巴西世界杯一在建场馆发生火灾 部分受损无人员伤亡",
"titleSummary" : "巴西世界杯一在建场馆发生火灾 部分受损无人员伤亡",
"descSummary" : "",
"url" : "http:\/\/go.rss.sina.com.cn\/redirect.php?url=http:\/\/sports.sina.com.cn\/g\/2013-10-26\/08376850670.shtml",
"pubDate" : "2013年10月26日 (4天前)",
"enterDate" : "384200:58:32",
"channelId" : "-4566444368717834423",
"channelName" : "国际足坛-欧陆烽火",
"channelNameSummary" : "国际足坛-欧陆烽火",
"channelUrl" : "http:\/\/sports.sina.com.cn\/global\/index.shtml",
"author" : "WWW.SINA.COM.CN",
"tags" : [],
"desc" : "",
"emailed" : False,
"forwarded" : False,
"english" : False
}  , {
"index" : 3,
"articleIndex" : "54208",
"favor" :  False ,
     "read" : False,    
"title" : "视频集-外媒评十大空门不进 跪了！C罗T9中招躺枪",
"titleTip" : "视频集-外媒评十大空门不进 跪了！C罗T9中招躺枪",
"titleSummary" : "视频集-外媒评十大空门不进 跪了！C罗T9中招躺枪",
"descSummary" : "",
"url" : "http:\/\/go.rss.sina.com.cn\/redirect.php?url=http:\/\/sports.sina.com.cn\/video\/g\/laliga\/match\/kongmentop10\/",
"pubDate" : "2013年10月25日 (5天前)",
"enterDate" : "384193:51:01",
"channelId" : "-4566444368717834423",
"channelName" : "国际足坛-欧陆烽火",
"channelNameSummary" : "国际足坛-欧陆烽火",
"channelUrl" : "http:\/\/sports.sina.com.cn\/global\/index.shtml",
"author" : "WWW.SINA.COM.CN",
"tags" : [],
"desc" : "",
"emailed" : False,
"forwarded" : False,
"english" : False
}  , {
"index" : 4,
"articleIndex" : "54207",
"favor" :  False ,
     "read" : False,    
"title" : "视频-外媒评10大空门不进 C罗门前2米打飞机",
"titleTip" : "视频-外媒评10大空门不进 C罗门前2米打飞机",
"titleSummary" : "视频-外媒评10大空门不进 C罗门前2米打飞机",
"descSummary" : "",
"url" : "http:\/\/go.rss.sina.com.cn\/redirect.php?url=http:\/\/video.sina.com.cn\/p\/sports\/g\/v\/2013-10-25\/215963065127.html",
"pubDate" : "2013年10月25日 (5天前)",
"enterDate" : "384193:21:12",
"channelId" : "-4566444368717834423",
"channelName" : "国际足坛-欧陆烽火",
"channelNameSummary" : "国际足坛-欧陆烽火",
"channelUrl" : "http:\/\/sports.sina.com.cn\/global\/index.shtml",
"author" : "WWW.SINA.COM.CN",
"tags" : [],
"desc" : "",
"emailed" : False,
"forwarded" : False,
"english" : False
}  , {
"index" : 5,
"articleIndex" : "54206",
"favor" :  False ,
     "read" : False,    
"title" : "视频-外媒评10大空门不进 克洛泽门前2米打飞机",
"titleTip" : "视频-外媒评10大空门不进 克洛泽门前2米打飞机",
"titleSummary" : "视频-外媒评10大空门不进 克洛泽门前2米打飞机",
"descSummary" : "",
"url" : "http:\/\/go.rss.sina.com.cn\/redirect.php?url=http:\/\/video.sina.com.cn\/p\/sports\/g\/v\/2013-10-25\/215463065107.html",
"pubDate" : "2013年10月25日 (5天前)",
"enterDate" : "384193:16:12",
"channelId" : "-4566444368717834423",
"channelName" : "国际足坛-欧陆烽火",
"channelNameSummary" : "国际足坛-欧陆烽火",
"channelUrl" : "http:\/\/sports.sina.com.cn\/global\/index.shtml",
"author" : "WWW.SINA.COM.CN",
"tags" : [],
"desc" : "",
"emailed" : False,
"forwarded" : False,
"english" : False
}  , {
"index" : 6,
"articleIndex" : "54205",
"favor" :  False ,
     "read" : False,    
"title" : "视频-外媒评10大空门不进 罗森塔尔空门打横梁",
"titleTip" : "视频-外媒评10大空门不进 罗森塔尔空门打横梁",
"titleSummary" : "视频-外媒评10大空门不进 罗森塔尔空门打横梁",
"descSummary" : "",
"url" : "http:\/\/go.rss.sina.com.cn\/redirect.php?url=http:\/\/video.sina.com.cn\/p\/sports\/g\/v\/2013-10-25\/214963065097.html",
"pubDate" : "2013年10月25日 (5天前)",
"enterDate" : "384193:11:18",
"channelId" : "-4566444368717834423",
"channelName" : "国际足坛-欧陆烽火",
"channelNameSummary" : "国际足坛-欧陆烽火",
"channelUrl" : "http:\/\/sports.sina.com.cn\/global\/index.shtml",
"author" : "WWW.SINA.COM.CN",
"tags" : [],
"desc" : "",
"emailed" : False,
"forwarded" : False,
"english" : False
}  , {
"index" : 7,
"articleIndex" : "54204",
"favor" :  False ,
     "read" : False,    
"title" : "视频-外媒评10大空门不进 托雷斯空门将球打偏",
"titleTip" : "视频-外媒评10大空门不进 托雷斯空门将球打偏",
"titleSummary" : "视频-外媒评10大空门不进 托雷斯空门将球打偏",
"descSummary" : "",
"url" : "http:\/\/go.rss.sina.com.cn\/redirect.php?url=http:\/\/video.sina.com.cn\/p\/sports\/g\/v\/2013-10-25\/214763065093.html",
"pubDate" : "2013年10月25日 (5天前)",
"enterDate" : "384193:08:38",
"channelId" : "-4566444368717834423",
"channelName" : "国际足坛-欧陆烽火",
"channelNameSummary" : "国际足坛-欧陆烽火",
"channelUrl" : "http:\/\/sports.sina.com.cn\/global\/index.shtml",
"author" : "WWW.SINA.COM.CN",
"tags" : [],
"desc" : "",
"emailed" : False,
"forwarded" : False,
"english" : False
}  , {
"index" : 8,
"articleIndex" : "54203",
"favor" :  False ,
     "read" : False,    
"title" : "视频-外媒评10大空门不进 卡鲁面对空门打飞机",
"titleTip" : "视频-外媒评10大空门不进 卡鲁面对空门打飞机",
"titleSummary" : "视频-外媒评10大空门不进 卡鲁面对空门打飞机",
"descSummary" : "",
"url" : "http:\/\/go.rss.sina.com.cn\/redirect.php?url=http:\/\/video.sina.com.cn\/p\/sports\/g\/v\/2013-10-25\/214163065083.html",
"pubDate" : "2013年10月25日 (5天前)",
"enterDate" : "384193:02:49",
"channelId" : "-4566444368717834423",
"channelName" : "国际足坛-欧陆烽火",
"channelNameSummary" : "国际足坛-欧陆烽火",
"channelUrl" : "http:\/\/sports.sina.com.cn\/global\/index.shtml",
"author" : "WWW.SINA.COM.CN",
"tags" : [],
"desc" : "",
"emailed" : False,
"forwarded" : False,
"english" : False
}  , {
"index" : 9,
"articleIndex" : "54202",
"favor" :  False ,
     "read" : False,    
"title" : "视频-外媒评10大空门不进 弗兰面对空门思考人生",
"titleTip" : "视频-外媒评10大空门不进 弗兰面对空门思考人生",
"titleSummary" : "视频-外媒评10大空门不进 弗兰面对空门思考人生",
"descSummary" : "",
"url" : "http:\/\/go.rss.sina.com.cn\/redirect.php?url=http:\/\/video.sina.com.cn\/p\/sports\/g\/v\/2013-10-25\/213763065073.html",
"pubDate" : "2013年10月25日 (5天前)",
"enterDate" : "384192:58:49",
"channelId" : "-4566444368717834423",
"channelName" : "国际足坛-欧陆烽火",
"channelNameSummary" : "国际足坛-欧陆烽火",
"channelUrl" : "http:\/\/sports.sina.com.cn\/global\/index.shtml",
"author" : "WWW.SINA.COM.CN",
"tags" : [],
"desc" : "",
"emailed" : False,
"forwarded" : False,
"english" : False
}  , {
"index" : 10,
"articleIndex" : "54201",
"favor" :  False ,
     "read" : False,    
"title" : "视频-外媒评10大空门不进 伊维卢莫空门打偏",
"titleTip" : "视频-外媒评10大空门不进 伊维卢莫空门打偏",
"titleSummary" : "视频-外媒评10大空门不进 伊维卢莫空门打偏",
"descSummary" : "",
"url" : "http:\/\/go.rss.sina.com.cn\/redirect.php?url=http:\/\/video.sina.com.cn\/p\/sports\/g\/v\/2013-10-25\/213163065067.html",
"pubDate" : "2013年10月25日 (5天前)",
"enterDate" : "384192:52:56",
"channelId" : "-4566444368717834423",
"channelName" : "国际足坛-欧陆烽火",
"channelNameSummary" : "国际足坛-欧陆烽火",
"channelUrl" : "http:\/\/sports.sina.com.cn\/global\/index.shtml",
"author" : "WWW.SINA.COM.CN",
"tags" : [],
"desc" : "",
"emailed" : False,
"forwarded" : False,
"english" : False
}  , {
"index" : 11,
"articleIndex" : "54200",
"favor" :  False ,
     "read" : False,    
"title" : "视频-外媒评10大空门不进 卡努空门离奇打飞机",
"titleTip" : "视频-外媒评10大空门不进 卡努空门离奇打飞机",
"titleSummary" : "视频-外媒评10大空门不进 卡努空门离奇打飞机",
"descSummary" : "",
"url" : "http:\/\/go.rss.sina.com.cn\/redirect.php?url=http:\/\/video.sina.com.cn\/p\/sports\/g\/v\/2013-10-25\/212763065063.html",
"pubDate" : "2013年10月25日 (5天前)",
"enterDate" : "384192:48:35",
"channelId" : "-4566444368717834423",
"channelName" : "国际足坛-欧陆烽火",
"channelNameSummary" : "国际足坛-欧陆烽火",
"channelUrl" : "http:\/\/sports.sina.com.cn\/global\/index.shtml",
"author" : "WWW.SINA.COM.CN",
"tags" : [],
"desc" : "",
"emailed" : False,
"forwarded" : False,
"english" : False
}  , {
"index" : 12,
"articleIndex" : "54199",
"favor" :  False ,
     "read" : False,    
"title" : "视频-外媒评10大空门不进 法尔范面对空门竟打立柱",
"titleTip" : "视频-外媒评10大空门不进 法尔范面对空门竟打立柱",
"titleSummary" : "视频-外媒评10大空门不进 法尔范面对空门竟打立柱",
"descSummary" : "",
"url" : "http:\/\/go.rss.sina.com.cn\/redirect.php?url=http:\/\/video.sina.com.cn\/p\/sports\/g\/v\/2013-10-25\/212363065057.html",
"pubDate" : "2013年10月25日 (5天前)",
"enterDate" : "384192:44:27",
"channelId" : "-4566444368717834423",
"channelName" : "国际足坛-欧陆烽火",
"channelNameSummary" : "国际足坛-欧陆烽火",
"channelUrl" : "http:\/\/sports.sina.com.cn\/global\/index.shtml",
"author" : "WWW.SINA.COM.CN",
"tags" : [],
"desc" : "",
"emailed" : False,
"forwarded" : False,
"english" : False
}  , {
"index" : 13,
"articleIndex" : "54197",
"favor" :  False ,
     "read" : False,    
"title" : "视频-巴萨VS皇马震撼预告片 新赛季首战谁主沉浮",
"titleTip" : "视频-巴萨VS皇马震撼预告片 新赛季首战谁主沉浮",
"titleSummary" : "视频-巴萨VS皇马震撼预告片 新赛季首战谁主沉浮",
"descSummary" : "",
"url" : "http:\/\/go.rss.sina.com.cn\/redirect.php?url=http:\/\/video.sina.com.cn\/p\/sports\/laliga\/v\/2013-10-25\/123963063231.html",
"pubDate" : "2013年10月25日 (5天前)",
"enterDate" : "384199:33:30",
"channelId" : "-4566444368717834423",
"channelName" : "国际足坛-欧陆烽火",
"channelNameSummary" : "国际足坛-欧陆烽火",
"channelUrl" : "http:\/\/sports.sina.com.cn\/global\/index.shtml",
"author" : "WWW.SINA.COM.CN",
"tags" : [],
"desc" : "",
"emailed" : False,
"forwarded" : False,
"english" : False
}  , {
"index" : 14,
"articleIndex" : "54196",
"favor" :  False ,
     "read" : False,    
"title" : "《胜利足球》第18期 T9百场圣婴涅&amp;国家德比经典",
"titleTip" : "《胜利足球》第18期 T9百场圣婴涅&amp;国家德比经典",
"titleSummary" : "《胜利足球》第18期 T9百场圣婴涅&amp;国家德比经典",
"descSummary" : "",
"url" : "http:\/\/go.rss.sina.com.cn\/redirect.php?url=http:\/\/sports.sina.com.cn\/video\/g\/laliga\/clear\/victoryfootball\/",
"pubDate" : "2013年10月25日 (5天前)",
"enterDate" : "384198:14:03",
"channelId" : "-4566444368717834423",
"channelName" : "国际足坛-欧陆烽火",
"channelNameSummary" : "国际足坛-欧陆烽火",
"channelUrl" : "http:\/\/sports.sina.com.cn\/global\/index.shtml",
"author" : "WWW.SINA.COM.CN",
"tags" : [],
"desc" : "",
"emailed" : False,
"forwarded" : False,
"english" : False
}  , {
"index" : 15,
"articleIndex" : "54195",
"favor" :  False ,
     "read" : False,    
"title" : "视频-罗本无视瓜帅点球任命 将机会让给里贝里",
"titleTip" : "视频-罗本无视瓜帅点球任命 将机会让给里贝里",
"titleSummary" : "视频-罗本无视瓜帅点球任命 将机会让给里贝里",
"descSummary" : "",
"url" : "http:\/\/go.rss.sina.com.cn\/redirect.php?url=http:\/\/video.sina.com.cn\/p\/sports\/g\/v\/2013-10-25\/103763062763.html",
"pubDate" : "2013年10月25日 (5天前)",
"enterDate" : "384197:31:27",
"channelId" : "-4566444368717834423",
"channelName" : "国际足坛-欧陆烽火",
"channelNameSummary" : "国际足坛-欧陆烽火",
"channelUrl" : "http:\/\/sports.sina.com.cn\/global\/index.shtml",
"author" : "WWW.SINA.COM.CN",
"tags" : [],
"desc" : "",
"emailed" : False,
"forwarded" : False,
"english" : False
}  , {
"index" : 16,
"articleIndex" : "54194",
"favor" :  False ,
     "read" : False,    
"title" : "《胜利足球》第18期完整版 圣婴涅&amp;恒大冲亚冠",
"titleTip" : "《胜利足球》第18期完整版 圣婴涅&amp;恒大冲亚冠",
"titleSummary" : "《胜利足球》第18期完整版 圣婴涅&amp;恒大冲亚冠",
"descSummary" : "",
"url" : "http:\/\/go.rss.sina.com.cn\/redirect.php?url=http:\/\/video.sina.com.cn\/p\/sports\/pl\/v\/2013-10-24\/232963062569.html",
"pubDate" : "2013年10月24日 (6天前)",
"enterDate" : "384186:23:12",
"channelId" : "-4566444368717834423",
"channelName" : "国际足坛-欧陆烽火",
"channelNameSummary" : "国际足坛-欧陆烽火",
"channelUrl" : "http:\/\/sports.sina.com.cn\/global\/index.shtml",
"author" : "WWW.SINA.COM.CN",
"tags" : [],
"desc" : "",
"emailed" : False,
"forwarded" : False,
"english" : False
}  , {
"index" : 17,
"articleIndex" : "54193",
"favor" :  False ,
     "read" : False,    
"title" : "视频-T9蓝军百场里程碑 圣婴涅大场面先生还是他",
"titleTip" : "视频-T9蓝军百场里程碑 圣婴涅大场面先生还是他",
"titleSummary" : "视频-T9蓝军百场里程碑 圣婴涅大场面先生还是他",
"descSummary" : "",
"url" : "http:\/\/go.rss.sina.com.cn\/redirect.php?url=http:\/\/video.sina.com.cn\/p\/sports\/pl\/v\/2013-10-24\/232463062557.html",
"pubDate" : "2013年10月24日 (6天前)",
"enterDate" : "384186:18:37",
"channelId" : "-4566444368717834423",
"channelName" : "国际足坛-欧陆烽火",
"channelNameSummary" : "国际足坛-欧陆烽火",
"channelUrl" : "http:\/\/sports.sina.com.cn\/global\/index.shtml",
"author" : "WWW.SINA.COM.CN",
"tags" : [],
"desc" : "",
"emailed" : False,
"forwarded" : False,
"english" : False
}  , {
"index" : 18,
"articleIndex" : "54192",
"favor" :  False ,
     "read" : False,    
"title" : "视频-国际足坛周10佳球 女将神进球&amp;伊布蝎子摆尾",
"titleTip" : "视频-国际足坛周10佳球 女将神进球&amp;伊布蝎子摆尾",
"titleSummary" : "视频-国际足坛周10佳球 女将神进球&amp;伊布蝎子摆尾",
"descSummary" : "",
"url" : "http:\/\/go.rss.sina.com.cn\/redirect.php?url=http:\/\/video.sina.com.cn\/p\/sports\/g\/v\/2013-10-24\/220763062449.html",
"pubDate" : "2013年10月24日 (6天前)",
"enterDate" : "384185:01:22",
"channelId" : "-4566444368717834423",
"channelName" : "国际足坛-欧陆烽火",
"channelNameSummary" : "国际足坛-欧陆烽火",
"channelUrl" : "http:\/\/sports.sina.com.cn\/global\/index.shtml",
"author" : "WWW.SINA.COM.CN",
"tags" : [],
"desc" : "",
"emailed" : False,
"forwarded" : False,
"english" : False
}  , {
"index" : 19,
"articleIndex" : "54198",
"favor" :  False ,
     "read" : False,    
"title" : "罗马里奥因为六女儿走上政途 足坛敢骂FIFA的人真不多",
"titleTip" : "罗马里奥因为六女儿走上政途 足坛敢骂FIFA的人真不多",
"titleSummary" : "罗马里奥因为六女儿走上政途 足坛敢骂FIFA的人真不多",
"descSummary" : "",
"url" : "http:\/\/go.rss.sina.com.cn\/redirect.php?url=http:\/\/sports.sina.com.cn\/g\/2013-10-22\/13356843699.shtml",
"pubDate" : "2013年10月22日 (1周前)",
"enterDate" : "384127:58:55",
"channelId" : "-4566444368717834423",
"channelName" : "国际足坛-欧陆烽火",
"channelNameSummary" : "国际足坛-欧陆烽火",
"channelUrl" : "http:\/\/sports.sina.com.cn\/global\/index.shtml",
"author" : "WWW.SINA.COM.CN",
"tags" : [],
"desc" : "",
"emailed" : False,
"forwarded" : False,
"english" : False
} ]
}
