{
"mode" : {"viewTitle" : 1,   "viewNew" : 0,  "pageIndex" : 2 },
 "channel" : {"id" : "-4566444368717834423", "booked" : False, "subNumber" : 402, "name" : "国际足坛-欧陆烽火", "url" : "http:\/\/sports.sina.com.cn\/global\/index.shtml", "feed" : "http:\/\/rss.sina.com.cn\/sports\/global\/others.xml", "author" : "WWW.SINA.COM.CN", "desc" : "国际足坛-欧陆烽火", "imageUrl" : "", "postPerWeek" : "96", "lastCrawTime" : "2013年10月26日 (4天前)", "crawDateTime" : "2013年10月26日 (4天前)", "lastHttpCode" : "200"}, "page" : {
"startIndex" : 20,
"totalCount" : 5000,
"pageIndex" : 2,
"lastPage" : 250,
"pageSize" : 20,
"english" :  False },
 "unreadNum" : 0, "shotIndex" : -1,
"articles" : [
{
"index" : 0,
"articleIndex" : "54190",
"favor" :  False ,
     "read" : False,    
"title" : "足坛10大恐怖时速进球：1妖人&gt;小贝 一神球成传说",
"titleTip" : "足坛10大恐怖时速进球：1妖人&gt;小贝 一神球成传说",
"titleSummary" : "足坛10大恐怖时速进球：1妖人&gt;小贝 一神球成传说",
"descSummary" : "",
"url" : "http:\/\/go.rss.sina.com.cn\/redirect.php?url=http:\/\/sports.sina.com.cn\/g\/ucl\/2013-10-25\/11186849279.shtml",
"pubDate" : "2013年10月25日 (5天前)",
"enterDate" : "384201:12:30",
"channelId" : "-4566444368717834423",
"channelName" : "国际足坛-欧陆烽火",
"channelNameSummary" : "国际足坛-欧陆烽火",
"channelUrl" : "http:\/\/sports.sina.com.cn\/global\/index.shtml",
"author" : "WWW.SINA.COM.CN",
"tags" : [],
"desc" : "",
"emailed" : False,
"forwarded" : False,
"english" : False
}  , {
"index" : 1,
"articleIndex" : "54189",
"favor" :  False ,
     "read" : False,    
"title" : "法国艳模裸体胸挺伊布 双峰奔涌意境悠远(图)",
"titleTip" : "法国艳模裸体胸挺伊布 双峰奔涌意境悠远(图)",
"titleSummary" : "法国艳模裸体胸挺伊布 双峰奔涌意境悠远(图)",
"descSummary" : "",
"url" : "http:\/\/go.rss.sina.com.cn\/redirect.php?url=http:\/\/sports.sina.com.cn\/g\/ucl\/2013-10-25\/11106849272.shtml",
"pubDate" : "2013年10月25日 (5天前)",
"enterDate" : "384201:04:33",
"channelId" : "-4566444368717834423",
"channelName" : "国际足坛-欧陆烽火",
"channelNameSummary" : "国际足坛-欧陆烽火",
"channelUrl" : "http:\/\/sports.sina.com.cn\/global\/index.shtml",
"author" : "WWW.SINA.COM.CN",
"tags" : [],
"desc" : "",
"emailed" : False,
"forwarded" : False,
"english" : False
}  , {
"index" : 2,
"articleIndex" : "54188",
"favor" :  False ,
     "read" : False,    
"title" : "欧冠大四喜10巨星:梅西+米兰曼联神 1场疑似假球",
"titleTip" : "欧冠大四喜10巨星:梅西+米兰曼联神 1场疑似假球",
"titleSummary" : "欧冠大四喜10巨星:梅西+米兰曼联神 1场疑似假球",
"descSummary" : "",
"url" : "http:\/\/go.rss.sina.com.cn\/redirect.php?url=http:\/\/sports.sina.com.cn\/g\/ucl\/2013-10-25\/08586848944.shtml",
"pubDate" : "2013年10月25日 (5天前)",
"enterDate" : "384200:52:51",
"channelId" : "-4566444368717834423",
"channelName" : "国际足坛-欧陆烽火",
"channelNameSummary" : "国际足坛-欧陆烽火",
"channelUrl" : "http:\/\/sports.sina.com.cn\/global\/index.shtml",
"author" : "WWW.SINA.COM.CN",
"tags" : [],
"desc" : "",
"emailed" : False,
"forwarded" : False,
"english" : False
}  , {
"index" : 3,
"articleIndex" : "54191",
"favor" :  False ,
     "read" : False,    
"title" : "视频-皇马v巴萨经典 齐祖舍命头球&amp;卡洛斯惊悚超车",
"titleTip" : "视频-皇马v巴萨经典 齐祖舍命头球&amp;卡洛斯惊悚超车",
"titleSummary" : "视频-皇马v巴萨经典 齐祖舍命头球&amp;卡洛斯惊悚超车",
"descSummary" : "",
"url" : "http:\/\/go.rss.sina.com.cn\/redirect.php?url=http:\/\/video.sina.com.cn\/p\/sports\/laliga\/v\/2013-10-24\/220163062465.html",
"pubDate" : "2013年10月24日 (6天前)",
"enterDate" : "384184:55:25",
"channelId" : "-4566444368717834423",
"channelName" : "国际足坛-欧陆烽火",
"channelNameSummary" : "国际足坛-欧陆烽火",
"channelUrl" : "http:\/\/sports.sina.com.cn\/global\/index.shtml",
"author" : "WWW.SINA.COM.CN",
"tags" : [],
"desc" : "",
"emailed" : False,
"forwarded" : False,
"english" : False
}  , {
"index" : 4,
"articleIndex" : "54187",
"favor" :  False ,
     "read" : False,    
"title" : "视频-鲁尼精彩进球集锦 倒钩绝杀曼城技惊四座",
"titleTip" : "视频-鲁尼精彩进球集锦 倒钩绝杀曼城技惊四座",
"titleSummary" : "视频-鲁尼精彩进球集锦 倒钩绝杀曼城技惊四座",
"descSummary" : "",
"url" : "http:\/\/go.rss.sina.com.cn\/redirect.php?url=http:\/\/video.sina.com.cn\/p\/sports\/pl\/v\/2013-10-24\/155863059661.html",
"pubDate" : "2013年10月24日 (6天前)",
"enterDate" : "384198:55:24",
"channelId" : "-4566444368717834423",
"channelName" : "国际足坛-欧陆烽火",
"channelNameSummary" : "国际足坛-欧陆烽火",
"channelUrl" : "http:\/\/sports.sina.com.cn\/global\/index.shtml",
"author" : "WWW.SINA.COM.CN",
"tags" : [],
"desc" : "",
"emailed" : False,
"forwarded" : False,
"english" : False
}  , {
"index" : 5,
"articleIndex" : "54186",
"favor" :  False ,
     "read" : False,    
"title" : "视频-鲁尼曼联100球全记录 小胖28岁生日快乐",
"titleTip" : "视频-鲁尼曼联100球全记录 小胖28岁生日快乐",
"titleSummary" : "视频-鲁尼曼联100球全记录 小胖28岁生日快乐",
"descSummary" : "",
"url" : "http:\/\/go.rss.sina.com.cn\/redirect.php?url=http:\/\/video.sina.com.cn\/p\/sports\/pl\/v\/2013-10-24\/154863059675.html",
"pubDate" : "2013年10月24日 (6天前)",
"enterDate" : "384198:46:11",
"channelId" : "-4566444368717834423",
"channelName" : "国际足坛-欧陆烽火",
"channelNameSummary" : "国际足坛-欧陆烽火",
"channelUrl" : "http:\/\/sports.sina.com.cn\/global\/index.shtml",
"author" : "WWW.SINA.COM.CN",
"tags" : [],
"desc" : "",
"emailed" : False,
"forwarded" : False,
"english" : False
}  , {
"index" : 6,
"articleIndex" : "54184",
"favor" :  False ,
     "read" : False,    
"title" : "花絮视频-本泽马蝎子摆尾出糗 C罗佩佩一对好基友",
"titleTip" : "花絮视频-本泽马蝎子摆尾出糗 C罗佩佩一对好基友",
"titleSummary" : "花絮视频-本泽马蝎子摆尾出糗 C罗佩佩一对好基友",
"descSummary" : "",
"url" : "http:\/\/go.rss.sina.com.cn\/redirect.php?url=http:\/\/sports.sina.com.cn\/uclvideo\/bn\/2013-10-24\/143063059441.html",
"pubDate" : "2013年10月24日 (6天前)",
"enterDate" : "384199:27:55",
"channelId" : "-4566444368717834423",
"channelName" : "国际足坛-欧陆烽火",
"channelNameSummary" : "国际足坛-欧陆烽火",
"channelUrl" : "http:\/\/sports.sina.com.cn\/global\/index.shtml",
"author" : "WWW.SINA.COM.CN",
"tags" : [],
"desc" : "",
"emailed" : False,
"forwarded" : False,
"english" : False
}  , {
"index" : 7,
"articleIndex" : "54183",
"favor" :  False ,
     "read" : False,    
"title" : "视频策划-MV回顾小组赛第3轮精彩瞬间 托雷斯重生伊布发飙",
"titleTip" : "视频策划-MV回顾小组赛第3轮精彩瞬间 托雷斯重生伊布发飙",
"titleSummary" : "视频策划-MV回顾小组赛第3轮精彩瞬间 托雷斯重生伊布发飙",
"descSummary" : "",
"url" : "http:\/\/go.rss.sina.com.cn\/redirect.php?url=http:\/\/sports.sina.com.cn\/uclvideo\/bn\/2013-10-24\/121963058787.html",
"pubDate" : "2013年10月24日 (6天前)",
"enterDate" : "384197:17:30",
"channelId" : "-4566444368717834423",
"channelName" : "国际足坛-欧陆烽火",
"channelNameSummary" : "国际足坛-欧陆烽火",
"channelUrl" : "http:\/\/sports.sina.com.cn\/global\/index.shtml",
"author" : "WWW.SINA.COM.CN",
"tags" : [],
"desc" : "",
"emailed" : False,
"forwarded" : False,
"english" : False
}  , {
"index" : 8,
"articleIndex" : "54182",
"favor" :  False ,
     "read" : False,    
"title" : "花絮视频-尤文大将禁区内踢草皮 反重力倒地索要点球",
"titleTip" : "花絮视频-尤文大将禁区内踢草皮 反重力倒地索要点球",
"titleSummary" : "花絮视频-尤文大将禁区内踢草皮 反重力倒地索要点球",
"descSummary" : "",
"url" : "http:\/\/go.rss.sina.com.cn\/redirect.php?url=http:\/\/sports.sina.com.cn\/uclvideo\/bn\/2013-10-24\/120363058737.html",
"pubDate" : "2013年10月24日 (6天前)",
"enterDate" : "384197:01:46",
"channelId" : "-4566444368717834423",
"channelName" : "国际足坛-欧陆烽火",
"channelNameSummary" : "国际足坛-欧陆烽火",
"channelUrl" : "http:\/\/sports.sina.com.cn\/global\/index.shtml",
"author" : "WWW.SINA.COM.CN",
"tags" : [],
"desc" : "",
"emailed" : False,
"forwarded" : False,
"english" : False
}  , {
"index" : 9,
"articleIndex" : "54181",
"favor" :  False ,
     "read" : False,    
"title" : "视频-本泽马绯闻女友性感写真 诱惑红唇大露美背",
"titleTip" : "视频-本泽马绯闻女友性感写真 诱惑红唇大露美背",
"titleSummary" : "视频-本泽马绯闻女友性感写真 诱惑红唇大露美背",
"descSummary" : "",
"url" : "http:\/\/go.rss.sina.com.cn\/redirect.php?url=http:\/\/video.sina.com.cn\/p\/sports\/laliga\/v\/2013-10-24\/115663058723.html",
"pubDate" : "2013年10月24日 (6天前)",
"enterDate" : "384196:54:22",
"channelId" : "-4566444368717834423",
"channelName" : "国际足坛-欧陆烽火",
"channelNameSummary" : "国际足坛-欧陆烽火",
"channelUrl" : "http:\/\/sports.sina.com.cn\/global\/index.shtml",
"author" : "WWW.SINA.COM.CN",
"tags" : [],
"desc" : "",
"emailed" : False,
"forwarded" : False,
"english" : False
}  , {
"index" : 10,
"articleIndex" : "54180",
"favor" :  False ,
     "read" : False,    
"title" : "视频策划-欧冠第3轮10佳球 伊布脚后跟&amp;世界波巡航",
"titleTip" : "视频策划-欧冠第3轮10佳球 伊布脚后跟&amp;世界波巡航",
"titleSummary" : "视频策划-欧冠第3轮10佳球 伊布脚后跟&amp;世界波巡航",
"descSummary" : "",
"url" : "http:\/\/go.rss.sina.com.cn\/redirect.php?url=http:\/\/sports.sina.com.cn\/uclvideo\/bn\/2013-10-24\/113863058681.html",
"pubDate" : "2013年10月24日 (6天前)",
"enterDate" : "384196:44:37",
"channelId" : "-4566444368717834423",
"channelName" : "国际足坛-欧陆烽火",
"channelNameSummary" : "国际足坛-欧陆烽火",
"channelUrl" : "http:\/\/sports.sina.com.cn\/global\/index.shtml",
"author" : "WWW.SINA.COM.CN",
"tags" : [],
"desc" : "",
"emailed" : False,
"forwarded" : False,
"english" : False
}  , {
"index" : 11,
"articleIndex" : "54179",
"favor" :  False ,
     "read" : False,    
"title" : "视频策划-欧冠第3轮次日全进球 C罗2连发&amp;伊布4弹",
"titleTip" : "视频策划-欧冠第3轮次日全进球 C罗2连发&amp;伊布4弹",
"titleSummary" : "视频策划-欧冠第3轮次日全进球 C罗2连发&amp;伊布4弹",
"descSummary" : "",
"url" : "http:\/\/go.rss.sina.com.cn\/redirect.php?url=http:\/\/sports.sina.com.cn\/uclvideo\/bn\/2013-10-24\/111363058577.html",
"pubDate" : "2013年10月24日 (6天前)",
"enterDate" : "384196:10:56",
"channelId" : "-4566444368717834423",
"channelName" : "国际足坛-欧陆烽火",
"channelNameSummary" : "国际足坛-欧陆烽火",
"channelUrl" : "http:\/\/sports.sina.com.cn\/global\/index.shtml",
"author" : "WWW.SINA.COM.CN",
"tags" : [],
"desc" : "",
"emailed" : False,
"forwarded" : False,
"english" : False
}  , {
"index" : 12,
"articleIndex" : "54178",
"favor" :  False ,
     "read" : False,    
"title" : "视频-梅西训练打篮球PK教练 定点投篮弹无虚发",
"titleTip" : "视频-梅西训练打篮球PK教练 定点投篮弹无虚发",
"titleSummary" : "视频-梅西训练打篮球PK教练 定点投篮弹无虚发",
"descSummary" : "",
"url" : "http:\/\/go.rss.sina.com.cn\/redirect.php?url=http:\/\/video.sina.com.cn\/p\/sports\/laliga\/v\/2013-10-24\/110363058531.html",
"pubDate" : "2013年10月24日 (6天前)",
"enterDate" : "384196:01:17",
"channelId" : "-4566444368717834423",
"channelName" : "国际足坛-欧陆烽火",
"channelNameSummary" : "国际足坛-欧陆烽火",
"channelUrl" : "http:\/\/sports.sina.com.cn\/global\/index.shtml",
"author" : "WWW.SINA.COM.CN",
"tags" : [],
"desc" : "",
"emailed" : False,
"forwarded" : False,
"english" : False
}  , {
"index" : 13,
"articleIndex" : "54177",
"favor" :  False ,
     "read" : False,    
"title" : "视频录播-欧冠小组赛 曼联vs皇家社会下半场",
"titleTip" : "视频录播-欧冠小组赛 曼联vs皇家社会下半场",
"titleSummary" : "视频录播-欧冠小组赛 曼联vs皇家社会下半场",
"descSummary" : "",
"url" : "http:\/\/go.rss.sina.com.cn\/redirect.php?url=http:\/\/sports.sina.com.cn\/uclvideo\/bn\/2013-10-24\/055263057213.html",
"pubDate" : "2013年10月24日 (6天前)",
"enterDate" : "384191:45:24",
"channelId" : "-4566444368717834423",
"channelName" : "国际足坛-欧陆烽火",
"channelNameSummary" : "国际足坛-欧陆烽火",
"channelUrl" : "http:\/\/sports.sina.com.cn\/global\/index.shtml",
"author" : "WWW.SINA.COM.CN",
"tags" : [],
"desc" : "",
"emailed" : False,
"forwarded" : False,
"english" : False
}  , {
"index" : 14,
"articleIndex" : "54176",
"favor" :  False ,
     "read" : False,    
"title" : "视频集锦-基斯林双响&amp;孙兴民助攻 勒沃库森4-0矿工",
"titleTip" : "视频集锦-基斯林双响&amp;孙兴民助攻 勒沃库森4-0矿工",
"titleSummary" : "视频集锦-基斯林双响&amp;孙兴民助攻 勒沃库森4-0矿工",
"descSummary" : "",
"url" : "http:\/\/go.rss.sina.com.cn\/redirect.php?url=http:\/\/sports.sina.com.cn\/uclvideo\/bn\/2013-10-24\/063963057201.html",
"pubDate" : "2013年10月24日 (6天前)",
"enterDate" : "384191:37:43",
"channelId" : "-4566444368717834423",
"channelName" : "国际足坛-欧陆烽火",
"channelNameSummary" : "国际足坛-欧陆烽火",
"channelUrl" : "http:\/\/sports.sina.com.cn\/global\/index.shtml",
"author" : "WWW.SINA.COM.CN",
"tags" : [],
"desc" : "",
"emailed" : False,
"forwarded" : False,
"english" : False
}  , {
"index" : 15,
"articleIndex" : "54175",
"favor" :  False ,
     "read" : False,    
"title" : "进球视频-暴力凌空斩 无敌伊布上演神奇大四喜",
"titleTip" : "进球视频-暴力凌空斩 无敌伊布上演神奇大四喜",
"titleSummary" : "进球视频-暴力凌空斩 无敌伊布上演神奇大四喜",
"descSummary" : "",
"url" : "http:\/\/go.rss.sina.com.cn\/redirect.php?url=http:\/\/sports.sina.com.cn\/uclvideo\/bn\/2013-10-24\/063463057177.html",
"pubDate" : "2013年10月24日 (6天前)",
"enterDate" : "384191:32:21",
"channelId" : "-4566444368717834423",
"channelName" : "国际足坛-欧陆烽火",
"channelNameSummary" : "国际足坛-欧陆烽火",
"channelUrl" : "http:\/\/sports.sina.com.cn\/global\/index.shtml",
"author" : "WWW.SINA.COM.CN",
"tags" : [],
"desc" : "",
"emailed" : False,
"forwarded" : False,
"english" : False
}  , {
"index" : 16,
"articleIndex" : "54174",
"favor" :  False ,
     "read" : False,    
"title" : "视频录播-欧冠小组赛B组第3轮 皇马VS尤文下半场",
"titleTip" : "视频录播-欧冠小组赛B组第3轮 皇马VS尤文下半场",
"titleSummary" : "视频录播-欧冠小组赛B组第3轮 皇马VS尤文下半场",
"descSummary" : "",
"url" : "http:\/\/go.rss.sina.com.cn\/redirect.php?url=http:\/\/sports.sina.com.cn\/uclvideo\/bn\/2013-10-24\/060563057173.html",
"pubDate" : "2013年10月24日 (6天前)",
"enterDate" : "384191:32:18",
"channelId" : "-4566444368717834423",
"channelName" : "国际足坛-欧陆烽火",
"channelNameSummary" : "国际足坛-欧陆烽火",
"channelUrl" : "http:\/\/sports.sina.com.cn\/global\/index.shtml",
"author" : "WWW.SINA.COM.CN",
"tags" : [],
"desc" : "",
"emailed" : False,
"forwarded" : False,
"english" : False
}  , {
"index" : 17,
"articleIndex" : "54173",
"favor" :  False ,
     "read" : False,    
"title" : "进球视频-后卫无厘头滑倒送大礼 卡瓦尼锦上添花",
"titleTip" : "进球视频-后卫无厘头滑倒送大礼 卡瓦尼锦上添花",
"titleSummary" : "进球视频-后卫无厘头滑倒送大礼 卡瓦尼锦上添花",
"descSummary" : "",
"url" : "http:\/\/go.rss.sina.com.cn\/redirect.php?url=http:\/\/sports.sina.com.cn\/uclvideo\/bn\/2013-10-24\/063163057159.html",
"pubDate" : "2013年10月24日 (6天前)",
"enterDate" : "384191:29:06",
"channelId" : "-4566444368717834423",
"channelName" : "国际足坛-欧陆烽火",
"channelNameSummary" : "国际足坛-欧陆烽火",
"channelUrl" : "http:\/\/sports.sina.com.cn\/global\/index.shtml",
"author" : "WWW.SINA.COM.CN",
"tags" : [],
"desc" : "",
"emailed" : False,
"forwarded" : False,
"english" : False
}  , {
"index" : 18,
"articleIndex" : "54172",
"favor" :  False ,
     "read" : False,    
"title" : "进球视频-不讲理伊布！ 超级轰天雷对手球迷都鼓掌",
"titleTip" : "进球视频-不讲理伊布！ 超级轰天雷对手球迷都鼓掌",
"titleSummary" : "进球视频-不讲理伊布！ 超级轰天雷对手球迷都鼓掌",
"descSummary" : "",
"url" : "http:\/\/go.rss.sina.com.cn\/redirect.php?url=http:\/\/sports.sina.com.cn\/uclvideo\/bn\/2013-10-24\/062763057145.html",
"pubDate" : "2013年10月24日 (6天前)",
"enterDate" : "384191:25:37",
"channelId" : "-4566444368717834423",
"channelName" : "国际足坛-欧陆烽火",
"channelNameSummary" : "国际足坛-欧陆烽火",
"channelUrl" : "http:\/\/sports.sina.com.cn\/global\/index.shtml",
"author" : "WWW.SINA.COM.CN",
"tags" : [],
"desc" : "",
"emailed" : False,
"forwarded" : False,
"english" : False
}  , {
"index" : 19,
"articleIndex" : "54185",
"favor" :  False ,
     "read" : False,    
"title" : "高清图-盘点历届世界杯比赛用球 哪款最让你热血沸腾",
"titleTip" : "高清图-盘点历届世界杯比赛用球 哪款最让你热血沸腾",
"titleSummary" : "高清图-盘点历届世界杯比赛用球 哪款最让你热血沸腾",
"descSummary" : "",
"url" : "http:\/\/go.rss.sina.com.cn\/redirect.php?url=http:\/\/slide.sports.sina.com.cn\/g\/slide_2_730_54911.html",
"pubDate" : "2013年10月21日 (1周前)",
"enterDate" : "384121:26:56",
"channelId" : "-4566444368717834423",
"channelName" : "国际足坛-欧陆烽火",
"channelNameSummary" : "国际足坛-欧陆烽火",
"channelUrl" : "http:\/\/sports.sina.com.cn\/global\/index.shtml",
"author" : "WWW.SINA.COM.CN",
"tags" : [],
"desc" : "",
"emailed" : False,
"forwarded" : False,
"english" : False
} ]
}
