{
"mode" : {"viewTitle" : 1,   "viewNew" : 0,  "pageIndex" : 1 },
 "channel" : {"id" : "-3947544421833476797", "booked" : False, "subNumber" : 1, "name" : "生活-新浪博客", "url" : "http:\/\/blog.sina.com.cn\/lm\/bj\/index.html", "feed" : "http:\/\/rss.sina.com.cn\/blog\/index\/enjoy.xml", "author" : "伊夫,乐先生,北角山妖,咕咚,天眼摄郎...", "desc" : "生活博客列表", "imageUrl" : "http:\/\/www.sinaimg.cn\/blog\/main\/index2010\/blog_logo.png", "postPerWeek" : "0", "lastCrawTime" : "17:08:00", "crawDateTime" : "15:52:45", "lastHttpCode" : "200"}, "page" : {
"startIndex" : 0,
"totalCount" : 5000,
"pageIndex" : 1,
"lastPage" : 250,
"pageSize" : 20,
"english" :  False },
 "unreadNum" : 0, "shotIndex" : -1,
"articles" : [
{
"index" : 0,
"articleIndex" : "15152",
"favor" :  False ,
     "read" : False,    
"title" : "实拍揭秘：钓鱼台国宾馆美丽秋景(图)",
"titleTip" : "实拍揭秘：钓鱼台国宾馆美丽秋景(图)",
"titleSummary" : "实拍揭秘：钓鱼台国宾馆美丽秋景(图)",
"descSummary" : "自古逢秋悲寂寥，我言秋日胜春朝。金秋时节，我再一次进入钓鱼台...",
"url" : "http:\/\/go.rss.sina.com.cn\/redirect.php?url=http:\/\/blog.sina.com.cn\/s\/blog_7c06fcd30101ag6o.html",
"pubDate" : "13:51:28",
"enterDate" : "384199:18:15",
"channelId" : "-3947544421833476797",
"channelName" : "生活-新浪博客",
"channelNameSummary" : "生活-新浪博客",
"channelUrl" : "http:\/\/blog.sina.com.cn\/lm\/bj\/index.html",
"author" : "天眼摄郎",
"tags" : [],
"desc" : "自古逢秋悲寂寥，我言秋日胜春朝。金秋时节，我再一次进入钓鱼台国宾馆，来这里记录秋天的美丽。钓鱼台演绎着五彩世界，金黄的银杏，火红的枫树，亭台楼阁，小河潺潺，湖光潋滟，空气中都弥漫着秋的气息，大自然的画笔将秋天的钓鱼台渲染的好似一幅精美的水彩画。 钓鱼台国宾馆座落在北京西郊古钓鱼台风景区。古钓鱼...",
"emailed" : False,
"forwarded" : False,
"english" : False
}  , {
"index" : 1,
"articleIndex" : "15149",
"favor" :  False ,
     "read" : False,    
"title" : "以色列有着五千年历史的阿卡古城(图)",
"titleTip" : "以色列有着五千年历史的阿卡古城(图)",
"titleSummary" : "以色列有着五千年历史的阿卡古城(图)",
"descSummary" : "阿卡是以色列最北端的港口小城， 再稍微走一点过去，就到了黎巴...",
"url" : "http:\/\/go.rss.sina.com.cn\/redirect.php?url=http:\/\/blog.sina.com.cn\/s\/blog_4ee5029e0102eesn.html",
"pubDate" : "10:56:07",
"enterDate" : "384200:23:33",
"channelId" : "-3947544421833476797",
"channelName" : "生活-新浪博客",
"channelNameSummary" : "生活-新浪博客",
"channelUrl" : "http:\/\/blog.sina.com.cn\/lm\/bj\/index.html",
"author" : "北角山妖",
"tags" : [],
"desc" : "阿卡是以色列最北端的港口小城， 再稍微走一点过去，就到了黎巴嫩。 城不大，却有着五千多年的历史，是世界上最古老的城市之一。 作为世界文化遗产，阿卡老城完好地保留了十字军的城堡、 阿拉伯人的清真寺、奥斯曼土耳其的浴室，还有一条长长的地下城迷宫。 如今，生活在这里的，大多是阿拉伯人，当然也有一部分犹太人 所以...",
"emailed" : False,
"forwarded" : False,
"english" : False
}  , {
"index" : 2,
"articleIndex" : "15151",
"favor" :  False ,
     "read" : False,    
"title" : "美国媒体惊呼\u201C天啊中国人来啦\u201D",
"titleTip" : "美国媒体惊呼\u201C天啊中国人来啦\u201D",
"titleSummary" : "美国媒体惊呼\u201C天啊中国人来啦\u201D",
"descSummary" : "美国ABC电视台高管道歉了，主持人吉米在自己的节目中道歉了，虽...",
"url" : "http:\/\/go.rss.sina.com.cn\/redirect.php?url=http:\/\/blog.sina.com.cn\/s\/blog_6175bf700102eilt.html",
"pubDate" : "08:56:09",
"enterDate" : "384194:22:56",
"channelId" : "-3947544421833476797",
"channelName" : "生活-新浪博客",
"channelNameSummary" : "生活-新浪博客",
"channelUrl" : "http:\/\/blog.sina.com.cn\/lm\/bj\/index.html",
"author" : "高娓娓",
"tags" : [],
"desc" : "美国ABC电视台高管道歉了，主持人吉米在自己的节目中道歉了，虽说\u201C惹事\u201D杰米的道歉更像在为自己解释或者说明，但是，他在ABC自己的节目中，说了对不起。 今天的美国媒体，大大小小报道道歉事件，连抗议的华人华侨和美国人都傻了眼？\u201C怎么啦，这次那么快就OVER 了？\u201D 作为生活美国10多年的华人和媒体人，我亲身经...",
"emailed" : False,
"forwarded" : False,
"english" : False
}  , {
"index" : 3,
"articleIndex" : "15147",
"favor" :  False ,
     "read" : False,    
"title" : "实拍\u201C俄罗斯第一岗\u201D换岗仪式(图)",
"titleTip" : "实拍\u201C俄罗斯第一岗\u201D换岗仪式(图)",
"titleSummary" : "实拍\u201C俄罗斯第一岗\u201D换岗仪式(图)",
"descSummary" : "位于克里姆林宫红墙外的无名烈士墓是为纪念第二次世界大战中阵亡的...",
"url" : "http:\/\/go.rss.sina.com.cn\/redirect.php?url=http:\/\/blog.sina.com.cn\/s\/blog_46ca50e60102egw8.html",
"pubDate" : "08:30:19",
"enterDate" : "384198:57:54",
"channelId" : "-3947544421833476797",
"channelName" : "生活-新浪博客",
"channelNameSummary" : "生活-新浪博客",
"channelUrl" : "http:\/\/blog.sina.com.cn\/lm\/bj\/index.html",
"author" : "行者戴歌",
"tags" : [],
"desc" : "位于克里姆林宫红墙外的无名烈士墓是为纪念第二次世界大战中阵亡的苏联士兵而建。墓前有一个凸型五星状的火炬，五星中央喷出的火焰，从建成时一直在燃烧，从未熄灭，象征着烈士的精神永照人间。墓两侧的两座岗亭前站着两名哨兵，被誉为\u201C俄罗斯第一岗\u201D，他们昼夜为烈士守灵。每天从早晨至晚上，莫斯科克里姆林宫卫戍部队的...",
"emailed" : False,
"forwarded" : False,
"english" : False
}  , {
"index" : 4,
"articleIndex" : "15146",
"favor" :  False ,
     "read" : False,    
"title" : "美国人月子里怎养新生儿？(图)",
"titleTip" : "美国人月子里怎养新生儿？(图)",
"titleSummary" : "美国人月子里怎养新生儿？(图)",
"descSummary" : "米国西部时间2013年9月29日12点15分，大眼睛小女生Isabella 顺利出生于...",
"url" : "http:\/\/go.rss.sina.com.cn\/redirect.php?url=http:\/\/blog.sina.com.cn\/s\/blog_a71b6f7f0101b1p0.html",
"pubDate" : "昨天02:29:34",
"enterDate" : "384192:57:09",
"channelId" : "-3947544421833476797",
"channelName" : "生活-新浪博客",
"channelNameSummary" : "生活-新浪博客",
"channelUrl" : "http:\/\/blog.sina.com.cn\/lm\/bj\/index.html",
"author" : "乐先生",
"tags" : [],
"desc" : "米国西部时间2013年9月29日12点15分，大眼睛小女生Isabella 顺利出生于加州San Jose Good Samaritan Hospital.重7斤1两，长49.5厘米。 weight:7lbs 12.8oz. length:19.5in. 今天俺家的思阅童鞋满月啦，妈妈我二次顺产后也开始要正式上岗了。回想起来，跟上次生老大乐先生相比，这次在米国的月子还是有诸多不同。时间...",
"emailed" : False,
"forwarded" : False,
"english" : False
}  , {
"index" : 5,
"articleIndex" : "15148",
"favor" :  False ,
     "read" : False,    
"title" : "家政中介：二仆侍一劈腿男主的奇葩事",
"titleTip" : "家政中介：二仆侍一劈腿男主的奇葩事",
"titleSummary" : "家政中介：二仆侍一劈腿男主的奇葩事",
"descSummary" : "这博客是一位文学界的沈阳大姐怂恿我开的,说实话,我对大堆大堆...",
"url" : "http:\/\/go.rss.sina.com.cn\/redirect.php?url=http:\/\/blog.sina.com.cn\/s\/blog_b3df75c60101qhoh.html",
"pubDate" : "昨天01:44:41",
"enterDate" : "384191:12:07",
"channelId" : "-3947544421833476797",
"channelName" : "生活-新浪博客",
"channelNameSummary" : "生活-新浪博客",
"channelUrl" : "http:\/\/blog.sina.com.cn\/lm\/bj\/index.html",
"author" : "家政中介员",
"tags" : [],
"desc" : "这博客是一位文学界的沈阳大姐怂恿我开的,说实话,我对大堆大堆的码字一点兴趣也没有,但是,毕竟是文学界大姐，她一句:\u201C你干点正事吧,赶紧整个博客,把人气搞上来好接广告.\u201D就把我的软肋打折了.\u201D这还说啥?都是为了接广告,整吧!我终究还是放不下这个贪念. 话说，这位文学界大姐,确实是个明眼人,她也知道我手里这两把豆整...",
"emailed" : False,
"forwarded" : False,
"english" : False
}  , {
"index" : 6,
"articleIndex" : "15145",
"favor" :  False ,
     "read" : False,    
"title" : "柬埔寨蜚声世界的神秘高棉微笑(图)",
"titleTip" : "柬埔寨蜚声世界的神秘高棉微笑(图)",
"titleSummary" : "柬埔寨蜚声世界的神秘高棉微笑(图)",
"descSummary" : "图\/文 维尼小熊 柬埔寨！这个古老的国度，在千年之后的今天，如果...",
"url" : "http:\/\/go.rss.sina.com.cn\/redirect.php?url=http:\/\/blog.sina.com.cn\/s\/blog_608db2cf0102e8aw.html",
"pubDate" : "昨天00:10:39",
"enterDate" : "384190:38:14",
"channelId" : "-3947544421833476797",
"channelName" : "生活-新浪博客",
"channelNameSummary" : "生活-新浪博客",
"channelUrl" : "http:\/\/blog.sina.com.cn\/lm\/bj\/index.html",
"author" : "维尼小熊",
"tags" : [],
"desc" : "图\/文 维尼小熊 柬埔寨！ 这个古老的国度，在千年之后的今天，如果说吴哥窟是体味历史的静穆之地。 那么，想要感受庙宇的迷幻，就来约会高棉的棉笑吧。 吴哥通王城，又称大吴哥，是吴哥王朝的首都，紧临小吴哥寺以北约1.5公里。 曾是东南亚历史上最宏伟的都城，鼎盛时人口达上百万。多次毁于战火，后几经重修，最终在...",
"emailed" : False,
"forwarded" : False,
"english" : False
}  , {
"index" : 7,
"articleIndex" : "15144",
"favor" :  False ,
     "read" : False,    
"title" : "在土耳其感受宗教的交汇与共存(图)",
"titleTip" : "在土耳其感受宗教的交汇与共存(图)",
"titleSummary" : "在土耳其感受宗教的交汇与共存(图)",
"descSummary" : "有着近一千五百年历史的圣索菲亚大教堂从原先的教堂改建为清真寺，...",
"url" : "http:\/\/go.rss.sina.com.cn\/redirect.php?url=http:\/\/blog.sina.com.cn\/s\/blog_4a696a6e0102e70o.html",
"pubDate" : "昨天21:20:52",
"enterDate" : "384198:50:22",
"channelId" : "-3947544421833476797",
"channelName" : "生活-新浪博客",
"channelNameSummary" : "生活-新浪博客",
"channelUrl" : "http:\/\/blog.sina.com.cn\/lm\/bj\/index.html",
"author" : "霞光黎影",
"tags" : [],
"desc" : "有着近一千五百年历史的圣索菲亚大教堂从原先的教堂改建为清真寺，再变成如今基督徒和穆罕默德信徒共有的一个宗教博物馆，堪称是世上独一无二的建筑传奇。 与蓝色清真寺隔街相望的圣索菲亚大教堂，建于东罗马皇帝统治时期(公元532年?公元537年)，因其巨大的圆顶而闻名于世，是拜占庭式建筑的经典典范。大教堂以一位名为...",
"emailed" : False,
"forwarded" : False,
"english" : False
}  , {
"index" : 8,
"articleIndex" : "15143",
"favor" :  False ,
     "read" : False,    
"title" : "北漂卖房套现离京是不错的选择",
"titleTip" : "北漂卖房套现离京是不错的选择",
"titleSummary" : "北漂卖房套现离京是不错的选择",
"descSummary" : "我写这篇博文可能会引来不少人的不同意见，我会认真聆听不同的声音，...",
"url" : "http:\/\/go.rss.sina.com.cn\/redirect.php?url=http:\/\/blog.sina.com.cn\/s\/blog_a2a357520101iq2r.html",
"pubDate" : "昨天18:45:58",
"enterDate" : "384200:16:09",
"channelId" : "-3947544421833476797",
"channelName" : "生活-新浪博客",
"channelNameSummary" : "生活-新浪博客",
"channelUrl" : "http:\/\/blog.sina.com.cn\/lm\/bj\/index.html",
"author" : "张宁虹",
"tags" : [],
"desc" : "我写这篇博文可能会引来不少人的不同意见，我会认真聆听不同的声音，因为对生活的理解本就是一件众口难调的事儿，每个人有自己的想法，每种想法有不同的表达。我很早就想写这篇文章了，但总觉得思路凌乱，没有把握把自己的意思完全表达清楚，所以迟迟没有真的坐下来去写。 前些天我写了一篇小文，说的是一个在北京漂了近...",
"emailed" : False,
"forwarded" : False,
"english" : False
}  , {
"index" : 9,
"articleIndex" : "15142",
"favor" :  False ,
     "read" : False,    
"title" : "身临其境电影《杀生》的取景地",
"titleTip" : "身临其境电影《杀生》的取景地",
"titleSummary" : "身临其境电影《杀生》的取景地",
"descSummary" : "今年9月中旬抽了大概一周多的时间跑了趟四川的阿坝州，去了不少经典...",
"url" : "http:\/\/go.rss.sina.com.cn\/redirect.php?url=http:\/\/blog.sina.com.cn\/s\/blog_537719ca0102efn7.html",
"pubDate" : "昨天18:27:57",
"enterDate" : "384199:58:08",
"channelId" : "-3947544421833476797",
"channelName" : "生活-新浪博客",
"channelNameSummary" : "生活-新浪博客",
"channelUrl" : "http:\/\/blog.sina.com.cn\/lm\/bj\/index.html",
"author" : "源形毕露",
"tags" : [],
"desc" : "今年9月中旬抽了大概一周多的时间跑了趟四川的阿坝州，去了不少经典和藏羌寨子，给我印象最深，也是让我有再次前往冲动的是理县的桃坪羌寨。据说那里是四川地震之后保留原始面貌最完整的羌寨，穿过售票处附近新盖的那些羌寨房子便可以走到里面的老区，真的很原始。 可能因为电影《杀生》给我的剧中环境印象很深，所以身临...",
"emailed" : False,
"forwarded" : False,
"english" : False
}  , {
"index" : 10,
"articleIndex" : "15141",
"favor" :  False ,
     "read" : False,    
"title" : "藏在日本高级公寓里的\u201C阶级\u201D秘密",
"titleTip" : "藏在日本高级公寓里的\u201C阶级\u201D秘密",
"titleSummary" : "藏在日本高级公寓里的\u201C阶级\u201D秘密",
"descSummary" : "日本天天\u201C蒋\u201D（10月29日篇） 在安倍政权敲定要于2014年4月，...",
"url" : "http:\/\/go.rss.sina.com.cn\/redirect.php?url=http:\/\/blog.sina.com.cn\/s\/blog_615fb6320102eerq.html",
"pubDate" : "昨天14:34:36",
"enterDate" : "384196:04:47",
"channelId" : "-3947544421833476797",
"channelName" : "生活-新浪博客",
"channelNameSummary" : "生活-新浪博客",
"channelUrl" : "http:\/\/blog.sina.com.cn\/lm\/bj\/index.html",
"author" : "蒋丰",
"tags" : [],
"desc" : "??日本天天\u201C蒋\u201D（10月29日篇） 在安倍政权敲定要于2014年4月，将日本现行的5%的消费税上调到8%后，很多日本家庭都开始东奔西走，四处看房，要赶在增税前为日本楼市再添把火。 但与此同时，部分东京都高级公寓里的\u201C有房一族\u201D们，却建立起了一个专门的\u201C吐槽网\u201D，扎堆儿吐苦水，说后悔买房。 38岁的荒井志乃，在两年...",
"emailed" : False,
"forwarded" : False,
"english" : False
}  , {
"index" : 11,
"articleIndex" : "15150",
"favor" :  False ,
     "read" : False,    
"title" : "以房养老世界各国都是怎样做的",
"titleTip" : "以房养老世界各国都是怎样做的",
"titleSummary" : "以房养老世界各国都是怎样做的",
"descSummary" : "再不想养老就晚啦!现在的我们，辛苦赚钱供房养娃。30年以后，我们可...",
"url" : "http:\/\/go.rss.sina.com.cn\/redirect.php?url=http:\/\/blog.sina.com.cn\/s\/blog_b6d742c30101goog.html",
"pubDate" : "昨天14:31:56",
"enterDate" : "384175:58:43",
"channelId" : "-3947544421833476797",
"channelName" : "生活-新浪博客",
"channelNameSummary" : "生活-新浪博客",
"channelUrl" : "http:\/\/blog.sina.com.cn\/lm\/bj\/index.html",
"author" : "美好妈咪",
"tags" : [],
"desc" : "再不想养老就晚啦!! 现在的我们，辛苦赚钱供房养娃。30年以后，我们可以靠房靠娃养老吗?养儿防老早成过去时了， 而\u201C以房养老\u201D??只是依靠单纯的买卖和租赁方式，很难抵御通胀的风险。下面，美妈为你呈现\u201C以房养老\u201D的一些方式，其中有很多具有超前理念，以助我们筹划养老计划时，看到更远! 一笔账告诉你 ...",
"emailed" : False,
"forwarded" : False,
"english" : False
}  , {
"index" : 12,
"articleIndex" : "15138",
"favor" :  False ,
     "read" : False,    
"title" : "最详细的带娃出行必备清单",
"titleTip" : "最详细的带娃出行必备清单",
"titleSummary" : "最详细的带娃出行必备清单",
"descSummary" : "前些日子带恩小予小盆友出去休假了几天，这是提前两个多月就定好的计划，...",
"url" : "http:\/\/go.rss.sina.com.cn\/redirect.php?url=http:\/\/blog.sina.com.cn\/s\/blog_d844841d0101hb0r.html",
"pubDate" : "昨天09:46:03",
"enterDate" : "384199:02:35",
"channelId" : "-3947544421833476797",
"channelName" : "生活-新浪博客",
"channelNameSummary" : "生活-新浪博客",
"channelUrl" : "http:\/\/blog.sina.com.cn\/lm\/bj\/index.html",
"author" : "辣妈正二",
"tags" : [],
"desc" : "前些日子带恩小予小盆友出去休假了几天，这是提前两个多月就定好的计划，所以也紧张纠结了两个多月。因为是第一次带小盆友出远门，为娘被自己的各种细节强迫症压得半死，还没走出去，心里已然累趴下了。还好，还好，正因为强迫，脑海中已经带娃玩了好几个来回，所有遇到遇不到的状况，都假设了个遍，也整理出了一份出行必备...",
"emailed" : False,
"forwarded" : False,
"english" : False
}  , {
"index" : 13,
"articleIndex" : "15136",
"favor" :  False ,
     "read" : False,    
"title" : "阳澄湖大闸蟹的出名拜上海人所赐",
"titleTip" : "阳澄湖大闸蟹的出名拜上海人所赐",
"titleSummary" : "阳澄湖大闸蟹的出名拜上海人所赐",
"descSummary" : "秋风渐凉，又到吃螃蟹的时候了。李渔是最喜爱大闸蟹的，他吃的时候...",
"url" : "http:\/\/go.rss.sina.com.cn\/redirect.php?url=http:\/\/blog.sina.com.cn\/s\/blog_43e6e0b00102fqc6.html",
"pubDate" : "昨天09:04:17",
"enterDate" : "384199:20:59",
"channelId" : "-3947544421833476797",
"channelName" : "生活-新浪博客",
"channelNameSummary" : "生活-新浪博客",
"channelUrl" : "http:\/\/blog.sina.com.cn\/lm\/bj\/index.html",
"author" : "董克平",
"tags" : [],
"desc" : "秋风渐凉，又到吃螃蟹的时候了。 李渔是最喜爱大闸蟹的，他吃的时候，还不叫大闸蟹。那时候，苏州、太湖一带河湖众多，水草丰美，螃蟹的出产量多味美。李渔是文字高手，更是一个美食家。问李渔为什么螃蟹好吃？吭唔了半天，李渔也没有具体的说清什么，只是说：好吃。\u201C于蟹一物，终其身而不能忘之。\u201D 清朝道光年间的...",
"emailed" : False,
"forwarded" : False,
"english" : False
}  , {
"index" : 14,
"articleIndex" : "15140",
"favor" :  False ,
     "read" : False,    
"title" : "华人在ABC门前抗议杀光中国人言论",
"titleTip" : "华人在ABC门前抗议杀光中国人言论",
"titleSummary" : "华人在ABC门前抗议杀光中国人言论",
"descSummary" : "10月28日中午12点，位于曼哈顿66街和哥伦布大道之间的ABC大厦...",
"url" : "http:\/\/go.rss.sina.com.cn\/redirect.php?url=http:\/\/blog.sina.com.cn\/s\/blog_6175bf700102ein3.html",
"pubDate" : "昨天07:05:54",
"enterDate" : "384190:36:25",
"channelId" : "-3947544421833476797",
"channelName" : "生活-新浪博客",
"channelNameSummary" : "生活-新浪博客",
"channelUrl" : "http:\/\/blog.sina.com.cn\/lm\/bj\/index.html",
"author" : "高娓娓",
"tags" : [],
"desc" : "10月28日中午12点，位于曼哈顿66街和哥伦布大道之间的ABC大厦门前聚集了上百名华裔民众，在为ABC电视直播节目中播出孩子对于还钱方式\u201C杀死全体中国人\u201D言论举行抗议游行，不少人早上很早就赶到集合点，多数人都来自纽约和新泽西两州。 高娓娓的新浪微博,欢迎关注\u2026\u2026点击进入\u2026\u2026 ...",
"emailed" : False,
"forwarded" : False,
"english" : False
}  , {
"index" : 15,
"articleIndex" : "15139",
"favor" :  False ,
     "read" : False,    
"title" : "亲历英国至1987年以来最强风暴(图)",
"titleTip" : "亲历英国至1987年以来最强风暴(图)",
"titleSummary" : "亲历英国至1987年以来最强风暴(图)",
"descSummary" : "不是啥金融啊商业啊的风暴，是实实在在的老天发怒的天庭风暴。黑?...",
"url" : "http:\/\/go.rss.sina.com.cn\/redirect.php?url=http:\/\/blog.sina.com.cn\/s\/blog_4bf790fe0102e8is.html",
"pubDate" : "前天03:51:52",
"enterDate" : "384189:22:43",
"channelId" : "-3947544421833476797",
"channelName" : "生活-新浪博客",
"channelNameSummary" : "生活-新浪博客",
"channelUrl" : "http:\/\/blog.sina.com.cn\/lm\/bj\/index.html",
"author" : "咕咚",
"tags" : [],
"desc" : "不是啥金融啊商业啊的风暴，是实实在在的老天发怒的天庭风暴。 黑??的一大早，一阵紧似一阵的风潮急拍窗棂，尖利的嚎叫硬生生把人从梦中拽醒。才5点多，朦胧睡眼看黑夜的窗外，看到的是黑夜的镜子。风爷这回动作太生猛了，多大点事儿啊，这么狂呼乱嗷拍案怒起的？懒懒地瞪了一眼暗夜，睡梦中继续散步去。 早起，风依然肆...",
"emailed" : False,
"forwarded" : False,
"english" : False
}  , {
"index" : 16,
"articleIndex" : "15135",
"favor" :  False ,
     "read" : False,    
"title" : "肯德基半价桶单人通关试用报告",
"titleTip" : "肯德基半价桶单人通关试用报告",
"titleSummary" : "肯德基半价桶单人通关试用报告",
"descSummary" : "首先要吐槽一下肯德基半价桶的价格\u2026\u2026是的它不是45元！谁TM在网上...",
"url" : "http:\/\/go.rss.sina.com.cn\/redirect.php?url=http:\/\/blog.sina.com.cn\/s\/blog_6dd4aa650101ivo5.html",
"pubDate" : "前天20:21:49",
"enterDate" : "384186:38:31",
"channelId" : "-3947544421833476797",
"channelName" : "生活-新浪博客",
"channelNameSummary" : "生活-新浪博客",
"channelUrl" : "http:\/\/blog.sina.com.cn\/lm\/bj\/index.html",
"author" : "苗巾",
"tags" : [],
"desc" : "首先要吐槽一下肯德基半价桶的价格\u2026\u2026是的它不是45元！！！谁TM在网上瞎传是45元来着！！！我怀着为人民试毒的壮烈心情揣着45块钱上路了，到了柜台发现它是48.5元啊！！！我擦！！！老子就带了45元一分钱都没多带啊！！！这是怎样的一种蛋疼！！！于是我又以吃不到桶死不休的心态回去拿了3块5好嘛\u2026\u2026【怨念 ?????????...",
"emailed" : False,
"forwarded" : False,
"english" : False
}  , {
"index" : 17,
"articleIndex" : "15134",
"favor" :  False ,
     "read" : False,    
"title" : "女作家：在剑桥的点滴时光(图)",
"titleTip" : "女作家：在剑桥的点滴时光(图)",
"titleSummary" : "女作家：在剑桥的点滴时光(图)",
"descSummary" : "阳光在剑桥有了生命的特质 1、 阳光，在剑桥终于有了生命的味道。初乳...",
"url" : "http:\/\/go.rss.sina.com.cn\/redirect.php?url=http:\/\/blog.sina.com.cn\/s\/blog_6016a6970102ea6i.html",
"pubDate" : "前天18:12:58",
"enterDate" : "384184:29:40",
"channelId" : "-3947544421833476797",
"channelName" : "生活-新浪博客",
"channelNameSummary" : "生活-新浪博客",
"channelUrl" : "http:\/\/blog.sina.com.cn\/lm\/bj\/index.html",
"author" : "杨银娣一",
"tags" : [],
"desc" : "阳光在剑桥有了生命的特质 1、 阳光，在剑桥终于有了生命的味道。 初乳的鲜嫩。 秋草的清涩。 咀嚼着童话般掉下来的那束光，两腮的涌泉有了苦涩。 笑容里溢满了怀想，思，翔在云上，遥望远方的那片天。那里，有东方最古老而新鲜的故事。 2、 学院。 草坪。 瞧那几个女孩在舔舐...",
"emailed" : False,
"forwarded" : False,
"english" : False
}  , {
"index" : 18,
"articleIndex" : "15137",
"favor" :  False ,
     "read" : False,    
"title" : "西班牙博主：体验特色处女节(图)",
"titleTip" : "西班牙博主：体验特色处女节(图)",
"titleSummary" : "西班牙博主：体验特色处女节(图)",
"descSummary" : "最近攒了好几篇博文，要抓紧时间把他们都更新上来。10月20日是过La...",
"url" : "http:\/\/go.rss.sina.com.cn\/redirect.php?url=http:\/\/blog.sina.com.cn\/s\/blog_61780fdb0101i3mx.html",
"pubDate" : "2013年10月26日 (4天前)",
"enterDate" : "384138:54:56",
"channelId" : "-3947544421833476797",
"channelName" : "生活-新浪博客",
"channelNameSummary" : "生活-新浪博客",
"channelUrl" : "http:\/\/blog.sina.com.cn\/lm\/bj\/index.html",
"author" : "番茄炒蛋",
"tags" : [],
"desc" : "最近攒了好几篇博文，要抓紧时间把他们都更新上来。 10月20日是过La Dia de Las Virgines，翻译过来就是处女节，哈哈， 过节的话，大家都要吃Buñuelos，可以翻译过来叫甜甜圈，当然也有不同造型的， 那天男孩给女孩送康乃馨，女孩给男孩送甜甜圈， 过节的前一阵，街上就有人开始摆出炸甜甜圈的铺子了，一般都是老人...",
"emailed" : False,
"forwarded" : False,
"english" : False
}  , {
"index" : 19,
"articleIndex" : "15133",
"favor" :  False ,
     "read" : False,    
"title" : "在天津港感受旧天津的巨变(图)",
"titleTip" : "在天津港感受旧天津的巨变(图)",
"titleSummary" : "在天津港感受旧天津的巨变(图)",
"descSummary" : "新浪天津（三） 再造一个新天津，不仅是雄心壮志，而且已成为板上钉钉...",
"url" : "http:\/\/go.rss.sina.com.cn\/redirect.php?url=http:\/\/blog.sina.com.cn\/s\/blog_48489ba10102eati.html",
"pubDate" : "2013年10月26日 (4天前)",
"enterDate" : "384136:50:05",
"channelId" : "-3947544421833476797",
"channelName" : "生活-新浪博客",
"channelNameSummary" : "生活-新浪博客",
"channelUrl" : "http:\/\/blog.sina.com.cn\/lm\/bj\/index.html",
"author" : "伊夫",
"tags" : [],
"desc" : "新浪天津（三） 再造一个新天津，不仅是雄心壮志，而且已成为板上钉钉的事实。滨海新区的面积实际上已经超过了老天津 对比博物馆内老物件，可以真切感受到天津巨变。而改天换地般巨变，其实在博物馆内还是无法想象得出来 昔日寸草不生的盐碱地被成片的厂区取代，而大量围海造田，更使天津滨海新区的疆域向渤海湾伸延、...",
"emailed" : False,
"forwarded" : False,
"english" : False
} ]
}
