{
"mode" : {"viewTitle" : 1,   "viewNew" : 0,  "pageIndex" : 2 },
 "channel" : {"id" : "-3947544421833476797", "booked" : False, "subNumber" : 1, "name" : "生活-新浪博客", "url" : "http:\/\/blog.sina.com.cn\/lm\/bj\/index.html", "feed" : "http:\/\/rss.sina.com.cn\/blog\/index\/enjoy.xml", "author" : "伊夫,乐先生,北角山妖,咕咚,天眼摄郎...", "desc" : "生活博客列表", "imageUrl" : "http:\/\/www.sinaimg.cn\/blog\/main\/index2010\/blog_logo.png", "postPerWeek" : "0", "lastCrawTime" : "17:08:00", "crawDateTime" : "15:52:45", "lastHttpCode" : "200"}, "page" : {
"startIndex" : 20,
"totalCount" : 5000,
"pageIndex" : 2,
"lastPage" : 250,
"pageSize" : 20,
"english" :  False },
 "unreadNum" : 0, "shotIndex" : -1,
"articles" : [
{
"index" : 0,
"articleIndex" : "15132",
"favor" :  False ,
     "read" : False,    
"title" : "英国三大连锁咖啡店哪家口感最棒(图)",
"titleTip" : "英国三大连锁咖啡店哪家口感最棒(图)",
"titleSummary" : "英国三大连锁咖啡店哪家口感最棒(图)",
"descSummary" : "最近星巴克的事闹得沸沸扬扬，让我总是怀念起在英国时的那些将咖...",
"url" : "http:\/\/go.rss.sina.com.cn\/redirect.php?url=http:\/\/blog.sina.com.cn\/s\/blog_66d7ffd10101b8bq.html",
"pubDate" : "昨天07:30:00",
"enterDate" : "384199:47:02",
"channelId" : "-3947544421833476797",
"channelName" : "生活-新浪博客",
"channelNameSummary" : "生活-新浪博客",
"channelUrl" : "http:\/\/blog.sina.com.cn\/lm\/bj\/index.html",
"author" : "夕夜风舞",
"tags" : [],
"desc" : "最近星巴克的事闹得沸沸扬扬，让我总是怀念起在英国时的那些将咖啡馆融入日常生活的闲散时光。 我一直觉得，作为一个在西方国家中定位在\u201C为大众提供质量稳定的咖啡\u201D的连锁店，在中国也能走亲民路线才比较符合它的品牌风格。不过，咱们自古没有喝咖啡的习惯，而咖啡馆毕竟作为一个舶来品，在中国普通消费者中普及度不高...",
"emailed" : False,
"forwarded" : False,
"english" : False
}  , {
"index" : 1,
"articleIndex" : "15131",
"favor" :  False ,
     "read" : False,    
"title" : "街拍：三里屯时尚辣妈不输靓女",
"titleTip" : "街拍：三里屯时尚辣妈不输靓女",
"titleSummary" : "街拍：三里屯时尚辣妈不输靓女",
"descSummary" : "在北京的时尚地标三里屯，除了青春妖娆的美女，还有一道风景，那就是...",
"url" : "http:\/\/go.rss.sina.com.cn\/redirect.php?url=http:\/\/blog.sina.com.cn\/s\/blog_5dec82bc0102e6lp.html",
"pubDate" : "昨天07:16:02",
"enterDate" : "384199:33:04",
"channelId" : "-3947544421833476797",
"channelName" : "生活-新浪博客",
"channelNameSummary" : "生活-新浪博客",
"channelUrl" : "http:\/\/blog.sina.com.cn\/lm\/bj\/index.html",
"author" : "曹作兰",
"tags" : [],
"desc" : "在北京的时尚地标三里屯，除了青春妖娆的美女，还有一道风景，那就是时尚少妇辣妈。 她们虽然拖儿带女，但美丽和年轻不减当年，依旧领军时尚前沿。 她们比妙龄少女，多了成熟的韵致，多了做女人的资本，多了体贴呵护，也多了自信。 唯一减少的，只是一点点青涩。 下面，跟我走进她们的世界，感受女性的熟龄之美。 ...",
"emailed" : False,
"forwarded" : False,
"english" : False
}  , {
"index" : 2,
"articleIndex" : "15130",
"favor" :  False ,
     "read" : False,    
"title" : "美国华人杀人案因眼红表哥家幸福",
"titleTip" : "美国华人杀人案因眼红表哥家幸福",
"titleSummary" : "美国华人杀人案因眼红表哥家幸福",
"descSummary" : "26日，美国纽约一华裔家庭母子5人惨遭杀害，而杀人嫌犯陈明东的杀...",
"url" : "http:\/\/go.rss.sina.com.cn\/redirect.php?url=http:\/\/blog.sina.com.cn\/s\/blog_5d8d68c10102ee7k.html",
"pubDate" : "昨天05:20:12",
"enterDate" : "384197:37:14",
"channelId" : "-3947544421833476797",
"channelName" : "生活-新浪博客",
"channelNameSummary" : "生活-新浪博客",
"channelUrl" : "http:\/\/blog.sina.com.cn\/lm\/bj\/index.html",
"author" : "乔磊",
"tags" : [],
"desc" : "26日，美国纽约一华裔家庭母子5人惨遭杀害，而杀人嫌犯陈明东的杀人动机听起来令人不可思议。陈明东在被捕后向警方招供时称，他之所以会杀人，是因为看不惯表哥一家幸福美满，认为他们拥有太多，所有人都过得比他好。 该案在纽约华人社区引起震动，这也是美国极为少见的华人恶性杀人案件。据报道，嫌犯陈明东2004年来到美国...",
"emailed" : False,
"forwarded" : False,
"english" : False
}  , {
"index" : 3,
"articleIndex" : "15129",
"favor" :  False ,
     "read" : False,    
"title" : "日本万圣节游行极具特色(组图)",
"titleTip" : "日本万圣节游行极具特色(组图)",
"titleSummary" : "日本万圣节游行极具特色(组图)",
"descSummary" : "万圣节，这个美国文化的节日，崇拜美国的日本，也非常的注重这个节日。...",
"url" : "http:\/\/go.rss.sina.com.cn\/redirect.php?url=http:\/\/blog.sina.com.cn\/s\/blog_56691f5b0101arp8.html",
"pubDate" : "前天19:18:03",
"enterDate" : "384198:36:59",
"channelId" : "-3947544421833476797",
"channelName" : "生活-新浪博客",
"channelNameSummary" : "生活-新浪博客",
"channelUrl" : "http:\/\/blog.sina.com.cn\/lm\/bj\/index.html",
"author" : "旅猿",
"tags" : [],
"desc" : "万圣节，这个美国文化的节日，崇拜美国的日本，也非常的注重这个节日。不过，像我们一样，在这样的节日，有着非常浓重的日本特色！ 啥日本特色？先来个图片先。 上图是参加日本神奈川县万圣节游行的女孩们。 日本特色是什么？男人们的回答当然是苍井空们所代表的AV。漫迷的回答也许各色动画漫画。。。等等。相信每个人都...",
"emailed" : False,
"forwarded" : False,
"english" : False
}  , {
"index" : 4,
"articleIndex" : "15128",
"favor" :  False ,
     "read" : False,    
"title" : "京城又是雾霾天街头多闻咳嗽声(图)",
"titleTip" : "京城又是雾霾天街头多闻咳嗽声(图)",
"titleSummary" : "京城又是雾霾天街头多闻咳嗽声(图)",
"descSummary" : "北京纪事?即时碎片 十三虎 2013北京 深秋雾霭 北京雾霾街头多闻咳嗽...",
"url" : "http:\/\/go.rss.sina.com.cn\/redirect.php?url=http:\/\/blog.sina.com.cn\/s\/blog_49b457eb0102ea3i.html",
"pubDate" : "前天16:50:10",
"enterDate" : "384196:09:06",
"channelId" : "-3947544421833476797",
"channelName" : "生活-新浪博客",
"channelNameSummary" : "生活-新浪博客",
"channelUrl" : "http:\/\/blog.sina.com.cn\/lm\/bj\/index.html",
"author" : "十三虎",
"tags" : [],
"desc" : "■北京纪事?即时碎片■十三虎 2013北京 深秋雾霭 北京雾霾街头多闻咳嗽声 周一，北京又被一片雾霾所笼罩，天空雾霭缭绕令人憋闷，走在路上感觉空气呛嗓子，妇孺老幼多戴着口罩。街上行人掩鼻捂口，不时传来行人的咳嗽声，有的边走边用纸巾捂嘴咳着痰，表情痛苦且无奈\u2026\u2026 北京的空气啊\u2026\u2026唉！ 女子边...",
"emailed" : False,
"forwarded" : False,
"english" : False
}  , {
"index" : 5,
"articleIndex" : "15127",
"favor" :  False ,
     "read" : False,    
"title" : "北京博友：大黄鸭在颐和园的最后一日",
"titleTip" : "北京博友：大黄鸭在颐和园的最后一日",
"titleSummary" : "北京博友：大黄鸭在颐和园的最后一日",
"descSummary" : "昨天即2013年10月27日星期日，是大黄鸭在颐和园亮相的最后一...",
"url" : "http:\/\/go.rss.sina.com.cn\/redirect.php?url=http:\/\/blog.sina.com.cn\/s\/blog_62c412990101ogri.html",
"pubDate" : "前天09:16:14",
"enterDate" : "384194:52:20",
"channelId" : "-3947544421833476797",
"channelName" : "生活-新浪博客",
"channelNameSummary" : "生活-新浪博客",
"channelUrl" : "http:\/\/blog.sina.com.cn\/lm\/bj\/index.html",
"author" : "峥嵘岁月",
"tags" : [],
"desc" : "昨天即2013年10月27日星期日，是大黄鸭在颐和园亮相的最后一天。到下午四点，仍然有成千上万的游客前往昆明湖与大黄鸭合影、告别?? 前来告别、留影的游客络绎不绝?? 亲亲大黄鸭 大黄鸭不要走 大黄鸭 小黄鸭 自拍合影 本人留影（小王摄影） 再见??大黄鸭！青春就应该这样绽放游戏测试：三国时期谁是你...",
"emailed" : False,
"forwarded" : False,
"english" : False
}  , {
"index" : 6,
"articleIndex" : "15126",
"favor" :  False ,
     "read" : False,    
"title" : "万圣节为啥用南瓜而不是冬瓜胡萝卜",
"titleTip" : "万圣节为啥用南瓜而不是冬瓜胡萝卜",
"titleSummary" : "万圣节为啥用南瓜而不是冬瓜胡萝卜",
"descSummary" : "在美国，每到十月底临近万圣节时，农场、超市、街边礼品店，到处...",
"url" : "http:\/\/go.rss.sina.com.cn\/redirect.php?url=http:\/\/blog.sina.com.cn\/s\/blog_6175bf700102eiko.html",
"pubDate" : "前天09:08:27",
"enterDate" : "384194:44:33",
"channelId" : "-3947544421833476797",
"channelName" : "生活-新浪博客",
"channelNameSummary" : "生活-新浪博客",
"channelUrl" : "http:\/\/blog.sina.com.cn\/lm\/bj\/index.html",
"author" : "高娓娓",
"tags" : [],
"desc" : "在美国，每到十月底临近万圣节时，农场、超市、街边礼品店，到处都是南瓜的踪影。曾有从中国来美国旅游的朋友不明就里地问：这是有南瓜节么？ 仔细想想，可不是？与其说万圣节是人在过节，还不如说是南瓜在过节。 有时甚至胡思乱想，十月底正是南瓜大量上市的时节，最初的万圣节，是不是某位南瓜滞销的农场主想出...",
"emailed" : False,
"forwarded" : False,
"english" : False
}  , {
"index" : 7,
"articleIndex" : "15120",
"favor" :  False ,
     "read" : False,    
"title" : "在陕西探寻女娲补天造人的真相",
"titleTip" : "在陕西探寻女娲补天造人的真相",
"titleSummary" : "在陕西探寻女娲补天造人的真相",
"descSummary" : "近些年来，\u201C三皇五帝\u201D很忙，由于他们在任上时四处奔波、考察，搞创...",
"url" : "http:\/\/go.rss.sina.com.cn\/redirect.php?url=http:\/\/blog.sina.com.cn\/s\/blog_59b7078f0102e4tk.html",
"pubDate" : "前天09:03:51",
"enterDate" : "384199:40:52",
"channelId" : "-3947544421833476797",
"channelName" : "生活-新浪博客",
"channelNameSummary" : "生活-新浪博客",
"channelUrl" : "http:\/\/blog.sina.com.cn\/lm\/bj\/index.html",
"author" : "贾云峰",
"tags" : [],
"desc" : "近些年来，\u201C三皇五帝\u201D很忙，由于他们在任上时四处奔波、考察，搞创造，驱灾难，救苍生，处处有政绩，地地都留情，所以到了今天，华夏子民重新追根溯源、认祖归宗时，中华大地到处都是他们的故里和宗祠。真真假假，是是非非，专家论文满天飞，祭祀活动年年搞，甚至引发\u201C故里之争\u201D的文化口水战。 相对而言，\u201C三...",
"emailed" : False,
"forwarded" : False,
"english" : False
}  , {
"index" : 8,
"articleIndex" : "15119",
"favor" :  False ,
     "read" : False,    
"title" : "看看西雅图星巴克创始店的暴利(图)",
"titleTip" : "看看西雅图星巴克创始店的暴利(图)",
"titleSummary" : "看看西雅图星巴克创始店的暴利(图)",
"descSummary" : "星巴克的创始店在西雅图。这个年轻的城市是美国太平洋海岸边上的一...",
"url" : "http:\/\/go.rss.sina.com.cn\/redirect.php?url=http:\/\/blog.sina.com.cn\/s\/blog_9b9ef8e50101nnj6.html",
"pubDate" : "前天08:50:38",
"enterDate" : "384199:27:39",
"channelId" : "-3947544421833476797",
"channelName" : "生活-新浪博客",
"channelNameSummary" : "生活-新浪博客",
"channelUrl" : "http:\/\/blog.sina.com.cn\/lm\/bj\/index.html",
"author" : "王青博士",
"tags" : [],
"desc" : "星巴克的创始店在西雅图。这个年轻的城市是美国太平洋海岸边上的一颗明珠，飞出过波音、微软和星巴克三只全球性暴利的金凤凰。西雅图人从来都为自己的\u201C暴利\u201D能力而自豪，在一百年出头一点的时间之前，城市的创建者们就是冲着利润而来的，当时的利润来源是伐木业。而一场大火将连下水道系统都是木头建成的年轻城市烧了个精...",
"emailed" : False,
"forwarded" : False,
"english" : False
}  , {
"index" : 9,
"articleIndex" : "15118",
"favor" :  False ,
     "read" : False,    
"title" : "实拍京剧男旦演出前化妆全过程(组图)",
"titleTip" : "实拍京剧男旦演出前化妆全过程(组图)",
"titleSummary" : "实拍京剧男旦演出前化妆全过程(组图)",
"descSummary" : "【北京】探秘一个京剧男旦演出前的化妆全过程 摄影?撰文 穿山甲...",
"url" : "http:\/\/go.rss.sina.com.cn\/redirect.php?url=http:\/\/blog.sina.com.cn\/s\/blog_4ab97cd40102e4dm.html",
"pubDate" : "前天08:47:05",
"enterDate" : "384199:24:06",
"channelId" : "-3947544421833476797",
"channelName" : "生活-新浪博客",
"channelNameSummary" : "生活-新浪博客",
"channelUrl" : "http:\/\/blog.sina.com.cn\/lm\/bj\/index.html",
"author" : "穿山甲",
"tags" : [],
"desc" : "【北京】探秘一个京剧男旦演出前的化妆全过程 摄影?撰文 穿山甲1268 图1 在形容一个京戏男旦的时候，我们会把那些用在美丽女子身上的形容词一股脑儿的搬上来，漂亮、优雅、俊美、妩媚、雍容、华贵\u2026\u2026，\u201C四大名旦\u201D是这样，梅兰芳是这样，今天故事里的主角刘欣然也是这样。那么这些舞台上以扮相俊美的男儿身把女性戏剧...",
"emailed" : False,
"forwarded" : False,
"english" : False
}  , {
"index" : 10,
"articleIndex" : "15125",
"favor" :  False ,
     "read" : False,    
"title" : "辣妈给孩子准备的创意早餐(图)",
"titleTip" : "辣妈给孩子准备的创意早餐(图)",
"titleSummary" : "辣妈给孩子准备的创意早餐(图)",
"descSummary" : "健康的早餐是完美一天的开始。君悦大酒店的爱心早餐秀活动通过网上征集...",
"url" : "http:\/\/go.rss.sina.com.cn\/redirect.php?url=http:\/\/blog.sina.com.cn\/s\/blog_4a9b56f20102efce.html",
"pubDate" : "前天07:46:12",
"enterDate" : "384193:22:18",
"channelId" : "-3947544421833476797",
"channelName" : "生活-新浪博客",
"channelNameSummary" : "生活-新浪博客",
"channelUrl" : "http:\/\/blog.sina.com.cn\/lm\/bj\/index.html",
"author" : "菁制美食",
"tags" : [],
"desc" : "健康的早餐是完美一天的开始。君悦大酒店的爱心早餐秀活动通过网上征集选手作品，终于赢来了总决赛。6个胜出的参赛家庭来到酒店现场参加比赛。 很荣幸担任了君悦这次早餐秀的评委，请大家跟我一起走进这爱的早餐世界吧。 比赛现场，选手准备中。 1号家庭 亚兰之家 菜名：川味哨子面 主要原料：普通白面条2两，...",
"emailed" : False,
"forwarded" : False,
"english" : False
}  , {
"index" : 11,
"articleIndex" : "15124",
"favor" :  False ,
     "read" : False,    
"title" : "瑞士阿尔卑斯村庄里的传统生活(图)",
"titleTip" : "瑞士阿尔卑斯村庄里的传统生活(图)",
"titleSummary" : "瑞士阿尔卑斯村庄里的传统生活(图)",
"descSummary" : "瑞士最美的地方在乡村， 在这里你能体验到最纯正、最传统的阿尔卑...",
"url" : "http:\/\/go.rss.sina.com.cn\/redirect.php?url=http:\/\/blog.sina.com.cn\/s\/blog_4ee5029e0102eeq4.html",
"pubDate" : "前天07:26:10",
"enterDate" : "384193:02:16",
"channelId" : "-3947544421833476797",
"channelName" : "生活-新浪博客",
"channelNameSummary" : "生活-新浪博客",
"channelUrl" : "http:\/\/blog.sina.com.cn\/lm\/bj\/index.html",
"author" : "北角山妖",
"tags" : [],
"desc" : "瑞士最美的地方在乡村， 在这里你能体验到最纯正、最传统的阿尔卑斯乡间生活。 这里的传统，不是做给游客看的伪传统，而是真正的生活。 典型的乡间木屋，传统的阿彭策尔服饰，质朴的乡间美食... 还有一直保持的赶牛羊从阿尔卑斯高山牧场返回的仪式、好听的yodel、瑞士扬琴 P1 身着传统服装的青年男女 或许因为旅游开发还...",
"emailed" : False,
"forwarded" : False,
"english" : False
}  , {
"index" : 12,
"articleIndex" : "15115",
"favor" :  False ,
     "read" : False,    
"title" : "杭州公共自行车系统位列全球第一(图)",
"titleTip" : "杭州公共自行车系统位列全球第一(图)",
"titleSummary" : "杭州公共自行车系统位列全球第一(图)",
"descSummary" : "P.01 P.02 P.03 P.04 P.05 杭州是一座风景秀丽的城市，然而最使杭...",
"url" : "http:\/\/go.rss.sina.com.cn\/redirect.php?url=http:\/\/blog.sina.com.cn\/s\/blog_7a3b910e0101frt5.html",
"pubDate" : "前天07:00:00",
"enterDate" : "384199:22:19",
"channelId" : "-3947544421833476797",
"channelName" : "生活-新浪博客",
"channelNameSummary" : "生活-新浪博客",
"channelUrl" : "http:\/\/blog.sina.com.cn\/lm\/bj\/index.html",
"author" : "勃朗峰",
"tags" : [],
"desc" : "P.01 P.02 P.03 P.04 P.05 杭州是一座风景秀丽的城市，然而最使杭州人引以为豪的并不是杭州悠久的文化历史，也不是被联合国认定的西湖世界文化遗产，更不是杭州多年位居全国省会城市第二的GDP，真正使杭州人感到自豪的应该是杭州无处不在的公共自行车系统，杭州目前拥有7万辆左右的公共自行车，近3000多个租车...",
"emailed" : False,
"forwarded" : False,
"english" : False
}  , {
"index" : 13,
"articleIndex" : "15114",
"favor" :  False ,
     "read" : False,    
"title" : "慎入：多伦多万圣节重口味游行(图)",
"titleTip" : "慎入：多伦多万圣节重口味游行(图)",
"titleSummary" : "慎入：多伦多万圣节重口味游行(图)",
"descSummary" : "10月26日下午，天色阴霾，多伦多一年一度的万圣节僵尸大游行冒雨...",
"url" : "http:\/\/go.rss.sina.com.cn\/redirect.php?url=http:\/\/blog.sina.com.cn\/s\/blog_6296e8390102e6wa.html",
"pubDate" : "2013年10月28日 (3天前)",
"enterDate" : "384197:20:50",
"channelId" : "-3947544421833476797",
"channelName" : "生活-新浪博客",
"channelNameSummary" : "生活-新浪博客",
"channelUrl" : "http:\/\/blog.sina.com.cn\/lm\/bj\/index.html",
"author" : "汪军",
"tags" : [],
"desc" : "10月26日下午，天色阴霾，多伦多一年一度的万圣节僵尸大游行冒雨举行。全城僵尸出动，从四面八方涌入西皇后街市政厅广场。游行队伍从广场出发，沿Bay街往北到Grenville，然后向东到央街，向南经过伊顿中心到西皇后街，终点又回到市政厅广场。 下午5、6点的时候，天空陡然放晴，夕光返照下的僵尸们像吸血后一般活...",
"emailed" : False,
"forwarded" : False,
"english" : False
}  , {
"index" : 14,
"articleIndex" : "15117",
"favor" :  False ,
     "read" : False,    
"title" : "新加坡万圣节party上我被吓尿了(图)",
"titleTip" : "新加坡万圣节party上我被吓尿了(图)",
"titleSummary" : "新加坡万圣节party上我被吓尿了(图)",
"descSummary" : "今年的万圣节是11月1号，10月31日则是最令人颤抖的万圣夜。这个西...",
"url" : "http:\/\/go.rss.sina.com.cn\/redirect.php?url=http:\/\/blog.sina.com.cn\/s\/blog_5f276c190101pl88.html",
"pubDate" : "2013年10月28日 (3天前)",
"enterDate" : "384192:51:31",
"channelId" : "-3947544421833476797",
"channelName" : "生活-新浪博客",
"channelNameSummary" : "生活-新浪博客",
"channelUrl" : "http:\/\/blog.sina.com.cn\/lm\/bj\/index.html",
"author" : "桔猪",
"tags" : [],
"desc" : "今年的万圣节是11月1号，10月31日则是最令人颤抖的万圣夜。这个西方人最传统的\u201C鬼节\u201D，除了要制作南瓜灯、小孩子要乔装打扮去要糖外，很多重口味的年轻人早已不甘于普通的\u201C装神弄鬼\u201D，而是要前往更刺激的地方\u201C自虐\u201D一把。看着那些满城腥风血雨和妖魔鬼怪，被吓得屁滚尿流却在心里暗爽不已，也是种独特的释放和发泄...",
"emailed" : False,
"forwarded" : False,
"english" : False
}  , {
"index" : 15,
"articleIndex" : "15121",
"favor" :  False ,
     "read" : False,    
"title" : "航空小知识：行李为什么要限重？",
"titleTip" : "航空小知识：行李为什么要限重？",
"titleSummary" : "航空小知识：行李为什么要限重？",
"descSummary" : "随着航空业的高速发展，越来越多的旅客选择飞机作为主要的出行手段...",
"url" : "http:\/\/go.rss.sina.com.cn\/redirect.php?url=http:\/\/blog.sina.com.cn\/s\/blog_66b631b10102eiez.html",
"pubDate" : "2013年10月27日 (3天前)",
"enterDate" : "384183:51:32",
"channelId" : "-3947544421833476797",
"channelName" : "生活-新浪博客",
"channelNameSummary" : "生活-新浪博客",
"channelUrl" : "http:\/\/blog.sina.com.cn\/lm\/bj\/index.html",
"author" : "东航机务",
"tags" : [],
"desc" : "随着航空业的高速发展，越来越多的旅客选择飞机作为主要的出行手段。当我们提着行李进行值机的时候，首先要对托运的行李进行称重，看看行李的重量是否符合各航空公司所制定的标准。那么为什么行李要限重呢？ 首先让我们了解飞机的各种重量： 最大重量：经过核准的飞机及其载重的最大重量，在该机型的技术规范中有明...",
"emailed" : False,
"forwarded" : False,
"english" : False
}  , {
"index" : 16,
"articleIndex" : "15113",
"favor" :  False ,
     "read" : False,    
"title" : "丹麦领衔全球十大最幸福国度",
"titleTip" : "丹麦领衔全球十大最幸福国度",
"titleSummary" : "丹麦领衔全球十大最幸福国度",
"descSummary" : "根据收入水平、生活水平、就业率、居民心理健康和家庭稳定度，联合国最...",
"url" : "http:\/\/go.rss.sina.com.cn\/redirect.php?url=http:\/\/blog.sina.com.cn\/s\/blog_4c08246e0102e951.html",
"pubDate" : "2013年10月27日 (3天前)",
"enterDate" : "384191:40:38",
"channelId" : "-3947544421833476797",
"channelName" : "生活-新浪博客",
"channelNameSummary" : "生活-新浪博客",
"channelUrl" : "http:\/\/blog.sina.com.cn\/lm\/bj\/index.html",
"author" : "古h清",
"tags" : [],
"desc" : "根据收入水平、生活水平、就业率、居民心理健康和家庭稳定度，联合国最新发布的全球幸福报告评选了全球十大最幸福的国家。 第一名 丹麦 这个人口数仅有550万的国家排在全球最幸福的国家首位，这一点都不令人奇怪。自1973年起，丹麦在欧洲委员会欧洲晴雨表的调查中位列第一，它是针对成员国市民的健康和幸福的一项调查。 ...",
"emailed" : False,
"forwarded" : False,
"english" : False
}  , {
"index" : 17,
"articleIndex" : "15122",
"favor" :  False ,
     "read" : False,    
"title" : "BJQIQI：带你看加拿大白求恩故居(图)",
"titleTip" : "BJQIQI：带你看加拿大白求恩故居(图)",
"titleSummary" : "BJQIQI：带你看加拿大白求恩故居(图)",
"descSummary" : "安大略省的格雷文赫斯特小镇，正在秋天展现着它最美好的模样，这...",
"url" : "http:\/\/go.rss.sina.com.cn\/redirect.php?url=http:\/\/blog.sina.com.cn\/s\/blog_5697d7370102eics.html",
"pubDate" : "2013年10月27日 (3天前)",
"enterDate" : "384175:21:07",
"channelId" : "-3947544421833476797",
"channelName" : "生活-新浪博客",
"channelNameSummary" : "生活-新浪博客",
"channelUrl" : "http:\/\/blog.sina.com.cn\/lm\/bj\/index.html",
"author" : "BJQIQI",
"tags" : [],
"desc" : "安大略省的格雷文赫斯特小镇，正在秋天展现着它最美好的模样，这里宁谧而悠远，却因为诞生了一位在中国最有名的加拿大人，近年来成为华人游客络绎不绝的造访之地。事实上，这位被中国人民广为熟知的英雄，在加拿大却仍然名不见经传，他叫诺尔曼?白求恩，一位伟大的共产主义战士，也是一个对医学有着无限追求并为之奋斗一生...",
"emailed" : False,
"forwarded" : False,
"english" : False
}  , {
"index" : 18,
"articleIndex" : "15116",
"favor" :  False ,
     "read" : False,    
"title" : "我在德国经历的医院急救犹如噩梦",
"titleTip" : "我在德国经历的医院急救犹如噩梦",
"titleSummary" : "我在德国经历的医院急救犹如噩梦",
"descSummary" : "噩梦--我在德国经历的一次急救！2013年9月8日星期天的晚上，我和先...",
"url" : "http:\/\/go.rss.sina.com.cn\/redirect.php?url=http:\/\/blog.sina.com.cn\/s\/blog_5f2eecb20101ohey.html",
"pubDate" : "2013年10月26日 (4天前)",
"enterDate" : "384166:24:31",
"channelId" : "-3947544421833476797",
"channelName" : "生活-新浪博客",
"channelNameSummary" : "生活-新浪博客",
"channelUrl" : "http:\/\/blog.sina.com.cn\/lm\/bj\/index.html",
"author" : "玫瑰茶曾太",
"tags" : [],
"desc" : "噩梦--我在德国经历的一次急救！ 2013年9月8日星期天的晚上，我和先生吃完晚饭，和往常一样出去散步。散步回来他坐在沙发上看电视，十点过了我说明天还要上班叫他睡觉，他关了电视，洗漱完了上床睡觉。 过了一会儿他起来说有点憋气，坐一会儿。我说那我开车带你去医院看看。他说不用，前天星期五下午我刚在医生那里做了全...",
"emailed" : False,
"forwarded" : False,
"english" : False
}  , {
"index" : 19,
"articleIndex" : "15123",
"favor" :  False ,
     "read" : False,    
"title" : "美国欲望之都曼哈顿街头生活(图)",
"titleTip" : "美国欲望之都曼哈顿街头生活(图)",
"titleSummary" : "美国欲望之都曼哈顿街头生活(图)",
"descSummary" : "去美帝之前朋友说，美东人民比起美西还是有相当的优越感的。因为你会...",
"url" : "http:\/\/go.rss.sina.com.cn\/redirect.php?url=http:\/\/blog.sina.com.cn\/s\/blog_6434c2070101ahqy.html",
"pubDate" : "2013年10月26日 (4天前)",
"enterDate" : "384159:32:00",
"channelId" : "-3947544421833476797",
"channelName" : "生活-新浪博客",
"channelNameSummary" : "生活-新浪博客",
"channelUrl" : "http:\/\/blog.sina.com.cn\/lm\/bj\/index.html",
"author" : "蓉儿",
"tags" : [],
"desc" : "去美帝之前朋友说，美东人民比起美西还是有相当的优越感的。因为你会发现那里很像上海，同样的密度，同样的压力，甚至连上班的女人们都有同样争奇斗艳的小心机。 这真是一个让人望而生畏的评价。 经常看美剧的人，对纽约应该都有一种情结。女孩子爱看的，不论是SATC还是GG，故事背景里的这座城市兼具年华与潮流，充满魅力...",
"emailed" : False,
"forwarded" : False,
"english" : False
} ]
}
