{
"mode" : {"viewTitle" : 1,   "viewNew" : 0,  "pageIndex" : 1 },
 "channel" : {"id" : "-6555115003500200419", "booked" : False, "subNumber" : 1, "name" : "汽车-新浪博客", "url" : "http:\/\/blog.sina.com.cn\/lm\/auto\/", "feed" : "http:\/\/rss.sina.com.cn\/blog\/auto\/qc.xml", "author" : "WWW.SINA.COM.CN", "desc" : "汽车博客列表", "imageUrl" : "http:\/\/www.sinaimg.cn\/blog\/main\/index2010\/blog_logo.png", "postPerWeek" : "0", "lastCrawTime" : "17:02:15", "crawDateTime" : "16:02:05", "lastHttpCode" : "200"}, "page" : {
"startIndex" : 0,
"totalCount" : 5000,
"pageIndex" : 1,
"lastPage" : 250,
"pageSize" : 20,
"english" :  False },
 "unreadNum" : 0, "shotIndex" : -1,
"articles" : [
{
"index" : 0,
"articleIndex" : "23599",
"favor" :  False ,
     "read" : False,    
"title" : "实拍：首辆特斯拉到达张家港",
"titleTip" : "实拍：首辆特斯拉到达张家港",
"titleSummary" : "实拍：首辆特斯拉到达张家港",
"descSummary" : "",
"url" : "http:\/\/go.rss.sina.com.cn\/redirect.php?url=http:\/\/blog.sina.com.cn\/s\/blog_4b8a85900102edok.html",
"pubDate" : "2013年10月12日 (2周前)",
"enterDate" : "384199:44:00",
"channelId" : "-6555115003500200419",
"channelName" : "汽车-新浪博客",
"channelNameSummary" : "汽车-新浪博客",
"channelUrl" : "http:\/\/blog.sina.com.cn\/lm\/auto\/",
"author" : "WWW.SINA.COM.CN",
"tags" : [],
"desc" : "",
"emailed" : False,
"forwarded" : False,
"english" : False
}  , {
"index" : 1,
"articleIndex" : "23598",
"favor" :  False ,
     "read" : False,    
"title" : "成都车展 重磅跨界车型抢先点评",
"titleTip" : "成都车展 重磅跨界车型抢先点评",
"titleSummary" : "成都车展 重磅跨界车型抢先点评",
"descSummary" : "",
"url" : "http:\/\/go.rss.sina.com.cn\/redirect.php?url=http:\/\/blog.sina.com.cn\/s\/blog_6951ea1f0101dt68.html",
"pubDate" : "2013年9月10日",
"enterDate" : "384199:05:21",
"channelId" : "-6555115003500200419",
"channelName" : "汽车-新浪博客",
"channelNameSummary" : "汽车-新浪博客",
"channelUrl" : "http:\/\/blog.sina.com.cn\/lm\/auto\/",
"author" : "WWW.SINA.COM.CN",
"tags" : [],
"desc" : "",
"emailed" : False,
"forwarded" : False,
"english" : False
}  , {
"index" : 2,
"articleIndex" : "23597",
"favor" :  False ,
     "read" : False,    
"title" : "浅谈上海大众的中国式狼性营销策略",
"titleTip" : "浅谈上海大众的中国式狼性营销策略",
"titleSummary" : "浅谈上海大众的中国式狼性营销策略",
"descSummary" : "",
"url" : "http:\/\/go.rss.sina.com.cn\/redirect.php?url=http:\/\/blog.sina.com.cn\/s\/blog_696bb4df0101bnga.html",
"pubDate" : "2013年9月10日",
"enterDate" : "384198:59:40",
"channelId" : "-6555115003500200419",
"channelName" : "汽车-新浪博客",
"channelNameSummary" : "汽车-新浪博客",
"channelUrl" : "http:\/\/blog.sina.com.cn\/lm\/auto\/",
"author" : "WWW.SINA.COM.CN",
"tags" : [],
"desc" : "",
"emailed" : False,
"forwarded" : False,
"english" : False
}  , {
"index" : 3,
"articleIndex" : "23596",
"favor" :  False ,
     "read" : False,    
"title" : "国外实拍罕见阿波罗超级跑车美图欣赏",
"titleTip" : "国外实拍罕见阿波罗超级跑车美图欣赏",
"titleSummary" : "国外实拍罕见阿波罗超级跑车美图欣赏",
"descSummary" : "",
"url" : "http:\/\/go.rss.sina.com.cn\/redirect.php?url=http:\/\/blog.sina.com.cn\/s\/blog_4c88bb270101narm.html",
"pubDate" : "2013年9月6日",
"enterDate" : "384200:53:59",
"channelId" : "-6555115003500200419",
"channelName" : "汽车-新浪博客",
"channelNameSummary" : "汽车-新浪博客",
"channelUrl" : "http:\/\/blog.sina.com.cn\/lm\/auto\/",
"author" : "WWW.SINA.COM.CN",
"tags" : [],
"desc" : "",
"emailed" : False,
"forwarded" : False,
"english" : False
}  , {
"index" : 4,
"articleIndex" : "23595",
"favor" :  False ,
     "read" : False,    
"title" : "55辆超跑上演真实版赛车游戏",
"titleTip" : "55辆超跑上演真实版赛车游戏",
"titleSummary" : "55辆超跑上演真实版赛车游戏",
"descSummary" : "",
"url" : "http:\/\/go.rss.sina.com.cn\/redirect.php?url=http:\/\/blog.sina.com.cn\/s\/blog_4db277cb0102fp32.html",
"pubDate" : "2013年9月6日",
"enterDate" : "384200:52:04",
"channelId" : "-6555115003500200419",
"channelName" : "汽车-新浪博客",
"channelNameSummary" : "汽车-新浪博客",
"channelUrl" : "http:\/\/blog.sina.com.cn\/lm\/auto\/",
"author" : "WWW.SINA.COM.CN",
"tags" : [],
"desc" : "",
"emailed" : False,
"forwarded" : False,
"english" : False
}  , {
"index" : 5,
"articleIndex" : "23594",
"favor" :  False ,
     "read" : False,    
"title" : "美国街头实拍红色加长版劳斯莱斯幻影",
"titleTip" : "美国街头实拍红色加长版劳斯莱斯幻影",
"titleSummary" : "美国街头实拍红色加长版劳斯莱斯幻影",
"descSummary" : "",
"url" : "http:\/\/go.rss.sina.com.cn\/redirect.php?url=http:\/\/blog.sina.com.cn\/s\/blog_4c88bb270101narj.html",
"pubDate" : "2013年9月6日",
"enterDate" : "384200:48:11",
"channelId" : "-6555115003500200419",
"channelName" : "汽车-新浪博客",
"channelNameSummary" : "汽车-新浪博客",
"channelUrl" : "http:\/\/blog.sina.com.cn\/lm\/auto\/",
"author" : "WWW.SINA.COM.CN",
"tags" : [],
"desc" : "",
"emailed" : False,
"forwarded" : False,
"english" : False
}  , {
"index" : 6,
"articleIndex" : "23593",
"favor" :  False ,
     "read" : False,    
"title" : "2015款兰博基尼盖拉多夜试谍照曝光",
"titleTip" : "2015款兰博基尼盖拉多夜试谍照曝光",
"titleSummary" : "2015款兰博基尼盖拉多夜试谍照曝光",
"descSummary" : "",
"url" : "http:\/\/go.rss.sina.com.cn\/redirect.php?url=http:\/\/blog.sina.com.cn\/s\/blog_49f4c9c40102e85m.html",
"pubDate" : "2013年9月6日",
"enterDate" : "384200:46:13",
"channelId" : "-6555115003500200419",
"channelName" : "汽车-新浪博客",
"channelNameSummary" : "汽车-新浪博客",
"channelUrl" : "http:\/\/blog.sina.com.cn\/lm\/auto\/",
"author" : "WWW.SINA.COM.CN",
"tags" : [],
"desc" : "",
"emailed" : False,
"forwarded" : False,
"english" : False
}  , {
"index" : 7,
"articleIndex" : "23592",
"favor" :  False ,
     "read" : False,    
"title" : "最新改装兰博基尼将亮相法兰克福车展",
"titleTip" : "最新改装兰博基尼将亮相法兰克福车展",
"titleSummary" : "最新改装兰博基尼将亮相法兰克福车展",
"descSummary" : "",
"url" : "http:\/\/go.rss.sina.com.cn\/redirect.php?url=http:\/\/blog.sina.com.cn\/s\/blog_4c88bb270101nare.html",
"pubDate" : "2013年9月6日",
"enterDate" : "384200:43:17",
"channelId" : "-6555115003500200419",
"channelName" : "汽车-新浪博客",
"channelNameSummary" : "汽车-新浪博客",
"channelUrl" : "http:\/\/blog.sina.com.cn\/lm\/auto\/",
"author" : "WWW.SINA.COM.CN",
"tags" : [],
"desc" : "",
"emailed" : False,
"forwarded" : False,
"english" : False
}  , {
"index" : 8,
"articleIndex" : "23591",
"favor" :  False ,
     "read" : False,    
"title" : "盘点《变形金刚4》中的全家福车型",
"titleTip" : "盘点《变形金刚4》中的全家福车型",
"titleSummary" : "盘点《变形金刚4》中的全家福车型",
"descSummary" : "",
"url" : "http:\/\/go.rss.sina.com.cn\/redirect.php?url=http:\/\/blog.sina.com.cn\/s\/blog_4c88bb270101namj.html",
"pubDate" : "2013年9月6日",
"enterDate" : "384200:36:26",
"channelId" : "-6555115003500200419",
"channelName" : "汽车-新浪博客",
"channelNameSummary" : "汽车-新浪博客",
"channelUrl" : "http:\/\/blog.sina.com.cn\/lm\/auto\/",
"author" : "WWW.SINA.COM.CN",
"tags" : [],
"desc" : "",
"emailed" : False,
"forwarded" : False,
"english" : False
}  , {
"index" : 9,
"articleIndex" : "23590",
"favor" :  False ,
     "read" : False,    
"title" : "宝贝集中营 帕加尼汽车公司总部",
"titleTip" : "宝贝集中营 帕加尼汽车公司总部",
"titleSummary" : "宝贝集中营 帕加尼汽车公司总部",
"descSummary" : "",
"url" : "http:\/\/go.rss.sina.com.cn\/redirect.php?url=http:\/\/blog.sina.com.cn\/s\/blog_4b8a85900102ed4r.html",
"pubDate" : "2013年9月5日",
"enterDate" : "384200:50:59",
"channelId" : "-6555115003500200419",
"channelName" : "汽车-新浪博客",
"channelNameSummary" : "汽车-新浪博客",
"channelUrl" : "http:\/\/blog.sina.com.cn\/lm\/auto\/",
"author" : "WWW.SINA.COM.CN",
"tags" : [],
"desc" : "",
"emailed" : False,
"forwarded" : False,
"english" : False
}  , {
"index" : 10,
"articleIndex" : "23589",
"favor" :  False ,
     "read" : False,    
"title" : "雪铁龙仙人掌概念SUV正式透露",
"titleTip" : "雪铁龙仙人掌概念SUV正式透露",
"titleSummary" : "雪铁龙仙人掌概念SUV正式透露",
"descSummary" : "",
"url" : "http:\/\/go.rss.sina.com.cn\/redirect.php?url=http:\/\/blog.sina.com.cn\/s\/blog_4c88bb270101na0n.html",
"pubDate" : "2013年9月5日",
"enterDate" : "384200:50:11",
"channelId" : "-6555115003500200419",
"channelName" : "汽车-新浪博客",
"channelNameSummary" : "汽车-新浪博客",
"channelUrl" : "http:\/\/blog.sina.com.cn\/lm\/auto\/",
"author" : "WWW.SINA.COM.CN",
"tags" : [],
"desc" : "",
"emailed" : False,
"forwarded" : False,
"english" : False
}  , {
"index" : 11,
"articleIndex" : "23588",
"favor" :  False ,
     "read" : False,    
"title" : "全球限量5台的婚车Pagani Zonda Cinque",
"titleTip" : "全球限量5台的婚车Pagani Zonda Cinque",
"titleSummary" : "全球限量5台的婚车Pagani Zonda Cinque",
"descSummary" : "",
"url" : "http:\/\/go.rss.sina.com.cn\/redirect.php?url=http:\/\/blog.sina.com.cn\/s\/blog_4b8a85900102ed4n.html",
"pubDate" : "2013年9月5日",
"enterDate" : "384200:49:24",
"channelId" : "-6555115003500200419",
"channelName" : "汽车-新浪博客",
"channelNameSummary" : "汽车-新浪博客",
"channelUrl" : "http:\/\/blog.sina.com.cn\/lm\/auto\/",
"author" : "WWW.SINA.COM.CN",
"tags" : [],
"desc" : "",
"emailed" : False,
"forwarded" : False,
"english" : False
}  , {
"index" : 12,
"articleIndex" : "23587",
"favor" :  False ,
     "read" : False,    
"title" : "2013款雷克萨斯NF-NX概念正式透露",
"titleTip" : "2013款雷克萨斯NF-NX概念正式透露",
"titleSummary" : "2013款雷克萨斯NF-NX概念正式透露",
"descSummary" : "",
"url" : "http:\/\/go.rss.sina.com.cn\/redirect.php?url=http:\/\/blog.sina.com.cn\/s\/blog_4c88bb270101n9xo.html",
"pubDate" : "2013年9月5日",
"enterDate" : "384200:46:33",
"channelId" : "-6555115003500200419",
"channelName" : "汽车-新浪博客",
"channelNameSummary" : "汽车-新浪博客",
"channelUrl" : "http:\/\/blog.sina.com.cn\/lm\/auto\/",
"author" : "WWW.SINA.COM.CN",
"tags" : [],
"desc" : "",
"emailed" : False,
"forwarded" : False,
"english" : False
}  , {
"index" : 13,
"articleIndex" : "23586",
"favor" :  False ,
     "read" : False,    
"title" : "街拍五颜六色的兰博基尼Aventador+LP700-4",
"titleTip" : "街拍五颜六色的兰博基尼Aventador+LP700-4",
"titleSummary" : "街拍五颜六色的兰博基尼Aventador+LP700-4",
"descSummary" : "",
"url" : "http:\/\/go.rss.sina.com.cn\/redirect.php?url=http:\/\/blog.sina.com.cn\/s\/blog_5e7541370102e8f1.html",
"pubDate" : "2013年9月5日",
"enterDate" : "384200:46:29",
"channelId" : "-6555115003500200419",
"channelName" : "汽车-新浪博客",
"channelNameSummary" : "汽车-新浪博客",
"channelUrl" : "http:\/\/blog.sina.com.cn\/lm\/auto\/",
"author" : "WWW.SINA.COM.CN",
"tags" : [],
"desc" : "",
"emailed" : False,
"forwarded" : False,
"english" : False
}  , {
"index" : 14,
"articleIndex" : "23585",
"favor" :  False ,
     "read" : False,    
"title" : "奥迪运动Quattro概念车将亮相法兰克福车展",
"titleTip" : "奥迪运动Quattro概念车将亮相法兰克福车展",
"titleSummary" : "奥迪运动Quattro概念车将亮相法兰克福车展",
"descSummary" : "",
"url" : "http:\/\/go.rss.sina.com.cn\/redirect.php?url=http:\/\/blog.sina.com.cn\/s\/blog_4c88bb270101n9xd.html",
"pubDate" : "2013年9月5日",
"enterDate" : "384200:45:15",
"channelId" : "-6555115003500200419",
"channelName" : "汽车-新浪博客",
"channelNameSummary" : "汽车-新浪博客",
"channelUrl" : "http:\/\/blog.sina.com.cn\/lm\/auto\/",
"author" : "WWW.SINA.COM.CN",
"tags" : [],
"desc" : "",
"emailed" : False,
"forwarded" : False,
"english" : False
}  , {
"index" : 15,
"articleIndex" : "23584",
"favor" :  False ,
     "read" : False,    
"title" : "唐僧与1300岁大雁塔的旷世渊源",
"titleTip" : "唐僧与1300岁大雁塔的旷世渊源",
"titleSummary" : "唐僧与1300岁大雁塔的旷世渊源",
"descSummary" : "",
"url" : "http:\/\/go.rss.sina.com.cn\/redirect.php?url=http:\/\/blog.sina.com.cn\/s\/blog_97fc48ea0101gc7q.html",
"pubDate" : "2013年9月4日",
"enterDate" : "384199:34:09",
"channelId" : "-6555115003500200419",
"channelName" : "汽车-新浪博客",
"channelNameSummary" : "汽车-新浪博客",
"channelUrl" : "http:\/\/blog.sina.com.cn\/lm\/auto\/",
"author" : "WWW.SINA.COM.CN",
"tags" : [],
"desc" : "",
"emailed" : False,
"forwarded" : False,
"english" : False
}  , {
"index" : 16,
"articleIndex" : "23583",
"favor" :  False ,
     "read" : False,    
"title" : "太行秋日私语",
"titleTip" : "太行秋日私语",
"titleSummary" : "太行秋日私语",
"descSummary" : "",
"url" : "http:\/\/go.rss.sina.com.cn\/redirect.php?url=http:\/\/blog.sina.com.cn\/s\/blog_6b99ba750101djmo.html",
"pubDate" : "2013年9月4日",
"enterDate" : "384199:32:53",
"channelId" : "-6555115003500200419",
"channelName" : "汽车-新浪博客",
"channelNameSummary" : "汽车-新浪博客",
"channelUrl" : "http:\/\/blog.sina.com.cn\/lm\/auto\/",
"author" : "WWW.SINA.COM.CN",
"tags" : [],
"desc" : "",
"emailed" : False,
"forwarded" : False,
"english" : False
}  , {
"index" : 17,
"articleIndex" : "23582",
"favor" :  False ,
     "read" : False,    
"title" : "菲律宾独特多彩的交通工具",
"titleTip" : "菲律宾独特多彩的交通工具",
"titleSummary" : "菲律宾独特多彩的交通工具",
"descSummary" : "",
"url" : "http:\/\/go.rss.sina.com.cn\/redirect.php?url=http:\/\/blog.sina.com.cn\/s\/blog_59d8df1a0102esr9.html",
"pubDate" : "2013年9月4日",
"enterDate" : "384199:19:26",
"channelId" : "-6555115003500200419",
"channelName" : "汽车-新浪博客",
"channelNameSummary" : "汽车-新浪博客",
"channelUrl" : "http:\/\/blog.sina.com.cn\/lm\/auto\/",
"author" : "WWW.SINA.COM.CN",
"tags" : [],
"desc" : "",
"emailed" : False,
"forwarded" : False,
"english" : False
}  , {
"index" : 18,
"articleIndex" : "23581",
"favor" :  False ,
     "read" : False,    
"title" : "探访梅赛德斯AMG总部",
"titleTip" : "探访梅赛德斯AMG总部",
"titleSummary" : "探访梅赛德斯AMG总部",
"descSummary" : "",
"url" : "http:\/\/go.rss.sina.com.cn\/redirect.php?url=http:\/\/blog.sina.com.cn\/s\/blog_4b8a85900102ed2v.html",
"pubDate" : "2013年9月4日",
"enterDate" : "384201:12:08",
"channelId" : "-6555115003500200419",
"channelName" : "汽车-新浪博客",
"channelNameSummary" : "汽车-新浪博客",
"channelUrl" : "http:\/\/blog.sina.com.cn\/lm\/auto\/",
"author" : "WWW.SINA.COM.CN",
"tags" : [],
"desc" : "",
"emailed" : False,
"forwarded" : False,
"english" : False
}  , {
"index" : 19,
"articleIndex" : "23580",
"favor" :  False ,
     "read" : False,    
"title" : "伦敦街头惊现最新款迈凯轮P1超级跑车",
"titleTip" : "伦敦街头惊现最新款迈凯轮P1超级跑车",
"titleSummary" : "伦敦街头惊现最新款迈凯轮P1超级跑车",
"descSummary" : "",
"url" : "http:\/\/go.rss.sina.com.cn\/redirect.php?url=http:\/\/blog.sina.com.cn\/s\/blog_4c88bb270101n97p.html",
"pubDate" : "2013年9月4日",
"enterDate" : "384201:10:45",
"channelId" : "-6555115003500200419",
"channelName" : "汽车-新浪博客",
"channelNameSummary" : "汽车-新浪博客",
"channelUrl" : "http:\/\/blog.sina.com.cn\/lm\/auto\/",
"author" : "WWW.SINA.COM.CN",
"tags" : [],
"desc" : "",
"emailed" : False,
"forwarded" : False,
"english" : False
} ]
}
