{
"mode" : {"viewTitle" : 1,   "viewNew" : 0,  "pageIndex" : 2 },
 "channel" : {"id" : "-6555115003500200419", "booked" : False, "subNumber" : 1, "name" : "汽车-新浪博客", "url" : "http:\/\/blog.sina.com.cn\/lm\/auto\/", "feed" : "http:\/\/rss.sina.com.cn\/blog\/auto\/qc.xml", "author" : "WWW.SINA.COM.CN", "desc" : "汽车博客列表", "imageUrl" : "http:\/\/www.sinaimg.cn\/blog\/main\/index2010\/blog_logo.png", "postPerWeek" : "0", "lastCrawTime" : "17:02:15", "crawDateTime" : "16:02:05", "lastHttpCode" : "200"}, "page" : {
"startIndex" : 20,
"totalCount" : 5000,
"pageIndex" : 2,
"lastPage" : 250,
"pageSize" : 20,
"english" :  False },
 "unreadNum" : 0, "shotIndex" : -1,
"articles" : [
{
"index" : 0,
"articleIndex" : "23579",
"favor" :  False ,
     "read" : False,    
"title" : "2014款保时捷Macan无伪装谍照曝光",
"titleTip" : "2014款保时捷Macan无伪装谍照曝光",
"titleSummary" : "2014款保时捷Macan无伪装谍照曝光",
"descSummary" : "",
"url" : "http:\/\/go.rss.sina.com.cn\/redirect.php?url=http:\/\/blog.sina.com.cn\/s\/blog_49f4c9c40102e84l.html",
"pubDate" : "2013年9月4日",
"enterDate" : "384201:10:02",
"channelId" : "-6555115003500200419",
"channelName" : "汽车-新浪博客",
"channelNameSummary" : "汽车-新浪博客",
"channelUrl" : "http:\/\/blog.sina.com.cn\/lm\/auto\/",
"author" : "WWW.SINA.COM.CN",
"tags" : [],
"desc" : "",
"emailed" : False,
"forwarded" : False,
"english" : False
}  , {
"index" : 1,
"articleIndex" : "23578",
"favor" :  False ,
     "read" : False,    
"title" : "菲亚特500阿巴特595五十周年纪念版",
"titleTip" : "菲亚特500阿巴特595五十周年纪念版",
"titleSummary" : "菲亚特500阿巴特595五十周年纪念版",
"descSummary" : "",
"url" : "http:\/\/go.rss.sina.com.cn\/redirect.php?url=http:\/\/blog.sina.com.cn\/s\/blog_4c88bb270101n972.html",
"pubDate" : "2013年9月4日",
"enterDate" : "384201:06:50",
"channelId" : "-6555115003500200419",
"channelName" : "汽车-新浪博客",
"channelNameSummary" : "汽车-新浪博客",
"channelUrl" : "http:\/\/blog.sina.com.cn\/lm\/auto\/",
"author" : "WWW.SINA.COM.CN",
"tags" : [],
"desc" : "",
"emailed" : False,
"forwarded" : False,
"english" : False
}  , {
"index" : 2,
"articleIndex" : "23577",
"favor" :  False ,
     "read" : False,    
"title" : "改装版保时捷将亮相法兰克福车展",
"titleTip" : "改装版保时捷将亮相法兰克福车展",
"titleSummary" : "改装版保时捷将亮相法兰克福车展",
"descSummary" : "",
"url" : "http:\/\/go.rss.sina.com.cn\/redirect.php?url=http:\/\/blog.sina.com.cn\/s\/blog_4c88bb270101n96p.html",
"pubDate" : "2013年9月4日",
"enterDate" : "384201:04:10",
"channelId" : "-6555115003500200419",
"channelName" : "汽车-新浪博客",
"channelNameSummary" : "汽车-新浪博客",
"channelUrl" : "http:\/\/blog.sina.com.cn\/lm\/auto\/",
"author" : "WWW.SINA.COM.CN",
"tags" : [],
"desc" : "",
"emailed" : False,
"forwarded" : False,
"english" : False
}  , {
"index" : 3,
"articleIndex" : "23576",
"favor" :  False ,
     "read" : False,    
"title" : "特别配搭 老板式的假期代步工具",
"titleTip" : "特别配搭 老板式的假期代步工具",
"titleSummary" : "特别配搭 老板式的假期代步工具",
"descSummary" : "",
"url" : "http:\/\/go.rss.sina.com.cn\/redirect.php?url=http:\/\/blog.sina.com.cn\/s\/blog_4b8a85900102ed0w.html",
"pubDate" : "2013年9月4日",
"enterDate" : "384200:18:41",
"channelId" : "-6555115003500200419",
"channelName" : "汽车-新浪博客",
"channelNameSummary" : "汽车-新浪博客",
"channelUrl" : "http:\/\/blog.sina.com.cn\/lm\/auto\/",
"author" : "WWW.SINA.COM.CN",
"tags" : [],
"desc" : "",
"emailed" : False,
"forwarded" : False,
"english" : False
}  , {
"index" : 4,
"articleIndex" : "23575",
"favor" :  False ,
     "read" : False,    
"title" : "走进天津华尔街 最富有的解放北路",
"titleTip" : "走进天津华尔街 最富有的解放北路",
"titleSummary" : "走进天津华尔街 最富有的解放北路",
"descSummary" : "",
"url" : "http:\/\/go.rss.sina.com.cn\/redirect.php?url=http:\/\/blog.sina.com.cn\/s\/blog_6c38ce160101m9j7.html",
"pubDate" : "2013年9月2日",
"enterDate" : "384199:20:48",
"channelId" : "-6555115003500200419",
"channelName" : "汽车-新浪博客",
"channelNameSummary" : "汽车-新浪博客",
"channelUrl" : "http:\/\/blog.sina.com.cn\/lm\/auto\/",
"author" : "WWW.SINA.COM.CN",
"tags" : [],
"desc" : "",
"emailed" : False,
"forwarded" : False,
"english" : False
}  , {
"index" : 5,
"articleIndex" : "23574",
"favor" :  False ,
     "read" : False,    
"title" : "吐鲁番的葡萄熟了",
"titleTip" : "吐鲁番的葡萄熟了",
"titleSummary" : "吐鲁番的葡萄熟了",
"descSummary" : "",
"url" : "http:\/\/go.rss.sina.com.cn\/redirect.php?url=http:\/\/blog.sina.com.cn\/s\/blog_6b99ba750101dith.html",
"pubDate" : "2013年9月2日",
"enterDate" : "384199:18:56",
"channelId" : "-6555115003500200419",
"channelName" : "汽车-新浪博客",
"channelNameSummary" : "汽车-新浪博客",
"channelUrl" : "http:\/\/blog.sina.com.cn\/lm\/auto\/",
"author" : "WWW.SINA.COM.CN",
"tags" : [],
"desc" : "",
"emailed" : False,
"forwarded" : False,
"english" : False
}  , {
"index" : 6,
"articleIndex" : "23573",
"favor" :  False ,
     "read" : False,    
"title" : "叙利亚阿勒颇 逝去的世界文化遗产",
"titleTip" : "叙利亚阿勒颇 逝去的世界文化遗产",
"titleSummary" : "叙利亚阿勒颇 逝去的世界文化遗产",
"descSummary" : "",
"url" : "http:\/\/go.rss.sina.com.cn\/redirect.php?url=http:\/\/blog.sina.com.cn\/s\/blog_5b29fb5f0102eb3f.html",
"pubDate" : "2013年9月2日",
"enterDate" : "384201:06:23",
"channelId" : "-6555115003500200419",
"channelName" : "汽车-新浪博客",
"channelNameSummary" : "汽车-新浪博客",
"channelUrl" : "http:\/\/blog.sina.com.cn\/lm\/auto\/",
"author" : "WWW.SINA.COM.CN",
"tags" : [],
"desc" : "",
"emailed" : False,
"forwarded" : False,
"english" : False
}  , {
"index" : 7,
"articleIndex" : "23572",
"favor" :  False ,
     "read" : False,    
"title" : "驰骋在中俄蒙边陲小城满洲里",
"titleTip" : "驰骋在中俄蒙边陲小城满洲里",
"titleSummary" : "驰骋在中俄蒙边陲小城满洲里",
"descSummary" : "",
"url" : "http:\/\/go.rss.sina.com.cn\/redirect.php?url=http:\/\/blog.sina.com.cn\/s\/blog_5a050b9e0102eb3t.html",
"pubDate" : "2013年9月2日",
"enterDate" : "384201:04:58",
"channelId" : "-6555115003500200419",
"channelName" : "汽车-新浪博客",
"channelNameSummary" : "汽车-新浪博客",
"channelUrl" : "http:\/\/blog.sina.com.cn\/lm\/auto\/",
"author" : "WWW.SINA.COM.CN",
"tags" : [],
"desc" : "",
"emailed" : False,
"forwarded" : False,
"english" : False
}  , {
"index" : 8,
"articleIndex" : "23571",
"favor" :  False ,
     "read" : False,    
"title" : "速度与激情2014款DDR迈阿密GT赛车定制版",
"titleTip" : "速度与激情2014款DDR迈阿密GT赛车定制版",
"titleSummary" : "速度与激情2014款DDR迈阿密GT赛车定制版",
"descSummary" : "",
"url" : "http:\/\/go.rss.sina.com.cn\/redirect.php?url=http:\/\/blog.sina.com.cn\/s\/blog_4c88bb270101n7ur.html",
"pubDate" : "2013年9月2日",
"enterDate" : "384200:23:30",
"channelId" : "-6555115003500200419",
"channelName" : "汽车-新浪博客",
"channelNameSummary" : "汽车-新浪博客",
"channelUrl" : "http:\/\/blog.sina.com.cn\/lm\/auto\/",
"author" : "WWW.SINA.COM.CN",
"tags" : [],
"desc" : "",
"emailed" : False,
"forwarded" : False,
"english" : False
}  , {
"index" : 9,
"articleIndex" : "23570",
"favor" :  False ,
     "read" : False,    
"title" : "一览国外街头阿斯顿・马丁One-77",
"titleTip" : "一览国外街头阿斯顿・马丁One-77",
"titleSummary" : "一览国外街头阿斯顿・马丁One-77",
"descSummary" : "",
"url" : "http:\/\/go.rss.sina.com.cn\/redirect.php?url=http:\/\/blog.sina.com.cn\/s\/blog_5e7541370102e8cu.html",
"pubDate" : "2013年9月2日",
"enterDate" : "384200:20:47",
"channelId" : "-6555115003500200419",
"channelName" : "汽车-新浪博客",
"channelNameSummary" : "汽车-新浪博客",
"channelUrl" : "http:\/\/blog.sina.com.cn\/lm\/auto\/",
"author" : "WWW.SINA.COM.CN",
"tags" : [],
"desc" : "",
"emailed" : False,
"forwarded" : False,
"english" : False
}  , {
"index" : 10,
"articleIndex" : "23569",
"favor" :  False ,
     "read" : False,    
"title" : "北美Bulleta公司推出RF22跑车",
"titleTip" : "北美Bulleta公司推出RF22跑车",
"titleSummary" : "北美Bulleta公司推出RF22跑车",
"descSummary" : "",
"url" : "http:\/\/go.rss.sina.com.cn\/redirect.php?url=http:\/\/blog.sina.com.cn\/s\/blog_4c88bb270101n7sx.html",
"pubDate" : "2013年9月2日",
"enterDate" : "384200:19:23",
"channelId" : "-6555115003500200419",
"channelName" : "汽车-新浪博客",
"channelNameSummary" : "汽车-新浪博客",
"channelUrl" : "http:\/\/blog.sina.com.cn\/lm\/auto\/",
"author" : "WWW.SINA.COM.CN",
"tags" : [],
"desc" : "",
"emailed" : False,
"forwarded" : False,
"english" : False
}  , {
"index" : 11,
"articleIndex" : "23568",
"favor" :  False ,
     "read" : False,    
"title" : "保时捷LMP1勒芒赛车原型版",
"titleTip" : "保时捷LMP1勒芒赛车原型版",
"titleSummary" : "保时捷LMP1勒芒赛车原型版",
"descSummary" : "",
"url" : "http:\/\/go.rss.sina.com.cn\/redirect.php?url=http:\/\/blog.sina.com.cn\/s\/blog_cfc89f620101i1ox.html",
"pubDate" : "2013年9月2日",
"enterDate" : "384200:17:05",
"channelId" : "-6555115003500200419",
"channelName" : "汽车-新浪博客",
"channelNameSummary" : "汽车-新浪博客",
"channelUrl" : "http:\/\/blog.sina.com.cn\/lm\/auto\/",
"author" : "WWW.SINA.COM.CN",
"tags" : [],
"desc" : "",
"emailed" : False,
"forwarded" : False,
"english" : False
}  , {
"index" : 12,
"articleIndex" : "23567",
"favor" :  False ,
     "read" : False,    
"title" : "国外摄影师独特风格的汽车艺术作品",
"titleTip" : "国外摄影师独特风格的汽车艺术作品",
"titleSummary" : "国外摄影师独特风格的汽车艺术作品",
"descSummary" : "",
"url" : "http:\/\/go.rss.sina.com.cn\/redirect.php?url=http:\/\/blog.sina.com.cn\/s\/blog_4c88bb270101n7rb.html",
"pubDate" : "2013年9月2日",
"enterDate" : "384200:14:25",
"channelId" : "-6555115003500200419",
"channelName" : "汽车-新浪博客",
"channelNameSummary" : "汽车-新浪博客",
"channelUrl" : "http:\/\/blog.sina.com.cn\/lm\/auto\/",
"author" : "WWW.SINA.COM.CN",
"tags" : [],
"desc" : "",
"emailed" : False,
"forwarded" : False,
"english" : False
}  , {
"index" : 13,
"articleIndex" : "23566",
"favor" :  False ,
     "read" : False,    
"title" : "创造431公里\/小时的超级跑车布加迪",
"titleTip" : "创造431公里\/小时的超级跑车布加迪",
"titleSummary" : "创造431公里\/小时的超级跑车布加迪",
"descSummary" : "",
"url" : "http:\/\/go.rss.sina.com.cn\/redirect.php?url=http:\/\/blog.sina.com.cn\/s\/blog_5c9403410101djix.html",
"pubDate" : "2013年9月2日",
"enterDate" : "384200:09:29",
"channelId" : "-6555115003500200419",
"channelName" : "汽车-新浪博客",
"channelNameSummary" : "汽车-新浪博客",
"channelUrl" : "http:\/\/blog.sina.com.cn\/lm\/auto\/",
"author" : "WWW.SINA.COM.CN",
"tags" : [],
"desc" : "",
"emailed" : False,
"forwarded" : False,
"english" : False
}  , {
"index" : 14,
"articleIndex" : "23565",
"favor" :  False ,
     "read" : False,    
"title" : "沃尔沃概念双门轿跑车正式亮相美图欣赏",
"titleTip" : "沃尔沃概念双门轿跑车正式亮相美图欣赏",
"titleSummary" : "沃尔沃概念双门轿跑车正式亮相美图欣赏",
"descSummary" : "",
"url" : "http:\/\/go.rss.sina.com.cn\/redirect.php?url=http:\/\/blog.sina.com.cn\/s\/blog_4c88bb270101n64r.html",
"pubDate" : "2013年8月30日",
"enterDate" : "384200:46:25",
"channelId" : "-6555115003500200419",
"channelName" : "汽车-新浪博客",
"channelNameSummary" : "汽车-新浪博客",
"channelUrl" : "http:\/\/blog.sina.com.cn\/lm\/auto\/",
"author" : "WWW.SINA.COM.CN",
"tags" : [],
"desc" : "",
"emailed" : False,
"forwarded" : False,
"english" : False
}  , {
"index" : 15,
"articleIndex" : "23564",
"favor" :  False ,
     "read" : False,    
"title" : "2013款经典蓝色捷豹XFR-S运动轿车",
"titleTip" : "2013款经典蓝色捷豹XFR-S运动轿车",
"titleSummary" : "2013款经典蓝色捷豹XFR-S运动轿车",
"descSummary" : "",
"url" : "http:\/\/go.rss.sina.com.cn\/redirect.php?url=http:\/\/blog.sina.com.cn\/s\/blog_4c88bb270101n65i.html",
"pubDate" : "2013年8月30日",
"enterDate" : "384200:45:06",
"channelId" : "-6555115003500200419",
"channelName" : "汽车-新浪博客",
"channelNameSummary" : "汽车-新浪博客",
"channelUrl" : "http:\/\/blog.sina.com.cn\/lm\/auto\/",
"author" : "WWW.SINA.COM.CN",
"tags" : [],
"desc" : "",
"emailed" : False,
"forwarded" : False,
"english" : False
}  , {
"index" : 16,
"articleIndex" : "23563",
"favor" :  False ,
     "read" : False,    
"title" : "MTM改装版奥迪R8 V10 Spyder",
"titleTip" : "MTM改装版奥迪R8 V10 Spyder",
"titleSummary" : "MTM改装版奥迪R8 V10 Spyder",
"descSummary" : "",
"url" : "http:\/\/go.rss.sina.com.cn\/redirect.php?url=http:\/\/blog.sina.com.cn\/s\/blog_4c88bb270101n68s.html",
"pubDate" : "2013年8月30日",
"enterDate" : "384200:43:17",
"channelId" : "-6555115003500200419",
"channelName" : "汽车-新浪博客",
"channelNameSummary" : "汽车-新浪博客",
"channelUrl" : "http:\/\/blog.sina.com.cn\/lm\/auto\/",
"author" : "WWW.SINA.COM.CN",
"tags" : [],
"desc" : "",
"emailed" : False,
"forwarded" : False,
"english" : False
}  , {
"index" : 17,
"articleIndex" : "23562",
"favor" :  False ,
     "read" : False,    
"title" : "起亚德尼罗紧凑型跨界概念车亮相",
"titleTip" : "起亚德尼罗紧凑型跨界概念车亮相",
"titleSummary" : "起亚德尼罗紧凑型跨界概念车亮相",
"descSummary" : "",
"url" : "http:\/\/go.rss.sina.com.cn\/redirect.php?url=http:\/\/blog.sina.com.cn\/s\/blog_4c88bb270101n677.html",
"pubDate" : "2013年8月30日",
"enterDate" : "384200:39:07",
"channelId" : "-6555115003500200419",
"channelName" : "汽车-新浪博客",
"channelNameSummary" : "汽车-新浪博客",
"channelUrl" : "http:\/\/blog.sina.com.cn\/lm\/auto\/",
"author" : "WWW.SINA.COM.CN",
"tags" : [],
"desc" : "",
"emailed" : False,
"forwarded" : False,
"english" : False
}  , {
"index" : 18,
"articleIndex" : "23561",
"favor" :  False ,
     "read" : False,    
"title" : "2013款斯巴鲁WRX概念量产版亮相",
"titleTip" : "2013款斯巴鲁WRX概念量产版亮相",
"titleSummary" : "2013款斯巴鲁WRX概念量产版亮相",
"descSummary" : "",
"url" : "http:\/\/go.rss.sina.com.cn\/redirect.php?url=http:\/\/blog.sina.com.cn\/s\/blog_4c88bb270101n5fw.html",
"pubDate" : "2013年8月29日",
"enterDate" : "384199:28:03",
"channelId" : "-6555115003500200419",
"channelName" : "汽车-新浪博客",
"channelNameSummary" : "汽车-新浪博客",
"channelUrl" : "http:\/\/blog.sina.com.cn\/lm\/auto\/",
"author" : "WWW.SINA.COM.CN",
"tags" : [],
"desc" : "",
"emailed" : False,
"forwarded" : False,
"english" : False
}  , {
"index" : 19,
"articleIndex" : "23560",
"favor" :  False ,
     "read" : False,    
"title" : "2014款奥迪A3敞篷车谍照曝光",
"titleTip" : "2014款奥迪A3敞篷车谍照曝光",
"titleSummary" : "2014款奥迪A3敞篷车谍照曝光",
"descSummary" : "",
"url" : "http:\/\/go.rss.sina.com.cn\/redirect.php?url=http:\/\/blog.sina.com.cn\/s\/blog_49f4c9c40102e813.html",
"pubDate" : "2013年8月29日",
"enterDate" : "384199:26:33",
"channelId" : "-6555115003500200419",
"channelName" : "汽车-新浪博客",
"channelNameSummary" : "汽车-新浪博客",
"channelUrl" : "http:\/\/blog.sina.com.cn\/lm\/auto\/",
"author" : "WWW.SINA.COM.CN",
"tags" : [],
"desc" : "",
"emailed" : False,
"forwarded" : False,
"english" : False
} ]
}
