{
"mode" : {"viewTitle" : 1,   "viewNew" : 0,  "pageIndex" : 1 },
 "channel" : {"id" : "1461423726394598175", "booked" : False, "subNumber" : 1, "name" : "北京房产-打折优惠", "url" : "http:\/\/bj.house.sina.com.cn\/scan\/dazhe\/index.html", "feed" : "http:\/\/rss.sina.com.cn\/bjhouse\/scan\/dazhe.xml", "author" : "WWW.SINA.COM.CN", "desc" : "北京房产-打折优惠", "imageUrl" : "http:\/\/www.sinaimg.cn\/house\/sina_fc.gif", "postPerWeek" : "0", "lastCrawTime" : "2013年10月24日 (6天前)", "crawDateTime" : "2013年1月10日", "lastHttpCode" : "304"}, "page" : {
"startIndex" : 0,
"totalCount" : 5000,
"pageIndex" : 1,
"lastPage" : 250,
"pageSize" : 20,
"english" :  False },
 "unreadNum" : 0, "shotIndex" : -1,
"articles" : [
{
"index" : 0,
"articleIndex" : "9447",
"favor" :  False ,
     "read" : False,    
"title" : "香河华都泊雅园3居高层板楼现房96折(图)",
"titleTip" : "香河华都泊雅园3居高层板楼现房96折(图)",
"titleSummary" : "香河华都泊雅园3居高层板楼现房96折(图)",
"descSummary" : "新浪乐居讯(编辑 季善云)华都泊雅园(论坛 相册 户型 样板间 点...",
"url" : "http:\/\/go.rss.sina.com.cn\/redirect.php?url=http:\/\/house.sina.com.cn\/scan\/2012-12-31\/1649427071.shtml?source=rss",
"pubDate" : "2012年12月31日",
"enterDate" : "384200:52:15",
"channelId" : "1461423726394598175",
"channelName" : "北京房产-打折优惠",
"channelNameSummary" : "北京房产-打折优惠",
"channelUrl" : "http:\/\/bj.house.sina.com.cn\/scan\/dazhe\/index.html",
"author" : "WWW.SINA.COM.CN",
"tags" : [],
"desc" : "新浪乐居讯(编辑 季善云)华都泊雅园(论坛&#160;相册&#160;户型&#160;样板间&#160;点评&#160;地图搜索)目前115平米三居在售，均价5600元\/平方米。全款96折，贷款98折。18层高板楼，毛坯交房，2012年5月1日入住，70年产权。 华都泊雅园坐落于香河五一路与新华大街交汇处....",
"emailed" : False,
"forwarded" : False,
"english" : False
}  , {
"index" : 1,
"articleIndex" : "9446",
"favor" :  False ,
     "read" : False,    
"title" : "香河北京棠樾118平大3居现房在售全款98折(图)",
"titleTip" : "香河北京棠樾118平大3居现房在售全款98折(图)",
"titleSummary" : "香河北京棠樾118平大3居现房在售全款98折(图)",
"descSummary" : "新浪乐居讯(编辑 季善云)北京棠樾(论坛 相册 户型 样板间...",
"url" : "http:\/\/go.rss.sina.com.cn\/redirect.php?url=http:\/\/house.sina.com.cn\/scan\/2012-12-31\/1641427069.shtml?source=rss",
"pubDate" : "2012年12月31日",
"enterDate" : "384200:43:44",
"channelId" : "1461423726394598175",
"channelName" : "北京房产-打折优惠",
"channelNameSummary" : "北京房产-打折优惠",
"channelUrl" : "http:\/\/bj.house.sina.com.cn\/scan\/dazhe\/index.html",
"author" : "WWW.SINA.COM.CN",
"tags" : [],
"desc" : "新浪乐居讯(编辑 季善云)北京棠樾(论坛 相册 户型 样板间 点评 地图搜索)目前在售房源户型为94平米二居，118平米三居，均价6000元\/平米，总价46万元\/套，购房享98折优惠。项目为70年产权，2012年6月交房。 北京棠樾配套设施完备。周边有938路可供换乘，小区门口就设有....",
"emailed" : False,
"forwarded" : False,
"english" : False
}  , {
"index" : 2,
"articleIndex" : "9445",
"favor" :  False ,
     "read" : False,    
"title" : "永定河孔雀城大面积台地别院可享98折(图)",
"titleTip" : "永定河孔雀城大面积台地别院可享98折(图)",
"titleSummary" : "永定河孔雀城大面积台地别院可享98折(图)",
"descSummary" : "新浪乐居讯(编辑 季善云)永定河孔雀城(论坛 相册 户型 样板间...",
"url" : "http:\/\/go.rss.sina.com.cn\/redirect.php?url=http:\/\/house.sina.com.cn\/scan\/2012-12-31\/1618427064.shtml?source=rss",
"pubDate" : "2012年12月31日",
"enterDate" : "384200:51:11",
"channelId" : "1461423726394598175",
"channelName" : "北京房产-打折优惠",
"channelNameSummary" : "北京房产-打折优惠",
"channelUrl" : "http:\/\/bj.house.sina.com.cn\/scan\/dazhe\/index.html",
"author" : "WWW.SINA.COM.CN",
"tags" : [],
"desc" : "新浪乐居讯(编辑 季善云)永定河孔雀城(论坛 相册 户型 样板间 点评 地图搜索) 在售台地别院，250-295平米，总价240万元\/套起，高使用率、高附加值、高性价比，送四重庭院百平地下室私家车库，200%得房率。2014年 10月30日入住。雅博园新浪乐居独家团购交付6000元享受98折优惠....",
"emailed" : False,
"forwarded" : False,
"english" : False
}  , {
"index" : 3,
"articleIndex" : "9444",
"favor" :  False ,
     "read" : False,    
"title" : "大兴cago寓所1-3居精装修现房全款95折(图)",
"titleTip" : "大兴cago寓所1-3居精装修现房全款95折(图)",
"titleSummary" : "大兴cago寓所1-3居精装修现房全款95折(图)",
"descSummary" : "新浪乐居讯(编辑 季善云)cago寓所(论坛 相册 户型 样板间 点...",
"url" : "http:\/\/go.rss.sina.com.cn\/redirect.php?url=http:\/\/house.sina.com.cn\/scan\/2012-12-31\/1601427060.shtml?source=rss",
"pubDate" : "2012年12月31日",
"enterDate" : "384201:04:03",
"channelId" : "1461423726394598175",
"channelName" : "北京房产-打折优惠",
"channelNameSummary" : "北京房产-打折优惠",
"channelUrl" : "http:\/\/bj.house.sina.com.cn\/scan\/dazhe\/index.html",
"author" : "WWW.SINA.COM.CN",
"tags" : [],
"desc" : "新浪乐居讯(编辑 季善云)cago寓所(论坛&#160;相册&#160;户型&#160;样板间&#160;点评&#160;地图搜索)在售房源为81平米一居、95-100平米两居和147平米三居，均价15800元\/平米，精装修，首付45万元起，购房可享受全款95折，贷款99折优惠。 cago寓所项目坐落于京开高速绿化....",
"emailed" : False,
"forwarded" : False,
"english" : False
}  , {
"index" : 4,
"articleIndex" : "9443",
"favor" :  False ,
     "read" : False,    
"title" : "大兴博悦府仅余5套房源可售购房享98折(图)",
"titleTip" : "大兴博悦府仅余5套房源可售购房享98折(图)",
"titleSummary" : "大兴博悦府仅余5套房源可售购房享98折(图)",
"descSummary" : "新浪乐居讯(编辑 季善云)博悦府(论坛 相册 户型 样板间 点评...",
"url" : "http:\/\/go.rss.sina.com.cn\/redirect.php?url=http:\/\/house.sina.com.cn\/scan\/2012-12-31\/1524427050.shtml?source=rss",
"pubDate" : "2012年12月31日",
"enterDate" : "384200:57:11",
"channelId" : "1461423726394598175",
"channelName" : "北京房产-打折优惠",
"channelNameSummary" : "北京房产-打折优惠",
"channelUrl" : "http:\/\/bj.house.sina.com.cn\/scan\/dazhe\/index.html",
"author" : "WWW.SINA.COM.CN",
"tags" : [],
"desc" : "新浪乐居讯(编辑 季善云)博悦府(论坛&#160;相册&#160;户型&#160;样板间&#160;点评&#160;地图搜索)项目目前余5套房源在售，其中1号楼为9层板楼，一梯两户，在售房源为160平米三居，西南向；3号楼为9-10层板楼，一梯两户，在售房源为180平米三居，南北通透；2号楼为叠拼别墅，户....",
"emailed" : False,
"forwarded" : False,
"english" : False
}  , {
"index" : 5,
"articleIndex" : "9442",
"favor" :  False ,
     "read" : False,    
"title" : "大兴海棠大面积独栋现房在售全款9折(图)",
"titleTip" : "大兴海棠大面积独栋现房在售全款9折(图)",
"titleSummary" : "大兴海棠大面积独栋现房在售全款9折(图)",
"descSummary" : "新浪乐居讯(编辑 季善云)海棠(论坛 相册 户型 样板间 点评 地图...",
"url" : "http:\/\/go.rss.sina.com.cn\/redirect.php?url=http:\/\/house.sina.com.cn\/scan\/2012-12-31\/1511427046.shtml?source=rss",
"pubDate" : "2012年12月31日",
"enterDate" : "384200:44:44",
"channelId" : "1461423726394598175",
"channelName" : "北京房产-打折优惠",
"channelNameSummary" : "北京房产-打折优惠",
"channelUrl" : "http:\/\/bj.house.sina.com.cn\/scan\/dazhe\/index.html",
"author" : "WWW.SINA.COM.CN",
"tags" : [],
"desc" : "新浪乐居讯(编辑 季善云)海棠(论坛&#160;相册&#160;户型&#160;样板间&#160;点评&#160;地图搜索)项目独栋现房在售，均价13000元\/平米，户型为213-325平米，总价280万\/套起。项目为70年产权，现房，容积率0.259，全款可享9折优惠。 海棠项目安防系统好，整个小区采用分级....",
"emailed" : False,
"forwarded" : False,
"english" : False
}  , {
"index" : 6,
"articleIndex" : "9441",
"favor" :  False ,
     "read" : False,    
"title" : "房山水墨林溪66-240平特价房推出全款85折(图)",
"titleTip" : "房山水墨林溪66-240平特价房推出全款85折(图)",
"titleSummary" : "房山水墨林溪66-240平特价房推出全款85折(图)",
"descSummary" : "新浪乐居讯(编辑 陈宏冬)水墨林溪(论坛 相册 户型 样板间...",
"url" : "http:\/\/go.rss.sina.com.cn\/redirect.php?url=http:\/\/house.sina.com.cn\/scan\/2012-12-31\/1049427026.shtml?source=rss",
"pubDate" : "2012年12月31日",
"enterDate" : "384200:52:51",
"channelId" : "1461423726394598175",
"channelName" : "北京房产-打折优惠",
"channelNameSummary" : "北京房产-打折优惠",
"channelUrl" : "http:\/\/bj.house.sina.com.cn\/scan\/dazhe\/index.html",
"author" : "WWW.SINA.COM.CN",
"tags" : [],
"desc" : "新浪乐居讯(编辑 陈宏冬)水墨林溪(论坛 相册 户型 样板间 点评 地图搜索)目前C13-C16号楼房源在售，均价8300元\/平米，户型面积为66平米1居，100平米2居，131平3居和209平左右上复式房源。房源全部为8-11层电梯板楼，5-6个单元，1梯2户或1梯4户。C13、C15号楼得房率是88.6%，C1....",
"emailed" : False,
"forwarded" : False,
"english" : False
}  , {
"index" : 7,
"articleIndex" : "9440",
"favor" :  False ,
     "read" : False,    
"title" : "大兴联港幸福湾2-3居现房在售可享97折(图)",
"titleTip" : "大兴联港幸福湾2-3居现房在售可享97折(图)",
"titleSummary" : "大兴联港幸福湾2-3居现房在售可享97折(图)",
"descSummary" : "新浪乐居讯(编辑 张跃)联港・幸福湾(论坛 相册 户型 样板间...",
"url" : "http:\/\/go.rss.sina.com.cn\/redirect.php?url=http:\/\/house.sina.com.cn\/scan\/2012-12-27\/1718426753.shtml?source=rss",
"pubDate" : "2012年12月27日",
"enterDate" : "384200:51:58",
"channelId" : "1461423726394598175",
"channelName" : "北京房产-打折优惠",
"channelNameSummary" : "北京房产-打折优惠",
"channelUrl" : "http:\/\/bj.house.sina.com.cn\/scan\/dazhe\/index.html",
"author" : "WWW.SINA.COM.CN",
"tags" : [],
"desc" : "新浪乐居讯(编辑 张跃)联港・幸福湾(论坛 相册 户型 样板间 点评 地图搜索) 项目现房在售，二期2、3、5、15号楼已推出，均价14000元\/平米，目前5、15号楼在售，2、3号楼 售罄。15号楼6层，5个单元，一梯两户，户型面积为86平米两居，124平米三居(边户型)，5号楼是8层板楼，三....",
"emailed" : False,
"forwarded" : False,
"english" : False
}  , {
"index" : 8,
"articleIndex" : "9439",
"favor" :  False ,
     "read" : False,    
"title" : "昌平北京湾推350-550平独栋别墅团购85折(图)",
"titleTip" : "昌平北京湾推350-550平独栋别墅团购85折(图)",
"titleSummary" : "昌平北京湾推350-550平独栋别墅团购85折(图)",
"descSummary" : "新浪乐居讯(实习编辑 孙立翔)北京湾(论坛 相册 户型 样板...",
"url" : "http:\/\/go.rss.sina.com.cn\/redirect.php?url=http:\/\/house.sina.com.cn\/scan\/2012-12-27\/1700426750.shtml?source=rss",
"pubDate" : "2012年12月27日",
"enterDate" : "384201:03:55",
"channelId" : "1461423726394598175",
"channelName" : "北京房产-打折优惠",
"channelNameSummary" : "北京房产-打折优惠",
"channelUrl" : "http:\/\/bj.house.sina.com.cn\/scan\/dazhe\/index.html",
"author" : "WWW.SINA.COM.CN",
"tags" : [],
"desc" : "&#160;&#160;&#160; 新浪乐居讯(实习编辑 孙立翔)北京湾(论坛 相册 户型 样板间 点评 地图搜索)项目在售二期中式独栋别墅，户型面积为350-550平米，起价18500元\/平米，均价19000元\/平米。现团购可享85折优惠，350平房源总价679万\/套，折后总价580万\/套；420-440平房源总价830-850....",
"emailed" : False,
"forwarded" : False,
"english" : False
}  , {
"index" : 9,
"articleIndex" : "9438",
"favor" :  False ,
     "read" : False,    
"title" : "昌平东方普罗旺斯775平起大独栋全款98折(图)",
"titleTip" : "昌平东方普罗旺斯775平起大独栋全款98折(图)",
"titleSummary" : "昌平东方普罗旺斯775平起大独栋全款98折(图)",
"descSummary" : "新浪乐居讯(实习编辑 孙立翔)东方普罗旺斯(论坛 相册 户型...",
"url" : "http:\/\/go.rss.sina.com.cn\/redirect.php?url=http:\/\/house.sina.com.cn\/scan\/2012-12-27\/1657426746.shtml?source=rss",
"pubDate" : "2012年12月27日",
"enterDate" : "384201:00:24",
"channelId" : "1461423726394598175",
"channelName" : "北京房产-打折优惠",
"channelNameSummary" : "北京房产-打折优惠",
"channelUrl" : "http:\/\/bj.house.sina.com.cn\/scan\/dazhe\/index.html",
"author" : "WWW.SINA.COM.CN",
"tags" : [],
"desc" : "&#160;&#160;&#160; 新浪乐居讯(实习编辑 孙立翔)东方普罗旺斯(论坛 相册 户型 样板间 点评 地图搜索)项目在售三期欧式风格独栋别墅，户型面积为775平米、920平米及1800平米超大户型，参考价格3460万元\/套起。项目内部装修情况为毛坯，现房入住，一次性付全款可享98折优惠。 ....",
"emailed" : False,
"forwarded" : False,
"english" : False
}  , {
"index" : 10,
"articleIndex" : "9437",
"favor" :  False ,
     "read" : False,    
"title" : "西城金贸中心推108-260平1-4居全款99折(图)",
"titleTip" : "西城金贸中心推108-260平1-4居全款99折(图)",
"titleSummary" : "西城金贸中心推108-260平1-4居全款99折(图)",
"descSummary" : "新浪乐居讯(实习编辑 王娇佳)金贸中心(论坛 相册 户型 样板...",
"url" : "http:\/\/go.rss.sina.com.cn\/redirect.php?url=http:\/\/house.sina.com.cn\/scan\/2012-12-27\/1646426742.shtml?source=rss",
"pubDate" : "2012年12月27日",
"enterDate" : "384200:50:05",
"channelId" : "1461423726394598175",
"channelName" : "北京房产-打折优惠",
"channelNameSummary" : "北京房产-打折优惠",
"channelUrl" : "http:\/\/bj.house.sina.com.cn\/scan\/dazhe\/index.html",
"author" : "WWW.SINA.COM.CN",
"tags" : [],
"desc" : "新浪乐居讯(实习编辑 王娇佳)金贸中心(论坛&#160;相册&#160;户型&#160;样板间&#160;点评&#160;地图搜索)项目均价56000元\/平米，全款可享99折。户型面积为108平米一居，137平米两居，170平米小三居，203平米大三居，260平米四居。精装现房，50年产权，项目位于西城区西外大街德....",
"emailed" : False,
"forwarded" : False,
"english" : False
}  , {
"index" : 11,
"articleIndex" : "9436",
"favor" :  False ,
     "read" : False,    
"title" : "通州东亚逸品阁115平3居团购可省12万(图)",
"titleTip" : "通州东亚逸品阁115平3居团购可省12万(图)",
"titleSummary" : "通州东亚逸品阁115平3居团购可省12万(图)",
"descSummary" : "新浪乐居讯(编辑 张茜)东亚・逸品阁(论坛 相册 户型 样板间 点...",
"url" : "http:\/\/go.rss.sina.com.cn\/redirect.php?url=http:\/\/house.sina.com.cn\/scan\/2012-12-27\/1631426734.shtml?source=rss",
"pubDate" : "2012年12月27日",
"enterDate" : "384201:05:04",
"channelId" : "1461423726394598175",
"channelName" : "北京房产-打折优惠",
"channelNameSummary" : "北京房产-打折优惠",
"channelUrl" : "http:\/\/bj.house.sina.com.cn\/scan\/dazhe\/index.html",
"author" : "WWW.SINA.COM.CN",
"tags" : [],
"desc" : "新浪乐居讯(编辑 张茜)东亚・逸品阁(论坛&#160;相册&#160;户型&#160;样板间&#160;点评&#160;地图搜索)起价14100元\/平米，均价14600元\/平米，现新浪网独家推出东亚逸品阁团购，置业者参团即可享2万最高抵14万的购房优惠。目前1、4号楼在售，房源户型为115平米3居，2居户型均已....",
"emailed" : False,
"forwarded" : False,
"english" : False
}  , {
"index" : 12,
"articleIndex" : "9435",
"favor" :  False ,
     "read" : False,    
"title" : "昌平京基鹭府推联排及双拼别墅全款97折(图)",
"titleTip" : "昌平京基鹭府推联排及双拼别墅全款97折(图)",
"titleSummary" : "昌平京基鹭府推联排及双拼别墅全款97折(图)",
"descSummary" : "新浪乐居讯(实习编辑 孙立翔)京基・鹭府(论坛 相册 户型 样...",
"url" : "http:\/\/go.rss.sina.com.cn\/redirect.php?url=http:\/\/house.sina.com.cn\/scan\/2012-12-27\/1623426732.shtml?source=rss",
"pubDate" : "2012年12月27日",
"enterDate" : "384200:56:14",
"channelId" : "1461423726394598175",
"channelName" : "北京房产-打折优惠",
"channelNameSummary" : "北京房产-打折优惠",
"channelUrl" : "http:\/\/bj.house.sina.com.cn\/scan\/dazhe\/index.html",
"author" : "WWW.SINA.COM.CN",
"tags" : [],
"desc" : "&#160;&#160;&#160; 新浪乐居讯(实习编辑 孙立翔)京基・鹭府(论坛 相册 户型 样板间 点评 地图搜索)项在售410平米联排别墅和522平米双拼别墅，2000万元\/套起。项目将于2013年6月交房入住，内部情况为毛坯。70年大产权房，一次性付款可享97折，按揭98折优惠。 京基・鹭府以....",
"emailed" : False,
"forwarded" : False,
"english" : False
}  , {
"index" : 13,
"articleIndex" : "9434",
"favor" :  False ,
     "read" : False,    
"title" : "昌平玫瑰园推四期864平起独栋享全款96折(图)",
"titleTip" : "昌平玫瑰园推四期864平起独栋享全款96折(图)",
"titleSummary" : "昌平玫瑰园推四期864平起独栋享全款96折(图)",
"descSummary" : "新浪乐居讯(实习编辑 孙立翔)玫瑰园(论坛 相册 户型 样板...",
"url" : "http:\/\/go.rss.sina.com.cn\/redirect.php?url=http:\/\/house.sina.com.cn\/scan\/2012-12-27\/1612426727.shtml?source=rss",
"pubDate" : "2012年12月27日",
"enterDate" : "384200:45:48",
"channelId" : "1461423726394598175",
"channelName" : "北京房产-打折优惠",
"channelNameSummary" : "北京房产-打折优惠",
"channelUrl" : "http:\/\/bj.house.sina.com.cn\/scan\/dazhe\/index.html",
"author" : "WWW.SINA.COM.CN",
"tags" : [],
"desc" : "&#160;&#160;&#160; 新浪乐居讯(实习编辑 孙立翔)玫瑰园(论坛 相册 户型 样板间 点评 地图搜索)项目在售四期房源，户型为864-1500平米美式独栋别墅。 其中900-1500平米户型房源为4层独栋配有2-3个车库，1-2亩花园，私家电梯。864平米房源为7个错层，地上6层地下1层，2个车库，2个....",
"emailed" : False,
"forwarded" : False,
"english" : False
}  , {
"index" : 14,
"articleIndex" : "9433",
"favor" :  False ,
     "read" : False,    
"title" : "昌平纳帕澜郡推68-139平1-3居全款97折(图)",
"titleTip" : "昌平纳帕澜郡推68-139平1-3居全款97折(图)",
"titleSummary" : "昌平纳帕澜郡推68-139平1-3居全款97折(图)",
"descSummary" : "新浪乐居讯(实习编辑 孙立翔)纳帕澜郡(论坛 相册 户型 样板...",
"url" : "http:\/\/go.rss.sina.com.cn\/redirect.php?url=http:\/\/house.sina.com.cn\/scan\/2012-12-27\/1606426723.shtml?source=rss",
"pubDate" : "2012年12月27日",
"enterDate" : "384201:09:26",
"channelId" : "1461423726394598175",
"channelName" : "北京房产-打折优惠",
"channelNameSummary" : "北京房产-打折优惠",
"channelUrl" : "http:\/\/bj.house.sina.com.cn\/scan\/dazhe\/index.html",
"author" : "WWW.SINA.COM.CN",
"tags" : [],
"desc" : "&#160;&#160;&#160; 新浪乐居讯(实习编辑 孙立翔)纳帕澜郡(论坛 相册 户型 样板间 点评 地图搜索) 项目已于11月24日推出三期8#，房源为68平米南向一居、明厨明卫，89平米南北通透两居、100平米南北通透三居。折后均价14000-16000元\/平米，总价100万\/套起。项目二期6、7号楼于2012....",
"emailed" : False,
"forwarded" : False,
"english" : False
}  , {
"index" : 15,
"articleIndex" : "9432",
"favor" :  False ,
     "read" : False,    
"title" : "西城正源金融世家推182平起三四居60000(图)",
"titleTip" : "西城正源金融世家推182平起三四居60000(图)",
"titleSummary" : "西城正源金融世家推182平起三四居60000(图)",
"descSummary" : "新浪乐居讯(实习编辑 孙立翔)正源・金融世家(论坛 相册 户型...",
"url" : "http:\/\/go.rss.sina.com.cn\/redirect.php?url=http:\/\/house.sina.com.cn\/scan\/2012-12-27\/1502426704.shtml?source=rss",
"pubDate" : "2012年12月27日",
"enterDate" : "384201:06:08",
"channelId" : "1461423726394598175",
"channelName" : "北京房产-打折优惠",
"channelNameSummary" : "北京房产-打折优惠",
"channelUrl" : "http:\/\/bj.house.sina.com.cn\/scan\/dazhe\/index.html",
"author" : "WWW.SINA.COM.CN",
"tags" : [],
"desc" : "&#160;&#160;&#160; 新浪乐居讯(实习编辑 孙立翔)正源・金融世家(论坛&#160;相册&#160;户型&#160;样板间&#160;点评&#160;地图搜索)项目尾盘在售，在售房源户型为三居182平米，四居296平米，均价60000元\/平米，现与新浪电商独家合作，交10万元可享91折优惠购房。项目为精装修现房，....",
"emailed" : False,
"forwarded" : False,
"english" : False
}  , {
"index" : 16,
"articleIndex" : "9431",
"favor" :  False ,
     "read" : False,    
"title" : "北3环德胜君玺售91-260平2-4居均价40000(图)",
"titleTip" : "北3环德胜君玺售91-260平2-4居均价40000(图)",
"titleSummary" : "北3环德胜君玺售91-260平2-4居均价40000(图)",
"descSummary" : "新浪乐居讯(实习编辑 孙立翔)德胜君玺(论坛 相册 户型 样...",
"url" : "http:\/\/go.rss.sina.com.cn\/redirect.php?url=http:\/\/house.sina.com.cn\/scan\/2012-12-27\/1457426700.shtml?source=rss",
"pubDate" : "2012年12月27日",
"enterDate" : "384201:00:32",
"channelId" : "1461423726394598175",
"channelName" : "北京房产-打折优惠",
"channelNameSummary" : "北京房产-打折优惠",
"channelUrl" : "http:\/\/bj.house.sina.com.cn\/scan\/dazhe\/index.html",
"author" : "WWW.SINA.COM.CN",
"tags" : [],
"desc" : "&#160;&#160;&#160; 新浪乐居讯(实习编辑 孙立翔)德胜君玺(论坛 相册 户型 样板间 点评 地图搜索)项目目前在售，房源为顶层(17层)91、98平米两居；16层和19层113、140平米两居；143平米三居、213、230、260平米四居，精装修现房。均价40000元\/平米，目前购房一次性付款享受97折，....",
"emailed" : False,
"forwarded" : False,
"english" : False
}  , {
"index" : 17,
"articleIndex" : "9430",
"favor" :  False ,
     "read" : False,    
"title" : "天津盘龙谷古根海姆山庄多类别墅享9折(图)",
"titleTip" : "天津盘龙谷古根海姆山庄多类别墅享9折(图)",
"titleSummary" : "天津盘龙谷古根海姆山庄多类别墅享9折(图)",
"descSummary" : "新浪乐居讯(编辑 张跃)盘龙谷古根海姆山庄 (论坛 相册 户型...",
"url" : "http:\/\/go.rss.sina.com.cn\/redirect.php?url=http:\/\/house.sina.com.cn\/scan\/2012-12-27\/1431426684.shtml?source=rss",
"pubDate" : "2012年12月27日",
"enterDate" : "384201:05:02",
"channelId" : "1461423726394598175",
"channelName" : "北京房产-打折优惠",
"channelNameSummary" : "北京房产-打折优惠",
"channelUrl" : "http:\/\/bj.house.sina.com.cn\/scan\/dazhe\/index.html",
"author" : "WWW.SINA.COM.CN",
"tags" : [],
"desc" : "新浪乐居讯(编辑 张跃)盘龙谷古根海姆山庄 (论坛 相册 户型 样板间 点评 地图搜索)别墅在售，双拼在售300余平米户型，均价9800元\/平米左右，地上两层；联排仅剩10余套，200余平米户型，均价8000-9000元\/平米左右；独栋别墅在售425-506平米户型，均价13000-15000元\/平米。9折左....",
"emailed" : False,
"forwarded" : False,
"english" : False
}  , {
"index" : 18,
"articleIndex" : "9429",
"favor" :  False ,
     "read" : False,    
"title" : "天津天和林溪54-98平米1-2居现房享92折(图)",
"titleTip" : "天津天和林溪54-98平米1-2居现房享92折(图)",
"titleSummary" : "天津天和林溪54-98平米1-2居现房享92折(图)",
"descSummary" : "新浪乐居讯(编辑 张跃)天和林溪(论坛 相册 户型 样板间 点评...",
"url" : "http:\/\/go.rss.sina.com.cn\/redirect.php?url=http:\/\/house.sina.com.cn\/scan\/2012-12-27\/1425426680.shtml?source=rss",
"pubDate" : "2012年12月27日",
"enterDate" : "384200:58:45",
"channelId" : "1461423726394598175",
"channelName" : "北京房产-打折优惠",
"channelNameSummary" : "北京房产-打折优惠",
"channelUrl" : "http:\/\/bj.house.sina.com.cn\/scan\/dazhe\/index.html",
"author" : "WWW.SINA.COM.CN",
"tags" : [],
"desc" : "新浪乐居讯(编辑 张跃)天和林溪(论坛 相册 户型 样板间 点评 地图搜索)现有博园1-7号楼、雅园1、4、6、7、8、9号楼在售。现房已入住，户型面积区间为54-98平米的一居、两居。产品为70年大产权，均价6900元\/平米，全款92折，贷款93折。 天和林溪周边教育资源优越：天津....",
"emailed" : False,
"forwarded" : False,
"english" : False
}  , {
"index" : 19,
"articleIndex" : "9428",
"favor" :  False ,
     "read" : False,    
"title" : "丰台中堂紫熙台推101-341平3-4居全款95折(图)",
"titleTip" : "丰台中堂紫熙台推101-341平3-4居全款95折(图)",
"titleSummary" : "丰台中堂紫熙台推101-341平3-4居全款95折(图)",
"descSummary" : "新浪乐居讯(编辑 王娇佳)中堂・紫熙台(论坛 相册 户型 样...",
"url" : "http:\/\/go.rss.sina.com.cn\/redirect.php?url=http:\/\/house.sina.com.cn\/scan\/2012-12-27\/1354426669.shtml?source=rss",
"pubDate" : "2012年12月27日",
"enterDate" : "384200:58:36",
"channelId" : "1461423726394598175",
"channelName" : "北京房产-打折优惠",
"channelNameSummary" : "北京房产-打折优惠",
"channelUrl" : "http:\/\/bj.house.sina.com.cn\/scan\/dazhe\/index.html",
"author" : "WWW.SINA.COM.CN",
"tags" : [],
"desc" : "新浪乐居讯(编辑 王娇佳)中堂・紫熙台(论坛 相册 户型 样板间 点评 地图搜索)项目在售，房源为四期1、2、8号楼，精装三居、四居，户型为101、133、151、162、177、227、230平米三居；117、157、256、341平米四居。均价35000元\/平米，楼座总高为22层，板塔结合。均价35000元\/平....",
"emailed" : False,
"forwarded" : False,
"english" : False
} ]
}
