{
"mode" : {"viewTitle" : 1,   "viewNew" : 0,  "pageIndex" : 2 },
 "channel" : {"id" : "1461423726394598175", "booked" : False, "subNumber" : 1, "name" : "北京房产-打折优惠", "url" : "http:\/\/bj.house.sina.com.cn\/scan\/dazhe\/index.html", "feed" : "http:\/\/rss.sina.com.cn\/bjhouse\/scan\/dazhe.xml", "author" : "WWW.SINA.COM.CN", "desc" : "北京房产-打折优惠", "imageUrl" : "http:\/\/www.sinaimg.cn\/house\/sina_fc.gif", "postPerWeek" : "0", "lastCrawTime" : "2013年10月24日 (6天前)", "crawDateTime" : "2013年1月10日", "lastHttpCode" : "304"}, "page" : {
"startIndex" : 20,
"totalCount" : 5000,
"pageIndex" : 2,
"lastPage" : 250,
"pageSize" : 20,
"english" :  False },
 "unreadNum" : 0, "shotIndex" : -1,
"articles" : [
{
"index" : 0,
"articleIndex" : "9427",
"favor" :  False ,
     "read" : False,    
"title" : "官厅拉斐水岸推284-600平别墅全款94折(图)",
"titleTip" : "官厅拉斐水岸推284-600平别墅全款94折(图)",
"titleSummary" : "官厅拉斐水岸推284-600平别墅全款94折(图)",
"descSummary" : "新浪乐居讯(编辑 王娇佳)拉斐水岸(论坛 相册 户型 样板间 点...",
"url" : "http:\/\/go.rss.sina.com.cn\/redirect.php?url=http:\/\/house.sina.com.cn\/scan\/2012-12-27\/1103426647.shtml?source=rss",
"pubDate" : "2012年12月27日",
"enterDate" : "384201:07:14",
"channelId" : "1461423726394598175",
"channelName" : "北京房产-打折优惠",
"channelNameSummary" : "北京房产-打折优惠",
"channelUrl" : "http:\/\/bj.house.sina.com.cn\/scan\/dazhe\/index.html",
"author" : "WWW.SINA.COM.CN",
"tags" : [],
"desc" : "新浪乐居讯(编辑 王娇佳)拉斐水岸(论坛 相册 户型 样板间 点评 地图搜索)项目目前在售，项目一期独连体别墅户 型面积为284-600平方米，独栋别墅总价300万\/套起，双拼别墅总价240万\/套起，一次性付款享94折，分期付款享99折。 物业费：联排2.65元\/平米\/月，双拼2.9元\/平米\/月，....",
"emailed" : False,
"forwarded" : False,
"english" : False
}  , {
"index" : 1,
"articleIndex" : "9426",
"favor" :  False ,
     "read" : False,    
"title" : "海淀塞纳维拉永定华庭1-3居精装现房97折(图)",
"titleTip" : "海淀塞纳维拉永定华庭1-3居精装现房97折(图)",
"titleSummary" : "海淀塞纳维拉永定华庭1-3居精装现房97折(图)",
"descSummary" : "新浪乐居讯(编辑 张茜)塞纳维拉・永定华庭(论坛 相册 户型...",
"url" : "http:\/\/go.rss.sina.com.cn\/redirect.php?url=http:\/\/house.sina.com.cn\/scan\/2012-12-27\/1048426639.shtml?source=rss",
"pubDate" : "2012年12月27日",
"enterDate" : "384200:53:05",
"channelId" : "1461423726394598175",
"channelName" : "北京房产-打折优惠",
"channelNameSummary" : "北京房产-打折优惠",
"channelUrl" : "http:\/\/bj.house.sina.com.cn\/scan\/dazhe\/index.html",
"author" : "WWW.SINA.COM.CN",
"tags" : [],
"desc" : "新浪乐居讯(编辑 张茜)塞纳维拉・永定华庭(论坛&#160;相册&#160;户型&#160;样板间&#160;点评&#160;地图搜索) 项目1-3居精装现房即买即住，一居均价36000-38000元\/平米，两居均价38000-39000元\/平米，三居均价43000元\/平米，精装修标准4500元\/平米，全款97折，贷款99折。在售楼....",
"emailed" : False,
"forwarded" : False,
"english" : False
}  , {
"index" : 2,
"articleIndex" : "9425",
"favor" :  False ,
     "read" : False,    
"title" : "香河公元壹推70-130平1-3居全款98折(图)",
"titleTip" : "香河公元壹推70-130平1-3居全款98折(图)",
"titleSummary" : "香河公元壹推70-130平1-3居全款98折(图)",
"descSummary" : "新浪乐居讯(编辑 王娇佳)公元壹(论坛 相册 户型 样板间 点评 地...",
"url" : "http:\/\/go.rss.sina.com.cn\/redirect.php?url=http:\/\/house.sina.com.cn\/scan\/2012-12-27\/0151426569.shtml?source=rss",
"pubDate" : "2012年12月27日",
"enterDate" : "384199:01:46",
"channelId" : "1461423726394598175",
"channelName" : "北京房产-打折优惠",
"channelNameSummary" : "北京房产-打折优惠",
"channelUrl" : "http:\/\/bj.house.sina.com.cn\/scan\/dazhe\/index.html",
"author" : "WWW.SINA.COM.CN",
"tags" : [],
"desc" : "新浪乐居讯(编辑 王娇佳)公元壹(论坛&#160;相册&#160;户型&#160;样板间&#160;点评&#160;地图搜索)项目在售，户型为一居70平米；二居90-100平米；三居100-130平米，价格5000-6000元\/平米，全款98折，毛坯交房，2012年12月入住，70年产权。 公元壹位于五一路与新开大....",
"emailed" : False,
"forwarded" : False,
"english" : False
}  , {
"index" : 3,
"articleIndex" : "9424",
"favor" :  False ,
     "read" : False,    
"title" : "香河共青社推59-85平1-2居现房享97折(图)",
"titleTip" : "香河共青社推59-85平1-2居现房享97折(图)",
"titleSummary" : "香河共青社推59-85平1-2居现房享97折(图)",
"descSummary" : "新浪乐居讯(编辑 王娇佳)共青社(论坛 相册 户型 样板间 点评 地...",
"url" : "http:\/\/go.rss.sina.com.cn\/redirect.php?url=http:\/\/house.sina.com.cn\/scan\/2012-12-27\/0144426568.shtml?source=rss",
"pubDate" : "2012年12月27日",
"enterDate" : "384198:54:06",
"channelId" : "1461423726394598175",
"channelName" : "北京房产-打折优惠",
"channelNameSummary" : "北京房产-打折优惠",
"channelUrl" : "http:\/\/bj.house.sina.com.cn\/scan\/dazhe\/index.html",
"author" : "WWW.SINA.COM.CN",
"tags" : [],
"desc" : "新浪乐居讯(编辑 王娇佳)共青社(论坛&#160;相册&#160;户型&#160;样板间&#160;点评&#160;地图搜索)项目在售，房源为7号楼，户型面积为59平米一居；77-85平米两居，均价6430元\/平米，全款可享97折优惠，贷款98折。 共青社项目占地26833平方米，总建筑面积127642平方米。....",
"emailed" : False,
"forwarded" : False,
"english" : False
}  , {
"index" : 4,
"articleIndex" : "9423",
"favor" :  False ,
     "read" : False,    
"title" : "固安国泉城推90-114平2-3居享97折(图)",
"titleTip" : "固安国泉城推90-114平2-3居享97折(图)",
"titleSummary" : "固安国泉城推90-114平2-3居享97折(图)",
"descSummary" : "新浪乐居讯(编辑 王娇佳)国泉城(论坛 相册 户型 样板间 点评 地图...",
"url" : "http:\/\/go.rss.sina.com.cn\/redirect.php?url=http:\/\/house.sina.com.cn\/scan\/2012-12-27\/0131426566.shtml?source=rss",
"pubDate" : "2012年12月27日",
"enterDate" : "384198:41:36",
"channelId" : "1461423726394598175",
"channelName" : "北京房产-打折优惠",
"channelNameSummary" : "北京房产-打折优惠",
"channelUrl" : "http:\/\/bj.house.sina.com.cn\/scan\/dazhe\/index.html",
"author" : "WWW.SINA.COM.CN",
"tags" : [],
"desc" : "新浪乐居讯(编辑 王娇佳)国泉城(论坛&#160;相册&#160;户型&#160;样板间&#160;点评&#160;地图搜索)项目在售一期2号楼，房源户型为90平米两居、114平米三居，起价5500元\/平米，一次性付款享97折，贷款99折优惠。项目在售房源均为17层板楼，一梯两户，毛坯交房，70年产权。 ....",
"emailed" : False,
"forwarded" : False,
"english" : False
}  , {
"index" : 5,
"articleIndex" : "9422",
"favor" :  False ,
     "read" : False,    
"title" : "北戴河海滨会馆售300平起大户型现房98折(图)",
"titleTip" : "北戴河海滨会馆售300平起大户型现房98折(图)",
"titleSummary" : "北戴河海滨会馆售300平起大户型现房98折(图)",
"descSummary" : "新浪乐居讯(编辑 王娇佳)海滨会馆(论坛 相册 户型 样板间...",
"url" : "http:\/\/go.rss.sina.com.cn\/redirect.php?url=http:\/\/house.sina.com.cn\/scan\/2012-12-27\/0126426565.shtml?source=rss",
"pubDate" : "2012年12月27日",
"enterDate" : "384198:36:04",
"channelId" : "1461423726394598175",
"channelName" : "北京房产-打折优惠",
"channelNameSummary" : "北京房产-打折优惠",
"channelUrl" : "http:\/\/bj.house.sina.com.cn\/scan\/dazhe\/index.html",
"author" : "WWW.SINA.COM.CN",
"tags" : [],
"desc" : "新浪乐居讯(编辑 王娇佳)海滨会馆(论坛&#160;相册&#160;户型&#160;样板间&#160;点评&#160;地图搜索)项目在售房源均为独门独栋法式别墅，户型面积为300-922平米，售楼处已开始接受咨询。均价30000-35000元\/平米，全款可享98折优惠，贷款99折，送350平米以上花园，毛坯交房。....",
"emailed" : False,
"forwarded" : False,
"english" : False
}  , {
"index" : 6,
"articleIndex" : "9421",
"favor" :  False ,
     "read" : False,    
"title" : "京东大运河孔雀城推花园洋房及别墅全款95折(图)",
"titleTip" : "京东大运河孔雀城推花园洋房及别墅全款95折(图)",
"titleSummary" : "京东大运河孔雀城推花园洋房及别墅全款95折(图)",
"descSummary" : "新浪乐居讯(编辑 王娇佳)大运河・孔雀城(论坛 相册 户型...",
"url" : "http:\/\/go.rss.sina.com.cn\/redirect.php?url=http:\/\/house.sina.com.cn\/scan\/2012-12-27\/0051426559.shtml?source=rss",
"pubDate" : "2012年12月27日",
"enterDate" : "384198:01:25",
"channelId" : "1461423726394598175",
"channelName" : "北京房产-打折优惠",
"channelNameSummary" : "北京房产-打折优惠",
"channelUrl" : "http:\/\/bj.house.sina.com.cn\/scan\/dazhe\/index.html",
"author" : "WWW.SINA.COM.CN",
"tags" : [],
"desc" : "新浪乐居讯(编辑 王娇佳)大运河・孔雀城(论坛 相册 户型 样板间 点评 地图搜索)项目在售4期，联排别墅剩4栋位置较好，均价9000元\/平米；8层花园洋房户型面积为130、170、190平米，平层和跃层均有。均价8000元\/平米，全款95折，贷款98折。联排别墅240-300平米，另有部分特价房....",
"emailed" : False,
"forwarded" : False,
"english" : False
}  , {
"index" : 7,
"articleIndex" : "9420",
"favor" :  False ,
     "read" : False,    
"title" : "廊坊东方美庭跃层及精装1-2居全款97折(图)",
"titleTip" : "廊坊东方美庭跃层及精装1-2居全款97折(图)",
"titleSummary" : "廊坊东方美庭跃层及精装1-2居全款97折(图)",
"descSummary" : "新浪乐居讯(编辑 王娇佳)东方美庭(论坛 相册 户型 样板间 点...",
"url" : "http:\/\/go.rss.sina.com.cn\/redirect.php?url=http:\/\/house.sina.com.cn\/scan\/2012-12-27\/0044426558.shtml?source=rss",
"pubDate" : "2012年12月27日",
"enterDate" : "384197:53:52",
"channelId" : "1461423726394598175",
"channelName" : "北京房产-打折优惠",
"channelNameSummary" : "北京房产-打折优惠",
"channelUrl" : "http:\/\/bj.house.sina.com.cn\/scan\/dazhe\/index.html",
"author" : "WWW.SINA.COM.CN",
"tags" : [],
"desc" : "新浪乐居讯(编辑 王娇佳)东方美庭(论坛 相册 户型 样板间 点评 地图搜索) 项目在售一期1、2、3号楼，均价4000元\/平米，1-5层为4000以内元\/平米，以9层为界限，每高一层贵40元，每低一层降40 元。全款97折，贷款98折，1居62.24平米，2居94、95平米，跃层A户型180平米，跃层B户....",
"emailed" : False,
"forwarded" : False,
"english" : False
}  , {
"index" : 8,
"articleIndex" : "9419",
"favor" :  False ,
     "read" : False,    
"title" : "怀来观澜墅售均价7800全款95折多种户型(图)",
"titleTip" : "怀来观澜墅售均价7800全款95折多种户型(图)",
"titleSummary" : "怀来观澜墅售均价7800全款95折多种户型(图)",
"descSummary" : "新浪乐居讯(编辑 王娇佳)观澜墅(论坛 相册 户型 样板间 点评...",
"url" : "http:\/\/go.rss.sina.com.cn\/redirect.php?url=http:\/\/house.sina.com.cn\/scan\/2012-12-27\/0024426555.shtml?source=rss",
"pubDate" : "2012年12月27日",
"enterDate" : "384197:34:21",
"channelId" : "1461423726394598175",
"channelName" : "北京房产-打折优惠",
"channelNameSummary" : "北京房产-打折优惠",
"channelUrl" : "http:\/\/bj.house.sina.com.cn\/scan\/dazhe\/index.html",
"author" : "WWW.SINA.COM.CN",
"tags" : [],
"desc" : "新浪乐居讯(编辑 王娇佳)观澜墅(论坛&#160;相册&#160;户型&#160;样板间&#160;点评&#160;地图搜索)项目在售在售1.1、1.2期花园洋房、叠拼和双拼别墅，洋房109平米两居、132平米三居；双拼238平米等；叠拼124-178平米等；独栋435平米未开盘。均价7800元\/平米，精装修，全款享95....",
"emailed" : False,
"forwarded" : False,
"english" : False
}  , {
"index" : 9,
"articleIndex" : "9418",
"favor" :  False ,
     "read" : False,    
"title" : "固安荷兰印象推78-110平2-3居享93折(图)",
"titleTip" : "固安荷兰印象推78-110平2-3居享93折(图)",
"titleSummary" : "固安荷兰印象推78-110平2-3居享93折(图)",
"descSummary" : "新浪乐居讯(编辑 王娇佳)荷兰印象(论坛 相册 户型 样板间 点评...",
"url" : "http:\/\/go.rss.sina.com.cn\/redirect.php?url=http:\/\/house.sina.com.cn\/scan\/2012-12-27\/0007426554.shtml?source=rss",
"pubDate" : "2012年12月27日",
"enterDate" : "384197:17:04",
"channelId" : "1461423726394598175",
"channelName" : "北京房产-打折优惠",
"channelNameSummary" : "北京房产-打折优惠",
"channelUrl" : "http:\/\/bj.house.sina.com.cn\/scan\/dazhe\/index.html",
"author" : "WWW.SINA.COM.CN",
"tags" : [],
"desc" : "新浪乐居讯(编辑 王娇佳)荷兰印象(论坛&#160;相册&#160;户型&#160;样板间&#160;点评&#160;地图搜索)项目在售二期2栋楼，10#，11#，主推78-87平米两居，105-110平米三居，折后均价5500元\/平米。全款可享93折，贷款95折优惠，项目为70年产权，毛坯准现房，2013年交房。 ....",
"emailed" : False,
"forwarded" : False,
"english" : False
}  , {
"index" : 10,
"articleIndex" : "9417",
"favor" :  False ,
     "read" : False,    
"title" : "涿州汇元新天地推60-120平1-3居享96折(图)",
"titleTip" : "涿州汇元新天地推60-120平1-3居享96折(图)",
"titleSummary" : "涿州汇元新天地推60-120平1-3居享96折(图)",
"descSummary" : "新浪乐居讯(编辑 王娇佳)汇元新天地(论坛 相册 户型 样板间...",
"url" : "http:\/\/go.rss.sina.com.cn\/redirect.php?url=http:\/\/house.sina.com.cn\/scan\/2012-12-27\/0002426553.shtml?source=rss",
"pubDate" : "2012年12月27日",
"enterDate" : "384197:11:52",
"channelId" : "1461423726394598175",
"channelName" : "北京房产-打折优惠",
"channelNameSummary" : "北京房产-打折优惠",
"channelUrl" : "http:\/\/bj.house.sina.com.cn\/scan\/dazhe\/index.html",
"author" : "WWW.SINA.COM.CN",
"tags" : [],
"desc" : "新浪乐居讯(编辑 王娇佳)汇元新天地(论坛&#160;相册&#160;户型&#160;样板间&#160;点评&#160;地图搜索)项目在售，均价5800元\/平米，户型为60-120平米1-3居，一次性付款享96折优惠，精装修。项目为70年产权，2013年5月交房。 汇元新天地项 目由10栋18层板塔楼组成，2....",
"emailed" : False,
"forwarded" : False,
"english" : False
}  , {
"index" : 11,
"articleIndex" : "9416",
"favor" :  False ,
     "read" : False,    
"title" : "涿州金阳瑞景推63-120平1-3居全款88折(图)",
"titleTip" : "涿州金阳瑞景推63-120平1-3居全款88折(图)",
"titleSummary" : "涿州金阳瑞景推63-120平1-3居全款88折(图)",
"descSummary" : "新浪乐居讯(编辑 王娇佳)金阳瑞景(论坛 相册 户型 样板间 点...",
"url" : "http:\/\/go.rss.sina.com.cn\/redirect.php?url=http:\/\/house.sina.com.cn\/scan\/2012-12-26\/2356426552.shtml?source=rss",
"pubDate" : "2012年12月26日",
"enterDate" : "384197:06:42",
"channelId" : "1461423726394598175",
"channelName" : "北京房产-打折优惠",
"channelNameSummary" : "北京房产-打折优惠",
"channelUrl" : "http:\/\/bj.house.sina.com.cn\/scan\/dazhe\/index.html",
"author" : "WWW.SINA.COM.CN",
"tags" : [],
"desc" : "新浪乐居讯(编辑 王娇佳)金阳瑞景(论坛 相册 户型 样板间 点评 地图搜索)项目仅剩C#，D#在售。其中C#为63平米一居，D#主要为76-104平米2居，120平米三居。房源总体量为 800户，折后均价5500元\/平米，全款可享8.8折，贷款9折优惠。 金阳瑞景由保定市金阳房地产开 发有限....",
"emailed" : False,
"forwarded" : False,
"english" : False
}  , {
"index" : 12,
"articleIndex" : "9415",
"favor" :  False ,
     "read" : False,    
"title" : "固安郦湖北岸86-91平2-3居全款94折(图)",
"titleTip" : "固安郦湖北岸86-91平2-3居全款94折(图)",
"titleSummary" : "固安郦湖北岸86-91平2-3居全款94折(图)",
"descSummary" : "新浪乐居讯(编辑 王娇佳)郦湖北岸(论坛 相册 户型 样板间 点评 地...",
"url" : "http:\/\/go.rss.sina.com.cn\/redirect.php?url=http:\/\/house.sina.com.cn\/scan\/2012-12-26\/2325426550.shtml?source=rss",
"pubDate" : "2012年12月26日",
"enterDate" : "384196:35:47",
"channelId" : "1461423726394598175",
"channelName" : "北京房产-打折优惠",
"channelNameSummary" : "北京房产-打折优惠",
"channelUrl" : "http:\/\/bj.house.sina.com.cn\/scan\/dazhe\/index.html",
"author" : "WWW.SINA.COM.CN",
"tags" : [],
"desc" : "新浪乐居讯(编辑 王娇佳)郦湖北岸(论坛 相册 户型 样板间 点评 地图搜索)郦湖北岸项目16号楼已售磬，目前11、12号楼已封顶，15号楼建至6层，9月22日开盘，户型为两居86-91平米，三居122平米。均价6200元\/平米，全款94折，贷款97折。 郦湖北岸以得天独厚优势和不可复制....",
"emailed" : False,
"forwarded" : False,
"english" : False
}  , {
"index" : 13,
"articleIndex" : "9414",
"favor" :  False ,
     "read" : False,    
"title" : "海南博鳌香槟郡推出特价房7777元(图)",
"titleTip" : "海南博鳌香槟郡推出特价房7777元(图)",
"titleSummary" : "海南博鳌香槟郡推出特价房7777元(图)",
"descSummary" : "新浪乐居讯(实习编辑 孙立翔)博鳌香槟郡(论坛 相册 户型 样板间 点...",
"url" : "http:\/\/go.rss.sina.com.cn\/redirect.php?url=http:\/\/house.sina.com.cn\/scan\/2012-12-26\/1645426536.shtml?source=rss",
"pubDate" : "2012年12月26日",
"enterDate" : "384189:55:00",
"channelId" : "1461423726394598175",
"channelName" : "北京房产-打折优惠",
"channelNameSummary" : "北京房产-打折优惠",
"channelUrl" : "http:\/\/bj.house.sina.com.cn\/scan\/dazhe\/index.html",
"author" : "WWW.SINA.COM.CN",
"tags" : [],
"desc" : "&#160;&#160;&#160; 新浪乐居讯(实习编辑 孙立翔)博鳌香槟郡(论坛 相册 户型 样板间 点评 地图搜索)所有均已封顶，外立面也已经基本做好。公寓起价12000元\/平米，均价16000元\/平米，2号楼现房入住。花园洋房起价22000元\/平米，一房一价。联排别墅起价33000元\/平米。推特惠房源，起....",
"emailed" : False,
"forwarded" : False,
"english" : False
}  , {
"index" : 14,
"articleIndex" : "9413",
"favor" :  False ,
     "read" : False,    
"title" : "海南五指山水林溪精装板式现房全款98折(图)",
"titleTip" : "海南五指山水林溪精装板式现房全款98折(图)",
"titleSummary" : "海南五指山水林溪精装板式现房全款98折(图)",
"descSummary" : "新浪乐居讯(实习编辑 孙立翔)五指山水林溪(论坛 相册 户型 ...",
"url" : "http:\/\/go.rss.sina.com.cn\/redirect.php?url=http:\/\/house.sina.com.cn\/scan\/2012-12-26\/1634426535.shtml?source=rss",
"pubDate" : "2012年12月26日",
"enterDate" : "384189:44:46",
"channelId" : "1461423726394598175",
"channelName" : "北京房产-打折优惠",
"channelNameSummary" : "北京房产-打折优惠",
"channelUrl" : "http:\/\/bj.house.sina.com.cn\/scan\/dazhe\/index.html",
"author" : "WWW.SINA.COM.CN",
"tags" : [],
"desc" : "&#160;&#160;&#160; 新浪乐居讯(实习编辑 孙立翔)五指山水林溪(论坛 相册 户型 样板间 点评 地图搜索)目前豪华精装板式现房在售，豪装产品以人性化、舒适性、品质性塑造优质舒适生活，赠送三星品牌家电，实木柚木家俱，科勒全系卫浴等精品产品，均价10500元\/平米。另有高档精装修....",
"emailed" : False,
"forwarded" : False,
"english" : False
}  , {
"index" : 15,
"articleIndex" : "9412",
"favor" :  False ,
     "read" : False,    
"title" : "天津京津新城精装现房公寓别墅全款95折(图)",
"titleTip" : "天津京津新城精装现房公寓别墅全款95折(图)",
"titleSummary" : "天津京津新城精装现房公寓别墅全款95折(图)",
"descSummary" : "新浪乐居讯(实习编辑 孙立翔)京津新城(论坛 相册 户型 样板...",
"url" : "http:\/\/go.rss.sina.com.cn\/redirect.php?url=http:\/\/house.sina.com.cn\/scan\/2012-12-26\/1626426532.shtml?source=rss",
"pubDate" : "2012年12月26日",
"enterDate" : "384189:36:17",
"channelId" : "1461423726394598175",
"channelName" : "北京房产-打折优惠",
"channelNameSummary" : "北京房产-打折优惠",
"channelUrl" : "http:\/\/bj.house.sina.com.cn\/scan\/dazhe\/index.html",
"author" : "WWW.SINA.COM.CN",
"tags" : [],
"desc" : "&#160;&#160;&#160; 新浪乐居讯(实习编辑 孙立翔)京津新城(论坛&#160;相册&#160;户型&#160;样板间&#160;点评&#160;地图搜索)项目55-58平米小户型43万起，精装修均价7500元\/平米，预计2012年9月初交房入住。联排别墅主推190-200平米户型，中间户单套140-150万元\/套，毛坯现房。目前....",
"emailed" : False,
"forwarded" : False,
"english" : False
}  , {
"index" : 16,
"articleIndex" : "9411",
"favor" :  False ,
     "read" : False,    
"title" : "天津恒大山水城元旦推特价房送精装修(图)",
"titleTip" : "天津恒大山水城元旦推特价房送精装修(图)",
"titleSummary" : "天津恒大山水城元旦推特价房送精装修(图)",
"descSummary" : "新浪乐居讯(编辑 张跃)恒大山水城 (论坛 相册 户型 样板间 点评...",
"url" : "http:\/\/go.rss.sina.com.cn\/redirect.php?url=http:\/\/house.sina.com.cn\/scan\/2012-12-25\/1717426424.shtml?source=rss",
"pubDate" : "2012年12月25日",
"enterDate" : "384200:53:19",
"channelId" : "1461423726394598175",
"channelName" : "北京房产-打折优惠",
"channelNameSummary" : "北京房产-打折优惠",
"channelUrl" : "http:\/\/bj.house.sina.com.cn\/scan\/dazhe\/index.html",
"author" : "WWW.SINA.COM.CN",
"tags" : [],
"desc" : "新浪乐居讯(编辑 张跃)恒大山水城 (论坛 相册 户型 样板间 点评 地图搜索)迎新年贺元旦大让利，恒大山水城本周特推5套秒杀房源，欧陆经典瞰湖洋房4200元\/平起，赠1800元\/平9A精装。项目牵手北大学园幼儿园，构建15年全程菁英教育体系，业主子女享一站式直升特权。同时，项目还....",
"emailed" : False,
"forwarded" : False,
"english" : False
}  , {
"index" : 17,
"articleIndex" : "9410",
"favor" :  False ,
     "read" : False,    
"title" : "天津领秀新天地2-3居通透房特价5600元(图)",
"titleTip" : "天津领秀新天地2-3居通透房特价5600元(图)",
"titleSummary" : "天津领秀新天地2-3居通透房特价5600元(图)",
"descSummary" : "新浪乐居讯(编辑 张跃)领秀新天地(论坛 相册 户型 样板间 点...",
"url" : "http:\/\/go.rss.sina.com.cn\/redirect.php?url=http:\/\/house.sina.com.cn\/scan\/2012-12-25\/1209426403.shtml?source=rss",
"pubDate" : "2012年12月25日",
"enterDate" : "384200:46:40",
"channelId" : "1461423726394598175",
"channelName" : "北京房产-打折优惠",
"channelNameSummary" : "北京房产-打折优惠",
"channelUrl" : "http:\/\/bj.house.sina.com.cn\/scan\/dazhe\/index.html",
"author" : "WWW.SINA.COM.CN",
"tags" : [],
"desc" : "新浪乐居讯(编辑 张跃)领秀新天地(论坛 相册 户型 样板间 点评 地图搜索)项目是宝坻第一家四星级精装修酒店式公寓，在售24、25、26号楼，均价6000元\/平米，5500元\/平米起价，最高6500元\/平米，主打户型80-120平米两室和三室的南北通透户型，先推出全款特价房。三期共7栋，其中....",
"emailed" : False,
"forwarded" : False,
"english" : False
}  , {
"index" : 18,
"articleIndex" : "9409",
"favor" :  False ,
     "read" : False,    
"title" : "昌平远洋傲北推450平起别墅全款95折(图)",
"titleTip" : "昌平远洋傲北推450平起别墅全款95折(图)",
"titleSummary" : "昌平远洋傲北推450平起别墅全款95折(图)",
"descSummary" : "新浪乐居讯(编辑 刘楠)远洋・傲北(巴摩梭罗)(论坛 相册 户型 样...",
"url" : "http:\/\/go.rss.sina.com.cn\/redirect.php?url=http:\/\/house.sina.com.cn\/scan\/2012-12-24\/1058426306.shtml?source=rss",
"pubDate" : "2012年12月24日",
"enterDate" : "384201:09:47",
"channelId" : "1461423726394598175",
"channelName" : "北京房产-打折优惠",
"channelNameSummary" : "北京房产-打折优惠",
"channelUrl" : "http:\/\/bj.house.sina.com.cn\/scan\/dazhe\/index.html",
"author" : "WWW.SINA.COM.CN",
"tags" : [],
"desc" : "新浪乐居讯(编辑 刘楠)远洋・傲北(巴摩梭罗)(论坛 相册 户型 样板间 点评 地图搜索)项目在售，房源为一期双拼别墅，户型面积为450-500平米；二期主推330-500平联排别墅，起价为19000元\/平米，物业费7.5元\/平米\/月。项目为毛坯交房，全款可享95折优惠。 远洋・傲北(巴摩....",
"emailed" : False,
"forwarded" : False,
"english" : False
}  , {
"index" : 19,
"articleIndex" : "9408",
"favor" :  False ,
     "read" : False,    
"title" : "固安郦湖北岸2-3居均价6200全款94折(图)",
"titleTip" : "固安郦湖北岸2-3居均价6200全款94折(图)",
"titleSummary" : "固安郦湖北岸2-3居均价6200全款94折(图)",
"descSummary" : "新浪乐居讯(编辑 张茜)郦湖北岸(论坛 相册 户型 样板间 点评 地...",
"url" : "http:\/\/go.rss.sina.com.cn\/redirect.php?url=http:\/\/house.sina.com.cn\/scan\/2012-12-24\/1050426304.shtml?source=rss",
"pubDate" : "2012年12月24日",
"enterDate" : "384201:02:05",
"channelId" : "1461423726394598175",
"channelName" : "北京房产-打折优惠",
"channelNameSummary" : "北京房产-打折优惠",
"channelUrl" : "http:\/\/bj.house.sina.com.cn\/scan\/dazhe\/index.html",
"author" : "WWW.SINA.COM.CN",
"tags" : [],
"desc" : "新浪乐居讯(编辑 张茜)郦湖北岸(论坛 相册 户型 样板间 点评 地图搜索)郦湖北岸项目16号楼已售磬，目前11、12号楼已封顶，15号楼建至6层，9月22日开盘，户型为两居86-91平米，三居122平米。均价6200元\/平米，全款94折，贷款97折。 郦湖北岸以得天独厚优势和不可复制价....",
"emailed" : False,
"forwarded" : False,
"english" : False
} ]
}
