{
"mode" : {"viewTitle" : 1,   "viewNew" : 0,  "pageIndex" : 1 },
 "channel" : {"id" : "3201254140354233683", "booked" : False, "subNumber" : 1, "name" : "港澳台新闻-新浪新闻", "url" : "http:\/\/news.sina.com.cn\/temp\/809\/2012\/0426\/13.shtml", "feed" : "http:\/\/rss.sina.com.cn\/news\/china\/hktaiwan15.xml", "author" : "WWW.SINA.COM.CN", "desc" : "港澳台新闻", "imageUrl" : "http:\/\/www.sinaimg.cn\/home\/deco\/2009\/0330\/logo_home_news.gif", "postPerWeek" : "0", "lastCrawTime" : "17:07:45", "crawDateTime" : "17:07:45", "lastHttpCode" : "200"}, "page" : {
"startIndex" : 0,
"totalCount" : 5000,
"pageIndex" : 1,
"lastPage" : 250,
"pageSize" : 20,
"english" :  False },
 "unreadNum" : 0, "shotIndex" : -1,
"articles" : [
{
"index" : 0,
"articleIndex" : "18587",
"favor" :  False ,
     "read" : False,    
"title" : "香港廉政公署：七个因素保证廉署有效反贪",
"titleTip" : "香港廉政公署：七个因素保证廉署有效反贪",
"titleSummary" : "香港廉政公署：七个因素保证廉署有效反贪",
"descSummary" : "\u201C不存在选择性执法， 这是廉署公信力之所在\u201D 香港廉政公...",
"url" : "http:\/\/go.rss.sina.com.cn\/redirect.php?url=http:\/\/news.sina.com.cn\/c\/2013-10-30\/151428573232.shtml",
"pubDate" : "15:14:20",
"enterDate" : "384200:55:46",
"channelId" : "3201254140354233683",
"channelName" : "港澳台新闻-新浪新闻",
"channelNameSummary" : "港澳台新闻-新浪新闻",
"channelUrl" : "http:\/\/news.sina.com.cn\/temp\/809\/2012\/0426\/13.shtml",
"author" : "WWW.SINA.COM.CN",
"tags" : [],
"desc" : "\u201C不存在选择性执法， 这是廉署公信力之所在\u201D 香港廉政公署答东方早报七问：七个因素保证廉署有效反贪 香港经廉署30多年的努力，由贿赂成风的社会，蜕变成世界数一数二的廉洁之都。 只要有贪污投诉，有足够数据可追查，一定要调查跟进，更不容任何....",
"emailed" : False,
"forwarded" : False,
"english" : False
}  , {
"index" : 1,
"articleIndex" : "18586",
"favor" :  False ,
     "read" : False,    
"title" : "国台办:台独图谋搞乱香港不得人心不可能得逞",
"titleTip" : "国台办:台独图谋搞乱香港不得人心不可能得逞",
"titleSummary" : "国台办:台独图谋搞乱香港不得人心不可能得逞",
"descSummary" : "新华网北京10月30日电 (记者赵博 李寒芳)国务院台办发言...",
"url" : "http:\/\/go.rss.sina.com.cn\/redirect.php?url=http:\/\/news.sina.com.cn\/c\/2013-10-30\/150928573155.shtml",
"pubDate" : "15:09:57",
"enterDate" : "384200:51:23",
"channelId" : "3201254140354233683",
"channelName" : "港澳台新闻-新浪新闻",
"channelNameSummary" : "港澳台新闻-新浪新闻",
"channelUrl" : "http:\/\/news.sina.com.cn\/temp\/809\/2012\/0426\/13.shtml",
"author" : "WWW.SINA.COM.CN",
"tags" : [],
"desc" : "新华网北京10月30日电 (记者赵博 李寒芳)国务院台办发言人范丽青30日在例行新闻发布会上指出，我们注意到香港社会对于\u201C占领中环\u201D与\u201C台独\u201D合流的担忧和谴责。\u201C台独\u201D势力分裂国家，不仅祸害台湾，破坏两岸关系，现在又图谋搞乱香港，不得人心也绝不可能得逞。 近日....",
"emailed" : False,
"forwarded" : False,
"english" : False
}  , {
"index" : 2,
"articleIndex" : "18585",
"favor" :  False ,
     "read" : False,    
"title" : "香港廉署39年肃贪路径：通过\u201C打虎\u201D获认可",
"titleTip" : "香港廉署39年肃贪路径：通过\u201C打虎\u201D获认可",
"titleSummary" : "香港廉署39年肃贪路径：通过\u201C打虎\u201D获认可",
"descSummary" : "廉署39年肃贪路径：通过\u201C打虎\u201D获得民意认可 早报记者...",
"url" : "http:\/\/go.rss.sina.com.cn\/redirect.php?url=http:\/\/news.sina.com.cn\/c\/2013-10-30\/145128572884.shtml",
"pubDate" : "14:51:52",
"enterDate" : "384201:03:23",
"channelId" : "3201254140354233683",
"channelName" : "港澳台新闻-新浪新闻",
"channelNameSummary" : "港澳台新闻-新浪新闻",
"channelUrl" : "http:\/\/news.sina.com.cn\/temp\/809\/2012\/0426\/13.shtml",
"author" : "WWW.SINA.COM.CN",
"tags" : [],
"desc" : "廉署39年肃贪路径：通过\u201C打虎\u201D获得民意认可 早报记者 卢雁 陈良飞 发自香港 香港廉政公署(ICAC)于1974年成立，然而，在其最初成立的时候，香港民众并不信任与接受这个新设机构。 当时，很多香港人认为廉署是不可能完成打击腐败的任务的。香港民间流行....",
"emailed" : False,
"forwarded" : False,
"english" : False
}  , {
"index" : 3,
"articleIndex" : "18584",
"favor" :  False ,
     "read" : False,    
"title" : "台湾频现\u201C跳跳哥\u201D：自撞车辆引擎盖碰瓷",
"titleTip" : "台湾频现\u201C跳跳哥\u201D：自撞车辆引擎盖碰瓷",
"titleSummary" : "台湾频现\u201C跳跳哥\u201D：自撞车辆引擎盖碰瓷",
"descSummary" : "中新网10月30日电 据台湾\u201C中央社\u201D报道，高雄警方近来查...",
"url" : "http:\/\/go.rss.sina.com.cn\/redirect.php?url=http:\/\/news.sina.com.cn\/c\/2013-10-30\/144728572857.shtml",
"pubDate" : "14:47:57",
"enterDate" : "384200:59:28",
"channelId" : "3201254140354233683",
"channelName" : "港澳台新闻-新浪新闻",
"channelNameSummary" : "港澳台新闻-新浪新闻",
"channelUrl" : "http:\/\/news.sina.com.cn\/temp\/809\/2012\/0426\/13.shtml",
"author" : "WWW.SINA.COM.CN",
"tags" : [],
"desc" : "中新网10月30日电 据台湾\u201C中央社\u201D报道，高雄警方近来查获有\u201C扑垒哥\u201D突然冲出制造交通事故借机索赔，已分别依诈欺罪、公共危险罪侦办，今天吁请民众注意自保。 高雄市警察局刑警大队表示，在左营区荣总路等交通繁忙地带，有俗称\u201C扑垒哥\u201D、\u201C盗垒伯\u201D、\u201C跳跳哥\u201D....",
"emailed" : False,
"forwarded" : False,
"english" : False
}  , {
"index" : 4,
"articleIndex" : "18583",
"favor" :  False ,
     "read" : False,    
"title" : "国台办回应\u201C习马会\u201D 称持积极开放态度",
"titleTip" : "国台办回应\u201C习马会\u201D 称持积极开放态度",
"titleSummary" : "国台办回应\u201C习马会\u201D 称持积极开放态度",
"descSummary" : "人民网北京10月30日电(刘洁妍、实习生 武红利)国台办今日上...",
"url" : "http:\/\/go.rss.sina.com.cn\/redirect.php?url=http:\/\/news.sina.com.cn\/c\/2013-10-30\/143328572768.shtml",
"pubDate" : "14:33:24",
"enterDate" : "384200:44:55",
"channelId" : "3201254140354233683",
"channelName" : "港澳台新闻-新浪新闻",
"channelNameSummary" : "港澳台新闻-新浪新闻",
"channelUrl" : "http:\/\/news.sina.com.cn\/temp\/809\/2012\/0426\/13.shtml",
"author" : "WWW.SINA.COM.CN",
"tags" : [],
"desc" : "人民网北京10月30日电(刘洁妍、实习生 武红利)国台办今日上午举行例行发布会。在谈到两岸领导人会面时，范丽青指出，只要有利于促进两岸关系和平发展，我们都持积极开放态度。&#160; 台湾东森电视台记者提问称，延续两岸经贸文化论坛，国民党荣誉主席吴伯雄在上面提到....",
"emailed" : False,
"forwarded" : False,
"english" : False
}  , {
"index" : 5,
"articleIndex" : "18581",
"favor" :  False ,
     "read" : False,    
"title" : "连战谈女儿代言产品涉含禁药:或有政治力介入",
"titleTip" : "连战谈女儿代言产品涉含禁药:或有政治力介入",
"titleSummary" : "连战谈女儿代言产品涉含禁药:或有政治力介入",
"descSummary" : "台海网 10月30日讯 据台湾《中国时报》报道，连惠心出资...",
"url" : "http:\/\/go.rss.sina.com.cn\/redirect.php?url=http:\/\/news.sina.com.cn\/c\/2013-10-30\/132628572272.shtml",
"pubDate" : "13:26:03",
"enterDate" : "384200:37:44",
"channelId" : "3201254140354233683",
"channelName" : "港澳台新闻-新浪新闻",
"channelNameSummary" : "港澳台新闻-新浪新闻",
"channelUrl" : "http:\/\/news.sina.com.cn\/temp\/809\/2012\/0426\/13.shtml",
"author" : "WWW.SINA.COM.CN",
"tags" : [],
"desc" : "台海网 10月30日讯 据台湾《中国时报》报道，连惠心出资成立的菁茵H公司，因产品\u201C威力纤Plus\u201D被验出含禁药Cetilistat惹争议，国民党荣誉主席连战昨天出席2013山东周两岸合作发展论坛时首度打破沉默表示，自己也常吃威力纤，现在还是好好的、非常健康。他并表示，不希望有不....",
"emailed" : False,
"forwarded" : False,
"english" : False
}  , {
"index" : 6,
"articleIndex" : "18580",
"favor" :  False ,
     "read" : False,    
"title" : "台教授称美指马英九\"卖台\"是怕损害其霸权利益",
"titleTip" : "台教授称美指马英九\"卖台\"是怕损害其霸权利益",
"titleSummary" : "台教授称美指马英九\"卖台\"是怕损害其霸权利益",
"descSummary" : "台海网(微博)10月30日讯 台湾世新大学教授王晓波30日在...",
"url" : "http:\/\/go.rss.sina.com.cn\/redirect.php?url=http:\/\/news.sina.com.cn\/c\/2013-10-30\/111828571497.shtml",
"pubDate" : "11:18:49",
"enterDate" : "384200:30:50",
"channelId" : "3201254140354233683",
"channelName" : "港澳台新闻-新浪新闻",
"channelNameSummary" : "港澳台新闻-新浪新闻",
"channelUrl" : "http:\/\/news.sina.com.cn\/temp\/809\/2012\/0426\/13.shtml",
"author" : "WWW.SINA.COM.CN",
"tags" : [],
"desc" : "台海网(微博)10月30日讯 台湾世新大学教授王晓波30日在台湾《中国时报》撰文，原题《两种\u201C卖台\u201D，美台鸡同鸭讲》，全文摘编如下： 10月24日，马英九接受《华盛顿邮报》专访，对其改善两岸关系，被质疑为\u201C卖台\u201D，他自我辩护说，\u201C他们说我\u2018卖台\u2019，说我们失去了什....",
"emailed" : False,
"forwarded" : False,
"english" : False
}  , {
"index" : 7,
"articleIndex" : "18582",
"favor" :  False ,
     "read" : False,    
"title" : "国台办：大陆已暂停台问题食品进口",
"titleTip" : "国台办：大陆已暂停台问题食品进口",
"titleSummary" : "国台办：大陆已暂停台问题食品进口",
"descSummary" : "中国台湾10月30日北京消息 国台办新闻发言人范丽青今天上午表示...",
"url" : "http:\/\/go.rss.sina.com.cn\/redirect.php?url=http:\/\/news.sina.com.cn\/c\/2013-10-30\/111528571904.shtml",
"pubDate" : "11:15:00",
"enterDate" : "384198:26:41",
"channelId" : "3201254140354233683",
"channelName" : "港澳台新闻-新浪新闻",
"channelNameSummary" : "港澳台新闻-新浪新闻",
"channelUrl" : "http:\/\/news.sina.com.cn\/temp\/809\/2012\/0426\/13.shtml",
"author" : "WWW.SINA.COM.CN",
"tags" : [],
"desc" : "中国台湾10月30日北京消息 国台办新闻发言人范丽青今天上午表示，食品安全问题老百姓非常关心。台湾日前有一个品牌的食用油被曝光有质量问题，这个消息传来以后，大陆相关主管部门也立即向台湾有关方面了解详细信息。同时质检部门也组织开展了核查工作。据查，福建、浙江曾进....",
"emailed" : False,
"forwarded" : False,
"english" : False
}  , {
"index" : 8,
"articleIndex" : "18579",
"favor" :  False ,
     "read" : False,    
"title" : "民进党搬一楼高捕鞋网质询 新北市长回应请尊重",
"titleTip" : "民进党搬一楼高捕鞋网质询 新北市长回应请尊重",
"titleSummary" : "民进党搬一楼高捕鞋网质询 新北市长回应请尊重",
"descSummary" : "台海网 10月30日讯 据台湾媒体报道，马英九近日屡遭鞋...",
"url" : "http:\/\/go.rss.sina.com.cn\/redirect.php?url=http:\/\/news.sina.com.cn\/c\/2013-10-30\/104928571235.shtml",
"pubDate" : "10:49:14",
"enterDate" : "384199:01:05",
"channelId" : "3201254140354233683",
"channelName" : "港澳台新闻-新浪新闻",
"channelNameSummary" : "港澳台新闻-新浪新闻",
"channelUrl" : "http:\/\/news.sina.com.cn\/temp\/809\/2012\/0426\/13.shtml",
"author" : "WWW.SINA.COM.CN",
"tags" : [],
"desc" : "台海网 10月30日讯 据台湾媒体报道，马英九近日屡遭鞋攻，拦截用的捕鞋网大红，新北市议会昨(29日)举行市政总质询，民进党议员搬来一楼高的捕鞋网，要市长朱立伦体验民意被阻绝在外的感觉，同时也强势要朱表态，是否连任或挑战2016\u201C大选\u201D。不过，朱立伦仍老话一句，\u201C把市政....",
"emailed" : False,
"forwarded" : False,
"english" : False
}  , {
"index" : 9,
"articleIndex" : "18578",
"favor" :  False ,
     "read" : False,    
"title" : "国台办:\u201C台独\u201D搞乱香港图谋不能得逞",
"titleTip" : "国台办:\u201C台独\u201D搞乱香港图谋不能得逞",
"titleSummary" : "国台办:\u201C台独\u201D搞乱香港图谋不能得逞",
"descSummary" : "新华网快讯：国台办发言人范丽青30日表示，我们注意到香港社...",
"url" : "http:\/\/go.rss.sina.com.cn\/redirect.php?url=http:\/\/news.sina.com.cn\/c\/2013-10-30\/104328571154.shtml",
"pubDate" : "10:43:46",
"enterDate" : "384200:55:56",
"channelId" : "3201254140354233683",
"channelName" : "港澳台新闻-新浪新闻",
"channelNameSummary" : "港澳台新闻-新浪新闻",
"channelUrl" : "http:\/\/news.sina.com.cn\/temp\/809\/2012\/0426\/13.shtml",
"author" : "WWW.SINA.COM.CN",
"tags" : [],
"desc" : "新华网快讯：国台办发言人范丽青30日表示，我们注意到香港社会对于\u201C占领中环\u201D与\u201C台独\u201D合流的担忧和谴责。\u201C台独\u201D势力图谋搞乱香港，不得人心也绝不可能得逞。",
"emailed" : False,
"forwarded" : False,
"english" : False
}  , {
"index" : 10,
"articleIndex" : "18577",
"favor" :  False ,
     "read" : False,    
"title" : "香港人质事件续:菲方称道歉应停留在市长层次",
"titleTip" : "香港人质事件续:菲方称道歉应停留在市长层次",
"titleSummary" : "香港人质事件续:菲方称道歉应停留在市长层次",
"descSummary" : "新华网10月30日电 据香港《大公报》报道，菲律宾人质事...",
"url" : "http:\/\/go.rss.sina.com.cn\/redirect.php?url=http:\/\/news.sina.com.cn\/c\/2013-10-30\/102428570869.shtml",
"pubDate" : "10:24:51",
"enterDate" : "384200:37:01",
"channelId" : "3201254140354233683",
"channelName" : "港澳台新闻-新浪新闻",
"channelNameSummary" : "港澳台新闻-新浪新闻",
"channelUrl" : "http:\/\/news.sina.com.cn\/temp\/809\/2012\/0426\/13.shtml",
"author" : "WWW.SINA.COM.CN",
"tags" : [],
"desc" : "新华网10月30日电 据香港《大公报》报道，菲律宾人质事件死者家属和幸存者代表，昨日与马尼拉市政府代表、市议员洪英钟会面后表示，双方观点存在重大分歧，其中以赔偿和道歉方面的分歧最大，希望可将分歧收窄，暂未知道会否再有会面。另外，立法会主席曾钰成于昨日分别去信菲....",
"emailed" : False,
"forwarded" : False,
"english" : False
}  , {
"index" : 11,
"articleIndex" : "18575",
"favor" :  False ,
     "read" : False,    
"title" : "台湾美女作家车祸身亡 生前留言或遭不幸",
"titleTip" : "台湾美女作家车祸身亡 生前留言或遭不幸",
"titleSummary" : "台湾美女作家车祸身亡 生前留言或遭不幸",
"descSummary" : "图片来源：台湾\u201C今日新闻网\u201D 中新网10月30日电 据台湾今日...",
"url" : "http:\/\/go.rss.sina.com.cn\/redirect.php?url=http:\/\/news.sina.com.cn\/c\/2013-10-30\/101228570757.shtml",
"pubDate" : "10:12:34",
"enterDate" : "384200:54:50",
"channelId" : "3201254140354233683",
"channelName" : "港澳台新闻-新浪新闻",
"channelNameSummary" : "港澳台新闻-新浪新闻",
"channelUrl" : "http:\/\/news.sina.com.cn\/temp\/809\/2012\/0426\/13.shtml",
"author" : "WWW.SINA.COM.CN",
"tags" : [],
"desc" : "图片来源：台湾\u201C今日新闻网\u201D 中新网10月30日电 据台湾今日新闻网报道，台湾前华航空姐、美女作家林亚若27日晚间在澳洲单车旅游时车祸身亡。而她19日在个人社交网站上的动态消息，更令人不胜唏嘘。 1982年出生的林亚若，在个人社交网站自介写道：外表正常但内心....",
"emailed" : False,
"forwarded" : False,
"english" : False
}  , {
"index" : 12,
"articleIndex" : "18573",
"favor" :  False ,
     "read" : False,    
"title" : "苹果地图标\u201C中国台湾省\u201D台称此事不能妥协",
"titleTip" : "苹果地图标\u201C中国台湾省\u201D台称此事不能妥协",
"titleSummary" : "苹果地图标\u201C中国台湾省\u201D台称此事不能妥协",
"descSummary" : "截图 环球网综合报道 记者李柏涛 台湾《中国时报》报道，...",
"url" : "http:\/\/go.rss.sina.com.cn\/redirect.php?url=http:\/\/news.sina.com.cn\/c\/2013-10-30\/094528570482.shtml",
"pubDate" : "09:45:13",
"enterDate" : "384200:57:34",
"channelId" : "3201254140354233683",
"channelName" : "港澳台新闻-新浪新闻",
"channelNameSummary" : "港澳台新闻-新浪新闻",
"channelUrl" : "http:\/\/news.sina.com.cn\/temp\/809\/2012\/0426\/13.shtml",
"author" : "WWW.SINA.COM.CN",
"tags" : [],
"desc" : "截图 环球网综合报道 记者李柏涛 台湾《中国时报》报道，苹果公司推出新版操作系统，其中的地图功能将台湾标示为\u201C中国台湾\u201D，台当局\u201C外交部\u201D北美司司长谢武樵29日称，\u201C此事不能妥协，正尽全力与苹果公司交涉\u201D。 报道称，苹果公司接连推出iPhone与计算机的....",
"emailed" : False,
"forwarded" : False,
"english" : False
}  , {
"index" : 13,
"articleIndex" : "18572",
"favor" :  False ,
     "read" : False,    
"title" : "香港富家子载模特飙车双亡 车身撞树扭成V形",
"titleTip" : "香港富家子载模特飙车双亡 车身撞树扭成V形",
"titleSummary" : "香港富家子载模特飙车双亡 车身撞树扭成V形",
"descSummary" : "中新网10月30日电 据香港《明报》报道，香港大埔\u201C新娘...",
"url" : "http:\/\/go.rss.sina.com.cn\/redirect.php?url=http:\/\/news.sina.com.cn\/c\/2013-10-30\/093628570393.shtml",
"pubDate" : "09:36:00",
"enterDate" : "384200:48:21",
"channelId" : "3201254140354233683",
"channelName" : "港澳台新闻-新浪新闻",
"channelNameSummary" : "港澳台新闻-新浪新闻",
"channelUrl" : "http:\/\/news.sina.com.cn\/temp\/809\/2012\/0426\/13.shtml",
"author" : "WWW.SINA.COM.CN",
"tags" : [],
"desc" : "中新网10月30日电 据香港《明报》报道，香港大埔\u201C新娘潭路\u201D再成飙车族的亡命之路。一对爱好改车、飙车的年轻情侣，29日凌晨驾驶一部疑经改装的三菱\u201C辣车\u201D(Lancer Evolution)在新娘潭路飞驰，其间失控甩尾，在路面留下两道长逾60米胎痕后，拦腰狂撼路边大树，猛烈撞击下车....",
"emailed" : False,
"forwarded" : False,
"english" : False
}  , {
"index" : 14,
"articleIndex" : "18574",
"favor" :  False ,
     "read" : False,    
"title" : "台学者建议马英九与大陆签协议建\u201C一国良制\u201D",
"titleTip" : "台学者建议马英九与大陆签协议建\u201C一国良制\u201D",
"titleSummary" : "台学者建议马英九与大陆签协议建\u201C一国良制\u201D",
"descSummary" : "【环球网综合报道】台湾《中国时报》报道，马英九29...",
"url" : "http:\/\/go.rss.sina.com.cn\/redirect.php?url=http:\/\/news.sina.com.cn\/c\/2013-10-30\/092028570793.shtml",
"pubDate" : "09:20:00",
"enterDate" : "384200:02:16",
"channelId" : "3201254140354233683",
"channelName" : "港澳台新闻-新浪新闻",
"channelNameSummary" : "港澳台新闻-新浪新闻",
"channelUrl" : "http:\/\/news.sina.com.cn\/temp\/809\/2012\/0426\/13.shtml",
"author" : "WWW.SINA.COM.CN",
"tags" : [],
"desc" : "【环球网综合报道】台湾《中国时报》报道，马英九29日出席华人企业领袖远见高峰会，律师陈长文在对谈中向马英九建言，剩下3年任期中责成主管两岸事务官员与大陆签订协议，以\u201C一国良制\u201D促成\u201C两岸是一家人\u201D的愿景。马英九对此建议并未正面回复，仅表示两岸领导人会晤仍须进....",
"emailed" : False,
"forwarded" : False,
"english" : False
}  , {
"index" : 15,
"articleIndex" : "18576",
"favor" :  False ,
     "read" : False,    
"title" : "吕秀莲宣布参选台北市长 称有必胜决心",
"titleTip" : "吕秀莲宣布参选台北市长 称有必胜决心",
"titleSummary" : "吕秀莲宣布参选台北市长 称有必胜决心",
"descSummary" : "【环球网综合报道】吕秀莲宣布参选台北市市长后，首次接受媒体...",
"url" : "http:\/\/go.rss.sina.com.cn\/redirect.php?url=http:\/\/news.sina.com.cn\/c\/2013-10-30\/090828570786.shtml",
"pubDate" : "09:08:00",
"enterDate" : "384199:20:10",
"channelId" : "3201254140354233683",
"channelName" : "港澳台新闻-新浪新闻",
"channelNameSummary" : "港澳台新闻-新浪新闻",
"channelUrl" : "http:\/\/news.sina.com.cn\/temp\/809\/2012\/0426\/13.shtml",
"author" : "WWW.SINA.COM.CN",
"tags" : [],
"desc" : "【环球网综合报道】吕秀莲宣布参选台北市市长后，首次接受媒体专访，她在ICRT台北国际社区广播电台英语访问中表示，过去几次市长选举，民进党的候选人没怀抱非赢不可的决心，认为小输就是赢，不过，她有必胜的决心，而且比其他参选的人更有经验，资历也更完整，选民的眼睛是雪....",
"emailed" : False,
"forwarded" : False,
"english" : False
}  , {
"index" : 16,
"articleIndex" : "18571",
"favor" :  False ,
     "read" : False,    
"title" : "谢长廷:连战长女代言产品疑含禁药不必无限上纲",
"titleTip" : "谢长廷:连战长女代言产品疑含禁药不必无限上纲",
"titleSummary" : "谢长廷:连战长女代言产品疑含禁药不必无限上纲",
"descSummary" : "台海网10月30日讯 据中评社报道，国民党荣誉主席连战...",
"url" : "http:\/\/go.rss.sina.com.cn\/redirect.php?url=http:\/\/news.sina.com.cn\/c\/2013-10-30\/073628569131.shtml",
"pubDate" : "07:36:53",
"enterDate" : "384199:19:18",
"channelId" : "3201254140354233683",
"channelName" : "港澳台新闻-新浪新闻",
"channelNameSummary" : "港澳台新闻-新浪新闻",
"channelUrl" : "http:\/\/news.sina.com.cn\/temp\/809\/2012\/0426\/13.shtml",
"author" : "WWW.SINA.COM.CN",
"tags" : [],
"desc" : "台海网10月30日讯 据中评社报道，国民党荣誉主席连战长女连惠心投资并代言的\u201C威力纤Plus\u201D疑含禁药事件，引发政治联想。民进党前主席谢长廷29日傍晚主持广播节目时表示，这件事不必无限上纲，过度泛政治化反而会不了了之，毕竟禁药问题需要证据和科学专业来检验，这件案子应....",
"emailed" : False,
"forwarded" : False,
"english" : False
}  , {
"index" : 17,
"articleIndex" : "18569",
"favor" :  False ,
     "read" : False,    
"title" : "党报称占领中环运动形同自残 香港需饮水思源",
"titleTip" : "党报称占领中环运动形同自残 香港需饮水思源",
"titleSummary" : "党报称占领中环运动形同自残 香港需饮水思源",
"descSummary" : "香港8个著名商会组织，包括中华总商会、中华厂商联合会...",
"url" : "http:\/\/go.rss.sina.com.cn\/redirect.php?url=http:\/\/news.sina.com.cn\/c\/2013-10-30\/035028566560.shtml",
"pubDate" : "昨天03:50:04",
"enterDate" : "384199:03:05",
"channelId" : "3201254140354233683",
"channelName" : "港澳台新闻-新浪新闻",
"channelNameSummary" : "港澳台新闻-新浪新闻",
"channelUrl" : "http:\/\/news.sina.com.cn\/temp\/809\/2012\/0426\/13.shtml",
"author" : "WWW.SINA.COM.CN",
"tags" : [],
"desc" : "香港8个著名商会组织，包括中华总商会、中华厂商联合会、香港工业总会、香港总商会等，28日发表联合声明，反对\u201C占领中环\u201D行动。香港是公认的世界营商环境最佳城市之一，这一香港人引以为傲的资本正面临来自极端势力的威胁。 \u201C占中\u201D形同自残 根据世界银行与....",
"emailed" : False,
"forwarded" : False,
"english" : False
}  , {
"index" : 18,
"articleIndex" : "18568",
"favor" :  False ,
     "read" : False,    
"title" : "马尼拉代表与香港家属代表会面 赔偿金额分歧大",
"titleTip" : "马尼拉代表与香港家属代表会面 赔偿金额分歧大",
"titleSummary" : "马尼拉代表与香港家属代表会面 赔偿金额分歧大",
"descSummary" : "南都讯 记者何薇发自香港 上周三到港的马尼拉市长代表...",
"url" : "http:\/\/go.rss.sina.com.cn\/redirect.php?url=http:\/\/news.sina.com.cn\/c\/2013-10-30\/033928566476.shtml",
"pubDate" : "昨天03:39:16",
"enterDate" : "384199:22:22",
"channelId" : "3201254140354233683",
"channelName" : "港澳台新闻-新浪新闻",
"channelNameSummary" : "港澳台新闻-新浪新闻",
"channelUrl" : "http:\/\/news.sina.com.cn\/temp\/809\/2012\/0426\/13.shtml",
"author" : "WWW.SINA.COM.CN",
"tags" : [],
"desc" : "南都讯 记者何薇发自香港 上周三到港的马尼拉市长代表、该市议员洪英钟，在港逗留一个星期后，昨日在港府的安排下与三年前马尼拉人质事件中的受害者代表进行第一次会面。代表菲律宾人质事件家属的香港立法会议员涂谨申透露，双方目前仍在赔偿、道歉多个方面分歧较大，而另一边....",
"emailed" : False,
"forwarded" : False,
"english" : False
}  , {
"index" : 19,
"articleIndex" : "18570",
"favor" :  False ,
     "read" : False,    
"title" : "台湾\u201C建交国\u201D尼加拉瓜总统之子低调访华",
"titleTip" : "台湾\u201C建交国\u201D尼加拉瓜总统之子低调访华",
"titleSummary" : "台湾\u201C建交国\u201D尼加拉瓜总统之子低调访华",
"descSummary" : "【环球时报记者 凌德 王盼盼】据《环球时报》记者10月29日...",
"url" : "http:\/\/go.rss.sina.com.cn\/redirect.php?url=http:\/\/news.sina.com.cn\/c\/2013-10-30\/023528567754.shtml",
"pubDate" : "昨天02:35:00",
"enterDate" : "384194:47:30",
"channelId" : "3201254140354233683",
"channelName" : "港澳台新闻-新浪新闻",
"channelNameSummary" : "港澳台新闻-新浪新闻",
"channelUrl" : "http:\/\/news.sina.com.cn\/temp\/809\/2012\/0426\/13.shtml",
"author" : "WWW.SINA.COM.CN",
"tags" : [],
"desc" : "【环球时报记者 凌德 王盼盼】据《环球时报》记者10月29日从香港\u2015尼加拉瓜运河发展投资有限公司了解到，本月19日至26日，一个由尼加拉瓜总统儿子率领的高级别代表团访问了中国北京、武汉等地。香港《南华早报》29日评论称，\u201C这是尼加拉瓜1990年与北京断交后，至今到中国大陆....",
"emailed" : False,
"forwarded" : False,
"english" : False
} ]
}
