{
"mode" : {"viewTitle" : 1,   "viewNew" : 0,  "pageIndex" : 2 },
 "channel" : {"id" : "3201254140354233683", "booked" : False, "subNumber" : 1, "name" : "港澳台新闻-新浪新闻", "url" : "http:\/\/news.sina.com.cn\/temp\/809\/2012\/0426\/13.shtml", "feed" : "http:\/\/rss.sina.com.cn\/news\/china\/hktaiwan15.xml", "author" : "WWW.SINA.COM.CN", "desc" : "港澳台新闻", "imageUrl" : "http:\/\/www.sinaimg.cn\/home\/deco\/2009\/0330\/logo_home_news.gif", "postPerWeek" : "0", "lastCrawTime" : "17:07:45", "crawDateTime" : "17:07:45", "lastHttpCode" : "200"}, "page" : {
"startIndex" : 20,
"totalCount" : 5000,
"pageIndex" : 2,
"lastPage" : 250,
"pageSize" : 20,
"english" :  False },
 "unreadNum" : 0, "shotIndex" : -1,
"articles" : [
{
"index" : 0,
"articleIndex" : "18567",
"favor" :  False ,
     "read" : False,    
"title" : "澳门法院公布公职人员财产 墓穴也需主动申报",
"titleTip" : "澳门法院公布公职人员财产 墓穴也需主动申报",
"titleSummary" : "澳门法院公布公职人员财产 墓穴也需主动申报",
"descSummary" : "南都讯 记者蒋生 澳门财产公开中的物业包括全球范围，若...",
"url" : "http:\/\/go.rss.sina.com.cn\/redirect.php?url=http:\/\/news.sina.com.cn\/c\/2013-10-30\/033928566478.shtml",
"pubDate" : "昨天03:39:16",
"enterDate" : "384199:52:28",
"channelId" : "3201254140354233683",
"channelName" : "港澳台新闻-新浪新闻",
"channelNameSummary" : "港澳台新闻-新浪新闻",
"channelUrl" : "http:\/\/news.sina.com.cn\/temp\/809\/2012\/0426\/13.shtml",
"author" : "WWW.SINA.COM.CN",
"tags" : [],
"desc" : "南都讯 记者蒋生 澳门财产公开中的物业包括全球范围，若读者发现澳门公职人员在内地有房产，而终审法院网站公开的财产中未列明，则可立即向法院等司法、警察机关举报。澳门终院日前接受南都专访，还透露称目前暂未发现不实申报案例。 不实申报可判3年刑 本月18....",
"emailed" : False,
"forwarded" : False,
"english" : False
}  , {
"index" : 1,
"articleIndex" : "18566",
"favor" :  False ,
     "read" : False,    
"title" : "山东省长率多名官员访台 连战称故人来相当喜悦",
"titleTip" : "山东省长率多名官员访台 连战称故人来相当喜悦",
"titleSummary" : "山东省长率多名官员访台 连战称故人来相当喜悦",
"descSummary" : "人民网10月29日电 据中评社报道，山东省委副书记、省...",
"url" : "http:\/\/go.rss.sina.com.cn\/redirect.php?url=http:\/\/news.sina.com.cn\/c\/2013-10-29\/155828562714.shtml",
"pubDate" : "昨天15:58:00",
"enterDate" : "384200:43:17",
"channelId" : "3201254140354233683",
"channelName" : "港澳台新闻-新浪新闻",
"channelNameSummary" : "港澳台新闻-新浪新闻",
"channelUrl" : "http:\/\/news.sina.com.cn\/temp\/809\/2012\/0426\/13.shtml",
"author" : "WWW.SINA.COM.CN",
"tags" : [],
"desc" : "人民网10月29日电 据中评社报道，山东省委副书记、省长郭树清28日率团抵台访问5天，今天上午出席2013山东周两岸合作发展论坛。中国国民党荣誉主席连战表示，鲁台两地应该继续交流合作，郭树清这次到台湾来跟各界接触，给我们带来很多新的期待，两岸优势互补，互利双赢，这是绝....",
"emailed" : False,
"forwarded" : False,
"english" : False
}  , {
"index" : 2,
"articleIndex" : "18565",
"favor" :  False ,
     "read" : False,    
"title" : "台湾男子下药迷奸妻子长达5年被判7年多",
"titleTip" : "台湾男子下药迷奸妻子长达5年被判7年多",
"titleSummary" : "台湾男子下药迷奸妻子长达5年被判7年多",
"descSummary" : "中新网10月29日电据台湾\u201C中央社\u201D报道，台湾彰化县一名男...",
"url" : "http:\/\/go.rss.sina.com.cn\/redirect.php?url=http:\/\/news.sina.com.cn\/c\/2013-10-29\/154228562602.shtml",
"pubDate" : "昨天15:42:00",
"enterDate" : "384200:27:17",
"channelId" : "3201254140354233683",
"channelName" : "港澳台新闻-新浪新闻",
"channelNameSummary" : "港澳台新闻-新浪新闻",
"channelUrl" : "http:\/\/news.sina.com.cn\/temp\/809\/2012\/0426\/13.shtml",
"author" : "WWW.SINA.COM.CN",
"tags" : [],
"desc" : "中新网10月29日电据台湾\u201C中央社\u201D报道，台湾彰化县一名男子因妻子患有子宫内膜异位，发生性关系时会疼痛排斥行房，或限制夫5分钟内要结束，男子异想天开，从2003年婚后，即将史蒂诺斯等安眠药物加入妻子睡前饮用的中药汤或阿华田饮料中，再以帮妻子按摩助眠为由，乘妻子睡着....",
"emailed" : False,
"forwarded" : False,
"english" : False
}  , {
"index" : 3,
"articleIndex" : "18564",
"favor" :  False ,
     "read" : False,    
"title" : "台当局禁止大陆通讯厂商投标 称危及\u201C国安\u201D",
"titleTip" : "台当局禁止大陆通讯厂商投标 称危及\u201C国安\u201D",
"titleSummary" : "台当局禁止大陆通讯厂商投标 称危及\u201C国安\u201D",
"descSummary" : "【环球网综合报道记者李柏涛】有台\u201C立委\u201D忧心大陆厂商...",
"url" : "http:\/\/go.rss.sina.com.cn\/redirect.php?url=http:\/\/news.sina.com.cn\/c\/2013-10-29\/144928562297.shtml",
"pubDate" : "昨天14:49:00",
"enterDate" : "384200:04:22",
"channelId" : "3201254140354233683",
"channelName" : "港澳台新闻-新浪新闻",
"channelNameSummary" : "港澳台新闻-新浪新闻",
"channelUrl" : "http:\/\/news.sina.com.cn\/temp\/809\/2012\/0426\/13.shtml",
"author" : "WWW.SINA.COM.CN",
"tags" : [],
"desc" : "【环球网综合报道记者李柏涛】有台\u201C立委\u201D忧心大陆厂商华为通讯产品恐危害\u201C国安\u201D，要求限制投标。台\u201C国安局长\u201D蔡得胜说，\u201C这个政策就是我们的政策\u201D，现在已经决定要禁止。 台湾\u201C中央社\u201D报道，台\u201C立法院外交及国防委员会\u201D28日审查2014年度总预算案关于\u201C国安....",
"emailed" : False,
"forwarded" : False,
"english" : False
}  , {
"index" : 4,
"articleIndex" : "18563",
"favor" :  False ,
     "read" : False,    
"title" : "连战女儿代言食品被曝含禁药 连战称对女有信心",
"titleTip" : "连战女儿代言食品被曝含禁药 连战称对女有信心",
"titleSummary" : "连战女儿代言食品被曝含禁药 连战称对女有信心",
"descSummary" : "中新网10月29日电据台湾\u201C今日新闻网\u201D报道，对于女...",
"url" : "http:\/\/go.rss.sina.com.cn\/redirect.php?url=http:\/\/news.sina.com.cn\/c\/2013-10-29\/130828561343.shtml",
"pubDate" : "昨天13:08:00",
"enterDate" : "384200:53:47",
"channelId" : "3201254140354233683",
"channelName" : "港澳台新闻-新浪新闻",
"channelNameSummary" : "港澳台新闻-新浪新闻",
"channelUrl" : "http:\/\/news.sina.com.cn\/temp\/809\/2012\/0426\/13.shtml",
"author" : "WWW.SINA.COM.CN",
"tags" : [],
"desc" : "中新网10月29日电据台湾\u201C今日新闻网\u201D报道，对于女儿连惠心涉入健康食品\u201C威力纤\u201D含有禁药事件，国民党荣誉主席连战今(29日)对媒体表示，他身为父亲对女儿有绝对的信心，相信一定会以严肃的态度、周延的思考来处理问题，但连战也说，不希望看到有\u201C不当的外力\u201D来引导办案。....",
"emailed" : False,
"forwarded" : False,
"english" : False
}  , {
"index" : 5,
"articleIndex" : "18562",
"favor" :  False ,
     "read" : False,    
"title" : "王金平:台选务机构人事变动不致影响七合一选举",
"titleTip" : "王金平:台选务机构人事变动不致影响七合一选举",
"titleSummary" : "王金平:台选务机构人事变动不致影响七合一选举",
"descSummary" : "中国台湾网10月29日消息 据台湾媒体报道，台湾选务机...",
"url" : "http:\/\/go.rss.sina.com.cn\/redirect.php?url=http:\/\/news.sina.com.cn\/c\/2013-10-29\/111328560927.shtml",
"pubDate" : "昨天11:13:00",
"enterDate" : "384198:58:47",
"channelId" : "3201254140354233683",
"channelName" : "港澳台新闻-新浪新闻",
"channelNameSummary" : "港澳台新闻-新浪新闻",
"channelUrl" : "http:\/\/news.sina.com.cn\/temp\/809\/2012\/0426\/13.shtml",
"author" : "WWW.SINA.COM.CN",
"tags" : [],
"desc" : "中国台湾网10月29日消息 据台湾媒体报道，台湾选务机构委员任期将在11月3日届满，台当局\u201C行政院\u201D函台湾\u201C立法院\u201D选务机构委员提名名单同意案，若11月1日台湾\u201C立法院\u201D未能行同意权，台湾选务机构恐开天窗，忧影响明年\u201C七合一\u201D选举。台湾\u201C立法院长\u201D王金平今早受访表示....",
"emailed" : False,
"forwarded" : False,
"english" : False
}  , {
"index" : 6,
"articleIndex" : "18561",
"favor" :  False ,
     "read" : False,    
"title" : "谢长廷调侃马英九被丢鞋:补鞋网改良是台湾奇迹",
"titleTip" : "谢长廷调侃马英九被丢鞋:补鞋网改良是台湾奇迹",
"titleSummary" : "谢长廷调侃马英九被丢鞋:补鞋网改良是台湾奇迹",
"descSummary" : "中国台湾网10月29日消息 据台湾《联合报》报道，民进...",
"url" : "http:\/\/go.rss.sina.com.cn\/redirect.php?url=http:\/\/news.sina.com.cn\/c\/2013-10-29\/103728560700.shtml",
"pubDate" : "昨天10:37:00",
"enterDate" : "384199:53:02",
"channelId" : "3201254140354233683",
"channelName" : "港澳台新闻-新浪新闻",
"channelNameSummary" : "港澳台新闻-新浪新闻",
"channelUrl" : "http:\/\/news.sina.com.cn\/temp\/809\/2012\/0426\/13.shtml",
"author" : "WWW.SINA.COM.CN",
"tags" : [],
"desc" : "中国台湾网10月29日消息 据台湾《联合报》报道，民进党大佬谢长廷28日至台湾中山大学海洋科学院演讲，出身体操选手的他畅谈如何将体操选手的\u201C平衡\u201D特色运用在人生观、政治美学、两岸关系以及国际局势上。不过，虽然整场演讲都在严肃的气氛中进行，但谈到台湾时下最红火的丢....",
"emailed" : False,
"forwarded" : False,
"english" : False
}  , {
"index" : 7,
"articleIndex" : "18559",
"favor" :  False ,
     "read" : False,    
"title" : "梁振英:特区政府努力做事不因个别事件改变制度",
"titleTip" : "梁振英:特区政府努力做事不因个别事件改变制度",
"titleSummary" : "梁振英:特区政府努力做事不因个别事件改变制度",
"descSummary" : "人民网10月29日电 据中评社报道，香港特区行政长官梁...",
"url" : "http:\/\/go.rss.sina.com.cn\/redirect.php?url=http:\/\/news.sina.com.cn\/c\/2013-10-29\/103128560374.shtml",
"pubDate" : "昨天10:31:00",
"enterDate" : "384200:17:07",
"channelId" : "3201254140354233683",
"channelName" : "港澳台新闻-新浪新闻",
"channelNameSummary" : "港澳台新闻-新浪新闻",
"channelUrl" : "http:\/\/news.sina.com.cn\/temp\/809\/2012\/0426\/13.shtml",
"author" : "WWW.SINA.COM.CN",
"tags" : [],
"desc" : "人民网10月29日电 据中评社报道，香港特区行政长官梁振英今天表示，无论在免费电视发牌、贫穷、土地房屋或双非孕妇的后续问题上，特区政府都会努力做事，但不能够因应个别事件，改变一直以来行之有效的制度、法律、政策和程序。 梁振英出席行政会议前表示，行政会议一....",
"emailed" : False,
"forwarded" : False,
"english" : False
}  , {
"index" : 8,
"articleIndex" : "18560",
"favor" :  False ,
     "read" : False,    
"title" : "日媒称越南将每年派出越侨视察团赴南沙群岛",
"titleTip" : "日媒称越南将每年派出越侨视察团赴南沙群岛",
"titleSummary" : "日媒称越南将每年派出越侨视察团赴南沙群岛",
"descSummary" : "【环球网报道 记者 乌元春】据日本共同社10月28日援引越...",
"url" : "http:\/\/go.rss.sina.com.cn\/redirect.php?url=http:\/\/news.sina.com.cn\/c\/2013-10-29\/103028560722.shtml",
"pubDate" : "昨天10:30:00",
"enterDate" : "384199:46:02",
"channelId" : "3201254140354233683",
"channelName" : "港澳台新闻-新浪新闻",
"channelNameSummary" : "港澳台新闻-新浪新闻",
"channelUrl" : "http:\/\/news.sina.com.cn\/temp\/809\/2012\/0426\/13.shtml",
"author" : "WWW.SINA.COM.CN",
"tags" : [],
"desc" : "【环球网报道 记者 乌元春】据日本共同社10月28日援引越南报纸日前报道，越南总理阮晋勇决定自2014年起每年派遣越侨视察团前往南海的南沙群岛。 有意见认为，越南此举意在通过把散居于世界各地的越侨送往南沙群岛，从而加强对外宣传\u201C主权\u201D的力度。越南政府已于去年和....",
"emailed" : False,
"forwarded" : False,
"english" : False
}  , {
"index" : 9,
"articleIndex" : "18555",
"favor" :  False ,
     "read" : False,    
"title" : "香港工商界发表联合声明:反对\u201C占中\u201D勾结台独",
"titleTip" : "香港工商界发表联合声明:反对\u201C占中\u201D勾结台独",
"titleSummary" : "香港工商界发表联合声明:反对\u201C占中\u201D勾结台独",
"descSummary" : "据香港《大公报》消息，香港工商界发表联合声明，指责...",
"url" : "http:\/\/go.rss.sina.com.cn\/redirect.php?url=http:\/\/news.sina.com.cn\/c\/2013-10-29\/101128559880.shtml",
"pubDate" : "昨天10:11:01",
"enterDate" : "384200:57:18",
"channelId" : "3201254140354233683",
"channelName" : "港澳台新闻-新浪新闻",
"channelNameSummary" : "港澳台新闻-新浪新闻",
"channelUrl" : "http:\/\/news.sina.com.cn\/temp\/809\/2012\/0426\/13.shtml",
"author" : "WWW.SINA.COM.CN",
"tags" : [],
"desc" : "据香港《大公报》消息，香港工商界发表联合声明，指责\u201C占中\u201D勾结\u201C台独\u201D会损害\u201C一国两制\u201D和香港的繁荣稳定，表示坚决反对，声明全文如下： 近期，\u201C占领中环\u201D发起人之一与\u201C台独\u201D势力会面的举动引起各界关注，香港工商界对此深表忧虑，因为把\u201C占中\u201D引入外来势....",
"emailed" : False,
"forwarded" : False,
"english" : False
}  , {
"index" : 10,
"articleIndex" : "18558",
"favor" :  False ,
     "read" : False,    
"title" : "谢长廷回应丢鞋抗议称太普遍不太好",
"titleTip" : "谢长廷回应丢鞋抗议称太普遍不太好",
"titleSummary" : "谢长廷回应丢鞋抗议称太普遍不太好",
"descSummary" : "据台湾媒体报道，台湾前\u201C行政院长\u201D谢长廷28日说，近期民众出...",
"url" : "http:\/\/go.rss.sina.com.cn\/redirect.php?url=http:\/\/news.sina.com.cn\/c\/2013-10-29\/095628559714.shtml",
"pubDate" : "昨天09:56:25",
"enterDate" : "384200:12:37",
"channelId" : "3201254140354233683",
"channelName" : "港澳台新闻-新浪新闻",
"channelNameSummary" : "港澳台新闻-新浪新闻",
"channelUrl" : "http:\/\/news.sina.com.cn\/temp\/809\/2012\/0426\/13.shtml",
"author" : "WWW.SINA.COM.CN",
"tags" : [],
"desc" : "据台湾媒体报道，台湾前\u201C行政院长\u201D谢长廷28日说，近期民众出现\u201C丢鞋\u201D的动作是出于无奈，想对当局领导人表达不满，但\u201C丢鞋\u201D变成\u201C流行\u201D，太普遍就不太好。 谢长廷28日下午应邀到高雄中山大学演讲\u201C人生不歪腰\u2015\u2015谢长廷的平衡哲学\u201D，演讲后学生询问谢长廷，对近....",
"emailed" : False,
"forwarded" : False,
"english" : False
}  , {
"index" : 11,
"articleIndex" : "18557",
"favor" :  False ,
     "read" : False,    
"title" : "台高雄8成中小学向学生收厕所清洁费遭质疑(图)",
"titleTip" : "台高雄8成中小学向学生收厕所清洁费遭质疑(图)",
"titleSummary" : "台高雄8成中小学向学生收厕所清洁费遭质疑(图)",
"descSummary" : "中国台湾网10月29日消息 据台湾媒体报道，高雄市教育...",
"url" : "http:\/\/go.rss.sina.com.cn\/redirect.php?url=http:\/\/news.sina.com.cn\/c\/2013-10-29\/094628560110.shtml",
"pubDate" : "昨天09:46:00",
"enterDate" : "384200:02:12",
"channelId" : "3201254140354233683",
"channelName" : "港澳台新闻-新浪新闻",
"channelNameSummary" : "港澳台新闻-新浪新闻",
"channelUrl" : "http:\/\/news.sina.com.cn\/temp\/809\/2012\/0426\/13.shtml",
"author" : "WWW.SINA.COM.CN",
"tags" : [],
"desc" : "中国台湾网10月29日消息 据台湾媒体报道，高雄市教育产业工会抽查推估全市约8成中小学要求学生家长缴交厕所清洁费，平均每学期收取70至150元新台币不等，工会认为上厕所是生理需求与基本人权，指责学校收厕所清洁费依法无据。对此，高雄市教育局长郑新辉表示，扫厕所是生活教....",
"emailed" : False,
"forwarded" : False,
"english" : False
}  , {
"index" : 12,
"articleIndex" : "18551",
"favor" :  False ,
     "read" : False,    
"title" : "港媒披露霍英东遗嘱：禁止二三房子女从商",
"titleTip" : "港媒披露霍英东遗嘱：禁止二三房子女从商",
"titleSummary" : "港媒披露霍英东遗嘱：禁止二三房子女从商",
"descSummary" : "中新网10月29日电 已故香港企业家霍英东的儿子霍震寰及霍...",
"url" : "http:\/\/go.rss.sina.com.cn\/redirect.php?url=http:\/\/news.sina.com.cn\/c\/2013-10-29\/093228559491.shtml",
"pubDate" : "昨天09:32:00",
"enterDate" : "384200:48:22",
"channelId" : "3201254140354233683",
"channelName" : "港澳台新闻-新浪新闻",
"channelNameSummary" : "港澳台新闻-新浪新闻",
"channelUrl" : "http:\/\/news.sina.com.cn\/temp\/809\/2012\/0426\/13.shtml",
"author" : "WWW.SINA.COM.CN",
"tags" : [],
"desc" : "中新网10月29日电 已故香港企业家霍英东的儿子霍震寰及霍震宇(霍英东原配生的老二和老三)，28日于霍老逝世7周年的日子，在香港高等法院就霍老遗产官司展开诉讼。 据香港《大公报》报道，估计霍英东遗产达300亿元(港币，下同)，霍老生前在1978年已立下遗嘱，列明各房妻....",
"emailed" : False,
"forwarded" : False,
"english" : False
}  , {
"index" : 13,
"articleIndex" : "18554",
"favor" :  False ,
     "read" : False,    
"title" : "马英九：台海已从过去的火药库变成和平大道",
"titleTip" : "马英九：台海已从过去的火药库变成和平大道",
"titleSummary" : "马英九：台海已从过去的火药库变成和平大道",
"descSummary" : "【环球网综合报道记者李柏涛】马英九28日说，反对者批...",
"url" : "http:\/\/go.rss.sina.com.cn\/redirect.php?url=http:\/\/news.sina.com.cn\/c\/2013-10-29\/092628559766.shtml",
"pubDate" : "昨天09:26:00",
"enterDate" : "384200:12:17",
"channelId" : "3201254140354233683",
"channelName" : "港澳台新闻-新浪新闻",
"channelNameSummary" : "港澳台新闻-新浪新闻",
"channelUrl" : "http:\/\/news.sina.com.cn\/temp\/809\/2012\/0426\/13.shtml",
"author" : "WWW.SINA.COM.CN",
"tags" : [],
"desc" : "【环球网综合报道记者李柏涛】马英九28日说，反对者批评他\u201C倾中卖台\u201D，但实际上两岸政策与做法，完全根据\u201C宪法\u201D、根据台湾的利益。 台湾\u201C中央社\u201D报道，马英九28日接见美国\u201C百人会\u201D访问团时称，台方在改善两岸关系的努力，\u201C美国方面非常支持\u201D。最主要的原因，....",
"emailed" : False,
"forwarded" : False,
"english" : False
}  , {
"index" : 14,
"articleIndex" : "18553",
"favor" :  False ,
     "read" : False,    
"title" : "台民进党\"立委\":美国这种邪恶国家定监听马英九",
"titleTip" : "台民进党\"立委\":美国这种邪恶国家定监听马英九",
"titleSummary" : "台民进党\"立委\":美国这种邪恶国家定监听马英九",
"descSummary" : "【环球网综合报道】英国《卫报》24日根据美国前中情...",
"url" : "http:\/\/go.rss.sina.com.cn\/redirect.php?url=http:\/\/news.sina.com.cn\/c\/2013-10-29\/091328559764.shtml",
"pubDate" : "昨天09:13:00",
"enterDate" : "384199:59:17",
"channelId" : "3201254140354233683",
"channelName" : "港澳台新闻-新浪新闻",
"channelNameSummary" : "港澳台新闻-新浪新闻",
"channelUrl" : "http:\/\/news.sina.com.cn\/temp\/809\/2012\/0426\/13.shtml",
"author" : "WWW.SINA.COM.CN",
"tags" : [],
"desc" : "【环球网综合报道】英国《卫报》24日根据美国前中情局雇员斯诺登的爆料资料报道，全球共有多达35位世界领袖的电话遭美国国家安全局监听。香港\u201C中评社\u201D报道，台\u201C国安局长\u201D蔡得胜28日在台\u201C立法院\u201D称，\u201C详细的情况我们并不了解，但正在了解中\u201D。他也强调，\u201C国安局\u201D已提....",
"emailed" : False,
"forwarded" : False,
"english" : False
}  , {
"index" : 15,
"articleIndex" : "18550",
"favor" :  False ,
     "read" : False,    
"title" : "台湾\u201C中选会\u201D负责人空窗 恐影响\u201C7合1\u201D选举",
"titleTip" : "台湾\u201C中选会\u201D负责人空窗 恐影响\u201C7合1\u201D选举",
"titleSummary" : "台湾\u201C中选会\u201D负责人空窗 恐影响\u201C7合1\u201D选举",
"descSummary" : "中新网10月29日电据台湾\u201C中央社\u201D报道，台当局选举...",
"url" : "http:\/\/go.rss.sina.com.cn\/redirect.php?url=http:\/\/news.sina.com.cn\/c\/2013-10-29\/091128559283.shtml",
"pubDate" : "昨天09:11:00",
"enterDate" : "384200:57:27",
"channelId" : "3201254140354233683",
"channelName" : "港澳台新闻-新浪新闻",
"channelNameSummary" : "港澳台新闻-新浪新闻",
"channelUrl" : "http:\/\/news.sina.com.cn\/temp\/809\/2012\/0426\/13.shtml",
"author" : "WWW.SINA.COM.CN",
"tags" : [],
"desc" : "中新网10月29日电据台湾\u201C中央社\u201D报道，台当局选举部门副负责人刘义周昨天(28日)说，如果立法机构未能如期在11月3日前行使选举部门人事同意权，明年\u201C7合1\u201D (\u201C直辖市长\u201D、\u201C直辖市\u201D议员、县市长、县市议员、乡镇市长、乡镇市民代表与村里长选举)选举准备，将仅停留在收集....",
"emailed" : False,
"forwarded" : False,
"english" : False
}  , {
"index" : 16,
"articleIndex" : "18552",
"favor" :  False ,
     "read" : False,    
"title" : "谢长廷：两岸在政治现实上是\u201C两个国家\u201D",
"titleTip" : "谢长廷：两岸在政治现实上是\u201C两个国家\u201D",
"titleSummary" : "谢长廷：两岸在政治现实上是\u201C两个国家\u201D",
"descSummary" : "【环球网综合报道】马英九在今年的\u201C双十\u201D文告中称，\u201C两...",
"url" : "http:\/\/go.rss.sina.com.cn\/redirect.php?url=http:\/\/news.sina.com.cn\/c\/2013-10-29\/085028559508.shtml",
"pubDate" : "昨天08:50:00",
"enterDate" : "384199:36:17",
"channelId" : "3201254140354233683",
"channelName" : "港澳台新闻-新浪新闻",
"channelNameSummary" : "港澳台新闻-新浪新闻",
"channelUrl" : "http:\/\/news.sina.com.cn\/temp\/809\/2012\/0426\/13.shtml",
"author" : "WWW.SINA.COM.CN",
"tags" : [],
"desc" : "【环球网综合报道】马英九在今年的\u201C双十\u201D文告中称，\u201C两岸不是国际关系\u201D。民进党前党主席谢长廷28日在高雄演讲指出，\u201C马英九的这种说法很挑衅\u201D，他认为两岸应是\u201C特殊关系\u201D，既不是国内关系，也不是\u201C中央与地方的关系\u201D，是\u201C非一也非一，是一也非一\u201D的政治禅宗。....",
"emailed" : False,
"forwarded" : False,
"english" : False
}  , {
"index" : 17,
"articleIndex" : "18556",
"favor" :  False ,
     "read" : False,    
"title" : "马英九办公室采购大陆厂商网卡遭质疑",
"titleTip" : "马英九办公室采购大陆厂商网卡遭质疑",
"titleSummary" : "马英九办公室采购大陆厂商网卡遭质疑",
"descSummary" : "人民网10月29日电 据中评社报道，台\u201C立法院\u201D28日初审\u201C国安...",
"url" : "http:\/\/go.rss.sina.com.cn\/redirect.php?url=http:\/\/news.sina.com.cn\/c\/2013-10-29\/084528559231.shtml",
"pubDate" : "昨天08:45:00",
"enterDate" : "384199:01:12",
"channelId" : "3201254140354233683",
"channelName" : "港澳台新闻-新浪新闻",
"channelNameSummary" : "港澳台新闻-新浪新闻",
"channelUrl" : "http:\/\/news.sina.com.cn\/temp\/809\/2012\/0426\/13.shtml",
"author" : "WWW.SINA.COM.CN",
"tags" : [],
"desc" : "人民网10月29日电 据中评社报道，台\u201C立法院\u201D28日初审\u201C国安局\u201D明年预算，有民进党籍民代质疑台当局大量采购大陆厂商华为公司的行动网卡，恐对安全造成危害。马英九办公室28日下午回应，经查马办内确有6支华为行动网卡，对于外界质疑，会妥适处理；同时，不止这6张华为行动....",
"emailed" : False,
"forwarded" : False,
"english" : False
}  , {
"index" : 18,
"articleIndex" : "18549",
"favor" :  False ,
     "read" : False,    
"title" : "台湾\u201C立法院\u201D：向当局领导人丢鞋应移送法办",
"titleTip" : "台湾\u201C立法院\u201D：向当局领导人丢鞋应移送法办",
"titleSummary" : "台湾\u201C立法院\u201D：向当局领导人丢鞋应移送法办",
"descSummary" : "中新社台北10月28日电 台湾\u201C立法院\u201D外事防务委员会...",
"url" : "http:\/\/go.rss.sina.com.cn\/redirect.php?url=http:\/\/news.sina.com.cn\/c\/2013-10-28\/235628554753.shtml",
"pubDate" : "前天23:56:00",
"enterDate" : "384200:43:57",
"channelId" : "3201254140354233683",
"channelName" : "港澳台新闻-新浪新闻",
"channelNameSummary" : "港澳台新闻-新浪新闻",
"channelUrl" : "http:\/\/news.sina.com.cn\/temp\/809\/2012\/0426\/13.shtml",
"author" : "WWW.SINA.COM.CN",
"tags" : [],
"desc" : "中新社台北10月28日电 台湾\u201C立法院\u201D外事防务委员会28日通过提案，要求台湾\u201C安全局\u201D应对民众向当局领导人丢鞋案件加强维安，并协同检调单位移送法办，以吓阻并杜绝不当风气。 中央社报道，\u201C立法院\u201D外事及防务委员会28日初审2014年度当局总预算案关于台湾\u201C安全局....",
"emailed" : False,
"forwarded" : False,
"english" : False
}  , {
"index" : 19,
"articleIndex" : "18548",
"favor" :  False ,
     "read" : False,    
"title" : "汪洋:欢迎台湾农业企业来大陆投资兴业",
"titleTip" : "汪洋:欢迎台湾农业企业来大陆投资兴业",
"titleSummary" : "汪洋:欢迎台湾农业企业来大陆投资兴业",
"descSummary" : "汪洋在福建考察海峡两岸经济合作时强调 坚持优势互补 互利共赢...",
"url" : "http:\/\/go.rss.sina.com.cn\/redirect.php?url=http:\/\/news.sina.com.cn\/c\/2013-10-28\/221028554445.shtml",
"pubDate" : "前天22:10:32",
"enterDate" : "384199:58:39",
"channelId" : "3201254140354233683",
"channelName" : "港澳台新闻-新浪新闻",
"channelNameSummary" : "港澳台新闻-新浪新闻",
"channelUrl" : "http:\/\/news.sina.com.cn\/temp\/809\/2012\/0426\/13.shtml",
"author" : "WWW.SINA.COM.CN",
"tags" : [],
"desc" : "汪洋在福建考察海峡两岸经济合作时强调 坚持优势互补 互利共赢 推动两岸经济合作再上新台阶 新华网福州10月28日电 27日至28日，国务院副总理汪洋在福建漳州、平潭考察两岸经济合作时强调，两岸经济互补性强，合作潜力巨大，要把大陆的市场优势、成本优势....",
"emailed" : False,
"forwarded" : False,
"english" : False
} ]
}
