{
"mode" : {"viewTitle" : 1,   "viewNew" : 0,  "pageIndex" : 1 },
 "channel" : {"id" : "-4087173652696362417", "booked" : False, "subNumber" : 1, "name" : "英语考试-新浪教育", "url" : "http:\/\/edu.sina.com.cn\/rss\/index.html", "feed" : "http:\/\/rss.sina.com.cn\/edu\/yyks.xml", "author" : "WWW.SINA.COM.CN", "desc" : "文化教育-英语考试", "imageUrl" : "http:\/\/www.sinaimg.cn\/home\/deco\/2009\/0330\/logo_home_edu.gif", "postPerWeek" : "0", "lastCrawTime" : "17:18:25", "crawDateTime" : "17:18:25", "lastHttpCode" : "200"}, "page" : {
"startIndex" : 0,
"totalCount" : 5000,
"pageIndex" : 1,
"lastPage" : 250,
"pageSize" : 20,
"english" :  False },
 "unreadNum" : 0, "shotIndex" : -1,
"articles" : [
{
"index" : 0,
"articleIndex" : "7969",
"favor" :  False ,
     "read" : False,    
"title" : "托福听力备考提要：坚持以真题为根本",
"titleTip" : "托福听力备考提要：坚持以真题为根本",
"titleSummary" : "托福听力备考提要：坚持以真题为根本",
"descSummary" : "托福听力篇幅较长，延续时间长，以及听力内容信息量大等原因，...",
"url" : "http:\/\/go.rss.sina.com.cn\/redirect.php?url=http:\/\/edu.sina.com.cn\/yyks\/2013-10-30\/1655399819.shtml",
"pubDate" : "16:55:32",
"enterDate" : "384200:57:05",
"channelId" : "-4087173652696362417",
"channelName" : "英语考试-新浪教育",
"channelNameSummary" : "英语考试-新浪教育",
"channelUrl" : "http:\/\/edu.sina.com.cn\/rss\/index.html",
"author" : "WWW.SINA.COM.CN",
"tags" : [],
"desc" : "托福听力篇幅较长，延续时间长，以及听力内容信息量大等原因，成为很多中国考生的头疼问题。这不仅要求考生拥有较强的短暂记忆力、复述能力和快速笔记的能力，也要求考生积累大量的听力背景知识，并熟练对特点词汇进行反馈。因此，备考托福听力不简简单单需要大量的反复练习，....",
"emailed" : False,
"forwarded" : False,
"english" : False
}  , {
"index" : 1,
"articleIndex" : "7968",
"favor" :  False ,
     "read" : False,    
"title" : "听力高分技巧分享：托福听力六大\u201C宝\u201D",
"titleTip" : "听力高分技巧分享：托福听力六大\u201C宝\u201D",
"titleSummary" : "听力高分技巧分享：托福听力六大\u201C宝\u201D",
"descSummary" : "以下各部用时根据自己情况把握为佳，我还有个建议是练习(不...",
"url" : "http:\/\/go.rss.sina.com.cn\/redirect.php?url=http:\/\/edu.sina.com.cn\/yyks\/2013-10-30\/0913399748.shtml",
"pubDate" : "09:13:11",
"enterDate" : "384200:45:59",
"channelId" : "-4087173652696362417",
"channelName" : "英语考试-新浪教育",
"channelNameSummary" : "英语考试-新浪教育",
"channelUrl" : "http:\/\/edu.sina.com.cn\/rss\/index.html",
"author" : "WWW.SINA.COM.CN",
"tags" : [],
"desc" : "以下各部用时根据自己情况把握为佳，我还有个建议是练习(不是模考)时把短对话和段子分开，分而治之。 第一宝：边看边听 第一次接触托福的菜鸟大多是错到 lost an arm and a leg :) 。边看听力文字边听的目的就是熟悉美音和T的速度，为以后打基础。 第二....",
"emailed" : False,
"forwarded" : False,
"english" : False
}  , {
"index" : 2,
"articleIndex" : "7965",
"favor" :  False ,
     "read" : False,    
"title" : "备课四六级：大学英语四级词汇练习题",
"titleTip" : "备课四六级：大学英语四级词汇练习题",
"titleSummary" : "备课四六级：大学英语四级词汇练习题",
"descSummary" : "31. The college students in China are  from smoking on campus...",
"url" : "http:\/\/go.rss.sina.com.cn\/redirect.php?url=http:\/\/edu.sina.com.cn\/cet\/2013-10-30\/0910399747.shtml",
"pubDate" : "09:10:18",
"enterDate" : "384201:13:11",
"channelId" : "-4087173652696362417",
"channelName" : "英语考试-新浪教育",
"channelNameSummary" : "英语考试-新浪教育",
"channelUrl" : "http:\/\/edu.sina.com.cn\/rss\/index.html",
"author" : "WWW.SINA.COM.CN",
"tags" : [],
"desc" : "31.&#160;The college students in China are _______ from smoking on campus because this will do them no good。 A. discouraged &#160; B. observed &#160; C. obeyed &#160; D. obtained 32.&#160;Professor Smith is also the _______ of the internati....",
"emailed" : False,
"forwarded" : False,
"english" : False
}  , {
"index" : 3,
"articleIndex" : "7967",
"favor" :  False ,
     "read" : False,    
"title" : "\u201C烤鸭\u201D必读：八招搞定雅思口语考官",
"titleTip" : "\u201C烤鸭\u201D必读：八招搞定雅思口语考官",
"titleSummary" : "\u201C烤鸭\u201D必读：八招搞定雅思口语考官",
"descSummary" : "很多同学在应付笔试方面的能力令人叹服，他们在TOFEL,GRE等...",
"url" : "http:\/\/go.rss.sina.com.cn\/redirect.php?url=http:\/\/edu.sina.com.cn\/yyks\/2013-10-30\/0908399746.shtml",
"pubDate" : "09:08:28",
"enterDate" : "384200:41:16",
"channelId" : "-4087173652696362417",
"channelName" : "英语考试-新浪教育",
"channelNameSummary" : "英语考试-新浪教育",
"channelUrl" : "http:\/\/edu.sina.com.cn\/rss\/index.html",
"author" : "WWW.SINA.COM.CN",
"tags" : [],
"desc" : "很多同学在应付笔试方面的能力令人叹服，他们在TOFEL,GRE等诸类考试中所取得的成绩，即使是以英语为母语的人也只能望其项背。然而在面 对 IELTS口语考试时，他们的表现就不尽如人意了。除了语言知识的储备外，下面这些小提示，希望可以帮到正在为雅思口试而拼搏的你。 ....",
"emailed" : False,
"forwarded" : False,
"english" : False
}  , {
"index" : 4,
"articleIndex" : "7964",
"favor" :  False ,
     "read" : False,    
"title" : "CATTI阅卷老师：英译汉应重视的问题",
"titleTip" : "CATTI阅卷老师：英译汉应重视的问题",
"titleSummary" : "CATTI阅卷老师：英译汉应重视的问题",
"descSummary" : "全国翻译资格(水平)考试英译汉方面应重视的问题 陈炳发 全国翻译...",
"url" : "http:\/\/go.rss.sina.com.cn\/redirect.php?url=http:\/\/edu.sina.com.cn\/yyks\/2013-10-30\/0905399745.shtml",
"pubDate" : "09:05:19",
"enterDate" : "384201:08:12",
"channelId" : "-4087173652696362417",
"channelName" : "英语考试-新浪教育",
"channelNameSummary" : "英语考试-新浪教育",
"channelUrl" : "http:\/\/edu.sina.com.cn\/rss\/index.html",
"author" : "WWW.SINA.COM.CN",
"tags" : [],
"desc" : "全国翻译资格(水平)考试英译汉方面应重视的问题 陈炳发 全国翻译专业资格(水平)考试英语专家委员会委员 &#160; 有幸多次参与国家人事部组织、外文局实施并管理的全国翻译资格(水平)考试的阅卷、质检工作，我发现，一些考生翻译水平还是不错的，但对于翻译的基本....",
"emailed" : False,
"forwarded" : False,
"english" : False
}  , {
"index" : 5,
"articleIndex" : "7966",
"favor" :  False ,
     "read" : False,    
"title" : "2013年下半年CATTI考试准考证打印时间汇总",
"titleTip" : "2013年下半年CATTI考试准考证打印时间汇总",
"titleSummary" : "2013年下半年CATTI考试准考证打印时间汇总",
"descSummary" : "各省市翻译资格考试准考证打印时间汇总 省份 准考证打印时...",
"url" : "http:\/\/go.rss.sina.com.cn\/redirect.php?url=http:\/\/edu.sina.com.cn\/yyks\/2013-10-30\/0902399744.shtml",
"pubDate" : "09:02:44",
"enterDate" : "384200:35:32",
"channelId" : "-4087173652696362417",
"channelName" : "英语考试-新浪教育",
"channelNameSummary" : "英语考试-新浪教育",
"channelUrl" : "http:\/\/edu.sina.com.cn\/rss\/index.html",
"author" : "WWW.SINA.COM.CN",
"tags" : [],
"desc" : "各省市翻译资格考试准考证打印时间汇总 省份 准考证打印时间 北 京 打印时间：11月5日\u201511月8日打印网站：北京市人事考试网 上 海 打印时间：10月30日10:00－11月6日16:00打印网站：上海市职业....",
"emailed" : False,
"forwarded" : False,
"english" : False
}  , {
"index" : 6,
"articleIndex" : "7963",
"favor" :  False ,
     "read" : False,    
"title" : "雅思鼓励学生\"敢说行世界\"：称英语沟通为本",
"titleTip" : "雅思鼓励学生\"敢说行世界\"：称英语沟通为本",
"titleSummary" : "雅思鼓励学生\"敢说行世界\"：称英语沟通为本",
"descSummary" : "如果，在你的熟悉的地方，老板突然变成一个老外，你会不会...",
"url" : "http:\/\/go.rss.sina.com.cn\/redirect.php?url=http:\/\/edu.sina.com.cn\/yyks\/2013-10-30\/0811399742.shtml",
"pubDate" : "08:11:33",
"enterDate" : "384201:14:36",
"channelId" : "-4087173652696362417",
"channelName" : "英语考试-新浪教育",
"channelNameSummary" : "英语考试-新浪教育",
"channelUrl" : "http:\/\/edu.sina.com.cn\/rss\/index.html",
"author" : "WWW.SINA.COM.CN",
"tags" : [],
"desc" : "如果，在你的熟悉的地方，老板突然变成一个老外，你会不会很惊讶？这一幕今天就出现在了北师大附二中旁边的一个小卖部里面\u2026\u2026其实这一切都是由英国大使馆文化教育处主办的\u201CDare to Speak 敢说行世界\u201D雅思全球主题活动。在未来的一个月中，来自于不同英语国家的老外们将\u201C突袭\u201D....",
"emailed" : False,
"forwarded" : False,
"english" : False
}  , {
"index" : 7,
"articleIndex" : "7962",
"favor" :  False ,
     "read" : False,    
"title" : "雅思阅读基本复习思路：把握两点拿高分",
"titleTip" : "雅思阅读基本复习思路：把握两点拿高分",
"titleSummary" : "雅思阅读基本复习思路：把握两点拿高分",
"descSummary" : "想要拿到雅思阅读高分，一定的英语基础和技巧都是不可缺的。...",
"url" : "http:\/\/go.rss.sina.com.cn\/redirect.php?url=http:\/\/edu.sina.com.cn\/yyks\/2013-10-29\/0937399586.shtml",
"pubDate" : "昨天09:37:09",
"enterDate" : "384200:43:52",
"channelId" : "-4087173652696362417",
"channelName" : "英语考试-新浪教育",
"channelNameSummary" : "英语考试-新浪教育",
"channelUrl" : "http:\/\/edu.sina.com.cn\/rss\/index.html",
"author" : "WWW.SINA.COM.CN",
"tags" : [],
"desc" : "想要拿到雅思阅读高分，一定的英语基础和技巧都是不可缺的。而雅思阅读文章长，那么在准备雅思考试的前期准备中加入适当的快速阅读的训练也是必不可少的。 以上三点是为考好雅思做了一个基础的准备工作。然后再结合处理每种题型的一些技巧，结合真题，多加练习，不断总结成功....",
"emailed" : False,
"forwarded" : False,
"english" : False
}  , {
"index" : 8,
"articleIndex" : "7961",
"favor" :  False ,
     "read" : False,    
"title" : "大陆考生雅思总分全球倒数 口语世界最差",
"titleTip" : "大陆考生雅思总分全球倒数 口语世界最差",
"titleSummary" : "大陆考生雅思总分全球倒数 口语世界最差",
"descSummary" : "编辑点评：根据雅思官方网站公布的2012年统计数据，在去年...",
"url" : "http:\/\/go.rss.sina.com.cn\/redirect.php?url=http:\/\/edu.sina.com.cn\/yyks\/2013-10-29\/0933399585.shtml",
"pubDate" : "昨天09:33:05",
"enterDate" : "384201:09:53",
"channelId" : "-4087173652696362417",
"channelName" : "英语考试-新浪教育",
"channelNameSummary" : "英语考试-新浪教育",
"channelUrl" : "http:\/\/edu.sina.com.cn\/rss\/index.html",
"author" : "WWW.SINA.COM.CN",
"tags" : [],
"desc" : "编辑点评：根据雅思官方网站公布的2012年统计数据，在去年，全球主要的41个雅思考试国家当中，中国大陆考生的学术类雅思平均成绩第34名，排进了倒数10名中。而其中最惨不忍睹当属雅思的单项口语成绩和中东国家卡塔尔并列世界倒数第1。 随着留学的越发火热，雅思考试也....",
"emailed" : False,
"forwarded" : False,
"english" : False
}  , {
"index" : 9,
"articleIndex" : "7960",
"favor" :  False ,
     "read" : False,    
"title" : "2013年12月英语四级考试考生增加1.6万人",
"titleTip" : "2013年12月英语四级考试考生增加1.6万人",
"titleSummary" : "2013年12月英语四级考试考生增加1.6万人",
"descSummary" : "本报讯(华商晨报 华商响网记者 谭皓)今年下半年英语四级考试...",
"url" : "http:\/\/go.rss.sina.com.cn\/redirect.php?url=http:\/\/edu.sina.com.cn\/cet\/2013-10-28\/1940399575.shtml",
"pubDate" : "前天19:40:22",
"enterDate" : "384200:49:25",
"channelId" : "-4087173652696362417",
"channelName" : "英语考试-新浪教育",
"channelNameSummary" : "英语考试-新浪教育",
"channelUrl" : "http:\/\/edu.sina.com.cn\/rss\/index.html",
"author" : "WWW.SINA.COM.CN",
"tags" : [],
"desc" : "本报讯(华商晨报 华商响网记者 谭皓)今年下半年英语四级考试，报考考生同比增加1.6万人。 昨日，记者从辽宁省招考办了解到，2013年下半年辽宁省大学外语考试报名工作现已结束，本次考试共进行大学英语四级、大学英语六级、高等学校英语应用能力考试A级、高等学校英语应....",
"emailed" : False,
"forwarded" : False,
"english" : False
}  , {
"index" : 10,
"articleIndex" : "7959",
"favor" :  False ,
     "read" : False,    
"title" : "\u201C烤鸭\u201D必读：雅思写作错误备考方法一览",
"titleTip" : "\u201C烤鸭\u201D必读：雅思写作错误备考方法一览",
"titleSummary" : "\u201C烤鸭\u201D必读：雅思写作错误备考方法一览",
"descSummary" : "雅思写作考试是对考生的综合语言能力的考查，但有的考生在...",
"url" : "http:\/\/go.rss.sina.com.cn\/redirect.php?url=http:\/\/edu.sina.com.cn\/yyks\/2013-10-28\/1931399574.shtml",
"pubDate" : "前天19:31:19",
"enterDate" : "384200:40:22",
"channelId" : "-4087173652696362417",
"channelName" : "英语考试-新浪教育",
"channelNameSummary" : "英语考试-新浪教育",
"channelUrl" : "http:\/\/edu.sina.com.cn\/rss\/index.html",
"author" : "WWW.SINA.COM.CN",
"tags" : [],
"desc" : "雅思写作考试是对考生的综合语言能力的考查，但有的考生在备考过程中，往往只是注重应试培养。那我们应该如何合理高效的备考雅思写作呢? 正如之前上面所说，许多考生备考过程中，往往会忽视了对语言知识和实际运用能力的锻炼，那么常见\u201C不可取\u201D的备考方法有哪些？考....",
"emailed" : False,
"forwarded" : False,
"english" : False
}  , {
"index" : 11,
"articleIndex" : "7958",
"favor" :  False ,
     "read" : False,    
"title" : "\u201C学长\u201D分享：告诉你如何使用托福机经",
"titleTip" : "\u201C学长\u201D分享：告诉你如何使用托福机经",
"titleSummary" : "\u201C学长\u201D分享：告诉你如何使用托福机经",
"descSummary" : "编辑点评：相信备考托福的同学们肯定都会买托福机经，然而怎...",
"url" : "http:\/\/go.rss.sina.com.cn\/redirect.php?url=http:\/\/edu.sina.com.cn\/yyks\/2013-10-28\/1928399573.shtml",
"pubDate" : "前天19:28:52",
"enterDate" : "384200:37:55",
"channelId" : "-4087173652696362417",
"channelName" : "英语考试-新浪教育",
"channelNameSummary" : "英语考试-新浪教育",
"channelUrl" : "http:\/\/edu.sina.com.cn\/rss\/index.html",
"author" : "WWW.SINA.COM.CN",
"tags" : [],
"desc" : "编辑点评：相信备考托福的同学们肯定都会买托福机经，然而怎样才能用好托福机经呢？本文是一位考生为大家分享他对于使用托福机经的经验方法，给正在备考托福的同学做以参考。 托福机经用好的话，可以在很大程度上帮助我们我们突破自己的托福难点。在这一方面上，我想跟....",
"emailed" : False,
"forwarded" : False,
"english" : False
}  , {
"index" : 12,
"articleIndex" : "7957",
"favor" :  False ,
     "read" : False,    
"title" : "四级真题英语阅读长难句分析",
"titleTip" : "四级真题英语阅读长难句分析",
"titleSummary" : "四级真题英语阅读长难句分析",
"descSummary" : "小编前言：阅读是四级英语中重要的得分点和难点，对长难句的分析则决定...",
"url" : "http:\/\/go.rss.sina.com.cn\/redirect.php?url=http:\/\/edu.sina.com.cn\/cet\/2013-10-27\/1251399451.shtml",
"pubDate" : "2013年10月27日 (3天前)",
"enterDate" : "384200:36:06",
"channelId" : "-4087173652696362417",
"channelName" : "英语考试-新浪教育",
"channelNameSummary" : "英语考试-新浪教育",
"channelUrl" : "http:\/\/edu.sina.com.cn\/rss\/index.html",
"author" : "WWW.SINA.COM.CN",
"tags" : [],
"desc" : "小编前言：阅读是四级英语中重要的得分点和难点，对长难句的分析则决定了对阅读的彻底理解，也是学习语法，积累高级词汇、句型不可或缺的来源。而四级英语真题阅读部分均选自Times、Telegraph等著名外文报纸及杂志，其行文和词汇原汁原味，值得考生细细品味和灵活借鉴。准备20....",
"emailed" : False,
"forwarded" : False,
"english" : False
}  , {
"index" : 13,
"articleIndex" : "7956",
"favor" :  False ,
     "read" : False,    
"title" : "\u201C烤鸭\u201D必读：托福阅读单词题破题四法",
"titleTip" : "\u201C烤鸭\u201D必读：托福阅读单词题破题四法",
"titleSummary" : "\u201C烤鸭\u201D必读：托福阅读单词题破题四法",
"descSummary" : "词汇题通常的提问方式就是 the word x in the passage means...",
"url" : "http:\/\/go.rss.sina.com.cn\/redirect.php?url=http:\/\/edu.sina.com.cn\/yyks\/2013-10-27\/1250399450.shtml",
"pubDate" : "2013年10月27日 (3天前)",
"enterDate" : "384200:34:21",
"channelId" : "-4087173652696362417",
"channelName" : "英语考试-新浪教育",
"channelNameSummary" : "英语考试-新浪教育",
"channelUrl" : "http:\/\/edu.sina.com.cn\/rss\/index.html",
"author" : "WWW.SINA.COM.CN",
"tags" : [],
"desc" : "词汇题通常的提问方式就是 the word x in the passage means\u2026它主要考察的是某个单词在句子当中意思。如果我们本身就认识这个单词，那么难度是不是就大大降低了。可是也说不准有突然会疏忽的单词，那么除了背单词这种固本培元的方法之外，还有什么技巧可以来解决呢？ ....",
"emailed" : False,
"forwarded" : False,
"english" : False
}  , {
"index" : 14,
"articleIndex" : "7955",
"favor" :  False ,
     "read" : False,    
"title" : "华科大附中设ACT考点 22人在校考美国高考",
"titleTip" : "华科大附中设ACT考点 22人在校考美国高考",
"titleSummary" : "华科大附中设ACT考点 22人在校考美国高考",
"descSummary" : "昨天上午8点，华中科技大学附属中学教学楼四楼的一间教室...",
"url" : "http:\/\/go.rss.sina.com.cn\/redirect.php?url=http:\/\/edu.sina.com.cn\/yyks\/2013-10-27\/0932399427.shtml",
"pubDate" : "2013年10月27日 (3天前)",
"enterDate" : "384200:47:30",
"channelId" : "-4087173652696362417",
"channelName" : "英语考试-新浪教育",
"channelNameSummary" : "英语考试-新浪教育",
"channelUrl" : "http:\/\/edu.sina.com.cn\/rss\/index.html",
"author" : "WWW.SINA.COM.CN",
"tags" : [],
"desc" : "昨天上午8点，华中科技大学附属中学教学楼四楼的一间教室里，该校PGA中美国际班22名高三学生参加了美国高考(ACT)。这是湖北省中学生首次在本校参加美国高考。 ACT全称为\u201CAmerican College Testing\u201D，中文名称为\u201C美国大学入学考试\u201D，与SAT考试同被称为美国高考，不....",
"emailed" : False,
"forwarded" : False,
"english" : False
}  , {
"index" : 15,
"articleIndex" : "7954",
"favor" :  False ,
     "read" : False,    
"title" : "四六级复习避免走弯路：抓住真题是关键",
"titleTip" : "四六级复习避免走弯路：抓住真题是关键",
"titleSummary" : "四六级复习避免走弯路：抓住真题是关键",
"descSummary" : "十月过半，十一放松后大家要赶紧收回心来准备12月份的四六...",
"url" : "http:\/\/go.rss.sina.com.cn\/redirect.php?url=http:\/\/edu.sina.com.cn\/cet\/2013-10-26\/1414399419.shtml",
"pubDate" : "2013年10月26日 (4天前)",
"enterDate" : "384201:02:33",
"channelId" : "-4087173652696362417",
"channelName" : "英语考试-新浪教育",
"channelNameSummary" : "英语考试-新浪教育",
"channelUrl" : "http:\/\/edu.sina.com.cn\/rss\/index.html",
"author" : "WWW.SINA.COM.CN",
"tags" : [],
"desc" : "十月过半，十一放松后大家要赶紧收回心来准备12月份的四六级考试。特别是那些还没有开始复习的同学，一定要意识到时间的紧迫性，因为两个月的时间稍纵即逝。一分耕耘，一分收获，要想在两个月后的四六级考试中取得一个好的成绩，现在就要行动起来了。 跟其他考试一样，....",
"emailed" : False,
"forwarded" : False,
"english" : False
}  , {
"index" : 16,
"articleIndex" : "7951",
"favor" :  False ,
     "read" : False,    
"title" : "\u201C烤鸭\u201D必读：雅思口语训练复述五步法",
"titleTip" : "\u201C烤鸭\u201D必读：雅思口语训练复述五步法",
"titleSummary" : "\u201C烤鸭\u201D必读：雅思口语训练复述五步法",
"descSummary" : "雅思口语最理想的练习方法当然是有个说英语的外国人天天在你...",
"url" : "http:\/\/go.rss.sina.com.cn\/redirect.php?url=http:\/\/edu.sina.com.cn\/yyks\/2013-10-25\/2015399406.shtml",
"pubDate" : "2013年10月25日 (5天前)",
"enterDate" : "384201:06:39",
"channelId" : "-4087173652696362417",
"channelName" : "英语考试-新浪教育",
"channelNameSummary" : "英语考试-新浪教育",
"channelUrl" : "http:\/\/edu.sina.com.cn\/rss\/index.html",
"author" : "WWW.SINA.COM.CN",
"tags" : [],
"desc" : "雅思口语最理想的练习方法当然是有个说英语的外国人天天在你身边陪你说，但这个条件一般很少有人能具备，那么怎么来练习雅思口语呢，自然就是自己和自己说练习(当然后期还要找一些外国人进行语言交流体验)，请相信自己和自己练习口语这一办法很管用，叫\u201C复述法\u201D，推荐给你：....",
"emailed" : False,
"forwarded" : False,
"english" : False
}  , {
"index" : 17,
"articleIndex" : "7953",
"favor" :  False ,
     "read" : False,    
"title" : "\u201C烤鸭\u201D必读：雅思考前一周如何备考",
"titleTip" : "\u201C烤鸭\u201D必读：雅思考前一周如何备考",
"titleSummary" : "\u201C烤鸭\u201D必读：雅思考前一周如何备考",
"descSummary" : "一、考前一周The Week Before the Test 虽然你一直忙着备考，但...",
"url" : "http:\/\/go.rss.sina.com.cn\/redirect.php?url=http:\/\/edu.sina.com.cn\/yyks\/2013-10-25\/2011399405.shtml",
"pubDate" : "2013年10月25日 (5天前)",
"enterDate" : "384200:32:33",
"channelId" : "-4087173652696362417",
"channelName" : "英语考试-新浪教育",
"channelNameSummary" : "英语考试-新浪教育",
"channelUrl" : "http:\/\/edu.sina.com.cn\/rss\/index.html",
"author" : "WWW.SINA.COM.CN",
"tags" : [],
"desc" : "一、考前一周The Week Before the Test 虽然你一直忙着备考，但是也不要忘记锻炼身体。要确保自己补充了足量的蛋白质和足够的睡眠\u2015\u2015熬夜学到凌晨三点是毫无意义的。只有这样，你才能保证自己有精力和精神来应对一周后的考试，否则只能导致考试当天状态不佳。还有就是....",
"emailed" : False,
"forwarded" : False,
"english" : False
}  , {
"index" : 18,
"articleIndex" : "7952",
"favor" :  False ,
     "read" : False,    
"title" : "雅思写作如何突破：抓住多样性和准确性",
"titleTip" : "雅思写作如何突破：抓住多样性和准确性",
"titleSummary" : "雅思写作如何突破：抓住多样性和准确性",
"descSummary" : "大多数考生备考雅思的过程中往往在雅思写作方面非常薄弱。...",
"url" : "http:\/\/go.rss.sina.com.cn\/redirect.php?url=http:\/\/edu.sina.com.cn\/yyks\/2013-10-25\/2008399404.shtml",
"pubDate" : "2013年10月25日 (5天前)",
"enterDate" : "384200:29:20",
"channelId" : "-4087173652696362417",
"channelName" : "英语考试-新浪教育",
"channelNameSummary" : "英语考试-新浪教育",
"channelUrl" : "http:\/\/edu.sina.com.cn\/rss\/index.html",
"author" : "WWW.SINA.COM.CN",
"tags" : [],
"desc" : "大多数考生备考雅思的过程中往往在雅思写作方面非常薄弱。然而写作不像其他课程可以通过短期的特训得到很快的提高，它要求考生花时间对词汇，句型，语法等等内容的整理，记忆，以及运用。那么应该如何突破取得高分？ 在雅思写作的评分标准中，最后一项是\u201CGrammatical....",
"emailed" : False,
"forwarded" : False,
"english" : False
}  , {
"index" : 19,
"articleIndex" : "7950",
"favor" :  False ,
     "read" : False,    
"title" : "雅思考试官方公布2014考试日期 报名已开始",
"titleTip" : "雅思考试官方公布2014考试日期 报名已开始",
"titleSummary" : "雅思考试官方公布2014考试日期 报名已开始",
"descSummary" : "人民网北京10月24日电 (记者林露 实习生葛蕾)记者今天从雅...",
"url" : "http:\/\/go.rss.sina.com.cn\/redirect.php?url=http:\/\/edu.sina.com.cn\/yyks\/2013-10-24\/1831399212.shtml",
"pubDate" : "2013年10月24日 (6天前)",
"enterDate" : "384199:56:53",
"channelId" : "-4087173652696362417",
"channelName" : "英语考试-新浪教育",
"channelNameSummary" : "英语考试-新浪教育",
"channelUrl" : "http:\/\/edu.sina.com.cn\/rss\/index.html",
"author" : "WWW.SINA.COM.CN",
"tags" : [],
"desc" : "人民网北京10月24日电 (记者林露 实习生葛蕾)记者今天从雅思考试主办方英国文化协会获悉，2014年雅思考试日期已正式公布。2014年共有48个考试日期，考生即日起可报考明年1月至3月的雅思考试，4月以后的考试将从2014年1月1日起接受报名。 截至目前，雅思考试在全国35个....",
"emailed" : False,
"forwarded" : False,
"english" : False
} ]
}
