{
"mode" : {"viewTitle" : 1,   "viewNew" : 0,  "pageIndex" : 2 },
 "channel" : {"id" : "-4087173652696362417", "booked" : False, "subNumber" : 1, "name" : "英语考试-新浪教育", "url" : "http:\/\/edu.sina.com.cn\/rss\/index.html", "feed" : "http:\/\/rss.sina.com.cn\/edu\/yyks.xml", "author" : "WWW.SINA.COM.CN", "desc" : "文化教育-英语考试", "imageUrl" : "http:\/\/www.sinaimg.cn\/home\/deco\/2009\/0330\/logo_home_edu.gif", "postPerWeek" : "0", "lastCrawTime" : "17:18:25", "crawDateTime" : "17:18:25", "lastHttpCode" : "200"}, "page" : {
"startIndex" : 20,
"totalCount" : 5000,
"pageIndex" : 2,
"lastPage" : 250,
"pageSize" : 20,
"english" :  False },
 "unreadNum" : 0, "shotIndex" : -1,
"articles" : [
{
"index" : 0,
"articleIndex" : "7949",
"favor" :  False ,
     "read" : False,    
"title" : "2014雅思考试报名截止及成绩单寄送日期",
"titleTip" : "2014雅思考试报名截止及成绩单寄送日期",
"titleSummary" : "2014雅思考试报名截止及成绩单寄送日期",
"descSummary" : "\u201C2014年雅思考试时间\u201D由雅思官方发布了，包括了考试日期...",
"url" : "http:\/\/go.rss.sina.com.cn\/redirect.php?url=http:\/\/edu.sina.com.cn\/yyks\/2013-10-24\/1829399210.shtml",
"pubDate" : "2013年10月24日 (6天前)",
"enterDate" : "384199:55:00",
"channelId" : "-4087173652696362417",
"channelName" : "英语考试-新浪教育",
"channelNameSummary" : "英语考试-新浪教育",
"channelUrl" : "http:\/\/edu.sina.com.cn\/rss\/index.html",
"author" : "WWW.SINA.COM.CN",
"tags" : [],
"desc" : "\u201C2014年雅思考试时间\u201D由雅思官方发布了，包括了考试日期、类别、报名截止日期、口试时间查询及成绩单寄送日期。给各位考生们参考。 2014年考试报名截止日期、准考证打印日期和成绩单寄送日期 考试日期 类别 报名截....",
"emailed" : False,
"forwarded" : False,
"english" : False
}  , {
"index" : 1,
"articleIndex" : "7947",
"favor" :  False ,
     "read" : False,    
"title" : "托福阅读方法推荐：搞定文章中的每一句话",
"titleTip" : "托福阅读方法推荐：搞定文章中的每一句话",
"titleSummary" : "托福阅读方法推荐：搞定文章中的每一句话",
"descSummary" : "平日在托福阅读练习时，不要过于急躁，因为你急的话即便是...",
"url" : "http:\/\/go.rss.sina.com.cn\/redirect.php?url=http:\/\/edu.sina.com.cn\/yyks\/2013-10-24\/1828399208.shtml",
"pubDate" : "2013年10月24日 (6天前)",
"enterDate" : "384200:53:41",
"channelId" : "-4087173652696362417",
"channelName" : "英语考试-新浪教育",
"channelNameSummary" : "英语考试-新浪教育",
"channelUrl" : "http:\/\/edu.sina.com.cn\/rss\/index.html",
"author" : "WWW.SINA.COM.CN",
"tags" : [],
"desc" : "平日在托福阅读练习时，不要过于急躁，因为你急的话即便是练习时间再长也达不到效果。遇到生词，马上用笔做出标记(如果是电子文本最好，在Word里可以按快捷键Ctrl+U加上一个\u201C下划线\u201D标记\u2015\u2015随后就可以用\u201C选择相同格式文本\u201D把那些生词一下子全都提取出来)，而后去查词典。....",
"emailed" : False,
"forwarded" : False,
"english" : False
}  , {
"index" : 2,
"articleIndex" : "7948",
"favor" :  False ,
     "read" : False,    
"title" : "托福写作28分经验：托福写作的那点事儿",
"titleTip" : "托福写作28分经验：托福写作的那点事儿",
"titleSummary" : "托福写作28分经验：托福写作的那点事儿",
"descSummary" : "First Blood: 综合写作 综合写作，先说字数。我从没超过250词...",
"url" : "http:\/\/go.rss.sina.com.cn\/redirect.php?url=http:\/\/edu.sina.com.cn\/yyks\/2013-10-24\/1650399194.shtml",
"pubDate" : "2013年10月24日 (6天前)",
"enterDate" : "384198:15:05",
"channelId" : "-4087173652696362417",
"channelName" : "英语考试-新浪教育",
"channelNameSummary" : "英语考试-新浪教育",
"channelUrl" : "http:\/\/edu.sina.com.cn\/rss\/index.html",
"author" : "WWW.SINA.COM.CN",
"tags" : [],
"desc" : "First Blood: 综合写作 综合写作，先说字数。我从没超过250词。官方给出的数据是150-225，个人认为有点扯淡，因为200词以下基本写不清楚。坛子里一些大神和版主对字数的建议为300+或者说the more, the better。个人认为没必要。网上流传着各种模版，号称什么万能咯无敌....",
"emailed" : False,
"forwarded" : False,
"english" : False
}  , {
"index" : 3,
"articleIndex" : "7943",
"favor" :  False ,
     "read" : False,    
"title" : "新\u201C烤鸭\u201D必读：如何突破雅思阅读四大障碍",
"titleTip" : "新\u201C烤鸭\u201D必读：如何突破雅思阅读四大障碍",
"titleSummary" : "新\u201C烤鸭\u201D必读：如何突破雅思阅读四大障碍",
"descSummary" : "一、单词量不够 雅思普通培训类阅读文章中触及单词7000...",
"url" : "http:\/\/go.rss.sina.com.cn\/redirect.php?url=http:\/\/edu.sina.com.cn\/yyks\/2013-10-23\/1629399052.shtml",
"pubDate" : "2013年10月23日 (1周前)",
"enterDate" : "384200:58:40",
"channelId" : "-4087173652696362417",
"channelName" : "英语考试-新浪教育",
"channelNameSummary" : "英语考试-新浪教育",
"channelUrl" : "http:\/\/edu.sina.com.cn\/rss\/index.html",
"author" : "WWW.SINA.COM.CN",
"tags" : [],
"desc" : "一、单词量不够 雅思普通培训类阅读文章中触及单词7000左右，但通常来说词汇量在4000左右即可应考。单词量不行的考生，应尽可能在短期内扩大词汇量，给阅读文章打基础。然而不少考生都喜欢直接被单词本，但又会抱怨背不进去，这样容易遗忘或混淆单词的意义。 有....",
"emailed" : False,
"forwarded" : False,
"english" : False
}  , {
"index" : 4,
"articleIndex" : "7946",
"favor" :  False ,
     "read" : False,    
"title" : "2014雅思考试时间公布：共有48个考试日期",
"titleTip" : "2014雅思考试时间公布：共有48个考试日期",
"titleSummary" : "2014雅思考试时间公布：共有48个考试日期",
"descSummary" : "日前，雅思考试主办方英国文化协会正式公布2014年雅思考...",
"url" : "http:\/\/go.rss.sina.com.cn\/redirect.php?url=http:\/\/edu.sina.com.cn\/yyks\/2013-10-23\/1625399051.shtml",
"pubDate" : "2013年10月23日 (1周前)",
"enterDate" : "384197:54:38",
"channelId" : "-4087173652696362417",
"channelName" : "英语考试-新浪教育",
"channelNameSummary" : "英语考试-新浪教育",
"channelUrl" : "http:\/\/edu.sina.com.cn\/rss\/index.html",
"author" : "WWW.SINA.COM.CN",
"tags" : [],
"desc" : "日前，雅思考试主办方英国文化协会正式公布2014年雅思考试日期。2014年共有48个考试日期，考生可从即日起开始报考2014年1月-3月的雅思考试，2014年4月以后的考试将从2014年1月1日起接受报名。截至目前，雅思考试在全国35个城市共设有47个考点，有关具体日期和场地安排，考生可....",
"emailed" : False,
"forwarded" : False,
"english" : False
}  , {
"index" : 5,
"articleIndex" : "7945",
"favor" :  False ,
     "read" : False,    
"title" : "经验分享：小菜鸟如何战胜新托福听力",
"titleTip" : "经验分享：小菜鸟如何战胜新托福听力",
"titleSummary" : "经验分享：小菜鸟如何战胜新托福听力",
"descSummary" : "新托福听力拿到了25分，虽然离牛人还差得远，但对于三个月的...",
"url" : "http:\/\/go.rss.sina.com.cn\/redirect.php?url=http:\/\/edu.sina.com.cn\/yyks\/2013-10-23\/1607399045.shtml",
"pubDate" : "2013年10月23日 (1周前)",
"enterDate" : "384197:36:21",
"channelId" : "-4087173652696362417",
"channelName" : "英语考试-新浪教育",
"channelNameSummary" : "英语考试-新浪教育",
"channelUrl" : "http:\/\/edu.sina.com.cn\/rss\/index.html",
"author" : "WWW.SINA.COM.CN",
"tags" : [],
"desc" : "新托福听力拿到了25分，虽然离牛人还差得远，但对于三个月的历程来说，已经对得起自己了，实力和心理都走过了一个成长的过程。下面给大家分享一下我是如何备考的托福听力的。总结的来说，是从初听到精听到狂听再到精听。个人不推荐泛听。 1.初听 首先练习听音的....",
"emailed" : False,
"forwarded" : False,
"english" : False
}  , {
"index" : 6,
"articleIndex" : "7944",
"favor" :  False ,
     "read" : False,    
"title" : "托福遇到生单词咋办：4个方法帮你猜出词义",
"titleTip" : "托福遇到生单词咋办：4个方法帮你猜出词义",
"titleSummary" : "托福遇到生单词咋办：4个方法帮你猜出词义",
"descSummary" : "1、根据同义、反义关系猜词 Today' s teenagers seem to b...",
"url" : "http:\/\/go.rss.sina.com.cn\/redirect.php?url=http:\/\/edu.sina.com.cn\/yyks\/2013-10-23\/1500399010.shtml",
"pubDate" : "2013年10月23日 (1周前)",
"enterDate" : "384196:29:04",
"channelId" : "-4087173652696362417",
"channelName" : "英语考试-新浪教育",
"channelNameSummary" : "英语考试-新浪教育",
"channelUrl" : "http:\/\/edu.sina.com.cn\/rss\/index.html",
"author" : "WWW.SINA.COM.CN",
"tags" : [],
"desc" : "1、根据同义、反义关系猜词 Today' s teenagers seem to be more liberal in their ideas than their _______ grandparents。 A. freethinking B. traditional C. old D. happy traditional与liberal意思相反，故选B。 2、根据句意或段落文章的....",
"emailed" : False,
"forwarded" : False,
"english" : False
}  , {
"index" : 7,
"articleIndex" : "7939",
"favor" :  False ,
     "read" : False,    
"title" : "2013年雅思作文流程图注意事项及解题技巧",
"titleTip" : "2013年雅思作文流程图注意事项及解题技巧",
"titleSummary" : "2013年雅思作文流程图注意事项及解题技巧",
"descSummary" : "2013年雅思作文中出现流程图的次数确实超出往常。有一些...",
"url" : "http:\/\/go.rss.sina.com.cn\/redirect.php?url=http:\/\/edu.sina.com.cn\/yyks\/2013-10-22\/1718398855.shtml",
"pubDate" : "2013年10月22日 (1周前)",
"enterDate" : "384200:52:06",
"channelId" : "-4087173652696362417",
"channelName" : "英语考试-新浪教育",
"channelNameSummary" : "英语考试-新浪教育",
"channelUrl" : "http:\/\/edu.sina.com.cn\/rss\/index.html",
"author" : "WWW.SINA.COM.CN",
"tags" : [],
"desc" : "2013年雅思作文中出现流程图的次数确实超出往常。有一些学生这一年考了四次，竟然都考了流程图。其实，流程图并不像很多一知半解的同学流传那样恐怖，反之，懂得方法，流程图其实非常容易。 首先，流程图有几条注意事项 1.&#160;时态：一般现在时&#160;(除非给....",
"emailed" : False,
"forwarded" : False,
"english" : False
}  , {
"index" : 8,
"articleIndex" : "7938",
"favor" :  False ,
     "read" : False,    
"title" : "雅思阅读：如何快速找到段落中心句",
"titleTip" : "雅思阅读：如何快速找到段落中心句",
"titleSummary" : "雅思阅读：如何快速找到段落中心句",
"descSummary" : "很多同学觉得雅思阅读中选小标题(List of Headings)最难，同学经常...",
"url" : "http:\/\/go.rss.sina.com.cn\/redirect.php?url=http:\/\/edu.sina.com.cn\/yyks\/2013-10-22\/1716398853.shtml",
"pubDate" : "2013年10月22日 (1周前)",
"enterDate" : "384200:49:43",
"channelId" : "-4087173652696362417",
"channelName" : "英语考试-新浪教育",
"channelNameSummary" : "英语考试-新浪教育",
"channelUrl" : "http:\/\/edu.sina.com.cn\/rss\/index.html",
"author" : "WWW.SINA.COM.CN",
"tags" : [],
"desc" : "很多同学觉得雅思阅读中选小标题(List&#160;of&#160;Headings)最难，同学经常会说，\u201C老师，这么短的时间里根本读不懂段落的意思。\u201D针对这一常见问题，我们来谈谈怎样快速把握段落大意。 我们知道雅思考试中的阅读文章主要分为两类，即说明文和议论文。这两类文章的主....",
"emailed" : False,
"forwarded" : False,
"english" : False
}  , {
"index" : 9,
"articleIndex" : "7942",
"favor" :  False ,
     "read" : False,    
"title" : "\u201C烤鸭\u201D必读：盘点雅思听力\u201C送分\u201D词汇",
"titleTip" : "\u201C烤鸭\u201D必读：盘点雅思听力\u201C送分\u201D词汇",
"titleSummary" : "\u201C烤鸭\u201D必读：盘点雅思听力\u201C送分\u201D词汇",
"descSummary" : "雅思听力考试的section3和section4一定是教育场景的内容，...",
"url" : "http:\/\/go.rss.sina.com.cn\/redirect.php?url=http:\/\/edu.sina.com.cn\/yyks\/2013-10-22\/1713398850.shtml",
"pubDate" : "2013年10月22日 (1周前)",
"enterDate" : "384199:46:26",
"channelId" : "-4087173652696362417",
"channelName" : "英语考试-新浪教育",
"channelNameSummary" : "英语考试-新浪教育",
"channelUrl" : "http:\/\/edu.sina.com.cn\/rss\/index.html",
"author" : "WWW.SINA.COM.CN",
"tags" : [],
"desc" : "雅思听力考试的section3和section4一定是教育场景的内容，我们都知道section4是课堂授课场景，所以内容一般几乎难以预测，变化多端，section3虽然在《剑8》中也出现了\u201C研讨会\u201D这种趋向于section4内容的情况，但是2012年10月份的4次考试和11月份的3次考试中听力section3又回....",
"emailed" : False,
"forwarded" : False,
"english" : False
}  , {
"index" : 10,
"articleIndex" : "7941",
"favor" :  False ,
     "read" : False,    
"title" : "2013年9月雅思写作真题及范文解析",
"titleTip" : "2013年9月雅思写作真题及范文解析",
"titleSummary" : "2013年9月雅思写作真题及范文解析",
"descSummary" : "文章来源：新东方雅思VIP教研组 一、考试时间：2013.09.28 二、考...",
"url" : "http:\/\/go.rss.sina.com.cn\/redirect.php?url=http:\/\/edu.sina.com.cn\/yyks\/2013-10-22\/1709398848.shtml",
"pubDate" : "2013年10月22日 (1周前)",
"enterDate" : "384199:42:57",
"channelId" : "-4087173652696362417",
"channelName" : "英语考试-新浪教育",
"channelNameSummary" : "英语考试-新浪教育",
"channelUrl" : "http:\/\/edu.sina.com.cn\/rss\/index.html",
"author" : "WWW.SINA.COM.CN",
"tags" : [],
"desc" : "文章来源：新东方雅思VIP教研组 一、考试时间：2013.09.28 二、考试整体概述： Task&#160;1:&#160;表格 Task&#160;2:&#160;议论文 三、具体题目分析： Task&#160;1:&#160; Task 1: The line chart shows the percentage of....",
"emailed" : False,
"forwarded" : False,
"english" : False
}  , {
"index" : 11,
"articleIndex" : "7935",
"favor" :  False ,
     "read" : False,    
"title" : "\u201C烤鸭\u201D必读：新托福高分考试心得汇总",
"titleTip" : "\u201C烤鸭\u201D必读：新托福高分考试心得汇总",
"titleSummary" : "\u201C烤鸭\u201D必读：新托福高分考试心得汇总",
"descSummary" : "同学们在托福考试的准备过程和考试的过程当中常常会遇到各式...",
"url" : "http:\/\/go.rss.sina.com.cn\/redirect.php?url=http:\/\/edu.sina.com.cn\/yyks\/2013-10-22\/1657398843.shtml",
"pubDate" : "2013年10月22日 (1周前)",
"enterDate" : "384201:00:37",
"channelId" : "-4087173652696362417",
"channelName" : "英语考试-新浪教育",
"channelNameSummary" : "英语考试-新浪教育",
"channelUrl" : "http:\/\/edu.sina.com.cn\/rss\/index.html",
"author" : "WWW.SINA.COM.CN",
"tags" : [],
"desc" : "同学们在托福考试的准备过程和考试的过程当中常常会遇到各式各样的问题，某种程度上成为了他们取得高分道路上的绊脚石。本文中将综合列举十条以往考生们的经验来给同学们做一个提前的警告。 1.托福考试高分的基础是英语的应用。所以光做托福真题和模拟题是不够的，如果....",
"emailed" : False,
"forwarded" : False,
"english" : False
}  , {
"index" : 12,
"articleIndex" : "7940",
"favor" :  False ,
     "read" : False,    
"title" : "BEC商务英语活学活用：如何应对性骚扰",
"titleTip" : "BEC商务英语活学活用：如何应对性骚扰",
"titleSummary" : "BEC商务英语活学活用：如何应对性骚扰",
"descSummary" : "BEC商务英语，商务英语考试中的No.1，含金量已经无需多言...",
"url" : "http:\/\/go.rss.sina.com.cn\/redirect.php?url=http:\/\/edu.sina.com.cn\/yyks\/2013-10-22\/1637398837.shtml",
"pubDate" : "2013年10月22日 (1周前)",
"enterDate" : "384199:10:35",
"channelId" : "-4087173652696362417",
"channelName" : "英语考试-新浪教育",
"channelNameSummary" : "英语考试-新浪教育",
"channelUrl" : "http:\/\/edu.sina.com.cn\/rss\/index.html",
"author" : "WWW.SINA.COM.CN",
"tags" : [],
"desc" : "BEC商务英语，商务英语考试中的No.1，含金量已经无需多言。但是，无论是还在犹豫是否要参加BEC考试的，还是已经通过BEC考试的，都在疑惑到底学了BEC有什么用呢？本节目通过核心学习、词汇、课文、对话等四方面内容让BEC活学活用起来。 Ⅰ。核心学习： Sexual ha....",
"emailed" : False,
"forwarded" : False,
"english" : False
}  , {
"index" : 13,
"articleIndex" : "7937",
"favor" :  False ,
     "read" : False,    
"title" : "2013年10月英语四级六级网考安排",
"titleTip" : "2013年10月英语四级六级网考安排",
"titleSummary" : "2013年10月英语四级六级网考安排",
"descSummary" : "模拟测试时间：2013年10月14日-2013年10月18日 正式数据发布时间...",
"url" : "http:\/\/go.rss.sina.com.cn\/redirect.php?url=http:\/\/edu.sina.com.cn\/cet\/2013-10-22\/1600398828.shtml",
"pubDate" : "2013年10月22日 (1周前)",
"enterDate" : "384199:33:41",
"channelId" : "-4087173652696362417",
"channelName" : "英语考试-新浪教育",
"channelNameSummary" : "英语考试-新浪教育",
"channelUrl" : "http:\/\/edu.sina.com.cn\/rss\/index.html",
"author" : "WWW.SINA.COM.CN",
"tags" : [],
"desc" : "模拟测试时间：2013年10月14日\u20152013年10月18日 正式数据发布时间：2013年10月22日\u20152013年10月25日 正式考试考区实施时间表 序号 时间段 时间点 内容描述 实施人员 1、 考前....",
"emailed" : False,
"forwarded" : False,
"english" : False
}  , {
"index" : 14,
"articleIndex" : "7936",
"favor" :  False ,
     "read" : False,    
"title" : "英语四六级\u201C翻脸\u201D 完型填空下岗翻译升职",
"titleTip" : "英语四六级\u201C翻脸\u201D 完型填空下岗翻译升职",
"titleSummary" : "英语四六级\u201C翻脸\u201D 完型填空下岗翻译升职",
"descSummary" : "英语四六级改革历程 12月，全国大学英语四、六级考试（C...",
"url" : "http:\/\/go.rss.sina.com.cn\/redirect.php?url=http:\/\/edu.sina.com.cn\/cet\/2013-10-22\/1136398739.shtml",
"pubDate" : "2013年10月22日 (1周前)",
"enterDate" : "384195:09:30",
"channelId" : "-4087173652696362417",
"channelName" : "英语考试-新浪教育",
"channelNameSummary" : "英语考试-新浪教育",
"channelUrl" : "http:\/\/edu.sina.com.cn\/rss\/index.html",
"author" : "WWW.SINA.COM.CN",
"tags" : [],
"desc" : "&#160; &#160;&#160;&#160;&#160;英语四六级改革历程 &#160; &#160;&#160;&#160; 12月，全国大学英语四、六级考试（CET考试）将对试卷结构和测试题型作局部调整。调整后，四级和六级的试卷结构和测试题型相同，考试时间将由原来的120分钟增加到130分钟，总分值不变....",
"emailed" : False,
"forwarded" : False,
"english" : False
}  , {
"index" : 15,
"articleIndex" : "7931",
"favor" :  False ,
     "read" : False,    
"title" : "备考心得：英语专四专八单词高效背诵技巧",
"titleTip" : "备考心得：英语专四专八单词高效背诵技巧",
"titleSummary" : "备考心得：英语专四专八单词高效背诵技巧",
"descSummary" : "2014年英语专四专八考试报名预计将于11月中旬开始，目前...",
"url" : "http:\/\/go.rss.sina.com.cn\/redirect.php?url=http:\/\/edu.sina.com.cn\/cet\/2013-10-21\/1627398611.shtml",
"pubDate" : "2013年10月21日 (1周前)",
"enterDate" : "384201:05:07",
"channelId" : "-4087173652696362417",
"channelName" : "英语考试-新浪教育",
"channelNameSummary" : "英语考试-新浪教育",
"channelUrl" : "http:\/\/edu.sina.com.cn\/rss\/index.html",
"author" : "WWW.SINA.COM.CN",
"tags" : [],
"desc" : "2014年英语专四专八考试报名预计将于11月中旬开始，目前不少同学已经开始了前期复习。那么，专四专八词汇如何复习？何时背单词？怎样背单词？如何选择单词书？本文针对这三个问题为考生答疑解惑。 参加专八考试，单词肯定要背。想想看我们学中文，学到高中还要记生词呢....",
"emailed" : False,
"forwarded" : False,
"english" : False
}  , {
"index" : 16,
"articleIndex" : "7933",
"favor" :  False ,
     "read" : False,    
"title" : "个人雅思口语实战总结：如何抓住考官的心",
"titleTip" : "个人雅思口语实战总结：如何抓住考官的心",
"titleSummary" : "个人雅思口语实战总结：如何抓住考官的心",
"descSummary" : "除非你是第一个参加考试的，不然总可能遇到考官已经听过千...",
"url" : "http:\/\/go.rss.sina.com.cn\/redirect.php?url=http:\/\/edu.sina.com.cn\/yyks\/2013-10-21\/1624398608.shtml",
"pubDate" : "2013年10月21日 (1周前)",
"enterDate" : "384199:01:38",
"channelId" : "-4087173652696362417",
"channelName" : "英语考试-新浪教育",
"channelNameSummary" : "英语考试-新浪教育",
"channelUrl" : "http:\/\/edu.sina.com.cn\/rss\/index.html",
"author" : "WWW.SINA.COM.CN",
"tags" : [],
"desc" : "除非你是第一个参加考试的，不然总可能遇到考官已经听过千遍已厌倦的情况。那么应该如何抓住考官的眼球呢？ 1.反意疑问句，或者问\" do you think so?\" 考官肯定会做礼貌性的回答。这样是增加了你和考官的互动。 2.语调一定要抑扬顿挫，不要平铺直叙。....",
"emailed" : False,
"forwarded" : False,
"english" : False
}  , {
"index" : 17,
"articleIndex" : "7930",
"favor" :  False ,
     "read" : False,    
"title" : "\u201C烤鸭\u201D必读：雅思写作七项基本原则",
"titleTip" : "\u201C烤鸭\u201D必读：雅思写作七项基本原则",
"titleSummary" : "\u201C烤鸭\u201D必读：雅思写作七项基本原则",
"descSummary" : "1.长短句原则 写一个短小精辟的句子，相反，却可以起到画龙点...",
"url" : "http:\/\/go.rss.sina.com.cn\/redirect.php?url=http:\/\/edu.sina.com.cn\/yyks\/2013-10-21\/1622398605.shtml",
"pubDate" : "2013年10月21日 (1周前)",
"enterDate" : "384200:59:50",
"channelId" : "-4087173652696362417",
"channelName" : "英语考试-新浪教育",
"channelNameSummary" : "英语考试-新浪教育",
"channelUrl" : "http:\/\/edu.sina.com.cn\/rss\/index.html",
"author" : "WWW.SINA.COM.CN",
"tags" : [],
"desc" : "1.长短句原则 写一个短小精辟的句子，相反，却可以起到画龙点睛的作用。而且如果我们把短句放在段首或者段末，也可以揭示主题： As a creature, I eat; as a man, I read. Although one action is to meet the primary need of my body and the other....",
"emailed" : False,
"forwarded" : False,
"english" : False
}  , {
"index" : 18,
"articleIndex" : "7932",
"favor" :  False ,
     "read" : False,    
"title" : "天机不可泄露：盘点雅思话题十大分类",
"titleTip" : "天机不可泄露：盘点雅思话题十大分类",
"titleSummary" : "天机不可泄露：盘点雅思话题十大分类",
"descSummary" : "雅思写作Task 2的考题一直都是以多而且繁杂为考生们所苦恼。...",
"url" : "http:\/\/go.rss.sina.com.cn\/redirect.php?url=http:\/\/edu.sina.com.cn\/yyks\/2013-10-21\/1513398576.shtml",
"pubDate" : "2013年10月21日 (1周前)",
"enterDate" : "384197:51:11",
"channelId" : "-4087173652696362417",
"channelName" : "英语考试-新浪教育",
"channelNameSummary" : "英语考试-新浪教育",
"channelUrl" : "http:\/\/edu.sina.com.cn\/rss\/index.html",
"author" : "WWW.SINA.COM.CN",
"tags" : [],
"desc" : "雅思写作Task&#160;2的考题一直都是以多而且繁杂为考生们所苦恼。在面对茫茫题海时，有的同学可能会觉得无从下手或望而却步，不知道该怎么备考，也不知道该怎样对雅思论文写作话题进行科学合理的分类。我们都知道，雅思写作考试Task&#160;2的题目分为3类：原题重现，旧题新考....",
"emailed" : False,
"forwarded" : False,
"english" : False
}  , {
"index" : 19,
"articleIndex" : "7934",
"favor" :  False ,
     "read" : False,    
"title" : "考生经验总结：雅思口语中易犯的发音错误",
"titleTip" : "考生经验总结：雅思口语中易犯的发音错误",
"titleSummary" : "考生经验总结：雅思口语中易犯的发音错误",
"descSummary" : "编辑点评：雅思口语分为四个方面来评分，其中最后一项发音...",
"url" : "http:\/\/go.rss.sina.com.cn\/redirect.php?url=http:\/\/edu.sina.com.cn\/yyks\/2013-10-21\/1455398570.shtml",
"pubDate" : "2013年10月21日 (1周前)",
"enterDate" : "384197:02:31",
"channelId" : "-4087173652696362417",
"channelName" : "英语考试-新浪教育",
"channelNameSummary" : "英语考试-新浪教育",
"channelUrl" : "http:\/\/edu.sina.com.cn\/rss\/index.html",
"author" : "WWW.SINA.COM.CN",
"tags" : [],
"desc" : "编辑点评：雅思口语分为四个方面来评分，其中最后一项发音是最能直观体现雅思口语水平的一项标准，标准的发音能够大幅度地增加语言的感染力，更好地表现说话者的意图和感情。本文举出考生们常出现的一些发音错误。 一、辅音发不准确。 首当其冲的是th的发音，凡....",
"emailed" : False,
"forwarded" : False,
"english" : False
} ]
}
