{
"mode" : {"viewTitle" : 1,   "viewNew" : 0,  "pageIndex" : 1 },
 "channel" : {"id" : "5726817459075044351", "booked" : False, "subNumber" : 1, "name" : "育儿新闻-新浪育儿", "url" : "http:\/\/baby.sina.com.cn\/news\/list.html", "feed" : "http:\/\/rss.sina.com.cn\/baby\/news\/news.xml", "author" : "WWW.SINA.COM.CN", "desc" : "育儿新闻", "imageUrl" : "http:\/\/www.sinaimg.cn\/bb\/deco\/2012\/0917\/b_m_02.gif", "postPerWeek" : "0", "lastCrawTime" : "2013年10月15日 (2周前)", "crawDateTime" : "2013年10月15日 (2周前)", "lastHttpCode" : "200"}, "page" : {
"startIndex" : 0,
"totalCount" : 1495,
"pageIndex" : 1,
"lastPage" : 75,
"pageSize" : 20,
"english" :  False },
 "unreadNum" : 0, "shotIndex" : -1,
"articles" : [
{
"index" : 0,
"articleIndex" : "1494",
"favor" :  False ,
     "read" : False,    
"title" : "张思莱\u201C小儿发烧应对\u201D主题讲座",
"titleTip" : "张思莱\u201C小儿发烧应对\u201D主题讲座",
"titleSummary" : "张思莱\u201C小儿发烧应对\u201D主题讲座",
"descSummary" : "10月20日\u201C小儿发烧的应对\u201D主题讲座 现在家长对于孩子发热越来越...",
"url" : "http:\/\/go.rss.sina.com.cn\/redirect.php?url=http:\/\/baby.sina.com.cn\/news\/2013-10-15\/170561587.shtml",
"pubDate" : "2013年10月15日 (2周前)",
"enterDate" : "384201:01:02",
"channelId" : "5726817459075044351",
"channelName" : "育儿新闻-新浪育儿",
"channelNameSummary" : "育儿新闻-新浪育儿",
"channelUrl" : "http:\/\/baby.sina.com.cn\/news\/list.html",
"author" : "WWW.SINA.COM.CN",
"tags" : [],
"desc" : "10月20日\u201C小儿发烧的应对\u201D主题讲座 现在家长对于孩子发热越来越恐惧了，因此孩子只要发热或者发热持续一天或两天，家长就会带孩子反复去医院就诊或者在家私自用药，不但让孩子成了药罐子，同时也埋下耐药的隐患，而且还容易贻误病情。为什么家长会有这种表现呢？孩子发烧....",
"emailed" : False,
"forwarded" : False,
"english" : False
}  , {
"index" : 1,
"articleIndex" : "1493",
"favor" :  False ,
     "read" : False,    
"title" : "幼儿园拿孩子做洗衣机实验家长不知情",
"titleTip" : "幼儿园拿孩子做洗衣机实验家长不知情",
"titleSummary" : "幼儿园拿孩子做洗衣机实验家长不知情",
"descSummary" : "幼儿园借孩子给媒体做实验 未通知家长 不久前，江西的一对小姐...",
"url" : "http:\/\/go.rss.sina.com.cn\/redirect.php?url=http:\/\/baby.sina.com.cn\/news\/2013-10-15\/154061586.shtml",
"pubDate" : "2013年10月15日 (2周前)",
"enterDate" : "384201:06:21",
"channelId" : "5726817459075044351",
"channelName" : "育儿新闻-新浪育儿",
"channelNameSummary" : "育儿新闻-新浪育儿",
"channelUrl" : "http:\/\/baby.sina.com.cn\/news\/list.html",
"author" : "WWW.SINA.COM.CN",
"tags" : [],
"desc" : "幼儿园借孩子给媒体做实验 未通知家长 不久前，江西的一对小姐妹被疑是掉进洗衣机致死，引发了大家对家用电器安全使用的关注。近日，本台新闻热线025-96110接到苏州王女士的 投诉，说苏州当地一家媒体为制作一档安全警示节目，把她的女儿从幼儿园借出协助拍摄，而家长本....",
"emailed" : False,
"forwarded" : False,
"english" : False
}  , {
"index" : 2,
"articleIndex" : "1492",
"favor" :  False ,
     "read" : False,    
"title" : "蕲春一幼儿疑被闷死在校车内",
"titleTip" : "蕲春一幼儿疑被闷死在校车内",
"titleSummary" : "蕲春一幼儿疑被闷死在校车内",
"descSummary" : "荆楚网消息(记者 张城 徐芳)有网友爆料称，黄冈市蕲春县狮子镇一名2岁幼...",
"url" : "http:\/\/go.rss.sina.com.cn\/redirect.php?url=http:\/\/baby.sina.com.cn\/news\/2013-10-15\/153061585.shtml",
"pubDate" : "2013年10月15日 (2周前)",
"enterDate" : "384200:56:24",
"channelId" : "5726817459075044351",
"channelName" : "育儿新闻-新浪育儿",
"channelNameSummary" : "育儿新闻-新浪育儿",
"channelUrl" : "http:\/\/baby.sina.com.cn\/news\/list.html",
"author" : "WWW.SINA.COM.CN",
"tags" : [],
"desc" : "荆楚网消息(记者 张城 徐芳)有网友爆料称，黄冈市蕲春县狮子镇一名2岁幼童被滞留在幼儿园校车内死亡。10月15日，记者从当地获悉，儿童死亡属实，相关责任人已被刑拘。目前，公安机关正在对事件展开调查。 网友在爆料贴文中写道，10月14日下午，狮子镇花园街希望之星幼....",
"emailed" : False,
"forwarded" : False,
"english" : False
}  , {
"index" : 3,
"articleIndex" : "1491",
"favor" :  False ,
     "read" : False,    
"title" : "夫妻冲动网上送走亲生儿子",
"titleTip" : "夫妻冲动网上送走亲生儿子",
"titleSummary" : "夫妻冲动网上送走亲生儿子",
"descSummary" : "送掉自己孩子的当事人与收养方之间的短信记录 晚报 王浩然 现场图片 晚报...",
"url" : "http:\/\/go.rss.sina.com.cn\/redirect.php?url=http:\/\/baby.sina.com.cn\/news\/2013-10-15\/152261584.shtml",
"pubDate" : "2013年10月15日 (2周前)",
"enterDate" : "384200:48:13",
"channelId" : "5726817459075044351",
"channelName" : "育儿新闻-新浪育儿",
"channelNameSummary" : "育儿新闻-新浪育儿",
"channelUrl" : "http:\/\/baby.sina.com.cn\/news\/list.html",
"author" : "WWW.SINA.COM.CN",
"tags" : [],
"desc" : "送掉自己孩子的当事人与收养方之间的短信记录 晚报 王浩然 现场图片 □晚报记者 茅冠隽 祝玲 报道 一对上海小夫妻，在意外怀孕并生下孩子后，却因家庭琐事，一气之下将孩子通过网络送人。昨天，孩子的父亲郭鸣(化名)给记者讲述了他10多天前的荒唐举动。如今，郭鸣一....",
"emailed" : False,
"forwarded" : False,
"english" : False
}  , {
"index" : 4,
"articleIndex" : "1490",
"favor" :  False ,
     "read" : False,    
"title" : "11岁女孩被父亲男性朋友骗走",
"titleTip" : "11岁女孩被父亲男性朋友骗走",
"titleSummary" : "11岁女孩被父亲男性朋友骗走",
"descSummary" : "嫌疑人正接受审讯。(警方供图) 叙永民警赴广东抓获嫌疑人，女孩目前已经...",
"url" : "http:\/\/go.rss.sina.com.cn\/redirect.php?url=http:\/\/baby.sina.com.cn\/news\/2013-10-15\/151961583.shtml",
"pubDate" : "2013年10月15日 (2周前)",
"enterDate" : "384201:15:25",
"channelId" : "5726817459075044351",
"channelName" : "育儿新闻-新浪育儿",
"channelNameSummary" : "育儿新闻-新浪育儿",
"channelUrl" : "http:\/\/baby.sina.com.cn\/news\/list.html",
"author" : "WWW.SINA.COM.CN",
"tags" : [],
"desc" : "嫌疑人正接受审讯。(警方供图) 叙永民警赴广东抓获嫌疑人，女孩目前已经回到学校 叙永男子罗军打工时的好友来家里串门，之后居然将11岁的女儿带走4 天仍不回家。情急之下，罗军选择了报警。10月12日晚，在经过数天侦查后，警方将嫌疑人吴刚逮捕归案，11岁的罗欣也回....",
"emailed" : False,
"forwarded" : False,
"english" : False
}  , {
"index" : 5,
"articleIndex" : "1489",
"favor" :  False ,
     "read" : False,    
"title" : "男子无证驾收割机致绞断2岁儿童手掌",
"titleTip" : "男子无证驾收割机致绞断2岁儿童手掌",
"titleSummary" : "男子无证驾收割机致绞断2岁儿童手掌",
"descSummary" : "人民网河池10月14日电(记者王勇 通讯员王川、伍春艳) 金城江村民...",
"url" : "http:\/\/go.rss.sina.com.cn\/redirect.php?url=http:\/\/baby.sina.com.cn\/news\/2013-10-15\/092461581.shtml",
"pubDate" : "2013年10月15日 (2周前)",
"enterDate" : "384200:51:34",
"channelId" : "5726817459075044351",
"channelName" : "育儿新闻-新浪育儿",
"channelNameSummary" : "育儿新闻-新浪育儿",
"channelUrl" : "http:\/\/baby.sina.com.cn\/news\/list.html",
"author" : "WWW.SINA.COM.CN",
"tags" : [],
"desc" : "人民网河池10月14日电(记者王勇 通讯员王川、伍春艳) 金城江村民石富驾驶收割机作业时不慎绞断2岁儿童手掌，致其五级伤残。近日，金城江区人民法院公开开庭审理了此案，并以过失致人重伤罪，判处被告人石富有期徒刑八个月，缓刑一年。 2011年11月2日，刘秀英聘请石富驾....",
"emailed" : False,
"forwarded" : False,
"english" : False
}  , {
"index" : 6,
"articleIndex" : "1488",
"favor" :  False ,
     "read" : False,    
"title" : "小学生等候妈妈来接时在路边写作业(图)",
"titleTip" : "小学生等候妈妈来接时在路边写作业(图)",
"titleSummary" : "小学生等候妈妈来接时在路边写作业(图)",
"descSummary" : "一名身穿学生服的孩子趴在路边的石鼓上写作业 10月12日下午，...",
"url" : "http:\/\/go.rss.sina.com.cn\/redirect.php?url=http:\/\/baby.sina.com.cn\/news\/2013-10-15\/092461580.shtml",
"pubDate" : "2013年10月15日 (2周前)",
"enterDate" : "384200:50:56",
"channelId" : "5726817459075044351",
"channelName" : "育儿新闻-新浪育儿",
"channelNameSummary" : "育儿新闻-新浪育儿",
"channelUrl" : "http:\/\/baby.sina.com.cn\/news\/list.html",
"author" : "WWW.SINA.COM.CN",
"tags" : [],
"desc" : "一名身穿学生服的孩子趴在路边的石鼓上写作业 10月12日下午，在延安市北大街西沟附近，一名身穿学生服的孩子趴在路边的石鼓上，埋头写起了家庭作业，仿佛旁边城市的喧哗和她没有关系一样。她叫叶晓殷，北关小学三年级学生，在这儿等妈妈来接，顺便拿出老师布置的作业写一会....",
"emailed" : False,
"forwarded" : False,
"english" : False
}  , {
"index" : 7,
"articleIndex" : "1487",
"favor" :  False ,
     "read" : False,    
"title" : "美术老师用铁尺殴打七岁男孩",
"titleTip" : "美术老师用铁尺殴打七岁男孩",
"titleSummary" : "美术老师用铁尺殴打七岁男孩",
"descSummary" : "小宇的左胳膊多处软组织挫伤。新快报记者王飞\/摄 本来约定昨日赔礼道歉...",
"url" : "http:\/\/go.rss.sina.com.cn\/redirect.php?url=http:\/\/baby.sina.com.cn\/news\/2013-10-15\/092361579.shtml",
"pubDate" : "2013年10月15日 (2周前)",
"enterDate" : "384200:50:19",
"channelId" : "5726817459075044351",
"channelName" : "育儿新闻-新浪育儿",
"channelNameSummary" : "育儿新闻-新浪育儿",
"channelUrl" : "http:\/\/baby.sina.com.cn\/news\/list.html",
"author" : "WWW.SINA.COM.CN",
"tags" : [],
"desc" : "■小宇的左胳膊多处软组织挫伤。新快报记者王飞\/摄 本来约定昨日赔礼道歉，但番禺大石会江实验学校方面也称找不到涉事者 ■新快报记者 周达标 见习记者 李辰曦 番禺大石会江实验学校二年级学生小宇(化名)，上周五下午被美术老师用铁尺打得遍体鳞伤，被确诊为....",
"emailed" : False,
"forwarded" : False,
"english" : False
}  , {
"index" : 8,
"articleIndex" : "1486",
"favor" :  False ,
     "read" : False,    
"title" : "小学女生玩失踪自家屋顶躲两天一夜",
"titleTip" : "小学女生玩失踪自家屋顶躲两天一夜",
"titleSummary" : "小学女生玩失踪自家屋顶躲两天一夜",
"descSummary" : "10月11日，宿迁市经济技术开发区古楚派出所接到古楚社区居民徐...",
"url" : "http:\/\/go.rss.sina.com.cn\/redirect.php?url=http:\/\/baby.sina.com.cn\/news\/2013-10-15\/092061578.shtml",
"pubDate" : "2013年10月15日 (2周前)",
"enterDate" : "384200:47:45",
"channelId" : "5726817459075044351",
"channelName" : "育儿新闻-新浪育儿",
"channelNameSummary" : "育儿新闻-新浪育儿",
"channelUrl" : "http:\/\/baby.sina.com.cn\/news\/list.html",
"author" : "WWW.SINA.COM.CN",
"tags" : [],
"desc" : "10月11日，宿迁市经济技术开发区古楚派出所接到古楚社区居民徐某报警，称他正在上小学的女儿媛媛(化名)突然失踪，已经找了很久都没有找到， 家人十分着急，担心可能会被陌生人拐走。现代快报记者了解到，在家人、邻居和民警的多方努力下，几只鸡蛋壳暴露了媛媛的踪迹，最终，....",
"emailed" : False,
"forwarded" : False,
"english" : False
}  , {
"index" : 9,
"articleIndex" : "1485",
"favor" :  False ,
     "read" : False,    
"title" : "妈妈嫌准儿媳太瘦劝儿子与其分手",
"titleTip" : "妈妈嫌准儿媳太瘦劝儿子与其分手",
"titleSummary" : "妈妈嫌准儿媳太瘦劝儿子与其分手",
"descSummary" : "楚天都市报讯 写字楼里的女白领都以骨感为美，24岁的刘小姐却因为...",
"url" : "http:\/\/go.rss.sina.com.cn\/redirect.php?url=http:\/\/baby.sina.com.cn\/news\/2013-10-15\/091961577.shtml",
"pubDate" : "2013年10月15日 (2周前)",
"enterDate" : "384200:46:25",
"channelId" : "5726817459075044351",
"channelName" : "育儿新闻-新浪育儿",
"channelNameSummary" : "育儿新闻-新浪育儿",
"channelUrl" : "http:\/\/baby.sina.com.cn\/news\/list.html",
"author" : "WWW.SINA.COM.CN",
"tags" : [],
"desc" : "楚天都市报讯 写字楼里的女白领都以骨感为美，24岁的刘小姐却因为太瘦而使自己的恋情遭受危机。 刘小姐身材苗条，穿衣时髦，在单位颇受欢迎。她今年认识男友朱先生后，两人感情也很不错。不久前，家住江夏的朱先生带刘小姐回家吃饭。朱先生的 母亲得知刘小姐身高1.68米....",
"emailed" : False,
"forwarded" : False,
"english" : False
}  , {
"index" : 10,
"articleIndex" : "1484",
"favor" :  False ,
     "read" : False,    
"title" : "陕西镇安21名小学生突发不适",
"titleTip" : "陕西镇安21名小学生突发不适",
"titleSummary" : "陕西镇安21名小学生突发不适",
"descSummary" : "中新网西安10月14日电 (冀浩凡 田进)陕西省镇安县宣传部14日向中新网记...",
"url" : "http:\/\/go.rss.sina.com.cn\/redirect.php?url=http:\/\/baby.sina.com.cn\/news\/2013-10-15\/091861576.shtml",
"pubDate" : "2013年10月15日 (2周前)",
"enterDate" : "384200:45:42",
"channelId" : "5726817459075044351",
"channelName" : "育儿新闻-新浪育儿",
"channelNameSummary" : "育儿新闻-新浪育儿",
"channelUrl" : "http:\/\/baby.sina.com.cn\/news\/list.html",
"author" : "WWW.SINA.COM.CN",
"tags" : [],
"desc" : "中新网西安10月14日电 (冀浩凡 田进)陕西省镇安县宣传部14日向中新网记者证实，该县高峰镇和坪小学21名学生在10日突发身体不适，目前学生仍在住院接受治疗。当地政府称，原因目前尚不能认定，需要等待进一步检查结果。 10月10日，镇安县高峰镇和坪小学的21名学生突然出....",
"emailed" : False,
"forwarded" : False,
"english" : False
}  , {
"index" : 11,
"articleIndex" : "1483",
"favor" :  False ,
     "read" : False,    
"title" : "英国威廉王子为儿子选定婴儿房",
"titleTip" : "英国威廉王子为儿子选定婴儿房",
"titleSummary" : "英国威廉王子为儿子选定婴儿房",
"descSummary" : "英国王子威廉一家（资料图） 中新网10月14日电 据\u201C中央社\u201D13日报道...",
"url" : "http:\/\/go.rss.sina.com.cn\/redirect.php?url=http:\/\/baby.sina.com.cn\/news\/2013-10-15\/091861575.shtml",
"pubDate" : "2013年10月15日 (2周前)",
"enterDate" : "384200:45:14",
"channelId" : "5726817459075044351",
"channelName" : "育儿新闻-新浪育儿",
"channelNameSummary" : "育儿新闻-新浪育儿",
"channelUrl" : "http:\/\/baby.sina.com.cn\/news\/list.html",
"author" : "WWW.SINA.COM.CN",
"tags" : [],
"desc" : "英国王子威廉一家（资料图） 中新网10月14日电 据\u201C中央社\u201D13日报道，英国王子威廉与妻子凯特为爱子乔治在肯辛顿宫(Kensington Palace)选定婴儿房，有消息人士指出，该婴儿房曾闹过鬼。 熟知王室秘辛的作家莫顿(Andrew Morton)爆料说，英国王位第三顺位继承人乔治....",
"emailed" : False,
"forwarded" : False,
"english" : False
}  , {
"index" : 12,
"articleIndex" : "1482",
"favor" :  False ,
     "read" : False,    
"title" : "吴尊亲留言喜得6.6斤儿子",
"titleTip" : "吴尊亲留言喜得6.6斤儿子",
"titleSummary" : "吴尊亲留言喜得6.6斤儿子",
"descSummary" : "新浪娱乐讯 10月10号是台湾歌手吴尊的生日，女儿NEINEI也在这一天出生。当...",
"url" : "http:\/\/go.rss.sina.com.cn\/redirect.php?url=http:\/\/baby.sina.com.cn\/news\/2013-10-15\/091861574.shtml",
"pubDate" : "2013年10月15日 (2周前)",
"enterDate" : "384200:44:49",
"channelId" : "5726817459075044351",
"channelName" : "育儿新闻-新浪育儿",
"channelNameSummary" : "育儿新闻-新浪育儿",
"channelUrl" : "http:\/\/baby.sina.com.cn\/news\/list.html",
"author" : "WWW.SINA.COM.CN",
"tags" : [],
"desc" : "新浪娱乐讯 10月10号是台湾歌手吴尊的生日，女儿NEINEI也在这一天出生。当天，暂别工作的吴尊赶回文莱庆祝生日，同时也为女儿庆生。郑伟柏／发自台北 新浪娱乐讯&#160; 近日，吴尊公开承认自己已经结婚多年，不仅已经有了一个两岁的女儿，妻子还怀了二胎。今日凌晨，吴....",
"emailed" : False,
"forwarded" : False,
"english" : False
}  , {
"index" : 13,
"articleIndex" : "1481",
"favor" :  False ,
     "read" : False,    
"title" : "美国夫妇\u201C借\u201D印度女子代孕",
"titleTip" : "美国夫妇\u201C借\u201D印度女子代孕",
"titleSummary" : "美国夫妇\u201C借\u201D印度女子代孕",
"descSummary" : "【环球网综合报道】当前，越来越多无法生育的西方夫妇来到印度、泰国等...",
"url" : "http:\/\/go.rss.sina.com.cn\/redirect.php?url=http:\/\/baby.sina.com.cn\/news\/2013-10-15\/091661573.shtml",
"pubDate" : "2013年10月15日 (2周前)",
"enterDate" : "384201:13:45",
"channelId" : "5726817459075044351",
"channelName" : "育儿新闻-新浪育儿",
"channelNameSummary" : "育儿新闻-新浪育儿",
"channelUrl" : "http:\/\/baby.sina.com.cn\/news\/list.html",
"author" : "WWW.SINA.COM.CN",
"tags" : [],
"desc" : "【环球网综合报道】当前，越来越多无法生育的西方夫妇来到印度、泰国等地寻求代孕者，因为这些国家的法律相较宽松。据英国《每日邮报》10月12日 报道，美国加州女子詹尼弗和丈夫便长途跋涉，来到印度著名的\u201C婴儿工厂\u201D\u2015\u2015阿坎克斯哈不孕不育医院，第一次见到由代孕者产下的....",
"emailed" : False,
"forwarded" : False,
"english" : False
}  , {
"index" : 14,
"articleIndex" : "1480",
"favor" :  False ,
     "read" : False,    
"title" : "大S自曝有孕后首度现身(图)",
"titleTip" : "大S自曝有孕后首度现身(图)",
"titleSummary" : "大S自曝有孕后首度现身(图)",
"descSummary" : "大S宽松白衬衣现身书店 大S汪小菲现身书店 大S挑选育儿书籍 大S身穿宽松...",
"url" : "http:\/\/go.rss.sina.com.cn\/redirect.php?url=http:\/\/baby.sina.com.cn\/news\/2013-10-15\/091261572.shtml",
"pubDate" : "2013年10月15日 (2周前)",
"enterDate" : "384201:09:50",
"channelId" : "5726817459075044351",
"channelName" : "育儿新闻-新浪育儿",
"channelNameSummary" : "育儿新闻-新浪育儿",
"channelUrl" : "http:\/\/baby.sina.com.cn\/news\/list.html",
"author" : "WWW.SINA.COM.CN",
"tags" : [],
"desc" : "大S宽松白衬衣现身书店 大S汪小菲现身书店 大S挑选育儿书籍 大S身穿宽松白衬衣 新浪娱乐讯 北京时间10月14日据台湾媒体报道，大S日前传出怀孕1个多月消息，14日下午4点多有台湾媒体记者直击她与老公汪小菲[微博]现身书店，两人除了翻阅风水....",
"emailed" : False,
"forwarded" : False,
"english" : False
}  , {
"index" : 15,
"articleIndex" : "1479",
"favor" :  False ,
     "read" : False,    
"title" : "专家呼吁建立动画片分级制",
"titleTip" : "专家呼吁建立动画片分级制",
"titleSummary" : "专家呼吁建立动画片分级制",
"descSummary" : "中新网10月15日电(上官云)综合报道，日前，央视新闻联播点名批评动画片《...",
"url" : "http:\/\/go.rss.sina.com.cn\/redirect.php?url=http:\/\/baby.sina.com.cn\/news\/2013-10-15\/091161571.shtml",
"pubDate" : "2013年10月15日 (2周前)",
"enterDate" : "384201:08:18",
"channelId" : "5726817459075044351",
"channelName" : "育儿新闻-新浪育儿",
"channelNameSummary" : "育儿新闻-新浪育儿",
"channelUrl" : "http:\/\/baby.sina.com.cn\/news\/list.html",
"author" : "WWW.SINA.COM.CN",
"tags" : [],
"desc" : "中新网10月15日电(上官云)综合报道，日前，央视新闻联播点名批评动画片《喜羊羊与灰太狼》、《熊出没》存在暴力失度、语言粗俗等现象。此条消息顿时引发公众热议，多数网友反映，现在很多动画片都存在暴力镜头，极易对儿童造成不良影响。 对此，专家认为应尽快界定暴力....",
"emailed" : False,
"forwarded" : False,
"english" : False
}  , {
"index" : 16,
"articleIndex" : "1478",
"favor" :  False ,
     "read" : False,    
"title" : "计划生育使人口降4亿失独家庭增多",
"titleTip" : "计划生育使人口降4亿失独家庭增多",
"titleSummary" : "计划生育使人口降4亿失独家庭增多",
"descSummary" : "十年前，他们的独子命丧车祸，永远告别了三口之家；十年里，他们对...",
"url" : "http:\/\/go.rss.sina.com.cn\/redirect.php?url=http:\/\/baby.sina.com.cn\/news\/2013-10-15\/091061570.shtml",
"pubDate" : "2013年10月15日 (2周前)",
"enterDate" : "384201:07:49",
"channelId" : "5726817459075044351",
"channelName" : "育儿新闻-新浪育儿",
"channelNameSummary" : "育儿新闻-新浪育儿",
"channelUrl" : "http:\/\/baby.sina.com.cn\/news\/list.html",
"author" : "WWW.SINA.COM.CN",
"tags" : [],
"desc" : "十年前，他们的独子命丧车祸，永远告别了三口之家；十年里，他们对女儿的思念魂牵梦绕；然而，十年后，他们面临孤独终老\u2026\u2026 \u201C每到晚上，眼泪就开始打转，常常梦到孩子，本以为她回来了，起来才发现是一场梦。\u201D广西南宁的黄旭明(化名)今年59岁，10年前，一场车祸让25....",
"emailed" : False,
"forwarded" : False,
"english" : False
}  , {
"index" : 17,
"articleIndex" : "1477",
"favor" :  False ,
     "read" : False,    
"title" : "官员强奸幼女获刑5年检察院抗诉",
"titleTip" : "官员强奸幼女获刑5年检察院抗诉",
"titleSummary" : "官员强奸幼女获刑5年检察院抗诉",
"descSummary" : "\u201C云南官员强奸4岁幼女案\u201D追踪 新京报 (记者周清树 实习生贾世煜)记...",
"url" : "http:\/\/go.rss.sina.com.cn\/redirect.php?url=http:\/\/baby.sina.com.cn\/news\/2013-10-15\/090761569.shtml",
"pubDate" : "2013年10月15日 (2周前)",
"enterDate" : "384201:04:19",
"channelId" : "5726817459075044351",
"channelName" : "育儿新闻-新浪育儿",
"channelNameSummary" : "育儿新闻-新浪育儿",
"channelUrl" : "http:\/\/baby.sina.com.cn\/news\/list.html",
"author" : "WWW.SINA.COM.CN",
"tags" : [],
"desc" : "■ \u201C云南官员强奸4岁幼女案\u201D追踪 新京报 (记者周清树 实习生贾世煜)记者从云南省检察院获悉，14日下午，昭通市检察院以\u201C量刑明显不当\u201D为理由，就大关县一官员强奸4岁幼女获刑5年一案，依照审判监督程序向昭通市中级人民法院提出抗诉。 9月24日，云南省昭通....",
"emailed" : False,
"forwarded" : False,
"english" : False
}  , {
"index" : 18,
"articleIndex" : "1476",
"favor" :  False ,
     "read" : False,    
"title" : "天津：116人收多美滋好处强推第一口奶",
"titleTip" : "天津：116人收多美滋好处强推第一口奶",
"titleSummary" : "天津：116人收多美滋好处强推第一口奶",
"descSummary" : "【推荐阅读】第一口奶利益链调查：乳企每年给医院30万进场费...",
"url" : "http:\/\/go.rss.sina.com.cn\/redirect.php?url=http:\/\/baby.sina.com.cn\/news\/2013-10-15\/090661568.shtml",
"pubDate" : "2013年10月15日 (2周前)",
"enterDate" : "384201:03:24",
"channelId" : "5726817459075044351",
"channelName" : "育儿新闻-新浪育儿",
"channelNameSummary" : "育儿新闻-新浪育儿",
"channelUrl" : "http:\/\/baby.sina.com.cn\/news\/list.html",
"author" : "WWW.SINA.COM.CN",
"tags" : [],
"desc" : "【推荐阅读】第一口奶利益链调查：乳企每年给医院30万进场费 中新网10月14日电 据天津市人民政府新闻办公室官方微博\u201C天津发布\u201D消息，央视曝光\u201C第一口奶\u201D问题后，天津市纪委、市监察局、市公安局、市卫生局等有关部门组成联合调查组，展开全面深入调查，对13名问题....",
"emailed" : False,
"forwarded" : False,
"english" : False
}  , {
"index" : 19,
"articleIndex" : "1475",
"favor" :  False ,
     "read" : False,    
"title" : "全球洗手日：你真的会洗手吗？",
"titleTip" : "全球洗手日：你真的会洗手吗？",
"titleSummary" : "全球洗手日：你真的会洗手吗？",
"descSummary" : "今天是第六个\u201C全球洗手日\u201D，宣传主题是\u201C天天洗手，健康永久\u201D。...",
"url" : "http:\/\/go.rss.sina.com.cn\/redirect.php?url=http:\/\/baby.sina.com.cn\/news\/2013-10-15\/085861567.shtml",
"pubDate" : "2013年10月15日 (2周前)",
"enterDate" : "384200:55:20",
"channelId" : "5726817459075044351",
"channelName" : "育儿新闻-新浪育儿",
"channelNameSummary" : "育儿新闻-新浪育儿",
"channelUrl" : "http:\/\/baby.sina.com.cn\/news\/list.html",
"author" : "WWW.SINA.COM.CN",
"tags" : [],
"desc" : "今天是第六个\u201C全球洗手日\u201D，宣传主题是\u201C天天洗手，健康永久\u201D。洗手，对于我们每个人来说，是再简单不过的一件事了，但是，看似简单的事，却也蕴含着大学问。 我们常说\u201C病从口入\u201D，但在食物入口的过程中，我们的双手发挥着无可替代的拿、取、接、送等作用。一些常....",
"emailed" : False,
"forwarded" : False,
"english" : False
} ]
}
