{
"mode" : {"viewTitle" : 1,   "viewNew" : 0,  "pageIndex" : 2 },
 "channel" : {"id" : "5726817459075044351", "booked" : False, "subNumber" : 1, "name" : "育儿新闻-新浪育儿", "url" : "http:\/\/baby.sina.com.cn\/news\/list.html", "feed" : "http:\/\/rss.sina.com.cn\/baby\/news\/news.xml", "author" : "WWW.SINA.COM.CN", "desc" : "育儿新闻", "imageUrl" : "http:\/\/www.sinaimg.cn\/bb\/deco\/2012\/0917\/b_m_02.gif", "postPerWeek" : "0", "lastCrawTime" : "2013年10月15日 (2周前)", "crawDateTime" : "2013年10月15日 (2周前)", "lastHttpCode" : "200"}, "page" : {
"startIndex" : 20,
"totalCount" : 1495,
"pageIndex" : 2,
"lastPage" : 75,
"pageSize" : 20,
"english" :  False },
 "unreadNum" : 0, "shotIndex" : -1,
"articles" : [
{
"index" : 0,
"articleIndex" : "1474",
"favor" :  False ,
     "read" : False,    
"title" : "我给宝贝这样选童装",
"titleTip" : "我给宝贝这样选童装",
"titleSummary" : "我给宝贝这样选童装",
"descSummary" : "导语：在商场里给宝贝买衣服的感觉很有品质，面料和做工都很好，但价格不菲。...",
"url" : "http:\/\/go.rss.sina.com.cn\/redirect.php?url=http:\/\/baby.sina.com.cn\/news\/2013-10-14\/231261566.shtml",
"pubDate" : "2013年10月14日 (2周前)",
"enterDate" : "384201:11:02",
"channelId" : "5726817459075044351",
"channelName" : "育儿新闻-新浪育儿",
"channelNameSummary" : "育儿新闻-新浪育儿",
"channelUrl" : "http:\/\/baby.sina.com.cn\/news\/list.html",
"author" : "WWW.SINA.COM.CN",
"tags" : [],
"desc" : "导语：在商场里给宝贝买衣服的感觉很有品质，面料和做工都很好，但价格不菲。在淘宝上给宝贝买衣服，价格便宜选择多，而且不用花太多时间就能把漂亮衣服都尽收眼底。但是不管是选择哪种方式来给宝贝买衣服，都是需要一定的经验技巧的，来看看资深编辑和童装设计师都有哪些选购....",
"emailed" : False,
"forwarded" : False,
"english" : False
}  , {
"index" : 1,
"articleIndex" : "1473",
"favor" :  False ,
     "read" : False,    
"title" : "童装类数据发布",
"titleTip" : "童装类数据发布",
"titleSummary" : "童装类数据发布",
"descSummary" : "导语：做了妈咪，体会到了为人母的快乐，随着宝贝的小世界慢慢展开，生活也变得丰富...",
"url" : "http:\/\/go.rss.sina.com.cn\/redirect.php?url=http:\/\/baby.sina.com.cn\/news\/2013-10-14\/231061565.shtml",
"pubDate" : "2013年10月14日 (2周前)",
"enterDate" : "384201:09:17",
"channelId" : "5726817459075044351",
"channelName" : "育儿新闻-新浪育儿",
"channelNameSummary" : "育儿新闻-新浪育儿",
"channelUrl" : "http:\/\/baby.sina.com.cn\/news\/list.html",
"author" : "WWW.SINA.COM.CN",
"tags" : [],
"desc" : "导语：做了妈咪，体会到了为人母的快乐，随着宝贝的小世界慢慢展开，生活也变得丰富多彩，而扮靓宝贝绝对是生活中的一件乐事，而且每个妈咪都一定陶醉其中，妈咪们乐此不疲不为其他，只为让宝贝的小小童年多一些美丽印记\u2026\u2026那么，妈咪们在选购童装时都会考虑哪几方面的因素呢....",
"emailed" : False,
"forwarded" : False,
"english" : False
}  , {
"index" : 2,
"articleIndex" : "1472",
"favor" :  False ,
     "read" : False,    
"title" : "一部\u201C神\u201D剧成就的\u201C天使\u201D（图）",
"titleTip" : "一部\u201C神\u201D剧成就的\u201C天使\u201D（图）",
"titleSummary" : "一部\u201C神\u201D剧成就的\u201C天使\u201D（图）",
"descSummary" : "专访《今夜天使降临》导演杨阳 就在三大女星李小冉、马苏、刘涛...",
"url" : "http:\/\/go.rss.sina.com.cn\/redirect.php?url=http:\/\/baby.sina.com.cn\/news\/2013-10-14\/230761564.shtml",
"pubDate" : "2013年10月14日 (2周前)",
"enterDate" : "384201:06:17",
"channelId" : "5726817459075044351",
"channelName" : "育儿新闻-新浪育儿",
"channelNameSummary" : "育儿新闻-新浪育儿",
"channelUrl" : "http:\/\/baby.sina.com.cn\/news\/list.html",
"author" : "WWW.SINA.COM.CN",
"tags" : [],
"desc" : "专访《今夜天使降临》导演杨阳 就在三大女星李小冉、马苏、刘涛联袂主演的都市强话题轻喜剧《今夜天使降临》热播之际，我带着一串对此剧的导演杨阳老师好奇的心情和她进行了一次专访。在见到她之前，我在想，一个能够hold住这么多大明星的女性导演到底有多大的人格魅力....",
"emailed" : False,
"forwarded" : False,
"english" : False
}  , {
"index" : 3,
"articleIndex" : "1471",
"favor" :  False ,
     "read" : False,    
"title" : "我们和宝贝有个婚礼（图）",
"titleTip" : "我们和宝贝有个婚礼（图）",
"titleSummary" : "我们和宝贝有个婚礼（图）",
"descSummary" : "都说文、体不分家，体育名嘴沙桐和影视演员刘园园在结婚后三年，马上要带...",
"url" : "http:\/\/go.rss.sina.com.cn\/redirect.php?url=http:\/\/baby.sina.com.cn\/news\/2013-10-14\/230661563.shtml",
"pubDate" : "2013年10月14日 (2周前)",
"enterDate" : "384201:05:01",
"channelId" : "5726817459075044351",
"channelName" : "育儿新闻-新浪育儿",
"channelNameSummary" : "育儿新闻-新浪育儿",
"channelUrl" : "http:\/\/baby.sina.com.cn\/news\/list.html",
"author" : "WWW.SINA.COM.CN",
"tags" : [],
"desc" : "都说文、体不分家，体育名嘴沙桐和影视演员刘园园在结婚后三年，马上要带着块两岁的宝宝补办一场浪漫、温馨又具有民族特色的婚礼，而这一切不仅仅是源于一个女生对婚礼的公主梦，更是为了给宝宝树立的一个榜样和一个非常有意义的纪念，就像沙桐所说：\u201C孩子们长大了有时会吹牛....",
"emailed" : False,
"forwarded" : False,
"english" : False
}  , {
"index" : 4,
"articleIndex" : "1470",
"favor" :  False ,
     "read" : False,    
"title" : "男子出门劝架儿子被人塞进塑料袋",
"titleTip" : "男子出门劝架儿子被人塞进塑料袋",
"titleSummary" : "男子出门劝架儿子被人塞进塑料袋",
"descSummary" : "刚满月男婴被头朝下塞进塑料袋 事发萧县，婴儿仍在重症监护室治疗...",
"url" : "http:\/\/go.rss.sina.com.cn\/redirect.php?url=http:\/\/baby.sina.com.cn\/news\/2013-10-14\/094861560.shtml",
"pubDate" : "2013年10月14日 (2周前)",
"enterDate" : "384200:49:25",
"channelId" : "5726817459075044351",
"channelName" : "育儿新闻-新浪育儿",
"channelNameSummary" : "育儿新闻-新浪育儿",
"channelUrl" : "http:\/\/baby.sina.com.cn\/news\/list.html",
"author" : "WWW.SINA.COM.CN",
"tags" : [],
"desc" : "刚满月男婴被头朝下塞进塑料袋 事发萧县，婴儿仍在重症监护室治疗 昨天下午，已经几天没合眼的萧县村民周精召望着重症监护室内才满月的儿子，眉头紧皱。\u201C哥嫂吵架，我就出门劝个架，半小时后回来发现，原本躺在 床上的儿子就不见了。\u201D周精召说，几番寻找，他....",
"emailed" : False,
"forwarded" : False,
"english" : False
}  , {
"index" : 5,
"articleIndex" : "1469",
"favor" :  False ,
     "read" : False,    
"title" : "乡村留守女童频遭性侵",
"titleTip" : "乡村留守女童频遭性侵",
"titleSummary" : "乡村留守女童频遭性侵",
"descSummary" : "图为\u201C女童保护女记者联盟\u201D成员在给孩子们授课。图为两名女生上台演示如何拒...",
"url" : "http:\/\/go.rss.sina.com.cn\/redirect.php?url=http:\/\/baby.sina.com.cn\/news\/2013-10-14\/094761559.shtml",
"pubDate" : "2013年10月14日 (2周前)",
"enterDate" : "384200:48:33",
"channelId" : "5726817459075044351",
"channelName" : "育儿新闻-新浪育儿",
"channelNameSummary" : "育儿新闻-新浪育儿",
"channelUrl" : "http:\/\/baby.sina.com.cn\/news\/list.html",
"author" : "WWW.SINA.COM.CN",
"tags" : [],
"desc" : "图为\u201C女童保护女记者联盟\u201D成员在给孩子们授课。 图为两名女生上台演示如何拒绝不舒服的触碰。 \u201C你在学校遇到的事情会不会跟家人讲？你知道身体的哪些部位不能随便让人触碰？有没有你父母之外的大人，经常触摸你的身体？你的老师会经常单独找你谈话吗？\u201D 9月5....",
"emailed" : False,
"forwarded" : False,
"english" : False
}  , {
"index" : 6,
"articleIndex" : "1468",
"favor" :  False ,
     "read" : False,    
"title" : "6岁女童上学路上被杀害",
"titleTip" : "6岁女童上学路上被杀害",
"titleSummary" : "6岁女童上学路上被杀害",
"descSummary" : "渤海早报烟台讯 8日中午，海阳市埠南村6岁的蓉蓉吃完午饭后像往常一样去上学...",
"url" : "http:\/\/go.rss.sina.com.cn\/redirect.php?url=http:\/\/baby.sina.com.cn\/news\/2013-10-14\/094661558.shtml",
"pubDate" : "2013年10月14日 (2周前)",
"enterDate" : "384201:17:40",
"channelId" : "5726817459075044351",
"channelName" : "育儿新闻-新浪育儿",
"channelNameSummary" : "育儿新闻-新浪育儿",
"channelUrl" : "http:\/\/baby.sina.com.cn\/news\/list.html",
"author" : "WWW.SINA.COM.CN",
"tags" : [],
"desc" : "渤海早报烟台讯 8日中午，海阳市埠南村6岁的蓉蓉吃完午饭后像往常一样去上学了，可到了下午放学时间却不见人回家。家人和民警四下寻找，谁知最后等来的是一场悲剧，活泼 可爱的蓉蓉在上学路上被一名中年男子杀害了。11日，据知情人士透露，目前凶手已被锁定，案件有了眉目。....",
"emailed" : False,
"forwarded" : False,
"english" : False
}  , {
"index" : 7,
"articleIndex" : "1467",
"favor" :  False ,
     "read" : False,    
"title" : "2名幼童跌入工地积水坑内溺亡",
"titleTip" : "2名幼童跌入工地积水坑内溺亡",
"titleSummary" : "2名幼童跌入工地积水坑内溺亡",
"descSummary" : "南都讯 记者杨亮 珠海平沙镇一道路施工工地11日下午发生惨剧，3名幼童...",
"url" : "http:\/\/go.rss.sina.com.cn\/redirect.php?url=http:\/\/baby.sina.com.cn\/news\/2013-10-14\/094561557.shtml",
"pubDate" : "2013年10月14日 (2周前)",
"enterDate" : "384201:16:51",
"channelId" : "5726817459075044351",
"channelName" : "育儿新闻-新浪育儿",
"channelNameSummary" : "育儿新闻-新浪育儿",
"channelUrl" : "http:\/\/baby.sina.com.cn\/news\/list.html",
"author" : "WWW.SINA.COM.CN",
"tags" : [],
"desc" : "南都讯 记者杨亮 珠海平沙镇一道路施工工地11日下午发生惨剧，3名幼童在附近玩耍时，其中两人不慎跌入一米多深的工地积水坑内，溺亡。南都记者获悉，死者分别只有5岁和3岁。事发后，当地已要求社区挂点领导开展地毯式安全隐患大排查，彻底整改隐患。&#160;&#160;&#160; ....",
"emailed" : False,
"forwarded" : False,
"english" : False
}  , {
"index" : 8,
"articleIndex" : "1466",
"favor" :  False ,
     "read" : False,    
"title" : "一小学班级42名学生有50个班干部",
"titleTip" : "一小学班级42名学生有50个班干部",
"titleSummary" : "一小学班级42名学生有50个班干部",
"descSummary" : "一个班42个小学生，却有近50个班干部，除了大家熟悉的班长、组长...",
"url" : "http:\/\/go.rss.sina.com.cn\/redirect.php?url=http:\/\/baby.sina.com.cn\/news\/2013-10-14\/094461556.shtml",
"pubDate" : "2013年10月14日 (2周前)",
"enterDate" : "384201:15:20",
"channelId" : "5726817459075044351",
"channelName" : "育儿新闻-新浪育儿",
"channelNameSummary" : "育儿新闻-新浪育儿",
"channelUrl" : "http:\/\/baby.sina.com.cn\/news\/list.html",
"author" : "WWW.SINA.COM.CN",
"tags" : [],
"desc" : "一个班42个小学生，却有近50个班干部，除了大家熟悉的班长、组长、课代表，还有关长、门长、领读员\u2026\u2026洪山区楚才小学五(3)班班主任老师程菊娥笑称人人都是班干部。 一个班级这么多班干部，会不会导致孩子们产生\u201C官本位\u201D意识？班干部们具体都干些什么？记者昨日进行....",
"emailed" : False,
"forwarded" : False,
"english" : False
}  , {
"index" : 9,
"articleIndex" : "1465",
"favor" :  False ,
     "read" : False,    
"title" : "赴港产子调查：难融香港难恢复身份",
"titleTip" : "赴港产子调查：难融香港难恢复身份",
"titleSummary" : "赴港产子调查：难融香港难恢复身份",
"descSummary" : "境遇尴尬 求学陷夹缝 既不融于香港 又难恢复内地身份 父母后悔赴...",
"url" : "http:\/\/go.rss.sina.com.cn\/redirect.php?url=http:\/\/baby.sina.com.cn\/news\/2013-10-14\/093561555.shtml",
"pubDate" : "2013年10月14日 (2周前)",
"enterDate" : "384201:06:39",
"channelId" : "5726817459075044351",
"channelName" : "育儿新闻-新浪育儿",
"channelNameSummary" : "育儿新闻-新浪育儿",
"channelUrl" : "http:\/\/baby.sina.com.cn\/news\/list.html",
"author" : "WWW.SINA.COM.CN",
"tags" : [],
"desc" : "境遇尴尬 求学陷夹缝 既不融于香港 又难恢复内地身份 父母后悔赴港产子 双非儿童，是指父母皆非香港人，却在香港出生、具有香港户籍身份的儿童。以往说\u201C不能让孩子输在起跑线\u201D都是小学开始考虑，殊不知在香港，想给 孩子报个幼儿园，都要通宵排队。近来，香港....",
"emailed" : False,
"forwarded" : False,
"english" : False
}  , {
"index" : 10,
"articleIndex" : "1463",
"favor" :  False ,
     "read" : False,    
"title" : "新闻联播批《喜羊羊》等语言粗俗(2)",
"titleTip" : "新闻联播批《喜羊羊》等语言粗俗(2)",
"titleSummary" : "新闻联播批《喜羊羊》等语言粗俗(2)",
"descSummary" : "应引导孩子观看一些益智类影视 动画片对孩子的影响有多大，天河...",
"url" : "http:\/\/go.rss.sina.com.cn\/redirect.php?url=http:\/\/baby.sina.com.cn\/news\/2013-10-14\/093161553_2.shtml",
"pubDate" : "2013年10月14日 (2周前)",
"enterDate" : "384201:02:52",
"channelId" : "5726817459075044351",
"channelName" : "育儿新闻-新浪育儿",
"channelNameSummary" : "育儿新闻-新浪育儿",
"channelUrl" : "http:\/\/baby.sina.com.cn\/news\/list.html",
"author" : "WWW.SINA.COM.CN",
"tags" : [],
"desc" : "应引导孩子观看一些益智类影视 动画片对孩子的影响有多大，天河区某省一级小学班主任邓老师深有体会。在给一年级小学生上课时，她会把《喜羊羊》里的角色引进课堂，因为这是孩子们熟悉的形象，\u201C所以不能小看动画片对孩子的影响，他们的语言、行为，都直接受动....",
"emailed" : False,
"forwarded" : False,
"english" : False
}  , {
"index" : 11,
"articleIndex" : "1464",
"favor" :  False ,
     "read" : False,    
"title" : "新闻联播批《喜羊羊》等语言粗俗",
"titleTip" : "新闻联播批《喜羊羊》等语言粗俗",
"titleSummary" : "新闻联播批《喜羊羊》等语言粗俗",
"descSummary" : "动画片《熊出没》 《新闻联播》截图 《喜羊羊与灰太狼》 《新闻联播...",
"url" : "http:\/\/go.rss.sina.com.cn\/redirect.php?url=http:\/\/baby.sina.com.cn\/news\/2013-10-14\/093161553.shtml",
"pubDate" : "2013年10月14日 (2周前)",
"enterDate" : "384201:02:52",
"channelId" : "5726817459075044351",
"channelName" : "育儿新闻-新浪育儿",
"channelNameSummary" : "育儿新闻-新浪育儿",
"channelUrl" : "http:\/\/baby.sina.com.cn\/news\/list.html",
"author" : "WWW.SINA.COM.CN",
"tags" : [],
"desc" : "&#160; 动画片《熊出没》 《新闻联播》截图 《喜羊羊与灰太狼》 《新闻联播》点名称两片正在整改，年内或出台标准限制 ■新快报记者 周雯 黄婷 电视动画片的暴力问题，早前因男童被疑因模仿动画片而烧伤两同伴一事，引起社会的广泛关注。近....",
"emailed" : False,
"forwarded" : False,
"english" : False
}  , {
"index" : 12,
"articleIndex" : "1462",
"favor" :  False ,
     "read" : False,    
"title" : "云南被官员强奸幼女常做噩梦",
"titleTip" : "云南被官员强奸幼女常做噩梦",
"titleSummary" : "云南被官员强奸幼女常做噩梦",
"descSummary" : "\u201C云南官员强奸4岁幼女案\u201D追踪 新京报讯 (记者周清树实习生贾世煜)云南...",
"url" : "http:\/\/go.rss.sina.com.cn\/redirect.php?url=http:\/\/baby.sina.com.cn\/news\/2013-10-14\/085661552.shtml",
"pubDate" : "2013年10月14日 (2周前)",
"enterDate" : "384200:57:43",
"channelId" : "5726817459075044351",
"channelName" : "育儿新闻-新浪育儿",
"channelNameSummary" : "育儿新闻-新浪育儿",
"channelUrl" : "http:\/\/baby.sina.com.cn\/news\/list.html",
"author" : "WWW.SINA.COM.CN",
"tags" : [],
"desc" : "\u201C云南官员强奸4岁幼女案\u201D追踪 新京报讯 (记者周清树实习生贾世煜)云南省大关县官员强奸幼女案受害人代理律师陈维镖昨日向记者证实，昭通市中级人民法院已决定受理幼女家属提出的民事赔偿上诉。 8月24日，原大关县机构编制委员会办公室主任郭玉驰，将在街上玩....",
"emailed" : False,
"forwarded" : False,
"english" : False
}  , {
"index" : 13,
"articleIndex" : "1461",
"favor" :  False ,
     "read" : False,    
"title" : "假医生车内猥亵13岁男童被批捕",
"titleTip" : "假医生车内猥亵13岁男童被批捕",
"titleSummary" : "假医生车内猥亵13岁男童被批捕",
"descSummary" : "京华时报讯(记者王晟)餐厅老板李某在公共厕所遇到一13岁男孩后心生歹...",
"url" : "http:\/\/go.rss.sina.com.cn\/redirect.php?url=http:\/\/baby.sina.com.cn\/news\/2013-10-14\/085561551.shtml",
"pubDate" : "2013年10月14日 (2周前)",
"enterDate" : "384200:56:33",
"channelId" : "5726817459075044351",
"channelName" : "育儿新闻-新浪育儿",
"channelNameSummary" : "育儿新闻-新浪育儿",
"channelUrl" : "http:\/\/baby.sina.com.cn\/news\/list.html",
"author" : "WWW.SINA.COM.CN",
"tags" : [],
"desc" : "京华时报讯(记者王晟)餐厅老板李某在公共厕所遇到一13岁男孩后心生歹念，以检查身体为由将男孩骗到车上实施猥亵。记者昨天获悉，丰台检察院以涉嫌猥亵儿童罪对李某批准逮捕。 据检方介绍，李某是丰台区某餐厅的老板，饭店的生意不错，但在长期的经营压力下，李某出现了....",
"emailed" : False,
"forwarded" : False,
"english" : False
}  , {
"index" : 14,
"articleIndex" : "1460",
"favor" :  False ,
     "read" : False,    
"title" : "阿根廷为6岁男童开具女性身份证",
"titleTip" : "阿根廷为6岁男童开具女性身份证",
"titleSummary" : "阿根廷为6岁男童开具女性身份证",
"descSummary" : "【环球网综合报道】据美国广播公司10月9日报道，阿根廷6岁男童曼努...",
"url" : "http:\/\/go.rss.sina.com.cn\/redirect.php?url=http:\/\/baby.sina.com.cn\/news\/2013-10-14\/085461550.shtml",
"pubDate" : "2013年10月14日 (2周前)",
"enterDate" : "384200:55:50",
"channelId" : "5726817459075044351",
"channelName" : "育儿新闻-新浪育儿",
"channelNameSummary" : "育儿新闻-新浪育儿",
"channelUrl" : "http:\/\/baby.sina.com.cn\/news\/list.html",
"author" : "WWW.SINA.COM.CN",
"tags" : [],
"desc" : "【环球网综合报道】据美国广播公司10月9日报道，阿根廷6岁男童曼努耶一岁半开始表现女性特质并告诉妈妈\u201C我是女孩\u201D，但他年纪太小不宜动变性手术。在母亲力争之下，阿根廷政府9日发给他性别标为女性的身份证和出生证明。 据报道，这是未经法院裁决即允许未成年人变更....",
"emailed" : False,
"forwarded" : False,
"english" : False
}  , {
"index" : 15,
"articleIndex" : "1459",
"favor" :  False ,
     "read" : False,    
"title" : "小萝莉视频告白：妈咪我爱你",
"titleTip" : "小萝莉视频告白：妈咪我爱你",
"titleSummary" : "小萝莉视频告白：妈咪我爱你",
"descSummary" : "一个可爱的外国小女孩拍视频送妈妈当生日礼物。她对着镜头努力说着赞美...",
"url" : "http:\/\/go.rss.sina.com.cn\/redirect.php?url=http:\/\/baby.sina.com.cn\/news\/2013-10-14\/084361549.shtml",
"pubDate" : "2013年10月14日 (2周前)",
"enterDate" : "384201:15:01",
"channelId" : "5726817459075044351",
"channelName" : "育儿新闻-新浪育儿",
"channelNameSummary" : "育儿新闻-新浪育儿",
"channelUrl" : "http:\/\/baby.sina.com.cn\/news\/list.html",
"author" : "WWW.SINA.COM.CN",
"tags" : [],
"desc" : "一个可爱的外国小女孩拍视频送妈妈当生日礼物。她对着镜头努力说着赞美词：\u201C1.你好漂亮，2.你是最棒的妈咪\u2026\u2026\u201D，说着说着她突然开始哭丧脸，\u201C你工作好辛苦，你出门我好想你！\u201D 小萝莉视频告白：妈咪我爱你",
"emailed" : False,
"forwarded" : False,
"english" : False
}  , {
"index" : 16,
"articleIndex" : "1458",
"favor" :  False ,
     "read" : False,    
"title" : "\u201C面条妈妈\u201D冒死生二胎救白血病女儿",
"titleTip" : "\u201C面条妈妈\u201D冒死生二胎救白血病女儿",
"titleSummary" : "\u201C面条妈妈\u201D冒死生二胎救白血病女儿",
"descSummary" : "严重的营养不良导致她腹中的婴儿也严重缺乏营养，\u201C面条妈妈\u201D...",
"url" : "http:\/\/go.rss.sina.com.cn\/redirect.php?url=http:\/\/baby.sina.com.cn\/news\/2013-10-13\/095861548.shtml",
"pubDate" : "2013年10月13日 (2周前)",
"enterDate" : "384201:02:59",
"channelId" : "5726817459075044351",
"channelName" : "育儿新闻-新浪育儿",
"channelNameSummary" : "育儿新闻-新浪育儿",
"channelUrl" : "http:\/\/baby.sina.com.cn\/news\/list.html",
"author" : "WWW.SINA.COM.CN",
"tags" : [],
"desc" : "严重的营养不良导致她腹中的婴儿也严重缺乏营养，\u201C面条妈妈\u201D告诉记者，希望用新生儿的脐带血留住女儿的生命，即使她自己冒生命危险也要试一试。 3岁女儿患上白血病 昨日，记者在盘锦市人民医院见到了患病的小雁雁，因为患病，已经5周岁的她没有上过幼儿园和....",
"emailed" : False,
"forwarded" : False,
"english" : False
}  , {
"index" : 17,
"articleIndex" : "1457",
"favor" :  False ,
     "read" : False,    
"title" : "香港官员：奶粉测试仍进行不轻易撤限奶令",
"titleTip" : "香港官员：奶粉测试仍进行不轻易撤限奶令",
"titleSummary" : "香港官员：奶粉测试仍进行不轻易撤限奶令",
"descSummary" : "中新网10月12日电综合香港媒体报道，香港食物及卫生局局...",
"url" : "http:\/\/go.rss.sina.com.cn\/redirect.php?url=http:\/\/baby.sina.com.cn\/news\/2013-10-13\/094761547.shtml",
"pubDate" : "2013年10月13日 (2周前)",
"enterDate" : "384200:52:23",
"channelId" : "5726817459075044351",
"channelName" : "育儿新闻-新浪育儿",
"channelNameSummary" : "育儿新闻-新浪育儿",
"channelUrl" : "http:\/\/baby.sina.com.cn\/news\/list.html",
"author" : "WWW.SINA.COM.CN",
"tags" : [],
"desc" : "中新网10月12日电综合香港媒体报道，香港食物及卫生局局长高永文12日表示，压力测试仍在进行，并重申不会轻易撤限奶令。 高永文表示，完成压力测试后，需要时间分析。他表示，当香港本地奶粉供应、零售等确保稳定，才会考虑，重申不会轻易撤限奶令。 据报道，香....",
"emailed" : False,
"forwarded" : False,
"english" : False
}  , {
"index" : 18,
"articleIndex" : "1456",
"favor" :  False ,
     "read" : False,    
"title" : "的哥连闯红灯送疑误服水银2岁女童就医",
"titleTip" : "的哥连闯红灯送疑误服水银2岁女童就医",
"titleSummary" : "的哥连闯红灯送疑误服水银2岁女童就医",
"descSummary" : "本报讯(记者 刘长宇)10月11日深夜，长春市一位母亲发现两岁的...",
"url" : "http:\/\/go.rss.sina.com.cn\/redirect.php?url=http:\/\/baby.sina.com.cn\/news\/2013-10-13\/093961546.shtml",
"pubDate" : "2013年10月13日 (2周前)",
"enterDate" : "384201:14:01",
"channelId" : "5726817459075044351",
"channelName" : "育儿新闻-新浪育儿",
"channelNameSummary" : "育儿新闻-新浪育儿",
"channelUrl" : "http:\/\/baby.sina.com.cn\/news\/list.html",
"author" : "WWW.SINA.COM.CN",
"tags" : [],
"desc" : "本报讯(记者 刘长宇)10月11日深夜，长春市一位母亲发现两岁的女儿打破了体温计，有可能误服水银，急忙打出租车去医院，一名好心的哥为尽快送孩子入院，连闯了好几处红灯。 打破体温计 孩子肚子疼 陈女士家住在凯旋路上的原机车厂招待所附近，女儿两周岁了。11日....",
"emailed" : False,
"forwarded" : False,
"english" : False
}  , {
"index" : 19,
"articleIndex" : "1455",
"favor" :  False ,
     "read" : False,    
"title" : "云南强奸幼女受害方因流言欲搬家",
"titleTip" : "云南强奸幼女受害方因流言欲搬家",
"titleSummary" : "云南强奸幼女受害方因流言欲搬家",
"descSummary" : "大关县法院、检察院拒绝接受采访 昨日下午3时许，记者来到大关县检...",
"url" : "http:\/\/go.rss.sina.com.cn\/redirect.php?url=http:\/\/baby.sina.com.cn\/news\/2013-10-12\/102361539.shtml",
"pubDate" : "2013年10月12日 (2周前)",
"enterDate" : "384199:01:26",
"channelId" : "5726817459075044351",
"channelName" : "育儿新闻-新浪育儿",
"channelNameSummary" : "育儿新闻-新浪育儿",
"channelUrl" : "http:\/\/baby.sina.com.cn\/news\/list.html",
"author" : "WWW.SINA.COM.CN",
"tags" : [],
"desc" : "大关县法院、检察院拒绝接受采访 昨日下午3时许，记者来到大关县检察院，副检察长王峰说，郭玉驰强奸幼女案由副检察长周玉军负责办理，但其目前正处于出差状态。随后记者电话联系到周玉军，他表示，大关县检察院可以对此案作出详细解释，但按相关规定，接受采访须经过....",
"emailed" : False,
"forwarded" : False,
"english" : False
} ]
}
