{
"mode" : {"viewTitle" : 1,   "viewNew" : 0,  "pageIndex" : 1 },
 "channel" : {"id" : "757052239087398837", "booked" : False, "subNumber" : 1, "name" : "高尔夫新闻-新浪体育", "url" : "http:\/\/sports.sina.com.cn\/golf\/index.shtml", "feed" : "http:\/\/rss.sina.com.cn\/sports\/global\/golf.xml", "author" : "WWW.SINA.COM.CN", "desc" : "高尔夫新闻", "imageUrl" : "http:\/\/www.sinaimg.cn\/ty\/deco\/2010\/0601\/logo_home_sports_nonike2.gif", "postPerWeek" : "0", "lastCrawTime" : "17:19:42", "crawDateTime" : "17:19:42", "lastHttpCode" : "200"}, "page" : {
"startIndex" : 0,
"totalCount" : 5000,
"pageIndex" : 1,
"lastPage" : 250,
"pageSize" : 20,
"english" :  False },
 "unreadNum" : 0, "shotIndex" : -1,
"articles" : [
{
"index" : 0,
"articleIndex" : "16817",
"favor" :  False ,
     "read" : False,    
"title" : "苏州太湖女子公开赛配对赛举行 王志文何平助兴",
"titleTip" : "苏州太湖女子公开赛配对赛举行 王志文何平助兴",
"titleSummary" : "苏州太湖女子公开赛配对赛举行 王志文何平助兴",
"descSummary" : "北京时间10月30日消息：2013苏州太湖[微博]杯-欧亚女...",
"url" : "http:\/\/go.rss.sina.com.cn\/redirect.php?url=http:\/\/sports.sina.com.cn\/golf\/2013-10-30\/17086858766.shtml",
"pubDate" : "17:08:30",
"enterDate" : "384201:08:58",
"channelId" : "757052239087398837",
"channelName" : "高尔夫新闻-新浪体育",
"channelNameSummary" : "高尔夫新闻-新浪体育",
"channelUrl" : "http:\/\/sports.sina.com.cn\/golf\/index.shtml",
"author" : "WWW.SINA.COM.CN",
"tags" : [],
"desc" : "北京时间10月30日消息：2013苏州太湖[微博]杯-欧亚女子公开赛职业-业余配对赛已于今日在苏州太湖国际高尔夫[微博]球场隆重开杆。 中国高尔夫球协会委员、苏州太湖国际高尔夫俱乐部董事长徐越频、女子欧洲巡回赛执行总监伊万-彼得-科达贝奇、女子欧巡赛事总监，弗雷泽-....",
"emailed" : False,
"forwarded" : False,
"english" : False
}  , {
"index" : 1,
"articleIndex" : "16816",
"favor" :  False ,
     "read" : False,    
"title" : "汇丰冠军赛菲尔小麦争雄 梁文冲惊叹佘山果岭快",
"titleTip" : "汇丰冠军赛菲尔小麦争雄 梁文冲惊叹佘山果岭快",
"titleSummary" : "汇丰冠军赛菲尔小麦争雄 梁文冲惊叹佘山果岭快",
"descSummary" : "虽然几个星期之前华东地区下了大暴雨，上海佘山国际高...",
"url" : "http:\/\/go.rss.sina.com.cn\/redirect.php?url=http:\/\/sports.sina.com.cn\/golf\/2013-10-30\/17026858757.shtml",
"pubDate" : "17:02:21",
"enterDate" : "384201:02:49",
"channelId" : "757052239087398837",
"channelName" : "高尔夫新闻-新浪体育",
"channelNameSummary" : "高尔夫新闻-新浪体育",
"channelUrl" : "http:\/\/sports.sina.com.cn\/golf\/index.shtml",
"author" : "WWW.SINA.COM.CN",
"tags" : [],
"desc" : "虽然几个星期之前华东地区下了大暴雨，上海佘山国际高尔夫俱乐部却没有一丝受影响的迹象，它已经准备好迎接中国史上首场联邦杯赛事：世锦赛-汇丰冠军赛。总奖金850万美元，世锦赛-汇丰冠军赛同时也是欧巡第二场总决赛，因此它不仅吸引到诸如米克尔森、詹森・杜夫纳、乔丹・斯....",
"emailed" : False,
"forwarded" : False,
"english" : False
}  , {
"index" : 2,
"articleIndex" : "16815",
"favor" :  False ,
     "read" : False,    
"title" : "麦克罗伊惊叹中国球迷之疯狂 称拍照问题全球都有",
"titleTip" : "麦克罗伊惊叹中国球迷之疯狂 称拍照问题全球都有",
"titleSummary" : "麦克罗伊惊叹中国球迷之疯狂 称拍照问题全球都有",
"descSummary" : "北京时间10月30日，备受国内球迷喜爱的北爱尔兰球...",
"url" : "http:\/\/go.rss.sina.com.cn\/redirect.php?url=http:\/\/sports.sina.com.cn\/golf\/2013-10-30\/16536858751.shtml",
"pubDate" : "16:53:13",
"enterDate" : "384200:53:41",
"channelId" : "757052239087398837",
"channelName" : "高尔夫新闻-新浪体育",
"channelNameSummary" : "高尔夫新闻-新浪体育",
"channelUrl" : "http:\/\/sports.sina.com.cn\/golf\/index.shtml",
"author" : "WWW.SINA.COM.CN",
"tags" : [],
"desc" : "北京时间10月30日，备受国内球迷喜爱的北爱尔兰球手麦克罗伊本周参战在上海举行的汇丰冠军赛，在经过了上一周在上海美兰湖举行的BMW大师赛，以及本周一在海口观澜湖与泰格伍兹的表演赛后，麦克罗伊对疯狂支持他的中国球迷印象深刻。但他表示，对于观众拍照接电话等问题，不单....",
"emailed" : False,
"forwarded" : False,
"english" : False
}  , {
"index" : 3,
"articleIndex" : "16814",
"favor" :  False ,
     "read" : False,    
"title" : "高尔夫女神拉斯维加斯泛舟 上演美女漂流记(图)",
"titleTip" : "高尔夫女神拉斯维加斯泛舟 上演美女漂流记(图)",
"titleSummary" : "高尔夫女神拉斯维加斯泛舟 上演美女漂流记(图)",
"descSummary" : "北京时间10月30日消息，LPGA巡回赛上周结束台湾锦标赛...",
"url" : "http:\/\/go.rss.sina.com.cn\/redirect.php?url=http:\/\/sports.sina.com.cn\/golf\/2013-10-30\/16286858696.shtml",
"pubDate" : "16:28:00",
"enterDate" : "384200:58:35",
"channelId" : "757052239087398837",
"channelName" : "高尔夫新闻-新浪体育",
"channelNameSummary" : "高尔夫新闻-新浪体育",
"channelUrl" : "http:\/\/sports.sina.com.cn\/golf\/index.shtml",
"author" : "WWW.SINA.COM.CN",
"tags" : [],
"desc" : "北京时间10月30日消息，LPGA巡回赛上周结束台湾锦标赛之后，本周将休战一周，下周转战日本举行美津浓精英赛。高尔夫大美女古尔比斯回到拉斯维加斯湖中泛舟，上演\u201C美女漂流记\u201D。 古尔比斯泛舟 古尔比斯将两张湖中泛舟的图片发到推特上，照片中古尔比斯穿着一身橙色....",
"emailed" : False,
"forwarded" : False,
"english" : False
}  , {
"index" : 4,
"articleIndex" : "16813",
"favor" :  False ,
     "read" : False,    
"title" : "高清-姚明出席汇丰赛酒会 高尔夫巨星纷纷合影",
"titleTip" : "高清-姚明出席汇丰赛酒会 高尔夫巨星纷纷合影",
"titleSummary" : "高清-姚明出席汇丰赛酒会 高尔夫巨星纷纷合影",
"descSummary" : "",
"url" : "http:\/\/go.rss.sina.com.cn\/redirect.php?url=http:\/\/slide.sports.sina.com.cn\/golf\/slide_2_754_55434.html",
"pubDate" : "16:04:15",
"enterDate" : "384201:04:54",
"channelId" : "757052239087398837",
"channelName" : "高尔夫新闻-新浪体育",
"channelNameSummary" : "高尔夫新闻-新浪体育",
"channelUrl" : "http:\/\/sports.sina.com.cn\/golf\/index.shtml",
"author" : "WWW.SINA.COM.CN",
"tags" : [],
"desc" : "",
"emailed" : False,
"forwarded" : False,
"english" : False
}  , {
"index" : 5,
"articleIndex" : "16812",
"favor" :  False ,
     "read" : False,    
"title" : "米克尔森上海球场明年完工 笑称媒体打球全免费",
"titleTip" : "米克尔森上海球场明年完工 笑称媒体打球全免费",
"titleSummary" : "米克尔森上海球场明年完工 笑称媒体打球全免费",
"descSummary" : "北京时间10月30日，五个高尔夫大满贯赛得主米克尔森...",
"url" : "http:\/\/go.rss.sina.com.cn\/redirect.php?url=http:\/\/sports.sina.com.cn\/golf\/2013-10-30\/15576858673.shtml",
"pubDate" : "15:57:12",
"enterDate" : "384200:57:51",
"channelId" : "757052239087398837",
"channelName" : "高尔夫新闻-新浪体育",
"channelNameSummary" : "高尔夫新闻-新浪体育",
"channelUrl" : "http:\/\/sports.sina.com.cn\/golf\/index.shtml",
"author" : "WWW.SINA.COM.CN",
"tags" : [],
"desc" : "北京时间10月30日，五个高尔夫大满贯赛得主米克尔森透露他在上海设计的球场即将完工，他同时表示这座球场与别不同的地方在于高尔夫爱好者可以玩\u201C地滚球\u201D。 \u201C我最近在上海雅居乐设计了一座高尔夫球场，我努力做的事情是让高尔夫球手在地上打球，人们可以打地滚球。当....",
"emailed" : False,
"forwarded" : False,
"english" : False
}  , {
"index" : 6,
"articleIndex" : "16810",
"favor" :  False ,
     "read" : False,    
"title" : "高清-石川辽携手中国青少年 下场备战汇丰冠军赛",
"titleTip" : "高清-石川辽携手中国青少年 下场备战汇丰冠军赛",
"titleSummary" : "高清-石川辽携手中国青少年 下场备战汇丰冠军赛",
"descSummary" : "",
"url" : "http:\/\/go.rss.sina.com.cn\/redirect.php?url=http:\/\/slide.sports.sina.com.cn\/golf\/slide_2_754_55466.html",
"pubDate" : "15:12:34",
"enterDate" : "384200:43:19",
"channelId" : "757052239087398837",
"channelName" : "高尔夫新闻-新浪体育",
"channelNameSummary" : "高尔夫新闻-新浪体育",
"channelUrl" : "http:\/\/sports.sina.com.cn\/golf\/index.shtml",
"author" : "WWW.SINA.COM.CN",
"tags" : [],
"desc" : "",
"emailed" : False,
"forwarded" : False,
"english" : False
}  , {
"index" : 7,
"articleIndex" : "16809",
"favor" :  False ,
     "read" : False,    
"title" : "曼城主帅坐高尔夫\u201C板凳\u201D 申请加入球会需候补",
"titleTip" : "曼城主帅坐高尔夫\u201C板凳\u201D 申请加入球会需候补",
"titleSummary" : "曼城主帅坐高尔夫\u201C板凳\u201D 申请加入球会需候补",
"descSummary" : "北京时间10月30日消息，英超[微博]著名球队曼城[微博...",
"url" : "http:\/\/go.rss.sina.com.cn\/redirect.php?url=http:\/\/sports.sina.com.cn\/golf\/2013-10-30\/12406858392.shtml",
"pubDate" : "12:40:16",
"enterDate" : "384201:11:31",
"channelId" : "757052239087398837",
"channelName" : "高尔夫新闻-新浪体育",
"channelNameSummary" : "高尔夫新闻-新浪体育",
"channelUrl" : "http:\/\/sports.sina.com.cn\/golf\/index.shtml",
"author" : "WWW.SINA.COM.CN",
"tags" : [],
"desc" : "北京时间10月30日消息，英超[微博]著名球队曼城[微博][微博]主教练佩莱格里尼最近在足球场上不是很顺利，而在高尔夫[微博]运动上同样如此。与足球名帅弗格森一样，佩莱格里尼也是一名高尔夫爱好者。他曾试图直接获得柴郡一家高尔夫俱乐部的会员资格，但最后还是被告知需要候补....",
"emailed" : False,
"forwarded" : False,
"english" : False
}  , {
"index" : 8,
"articleIndex" : "16808",
"favor" :  False ,
     "read" : False,    
"title" : "高清-新浪凝聚中国力量 汇丰赛中国六将拍摄合影",
"titleTip" : "高清-新浪凝聚中国力量 汇丰赛中国六将拍摄合影",
"titleSummary" : "高清-新浪凝聚中国力量 汇丰赛中国六将拍摄合影",
"descSummary" : "",
"url" : "http:\/\/go.rss.sina.com.cn\/redirect.php?url=http:\/\/slide.sports.sina.com.cn\/golf\/slide_2_754_55460.html",
"pubDate" : "12:33:21",
"enterDate" : "384201:04:36",
"channelId" : "757052239087398837",
"channelName" : "高尔夫新闻-新浪体育",
"channelNameSummary" : "高尔夫新闻-新浪体育",
"channelUrl" : "http:\/\/sports.sina.com.cn\/golf\/index.shtml",
"author" : "WWW.SINA.COM.CN",
"tags" : [],
"desc" : "",
"emailed" : False,
"forwarded" : False,
"english" : False
}  , {
"index" : 9,
"articleIndex" : "16807",
"favor" :  False ,
     "read" : False,    
"title" : "佘山总经理：汇丰赛提高难度 球道更窄长草更高",
"titleTip" : "佘山总经理：汇丰赛提高难度 球道更窄长草更高",
"titleSummary" : "佘山总经理：汇丰赛提高难度 球道更窄长草更高",
"descSummary" : "总奖金850万美金的世锦赛-汇丰冠军赛又重回到佘山国际...",
"url" : "http:\/\/go.rss.sina.com.cn\/redirect.php?url=http:\/\/sports.sina.com.cn\/golf\/2013-10-30\/12256858360.shtml",
"pubDate" : "12:25:41",
"enterDate" : "384200:56:56",
"channelId" : "757052239087398837",
"channelName" : "高尔夫新闻-新浪体育",
"channelNameSummary" : "高尔夫新闻-新浪体育",
"channelUrl" : "http:\/\/sports.sina.com.cn\/golf\/index.shtml",
"author" : "WWW.SINA.COM.CN",
"tags" : [],
"desc" : "总奖金850万美金的世锦赛-汇丰冠军赛又重回到佘山国际高尔夫俱乐部，世界前50名中的43名都将参赛，米克尔森、麦克罗伊、保尔特和维斯特伍德等全球顶尖球手又将在这座中国最富盛名的球场展开巅峰对决。这是佘山球场第8次举办该项赛事，同一座球场，每年都呈现出精益求精的态度....",
"emailed" : False,
"forwarded" : False,
"english" : False
}  , {
"index" : 10,
"articleIndex" : "16806",
"favor" :  False ,
     "read" : False,    
"title" : "伍兹打完挑战赛转战澳门 赌城出席活动拒绝汇丰赛",
"titleTip" : "伍兹打完挑战赛转战澳门 赌城出席活动拒绝汇丰赛",
"titleSummary" : "伍兹打完挑战赛转战澳门 赌城出席活动拒绝汇丰赛",
"descSummary" : "北京时间10月30日消息：本周，中国奖金最高级别最...",
"url" : "http:\/\/go.rss.sina.com.cn\/redirect.php?url=http:\/\/sports.sina.com.cn\/golf\/2013-10-30\/12246858359.shtml",
"pubDate" : "12:24:28",
"enterDate" : "384199:25:28",
"channelId" : "757052239087398837",
"channelName" : "高尔夫新闻-新浪体育",
"channelNameSummary" : "高尔夫新闻-新浪体育",
"channelUrl" : "http:\/\/sports.sina.com.cn\/golf\/index.shtml",
"author" : "WWW.SINA.COM.CN",
"tags" : [],
"desc" : "北京时间10月30日消息：本周，中国奖金最高级别最高的汇丰高尔夫[微博]球冠军赛正在上海佘山举行，而正在中国的世界第一伍兹不会现身，据说不参赛的原因是没有出场费。在海南观澜湖[微博]高尔夫球会参加完世界第一挑战赛后，伍兹于昨日晚已飞抵澳门，参加了澳门威尼斯人鸡尾酒....",
"emailed" : False,
"forwarded" : False,
"english" : False
}  , {
"index" : 11,
"articleIndex" : "16805",
"favor" :  False ,
     "read" : False,    
"title" : "米克尔森觉得挥杆已好转 自信能第三次在上海捧杯",
"titleTip" : "米克尔森觉得挥杆已好转 自信能第三次在上海捧杯",
"titleSummary" : "米克尔森觉得挥杆已好转 自信能第三次在上海捧杯",
"descSummary" : "北京时间10月30日，上个星期在马来西亚，五个高尔...",
"url" : "http:\/\/go.rss.sina.com.cn\/redirect.php?url=http:\/\/sports.sina.com.cn\/golf\/2013-10-30\/11416858302.shtml",
"pubDate" : "11:41:14",
"enterDate" : "384201:12:39",
"channelId" : "757052239087398837",
"channelName" : "高尔夫新闻-新浪体育",
"channelNameSummary" : "高尔夫新闻-新浪体育",
"channelUrl" : "http:\/\/sports.sina.com.cn\/golf\/index.shtml",
"author" : "WWW.SINA.COM.CN",
"tags" : [],
"desc" : "北京时间10月30日，上个星期在马来西亚，五个高尔夫大满贯赛冠军得主米克尔森听上去挺担心他的挥杆，很明显，现在他不担心了，实际上再次来到佘山，他感觉很好，觉得第三次赢得世锦赛-汇丰冠军赛非常有可能。 \u201C是的，我们所有人都会高峰和低谷，上个星期开始的时候，....",
"emailed" : False,
"forwarded" : False,
"english" : False
}  , {
"index" : 12,
"articleIndex" : "16804",
"favor" :  False ,
     "read" : False,    
"title" : "湖南郴州南岭高尔夫俱乐部 典型的丘陵湖滨球场",
"titleTip" : "湖南郴州南岭高尔夫俱乐部 典型的丘陵湖滨球场",
"titleSummary" : "湖南郴州南岭高尔夫俱乐部 典型的丘陵湖滨球场",
"descSummary" : "郴州南岭高尔夫俱乐部隶属郴州小埠古村生态园，建成后...",
"url" : "http:\/\/go.rss.sina.com.cn\/redirect.php?url=http:\/\/sports.sina.com.cn\/golf\/2013-10-30\/10586858200.shtml",
"pubDate" : "10:58:59",
"enterDate" : "384201:00:29",
"channelId" : "757052239087398837",
"channelName" : "高尔夫新闻-新浪体育",
"channelNameSummary" : "高尔夫新闻-新浪体育",
"channelUrl" : "http:\/\/sports.sina.com.cn\/golf\/index.shtml",
"author" : "WWW.SINA.COM.CN",
"tags" : [],
"desc" : "郴州南岭高尔夫俱乐部隶属郴州小埠古村生态园，建成后将成为武广高铁沿线最近最便利高球站点，地理位置极佳；且集古居保护、旅游度假、办公居住、生态农业于一体，配套设施齐全。郴州南岭高尔夫俱乐部离武广高铁郴州站不至10分钟，离郴州市区15分钟车程，离规划中的郴州机场仅....",
"emailed" : False,
"forwarded" : False,
"english" : False
}  , {
"index" : 13,
"articleIndex" : "16803",
"favor" :  False ,
     "read" : False,    
"title" : "世界第一挑战赛伍兹号召力非凡 球杆拍出27.8万",
"titleTip" : "世界第一挑战赛伍兹号召力非凡 球杆拍出27.8万",
"titleSummary" : "世界第一挑战赛伍兹号召力非凡 球杆拍出27.8万",
"descSummary" : "北京时间10月30日消息，本周一举行的观澜湖[微博]世界...",
"url" : "http:\/\/go.rss.sina.com.cn\/redirect.php?url=http:\/\/sports.sina.com.cn\/golf\/2013-10-30\/10286858130.shtml",
"pubDate" : "10:28:22",
"enterDate" : "384200:59:57",
"channelId" : "757052239087398837",
"channelName" : "高尔夫新闻-新浪体育",
"channelNameSummary" : "高尔夫新闻-新浪体育",
"channelUrl" : "http:\/\/sports.sina.com.cn\/golf\/index.shtml",
"author" : "WWW.SINA.COM.CN",
"tags" : [],
"desc" : "北京时间10月30日消息，本周一举行的观澜湖[微博]世界第一挑战赛，麦克罗伊[微博]再一次战胜伍兹。但赛场之外，伍兹的号召力却略胜一筹。在当天的晚宴上，伍兹使用的一根球杆拍出27.8万的高价。 女粉丝化身\u201C格格\u201D，老虎看过来！ 老虎驾临挑战赛，粉丝蜂拥而至....",
"emailed" : False,
"forwarded" : False,
"english" : False
}  , {
"index" : 14,
"articleIndex" : "16802",
"favor" :  False ,
     "read" : False,    
"title" : "高球天王学关公手忙脚乱 罗斯兵器玩反惹来笑声",
"titleTip" : "高球天王学关公手忙脚乱 罗斯兵器玩反惹来笑声",
"titleSummary" : "高球天王学关公手忙脚乱 罗斯兵器玩反惹来笑声",
"descSummary" : "北京时间10月29日，BMW大师赛的开幕仪式搬来杨门女...",
"url" : "http:\/\/go.rss.sina.com.cn\/redirect.php?url=http:\/\/sports.sina.com.cn\/golf\/2013-10-30\/09176857918.shtml",
"pubDate" : "09:17:22",
"enterDate" : "384200:19:02",
"channelId" : "757052239087398837",
"channelName" : "高尔夫新闻-新浪体育",
"channelNameSummary" : "高尔夫新闻-新浪体育",
"channelUrl" : "http:\/\/sports.sina.com.cn\/golf\/index.shtml",
"author" : "WWW.SINA.COM.CN",
"tags" : [],
"desc" : "北京时间10月29日，BMW大师赛的开幕仪式搬来杨门女将，世锦赛-汇丰冠军赛的开幕仪式请出关公。看上去，关公比杨门女将更难学。五个高尔夫巨星今天玩得有点手忙脚乱，美国公开赛冠军贾斯汀-罗斯更是弄反了兵刃。 世锦赛-汇丰冠军赛星期二的拍照环节是大赛周相对轻松，也....",
"emailed" : False,
"forwarded" : False,
"english" : False
}  , {
"index" : 15,
"articleIndex" : "16801",
"favor" :  False ,
     "read" : False,    
"title" : "伍兹女友自爆惊人球技 第一次打球便获一杆进洞",
"titleTip" : "伍兹女友自爆惊人球技 第一次打球便获一杆进洞",
"titleSummary" : "伍兹女友自爆惊人球技 第一次打球便获一杆进洞",
"descSummary" : "北京时间10月30日，高尔夫世界第一泰格-伍兹在女友林...",
"url" : "http:\/\/go.rss.sina.com.cn\/redirect.php?url=http:\/\/sports.sina.com.cn\/golf\/2013-10-30\/09086857869.shtml",
"pubDate" : "09:08:35",
"enterDate" : "384201:10:25",
"channelId" : "757052239087398837",
"channelName" : "高尔夫新闻-新浪体育",
"channelNameSummary" : "高尔夫新闻-新浪体育",
"channelUrl" : "http:\/\/sports.sina.com.cn\/golf\/index.shtml",
"author" : "WWW.SINA.COM.CN",
"tags" : [],
"desc" : "北京时间10月30日，高尔夫世界第一泰格-伍兹在女友林赛-沃恩面前一定也会自惭形秽。最近接受美国著名脱口秀节目主持人大卫-莱特曼(David Letterman)的采访，奥运会滑雪冠军表示她在高尔夫球场上的一些本领是她男友泰格-伍兹也无法企及的。 \u201C我打出了一杆进洞，我为此....",
"emailed" : False,
"forwarded" : False,
"english" : False
}  , {
"index" : 16,
"articleIndex" : "16800",
"favor" :  False ,
     "read" : False,    
"title" : "莫嘉乐接受采访：汇丰赛不会降低总奖金给出场费",
"titleTip" : "莫嘉乐接受采访：汇丰赛不会降低总奖金给出场费",
"titleSummary" : "莫嘉乐接受采访：汇丰赛不会降低总奖金给出场费",
"descSummary" : "北京时间10月30日，汇丰全球体育赞助总监莫嘉乐(G...",
"url" : "http:\/\/go.rss.sina.com.cn\/redirect.php?url=http:\/\/sports.sina.com.cn\/golf\/2013-10-30\/09066857862.shtml",
"pubDate" : "09:06:13",
"enterDate" : "384201:08:03",
"channelId" : "757052239087398837",
"channelName" : "高尔夫新闻-新浪体育",
"channelNameSummary" : "高尔夫新闻-新浪体育",
"channelUrl" : "http:\/\/sports.sina.com.cn\/golf\/index.shtml",
"author" : "WWW.SINA.COM.CN",
"tags" : [],
"desc" : "北京时间10月30日，汇丰全球体育赞助总监莫嘉乐(Giles Morgan)星期二接受了美联社记者道格-佛格森(Doug Ferguson)的专访。在采访中，莫嘉乐表示汇丰银行不会降低世锦赛-汇丰冠军赛的总奖金给个别高尔夫球员出场费。他同时对伍兹不来参赛表达了失望，但是他指出伍兹参加星期一....",
"emailed" : False,
"forwarded" : False,
"english" : False
}  , {
"index" : 17,
"articleIndex" : "16811",
"favor" :  False ,
     "read" : False,    
"title" : "重庆崽儿杨铁梁观摩海口挑战赛 伍兹指点并颁奖",
"titleTip" : "重庆崽儿杨铁梁观摩海口挑战赛 伍兹指点并颁奖",
"titleSummary" : "重庆崽儿杨铁梁观摩海口挑战赛 伍兹指点并颁奖",
"descSummary" : "13岁，对于许多重庆的孩子来说，还只是刚刚告别小学...",
"url" : "http:\/\/go.rss.sina.com.cn\/redirect.php?url=http:\/\/sports.sina.com.cn\/golf\/2013-10-30\/01306857300.shtml",
"pubDate" : "昨天01:30:06",
"enterDate" : "384187:00:51",
"channelId" : "757052239087398837",
"channelName" : "高尔夫新闻-新浪体育",
"channelNameSummary" : "高尔夫新闻-新浪体育",
"channelUrl" : "http:\/\/sports.sina.com.cn\/golf\/index.shtml",
"author" : "WWW.SINA.COM.CN",
"tags" : [],
"desc" : "13岁，对于许多重庆的孩子来说，还只是刚刚告别小学童年的时候。而13岁的杨铁梁，虽说也是重庆一中渝北校区的初二学生，可他早已是国内外高尔夫球赛的常客，甚至已经入选了这个年龄段的国家集训队。这位浑身上下透露着一股倔劲儿的重庆中学生，前天当他与泰格・伍兹的手握在一....",
"emailed" : False,
"forwarded" : False,
"english" : False
}  , {
"index" : 18,
"articleIndex" : "16799",
"favor" :  False ,
     "read" : False,    
"title" : "天王挑战赛的经济学：伍兹小麦瓜分150万美元",
"titleTip" : "天王挑战赛的经济学：伍兹小麦瓜分150万美元",
"titleSummary" : "天王挑战赛的经济学：伍兹小麦瓜分150万美元",
"descSummary" : "北京时间10月29日，根据业内一些知情人士的爆料，这次...",
"url" : "http:\/\/go.rss.sina.com.cn\/redirect.php?url=http:\/\/sports.sina.com.cn\/golf\/2013-10-29\/21006857156.shtml",
"pubDate" : "昨天21:00:24",
"enterDate" : "384187:01:54",
"channelId" : "757052239087398837",
"channelName" : "高尔夫新闻-新浪体育",
"channelNameSummary" : "高尔夫新闻-新浪体育",
"channelUrl" : "http:\/\/sports.sina.com.cn\/golf\/index.shtml",
"author" : "WWW.SINA.COM.CN",
"tags" : [],
"desc" : "北京时间10月29日，根据业内一些知情人士的爆料，这次泰格-伍兹与麦克罗伊参加海口的\u201C高尔夫世界第一挑战赛\u201D，总共出场费大约在150万美元左右。 \u201C博蓝公司对赛事的第一期投入为150万美元，这部分资金基本上用于支付伍兹与麦克罗伊的出场费。\u201D一位知情人士披露说。....",
"emailed" : False,
"forwarded" : False,
"english" : False
}  , {
"index" : 19,
"articleIndex" : "16798",
"favor" :  False ,
     "read" : False,    
"title" : "中国战神揭幕汇丰冠军赛 五大巨星身披龙袍抢奖杯",
"titleTip" : "中国战神揭幕汇丰冠军赛 五大巨星身披龙袍抢奖杯",
"titleSummary" : "中国战神揭幕汇丰冠军赛 五大巨星身披龙袍抢奖杯",
"descSummary" : "北京时间10月20日，在\u201C中国战神\u201D关公的带领下，...",
"url" : "http:\/\/go.rss.sina.com.cn\/redirect.php?url=http:\/\/sports.sina.com.cn\/golf\/2013-10-29\/18506857091.shtml",
"pubDate" : "昨天18:50:22",
"enterDate" : "384200:54:32",
"channelId" : "757052239087398837",
"channelName" : "高尔夫新闻-新浪体育",
"channelNameSummary" : "高尔夫新闻-新浪体育",
"channelUrl" : "http:\/\/sports.sina.com.cn\/golf\/index.shtml",
"author" : "WWW.SINA.COM.CN",
"tags" : [],
"desc" : "北京时间10月20日，在\u201C中国战神\u201D关公的带领下，美国公开赛冠军贾斯汀-罗斯、英国公开赛冠军米克尔森、美国PGA锦标赛冠军詹森-杜夫纳以及前高尔夫[微博]世界第一麦克罗伊[微博]身披龙袍去抢世锦赛-汇丰冠军赛[微博]伊恩-保尔特的奖杯。 听上去有点超现实，的确有点超....",
"emailed" : False,
"forwarded" : False,
"english" : False
} ]
}
