{
"mode" : {"viewTitle" : 1,   "viewNew" : 0,  "pageIndex" : 2 },
 "channel" : {"id" : "757052239087398837", "booked" : False, "subNumber" : 1, "name" : "高尔夫新闻-新浪体育", "url" : "http:\/\/sports.sina.com.cn\/golf\/index.shtml", "feed" : "http:\/\/rss.sina.com.cn\/sports\/global\/golf.xml", "author" : "WWW.SINA.COM.CN", "desc" : "高尔夫新闻", "imageUrl" : "http:\/\/www.sinaimg.cn\/ty\/deco\/2010\/0601\/logo_home_sports_nonike2.gif", "postPerWeek" : "0", "lastCrawTime" : "17:19:42", "crawDateTime" : "17:19:42", "lastHttpCode" : "200"}, "page" : {
"startIndex" : 20,
"totalCount" : 5000,
"pageIndex" : 2,
"lastPage" : 250,
"pageSize" : 20,
"english" :  False },
 "unreadNum" : 0, "shotIndex" : -1,
"articles" : [
{
"index" : 0,
"articleIndex" : "16797",
"favor" :  False ,
     "read" : False,    
"title" : "苏州太湖女子赛即将开演 群星璀璨老将戴维斯征战",
"titleTip" : "苏州太湖女子赛即将开演 群星璀璨老将戴维斯征战",
"titleSummary" : "苏州太湖女子赛即将开演 群星璀璨老将戴维斯征战",
"descSummary" : "北京时间10月29日消息：碧落万顷的太湖之滨闪耀着...",
"url" : "http:\/\/go.rss.sina.com.cn\/redirect.php?url=http:\/\/sports.sina.com.cn\/golf\/2013-10-29\/17466857014.shtml",
"pubDate" : "昨天17:46:10",
"enterDate" : "384200:50:29",
"channelId" : "757052239087398837",
"channelName" : "高尔夫新闻-新浪体育",
"channelNameSummary" : "高尔夫新闻-新浪体育",
"channelUrl" : "http:\/\/sports.sina.com.cn\/golf\/index.shtml",
"author" : "WWW.SINA.COM.CN",
"tags" : [],
"desc" : "北京时间10月29日消息：碧落万顷的太湖之滨闪耀着一道亮丽的风景线：一群身着古典旗袍的金发碧眼女子婀娜地穿行于太湖吴中东山岛的山山水水中。据悉，这些异国风情的女子全部是\u201C2013苏州太湖杯・欧亚女子公开赛\u201D的参赛球员。这场世界级的高尔夫赛事将于11月1日至3日在苏州太....",
"emailed" : False,
"forwarded" : False,
"english" : False
}  , {
"index" : 1,
"articleIndex" : "16796",
"favor" :  False ,
     "read" : False,    
"title" : "欧巡迪拜竞赛小麦仍未闯入前60 要分巨奖仍需努力",
"titleTip" : "欧巡迪拜竞赛小麦仍未闯入前60 要分巨奖仍需努力",
"titleSummary" : "欧巡迪拜竞赛小麦仍未闯入前60 要分巨奖仍需努力",
"descSummary" : "北京时间10月29日消息，欧巡第一场年度总决赛BMW...",
"url" : "http:\/\/go.rss.sina.com.cn\/redirect.php?url=http:\/\/sports.sina.com.cn\/golf\/2013-10-29\/14336856841.shtml",
"pubDate" : "昨天14:33:16",
"enterDate" : "384199:37:55",
"channelId" : "757052239087398837",
"channelName" : "高尔夫新闻-新浪体育",
"channelNameSummary" : "高尔夫新闻-新浪体育",
"channelUrl" : "http:\/\/sports.sina.com.cn\/golf\/index.shtml",
"author" : "WWW.SINA.COM.CN",
"tags" : [],
"desc" : "北京时间10月29日消息，欧巡第一场年度总决赛BMW大师赛已经在上海落幕。北爱尔兰明星麦克罗伊[微博]依然未能闯入迪拜竞赛(欧巡赛奖金榜)的前60位，本周继续在上海举行的汇丰冠军赛[微博]上，他仍需努力。 BMW大师赛后麦克罗伊在迪拜竞赛中的排名只前进了一位，从63位变....",
"emailed" : False,
"forwarded" : False,
"english" : False
}  , {
"index" : 2,
"articleIndex" : "16795",
"favor" :  False ,
     "read" : False,    
"title" : "伍兹：作弊言论让人失望 等待美国高尔夫频道表态",
"titleTip" : "伍兹：作弊言论让人失望 等待美国高尔夫频道表态",
"titleSummary" : "伍兹：作弊言论让人失望 等待美国高尔夫频道表态",
"descSummary" : "北京时间10月29日，高尔夫[微博]世界第一泰格-伍兹...",
"url" : "http:\/\/go.rss.sina.com.cn\/redirect.php?url=http:\/\/sports.sina.com.cn\/golf\/2013-10-29\/13596856824.shtml",
"pubDate" : "昨天13:59:49",
"enterDate" : "384201:04:49",
"channelId" : "757052239087398837",
"channelName" : "高尔夫新闻-新浪体育",
"channelNameSummary" : "高尔夫新闻-新浪体育",
"channelUrl" : "http:\/\/sports.sina.com.cn\/golf\/index.shtml",
"author" : "WWW.SINA.COM.CN",
"tags" : [],
"desc" : "北京时间10月29日，高尔夫[微博]世界第一泰格-伍兹明显在给美国高尔夫频道施压，要他们处理球评布兰德尔-查布利(Brandel Chamblee)。后者在其专栏中暗示伍兹在高尔夫比赛中作弊，因此今年的表现不及格。星期一，伍兹在海口参加表演赛的时候说，他本人已经向前看，而接下来要怎....",
"emailed" : False,
"forwarded" : False,
"english" : False
}  , {
"index" : 3,
"articleIndex" : "16794",
"favor" :  False ,
     "read" : False,    
"title" : "伍兹深感中国高尔夫发展快 免费球场受两天王褒扬",
"titleTip" : "伍兹深感中国高尔夫发展快 免费球场受两天王褒扬",
"titleSummary" : "伍兹深感中国高尔夫发展快 免费球场受两天王褒扬",
"descSummary" : "北京时间10月28日，海口观澜湖[微博]黑石球场举行了...",
"url" : "http:\/\/go.rss.sina.com.cn\/redirect.php?url=http:\/\/sports.sina.com.cn\/golf\/2013-10-29\/13436856808.shtml",
"pubDate" : "昨天13:43:58",
"enterDate" : "384200:48:58",
"channelId" : "757052239087398837",
"channelName" : "高尔夫新闻-新浪体育",
"channelNameSummary" : "高尔夫新闻-新浪体育",
"channelUrl" : "http:\/\/sports.sina.com.cn\/golf\/index.shtml",
"author" : "WWW.SINA.COM.CN",
"tags" : [],
"desc" : "北京时间10月28日，海口观澜湖[微博]黑石球场举行了观澜湖世界第一挑战赛，麦克罗伊[微博]一杆优势战胜伍兹。赛前两位世界级名将还为中国青年队球员进行了现场指导，同时与中国小将关天朗[微博]进行了技术挑战环节的较量。伍兹坦言从12年第一次造访中国到今天再次来到观澜湖，....",
"emailed" : False,
"forwarded" : False,
"english" : False
}  , {
"index" : 4,
"articleIndex" : "16793",
"favor" :  False ,
     "read" : False,    
"title" : "XXIO SRIXON CLEVELAND 2013年11月试打会安排表",
"titleTip" : "XXIO SRIXON CLEVELAND 2013年11月试打会安排表",
"titleSummary" : "XXIO SRIXON CLEVELAND 2013年11月试打会安排表",
"descSummary" : "城市 时 间 试 打 地 点 试 打 品 牌 北京 11月2日 至...",
"url" : "http:\/\/go.rss.sina.com.cn\/redirect.php?url=http:\/\/sports.sina.com.cn\/golf\/2013-10-29\/13336856806.shtml",
"pubDate" : "昨天13:33:48",
"enterDate" : "384201:08:53",
"channelId" : "757052239087398837",
"channelName" : "高尔夫新闻-新浪体育",
"channelNameSummary" : "高尔夫新闻-新浪体育",
"channelUrl" : "http:\/\/sports.sina.com.cn\/golf\/index.shtml",
"author" : "WWW.SINA.COM.CN",
"tags" : [],
"desc" : "城市 时&#160;&#160; 间 试 打 地 点 试 打 品 牌 北京 11月2日 至 11月3日 思莱斯高尔夫练习场 XXIO SRIXON CLEVELAND 北京 11月2日 ....",
"emailed" : False,
"forwarded" : False,
"english" : False
}  , {
"index" : 5,
"articleIndex" : "16792",
"favor" :  False ,
     "read" : False,    
"title" : "英国公开赛修订资格赛体系 各大巡回赛取代选拔赛",
"titleTip" : "英国公开赛修订资格赛体系 各大巡回赛取代选拔赛",
"titleSummary" : "英国公开赛修订资格赛体系 各大巡回赛取代选拔赛",
"descSummary" : "北京时间10月29日，R&amp;A公布了新的英国高尔夫公开...",
"url" : "http:\/\/go.rss.sina.com.cn\/redirect.php?url=http:\/\/sports.sina.com.cn\/golf\/2013-10-29\/12036856674.shtml",
"pubDate" : "昨天12:03:13",
"enterDate" : "384201:08:33",
"channelId" : "757052239087398837",
"channelName" : "高尔夫新闻-新浪体育",
"channelNameSummary" : "高尔夫新闻-新浪体育",
"channelUrl" : "http:\/\/sports.sina.com.cn\/golf\/index.shtml",
"author" : "WWW.SINA.COM.CN",
"tags" : [],
"desc" : "北京时间10月29日，R&amp;A公布了新的英国高尔夫公开赛资格体系，明年绝大数洲将不再设置36洞国际选拔赛，取而代之是14场世界各地不同的巡回赛赛事。而第一场是今年11月份举行的澳大利亚公开赛。 \u201C英国公开赛的资格体系发生了重大改变，这样一个改变让英国公开赛可以....",
"emailed" : False,
"forwarded" : False,
"english" : False
}  , {
"index" : 6,
"articleIndex" : "16791",
"favor" :  False ,
     "read" : False,    
"title" : "巨星云集上海佘山战汇丰 中国内地6将挑战世界高手",
"titleTip" : "巨星云集上海佘山战汇丰 中国内地6将挑战世界高手",
"titleSummary" : "巨星云集上海佘山战汇丰 中国内地6将挑战世界高手",
"descSummary" : "2013年10月28日，世锦赛-汇丰冠军赛最终阵容正式确...",
"url" : "http:\/\/go.rss.sina.com.cn\/redirect.php?url=http:\/\/sports.sina.com.cn\/golf\/2013-10-29\/11476856638.shtml",
"pubDate" : "昨天11:47:23",
"enterDate" : "384200:52:43",
"channelId" : "757052239087398837",
"channelName" : "高尔夫新闻-新浪体育",
"channelNameSummary" : "高尔夫新闻-新浪体育",
"channelUrl" : "http:\/\/sports.sina.com.cn\/golf\/index.shtml",
"author" : "WWW.SINA.COM.CN",
"tags" : [],
"desc" : "2013年10月28日，世锦赛-汇丰冠军赛最终阵容正式确定，来自21个国家的78位选手将在上海佘山国际高尔夫俱乐部角逐年度第四场、也是最后一场世界高尔夫锦标赛，赛事总奖金达850万美元。 本届世锦赛-汇丰冠军赛的最终参赛阵容囊括25名2013年欧巡赛冠军、22名2013年美巡赛....",
"emailed" : False,
"forwarded" : False,
"english" : False
}  , {
"index" : 7,
"articleIndex" : "16790",
"favor" :  False ,
     "read" : False,    
"title" : "王力宏微博晒练高尔夫照片 偶像歌手是左撇子(图)",
"titleTip" : "王力宏微博晒练高尔夫照片 偶像歌手是左撇子(图)",
"titleSummary" : "王力宏微博晒练高尔夫照片 偶像歌手是左撇子(图)",
"descSummary" : "北京时间10月29日消息，台湾著名偶像歌手王力宏27日...",
"url" : "http:\/\/go.rss.sina.com.cn\/redirect.php?url=http:\/\/sports.sina.com.cn\/golf\/2013-10-29\/10596856578.shtml",
"pubDate" : "昨天10:59:44",
"enterDate" : "384201:05:14",
"channelId" : "757052239087398837",
"channelName" : "高尔夫新闻-新浪体育",
"channelNameSummary" : "高尔夫新闻-新浪体育",
"channelUrl" : "http:\/\/sports.sina.com.cn\/golf\/index.shtml",
"author" : "WWW.SINA.COM.CN",
"tags" : [],
"desc" : "北京时间10月29日消息，台湾著名偶像歌手王力宏27日凌晨在微博发布一张了自己练习高尔夫[微博]球的照片。在照片中，王力宏一身黑色休闲装束，头戴棒球帽、脚穿运动鞋，手握高尔夫球杆，准备姿势有模有样。截至今日发稿时，转发已超4900次，评论过万条，让人不得不感慨明星的影....",
"emailed" : False,
"forwarded" : False,
"english" : False
}  , {
"index" : 8,
"articleIndex" : "16787",
"favor" :  False ,
     "read" : False,    
"title" : "世界第一伍兹与EA电玩分手 15年长期合作一朝终止",
"titleTip" : "世界第一伍兹与EA电玩分手 15年长期合作一朝终止",
"titleSummary" : "世界第一伍兹与EA电玩分手 15年长期合作一朝终止",
"descSummary" : "北京时间10月29日，高尔夫[微博]世界第一泰格-伍兹...",
"url" : "http:\/\/go.rss.sina.com.cn\/redirect.php?url=http:\/\/sports.sina.com.cn\/golf\/2013-10-29\/09286856372.shtml",
"pubDate" : "昨天09:28:03",
"enterDate" : "384201:03:46",
"channelId" : "757052239087398837",
"channelName" : "高尔夫新闻-新浪体育",
"channelNameSummary" : "高尔夫新闻-新浪体育",
"channelUrl" : "http:\/\/sports.sina.com.cn\/golf\/index.shtml",
"author" : "WWW.SINA.COM.CN",
"tags" : [],
"desc" : "北京时间10月29日，高尔夫[微博]世界第一泰格-伍兹与EA电玩合作15年之后，决定分道扬镳。目前，EA电玩在做下一代游戏。 \u201C我们总是老虎的大粉丝，我们希望他在未来继续取得成功。\u201DEA电玩副总裁及总经理霍特(Daryl Holt)说，\u201C未来，我们将继续与美巡赛[微博]独家合作....",
"emailed" : False,
"forwarded" : False,
"english" : False
}  , {
"index" : 9,
"articleIndex" : "16786",
"favor" :  False ,
     "read" : False,    
"title" : "LPGA给予年龄豁免 16岁高宝Z成为LPGA正式会员",
"titleTip" : "LPGA给予年龄豁免 16岁高宝Z成为LPGA正式会员",
"titleSummary" : "LPGA给予年龄豁免 16岁高宝Z成为LPGA正式会员",
"descSummary" : "北京时间10月29日，从2014年开始，新西兰高尔夫[微...",
"url" : "http:\/\/go.rss.sina.com.cn\/redirect.php?url=http:\/\/sports.sina.com.cn\/golf\/2013-10-29\/09136856340.shtml",
"pubDate" : "昨天09:13:45",
"enterDate" : "384200:49:28",
"channelId" : "757052239087398837",
"channelName" : "高尔夫新闻-新浪体育",
"channelNameSummary" : "高尔夫新闻-新浪体育",
"channelUrl" : "http:\/\/sports.sina.com.cn\/golf\/index.shtml",
"author" : "WWW.SINA.COM.CN",
"tags" : [],
"desc" : "北京时间10月29日，从2014年开始，新西兰高尔夫[微博]天才少女高宝Z(Lydia Ko)将成为LPGA[微博]的正式会员。 专员迈克尔-万恩(Michael Whan)星期一表示他已经复核了高宝Z的申请，最终同意取消18岁的年龄限制，给予她完全会员身份。 \u201C这一决定确保了高宝Z明....",
"emailed" : False,
"forwarded" : False,
"english" : False
}  , {
"index" : 10,
"articleIndex" : "16785",
"favor" :  False ,
     "read" : False,    
"title" : "传中国第二场LPGA比赛今日签约 中国全年仅限两场",
"titleTip" : "传中国第二场LPGA比赛今日签约 中国全年仅限两场",
"titleSummary" : "传中国第二场LPGA比赛今日签约 中国全年仅限两场",
"descSummary" : "北京时间10月29日，根据知情人士透露，中国内地...",
"url" : "http:\/\/go.rss.sina.com.cn\/redirect.php?url=http:\/\/sports.sina.com.cn\/golf\/2013-10-29\/09106856333.shtml",
"pubDate" : "昨天09:10:48",
"enterDate" : "384200:46:31",
"channelId" : "757052239087398837",
"channelName" : "高尔夫新闻-新浪体育",
"channelNameSummary" : "高尔夫新闻-新浪体育",
"channelUrl" : "http:\/\/sports.sina.com.cn\/golf\/index.shtml",
"author" : "WWW.SINA.COM.CN",
"tags" : [],
"desc" : "北京时间10月29日，根据知情人士透露，中国内地第二场LPGA[微博]比赛今日正式签约，而明年在中国的LPGA比赛只能有两场。 \u201C(中国第二场LPGA比赛)我们明日正式签约。\u201DIMG的一个高级官员昨天在海口\u201C世界第一挑战赛\u201D现场对记者透露道。 由于该官员并没有得到发....",
"emailed" : False,
"forwarded" : False,
"english" : False
}  , {
"index" : 11,
"articleIndex" : "16784",
"favor" :  False ,
     "read" : False,    
"title" : "世界排名：康斯塔诺冲入前50 李昊桐吴阿顺获积分",
"titleTip" : "世界排名：康斯塔诺冲入前50 李昊桐吴阿顺获积分",
"titleSummary" : "世界排名：康斯塔诺冲入前50 李昊桐吴阿顺获积分",
"descSummary" : "北京时间10月29日，西班牙高尔夫[微博]球手康斯塔诺...",
"url" : "http:\/\/go.rss.sina.com.cn\/redirect.php?url=http:\/\/sports.sina.com.cn\/golf\/2013-10-29\/09066856316.shtml",
"pubDate" : "昨天09:06:53",
"enterDate" : "384201:12:41",
"channelId" : "757052239087398837",
"channelName" : "高尔夫新闻-新浪体育",
"channelNameSummary" : "高尔夫新闻-新浪体育",
"channelUrl" : "http:\/\/sports.sina.com.cn\/golf\/index.shtml",
"author" : "WWW.SINA.COM.CN",
"tags" : [],
"desc" : "北京时间10月29日，西班牙高尔夫[微博]球手康斯塔诺凭借BMW大师赛的胜利冲入了世界排名前50位。虽然在这场比赛中，中国选手整体表现不理想，但是李昊桐[微博]和吴阿顺[微博]仍旧获得了世界积分。 星期天，康斯塔诺在最后一个洞经历了惊心动魄的时刻，他两次击球进入沙....",
"emailed" : False,
"forwarded" : False,
"english" : False
}  , {
"index" : 12,
"articleIndex" : "16783",
"favor" :  False ,
     "read" : False,    
"title" : "伍兹不打汇丰赛真实原因 两场亚洲美巡禁发出场费",
"titleTip" : "伍兹不打汇丰赛真实原因 两场亚洲美巡禁发出场费",
"titleSummary" : "伍兹不打汇丰赛真实原因 两场亚洲美巡禁发出场费",
"descSummary" : "北京时间10月29日，根据知情人士确认，高尔夫[微博...",
"url" : "http:\/\/go.rss.sina.com.cn\/redirect.php?url=http:\/\/sports.sina.com.cn\/golf\/2013-10-29\/09056856309.shtml",
"pubDate" : "昨天09:05:10",
"enterDate" : "384201:10:58",
"channelId" : "757052239087398837",
"channelName" : "高尔夫新闻-新浪体育",
"channelNameSummary" : "高尔夫新闻-新浪体育",
"channelUrl" : "http:\/\/sports.sina.com.cn\/golf\/index.shtml",
"author" : "WWW.SINA.COM.CN",
"tags" : [],
"desc" : "北京时间10月29日，根据知情人士确认，高尔夫[微博]世界第一泰格-伍兹不参加今年的世锦赛-汇丰冠军赛[微博]是因为美巡赛[微博]严格禁止出场费。这也是他不参加上一周马来西亚的那场美巡赛的原因。 自从2010年以来，伍兹一直没有参加世锦赛-汇丰冠军赛。今年，世锦赛-汇....",
"emailed" : False,
"forwarded" : False,
"english" : False
}  , {
"index" : 13,
"articleIndex" : "16789",
"favor" :  False ,
     "read" : False,    
"title" : "伍兹小麦亲自为重庆少年颁奖 赞中国少年未来无限",
"titleTip" : "伍兹小麦亲自为重庆少年颁奖 赞中国少年未来无限",
"titleSummary" : "伍兹小麦亲自为重庆少年颁奖 赞中国少年未来无限",
"descSummary" : "焦点关注 商报记者 戴晓枫 重庆商报讯 世界第一挑战...",
"url" : "http:\/\/go.rss.sina.com.cn\/redirect.php?url=http:\/\/sports.sina.com.cn\/golf\/2013-10-29\/01506855826.shtml",
"pubDate" : "前天01:50:06",
"enterDate" : "384191:55:36",
"channelId" : "757052239087398837",
"channelName" : "高尔夫新闻-新浪体育",
"channelNameSummary" : "高尔夫新闻-新浪体育",
"channelUrl" : "http:\/\/sports.sina.com.cn\/golf\/index.shtml",
"author" : "WWW.SINA.COM.CN",
"tags" : [],
"desc" : "焦点关注 商报记者 戴晓枫 重庆商报讯 世界第一挑战赛伍兹对抗麦克罗伊在海口观澜湖黑石高尔夫球场收杆，最终，伍兹打出68杆，以一杆之差再度败给麦克罗伊。除了打表演赛，伍兹和麦克罗伊，还为参加本次观澜湖高尔夫球赛12-15岁年龄组的小球手颁奖，今年13岁来....",
"emailed" : False,
"forwarded" : False,
"english" : False
}  , {
"index" : 14,
"articleIndex" : "16788",
"favor" :  False ,
     "read" : False,    
"title" : "伍兹麦克罗伊谈高球进奥运：将推动项目普及发展",
"titleTip" : "伍兹麦克罗伊谈高球进奥运：将推动项目普及发展",
"titleSummary" : "伍兹麦克罗伊谈高球进奥运：将推动项目普及发展",
"descSummary" : "中新网海口10月28日电 \u201C高尔夫进军奥运会令人兴奋...",
"url" : "http:\/\/go.rss.sina.com.cn\/redirect.php?url=http:\/\/sports.sina.com.cn\/golf\/2013-10-29\/00096855778.shtml",
"pubDate" : "前天00:09:00",
"enterDate" : "384190:44:35",
"channelId" : "757052239087398837",
"channelName" : "高尔夫新闻-新浪体育",
"channelNameSummary" : "高尔夫新闻-新浪体育",
"channelUrl" : "http:\/\/sports.sina.com.cn\/golf\/index.shtml",
"author" : "WWW.SINA.COM.CN",
"tags" : [],
"desc" : "中新网海口10月28日电 \u201C高尔夫进军奥运会令人兴奋。\u201D参加28日海口观澜湖世界第一挑战赛的麦克罗伊当日在接受记者采访时表示，高尔夫运动成为奥运项目将推动该项运动的普及和发展。 \u201C这样一来，这项运动将会让更多国家产生兴趣，就像如今的中国一样。\u201D如麦克罗伊所....",
"emailed" : False,
"forwarded" : False,
"english" : False
}  , {
"index" : 15,
"articleIndex" : "16782",
"favor" :  False ,
     "read" : False,    
"title" : "关天朗：小胜虎麦运气不错 很少跟同学聊奥古斯塔",
"titleTip" : "关天朗：小胜虎麦运气不错 很少跟同学聊奥古斯塔",
"titleSummary" : "关天朗：小胜虎麦运气不错 很少跟同学聊奥古斯塔",
"descSummary" : "北京时间10月28日消息，结束了亚太业余锦标赛比赛...",
"url" : "http:\/\/go.rss.sina.com.cn\/redirect.php?url=http:\/\/sports.sina.com.cn\/golf\/2013-10-28\/21206855683.shtml",
"pubDate" : "前天21:20:39",
"enterDate" : "384200:58:23",
"channelId" : "757052239087398837",
"channelName" : "高尔夫新闻-新浪体育",
"channelNameSummary" : "高尔夫新闻-新浪体育",
"channelUrl" : "http:\/\/sports.sina.com.cn\/golf\/index.shtml",
"author" : "WWW.SINA.COM.CN",
"tags" : [],
"desc" : "北京时间10月28日消息，结束了亚太业余锦标赛比赛的关天朗星夜赶路，今天上午赶到海口观澜湖球场，参加与伍兹和麦克罗伊两位世界级球星技术挑战环节。关天朗说能再次与两大巨星见面非常开心，多次能与跟他们的交流总是会有收获，自己在技术挑战环节小胜伍兹和小麦运气不错。....",
"emailed" : False,
"forwarded" : False,
"english" : False
}  , {
"index" : 16,
"articleIndex" : "16781",
"favor" :  False ,
     "read" : False,    
"title" : "外媒:虎麦大战堪称浓缩版精华赛 观众需学习规则",
"titleTip" : "外媒:虎麦大战堪称浓缩版精华赛 观众需学习规则",
"titleSummary" : "外媒:虎麦大战堪称浓缩版精华赛 观众需学习规则",
"descSummary" : "北京时间10月28日消息，2013泰格-伍兹VS罗里-麦克罗...",
"url" : "http:\/\/go.rss.sina.com.cn\/redirect.php?url=http:\/\/sports.sina.com.cn\/golf\/2013-10-28\/21156855678.shtml",
"pubDate" : "前天21:15:46",
"enterDate" : "384200:53:30",
"channelId" : "757052239087398837",
"channelName" : "高尔夫新闻-新浪体育",
"channelNameSummary" : "高尔夫新闻-新浪体育",
"channelUrl" : "http:\/\/sports.sina.com.cn\/golf\/index.shtml",
"author" : "WWW.SINA.COM.CN",
"tags" : [],
"desc" : "北京时间10月28日消息，2013泰格-伍兹VS罗里-麦克罗伊世界第一挑战赛在海口观澜湖战罢，麦克罗伊以一杆优势战胜伍兹，连续两年捧起两人在中国挑战赛的冠军。现场报道的不少外媒记者前来报道，他们对这场比赛发表了自己的看法： 美联记者伯尼-马奎尔常年跟随欧巡赛事，....",
"emailed" : False,
"forwarded" : False,
"english" : False
}  , {
"index" : 17,
"articleIndex" : "16780",
"favor" :  False ,
     "read" : False,    
"title" : "华东球友热捧e周汇会籍 5家球会可享受35天会待",
"titleTip" : "华东球友热捧e周汇会籍 5家球会可享受35天会待",
"titleSummary" : "华东球友热捧e周汇会籍 5家球会可享受35天会待",
"descSummary" : "近期，大上海周边，一种\u201Ce周汇联合会籍\u201D非常热销，...",
"url" : "http:\/\/go.rss.sina.com.cn\/redirect.php?url=http:\/\/sports.sina.com.cn\/golf\/2013-10-28\/18296855542.shtml",
"pubDate" : "前天18:29:07",
"enterDate" : "384201:07:22",
"channelId" : "757052239087398837",
"channelName" : "高尔夫新闻-新浪体育",
"channelNameSummary" : "高尔夫新闻-新浪体育",
"channelUrl" : "http:\/\/sports.sina.com.cn\/golf\/index.shtml",
"author" : "WWW.SINA.COM.CN",
"tags" : [],
"desc" : "近期，大上海周边，一种\u201Ce周汇联合会籍\u201D非常热销，也让许多业内老销售员们刮目相看。老销售员是最了解各种会籍价值的人，他们的认可，更加大了球友们对这个会籍的信任。 据了解，这是一种全国数十家球会联合推出的终身会籍，由各加盟球场售出，可以享受加盟球场7天会....",
"emailed" : False,
"forwarded" : False,
"english" : False
}  , {
"index" : 18,
"articleIndex" : "16779",
"favor" :  False ,
     "read" : False,    
"title" : "高尔夫交友平台\u201C约球\u201D升级版交友功能大幅提升",
"titleTip" : "高尔夫交友平台\u201C约球\u201D升级版交友功能大幅提升",
"titleSummary" : "高尔夫交友平台\u201C约球\u201D升级版交友功能大幅提升",
"descSummary" : "这是一个一经上市就备受追捧的产品，这是一个您早晚...",
"url" : "http:\/\/go.rss.sina.com.cn\/redirect.php?url=http:\/\/sports.sina.com.cn\/golf\/2013-10-28\/18086855524.shtml",
"pubDate" : "前天18:08:41",
"enterDate" : "384201:17:01",
"channelId" : "757052239087398837",
"channelName" : "高尔夫新闻-新浪体育",
"channelNameSummary" : "高尔夫新闻-新浪体育",
"channelUrl" : "http:\/\/sports.sina.com.cn\/golf\/index.shtml",
"author" : "WWW.SINA.COM.CN",
"tags" : [],
"desc" : "这是一个一经上市就备受追捧的产品，这是一个您早晚都必须要用的产品，这是一个您只要用上就必定爱不释手的产品。她，就是高尔夫交友平台：约球。 高尔夫交友平台\u201C约球\u201D，上线短短一个月，受尽追捧。这款手机应用不仅具有其他交友平台的大多功能，更是加进了高尔夫元....",
"emailed" : False,
"forwarded" : False,
"english" : False
}  , {
"index" : 19,
"articleIndex" : "16778",
"favor" :  False ,
     "read" : False,    
"title" : "伍兹戏言12年前关天朗穿尿布 麦克罗伊做鬼脸鼓励",
"titleTip" : "伍兹戏言12年前关天朗穿尿布 麦克罗伊做鬼脸鼓励",
"titleSummary" : "伍兹戏言12年前关天朗穿尿布 麦克罗伊做鬼脸鼓励",
"descSummary" : "北京时间10月28日消息，昨天刚刚结束亚太业余冠军...",
"url" : "http:\/\/go.rss.sina.com.cn\/redirect.php?url=http:\/\/sports.sina.com.cn\/golf\/2013-10-28\/18006855518.shtml",
"pubDate" : "前天18:00:47",
"enterDate" : "384201:09:07",
"channelId" : "757052239087398837",
"channelName" : "高尔夫新闻-新浪体育",
"channelNameSummary" : "高尔夫新闻-新浪体育",
"channelUrl" : "http:\/\/sports.sina.com.cn\/golf\/index.shtml",
"author" : "WWW.SINA.COM.CN",
"tags" : [],
"desc" : "北京时间10月28日消息，昨天刚刚结束亚太业余冠军赛的关天朗[微博]也来到了观澜湖[微博]世界第一挑战赛现场。在上午的天王挑战赛上，老虎-伍兹、关天朗、麦克罗伊[微博]一同在观澜湖练习场进行了挥杆比赛。三人轮流向不同距离的三个果岭击球，每人一次机会，根据球的落点算分....",
"emailed" : False,
"forwarded" : False,
"english" : False
} ]
}
