{
"mode" : {"viewTitle" : 1,   "viewNew" : 0,  "pageIndex" : 1 },
 "channel" : {"id" : "6889492520232296188", "booked" : False, "subNumber" : 1, "name" : "北京房产-开盘信息", "url" : "http:\/\/bj.house.sina.com.cn\/scan\/kaipan\/index.html", "feed" : "http:\/\/rss.sina.com.cn\/bjhouse\/scan\/kaipan.xml", "author" : "WWW.SINA.COM.CN", "desc" : "北京房产-开盘信息", "imageUrl" : "http:\/\/www.sinaimg.cn\/house\/sina_fc.gif", "postPerWeek" : "0", "lastCrawTime" : "17:16:06", "crawDateTime" : "2013年1月10日", "lastHttpCode" : "304"}, "page" : {
"startIndex" : 0,
"totalCount" : 5000,
"pageIndex" : 1,
"lastPage" : 250,
"pageSize" : 20,
"english" :  False },
 "unreadNum" : 0, "shotIndex" : -1,
"articles" : [
{
"index" : 0,
"articleIndex" : "6263",
"favor" :  False ,
     "read" : False,    
"title" : "廊坊宏程华府现房板楼在售均价4500(图)",
"titleTip" : "廊坊宏程华府现房板楼在售均价4500(图)",
"titleSummary" : "廊坊宏程华府现房板楼在售均价4500(图)",
"descSummary" : "新浪乐居讯(编辑 季善云)宏程华府(论坛 相册 户型 样板间 点评 地...",
"url" : "http:\/\/go.rss.sina.com.cn\/redirect.php?url=http:\/\/house.sina.com.cn\/scan\/2012-12-31\/1631427067.shtml?source=rss",
"pubDate" : "2012年12月31日",
"enterDate" : "384201:03:37",
"channelId" : "6889492520232296188",
"channelName" : "北京房产-开盘信息",
"channelNameSummary" : "北京房产-开盘信息",
"channelUrl" : "http:\/\/bj.house.sina.com.cn\/scan\/kaipan\/index.html",
"author" : "WWW.SINA.COM.CN",
"tags" : [],
"desc" : "新浪乐居讯(编辑 季善云)宏程华府(论坛 相册 户型 样板间 点评 地图搜索)起价4300元\/平米，均价4500元\/平米，物业费1.2元\/月\/平米。总价17-51万元\/套，平均总价36万元\/套，现房入住。 宏程华府位于廊坊市龙河CBD，安次区政务中心，周边在建红星美凯龙全球家居生活广场....",
"emailed" : False,
"forwarded" : False,
"english" : False
}  , {
"index" : 1,
"articleIndex" : "6262",
"favor" :  False ,
     "read" : False,    
"title" : "大兴龙熙瓦德拉玛庄园已于12月30日开盘销售(图)",
"titleTip" : "大兴龙熙瓦德拉玛庄园已于12月30日开盘销售(图)",
"titleSummary" : "大兴龙熙瓦德拉玛庄园已于12月30日开盘销售(图)",
"descSummary" : "新浪乐居讯(编辑 季善云)龙熙・瓦德拉玛庄园(论坛 相册...",
"url" : "http:\/\/go.rss.sina.com.cn\/redirect.php?url=http:\/\/house.sina.com.cn\/scan\/2012-12-31\/1547427057.shtml?source=rss",
"pubDate" : "2012年12月31日",
"enterDate" : "384200:50:02",
"channelId" : "6889492520232296188",
"channelName" : "北京房产-开盘信息",
"channelNameSummary" : "北京房产-开盘信息",
"channelUrl" : "http:\/\/bj.house.sina.com.cn\/scan\/kaipan\/index.html",
"author" : "WWW.SINA.COM.CN",
"tags" : [],
"desc" : "新浪乐居讯(编辑 季善云)龙熙・瓦德拉玛庄园(论坛 相册 户型 样板间 点评 地图搜索)项目于2012年12月30日开盘。项目涵括庄园别墅、企业会所、集团总部、五星酒店、高尔夫等多种物业，其中庄园别墅320-690平米，目前在售，企业会所101栋，户型面积400-800平米。 龙熙・....",
"emailed" : False,
"forwarded" : False,
"english" : False
}  , {
"index" : 2,
"articleIndex" : "6261",
"favor" :  False ,
     "read" : False,    
"title" : "崇礼山旮里旯2013年推新盘1万抵3万(图)",
"titleTip" : "崇礼山旮里旯2013年推新盘1万抵3万(图)",
"titleSummary" : "崇礼山旮里旯2013年推新盘1万抵3万(图)",
"descSummary" : "新浪乐居讯(编辑 王娇佳)山旮里旯(论坛 相册 户型 样板间 点评 地...",
"url" : "http:\/\/go.rss.sina.com.cn\/redirect.php?url=http:\/\/house.sina.com.cn\/scan\/2012-12-28\/1720426880.shtml?source=rss",
"pubDate" : "2012年12月28日",
"enterDate" : "384200:48:43",
"channelId" : "6889492520232296188",
"channelName" : "北京房产-开盘信息",
"channelNameSummary" : "北京房产-开盘信息",
"channelUrl" : "http:\/\/bj.house.sina.com.cn\/scan\/kaipan\/index.html",
"author" : "WWW.SINA.COM.CN",
"tags" : [],
"desc" : "新浪乐居讯(编辑 王娇佳)山旮里旯(论坛 相册 户型 样板间 点评 地图搜索)位于崇礼西湾子旅游度假区大窑沟，预计2013年1月中旬开盘， 在开盘活动当天，项目针对已经交付订金的客户制定了一次\u201C竞猜房价，免费得房\u201D的活动，2014年6月入住，主力户型为40-60平米酒店式公寓，容积....",
"emailed" : False,
"forwarded" : False,
"english" : False
}  , {
"index" : 3,
"articleIndex" : "6260",
"favor" :  False ,
     "read" : False,    
"title" : "昌平城区公园6号60平起1-3居即将开盘(图)",
"titleTip" : "昌平城区公园6号60平起1-3居即将开盘(图)",
"titleSummary" : "昌平城区公园6号60平起1-3居即将开盘(图)",
"descSummary" : "新浪乐居讯(编辑 刘楠)公园6号(论坛 相册 户型 样板间 点评 地...",
"url" : "http:\/\/go.rss.sina.com.cn\/redirect.php?url=http:\/\/house.sina.com.cn\/scan\/2012-12-28\/1403426847.shtml?source=rss",
"pubDate" : "2012年12月28日",
"enterDate" : "384201:01:54",
"channelId" : "6889492520232296188",
"channelName" : "北京房产-开盘信息",
"channelNameSummary" : "北京房产-开盘信息",
"channelUrl" : "http:\/\/bj.house.sina.com.cn\/scan\/kaipan\/index.html",
"author" : "WWW.SINA.COM.CN",
"tags" : [],
"desc" : "新浪乐居讯(编辑 刘楠)公园6号(论坛 相册 户型 样板间 点评 地图搜索)项目预计2012年12月底开盘，首推1号楼，224套房源，主推60平米一居、91、95平米两居、139平米三居，均价16000元\/平米，现在与新浪独家合作电商，一居存1.5万减6万，两居1.5万减9万，三居1.5万减12万；准现....",
"emailed" : False,
"forwarded" : False,
"english" : False
}  , {
"index" : 4,
"articleIndex" : "6259",
"favor" :  False ,
     "read" : False,    
"title" : "廊坊永定河孔雀英国宫12月29日开盘推新(图)",
"titleTip" : "廊坊永定河孔雀英国宫12月29日开盘推新(图)",
"titleSummary" : "廊坊永定河孔雀英国宫12月29日开盘推新(图)",
"descSummary" : "新浪乐居讯(编辑 刘楠)永定河・孔雀英国宫(论坛 相册 户型 ...",
"url" : "http:\/\/go.rss.sina.com.cn\/redirect.php?url=http:\/\/house.sina.com.cn\/scan\/2012-12-28\/1219426839.shtml?source=rss",
"pubDate" : "2012年12月28日",
"enterDate" : "384200:48:07",
"channelId" : "6889492520232296188",
"channelName" : "北京房产-开盘信息",
"channelNameSummary" : "北京房产-开盘信息",
"channelUrl" : "http:\/\/bj.house.sina.com.cn\/scan\/kaipan\/index.html",
"author" : "WWW.SINA.COM.CN",
"tags" : [],
"desc" : "新浪乐居讯(编辑 刘楠)永定河・孔雀英国宫(论坛 相册 户型 样板间 点评 地图搜索) 项目将于2012年12月29日开盘，房源为三期升级产品，英国宫3期，均价及优惠政策待定。三期全新地块总占地面积约3.5万平米，建筑面积约8.3万平米，6栋高层共计869户。楼层区间为18-27层。户型面....",
"emailed" : False,
"forwarded" : False,
"english" : False
}  , {
"index" : 5,
"articleIndex" : "6258",
"favor" :  False ,
     "read" : False,    
"title" : "朝阳望京金茂府2013年待推精装大户型(图)",
"titleTip" : "朝阳望京金茂府2013年待推精装大户型(图)",
"titleSummary" : "朝阳望京金茂府2013年待推精装大户型(图)",
"descSummary" : "新浪乐居讯(编辑 张跃)望京・金茂府(论坛 相册 户型 样板间 点...",
"url" : "http:\/\/go.rss.sina.com.cn\/redirect.php?url=http:\/\/house.sina.com.cn\/scan\/2012-12-27\/1659426749.shtml?source=rss",
"pubDate" : "2012年12月27日",
"enterDate" : "384201:01:52",
"channelId" : "6889492520232296188",
"channelName" : "北京房产-开盘信息",
"channelNameSummary" : "北京房产-开盘信息",
"channelUrl" : "http:\/\/bj.house.sina.com.cn\/scan\/kaipan\/index.html",
"author" : "WWW.SINA.COM.CN",
"tags" : [],
"desc" : "新浪乐居讯(编辑 张跃)望京・金茂府(论坛&#160;相册&#160;户型&#160;样板间&#160;点评&#160;地图搜索) 后期房源预计2013年4月左右推出，户型及价格待定，新浪乐居会持续关注项目最新动态。项目3、7号楼已于2012年12月8日开盘，一期推出92套房源，价格45000-50000元\/平米。一期....",
"emailed" : False,
"forwarded" : False,
"english" : False
}  , {
"index" : 6,
"articleIndex" : "6257",
"favor" :  False ,
     "read" : False,    
"title" : "大兴北京城建红木林待推叠拼预计22000(图)",
"titleTip" : "大兴北京城建红木林待推叠拼预计22000(图)",
"titleSummary" : "大兴北京城建红木林待推叠拼预计22000(图)",
"descSummary" : "新浪乐居讯(编辑 张跃)北京城建・红木林(论坛 相册 户型 样...",
"url" : "http:\/\/go.rss.sina.com.cn\/redirect.php?url=http:\/\/house.sina.com.cn\/scan\/2012-12-27\/1638426738.shtml?source=rss",
"pubDate" : "2012年12月27日",
"enterDate" : "384201:11:04",
"channelId" : "6889492520232296188",
"channelName" : "北京房产-开盘信息",
"channelNameSummary" : "北京房产-开盘信息",
"channelUrl" : "http:\/\/bj.house.sina.com.cn\/scan\/kaipan\/index.html",
"author" : "WWW.SINA.COM.CN",
"tags" : [],
"desc" : "新浪乐居讯(编辑 张跃)北京城建・红木林(论坛 相册 户型 样板间 点评 地图搜索)叠拼产品及商业预计2012年12月开盘，目前价格待定，预计22000元\/平米。八期叠拼别墅5 至8号楼，上叠面积202至205平米(三、四层)，下叠面积210平米(一、二层)，四栋楼均为四层(不带电梯)，5至7号楼....",
"emailed" : False,
"forwarded" : False,
"english" : False
}  , {
"index" : 7,
"articleIndex" : "6256",
"favor" :  False ,
     "read" : False,    
"title" : "旧宫金第万科朗润园待推85平起精装2-3居(图)",
"titleTip" : "旧宫金第万科朗润园待推85平起精装2-3居(图)",
"titleSummary" : "旧宫金第万科朗润园待推85平起精装2-3居(图)",
"descSummary" : "新浪乐居讯(编辑 张跃)金第万科・朗润园(论坛 相册 户型 ...",
"url" : "http:\/\/go.rss.sina.com.cn\/redirect.php?url=http:\/\/house.sina.com.cn\/scan\/2012-12-27\/1615426729.shtml?source=rss",
"pubDate" : "2012年12月27日",
"enterDate" : "384200:47:30",
"channelId" : "6889492520232296188",
"channelName" : "北京房产-开盘信息",
"channelNameSummary" : "北京房产-开盘信息",
"channelUrl" : "http:\/\/bj.house.sina.com.cn\/scan\/kaipan\/index.html",
"author" : "WWW.SINA.COM.CN",
"tags" : [],
"desc" : "新浪乐居讯(编辑 张跃)金第万科・朗润园(论坛 相册 户型 样板间 点评 地图搜索) 项目目前一期C14地块已售罄，一期房源均价28000元\/平米，二期C11地块将入市，待售户型为85平米两居、105平米三居，精装修，共推出544套房源，价格待定。项目位于大兴区旧宫镇东马路地铁亦庄线旧....",
"emailed" : False,
"forwarded" : False,
"english" : False
}  , {
"index" : 8,
"articleIndex" : "6255",
"favor" :  False ,
     "read" : False,    
"title" : "天津田纳溪湖独栋别墅清盘特惠2013年推新(图)",
"titleTip" : "天津田纳溪湖独栋别墅清盘特惠2013年推新(图)",
"titleSummary" : "天津田纳溪湖独栋别墅清盘特惠2013年推新(图)",
"descSummary" : "新浪乐居讯(编辑 张跃)田纳溪湖 (论坛 相册 户型 样板间 点...",
"url" : "http:\/\/go.rss.sina.com.cn\/redirect.php?url=http:\/\/house.sina.com.cn\/scan\/2012-12-27\/1342426662.shtml?source=rss",
"pubDate" : "2012年12月27日",
"enterDate" : "384200:45:40",
"channelId" : "6889492520232296188",
"channelName" : "北京房产-开盘信息",
"channelNameSummary" : "北京房产-开盘信息",
"channelUrl" : "http:\/\/bj.house.sina.com.cn\/scan\/kaipan\/index.html",
"author" : "WWW.SINA.COM.CN",
"tags" : [],
"desc" : "新浪乐居讯(编辑 张跃)田纳溪湖 (论坛 相册 户型 样板间 点评 地图搜索)独栋别墅在售，面积区间为196-255平米，均价为9500元\/平。共11种户型，全款94折，分期95折，贷款96折，1-3组团已经入住。现推出4栋380-520平公馆级现房墅王，买一平赠一平花园。1-5组团现房清盘特惠。6、....",
"emailed" : False,
"forwarded" : False,
"english" : False
}  , {
"index" : 9,
"articleIndex" : "6254",
"favor" :  False ,
     "read" : False,    
"title" : "八通线自由筑2013年加推900套新房源(图)",
"titleTip" : "八通线自由筑2013年加推900套新房源(图)",
"titleSummary" : "八通线自由筑2013年加推900套新房源(图)",
"descSummary" : "新浪乐居讯(编辑 张茜)自由筑(论坛 相册 户型 样板间 点评 地图...",
"url" : "http:\/\/go.rss.sina.com.cn\/redirect.php?url=http:\/\/house.sina.com.cn\/scan\/2012-12-27\/1331426660.shtml?source=rss",
"pubDate" : "2012年12月27日",
"enterDate" : "384201:03:55",
"channelId" : "6889492520232296188",
"channelName" : "北京房产-开盘信息",
"channelNameSummary" : "北京房产-开盘信息",
"channelUrl" : "http:\/\/bj.house.sina.com.cn\/scan\/kaipan\/index.html",
"author" : "WWW.SINA.COM.CN",
"tags" : [],
"desc" : "新浪乐居讯(编辑 张茜)自由筑(论坛&#160;相册&#160;户型&#160;样板间&#160;点评&#160;地图搜索)2013年1月预计加推900套新房源，目前正在排号中。项目2-1期少量房源在售，将于2012年12月底结盘，户型为67平米LOFT，3.15米层高均价为11000元\/平方米，4.2米层高均价为13000元\/平....",
"emailed" : False,
"forwarded" : False,
"english" : False
}  , {
"index" : 10,
"articleIndex" : "6253",
"favor" :  False ,
     "read" : False,    
"title" : "上地橡树湾2013年推五期新品145平起(图)",
"titleTip" : "上地橡树湾2013年推五期新品145平起(图)",
"titleSummary" : "上地橡树湾2013年推五期新品145平起(图)",
"descSummary" : "新浪乐居讯(编辑 张茜)橡树湾(论坛 相册 户型 样板间 点评 地图...",
"url" : "http:\/\/go.rss.sina.com.cn\/redirect.php?url=http:\/\/house.sina.com.cn\/scan\/2012-12-27\/1052426641.shtml?source=rss",
"pubDate" : "2012年12月27日",
"enterDate" : "384200:55:46",
"channelId" : "6889492520232296188",
"channelName" : "北京房产-开盘信息",
"channelNameSummary" : "北京房产-开盘信息",
"channelUrl" : "http:\/\/bj.house.sina.com.cn\/scan\/kaipan\/index.html",
"author" : "WWW.SINA.COM.CN",
"tags" : [],
"desc" : "新浪乐居讯(编辑 张茜)橡树湾(论坛&#160;相册&#160;户型&#160;样板间&#160;点评&#160;地图搜索)项目五期新品待售，预计2013年4-5月份推出，预计均价48000元\/平米。五期房源为项目最后一期房源，户型面积为145平米、 185平米。项目社区内拥有社区文化中心及社区医疗服务站，可....",
"emailed" : False,
"forwarded" : False,
"english" : False
}  , {
"index" : 11,
"articleIndex" : "6252",
"favor" :  False ,
     "read" : False,    
"title" : "朝阳首开常青藤三期基本售罄四期待售(图)",
"titleTip" : "朝阳首开常青藤三期基本售罄四期待售(图)",
"titleSummary" : "朝阳首开常青藤三期基本售罄四期待售(图)",
"descSummary" : "新浪乐居讯(编辑 张茜)首开・常青藤(论坛 相册 户型 样板间 点...",
"url" : "http:\/\/go.rss.sina.com.cn\/redirect.php?url=http:\/\/house.sina.com.cn\/scan\/2012-12-26\/1756426547.shtml?source=rss",
"pubDate" : "2012年12月26日",
"enterDate" : "384184:00:02",
"channelId" : "6889492520232296188",
"channelName" : "北京房产-开盘信息",
"channelNameSummary" : "北京房产-开盘信息",
"channelUrl" : "http:\/\/bj.house.sina.com.cn\/scan\/kaipan\/index.html",
"author" : "WWW.SINA.COM.CN",
"tags" : [],
"desc" : "新浪乐居讯(编辑 张茜)首开・常青藤(论坛 相册 户型 样板间 点评 地图搜索)位于朝阳区东坝(东五环七棵树出口向东200米)，项目三期均价25000元\/平米，基本售罄。四期价格待定，开盘时间待定。 &gt;&gt;点击查看更多东五环热盘 首开・常青藤主力产品是规划合理的9....",
"emailed" : False,
"forwarded" : False,
"english" : False
}  , {
"index" : 12,
"articleIndex" : "6251",
"favor" :  False ,
     "read" : False,    
"title" : "昌平龙山华府136平米3居即将推新赠面积(图)",
"titleTip" : "昌平龙山华府136平米3居即将推新赠面积(图)",
"titleSummary" : "昌平龙山华府136平米3居即将推新赠面积(图)",
"descSummary" : "新浪乐居讯(编辑 陈宏冬)龙山华府(论坛 相册 户型 样板间 点...",
"url" : "http:\/\/go.rss.sina.com.cn\/redirect.php?url=http:\/\/house.sina.com.cn\/scan\/2012-12-26\/1753426546.shtml?source=rss",
"pubDate" : "2012年12月26日",
"enterDate" : "384190:59:56",
"channelId" : "6889492520232296188",
"channelName" : "北京房产-开盘信息",
"channelNameSummary" : "北京房产-开盘信息",
"channelUrl" : "http:\/\/bj.house.sina.com.cn\/scan\/kaipan\/index.html",
"author" : "WWW.SINA.COM.CN",
"tags" : [],
"desc" : "新浪乐居讯(编辑 陈宏冬)龙山华府(论坛 相册 户型 样板间 点评 地图搜索)即将推出新品，119-136平米三居，赠送10%使用面积，一梯两户，价格待定。项目内部为毛坯交房，2013年年底入住。 龙山华府项目地处科技园区，并且自身配备托斯卡纳风情商街以及专属幼儿园，便利的....",
"emailed" : False,
"forwarded" : False,
"english" : False
}  , {
"index" : 13,
"articleIndex" : "6250",
"favor" :  False ,
     "read" : False,    
"title" : "天津颐湖庄园2013年3月开盘推联排现排卡(图)",
"titleTip" : "天津颐湖庄园2013年3月开盘推联排现排卡(图)",
"titleSummary" : "天津颐湖庄园2013年3月开盘推联排现排卡(图)",
"descSummary" : "新浪乐居讯(实习编辑 孙立翔)颐湖庄园(论坛 相册 户型 样...",
"url" : "http:\/\/go.rss.sina.com.cn\/redirect.php?url=http:\/\/house.sina.com.cn\/scan\/2012-12-26\/1726426542.shtml?source=rss",
"pubDate" : "2012年12月26日",
"enterDate" : "384190:32:49",
"channelId" : "6889492520232296188",
"channelName" : "北京房产-开盘信息",
"channelNameSummary" : "北京房产-开盘信息",
"channelUrl" : "http:\/\/bj.house.sina.com.cn\/scan\/kaipan\/index.html",
"author" : "WWW.SINA.COM.CN",
"tags" : [],
"desc" : "&#160;&#160;&#160; 新浪乐居讯(实习编辑 孙立翔)颐湖庄园(论坛 相册 户型 样板间 点评 地图搜索)6号楼-24号楼预计2013年3月份开盘，均价预计在万元以内。联排270-290平米户型，报价200万\/套起。双拼388-397平米户型，地下一层地上三层。预计2013年9月入住。目前处于排卡阶段。项....",
"emailed" : False,
"forwarded" : False,
"english" : False
}  , {
"index" : 14,
"articleIndex" : "6249",
"favor" :  False ,
     "read" : False,    
"title" : "河北玉龙湾12月推公寓及别墅6500元(图)",
"titleTip" : "河北玉龙湾12月推公寓及别墅6500元(图)",
"titleSummary" : "河北玉龙湾12月推公寓及别墅6500元(图)",
"descSummary" : "新浪乐居讯(实习编辑 孙立翔)玉龙湾运动度假山谷(论坛 相册 户型...",
"url" : "http:\/\/go.rss.sina.com.cn\/redirect.php?url=http:\/\/house.sina.com.cn\/scan\/2012-12-26\/1712426539.shtml?source=rss",
"pubDate" : "2012年12月26日",
"enterDate" : "384190:18:44",
"channelId" : "6889492520232296188",
"channelName" : "北京房产-开盘信息",
"channelNameSummary" : "北京房产-开盘信息",
"channelUrl" : "http:\/\/bj.house.sina.com.cn\/scan\/kaipan\/index.html",
"author" : "WWW.SINA.COM.CN",
"tags" : [],
"desc" : "&#160;&#160;&#160; 新浪乐居讯(实习编辑 孙立翔)玉龙湾运动度假山谷(论坛 相册 户型 样板间 点评 地图搜索)项目预计12月开盘，首开产品为酒店式公寓30-60平米户型，均价6500元\/平米；精装独栋别墅85-200平米，均价10000元\/平米。售楼处地址为北京市三元桥第三置业A座2102室。....",
"emailed" : False,
"forwarded" : False,
"english" : False
}  , {
"index" : 15,
"articleIndex" : "6248",
"favor" :  False ,
     "read" : False,    
"title" : "马驹桥融科钧廷二期2013年推1-3居板楼(图)",
"titleTip" : "马驹桥融科钧廷二期2013年推1-3居板楼(图)",
"titleSummary" : "马驹桥融科钧廷二期2013年推1-3居板楼(图)",
"descSummary" : "新浪乐居讯(编辑 张跃)融科钧廷二期 (论坛 相册 户型 样板间...",
"url" : "http:\/\/go.rss.sina.com.cn\/redirect.php?url=http:\/\/house.sina.com.cn\/scan\/2012-12-26\/1437426517.shtml?source=rss",
"pubDate" : "2012年12月26日",
"enterDate" : "384187:44:28",
"channelId" : "6889492520232296188",
"channelName" : "北京房产-开盘信息",
"channelNameSummary" : "北京房产-开盘信息",
"channelUrl" : "http:\/\/bj.house.sina.com.cn\/scan\/kaipan\/index.html",
"author" : "WWW.SINA.COM.CN",
"tags" : [],
"desc" : "新浪乐居讯(编辑 张跃)融科钧廷二期 (论坛 相册 户型 样板间 点评 地图搜索)预计2013年3月开盘，共计为491户，产品规划为9-15层的小高层薄板，梯户比为一梯三户、一梯四户、两梯二户、两梯三户，户型面积以55-65平米一居、65-105平米两居、95-130平米三居为主，刚需和刚改户型....",
"emailed" : False,
"forwarded" : False,
"english" : False
}  , {
"index" : 16,
"articleIndex" : "6247",
"favor" :  False ,
     "read" : False,    
"title" : "八通线华远铭悦即将推出楼王13号楼(图)",
"titleTip" : "八通线华远铭悦即将推出楼王13号楼(图)",
"titleSummary" : "八通线华远铭悦即将推出楼王13号楼(图)",
"descSummary" : "新浪乐居讯(编辑 张茜)华远铭悦(论坛 相册 户型 样板间 点评 地图...",
"url" : "http:\/\/go.rss.sina.com.cn\/redirect.php?url=http:\/\/house.sina.com.cn\/scan\/2012-12-26\/1131426508.shtml?source=rss",
"pubDate" : "2012年12月26日",
"enterDate" : "384184:38:22",
"channelId" : "6889492520232296188",
"channelName" : "北京房产-开盘信息",
"channelNameSummary" : "北京房产-开盘信息",
"channelUrl" : "http:\/\/bj.house.sina.com.cn\/scan\/kaipan\/index.html",
"author" : "WWW.SINA.COM.CN",
"tags" : [],
"desc" : "新浪乐居讯(编辑 张茜)华远铭悦(论坛&#160;相册&#160;户型&#160;样板间&#160;点评&#160;地图搜索)即将推出楼王13号楼，目前在售房源为于2012年12月15日开盘的11号楼，均价17800元\/平米，户型85-90平米2居，127-130平米3居，地采暖。目前购房可享两居2万抵10万，三居2万抵15万....",
"emailed" : False,
"forwarded" : False,
"english" : False
}  , {
"index" : 17,
"articleIndex" : "6246",
"favor" :  False ,
     "read" : False,    
"title" : "香河富力新城87-145平2至4居即将开盘(图)",
"titleTip" : "香河富力新城87-145平2至4居即将开盘(图)",
"titleSummary" : "香河富力新城87-145平2至4居即将开盘(图)",
"descSummary" : "新浪乐居讯(编辑 季善云)富力新城(论坛 相册 户型 样板间 点评...",
"url" : "http:\/\/go.rss.sina.com.cn\/redirect.php?url=http:\/\/house.sina.com.cn\/scan\/2012-12-26\/1025426496.shtml?source=rss",
"pubDate" : "2012年12月26日",
"enterDate" : "384183:32:23",
"channelId" : "6889492520232296188",
"channelName" : "北京房产-开盘信息",
"channelNameSummary" : "北京房产-开盘信息",
"channelUrl" : "http:\/\/bj.house.sina.com.cn\/scan\/kaipan\/index.html",
"author" : "WWW.SINA.COM.CN",
"tags" : [],
"desc" : "新浪乐居讯(编辑 季善云)富力新城(论坛 相册 户型 样板间 点评 地图搜索)项目V01区域9、10号楼近期即将开盘，房源为87-145平米二至四居花园洋房，价格待定。老业主带新客户入场有机会获得精美礼品或100元加油卡，老带新成交赠送老业主2000元物业费。项目目前在售房源住宅均价5....",
"emailed" : False,
"forwarded" : False,
"english" : False
}  , {
"index" : 18,
"articleIndex" : "6245",
"favor" :  False ,
     "read" : False,    
"title" : "八通线自由筑LOFT2013年推新排号中(图)",
"titleTip" : "八通线自由筑LOFT2013年推新排号中(图)",
"titleSummary" : "八通线自由筑LOFT2013年推新排号中(图)",
"descSummary" : "新浪乐居讯(编辑 张茜)自由筑(论坛 相册 户型 样板间 点评 地图...",
"url" : "http:\/\/go.rss.sina.com.cn\/redirect.php?url=http:\/\/house.sina.com.cn\/scan\/2012-12-26\/0925426467.shtml?source=rss",
"pubDate" : "2012年12月26日",
"enterDate" : "384182:32:25",
"channelId" : "6889492520232296188",
"channelName" : "北京房产-开盘信息",
"channelNameSummary" : "北京房产-开盘信息",
"channelUrl" : "http:\/\/bj.house.sina.com.cn\/scan\/kaipan\/index.html",
"author" : "WWW.SINA.COM.CN",
"tags" : [],
"desc" : "新浪乐居讯(编辑 张茜)自由筑(论坛&#160;相册&#160;户型&#160;样板间&#160;点评&#160;地图搜索)1-1期新房源预计2013年上半年开盘，目前正在排号中。项目2-1期少量房源在售，将于2012年12月底结盘，房源均为LOFT，户型为67平米LOFT，3.15米层高均价为11000元\/平方米，4.2米loft....",
"emailed" : False,
"forwarded" : False,
"english" : False
}  , {
"index" : 19,
"articleIndex" : "6244",
"favor" :  False ,
     "read" : False,    
"title" : "8号线首开国风美唐2-4居即将开盘(图)",
"titleTip" : "8号线首开国风美唐2-4居即将开盘(图)",
"titleSummary" : "8号线首开国风美唐2-4居即将开盘(图)",
"descSummary" : "新浪乐居讯(编辑 季善云)首开・国风美唐(论坛 相册 户型 样板间 点...",
"url" : "http:\/\/go.rss.sina.com.cn\/redirect.php?url=http:\/\/house.sina.com.cn\/scan\/2012-12-25\/1714426422.shtml?source=rss",
"pubDate" : "2012年12月25日",
"enterDate" : "384166:20:56",
"channelId" : "6889492520232296188",
"channelName" : "北京房产-开盘信息",
"channelNameSummary" : "北京房产-开盘信息",
"channelUrl" : "http:\/\/bj.house.sina.com.cn\/scan\/kaipan\/index.html",
"author" : "WWW.SINA.COM.CN",
"tags" : [],
"desc" : "新浪乐居讯(编辑 季善云)首开・国风美唐(论坛 相册 户型 样板间 点评 地图搜索)项目新房源即将开盘，房源为82-92平米二居室、 92-95平米三居室、140平米四居室。新房源价格待定，前期房源均价21500元\/平米，毛坯，2014年底交房。 首开・国风美唐项目紧邻城铁13号线和地....",
"emailed" : False,
"forwarded" : False,
"english" : False
} ]
}
