{
"mode" : {"viewTitle" : 1,   "viewNew" : 0,  "pageIndex" : 2 },
 "channel" : {"id" : "6889492520232296188", "booked" : False, "subNumber" : 1, "name" : "北京房产-开盘信息", "url" : "http:\/\/bj.house.sina.com.cn\/scan\/kaipan\/index.html", "feed" : "http:\/\/rss.sina.com.cn\/bjhouse\/scan\/kaipan.xml", "author" : "WWW.SINA.COM.CN", "desc" : "北京房产-开盘信息", "imageUrl" : "http:\/\/www.sinaimg.cn\/house\/sina_fc.gif", "postPerWeek" : "0", "lastCrawTime" : "17:16:06", "crawDateTime" : "2013年1月10日", "lastHttpCode" : "304"}, "page" : {
"startIndex" : 20,
"totalCount" : 5000,
"pageIndex" : 2,
"lastPage" : 250,
"pageSize" : 20,
"english" :  False },
 "unreadNum" : 0, "shotIndex" : -1,
"articles" : [
{
"index" : 0,
"articleIndex" : "6243",
"favor" :  False ,
     "read" : False,    
"title" : "天津武清枫丹天城2013年3月开盘推2-3居(图)",
"titleTip" : "天津武清枫丹天城2013年3月开盘推2-3居(图)",
"titleSummary" : "天津武清枫丹天城2013年3月开盘推2-3居(图)",
"descSummary" : "新浪乐居讯(编辑 陈宏冬)枫丹天城(论坛 相册 户型 样板间 点...",
"url" : "http:\/\/go.rss.sina.com.cn\/redirect.php?url=http:\/\/house.sina.com.cn\/scan\/2012-12-25\/1451426414.shtml?source=rss",
"pubDate" : "2012年12月25日",
"enterDate" : "384200:52:09",
"channelId" : "6889492520232296188",
"channelName" : "北京房产-开盘信息",
"channelNameSummary" : "北京房产-开盘信息",
"channelUrl" : "http:\/\/bj.house.sina.com.cn\/scan\/kaipan\/index.html",
"author" : "WWW.SINA.COM.CN",
"tags" : [],
"desc" : "新浪乐居讯(编辑 陈宏冬)枫丹天城(论坛 相册 户型 样板间 点评 地图搜索)位于武清区新城雍阳西道与翠亨路交汇路口西北侧，将于2013年3月开盘。首批推出1、3、4、5、9、10号楼，是18层的小高层、户型面积81-106平米；预计10月推出2、6、7、8号楼，32层高层户型面积74-79平方米....",
"emailed" : False,
"forwarded" : False,
"english" : False
}  , {
"index" : 1,
"articleIndex" : "6242",
"favor" :  False ,
     "read" : False,    
"title" : "朝北核心常楹公元12月推全精装1-4居(图)",
"titleTip" : "朝北核心常楹公元12月推全精装1-4居(图)",
"titleSummary" : "朝北核心常楹公元12月推全精装1-4居(图)",
"descSummary" : "新浪乐居讯(编辑 张茜)常楹公元(论坛 相册 户型 样板间 点评 地...",
"url" : "http:\/\/go.rss.sina.com.cn\/redirect.php?url=http:\/\/house.sina.com.cn\/scan\/2012-12-25\/1310426404.shtml?source=rss",
"pubDate" : "2012年12月25日",
"enterDate" : "384197:41:31",
"channelId" : "6889492520232296188",
"channelName" : "北京房产-开盘信息",
"channelNameSummary" : "北京房产-开盘信息",
"channelUrl" : "http:\/\/bj.house.sina.com.cn\/scan\/kaipan\/index.html",
"author" : "WWW.SINA.COM.CN",
"tags" : [],
"desc" : "新浪乐居讯(编辑 张茜)常楹公元(论坛 相册 户型 样板间 点评 地图搜索)为朝北核心区域纯新项目，紧邻地铁6号线，项目位于朝阳区朝阳北路与管庄路交界处东南500米，项目已于2012年12月2日开盘。户型为58平米一居至174平米四居，全精装。 常楹公元项目坐拥城铁八通线、地....",
"emailed" : False,
"forwarded" : False,
"english" : False
}  , {
"index" : 2,
"articleIndex" : "6241",
"favor" :  False ,
     "read" : False,    
"title" : "朝阳远洋万和公馆5号楼2013年3月开盘(图)",
"titleTip" : "朝阳远洋万和公馆5号楼2013年3月开盘(图)",
"titleSummary" : "朝阳远洋万和公馆5号楼2013年3月开盘(图)",
"descSummary" : "新浪乐居讯(编辑 张茜)远洋・万和公馆(论坛 相册 户型 样板间...",
"url" : "http:\/\/go.rss.sina.com.cn\/redirect.php?url=http:\/\/house.sina.com.cn\/scan\/2012-12-25\/1053426394.shtml?source=rss",
"pubDate" : "2012年12月25日",
"enterDate" : "384200:55:50",
"channelId" : "6889492520232296188",
"channelName" : "北京房产-开盘信息",
"channelNameSummary" : "北京房产-开盘信息",
"channelUrl" : "http:\/\/bj.house.sina.com.cn\/scan\/kaipan\/index.html",
"author" : "WWW.SINA.COM.CN",
"tags" : [],
"desc" : "新浪乐居讯(编辑 张茜)远洋・万和公馆(论坛 相册 户型 样板间 点评 地图搜索)5号楼预计2013年3月入市，主推户型为256平米三居和280平米四居，均价待定。项目1、2号楼已于2012年9月1日开盘，1号楼共计46套房源，户型为175平米两居，210平米三居，精装标准为10000元\/平米，均价5....",
"emailed" : False,
"forwarded" : False,
"english" : False
}  , {
"index" : 3,
"articleIndex" : "6240",
"favor" :  False ,
     "read" : False,    
"title" : "房山金域缇香预计2013年春节后推新(图)",
"titleTip" : "房山金域缇香预计2013年春节后推新(图)",
"titleSummary" : "房山金域缇香预计2013年春节后推新(图)",
"descSummary" : "新浪乐居讯(编辑 张茜)金域缇香(论坛 相册 户型 样板间 点评 地图...",
"url" : "http:\/\/go.rss.sina.com.cn\/redirect.php?url=http:\/\/house.sina.com.cn\/scan\/2012-12-25\/1045426389.shtml?source=rss",
"pubDate" : "2012年12月25日",
"enterDate" : "384201:17:28",
"channelId" : "6889492520232296188",
"channelName" : "北京房产-开盘信息",
"channelNameSummary" : "北京房产-开盘信息",
"channelUrl" : "http:\/\/bj.house.sina.com.cn\/scan\/kaipan\/index.html",
"author" : "WWW.SINA.COM.CN",
"tags" : [],
"desc" : "新浪乐居讯(编辑 张茜)金域缇香(论坛 相册 户型 样板间 点评 地图搜索)项目目前仅余一套1号楼2单元1704室3居在售，户型面积115平米，南北通透，一次性付款可享1-3个百分点优惠。项目新一期房源预计2013年春节后推出。项目11号楼于12月15日开盘，本次开盘房源户型为85平米的纯....",
"emailed" : False,
"forwarded" : False,
"english" : False
}  , {
"index" : 4,
"articleIndex" : "6239",
"favor" :  False ,
     "read" : False,    
"title" : "通州金隅花石匠2013年1月推下跃产品(图)",
"titleTip" : "通州金隅花石匠2013年1月推下跃产品(图)",
"titleSummary" : "通州金隅花石匠2013年1月推下跃产品(图)",
"descSummary" : "新浪乐居讯(编辑 张茜)金隅花石匠(论坛 相册 户型 样板间 点评...",
"url" : "http:\/\/go.rss.sina.com.cn\/redirect.php?url=http:\/\/house.sina.com.cn\/scan\/2012-12-25\/1032426382.shtml?source=rss",
"pubDate" : "2012年12月25日",
"enterDate" : "384201:04:55",
"channelId" : "6889492520232296188",
"channelName" : "北京房产-开盘信息",
"channelNameSummary" : "北京房产-开盘信息",
"channelUrl" : "http:\/\/bj.house.sina.com.cn\/scan\/kaipan\/index.html",
"author" : "WWW.SINA.COM.CN",
"tags" : [],
"desc" : "新浪乐居讯(编辑 张茜)金隅花石匠(论坛&#160;相册&#160;户型&#160;样板间&#160;点评&#160;地图搜索)项目预计2013年1月（预计元旦过后）推出全家庭型花园下跃产品，目前实楼样板间已开放，价格待定。项目前期推出的景观楼王25号楼现已售罄，15000元\/平米起，均价16000-17000元\/....",
"emailed" : False,
"forwarded" : False,
"english" : False
}  , {
"index" : 5,
"articleIndex" : "6238",
"favor" :  False ,
     "read" : False,    
"title" : "燕郊夏威夷南岸玫瑰花园预计2013年1月开盘(图)",
"titleTip" : "燕郊夏威夷南岸玫瑰花园预计2013年1月开盘(图)",
"titleSummary" : "燕郊夏威夷南岸玫瑰花园预计2013年1月开盘(图)",
"descSummary" : "新浪乐居讯(编辑 张茜)夏威夷南岸玫瑰花园(论坛 相册 户...",
"url" : "http:\/\/go.rss.sina.com.cn\/redirect.php?url=http:\/\/house.sina.com.cn\/scan\/2012-12-24\/1038426297.shtml?source=rss",
"pubDate" : "2012年12月24日",
"enterDate" : "384201:15:44",
"channelId" : "6889492520232296188",
"channelName" : "北京房产-开盘信息",
"channelNameSummary" : "北京房产-开盘信息",
"channelUrl" : "http:\/\/bj.house.sina.com.cn\/scan\/kaipan\/index.html",
"author" : "WWW.SINA.COM.CN",
"tags" : [],
"desc" : "新浪乐居讯(编辑 张茜)夏威夷南岸玫瑰花园(论坛 相册 户型 样板间 点评 地图搜索) 项目预计2013年1月初开盘，均价及优惠政策待定，12月1日开始，进行项目咨询和相关VIP卡办理工作，排号可享开盘优惠。项目主推小户型，面积为60平米一居、70-89平米两居、89-120平米三居；预计2....",
"emailed" : False,
"forwarded" : False,
"english" : False
}  , {
"index" : 6,
"articleIndex" : "6237",
"favor" :  False ,
     "read" : False,    
"title" : "燕郊燕京航城六期38号楼待售预计8500元(图)",
"titleTip" : "燕郊燕京航城六期38号楼待售预计8500元(图)",
"titleSummary" : "燕郊燕京航城六期38号楼待售预计8500元(图)",
"descSummary" : "新浪乐居讯(编辑 张茜)燕京航城(论坛 相册 户型 样板间 点评...",
"url" : "http:\/\/go.rss.sina.com.cn\/redirect.php?url=http:\/\/house.sina.com.cn\/scan\/2012-12-24\/1030426288.shtml?source=rss",
"pubDate" : "2012年12月24日",
"enterDate" : "384201:07:21",
"channelId" : "6889492520232296188",
"channelName" : "北京房产-开盘信息",
"channelNameSummary" : "北京房产-开盘信息",
"channelUrl" : "http:\/\/bj.house.sina.com.cn\/scan\/kaipan\/index.html",
"author" : "WWW.SINA.COM.CN",
"tags" : [],
"desc" : "新浪乐居讯(编辑 张茜)燕京航城(论坛 相册 户型 样板间 点评 地图搜索)项目六期38号楼预计2013年1月开盘，主力户型包括58平米一居，64-90平米两居和108平米三居。预计均价8500元\/平米，赠送精装修，装修标准1000元\/平米。全款94折，贷款98折。项目六期共有2408户，内部为精装....",
"emailed" : False,
"forwarded" : False,
"english" : False
}  , {
"index" : 7,
"articleIndex" : "6236",
"favor" :  False ,
     "read" : False,    
"title" : "望京臻园高端精装新盘预计2013年入市(图)",
"titleTip" : "望京臻园高端精装新盘预计2013年入市(图)",
"titleSummary" : "望京臻园高端精装新盘预计2013年入市(图)",
"descSummary" : "新浪乐居讯(编辑 张茜)臻园(论坛 相册 户型 样板间 点评 地图搜...",
"url" : "http:\/\/go.rss.sina.com.cn\/redirect.php?url=http:\/\/house.sina.com.cn\/scan\/2012-12-21\/1559426192.shtml?source=rss",
"pubDate" : "2012年12月21日",
"enterDate" : "384201:01:30",
"channelId" : "6889492520232296188",
"channelName" : "北京房产-开盘信息",
"channelNameSummary" : "北京房产-开盘信息",
"channelUrl" : "http:\/\/bj.house.sina.com.cn\/scan\/kaipan\/index.html",
"author" : "WWW.SINA.COM.CN",
"tags" : [],
"desc" : "新浪乐居讯(编辑 张茜)臻园(论坛 相册 户型 样板间 点评 地图搜索)位于朝阳望京广顺北大街与来广营西路交汇处西侧，地处北京第二CBD大望京区域，为高端精装新盘。项目以180-210平米四居为主力户型，预计2013年入市，价格待定。 臻园项目南侧紧邻北五环、北依来广营西路....",
"emailed" : False,
"forwarded" : False,
"english" : False
}  , {
"index" : 8,
"articleIndex" : "6235",
"favor" :  False ,
     "read" : False,    
"title" : "廊坊天地凤凰城即推78平起1-2居可减4万5(图)",
"titleTip" : "廊坊天地凤凰城即推78平起1-2居可减4万5(图)",
"titleSummary" : "廊坊天地凤凰城即推78平起1-2居可减4万5(图)",
"descSummary" : "新浪乐居讯(编辑 刘楠)天地・凤凰城(论坛 相册 户型 样板...",
"url" : "http:\/\/go.rss.sina.com.cn\/redirect.php?url=http:\/\/house.sina.com.cn\/scan\/2012-12-21\/1504426190.shtml?source=rss",
"pubDate" : "2012年12月21日",
"enterDate" : "384201:06:38",
"channelId" : "6889492520232296188",
"channelName" : "北京房产-开盘信息",
"channelNameSummary" : "北京房产-开盘信息",
"channelUrl" : "http:\/\/bj.house.sina.com.cn\/scan\/kaipan\/index.html",
"author" : "WWW.SINA.COM.CN",
"tags" : [],
"desc" : "新浪乐居讯(编辑 刘楠)天地・凤凰城(论坛 相册 户型 样板间 点评 地图搜索)项目12月底即将开盘，均价5600元\/平米，户型为78-120平米一居和两居，共计233套。项目买一得二，买二得三，参加电商5000抵50000元，送42寸液晶电视；现场还有其他优惠。目前在售房源有联排、花园洋房....",
"emailed" : False,
"forwarded" : False,
"english" : False
}  , {
"index" : 9,
"articleIndex" : "6234",
"favor" :  False ,
     "read" : False,    
"title" : "朝阳九章别墅2013年初开盘独栋别墅(图)",
"titleTip" : "朝阳九章别墅2013年初开盘独栋别墅(图)",
"titleSummary" : "朝阳九章别墅2013年初开盘独栋别墅(图)",
"descSummary" : "新浪乐居讯(编辑 张茜)九章别墅(论坛 相册 户型 样板间 点评 地图...",
"url" : "http:\/\/go.rss.sina.com.cn\/redirect.php?url=http:\/\/house.sina.com.cn\/scan\/2012-12-21\/0945426144.shtml?source=rss",
"pubDate" : "2012年12月21日",
"enterDate" : "384200:48:56",
"channelId" : "6889492520232296188",
"channelName" : "北京房产-开盘信息",
"channelNameSummary" : "北京房产-开盘信息",
"channelUrl" : "http:\/\/bj.house.sina.com.cn\/scan\/kaipan\/index.html",
"author" : "WWW.SINA.COM.CN",
"tags" : [],
"desc" : "新浪乐居讯(编辑 张茜)九章别墅(论坛 相册 户型 样板间 点评 地图搜索)项目预计2013年初（春节前后）开盘，预计价格3600-3700万\/套，待售房源建筑类型全部为独栋别墅，户型面积在500-800平米之间，采取前2后3的建筑形式，入户方向为2层建筑，花园方向为3层建筑，部分房屋有地....",
"emailed" : False,
"forwarded" : False,
"english" : False
}  , {
"index" : 10,
"articleIndex" : "6233",
"favor" :  False ,
     "read" : False,    
"title" : "朝阳常楹公元12月2日已开盘精装1-4居(图)",
"titleTip" : "朝阳常楹公元12月2日已开盘精装1-4居(图)",
"titleSummary" : "朝阳常楹公元12月2日已开盘精装1-4居(图)",
"descSummary" : "新浪乐居讯(编辑 张茜)常楹公元(论坛 相册 户型 样板间 点评 地...",
"url" : "http:\/\/go.rss.sina.com.cn\/redirect.php?url=http:\/\/house.sina.com.cn\/scan\/2012-12-21\/0936426141.shtml?source=rss",
"pubDate" : "2012年12月21日",
"enterDate" : "384098:07:21",
"channelId" : "6889492520232296188",
"channelName" : "北京房产-开盘信息",
"channelNameSummary" : "北京房产-开盘信息",
"channelUrl" : "http:\/\/bj.house.sina.com.cn\/scan\/kaipan\/index.html",
"author" : "WWW.SINA.COM.CN",
"tags" : [],
"desc" : "新浪乐居讯(编辑 张茜)常楹公元(论坛 相册 户型 样板间 点评 地图搜索)2012年12月2日已开盘，户型为58平米一居至174平米四居，全精装。其中，两居约85平米，客厅及主卧次卧均朝南；舒适三居约126平米，格局方正，南北通透。 常楹公元项目坐拥城铁八通线、地铁6号线、机....",
"emailed" : False,
"forwarded" : False,
"english" : False
}  , {
"index" : 11,
"articleIndex" : "6232",
"favor" :  False ,
     "read" : False,    
"title" : "八通线K2海棠湾2013年6月推150平起新房(图)",
"titleTip" : "八通线K2海棠湾2013年6月推150平起新房(图)",
"titleSummary" : "八通线K2海棠湾2013年6月推150平起新房(图)",
"descSummary" : "新浪乐居讯(编辑 张跃)K2・海棠湾(论坛 相册 户型 样板间...",
"url" : "http:\/\/go.rss.sina.com.cn\/redirect.php?url=http:\/\/house.sina.com.cn\/scan\/2012-12-20\/1320426043.shtml?source=rss",
"pubDate" : "2012年12月20日",
"enterDate" : "384200:57:24",
"channelId" : "6889492520232296188",
"channelName" : "北京房产-开盘信息",
"channelNameSummary" : "北京房产-开盘信息",
"channelUrl" : "http:\/\/bj.house.sina.com.cn\/scan\/kaipan\/index.html",
"author" : "WWW.SINA.COM.CN",
"tags" : [],
"desc" : "新浪乐居讯(编辑 张跃)K2・海棠湾(论坛&#160;相册&#160;户型&#160;样板间&#160;点评&#160;地图搜索)项目位于通州区梨园云景东路，地铁梨园站向南1200米。项目三期预计2013年6月开盘，预计均价25000元\/平方米，预计户型面积为150-400平米，70年产权，毛坯现房。 K2・海....",
"emailed" : False,
"forwarded" : False,
"english" : False
}  , {
"index" : 12,
"articleIndex" : "6231",
"favor" :  False ,
     "read" : False,    
"title" : "朝阳亚运新新家园别墅预计2013年推新(图)",
"titleTip" : "朝阳亚运新新家园别墅预计2013年推新(图)",
"titleSummary" : "朝阳亚运新新家园别墅预计2013年推新(图)",
"descSummary" : "新浪房产讯(编辑 张茜)亚运新新家园别墅(论坛 相册 户型 样板...",
"url" : "http:\/\/go.rss.sina.com.cn\/redirect.php?url=http:\/\/house.sina.com.cn\/scan\/2012-12-20\/1102426038.shtml?source=rss",
"pubDate" : "2012年12月20日",
"enterDate" : "384201:09:42",
"channelId" : "6889492520232296188",
"channelName" : "北京房产-开盘信息",
"channelNameSummary" : "北京房产-开盘信息",
"channelUrl" : "http:\/\/bj.house.sina.com.cn\/scan\/kaipan\/index.html",
"author" : "WWW.SINA.COM.CN",
"tags" : [],
"desc" : "新浪房产讯(编辑 张茜)亚运新新家园别墅(论坛 相册 户型 样板间 点评 地图 搜索)四期南区预计2013年春节前后推出新房源，面积为在423-587平米之间的联排别墅，买房即送豪华装修，每户均赠送50-300平米不等的花园及两个专属地下车库，总价3000万\/套起，现房。 亚运新新....",
"emailed" : False,
"forwarded" : False,
"english" : False
}  , {
"index" : 13,
"articleIndex" : "6230",
"favor" :  False ,
     "read" : False,    
"title" : "朝阳首开常青藤2013年开盘四期1-5居(图)",
"titleTip" : "朝阳首开常青藤2013年开盘四期1-5居(图)",
"titleSummary" : "朝阳首开常青藤2013年开盘四期1-5居(图)",
"descSummary" : "新浪乐居讯(编辑 张茜)首开・常青藤(论坛 相册 户型 样板间 点...",
"url" : "http:\/\/go.rss.sina.com.cn\/redirect.php?url=http:\/\/house.sina.com.cn\/scan\/2012-12-20\/1058426034.shtml?source=rss",
"pubDate" : "2012年12月20日",
"enterDate" : "384201:05:19",
"channelId" : "6889492520232296188",
"channelName" : "北京房产-开盘信息",
"channelNameSummary" : "北京房产-开盘信息",
"channelUrl" : "http:\/\/bj.house.sina.com.cn\/scan\/kaipan\/index.html",
"author" : "WWW.SINA.COM.CN",
"tags" : [],
"desc" : "新浪乐居讯(编辑 张茜)首开・常青藤(论坛 相册 户型 样板间 点评 地图搜索)项目三期房源已售完，四期新房源待售，预计2013年春节前后推出，户型面积为64-270平米1-5居。项目三期均价23000-24000元\/平米，70年产权，入住时间预计2013年7月。 &gt;&gt;点击查看更多东五环....",
"emailed" : False,
"forwarded" : False,
"english" : False
}  , {
"index" : 14,
"articleIndex" : "6229",
"favor" :  False ,
     "read" : False,    
"title" : "海淀百旺杏林湾248平跃层户型2013年开盘(图)",
"titleTip" : "海淀百旺杏林湾248平跃层户型2013年开盘(图)",
"titleSummary" : "海淀百旺杏林湾248平跃层户型2013年开盘(图)",
"descSummary" : "新浪乐居讯(编辑 陈宏冬)百旺・杏林湾(论坛 相册 户型 样...",
"url" : "http:\/\/go.rss.sina.com.cn\/redirect.php?url=http:\/\/house.sina.com.cn\/scan\/2012-12-20\/1045426029.shtml?source=rss",
"pubDate" : "2012年12月20日",
"enterDate" : "384200:52:12",
"channelId" : "6889492520232296188",
"channelName" : "北京房产-开盘信息",
"channelNameSummary" : "北京房产-开盘信息",
"channelUrl" : "http:\/\/bj.house.sina.com.cn\/scan\/kaipan\/index.html",
"author" : "WWW.SINA.COM.CN",
"tags" : [],
"desc" : "新浪乐居讯(编辑 陈宏冬)百旺・杏林湾(论坛 相册 户型 样板间 点评 地图搜索)预计2013年6月开盘，在售户型面积为203-248平米跃层，均价24000元\/平米。70年产权，毛坯交房，2013年11月入住。 百旺・杏林湾规划用地总面积为39.4公顷，规划总建筑面积为49万平方米，总户数....",
"emailed" : False,
"forwarded" : False,
"english" : False
}  , {
"index" : 15,
"articleIndex" : "6228",
"favor" :  False ,
     "read" : False,    
"title" : "通州金地格林格林1月推55平起1-3居(图)",
"titleTip" : "通州金地格林格林1月推55平起1-3居(图)",
"titleSummary" : "通州金地格林格林1月推55平起1-3居(图)",
"descSummary" : "新浪乐居讯(编辑 张跃)金地格林格林 (论坛 相册 户型 样板间 点评...",
"url" : "http:\/\/go.rss.sina.com.cn\/redirect.php?url=http:\/\/house.sina.com.cn\/scan\/2012-12-20\/1003426015.shtml?source=rss",
"pubDate" : "2012年12月20日",
"enterDate" : "384199:40:54",
"channelId" : "6889492520232296188",
"channelName" : "北京房产-开盘信息",
"channelNameSummary" : "北京房产-开盘信息",
"channelUrl" : "http:\/\/bj.house.sina.com.cn\/scan\/kaipan\/index.html",
"author" : "WWW.SINA.COM.CN",
"tags" : [],
"desc" : "新浪乐居讯(编辑 张跃)金地格林格林 (论坛 相册 户型 样板间 点评 地图搜索)项目预计2013年1月开盘，待推户型分别为55平米至90平米，一居至三居的小户型产品，在户型方面始终保持金地产品拥有的全明格局、南北通透的品质。其中一居55平米，纯南向两居75平米，方正 通透两居80....",
"emailed" : False,
"forwarded" : False,
"english" : False
}  , {
"index" : 16,
"articleIndex" : "6227",
"favor" :  False ,
     "read" : False,    
"title" : "潮白河孔雀英国宫五期新品推售2-3居高层(图)",
"titleTip" : "潮白河孔雀英国宫五期新品推售2-3居高层(图)",
"titleSummary" : "潮白河孔雀英国宫五期新品推售2-3居高层(图)",
"descSummary" : "新浪乐居讯(编辑 刘楠)潮白河・孔雀英国宫(论坛 相册 户型 ...",
"url" : "http:\/\/go.rss.sina.com.cn\/redirect.php?url=http:\/\/house.sina.com.cn\/scan\/2012-12-19\/1635425949.shtml?source=rss",
"pubDate" : "2012年12月19日",
"enterDate" : "384201:01:43",
"channelId" : "6889492520232296188",
"channelName" : "北京房产-开盘信息",
"channelNameSummary" : "北京房产-开盘信息",
"channelUrl" : "http:\/\/bj.house.sina.com.cn\/scan\/kaipan\/index.html",
"author" : "WWW.SINA.COM.CN",
"tags" : [],
"desc" : "新浪乐居讯(编辑 刘楠)潮白河・孔雀英国宫(论坛 相册 户型 样板间 点评 地图搜索) 项目五期经典户型开盘时间为2013年1月，本期为观水纯板阳光社区，小区分两个组团，呈围合式布局，共20栋28-34层高层，5490套房源，主力户型为通透及纯南2居户型，舒适两居面积为80-90平米之间....",
"emailed" : False,
"forwarded" : False,
"english" : False
}  , {
"index" : 17,
"articleIndex" : "6226",
"favor" :  False ,
     "read" : False,    
"title" : "通州京贸国际城12月22日推1-4居21000元(图)",
"titleTip" : "通州京贸国际城12月22日推1-4居21000元(图)",
"titleSummary" : "通州京贸国际城12月22日推1-4居21000元(图)",
"descSummary" : "新浪乐居讯(编辑 张跃)京贸国际城(论坛 相册 户型 样板间 点...",
"url" : "http:\/\/go.rss.sina.com.cn\/redirect.php?url=http:\/\/house.sina.com.cn\/scan\/2012-12-19\/1504425923.shtml?source=rss",
"pubDate" : "2012年12月19日",
"enterDate" : "384201:00:57",
"channelId" : "6889492520232296188",
"channelName" : "北京房产-开盘信息",
"channelNameSummary" : "北京房产-开盘信息",
"channelUrl" : "http:\/\/bj.house.sina.com.cn\/scan\/kaipan\/index.html",
"author" : "WWW.SINA.COM.CN",
"tags" : [],
"desc" : "新浪乐居讯(编辑 张跃)京贸国际城(论坛&#160;相册&#160;户型&#160;样板间&#160;点评&#160;地图搜索)三期京贸御林，将于2012年12月22日开盘，推出7号楼，精装修，房源户型为60-160平米的一至四居，均价21000元\/平米。2013年8月底交房。项目位于通州区新城中央核心区，京杭大运....",
"emailed" : False,
"forwarded" : False,
"english" : False
}  , {
"index" : 18,
"articleIndex" : "6225",
"favor" :  False ,
     "read" : False,    
"title" : "通州K2清水湾1-3居26000预计12月加推(图)",
"titleTip" : "通州K2清水湾1-3居26000预计12月加推(图)",
"titleSummary" : "通州K2清水湾1-3居26000预计12月加推(图)",
"descSummary" : "新浪乐居讯(编辑 张跃)K2清水湾(论坛 相册 户型 样板间 点评 地...",
"url" : "http:\/\/go.rss.sina.com.cn\/redirect.php?url=http:\/\/house.sina.com.cn\/scan\/2012-12-19\/1404425917.shtml?source=rss",
"pubDate" : "2012年12月19日",
"enterDate" : "384201:01:57",
"channelId" : "6889492520232296188",
"channelName" : "北京房产-开盘信息",
"channelNameSummary" : "北京房产-开盘信息",
"channelUrl" : "http:\/\/bj.house.sina.com.cn\/scan\/kaipan\/index.html",
"author" : "WWW.SINA.COM.CN",
"tags" : [],
"desc" : "新浪乐居讯(编辑 张跃)K2清水湾(论坛&#160;相册&#160;户型&#160;样板间&#160;点评&#160;地图搜索)项目位于通州京哈高速北侧(耿庄桥出口)。前住宅房源1、2号楼在售，户型为40平米一居，56-84平米二居，79-112平米三居，均价为26000元\/平方米。12月份加推4号楼，现房80-113平米....",
"emailed" : False,
"forwarded" : False,
"english" : False
}  , {
"index" : 19,
"articleIndex" : "6224",
"favor" :  False ,
     "read" : False,    
"title" : "亦庄UP生活即将推出42平起开间现房(图)",
"titleTip" : "亦庄UP生活即将推出42平起开间现房(图)",
"titleSummary" : "亦庄UP生活即将推出42平起开间现房(图)",
"descSummary" : "新浪乐居讯(编辑 张跃)UP生活(论坛 相册 户型 样板间 点评 地...",
"url" : "http:\/\/go.rss.sina.com.cn\/redirect.php?url=http:\/\/house.sina.com.cn\/scan\/2012-12-19\/1149425909.shtml?source=rss",
"pubDate" : "2012年12月19日",
"enterDate" : "384200:46:55",
"channelId" : "6889492520232296188",
"channelName" : "北京房产-开盘信息",
"channelNameSummary" : "北京房产-开盘信息",
"channelUrl" : "http:\/\/bj.house.sina.com.cn\/scan\/kaipan\/index.html",
"author" : "WWW.SINA.COM.CN",
"tags" : [],
"desc" : "新浪乐居讯(编辑 张跃)UP生活(论坛&#160;相册&#160;户型&#160;样板间&#160;点评&#160;地图搜索)项目位于通州亦庄新城，马驹桥生活组团样本社区北侧(马驹桥1号桥出向北第一个红绿灯走200米)。项目预计2012年四季度开盘，待售户型为42-82平米开间，5.4米挑高，房源为7层的塔楼lo....",
"emailed" : False,
"forwarded" : False,
"english" : False
} ]
}
