{
"mode" : {"viewTitle" : 1,   "viewNew" : 0,  "pageIndex" : 1 },
 "channel" : {"id" : "-5457491384498115580", "booked" : False, "subNumber" : 1060, "name" : "国际足坛-英超", "url" : "http:\/\/sports.sina.com.cn\/global\/index.shtml", "feed" : "http:\/\/rss.sina.com.cn\/sports\/global\/england.xml", "author" : "WWW.SINA.COM.CN", "desc" : "国际足坛-英超", "imageUrl" : "http:\/\/www.sinaimg.cn\/ty\/deco\/2010\/0601\/logo_home_sports_nonike2.gif", "postPerWeek" : "162", "lastCrawTime" : "2013年10月15日 (2周前)", "crawDateTime" : "2013年10月15日 (2周前)", "lastHttpCode" : "200"}, "page" : {
"startIndex" : 0,
"totalCount" : 5000,
"pageIndex" : 1,
"lastPage" : 250,
"pageSize" : 20,
"english" :  False },
 "unreadNum" : 0, "shotIndex" : -1,
"articles" : [
{
"index" : 0,
"articleIndex" : "47746",
"favor" :  False ,
     "read" : False,    
"title" : "莱万:从未说去拜仁1月草签新东家 曼联曼城切尔西齐购",
"titleTip" : "莱万:从未说去拜仁1月草签新东家 曼联曼城切尔西齐购",
"titleSummary" : "莱万:从未说去拜仁1月草签新东家 曼联曼城切尔西齐购",
"descSummary" : "",
"url" : "http:\/\/go.rss.sina.com.cn\/redirect.php?url=http:\/\/sports.sina.com.cn\/g\/pl\/2013-10-15\/11096831965.shtml",
"pubDate" : "2013年10月15日 (2周前)",
"enterDate" : "384201:15:03",
"channelId" : "-5457491384498115580",
"channelName" : "国际足坛-英超",
"channelNameSummary" : "国际足坛-英超",
"channelUrl" : "http:\/\/sports.sina.com.cn\/global\/index.shtml",
"author" : "WWW.SINA.COM.CN",
"tags" : [],
"desc" : "",
"emailed" : False,
"forwarded" : False,
"english" : False
}  , {
"index" : 1,
"articleIndex" : "47745",
"favor" :  False ,
     "read" : False,    
"title" : "足球名人命名的道路：巴斯比爵士 穆帅朴智星(高清)",
"titleTip" : "足球名人命名的道路：巴斯比爵士 穆帅朴智星(高清)",
"titleSummary" : "足球名人命名的道路：巴斯比爵士 穆帅朴智星(高清)",
"descSummary" : "",
"url" : "http:\/\/go.rss.sina.com.cn\/redirect.php?url=http:\/\/slide.sports.sina.com.cn\/g_pl\/slide_2_730_54622.html",
"pubDate" : "2013年10月15日 (2周前)",
"enterDate" : "384201:02:20",
"channelId" : "-5457491384498115580",
"channelName" : "国际足坛-英超",
"channelNameSummary" : "国际足坛-英超",
"channelUrl" : "http:\/\/sports.sina.com.cn\/global\/index.shtml",
"author" : "WWW.SINA.COM.CN",
"tags" : [],
"desc" : "",
"emailed" : False,
"forwarded" : False,
"english" : False
}  , {
"index" : 2,
"articleIndex" : "47744",
"favor" :  False ,
     "read" : False,    
"title" : "曼城真要买伊涅斯塔！力阻他续约巴萨 PK曼联豪砸",
"titleTip" : "曼城真要买伊涅斯塔！力阻他续约巴萨 PK曼联豪砸",
"titleSummary" : "曼城真要买伊涅斯塔！力阻他续约巴萨 PK曼联豪砸",
"descSummary" : "",
"url" : "http:\/\/go.rss.sina.com.cn\/redirect.php?url=http:\/\/sports.sina.com.cn\/g\/pl\/2013-10-15\/10426831944.shtml",
"pubDate" : "2013年10月15日 (2周前)",
"enterDate" : "384200:47:27",
"channelId" : "-5457491384498115580",
"channelName" : "国际足坛-英超",
"channelNameSummary" : "国际足坛-英超",
"channelUrl" : "http:\/\/sports.sina.com.cn\/global\/index.shtml",
"author" : "WWW.SINA.COM.CN",
"tags" : [],
"desc" : "",
"emailed" : False,
"forwarded" : False,
"english" : False
}  , {
"index" : 3,
"articleIndex" : "47743",
"favor" :  False ,
     "read" : False,    
"title" : "世界杯今夜出线！英西葡法冲刺 全球一览(附赛程)",
"titleTip" : "世界杯今夜出线！英西葡法冲刺 全球一览(附赛程)",
"titleSummary" : "世界杯今夜出线！英西葡法冲刺 全球一览(附赛程)",
"descSummary" : "",
"url" : "http:\/\/go.rss.sina.com.cn\/redirect.php?url=http:\/\/sports.sina.com.cn\/g\/2013-10-15\/10256831927.shtml",
"pubDate" : "2013年10月15日 (2周前)",
"enterDate" : "384201:01:04",
"channelId" : "-5457491384498115580",
"channelName" : "国际足坛-英超",
"channelNameSummary" : "国际足坛-英超",
"channelUrl" : "http:\/\/sports.sina.com.cn\/global\/index.shtml",
"author" : "WWW.SINA.COM.CN",
"tags" : [],
"desc" : "",
"emailed" : False,
"forwarded" : False,
"english" : False
}  , {
"index" : 4,
"articleIndex" : "47742",
"favor" :  False ,
     "read" : False,    
"title" : "弗格森指点莫耶斯:控制曼联更衣室 成功须做好三件事",
"titleTip" : "弗格森指点莫耶斯:控制曼联更衣室 成功须做好三件事",
"titleSummary" : "弗格森指点莫耶斯:控制曼联更衣室 成功须做好三件事",
"descSummary" : "",
"url" : "http:\/\/go.rss.sina.com.cn\/redirect.php?url=http:\/\/sports.sina.com.cn\/g\/pl\/2013-10-15\/10046831851.shtml",
"pubDate" : "2013年10月15日 (2周前)",
"enterDate" : "384201:09:31",
"channelId" : "-5457491384498115580",
"channelName" : "国际足坛-英超",
"channelNameSummary" : "国际足坛-英超",
"channelUrl" : "http:\/\/sports.sina.com.cn\/global\/index.shtml",
"author" : "WWW.SINA.COM.CN",
"tags" : [],
"desc" : "",
"emailed" : False,
"forwarded" : False,
"english" : False
}  , {
"index" : 5,
"articleIndex" : "47741",
"favor" :  False ,
     "read" : False,    
"title" : "英超20大杀星总榜:曼联9将切尔西奇人 第1永难超越",
"titleTip" : "英超20大杀星总榜:曼联9将切尔西奇人 第1永难超越",
"titleSummary" : "英超20大杀星总榜:曼联9将切尔西奇人 第1永难超越",
"descSummary" : "",
"url" : "http:\/\/go.rss.sina.com.cn\/redirect.php?url=http:\/\/sports.sina.com.cn\/g\/pl\/2013-10-15\/10016831844.shtml",
"pubDate" : "2013年10月15日 (2周前)",
"enterDate" : "384201:06:22",
"channelId" : "-5457491384498115580",
"channelName" : "国际足坛-英超",
"channelNameSummary" : "国际足坛-英超",
"channelUrl" : "http:\/\/sports.sina.com.cn\/global\/index.shtml",
"author" : "WWW.SINA.COM.CN",
"tags" : [],
"desc" : "",
"emailed" : False,
"forwarded" : False,
"english" : False
}  , {
"index" : 6,
"articleIndex" : "47740",
"favor" :  False ,
     "read" : False,    
"title" : "高清-英超乳神透明衣双球暴突 海臀跨坐私处险走光",
"titleTip" : "高清-英超乳神透明衣双球暴突 海臀跨坐私处险走光",
"titleSummary" : "高清-英超乳神透明衣双球暴突 海臀跨坐私处险走光",
"descSummary" : "",
"url" : "http:\/\/go.rss.sina.com.cn\/redirect.php?url=http:\/\/slide.sports.sina.com.cn\/g_pl\/slide_2_730_54617.html",
"pubDate" : "2013年10月15日 (2周前)",
"enterDate" : "384201:02:59",
"channelId" : "-5457491384498115580",
"channelName" : "国际足坛-英超",
"channelNameSummary" : "国际足坛-英超",
"channelUrl" : "http:\/\/sports.sina.com.cn\/global\/index.shtml",
"author" : "WWW.SINA.COM.CN",
"tags" : [],
"desc" : "",
"emailed" : False,
"forwarded" : False,
"english" : False
}  , {
"index" : 7,
"articleIndex" : "47739",
"favor" :  False ,
     "read" : False,    
"title" : "艳照门女主角入侵:披曼城哲科战袍 晃动双巨乳(图)",
"titleTip" : "艳照门女主角入侵:披曼城哲科战袍 晃动双巨乳(图)",
"titleSummary" : "艳照门女主角入侵:披曼城哲科战袍 晃动双巨乳(图)",
"descSummary" : "",
"url" : "http:\/\/go.rss.sina.com.cn\/redirect.php?url=http:\/\/sports.sina.com.cn\/g\/pl\/2013-10-15\/09386831782.shtml",
"pubDate" : "2013年10月15日 (2周前)",
"enterDate" : "384201:13:58",
"channelId" : "-5457491384498115580",
"channelName" : "国际足坛-英超",
"channelNameSummary" : "国际足坛-英超",
"channelUrl" : "http:\/\/sports.sina.com.cn\/global\/index.shtml",
"author" : "WWW.SINA.COM.CN",
"tags" : [],
"desc" : "",
"emailed" : False,
"forwarded" : False,
"english" : False
}  , {
"index" : 8,
"articleIndex" : "47738",
"favor" :  False ,
     "read" : False,    
"title" : "绝不重蹈08悲剧！曼联传奇支招英格兰:杰拉德踢右后卫",
"titleTip" : "绝不重蹈08悲剧！曼联传奇支招英格兰:杰拉德踢右后卫",
"titleSummary" : "绝不重蹈08悲剧！曼联传奇支招英格兰:杰拉德踢右后卫",
"descSummary" : "",
"url" : "http:\/\/go.rss.sina.com.cn\/redirect.php?url=http:\/\/sports.sina.com.cn\/g\/pl\/2013-10-15\/09286831754.shtml",
"pubDate" : "2013年10月15日 (2周前)",
"enterDate" : "384200:34:17",
"channelId" : "-5457491384498115580",
"channelName" : "国际足坛-英超",
"channelNameSummary" : "国际足坛-英超",
"channelUrl" : "http:\/\/sports.sina.com.cn\/global\/index.shtml",
"author" : "WWW.SINA.COM.CN",
"tags" : [],
"desc" : "",
"emailed" : False,
"forwarded" : False,
"english" : False
}  , {
"index" : 9,
"articleIndex" : "47737",
"favor" :  False ,
     "read" : False,    
"title" : "温格：4200万镑买厄齐尔我不心疼 今后可每年买1巨星",
"titleTip" : "温格：4200万镑买厄齐尔我不心疼 今后可每年买1巨星",
"titleSummary" : "温格：4200万镑买厄齐尔我不心疼 今后可每年买1巨星",
"descSummary" : "",
"url" : "http:\/\/go.rss.sina.com.cn\/redirect.php?url=http:\/\/sports.sina.com.cn\/g\/pl\/2013-10-15\/09056831711.shtml",
"pubDate" : "2013年10月15日 (2周前)",
"enterDate" : "384201:10:37",
"channelId" : "-5457491384498115580",
"channelName" : "国际足坛-英超",
"channelNameSummary" : "国际足坛-英超",
"channelUrl" : "http:\/\/sports.sina.com.cn\/global\/index.shtml",
"author" : "WWW.SINA.COM.CN",
"tags" : [],
"desc" : "",
"emailed" : False,
"forwarded" : False,
"english" : False
}  , {
"index" : 10,
"articleIndex" : "47736",
"favor" :  False ,
     "read" : False,    
"title" : "揭秘英格兰又1励志帝！曾遭九队流放 签名照仅值2块钱",
"titleTip" : "揭秘英格兰又1励志帝！曾遭九队流放 签名照仅值2块钱",
"titleSummary" : "揭秘英格兰又1励志帝！曾遭九队流放 签名照仅值2块钱",
"descSummary" : "",
"url" : "http:\/\/go.rss.sina.com.cn\/redirect.php?url=http:\/\/sports.sina.com.cn\/g\/pl\/2013-10-15\/08576831686.shtml",
"pubDate" : "2013年10月15日 (2周前)",
"enterDate" : "384201:02:45",
"channelId" : "-5457491384498115580",
"channelName" : "国际足坛-英超",
"channelNameSummary" : "国际足坛-英超",
"channelUrl" : "http:\/\/sports.sina.com.cn\/global\/index.shtml",
"author" : "WWW.SINA.COM.CN",
"tags" : [],
"desc" : "",
"emailed" : False,
"forwarded" : False,
"english" : False
}  , {
"index" : 11,
"articleIndex" : "47735",
"favor" :  False ,
     "read" : False,    
"title" : "大澹\u201C⑸纳核心场边撒尿被直播 表情立石化(图)",
"titleTip" : "大澹\u201C⑸纳核心场边撒尿被直播 表情立石化(图)",
"titleSummary" : "大澹\u201C⑸纳核心场边撒尿被直播 表情立石化(图)",
"descSummary" : "",
"url" : "http:\/\/go.rss.sina.com.cn\/redirect.php?url=http:\/\/sports.sina.com.cn\/g\/pl\/2013-10-15\/08186831647.shtml",
"pubDate" : "2013年10月15日 (2周前)",
"enterDate" : "384198:53:38",
"channelId" : "-5457491384498115580",
"channelName" : "国际足坛-英超",
"channelNameSummary" : "国际足坛-英超",
"channelUrl" : "http:\/\/sports.sina.com.cn\/global\/index.shtml",
"author" : "WWW.SINA.COM.CN",
"tags" : [],
"desc" : "",
"emailed" : False,
"forwarded" : False,
"english" : False
}  , {
"index" : 12,
"articleIndex" : "47734",
"favor" :  False ,
     "read" : False,    
"title" : "弗格森亲手为弗爵爷路揭幕 调侃:有1人是我老大!(图)",
"titleTip" : "弗格森亲手为弗爵爷路揭幕 调侃:有1人是我老大!(图)",
"titleSummary" : "弗格森亲手为弗爵爷路揭幕 调侃:有1人是我老大!(图)",
"descSummary" : "",
"url" : "http:\/\/go.rss.sina.com.cn\/redirect.php?url=http:\/\/sports.sina.com.cn\/g\/pl\/2013-10-15\/01106831267.shtml",
"pubDate" : "2013年10月15日 (2周前)",
"enterDate" : "384191:45:46",
"channelId" : "-5457491384498115580",
"channelName" : "国际足坛-英超",
"channelNameSummary" : "国际足坛-英超",
"channelUrl" : "http:\/\/sports.sina.com.cn\/global\/index.shtml",
"author" : "WWW.SINA.COM.CN",
"tags" : [],
"desc" : "",
"emailed" : False,
"forwarded" : False,
"english" : False
}  , {
"index" : 13,
"articleIndex" : "47733",
"favor" :  False ,
     "read" : False,    
"title" : "媒评恐无缘世界杯最强11人:C罗+鲁尼 豪阵3.92亿",
"titleTip" : "媒评恐无缘世界杯最强11人:C罗+鲁尼 豪阵3.92亿",
"titleSummary" : "媒评恐无缘世界杯最强11人:C罗+鲁尼 豪阵3.92亿",
"descSummary" : "",
"url" : "http:\/\/go.rss.sina.com.cn\/redirect.php?url=http:\/\/sports.sina.com.cn\/g\/2013-10-15\/00226831245.shtml",
"pubDate" : "2013年10月15日 (2周前)",
"enterDate" : "384200:59:14",
"channelId" : "-5457491384498115580",
"channelName" : "国际足坛-英超",
"channelNameSummary" : "国际足坛-英超",
"channelUrl" : "http:\/\/sports.sina.com.cn\/global\/index.shtml",
"author" : "WWW.SINA.COM.CN",
"tags" : [],
"desc" : "",
"emailed" : False,
"forwarded" : False,
"english" : False
}  , {
"index" : 14,
"articleIndex" : "47732",
"favor" :  False ,
     "read" : False,    
"title" : "短讯-荷兰两代射手王合影 曼联天尊成历史第一人(图)",
"titleTip" : "短讯-荷兰两代射手王合影 曼联天尊成历史第一人(图)",
"titleSummary" : "短讯-荷兰两代射手王合影 曼联天尊成历史第一人(图)",
"descSummary" : "",
"url" : "http:\/\/go.rss.sina.com.cn\/redirect.php?url=http:\/\/sports.sina.com.cn\/g\/pl\/2013-10-14\/15276830681.shtml",
"pubDate" : "2013年10月14日 (2周前)",
"enterDate" : "384200:35:55",
"channelId" : "-5457491384498115580",
"channelName" : "国际足坛-英超",
"channelNameSummary" : "国际足坛-英超",
"channelUrl" : "http:\/\/sports.sina.com.cn\/global\/index.shtml",
"author" : "WWW.SINA.COM.CN",
"tags" : [],
"desc" : "",
"emailed" : False,
"forwarded" : False,
"english" : False
}  , {
"index" : 15,
"articleIndex" : "47731",
"favor" :  False ,
     "read" : False,    
"title" : "短讯-利物浦1月欲购皇马大将 昔日功勋或重返安菲尔德",
"titleTip" : "短讯-利物浦1月欲购皇马大将 昔日功勋或重返安菲尔德",
"titleSummary" : "短讯-利物浦1月欲购皇马大将 昔日功勋或重返安菲尔德",
"descSummary" : "",
"url" : "http:\/\/go.rss.sina.com.cn\/redirect.php?url=http:\/\/sports.sina.com.cn\/g\/pl\/2013-10-14\/15186830653.shtml",
"pubDate" : "2013年10月14日 (2周前)",
"enterDate" : "384200:57:14",
"channelId" : "-5457491384498115580",
"channelName" : "国际足坛-英超",
"channelNameSummary" : "国际足坛-英超",
"channelUrl" : "http:\/\/sports.sina.com.cn\/global\/index.shtml",
"author" : "WWW.SINA.COM.CN",
"tags" : [],
"desc" : "",
"emailed" : False,
"forwarded" : False,
"english" : False
}  , {
"index" : 16,
"articleIndex" : "47730",
"favor" :  False ,
     "read" : False,    
"title" : "短讯-利物浦大将会踢球还会烤鸡 欲开加勒比主题餐馆",
"titleTip" : "短讯-利物浦大将会踢球还会烤鸡 欲开加勒比主题餐馆",
"titleSummary" : "短讯-利物浦大将会踢球还会烤鸡 欲开加勒比主题餐馆",
"descSummary" : "",
"url" : "http:\/\/go.rss.sina.com.cn\/redirect.php?url=http:\/\/sports.sina.com.cn\/g\/pl\/2013-10-14\/15106830632.shtml",
"pubDate" : "2013年10月14日 (2周前)",
"enterDate" : "384200:48:34",
"channelId" : "-5457491384498115580",
"channelName" : "国际足坛-英超",
"channelNameSummary" : "国际足坛-英超",
"channelUrl" : "http:\/\/sports.sina.com.cn\/global\/index.shtml",
"author" : "WWW.SINA.COM.CN",
"tags" : [],
"desc" : "",
"emailed" : False,
"forwarded" : False,
"english" : False
}  , {
"index" : 17,
"articleIndex" : "47729",
"favor" :  False ,
     "read" : False,    
"title" : "短讯-奇葩！妖星让曼联躺着赚钱 他踢一场红魔收2.5万",
"titleTip" : "短讯-奇葩！妖星让曼联躺着赚钱 他踢一场红魔收2.5万",
"titleSummary" : "短讯-奇葩！妖星让曼联躺着赚钱 他踢一场红魔收2.5万",
"descSummary" : "",
"url" : "http:\/\/go.rss.sina.com.cn\/redirect.php?url=http:\/\/sports.sina.com.cn\/g\/pl\/2013-10-14\/14566830604.shtml",
"pubDate" : "2013年10月14日 (2周前)",
"enterDate" : "384201:04:55",
"channelId" : "-5457491384498115580",
"channelName" : "国际足坛-英超",
"channelNameSummary" : "国际足坛-英超",
"channelUrl" : "http:\/\/sports.sina.com.cn\/global\/index.shtml",
"author" : "WWW.SINA.COM.CN",
"tags" : [],
"desc" : "",
"emailed" : False,
"forwarded" : False,
"english" : False
}  , {
"index" : 18,
"articleIndex" : "47728",
"favor" :  False ,
     "read" : False,    
"title" : "曼联购2200万巴萨飞翼 再砸3300万皇马大将+新齐达内",
"titleTip" : "曼联购2200万巴萨飞翼 再砸3300万皇马大将+新齐达内",
"titleSummary" : "曼联购2200万巴萨飞翼 再砸3300万皇马大将+新齐达内",
"descSummary" : "",
"url" : "http:\/\/go.rss.sina.com.cn\/redirect.php?url=http:\/\/sports.sina.com.cn\/g\/pl\/2013-10-14\/12596830521.shtml",
"pubDate" : "2013年10月14日 (2周前)",
"enterDate" : "384200:43:25",
"channelId" : "-5457491384498115580",
"channelName" : "国际足坛-英超",
"channelNameSummary" : "国际足坛-英超",
"channelUrl" : "http:\/\/sports.sina.com.cn\/global\/index.shtml",
"author" : "WWW.SINA.COM.CN",
"tags" : [],
"desc" : "",
"emailed" : False,
"forwarded" : False,
"english" : False
}  , {
"index" : 19,
"articleIndex" : "47727",
"favor" :  False ,
     "read" : False,    
"title" : "谢丽尔又分手了！粉拳掌劈半裸男 匍匐在肉上(图)",
"titleTip" : "谢丽尔又分手了！粉拳掌劈半裸男 匍匐在肉上(图)",
"titleSummary" : "谢丽尔又分手了！粉拳掌劈半裸男 匍匐在肉上(图)",
"descSummary" : "",
"url" : "http:\/\/go.rss.sina.com.cn\/redirect.php?url=http:\/\/sports.sina.com.cn\/g\/pl\/2013-10-14\/12166830493.shtml",
"pubDate" : "2013年10月14日 (2周前)",
"enterDate" : "384201:00:05",
"channelId" : "-5457491384498115580",
"channelName" : "国际足坛-英超",
"channelNameSummary" : "国际足坛-英超",
"channelUrl" : "http:\/\/sports.sina.com.cn\/global\/index.shtml",
"author" : "WWW.SINA.COM.CN",
"tags" : [],
"desc" : "",
"emailed" : False,
"forwarded" : False,
"english" : False
} ]
}
