{
"mode" : {"viewTitle" : 1,   "viewNew" : 0,  "pageIndex" : 2 },
 "channel" : {"id" : "-5457491384498115580", "booked" : False, "subNumber" : 1060, "name" : "国际足坛-英超", "url" : "http:\/\/sports.sina.com.cn\/global\/index.shtml", "feed" : "http:\/\/rss.sina.com.cn\/sports\/global\/england.xml", "author" : "WWW.SINA.COM.CN", "desc" : "国际足坛-英超", "imageUrl" : "http:\/\/www.sinaimg.cn\/ty\/deco\/2010\/0601\/logo_home_sports_nonike2.gif", "postPerWeek" : "162", "lastCrawTime" : "2013年10月15日 (2周前)", "crawDateTime" : "2013年10月15日 (2周前)", "lastHttpCode" : "200"}, "page" : {
"startIndex" : 20,
"totalCount" : 5000,
"pageIndex" : 2,
"lastPage" : 250,
"pageSize" : 20,
"english" :  False },
 "unreadNum" : 0, "shotIndex" : -1,
"articles" : [
{
"index" : 0,
"articleIndex" : "47723",
"favor" :  False ,
     "read" : False,    
"title" : "神预言！一巨星阵穿越11年 14神童造4亿欧洲红魔",
"titleTip" : "神预言！一巨星阵穿越11年 14神童造4亿欧洲红魔",
"titleSummary" : "神预言！一巨星阵穿越11年 14神童造4亿欧洲红魔",
"descSummary" : "",
"url" : "http:\/\/go.rss.sina.com.cn\/redirect.php?url=http:\/\/sports.sina.com.cn\/g\/pl\/2013-10-14\/10226830240.shtml",
"pubDate" : "2013年10月14日 (2周前)",
"enterDate" : "384198:18:38",
"channelId" : "-5457491384498115580",
"channelName" : "国际足坛-英超",
"channelNameSummary" : "国际足坛-英超",
"channelUrl" : "http:\/\/sports.sina.com.cn\/global\/index.shtml",
"author" : "WWW.SINA.COM.CN",
"tags" : [],
"desc" : "",
"emailed" : False,
"forwarded" : False,
"english" : False
}  , {
"index" : 1,
"articleIndex" : "47726",
"favor" :  False ,
     "read" : False,    
"title" : "短讯-英超法国名将遇车祸 奥迪被出租撞凹(图)",
"titleTip" : "短讯-英超法国名将遇车祸 奥迪被出租撞凹(图)",
"titleSummary" : "短讯-英超法国名将遇车祸 奥迪被出租撞凹(图)",
"descSummary" : "",
"url" : "http:\/\/go.rss.sina.com.cn\/redirect.php?url=http:\/\/sports.sina.com.cn\/g\/pl\/2013-10-14\/12156830492.shtml",
"pubDate" : "2013年10月14日 (2周前)",
"enterDate" : "384200:59:04",
"channelId" : "-5457491384498115580",
"channelName" : "国际足坛-英超",
"channelNameSummary" : "国际足坛-英超",
"channelUrl" : "http:\/\/sports.sina.com.cn\/global\/index.shtml",
"author" : "WWW.SINA.COM.CN",
"tags" : [],
"desc" : "",
"emailed" : False,
"forwarded" : False,
"english" : False
}  , {
"index" : 2,
"articleIndex" : "47725",
"favor" :  False ,
     "read" : False,    
"title" : "切尔西1月4500万2豪购！挖曼联错失兽腰+46场37球妖锋",
"titleTip" : "切尔西1月4500万2豪购！挖曼联错失兽腰+46场37球妖锋",
"titleSummary" : "切尔西1月4500万2豪购！挖曼联错失兽腰+46场37球妖锋",
"descSummary" : "",
"url" : "http:\/\/go.rss.sina.com.cn\/redirect.php?url=http:\/\/sports.sina.com.cn\/g\/pl\/2013-10-14\/12096830483.shtml",
"pubDate" : "2013年10月14日 (2周前)",
"enterDate" : "384200:53:31",
"channelId" : "-5457491384498115580",
"channelName" : "国际足坛-英超",
"channelNameSummary" : "国际足坛-英超",
"channelUrl" : "http:\/\/sports.sina.com.cn\/global\/index.shtml",
"author" : "WWW.SINA.COM.CN",
"tags" : [],
"desc" : "",
"emailed" : False,
"forwarded" : False,
"english" : False
}  , {
"index" : 3,
"articleIndex" : "47724",
"favor" :  False ,
     "read" : False,    
"title" : "曼奇尼来挖角了！预算3000万砸曼城3大旧部+曼联1大将",
"titleTip" : "曼奇尼来挖角了！预算3000万砸曼城3大旧部+曼联1大将",
"titleSummary" : "曼奇尼来挖角了！预算3000万砸曼城3大旧部+曼联1大将",
"descSummary" : "",
"url" : "http:\/\/go.rss.sina.com.cn\/redirect.php?url=http:\/\/sports.sina.com.cn\/g\/pl\/2013-10-14\/11116830341.shtml",
"pubDate" : "2013年10月14日 (2周前)",
"enterDate" : "384200:55:28",
"channelId" : "-5457491384498115580",
"channelName" : "国际足坛-英超",
"channelNameSummary" : "国际足坛-英超",
"channelUrl" : "http:\/\/sports.sina.com.cn\/global\/index.shtml",
"author" : "WWW.SINA.COM.CN",
"tags" : [],
"desc" : "",
"emailed" : False,
"forwarded" : False,
"english" : False
}  , {
"index" : 4,
"articleIndex" : "47722",
"favor" :  False ,
     "read" : False,    
"title" : "利物浦曝1月出售苏亚雷斯:标价5000万 阿森纳皇马争购",
"titleTip" : "利物浦曝1月出售苏亚雷斯:标价5000万 阿森纳皇马争购",
"titleSummary" : "利物浦曝1月出售苏亚雷斯:标价5000万 阿森纳皇马争购",
"descSummary" : "",
"url" : "http:\/\/go.rss.sina.com.cn\/redirect.php?url=http:\/\/sports.sina.com.cn\/g\/pl\/2013-10-14\/10136830209.shtml",
"pubDate" : "2013年10月14日 (2周前)",
"enterDate" : "384199:27:46",
"channelId" : "-5457491384498115580",
"channelName" : "国际足坛-英超",
"channelNameSummary" : "国际足坛-英超",
"channelUrl" : "http:\/\/sports.sina.com.cn\/global\/index.shtml",
"author" : "WWW.SINA.COM.CN",
"tags" : [],
"desc" : "",
"emailed" : False,
"forwarded" : False,
"english" : False
}  , {
"index" : 5,
"articleIndex" : "47721",
"favor" :  False ,
     "read" : False,    
"title" : "英联赛群殴！野猪戴维斯肘击对手血狂飙 被罚下(多图)",
"titleTip" : "英联赛群殴！野猪戴维斯肘击对手血狂飙 被罚下(多图)",
"titleSummary" : "英联赛群殴！野猪戴维斯肘击对手血狂飙 被罚下(多图)",
"descSummary" : "",
"url" : "http:\/\/go.rss.sina.com.cn\/redirect.php?url=http:\/\/slide.sports.sina.com.cn\/g_pl\/slide_2_730_54564.html",
"pubDate" : "2013年10月14日 (2周前)",
"enterDate" : "384200:55:16",
"channelId" : "-5457491384498115580",
"channelName" : "国际足坛-英超",
"channelNameSummary" : "国际足坛-英超",
"channelUrl" : "http:\/\/sports.sina.com.cn\/global\/index.shtml",
"author" : "WWW.SINA.COM.CN",
"tags" : [],
"desc" : "",
"emailed" : False,
"forwarded" : False,
"english" : False
}  , {
"index" : 6,
"articleIndex" : "47720",
"favor" :  False ,
     "read" : False,    
"title" : "先别美！英格兰不赢就恐下地狱！ 附加赛恐碰两大克星",
"titleTip" : "先别美！英格兰不赢就恐下地狱！ 附加赛恐碰两大克星",
"titleSummary" : "先别美！英格兰不赢就恐下地狱！ 附加赛恐碰两大克星",
"descSummary" : "",
"url" : "http:\/\/go.rss.sina.com.cn\/redirect.php?url=http:\/\/sports.sina.com.cn\/g\/2013-10-14\/09336830107.shtml",
"pubDate" : "2013年10月14日 (2周前)",
"enterDate" : "384200:48:09",
"channelId" : "-5457491384498115580",
"channelName" : "国际足坛-英超",
"channelNameSummary" : "国际足坛-英超",
"channelUrl" : "http:\/\/sports.sina.com.cn\/global\/index.shtml",
"author" : "WWW.SINA.COM.CN",
"tags" : [],
"desc" : "",
"emailed" : False,
"forwarded" : False,
"english" : False
}  , {
"index" : 7,
"articleIndex" : "47719",
"favor" :  False ,
     "read" : False,    
"title" : "曼联续约支柱:涨薪5倍 弗格森1800万豪购被莫耶斯驳回",
"titleTip" : "曼联续约支柱:涨薪5倍 弗格森1800万豪购被莫耶斯驳回",
"titleSummary" : "曼联续约支柱:涨薪5倍 弗格森1800万豪购被莫耶斯驳回",
"descSummary" : "",
"url" : "http:\/\/go.rss.sina.com.cn\/redirect.php?url=http:\/\/sports.sina.com.cn\/g\/pl\/2013-10-14\/09176830070.shtml",
"pubDate" : "2013年10月14日 (2周前)",
"enterDate" : "384201:02:17",
"channelId" : "-5457491384498115580",
"channelName" : "国际足坛-英超",
"channelNameSummary" : "国际足坛-英超",
"channelUrl" : "http:\/\/sports.sina.com.cn\/global\/index.shtml",
"author" : "WWW.SINA.COM.CN",
"tags" : [],
"desc" : "",
"emailed" : False,
"forwarded" : False,
"english" : False
}  , {
"index" : 8,
"articleIndex" : "47718",
"favor" :  False ,
     "read" : False,    
"title" : "英名帅偷情！竟潜规则女下属！车内激战20分钟(图)",
"titleTip" : "英名帅偷情！竟潜规则女下属！车内激战20分钟(图)",
"titleSummary" : "英名帅偷情！竟潜规则女下属！车内激战20分钟(图)",
"descSummary" : "",
"url" : "http:\/\/go.rss.sina.com.cn\/redirect.php?url=http:\/\/sports.sina.com.cn\/g\/pl\/2013-10-14\/09166830063.shtml",
"pubDate" : "2013年10月14日 (2周前)",
"enterDate" : "384201:00:37",
"channelId" : "-5457491384498115580",
"channelName" : "国际足坛-英超",
"channelNameSummary" : "国际足坛-英超",
"channelUrl" : "http:\/\/sports.sina.com.cn\/global\/index.shtml",
"author" : "WWW.SINA.COM.CN",
"tags" : [],
"desc" : "",
"emailed" : False,
"forwarded" : False,
"english" : False
}  , {
"index" : 9,
"articleIndex" : "47717",
"favor" :  False ,
     "read" : False,    
"title" : "高清-英超宝贝众姐妹半裸 托奶挤爆巨球黑丝勒肉臀",
"titleTip" : "高清-英超宝贝众姐妹半裸 托奶挤爆巨球黑丝勒肉臀",
"titleSummary" : "高清-英超宝贝众姐妹半裸 托奶挤爆巨球黑丝勒肉臀",
"descSummary" : "",
"url" : "http:\/\/go.rss.sina.com.cn\/redirect.php?url=http:\/\/slide.sports.sina.com.cn\/g_pl\/slide_2_730_54559.html",
"pubDate" : "2013年10月14日 (2周前)",
"enterDate" : "384200:55:35",
"channelId" : "-5457491384498115580",
"channelName" : "国际足坛-英超",
"channelNameSummary" : "国际足坛-英超",
"channelUrl" : "http:\/\/sports.sina.com.cn\/global\/index.shtml",
"author" : "WWW.SINA.COM.CN",
"tags" : [],
"desc" : "",
"emailed" : False,
"forwarded" : False,
"english" : False
}  , {
"index" : 10,
"articleIndex" : "47716",
"favor" :  False ,
     "read" : False,    
"title" : "鲁尼还是要走！拒续约曼联 经纪人已暗箱操作转会",
"titleTip" : "鲁尼还是要走！拒续约曼联 经纪人已暗箱操作转会",
"titleSummary" : "鲁尼还是要走！拒续约曼联 经纪人已暗箱操作转会",
"descSummary" : "",
"url" : "http:\/\/go.rss.sina.com.cn\/redirect.php?url=http:\/\/sports.sina.com.cn\/g\/pl\/2013-10-14\/08216829901.shtml",
"pubDate" : "2013年10月14日 (2周前)",
"enterDate" : "384200:36:18",
"channelId" : "-5457491384498115580",
"channelName" : "国际足坛-英超",
"channelNameSummary" : "国际足坛-英超",
"channelUrl" : "http:\/\/sports.sina.com.cn\/global\/index.shtml",
"author" : "WWW.SINA.COM.CN",
"tags" : [],
"desc" : "",
"emailed" : False,
"forwarded" : False,
"english" : False
}  , {
"index" : 11,
"articleIndex" : "47715",
"favor" :  False ,
     "read" : False,    
"title" : "皮雷:阿森纳本赛季英超夺冠 曝厄齐尔险700万加盟巴萨",
"titleTip" : "皮雷:阿森纳本赛季英超夺冠 曝厄齐尔险700万加盟巴萨",
"titleSummary" : "皮雷:阿森纳本赛季英超夺冠 曝厄齐尔险700万加盟巴萨",
"descSummary" : "",
"url" : "http:\/\/go.rss.sina.com.cn\/redirect.php?url=http:\/\/sports.sina.com.cn\/g\/pl\/2013-10-14\/08146829881.shtml",
"pubDate" : "2013年10月14日 (2周前)",
"enterDate" : "384200:59:25",
"channelId" : "-5457491384498115580",
"channelName" : "国际足坛-英超",
"channelNameSummary" : "国际足坛-英超",
"channelUrl" : "http:\/\/sports.sina.com.cn\/global\/index.shtml",
"author" : "WWW.SINA.COM.CN",
"tags" : [],
"desc" : "",
"emailed" : False,
"forwarded" : False,
"english" : False
}  , {
"index" : 12,
"articleIndex" : "47714",
"favor" :  False ,
     "read" : False,    
"title" : "短讯-大蝙蝠来袭 利物浦扩建主场遇阻 须保护动物(图)",
"titleTip" : "短讯-大蝙蝠来袭 利物浦扩建主场遇阻 须保护动物(图)",
"titleSummary" : "短讯-大蝙蝠来袭 利物浦扩建主场遇阻 须保护动物(图)",
"descSummary" : "",
"url" : "http:\/\/go.rss.sina.com.cn\/redirect.php?url=http:\/\/sports.sina.com.cn\/g\/pl\/2013-10-14\/02176829572.shtml",
"pubDate" : "2013年10月14日 (2周前)",
"enterDate" : "384195:01:41",
"channelId" : "-5457491384498115580",
"channelName" : "国际足坛-英超",
"channelNameSummary" : "国际足坛-英超",
"channelUrl" : "http:\/\/sports.sina.com.cn\/global\/index.shtml",
"author" : "WWW.SINA.COM.CN",
"tags" : [],
"desc" : "",
"emailed" : False,
"forwarded" : False,
"english" : False
}  , {
"index" : 13,
"articleIndex" : "47713",
"favor" :  False ,
     "read" : False,    
"title" : "曼联新红星成名路：单场进18球 鹰爸教育成才(图)",
"titleTip" : "曼联新红星成名路：单场进18球 鹰爸教育成才(图)",
"titleSummary" : "曼联新红星成名路：单场进18球 鹰爸教育成才(图)",
"descSummary" : "",
"url" : "http:\/\/go.rss.sina.com.cn\/redirect.php?url=http:\/\/sports.sina.com.cn\/g\/pl\/2013-10-13\/12386828650.shtml",
"pubDate" : "2013年10月13日 (2周前)",
"enterDate" : "384200:56:32",
"channelId" : "-5457491384498115580",
"channelName" : "国际足坛-英超",
"channelNameSummary" : "国际足坛-英超",
"channelUrl" : "http:\/\/sports.sina.com.cn\/global\/index.shtml",
"author" : "WWW.SINA.COM.CN",
"tags" : [],
"desc" : "",
"emailed" : False,
"forwarded" : False,
"english" : False
}  , {
"index" : 14,
"articleIndex" : "47712",
"favor" :  False ,
     "read" : False,    
"title" : "励志！英红星重演小贝传奇 曾因个矮被阿森纳拒绝",
"titleTip" : "励志！英红星重演小贝传奇 曾因个矮被阿森纳拒绝",
"titleSummary" : "励志！英红星重演小贝传奇 曾因个矮被阿森纳拒绝",
"descSummary" : "",
"url" : "http:\/\/go.rss.sina.com.cn\/redirect.php?url=http:\/\/sports.sina.com.cn\/g\/2013-10-13\/11376828607.shtml",
"pubDate" : "2013年10月13日 (2周前)",
"enterDate" : "384200:55:20",
"channelId" : "-5457491384498115580",
"channelName" : "国际足坛-英超",
"channelNameSummary" : "国际足坛-英超",
"channelUrl" : "http:\/\/sports.sina.com.cn\/global\/index.shtml",
"author" : "WWW.SINA.COM.CN",
"tags" : [],
"desc" : "",
"emailed" : False,
"forwarded" : False,
"english" : False
}  , {
"index" : 15,
"articleIndex" : "47711",
"favor" :  False ,
     "read" : False,    
"title" : "鲁尼点出英格兰新版8大金刚 英格兰突折2将急召1人",
"titleTip" : "鲁尼点出英格兰新版8大金刚 英格兰突折2将急召1人",
"titleSummary" : "鲁尼点出英格兰新版8大金刚 英格兰突折2将急召1人",
"descSummary" : "",
"url" : "http:\/\/go.rss.sina.com.cn\/redirect.php?url=http:\/\/sports.sina.com.cn\/g\/2013-10-13\/10596828570.shtml",
"pubDate" : "2013年10月13日 (2周前)",
"enterDate" : "384201:17:25",
"channelId" : "-5457491384498115580",
"channelName" : "国际足坛-英超",
"channelNameSummary" : "国际足坛-英超",
"channelUrl" : "http:\/\/sports.sina.com.cn\/global\/index.shtml",
"author" : "WWW.SINA.COM.CN",
"tags" : [],
"desc" : "",
"emailed" : False,
"forwarded" : False,
"english" : False
}  , {
"index" : 16,
"articleIndex" : "47710",
"favor" :  False ,
     "read" : False,    
"title" : "高清图-英超宝贝写真豪放脱衣 人间胸器逆天来袭",
"titleTip" : "高清图-英超宝贝写真豪放脱衣 人间胸器逆天来袭",
"titleSummary" : "高清图-英超宝贝写真豪放脱衣 人间胸器逆天来袭",
"descSummary" : "",
"url" : "http:\/\/go.rss.sina.com.cn\/redirect.php?url=http:\/\/slide.sports.sina.com.cn\/g_pl\/slide_2_730_54504.html",
"pubDate" : "2013年10月13日 (2周前)",
"enterDate" : "384200:54:56",
"channelId" : "-5457491384498115580",
"channelName" : "国际足坛-英超",
"channelNameSummary" : "国际足坛-英超",
"channelUrl" : "http:\/\/sports.sina.com.cn\/global\/index.shtml",
"author" : "WWW.SINA.COM.CN",
"tags" : [],
"desc" : "",
"emailed" : False,
"forwarded" : False,
"english" : False
}  , {
"index" : 17,
"articleIndex" : "47709",
"favor" :  False ,
     "read" : False,    
"title" : "切尔西第一杀星玩懵韩国 巴西世界杯一靠内马尔二靠他",
"titleTip" : "切尔西第一杀星玩懵韩国 巴西世界杯一靠内马尔二靠他",
"titleSummary" : "切尔西第一杀星玩懵韩国 巴西世界杯一靠内马尔二靠他",
"descSummary" : "",
"url" : "http:\/\/go.rss.sina.com.cn\/redirect.php?url=http:\/\/sports.sina.com.cn\/g\/2013-10-12\/22056827823.shtml",
"pubDate" : "2013年10月12日 (2周前)",
"enterDate" : "384200:55:51",
"channelId" : "-5457491384498115580",
"channelName" : "国际足坛-英超",
"channelNameSummary" : "国际足坛-英超",
"channelUrl" : "http:\/\/sports.sina.com.cn\/global\/index.shtml",
"author" : "WWW.SINA.COM.CN",
"tags" : [],
"desc" : "",
"emailed" : False,
"forwarded" : False,
"english" : False
}  , {
"index" : 18,
"articleIndex" : "47708",
"favor" :  False ,
     "read" : False,    
"title" : "鲁尼娇妻海边度假微露一对酥胸 前凸后翘尽显性感(图)",
"titleTip" : "鲁尼娇妻海边度假微露一对酥胸 前凸后翘尽显性感(图)",
"titleSummary" : "鲁尼娇妻海边度假微露一对酥胸 前凸后翘尽显性感(图)",
"descSummary" : "",
"url" : "http:\/\/go.rss.sina.com.cn\/redirect.php?url=http:\/\/sports.sina.com.cn\/g\/pl\/2013-10-11\/10306824614.shtml",
"pubDate" : "2013年10月11日 (2周前)",
"enterDate" : "384173:52:02",
"channelId" : "-5457491384498115580",
"channelName" : "国际足坛-英超",
"channelNameSummary" : "国际足坛-英超",
"channelUrl" : "http:\/\/sports.sina.com.cn\/global\/index.shtml",
"author" : "WWW.SINA.COM.CN",
"tags" : [],
"desc" : "",
"emailed" : False,
"forwarded" : False,
"english" : False
}  , {
"index" : 19,
"articleIndex" : "47707",
"favor" :  False ,
     "read" : False,    
"title" : "合同到期23巨星可凑1强队！皇马巴萨脊梁 曼联红星",
"titleTip" : "合同到期23巨星可凑1强队！皇马巴萨脊梁 曼联红星",
"titleSummary" : "合同到期23巨星可凑1强队！皇马巴萨脊梁 曼联红星",
"descSummary" : "",
"url" : "http:\/\/go.rss.sina.com.cn\/redirect.php?url=http:\/\/sports.sina.com.cn\/g\/pl\/2013-10-11\/10226824594.shtml",
"pubDate" : "2013年10月11日 (2周前)",
"enterDate" : "384173:43:56",
"channelId" : "-5457491384498115580",
"channelName" : "国际足坛-英超",
"channelNameSummary" : "国际足坛-英超",
"channelUrl" : "http:\/\/sports.sina.com.cn\/global\/index.shtml",
"author" : "WWW.SINA.COM.CN",
"tags" : [],
"desc" : "",
"emailed" : False,
"forwarded" : False,
"english" : False
} ]
}
