{
"mode" : {"viewTitle" : 1,   "viewNew" : 0,  "pageIndex" : 1 },
 "channel" : {"id" : "-1049174837888639978", "booked" : False, "subNumber" : 1, "name" : "育儿知识-新浪育儿", "url" : "http:\/\/baby.sina.com.cn\/news\/list.html", "feed" : "http:\/\/rss.sina.com.cn\/baby\/news\/guide.xml", "author" : "", "desc" : "育儿知识", "imageUrl" : "http:\/\/www.sinaimg.cn\/bb\/deco\/2012\/0917\/b_m_02.gif", "postPerWeek" : "0", "lastCrawTime" : "2013年10月20日 (1周前)", "crawDateTime" : "2013年10月20日 (1周前)", "lastHttpCode" : "200"}, "page" : {
"startIndex" : 0,
"totalCount" : 5000,
"pageIndex" : 1,
"lastPage" : 250,
"pageSize" : 20,
"english" :  False },
 "unreadNum" : 0, "shotIndex" : -1,
"articles" : [
{
"index" : 0,
"articleIndex" : "8247",
"favor" :  False ,
     "read" : False,    
"title" : "对早教认识的五大误区",
"titleTip" : "对早教认识的五大误区",
"titleSummary" : "对早教认识的五大误区",
"descSummary" : "误区1.早教课的主体是孩子 很多家长以为，上早教课就是把孩子扔到课堂上，去...",
"url" : "http:\/\/go.rss.sina.com.cn\/redirect.php?url=http:\/\/baby.sina.com.cn\/edu\/13\/1910\/2013-10-19\/1104259191.shtml",
"pubDate" : "2013年10月19日 (1周前)",
"enterDate" : "384200:48:43",
"channelId" : "-1049174837888639978",
"channelName" : "育儿知识-新浪育儿",
"channelNameSummary" : "育儿知识-新浪育儿",
"channelUrl" : "http:\/\/baby.sina.com.cn\/news\/list.html",
"author" : "WWW.SINA.COM.CN",
"tags" : [],
"desc" : "误区1.早教课的主体是孩子 很多家长以为，上早教课就是把孩子扔到课堂上，去跟着老师学东西。所以，自己心不在焉，不能全身心地投入，在一旁聊天或随意走动或者打电话。其实，早教课，教的是家长，不是孩子！ 早教课的意义在于帮助父母建立科学的早期教育理念，了解....",
"emailed" : False,
"forwarded" : False,
"english" : False
}  , {
"index" : 1,
"articleIndex" : "8246",
"favor" :  False ,
     "read" : False,    
"title" : "培养宝宝艺术潜能3点注意",
"titleTip" : "培养宝宝艺术潜能3点注意",
"titleSummary" : "培养宝宝艺术潜能3点注意",
"descSummary" : "隔壁邻居家的女儿刚刚三岁。一天，她妈妈高兴地对我说：\u201C我们家囡囡将来肯...",
"url" : "http:\/\/go.rss.sina.com.cn\/redirect.php?url=http:\/\/baby.sina.com.cn\/edu\/13\/1910\/2013-10-19\/1102259190.shtml",
"pubDate" : "2013年10月19日 (1周前)",
"enterDate" : "384201:16:29",
"channelId" : "-1049174837888639978",
"channelName" : "育儿知识-新浪育儿",
"channelNameSummary" : "育儿知识-新浪育儿",
"channelUrl" : "http:\/\/baby.sina.com.cn\/news\/list.html",
"author" : "WWW.SINA.COM.CN",
"tags" : [],
"desc" : "隔壁邻居家的女儿刚刚三岁。 一天，她妈妈高兴地对我说：\u201C我们家囡囡将来肯定能成为舞蹈家，她一听到音乐就手舞足蹈的，瞧那兴奋劲，还很有节奏感呢！\u201D说完问我要不要给宝宝报个舞蹈班培养一下。 像囡囡妈这样的父母有很多，发现自己的宝宝喜欢随歌起舞或涂涂....",
"emailed" : False,
"forwarded" : False,
"english" : False
}  , {
"index" : 2,
"articleIndex" : "8245",
"favor" :  False ,
     "read" : False,    
"title" : "备孕爸爸勿碰5种食物",
"titleTip" : "备孕爸爸勿碰5种食物",
"titleSummary" : "备孕爸爸勿碰5种食物",
"descSummary" : "核心提示：精子在与卵子接触时会释放出某些物质突破卵子的外层薄膜，钻进卵子使...",
"url" : "http:\/\/go.rss.sina.com.cn\/redirect.php?url=http:\/\/baby.sina.com.cn\/health\/13\/1910\/2013-10-19\/1100259189.shtml",
"pubDate" : "2013年10月19日 (1周前)",
"enterDate" : "384201:14:38",
"channelId" : "-1049174837888639978",
"channelName" : "育儿知识-新浪育儿",
"channelNameSummary" : "育儿知识-新浪育儿",
"channelUrl" : "http:\/\/baby.sina.com.cn\/news\/list.html",
"author" : "WWW.SINA.COM.CN",
"tags" : [],
"desc" : "核心提示：精子在与卵子接触时会释放出某些物质突破卵子的外层薄膜，钻进卵子使其受精。大豆、啤酒中含有仿荷尔蒙化学物质，试验显示，精子只要接触到极少量这类化学物质，就会太早消耗能量，使精子与卵子的给合率下降。 谁说备孕期间只有准妈妈的饮食需要关注，准爸爸....",
"emailed" : False,
"forwarded" : False,
"english" : False
}  , {
"index" : 3,
"articleIndex" : "8244",
"favor" :  False ,
     "read" : False,    
"title" : "多次流产后应该怎样备孕？",
"titleTip" : "多次流产后应该怎样备孕？",
"titleSummary" : "多次流产后应该怎样备孕？",
"descSummary" : "现代社会，由于性观念的开放，许多女性会出现多次怀孕、多次人流的情况，...",
"url" : "http:\/\/go.rss.sina.com.cn\/redirect.php?url=http:\/\/baby.sina.com.cn\/health\/13\/1910\/2013-10-19\/1059259188.shtml",
"pubDate" : "2013年10月19日 (1周前)",
"enterDate" : "384201:13:23",
"channelId" : "-1049174837888639978",
"channelName" : "育儿知识-新浪育儿",
"channelNameSummary" : "育儿知识-新浪育儿",
"channelUrl" : "http:\/\/baby.sina.com.cn\/news\/list.html",
"author" : "WWW.SINA.COM.CN",
"tags" : [],
"desc" : "现代社会，由于性观念的开放，许多女性会出现多次怀孕、多次人流的情况，要知道，这样对身体的损害是很大的，等到真正想要孩子的时候，也许会后悔莫及。那么，多次人流后应该如何健康备孕呢？ 人体怀孕是一个很复杂的生理变化过程，其中表现在内分泌方面的有孕激素增多....",
"emailed" : False,
"forwarded" : False,
"english" : False
}  , {
"index" : 4,
"articleIndex" : "8243",
"favor" :  False ,
     "read" : False,    
"title" : "爸爸10个举动影响BB智力",
"titleTip" : "爸爸10个举动影响BB智力",
"titleSummary" : "爸爸10个举动影响BB智力",
"descSummary" : "研究表明，宝宝学习好，跟爸爸限制看电视的时间和内容有关。千万不要让电视...",
"url" : "http:\/\/go.rss.sina.com.cn\/redirect.php?url=http:\/\/baby.sina.com.cn\/edu\/13\/1910\/2013-10-19\/1057259187.shtml",
"pubDate" : "2013年10月19日 (1周前)",
"enterDate" : "384201:11:41",
"channelId" : "-1049174837888639978",
"channelName" : "育儿知识-新浪育儿",
"channelNameSummary" : "育儿知识-新浪育儿",
"channelUrl" : "http:\/\/baby.sina.com.cn\/news\/list.html",
"author" : "WWW.SINA.COM.CN",
"tags" : [],
"desc" : "研究表明，宝宝学习好，跟爸爸限制看电视的时间和内容有关。千万不要让电视成为宝宝的\"姐姐\"，即使看电视，宝宝也要和你一起看。你可以用你的方式来讲解电视的内容，甚至和他讨论，这样，看电视也能成为学习的经验。 1、不要吝啬你对宝宝的爱 安全的依恋关系是....",
"emailed" : False,
"forwarded" : False,
"english" : False
}  , {
"index" : 5,
"articleIndex" : "8242",
"favor" :  False ,
     "read" : False,    
"title" : "精选52条教育男孩子的建议",
"titleTip" : "精选52条教育男孩子的建议",
"titleSummary" : "精选52条教育男孩子的建议",
"descSummary" : "近几年，\u201C男孩危机\u201D已受到高度重视。\u201C男孩危机\u201D，从某种程度上更是一...",
"url" : "http:\/\/go.rss.sina.com.cn\/redirect.php?url=http:\/\/baby.sina.com.cn\/edu\/13\/1910\/2013-10-19\/1056259186.shtml",
"pubDate" : "2013年10月19日 (1周前)",
"enterDate" : "384201:11:05",
"channelId" : "-1049174837888639978",
"channelName" : "育儿知识-新浪育儿",
"channelNameSummary" : "育儿知识-新浪育儿",
"channelUrl" : "http:\/\/baby.sina.com.cn\/news\/list.html",
"author" : "WWW.SINA.COM.CN",
"tags" : [],
"desc" : "近几年，\u201C男孩危机\u201D已受到高度重视。\u201C男孩危机\u201D，从某种程度上更是一种教育危机，是家庭、学校和社会多方面因素造成的教育危机。家庭教育在 孩子的人生起步阶段扮演着重要角色，父母应该给孩子更开放、更自由的成长环境，观察自己孩子的潜能和优势，并努力将之发掘培养壮....",
"emailed" : False,
"forwarded" : False,
"english" : False
}  , {
"index" : 6,
"articleIndex" : "8241",
"favor" :  False ,
     "read" : False,    
"title" : "九大绝技哄小宝宝乖乖睡",
"titleTip" : "九大绝技哄小宝宝乖乖睡",
"titleSummary" : "九大绝技哄小宝宝乖乖睡",
"descSummary" : "如何哄宝贝睡觉，一直是妈妈们头痛的问题，如果小的时候不养成良好的睡眠规...",
"url" : "http:\/\/go.rss.sina.com.cn\/redirect.php?url=http:\/\/baby.sina.com.cn\/health\/13\/1910\/2013-10-19\/1055259185.shtml",
"pubDate" : "2013年10月19日 (1周前)",
"enterDate" : "384201:10:01",
"channelId" : "-1049174837888639978",
"channelName" : "育儿知识-新浪育儿",
"channelNameSummary" : "育儿知识-新浪育儿",
"channelUrl" : "http:\/\/baby.sina.com.cn\/news\/list.html",
"author" : "WWW.SINA.COM.CN",
"tags" : [],
"desc" : "如何哄宝贝睡觉，一直是妈妈们头痛的问题，如果小的时候不养成良好的睡眠规律，那么宝宝长大了，也就不会好好睡觉。可有些宝宝似乎是天生的精力旺盛，哄他们入睡，真是难上加难。在这里，特别献上几招哄睡绝技，以供各位小妈们参考。 招数一：适宜的睡眠环境 3....",
"emailed" : False,
"forwarded" : False,
"english" : False
}  , {
"index" : 7,
"articleIndex" : "8240",
"favor" :  False ,
     "read" : False,    
"title" : "出生第一口，先喂水？先喂奶？",
"titleTip" : "出生第一口，先喂水？先喂奶？",
"titleSummary" : "出生第一口，先喂水？先喂奶？",
"descSummary" : "喝水、喝母乳、喝牛奶\u2026\u2026孕妈晓莉的预产期在本月23日，一家人都翘...",
"url" : "http:\/\/go.rss.sina.com.cn\/redirect.php?url=http:\/\/baby.sina.com.cn\/health\/13\/1910\/2013-10-19\/1055259184.shtml",
"pubDate" : "2013年10月19日 (1周前)",
"enterDate" : "384201:09:19",
"channelId" : "-1049174837888639978",
"channelName" : "育儿知识-新浪育儿",
"channelNameSummary" : "育儿知识-新浪育儿",
"channelUrl" : "http:\/\/baby.sina.com.cn\/news\/list.html",
"author" : "WWW.SINA.COM.CN",
"tags" : [],
"desc" : "喝水、喝母乳、喝牛奶\u2026\u2026孕妈晓莉的预产期在本月23日，一家人都翘首以盼。但是，关于宝宝出生的第一口应该先喝啥，大家却众说纷纭争执不下，\u201C有的妈妈说是先喝奶粉，家里的长辈说是喝水，医生说该喝母乳，到底该先喝啥，我们还真弄不懂。\u201D 妈咪经验 她们的宝....",
"emailed" : False,
"forwarded" : False,
"english" : False
}  , {
"index" : 8,
"articleIndex" : "8239",
"favor" :  False ,
     "read" : False,    
"title" : "产后使用收腹带需视个人情况",
"titleTip" : "产后使用收腹带需视个人情况",
"titleSummary" : "产后使用收腹带需视个人情况",
"descSummary" : "坐月子准备一条腹带 准妈妈最害怕的就是生产后体形走样了，绑腹带是快...",
"url" : "http:\/\/go.rss.sina.com.cn\/redirect.php?url=http:\/\/baby.sina.com.cn\/health\/13\/1810\/2013-10-18\/1107259183.shtml",
"pubDate" : "2013年10月18日 (1周前)",
"enterDate" : "384200:55:07",
"channelId" : "-1049174837888639978",
"channelName" : "育儿知识-新浪育儿",
"channelNameSummary" : "育儿知识-新浪育儿",
"channelUrl" : "http:\/\/baby.sina.com.cn\/news\/list.html",
"author" : "WWW.SINA.COM.CN",
"tags" : [],
"desc" : "坐月子准备一条腹带 准妈妈最害怕的就是生产后体形走样了，绑腹带是快速恢复体形的一种物理方式，另外在坐月子期间绑腹带不仅为了恢复体形最重要是能帮助内脏回位避免产后子宫下垂。 材料：传统的腹带是一条透气吸汗白棉布，长约9米、宽14厘米。(老人与中医建议....",
"emailed" : False,
"forwarded" : False,
"english" : False
}  , {
"index" : 9,
"articleIndex" : "8238",
"favor" :  False ,
     "read" : False,    
"title" : "产后新妈妈刷牙漱口有讲究",
"titleTip" : "产后新妈妈刷牙漱口有讲究",
"titleSummary" : "产后新妈妈刷牙漱口有讲究",
"descSummary" : "产褥期内产妇身体比较虚弱，新陈代谢正在处于调整过程中，对寒冷的刺激比...",
"url" : "http:\/\/go.rss.sina.com.cn\/redirect.php?url=http:\/\/baby.sina.com.cn\/health\/13\/1810\/2013-10-18\/1104259182.shtml",
"pubDate" : "2013年10月18日 (1周前)",
"enterDate" : "384200:53:01",
"channelId" : "-1049174837888639978",
"channelName" : "育儿知识-新浪育儿",
"channelNameSummary" : "育儿知识-新浪育儿",
"channelUrl" : "http:\/\/baby.sina.com.cn\/news\/list.html",
"author" : "WWW.SINA.COM.CN",
"tags" : [],
"desc" : "产褥期内产妇身体比较虚弱，新陈代谢正在处于调整过程中，对寒冷的刺激比较敏感，因此，刷牙漱口与平时不一样，要注意讲究方法。 1.刷牙前要用温水将牙刷泡软 每天早上和临睡前各刷一次。用餐后要漱口，如能用药液漱口最理想。饭后漱口和晚上刷牙后就不要再吃东....",
"emailed" : False,
"forwarded" : False,
"english" : False
}  , {
"index" : 10,
"articleIndex" : "8237",
"favor" :  False ,
     "read" : False,    
"title" : "你会得产后抑郁症吗？",
"titleTip" : "你会得产后抑郁症吗？",
"titleSummary" : "你会得产后抑郁症吗？",
"descSummary" : "产后抑郁症是妇女在生产孩子之后由于生理和心理因素造成的抑郁症，症状有紧张...",
"url" : "http:\/\/go.rss.sina.com.cn\/redirect.php?url=http:\/\/baby.sina.com.cn\/health\/13\/1810\/2013-10-18\/1103259181.shtml",
"pubDate" : "2013年10月18日 (1周前)",
"enterDate" : "384200:51:51",
"channelId" : "-1049174837888639978",
"channelName" : "育儿知识-新浪育儿",
"channelNameSummary" : "育儿知识-新浪育儿",
"channelUrl" : "http:\/\/baby.sina.com.cn\/news\/list.html",
"author" : "WWW.SINA.COM.CN",
"tags" : [],
"desc" : "产后抑郁症是妇女在生产孩子之后由于生理和心理因素造成的抑郁症，症状有紧张、疑虑、内疚、恐惧等，极少数严重的会有绝望、离家出走、伤害孩子或自杀的想法和行动。 产后抑郁又叫产褥期抑郁症(postparturm depression，PPD)，是指产妇在分娩后出现抑郁、悲伤、沮丧、....",
"emailed" : False,
"forwarded" : False,
"english" : False
}  , {
"index" : 11,
"articleIndex" : "8236",
"favor" :  False ,
     "read" : False,    
"title" : "产后胡乱按摩可导致乳腺炎",
"titleTip" : "产后胡乱按摩可导致乳腺炎",
"titleSummary" : "产后胡乱按摩可导致乳腺炎",
"descSummary" : "没有奶水的新妈妈们，能否通过按摩出乳，没有研究可以证实，但一些奶水不...",
"url" : "http:\/\/go.rss.sina.com.cn\/redirect.php?url=http:\/\/baby.sina.com.cn\/health\/13\/1810\/2013-10-18\/1102259180.shtml",
"pubDate" : "2013年10月18日 (1周前)",
"enterDate" : "384200:50:17",
"channelId" : "-1049174837888639978",
"channelName" : "育儿知识-新浪育儿",
"channelNameSummary" : "育儿知识-新浪育儿",
"channelUrl" : "http:\/\/baby.sina.com.cn\/news\/list.html",
"author" : "WWW.SINA.COM.CN",
"tags" : [],
"desc" : "没有奶水的新妈妈们，能否通过按摩出乳，没有研究可以证实，但一些奶水不畅的产妇可以通过按摩的方式疏通乳汁管。一般来说，妈妈们在怀孕8个月后，在洗澡沐浴时就应该多注意乳头清洁和按摩。 很多太太都面临母乳不足的情况，新爸爸们真是看在眼里急在心里。怎样才能改....",
"emailed" : False,
"forwarded" : False,
"english" : False
}  , {
"index" : 12,
"articleIndex" : "8235",
"favor" :  False ,
     "read" : False,    
"title" : "产后恢复必知的5个禁忌",
"titleTip" : "产后恢复必知的5个禁忌",
"titleSummary" : "产后恢复必知的5个禁忌",
"descSummary" : "产后是新妈妈身体内外恢复的重要时期，这个时期，因为新妈妈内分泌会有些紊乱...",
"url" : "http:\/\/go.rss.sina.com.cn\/redirect.php?url=http:\/\/baby.sina.com.cn\/health\/13\/1810\/2013-10-18\/1100259179.shtml",
"pubDate" : "2013年10月18日 (1周前)",
"enterDate" : "384200:48:19",
"channelId" : "-1049174837888639978",
"channelName" : "育儿知识-新浪育儿",
"channelNameSummary" : "育儿知识-新浪育儿",
"channelUrl" : "http:\/\/baby.sina.com.cn\/news\/list.html",
"author" : "WWW.SINA.COM.CN",
"tags" : [],
"desc" : "产后是新妈妈身体内外恢复的重要时期，这个时期，因为新妈妈内分泌会有些紊乱，身体体质也有可能发生比较大的变化，因此，不能忽略此时的养护，那么具体如何养护自己呢？ 现在很多传统月子 经验经由老人传到下一代，有些是可以参考的，有些却是对新妈妈的身体恢复很....",
"emailed" : False,
"forwarded" : False,
"english" : False
}  , {
"index" : 13,
"articleIndex" : "8234",
"favor" :  False ,
     "read" : False,    
"title" : "孕前的居住环境也尤为重要",
"titleTip" : "孕前的居住环境也尤为重要",
"titleSummary" : "孕前的居住环境也尤为重要",
"descSummary" : "已经准备好怀孕的夫妻，除了要进行必要的身体检查外，居住环境也尤为重要...",
"url" : "http:\/\/go.rss.sina.com.cn\/redirect.php?url=http:\/\/baby.sina.com.cn\/health\/13\/1810\/2013-10-18\/1055259178.shtml",
"pubDate" : "2013年10月18日 (1周前)",
"enterDate" : "384201:13:14",
"channelId" : "-1049174837888639978",
"channelName" : "育儿知识-新浪育儿",
"channelNameSummary" : "育儿知识-新浪育儿",
"channelUrl" : "http:\/\/baby.sina.com.cn\/news\/list.html",
"author" : "WWW.SINA.COM.CN",
"tags" : [],
"desc" : "已经准备好怀孕的夫妻，除了要进行必要的身体检查外，居住环境也尤为重要，一个合理的居所是可以影响孕妇的健康和心情的，只有妈妈先住得开心了，宝宝才可以更开心。 阴气重不利生育 以阴阳而论，闺房的阴气较重，便不利于怀孕。所谓阴气，一般都是指房间内空气....",
"emailed" : False,
"forwarded" : False,
"english" : False
}  , {
"index" : 14,
"articleIndex" : "8233",
"favor" :  False ,
     "read" : False,    
"title" : "女性孕前患六种病不宜妊娠",
"titleTip" : "女性孕前患六种病不宜妊娠",
"titleSummary" : "女性孕前患六种病不宜妊娠",
"descSummary" : "凡患有以下六种疾病的妇女，都不宜妊娠。即使已经怀孕，也宜终止妊娠，以...",
"url" : "http:\/\/go.rss.sina.com.cn\/redirect.php?url=http:\/\/baby.sina.com.cn\/health\/13\/1810\/2013-10-18\/1047259177.shtml",
"pubDate" : "2013年10月18日 (1周前)",
"enterDate" : "384201:06:04",
"channelId" : "-1049174837888639978",
"channelName" : "育儿知识-新浪育儿",
"channelNameSummary" : "育儿知识-新浪育儿",
"channelUrl" : "http:\/\/baby.sina.com.cn\/news\/list.html",
"author" : "WWW.SINA.COM.CN",
"tags" : [],
"desc" : "凡患有以下六种疾病的妇女，都不宜妊娠。即使已经怀孕，也宜终止妊娠，以免危及自身，遗祸后代。 1.心脏病：患者可因心脏功能异常而缺氧，缺氧的内环境既可诱发危及生命的妊娠高血压综合征，又可导致胎死宫内。 2.肺结核：粟粒性肺结核可经血液传染给胎儿。常用....",
"emailed" : False,
"forwarded" : False,
"english" : False
}  , {
"index" : 15,
"articleIndex" : "8232",
"favor" :  False ,
     "read" : False,    
"title" : "孕前保健养生应注意些什么？",
"titleTip" : "孕前保健养生应注意些什么？",
"titleSummary" : "孕前保健养生应注意些什么？",
"descSummary" : "妇女在受孕前的3～12个月，丈夫应保持健壮的身体。一般说来，精神愉快...",
"url" : "http:\/\/go.rss.sina.com.cn\/redirect.php?url=http:\/\/baby.sina.com.cn\/health\/13\/1810\/2013-10-18\/1046259176.shtml",
"pubDate" : "2013年10月18日 (1周前)",
"enterDate" : "384201:04:38",
"channelId" : "-1049174837888639978",
"channelName" : "育儿知识-新浪育儿",
"channelNameSummary" : "育儿知识-新浪育儿",
"channelUrl" : "http:\/\/baby.sina.com.cn\/news\/list.html",
"author" : "WWW.SINA.COM.CN",
"tags" : [],
"desc" : "妇女在受孕前的3～12个月，丈夫应保持健壮的身体。一般说来，精神愉快、加强营养是必不可少的。此外，还应适当减少性生活，使精囊中贮存更多的高质量精虫。避免接触杀虫剂、二氧化碳以及镉、镍、锌、汞、铅等有害物质。这类有害物质较多地侵害男性，可使其妻子非外力损伤性流....",
"emailed" : False,
"forwarded" : False,
"english" : False
}  , {
"index" : 16,
"articleIndex" : "8231",
"favor" :  False ,
     "read" : False,    
"title" : "孕前做好八项准备工作十分必要",
"titleTip" : "孕前做好八项准备工作十分必要",
"titleSummary" : "孕前做好八项准备工作十分必要",
"descSummary" : "1、约1次牙医 孕前3至4个月，要将所有\u201C问题\u201D牙齿都处理好，否则致...",
"url" : "http:\/\/go.rss.sina.com.cn\/redirect.php?url=http:\/\/baby.sina.com.cn\/health\/13\/1810\/2013-10-18\/1045259175.shtml",
"pubDate" : "2013年10月18日 (1周前)",
"enterDate" : "384201:03:34",
"channelId" : "-1049174837888639978",
"channelName" : "育儿知识-新浪育儿",
"channelNameSummary" : "育儿知识-新浪育儿",
"channelUrl" : "http:\/\/baby.sina.com.cn\/news\/list.html",
"author" : "WWW.SINA.COM.CN",
"tags" : [],
"desc" : "1、约1次牙医 孕前3至4个月，要将所有\u201C问题\u201D牙齿都处理好，否则致病菌能进入血液循环，播散全身，并有可能通过血液进入胎盘，影响胎儿的生长发育，甚至发生早产。 假如妈妈患有蛀牙，宝宝出生后患蛀牙的可能性也大大增加，因为母亲是婴儿口腔中致蛀牙细菌的最早传播....",
"emailed" : False,
"forwarded" : False,
"english" : False
}  , {
"index" : 17,
"articleIndex" : "8230",
"favor" :  False ,
     "read" : False,    
"title" : "孕前不排毒对胎儿有影响吗？",
"titleTip" : "孕前不排毒对胎儿有影响吗？",
"titleSummary" : "孕前不排毒对胎儿有影响吗？",
"descSummary" : "准备怀孕的女性，应该先先进行体内大扫除，人体在新陈代谢过程中会产生...",
"url" : "http:\/\/go.rss.sina.com.cn\/redirect.php?url=http:\/\/baby.sina.com.cn\/health\/13\/1810\/2013-10-18\/1043259174.shtml",
"pubDate" : "2013年10月18日 (1周前)",
"enterDate" : "384201:01:27",
"channelId" : "-1049174837888639978",
"channelName" : "育儿知识-新浪育儿",
"channelNameSummary" : "育儿知识-新浪育儿",
"channelUrl" : "http:\/\/baby.sina.com.cn\/news\/list.html",
"author" : "WWW.SINA.COM.CN",
"tags" : [],
"desc" : "准备怀孕的女性，应该先先进行体内大扫除，人体在新陈代谢过程中会产生许多废物，如醛、酮、胺、过氧化物及酸性成分等，另外，肌肉的运动会产生乳酸，它们随血液进入心、肝、脑等器官，使人感觉疲劳。这些体内毒素，在体内的慢性积聚可达到惊人的数量。根据测算，有些人体内累....",
"emailed" : False,
"forwarded" : False,
"english" : False
}  , {
"index" : 18,
"articleIndex" : "8229",
"favor" :  False ,
     "read" : False,    
"title" : "沟通在情商教育中最重要",
"titleTip" : "沟通在情商教育中最重要",
"titleSummary" : "沟通在情商教育中最重要",
"descSummary" : "法宝1.让孩子学会自我沟通 让孩子学会自我提问，多问自己几个\u201C为什么\u201D。...",
"url" : "http:\/\/go.rss.sina.com.cn\/redirect.php?url=http:\/\/baby.sina.com.cn\/edu\/13\/1810\/2013-10-18\/1037259173.shtml",
"pubDate" : "2013年10月18日 (1周前)",
"enterDate" : "384200:55:31",
"channelId" : "-1049174837888639978",
"channelName" : "育儿知识-新浪育儿",
"channelNameSummary" : "育儿知识-新浪育儿",
"channelUrl" : "http:\/\/baby.sina.com.cn\/news\/list.html",
"author" : "WWW.SINA.COM.CN",
"tags" : [],
"desc" : "法宝1.让孩子学会自我沟通 让孩子学会自我提问，多问自己几个\u201C为什么\u201D。我为什么要这么做？这么做对我自己有什么好处？这是一种\u201C结果为导向\u201D式的自我沟通。对于早恋、沉迷网络、厌学的孩子更要多引导他设计这样的提问。问完问题，再用记录的方式，把得到的结果写出....",
"emailed" : False,
"forwarded" : False,
"english" : False
}  , {
"index" : 19,
"articleIndex" : "8228",
"favor" :  False ,
     "read" : False,    
"title" : "棍棒教育，打出什么？",
"titleTip" : "棍棒教育，打出什么？",
"titleSummary" : "棍棒教育，打出什么？",
"descSummary" : "喊着 \u201C三天一顿打，孩子进北大\u201D 口号的\u201C狼爸\u201D萧百佑最近火了，其热度甚至...",
"url" : "http:\/\/go.rss.sina.com.cn\/redirect.php?url=http:\/\/baby.sina.com.cn\/edu\/13\/1810\/2013-10-18\/1034259172.shtml",
"pubDate" : "2013年10月18日 (1周前)",
"enterDate" : "384200:53:08",
"channelId" : "-1049174837888639978",
"channelName" : "育儿知识-新浪育儿",
"channelNameSummary" : "育儿知识-新浪育儿",
"channelUrl" : "http:\/\/baby.sina.com.cn\/news\/list.html",
"author" : "WWW.SINA.COM.CN",
"tags" : [],
"desc" : "喊着 \u201C三天一顿打，孩子进北大\u201D 口号的\u201C狼爸\u201D萧百佑最近火了，其热度甚至超过了去年红极一时的\u201C虎妈\u201D。 在\u201C狼爸\u201D的棍棒下，三个子女考入了北京大学。这一\u201C卓越\u201D成绩源于他的特殊家规：犯了错误，或学习不好，都要挨打。在萧家，就一个字，打。孩子从3岁起开....",
"emailed" : False,
"forwarded" : False,
"english" : False
} ]
}
