{
"mode" : {"viewTitle" : 1,   "viewNew" : 0,  "pageIndex" : 2 },
 "channel" : {"id" : "-1049174837888639978", "booked" : False, "subNumber" : 1, "name" : "育儿知识-新浪育儿", "url" : "http:\/\/baby.sina.com.cn\/news\/list.html", "feed" : "http:\/\/rss.sina.com.cn\/baby\/news\/guide.xml", "author" : "", "desc" : "育儿知识", "imageUrl" : "http:\/\/www.sinaimg.cn\/bb\/deco\/2012\/0917\/b_m_02.gif", "postPerWeek" : "0", "lastCrawTime" : "2013年10月20日 (1周前)", "crawDateTime" : "2013年10月20日 (1周前)", "lastHttpCode" : "200"}, "page" : {
"startIndex" : 20,
"totalCount" : 5000,
"pageIndex" : 2,
"lastPage" : 250,
"pageSize" : 20,
"english" :  False },
 "unreadNum" : 0, "shotIndex" : -1,
"articles" : [
{
"index" : 0,
"articleIndex" : "8227",
"favor" :  False ,
     "read" : False,    
"title" : "\u201C苦难教育\u201D要谨慎",
"titleTip" : "\u201C苦难教育\u201D要谨慎",
"titleSummary" : "\u201C苦难教育\u201D要谨慎",
"descSummary" : "孩子在幼年时期，身心都是非常稚嫩、非常脆弱的，就像刚冒出的幼芽，它需要的不...",
"url" : "http:\/\/go.rss.sina.com.cn\/redirect.php?url=http:\/\/baby.sina.com.cn\/edu\/13\/1810\/2013-10-18\/1032259171.shtml",
"pubDate" : "2013年10月18日 (1周前)",
"enterDate" : "384200:50:51",
"channelId" : "-1049174837888639978",
"channelName" : "育儿知识-新浪育儿",
"channelNameSummary" : "育儿知识-新浪育儿",
"channelUrl" : "http:\/\/baby.sina.com.cn\/news\/list.html",
"author" : "WWW.SINA.COM.CN",
"tags" : [],
"desc" : "孩子在幼年时期，身心都是非常稚嫩、非常脆弱的，就像刚冒出的幼芽，它需要的不是风吹雨打，经受严酷的锻炼，而是精心呵护，让它顺利成长。只有长大了，强壮到一定程度，能够经受风吹雨打了，此时的磨炼才有益。 对6岁以前的孩子实行苦难教育，恐怕是弊多利少，不仅不....",
"emailed" : False,
"forwarded" : False,
"english" : False
}  , {
"index" : 1,
"articleIndex" : "8226",
"favor" :  False ,
     "read" : False,    
"title" : "儿童情商教育勿入3大陷阱",
"titleTip" : "儿童情商教育勿入3大陷阱",
"titleSummary" : "儿童情商教育勿入3大陷阱",
"descSummary" : "情商作为一种重要的心理品质和成功因素得到社会的普遍认可，甚至延伸到早教...",
"url" : "http:\/\/go.rss.sina.com.cn\/redirect.php?url=http:\/\/baby.sina.com.cn\/edu\/13\/1810\/2013-10-18\/1030259170.shtml",
"pubDate" : "2013年10月18日 (1周前)",
"enterDate" : "384200:48:26",
"channelId" : "-1049174837888639978",
"channelName" : "育儿知识-新浪育儿",
"channelNameSummary" : "育儿知识-新浪育儿",
"channelUrl" : "http:\/\/baby.sina.com.cn\/news\/list.html",
"author" : "WWW.SINA.COM.CN",
"tags" : [],
"desc" : "情商作为一种重要的心理品质和成功因素得到社会的普遍认可，甚至延伸到早教领域。\u201C望子成龙\u201D的中国家长迫切需求儿童情商培养又不知道如何教育，很容易落入商家的广告圈套。 为了给孩子选择正确、合适的情商教育，专家提醒家长警惕以下误区： 1、首先，情商教....",
"emailed" : False,
"forwarded" : False,
"english" : False
}  , {
"index" : 2,
"articleIndex" : "8225",
"favor" :  False ,
     "read" : False,    
"title" : "幼儿教育不可错过的关键期",
"titleTip" : "幼儿教育不可错过的关键期",
"titleSummary" : "幼儿教育不可错过的关键期",
"descSummary" : "孩子出生时，每个人的天赋并没有太大的差别，而长大了之后却只有不到1%...",
"url" : "http:\/\/go.rss.sina.com.cn\/redirect.php?url=http:\/\/baby.sina.com.cn\/edu\/13\/1810\/2013-10-18\/1020259169.shtml",
"pubDate" : "2013年10月18日 (1周前)",
"enterDate" : "384201:08:37",
"channelId" : "-1049174837888639978",
"channelName" : "育儿知识-新浪育儿",
"channelNameSummary" : "育儿知识-新浪育儿",
"channelUrl" : "http:\/\/baby.sina.com.cn\/news\/list.html",
"author" : "WWW.SINA.COM.CN",
"tags" : [],
"desc" : "孩子出生时，每个人的天赋并没有太大的差别，而长大了之后却只有不到1%的孩子可以成为天才。从开始的几乎100%，到长大后的不足1%，二者之间差别为什么会如此之大呢？这是因为后天的教育与培养，以及孩子所处的环境。 那什么时候给孩子什么样的教育是最好的呢？人类学习....",
"emailed" : False,
"forwarded" : False,
"english" : False
}  , {
"index" : 3,
"articleIndex" : "8224",
"favor" :  False ,
     "read" : False,    
"title" : "0-6岁早期教育最佳时间表",
"titleTip" : "0-6岁早期教育最佳时间表",
"titleSummary" : "0-6岁早期教育最佳时间表",
"descSummary" : "儿童的早期阶段是人生的关键阶段，这个阶段予适当的教育可得到事半功倍的效...",
"url" : "http:\/\/go.rss.sina.com.cn\/redirect.php?url=http:\/\/baby.sina.com.cn\/edu\/13\/1810\/2013-10-18\/1015259168.shtml",
"pubDate" : "2013年10月18日 (1周前)",
"enterDate" : "384201:04:12",
"channelId" : "-1049174837888639978",
"channelName" : "育儿知识-新浪育儿",
"channelNameSummary" : "育儿知识-新浪育儿",
"channelUrl" : "http:\/\/baby.sina.com.cn\/news\/list.html",
"author" : "WWW.SINA.COM.CN",
"tags" : [],
"desc" : "儿童的早期阶段是人生的关键阶段，这个阶段予适当的教育可得到事半功倍的效果，年轻的父母不要错过，在这时期中存在着几个学习效率最高的年龄阶段，应了解这些阶段及时进行教育，对孩子的智力发展会有极大的帮助。 早期教育效率最高的年龄段如下： 出生后6个月....",
"emailed" : False,
"forwarded" : False,
"english" : False
}  , {
"index" : 4,
"articleIndex" : "8223",
"favor" :  False ,
     "read" : False,    
"title" : "超前教育的利与弊",
"titleTip" : "超前教育的利与弊",
"titleSummary" : "超前教育的利与弊",
"descSummary" : "处于超前教育环境下的孩子往往有超人一等的优越感，舆论的作用也使孩子必然产生虚...",
"url" : "http:\/\/go.rss.sina.com.cn\/redirect.php?url=http:\/\/baby.sina.com.cn\/edu\/13\/1810\/2013-10-18\/1007259167.shtml",
"pubDate" : "2013年10月18日 (1周前)",
"enterDate" : "384200:55:38",
"channelId" : "-1049174837888639978",
"channelName" : "育儿知识-新浪育儿",
"channelNameSummary" : "育儿知识-新浪育儿",
"channelUrl" : "http:\/\/baby.sina.com.cn\/news\/list.html",
"author" : "WWW.SINA.COM.CN",
"tags" : [],
"desc" : "处于超前教育环境下的孩子往往有超人一等的优越感，舆论的作用也使孩子必然产生虚荣心，从此，求知不再是为了满足源于兴趣的自然渴求，而是为了超越别人、赢得荣誉。这些\u201C聪明绝顶儿\u201D一旦完成了辉煌的学业而在工作中无醒目的建树，实际境遇的强烈反差必然使昔日的优越感变成....",
"emailed" : False,
"forwarded" : False,
"english" : False
}  , {
"index" : 5,
"articleIndex" : "8222",
"favor" :  False ,
     "read" : False,    
"title" : "性教育不能\u201C忌\u201D和\u201C过\u201D",
"titleTip" : "性教育不能\u201C忌\u201D和\u201C过\u201D",
"titleSummary" : "性教育不能\u201C忌\u201D和\u201C过\u201D",
"descSummary" : "对孩子进行性教育，对家长来说，一直都是一个挺头痛的问题，家长们既不想...",
"url" : "http:\/\/go.rss.sina.com.cn\/redirect.php?url=http:\/\/baby.sina.com.cn\/edu\/13\/1810\/2013-10-18\/1002259166.shtml",
"pubDate" : "2013年10月18日 (1周前)",
"enterDate" : "384200:51:02",
"channelId" : "-1049174837888639978",
"channelName" : "育儿知识-新浪育儿",
"channelNameSummary" : "育儿知识-新浪育儿",
"channelUrl" : "http:\/\/baby.sina.com.cn\/news\/list.html",
"author" : "WWW.SINA.COM.CN",
"tags" : [],
"desc" : "对孩子进行性教育，对家长来说，一直都是一个挺头痛的问题，家长们既不想把性弄得过于神秘，又不敢对孩子全盘托出，分寸不好把握。作为一个幼教人，华南师范大学附属幼儿园副园长吴冬梅表示，对孩子进行性教育都要适度和自然，既不能\u201C忌\u201D，也不能\u201C过\u201D。最好能和生活紧密结....",
"emailed" : False,
"forwarded" : False,
"english" : False
}  , {
"index" : 6,
"articleIndex" : "8221",
"favor" :  False ,
     "read" : False,    
"title" : "3月男婴高烧输液突抽搐抢救无效死亡",
"titleTip" : "3月男婴高烧输液突抽搐抢救无效死亡",
"titleSummary" : "3月男婴高烧输液突抽搐抢救无效死亡",
"descSummary" : "本报阳江讯 （记者黄国金） 14日7时许，阳西的梁女士带着只有3个...",
"url" : "http:\/\/go.rss.sina.com.cn\/redirect.php?url=http:\/\/baby.sina.com.cn\/health\/13\/1810\/2013-10-18\/1002259165.shtml",
"pubDate" : "2013年10月18日 (1周前)",
"enterDate" : "384200:50:40",
"channelId" : "-1049174837888639978",
"channelName" : "育儿知识-新浪育儿",
"channelNameSummary" : "育儿知识-新浪育儿",
"channelUrl" : "http:\/\/baby.sina.com.cn\/news\/list.html",
"author" : "WWW.SINA.COM.CN",
"tags" : [],
"desc" : "本报阳江讯 （记者黄国金） 14日7时许，阳西的梁女士带着只有3个月大的儿子到阳西县人民医院就诊，儿子在接受输液后不久就出现抽搐，并最终在12时40分抢救无效死亡。昨日，阳西县卫生局公布了该起医疗纠纷事件的情况，呼吁死者家属通过合法合理途径解决该起医疗纠纷。....",
"emailed" : False,
"forwarded" : False,
"english" : False
}  , {
"index" : 7,
"articleIndex" : "8220",
"favor" :  False ,
     "read" : False,    
"title" : "\u201C心情教育\u201D从何入手？",
"titleTip" : "\u201C心情教育\u201D从何入手？",
"titleSummary" : "\u201C心情教育\u201D从何入手？",
"descSummary" : "所谓\u201C心情教育\u201D，就是以道德观念为基础，引导孩子理解\u201C真爱\u201D，学会关爱...",
"url" : "http:\/\/go.rss.sina.com.cn\/redirect.php?url=http:\/\/baby.sina.com.cn\/edu\/13\/1810\/2013-10-18\/0959259164.shtml",
"pubDate" : "2013年10月18日 (1周前)",
"enterDate" : "384200:47:47",
"channelId" : "-1049174837888639978",
"channelName" : "育儿知识-新浪育儿",
"channelNameSummary" : "育儿知识-新浪育儿",
"channelUrl" : "http:\/\/baby.sina.com.cn\/news\/list.html",
"author" : "WWW.SINA.COM.CN",
"tags" : [],
"desc" : "所谓\u201C心情教育\u201D，就是以道德观念为基础，引导孩子理解\u201C真爱\u201D，学会关爱他人，让真诚的爱在人与人之间流动。 在国外，面对学校忽视道德教育，以致大量年轻人迷失人生方向的现实，近年来越来越多的公立学校加入了推行人格教育的行列，许多学校设置了有导向性的、以\u201C....",
"emailed" : False,
"forwarded" : False,
"english" : False
}  , {
"index" : 8,
"articleIndex" : "8219",
"favor" :  False ,
     "read" : False,    
"title" : "\u201C独带独\u201D时代的时尚教育",
"titleTip" : "\u201C独带独\u201D时代的时尚教育",
"titleSummary" : "\u201C独带独\u201D时代的时尚教育",
"descSummary" : "所谓\u201C独带独\u201D，是指父母是独生子女，小孩也是独生子女。时下，上海各幼...",
"url" : "http:\/\/go.rss.sina.com.cn\/redirect.php?url=http:\/\/baby.sina.com.cn\/edu\/13\/1810\/2013-10-18\/0958259163.shtml",
"pubDate" : "2013年10月18日 (1周前)",
"enterDate" : "384200:46:40",
"channelId" : "-1049174837888639978",
"channelName" : "育儿知识-新浪育儿",
"channelNameSummary" : "育儿知识-新浪育儿",
"channelUrl" : "http:\/\/baby.sina.com.cn\/news\/list.html",
"author" : "WWW.SINA.COM.CN",
"tags" : [],
"desc" : "所谓\u201C独带独\u201D，是指父母是独生子女，小孩也是独生子女。时下，上海各幼儿园已陆续开学。根据某幼儿园的统计，入园新生的父母中80后所占比例已达到56%，未来三年内这个比例更可能增至80%。随着80后家长正在成为幼儿园里的主流家长群，幼儿教育进入了\u201C独带独\u201D时代。在这一新....",
"emailed" : False,
"forwarded" : False,
"english" : False
}  , {
"index" : 9,
"articleIndex" : "8218",
"favor" :  False ,
     "read" : False,    
"title" : "\u201C全职妈妈\u201D教育问题多多",
"titleTip" : "\u201C全职妈妈\u201D教育问题多多",
"titleSummary" : "\u201C全职妈妈\u201D教育问题多多",
"descSummary" : "为了更好地抚养和教育孩子，选择当\u201C全职妈妈\u201D的女性越来越多。但山东现...",
"url" : "http:\/\/go.rss.sina.com.cn\/redirect.php?url=http:\/\/baby.sina.com.cn\/edu\/13\/1810\/2013-10-18\/0956259162.shtml",
"pubDate" : "2013年10月18日 (1周前)",
"enterDate" : "384201:15:16",
"channelId" : "-1049174837888639978",
"channelName" : "育儿知识-新浪育儿",
"channelNameSummary" : "育儿知识-新浪育儿",
"channelUrl" : "http:\/\/baby.sina.com.cn\/news\/list.html",
"author" : "WWW.SINA.COM.CN",
"tags" : [],
"desc" : "为了更好地抚养和教育孩子，选择当\u201C全职妈妈\u201D的女性越来越多。但山东现代儿童发展研究中心的一项研究显示：大多数\u201C全职妈妈\u201D对孩子的关爱过度，不少人成了\u201C全职保姆\u201D。 为了更好地抚养和教育孩子，选择当\u201C全职妈妈\u201D的女性越来越多。但山东现代儿童发展研究中心....",
"emailed" : False,
"forwarded" : False,
"english" : False
}  , {
"index" : 10,
"articleIndex" : "8217",
"favor" :  False ,
     "read" : False,    
"title" : "孕妇生产成\"植物人\"获赔118万",
"titleTip" : "孕妇生产成\"植物人\"获赔118万",
"titleSummary" : "孕妇生产成\"植物人\"获赔118万",
"descSummary" : "原标题：孕妇生产成&quot;植物人&quot; 慈溪一卫生院赔偿118万余 37岁的王女士在...",
"url" : "http:\/\/go.rss.sina.com.cn\/redirect.php?url=http:\/\/baby.sina.com.cn\/health\/13\/1810\/2013-10-18\/0956259161.shtml",
"pubDate" : "2013年10月18日 (1周前)",
"enterDate" : "384201:14:40",
"channelId" : "-1049174837888639978",
"channelName" : "育儿知识-新浪育儿",
"channelNameSummary" : "育儿知识-新浪育儿",
"channelUrl" : "http:\/\/baby.sina.com.cn\/news\/list.html",
"author" : "WWW.SINA.COM.CN",
"tags" : [],
"desc" : "原标题：孕妇生产成\"植物人\" 慈溪一卫生院赔偿118万余 37岁的王女士在慈溪市某街道卫生院生产时，不幸大出血，最终成了植物人。 近日，在慈溪市法律援助中心援助下，受害人家属获得118万余元的赔偿款。 今年3月16日，王女士在慈溪市某街道卫生院待产。17....",
"emailed" : False,
"forwarded" : False,
"english" : False
}  , {
"index" : 11,
"articleIndex" : "8216",
"favor" :  False ,
     "read" : False,    
"title" : "教育孩子没你想的那么难",
"titleTip" : "教育孩子没你想的那么难",
"titleSummary" : "教育孩子没你想的那么难",
"descSummary" : "教育孩子有的父母觉得异常复杂，常常是为了教育孩子把自己弄得焦头烂额的。...",
"url" : "http:\/\/go.rss.sina.com.cn\/redirect.php?url=http:\/\/baby.sina.com.cn\/edu\/13\/1810\/2013-10-18\/0954259160.shtml",
"pubDate" : "2013年10月18日 (1周前)",
"enterDate" : "384201:12:58",
"channelId" : "-1049174837888639978",
"channelName" : "育儿知识-新浪育儿",
"channelNameSummary" : "育儿知识-新浪育儿",
"channelUrl" : "http:\/\/baby.sina.com.cn\/news\/list.html",
"author" : "WWW.SINA.COM.CN",
"tags" : [],
"desc" : "教育孩子有的父母觉得异常复杂，常常是为了教育孩子把自己弄得焦头烂额的。而有的父母就能轻松应对育儿这个大问题。曾经有这样一位父亲，每天对孩子的教育仅限于跟孩子每天提几个问题就OK了。 这位父亲他对女儿的教育方式比较独特，他从来没有辅导过女儿做功课什么的，....",
"emailed" : False,
"forwarded" : False,
"english" : False
}  , {
"index" : 12,
"articleIndex" : "8215",
"favor" :  False ,
     "read" : False,    
"title" : "坐月子注意五忌",
"titleTip" : "坐月子注意五忌",
"titleSummary" : "坐月子注意五忌",
"descSummary" : "忌不刷牙 传统习俗认为，产妇刷牙会引起牙痛病，这恰恰与医学科学的道理相反，其实...",
"url" : "http:\/\/go.rss.sina.com.cn\/redirect.php?url=http:\/\/baby.sina.com.cn\/health\/13\/1810\/2013-10-18\/0953259159.shtml",
"pubDate" : "2013年10月18日 (1周前)",
"enterDate" : "384201:12:03",
"channelId" : "-1049174837888639978",
"channelName" : "育儿知识-新浪育儿",
"channelNameSummary" : "育儿知识-新浪育儿",
"channelUrl" : "http:\/\/baby.sina.com.cn\/news\/list.html",
"author" : "WWW.SINA.COM.CN",
"tags" : [],
"desc" : "忌不刷牙 传统习俗认为，产妇刷牙会引起牙痛病，这恰恰与医学科学的道理相反，其实不刷牙，污垢得不到及时清除，会增加龋齿、牙周炎等口腔疾病的发生而引起牙痛病。 妇女在怀孕后，由于内分泌的变化，或维生素C的摄入不足，可以有牙龈充血、水肿，容易出血，特....",
"emailed" : False,
"forwarded" : False,
"english" : False
}  , {
"index" : 13,
"articleIndex" : "8214",
"favor" :  False ,
     "read" : False,    
"title" : "汉字启蒙教育是早教的灵魂",
"titleTip" : "汉字启蒙教育是早教的灵魂",
"titleSummary" : "汉字启蒙教育是早教的灵魂",
"descSummary" : "大多数中国家长认为孩子的生长环境处于汉语言文化之中，学习汉语天性使然...",
"url" : "http:\/\/go.rss.sina.com.cn\/redirect.php?url=http:\/\/baby.sina.com.cn\/edu\/13\/1810\/2013-10-18\/0953259158.shtml",
"pubDate" : "2013年10月18日 (1周前)",
"enterDate" : "384201:11:39",
"channelId" : "-1049174837888639978",
"channelName" : "育儿知识-新浪育儿",
"channelNameSummary" : "育儿知识-新浪育儿",
"channelUrl" : "http:\/\/baby.sina.com.cn\/news\/list.html",
"author" : "WWW.SINA.COM.CN",
"tags" : [],
"desc" : "大多数中国家长认为孩子的生长环境处于汉语言文化之中，学习汉语天性使然，把更多的时间花在培养孩子外文能力上，这是早教的误区。孩子的早期教育很重要，而汉字启蒙教育就是早教的灵魂。 网友：欧威妈 \u201C我孩子现在5岁了，学习汉字的时候老是不听话，耍脾气、....",
"emailed" : False,
"forwarded" : False,
"english" : False
}  , {
"index" : 14,
"articleIndex" : "8213",
"favor" :  False ,
     "read" : False,    
"title" : "月子中妈妈发帖兜售母乳300毫升55元",
"titleTip" : "月子中妈妈发帖兜售母乳300毫升55元",
"titleSummary" : "月子中妈妈发帖兜售母乳300毫升55元",
"descSummary" : "10月10日，记者在58同城、赶集网等网站上发现，有处于哺乳期的...",
"url" : "http:\/\/go.rss.sina.com.cn\/redirect.php?url=http:\/\/baby.sina.com.cn\/health\/13\/1810\/2013-10-18\/0951259157.shtml",
"pubDate" : "2013年10月18日 (1周前)",
"enterDate" : "384201:09:31",
"channelId" : "-1049174837888639978",
"channelName" : "育儿知识-新浪育儿",
"channelNameSummary" : "育儿知识-新浪育儿",
"channelUrl" : "http:\/\/baby.sina.com.cn\/news\/list.html",
"author" : "WWW.SINA.COM.CN",
"tags" : [],
"desc" : "10月10日，记者在58同城、赶集网等网站上发现，有处于哺乳期的本市妇女发帖出售自己孩子喝不完的母乳，一袋300毫升左右的母乳售价在55元。 母乳有售同城交易上门自取 \u201C本人身体健康，奶水比较多，坐月子中，宝宝吃不完，特此售价300ml\/55元。\u201D9月13日，记者....",
"emailed" : False,
"forwarded" : False,
"english" : False
}  , {
"index" : 15,
"articleIndex" : "8212",
"favor" :  False ,
     "read" : False,    
"title" : "哪种女人私密处老得快",
"titleTip" : "哪种女人私密处老得快",
"titleSummary" : "哪种女人私密处老得快",
"descSummary" : "据人民网报道，女人除了脸部，最容易衰老的就算私密处了。那么，哪种女人私密...",
"url" : "http:\/\/go.rss.sina.com.cn\/redirect.php?url=http:\/\/baby.sina.com.cn\/health\/13\/1810\/2013-10-18\/0947259156.shtml",
"pubDate" : "2013年10月18日 (1周前)",
"enterDate" : "384201:05:51",
"channelId" : "-1049174837888639978",
"channelName" : "育儿知识-新浪育儿",
"channelNameSummary" : "育儿知识-新浪育儿",
"channelUrl" : "http:\/\/baby.sina.com.cn\/news\/list.html",
"author" : "WWW.SINA.COM.CN",
"tags" : [],
"desc" : "据人民网报道，女人除了脸部，最容易衰老的就算私密处了。那么，哪种女人私密处老得最快呢？ 40岁以上中老年女性。阴道自然老化，卵巢功能逐渐减退，雌激素量减少，使肌肉张力下降，黏膜萎缩，阴道松弛、干涩，缺少弹性。 生产过的女性。女性从怀孕到分娩，阴道....",
"emailed" : False,
"forwarded" : False,
"english" : False
}  , {
"index" : 16,
"articleIndex" : "8211",
"favor" :  False ,
     "read" : False,    
"title" : "手淫会患上阴道炎吗？",
"titleTip" : "手淫会患上阴道炎吗？",
"titleSummary" : "手淫会患上阴道炎吗？",
"descSummary" : "请问手淫会患上阴道炎吗？手淫本身并不一定会导致会阴阴道炎之类的感染，经期...",
"url" : "http:\/\/go.rss.sina.com.cn\/redirect.php?url=http:\/\/baby.sina.com.cn\/health\/13\/1810\/2013-10-18\/0946259155.shtml",
"pubDate" : "2013年10月18日 (1周前)",
"enterDate" : "384201:05:13",
"channelId" : "-1049174837888639978",
"channelName" : "育儿知识-新浪育儿",
"channelNameSummary" : "育儿知识-新浪育儿",
"channelUrl" : "http:\/\/baby.sina.com.cn\/news\/list.html",
"author" : "WWW.SINA.COM.CN",
"tags" : [],
"desc" : "请问手淫会患上阴道炎吗？ 手淫本身并不一定会导致会阴阴道炎之类的感染，经期手淫本身也未必会导致这类感染。感染的可能原因包括：手淫的方式是什么，如果仅刺激阴蒂，一般不会造成感染，如果向阴道内捅入异物，则可能造成感染，例如，在手淫时常以裤带、钢笔等物捅入....",
"emailed" : False,
"forwarded" : False,
"english" : False
}  , {
"index" : 17,
"articleIndex" : "8210",
"favor" :  False ,
     "read" : False,    
"title" : "做阴道B超会传染妇科病吗",
"titleTip" : "做阴道B超会传染妇科病吗",
"titleSummary" : "做阴道B超会传染妇科病吗",
"descSummary" : "说起妇科B超检查，很多女性都存有顾虑，在忍受\u201C内急(憋尿)\u201D的同时，还要...",
"url" : "http:\/\/go.rss.sina.com.cn\/redirect.php?url=http:\/\/baby.sina.com.cn\/health\/13\/1810\/2013-10-18\/0945259154.shtml",
"pubDate" : "2013年10月18日 (1周前)",
"enterDate" : "384201:03:49",
"channelId" : "-1049174837888639978",
"channelName" : "育儿知识-新浪育儿",
"channelNameSummary" : "育儿知识-新浪育儿",
"channelUrl" : "http:\/\/baby.sina.com.cn\/news\/list.html",
"author" : "WWW.SINA.COM.CN",
"tags" : [],
"desc" : "说起妇科B超检查，很多女性都存有顾虑，在忍受\u201C内急(憋尿)\u201D的同时，还要排队等候，就算好不容易轮到自己，没准医生会说\u201C膀胱里的尿量不够，还要继续饮水\u201D或者是\u201C尿量太多了，要排出一些\u201D，让人甚是为难。其实，有另一种更为人性化的检查方法可以选择，那就是腔内超声，....",
"emailed" : False,
"forwarded" : False,
"english" : False
}  , {
"index" : 18,
"articleIndex" : "8209",
"favor" :  False ,
     "read" : False,    
"title" : "教育孩子时不妨来点幽默",
"titleTip" : "教育孩子时不妨来点幽默",
"titleSummary" : "教育孩子时不妨来点幽默",
"descSummary" : "有些家长教育孩子，往往只知道板着面孔说教，这固然能解决些问题，但如果不...",
"url" : "http:\/\/go.rss.sina.com.cn\/redirect.php?url=http:\/\/baby.sina.com.cn\/edu\/13\/1810\/2013-10-18\/0943259153.shtml",
"pubDate" : "2013年10月18日 (1周前)",
"enterDate" : "384201:01:25",
"channelId" : "-1049174837888639978",
"channelName" : "育儿知识-新浪育儿",
"channelNameSummary" : "育儿知识-新浪育儿",
"channelUrl" : "http:\/\/baby.sina.com.cn\/news\/list.html",
"author" : "WWW.SINA.COM.CN",
"tags" : [],
"desc" : "有些家长教育孩子，往往只知道板着面孔说教，这固然能解决些问题，但如果不时来点幽默效果定会更好些。这样不仅能使孩子免去在大人面前的拘谨，又能使其在轻松的一笑中受到刻骨铭心的启迪。这方面的事例举不胜举。前苏联著名诗人米哈依尔\u2022斯维特洛夫就是以幽默的方法教....",
"emailed" : False,
"forwarded" : False,
"english" : False
}  , {
"index" : 19,
"articleIndex" : "8208",
"favor" :  False ,
     "read" : False,    
"title" : "家庭教育中应注意孩子这些行为",
"titleTip" : "家庭教育中应注意孩子这些行为",
"titleSummary" : "家庭教育中应注意孩子这些行为",
"descSummary" : "家庭教育中，往往让家长们苦恼的是孩子的一些不良习惯。比如：整日迷...",
"url" : "http:\/\/go.rss.sina.com.cn\/redirect.php?url=http:\/\/baby.sina.com.cn\/edu\/13\/1810\/2013-10-18\/0940259152.shtml",
"pubDate" : "2013年10月18日 (1周前)",
"enterDate" : "384200:58:55",
"channelId" : "-1049174837888639978",
"channelName" : "育儿知识-新浪育儿",
"channelNameSummary" : "育儿知识-新浪育儿",
"channelUrl" : "http:\/\/baby.sina.com.cn\/news\/list.html",
"author" : "WWW.SINA.COM.CN",
"tags" : [],
"desc" : "家庭教育中，往往让家长们苦恼的是孩子的一些不良习惯。比如：整日迷恋玩具、打游戏机成瘾以及喜欢吃零食等，那么这些习惯是如何养成的呢？下面为大家介绍的是影响孩子成长的九种不良习惯，希望对你有帮助。 表现1：男孩的一切表现像女孩；女孩的一切表现像男孩 ....",
"emailed" : False,
"forwarded" : False,
"english" : False
} ]
}
