{
"mode" : {"viewTitle" : 1,   "viewNew" : 0,  "pageIndex" : 1 },
 "channel" : {"id" : "-3761066304732494735", "booked" : False, "subNumber" : 1, "name" : "业界新闻-新浪科技", "url" : "http:\/\/tech.sina.com.cn\/it\/", "feed" : "http:\/\/rss.sina.com.cn\/tech\/it\/gn37.xml", "author" : "WWW.SINA.COM.CN", "desc" : "业界新闻", "imageUrl" : "http:\/\/www.sinaimg.cn\/home\/deco\/2009\/0330\/logo_home_tech_news.gif", "postPerWeek" : "0", "lastCrawTime" : "2013年10月13日 (2周前)", "crawDateTime" : "2013年10月13日 (2周前)", "lastHttpCode" : "200"}, "page" : {
"startIndex" : 0,
"totalCount" : 5000,
"pageIndex" : 1,
"lastPage" : 250,
"pageSize" : 20,
"english" :  False },
 "unreadNum" : 0, "shotIndex" : -1,
"articles" : [
{
"index" : 0,
"articleIndex" : "46967",
"favor" :  False ,
     "read" : False,    
"title" : "英特尔国际大学生挑战赛：创业改变社会与生活",
"titleTip" : "英特尔国际大学生挑战赛：创业改变社会与生活",
"titleSummary" : "英特尔国际大学生挑战赛：创业改变社会与生活",
"descSummary" : "获得今年英特尔国际挑战赛大奖的是智利的矿工健康指标...",
"url" : "http:\/\/go.rss.sina.com.cn\/redirect.php?url=http:\/\/tech.sina.com.cn\/it\/2013-10-13\/11138811104.shtml",
"pubDate" : "2013年10月13日 (2周前)",
"enterDate" : "384200:58:11",
"channelId" : "-3761066304732494735",
"channelName" : "业界新闻-新浪科技",
"channelNameSummary" : "业界新闻-新浪科技",
"channelUrl" : "http:\/\/tech.sina.com.cn\/it\/",
"author" : "WWW.SINA.COM.CN",
"tags" : [],
"desc" : "获得今年英特尔国际挑战赛大奖的是智利的矿工健康指标监控项目 清华污水处理项目的陈家轲(右二)与清华经管学院的张帏(右三)老师介绍清华创业项目 硅谷创业导师史蒂夫・布兰克给各国学生们讲创业 二十出头的陈家轲穿着一套崭新合身的黑色西服，沉稳淡定地坐在媒体面前....",
"emailed" : False,
"forwarded" : False,
"english" : False
}  , {
"index" : 1,
"articleIndex" : "46966",
"favor" :  False ,
     "read" : False,    
"title" : "特斯拉Model S成挪威最畅销车型",
"titleTip" : "特斯拉Model S成挪威最畅销车型",
"titleSummary" : "特斯拉Model S成挪威最畅销车型",
"descSummary" : "新款Model S在挪威的售价为11万至11.7万美元，高于美国的7万美元 新...",
"url" : "http:\/\/go.rss.sina.com.cn\/redirect.php?url=http:\/\/tech.sina.com.cn\/it\/2013-10-13\/09528810994.shtml",
"pubDate" : "2013年10月13日 (2周前)",
"enterDate" : "384201:07:15",
"channelId" : "-3761066304732494735",
"channelName" : "业界新闻-新浪科技",
"channelNameSummary" : "业界新闻-新浪科技",
"channelUrl" : "http:\/\/tech.sina.com.cn\/it\/",
"author" : "WWW.SINA.COM.CN",
"tags" : [],
"desc" : "新款Model S在挪威的售价为11万至11.7万美元，高于美国的7万美元 新浪科技讯 北京时间10月13日上午消息，特斯拉汽车的全电动车型Model S上月成为挪威最畅销的汽车。一些经销商表示，许多消费者选择购买二手Model S，以避免等待5个月提车。 Model S于今年8月在欧洲市....",
"emailed" : False,
"forwarded" : False,
"english" : False
}  , {
"index" : 2,
"articleIndex" : "46965",
"favor" :  False ,
     "read" : False,    
"title" : "苹果公司移动处理器收入超三星英特尔",
"titleTip" : "苹果公司移动处理器收入超三星英特尔",
"titleSummary" : "苹果公司移动处理器收入超三星英特尔",
"descSummary" : "新浪科技讯 北京时间10月12日上午消息，根据美国市场研究公司...",
"url" : "http:\/\/go.rss.sina.com.cn\/redirect.php?url=http:\/\/tech.sina.com.cn\/it\/2013-10-12\/14318809502.shtml",
"pubDate" : "2013年10月12日 (2周前)",
"enterDate" : "384200:50:11",
"channelId" : "-3761066304732494735",
"channelName" : "业界新闻-新浪科技",
"channelNameSummary" : "业界新闻-新浪科技",
"channelUrl" : "http:\/\/tech.sina.com.cn\/it\/",
"author" : "WWW.SINA.COM.CN",
"tags" : [],
"desc" : "新浪科技讯 北京时间10月12日上午消息，根据美国市场研究公司Strategy Analytics的数据，得益于iPhone和iPad的庞大需求，苹果公司已经成为全球移动处理器收入最高的企业之一。 自iPhone 4和第一代iPad以来，苹果公司自主设计的A系列处理器一直被用于iOS设备，帮助该公....",
"emailed" : False,
"forwarded" : False,
"english" : False
}  , {
"index" : 3,
"articleIndex" : "46964",
"favor" :  False ,
     "read" : False,    
"title" : "大陆电视游戏市场：只是看起来很美",
"titleTip" : "大陆电视游戏市场：只是看起来很美",
"titleSummary" : "大陆电视游戏市场：只是看起来很美",
"descSummary" : "2013年9月27日， 国务院批准《中国(上海)自由贸易试验区总体方案...",
"url" : "http:\/\/go.rss.sina.com.cn\/redirect.php?url=http:\/\/tech.sina.com.cn\/zl\/post\/detail\/it\/2013-10-12\/pid_8435778.htm",
"pubDate" : "2013年10月12日 (2周前)",
"enterDate" : "384200:51:35",
"channelId" : "-3761066304732494735",
"channelName" : "业界新闻-新浪科技",
"channelNameSummary" : "业界新闻-新浪科技",
"channelUrl" : "http:\/\/tech.sina.com.cn\/it\/",
"author" : "WWW.SINA.COM.CN",
"tags" : [],
"desc" : "2013年9月27日， 国务院批准《中国(上海)自由贸易试验区总体方案》并下发，让此前一直沸沸扬扬的关于上海自贸区的各种传言落下了尾声，不过对于关注中国大陆电视游戏行业发展的人来讲，则只是一个开始。在此之前，在或明或暗的政策壁垒之下，中国大陆的电视游戏市场一直长期隐....",
"emailed" : False,
"forwarded" : False,
"english" : False
}  , {
"index" : 4,
"articleIndex" : "46963",
"favor" :  False ,
     "read" : False,    
"title" : "英特尔杨叙：可穿戴设备还非常初期",
"titleTip" : "英特尔杨叙：可穿戴设备还非常初期",
"titleSummary" : "英特尔杨叙：可穿戴设备还非常初期",
"descSummary" : "DoNews 10月12日消息(记者 黄朝艾)10月11日，英特尔全球副总裁...",
"url" : "http:\/\/go.rss.sina.com.cn\/redirect.php?url=http:\/\/tech.sina.com.cn\/it\/2013-10-12\/12348809364.shtml",
"pubDate" : "2013年10月12日 (2周前)",
"enterDate" : "384200:52:49",
"channelId" : "-3761066304732494735",
"channelName" : "业界新闻-新浪科技",
"channelNameSummary" : "业界新闻-新浪科技",
"channelUrl" : "http:\/\/tech.sina.com.cn\/it\/",
"author" : "WWW.SINA.COM.CN",
"tags" : [],
"desc" : "DoNews 10月12日消息(记者 黄朝艾)10月11日，英特尔全球副总裁、中国区总裁杨叙在接受媒体采访时，较为详细地解读了英特尔在可穿戴设备上的战略，并透露在中国区已经开始了相关的布局，有两所大学加入到了这个项目中。 英特尔在日前的IDF(英特尔信息技术峰会)上发布了....",
"emailed" : False,
"forwarded" : False,
"english" : False
}  , {
"index" : 5,
"articleIndex" : "46962",
"favor" :  False ,
     "read" : False,    
"title" : "大学生强制在富士康实习：校方称是体验生活",
"titleTip" : "大学生强制在富士康实习：校方称是体验生活",
"titleSummary" : "大学生强制在富士康实习：校方称是体验生活",
"descSummary" : "西安千余名在校大学生被强制安排进富士康实习一事曝光后...",
"url" : "http:\/\/go.rss.sina.com.cn\/redirect.php?url=http:\/\/tech.sina.com.cn\/it\/2013-10-12\/11398809295.shtml",
"pubDate" : "2013年10月12日 (2周前)",
"enterDate" : "384200:28:27",
"channelId" : "-3761066304732494735",
"channelName" : "业界新闻-新浪科技",
"channelNameSummary" : "业界新闻-新浪科技",
"channelUrl" : "http:\/\/tech.sina.com.cn\/it\/",
"author" : "WWW.SINA.COM.CN",
"tags" : [],
"desc" : "西安千余名在校大学生被强制安排进富士康实习一事曝光后，引发舆论哗然。对此，记者采访了西安工业大学副校长、北方信息工程学院院长张君安，张君安表示，社会实践属于该学院学生的必修课，理论上不去富士康没有学分无法拿到学位证，但实际操作中，极少数学生没有参加社会实践....",
"emailed" : False,
"forwarded" : False,
"english" : False
}  , {
"index" : 6,
"articleIndex" : "46961",
"favor" :  False ,
     "read" : False,    
"title" : "掰开揉碎说阿里巴巴的\u201C去IOE\u201D",
"titleTip" : "掰开揉碎说阿里巴巴的\u201C去IOE\u201D",
"titleSummary" : "掰开揉碎说阿里巴巴的\u201C去IOE\u201D",
"descSummary" : "\u201C去IOE\u201D 最近在IT圈很热。它是阿里巴巴造出的概念。其本意是，在阿...",
"url" : "http:\/\/go.rss.sina.com.cn\/redirect.php?url=http:\/\/tech.sina.com.cn\/zl\/post\/detail\/it\/2013-10-12\/pid_8435763.htm",
"pubDate" : "2013年10月12日 (2周前)",
"enterDate" : "384199:07:57",
"channelId" : "-3761066304732494735",
"channelName" : "业界新闻-新浪科技",
"channelNameSummary" : "业界新闻-新浪科技",
"channelUrl" : "http:\/\/tech.sina.com.cn\/it\/",
"author" : "WWW.SINA.COM.CN",
"tags" : [],
"desc" : "\u201C去IOE\u201D 最近在IT圈很热。它是阿里巴巴造出的概念。其本意是，在阿里巴巴的IT架构中，去掉IBM的小型机、Oracle数据库、EMC存储设备，代之以自己在开源软件基础上开发的系统。传统上，一个高端大气的数据中心，IBM小型机、Oracle数据库、EMC存储设备，可以说缺一不可。 ....",
"emailed" : False,
"forwarded" : False,
"english" : False
}  , {
"index" : 7,
"articleIndex" : "46960",
"favor" :  False ,
     "read" : False,    
"title" : "伊隆-马斯克如何化解特斯拉汽车着火事件？",
"titleTip" : "伊隆-马斯克如何化解特斯拉汽车着火事件？",
"titleSummary" : "伊隆-马斯克如何化解特斯拉汽车着火事件？",
"descSummary" : "特斯拉Model S轿车着火事件曾让该公司的形象大大受损，股...",
"url" : "http:\/\/go.rss.sina.com.cn\/redirect.php?url=http:\/\/tech.sina.com.cn\/it\/2013-10-12\/09388808981.shtml",
"pubDate" : "2013年10月12日 (2周前)",
"enterDate" : "384201:04:58",
"channelId" : "-3761066304732494735",
"channelName" : "业界新闻-新浪科技",
"channelNameSummary" : "业界新闻-新浪科技",
"channelUrl" : "http:\/\/tech.sina.com.cn\/it\/",
"author" : "WWW.SINA.COM.CN",
"tags" : [],
"desc" : "特斯拉Model S轿车着火事件曾让该公司的形象大大受损，股价大跌 导语：风险投资公司Storm Ventures董事总经理詹森・莱姆金(Jason Lemkin)在社交问答网站Quora上，对\u201C特斯拉能否从电池着火事件中恢复？\u201D的问题做出了解答。他认为，此事不会有太大影响，因为特斯拉已经充分....",
"emailed" : False,
"forwarded" : False,
"english" : False
}  , {
"index" : 8,
"articleIndex" : "46959",
"favor" :  False ,
     "read" : False,    
"title" : "一线品牌的二线城市生机",
"titleTip" : "一线品牌的二线城市生机",
"titleSummary" : "一线品牌的二线城市生机",
"descSummary" : "在北上广深，你可能早已熟悉了很多连锁品牌，比如去星巴克喝咖啡、去永辉超...",
"url" : "http:\/\/go.rss.sina.com.cn\/redirect.php?url=http:\/\/tech.sina.com.cn\/zl\/post\/detail\/it\/2013-10-12\/pid_8435736.htm",
"pubDate" : "2013年10月12日 (2周前)",
"enterDate" : "384200:43:46",
"channelId" : "-3761066304732494735",
"channelName" : "业界新闻-新浪科技",
"channelNameSummary" : "业界新闻-新浪科技",
"channelUrl" : "http:\/\/tech.sina.com.cn\/it\/",
"author" : "WWW.SINA.COM.CN",
"tags" : [],
"desc" : "在北上广深，你可能早已熟悉了很多连锁品牌，比如去星巴克喝咖啡、去永辉超市买点生鲜、去优衣库看看衬衫，或者去迪卡侬找找户外用品。这些连锁店的特点就是品质不错，而价格相对还好接受。 但是，过年回到二线城市时，以上的店铺可能你一家也找不到，因为这些巨头根本没有在当....",
"emailed" : False,
"forwarded" : False,
"english" : False
}  , {
"index" : 9,
"articleIndex" : "46958",
"favor" :  False ,
     "read" : False,    
"title" : "微软的头疼事：Win8该怎样接管XP的阵地",
"titleTip" : "微软的头疼事：Win8该怎样接管XP的阵地",
"titleSummary" : "微软的头疼事：Win8该怎样接管XP的阵地",
"descSummary" : "文\/周璞 不久前，我曾劝告一个被Windows XP折磨得快疯了的...",
"url" : "http:\/\/go.rss.sina.com.cn\/redirect.php?url=http:\/\/tech.sina.com.cn\/zl\/post\/detail\/it\/2013-10-12\/pid_8435726.htm",
"pubDate" : "2013年10月12日 (2周前)",
"enterDate" : "384200:46:02",
"channelId" : "-3761066304732494735",
"channelName" : "业界新闻-新浪科技",
"channelNameSummary" : "业界新闻-新浪科技",
"channelUrl" : "http:\/\/tech.sina.com.cn\/it\/",
"author" : "WWW.SINA.COM.CN",
"tags" : [],
"desc" : "文\/周璞 不久前，我曾劝告一个被Windows XP折磨得快疯了的朋友：\u201C看看，你电脑动辄蓝屏假死，发个邮件都要十分钟，还不趁早换个系统？\u201D没想到她本人倒是挺想得开：\u201C多麻烦啊，而且我觉得XP还行，挺好用的！\u201D真是怪哉，明明她前一秒还在抱怨，但一说换系统却狠不下心了，这....",
"emailed" : False,
"forwarded" : False,
"english" : False
}  , {
"index" : 10,
"articleIndex" : "46957",
"favor" :  False ,
     "read" : False,    
"title" : "巴西当局对谷歌展开反垄断调查",
"titleTip" : "巴西当局对谷歌展开反垄断调查",
"titleSummary" : "巴西当局对谷歌展开反垄断调查",
"descSummary" : "新浪科技讯 北京时间10月12日早间消息，巴西当局正在对谷歌展开反垄...",
"url" : "http:\/\/go.rss.sina.com.cn\/redirect.php?url=http:\/\/tech.sina.com.cn\/it\/2013-10-12\/07038808365.shtml",
"pubDate" : "2013年10月12日 (2周前)",
"enterDate" : "384201:00:18",
"channelId" : "-3761066304732494735",
"channelName" : "业界新闻-新浪科技",
"channelNameSummary" : "业界新闻-新浪科技",
"channelUrl" : "http:\/\/tech.sina.com.cn\/it\/",
"author" : "WWW.SINA.COM.CN",
"tags" : [],
"desc" : "新浪科技讯 北京时间10月12日早间消息，巴西当局正在对谷歌展开反垄断调查，该公司此前遭到微软和巴西竞争对手的指控。这意味着，在谷歌增长速度最快的一个主要市场上，该公司面临的政府压力愈发加大。 巴西反垄断监管机构Cade周五称，该机构正在对谷歌受到的指控展开....",
"emailed" : False,
"forwarded" : False,
"english" : False
}  , {
"index" : 11,
"articleIndex" : "46956",
"favor" :  False ,
     "read" : False,    
"title" : "科技部长批科研腐败：很愤怒也很痛心",
"titleTip" : "科技部长批科研腐败：很愤怒也很痛心",
"titleSummary" : "科技部长批科研腐败：很愤怒也很痛心",
"descSummary" : "新京报讯 (记者王姝)\u201C我感到很愤怒，也很痛心，更加感到十分的...",
"url" : "http:\/\/go.rss.sina.com.cn\/redirect.php?url=http:\/\/tech.sina.com.cn\/it\/2013-10-12\/02398807795.shtml",
"pubDate" : "2013年10月12日 (2周前)",
"enterDate" : "384200:36:18",
"channelId" : "-3761066304732494735",
"channelName" : "业界新闻-新浪科技",
"channelNameSummary" : "业界新闻-新浪科技",
"channelUrl" : "http:\/\/tech.sina.com.cn\/it\/",
"author" : "WWW.SINA.COM.CN",
"tags" : [],
"desc" : "新京报讯 (记者王姝)\u201C我感到很愤怒，也很痛心，更加感到十分的错愕、愤怒\u201D，昨日国新办新闻发布会上，科技部部长万钢披露，目前，有关部门正在审查两起涉嫌贪污科研经费大案。 将建科研经费巡视制 万钢称，目前有关部门正在审查两起有关科研经费的违纪违法案....",
"emailed" : False,
"forwarded" : False,
"english" : False
}  , {
"index" : 12,
"articleIndex" : "46955",
"favor" :  False ,
     "read" : False,    
"title" : "陕西教育厅介入大学生被逼到富士康实习事件",
"titleTip" : "陕西教育厅介入大学生被逼到富士康实习事件",
"titleSummary" : "陕西教育厅介入大学生被逼到富士康实习事件",
"descSummary" : "中新网西安10月11日电 (冀浩凡 阿琳娜)近日有媒体报道，...",
"url" : "http:\/\/go.rss.sina.com.cn\/redirect.php?url=http:\/\/tech.sina.com.cn\/it\/2013-10-11\/18408806942.shtml",
"pubDate" : "2013年10月11日 (2周前)",
"enterDate" : "384187:06:09",
"channelId" : "-3761066304732494735",
"channelName" : "业界新闻-新浪科技",
"channelNameSummary" : "业界新闻-新浪科技",
"channelUrl" : "http:\/\/tech.sina.com.cn\/it\/",
"author" : "WWW.SINA.COM.CN",
"tags" : [],
"desc" : "中新网西安10月11日电 (冀浩凡 阿琳娜)近日有媒体报道，\u201C西安工业大学北方信息工程学院学生被逼迫到富士康烟台工厂实习，否则不予发放学位证\u201D，引发社会广泛关注。中新网记者11日下午从陕西省教育厅获悉，该厅已派出专门工作组到该院实地调查核实有关情况，结果会后续公开。....",
"emailed" : False,
"forwarded" : False,
"english" : False
}  , {
"index" : 13,
"articleIndex" : "46954",
"favor" :  False ,
     "read" : False,    
"title" : "三星6.5亿美元收购指纹验证公司FC为虚假报道",
"titleTip" : "三星6.5亿美元收购指纹验证公司FC为虚假报道",
"titleSummary" : "三星6.5亿美元收购指纹验证公司FC为虚假报道",
"descSummary" : "新浪科技讯 北京时间10月11日晚间消息，瑞典指纹验证技...",
"url" : "http:\/\/go.rss.sina.com.cn\/redirect.php?url=http:\/\/tech.sina.com.cn\/it\/2013-10-11\/18138806882.shtml",
"pubDate" : "2013年10月11日 (2周前)",
"enterDate" : "384201:11:57",
"channelId" : "-3761066304732494735",
"channelName" : "业界新闻-新浪科技",
"channelNameSummary" : "业界新闻-新浪科技",
"channelUrl" : "http:\/\/tech.sina.com.cn\/it\/",
"author" : "WWW.SINA.COM.CN",
"tags" : [],
"desc" : "新浪科技讯 北京时间10月11日晚间消息，瑞典指纹验证技术公司Fingerprint Cards CEO约翰・卡尔斯特罗姆(Johan Carlstrom)周五称，媒体之前所报道的三星将收购Fingerprint Cards为虚假报道。 卡尔斯特罗姆称：\u201C之前的新闻稿是虚假的。\u201D卡尔斯特罗姆还称，Fingerprint....",
"emailed" : False,
"forwarded" : False,
"english" : False
}  , {
"index" : 14,
"articleIndex" : "46953",
"favor" :  False ,
     "read" : False,    
"title" : "富士康宣布对烟台实习生超时工作问题进行调查",
"titleTip" : "富士康宣布对烟台实习生超时工作问题进行调查",
"titleSummary" : "富士康宣布对烟台实习生超时工作问题进行调查",
"descSummary" : "新浪科技讯 北京时间10月11日下午消息，在富士康烟台...",
"url" : "http:\/\/go.rss.sina.com.cn\/redirect.php?url=http:\/\/tech.sina.com.cn\/it\/2013-10-11\/17118806762.shtml",
"pubDate" : "2013年10月11日 (2周前)",
"enterDate" : "384201:10:20",
"channelId" : "-3761066304732494735",
"channelName" : "业界新闻-新浪科技",
"channelNameSummary" : "业界新闻-新浪科技",
"channelUrl" : "http:\/\/tech.sina.com.cn\/it\/",
"author" : "WWW.SINA.COM.CN",
"tags" : [],
"desc" : "新浪科技讯 北京时间10月11日下午消息，在富士康烟台工厂因为实习生超时工作被曝光后，该公司正在对烟台工厂展开调查。 富士康在昨天的声明中表示，在发现实习生加夜班以及超时工作的事件后，该公司已经采取了措施确保其政策得以落实。该公司还将密切监督学生项目，以....",
"emailed" : False,
"forwarded" : False,
"english" : False
}  , {
"index" : 15,
"articleIndex" : "46952",
"favor" :  False ,
     "read" : False,    
"title" : "苹果设计主管艾维：设计最重要的是全心投入",
"titleTip" : "苹果设计主管艾维：设计最重要的是全心投入",
"titleSummary" : "苹果设计主管艾维：设计最重要的是全心投入",
"descSummary" : "新浪科技讯 北京时间10月11日下午消息，苹果首席设计师...",
"url" : "http:\/\/go.rss.sina.com.cn\/redirect.php?url=http:\/\/tech.sina.com.cn\/it\/2013-10-11\/14588806471.shtml",
"pubDate" : "2013年10月11日 (2周前)",
"enterDate" : "384200:57:43",
"channelId" : "-3761066304732494735",
"channelName" : "业界新闻-新浪科技",
"channelNameSummary" : "业界新闻-新浪科技",
"channelUrl" : "http:\/\/tech.sina.com.cn\/it\/",
"author" : "WWW.SINA.COM.CN",
"tags" : [],
"desc" : "新浪科技讯 北京时间10月11日下午消息，苹果首席设计师乔尼・艾维(Jony Ive)接受媒体采访时表示，设计产品的过程中最重要的是要真心重视这项工作，付出自己最大的努力。而且要加强与各种材料的亲身接触，不能过度依赖电脑建模。 \u201C在对待人们不会立刻发现的事情时，我....",
"emailed" : False,
"forwarded" : False,
"english" : False
}  , {
"index" : 16,
"articleIndex" : "46951",
"favor" :  False ,
     "read" : False,    
"title" : "海通证券维持联想买入评级 目标价9.50港元",
"titleTip" : "海通证券维持联想买入评级 目标价9.50港元",
"titleSummary" : "海通证券维持联想买入评级 目标价9.50港元",
"descSummary" : "新浪科技讯 北京时间10月11日下午消息，海通证券今天发布...",
"url" : "http:\/\/go.rss.sina.com.cn\/redirect.php?url=http:\/\/tech.sina.com.cn\/it\/2013-10-11\/14318806351.shtml",
"pubDate" : "2013年10月11日 (2周前)",
"enterDate" : "384201:00:18",
"channelId" : "-3761066304732494735",
"channelName" : "业界新闻-新浪科技",
"channelNameSummary" : "业界新闻-新浪科技",
"channelUrl" : "http:\/\/tech.sina.com.cn\/it\/",
"author" : "WWW.SINA.COM.CN",
"tags" : [],
"desc" : "新浪科技讯 北京时间10月11日下午消息，海通证券今天发布研究报告，维持联想股票\u201C买入\u201D(Buy)评级，目标价上调至9.50港元。 以下为报告概要： 个人电脑市场疲软，联想再次独占鳌头。全球个人电脑市场在2013 年3 季度持续其疲软表现，据IDC 最新数据，整体个人....",
"emailed" : False,
"forwarded" : False,
"english" : False
}  , {
"index" : 17,
"articleIndex" : "46950",
"favor" :  False ,
     "read" : False,    
"title" : "纽约时报：PC出货量下滑幅度收窄属侥幸",
"titleTip" : "纽约时报：PC出货量下滑幅度收窄属侥幸",
"titleSummary" : "纽约时报：PC出货量下滑幅度收窄属侥幸",
"descSummary" : "导语：美国《纽约时报》网络版周三刊登题为《PC出货量本可...",
"url" : "http:\/\/go.rss.sina.com.cn\/redirect.php?url=http:\/\/tech.sina.com.cn\/it\/2013-10-11\/13548806295.shtml",
"pubDate" : "2013年10月11日 (2周前)",
"enterDate" : "384200:53:47",
"channelId" : "-3761066304732494735",
"channelName" : "业界新闻-新浪科技",
"channelNameSummary" : "业界新闻-新浪科技",
"channelUrl" : "http:\/\/tech.sina.com.cn\/it\/",
"author" : "WWW.SINA.COM.CN",
"tags" : [],
"desc" : "导语：美国《纽约时报》网络版周三刊登题为《PC出货量本可能更糟(今后也可能会更糟)》(PC Shipments: It Could Have Been Worse (and Probably Will Be))的评论文章称，虽然第三季度的PC市场下滑幅度有所收窄，但这主要是因为PC厂商去年同期为等待Windows 8系统而降低出货量所....",
"emailed" : False,
"forwarded" : False,
"english" : False
}  , {
"index" : 18,
"articleIndex" : "46949",
"favor" :  False ,
     "read" : False,    
"title" : "苹果iWatch并非智能手表：实为家庭自动化设备",
"titleTip" : "苹果iWatch并非智能手表：实为家庭自动化设备",
"titleSummary" : "苹果iWatch并非智能手表：实为家庭自动化设备",
"descSummary" : "新浪科技讯 北京时间10月11日上午消息，投资银行Can...",
"url" : "http:\/\/go.rss.sina.com.cn\/redirect.php?url=http:\/\/tech.sina.com.cn\/it\/2013-10-11\/10468806013.shtml",
"pubDate" : "2013年10月11日 (2周前)",
"enterDate" : "384201:16:26",
"channelId" : "-3761066304732494735",
"channelName" : "业界新闻-新浪科技",
"channelNameSummary" : "业界新闻-新浪科技",
"channelUrl" : "http:\/\/tech.sina.com.cn\/it\/",
"author" : "WWW.SINA.COM.CN",
"tags" : [],
"desc" : "新浪科技讯 北京时间10月11日上午消息，投资银行Cantor Fitzgerald分析师布莱恩・怀特(Brian White)在与中国大陆和中国台湾的供应商沟通后认为，苹果公司的iWatch智能手表并非智能手机伴侣，而是一款专门用于实现家庭自动化的设备。 三星几周前推出了Galaxy Gear智能手....",
"emailed" : False,
"forwarded" : False,
"english" : False
}  , {
"index" : 19,
"articleIndex" : "46948",
"favor" :  False ,
     "read" : False,    
"title" : "过去5年间微软个人计算设备市场份额下滑60%",
"titleTip" : "过去5年间微软个人计算设备市场份额下滑60%",
"titleSummary" : "过去5年间微软个人计算设备市场份额下滑60%",
"descSummary" : "新浪科技讯 北京时间10月11日上午消息，据美国科技博客...",
"url" : "http:\/\/go.rss.sina.com.cn\/redirect.php?url=http:\/\/tech.sina.com.cn\/it\/2013-10-11\/10298805969.shtml",
"pubDate" : "2013年10月11日 (2周前)",
"enterDate" : "384200:58:58",
"channelId" : "-3761066304732494735",
"channelName" : "业界新闻-新浪科技",
"channelNameSummary" : "业界新闻-新浪科技",
"channelUrl" : "http:\/\/tech.sina.com.cn\/it\/",
"author" : "WWW.SINA.COM.CN",
"tags" : [],
"desc" : "新浪科技讯 北京时间10月11日上午消息，据美国科技博客AppleInsider报道，市场研究公司Asymco分析师霍拉斯・德迪欧(Horace Dediu)发表报告称，过去5年间，\u201C后PC时代\u201D设备快速取代了Windows PC，微软在个人计算设备领域的份额由约90%降至30%。 过去5年间，PC出货量增....",
"emailed" : False,
"forwarded" : False,
"english" : False
} ]
}
