{
"mode" : {"viewTitle" : 1,   "viewNew" : 0,  "pageIndex" : 2 },
 "channel" : {"id" : "-3761066304732494735", "booked" : False, "subNumber" : 1, "name" : "业界新闻-新浪科技", "url" : "http:\/\/tech.sina.com.cn\/it\/", "feed" : "http:\/\/rss.sina.com.cn\/tech\/it\/gn37.xml", "author" : "WWW.SINA.COM.CN", "desc" : "业界新闻", "imageUrl" : "http:\/\/www.sinaimg.cn\/home\/deco\/2009\/0330\/logo_home_tech_news.gif", "postPerWeek" : "0", "lastCrawTime" : "2013年10月13日 (2周前)", "crawDateTime" : "2013年10月13日 (2周前)", "lastHttpCode" : "200"}, "page" : {
"startIndex" : 20,
"totalCount" : 5000,
"pageIndex" : 2,
"lastPage" : 250,
"pageSize" : 20,
"english" :  False },
 "unreadNum" : 0, "shotIndex" : -1,
"articles" : [
{
"index" : 0,
"articleIndex" : "46947",
"favor" :  False ,
     "read" : False,    
"title" : "陈坤VS黄晓明：用大数据解读大明星",
"titleTip" : "陈坤VS黄晓明：用大数据解读大明星",
"titleSummary" : "陈坤VS黄晓明：用大数据解读大明星",
"descSummary" : "注：本文来自影视圈杂志社和@数托邦合作的娱乐大数据专栏 文\/《...",
"url" : "http:\/\/go.rss.sina.com.cn\/redirect.php?url=http:\/\/tech.sina.com.cn\/zl\/post\/detail\/it\/2013-10-11\/pid_8435707.htm",
"pubDate" : "2013年10月11日 (2周前)",
"enterDate" : "384200:53:41",
"channelId" : "-3761066304732494735",
"channelName" : "业界新闻-新浪科技",
"channelNameSummary" : "业界新闻-新浪科技",
"channelUrl" : "http:\/\/tech.sina.com.cn\/it\/",
"author" : "WWW.SINA.COM.CN",
"tags" : [],
"desc" : "注：本文来自影视圈杂志社和@数托邦合作的娱乐大数据专栏 文\/《影视圈》杂志、数托邦创意分析工作室 最近几年，社交媒体(以及自媒体)的出现和兴盛可以说深刻地影响了影视行业的发展。它让影视作品生产的每一个环节都变得与观众(消费者)直接相关，许多在行业中掌....",
"emailed" : False,
"forwarded" : False,
"english" : False
}  , {
"index" : 1,
"articleIndex" : "46946",
"favor" :  False ,
     "read" : False,    
"title" : "美光科技公布第四财季财报：同比扭亏",
"titleTip" : "美光科技公布第四财季财报：同比扭亏",
"titleSummary" : "美光科技公布第四财季财报：同比扭亏",
"descSummary" : "新浪科技讯 北京时间10月11日凌晨消息，美光科技今天发布了20...",
"url" : "http:\/\/go.rss.sina.com.cn\/redirect.php?url=http:\/\/tech.sina.com.cn\/it\/2013-10-11\/05038804440.shtml",
"pubDate" : "2013年10月11日 (2周前)",
"enterDate" : "384201:03:50",
"channelId" : "-3761066304732494735",
"channelName" : "业界新闻-新浪科技",
"channelNameSummary" : "业界新闻-新浪科技",
"channelUrl" : "http:\/\/tech.sina.com.cn\/it\/",
"author" : "WWW.SINA.COM.CN",
"tags" : [],
"desc" : "新浪科技讯 北京时间10月11日凌晨消息，美光科技今天发布了2013财年第四财季财报。报告显示，美光科技第四财季营收为28.4美元，去年同期为19.6亿美元；净利润为17.1亿美元，去年同期净亏损为2.43亿美元。美光科技第四财季业绩超出华尔街分析师预期，但盘后股价仍下跌近2%。....",
"emailed" : False,
"forwarded" : False,
"english" : False
}  , {
"index" : 2,
"articleIndex" : "46945",
"favor" :  False ,
     "read" : False,    
"title" : "第三季度全球PC销量降至五年新低",
"titleTip" : "第三季度全球PC销量降至五年新低",
"titleSummary" : "第三季度全球PC销量降至五年新低",
"descSummary" : "本报记者 杨博 研究公司Gartner9日发布的数据显示，第三季度全球个...",
"url" : "http:\/\/go.rss.sina.com.cn\/redirect.php?url=http:\/\/tech.sina.com.cn\/it\/2013-10-11\/04428804380.shtml",
"pubDate" : "2013年10月11日 (2周前)",
"enterDate" : "384200:43:36",
"channelId" : "-3761066304732494735",
"channelName" : "业界新闻-新浪科技",
"channelNameSummary" : "业界新闻-新浪科技",
"channelUrl" : "http:\/\/tech.sina.com.cn\/it\/",
"author" : "WWW.SINA.COM.CN",
"tags" : [],
"desc" : "□本报记者 杨博 研究公司Gartner9日发布的数据显示，第三季度全球个人电脑(PC)销量下滑8.6%，至8030万台，创下2008年以来最低水平，这进一步证实了平板电脑流行的趋势。 Gartner报告显示，当季欧洲、中东及非洲的PC销量降幅最大，为13.7%；亚太地区销量下降11.....",
"emailed" : False,
"forwarded" : False,
"english" : False
}  , {
"index" : 3,
"articleIndex" : "46944",
"favor" :  False ,
     "read" : False,    
"title" : "IDC：第三季度Mac美国销量下滑11% 表现最差",
"titleTip" : "IDC：第三季度Mac美国销量下滑11% 表现最差",
"titleSummary" : "IDC：第三季度Mac美国销量下滑11% 表现最差",
"descSummary" : "新浪科技讯 北京时间10月10日晚间消息，IDC周三发布报...",
"url" : "http:\/\/go.rss.sina.com.cn\/redirect.php?url=http:\/\/tech.sina.com.cn\/it\/2013-10-10\/22188803142.shtml",
"pubDate" : "2013年10月10日 (2周前)",
"enterDate" : "384200:50:33",
"channelId" : "-3761066304732494735",
"channelName" : "业界新闻-新浪科技",
"channelNameSummary" : "业界新闻-新浪科技",
"channelUrl" : "http:\/\/tech.sina.com.cn\/it\/",
"author" : "WWW.SINA.COM.CN",
"tags" : [],
"desc" : "新浪科技讯 北京时间10月10日晚间消息，IDC周三发布报告称，由于全球PC出货量下滑，苹果公司(以下简称\u201C苹果\u201D)第三季度Mac美国销量也随之下滑。 报告显示，今年第三季度苹果Mac美国销量为190万部，同比下滑11%，市场排名第三，位居惠普和戴尔之后。但在包括联想和东芝....",
"emailed" : False,
"forwarded" : False,
"english" : False
}  , {
"index" : 4,
"articleIndex" : "46943",
"favor" :  False ,
     "read" : False,    
"title" : "瑞穗调升惠普评级至中性 目标价22美元",
"titleTip" : "瑞穗调升惠普评级至中性 目标价22美元",
"titleSummary" : "瑞穗调升惠普评级至中性 目标价22美元",
"descSummary" : "新浪科技讯 北京时间10月10日晚间消息，周四瑞穗证券宣布，将...",
"url" : "http:\/\/go.rss.sina.com.cn\/redirect.php?url=http:\/\/tech.sina.com.cn\/it\/2013-10-10\/21578803125.shtml",
"pubDate" : "2013年10月10日 (2周前)",
"enterDate" : "384200:59:42",
"channelId" : "-3761066304732494735",
"channelName" : "业界新闻-新浪科技",
"channelNameSummary" : "业界新闻-新浪科技",
"channelUrl" : "http:\/\/tech.sina.com.cn\/it\/",
"author" : "WWW.SINA.COM.CN",
"tags" : [],
"desc" : "新浪科技讯 北京时间10月10日晚间消息，周四瑞穗证券宣布，将科技巨头、道指成分股惠普(NYSE: HPQ)的股票评级从\u201C不及大盘\u201D调升至\u201C中性\u201D，目标价为22美元。 周三惠普的股票收于22.60美元，已高于22美元的目标价。该股过去52周交易区间为11.35-27.78美元。 截....",
"emailed" : False,
"forwarded" : False,
"english" : False
}  , {
"index" : 5,
"articleIndex" : "46942",
"favor" :  False ,
     "read" : False,    
"title" : "世纪互联任命柯文达为微软云运营业务总裁",
"titleTip" : "世纪互联任命柯文达为微软云运营业务总裁",
"titleSummary" : "世纪互联任命柯文达为微软云运营业务总裁",
"descSummary" : "新浪科技讯 北京时间10月10日晚间消息，世纪互联(Nasdaq...",
"url" : "http:\/\/go.rss.sina.com.cn\/redirect.php?url=http:\/\/tech.sina.com.cn\/it\/2013-10-10\/21288803104.shtml",
"pubDate" : "2013年10月10日 (2周前)",
"enterDate" : "384201:00:07",
"channelId" : "-3761066304732494735",
"channelName" : "业界新闻-新浪科技",
"channelNameSummary" : "业界新闻-新浪科技",
"channelUrl" : "http:\/\/tech.sina.com.cn\/it\/",
"author" : "WWW.SINA.COM.CN",
"tags" : [],
"desc" : "新浪科技讯 北京时间10月10日晚间消息，世纪互联(Nasdaq:VNET)今日宣布，公司董事会已任命柯文达(Wing-Dar Ker)为公司微软云运营(Microsoft Cloud Operation)业务总裁。 加盟世纪互联前，柯文达曾任微软亚太区及大中华区客户服务与支持中心总经理，领导一支拥有900多人....",
"emailed" : False,
"forwarded" : False,
"english" : False
}  , {
"index" : 6,
"articleIndex" : "46941",
"favor" :  False ,
     "read" : False,    
"title" : "极简穿戴设备：时间指环",
"titleTip" : "极简穿戴设备：时间指环",
"titleSummary" : "极简穿戴设备：时间指环",
"descSummary" : "时间指环 怀表，腕表？尽管当下每部手机上都带有时间显示，时尚和惯性仍是...",
"url" : "http:\/\/go.rss.sina.com.cn\/redirect.php?url=http:\/\/tech.sina.com.cn\/it\/2013-10-10\/16068802583.shtml",
"pubDate" : "2013年10月10日 (2周前)",
"enterDate" : "384201:09:39",
"channelId" : "-3761066304732494735",
"channelName" : "业界新闻-新浪科技",
"channelNameSummary" : "业界新闻-新浪科技",
"channelUrl" : "http:\/\/tech.sina.com.cn\/it\/",
"author" : "WWW.SINA.COM.CN",
"tags" : [],
"desc" : "时间指环 怀表，腕表？尽管当下每部手机上都带有时间显示，时尚和惯性仍是传统手表销量稳定背后的动因。而时间指环恰恰指向了相同的切入点。 时间指环(Ring Clock)顾名思义，就是一枚可以显示时间的指环。这款指环最早来自Gusztav Szikszai 2011年所作的概念设计。....",
"emailed" : False,
"forwarded" : False,
"english" : False
}  , {
"index" : 7,
"articleIndex" : "46940",
"favor" :  False ,
     "read" : False,    
"title" : "传微软董事会计划年内确定新CEO人选",
"titleTip" : "传微软董事会计划年内确定新CEO人选",
"titleSummary" : "传微软董事会计划年内确定新CEO人选",
"descSummary" : "新浪科技讯 北京时间10月10日上午消息，据路透社报道，知情人...",
"url" : "http:\/\/go.rss.sina.com.cn\/redirect.php?url=http:\/\/tech.sina.com.cn\/it\/2013-10-10\/11598802187.shtml",
"pubDate" : "2013年10月10日 (2周前)",
"enterDate" : "384201:03:17",
"channelId" : "-3761066304732494735",
"channelName" : "业界新闻-新浪科技",
"channelNameSummary" : "业界新闻-新浪科技",
"channelUrl" : "http:\/\/tech.sina.com.cn\/it\/",
"author" : "WWW.SINA.COM.CN",
"tags" : [],
"desc" : "新浪科技讯 北京时间10月10日上午消息，据路透社报道，知情人士透露，微软董事会正在加快速度，希望在年底前为CEO史蒂夫・鲍尔默(Steve Ballmer)选定继任者。 知情人士透露，微软董事会已经缩小了筛选范围，并且正在展开初步面试。知情人士称，其中部分候选人已经拒绝....",
"emailed" : False,
"forwarded" : False,
"english" : False
}  , {
"index" : 8,
"articleIndex" : "46939",
"favor" :  False ,
     "read" : False,    
"title" : "微软研发用户追踪新技术：欲取代cookie",
"titleTip" : "微软研发用户追踪新技术：欲取代cookie",
"titleSummary" : "微软研发用户追踪新技术：欲取代cookie",
"descSummary" : "新浪科技讯 北京时间10月10日上午消息，据《广告时代》(Ad Ag...",
"url" : "http:\/\/go.rss.sina.com.cn\/redirect.php?url=http:\/\/tech.sina.com.cn\/it\/2013-10-10\/10438802018.shtml",
"pubDate" : "2013年10月10日 (2周前)",
"enterDate" : "384200:47:41",
"channelId" : "-3761066304732494735",
"channelName" : "业界新闻-新浪科技",
"channelNameSummary" : "业界新闻-新浪科技",
"channelUrl" : "http:\/\/tech.sina.com.cn\/it\/",
"author" : "WWW.SINA.COM.CN",
"tags" : [],
"desc" : "新浪科技讯 北京时间10月10日上午消息，据《广告时代》(Ad Age)网站报道，微软现正研发自己的用户追踪技术以取代现在普遍使用的\u201Ccookie\u201D。 报道称，微软正为运行Windows系统的电脑、平板、智能手机以及该公司的Xbox游戏主机开发新的用户信息收集技术。这一技术还将适....",
"emailed" : False,
"forwarded" : False,
"english" : False
}  , {
"index" : 9,
"articleIndex" : "46938",
"favor" :  False ,
     "read" : False,    
"title" : "惠普CEO惠特曼满意目前转型进展",
"titleTip" : "惠普CEO惠特曼满意目前转型进展",
"titleSummary" : "惠普CEO惠特曼满意目前转型进展",
"descSummary" : "新浪科技讯 北京时间10月10日早间消息，据《华尔街日报》报道，惠...",
"url" : "http:\/\/go.rss.sina.com.cn\/redirect.php?url=http:\/\/tech.sina.com.cn\/it\/2013-10-10\/09508801791.shtml",
"pubDate" : "2013年10月10日 (2周前)",
"enterDate" : "384200:54:26",
"channelId" : "-3761066304732494735",
"channelName" : "业界新闻-新浪科技",
"channelNameSummary" : "业界新闻-新浪科技",
"channelUrl" : "http:\/\/tech.sina.com.cn\/it\/",
"author" : "WWW.SINA.COM.CN",
"tags" : [],
"desc" : "新浪科技讯 北京时间10月10日早间消息，据《华尔街日报》报道，惠普公司CEO梅格・惠特曼(Meg Whitman)向分析师表示，虽然仍存在挑战，公司在转型过程中的表现有所进步。 惠特曼在分析师会议上说：\u201C我们提升了业务的可预测性。每一项业务都是按照以结果为导向的具体战....",
"emailed" : False,
"forwarded" : False,
"english" : False
}  , {
"index" : 10,
"articleIndex" : "46936",
"favor" :  False ,
     "read" : False,    
"title" : "收购诺基亚未助Windows Phone赢得开发者",
"titleTip" : "收购诺基亚未助Windows Phone赢得开发者",
"titleSummary" : "收购诺基亚未助Windows Phone赢得开发者",
"descSummary" : "新浪科技讯 北京时间10月10日早间消息，据彭博社报道，微...",
"url" : "http:\/\/go.rss.sina.com.cn\/redirect.php?url=http:\/\/tech.sina.com.cn\/it\/2013-10-10\/09058801627.shtml",
"pubDate" : "2013年10月10日 (2周前)",
"enterDate" : "384201:09:20",
"channelId" : "-3761066304732494735",
"channelName" : "业界新闻-新浪科技",
"channelNameSummary" : "业界新闻-新浪科技",
"channelUrl" : "http:\/\/tech.sina.com.cn\/it\/",
"author" : "WWW.SINA.COM.CN",
"tags" : [],
"desc" : "新浪科技讯 北京时间10月10日早间消息，据彭博社报道，微软对诺基亚手机业务进行的72亿美元收购没能帮助微软赢得更多的Windows Phone应用开发者。 一些开发者一直在尽量避免开发Windows Phone应用，对于他们来说，微软与诺基亚是否建立了更亲密的关系并不重要。大部分....",
"emailed" : False,
"forwarded" : False,
"english" : False
}  , {
"index" : 11,
"articleIndex" : "46937",
"favor" :  False ,
     "read" : False,    
"title" : "三星电子否认收购百思买股份",
"titleTip" : "三星电子否认收购百思买股份",
"titleSummary" : "三星电子否认收购百思买股份",
"descSummary" : "南方日报讯 （记者\/钱玮珏）日前有传闻指，三星为了应对智能手机市场不...",
"url" : "http:\/\/go.rss.sina.com.cn\/redirect.php?url=http:\/\/tech.sina.com.cn\/it\/2013-10-10\/08308801276.shtml",
"pubDate" : "2013年10月10日 (2周前)",
"enterDate" : "384200:04:27",
"channelId" : "-3761066304732494735",
"channelName" : "业界新闻-新浪科技",
"channelNameSummary" : "业界新闻-新浪科技",
"channelUrl" : "http:\/\/tech.sina.com.cn\/it\/",
"author" : "WWW.SINA.COM.CN",
"tags" : [],
"desc" : "南方日报讯 （记者\/钱玮珏）日前有传闻指，三星为了应对智能手机市场不断饱和的问题，或许会寻求收购美国最大的电子零售商之一百思买的股份。日前，三星电子发布声明予以否认。 根据三星电子近期公布的数据显示，今年1-9月，三星电子累计销售额达到169.33万亿韩元，约....",
"emailed" : False,
"forwarded" : False,
"english" : False
}  , {
"index" : 12,
"articleIndex" : "46935",
"favor" :  False ,
     "read" : False,    
"title" : "苹果设计教父：我教会乔布斯如何做设计",
"titleTip" : "苹果设计教父：我教会乔布斯如何做设计",
"titleSummary" : "苹果设计教父：我教会乔布斯如何做设计",
"descSummary" : "苹果公司前设计顾问哈特穆特・艾斯凌格(Hartmut Esslinger) 导...",
"url" : "http:\/\/go.rss.sina.com.cn\/redirect.php?url=http:\/\/tech.sina.com.cn\/it\/2013-10-10\/08248801173.shtml",
"pubDate" : "2013年10月10日 (2周前)",
"enterDate" : "384200:58:22",
"channelId" : "-3761066304732494735",
"channelName" : "业界新闻-新浪科技",
"channelNameSummary" : "业界新闻-新浪科技",
"channelUrl" : "http:\/\/tech.sina.com.cn\/it\/",
"author" : "WWW.SINA.COM.CN",
"tags" : [],
"desc" : "苹果公司前设计顾问哈特穆特・艾斯凌格(Hartmut Esslinger) 导语：《快公司》杂志网站刊登了一篇题为《我如何教会乔布斯把设计放在第一位》(How I Taught Steve Jobs To Put Design First)的文章，讲述了苹果公司前设计顾问哈特穆特・艾斯凌格(Hartmut Esslinger)与乔布斯....",
"emailed" : False,
"forwarded" : False,
"english" : False
}  , {
"index" : 13,
"articleIndex" : "46932",
"favor" :  False ,
     "read" : False,    
"title" : "Gartner：第三季全球PC销量同比下滑8.6%",
"titleTip" : "Gartner：第三季全球PC销量同比下滑8.6%",
"titleSummary" : "Gartner：第三季全球PC销量同比下滑8.6%",
"descSummary" : "新浪科技讯 北京时间10月10日凌晨消息，市场研究公司Gar...",
"url" : "http:\/\/go.rss.sina.com.cn\/redirect.php?url=http:\/\/tech.sina.com.cn\/it\/2013-10-10\/07148800736.shtml",
"pubDate" : "2013年10月10日 (2周前)",
"enterDate" : "384200:48:46",
"channelId" : "-3761066304732494735",
"channelName" : "业界新闻-新浪科技",
"channelNameSummary" : "业界新闻-新浪科技",
"channelUrl" : "http:\/\/tech.sina.com.cn\/it\/",
"author" : "WWW.SINA.COM.CN",
"tags" : [],
"desc" : "新浪科技讯 北京时间10月10日凌晨消息，市场研究公司Gartner周三发布最新报告称，第三季度全球PC销售量比去年同期下滑8.6%，连续第六个季度出现下滑。 Gartner报告显示，第三季度全球PC销售量为8030万台，这一数据对即将于下周二公布第三季度财报的英特尔来说是个坏兆....",
"emailed" : False,
"forwarded" : False,
"english" : False
}  , {
"index" : 14,
"articleIndex" : "46931",
"favor" :  False ,
     "read" : False,    
"title" : "苹果公司电脑美国区出货量同比大跌11%",
"titleTip" : "苹果公司电脑美国区出货量同比大跌11%",
"titleSummary" : "苹果公司电脑美国区出货量同比大跌11%",
"descSummary" : "新浪科技讯 北京时间10月10日凌晨消息，据IDC统计，苹果公司...",
"url" : "http:\/\/go.rss.sina.com.cn\/redirect.php?url=http:\/\/tech.sina.com.cn\/it\/apple\/2013-10-10\/05278800428.shtml",
"pubDate" : "2013年10月10日 (2周前)",
"enterDate" : "384201:02:21",
"channelId" : "-3761066304732494735",
"channelName" : "业界新闻-新浪科技",
"channelNameSummary" : "业界新闻-新浪科技",
"channelUrl" : "http:\/\/tech.sina.com.cn\/it\/",
"author" : "WWW.SINA.COM.CN",
"tags" : [],
"desc" : "新浪科技讯 北京时间10月10日凌晨消息，据IDC统计，苹果公司(AAPL)Mac电脑三季度美国区出货量同比大幅下降11%。 第三季度，美国区PC出货量前五名厂商分别为惠普、戴尔、苹果、联想和东芝。除苹果外，其他四家厂商三季度出货量均照去年同期有所增长。联想增幅最大，为25....",
"emailed" : False,
"forwarded" : False,
"english" : False
}  , {
"index" : 15,
"articleIndex" : "46934",
"favor" :  False ,
     "read" : False,    
"title" : "Surface 2被指模仿饥饿营销 定价贵遭吐槽",
"titleTip" : "Surface 2被指模仿饥饿营销 定价贵遭吐槽",
"titleSummary" : "Surface 2被指模仿饥饿营销 定价贵遭吐槽",
"descSummary" : "新京报讯 (记者 林其玲)微软Surface 2和Surface Pro 2两款平板...",
"url" : "http:\/\/go.rss.sina.com.cn\/redirect.php?url=http:\/\/tech.sina.com.cn\/it\/2013-10-10\/02398800031.shtml",
"pubDate" : "2013年10月10日 (3周前)",
"enterDate" : "384195:14:15",
"channelId" : "-3761066304732494735",
"channelName" : "业界新闻-新浪科技",
"channelNameSummary" : "业界新闻-新浪科技",
"channelUrl" : "http:\/\/tech.sina.com.cn\/it\/",
"author" : "WWW.SINA.COM.CN",
"tags" : [],
"desc" : "新京报讯 (记者 林其玲)微软Surface 2和Surface Pro 2两款平板电脑日前向国内用户开放预订。昨日微软表示，64GB版本的Surface 2以及256GB、512GB版本的Surface Pro 2即将售罄，而128GB版本已全面缺货。由于Surface一代销量平平，业内认为，微软此举为\u201C饥饿营销\u201D。 微....",
"emailed" : False,
"forwarded" : False,
"english" : False
}  , {
"index" : 16,
"articleIndex" : "46933",
"favor" :  False ,
     "read" : False,    
"title" : "传记电影《乔布斯》中国遇冷 类型是主因",
"titleTip" : "传记电影《乔布斯》中国遇冷 类型是主因",
"titleSummary" : "传记电影《乔布斯》中国遇冷 类型是主因",
"descSummary" : "在刚刚过去的\u201C十一\u201D国庆节期间，新发布苹果产品\u201C土豪金\u201D...",
"url" : "http:\/\/go.rss.sina.com.cn\/redirect.php?url=http:\/\/tech.sina.com.cn\/it\/apple\/2013-10-10\/01308799673.shtml",
"pubDate" : "2013年10月10日 (3周前)",
"enterDate" : "384194:05:07",
"channelId" : "-3761066304732494735",
"channelName" : "业界新闻-新浪科技",
"channelNameSummary" : "业界新闻-新浪科技",
"channelUrl" : "http:\/\/tech.sina.com.cn\/it\/",
"author" : "WWW.SINA.COM.CN",
"tags" : [],
"desc" : "在刚刚过去的\u201C十一\u201D国庆节期间，新发布苹果产品\u201C土豪金\u201D备受追捧，而讲述苹果公司创始人乔布斯的传记电影《乔布斯》却在影市遭冷遇，从9月27日上映至今票房刚刚突破一千万人民币，网络口碑一度下滑到5分以下（总分10分）。对比鲜明的表现之下，有其深层次原因。《乔布斯》....",
"emailed" : False,
"forwarded" : False,
"english" : False
}  , {
"index" : 17,
"articleIndex" : "46930",
"favor" :  False ,
     "read" : False,    
"title" : "惠普CEO：营收将实现稳定股价大涨",
"titleTip" : "惠普CEO：营收将实现稳定股价大涨",
"titleSummary" : "惠普CEO：营收将实现稳定股价大涨",
"descSummary" : "新浪科技讯 北京时间10月10日凌晨消息，惠普(HPQ)CEO梅格-惠特...",
"url" : "http:\/\/go.rss.sina.com.cn\/redirect.php?url=http:\/\/tech.sina.com.cn\/it\/2013-10-10\/00318799059.shtml",
"pubDate" : "2013年10月10日 (3周前)",
"enterDate" : "384197:43:52",
"channelId" : "-3761066304732494735",
"channelName" : "业界新闻-新浪科技",
"channelNameSummary" : "业界新闻-新浪科技",
"channelUrl" : "http:\/\/tech.sina.com.cn\/it\/",
"author" : "WWW.SINA.COM.CN",
"tags" : [],
"desc" : "新浪科技讯 北京时间10月10日凌晨消息，惠普(HPQ)CEO梅格-惠特曼(Meg Whitman)周三在该公司召开的分析师会议上表示，公司营收有望稳定下来，并将在2015年看到增长的机会。受此消息影响，惠普股价午盘由跌转涨，午盘攀升5%左右。 截至北京时间10月10日0点09分，惠普报21....",
"emailed" : False,
"forwarded" : False,
"english" : False
}  , {
"index" : 18,
"articleIndex" : "46929",
"favor" :  False ,
     "read" : False,    
"title" : "迪士尼研发新型触摸屏 可提供画面3D触感",
"titleTip" : "迪士尼研发新型触摸屏 可提供画面3D触感",
"titleSummary" : "迪士尼研发新型触摸屏 可提供画面3D触感",
"descSummary" : "迪士尼正在研发一种新型触摸屏，在播放音频或视频内容的同时...",
"url" : "http:\/\/go.rss.sina.com.cn\/redirect.php?url=http:\/\/tech.sina.com.cn\/it\/2013-10-09\/22538799022.shtml",
"pubDate" : "2013年10月9日 (3周前)",
"enterDate" : "384196:06:07",
"channelId" : "-3761066304732494735",
"channelName" : "业界新闻-新浪科技",
"channelNameSummary" : "业界新闻-新浪科技",
"channelUrl" : "http:\/\/tech.sina.com.cn\/it\/",
"author" : "WWW.SINA.COM.CN",
"tags" : [],
"desc" : "迪士尼正在研发一种新型触摸屏，在播放音频或视频内容的同时，还能提供触觉信息。 新浪科技讯 北京时间10月9日晚间消息，迪士尼正在研发一种新型触摸屏，在播放音频或视频内容的同时，还能提供触觉信息，让用户感知到画面的形状或触感。 这项技术被称为\u201C3D触觉渲染....",
"emailed" : False,
"forwarded" : False,
"english" : False
}  , {
"index" : 19,
"articleIndex" : "46928",
"favor" :  False ,
     "read" : False,    
"title" : "高校强迫学生进富士康实习 不参加将无法毕业",
"titleTip" : "高校强迫学生进富士康实习 不参加将无法毕业",
"titleSummary" : "高校强迫学生进富士康实习 不参加将无法毕业",
"descSummary" : "学生们一早去烟台富士康上班的路上 近日被曝员工集体斗...",
"url" : "http:\/\/go.rss.sina.com.cn\/redirect.php?url=http:\/\/tech.sina.com.cn\/it\/2013-10-09\/17228798636.shtml",
"pubDate" : "2013年10月9日 (3周前)",
"enterDate" : "384190:34:49",
"channelId" : "-3761066304732494735",
"channelName" : "业界新闻-新浪科技",
"channelNameSummary" : "业界新闻-新浪科技",
"channelUrl" : "http:\/\/tech.sina.com.cn\/it\/",
"author" : "WWW.SINA.COM.CN",
"tags" : [],
"desc" : "学生们一早去烟台富士康上班的路上 近日被曝员工集体斗殴的富士康烟台园区又卷入使用\u201C学生工\u201D风波，此次事件的另一主角是西安工业大学北方信息工程学院，该学院被指强制安排千余名在校学生进入富士康实习，不参加实习者将不予发放学位证。 正在富士康实习的多位学....",
"emailed" : False,
"forwarded" : False,
"english" : False
} ]
}
