{
"mode" : {"viewTitle" : 1,   "viewNew" : 0,  "pageIndex" : 1 },
 "channel" : {"id" : "-2934044229904768927", "booked" : False, "subNumber" : 1, "name" : "家居-家居新闻", "url" : "http:\/\/jiaju.sina.com.cn\/news\/index.html", "feed" : "http:\/\/rss.sina.com.cn\/jiaju\/news.xml", "author" : "WWW.SINA.COM.CN", "desc" : "家居-家居新闻", "imageUrl" : "http:\/\/www.sinaimg.cn\/house\/sina_fc.gif", "postPerWeek" : "0", "lastCrawTime" : "17:01:35", "crawDateTime" : "17:01:35", "lastHttpCode" : "200"}, "page" : {
"startIndex" : 0,
"totalCount" : 5000,
"pageIndex" : 1,
"lastPage" : 250,
"pageSize" : 20,
"english" :  False },
 "unreadNum" : 0, "shotIndex" : -1,
"articles" : [
{
"index" : 0,
"articleIndex" : "9752",
"favor" :  False ,
     "read" : False,    
"title" : "直播：第二届世界木门大会",
"titleTip" : "直播：第二届世界木门大会",
"titleSummary" : "直播：第二届世界木门大会",
"descSummary" : "",
"url" : "http:\/\/go.rss.sina.com.cn\/redirect.php?url=http:\/\/jiaju.sina.com.cn\/news\/2013-03-12\/085851189412.shtml?source=rss",
"pubDate" : "2013年3月12日",
"enterDate" : "384201:05:18",
"channelId" : "-2934044229904768927",
"channelName" : "家居-家居新闻",
"channelNameSummary" : "家居-家居新闻",
"channelUrl" : "http:\/\/jiaju.sina.com.cn\/news\/index.html",
"author" : "WWW.SINA.COM.CN",
"tags" : [],
"desc" : "",
"emailed" : False,
"forwarded" : False,
"english" : False
}  , {
"index" : 1,
"articleIndex" : "9751",
"favor" :  False ,
     "read" : False,    
"title" : "2012中国红木家具行业高峰论坛",
"titleTip" : "2012中国红木家具行业高峰论坛",
"titleSummary" : "2012中国红木家具行业高峰论坛",
"descSummary" : "主题：红木树种范围是否应当扩大 背景：2011年底，传出《红木家具通...",
"url" : "http:\/\/go.rss.sina.com.cn\/redirect.php?url=http:\/\/jiaju.sina.com.cn\/gz\/news\/2013-01-09\/154725189410.shtml?source=rss",
"pubDate" : "2013年1月9日",
"enterDate" : "384189:01:27",
"channelId" : "-2934044229904768927",
"channelName" : "家居-家居新闻",
"channelNameSummary" : "家居-家居新闻",
"channelUrl" : "http:\/\/jiaju.sina.com.cn\/news\/index.html",
"author" : "WWW.SINA.COM.CN",
"tags" : [],
"desc" : "主题：红木树种范围是否应当扩大 背景：2011年底，传出《红木家具通用技术条件》将会扩大红木木材种类，红木种类将从原本的五属八类扩大至一百多种。虽此后由权威部门澄清《红木家具通用技术条件》并没有扩大红木木材种类，但\u201C红木原材种类是否应当扩大\u201D这一问题已成....",
"emailed" : False,
"forwarded" : False,
"english" : False
}  , {
"index" : 2,
"articleIndex" : "9750",
"favor" :  False ,
     "read" : False,    
"title" : "方圆地板黄永平：木结构建筑带动地板配套销售",
"titleTip" : "方圆地板黄永平：木结构建筑带动地板配套销售",
"titleSummary" : "方圆地板黄永平：木结构建筑带动地板配套销售",
"descSummary" : "随着社会发展阶段的递进，人们对生活质量的要求也随之...",
"url" : "http:\/\/go.rss.sina.com.cn\/redirect.php?url=http:\/\/jiaju.sina.com.cn\/news\/2013-01-09\/153914189409.shtml?source=rss",
"pubDate" : "2013年1月9日",
"enterDate" : "384188:53:16",
"channelId" : "-2934044229904768927",
"channelName" : "家居-家居新闻",
"channelNameSummary" : "家居-家居新闻",
"channelUrl" : "http:\/\/jiaju.sina.com.cn\/news\/index.html",
"author" : "WWW.SINA.COM.CN",
"tags" : [],
"desc" : "随着社会发展阶段的递进，人们对生活质量的要求也随之提高，追求健康、环保、舒适、休闲的生活居所也必然成为一种趋势。方圆地板已不仅仅只是专注于木地板，而是很早便已经开始试水泛家居产业，木屋项目不但不影响地板，而且能带动地板的配套销售和原材料的综合利用。 采访....",
"emailed" : False,
"forwarded" : False,
"english" : False
}  , {
"index" : 3,
"articleIndex" : "9749",
"favor" :  False ,
     "read" : False,    
"title" : "安信地板彭勇华：诚信是企业和商人最基本素养",
"titleTip" : "安信地板彭勇华：诚信是企业和商人最基本素养",
"titleSummary" : "安信地板彭勇华：诚信是企业和商人最基本素养",
"descSummary" : "12月13日，中国木地板网摄制组将安信地板荣获\u201C中国...",
"url" : "http:\/\/go.rss.sina.com.cn\/redirect.php?url=http:\/\/jiaju.sina.com.cn\/news\/2013-01-09\/153720189408.shtml?source=rss",
"pubDate" : "2013年1月9日",
"enterDate" : "384188:51:22",
"channelId" : "-2934044229904768927",
"channelName" : "家居-家居新闻",
"channelNameSummary" : "家居-家居新闻",
"channelUrl" : "http:\/\/jiaju.sina.com.cn\/news\/index.html",
"author" : "WWW.SINA.COM.CN",
"tags" : [],
"desc" : "12月13日，中国木地板网摄制组将安信地板荣获\u201C中国地板(诚信)十大品牌\u201D及\u201C中国地板(实木)十大品牌\u201D的喜讯带到安信总部。在为期一月的激烈评选中，安信地板获得\u201C中国地板(诚信)十大品牌\u201D及\u201C中国地板(实木)十大品牌\u201D双料荣誉，可谓实至名归。 采访嘉宾：安信伟光(上....",
"emailed" : False,
"forwarded" : False,
"english" : False
}  , {
"index" : 4,
"articleIndex" : "9748",
"favor" :  False ,
     "read" : False,    
"title" : "中电协赴欧考察西蒙控股集团",
"titleTip" : "中电协赴欧考察西蒙控股集团",
"titleSummary" : "中电协赴欧考察西蒙控股集团",
"descSummary" : "2012年11月21日，西蒙控股集团(Simon Holding) 在西班牙巴塞罗那全球总...",
"url" : "http:\/\/go.rss.sina.com.cn\/redirect.php?url=http:\/\/jiaju.sina.com.cn\/sh\/news\/2013-01-09\/152838189407.shtml?source=rss",
"pubDate" : "2013年1月9日",
"enterDate" : "384188:42:40",
"channelId" : "-2934044229904768927",
"channelName" : "家居-家居新闻",
"channelNameSummary" : "家居-家居新闻",
"channelUrl" : "http:\/\/jiaju.sina.com.cn\/news\/index.html",
"author" : "WWW.SINA.COM.CN",
"tags" : [],
"desc" : "2012年11月21日，西蒙控股集团(Simon Holding) 在西班牙巴塞罗那全球总部 热情接待了到访的中国电器工业协会电器附件及家具控制分会(以下简称：中电协)组织的高级企业家考察团，西蒙中国区总经理朱建国先生，副总经理、制造中心总监黄海军先生全程陪同，参观的同时也就电工技术的....",
"emailed" : False,
"forwarded" : False,
"english" : False
}  , {
"index" : 5,
"articleIndex" : "9747",
"favor" :  False ,
     "read" : False,    
"title" : "商务空间设计的后现代主义",
"titleTip" : "商务空间设计的后现代主义",
"titleSummary" : "商务空间设计的后现代主义",
"descSummary" : "后现代主义一词最早出现在西班牙作家德\u2022奥尼斯1934年的《西班牙与西班...",
"url" : "http:\/\/go.rss.sina.com.cn\/redirect.php?url=http:\/\/jiaju.sina.com.cn\/news\/2013-01-09\/152228189406.shtml?source=rss",
"pubDate" : "2013年1月9日",
"enterDate" : "384188:36:30",
"channelId" : "-2934044229904768927",
"channelName" : "家居-家居新闻",
"channelNameSummary" : "家居-家居新闻",
"channelUrl" : "http:\/\/jiaju.sina.com.cn\/news\/index.html",
"author" : "WWW.SINA.COM.CN",
"tags" : [],
"desc" : "后现代主义一词最早出现在西班牙作家德\u2022奥尼斯1934年的《西班牙与西班牙语类诗选》一书中，这一概念具有多重含义。在现代商务空间的设计中，越来越多企业开始尝试后现代风格表达自身，而类似北京沃尔一品、BDM这类主要的商务空间装修设计公司也不断的对这种设计风格进行....",
"emailed" : False,
"forwarded" : False,
"english" : False
}  , {
"index" : 6,
"articleIndex" : "9746",
"favor" :  False ,
     "read" : False,    
"title" : "春天集团2013我们更努力",
"titleTip" : "春天集团2013我们更努力",
"titleSummary" : "春天集团2013我们更努力",
"descSummary" : "2012年年末开始的\u201C签动中国、签动春天\u201D双节大促销到今天已经接近尾声，...",
"url" : "http:\/\/go.rss.sina.com.cn\/redirect.php?url=http:\/\/jiaju.sina.com.cn\/sh\/news\/2013-01-09\/150910189405.shtml?source=rss",
"pubDate" : "2013年1月9日",
"enterDate" : "384188:23:12",
"channelId" : "-2934044229904768927",
"channelName" : "家居-家居新闻",
"channelNameSummary" : "家居-家居新闻",
"channelUrl" : "http:\/\/jiaju.sina.com.cn\/news\/index.html",
"author" : "WWW.SINA.COM.CN",
"tags" : [],
"desc" : "2012年年末开始的\u201C签动中国、签动春天\u201D双节大促销到今天已经接近尾声，全国各地捷报频传，都取得了可喜的成绩。 2012年春天带领着广大经销商经历了建国以来最严厉的楼市宏观调控，熬过了充满复杂性和不确定性的市场考验，在严酷的木门、地板行业洗牌行动中存活发展，....",
"emailed" : False,
"forwarded" : False,
"english" : False
}  , {
"index" : 7,
"articleIndex" : "9745",
"favor" :  False ,
     "read" : False,    
"title" : "安信地板获2012年度\"最具市场影响力地板品牌\"称号",
"titleTip" : "安信地板获2012年度\"最具市场影响力地板品牌\"称号",
"titleSummary" : "安信地板获2012年度\"最具市场影响力地板品牌\"称号",
"descSummary" : "榜样中国，引领生活。华西力量见证中国榜样。2013...",
"url" : "http:\/\/go.rss.sina.com.cn\/redirect.php?url=http:\/\/jiaju.sina.com.cn\/sh\/news\/2013-01-09\/144809189404.shtml?source=rss",
"pubDate" : "2013年1月9日",
"enterDate" : "384188:02:11",
"channelId" : "-2934044229904768927",
"channelName" : "家居-家居新闻",
"channelNameSummary" : "家居-家居新闻",
"channelUrl" : "http:\/\/jiaju.sina.com.cn\/news\/index.html",
"author" : "WWW.SINA.COM.CN",
"tags" : [],
"desc" : "榜样中国，引领生活。华西力量见证中国榜样。2013年1月8日，由华西都市报发起主办，华西传媒集群(WMG)联合参与的\u201C超越\u2022梦想\u2015\u20152012榜样中国\u201D颁奖盛典，在成都金沙剧场成功举行。安信地板凭借良好的品牌及市场影响力，荣获2012年度\u201C榜样中国 中国(西部)家居行业三甲....",
"emailed" : False,
"forwarded" : False,
"english" : False
}  , {
"index" : 8,
"articleIndex" : "9744",
"favor" :  False ,
     "read" : False,    
"title" : "Harbor House浴室柜全新上市",
"titleTip" : "Harbor House浴室柜全新上市",
"titleSummary" : "Harbor House浴室柜全新上市",
"descSummary" : "在紧张和忙碌的都市生活之余，回到家中，您是否渴望让身体放松一下，享...",
"url" : "http:\/\/go.rss.sina.com.cn\/redirect.php?url=http:\/\/jiaju.sina.com.cn\/news\/2013-01-09\/144153189402.shtml?source=rss",
"pubDate" : "2013年1月9日",
"enterDate" : "384187:55:55",
"channelId" : "-2934044229904768927",
"channelName" : "家居-家居新闻",
"channelNameSummary" : "家居-家居新闻",
"channelUrl" : "http:\/\/jiaju.sina.com.cn\/news\/index.html",
"author" : "WWW.SINA.COM.CN",
"tags" : [],
"desc" : "在紧张和忙碌的都市生活之余，回到家中，您是否渴望让身体放松一下，享受美好的沐浴时光？浴室已成为重要的活动空间，如何让浴室变得轻松舒适而富有情调，又显得是一件特别有意义的事情。 2012年底，Harbor House美式高端浴室柜全新上市，延续了Harbor House一贯推崇的....",
"emailed" : False,
"forwarded" : False,
"english" : False
}  , {
"index" : 9,
"articleIndex" : "9743",
"favor" :  False ,
     "read" : False,    
"title" : "威达仕签约帷道 打造高端厨柜品牌竞争力",
"titleTip" : "威达仕签约帷道 打造高端厨柜品牌竞争力",
"titleSummary" : "威达仕签约帷道 打造高端厨柜品牌竞争力",
"descSummary" : "营销的本质是资源整合，成功的品牌都拥有高超的资源整合能力...",
"url" : "http:\/\/go.rss.sina.com.cn\/redirect.php?url=http:\/\/jiaju.sina.com.cn\/gz\/news\/2013-01-09\/143737189401.shtml?source=rss",
"pubDate" : "2013年1月9日",
"enterDate" : "384187:51:39",
"channelId" : "-2934044229904768927",
"channelName" : "家居-家居新闻",
"channelNameSummary" : "家居-家居新闻",
"channelUrl" : "http:\/\/jiaju.sina.com.cn\/news\/index.html",
"author" : "WWW.SINA.COM.CN",
"tags" : [],
"desc" : "营销的本质是资源整合，成功的品牌都拥有高超的资源整合能力。新年伊始，著名高端厨柜品牌威达仕启动2013年品牌领航计划，重金签约定制家具知名营销策划公司\u2015\u2015广州帷道营销策划公司，作为威达仕在全球市场品牌战略合作伙伴，进行威达仕品牌系统竞争力的全方位打造。 威达....",
"emailed" : False,
"forwarded" : False,
"english" : False
}  , {
"index" : 10,
"articleIndex" : "9742",
"favor" :  False ,
     "read" : False,    
"title" : "诺维家衣柜：喝彩2012 征战2013",
"titleTip" : "诺维家衣柜：喝彩2012 征战2013",
"titleSummary" : "诺维家衣柜：喝彩2012 征战2013",
"descSummary" : "迎着新年旭日，让我们轻声做个道别：\u201C再见，2012。\u201D回望过去的36...",
"url" : "http:\/\/go.rss.sina.com.cn\/redirect.php?url=http:\/\/jiaju.sina.com.cn\/news\/2013-01-09\/143520189400.shtml?source=rss",
"pubDate" : "2013年1月9日",
"enterDate" : "384187:49:22",
"channelId" : "-2934044229904768927",
"channelName" : "家居-家居新闻",
"channelNameSummary" : "家居-家居新闻",
"channelUrl" : "http:\/\/jiaju.sina.com.cn\/news\/index.html",
"author" : "WWW.SINA.COM.CN",
"tags" : [],
"desc" : "迎着新年旭日，让我们轻声做个道别：\u201C再见，2012。\u201D回望过去的365个日夜，我们所有的努力，都是为了证明\u201C我是一个诺维家人！\u201D龙年，留给我们的回忆太多了：美国经济复苏，欧债危机蔓延，全球经济焦点转向中国；国内物价上涨、房产低迷、通货膨胀、原料上涨、人工高企\u2026\u2026....",
"emailed" : False,
"forwarded" : False,
"english" : False
}  , {
"index" : 11,
"articleIndex" : "9741",
"favor" :  False ,
     "read" : False,    
"title" : "就是要你省！1.19红星美凯龙朝阳路商场上演百万砍价Show",
"titleTip" : "就是要你省！1.19红星美凯龙朝阳路商场上演百万砍价Show",
"titleSummary" : "就是要你省！1.19红星美凯龙朝阳路商场上演百万砍价Show",
"descSummary" : "签到好礼15份！签单大奖液晶电视、冰箱、...",
"url" : "http:\/\/go.rss.sina.com.cn\/redirect.php?url=http:\/\/jiaju.sina.com.cn\/news\/2013-01-09\/142938189399.shtml?source=rss",
"pubDate" : "2013年1月9日",
"enterDate" : "384187:43:40",
"channelId" : "-2934044229904768927",
"channelName" : "家居-家居新闻",
"channelNameSummary" : "家居-家居新闻",
"channelUrl" : "http:\/\/jiaju.sina.com.cn\/news\/index.html",
"author" : "WWW.SINA.COM.CN",
"tags" : [],
"desc" : "签到好礼15份！签单大奖液晶电视、冰箱、还有Iphone5！ 品牌混搭最高再返3000！ 特邀砍价大叔亲临、现场送百万\u2015\u2015家具、建材、家电类15大潮牌畅销品。 潮牌一览表 建材：本科电器，融发装饰，KD家居，马可波罗瓷砖，书香门地地板，兰舍美大....",
"emailed" : False,
"forwarded" : False,
"english" : False
}  , {
"index" : 12,
"articleIndex" : "9740",
"favor" :  False ,
     "read" : False,    
"title" : "品川福州装修设计公司：见微知著，睹始知终的设计态度",
"titleTip" : "品川福州装修设计公司：见微知著，睹始知终的设计态度",
"titleSummary" : "品川福州装修设计公司：见微知著，睹始知终的设计态度",
"descSummary" : "\u201C见微知著，睹始知终\u201D是品川福州装修设计公...",
"url" : "http:\/\/go.rss.sina.com.cn\/redirect.php?url=http:\/\/jiaju.sina.com.cn\/news\/2013-01-09\/141024189398.shtml?source=rss",
"pubDate" : "2013年1月9日",
"enterDate" : "384187:24:26",
"channelId" : "-2934044229904768927",
"channelName" : "家居-家居新闻",
"channelNameSummary" : "家居-家居新闻",
"channelUrl" : "http:\/\/jiaju.sina.com.cn\/news\/index.html",
"author" : "WWW.SINA.COM.CN",
"tags" : [],
"desc" : "\u201C见微知著，睹始知终\u201D是品川福州装修设计公司设计总监周华美先生作为恪守工作态度的一句哲理箴言。周华美先生认为，关于设计师所要具备的素养应该是多方面的： 1、洞擦力 作为设计师，尤其需要在日常生活中积累对生活的敏锐洞擦力，用这种能力捕捉到生活的....",
"emailed" : False,
"forwarded" : False,
"english" : False
}  , {
"index" : 13,
"articleIndex" : "9739",
"favor" :  False ,
     "read" : False,    
"title" : "小白龙照明王万川：专注做产品 专业做照明",
"titleTip" : "小白龙照明王万川：专注做产品 专业做照明",
"titleSummary" : "小白龙照明王万川：专注做产品 专业做照明",
"descSummary" : "中国是世界照明灯具产品生产大国，有数据统计，全世界的节...",
"url" : "http:\/\/go.rss.sina.com.cn\/redirect.php?url=http:\/\/jiaju.sina.com.cn\/news\/2013-01-09\/135558189397.shtml?source=rss",
"pubDate" : "2013年1月9日",
"enterDate" : "384187:10:00",
"channelId" : "-2934044229904768927",
"channelName" : "家居-家居新闻",
"channelNameSummary" : "家居-家居新闻",
"channelUrl" : "http:\/\/jiaju.sina.com.cn\/news\/index.html",
"author" : "WWW.SINA.COM.CN",
"tags" : [],
"desc" : "中国是世界照明灯具产品生产大国，有数据统计，全世界的节能灯，95%以上是中国制造的。巨大的市场空间是国内照明企业不断发展的结果，而优质的产品品质是支撑其发展的必要因素。 早在十年前，作为国内涉足照明行业较早的企业，小白龙照明就开始进攻照明领域，并锁定专....",
"emailed" : False,
"forwarded" : False,
"english" : False
}  , {
"index" : 14,
"articleIndex" : "9738",
"favor" :  False ,
     "read" : False,    
"title" : "新巢网新年大抽奖 真皮沙发会掉下来",
"titleTip" : "新巢网新年大抽奖 真皮沙发会掉下来",
"titleSummary" : "新巢网新年大抽奖 真皮沙发会掉下来",
"descSummary" : "2013年的年初开场白被打上了太多的戏剧成分，从王力宏与李云迪...",
"url" : "http:\/\/go.rss.sina.com.cn\/redirect.php?url=http:\/\/jiaju.sina.com.cn\/news\/2013-01-09\/133942189396.shtml?source=rss",
"pubDate" : "2013年1月9日",
"enterDate" : "384186:53:44",
"channelId" : "-2934044229904768927",
"channelName" : "家居-家居新闻",
"channelNameSummary" : "家居-家居新闻",
"channelUrl" : "http:\/\/jiaju.sina.com.cn\/news\/index.html",
"author" : "WWW.SINA.COM.CN",
"tags" : [],
"desc" : "2013年的年初开场白被打上了太多的戏剧成分，从王力宏与李云迪的爱恨情仇，到史上最严交规司机与交警的斗智斗勇，在到最近的南周事件，一出出或是基情、或是狗血、或是严肃的大戏轮番上演，广大网友在透支了太多关注度的同时是也积累了不少的负能量。在2013年新春到来之际，不....",
"emailed" : False,
"forwarded" : False,
"english" : False
}  , {
"index" : 15,
"articleIndex" : "9737",
"favor" :  False ,
     "read" : False,    
"title" : "2013新时代，惠达迈步开始二次创业",
"titleTip" : "2013新时代，惠达迈步开始二次创业",
"titleSummary" : "2013新时代，惠达迈步开始二次创业",
"descSummary" : "日前，惠达卫浴集团总裁王彦庆在接受记者采访时表示， 2013年惠...",
"url" : "http:\/\/go.rss.sina.com.cn\/redirect.php?url=http:\/\/jiaju.sina.com.cn\/news\/2013-01-09\/133621189395.shtml?source=rss",
"pubDate" : "2013年1月9日",
"enterDate" : "384186:50:23",
"channelId" : "-2934044229904768927",
"channelName" : "家居-家居新闻",
"channelNameSummary" : "家居-家居新闻",
"channelUrl" : "http:\/\/jiaju.sina.com.cn\/news\/index.html",
"author" : "WWW.SINA.COM.CN",
"tags" : [],
"desc" : "日前，惠达卫浴集团总裁王彦庆在接受记者采访时表示，&#160;2013年惠达卫浴将把本年的主题确立为：\u201C新时代，新挑战，新辉煌！\u201D惠达卫浴是河北唐山地区土生土长的民族卫浴企业，在传承中华瓷都的优良陶瓷文化和技术的基础上，经过惠达人三十年的辛苦耕耘，发展成为国内最大的....",
"emailed" : False,
"forwarded" : False,
"english" : False
}  , {
"index" : 16,
"articleIndex" : "9736",
"favor" :  False ,
     "read" : False,    
"title" : "世友地板：品质好地板 健康新标准",
"titleTip" : "世友地板：品质好地板 健康新标准",
"titleSummary" : "世友地板：品质好地板 健康新标准",
"descSummary" : "大寒小寒，冻成一团。今年刚入\u201C三九\u201D，全国迎来最寒冷的天气，据...",
"url" : "http:\/\/go.rss.sina.com.cn\/redirect.php?url=http:\/\/jiaju.sina.com.cn\/sh\/news\/2013-01-09\/114912189394.shtml?source=rss",
"pubDate" : "2013年1月9日",
"enterDate" : "384185:03:14",
"channelId" : "-2934044229904768927",
"channelName" : "家居-家居新闻",
"channelNameSummary" : "家居-家居新闻",
"channelUrl" : "http:\/\/jiaju.sina.com.cn\/news\/index.html",
"author" : "WWW.SINA.COM.CN",
"tags" : [],
"desc" : "大寒小寒，冻成一团。今年刚入\u201C三九\u201D，全国迎来最寒冷的天气，据国家气候中心发布的消息，进入冬季以来，全国平均气温达到零下3.8℃，为28年最低。在这种低温影响下，人们更多选择呆在室内，门窗关得严严实实，甚至开起了暖气或空调，殊不知这样做对于新装修的户主来说，包括涂....",
"emailed" : False,
"forwarded" : False,
"english" : False
}  , {
"index" : 17,
"articleIndex" : "9735",
"favor" :  False ,
     "read" : False,    
"title" : "如果你还不知道1.19红星美凯龙朝阳路商场怎么了？你Out 了！",
"titleTip" : "如果你还不知道1.19红星美凯龙朝阳路商场怎么了？你Out 了！",
"titleSummary" : "如果你还不知道1.19红星美凯龙朝阳路商场怎么了？你Out 了！",
"descSummary" : "2013年1月19日北京红星美凯龙朝阳路商场...",
"url" : "http:\/\/go.rss.sina.com.cn\/redirect.php?url=http:\/\/jiaju.sina.com.cn\/news\/2013-01-09\/093232189393.shtml?source=rss",
"pubDate" : "2013年1月9日",
"enterDate" : "384182:46:34",
"channelId" : "-2934044229904768927",
"channelName" : "家居-家居新闻",
"channelNameSummary" : "家居-家居新闻",
"channelUrl" : "http:\/\/jiaju.sina.com.cn\/news\/index.html",
"author" : "WWW.SINA.COM.CN",
"tags" : [],
"desc" : "2013年1月19日北京红星美凯龙朝阳路商场将携手15家国内外一线潮流品牌，开启家居联盟爆破砍价团。 这是一场怎样的爆破砍价？ 15个家具、建材、电器一线品牌组成砍价联盟。特邀专业砍价大叔将时下畅销家居、家电产品现场砍价\u2015\u2015百强电视柜、爱依瑞斯转角沙发、....",
"emailed" : False,
"forwarded" : False,
"english" : False
}  , {
"index" : 18,
"articleIndex" : "9734",
"favor" :  False ,
     "read" : False,    
"title" : "\u201C史上最顶级的十套奢侈品家居\u201D震撼中国",
"titleTip" : "\u201C史上最顶级的十套奢侈品家居\u201D震撼中国",
"titleSummary" : "\u201C史上最顶级的十套奢侈品家居\u201D震撼中国",
"descSummary" : "LWW(凌顶)限量发行欧洲大师定制 由LWW凌顶国际化专业团...",
"url" : "http:\/\/go.rss.sina.com.cn\/redirect.php?url=http:\/\/jiaju.sina.com.cn\/news\/2013-01-08\/173342189392.shtml?source=rss",
"pubDate" : "2013年1月8日",
"enterDate" : "384200:41:09",
"channelId" : "-2934044229904768927",
"channelName" : "家居-家居新闻",
"channelNameSummary" : "家居-家居新闻",
"channelUrl" : "http:\/\/jiaju.sina.com.cn\/news\/index.html",
"author" : "WWW.SINA.COM.CN",
"tags" : [],
"desc" : "------LWW(凌顶)限量发行欧洲大师定制 由LWW凌顶国际化专业团队精心定制限量发行的\u201C2013LWW(凌顶)十套顶级奢侈品家居\u201D将于初春高调亮相中国，这十套顶级奢侈品家居预计每一套都价值千万级别，总价值将超过亿元，真可谓是价值连城美轮美奂，十套精品将由全球最顶级的....",
"emailed" : False,
"forwarded" : False,
"english" : False
}  , {
"index" : 19,
"articleIndex" : "9733",
"favor" :  False ,
     "read" : False,    
"title" : "这个冬天不太冷 中老年专用乳胶床垫",
"titleTip" : "这个冬天不太冷 中老年专用乳胶床垫",
"titleSummary" : "这个冬天不太冷 中老年专用乳胶床垫",
"descSummary" : "严冬临近，可51岁的老张心里却暖暖的。为啥？半个月前儿子买了...",
"url" : "http:\/\/go.rss.sina.com.cn\/redirect.php?url=http:\/\/jiaju.sina.com.cn\/news\/2013-01-08\/172023189391.shtml?source=rss",
"pubDate" : "2013年1月8日",
"enterDate" : "384200:27:50",
"channelId" : "-2934044229904768927",
"channelName" : "家居-家居新闻",
"channelNameSummary" : "家居-家居新闻",
"channelUrl" : "http:\/\/jiaju.sina.com.cn\/news\/index.html",
"author" : "WWW.SINA.COM.CN",
"tags" : [],
"desc" : "严冬临近，可51岁的老张心里却暖暖的。为啥？半个月前儿子买了张乳胶床垫送给老夫妻俩，老夫妻俩从一开始的口是心非的埋怨，现在却是满心欢喜，多年来上床睡很久手脚冰凉的感觉慢慢消失了，雷打不动的晨练这几天也晚点了，总是想多在床上待会儿。老张向编者说起自己感受时，那....",
"emailed" : False,
"forwarded" : False,
"english" : False
} ]
}
