{
"mode" : {"viewTitle" : 1,   "viewNew" : 0,  "pageIndex" : 2 },
 "channel" : {"id" : "-2934044229904768927", "booked" : False, "subNumber" : 1, "name" : "家居-家居新闻", "url" : "http:\/\/jiaju.sina.com.cn\/news\/index.html", "feed" : "http:\/\/rss.sina.com.cn\/jiaju\/news.xml", "author" : "WWW.SINA.COM.CN", "desc" : "家居-家居新闻", "imageUrl" : "http:\/\/www.sinaimg.cn\/house\/sina_fc.gif", "postPerWeek" : "0", "lastCrawTime" : "17:01:35", "crawDateTime" : "17:01:35", "lastHttpCode" : "200"}, "page" : {
"startIndex" : 20,
"totalCount" : 5000,
"pageIndex" : 2,
"lastPage" : 250,
"pageSize" : 20,
"english" :  False },
 "unreadNum" : 0, "shotIndex" : -1,
"articles" : [
{
"index" : 0,
"articleIndex" : "9732",
"favor" :  False ,
     "read" : False,    
"title" : "商业地产何去何从？江南时代引领商业地产Style",
"titleTip" : "商业地产何去何从？江南时代引领商业地产Style",
"titleSummary" : "商业地产何去何从？江南时代引领商业地产Style",
"descSummary" : "在\u201C双11\u201D创下神话般的191亿交易额后，有关未来电商...",
"url" : "http:\/\/go.rss.sina.com.cn\/redirect.php?url=http:\/\/jiaju.sina.com.cn\/sh\/news\/2013-01-08\/171603189390.shtml?source=rss",
"pubDate" : "2013年1月8日",
"enterDate" : "384200:23:31",
"channelId" : "-2934044229904768927",
"channelName" : "家居-家居新闻",
"channelNameSummary" : "家居-家居新闻",
"channelUrl" : "http:\/\/jiaju.sina.com.cn\/news\/index.html",
"author" : "WWW.SINA.COM.CN",
"tags" : [],
"desc" : "在\u201C双11\u201D创下神话般的191亿交易额后，有关未来电商是否会替代传统商业的讨论就一直没有停歇过。岁末年初，两位商界风云人物马云和王健林一场关于十年后电商是否会占据零售市场半壁江山的一亿赌金\u201C豪赌\u201D引起了各方热烈讨论，其实在电商冲击下，一些商业地产线下实体商城的日子....",
"emailed" : False,
"forwarded" : False,
"english" : False
}  , {
"index" : 1,
"articleIndex" : "9726",
"favor" :  False ,
     "read" : False,    
"title" : "柔然壁纸宝兰蔓开评测 柔美东方情调",
"titleTip" : "柔然壁纸宝兰蔓开评测 柔美东方情调",
"titleSummary" : "柔然壁纸宝兰蔓开评测 柔美东方情调",
"descSummary" : "【新浪家居 产品评测】单一风格的墙面已经不能满足现代人追求个...",
"url" : "http:\/\/go.rss.sina.com.cn\/redirect.php?url=http:\/\/jiaju.sina.com.cn\/news\/pingce\/2013-01-08\/170046189384.shtml?source=rss",
"pubDate" : "2013年1月8日",
"enterDate" : "384200:08:14",
"channelId" : "-2934044229904768927",
"channelName" : "家居-家居新闻",
"channelNameSummary" : "家居-家居新闻",
"channelUrl" : "http:\/\/jiaju.sina.com.cn\/news\/index.html",
"author" : "WWW.SINA.COM.CN",
"tags" : [],
"desc" : "【新浪家居 产品评测】单一风格的墙面已经不能满足现代人追求个性化的需求，他们试图用各种墙面装饰来凸显自我个性，而壁纸作为一种特种纸是很好的装饰材料之一，成千上万种图案颜色可以营造出不同风格的墙面。今天为大家介绍的是一款来自柔然的充满东方神韵的壁纸。 图为....",
"emailed" : False,
"forwarded" : False,
"english" : False
}  , {
"index" : 2,
"articleIndex" : "9727",
"favor" :  False ,
     "read" : False,    
"title" : "柔然壁纸宝兰蔓开壁纸之整体印象",
"titleTip" : "柔然壁纸宝兰蔓开壁纸之整体印象",
"titleSummary" : "柔然壁纸宝兰蔓开壁纸之整体印象",
"descSummary" : "柔然壁纸宝兰蔓开壁纸之整体印象 001金之醉 金之醉 舒展柔韧的枝蔓...",
"url" : "http:\/\/go.rss.sina.com.cn\/redirect.php?url=http:\/\/jiaju.sina.com.cn\/news\/pingce\/2013-01-08\/170046189384_2.shtml?source=rss",
"pubDate" : "2013年1月8日",
"enterDate" : "384200:08:14",
"channelId" : "-2934044229904768927",
"channelName" : "家居-家居新闻",
"channelNameSummary" : "家居-家居新闻",
"channelUrl" : "http:\/\/jiaju.sina.com.cn\/news\/index.html",
"author" : "WWW.SINA.COM.CN",
"tags" : [],
"desc" : "柔然壁纸宝兰蔓开壁纸之整体印象 001金之醉 金之醉 舒展柔韧的枝蔓，盛放的鎏金花蕾，洒脱自如的嫩叶，丰富的色彩无不昭示着恬静美好的生活状态。 103花之韵 花之韵 点、染、蔓、晕是最生动的绘画语言，浓淡不一的墨迹诉说着骨子里....",
"emailed" : False,
"forwarded" : False,
"english" : False
}  , {
"index" : 3,
"articleIndex" : "9728",
"favor" :  False ,
     "read" : False,    
"title" : "柔然壁纸宝兰蔓开壁纸之防污评测",
"titleTip" : "柔然壁纸宝兰蔓开壁纸之防污评测",
"titleSummary" : "柔然壁纸宝兰蔓开壁纸之防污评测",
"descSummary" : "柔然壁纸宝兰蔓开壁纸之防污评测 编辑点评：生活中免不了会出现一...",
"url" : "http:\/\/go.rss.sina.com.cn\/redirect.php?url=http:\/\/jiaju.sina.com.cn\/news\/pingce\/2013-01-08\/170046189384_3.shtml?source=rss",
"pubDate" : "2013年1月8日",
"enterDate" : "384200:08:14",
"channelId" : "-2934044229904768927",
"channelName" : "家居-家居新闻",
"channelNameSummary" : "家居-家居新闻",
"channelUrl" : "http:\/\/jiaju.sina.com.cn\/news\/index.html",
"author" : "WWW.SINA.COM.CN",
"tags" : [],
"desc" : "柔然壁纸宝兰蔓开壁纸之防污评测 编辑点评：生活中免不了会出现一些\u201C意外情况\u201D，壁纸的抗污性也是主妇们比较关心的问题。为了更好的测验壁纸耐污性，小编在壁纸上撒了一点醋，用纸巾搽净后，壁纸表面和背面留下了不同程度的水印，半小时后则完全干了....",
"emailed" : False,
"forwarded" : False,
"english" : False
}  , {
"index" : 4,
"articleIndex" : "9729",
"favor" :  False ,
     "read" : False,    
"title" : "柔然壁纸宝兰蔓开壁纸之阻燃性评测",
"titleTip" : "柔然壁纸宝兰蔓开壁纸之阻燃性评测",
"titleSummary" : "柔然壁纸宝兰蔓开壁纸之阻燃性评测",
"descSummary" : "柔然壁纸宝兰蔓开壁纸之阻燃性评测 编辑点评：一般无纺布壁纸材...",
"url" : "http:\/\/go.rss.sina.com.cn\/redirect.php?url=http:\/\/jiaju.sina.com.cn\/news\/pingce\/2013-01-08\/170046189384_4.shtml?source=rss",
"pubDate" : "2013年1月8日",
"enterDate" : "384200:08:14",
"channelId" : "-2934044229904768927",
"channelName" : "家居-家居新闻",
"channelNameSummary" : "家居-家居新闻",
"channelUrl" : "http:\/\/jiaju.sina.com.cn\/news\/index.html",
"author" : "WWW.SINA.COM.CN",
"tags" : [],
"desc" : "柔然壁纸宝兰蔓开壁纸之阻燃性评测 编辑点评：一般无纺布壁纸材质不会析出对人体有害的化学物质。通过燃烧壁纸，壁纸呈现的为灰黑色粉末状的则为纯植物纤维制造的壁纸，若出现黑色浓烟切壁纸起蜷缩的黑块，则为化学物质制造的壁纸。 通过对此款....",
"emailed" : False,
"forwarded" : False,
"english" : False
}  , {
"index" : 5,
"articleIndex" : "9730",
"favor" :  False ,
     "read" : False,    
"title" : "柔然壁纸宝兰蔓开壁纸之防潮性评测",
"titleTip" : "柔然壁纸宝兰蔓开壁纸之防潮性评测",
"titleSummary" : "柔然壁纸宝兰蔓开壁纸之防潮性评测",
"descSummary" : "柔然壁纸宝兰蔓开壁纸之防潮性评测 编辑点评： 将壁纸放入水中后...",
"url" : "http:\/\/go.rss.sina.com.cn\/redirect.php?url=http:\/\/jiaju.sina.com.cn\/news\/pingce\/2013-01-08\/170046189384_5.shtml?source=rss",
"pubDate" : "2013年1月8日",
"enterDate" : "384200:08:14",
"channelId" : "-2934044229904768927",
"channelName" : "家居-家居新闻",
"channelNameSummary" : "家居-家居新闻",
"channelUrl" : "http:\/\/jiaju.sina.com.cn\/news\/index.html",
"author" : "WWW.SINA.COM.CN",
"tags" : [],
"desc" : "柔然壁纸宝兰蔓开壁纸之防潮性评测 编辑点评： 将壁纸放入水中后，壁纸无变形的情况，将浸透水分的壁纸擦干，边沿依然整齐，无明显的波浪状受潮形变。说明该款壁纸防潮性教好。 [上一页] [1] [2] [3] [4] [5] [6] [下一页]",
"emailed" : False,
"forwarded" : False,
"english" : False
}  , {
"index" : 6,
"articleIndex" : "9731",
"favor" :  False ,
     "read" : False,    
"title" : "选购壁纸要注意的7个问题",
"titleTip" : "选购壁纸要注意的7个问题",
"titleSummary" : "选购壁纸要注意的7个问题",
"descSummary" : "新浪家居知识角之选购壁纸要注意的7个问题 1、无论是选择壁纸还是壁布，主...",
"url" : "http:\/\/go.rss.sina.com.cn\/redirect.php?url=http:\/\/jiaju.sina.com.cn\/news\/pingce\/2013-01-08\/170046189384_6.shtml?source=rss",
"pubDate" : "2013年1月8日",
"enterDate" : "384200:08:14",
"channelId" : "-2934044229904768927",
"channelName" : "家居-家居新闻",
"channelNameSummary" : "家居-家居新闻",
"channelUrl" : "http:\/\/jiaju.sina.com.cn\/news\/index.html",
"author" : "WWW.SINA.COM.CN",
"tags" : [],
"desc" : "新浪家居知识角之选购壁纸要注意的7个问题 1、无论是选择壁纸还是壁布，主要应考虑3个方面：防燃、色彩、清理难易度。近年来的壁纸及壁布，添加防火质材的不在少数，还有的添加了防虫、防霉、吸音材料的，这些对于想要提升家居档次的消费者而言，无疑是非常重要的。....",
"emailed" : False,
"forwarded" : False,
"english" : False
}  , {
"index" : 7,
"articleIndex" : "9725",
"favor" :  False ,
     "read" : False,    
"title" : "可丽爱水族箱品牌网络形象代言人火热招募中",
"titleTip" : "可丽爱水族箱品牌网络形象代言人火热招募中",
"titleSummary" : "可丽爱水族箱品牌网络形象代言人火热招募中",
"descSummary" : "每个人心里都有个梦，它可大可小，可远可近。理想的生活...",
"url" : "http:\/\/go.rss.sina.com.cn\/redirect.php?url=http:\/\/jiaju.sina.com.cn\/news\/2013-01-08\/152616189383.shtml?source=rss",
"pubDate" : "2013年1月8日",
"enterDate" : "384200:34:03",
"channelId" : "-2934044229904768927",
"channelName" : "家居-家居新闻",
"channelNameSummary" : "家居-家居新闻",
"channelUrl" : "http:\/\/jiaju.sina.com.cn\/news\/index.html",
"author" : "WWW.SINA.COM.CN",
"tags" : [],
"desc" : "每个人心里都有个梦，它可大可小，可远可近。理想的生活需要梦，因此世界上便多了追梦的人。梦成真与破碎取决于拥有梦的人，或遭遇困境临阵脱逃，或抓住机遇勇往直前，或百般寻找机会，或妄自菲薄不愿抬头\u2026\u2026如今，各类选SHOW活动为追梦的人提供了使其发光发亮的舞台，但谁能....",
"emailed" : False,
"forwarded" : False,
"english" : False
}  , {
"index" : 8,
"articleIndex" : "9724",
"favor" :  False ,
     "read" : False,    
"title" : "Harbor House儿童新品上市欢乐构筑童梦",
"titleTip" : "Harbor House儿童新品上市欢乐构筑童梦",
"titleSummary" : "Harbor House儿童新品上市欢乐构筑童梦",
"descSummary" : "每个孩子心中都有一个梦，无论是男孩勇敢环游世界的冒险旅程...",
"url" : "http:\/\/go.rss.sina.com.cn\/redirect.php?url=http:\/\/jiaju.sina.com.cn\/news\/2013-01-08\/152208189382.shtml?source=rss",
"pubDate" : "2013年1月8日",
"enterDate" : "384200:29:55",
"channelId" : "-2934044229904768927",
"channelName" : "家居-家居新闻",
"channelNameSummary" : "家居-家居新闻",
"channelUrl" : "http:\/\/jiaju.sina.com.cn\/news\/index.html",
"author" : "WWW.SINA.COM.CN",
"tags" : [],
"desc" : "每个孩子心中都有一个梦，无论是男孩勇敢环游世界的冒险旅程，还是女孩变身娇俏甜美公主的仙履幻境，都可以从儿童房的装饰中为他们实现。Harbor House仿佛一位充满童心的\u201C圆梦师\u201D，于2013年1月全新推出Kids家居产品系列，本次新品上市以\u201C童梦\u201D为主题，意在打造舒适可爱的....",
"emailed" : False,
"forwarded" : False,
"english" : False
}  , {
"index" : 9,
"articleIndex" : "9723",
"favor" :  False ,
     "read" : False,    
"title" : "1.19红星美凯龙朝阳路商场大咖来袭？大叔来袭？",
"titleTip" : "1.19红星美凯龙朝阳路商场大咖来袭？大叔来袭？",
"titleSummary" : "1.19红星美凯龙朝阳路商场大咖来袭？大叔来袭？",
"descSummary" : "最近最热门的话题莫过于三个词\u201C砍价大叔\u201D、\u201C1.19\u201D...",
"url" : "http:\/\/go.rss.sina.com.cn\/redirect.php?url=http:\/\/jiaju.sina.com.cn\/news\/2013-01-08\/151328189381.shtml?source=rss",
"pubDate" : "2013年1月8日",
"enterDate" : "384200:21:15",
"channelId" : "-2934044229904768927",
"channelName" : "家居-家居新闻",
"channelNameSummary" : "家居-家居新闻",
"channelUrl" : "http:\/\/jiaju.sina.com.cn\/news\/index.html",
"author" : "WWW.SINA.COM.CN",
"tags" : [],
"desc" : "最近最热门的话题莫过于三个词\u201C砍价大叔\u201D、\u201C1.19\u201D、\u201C朝阳路商场\u201D。 至于为什么会成为网络的热议话题，把这三个词串联起来便能解开疑惑\u2015\u2015砍价大叔在2013年1月19日来红星美凯龙朝阳路商场百万砍价Show! 这次砍价被称为\u2015\u20151.19爆破砍价团。红星美凯龙朝阳....",
"emailed" : False,
"forwarded" : False,
"english" : False
}  , {
"index" : 10,
"articleIndex" : "9722",
"favor" :  False ,
     "read" : False,    
"title" : "2013年度高力国际灯具港安全责任书签订大会",
"titleTip" : "2013年度高力国际灯具港安全责任书签订大会",
"titleSummary" : "2013年度高力国际灯具港安全责任书签订大会",
"descSummary" : "2013年1月5日针对安全问题高力国际灯具港举办了\u201C2013...",
"url" : "http:\/\/go.rss.sina.com.cn\/redirect.php?url=http:\/\/jiaju.sina.com.cn\/news\/2013-01-08\/150720189380.shtml?source=rss",
"pubDate" : "2013年1月8日",
"enterDate" : "384200:15:07",
"channelId" : "-2934044229904768927",
"channelName" : "家居-家居新闻",
"channelNameSummary" : "家居-家居新闻",
"channelUrl" : "http:\/\/jiaju.sina.com.cn\/news\/index.html",
"author" : "WWW.SINA.COM.CN",
"tags" : [],
"desc" : "2013年1月5日针对安全问题高力国际灯具港举办了\u201C2013年度高力国际灯具港安全责任书签订大会\u201D，此次大会仍然把商场安全的重要性放在首位，俗话说\u201C水火无情\u201D，火灾给商场造成的灾害大的可以毁灭整个商场，小的则损失成千上万的财产。不少惨痛的事件，成为不少懈怠安全管理者....",
"emailed" : False,
"forwarded" : False,
"english" : False
}  , {
"index" : 11,
"articleIndex" : "9721",
"favor" :  False ,
     "read" : False,    
"title" : "元洲赞助 越来越好 郭富城工地萌照曝光",
"titleTip" : "元洲赞助 越来越好 郭富城工地萌照曝光",
"titleSummary" : "元洲赞助 越来越好 郭富城工地萌照曝光",
"descSummary" : "日前，《越来越好》剧组曝光了一组拍摄花絮，天王郭富城身着装...",
"url" : "http:\/\/go.rss.sina.com.cn\/redirect.php?url=http:\/\/jiaju.sina.com.cn\/news\/2013-01-08\/150155189379.shtml?source=rss",
"pubDate" : "2013年1月8日",
"enterDate" : "384200:09:42",
"channelId" : "-2934044229904768927",
"channelName" : "家居-家居新闻",
"channelNameSummary" : "家居-家居新闻",
"channelUrl" : "http:\/\/jiaju.sina.com.cn\/news\/index.html",
"author" : "WWW.SINA.COM.CN",
"tags" : [],
"desc" : "日前，《越来越好》剧组曝光了一组拍摄花絮，天王郭富城身着装修工人服装帅气难掩，并一改往日深沉耍帅的路线，现场大跳嘻哈风舞蹈卖萌，让一众粉丝大呼：郭天王还有如此可爱的一面。 通过此视频，元洲装饰大手笔赞助《越来越好》一事也得以浮出水面。在视频中，可以看....",
"emailed" : False,
"forwarded" : False,
"english" : False
}  , {
"index" : 12,
"articleIndex" : "9717",
"favor" :  False ,
     "read" : False,    
"title" : "大上海风情 老上海复古家装全打造",
"titleTip" : "大上海风情 老上海复古家装全打造",
"titleSummary" : "大上海风情 老上海复古家装全打造",
"descSummary" : "【新浪家居 产品导购】《大上海》正在各大院线热映，这部以大时代...",
"url" : "http:\/\/go.rss.sina.com.cn\/redirect.php?url=http:\/\/jiaju.sina.com.cn\/news\/diban\/2013-01-08\/144327189375.shtml?source=rss",
"pubDate" : "2013年1月8日",
"enterDate" : "384200:51:33",
"channelId" : "-2934044229904768927",
"channelName" : "家居-家居新闻",
"channelNameSummary" : "家居-家居新闻",
"channelUrl" : "http:\/\/jiaju.sina.com.cn\/news\/index.html",
"author" : "WWW.SINA.COM.CN",
"tags" : [],
"desc" : "【新浪家居 产品导购】《大上海》正在各大院线热映，这部以大时代下上海黑帮故事作为题材的电影，集合了黑帮拼斗、小人物发迹史、兄弟情义，儿女情长，家国情怀诸多元素，令观者热血沸腾，柔肠百结。作为一部年代戏，《大上海》电影中人物造型装扮，故事场景同样韵味十足，让....",
"emailed" : False,
"forwarded" : False,
"english" : False
}  , {
"index" : 13,
"articleIndex" : "9718",
"favor" :  False ,
     "read" : False,    
"title" : "大上海风情 老上海复古家装全打造(2)",
"titleTip" : "大上海风情 老上海复古家装全打造(2)",
"titleSummary" : "大上海风情 老上海复古家装全打造(2)",
"descSummary" : "老上海卧室 影片《大上海》剧照 不管是过去还是现在，开放、自由...",
"url" : "http:\/\/go.rss.sina.com.cn\/redirect.php?url=http:\/\/jiaju.sina.com.cn\/news\/diban\/2013-01-08\/144327189375_2.shtml?source=rss",
"pubDate" : "2013年1月8日",
"enterDate" : "384200:51:33",
"channelId" : "-2934044229904768927",
"channelName" : "家居-家居新闻",
"channelNameSummary" : "家居-家居新闻",
"channelUrl" : "http:\/\/jiaju.sina.com.cn\/news\/index.html",
"author" : "WWW.SINA.COM.CN",
"tags" : [],
"desc" : "老上海卧室 影片《大上海》剧照 不管是过去还是现在，开放、自由一直是上海最吸引人的特点之一，这种海纳百川的胸怀同样体现在家居上，30年代老上海的卧室里，可以看到淡雅的壁纸，精致的拼花地板以及细心铺上的一块温暖的地毯这些西式生活方式中的常见元素，也能看到代....",
"emailed" : False,
"forwarded" : False,
"english" : False
}  , {
"index" : 14,
"articleIndex" : "9719",
"favor" :  False ,
     "read" : False,    
"title" : "大上海风情 老上海复古家装全打造(3)",
"titleTip" : "大上海风情 老上海复古家装全打造(3)",
"titleSummary" : "大上海风情 老上海复古家装全打造(3)",
"descSummary" : "老上海书房 影片《大上海》剧照 和铜质一样，实木也是怀旧家居的...",
"url" : "http:\/\/go.rss.sina.com.cn\/redirect.php?url=http:\/\/jiaju.sina.com.cn\/news\/diban\/2013-01-08\/144327189375_3.shtml?source=rss",
"pubDate" : "2013年1月8日",
"enterDate" : "384200:51:33",
"channelId" : "-2934044229904768927",
"channelName" : "家居-家居新闻",
"channelNameSummary" : "家居-家居新闻",
"channelUrl" : "http:\/\/jiaju.sina.com.cn\/news\/index.html",
"author" : "WWW.SINA.COM.CN",
"tags" : [],
"desc" : "老上海书房 影片《大上海》剧照 和铜质一样，实木也是怀旧家居的重要元素，30年代的家具，多由实木打造，檀木、花梨木、松木，黝黑、红褐、深棕，每一种材料，每一种色彩视觉感受不同，却都有一股质朴超然的情调。《大上海》影片里的书房，黑檀木制成的桌椅书柜，深邃厚....",
"emailed" : False,
"forwarded" : False,
"english" : False
}  , {
"index" : 15,
"articleIndex" : "9720",
"favor" :  False ,
     "read" : False,    
"title" : "大上海风情 老上海复古家装全打造(4)",
"titleTip" : "大上海风情 老上海复古家装全打造(4)",
"titleSummary" : "大上海风情 老上海复古家装全打造(4)",
"descSummary" : "老上海卫浴间 影片《大上海》剧照 有时候我们选择一种家装风格并...",
"url" : "http:\/\/go.rss.sina.com.cn\/redirect.php?url=http:\/\/jiaju.sina.com.cn\/news\/diban\/2013-01-08\/144327189375_4.shtml?source=rss",
"pubDate" : "2013年1月8日",
"enterDate" : "384200:51:33",
"channelId" : "-2934044229904768927",
"channelName" : "家居-家居新闻",
"channelNameSummary" : "家居-家居新闻",
"channelUrl" : "http:\/\/jiaju.sina.com.cn\/news\/index.html",
"author" : "WWW.SINA.COM.CN",
"tags" : [],
"desc" : "老上海卫浴间 影片《大上海》剧照 有时候我们选择一种家装风格并不仅仅是选择一个样子，更多的是选择一种生活方式，老上海风格家居，并不只是古朴怀旧的样式，更重要的是所传达的那种\u201C对细节对生活忠贞不渝的热烈情感\u201D，或许正是这种对生活的追求才成就了上海开放的心....",
"emailed" : False,
"forwarded" : False,
"english" : False
}  , {
"index" : 16,
"articleIndex" : "9716",
"favor" :  False ,
     "read" : False,    
"title" : "互信合作 广日电梯顺利召开年度供应商会议",
"titleTip" : "互信合作 广日电梯顺利召开年度供应商会议",
"titleSummary" : "互信合作 广日电梯顺利召开年度供应商会议",
"descSummary" : "2012年12月28日，广日电梯的年度供应商会议在广州顺利举...",
"url" : "http:\/\/go.rss.sina.com.cn\/redirect.php?url=http:\/\/jiaju.sina.com.cn\/gz\/news\/2013-01-08\/142121189374.shtml?source=rss",
"pubDate" : "2013年1月8日",
"enterDate" : "384200:29:27",
"channelId" : "-2934044229904768927",
"channelName" : "家居-家居新闻",
"channelNameSummary" : "家居-家居新闻",
"channelUrl" : "http:\/\/jiaju.sina.com.cn\/news\/index.html",
"author" : "WWW.SINA.COM.CN",
"tags" : [],
"desc" : "2012年12月28日，广日电梯的年度供应商会议在广州顺利举行，会议主题是\u201C互信合作，构建广日特色供应链\u201D。广日电梯公司管理层连同广日64家主要供应商代表一同出席参加会议，总结过去，畅想发展。 晚会祝酒 会议上，广日电梯总经理吴宾先生首先发表致辞，对供应商的....",
"emailed" : False,
"forwarded" : False,
"english" : False
}  , {
"index" : 17,
"articleIndex" : "9715",
"favor" :  False ,
     "read" : False,    
"title" : "京派三大装饰品牌央视广告投放签约",
"titleTip" : "京派三大装饰品牌央视广告投放签约",
"titleSummary" : "京派三大装饰品牌央视广告投放签约",
"descSummary" : "为有效推动装饰行业的探索发展、加快促进行业与用户需求有效对接...",
"url" : "http:\/\/go.rss.sina.com.cn\/redirect.php?url=http:\/\/jiaju.sina.com.cn\/news\/2013-01-08\/142040189373.shtml?source=rss",
"pubDate" : "2013年1月8日",
"enterDate" : "384200:28:46",
"channelId" : "-2934044229904768927",
"channelName" : "家居-家居新闻",
"channelNameSummary" : "家居-家居新闻",
"channelUrl" : "http:\/\/jiaju.sina.com.cn\/news\/index.html",
"author" : "WWW.SINA.COM.CN",
"tags" : [],
"desc" : "为有效推动装饰行业的探索发展、加快促进行业与用户需求有效对接，中国家居装饰行业领军企业，北京紫名都、索美、水木南山装饰于2013年1月6日联合举行\u201C2013年央视广告投放签约仪式\u201D。 京派三大装饰品牌央视广告投放签约 北京紫名都、索美、北京水木南山装饰总部领....",
"emailed" : False,
"forwarded" : False,
"english" : False
}  , {
"index" : 18,
"articleIndex" : "9714",
"favor" :  False ,
     "read" : False,    
"title" : "选择瑞澄的六大理由",
"titleTip" : "选择瑞澄的六大理由",
"titleSummary" : "选择瑞澄的六大理由",
"descSummary" : "人生最难得是选择，不同的选择决定不同的结果。现在最多的消费者在买地板的时候...",
"url" : "http:\/\/go.rss.sina.com.cn\/redirect.php?url=http:\/\/jiaju.sina.com.cn\/sh\/news\/2013-01-08\/140337189372.shtml?source=rss",
"pubDate" : "2013年1月8日",
"enterDate" : "384200:11:43",
"channelId" : "-2934044229904768927",
"channelName" : "家居-家居新闻",
"channelNameSummary" : "家居-家居新闻",
"channelUrl" : "http:\/\/jiaju.sina.com.cn\/news\/index.html",
"author" : "WWW.SINA.COM.CN",
"tags" : [],
"desc" : "人生最难得是选择，不同的选择决定不同的结果。现在最多的消费者在买地板的时候都会选择瑞澄这个品牌，这是为什么呢？ 1：在目前的国内市场上，如果没有属于自己的\u201C品牌\u201D，企业在市场上基本就没什么竞争优势，更无所谓征服消费者。而瑞澄作为地板十大品牌在经过数十....",
"emailed" : False,
"forwarded" : False,
"english" : False
}  , {
"index" : 19,
"articleIndex" : "9713",
"favor" :  False ,
     "read" : False,    
"title" : "中山雅立 星级服务 \u201C浴\u201D享生活",
"titleTip" : "中山雅立 星级服务 \u201C浴\u201D享生活",
"titleSummary" : "中山雅立 星级服务 \u201C浴\u201D享生活",
"descSummary" : "作为卫浴行业的知名品牌，中山雅立历经数年发展，不断创新产品技术的...",
"url" : "http:\/\/go.rss.sina.com.cn\/redirect.php?url=http:\/\/jiaju.sina.com.cn\/news\/2013-01-08\/122109189371.shtml?source=rss",
"pubDate" : "2013年1月8日",
"enterDate" : "384200:14:41",
"channelId" : "-2934044229904768927",
"channelName" : "家居-家居新闻",
"channelNameSummary" : "家居-家居新闻",
"channelUrl" : "http:\/\/jiaju.sina.com.cn\/news\/index.html",
"author" : "WWW.SINA.COM.CN",
"tags" : [],
"desc" : "作为卫浴行业的知名品牌，中山雅立历经数年发展，不断创新产品技术的同时，始终秉承\u201C顾客至上，服务第一\u201D的经营理念，力求为客户提供尽善尽美的服务。多年来，雅立正是以其细致、人性化的服务而备受消费者青睐，企业品牌的知名度及忠诚度也得到迅速提升，一跃成为业内高端的....",
"emailed" : False,
"forwarded" : False,
"english" : False
} ]
}
