{
"mode" : {"viewTitle" : 1,   "viewNew" : 0,  "pageIndex" : 1 },
 "channel" : {"id" : "-8280861860782346083", "booked" : False, "subNumber" : 1, "name" : "国际足坛-德甲", "url" : "http:\/\/sports.sina.com.cn\/global\/index.shtml", "feed" : "http:\/\/rss.sina.com.cn\/sports\/global\/germanyfrance.xml", "author" : "WWW.SINA.COM.CN", "desc" : "国际足坛-德甲", "imageUrl" : "http:\/\/www.sinaimg.cn\/ty\/deco\/2010\/0601\/logo_home_sports_nonike2.gif", "postPerWeek" : "0", "lastCrawTime" : "2013年10月20日 (1周前)", "crawDateTime" : "2013年10月20日 (1周前)", "lastHttpCode" : "200"}, "page" : {
"startIndex" : 0,
"totalCount" : 5000,
"pageIndex" : 1,
"lastPage" : 250,
"pageSize" : 20,
"english" :  False },
 "unreadNum" : 0, "shotIndex" : -1,
"articles" : [
{
"index" : 0,
"articleIndex" : "21936",
"favor" :  False ,
     "read" : False,    
"title" : "德甲-罗本传射穆勒2球格策2助攻 拜仁4-1逆转胜",
"titleTip" : "德甲-罗本传射穆勒2球格策2助攻 拜仁4-1逆转胜",
"titleSummary" : "德甲-罗本传射穆勒2球格策2助攻 拜仁4-1逆转胜",
"descSummary" : "",
"url" : "http:\/\/go.rss.sina.com.cn\/redirect.php?url=http:\/\/sports.sina.com.cn\/g\/2013-10-19\/23256839058.shtml",
"pubDate" : "2013年10月19日 (1周前)",
"enterDate" : "384200:43:44",
"channelId" : "-8280861860782346083",
"channelName" : "国际足坛-德甲",
"channelNameSummary" : "国际足坛-德甲",
"channelUrl" : "http:\/\/sports.sina.com.cn\/global\/index.shtml",
"author" : "WWW.SINA.COM.CN",
"tags" : [],
"desc" : "",
"emailed" : False,
"forwarded" : False,
"english" : False
}  , {
"index" : 1,
"articleIndex" : "21935",
"favor" :  False ,
     "read" : False,    
"title" : "巴西世界杯种子队确定七席 意大利英格兰均无缘",
"titleTip" : "巴西世界杯种子队确定七席 意大利英格兰均无缘",
"titleSummary" : "巴西世界杯种子队确定七席 意大利英格兰均无缘",
"descSummary" : "",
"url" : "http:\/\/go.rss.sina.com.cn\/redirect.php?url=http:\/\/sports.sina.com.cn\/g\/2013-10-19\/10406838264.shtml",
"pubDate" : "2013年10月19日 (1周前)",
"enterDate" : "384188:58:43",
"channelId" : "-8280861860782346083",
"channelName" : "国际足坛-德甲",
"channelNameSummary" : "国际足坛-德甲",
"channelUrl" : "http:\/\/sports.sina.com.cn\/global\/index.shtml",
"author" : "WWW.SINA.COM.CN",
"tags" : [],
"desc" : "",
"emailed" : False,
"forwarded" : False,
"english" : False
}  , {
"index" : 2,
"articleIndex" : "21933",
"favor" :  False ,
     "read" : False,    
"title" : "高清-霍村奇冤被边网进球绝杀 一切勒夫都看在眼里",
"titleTip" : "高清-霍村奇冤被边网进球绝杀 一切勒夫都看在眼里",
"titleSummary" : "高清-霍村奇冤被边网进球绝杀 一切勒夫都看在眼里",
"descSummary" : "",
"url" : "http:\/\/go.rss.sina.com.cn\/redirect.php?url=http:\/\/slide.sports.sina.com.cn\/g_bundesliga\/slide_2_730_54815.html",
"pubDate" : "2013年10月19日 (1周前)",
"enterDate" : "384201:00:34",
"channelId" : "-8280861860782346083",
"channelName" : "国际足坛-德甲",
"channelNameSummary" : "国际足坛-德甲",
"channelUrl" : "http:\/\/sports.sina.com.cn\/global\/index.shtml",
"author" : "WWW.SINA.COM.CN",
"tags" : [],
"desc" : "",
"emailed" : False,
"forwarded" : False,
"english" : False
}  , {
"index" : 3,
"articleIndex" : "21932",
"favor" :  False ,
     "read" : False,    
"title" : "德甲离奇1幕!球从边网钻入算进 裁判看哪了?(图)",
"titleTip" : "德甲离奇1幕!球从边网钻入算进 裁判看哪了?(图)",
"titleSummary" : "德甲离奇1幕!球从边网钻入算进 裁判看哪了?(图)",
"descSummary" : "",
"url" : "http:\/\/go.rss.sina.com.cn\/redirect.php?url=http:\/\/sports.sina.com.cn\/g\/2013-10-19\/04466837953.shtml",
"pubDate" : "2013年10月19日 (1周前)",
"enterDate" : "384195:36:51",
"channelId" : "-8280861860782346083",
"channelName" : "国际足坛-德甲",
"channelNameSummary" : "国际足坛-德甲",
"channelUrl" : "http:\/\/sports.sina.com.cn\/global\/index.shtml",
"author" : "WWW.SINA.COM.CN",
"tags" : [],
"desc" : "",
"emailed" : False,
"forwarded" : False,
"english" : False
}  , {
"index" : 4,
"articleIndex" : "21934",
"favor" :  False ,
     "read" : False,    
"title" : "意英无缘世界杯种子队 比利时瑞士跻身进入",
"titleTip" : "意英无缘世界杯种子队 比利时瑞士跻身进入",
"titleSummary" : "意英无缘世界杯种子队 比利时瑞士跻身进入",
"descSummary" : "",
"url" : "http:\/\/go.rss.sina.com.cn\/redirect.php?url=http:\/\/sports.sina.com.cn\/g\/2013-10-19\/00006838039.shtml",
"pubDate" : "2013年10月19日 (1周前)",
"enterDate" : "384192:20:58",
"channelId" : "-8280861860782346083",
"channelName" : "国际足坛-德甲",
"channelNameSummary" : "国际足坛-德甲",
"channelUrl" : "http:\/\/sports.sina.com.cn\/global\/index.shtml",
"author" : "WWW.SINA.COM.CN",
"tags" : [],
"desc" : "",
"emailed" : False,
"forwarded" : False,
"english" : False
}  , {
"index" : 5,
"articleIndex" : "21931",
"favor" :  False ,
     "read" : False,    
"title" : "德国足协官方宣布勒夫续约 功勋教头执教至2016年",
"titleTip" : "德国足协官方宣布勒夫续约 功勋教头执教至2016年",
"titleSummary" : "德国足协官方宣布勒夫续约 功勋教头执教至2016年",
"descSummary" : "",
"url" : "http:\/\/go.rss.sina.com.cn\/redirect.php?url=http:\/\/sports.sina.com.cn\/g\/2013-10-18\/18116837354.shtml",
"pubDate" : "2013年10月18日 (1周前)",
"enterDate" : "384201:04:27",
"channelId" : "-8280861860782346083",
"channelName" : "国际足坛-德甲",
"channelNameSummary" : "国际足坛-德甲",
"channelUrl" : "http:\/\/sports.sina.com.cn\/global\/index.shtml",
"author" : "WWW.SINA.COM.CN",
"tags" : [],
"desc" : "",
"emailed" : False,
"forwarded" : False,
"english" : False
}  , {
"index" : 6,
"articleIndex" : "21930",
"favor" :  False ,
     "read" : False,    
"title" : "贝肯鲍尔：德国当今踢得最漂亮 世界杯三队最有戏",
"titleTip" : "贝肯鲍尔：德国当今踢得最漂亮 世界杯三队最有戏",
"titleSummary" : "贝肯鲍尔：德国当今踢得最漂亮 世界杯三队最有戏",
"descSummary" : "",
"url" : "http:\/\/go.rss.sina.com.cn\/redirect.php?url=http:\/\/sports.sina.com.cn\/g\/2013-10-18\/09146836630.shtml",
"pubDate" : "2013年10月18日 (1周前)",
"enterDate" : "384201:08:58",
"channelId" : "-8280861860782346083",
"channelName" : "国际足坛-德甲",
"channelNameSummary" : "国际足坛-德甲",
"channelUrl" : "http:\/\/sports.sina.com.cn\/global\/index.shtml",
"author" : "WWW.SINA.COM.CN",
"tags" : [],
"desc" : "",
"emailed" : False,
"forwarded" : False,
"english" : False
}  , {
"index" : 7,
"articleIndex" : "21929",
"favor" :  False ,
     "read" : False,    
"title" : "德足协确定续约勒夫周五宣布 巴西世界杯后他仍将带队",
"titleTip" : "德足协确定续约勒夫周五宣布 巴西世界杯后他仍将带队",
"titleSummary" : "德足协确定续约勒夫周五宣布 巴西世界杯后他仍将带队",
"descSummary" : "",
"url" : "http:\/\/go.rss.sina.com.cn\/redirect.php?url=http:\/\/sports.sina.com.cn\/g\/2013-10-17\/21376836066.shtml",
"pubDate" : "2013年10月17日 (1周前)",
"enterDate" : "384201:04:27",
"channelId" : "-8280861860782346083",
"channelName" : "国际足坛-德甲",
"channelNameSummary" : "国际足坛-德甲",
"channelUrl" : "http:\/\/sports.sina.com.cn\/global\/index.shtml",
"author" : "WWW.SINA.COM.CN",
"tags" : [],
"desc" : "",
"emailed" : False,
"forwarded" : False,
"english" : False
}  , {
"index" : 8,
"articleIndex" : "21928",
"favor" :  False ,
     "read" : False,    
"title" : "瓜迪奥拉：顺我者昌逆我者亡 带拜仁机会不容错过",
"titleTip" : "瓜迪奥拉：顺我者昌逆我者亡 带拜仁机会不容错过",
"titleSummary" : "瓜迪奥拉：顺我者昌逆我者亡 带拜仁机会不容错过",
"descSummary" : "",
"url" : "http:\/\/go.rss.sina.com.cn\/redirect.php?url=http:\/\/sports.sina.com.cn\/g\/2013-10-17\/01266834735.shtml",
"pubDate" : "2013年10月17日 (2周前)",
"enterDate" : "384193:55:00",
"channelId" : "-8280861860782346083",
"channelName" : "国际足坛-德甲",
"channelNameSummary" : "国际足坛-德甲",
"channelUrl" : "http:\/\/sports.sina.com.cn\/global\/index.shtml",
"author" : "WWW.SINA.COM.CN",
"tags" : [],
"desc" : "",
"emailed" : False,
"forwarded" : False,
"english" : False
}  , {
"index" : 9,
"articleIndex" : "21927",
"favor" :  False ,
     "read" : False,    
"title" : "C罗先别乐！小心法国他们虐死你 世界杯想碰梅西难啊",
"titleTip" : "C罗先别乐！小心法国他们虐死你 世界杯想碰梅西难啊",
"titleSummary" : "C罗先别乐！小心法国他们虐死你 世界杯想碰梅西难啊",
"descSummary" : "",
"url" : "http:\/\/go.rss.sina.com.cn\/redirect.php?url=http:\/\/sports.sina.com.cn\/g\/2013-10-16\/09276833764.shtml",
"pubDate" : "2013年10月16日 (2周前)",
"enterDate" : "384188:58:13",
"channelId" : "-8280861860782346083",
"channelName" : "国际足坛-德甲",
"channelNameSummary" : "国际足坛-德甲",
"channelUrl" : "http:\/\/sports.sina.com.cn\/global\/index.shtml",
"author" : "WWW.SINA.COM.CN",
"tags" : [],
"desc" : "",
"emailed" : False,
"forwarded" : False,
"english" : False
}  , {
"index" : 10,
"articleIndex" : "21926",
"favor" :  False ,
     "read" : False,    
"title" : "奇迹!欧洲No.1魔队10场30球首进世界杯 西意法全败了",
"titleTip" : "奇迹!欧洲No.1魔队10场30球首进世界杯 西意法全败了",
"titleSummary" : "奇迹!欧洲No.1魔队10场30球首进世界杯 西意法全败了",
"descSummary" : "",
"url" : "http:\/\/go.rss.sina.com.cn\/redirect.php?url=http:\/\/sports.sina.com.cn\/g\/2013-10-16\/06196833369.shtml",
"pubDate" : "2013年10月16日 (2周前)",
"enterDate" : "384185:50:43",
"channelId" : "-8280861860782346083",
"channelName" : "国际足坛-德甲",
"channelNameSummary" : "国际足坛-德甲",
"channelUrl" : "http:\/\/sports.sina.com.cn\/global\/index.shtml",
"author" : "WWW.SINA.COM.CN",
"tags" : [],
"desc" : "",
"emailed" : False,
"forwarded" : False,
"english" : False
}  , {
"index" : 11,
"articleIndex" : "21925",
"favor" :  False ,
     "read" : False,    
"title" : "欧洲附加赛8强出炉！分档揭晓 法葡或战 C罗伊布",
"titleTip" : "欧洲附加赛8强出炉！分档揭晓 法葡或战 C罗伊布",
"titleSummary" : "欧洲附加赛8强出炉！分档揭晓 法葡或战 C罗伊布",
"descSummary" : "",
"url" : "http:\/\/go.rss.sina.com.cn\/redirect.php?url=http:\/\/sports.sina.com.cn\/g\/2013-10-16\/06136833366.shtml",
"pubDate" : "2013年10月16日 (2周前)",
"enterDate" : "384185:44:16",
"channelId" : "-8280861860782346083",
"channelName" : "国际足坛-德甲",
"channelNameSummary" : "国际足坛-德甲",
"channelUrl" : "http:\/\/sports.sina.com.cn\/global\/index.shtml",
"author" : "WWW.SINA.COM.CN",
"tags" : [],
"desc" : "",
"emailed" : False,
"forwarded" : False,
"english" : False
}  , {
"index" : 12,
"articleIndex" : "21924",
"favor" :  False ,
     "read" : False,    
"title" : "世预赛完全战报：德国献8球盛宴 乌克兰8球丹麦6-0",
"titleTip" : "世预赛完全战报：德国献8球盛宴 乌克兰8球丹麦6-0",
"titleSummary" : "世预赛完全战报：德国献8球盛宴 乌克兰8球丹麦6-0",
"descSummary" : "",
"url" : "http:\/\/go.rss.sina.com.cn\/redirect.php?url=http:\/\/sports.sina.com.cn\/g\/2013-09-07\/20131016.html",
"pubDate" : "2013年10月16日 (2周前)",
"enterDate" : "384185:35:15",
"channelId" : "-8280861860782346083",
"channelName" : "国际足坛-德甲",
"channelNameSummary" : "国际足坛-德甲",
"channelUrl" : "http:\/\/sports.sina.com.cn\/global\/index.shtml",
"author" : "WWW.SINA.COM.CN",
"tags" : [],
"desc" : "",
"emailed" : False,
"forwarded" : False,
"english" : False
}  , {
"index" : 13,
"articleIndex" : "21923",
"favor" :  False ,
     "read" : False,    
"title" : "世界杯欧洲区出线球队一览:5豪门+4劲旅 法葡掉队",
"titleTip" : "世界杯欧洲区出线球队一览:5豪门+4劲旅 法葡掉队",
"titleSummary" : "世界杯欧洲区出线球队一览:5豪门+4劲旅 法葡掉队",
"descSummary" : "",
"url" : "http:\/\/go.rss.sina.com.cn\/redirect.php?url=http:\/\/sports.sina.com.cn\/g\/2013-10-16\/06026833397.shtml",
"pubDate" : "2013年10月16日 (2周前)",
"enterDate" : "384185:32:59",
"channelId" : "-8280861860782346083",
"channelName" : "国际足坛-德甲",
"channelNameSummary" : "国际足坛-德甲",
"channelUrl" : "http:\/\/sports.sina.com.cn\/global\/index.shtml",
"author" : "WWW.SINA.COM.CN",
"tags" : [],
"desc" : "",
"emailed" : False,
"forwarded" : False,
"english" : False
}  , {
"index" : 14,
"articleIndex" : "21922",
"favor" :  False ,
     "read" : False,    
"title" : "世预赛大结局-德国5-3逆转 荷兰2-0 法葡进附加赛",
"titleTip" : "世预赛大结局-德国5-3逆转 荷兰2-0 法葡进附加赛",
"titleSummary" : "世预赛大结局-德国5-3逆转 荷兰2-0 法葡进附加赛",
"descSummary" : "",
"url" : "http:\/\/go.rss.sina.com.cn\/redirect.php?url=http:\/\/sports.sina.com.cn\/g\/2013-10-16\/03036833098.shtml",
"pubDate" : "2013年10月16日 (2周前)",
"enterDate" : "384200:59:07",
"channelId" : "-8280861860782346083",
"channelName" : "国际足坛-德甲",
"channelNameSummary" : "国际足坛-德甲",
"channelUrl" : "http:\/\/sports.sina.com.cn\/global\/index.shtml",
"author" : "WWW.SINA.COM.CN",
"tags" : [],
"desc" : "",
"emailed" : False,
"forwarded" : False,
"english" : False
}  , {
"index" : 15,
"articleIndex" : "21921",
"favor" :  False ,
     "read" : False,    
"title" : "世预赛法国首发：纳斯里搭档里贝里 吉鲁单前锋",
"titleTip" : "世预赛法国首发：纳斯里搭档里贝里 吉鲁单前锋",
"titleSummary" : "世预赛法国首发：纳斯里搭档里贝里 吉鲁单前锋",
"descSummary" : "",
"url" : "http:\/\/go.rss.sina.com.cn\/redirect.php?url=http:\/\/sports.sina.com.cn\/g\/2013-10-16\/02486833080.shtml",
"pubDate" : "2013年10月16日 (2周前)",
"enterDate" : "384200:22:43",
"channelId" : "-8280861860782346083",
"channelName" : "国际足坛-德甲",
"channelNameSummary" : "国际足坛-德甲",
"channelUrl" : "http:\/\/sports.sina.com.cn\/global\/index.shtml",
"author" : "WWW.SINA.COM.CN",
"tags" : [],
"desc" : "",
"emailed" : False,
"forwarded" : False,
"english" : False
}  , {
"index" : 16,
"articleIndex" : "21918",
"favor" :  False ,
     "read" : False,    
"title" : "世预赛德国首发：厄齐尔领衔 穆勒搭档许尔勒",
"titleTip" : "世预赛德国首发：厄齐尔领衔 穆勒搭档许尔勒",
"titleSummary" : "世预赛德国首发：厄齐尔领衔 穆勒搭档许尔勒",
"descSummary" : "",
"url" : "http:\/\/go.rss.sina.com.cn\/redirect.php?url=http:\/\/sports.sina.com.cn\/g\/2013-10-16\/02336833074.shtml",
"pubDate" : "2013年10月16日 (2周前)",
"enterDate" : "384201:07:57",
"channelId" : "-8280861860782346083",
"channelName" : "国际足坛-德甲",
"channelNameSummary" : "国际足坛-德甲",
"channelUrl" : "http:\/\/sports.sina.com.cn\/global\/index.shtml",
"author" : "WWW.SINA.COM.CN",
"tags" : [],
"desc" : "",
"emailed" : False,
"forwarded" : False,
"english" : False
}  , {
"index" : 17,
"articleIndex" : "21920",
"favor" :  False ,
     "read" : False,    
"title" : "世预赛荷兰首发:罗本斯内德出战 范佩西突前",
"titleTip" : "世预赛荷兰首发:罗本斯内德出战 范佩西突前",
"titleSummary" : "世预赛荷兰首发:罗本斯内德出战 范佩西突前",
"descSummary" : "",
"url" : "http:\/\/go.rss.sina.com.cn\/redirect.php?url=http:\/\/sports.sina.com.cn\/g\/2013-10-16\/01446833027.shtml",
"pubDate" : "2013年10月16日 (2周前)",
"enterDate" : "384199:18:00",
"channelId" : "-8280861860782346083",
"channelName" : "国际足坛-德甲",
"channelNameSummary" : "国际足坛-德甲",
"channelUrl" : "http:\/\/sports.sina.com.cn\/global\/index.shtml",
"author" : "WWW.SINA.COM.CN",
"tags" : [],
"desc" : "",
"emailed" : False,
"forwarded" : False,
"english" : False
}  , {
"index" : 18,
"articleIndex" : "21919",
"favor" :  False ,
     "read" : False,    
"title" : "亮瞎！揭巴西队饮食:内马尔最爱+为何不吃北京烤鸭",
"titleTip" : "亮瞎！揭巴西队饮食:内马尔最爱+为何不吃北京烤鸭",
"titleSummary" : "亮瞎！揭巴西队饮食:内马尔最爱+为何不吃北京烤鸭",
"descSummary" : "",
"url" : "http:\/\/go.rss.sina.com.cn\/redirect.php?url=http:\/\/blog.sina.com.cn\/s\/blog_d9ed38b60101j28k.html",
"pubDate" : "2013年10月15日 (2周前)",
"enterDate" : "384185:40:00",
"channelId" : "-8280861860782346083",
"channelName" : "国际足坛-德甲",
"channelNameSummary" : "国际足坛-德甲",
"channelUrl" : "http:\/\/sports.sina.com.cn\/global\/index.shtml",
"author" : "WWW.SINA.COM.CN",
"tags" : [],
"desc" : "",
"emailed" : False,
"forwarded" : False,
"english" : False
}  , {
"index" : 19,
"articleIndex" : "21917",
"favor" :  False ,
     "read" : False,    
"title" : "拜仁上赛季总收入破4亿创下新纪录 纯利润被1队超越",
"titleTip" : "拜仁上赛季总收入破4亿创下新纪录 纯利润被1队超越",
"titleSummary" : "拜仁上赛季总收入破4亿创下新纪录 纯利润被1队超越",
"descSummary" : "",
"url" : "http:\/\/go.rss.sina.com.cn\/redirect.php?url=http:\/\/sports.sina.com.cn\/g\/2013-10-15\/01336831296.shtml",
"pubDate" : "2013年10月15日 (2周前)",
"enterDate" : "384201:12:05",
"channelId" : "-8280861860782346083",
"channelName" : "国际足坛-德甲",
"channelNameSummary" : "国际足坛-德甲",
"channelUrl" : "http:\/\/sports.sina.com.cn\/global\/index.shtml",
"author" : "WWW.SINA.COM.CN",
"tags" : [],
"desc" : "",
"emailed" : False,
"forwarded" : False,
"english" : False
} ]
}
