{
"mode" : {"viewTitle" : 1,   "viewNew" : 0,  "pageIndex" : 2 },
 "channel" : {"id" : "-8280861860782346083", "booked" : False, "subNumber" : 1, "name" : "国际足坛-德甲", "url" : "http:\/\/sports.sina.com.cn\/global\/index.shtml", "feed" : "http:\/\/rss.sina.com.cn\/sports\/global\/germanyfrance.xml", "author" : "WWW.SINA.COM.CN", "desc" : "国际足坛-德甲", "imageUrl" : "http:\/\/www.sinaimg.cn\/ty\/deco\/2010\/0601\/logo_home_sports_nonike2.gif", "postPerWeek" : "0", "lastCrawTime" : "2013年10月20日 (1周前)", "crawDateTime" : "2013年10月20日 (1周前)", "lastHttpCode" : "200"}, "page" : {
"startIndex" : 20,
"totalCount" : 5000,
"pageIndex" : 2,
"lastPage" : 250,
"pageSize" : 20,
"english" :  False },
 "unreadNum" : 0, "shotIndex" : -1,
"articles" : [
{
"index" : 0,
"articleIndex" : "21908",
"favor" :  False ,
     "read" : False,    
"title" : "世预赛欧洲区最终射手榜：范佩西No.1 曼城锋霸居次席",
"titleTip" : "世预赛欧洲区最终射手榜：范佩西No.1 曼城锋霸居次席",
"titleSummary" : "世预赛欧洲区最终射手榜：范佩西No.1 曼城锋霸居次席",
"descSummary" : "",
"url" : "http:\/\/go.rss.sina.com.cn\/redirect.php?url=http:\/\/sports.sina.com.cn\/g\/2013-03-27\/06146216227.shtml",
"pubDate" : "2013年10月16日 (2周前)",
"enterDate" : "384184:50:50",
"channelId" : "-8280861860782346083",
"channelName" : "国际足坛-德甲",
"channelNameSummary" : "国际足坛-德甲",
"channelUrl" : "http:\/\/sports.sina.com.cn\/global\/index.shtml",
"author" : "WWW.SINA.COM.CN",
"tags" : [],
"desc" : "",
"emailed" : False,
"forwarded" : False,
"english" : False
}  , {
"index" : 1,
"articleIndex" : "21907",
"favor" :  False ,
     "read" : False,    
"title" : "世预赛欧洲最终积分榜：5豪门头名出线 3妖队爆冷",
"titleTip" : "世预赛欧洲最终积分榜：5豪门头名出线 3妖队爆冷",
"titleSummary" : "世预赛欧洲最终积分榜：5豪门头名出线 3妖队爆冷",
"descSummary" : "",
"url" : "http:\/\/go.rss.sina.com.cn\/redirect.php?url=http:\/\/sports.sina.com.cn\/g\/2013-03-27\/06006216226.shtml",
"pubDate" : "2013年10月16日 (2周前)",
"enterDate" : "384184:41:04",
"channelId" : "-8280861860782346083",
"channelName" : "国际足坛-德甲",
"channelNameSummary" : "国际足坛-德甲",
"channelUrl" : "http:\/\/sports.sina.com.cn\/global\/index.shtml",
"author" : "WWW.SINA.COM.CN",
"tags" : [],
"desc" : "",
"emailed" : False,
"forwarded" : False,
"english" : False
}  , {
"index" : 2,
"articleIndex" : "21916",
"favor" :  False ,
     "read" : False,    
"title" : "高清-法国备战与芬兰世预赛末战 克拉枫丹静谧如画",
"titleTip" : "高清-法国备战与芬兰世预赛末战 克拉枫丹静谧如画",
"titleSummary" : "高清-法国备战与芬兰世预赛末战 克拉枫丹静谧如画",
"descSummary" : "",
"url" : "http:\/\/go.rss.sina.com.cn\/redirect.php?url=http:\/\/slide.sports.sina.com.cn\/g\/slide_2_730_54494.html",
"pubDate" : "2013年10月13日 (2周前)",
"enterDate" : "384193:07:21",
"channelId" : "-8280861860782346083",
"channelName" : "国际足坛-德甲",
"channelNameSummary" : "国际足坛-德甲",
"channelUrl" : "http:\/\/sports.sina.com.cn\/global\/index.shtml",
"author" : "WWW.SINA.COM.CN",
"tags" : [],
"desc" : "",
"emailed" : False,
"forwarded" : False,
"english" : False
}  , {
"index" : 3,
"articleIndex" : "21915",
"favor" :  False ,
     "read" : False,    
"title" : "皇马不死鸟向天证明他依然牛 阿森纳最已阵你要当心了",
"titleTip" : "皇马不死鸟向天证明他依然牛 阿森纳最已阵你要当心了",
"titleSummary" : "皇马不死鸟向天证明他依然牛 阿森纳最已阵你要当心了",
"descSummary" : "",
"url" : "http:\/\/go.rss.sina.com.cn\/redirect.php?url=http:\/\/sports.sina.com.cn\/g\/2013-10-12\/10296826688.shtml",
"pubDate" : "2013年10月12日 (2周前)",
"enterDate" : "384186:50:49",
"channelId" : "-8280861860782346083",
"channelName" : "国际足坛-德甲",
"channelNameSummary" : "国际足坛-德甲",
"channelUrl" : "http:\/\/sports.sina.com.cn\/global\/index.shtml",
"author" : "WWW.SINA.COM.CN",
"tags" : [],
"desc" : "",
"emailed" : False,
"forwarded" : False,
"english" : False
}  , {
"index" : 4,
"articleIndex" : "21914",
"favor" :  False ,
     "read" : False,    
"title" : "C罗踢不了世界杯？！ 纳尼你真这么踢下去会害死CR7",
"titleTip" : "C罗踢不了世界杯？！ 纳尼你真这么踢下去会害死CR7",
"titleSummary" : "C罗踢不了世界杯？！ 纳尼你真这么踢下去会害死CR7",
"descSummary" : "",
"url" : "http:\/\/go.rss.sina.com.cn\/redirect.php?url=http:\/\/sports.sina.com.cn\/g\/2013-10-12\/10086826657.shtml",
"pubDate" : "2013年10月12日 (2周前)",
"enterDate" : "384186:29:57",
"channelId" : "-8280861860782346083",
"channelName" : "国际足坛-德甲",
"channelNameSummary" : "国际足坛-德甲",
"channelUrl" : "http:\/\/sports.sina.com.cn\/global\/index.shtml",
"author" : "WWW.SINA.COM.CN",
"tags" : [],
"desc" : "",
"emailed" : False,
"forwarded" : False,
"english" : False
}  , {
"index" : 5,
"articleIndex" : "21913",
"favor" :  False ,
     "read" : False,    
"title" : "厄齐尔：我与穆里尼奥联系密切 和皇马已彻底决裂",
"titleTip" : "厄齐尔：我与穆里尼奥联系密切 和皇马已彻底决裂",
"titleSummary" : "厄齐尔：我与穆里尼奥联系密切 和皇马已彻底决裂",
"descSummary" : "",
"url" : "http:\/\/go.rss.sina.com.cn\/redirect.php?url=http:\/\/sports.sina.com.cn\/g\/2013-10-12\/09276826555.shtml",
"pubDate" : "2013年10月12日 (2周前)",
"enterDate" : "384200:58:47",
"channelId" : "-8280861860782346083",
"channelName" : "国际足坛-德甲",
"channelNameSummary" : "国际足坛-德甲",
"channelUrl" : "http:\/\/sports.sina.com.cn\/global\/index.shtml",
"author" : "WWW.SINA.COM.CN",
"tags" : [],
"desc" : "",
"emailed" : False,
"forwarded" : False,
"english" : False
}  , {
"index" : 6,
"articleIndex" : "21912",
"favor" :  False ,
     "read" : False,    
"title" : "43分钟造5球！欧天王C罗眼皮底下篡位 齐达内拜服",
"titleTip" : "43分钟造5球！欧天王C罗眼皮底下篡位 齐达内拜服",
"titleSummary" : "43分钟造5球！欧天王C罗眼皮底下篡位 齐达内拜服",
"descSummary" : "",
"url" : "http:\/\/go.rss.sina.com.cn\/redirect.php?url=http:\/\/sports.sina.com.cn\/g\/2013-10-12\/08216826298.shtml",
"pubDate" : "2013年10月12日 (2周前)",
"enterDate" : "384200:22:53",
"channelId" : "-8280861860782346083",
"channelName" : "国际足坛-德甲",
"channelNameSummary" : "国际足坛-德甲",
"channelUrl" : "http:\/\/sports.sina.com.cn\/global\/index.shtml",
"author" : "WWW.SINA.COM.CN",
"tags" : [],
"desc" : "",
"emailed" : False,
"forwarded" : False,
"english" : False
}  , {
"index" : 7,
"articleIndex" : "21910",
"favor" :  False ,
     "read" : False,    
"title" : "C罗：世界杯附加赛不想遇法国 如果聊这事我会被惩罚",
"titleTip" : "C罗：世界杯附加赛不想遇法国 如果聊这事我会被惩罚",
"titleSummary" : "C罗：世界杯附加赛不想遇法国 如果聊这事我会被惩罚",
"descSummary" : "",
"url" : "http:\/\/go.rss.sina.com.cn\/redirect.php?url=http:\/\/sports.sina.com.cn\/g\/2013-10-12\/08046826284.shtml",
"pubDate" : "2013年10月12日 (2周前)",
"enterDate" : "384201:06:18",
"channelId" : "-8280861860782346083",
"channelName" : "国际足坛-德甲",
"channelNameSummary" : "国际足坛-德甲",
"channelUrl" : "http:\/\/sports.sina.com.cn\/global\/index.shtml",
"author" : "WWW.SINA.COM.CN",
"tags" : [],
"desc" : "",
"emailed" : False,
"forwarded" : False,
"english" : False
}  , {
"index" : 8,
"articleIndex" : "21911",
"favor" :  False ,
     "read" : False,    
"title" : "世预赛完全战报：荷兰8球屠杀 5劲旅狂各轰4球",
"titleTip" : "世预赛完全战报：荷兰8球屠杀 5劲旅狂各轰4球",
"titleSummary" : "世预赛完全战报：荷兰8球屠杀 5劲旅狂各轰4球",
"descSummary" : "",
"url" : "http:\/\/go.rss.sina.com.cn\/redirect.php?url=http:\/\/sports.sina.com.cn\/g\/2013-09-07\/20131012.html",
"pubDate" : "2013年10月12日 (2周前)",
"enterDate" : "384200:30:22",
"channelId" : "-8280861860782346083",
"channelName" : "国际足坛-德甲",
"channelNameSummary" : "国际足坛-德甲",
"channelUrl" : "http:\/\/sports.sina.com.cn\/global\/index.shtml",
"author" : "WWW.SINA.COM.CN",
"tags" : [],
"desc" : "",
"emailed" : False,
"forwarded" : False,
"english" : False
}  , {
"index" : 9,
"articleIndex" : "21909",
"favor" :  False ,
     "read" : False,    
"title" : "德国学巴萨也玩无锋阵了 强啊！厄齐尔就像梅西那么踢",
"titleTip" : "德国学巴萨也玩无锋阵了 强啊！厄齐尔就像梅西那么踢",
"titleSummary" : "德国学巴萨也玩无锋阵了 强啊！厄齐尔就像梅西那么踢",
"descSummary" : "",
"url" : "http:\/\/go.rss.sina.com.cn\/redirect.php?url=http:\/\/sports.sina.com.cn\/g\/2013-10-12\/07216826241.shtml",
"pubDate" : "2013年10月12日 (2周前)",
"enterDate" : "384200:53:07",
"channelId" : "-8280861860782346083",
"channelName" : "国际足坛-德甲",
"channelNameSummary" : "国际足坛-德甲",
"channelUrl" : "http:\/\/sports.sina.com.cn\/global\/index.shtml",
"author" : "WWW.SINA.COM.CN",
"tags" : [],
"desc" : "",
"emailed" : False,
"forwarded" : False,
"english" : False
}  , {
"index" : 10,
"articleIndex" : "21906",
"favor" :  False ,
     "read" : False,    
"title" : "普帅批球队注意力分散造失球 再胜阿美尼亚保不败金身",
"titleTip" : "普帅批球队注意力分散造失球 再胜阿美尼亚保不败金身",
"titleSummary" : "普帅批球队注意力分散造失球 再胜阿美尼亚保不败金身",
"descSummary" : "",
"url" : "http:\/\/go.rss.sina.com.cn\/redirect.php?url=http:\/\/sports.sina.com.cn\/g\/2013-10-12\/05446826155.shtml",
"pubDate" : "2013年10月12日 (2周前)",
"enterDate" : "384201:16:33",
"channelId" : "-8280861860782346083",
"channelName" : "国际足坛-德甲",
"channelNameSummary" : "国际足坛-德甲",
"channelUrl" : "http:\/\/sports.sina.com.cn\/global\/index.shtml",
"author" : "WWW.SINA.COM.CN",
"tags" : [],
"desc" : "",
"emailed" : False,
"forwarded" : False,
"english" : False
}  , {
"index" : 11,
"articleIndex" : "21902",
"favor" :  False ,
     "read" : False,    
"title" : "世预赛-德国比利时瑞士出线 荷兰8-1法国6-0葡平",
"titleTip" : "世预赛-德国比利时瑞士出线 荷兰8-1法国6-0葡平",
"titleSummary" : "世预赛-德国比利时瑞士出线 荷兰8-1法国6-0葡平",
"descSummary" : "",
"url" : "http:\/\/go.rss.sina.com.cn\/redirect.php?url=http:\/\/sports.sina.com.cn\/g\/2013-10-12\/02066825912.shtml",
"pubDate" : "2013年10月12日 (2周前)",
"enterDate" : "384201:14:34",
"channelId" : "-8280861860782346083",
"channelName" : "国际足坛-德甲",
"channelNameSummary" : "国际足坛-德甲",
"channelUrl" : "http:\/\/sports.sina.com.cn\/global\/index.shtml",
"author" : "WWW.SINA.COM.CN",
"tags" : [],
"desc" : "",
"emailed" : False,
"forwarded" : False,
"english" : False
}  , {
"index" : 12,
"articleIndex" : "21905",
"favor" :  False ,
     "read" : False,    
"title" : "高清-拉姆赫迪拉相击激情庆祝 穆勒高难度杂耍争球",
"titleTip" : "高清-拉姆赫迪拉相击激情庆祝 穆勒高难度杂耍争球",
"titleSummary" : "高清-拉姆赫迪拉相击激情庆祝 穆勒高难度杂耍争球",
"descSummary" : "",
"url" : "http:\/\/go.rss.sina.com.cn\/redirect.php?url=http:\/\/slide.sports.sina.com.cn\/g_bundesliga\/slide_2_730_54442.html\/d\/1#p=1",
"pubDate" : "2013年10月12日 (2周前)",
"enterDate" : "384200:18:35",
"channelId" : "-8280861860782346083",
"channelName" : "国际足坛-德甲",
"channelNameSummary" : "国际足坛-德甲",
"channelUrl" : "http:\/\/sports.sina.com.cn\/global\/index.shtml",
"author" : "WWW.SINA.COM.CN",
"tags" : [],
"desc" : "",
"emailed" : False,
"forwarded" : False,
"english" : False
}  , {
"index" : 13,
"articleIndex" : "21904",
"favor" :  False ,
     "read" : False,    
"title" : "德国VS爱尔兰首发：厄齐尔单箭头 赫迪拉搭档小猪",
"titleTip" : "德国VS爱尔兰首发：厄齐尔单箭头 赫迪拉搭档小猪",
"titleSummary" : "德国VS爱尔兰首发：厄齐尔单箭头 赫迪拉搭档小猪",
"descSummary" : "",
"url" : "http:\/\/go.rss.sina.com.cn\/redirect.php?url=http:\/\/sports.sina.com.cn\/g\/2013-10-12\/02436825937.shtml",
"pubDate" : "2013年10月12日 (2周前)",
"enterDate" : "384198:15:11",
"channelId" : "-8280861860782346083",
"channelName" : "国际足坛-德甲",
"channelNameSummary" : "国际足坛-德甲",
"channelUrl" : "http:\/\/sports.sina.com.cn\/global\/index.shtml",
"author" : "WWW.SINA.COM.CN",
"tags" : [],
"desc" : "",
"emailed" : False,
"forwarded" : False,
"english" : False
}  , {
"index" : 14,
"articleIndex" : "21903",
"favor" :  False ,
     "read" : False,    
"title" : "世预赛荷兰首发:罗本范德法特出战 范佩西突前",
"titleTip" : "世预赛荷兰首发:罗本范德法特出战 范佩西突前",
"titleSummary" : "世预赛荷兰首发:罗本范德法特出战 范佩西突前",
"descSummary" : "",
"url" : "http:\/\/go.rss.sina.com.cn\/redirect.php?url=http:\/\/sports.sina.com.cn\/g\/2013-10-12\/02006825915.shtml",
"pubDate" : "2013年10月12日 (2周前)",
"enterDate" : "384197:32:10",
"channelId" : "-8280861860782346083",
"channelName" : "国际足坛-德甲",
"channelNameSummary" : "国际足坛-德甲",
"channelUrl" : "http:\/\/sports.sina.com.cn\/global\/index.shtml",
"author" : "WWW.SINA.COM.CN",
"tags" : [],
"desc" : "",
"emailed" : False,
"forwarded" : False,
"english" : False
}  , {
"index" : 15,
"articleIndex" : "21901",
"favor" :  False ,
     "read" : False,    
"title" : "德国主帅酝酿三场友谊赛 计划提前去南美只为世界杯",
"titleTip" : "德国主帅酝酿三场友谊赛 计划提前去南美只为世界杯",
"titleSummary" : "德国主帅酝酿三场友谊赛 计划提前去南美只为世界杯",
"descSummary" : "",
"url" : "http:\/\/go.rss.sina.com.cn\/redirect.php?url=http:\/\/sports.sina.com.cn\/g\/2013-10-11\/22236825756.shtml",
"pubDate" : "2013年10月11日 (2周前)",
"enterDate" : "384197:56:19",
"channelId" : "-8280861860782346083",
"channelName" : "国际足坛-德甲",
"channelNameSummary" : "国际足坛-德甲",
"channelUrl" : "http:\/\/sports.sina.com.cn\/global\/index.shtml",
"author" : "WWW.SINA.COM.CN",
"tags" : [],
"desc" : "",
"emailed" : False,
"forwarded" : False,
"english" : False
}  , {
"index" : 16,
"articleIndex" : "21900",
"favor" :  False ,
     "read" : False,    
"title" : "瑞典球员怪病仅存1%视力 队友感人约定助他圆6年夙愿",
"titleTip" : "瑞典球员怪病仅存1%视力 队友感人约定助他圆6年夙愿",
"titleSummary" : "瑞典球员怪病仅存1%视力 队友感人约定助他圆6年夙愿",
"descSummary" : "",
"url" : "http:\/\/go.rss.sina.com.cn\/redirect.php?url=http:\/\/sports.sina.com.cn\/g\/2013-10-11\/19256825470.shtml",
"pubDate" : "2013年10月11日 (2周前)",
"enterDate" : "384196:58:37",
"channelId" : "-8280861860782346083",
"channelName" : "国际足坛-德甲",
"channelNameSummary" : "国际足坛-德甲",
"channelUrl" : "http:\/\/sports.sina.com.cn\/global\/index.shtml",
"author" : "WWW.SINA.COM.CN",
"tags" : [],
"desc" : "",
"emailed" : False,
"forwarded" : False,
"english" : False
}  , {
"index" : 17,
"articleIndex" : "21898",
"favor" :  False ,
     "read" : False,    
"title" : "高清-勒夫弟子面前秀球感 厄齐尔赫迪拉出席发布会",
"titleTip" : "高清-勒夫弟子面前秀球感 厄齐尔赫迪拉出席发布会",
"titleSummary" : "高清-勒夫弟子面前秀球感 厄齐尔赫迪拉出席发布会",
"descSummary" : "",
"url" : "http:\/\/go.rss.sina.com.cn\/redirect.php?url=http:\/\/slide.sports.sina.com.cn\/g_bundesliga\/slide_2_730_54376.html",
"pubDate" : "2013年10月11日 (2周前)",
"enterDate" : "384200:57:21",
"channelId" : "-8280861860782346083",
"channelName" : "国际足坛-德甲",
"channelNameSummary" : "国际足坛-德甲",
"channelUrl" : "http:\/\/sports.sina.com.cn\/global\/index.shtml",
"author" : "WWW.SINA.COM.CN",
"tags" : [],
"desc" : "",
"emailed" : False,
"forwarded" : False,
"english" : False
}  , {
"index" : 18,
"articleIndex" : "21899",
"favor" :  False ,
     "read" : False,    
"title" : "土超豪门主席曝5年建欧超联赛 遭尤文主席泼冷水",
"titleTip" : "土超豪门主席曝5年建欧超联赛 遭尤文主席泼冷水",
"titleSummary" : "土超豪门主席曝5年建欧超联赛 遭尤文主席泼冷水",
"descSummary" : "",
"url" : "http:\/\/go.rss.sina.com.cn\/redirect.php?url=http:\/\/sports.sina.com.cn\/g\/2013-10-11\/02536823973.shtml",
"pubDate" : "2013年10月11日 (2周前)",
"enterDate" : "384180:26:25",
"channelId" : "-8280861860782346083",
"channelName" : "国际足坛-德甲",
"channelNameSummary" : "国际足坛-德甲",
"channelUrl" : "http:\/\/sports.sina.com.cn\/global\/index.shtml",
"author" : "WWW.SINA.COM.CN",
"tags" : [],
"desc" : "",
"emailed" : False,
"forwarded" : False,
"english" : False
}  , {
"index" : 19,
"articleIndex" : "21897",
"favor" :  False ,
     "read" : False,    
"title" : "高清-法国备战洛里斯全身湿透俯卧撑 里贝里秀脚法",
"titleTip" : "高清-法国备战洛里斯全身湿透俯卧撑 里贝里秀脚法",
"titleSummary" : "高清-法国备战洛里斯全身湿透俯卧撑 里贝里秀脚法",
"descSummary" : "",
"url" : "http:\/\/go.rss.sina.com.cn\/redirect.php?url=http:\/\/slide.sports.sina.com.cn\/g\/slide_2_730_54316.html",
"pubDate" : "2013年10月10日 (2周前)",
"enterDate" : "384200:56:09",
"channelId" : "-8280861860782346083",
"channelName" : "国际足坛-德甲",
"channelNameSummary" : "国际足坛-德甲",
"channelUrl" : "http:\/\/sports.sina.com.cn\/global\/index.shtml",
"author" : "WWW.SINA.COM.CN",
"tags" : [],
"desc" : "",
"emailed" : False,
"forwarded" : False,
"english" : False
} ]
}
