{
"mode" : {"viewTitle" : 1,   "viewNew" : 0,  "pageIndex" : 1 },
 "channel" : {"id" : "3661343942741271900", "booked" : False, "subNumber" : 1, "name" : "国际足坛-西甲", "url" : "http:\/\/sports.sina.com.cn\/global\/index.shtml", "feed" : "http:\/\/rss.sina.com.cn\/sports\/global\/spain.xml", "author" : "WWW.SINA.COM.CN", "desc" : "国际足坛-西甲", "imageUrl" : "http:\/\/www.sinaimg.cn\/ty\/deco\/2010\/0601\/logo_home_sports_nonike2.gif", "postPerWeek" : "0", "lastCrawTime" : "昨天03:48:46", "crawDateTime" : "昨天03:48:46", "lastHttpCode" : "200"}, "page" : {
"startIndex" : 0,
"totalCount" : 5000,
"pageIndex" : 1,
"lastPage" : 250,
"pageSize" : 20,
"english" :  False },
 "unreadNum" : 0, "shotIndex" : -1,
"articles" : [
{
"index" : 0,
"articleIndex" : "28978",
"favor" :  False ,
     "read" : False,    
"title" : "FIFA主席力挺梅西获金球奖 吹口哨讽刺C罗太花哨",
"titleTip" : "FIFA主席力挺梅西获金球奖 吹口哨讽刺C罗太花哨",
"titleSummary" : "FIFA主席力挺梅西获金球奖 吹口哨讽刺C罗太花哨",
"descSummary" : "",
"url" : "http:\/\/go.rss.sina.com.cn\/redirect.php?url=http:\/\/sports.sina.com.cn\/g\/laliga\/2013-10-30\/01346857301.shtml",
"pubDate" : "昨天01:34:13",
"enterDate" : "384201:05:51",
"channelId" : "3661343942741271900",
"channelName" : "国际足坛-西甲",
"channelNameSummary" : "国际足坛-西甲",
"channelUrl" : "http:\/\/sports.sina.com.cn\/global\/index.shtml",
"author" : "WWW.SINA.COM.CN",
"tags" : [],
"desc" : "",
"emailed" : False,
"forwarded" : False,
"english" : False
}  , {
"index" : 1,
"articleIndex" : "28977",
"favor" :  False ,
     "read" : False,    
"title" : "高清-皇马热身备战塞维利亚 阿隆索身影重现成利好",
"titleTip" : "高清-皇马热身备战塞维利亚 阿隆索身影重现成利好",
"titleSummary" : "高清-皇马热身备战塞维利亚 阿隆索身影重现成利好",
"descSummary" : "",
"url" : "http:\/\/go.rss.sina.com.cn\/redirect.php?url=http:\/\/slide.sports.sina.com.cn\/g_laliga\/slide_2_730_55431.html",
"pubDate" : "昨天00:47:40",
"enterDate" : "384200:49:23",
"channelId" : "3661343942741271900",
"channelName" : "国际足坛-西甲",
"channelNameSummary" : "国际足坛-西甲",
"channelUrl" : "http:\/\/sports.sina.com.cn\/global\/index.shtml",
"author" : "WWW.SINA.COM.CN",
"tags" : [],
"desc" : "",
"emailed" : False,
"forwarded" : False,
"english" : False
}  , {
"index" : 2,
"articleIndex" : "28975",
"favor" :  False ,
     "read" : False,    
"title" : "FIFA公布年度最佳主帅10人名单:海因克斯弗格森入围",
"titleTip" : "FIFA公布年度最佳主帅10人名单:海因克斯弗格森入围",
"titleSummary" : "FIFA公布年度最佳主帅10人名单:海因克斯弗格森入围",
"descSummary" : "",
"url" : "http:\/\/go.rss.sina.com.cn\/redirect.php?url=http:\/\/sports.sina.com.cn\/g\/laliga\/2013-10-29\/12006856671.shtml",
"pubDate" : "昨天12:00:42",
"enterDate" : "384200:34:30",
"channelId" : "3661343942741271900",
"channelName" : "国际足坛-西甲",
"channelNameSummary" : "国际足坛-西甲",
"channelUrl" : "http:\/\/sports.sina.com.cn\/global\/index.shtml",
"author" : "WWW.SINA.COM.CN",
"tags" : [],
"desc" : "",
"emailed" : False,
"forwarded" : False,
"english" : False
}  , {
"index" : 3,
"articleIndex" : "28974",
"favor" :  False ,
     "read" : False,    
"title" : "FIFA公布金球奖23人名单：拜仁6人 梅西C罗在列",
"titleTip" : "FIFA公布金球奖23人名单：拜仁6人 梅西C罗在列",
"titleSummary" : "FIFA公布金球奖23人名单：拜仁6人 梅西C罗在列",
"descSummary" : "",
"url" : "http:\/\/go.rss.sina.com.cn\/redirect.php?url=http:\/\/sports.sina.com.cn\/g\/laliga\/2013-10-29\/11496856645.shtml",
"pubDate" : "昨天11:49:46",
"enterDate" : "384200:53:37",
"channelId" : "3661343942741271900",
"channelName" : "国际足坛-西甲",
"channelNameSummary" : "国际足坛-西甲",
"channelUrl" : "http:\/\/sports.sina.com.cn\/global\/index.shtml",
"author" : "WWW.SINA.COM.CN",
"tags" : [],
"desc" : "",
"emailed" : False,
"forwarded" : False,
"english" : False
}  , {
"index" : 4,
"articleIndex" : "28972",
"favor" :  False ,
     "read" : False,    
"title" : "C罗不踢球跑去开法拉利：我将成为下一位F1赛车手(图)",
"titleTip" : "C罗不踢球跑去开法拉利：我将成为下一位F1赛车手(图)",
"titleSummary" : "C罗不踢球跑去开法拉利：我将成为下一位F1赛车手(图)",
"descSummary" : "",
"url" : "http:\/\/go.rss.sina.com.cn\/redirect.php?url=http:\/\/sports.sina.com.cn\/g\/laliga\/2013-10-29\/11186856617.shtml",
"pubDate" : "昨天11:18:46",
"enterDate" : "384200:52:42",
"channelId" : "3661343942741271900",
"channelName" : "国际足坛-西甲",
"channelNameSummary" : "国际足坛-西甲",
"channelUrl" : "http:\/\/sports.sina.com.cn\/global\/index.shtml",
"author" : "WWW.SINA.COM.CN",
"tags" : [],
"desc" : "",
"emailed" : False,
"forwarded" : False,
"english" : False
}  , {
"index" : 5,
"articleIndex" : "28971",
"favor" :  False ,
     "read" : False,    
"title" : "巴黎微博公布金球奖23人名单:拜仁7人梅西C罗在列",
"titleTip" : "巴黎微博公布金球奖23人名单:拜仁7人梅西C罗在列",
"titleSummary" : "巴黎微博公布金球奖23人名单:拜仁7人梅西C罗在列",
"descSummary" : "",
"url" : "http:\/\/go.rss.sina.com.cn\/redirect.php?url=http:\/\/sports.sina.com.cn\/g\/laliga\/2013-10-29\/10586856576.shtml",
"pubDate" : "昨天10:58:53",
"enterDate" : "384201:02:53",
"channelId" : "3661343942741271900",
"channelName" : "国际足坛-西甲",
"channelNameSummary" : "国际足坛-西甲",
"channelUrl" : "http:\/\/sports.sina.com.cn\/global\/index.shtml",
"author" : "WWW.SINA.COM.CN",
"tags" : [],
"desc" : "",
"emailed" : False,
"forwarded" : False,
"english" : False
}  , {
"index" : 6,
"articleIndex" : "28970",
"favor" :  False ,
     "read" : False,    
"title" : "安切洛蒂否认被逼用贝尔踢首发 透露皇马以后改打433",
"titleTip" : "安切洛蒂否认被逼用贝尔踢首发 透露皇马以后改打433",
"titleSummary" : "安切洛蒂否认被逼用贝尔踢首发 透露皇马以后改打433",
"descSummary" : "",
"url" : "http:\/\/go.rss.sina.com.cn\/redirect.php?url=http:\/\/sports.sina.com.cn\/g\/laliga\/2013-10-29\/10296856507.shtml",
"pubDate" : "昨天10:29:03",
"enterDate" : "384201:03:09",
"channelId" : "3661343942741271900",
"channelName" : "国际足坛-西甲",
"channelNameSummary" : "国际足坛-西甲",
"channelUrl" : "http:\/\/sports.sina.com.cn\/global\/index.shtml",
"author" : "WWW.SINA.COM.CN",
"tags" : [],
"desc" : "",
"emailed" : False,
"forwarded" : False,
"english" : False
}  , {
"index" : 7,
"articleIndex" : "28969",
"favor" :  False ,
     "read" : False,    
"title" : "C罗怒骂裁判是懦夫逃过追加处罚 喷巴萨全是狗屎",
"titleTip" : "C罗怒骂裁判是懦夫逃过追加处罚 喷巴萨全是狗屎",
"titleSummary" : "C罗怒骂裁判是懦夫逃过追加处罚 喷巴萨全是狗屎",
"descSummary" : "",
"url" : "http:\/\/go.rss.sina.com.cn\/redirect.php?url=http:\/\/sports.sina.com.cn\/g\/laliga\/2013-10-29\/10256856497.shtml",
"pubDate" : "昨天10:25:34",
"enterDate" : "384200:59:40",
"channelId" : "3661343942741271900",
"channelName" : "国际足坛-西甲",
"channelNameSummary" : "国际足坛-西甲",
"channelUrl" : "http:\/\/sports.sina.com.cn\/global\/index.shtml",
"author" : "WWW.SINA.COM.CN",
"tags" : [],
"desc" : "",
"emailed" : False,
"forwarded" : False,
"english" : False
}  , {
"index" : 8,
"articleIndex" : "28968",
"favor" :  False ,
     "read" : False,    
"title" : "网上传疯巴萨胜皇马PS照 梅西抱亲C罗安慰他别哭(图)",
"titleTip" : "网上传疯巴萨胜皇马PS照 梅西抱亲C罗安慰他别哭(图)",
"titleSummary" : "网上传疯巴萨胜皇马PS照 梅西抱亲C罗安慰他别哭(图)",
"descSummary" : "",
"url" : "http:\/\/go.rss.sina.com.cn\/redirect.php?url=http:\/\/sports.sina.com.cn\/g\/laliga\/2013-10-29\/10136856465.shtml",
"pubDate" : "昨天10:13:57",
"enterDate" : "384200:48:03",
"channelId" : "3661343942741271900",
"channelName" : "国际足坛-西甲",
"channelNameSummary" : "国际足坛-西甲",
"channelUrl" : "http:\/\/sports.sina.com.cn\/global\/index.shtml",
"author" : "WWW.SINA.COM.CN",
"tags" : [],
"desc" : "",
"emailed" : False,
"forwarded" : False,
"english" : False
}  , {
"index" : 9,
"articleIndex" : "28967",
"favor" :  False ,
     "read" : False,    
"title" : "踢巴萨C罗和队长激烈争吵 拉莫斯:想不爆菊就得守",
"titleTip" : "踢巴萨C罗和队长激烈争吵 拉莫斯:想不爆菊就得守",
"titleSummary" : "踢巴萨C罗和队长激烈争吵 拉莫斯:想不爆菊就得守",
"descSummary" : "",
"url" : "http:\/\/go.rss.sina.com.cn\/redirect.php?url=http:\/\/sports.sina.com.cn\/g\/laliga\/2013-10-29\/09416856408.shtml",
"pubDate" : "昨天09:41:40",
"enterDate" : "384200:45:52",
"channelId" : "3661343942741271900",
"channelName" : "国际足坛-西甲",
"channelNameSummary" : "国际足坛-西甲",
"channelUrl" : "http:\/\/sports.sina.com.cn\/global\/index.shtml",
"author" : "WWW.SINA.COM.CN",
"tags" : [],
"desc" : "",
"emailed" : False,
"forwarded" : False,
"english" : False
}  , {
"index" : 10,
"articleIndex" : "28966",
"favor" :  False ,
     "read" : False,    
"title" : "巴萨主帅：裁判可能犯错了他没给皇马点球 不担心梅西",
"titleTip" : "巴萨主帅：裁判可能犯错了他没给皇马点球 不担心梅西",
"titleSummary" : "巴萨主帅：裁判可能犯错了他没给皇马点球 不担心梅西",
"descSummary" : "",
"url" : "http:\/\/go.rss.sina.com.cn\/redirect.php?url=http:\/\/sports.sina.com.cn\/g\/laliga\/2013-10-29\/09216856357.shtml",
"pubDate" : "昨天09:21:56",
"enterDate" : "384200:26:08",
"channelId" : "3661343942741271900",
"channelName" : "国际足坛-西甲",
"channelNameSummary" : "国际足坛-西甲",
"channelUrl" : "http:\/\/sports.sina.com.cn\/global\/index.shtml",
"author" : "WWW.SINA.COM.CN",
"tags" : [],
"desc" : "",
"emailed" : False,
"forwarded" : False,
"english" : False
}  , {
"index" : 11,
"articleIndex" : "28965",
"favor" :  False ,
     "read" : False,    
"title" : "巴萨最关键位置购星达协议 小卡恩被曝下赛季加盟",
"titleTip" : "巴萨最关键位置购星达协议 小卡恩被曝下赛季加盟",
"titleSummary" : "巴萨最关键位置购星达协议 小卡恩被曝下赛季加盟",
"descSummary" : "",
"url" : "http:\/\/go.rss.sina.com.cn\/redirect.php?url=http:\/\/sports.sina.com.cn\/g\/laliga\/2013-10-29\/08496856271.shtml",
"pubDate" : "昨天08:49:37",
"enterDate" : "384200:53:59",
"channelId" : "3661343942741271900",
"channelName" : "国际足坛-西甲",
"channelNameSummary" : "国际足坛-西甲",
"channelUrl" : "http:\/\/sports.sina.com.cn\/global\/index.shtml",
"author" : "WWW.SINA.COM.CN",
"tags" : [],
"desc" : "",
"emailed" : False,
"forwarded" : False,
"english" : False
}  , {
"index" : 12,
"articleIndex" : "28973",
"favor" :  False ,
     "read" : False,    
"title" : "皇马队长赛后一句话惹下大祸 讽刺裁判招来西足协打压",
"titleTip" : "皇马队长赛后一句话惹下大祸 讽刺裁判招来西足协打压",
"titleSummary" : "皇马队长赛后一句话惹下大祸 讽刺裁判招来西足协打压",
"descSummary" : "",
"url" : "http:\/\/go.rss.sina.com.cn\/redirect.php?url=http:\/\/sports.sina.com.cn\/g\/laliga\/2013-10-29\/07036856103.shtml",
"pubDate" : "昨天07:03:00",
"enterDate" : "384196:06:51",
"channelId" : "3661343942741271900",
"channelName" : "国际足坛-西甲",
"channelNameSummary" : "国际足坛-西甲",
"channelUrl" : "http:\/\/sports.sina.com.cn\/global\/index.shtml",
"author" : "WWW.SINA.COM.CN",
"tags" : [],
"desc" : "",
"emailed" : False,
"forwarded" : False,
"english" : False
}  , {
"index" : 13,
"articleIndex" : "28964",
"favor" :  False ,
     "read" : False,    
"title" : "巴萨周中联赛大名单:皮克缺阵 梅西内马尔领衔出战",
"titleTip" : "巴萨周中联赛大名单:皮克缺阵 梅西内马尔领衔出战",
"titleSummary" : "巴萨周中联赛大名单:皮克缺阵 梅西内马尔领衔出战",
"descSummary" : "",
"url" : "http:\/\/go.rss.sina.com.cn\/redirect.php?url=http:\/\/sports.sina.com.cn\/g\/laliga\/2013-10-29\/01106855788.shtml",
"pubDate" : "前天01:10:18",
"enterDate" : "384201:16:00",
"channelId" : "3661343942741271900",
"channelName" : "国际足坛-西甲",
"channelNameSummary" : "国际足坛-西甲",
"channelUrl" : "http:\/\/sports.sina.com.cn\/global\/index.shtml",
"author" : "WWW.SINA.COM.CN",
"tags" : [],
"desc" : "",
"emailed" : False,
"forwarded" : False,
"english" : False
}  , {
"index" : 14,
"articleIndex" : "28963",
"favor" :  False ,
     "read" : False,    
"title" : "新浪体育招聘西甲及世界杯编辑或实习编辑",
"titleTip" : "新浪体育招聘西甲及世界杯编辑或实习编辑",
"titleSummary" : "新浪体育招聘西甲及世界杯编辑或实习编辑",
"descSummary" : "",
"url" : "http:\/\/go.rss.sina.com.cn\/redirect.php?url=http:\/\/sports.sina.com.cn\/g\/laliga\/2013-10-28\/17246855463.shtml",
"pubDate" : "前天17:24:42",
"enterDate" : "384201:01:39",
"channelId" : "3661343942741271900",
"channelName" : "国际足坛-西甲",
"channelNameSummary" : "国际足坛-西甲",
"channelUrl" : "http:\/\/sports.sina.com.cn\/global\/index.shtml",
"author" : "WWW.SINA.COM.CN",
"tags" : [],
"desc" : "",
"emailed" : False,
"forwarded" : False,
"english" : False
}  , {
"index" : 15,
"articleIndex" : "28962",
"favor" :  False ,
     "read" : False,    
"title" : "皇马巴萨身价总和比去年还低 连连比拼球迷都看厌倦了",
"titleTip" : "皇马巴萨身价总和比去年还低 连连比拼球迷都看厌倦了",
"titleSummary" : "皇马巴萨身价总和比去年还低 连连比拼球迷都看厌倦了",
"descSummary" : "",
"url" : "http:\/\/go.rss.sina.com.cn\/redirect.php?url=http:\/\/sports.sina.com.cn\/g\/laliga\/2013-10-28\/15016855348.shtml",
"pubDate" : "前天15:01:09",
"enterDate" : "384201:08:31",
"channelId" : "3661343942741271900",
"channelName" : "国际足坛-西甲",
"channelNameSummary" : "国际足坛-西甲",
"channelUrl" : "http:\/\/sports.sina.com.cn\/global\/index.shtml",
"author" : "WWW.SINA.COM.CN",
"tags" : [],
"desc" : "",
"emailed" : False,
"forwarded" : False,
"english" : False
}  , {
"index" : 16,
"articleIndex" : "28961",
"favor" :  False ,
     "read" : False,    
"title" : "皇马战巴萨世界第一赛事宝座不保 光环衰变关注度降低",
"titleTip" : "皇马战巴萨世界第一赛事宝座不保 光环衰变关注度降低",
"titleSummary" : "皇马战巴萨世界第一赛事宝座不保 光环衰变关注度降低",
"descSummary" : "",
"url" : "http:\/\/go.rss.sina.com.cn\/redirect.php?url=http:\/\/sports.sina.com.cn\/g\/laliga\/2013-10-28\/14576855346.shtml",
"pubDate" : "前天14:57:07",
"enterDate" : "384201:04:29",
"channelId" : "3661343942741271900",
"channelName" : "国际足坛-西甲",
"channelNameSummary" : "国际足坛-西甲",
"channelUrl" : "http:\/\/sports.sina.com.cn\/global\/index.shtml",
"author" : "WWW.SINA.COM.CN",
"tags" : [],
"desc" : "",
"emailed" : False,
"forwarded" : False,
"english" : False
}  , {
"index" : 17,
"articleIndex" : "28960",
"favor" :  False ,
     "read" : False,    
"title" : "大罗做不到的事情内马尔做到了 获赞誉诺坎普的王子",
"titleTip" : "大罗做不到的事情内马尔做到了 获赞誉诺坎普的王子",
"titleSummary" : "大罗做不到的事情内马尔做到了 获赞誉诺坎普的王子",
"descSummary" : "",
"url" : "http:\/\/go.rss.sina.com.cn\/redirect.php?url=http:\/\/sports.sina.com.cn\/g\/laliga\/2013-10-28\/14486855318.shtml",
"pubDate" : "前天14:48:36",
"enterDate" : "384200:55:58",
"channelId" : "3661343942741271900",
"channelName" : "国际足坛-西甲",
"channelNameSummary" : "国际足坛-西甲",
"channelUrl" : "http:\/\/sports.sina.com.cn\/global\/index.shtml",
"author" : "WWW.SINA.COM.CN",
"tags" : [],
"desc" : "",
"emailed" : False,
"forwarded" : False,
"english" : False
}  , {
"index" : 18,
"articleIndex" : "28959",
"favor" :  False ,
     "read" : False,    
"title" : "贝尔首次PK内马尔被完爆 媒体群嘲：他根本就没在场上",
"titleTip" : "贝尔首次PK内马尔被完爆 媒体群嘲：他根本就没在场上",
"titleSummary" : "贝尔首次PK内马尔被完爆 媒体群嘲：他根本就没在场上",
"descSummary" : "",
"url" : "http:\/\/go.rss.sina.com.cn\/redirect.php?url=http:\/\/sports.sina.com.cn\/g\/laliga\/2013-10-28\/14406855290.shtml",
"pubDate" : "前天14:40:38",
"enterDate" : "384201:18:06",
"channelId" : "3661343942741271900",
"channelName" : "国际足坛-西甲",
"channelNameSummary" : "国际足坛-西甲",
"channelUrl" : "http:\/\/sports.sina.com.cn\/global\/index.shtml",
"author" : "WWW.SINA.COM.CN",
"tags" : [],
"desc" : "",
"emailed" : False,
"forwarded" : False,
"english" : False
}  , {
"index" : 19,
"articleIndex" : "28976",
"favor" :  False ,
     "read" : False,    
"title" : "视频播意甲西甲周中双赛 巴萨皇马米兰国米出战",
"titleTip" : "视频播意甲西甲周中双赛 巴萨皇马米兰国米出战",
"titleSummary" : "视频播意甲西甲周中双赛 巴萨皇马米兰国米出战",
"descSummary" : "",
"url" : "http:\/\/go.rss.sina.com.cn\/redirect.php?url=http:\/\/sports.sina.com.cn\/g\/laliga\/2013-10-27\/06086852540.shtml",
"pubDate" : "2013年10月27日 (3天前)",
"enterDate" : "384143:41:58",
"channelId" : "3661343942741271900",
"channelName" : "国际足坛-西甲",
"channelNameSummary" : "国际足坛-西甲",
"channelUrl" : "http:\/\/sports.sina.com.cn\/global\/index.shtml",
"author" : "WWW.SINA.COM.CN",
"tags" : [],
"desc" : "",
"emailed" : False,
"forwarded" : False,
"english" : False
} ]
}
