{
"mode" : {"viewTitle" : 1,   "viewNew" : 0,  "pageIndex" : 2 },
 "channel" : {"id" : "3661343942741271900", "booked" : False, "subNumber" : 1, "name" : "国际足坛-西甲", "url" : "http:\/\/sports.sina.com.cn\/global\/index.shtml", "feed" : "http:\/\/rss.sina.com.cn\/sports\/global\/spain.xml", "author" : "WWW.SINA.COM.CN", "desc" : "国际足坛-西甲", "imageUrl" : "http:\/\/www.sinaimg.cn\/ty\/deco\/2010\/0601\/logo_home_sports_nonike2.gif", "postPerWeek" : "0", "lastCrawTime" : "昨天03:48:46", "crawDateTime" : "昨天03:48:46", "lastHttpCode" : "200"}, "page" : {
"startIndex" : 20,
"totalCount" : 5000,
"pageIndex" : 2,
"lastPage" : 250,
"pageSize" : 20,
"english" :  False },
 "unreadNum" : 0, "shotIndex" : -1,
"articles" : [
{
"index" : 0,
"articleIndex" : "28958",
"favor" :  False ,
     "read" : False,    
"title" : "巴萨主帅居然让梅西沦为配角 天王不单只进球更会抢球",
"titleTip" : "巴萨主帅居然让梅西沦为配角 天王不单只进球更会抢球",
"titleSummary" : "巴萨主帅居然让梅西沦为配角 天王不单只进球更会抢球",
"descSummary" : "",
"url" : "http:\/\/go.rss.sina.com.cn\/redirect.php?url=http:\/\/sports.sina.com.cn\/g\/laliga\/2013-10-28\/14356855281.shtml",
"pubDate" : "前天14:35:00",
"enterDate" : "384201:12:28",
"channelId" : "3661343942741271900",
"channelName" : "国际足坛-西甲",
"channelNameSummary" : "国际足坛-西甲",
"channelUrl" : "http:\/\/sports.sina.com.cn\/global\/index.shtml",
"author" : "WWW.SINA.COM.CN",
"tags" : [],
"desc" : "",
"emailed" : False,
"forwarded" : False,
"english" : False
}  , {
"index" : 1,
"articleIndex" : "28957",
"favor" :  False ,
     "read" : False,    
"title" : "国家德比再无穆里尼奥印记 巴萨皇马赛后大打口水仗",
"titleTip" : "国家德比再无穆里尼奥印记 巴萨皇马赛后大打口水仗",
"titleSummary" : "国家德比再无穆里尼奥印记 巴萨皇马赛后大打口水仗",
"descSummary" : "",
"url" : "http:\/\/go.rss.sina.com.cn\/redirect.php?url=http:\/\/sports.sina.com.cn\/g\/laliga\/2013-10-28\/14306855274.shtml",
"pubDate" : "前天14:30:09",
"enterDate" : "384201:07:37",
"channelId" : "3661343942741271900",
"channelName" : "国际足坛-西甲",
"channelNameSummary" : "国际足坛-西甲",
"channelUrl" : "http:\/\/sports.sina.com.cn\/global\/index.shtml",
"author" : "WWW.SINA.COM.CN",
"tags" : [],
"desc" : "",
"emailed" : False,
"forwarded" : False,
"english" : False
}  , {
"index" : 2,
"articleIndex" : "28956",
"favor" :  False ,
     "read" : False,    
"title" : "皇马三场强强对话就输了两场 安切洛蒂排兵就像个笑话",
"titleTip" : "皇马三场强强对话就输了两场 安切洛蒂排兵就像个笑话",
"titleSummary" : "皇马三场强强对话就输了两场 安切洛蒂排兵就像个笑话",
"descSummary" : "",
"url" : "http:\/\/go.rss.sina.com.cn\/redirect.php?url=http:\/\/sports.sina.com.cn\/g\/laliga\/2013-10-28\/14246855267.shtml",
"pubDate" : "前天14:24:12",
"enterDate" : "384201:01:40",
"channelId" : "3661343942741271900",
"channelName" : "国际足坛-西甲",
"channelNameSummary" : "国际足坛-西甲",
"channelUrl" : "http:\/\/sports.sina.com.cn\/global\/index.shtml",
"author" : "WWW.SINA.COM.CN",
"tags" : [],
"desc" : "",
"emailed" : False,
"forwarded" : False,
"english" : False
}  , {
"index" : 3,
"articleIndex" : "28955",
"favor" :  False ,
     "read" : False,    
"title" : "巴萨主帅比安切洛蒂技高一筹 微调战术不改变巴萨传统",
"titleTip" : "巴萨主帅比安切洛蒂技高一筹 微调战术不改变巴萨传统",
"titleSummary" : "巴萨主帅比安切洛蒂技高一筹 微调战术不改变巴萨传统",
"descSummary" : "",
"url" : "http:\/\/go.rss.sina.com.cn\/redirect.php?url=http:\/\/sports.sina.com.cn\/g\/laliga\/2013-10-28\/14196855259.shtml",
"pubDate" : "前天14:19:34",
"enterDate" : "384200:57:02",
"channelId" : "3661343942741271900",
"channelName" : "国际足坛-西甲",
"channelNameSummary" : "国际足坛-西甲",
"channelUrl" : "http:\/\/sports.sina.com.cn\/global\/index.shtml",
"author" : "WWW.SINA.COM.CN",
"tags" : [],
"desc" : "",
"emailed" : False,
"forwarded" : False,
"english" : False
}  , {
"index" : 4,
"articleIndex" : "28954",
"favor" :  False ,
     "read" : False,    
"title" : "巴萨踢皇马陷入点球疑云 西媒列主裁犯4大错误漏3点球",
"titleTip" : "巴萨踢皇马陷入点球疑云 西媒列主裁犯4大错误漏3点球",
"titleSummary" : "巴萨踢皇马陷入点球疑云 西媒列主裁犯4大错误漏3点球",
"descSummary" : "",
"url" : "http:\/\/go.rss.sina.com.cn\/redirect.php?url=http:\/\/sports.sina.com.cn\/g\/laliga\/2013-10-28\/14126855239.shtml",
"pubDate" : "前天14:12:20",
"enterDate" : "384200:49:48",
"channelId" : "3661343942741271900",
"channelName" : "国际足坛-西甲",
"channelNameSummary" : "国际足坛-西甲",
"channelUrl" : "http:\/\/sports.sina.com.cn\/global\/index.shtml",
"author" : "WWW.SINA.COM.CN",
"tags" : [],
"desc" : "",
"emailed" : False,
"forwarded" : False,
"english" : False
}  , {
"index" : 5,
"articleIndex" : "28953",
"favor" :  False ,
     "read" : False,    
"title" : "巴萨皇马球星签名大PK：梅西失意脾气不小 C罗易失控",
"titleTip" : "巴萨皇马球星签名大PK：梅西失意脾气不小 C罗易失控",
"titleSummary" : "巴萨皇马球星签名大PK：梅西失意脾气不小 C罗易失控",
"descSummary" : "",
"url" : "http:\/\/go.rss.sina.com.cn\/redirect.php?url=http:\/\/sports.sina.com.cn\/g\/laliga\/2013-10-28\/12146855128.shtml",
"pubDate" : "前天12:14:53",
"enterDate" : "384200:52:41",
"channelId" : "3661343942741271900",
"channelName" : "国际足坛-西甲",
"channelNameSummary" : "国际足坛-西甲",
"channelUrl" : "http:\/\/sports.sina.com.cn\/global\/index.shtml",
"author" : "WWW.SINA.COM.CN",
"tags" : [],
"desc" : "",
"emailed" : False,
"forwarded" : False,
"english" : False
}  , {
"index" : 6,
"articleIndex" : "28948",
"favor" :  False ,
     "read" : False,    
"title" : "西媒体狂批贝尔：派他上是毁了皇马 没他银河舰更厉害",
"titleTip" : "西媒体狂批贝尔：派他上是毁了皇马 没他银河舰更厉害",
"titleSummary" : "西媒体狂批贝尔：派他上是毁了皇马 没他银河舰更厉害",
"descSummary" : "",
"url" : "http:\/\/go.rss.sina.com.cn\/redirect.php?url=http:\/\/sports.sina.com.cn\/g\/laliga\/2013-10-28\/11306855059.shtml",
"pubDate" : "前天11:30:19",
"enterDate" : "384200:08:07",
"channelId" : "3661343942741271900",
"channelName" : "国际足坛-西甲",
"channelNameSummary" : "国际足坛-西甲",
"channelUrl" : "http:\/\/sports.sina.com.cn\/global\/index.shtml",
"author" : "WWW.SINA.COM.CN",
"tags" : [],
"desc" : "",
"emailed" : False,
"forwarded" : False,
"english" : False
}  , {
"index" : 7,
"articleIndex" : "28947",
"favor" :  False ,
     "read" : False,    
"title" : "梅西踢皇马罕见低迷竟藏隐因 他心里有自己的小九九",
"titleTip" : "梅西踢皇马罕见低迷竟藏隐因 他心里有自己的小九九",
"titleSummary" : "梅西踢皇马罕见低迷竟藏隐因 他心里有自己的小九九",
"descSummary" : "",
"url" : "http:\/\/go.rss.sina.com.cn\/redirect.php?url=http:\/\/sports.sina.com.cn\/g\/laliga\/2013-10-28\/11176855020.shtml",
"pubDate" : "前天11:17:09",
"enterDate" : "384200:55:06",
"channelId" : "3661343942741271900",
"channelName" : "国际足坛-西甲",
"channelNameSummary" : "国际足坛-西甲",
"channelUrl" : "http:\/\/sports.sina.com.cn\/global\/index.shtml",
"author" : "WWW.SINA.COM.CN",
"tags" : [],
"desc" : "",
"emailed" : False,
"forwarded" : False,
"english" : False
}  , {
"index" : 8,
"articleIndex" : "28952",
"favor" :  False ,
     "read" : False,    
"title" : "东方早报：巴萨没了朱广沪精神 皇马变得不像一支球队",
"titleTip" : "东方早报：巴萨没了朱广沪精神 皇马变得不像一支球队",
"titleSummary" : "东方早报：巴萨没了朱广沪精神 皇马变得不像一支球队",
"descSummary" : "",
"url" : "http:\/\/go.rss.sina.com.cn\/redirect.php?url=http:\/\/sports.sina.com.cn\/g\/laliga\/2013-10-28\/10406854913.shtml",
"pubDate" : "前天10:40:04",
"enterDate" : "384199:17:52",
"channelId" : "3661343942741271900",
"channelName" : "国际足坛-西甲",
"channelNameSummary" : "国际足坛-西甲",
"channelUrl" : "http:\/\/sports.sina.com.cn\/global\/index.shtml",
"author" : "WWW.SINA.COM.CN",
"tags" : [],
"desc" : "",
"emailed" : False,
"forwarded" : False,
"english" : False
}  , {
"index" : 9,
"articleIndex" : "28946",
"favor" :  False ,
     "read" : False,    
"title" : "贝尔皇马水土不服 曼联要拯救大圣！曝开价1亿买贝尔",
"titleTip" : "贝尔皇马水土不服 曼联要拯救大圣！曝开价1亿买贝尔",
"titleSummary" : "贝尔皇马水土不服 曼联要拯救大圣！曝开价1亿买贝尔",
"descSummary" : "",
"url" : "http:\/\/go.rss.sina.com.cn\/redirect.php?url=http:\/\/sports.sina.com.cn\/g\/laliga\/2013-10-28\/10166854858.shtml",
"pubDate" : "前天10:16:59",
"enterDate" : "384200:55:06",
"channelId" : "3661343942741271900",
"channelName" : "国际足坛-西甲",
"channelNameSummary" : "国际足坛-西甲",
"channelUrl" : "http:\/\/sports.sina.com.cn\/global\/index.shtml",
"author" : "WWW.SINA.COM.CN",
"tags" : [],
"desc" : "",
"emailed" : False,
"forwarded" : False,
"english" : False
}  , {
"index" : 10,
"articleIndex" : "28945",
"favor" :  False ,
     "read" : False,    
"title" : "皇马巴萨裁判骂战升级 布斯克茨：C罗就知道哭输不起",
"titleTip" : "皇马巴萨裁判骂战升级 布斯克茨：C罗就知道哭输不起",
"titleSummary" : "皇马巴萨裁判骂战升级 布斯克茨：C罗就知道哭输不起",
"descSummary" : "",
"url" : "http:\/\/go.rss.sina.com.cn\/redirect.php?url=http:\/\/sports.sina.com.cn\/g\/laliga\/2013-10-28\/10106854841.shtml",
"pubDate" : "前天10:10:09",
"enterDate" : "384201:18:22",
"channelId" : "3661343942741271900",
"channelName" : "国际足坛-西甲",
"channelNameSummary" : "国际足坛-西甲",
"channelUrl" : "http:\/\/sports.sina.com.cn\/global\/index.shtml",
"author" : "WWW.SINA.COM.CN",
"tags" : [],
"desc" : "",
"emailed" : False,
"forwarded" : False,
"english" : False
}  , {
"index" : 11,
"articleIndex" : "28944",
"favor" :  False ,
     "read" : False,    
"title" : "伊涅斯塔对皇马独闯龙潭 1v5大空翼神图又现江湖 (图)",
"titleTip" : "伊涅斯塔对皇马独闯龙潭 1v5大空翼神图又现江湖 (图)",
"titleSummary" : "伊涅斯塔对皇马独闯龙潭 1v5大空翼神图又现江湖 (图)",
"descSummary" : "",
"url" : "http:\/\/go.rss.sina.com.cn\/redirect.php?url=http:\/\/sports.sina.com.cn\/g\/laliga\/2013-10-28\/08506854416.shtml",
"pubDate" : "前天08:50:35",
"enterDate" : "384200:58:57",
"channelId" : "3661343942741271900",
"channelName" : "国际足坛-西甲",
"channelNameSummary" : "国际足坛-西甲",
"channelUrl" : "http:\/\/sports.sina.com.cn\/global\/index.shtml",
"author" : "WWW.SINA.COM.CN",
"tags" : [],
"desc" : "",
"emailed" : False,
"forwarded" : False,
"english" : False
}  , {
"index" : 12,
"articleIndex" : "28943",
"favor" :  False ,
     "read" : False,    
"title" : "西媒体视频曝光C罗抗议裁判 梅西在旁边一直偷笑",
"titleTip" : "西媒体视频曝光C罗抗议裁判 梅西在旁边一直偷笑",
"titleSummary" : "西媒体视频曝光C罗抗议裁判 梅西在旁边一直偷笑",
"descSummary" : "",
"url" : "http:\/\/go.rss.sina.com.cn\/redirect.php?url=http:\/\/sports.sina.com.cn\/g\/laliga\/2013-10-28\/08206854374.shtml",
"pubDate" : "前天08:20:19",
"enterDate" : "384200:58:47",
"channelId" : "3661343942741271900",
"channelName" : "国际足坛-西甲",
"channelNameSummary" : "国际足坛-西甲",
"channelUrl" : "http:\/\/sports.sina.com.cn\/global\/index.shtml",
"author" : "WWW.SINA.COM.CN",
"tags" : [],
"desc" : "",
"emailed" : False,
"forwarded" : False,
"english" : False
}  , {
"index" : 13,
"articleIndex" : "28951",
"favor" :  False ,
     "read" : False,    
"title" : "西甲神锋铁心背叛巴西选西班牙 斯科拉里使出最后大招",
"titleTip" : "西甲神锋铁心背叛巴西选西班牙 斯科拉里使出最后大招",
"titleSummary" : "西甲神锋铁心背叛巴西选西班牙 斯科拉里使出最后大招",
"descSummary" : "",
"url" : "http:\/\/go.rss.sina.com.cn\/redirect.php?url=http:\/\/sports.sina.com.cn\/g\/laliga\/2013-10-28\/08106854316.shtml",
"pubDate" : "前天08:10:03",
"enterDate" : "384196:47:51",
"channelId" : "3661343942741271900",
"channelName" : "国际足坛-西甲",
"channelNameSummary" : "国际足坛-西甲",
"channelUrl" : "http:\/\/sports.sina.com.cn\/global\/index.shtml",
"author" : "WWW.SINA.COM.CN",
"tags" : [],
"desc" : "",
"emailed" : False,
"forwarded" : False,
"english" : False
}  , {
"index" : 14,
"articleIndex" : "28942",
"favor" :  False ,
     "read" : False,    
"title" : "西甲-比利亚2球马竞5-0大胜 瓦伦西亚1-4客负黄潜",
"titleTip" : "西甲-比利亚2球马竞5-0大胜 瓦伦西亚1-4客负黄潜",
"titleSummary" : "西甲-比利亚2球马竞5-0大胜 瓦伦西亚1-4客负黄潜",
"descSummary" : "",
"url" : "http:\/\/go.rss.sina.com.cn\/redirect.php?url=http:\/\/sports.sina.com.cn\/g\/laliga\/2013-10-28\/05566854275.shtml",
"pubDate" : "前天05:56:30",
"enterDate" : "384200:05:13",
"channelId" : "3661343942741271900",
"channelName" : "国际足坛-西甲",
"channelNameSummary" : "国际足坛-西甲",
"channelUrl" : "http:\/\/sports.sina.com.cn\/global\/index.shtml",
"author" : "WWW.SINA.COM.CN",
"tags" : [],
"desc" : "",
"emailed" : False,
"forwarded" : False,
"english" : False
}  , {
"index" : 15,
"articleIndex" : "28950",
"favor" :  False ,
     "read" : False,    
"title" : "巴萨主场办婚礼啦!日本情侣15年死忠巴萨在诺坎普结婚",
"titleTip" : "巴萨主场办婚礼啦!日本情侣15年死忠巴萨在诺坎普结婚",
"titleSummary" : "巴萨主场办婚礼啦!日本情侣15年死忠巴萨在诺坎普结婚",
"descSummary" : "",
"url" : "http:\/\/go.rss.sina.com.cn\/redirect.php?url=http:\/\/sports.sina.com.cn\/g\/laliga\/2013-10-28\/04066854164.shtml",
"pubDate" : "2013年10月28日 (3天前)",
"enterDate" : "384192:44:14",
"channelId" : "3661343942741271900",
"channelName" : "国际足坛-西甲",
"channelNameSummary" : "国际足坛-西甲",
"channelUrl" : "http:\/\/sports.sina.com.cn\/global\/index.shtml",
"author" : "WWW.SINA.COM.CN",
"tags" : [],
"desc" : "",
"emailed" : False,
"forwarded" : False,
"english" : False
}  , {
"index" : 16,
"articleIndex" : "28949",
"favor" :  False ,
     "read" : False,    
"title" : "皇马20岁小将可媲美内马尔 加泰媒体挖苦贝尔远不如他",
"titleTip" : "皇马20岁小将可媲美内马尔 加泰媒体挖苦贝尔远不如他",
"titleSummary" : "皇马20岁小将可媲美内马尔 加泰媒体挖苦贝尔远不如他",
"descSummary" : "",
"url" : "http:\/\/go.rss.sina.com.cn\/redirect.php?url=http:\/\/sports.sina.com.cn\/g\/laliga\/2013-10-28\/03206854072.shtml",
"pubDate" : "2013年10月28日 (3天前)",
"enterDate" : "384191:57:55",
"channelId" : "3661343942741271900",
"channelName" : "国际足坛-西甲",
"channelNameSummary" : "国际足坛-西甲",
"channelUrl" : "http:\/\/sports.sina.com.cn\/global\/index.shtml",
"author" : "WWW.SINA.COM.CN",
"tags" : [],
"desc" : "",
"emailed" : False,
"forwarded" : False,
"english" : False
}  , {
"index" : 17,
"articleIndex" : "28941",
"favor" :  False ,
     "read" : False,    
"title" : "皇马孤胆英雄！C罗一人拼得快哭了 好帮手你在哪(图)",
"titleTip" : "皇马孤胆英雄！C罗一人拼得快哭了 好帮手你在哪(图)",
"titleSummary" : "皇马孤胆英雄！C罗一人拼得快哭了 好帮手你在哪(图)",
"descSummary" : "",
"url" : "http:\/\/go.rss.sina.com.cn\/redirect.php?url=http:\/\/sports.sina.com.cn\/g\/laliga\/2013-10-27\/12326853061.shtml",
"pubDate" : "2013年10月27日 (3天前)",
"enterDate" : "384201:14:15",
"channelId" : "3661343942741271900",
"channelName" : "国际足坛-西甲",
"channelNameSummary" : "国际足坛-西甲",
"channelUrl" : "http:\/\/sports.sina.com.cn\/global\/index.shtml",
"author" : "WWW.SINA.COM.CN",
"tags" : [],
"desc" : "",
"emailed" : False,
"forwarded" : False,
"english" : False
}  , {
"index" : 18,
"articleIndex" : "28940",
"favor" :  False ,
     "read" : False,    
"title" : "弗格森一句话让巴萨重获最佳 阻C罗之传奇诺坎普绝唱",
"titleTip" : "弗格森一句话让巴萨重获最佳 阻C罗之传奇诺坎普绝唱",
"titleSummary" : "弗格森一句话让巴萨重获最佳 阻C罗之传奇诺坎普绝唱",
"descSummary" : "",
"url" : "http:\/\/go.rss.sina.com.cn\/redirect.php?url=http:\/\/sports.sina.com.cn\/g\/laliga\/2013-10-27\/11056852955.shtml",
"pubDate" : "2013年10月27日 (3天前)",
"enterDate" : "384201:17:50",
"channelId" : "3661343942741271900",
"channelName" : "国际足坛-西甲",
"channelNameSummary" : "国际足坛-西甲",
"channelUrl" : "http:\/\/sports.sina.com.cn\/global\/index.shtml",
"author" : "WWW.SINA.COM.CN",
"tags" : [],
"desc" : "",
"emailed" : False,
"forwarded" : False,
"english" : False
}  , {
"index" : 19,
"articleIndex" : "28939",
"favor" :  False ,
     "read" : False,    
"title" : "费迪南德当大V过瘾狂刷巴萨皇马：C罗点球 一世界最佳",
"titleTip" : "费迪南德当大V过瘾狂刷巴萨皇马：C罗点球 一世界最佳",
"titleSummary" : "费迪南德当大V过瘾狂刷巴萨皇马：C罗点球 一世界最佳",
"descSummary" : "",
"url" : "http:\/\/go.rss.sina.com.cn\/redirect.php?url=http:\/\/sports.sina.com.cn\/g\/laliga\/2013-10-27\/09086852696.shtml",
"pubDate" : "2013年10月27日 (3天前)",
"enterDate" : "384200:50:35",
"channelId" : "3661343942741271900",
"channelName" : "国际足坛-西甲",
"channelNameSummary" : "国际足坛-西甲",
"channelUrl" : "http:\/\/sports.sina.com.cn\/global\/index.shtml",
"author" : "WWW.SINA.COM.CN",
"tags" : [],
"desc" : "",
"emailed" : False,
"forwarded" : False,
"english" : False
} ]
}
