{
"mode" : {"viewTitle" : 1,   "viewNew" : 0,  "pageIndex" : 1 },
 "channel" : {"id" : "6215948913176052442", "booked" : False, "subNumber" : 4559, "name" : "国际足坛-新浪体育", "url" : "http:\/\/sports.sina.com.cn\/global\/index.shtml", "feed" : "http:\/\/rss.sina.com.cn\/sports\/global\/focus.xml", "author" : "WWW.SINA.COM.CN", "desc" : "国际足坛-焦点新闻", "imageUrl" : "http:\/\/www.sinaimg.cn\/ty\/deco\/2010\/0601\/logo_home_sports_nonike2.gif", "postPerWeek" : "238", "lastCrawTime" : "16:57:10", "crawDateTime" : "16:57:10", "lastHttpCode" : "200"}, "page" : {
"startIndex" : 0,
"totalCount" : 5000,
"pageIndex" : 1,
"lastPage" : 250,
"pageSize" : 20,
"english" :  False },
 "unreadNum" : 0, "shotIndex" : -1,
"articles" : [
{
"index" : 0,
"articleIndex" : "88825",
"favor" :  False ,
     "read" : False,    
"title" : "AC米兰遭土豪6500万挖两天王 阿森纳切尔西联手抢人",
"titleTip" : "AC米兰遭土豪6500万挖两天王 阿森纳切尔西联手抢人",
"titleSummary" : "AC米兰遭土豪6500万挖两天王 阿森纳切尔西联手抢人",
"descSummary" : "",
"url" : "http:\/\/go.rss.sina.com.cn\/redirect.php?url=http:\/\/sports.sina.com.cn\/g\/seriea\/2013-10-30\/11366858294.shtml",
"pubDate" : "11:36:30",
"enterDate" : "384201:00:12",
"channelId" : "6215948913176052442",
"channelName" : "国际足坛-新浪体育",
"channelNameSummary" : "国际足坛-新浪体育",
"channelUrl" : "http:\/\/sports.sina.com.cn\/global\/index.shtml",
"author" : "WWW.SINA.COM.CN",
"tags" : [],
"desc" : "",
"emailed" : False,
"forwarded" : False,
"english" : False
}  , {
"index" : 1,
"articleIndex" : "88824",
"favor" :  False ,
     "read" : False,    
"title" : "巴萨亮出最恐怖獠牙！比拜仁更可怕 梅西服服帖帖",
"titleTip" : "巴萨亮出最恐怖獠牙！比拜仁更可怕 梅西服服帖帖",
"titleSummary" : "巴萨亮出最恐怖獠牙！比拜仁更可怕 梅西服服帖帖",
"descSummary" : "",
"url" : "http:\/\/go.rss.sina.com.cn\/redirect.php?url=http:\/\/sports.sina.com.cn\/g\/laliga\/2013-10-30\/11356858291.shtml",
"pubDate" : "11:35:23",
"enterDate" : "384200:59:05",
"channelId" : "6215948913176052442",
"channelName" : "国际足坛-新浪体育",
"channelNameSummary" : "国际足坛-新浪体育",
"channelUrl" : "http:\/\/sports.sina.com.cn\/global\/index.shtml",
"author" : "WWW.SINA.COM.CN",
"tags" : [],
"desc" : "",
"emailed" : False,
"forwarded" : False,
"english" : False
}  , {
"index" : 2,
"articleIndex" : "88822",
"favor" :  False ,
     "read" : False,    
"title" : "国米购巨头钦点悍将获表态 要来豪门：看看切尔西那谁",
"titleTip" : "国米购巨头钦点悍将获表态 要来豪门：看看切尔西那谁",
"titleSummary" : "国米购巨头钦点悍将获表态 要来豪门：看看切尔西那谁",
"descSummary" : "",
"url" : "http:\/\/go.rss.sina.com.cn\/redirect.php?url=http:\/\/sports.sina.com.cn\/g\/seriea\/2013-10-30\/11156858244.shtml",
"pubDate" : "11:15:16",
"enterDate" : "384201:09:03",
"channelId" : "6215948913176052442",
"channelName" : "国际足坛-新浪体育",
"channelNameSummary" : "国际足坛-新浪体育",
"channelUrl" : "http:\/\/sports.sina.com.cn\/global\/index.shtml",
"author" : "WWW.SINA.COM.CN",
"tags" : [],
"desc" : "",
"emailed" : False,
"forwarded" : False,
"english" : False
}  , {
"index" : 3,
"articleIndex" : "88821",
"favor" :  False ,
     "read" : False,    
"title" : "阿森纳1600万PK热刺撬帕托 曝购意甲天才飞翼获亲证",
"titleTip" : "阿森纳1600万PK热刺撬帕托 曝购意甲天才飞翼获亲证",
"titleSummary" : "阿森纳1600万PK热刺撬帕托 曝购意甲天才飞翼获亲证",
"descSummary" : "",
"url" : "http:\/\/go.rss.sina.com.cn\/redirect.php?url=http:\/\/sports.sina.com.cn\/g\/pl\/2013-10-30\/10526858184.shtml",
"pubDate" : "10:52:29",
"enterDate" : "384201:16:21",
"channelId" : "6215948913176052442",
"channelName" : "国际足坛-新浪体育",
"channelNameSummary" : "国际足坛-新浪体育",
"channelUrl" : "http:\/\/sports.sina.com.cn\/global\/index.shtml",
"author" : "WWW.SINA.COM.CN",
"tags" : [],
"desc" : "",
"emailed" : False,
"forwarded" : False,
"english" : False
}  , {
"index" : 4,
"articleIndex" : "88820",
"favor" :  False ,
     "read" : False,    
"title" : "梅西为金球奖拼了！三次单干强突射门 队友敢怒不敢言",
"titleTip" : "梅西为金球奖拼了！三次单干强突射门 队友敢怒不敢言",
"titleSummary" : "梅西为金球奖拼了！三次单干强突射门 队友敢怒不敢言",
"descSummary" : "",
"url" : "http:\/\/go.rss.sina.com.cn\/redirect.php?url=http:\/\/sports.sina.com.cn\/g\/laliga\/2013-10-30\/10396858159.shtml",
"pubDate" : "10:39:25",
"enterDate" : "384201:03:17",
"channelId" : "6215948913176052442",
"channelName" : "国际足坛-新浪体育",
"channelNameSummary" : "国际足坛-新浪体育",
"channelUrl" : "http:\/\/sports.sina.com.cn\/global\/index.shtml",
"author" : "WWW.SINA.COM.CN",
"tags" : [],
"desc" : "",
"emailed" : False,
"forwarded" : False,
"english" : False
}  , {
"index" : 5,
"articleIndex" : "88819",
"favor" :  False ,
     "read" : False,    
"title" : "这就叫天赋！巴神训练场神视频曝光 玩得真嗨(视频)",
"titleTip" : "这就叫天赋！巴神训练场神视频曝光 玩得真嗨(视频)",
"titleSummary" : "这就叫天赋！巴神训练场神视频曝光 玩得真嗨(视频)",
"descSummary" : "",
"url" : "http:\/\/go.rss.sina.com.cn\/redirect.php?url=http:\/\/sports.sina.com.cn\/g\/seriea\/2013-10-30\/10316858136.shtml",
"pubDate" : "10:31:19",
"enterDate" : "384200:55:11",
"channelId" : "6215948913176052442",
"channelName" : "国际足坛-新浪体育",
"channelNameSummary" : "国际足坛-新浪体育",
"channelUrl" : "http:\/\/sports.sina.com.cn\/global\/index.shtml",
"author" : "WWW.SINA.COM.CN",
"tags" : [],
"desc" : "",
"emailed" : False,
"forwarded" : False,
"english" : False
}  , {
"index" : 6,
"articleIndex" : "88818",
"favor" :  False ,
     "read" : False,    
"title" : "皇马主席怒斥布拉特偏心眼 伯纳乌球迷战神待遇挺C罗",
"titleTip" : "皇马主席怒斥布拉特偏心眼 伯纳乌球迷战神待遇挺C罗",
"titleSummary" : "皇马主席怒斥布拉特偏心眼 伯纳乌球迷战神待遇挺C罗",
"descSummary" : "",
"url" : "http:\/\/go.rss.sina.com.cn\/redirect.php?url=http:\/\/sports.sina.com.cn\/g\/laliga\/2013-10-30\/10256858127.shtml",
"pubDate" : "10:25:16",
"enterDate" : "384200:49:08",
"channelId" : "6215948913176052442",
"channelName" : "国际足坛-新浪体育",
"channelNameSummary" : "国际足坛-新浪体育",
"channelUrl" : "http:\/\/sports.sina.com.cn\/global\/index.shtml",
"author" : "WWW.SINA.COM.CN",
"tags" : [],
"desc" : "",
"emailed" : False,
"forwarded" : False,
"english" : False
}  , {
"index" : 7,
"articleIndex" : "88817",
"favor" :  False ,
     "read" : False,    
"title" : "巴萨缺谁也不能缺他 世界中场NO.1！阿森纳死都不卖他",
"titleTip" : "巴萨缺谁也不能缺他 世界中场NO.1！阿森纳死都不卖他",
"titleSummary" : "巴萨缺谁也不能缺他 世界中场NO.1！阿森纳死都不卖他",
"descSummary" : "",
"url" : "http:\/\/go.rss.sina.com.cn\/redirect.php?url=http:\/\/sports.sina.com.cn\/g\/laliga\/2013-10-30\/10196858118.shtml",
"pubDate" : "10:19:05",
"enterDate" : "384199:42:47",
"channelId" : "6215948913176052442",
"channelName" : "国际足坛-新浪体育",
"channelNameSummary" : "国际足坛-新浪体育",
"channelUrl" : "http:\/\/sports.sina.com.cn\/global\/index.shtml",
"author" : "WWW.SINA.COM.CN",
"tags" : [],
"desc" : "",
"emailed" : False,
"forwarded" : False,
"english" : False
}  , {
"index" : 8,
"articleIndex" : "88816",
"favor" :  False ,
     "read" : False,    
"title" : "曝穆帅冬季恐签巴洛特利 秘密协议抢挖皇马最爱支柱",
"titleTip" : "曝穆帅冬季恐签巴洛特利 秘密协议抢挖皇马最爱支柱",
"titleSummary" : "曝穆帅冬季恐签巴洛特利 秘密协议抢挖皇马最爱支柱",
"descSummary" : "",
"url" : "http:\/\/go.rss.sina.com.cn\/redirect.php?url=http:\/\/sports.sina.com.cn\/g\/pl\/2013-10-30\/10176858115.shtml",
"pubDate" : "10:17:42",
"enterDate" : "384201:11:39",
"channelId" : "6215948913176052442",
"channelName" : "国际足坛-新浪体育",
"channelNameSummary" : "国际足坛-新浪体育",
"channelUrl" : "http:\/\/sports.sina.com.cn\/global\/index.shtml",
"author" : "WWW.SINA.COM.CN",
"tags" : [],
"desc" : "",
"emailed" : False,
"forwarded" : False,
"english" : False
}  , {
"index" : 9,
"articleIndex" : "88815",
"favor" :  False ,
     "read" : False,    
"title" : "AC米兰巨头暴怒阿帅又站悬崖边 三玩命仗一场也输不起",
"titleTip" : "AC米兰巨头暴怒阿帅又站悬崖边 三玩命仗一场也输不起",
"titleSummary" : "AC米兰巨头暴怒阿帅又站悬崖边 三玩命仗一场也输不起",
"descSummary" : "",
"url" : "http:\/\/go.rss.sina.com.cn\/redirect.php?url=http:\/\/sports.sina.com.cn\/g\/seriea\/2013-10-30\/09466858000.shtml",
"pubDate" : "09:46:15",
"enterDate" : "384201:10:17",
"channelId" : "6215948913176052442",
"channelName" : "国际足坛-新浪体育",
"channelNameSummary" : "国际足坛-新浪体育",
"channelUrl" : "http:\/\/sports.sina.com.cn\/global\/index.shtml",
"author" : "WWW.SINA.COM.CN",
"tags" : [],
"desc" : "",
"emailed" : False,
"forwarded" : False,
"english" : False
}  , {
"index" : 10,
"articleIndex" : "88814",
"favor" :  False ,
     "read" : False,    
"title" : "弗格森评生涯最强11人:天王中场 1意外之人为最爱",
"titleTip" : "弗格森评生涯最强11人:天王中场 1意外之人为最爱",
"titleSummary" : "弗格森评生涯最强11人:天王中场 1意外之人为最爱",
"descSummary" : "",
"url" : "http:\/\/go.rss.sina.com.cn\/redirect.php?url=http:\/\/sports.sina.com.cn\/g\/pl\/2013-10-30\/09446857997.shtml",
"pubDate" : "09:44:18",
"enterDate" : "384201:08:20",
"channelId" : "6215948913176052442",
"channelName" : "国际足坛-新浪体育",
"channelNameSummary" : "国际足坛-新浪体育",
"channelUrl" : "http:\/\/sports.sina.com.cn\/global\/index.shtml",
"author" : "WWW.SINA.COM.CN",
"tags" : [],
"desc" : "",
"emailed" : False,
"forwarded" : False,
"english" : False
}  , {
"index" : 11,
"articleIndex" : "88813",
"favor" :  False ,
     "read" : False,    
"title" : "温格一生克星！9斗穆帅回回灰头土脸 名宿:阿森纳没戏",
"titleTip" : "温格一生克星！9斗穆帅回回灰头土脸 名宿:阿森纳没戏",
"titleSummary" : "温格一生克星！9斗穆帅回回灰头土脸 名宿:阿森纳没戏",
"descSummary" : "",
"url" : "http:\/\/go.rss.sina.com.cn\/redirect.php?url=http:\/\/sports.sina.com.cn\/g\/pl\/2013-10-30\/09446857996.shtml",
"pubDate" : "09:44:12",
"enterDate" : "384201:08:14",
"channelId" : "6215948913176052442",
"channelName" : "国际足坛-新浪体育",
"channelNameSummary" : "国际足坛-新浪体育",
"channelUrl" : "http:\/\/sports.sina.com.cn\/global\/index.shtml",
"author" : "WWW.SINA.COM.CN",
"tags" : [],
"desc" : "",
"emailed" : False,
"forwarded" : False,
"english" : False
}  , {
"index" : 12,
"articleIndex" : "88812",
"favor" :  False ,
     "read" : False,    
"title" : "国米头号霸王11场狂造12球 新老板来第1件事和他续约",
"titleTip" : "国米头号霸王11场狂造12球 新老板来第1件事和他续约",
"titleSummary" : "国米头号霸王11场狂造12球 新老板来第1件事和他续约",
"descSummary" : "",
"url" : "http:\/\/go.rss.sina.com.cn\/redirect.php?url=http:\/\/sports.sina.com.cn\/g\/seriea\/2013-10-30\/09346857968.shtml",
"pubDate" : "09:34:36",
"enterDate" : "384200:58:38",
"channelId" : "6215948913176052442",
"channelName" : "国际足坛-新浪体育",
"channelNameSummary" : "国际足坛-新浪体育",
"channelUrl" : "http:\/\/sports.sina.com.cn\/global\/index.shtml",
"author" : "WWW.SINA.COM.CN",
"tags" : [],
"desc" : "",
"emailed" : False,
"forwarded" : False,
"english" : False
}  , {
"index" : 13,
"articleIndex" : "88811",
"favor" :  False ,
     "read" : False,    
"title" : "曼联第一杀神!68分钟1球太嗜血 6大神锋全都跪了",
"titleTip" : "曼联第一杀神!68分钟1球太嗜血 6大神锋全都跪了",
"titleSummary" : "曼联第一杀神!68分钟1球太嗜血 6大神锋全都跪了",
"descSummary" : "",
"url" : "http:\/\/go.rss.sina.com.cn\/redirect.php?url=http:\/\/sports.sina.com.cn\/g\/pl\/2013-10-30\/09336857964.shtml",
"pubDate" : "09:33:47",
"enterDate" : "384200:57:49",
"channelId" : "6215948913176052442",
"channelName" : "国际足坛-新浪体育",
"channelNameSummary" : "国际足坛-新浪体育",
"channelUrl" : "http:\/\/sports.sina.com.cn\/global\/index.shtml",
"author" : "WWW.SINA.COM.CN",
"tags" : [],
"desc" : "",
"emailed" : False,
"forwarded" : False,
"english" : False
}  , {
"index" : 14,
"articleIndex" : "88810",
"favor" :  False ,
     "read" : False,    
"title" : "FIFA金球奖赔率：里贝里大热梅西次席 C罗够呛了",
"titleTip" : "FIFA金球奖赔率：里贝里大热梅西次席 C罗够呛了",
"titleSummary" : "FIFA金球奖赔率：里贝里大热梅西次席 C罗够呛了",
"descSummary" : "",
"url" : "http:\/\/go.rss.sina.com.cn\/redirect.php?url=http:\/\/sports.sina.com.cn\/g\/laliga\/2013-10-30\/09276857936.shtml",
"pubDate" : "09:27:32",
"enterDate" : "384200:51:34",
"channelId" : "6215948913176052442",
"channelName" : "国际足坛-新浪体育",
"channelNameSummary" : "国际足坛-新浪体育",
"channelUrl" : "http:\/\/sports.sina.com.cn\/global\/index.shtml",
"author" : "WWW.SINA.COM.CN",
"tags" : [],
"desc" : "",
"emailed" : False,
"forwarded" : False,
"english" : False
}  , {
"index" : 15,
"articleIndex" : "88809",
"favor" :  False ,
     "read" : False,    
"title" : "切尔西怒吼天尊!穆帅笑醉了 马塔教阿森纳踢球(图)",
"titleTip" : "切尔西怒吼天尊!穆帅笑醉了 马塔教阿森纳踢球(图)",
"titleSummary" : "切尔西怒吼天尊!穆帅笑醉了 马塔教阿森纳踢球(图)",
"descSummary" : "",
"url" : "http:\/\/go.rss.sina.com.cn\/redirect.php?url=http:\/\/sports.sina.com.cn\/g\/pl\/2013-10-30\/09246857928.shtml",
"pubDate" : "09:24:42",
"enterDate" : "384200:48:44",
"channelId" : "6215948913176052442",
"channelName" : "国际足坛-新浪体育",
"channelNameSummary" : "国际足坛-新浪体育",
"channelUrl" : "http:\/\/sports.sina.com.cn\/global\/index.shtml",
"author" : "WWW.SINA.COM.CN",
"tags" : [],
"desc" : "",
"emailed" : False,
"forwarded" : False,
"english" : False
}  , {
"index" : 16,
"articleIndex" : "88823",
"favor" :  False ,
     "read" : False,    
"title" : "西甲神锋宣布弃巴西投西班牙 斯科拉里怒斥：你个叛徒",
"titleTip" : "西甲神锋宣布弃巴西投西班牙 斯科拉里怒斥：你个叛徒",
"titleSummary" : "西甲神锋宣布弃巴西投西班牙 斯科拉里怒斥：你个叛徒",
"descSummary" : "",
"url" : "http:\/\/go.rss.sina.com.cn\/redirect.php?url=http:\/\/sports.sina.com.cn\/g\/laliga\/2013-10-30\/09026857882.shtml",
"pubDate" : "09:02:04",
"enterDate" : "384198:25:46",
"channelId" : "6215948913176052442",
"channelName" : "国际足坛-新浪体育",
"channelNameSummary" : "国际足坛-新浪体育",
"channelUrl" : "http:\/\/sports.sina.com.cn\/global\/index.shtml",
"author" : "WWW.SINA.COM.CN",
"tags" : [],
"desc" : "",
"emailed" : False,
"forwarded" : False,
"english" : False
}  , {
"index" : 17,
"articleIndex" : "88808",
"favor" :  False ,
     "read" : False,    
"title" : "1.4亿金灿灿！切尔西黄金2队闪瞎欧足坛 拜仁倒吸凉气",
"titleTip" : "1.4亿金灿灿！切尔西黄金2队闪瞎欧足坛 拜仁倒吸凉气",
"titleSummary" : "1.4亿金灿灿！切尔西黄金2队闪瞎欧足坛 拜仁倒吸凉气",
"descSummary" : "",
"url" : "http:\/\/go.rss.sina.com.cn\/redirect.php?url=http:\/\/sports.sina.com.cn\/g\/pl\/2013-10-30\/08536857816.shtml",
"pubDate" : "08:53:51",
"enterDate" : "384201:18:03",
"channelId" : "6215948913176052442",
"channelName" : "国际足坛-新浪体育",
"channelNameSummary" : "国际足坛-新浪体育",
"channelUrl" : "http:\/\/sports.sina.com.cn\/global\/index.shtml",
"author" : "WWW.SINA.COM.CN",
"tags" : [],
"desc" : "",
"emailed" : False,
"forwarded" : False,
"english" : False
}  , {
"index" : 18,
"articleIndex" : "88806",
"favor" :  False ,
     "read" : False,    
"title" : "给跪了!后卫不防守前锋不射门 阿森纳2毒瘤造足坛奇观",
"titleTip" : "给跪了!后卫不防守前锋不射门 阿森纳2毒瘤造足坛奇观",
"titleSummary" : "给跪了!后卫不防守前锋不射门 阿森纳2毒瘤造足坛奇观",
"descSummary" : "",
"url" : "http:\/\/go.rss.sina.com.cn\/redirect.php?url=http:\/\/sports.sina.com.cn\/g\/pl\/2013-10-30\/08276857713.shtml",
"pubDate" : "08:27:24",
"enterDate" : "384199:51:26",
"channelId" : "6215948913176052442",
"channelName" : "国际足坛-新浪体育",
"channelNameSummary" : "国际足坛-新浪体育",
"channelUrl" : "http:\/\/sports.sina.com.cn\/global\/index.shtml",
"author" : "WWW.SINA.COM.CN",
"tags" : [],
"desc" : "",
"emailed" : False,
"forwarded" : False,
"english" : False
}  , {
"index" : 19,
"articleIndex" : "88807",
"favor" :  False ,
     "read" : False,    
"title" : "奇迹男孩！巴萨百场先生仅次梅西 5000万买他都不嫌贵",
"titleTip" : "奇迹男孩！巴萨百场先生仅次梅西 5000万买他都不嫌贵",
"titleSummary" : "奇迹男孩！巴萨百场先生仅次梅西 5000万买他都不嫌贵",
"descSummary" : "",
"url" : "http:\/\/go.rss.sina.com.cn\/redirect.php?url=http:\/\/sports.sina.com.cn\/g\/laliga\/2013-10-30\/08516857810.shtml",
"pubDate" : "08:17:00",
"enterDate" : "384199:41:02",
"channelId" : "6215948913176052442",
"channelName" : "国际足坛-新浪体育",
"channelNameSummary" : "国际足坛-新浪体育",
"channelUrl" : "http:\/\/sports.sina.com.cn\/global\/index.shtml",
"author" : "WWW.SINA.COM.CN",
"tags" : [],
"desc" : "",
"emailed" : False,
"forwarded" : False,
"english" : False
} ]
}
