{
"mode" : {"viewTitle" : 1,   "viewNew" : 0,  "pageIndex" : 2 },
 "channel" : {"id" : "6215948913176052442", "booked" : False, "subNumber" : 4559, "name" : "国际足坛-新浪体育", "url" : "http:\/\/sports.sina.com.cn\/global\/index.shtml", "feed" : "http:\/\/rss.sina.com.cn\/sports\/global\/focus.xml", "author" : "WWW.SINA.COM.CN", "desc" : "国际足坛-焦点新闻", "imageUrl" : "http:\/\/www.sinaimg.cn\/ty\/deco\/2010\/0601\/logo_home_sports_nonike2.gif", "postPerWeek" : "238", "lastCrawTime" : "16:57:10", "crawDateTime" : "16:57:10", "lastHttpCode" : "200"}, "page" : {
"startIndex" : 20,
"totalCount" : 5000,
"pageIndex" : 2,
"lastPage" : 250,
"pageSize" : 20,
"english" :  False },
 "unreadNum" : 0, "shotIndex" : -1,
"articles" : [
{
"index" : 0,
"articleIndex" : "88805",
"favor" :  False ,
     "read" : False,    
"title" : "巴萨主帅创造百年纪录却淡然一笑 夸赞小法与众不同",
"titleTip" : "巴萨主帅创造百年纪录却淡然一笑 夸赞小法与众不同",
"titleSummary" : "巴萨主帅创造百年纪录却淡然一笑 夸赞小法与众不同",
"descSummary" : "",
"url" : "http:\/\/go.rss.sina.com.cn\/redirect.php?url=http:\/\/sports.sina.com.cn\/g\/laliga\/2013-10-30\/08266857711.shtml",
"pubDate" : "08:26:54",
"enterDate" : "384200:51:06",
"channelId" : "6215948913176052442",
"channelName" : "国际足坛-新浪体育",
"channelNameSummary" : "国际足坛-新浪体育",
"channelUrl" : "http:\/\/sports.sina.com.cn\/global\/index.shtml",
"author" : "WWW.SINA.COM.CN",
"tags" : [],
"desc" : "",
"emailed" : False,
"forwarded" : False,
"english" : False
}  , {
"index" : 1,
"articleIndex" : "88804",
"favor" :  False ,
     "read" : False,    
"title" : "曼联被废之人回魂！莫耶斯开窍 赢球还靠弗格森一绝技",
"titleTip" : "曼联被废之人回魂！莫耶斯开窍 赢球还靠弗格森一绝技",
"titleSummary" : "曼联被废之人回魂！莫耶斯开窍 赢球还靠弗格森一绝技",
"descSummary" : "",
"url" : "http:\/\/go.rss.sina.com.cn\/redirect.php?url=http:\/\/sports.sina.com.cn\/g\/pl\/2013-10-30\/08166857697.shtml",
"pubDate" : "08:16:22",
"enterDate" : "384201:10:39",
"channelId" : "6215948913176052442",
"channelName" : "国际足坛-新浪体育",
"channelNameSummary" : "国际足坛-新浪体育",
"channelUrl" : "http:\/\/sports.sina.com.cn\/global\/index.shtml",
"author" : "WWW.SINA.COM.CN",
"tags" : [],
"desc" : "",
"emailed" : False,
"forwarded" : False,
"english" : False
}  , {
"index" : 2,
"articleIndex" : "88803",
"favor" :  False ,
     "read" : False,    
"title" : "国米1300万终买来真命天神 真是妖！这个卡卡更会过人",
"titleTip" : "国米1300万终买来真命天神 真是妖！这个卡卡更会过人",
"titleSummary" : "国米1300万终买来真命天神 真是妖！这个卡卡更会过人",
"descSummary" : "",
"url" : "http:\/\/go.rss.sina.com.cn\/redirect.php?url=http:\/\/sports.sina.com.cn\/g\/seriea\/2013-10-30\/07496857665.shtml",
"pubDate" : "07:49:34",
"enterDate" : "384201:13:56",
"channelId" : "6215948913176052442",
"channelName" : "国际足坛-新浪体育",
"channelNameSummary" : "国际足坛-新浪体育",
"channelUrl" : "http:\/\/sports.sina.com.cn\/global\/index.shtml",
"author" : "WWW.SINA.COM.CN",
"tags" : [],
"desc" : "",
"emailed" : False,
"forwarded" : False,
"english" : False
}  , {
"index" : 3,
"articleIndex" : "88802",
"favor" :  False ,
     "read" : False,    
"title" : "范佩西赞曼联一人世界第一 副帅：弗格森钦点之人很棒",
"titleTip" : "范佩西赞曼联一人世界第一 副帅：弗格森钦点之人很棒",
"titleSummary" : "范佩西赞曼联一人世界第一 副帅：弗格森钦点之人很棒",
"descSummary" : "",
"url" : "http:\/\/go.rss.sina.com.cn\/redirect.php?url=http:\/\/sports.sina.com.cn\/g\/pl\/2013-10-30\/07476857663.shtml",
"pubDate" : "07:47:07",
"enterDate" : "384199:41:14",
"channelId" : "6215948913176052442",
"channelName" : "国际足坛-新浪体育",
"channelNameSummary" : "国际足坛-新浪体育",
"channelUrl" : "http:\/\/sports.sina.com.cn\/global\/index.shtml",
"author" : "WWW.SINA.COM.CN",
"tags" : [],
"desc" : "",
"emailed" : False,
"forwarded" : False,
"english" : False
}  , {
"index" : 4,
"articleIndex" : "88801",
"favor" :  False ,
     "read" : False,    
"title" : "热血!穆帅更衣室私密训话曝光 副帅:斩豪门+6连胜太嗨",
"titleTip" : "热血!穆帅更衣室私密训话曝光 副帅:斩豪门+6连胜太嗨",
"titleSummary" : "热血!穆帅更衣室私密训话曝光 副帅:斩豪门+6连胜太嗨",
"descSummary" : "",
"url" : "http:\/\/go.rss.sina.com.cn\/redirect.php?url=http:\/\/sports.sina.com.cn\/g\/pl\/2013-10-30\/07416857660.shtml",
"pubDate" : "07:41:34",
"enterDate" : "384201:05:56",
"channelId" : "6215948913176052442",
"channelName" : "国际足坛-新浪体育",
"channelNameSummary" : "国际足坛-新浪体育",
"channelUrl" : "http:\/\/sports.sina.com.cn\/global\/index.shtml",
"author" : "WWW.SINA.COM.CN",
"tags" : [],
"desc" : "",
"emailed" : False,
"forwarded" : False,
"english" : False
}  , {
"index" : 5,
"articleIndex" : "88800",
"favor" :  False ,
     "read" : False,    
"title" : "阿帅:AC米兰踢得差我就该被质疑 卡卡的价值技术+精神",
"titleTip" : "阿帅:AC米兰踢得差我就该被质疑 卡卡的价值技术+精神",
"titleSummary" : "阿帅:AC米兰踢得差我就该被质疑 卡卡的价值技术+精神",
"descSummary" : "",
"url" : "http:\/\/go.rss.sina.com.cn\/redirect.php?url=http:\/\/sports.sina.com.cn\/g\/seriea\/2013-10-30\/07396857659.shtml",
"pubDate" : "07:39:33",
"enterDate" : "384201:03:55",
"channelId" : "6215948913176052442",
"channelName" : "国际足坛-新浪体育",
"channelNameSummary" : "国际足坛-新浪体育",
"channelUrl" : "http:\/\/sports.sina.com.cn\/global\/index.shtml",
"author" : "WWW.SINA.COM.CN",
"tags" : [],
"desc" : "",
"emailed" : False,
"forwarded" : False,
"english" : False
}  , {
"index" : 6,
"articleIndex" : "88799",
"favor" :  False ,
     "read" : False,    
"title" : "温格：输球不影响士气伤病太多 妙答为何不胜穆里尼奥",
"titleTip" : "温格：输球不影响士气伤病太多 妙答为何不胜穆里尼奥",
"titleSummary" : "温格：输球不影响士气伤病太多 妙答为何不胜穆里尼奥",
"descSummary" : "",
"url" : "http:\/\/go.rss.sina.com.cn\/redirect.php?url=http:\/\/sports.sina.com.cn\/g\/pl\/2013-10-30\/07356857658.shtml",
"pubDate" : "07:35:29",
"enterDate" : "384200:59:51",
"channelId" : "6215948913176052442",
"channelName" : "国际足坛-新浪体育",
"channelNameSummary" : "国际足坛-新浪体育",
"channelUrl" : "http:\/\/sports.sina.com.cn\/global\/index.shtml",
"author" : "WWW.SINA.COM.CN",
"tags" : [],
"desc" : "",
"emailed" : False,
"forwarded" : False,
"english" : False
}  , {
"index" : 7,
"articleIndex" : "88798",
"favor" :  False ,
     "read" : False,    
"title" : "国米憾平马扎里大呼理应赢球 亲口确认队内铁主力伤情",
"titleTip" : "国米憾平马扎里大呼理应赢球 亲口确认队内铁主力伤情",
"titleSummary" : "国米憾平马扎里大呼理应赢球 亲口确认队内铁主力伤情",
"descSummary" : "",
"url" : "http:\/\/go.rss.sina.com.cn\/redirect.php?url=http:\/\/sports.sina.com.cn\/g\/seriea\/2013-10-30\/07346857657.shtml",
"pubDate" : "07:34:50",
"enterDate" : "384200:59:12",
"channelId" : "6215948913176052442",
"channelName" : "国际足坛-新浪体育",
"channelNameSummary" : "国际足坛-新浪体育",
"channelUrl" : "http:\/\/sports.sina.com.cn\/global\/index.shtml",
"author" : "WWW.SINA.COM.CN",
"tags" : [],
"desc" : "",
"emailed" : False,
"forwarded" : False,
"english" : False
}  , {
"index" : 8,
"articleIndex" : "88797",
"favor" :  False ,
     "read" : False,    
"title" : "皇马公布联赛23人名单：阿隆索复出首入围 全队0伤病",
"titleTip" : "皇马公布联赛23人名单：阿隆索复出首入围 全队0伤病",
"titleSummary" : "皇马公布联赛23人名单：阿隆索复出首入围 全队0伤病",
"descSummary" : "",
"url" : "http:\/\/go.rss.sina.com.cn\/redirect.php?url=http:\/\/sports.sina.com.cn\/g\/laliga\/2013-10-30\/07206857652.shtml",
"pubDate" : "07:20:12",
"enterDate" : "384201:14:39",
"channelId" : "6215948913176052442",
"channelName" : "国际足坛-新浪体育",
"channelNameSummary" : "国际足坛-新浪体育",
"channelUrl" : "http:\/\/sports.sina.com.cn\/global\/index.shtml",
"author" : "WWW.SINA.COM.CN",
"tags" : [],
"desc" : "",
"emailed" : False,
"forwarded" : False,
"english" : False
}  , {
"index" : 9,
"articleIndex" : "88796",
"favor" :  False ,
     "read" : False,    
"title" : "融化了!穆帅向厄齐尔索球衣 深情相拥+悄悄话(图)",
"titleTip" : "融化了!穆帅向厄齐尔索球衣 深情相拥+悄悄话(图)",
"titleSummary" : "融化了!穆帅向厄齐尔索球衣 深情相拥+悄悄话(图)",
"descSummary" : "",
"url" : "http:\/\/go.rss.sina.com.cn\/redirect.php?url=http:\/\/sports.sina.com.cn\/g\/pl\/2013-10-30\/07096857651.shtml",
"pubDate" : "07:09:56",
"enterDate" : "384201:04:23",
"channelId" : "6215948913176052442",
"channelName" : "国际足坛-新浪体育",
"channelNameSummary" : "国际足坛-新浪体育",
"channelUrl" : "http:\/\/sports.sina.com.cn\/global\/index.shtml",
"author" : "WWW.SINA.COM.CN",
"tags" : [],
"desc" : "",
"emailed" : False,
"forwarded" : False,
"english" : False
}  , {
"index" : 10,
"articleIndex" : "88795",
"favor" :  False ,
     "read" : False,    
"title" : "安切洛蒂：布拉特对C罗缺乏尊重 最强皇马很快就来了",
"titleTip" : "安切洛蒂：布拉特对C罗缺乏尊重 最强皇马很快就来了",
"titleSummary" : "安切洛蒂：布拉特对C罗缺乏尊重 最强皇马很快就来了",
"descSummary" : "",
"url" : "http:\/\/go.rss.sina.com.cn\/redirect.php?url=http:\/\/sports.sina.com.cn\/g\/laliga\/2013-10-30\/07056857650.shtml",
"pubDate" : "07:05:36",
"enterDate" : "384201:00:03",
"channelId" : "6215948913176052442",
"channelName" : "国际足坛-新浪体育",
"channelNameSummary" : "国际足坛-新浪体育",
"channelUrl" : "http:\/\/sports.sina.com.cn\/global\/index.shtml",
"author" : "WWW.SINA.COM.CN",
"tags" : [],
"desc" : "",
"emailed" : False,
"forwarded" : False,
"english" : False
}  , {
"index" : 11,
"articleIndex" : "88791",
"favor" :  False ,
     "read" : False,    
"title" : "西甲-桑切斯小法进球梅西助攻 巴萨3-0胜不败领跑",
"titleTip" : "西甲-桑切斯小法进球梅西助攻 巴萨3-0胜不败领跑",
"titleSummary" : "西甲-桑切斯小法进球梅西助攻 巴萨3-0胜不败领跑",
"descSummary" : "",
"url" : "http:\/\/go.rss.sina.com.cn\/redirect.php?url=http:\/\/sports.sina.com.cn\/g\/laliga\/2013-10-30\/05476857558.shtml",
"pubDate" : "06:48:26",
"enterDate" : "384201:12:58",
"channelId" : "6215948913176052442",
"channelName" : "国际足坛-新浪体育",
"channelNameSummary" : "国际足坛-新浪体育",
"channelUrl" : "http:\/\/sports.sina.com.cn\/global\/index.shtml",
"author" : "WWW.SINA.COM.CN",
"tags" : [],
"desc" : "",
"emailed" : False,
"forwarded" : False,
"english" : False
}  , {
"index" : 12,
"articleIndex" : "88794",
"favor" :  False ,
     "read" : False,    
"title" : "意大利世界杯球衣谍照曝光:一颠覆设计 这是大V啊(图)",
"titleTip" : "意大利世界杯球衣谍照曝光:一颠覆设计 这是大V啊(图)",
"titleSummary" : "意大利世界杯球衣谍照曝光:一颠覆设计 这是大V啊(图)",
"descSummary" : "",
"url" : "http:\/\/go.rss.sina.com.cn\/redirect.php?url=http:\/\/sports.sina.com.cn\/g\/seriea\/2013-10-30\/05546857575.shtml",
"pubDate" : "05:54:43",
"enterDate" : "384201:19:25",
"channelId" : "6215948913176052442",
"channelName" : "国际足坛-新浪体育",
"channelNameSummary" : "国际足坛-新浪体育",
"channelUrl" : "http:\/\/sports.sina.com.cn\/global\/index.shtml",
"author" : "WWW.SINA.COM.CN",
"tags" : [],
"desc" : "",
"emailed" : False,
"forwarded" : False,
"english" : False
}  , {
"index" : 13,
"articleIndex" : "88793",
"favor" :  False ,
     "read" : False,    
"title" : "C罗出恶气讽刺布拉特：祝您长寿 能活到看某某成功",
"titleTip" : "C罗出恶气讽刺布拉特：祝您长寿 能活到看某某成功",
"titleSummary" : "C罗出恶气讽刺布拉特：祝您长寿 能活到看某某成功",
"descSummary" : "",
"url" : "http:\/\/go.rss.sina.com.cn\/redirect.php?url=http:\/\/sports.sina.com.cn\/g\/laliga\/2013-10-30\/05516857574.shtml",
"pubDate" : "05:51:57",
"enterDate" : "384201:16:39",
"channelId" : "6215948913176052442",
"channelName" : "国际足坛-新浪体育",
"channelNameSummary" : "国际足坛-新浪体育",
"channelUrl" : "http:\/\/sports.sina.com.cn\/global\/index.shtml",
"author" : "WWW.SINA.COM.CN",
"tags" : [],
"desc" : "",
"emailed" : False,
"forwarded" : False,
"english" : False
}  , {
"index" : 14,
"articleIndex" : "88792",
"favor" :  False ,
     "read" : False,    
"title" : "尤文官方贺皮尔洛孔蒂争金球 防线大将超速驾驶遭拦",
"titleTip" : "尤文官方贺皮尔洛孔蒂争金球 防线大将超速驾驶遭拦",
"titleSummary" : "尤文官方贺皮尔洛孔蒂争金球 防线大将超速驾驶遭拦",
"descSummary" : "",
"url" : "http:\/\/go.rss.sina.com.cn\/redirect.php?url=http:\/\/sports.sina.com.cn\/g\/seriea\/2013-10-30\/05496857559.shtml",
"pubDate" : "05:49:06",
"enterDate" : "384201:13:48",
"channelId" : "6215948913176052442",
"channelName" : "国际足坛-新浪体育",
"channelNameSummary" : "国际足坛-新浪体育",
"channelUrl" : "http:\/\/sports.sina.com.cn\/global\/index.shtml",
"author" : "WWW.SINA.COM.CN",
"tags" : [],
"desc" : "",
"emailed" : False,
"forwarded" : False,
"english" : False
}  , {
"index" : 15,
"articleIndex" : "88788",
"favor" :  False ,
     "read" : False,    
"title" : "意甲-辫帅助攻阿尔瓦雷斯门神伤退 国米两中柱1-1",
"titleTip" : "意甲-辫帅助攻阿尔瓦雷斯门神伤退 国米两中柱1-1",
"titleSummary" : "意甲-辫帅助攻阿尔瓦雷斯门神伤退 国米两中柱1-1",
"descSummary" : "",
"url" : "http:\/\/go.rss.sina.com.cn\/redirect.php?url=http:\/\/sports.sina.com.cn\/g\/seriea\/2013-10-30\/04426857507.shtml",
"pubDate" : "05:37:33",
"enterDate" : "384201:02:15",
"channelId" : "6215948913176052442",
"channelName" : "国际足坛-新浪体育",
"channelNameSummary" : "国际足坛-新浪体育",
"channelUrl" : "http:\/\/sports.sina.com.cn\/global\/index.shtml",
"author" : "WWW.SINA.COM.CN",
"tags" : [],
"desc" : "",
"emailed" : False,
"forwarded" : False,
"english" : False
}  , {
"index" : 16,
"articleIndex" : "88786",
"favor" :  False ,
     "read" : False,    
"title" : "联赛杯-马塔进球詹百万送礼 切尔西2-0客胜阿森纳",
"titleTip" : "联赛杯-马塔进球詹百万送礼 切尔西2-0客胜阿森纳",
"titleSummary" : "联赛杯-马塔进球詹百万送礼 切尔西2-0客胜阿森纳",
"descSummary" : "",
"url" : "http:\/\/go.rss.sina.com.cn\/redirect.php?url=http:\/\/sports.sina.com.cn\/g\/pl\/2013-10-30\/04346857504.shtml",
"pubDate" : "05:36:28",
"enterDate" : "384201:01:10",
"channelId" : "6215948913176052442",
"channelName" : "国际足坛-新浪体育",
"channelNameSummary" : "国际足坛-新浪体育",
"channelUrl" : "http:\/\/sports.sina.com.cn\/global\/index.shtml",
"author" : "WWW.SINA.COM.CN",
"tags" : [],
"desc" : "",
"emailed" : False,
"forwarded" : False,
"english" : False
}  , {
"index" : 17,
"articleIndex" : "88790",
"favor" :  False ,
     "read" : False,    
"title" : "滚动西甲第11轮 塞尔塔vs巴萨(即时更新)",
"titleTip" : "滚动西甲第11轮 塞尔塔vs巴萨(即时更新)",
"titleSummary" : "滚动西甲第11轮 塞尔塔vs巴萨(即时更新)",
"descSummary" : "",
"url" : "http:\/\/go.rss.sina.com.cn\/redirect.php?url=http:\/\/sports.sina.com.cn\/video\/g\/laliga\/match\/1314\/11\/barca\/",
"pubDate" : "昨天04:57:33",
"enterDate" : "384200:22:15",
"channelId" : "6215948913176052442",
"channelName" : "国际足坛-新浪体育",
"channelNameSummary" : "国际足坛-新浪体育",
"channelUrl" : "http:\/\/sports.sina.com.cn\/global\/index.shtml",
"author" : "WWW.SINA.COM.CN",
"tags" : [],
"desc" : "",
"emailed" : False,
"forwarded" : False,
"english" : False
}  , {
"index" : 18,
"articleIndex" : "88789",
"favor" :  False ,
     "read" : False,    
"title" : "正在视频直播西甲第11轮：塞尔塔vs巴塞罗那",
"titleTip" : "正在视频直播西甲第11轮：塞尔塔vs巴塞罗那",
"titleSummary" : "正在视频直播西甲第11轮：塞尔塔vs巴塞罗那",
"descSummary" : "",
"url" : "http:\/\/go.rss.sina.com.cn\/redirect.php?url=http:\/\/video.sina.com.cn\/l\/p\/1326974.html",
"pubDate" : "昨天04:54:27",
"enterDate" : "384200:49:14",
"channelId" : "6215948913176052442",
"channelName" : "国际足坛-新浪体育",
"channelNameSummary" : "国际足坛-新浪体育",
"channelUrl" : "http:\/\/sports.sina.com.cn\/global\/index.shtml",
"author" : "WWW.SINA.COM.CN",
"tags" : [],
"desc" : "",
"emailed" : False,
"forwarded" : False,
"english" : False
}  , {
"index" : 19,
"articleIndex" : "88787",
"favor" :  False ,
     "read" : False,    
"title" : "联赛杯-小豌豆2球新小贝造点 鲁尼助攻曼联4-0胜",
"titleTip" : "联赛杯-小豌豆2球新小贝造点 鲁尼助攻曼联4-0胜",
"titleSummary" : "联赛杯-小豌豆2球新小贝造点 鲁尼助攻曼联4-0胜",
"descSummary" : "",
"url" : "http:\/\/go.rss.sina.com.cn\/redirect.php?url=http:\/\/sports.sina.com.cn\/g\/pl\/2013-10-30\/04376857506.shtml",
"pubDate" : "昨天04:37:26",
"enterDate" : "384199:32:03",
"channelId" : "6215948913176052442",
"channelName" : "国际足坛-新浪体育",
"channelNameSummary" : "国际足坛-新浪体育",
"channelUrl" : "http:\/\/sports.sina.com.cn\/global\/index.shtml",
"author" : "WWW.SINA.COM.CN",
"tags" : [],
"desc" : "",
"emailed" : False,
"forwarded" : False,
"english" : False
} ]
}
