{
"mode" : {"viewTitle" : 1,   "viewNew" : 0,  "pageIndex" : 1 },
 "channel" : {"id" : "8152462473981206831", "booked" : False, "subNumber" : 1, "name" : "体育视频-新浪视频", "url" : "http:\/\/video.sina.com.cn\/sports\/", "feed" : "http:\/\/rss.sina.com.cn\/bn\/sports.xml", "author" : "WWW.SINA.COM.CN", "desc" : "体育视频列表", "imageUrl" : "http:\/\/i2.sinaimg.cn\/home\/deco\/2009\/0330\/con_logo_video.gif", "postPerWeek" : "0", "lastCrawTime" : "2013年10月20日 (1周前)", "crawDateTime" : "2013年10月20日 (1周前)", "lastHttpCode" : "200"}, "page" : {
"startIndex" : 0,
"totalCount" : 5000,
"pageIndex" : 1,
"lastPage" : 250,
"pageSize" : 20,
"english" :  False },
 "unreadNum" : 0, "shotIndex" : -1,
"articles" : [
{
"index" : 0,
"articleIndex" : "134631",
"favor" :  False ,
     "read" : False,    
"title" : "视频录播-13\/14英超第8轮 曼联vs南安普顿(下)",
"titleTip" : "视频录播-13\/14英超第8轮 曼联vs南安普顿(下)",
"titleSummary" : "视频录播-13\/14英超第8轮 曼联vs南安普顿(下)",
"descSummary" : "",
"url" : "http:\/\/go.rss.sina.com.cn\/redirect.php?url=http:\/\/video.sina.com.cn\/p\/sports\/pl\/v\/2013-10-20\/045263041043.html",
"pubDate" : "2013年10月20日 (1周前)",
"enterDate" : "384200:58:22",
"channelId" : "8152462473981206831",
"channelName" : "体育视频-新浪视频",
"channelNameSummary" : "体育视频-新浪视频",
"channelUrl" : "http:\/\/video.sina.com.cn\/sports\/",
"author" : "WWW.SINA.COM.CN",
"tags" : [],
"desc" : "",
"emailed" : False,
"forwarded" : False,
"english" : False
}  , {
"index" : 1,
"articleIndex" : "134630",
"favor" :  False ,
     "read" : False,    
"title" : "视频录播-13\/14英超第8轮 曼联vs南安普顿(上)",
"titleTip" : "视频录播-13\/14英超第8轮 曼联vs南安普顿(上)",
"titleSummary" : "视频录播-13\/14英超第8轮 曼联vs南安普顿(上)",
"descSummary" : "",
"url" : "http:\/\/go.rss.sina.com.cn\/redirect.php?url=http:\/\/video.sina.com.cn\/p\/sports\/pl\/v\/2013-10-20\/044863041041.html",
"pubDate" : "2013年10月20日 (1周前)",
"enterDate" : "384200:54:33",
"channelId" : "8152462473981206831",
"channelName" : "体育视频-新浪视频",
"channelNameSummary" : "体育视频-新浪视频",
"channelUrl" : "http:\/\/video.sina.com.cn\/sports\/",
"author" : "WWW.SINA.COM.CN",
"tags" : [],
"desc" : "",
"emailed" : False,
"forwarded" : False,
"english" : False
}  , {
"index" : 2,
"articleIndex" : "134629",
"favor" :  False ,
     "read" : False,    
"title" : "视频录播-13\/14西甲第9轮 奥萨苏纳vs巴萨(上)",
"titleTip" : "视频录播-13\/14西甲第9轮 奥萨苏纳vs巴萨(上)",
"titleSummary" : "视频录播-13\/14西甲第9轮 奥萨苏纳vs巴萨(上)",
"descSummary" : "",
"url" : "http:\/\/go.rss.sina.com.cn\/redirect.php?url=http:\/\/video.sina.com.cn\/p\/sports\/laliga\/v\/2013-10-20\/044563041039.html",
"pubDate" : "2013年10月20日 (1周前)",
"enterDate" : "384200:51:35",
"channelId" : "8152462473981206831",
"channelName" : "体育视频-新浪视频",
"channelNameSummary" : "体育视频-新浪视频",
"channelUrl" : "http:\/\/video.sina.com.cn\/sports\/",
"author" : "WWW.SINA.COM.CN",
"tags" : [],
"desc" : "",
"emailed" : False,
"forwarded" : False,
"english" : False
}  , {
"index" : 3,
"articleIndex" : "134628",
"favor" :  False ,
     "read" : False,    
"title" : "视频录播-13\/14英超第8轮 切尔西vs卡迪夫城(下)",
"titleTip" : "视频录播-13\/14英超第8轮 切尔西vs卡迪夫城(下)",
"titleSummary" : "视频录播-13\/14英超第8轮 切尔西vs卡迪夫城(下)",
"descSummary" : "",
"url" : "http:\/\/go.rss.sina.com.cn\/redirect.php?url=http:\/\/video.sina.com.cn\/p\/sports\/pl\/v\/2013-10-20\/042763041037.html",
"pubDate" : "2013年10月20日 (1周前)",
"enterDate" : "384201:03:40",
"channelId" : "8152462473981206831",
"channelName" : "体育视频-新浪视频",
"channelNameSummary" : "体育视频-新浪视频",
"channelUrl" : "http:\/\/video.sina.com.cn\/sports\/",
"author" : "WWW.SINA.COM.CN",
"tags" : [],
"desc" : "",
"emailed" : False,
"forwarded" : False,
"english" : False
}  , {
"index" : 4,
"articleIndex" : "134627",
"favor" :  False ,
     "read" : False,    
"title" : "视频录播-13\/14英超第8轮 切尔西vs卡迪夫城(上)",
"titleTip" : "视频录播-13\/14英超第8轮 切尔西vs卡迪夫城(上)",
"titleSummary" : "视频录播-13\/14英超第8轮 切尔西vs卡迪夫城(上)",
"descSummary" : "",
"url" : "http:\/\/go.rss.sina.com.cn\/redirect.php?url=http:\/\/video.sina.com.cn\/p\/sports\/pl\/v\/2013-10-20\/042563041035.html",
"pubDate" : "2013年10月20日 (1周前)",
"enterDate" : "384201:01:46",
"channelId" : "8152462473981206831",
"channelName" : "体育视频-新浪视频",
"channelNameSummary" : "体育视频-新浪视频",
"channelUrl" : "http:\/\/video.sina.com.cn\/sports\/",
"author" : "WWW.SINA.COM.CN",
"tags" : [],
"desc" : "",
"emailed" : False,
"forwarded" : False,
"english" : False
}  , {
"index" : 5,
"articleIndex" : "134626",
"favor" :  False ,
     "read" : False,    
"title" : "视频-米兰门神飞扑十分角救险 皮球击中横梁弹出",
"titleTip" : "视频-米兰门神飞扑十分角救险 皮球击中横梁弹出",
"titleSummary" : "视频-米兰门神飞扑十分角救险 皮球击中横梁弹出",
"descSummary" : "",
"url" : "http:\/\/go.rss.sina.com.cn\/redirect.php?url=http:\/\/video.sina.com.cn\/p\/sports\/seriea\/v\/2013-10-20\/041863041029.html",
"pubDate" : "2013年10月20日 (1周前)",
"enterDate" : "384200:54:52",
"channelId" : "8152462473981206831",
"channelName" : "体育视频-新浪视频",
"channelNameSummary" : "体育视频-新浪视频",
"channelUrl" : "http:\/\/video.sina.com.cn\/sports\/",
"author" : "WWW.SINA.COM.CN",
"tags" : [],
"desc" : "",
"emailed" : False,
"forwarded" : False,
"english" : False
}  , {
"index" : 6,
"articleIndex" : "134625",
"favor" :  False ,
     "read" : False,    
"title" : "视频录播-13\/14法甲第10轮 巴黎vs巴斯蒂亚(下)",
"titleTip" : "视频录播-13\/14法甲第10轮 巴黎vs巴斯蒂亚(下)",
"titleSummary" : "视频录播-13\/14法甲第10轮 巴黎vs巴斯蒂亚(下)",
"descSummary" : "",
"url" : "http:\/\/go.rss.sina.com.cn\/redirect.php?url=http:\/\/video.sina.com.cn\/p\/sports\/g\/v\/2013-10-20\/041563041027.html",
"pubDate" : "2013年10月20日 (1周前)",
"enterDate" : "384200:52:09",
"channelId" : "8152462473981206831",
"channelName" : "体育视频-新浪视频",
"channelNameSummary" : "体育视频-新浪视频",
"channelUrl" : "http:\/\/video.sina.com.cn\/sports\/",
"author" : "WWW.SINA.COM.CN",
"tags" : [],
"desc" : "",
"emailed" : False,
"forwarded" : False,
"english" : False
}  , {
"index" : 7,
"articleIndex" : "134624",
"favor" :  False ,
     "read" : False,    
"title" : "视频-差之毫厘！内马尔门前抢点遗憾与皮球擦肩",
"titleTip" : "视频-差之毫厘！内马尔门前抢点遗憾与皮球擦肩",
"titleSummary" : "视频-差之毫厘！内马尔门前抢点遗憾与皮球擦肩",
"descSummary" : "",
"url" : "http:\/\/go.rss.sina.com.cn\/redirect.php?url=http:\/\/video.sina.com.cn\/p\/sports\/laliga\/v\/2013-10-20\/041463041025.html",
"pubDate" : "2013年10月20日 (1周前)",
"enterDate" : "384200:51:21",
"channelId" : "8152462473981206831",
"channelName" : "体育视频-新浪视频",
"channelNameSummary" : "体育视频-新浪视频",
"channelUrl" : "http:\/\/video.sina.com.cn\/sports\/",
"author" : "WWW.SINA.COM.CN",
"tags" : [],
"desc" : "",
"emailed" : False,
"forwarded" : False,
"english" : False
}  , {
"index" : 8,
"articleIndex" : "134623",
"favor" :  False ,
     "read" : False,    
"title" : "视频录播-13\/14法甲第10轮 巴黎vs巴斯蒂亚(上)",
"titleTip" : "视频录播-13\/14法甲第10轮 巴黎vs巴斯蒂亚(上)",
"titleSummary" : "视频录播-13\/14法甲第10轮 巴黎vs巴斯蒂亚(上)",
"descSummary" : "",
"url" : "http:\/\/go.rss.sina.com.cn\/redirect.php?url=http:\/\/video.sina.com.cn\/p\/sports\/g\/v\/2013-10-20\/041263041023.html",
"pubDate" : "2013年10月20日 (1周前)",
"enterDate" : "384200:49:06",
"channelId" : "8152462473981206831",
"channelName" : "体育视频-新浪视频",
"channelNameSummary" : "体育视频-新浪视频",
"channelUrl" : "http:\/\/video.sina.com.cn\/sports\/",
"author" : "WWW.SINA.COM.CN",
"tags" : [],
"desc" : "",
"emailed" : False,
"forwarded" : False,
"english" : False
}  , {
"index" : 9,
"articleIndex" : "134622",
"favor" :  False ,
     "read" : False,    
"title" : "视频集锦-伊布蝎子摆尾卡神2球 巴黎主场4-0胜",
"titleTip" : "视频集锦-伊布蝎子摆尾卡神2球 巴黎主场4-0胜",
"titleSummary" : "视频集锦-伊布蝎子摆尾卡神2球 巴黎主场4-0胜",
"descSummary" : "",
"url" : "http:\/\/go.rss.sina.com.cn\/redirect.php?url=http:\/\/video.sina.com.cn\/p\/sports\/g\/v\/2013-10-20\/040863041031.html",
"pubDate" : "2013年10月20日 (1周前)",
"enterDate" : "384200:45:10",
"channelId" : "8152462473981206831",
"channelName" : "体育视频-新浪视频",
"channelNameSummary" : "体育视频-新浪视频",
"channelUrl" : "http:\/\/video.sina.com.cn\/sports\/",
"author" : "WWW.SINA.COM.CN",
"tags" : [],
"desc" : "",
"emailed" : False,
"forwarded" : False,
"english" : False
}  , {
"index" : 10,
"articleIndex" : "134621",
"favor" :  False ,
     "read" : False,    
"title" : "视频-梅西接过顶获绝好良机 脚却踢空绝望倒地",
"titleTip" : "视频-梅西接过顶获绝好良机 脚却踢空绝望倒地",
"titleSummary" : "视频-梅西接过顶获绝好良机 脚却踢空绝望倒地",
"descSummary" : "",
"url" : "http:\/\/go.rss.sina.com.cn\/redirect.php?url=http:\/\/video.sina.com.cn\/p\/sports\/laliga\/v\/2013-10-20\/040863041021.html",
"pubDate" : "2013年10月20日 (1周前)",
"enterDate" : "384200:44:53",
"channelId" : "8152462473981206831",
"channelName" : "体育视频-新浪视频",
"channelNameSummary" : "体育视频-新浪视频",
"channelUrl" : "http:\/\/video.sina.com.cn\/sports\/",
"author" : "WWW.SINA.COM.CN",
"tags" : [],
"desc" : "",
"emailed" : False,
"forwarded" : False,
"english" : False
}  , {
"index" : 11,
"articleIndex" : "134620",
"favor" :  False ,
     "read" : False,    
"title" : "视频-蒙塔里拉对手脖子喷话 裁判双双出示黄牌",
"titleTip" : "视频-蒙塔里拉对手脖子喷话 裁判双双出示黄牌",
"titleSummary" : "视频-蒙塔里拉对手脖子喷话 裁判双双出示黄牌",
"descSummary" : "",
"url" : "http:\/\/go.rss.sina.com.cn\/redirect.php?url=http:\/\/video.sina.com.cn\/p\/sports\/seriea\/v\/2013-10-20\/040663041019.html",
"pubDate" : "2013年10月20日 (1周前)",
"enterDate" : "384200:43:17",
"channelId" : "8152462473981206831",
"channelName" : "体育视频-新浪视频",
"channelNameSummary" : "体育视频-新浪视频",
"channelUrl" : "http:\/\/video.sina.com.cn\/sports\/",
"author" : "WWW.SINA.COM.CN",
"tags" : [],
"desc" : "",
"emailed" : False,
"forwarded" : False,
"english" : False
}  , {
"index" : 12,
"articleIndex" : "134618",
"favor" :  False ,
     "read" : False,    
"title" : "视频-小法抢点欲借上帝之手 无奈难逃裁判法眼",
"titleTip" : "视频-小法抢点欲借上帝之手 无奈难逃裁判法眼",
"titleSummary" : "视频-小法抢点欲借上帝之手 无奈难逃裁判法眼",
"descSummary" : "",
"url" : "http:\/\/go.rss.sina.com.cn\/redirect.php?url=http:\/\/video.sina.com.cn\/p\/sports\/laliga\/v\/2013-10-20\/034463041017.html",
"pubDate" : "2013年10月20日 (1周前)",
"enterDate" : "384200:51:13",
"channelId" : "8152462473981206831",
"channelName" : "体育视频-新浪视频",
"channelNameSummary" : "体育视频-新浪视频",
"channelUrl" : "http:\/\/video.sina.com.cn\/sports\/",
"author" : "WWW.SINA.COM.CN",
"tags" : [],
"desc" : "",
"emailed" : False,
"forwarded" : False,
"english" : False
}  , {
"index" : 13,
"articleIndex" : "134617",
"favor" :  False ,
     "read" : False,    
"title" : "视频-小法禁区单刀打飞机 梅西无奈场边干着急",
"titleTip" : "视频-小法禁区单刀打飞机 梅西无奈场边干着急",
"titleSummary" : "视频-小法禁区单刀打飞机 梅西无奈场边干着急",
"descSummary" : "",
"url" : "http:\/\/go.rss.sina.com.cn\/redirect.php?url=http:\/\/video.sina.com.cn\/p\/sports\/laliga\/v\/2013-10-20\/033863041015.html",
"pubDate" : "2013年10月20日 (1周前)",
"enterDate" : "384200:44:40",
"channelId" : "8152462473981206831",
"channelName" : "体育视频-新浪视频",
"channelNameSummary" : "体育视频-新浪视频",
"channelUrl" : "http:\/\/video.sina.com.cn\/sports\/",
"author" : "WWW.SINA.COM.CN",
"tags" : [],
"desc" : "",
"emailed" : False,
"forwarded" : False,
"english" : False
}  , {
"index" : 14,
"articleIndex" : "134616",
"favor" :  False ,
     "read" : False,    
"title" : "视频-哈维送绝妙过顶 小法禁区痛失良机懊恼不已",
"titleTip" : "视频-哈维送绝妙过顶 小法禁区痛失良机懊恼不已",
"titleSummary" : "视频-哈维送绝妙过顶 小法禁区痛失良机懊恼不已",
"descSummary" : "",
"url" : "http:\/\/go.rss.sina.com.cn\/redirect.php?url=http:\/\/video.sina.com.cn\/p\/sports\/laliga\/v\/2013-10-20\/033063041013.html",
"pubDate" : "2013年10月20日 (1周前)",
"enterDate" : "384200:36:43",
"channelId" : "8152462473981206831",
"channelName" : "体育视频-新浪视频",
"channelNameSummary" : "体育视频-新浪视频",
"channelUrl" : "http:\/\/video.sina.com.cn\/sports\/",
"author" : "WWW.SINA.COM.CN",
"tags" : [],
"desc" : "",
"emailed" : False,
"forwarded" : False,
"english" : False
}  , {
"index" : 15,
"articleIndex" : "134614",
"favor" :  False ,
     "read" : False,    
"title" : "滚动视频-意甲第8轮：米兰VS乌迪内斯（即时更新）",
"titleTip" : "滚动视频-意甲第8轮：米兰VS乌迪内斯（即时更新）",
"titleSummary" : "滚动视频-意甲第8轮：米兰VS乌迪内斯（即时更新）",
"descSummary" : "",
"url" : "http:\/\/go.rss.sina.com.cn\/redirect.php?url=http:\/\/sports.sina.com.cn\/video\/g\/seriea\/match\/1314\/8\/milan\/",
"pubDate" : "2013年10月20日 (1周前)",
"enterDate" : "384201:02:06",
"channelId" : "8152462473981206831",
"channelName" : "体育视频-新浪视频",
"channelNameSummary" : "体育视频-新浪视频",
"channelUrl" : "http:\/\/video.sina.com.cn\/sports\/",
"author" : "WWW.SINA.COM.CN",
"tags" : [],
"desc" : "",
"emailed" : False,
"forwarded" : False,
"english" : False
}  , {
"index" : 16,
"articleIndex" : "134613",
"favor" :  False ,
     "read" : False,    
"title" : "视频集锦-罗伊斯点球建功 多特1-0小胜汉诺威",
"titleTip" : "视频集锦-罗伊斯点球建功 多特1-0小胜汉诺威",
"titleSummary" : "视频集锦-罗伊斯点球建功 多特1-0小胜汉诺威",
"descSummary" : "",
"url" : "http:\/\/go.rss.sina.com.cn\/redirect.php?url=http:\/\/video.sina.com.cn\/p\/sports\/g\/v\/2013-10-20\/032463041009.html",
"pubDate" : "2013年10月20日 (1周前)",
"enterDate" : "384201:01:25",
"channelId" : "8152462473981206831",
"channelName" : "体育视频-新浪视频",
"channelNameSummary" : "体育视频-新浪视频",
"channelUrl" : "http:\/\/video.sina.com.cn\/sports\/",
"author" : "WWW.SINA.COM.CN",
"tags" : [],
"desc" : "",
"emailed" : False,
"forwarded" : False,
"english" : False
}  , {
"index" : 17,
"articleIndex" : "134612",
"favor" :  False ,
     "read" : False,    
"title" : "视频-巴萨送超精准直塞 奥萨后卫果断倒地救险",
"titleTip" : "视频-巴萨送超精准直塞 奥萨后卫果断倒地救险",
"titleSummary" : "视频-巴萨送超精准直塞 奥萨后卫果断倒地救险",
"descSummary" : "",
"url" : "http:\/\/go.rss.sina.com.cn\/redirect.php?url=http:\/\/video.sina.com.cn\/p\/sports\/laliga\/v\/2013-10-20\/032163041007.html",
"pubDate" : "2013年10月20日 (1周前)",
"enterDate" : "384200:58:01",
"channelId" : "8152462473981206831",
"channelName" : "体育视频-新浪视频",
"channelNameSummary" : "体育视频-新浪视频",
"channelUrl" : "http:\/\/video.sina.com.cn\/sports\/",
"author" : "WWW.SINA.COM.CN",
"tags" : [],
"desc" : "",
"emailed" : False,
"forwarded" : False,
"english" : False
}  , {
"index" : 18,
"articleIndex" : "134619",
"favor" :  False ,
     "read" : False,    
"title" : "视频录播-13\/14英超第8轮 西汉姆vs曼城(下)",
"titleTip" : "视频录播-13\/14英超第8轮 西汉姆vs曼城(下)",
"titleSummary" : "视频录播-13\/14英超第8轮 西汉姆vs曼城(下)",
"descSummary" : "",
"url" : "http:\/\/go.rss.sina.com.cn\/redirect.php?url=http:\/\/video.sina.com.cn\/p\/sports\/pl\/v\/2013-10-20\/025763041033.html",
"pubDate" : "2013年10月20日 (1周前)",
"enterDate" : "384199:33:28",
"channelId" : "8152462473981206831",
"channelName" : "体育视频-新浪视频",
"channelNameSummary" : "体育视频-新浪视频",
"channelUrl" : "http:\/\/video.sina.com.cn\/sports\/",
"author" : "WWW.SINA.COM.CN",
"tags" : [],
"desc" : "",
"emailed" : False,
"forwarded" : False,
"english" : False
}  , {
"index" : 19,
"articleIndex" : "134615",
"favor" :  False ,
     "read" : False,    
"title" : "西甲第9轮：奥萨苏纳vs巴塞罗那视频直播结束",
"titleTip" : "西甲第9轮：奥萨苏纳vs巴塞罗那视频直播结束",
"titleSummary" : "西甲第9轮：奥萨苏纳vs巴塞罗那视频直播结束",
"descSummary" : "",
"url" : "http:\/\/go.rss.sina.com.cn\/redirect.php?url=http:\/\/video.sina.com.cn\/sports\/z\/v\/2013-10-20\/0155157256.html",
"pubDate" : "2013年10月20日 (1周前)",
"enterDate" : "384199:01:46",
"channelId" : "8152462473981206831",
"channelName" : "体育视频-新浪视频",
"channelNameSummary" : "体育视频-新浪视频",
"channelUrl" : "http:\/\/video.sina.com.cn\/sports\/",
"author" : "WWW.SINA.COM.CN",
"tags" : [],
"desc" : "",
"emailed" : False,
"forwarded" : False,
"english" : False
} ]
}
