{
"mode" : {"viewTitle" : 1,   "viewNew" : 0,  "pageIndex" : 2 },
 "channel" : {"id" : "8152462473981206831", "booked" : False, "subNumber" : 1, "name" : "体育视频-新浪视频", "url" : "http:\/\/video.sina.com.cn\/sports\/", "feed" : "http:\/\/rss.sina.com.cn\/bn\/sports.xml", "author" : "WWW.SINA.COM.CN", "desc" : "体育视频列表", "imageUrl" : "http:\/\/i2.sinaimg.cn\/home\/deco\/2009\/0330\/con_logo_video.gif", "postPerWeek" : "0", "lastCrawTime" : "2013年10月20日 (1周前)", "crawDateTime" : "2013年10月20日 (1周前)", "lastHttpCode" : "200"}, "page" : {
"startIndex" : 20,
"totalCount" : 5000,
"pageIndex" : 2,
"lastPage" : 250,
"pageSize" : 20,
"english" :  False },
 "unreadNum" : 0, "shotIndex" : -1,
"articles" : [
{
"index" : 0,
"articleIndex" : "134611",
"favor" :  False ,
     "read" : False,    
"title" : "进球视频-米兰反击罗比架炮 比尔萨弯刀挂死角",
"titleTip" : "进球视频-米兰反击罗比架炮 比尔萨弯刀挂死角",
"titleSummary" : "进球视频-米兰反击罗比架炮 比尔萨弯刀挂死角",
"descSummary" : "",
"url" : "http:\/\/go.rss.sina.com.cn\/redirect.php?url=http:\/\/video.sina.com.cn\/p\/sports\/seriea\/v\/2013-10-20\/032063041005.html",
"pubDate" : "2013年10月20日 (1周前)",
"enterDate" : "384200:56:53",
"channelId" : "8152462473981206831",
"channelName" : "体育视频-新浪视频",
"channelNameSummary" : "体育视频-新浪视频",
"channelUrl" : "http:\/\/video.sina.com.cn\/sports\/",
"author" : "WWW.SINA.COM.CN",
"tags" : [],
"desc" : "",
"emailed" : False,
"forwarded" : False,
"english" : False
}  , {
"index" : 1,
"articleIndex" : "134610",
"favor" :  False ,
     "read" : False,    
"title" : "视频录播-13\/14英超第8轮 西汉姆vs曼城(上)",
"titleTip" : "视频录播-13\/14英超第8轮 西汉姆vs曼城(上)",
"titleSummary" : "视频录播-13\/14英超第8轮 西汉姆vs曼城(上)",
"descSummary" : "",
"url" : "http:\/\/go.rss.sina.com.cn\/redirect.php?url=http:\/\/video.sina.com.cn\/p\/sports\/pl\/v\/2013-10-20\/025363040999.html",
"pubDate" : "2013年10月20日 (1周前)",
"enterDate" : "384201:00:35",
"channelId" : "8152462473981206831",
"channelName" : "体育视频-新浪视频",
"channelNameSummary" : "体育视频-新浪视频",
"channelUrl" : "http:\/\/video.sina.com.cn\/sports\/",
"author" : "WWW.SINA.COM.CN",
"tags" : [],
"desc" : "",
"emailed" : False,
"forwarded" : False,
"english" : False
}  , {
"index" : 2,
"articleIndex" : "134609",
"favor" :  False ,
     "read" : False,    
"title" : "视频-欲罚点球被阻止 罗本很生气怒摔皮球",
"titleTip" : "视频-欲罚点球被阻止 罗本很生气怒摔皮球",
"titleSummary" : "视频-欲罚点球被阻止 罗本很生气怒摔皮球",
"descSummary" : "",
"url" : "http:\/\/go.rss.sina.com.cn\/redirect.php?url=http:\/\/video.sina.com.cn\/p\/sports\/g\/v\/2013-10-20\/025163040995.html",
"pubDate" : "2013年10月20日 (1周前)",
"enterDate" : "384200:58:07",
"channelId" : "8152462473981206831",
"channelName" : "体育视频-新浪视频",
"channelNameSummary" : "体育视频-新浪视频",
"channelUrl" : "http:\/\/video.sina.com.cn\/sports\/",
"author" : "WWW.SINA.COM.CN",
"tags" : [],
"desc" : "",
"emailed" : False,
"forwarded" : False,
"english" : False
}  , {
"index" : 3,
"articleIndex" : "134608",
"favor" :  False ,
     "read" : False,    
"title" : "视频集锦-阿KUN双响席尔瓦弯刀 曼城客场3-1胜",
"titleTip" : "视频集锦-阿KUN双响席尔瓦弯刀 曼城客场3-1胜",
"titleSummary" : "视频集锦-阿KUN双响席尔瓦弯刀 曼城客场3-1胜",
"descSummary" : "",
"url" : "http:\/\/go.rss.sina.com.cn\/redirect.php?url=http:\/\/video.sina.com.cn\/p\/sports\/pl\/v\/2013-10-20\/024963040997.html",
"pubDate" : "2013年10月20日 (1周前)",
"enterDate" : "384200:56:38",
"channelId" : "8152462473981206831",
"channelName" : "体育视频-新浪视频",
"channelNameSummary" : "体育视频-新浪视频",
"channelUrl" : "http:\/\/video.sina.com.cn\/sports\/",
"author" : "WWW.SINA.COM.CN",
"tags" : [],
"desc" : "",
"emailed" : False,
"forwarded" : False,
"english" : False
}  , {
"index" : 4,
"articleIndex" : "134607",
"favor" :  False ,
     "read" : False,    
"title" : "视频集锦-罗本传射穆勒双响 拜仁4-1大胜美因茨",
"titleTip" : "视频集锦-罗本传射穆勒双响 拜仁4-1大胜美因茨",
"titleSummary" : "视频集锦-罗本传射穆勒双响 拜仁4-1大胜美因茨",
"descSummary" : "",
"url" : "http:\/\/go.rss.sina.com.cn\/redirect.php?url=http:\/\/video.sina.com.cn\/p\/sports\/g\/v\/2013-10-20\/024463040991.html",
"pubDate" : "2013年10月20日 (1周前)",
"enterDate" : "384200:51:21",
"channelId" : "8152462473981206831",
"channelName" : "体育视频-新浪视频",
"channelNameSummary" : "体育视频-新浪视频",
"channelUrl" : "http:\/\/video.sina.com.cn\/sports\/",
"author" : "WWW.SINA.COM.CN",
"tags" : [],
"desc" : "",
"emailed" : False,
"forwarded" : False,
"english" : False
}  , {
"index" : 5,
"articleIndex" : "134606",
"favor" :  False ,
     "read" : False,    
"title" : "意甲第8轮：AC米兰VS乌迪内斯",
"titleTip" : "意甲第8轮：AC米兰VS乌迪内斯",
"titleSummary" : "意甲第8轮：AC米兰VS乌迪内斯",
"descSummary" : "",
"url" : "http:\/\/go.rss.sina.com.cn\/redirect.php?url=http:\/\/video.sina.com.cn\/l\/p\/1326580.html",
"pubDate" : "2013年10月20日 (1周前)",
"enterDate" : "384198:48:05",
"channelId" : "8152462473981206831",
"channelName" : "体育视频-新浪视频",
"channelNameSummary" : "体育视频-新浪视频",
"channelUrl" : "http:\/\/video.sina.com.cn\/sports\/",
"author" : "WWW.SINA.COM.CN",
"tags" : [],
"desc" : "",
"emailed" : False,
"forwarded" : False,
"english" : False
}  , {
"index" : 6,
"articleIndex" : "134605",
"favor" :  False ,
     "read" : False,    
"title" : "进球视频-小猪突入禁区造点 穆勒点射锦上添花",
"titleTip" : "进球视频-小猪突入禁区造点 穆勒点射锦上添花",
"titleSummary" : "进球视频-小猪突入禁区造点 穆勒点射锦上添花",
"descSummary" : "",
"url" : "http:\/\/go.rss.sina.com.cn\/redirect.php?url=http:\/\/video.sina.com.cn\/p\/sports\/g\/v\/2013-10-20\/023963040987.html",
"pubDate" : "2013年10月20日 (1周前)",
"enterDate" : "384200:45:44",
"channelId" : "8152462473981206831",
"channelName" : "体育视频-新浪视频",
"channelNameSummary" : "体育视频-新浪视频",
"channelUrl" : "http:\/\/video.sina.com.cn\/sports\/",
"author" : "WWW.SINA.COM.CN",
"tags" : [],
"desc" : "",
"emailed" : False,
"forwarded" : False,
"english" : False
}  , {
"index" : 7,
"articleIndex" : "134604",
"favor" :  False ,
     "read" : False,    
"title" : "进球视频-格策右路送妙传 曼朱基齐锁定胜局",
"titleTip" : "进球视频-格策右路送妙传 曼朱基齐锁定胜局",
"titleSummary" : "进球视频-格策右路送妙传 曼朱基齐锁定胜局",
"descSummary" : "",
"url" : "http:\/\/go.rss.sina.com.cn\/redirect.php?url=http:\/\/video.sina.com.cn\/p\/sports\/g\/v\/2013-10-20\/023463040985.html",
"pubDate" : "2013年10月20日 (1周前)",
"enterDate" : "384200:41:20",
"channelId" : "8152462473981206831",
"channelName" : "体育视频-新浪视频",
"channelNameSummary" : "体育视频-新浪视频",
"channelUrl" : "http:\/\/video.sina.com.cn\/sports\/",
"author" : "WWW.SINA.COM.CN",
"tags" : [],
"desc" : "",
"emailed" : False,
"forwarded" : False,
"english" : False
}  , {
"index" : 8,
"articleIndex" : "134603",
"favor" :  False ,
     "read" : False,    
"title" : "进球视频-格策回敲罗本妙传 穆勒推射助拜仁反超",
"titleTip" : "进球视频-格策回敲罗本妙传 穆勒推射助拜仁反超",
"titleSummary" : "进球视频-格策回敲罗本妙传 穆勒推射助拜仁反超",
"descSummary" : "",
"url" : "http:\/\/go.rss.sina.com.cn\/redirect.php?url=http:\/\/video.sina.com.cn\/p\/sports\/g\/v\/2013-10-20\/023063040981.html",
"pubDate" : "2013年10月20日 (1周前)",
"enterDate" : "384200:37:14",
"channelId" : "8152462473981206831",
"channelName" : "体育视频-新浪视频",
"channelNameSummary" : "体育视频-新浪视频",
"channelUrl" : "http:\/\/video.sina.com.cn\/sports\/",
"author" : "WWW.SINA.COM.CN",
"tags" : [],
"desc" : "",
"emailed" : False,
"forwarded" : False,
"english" : False
}  , {
"index" : 9,
"articleIndex" : "134602",
"favor" :  False ,
     "read" : False,    
"title" : "进球视频-拜仁前场连续配合 罗本推射扳平比分",
"titleTip" : "进球视频-拜仁前场连续配合 罗本推射扳平比分",
"titleSummary" : "进球视频-拜仁前场连续配合 罗本推射扳平比分",
"descSummary" : "",
"url" : "http:\/\/go.rss.sina.com.cn\/redirect.php?url=http:\/\/video.sina.com.cn\/p\/sports\/g\/v\/2013-10-20\/022363040975.html",
"pubDate" : "2013年10月20日 (1周前)",
"enterDate" : "384201:00:38",
"channelId" : "8152462473981206831",
"channelName" : "体育视频-新浪视频",
"channelNameSummary" : "体育视频-新浪视频",
"channelUrl" : "http:\/\/video.sina.com.cn\/sports\/",
"author" : "WWW.SINA.COM.CN",
"tags" : [],
"desc" : "",
"emailed" : False,
"forwarded" : False,
"english" : False
}  , {
"index" : 10,
"articleIndex" : "134592",
"favor" :  False ,
     "read" : False,    
"title" : "视频集锦-阿KUN单刀赴会+头槌 席尔瓦弯刀破死角",
"titleTip" : "视频集锦-阿KUN单刀赴会+头槌 席尔瓦弯刀破死角",
"titleSummary" : "视频集锦-阿KUN单刀赴会+头槌 席尔瓦弯刀破死角",
"descSummary" : "",
"url" : "http:\/\/go.rss.sina.com.cn\/redirect.php?url=http:\/\/sports.sina.com.cn\/video\/g\/pl\/match\/1314\/8\/manc\/",
"pubDate" : "2013年10月20日 (1周前)",
"enterDate" : "384200:30:04",
"channelId" : "8152462473981206831",
"channelName" : "体育视频-新浪视频",
"channelNameSummary" : "体育视频-新浪视频",
"channelUrl" : "http:\/\/video.sina.com.cn\/sports\/",
"author" : "WWW.SINA.COM.CN",
"tags" : [],
"desc" : "",
"emailed" : False,
"forwarded" : False,
"english" : False
}  , {
"index" : 11,
"articleIndex" : "134601",
"favor" :  False ,
     "read" : False,    
"title" : "进球视频-美因茨快速反击 博阿滕失误送大礼",
"titleTip" : "进球视频-美因茨快速反击 博阿滕失误送大礼",
"titleSummary" : "进球视频-美因茨快速反击 博阿滕失误送大礼",
"descSummary" : "",
"url" : "http:\/\/go.rss.sina.com.cn\/redirect.php?url=http:\/\/video.sina.com.cn\/p\/sports\/g\/v\/2013-10-20\/021963040967.html",
"pubDate" : "2013年10月20日 (1周前)",
"enterDate" : "384200:56:02",
"channelId" : "8152462473981206831",
"channelName" : "体育视频-新浪视频",
"channelNameSummary" : "体育视频-新浪视频",
"channelUrl" : "http:\/\/video.sina.com.cn\/sports\/",
"author" : "WWW.SINA.COM.CN",
"tags" : [],
"desc" : "",
"emailed" : False,
"forwarded" : False,
"english" : False
}  , {
"index" : 12,
"articleIndex" : "134600",
"favor" :  False ,
     "read" : False,    
"title" : "进球视频-阿KUN脚底抹油妙传 席尔瓦弧线破死角",
"titleTip" : "进球视频-阿KUN脚底抹油妙传 席尔瓦弧线破死角",
"titleSummary" : "进球视频-阿KUN脚底抹油妙传 席尔瓦弧线破死角",
"descSummary" : "",
"url" : "http:\/\/go.rss.sina.com.cn\/redirect.php?url=http:\/\/video.sina.com.cn\/p\/sports\/pl\/v\/2013-10-20\/021963040965.html",
"pubDate" : "2013年10月20日 (1周前)",
"enterDate" : "384200:55:58",
"channelId" : "8152462473981206831",
"channelName" : "体育视频-新浪视频",
"channelNameSummary" : "体育视频-新浪视频",
"channelUrl" : "http:\/\/video.sina.com.cn\/sports\/",
"author" : "WWW.SINA.COM.CN",
"tags" : [],
"desc" : "",
"emailed" : False,
"forwarded" : False,
"english" : False
}  , {
"index" : 13,
"articleIndex" : "134599",
"favor" :  False ,
     "read" : False,    
"title" : "视频-阿圭罗直塞造杀机 内格雷多超车怒射中横梁",
"titleTip" : "视频-阿圭罗直塞造杀机 内格雷多超车怒射中横梁",
"titleSummary" : "视频-阿圭罗直塞造杀机 内格雷多超车怒射中横梁",
"descSummary" : "",
"url" : "http:\/\/go.rss.sina.com.cn\/redirect.php?url=http:\/\/video.sina.com.cn\/p\/sports\/pl\/v\/2013-10-20\/020863040961.html",
"pubDate" : "2013年10月20日 (1周前)",
"enterDate" : "384200:44:47",
"channelId" : "8152462473981206831",
"channelName" : "体育视频-新浪视频",
"channelNameSummary" : "体育视频-新浪视频",
"channelUrl" : "http:\/\/video.sina.com.cn\/sports\/",
"author" : "WWW.SINA.COM.CN",
"tags" : [],
"desc" : "",
"emailed" : False,
"forwarded" : False,
"english" : False
}  , {
"index" : 14,
"articleIndex" : "134598",
"favor" :  False ,
     "read" : False,    
"title" : "进球视频-妖人歪打正着送助攻 锋煞倒钩破曼城",
"titleTip" : "进球视频-妖人歪打正着送助攻 锋煞倒钩破曼城",
"titleSummary" : "进球视频-妖人歪打正着送助攻 锋煞倒钩破曼城",
"descSummary" : "",
"url" : "http:\/\/go.rss.sina.com.cn\/redirect.php?url=http:\/\/video.sina.com.cn\/p\/sports\/pl\/v\/2013-10-20\/020063040957.html",
"pubDate" : "2013年10月20日 (1周前)",
"enterDate" : "384200:37:13",
"channelId" : "8152462473981206831",
"channelName" : "体育视频-新浪视频",
"channelNameSummary" : "体育视频-新浪视频",
"channelUrl" : "http:\/\/video.sina.com.cn\/sports\/",
"author" : "WWW.SINA.COM.CN",
"tags" : [],
"desc" : "",
"emailed" : False,
"forwarded" : False,
"english" : False
}  , {
"index" : 15,
"articleIndex" : "134596",
"favor" :  False ,
     "read" : False,    
"title" : "进球视频-席尔瓦任意球妙传 阿KUN旱地拔葱甩头",
"titleTip" : "进球视频-席尔瓦任意球妙传 阿KUN旱地拔葱甩头",
"titleSummary" : "进球视频-席尔瓦任意球妙传 阿KUN旱地拔葱甩头",
"descSummary" : "",
"url" : "http:\/\/go.rss.sina.com.cn\/redirect.php?url=http:\/\/video.sina.com.cn\/p\/sports\/pl\/v\/2013-10-20\/015663040955.html",
"pubDate" : "2013年10月20日 (1周前)",
"enterDate" : "384201:03:38",
"channelId" : "8152462473981206831",
"channelName" : "体育视频-新浪视频",
"channelNameSummary" : "体育视频-新浪视频",
"channelUrl" : "http:\/\/video.sina.com.cn\/sports\/",
"author" : "WWW.SINA.COM.CN",
"tags" : [],
"desc" : "",
"emailed" : False,
"forwarded" : False,
"english" : False
}  , {
"index" : 16,
"articleIndex" : "134595",
"favor" :  False ,
     "read" : False,    
"title" : "正在视频直播西甲第9轮：奥萨苏纳 VS 巴塞罗那",
"titleTip" : "正在视频直播西甲第9轮：奥萨苏纳 VS 巴塞罗那",
"titleSummary" : "正在视频直播西甲第9轮：奥萨苏纳 VS 巴塞罗那",
"descSummary" : "",
"url" : "http:\/\/go.rss.sina.com.cn\/redirect.php?url=http:\/\/video.sina.com.cn\/l\/p\/1326579.html",
"pubDate" : "2013年10月20日 (1周前)",
"enterDate" : "384201:02:08",
"channelId" : "8152462473981206831",
"channelName" : "体育视频-新浪视频",
"channelNameSummary" : "体育视频-新浪视频",
"channelUrl" : "http:\/\/video.sina.com.cn\/sports\/",
"author" : "WWW.SINA.COM.CN",
"tags" : [],
"desc" : "",
"emailed" : False,
"forwarded" : False,
"english" : False
}  , {
"index" : 17,
"articleIndex" : "134594",
"favor" :  False ,
     "read" : False,    
"title" : "视频集锦-天使破僵局 贝尔造点C罗破门皇马两球完胜",
"titleTip" : "视频集锦-天使破僵局 贝尔造点C罗破门皇马两球完胜",
"titleSummary" : "视频集锦-天使破僵局 贝尔造点C罗破门皇马两球完胜",
"descSummary" : "",
"url" : "http:\/\/go.rss.sina.com.cn\/redirect.php?url=http:\/\/video.sina.com.cn\/p\/sports\/laliga\/v\/2013-10-20\/014363040933.html",
"pubDate" : "2013年10月20日 (1周前)",
"enterDate" : "384200:50:11",
"channelId" : "8152462473981206831",
"channelName" : "体育视频-新浪视频",
"channelNameSummary" : "体育视频-新浪视频",
"channelUrl" : "http:\/\/video.sina.com.cn\/sports\/",
"author" : "WWW.SINA.COM.CN",
"tags" : [],
"desc" : "",
"emailed" : False,
"forwarded" : False,
"english" : False
}  , {
"index" : 18,
"articleIndex" : "134593",
"favor" :  False ,
     "read" : False,    
"title" : "进球视频-门神悲催送点+被踩 卡瓦尼点射一蹴而就",
"titleTip" : "进球视频-门神悲催送点+被踩 卡瓦尼点射一蹴而就",
"titleSummary" : "进球视频-门神悲催送点+被踩 卡瓦尼点射一蹴而就",
"descSummary" : "",
"url" : "http:\/\/go.rss.sina.com.cn\/redirect.php?url=http:\/\/video.sina.com.cn\/p\/sports\/g\/v\/2013-10-20\/012363040891.html",
"pubDate" : "2013年10月20日 (1周前)",
"enterDate" : "384201:00:46",
"channelId" : "8152462473981206831",
"channelName" : "体育视频-新浪视频",
"channelNameSummary" : "体育视频-新浪视频",
"channelUrl" : "http:\/\/video.sina.com.cn\/sports\/",
"author" : "WWW.SINA.COM.CN",
"tags" : [],
"desc" : "",
"emailed" : False,
"forwarded" : False,
"english" : False
}  , {
"index" : 19,
"articleIndex" : "134597",
"favor" :  False ,
     "read" : False,    
"title" : "英超第8轮西汉姆vs曼城视频直播结束",
"titleTip" : "英超第8轮西汉姆vs曼城视频直播结束",
"titleSummary" : "英超第8轮西汉姆vs曼城视频直播结束",
"descSummary" : "",
"url" : "http:\/\/go.rss.sina.com.cn\/redirect.php?url=http:\/\/video.sina.com.cn\/p\/sports\/z\/v\/2013-10-20\/002363040729.html",
"pubDate" : "2013年10月20日 (1周前)",
"enterDate" : "384199:00:01",
"channelId" : "8152462473981206831",
"channelName" : "体育视频-新浪视频",
"channelNameSummary" : "体育视频-新浪视频",
"channelUrl" : "http:\/\/video.sina.com.cn\/sports\/",
"author" : "WWW.SINA.COM.CN",
"tags" : [],
"desc" : "",
"emailed" : False,
"forwarded" : False,
"english" : False
} ]
}
