{
"mode" : {"viewTitle" : 1,   "viewNew" : 0,  "pageIndex" : 1 },
 "channel" : {"id" : "1424338626741568361", "booked" : False, "subNumber" : 1, "name" : "游戏-新浪博客", "url" : "http:\/\/blog.sina.com.cn\/lm\/games\/", "feed" : "http:\/\/rss.sina.com.cn\/blog\/games\/yx.xml", "author" : "WWW.SINA.COM.CN", "desc" : "游戏博客列表", "imageUrl" : "http:\/\/www.sinaimg.cn\/blog\/main\/index2010\/blog_logo.png", "postPerWeek" : "0", "lastCrawTime" : "17:05:35", "crawDateTime" : "15:50:15", "lastHttpCode" : "304"}, "page" : {
"startIndex" : 0,
"totalCount" : 5000,
"pageIndex" : 1,
"lastPage" : 250,
"pageSize" : 20,
"english" :  False },
 "unreadNum" : 0, "shotIndex" : -1,
"articles" : [
{
"index" : 0,
"articleIndex" : "6141",
"favor" :  False ,
     "read" : False,    
"title" : "盘点那些经典的BOSS++每个玩家想成为战神兰陵王",
"titleTip" : "盘点那些经典的BOSS++每个玩家想成为战神兰陵王",
"titleSummary" : "盘点那些经典的BOSS++每个玩家想成为战神兰陵王",
"descSummary" : "",
"url" : "http:\/\/go.rss.sina.com.cn\/redirect.php?url=http:\/\/blog.sina.com.cn\/s\/blog_751823c90101p6uc.html",
"pubDate" : "2013年8月23日",
"enterDate" : "384200:26:07",
"channelId" : "1424338626741568361",
"channelName" : "游戏-新浪博客",
"channelNameSummary" : "游戏-新浪博客",
"channelUrl" : "http:\/\/blog.sina.com.cn\/lm\/games\/",
"author" : "WWW.SINA.COM.CN",
"tags" : [],
"desc" : "",
"emailed" : False,
"forwarded" : False,
"english" : False
}  , {
"index" : 1,
"articleIndex" : "6140",
"favor" :  False ,
     "read" : False,    
"title" : "贫富差距拉大，底层电竞选手生活堪忧的背后",
"titleTip" : "贫富差距拉大，底层电竞选手生活堪忧的背后",
"titleSummary" : "贫富差距拉大，底层电竞选手生活堪忧的背后",
"descSummary" : "",
"url" : "http:\/\/go.rss.sina.com.cn\/redirect.php?url=http:\/\/blog.sina.com.cn\/s\/blog_c2510b730101ak78.html",
"pubDate" : "2013年8月20日",
"enterDate" : "384201:05:38",
"channelId" : "1424338626741568361",
"channelName" : "游戏-新浪博客",
"channelNameSummary" : "游戏-新浪博客",
"channelUrl" : "http:\/\/blog.sina.com.cn\/lm\/games\/",
"author" : "WWW.SINA.COM.CN",
"tags" : [],
"desc" : "",
"emailed" : False,
"forwarded" : False,
"english" : False
}  , {
"index" : 2,
"articleIndex" : "6139",
"favor" :  False ,
     "read" : False,    
"title" : "音乐与游戏的不解之缘 漫谈泛娱乐化跨界合作新路",
"titleTip" : "音乐与游戏的不解之缘 漫谈泛娱乐化跨界合作新路",
"titleSummary" : "音乐与游戏的不解之缘 漫谈泛娱乐化跨界合作新路",
"descSummary" : "",
"url" : "http:\/\/go.rss.sina.com.cn\/redirect.php?url=http:\/\/blog.sina.com.cn\/s\/blog_4b41bb320101q4r2.html?tj=1",
"pubDate" : "2013年8月13日",
"enterDate" : "384201:10:29",
"channelId" : "1424338626741568361",
"channelName" : "游戏-新浪博客",
"channelNameSummary" : "游戏-新浪博客",
"channelUrl" : "http:\/\/blog.sina.com.cn\/lm\/games\/",
"author" : "WWW.SINA.COM.CN",
"tags" : [],
"desc" : "",
"emailed" : False,
"forwarded" : False,
"english" : False
}  , {
"index" : 3,
"articleIndex" : "6138",
"favor" :  False ,
     "read" : False,    
"title" : "《星际2》超酷雷诺手办+黑甲机枪兵霸气威武",
"titleTip" : "《星际2》超酷雷诺手办+黑甲机枪兵霸气威武",
"titleSummary" : "《星际2》超酷雷诺手办+黑甲机枪兵霸气威武",
"descSummary" : "",
"url" : "http:\/\/go.rss.sina.com.cn\/redirect.php?url=http:\/\/blog.sina.com.cn\/s\/blog_68e8edc70101noa4.html",
"pubDate" : "2013年8月13日",
"enterDate" : "384201:09:30",
"channelId" : "1424338626741568361",
"channelName" : "游戏-新浪博客",
"channelNameSummary" : "游戏-新浪博客",
"channelUrl" : "http:\/\/blog.sina.com.cn\/lm\/games\/",
"author" : "WWW.SINA.COM.CN",
"tags" : [],
"desc" : "",
"emailed" : False,
"forwarded" : False,
"english" : False
}  , {
"index" : 4,
"articleIndex" : "6137",
"favor" :  False ,
     "read" : False,    
"title" : "超赞概念设定！假如超级英雄变身机器人",
"titleTip" : "超赞概念设定！假如超级英雄变身机器人",
"titleSummary" : "超赞概念设定！假如超级英雄变身机器人",
"descSummary" : "",
"url" : "http:\/\/go.rss.sina.com.cn\/redirect.php?url=http:\/\/blog.sina.com.cn\/s\/blog_a27813750101g9e6.html",
"pubDate" : "2013年8月13日",
"enterDate" : "384201:08:55",
"channelId" : "1424338626741568361",
"channelName" : "游戏-新浪博客",
"channelNameSummary" : "游戏-新浪博客",
"channelUrl" : "http:\/\/blog.sina.com.cn\/lm\/games\/",
"author" : "WWW.SINA.COM.CN",
"tags" : [],
"desc" : "",
"emailed" : False,
"forwarded" : False,
"english" : False
}  , {
"index" : 5,
"articleIndex" : "6136",
"favor" :  False ,
     "read" : False,    
"title" : "骨灰级玩家的魔兽经历\u2015\u2015月色下的婚纱",
"titleTip" : "骨灰级玩家的魔兽经历\u2015\u2015月色下的婚纱",
"titleSummary" : "骨灰级玩家的魔兽经历\u2015\u2015月色下的婚纱",
"descSummary" : "",
"url" : "http:\/\/go.rss.sina.com.cn\/redirect.php?url=http:\/\/blog.sina.com.cn\/s\/blog_517179480102e4ir.html",
"pubDate" : "2013年8月13日",
"enterDate" : "384201:07:58",
"channelId" : "1424338626741568361",
"channelName" : "游戏-新浪博客",
"channelNameSummary" : "游戏-新浪博客",
"channelUrl" : "http:\/\/blog.sina.com.cn\/lm\/games\/",
"author" : "WWW.SINA.COM.CN",
"tags" : [],
"desc" : "",
"emailed" : False,
"forwarded" : False,
"english" : False
}  , {
"index" : 6,
"articleIndex" : "6135",
"favor" :  False ,
     "read" : False,    
"title" : "游戏宝贝歪歪上海挑战40℃高温拍写真",
"titleTip" : "游戏宝贝歪歪上海挑战40℃高温拍写真",
"titleSummary" : "游戏宝贝歪歪上海挑战40℃高温拍写真",
"descSummary" : "",
"url" : "http:\/\/go.rss.sina.com.cn\/redirect.php?url=http:\/\/blog.sina.com.cn\/s\/blog_4c41dc010102e63c.html",
"pubDate" : "2013年8月13日",
"enterDate" : "384201:06:17",
"channelId" : "1424338626741568361",
"channelName" : "游戏-新浪博客",
"channelNameSummary" : "游戏-新浪博客",
"channelUrl" : "http:\/\/blog.sina.com.cn\/lm\/games\/",
"author" : "WWW.SINA.COM.CN",
"tags" : [],
"desc" : "",
"emailed" : False,
"forwarded" : False,
"english" : False
}  , {
"index" : 7,
"articleIndex" : "6134",
"favor" :  False ,
     "read" : False,    
"title" : "刀锋女皇的野性诱惑+暴雪原画师佳作赏",
"titleTip" : "刀锋女皇的野性诱惑+暴雪原画师佳作赏",
"titleSummary" : "刀锋女皇的野性诱惑+暴雪原画师佳作赏",
"descSummary" : "",
"url" : "http:\/\/go.rss.sina.com.cn\/redirect.php?url=http:\/\/blog.sina.com.cn\/s\/blog_68e8edc70101mwfp.html",
"pubDate" : "2013年6月25日",
"enterDate" : "384200:55:12",
"channelId" : "1424338626741568361",
"channelName" : "游戏-新浪博客",
"channelNameSummary" : "游戏-新浪博客",
"channelUrl" : "http:\/\/blog.sina.com.cn\/lm\/games\/",
"author" : "WWW.SINA.COM.CN",
"tags" : [],
"desc" : "",
"emailed" : False,
"forwarded" : False,
"english" : False
}  , {
"index" : 8,
"articleIndex" : "6133",
"favor" :  False ,
     "read" : False,    
"title" : "怕被虐所以玩英雄联盟？玩家们对比游戏心声",
"titleTip" : "怕被虐所以玩英雄联盟？玩家们对比游戏心声",
"titleSummary" : "怕被虐所以玩英雄联盟？玩家们对比游戏心声",
"descSummary" : "",
"url" : "http:\/\/go.rss.sina.com.cn\/redirect.php?url=http:\/\/blog.sina.com.cn\/s\/blog_7c6a1f2c0101f2ac.html",
"pubDate" : "2013年6月25日",
"enterDate" : "384200:54:21",
"channelId" : "1424338626741568361",
"channelName" : "游戏-新浪博客",
"channelNameSummary" : "游戏-新浪博客",
"channelUrl" : "http:\/\/blog.sina.com.cn\/lm\/games\/",
"author" : "WWW.SINA.COM.CN",
"tags" : [],
"desc" : "",
"emailed" : False,
"forwarded" : False,
"english" : False
}  , {
"index" : 9,
"articleIndex" : "6132",
"favor" :  False ,
     "read" : False,    
"title" : "E3各项最佳出炉 战地4夺冠使命召唤榜上无名",
"titleTip" : "E3各项最佳出炉 战地4夺冠使命召唤榜上无名",
"titleSummary" : "E3各项最佳出炉 战地4夺冠使命召唤榜上无名",
"descSummary" : "",
"url" : "http:\/\/go.rss.sina.com.cn\/redirect.php?url=http:\/\/blog.sina.com.cn\/s\/blog_7c6a1f2c0101f2b4.html",
"pubDate" : "2013年6月25日",
"enterDate" : "384200:53:54",
"channelId" : "1424338626741568361",
"channelName" : "游戏-新浪博客",
"channelNameSummary" : "游戏-新浪博客",
"channelUrl" : "http:\/\/blog.sina.com.cn\/lm\/games\/",
"author" : "WWW.SINA.COM.CN",
"tags" : [],
"desc" : "",
"emailed" : False,
"forwarded" : False,
"english" : False
}  , {
"index" : 10,
"articleIndex" : "6131",
"favor" :  False ,
     "read" : False,    
"title" : "从DNF5年久盛不衰解读动作网游4大必备元素",
"titleTip" : "从DNF5年久盛不衰解读动作网游4大必备元素",
"titleSummary" : "从DNF5年久盛不衰解读动作网游4大必备元素",
"descSummary" : "",
"url" : "http:\/\/go.rss.sina.com.cn\/redirect.php?url=http:\/\/blog.sina.com.cn\/s\/blog_7c6a1f2c0101f2bt.html",
"pubDate" : "2013年6月25日",
"enterDate" : "384200:52:55",
"channelId" : "1424338626741568361",
"channelName" : "游戏-新浪博客",
"channelNameSummary" : "游戏-新浪博客",
"channelUrl" : "http:\/\/blog.sina.com.cn\/lm\/games\/",
"author" : "WWW.SINA.COM.CN",
"tags" : [],
"desc" : "",
"emailed" : False,
"forwarded" : False,
"english" : False
}  , {
"index" : 11,
"articleIndex" : "6130",
"favor" :  False ,
     "read" : False,    
"title" : "E3展最感人画面 残疾玩家用舌头玩游戏",
"titleTip" : "E3展最感人画面 残疾玩家用舌头玩游戏",
"titleSummary" : "E3展最感人画面 残疾玩家用舌头玩游戏",
"descSummary" : "",
"url" : "http:\/\/go.rss.sina.com.cn\/redirect.php?url=http:\/\/blog.sina.com.cn\/s\/blog_7c6a1f2c0101eyrv.html",
"pubDate" : "2013年6月21日",
"enterDate" : "384142:05:36",
"channelId" : "1424338626741568361",
"channelName" : "游戏-新浪博客",
"channelNameSummary" : "游戏-新浪博客",
"channelUrl" : "http:\/\/blog.sina.com.cn\/lm\/games\/",
"author" : "WWW.SINA.COM.CN",
"tags" : [],
"desc" : "",
"emailed" : False,
"forwarded" : False,
"english" : False
}  , {
"index" : 12,
"articleIndex" : "6129",
"favor" :  False ,
     "read" : False,    
"title" : "看国外牛人打造的《马里奥》主题蛋糕",
"titleTip" : "看国外牛人打造的《马里奥》主题蛋糕",
"titleSummary" : "看国外牛人打造的《马里奥》主题蛋糕",
"descSummary" : "",
"url" : "http:\/\/go.rss.sina.com.cn\/redirect.php?url=http:\/\/blog.sina.com.cn\/s\/blog_68e8edc70101mto8.html",
"pubDate" : "2013年6月21日",
"enterDate" : "384142:04:46",
"channelId" : "1424338626741568361",
"channelName" : "游戏-新浪博客",
"channelNameSummary" : "游戏-新浪博客",
"channelUrl" : "http:\/\/blog.sina.com.cn\/lm\/games\/",
"author" : "WWW.SINA.COM.CN",
"tags" : [],
"desc" : "",
"emailed" : False,
"forwarded" : False,
"english" : False
}  , {
"index" : 13,
"articleIndex" : "6128",
"favor" :  False ,
     "read" : False,    
"title" : "回顾：网游父亲节各种\u201C扛爹\u201D方式",
"titleTip" : "回顾：网游父亲节各种\u201C扛爹\u201D方式",
"titleSummary" : "回顾：网游父亲节各种\u201C扛爹\u201D方式",
"descSummary" : "",
"url" : "http:\/\/go.rss.sina.com.cn\/redirect.php?url=http:\/\/blog.sina.com.cn\/s\/blog_5927654e0102en3q.html",
"pubDate" : "2013年6月21日",
"enterDate" : "384142:03:24",
"channelId" : "1424338626741568361",
"channelName" : "游戏-新浪博客",
"channelNameSummary" : "游戏-新浪博客",
"channelUrl" : "http:\/\/blog.sina.com.cn\/lm\/games\/",
"author" : "WWW.SINA.COM.CN",
"tags" : [],
"desc" : "",
"emailed" : False,
"forwarded" : False,
"english" : False
}  , {
"index" : 14,
"articleIndex" : "6127",
"favor" :  False ,
     "read" : False,    
"title" : "魔兽之外再无世界 一个魔兽玩家的肺腑之言",
"titleTip" : "魔兽之外再无世界 一个魔兽玩家的肺腑之言",
"titleSummary" : "魔兽之外再无世界 一个魔兽玩家的肺腑之言",
"descSummary" : "",
"url" : "http:\/\/go.rss.sina.com.cn\/redirect.php?url=http:\/\/blog.sina.com.cn\/s\/blog_7c6a1f2c0101ew3y.html",
"pubDate" : "2013年6月17日",
"enterDate" : "384200:26:19",
"channelId" : "1424338626741568361",
"channelName" : "游戏-新浪博客",
"channelNameSummary" : "游戏-新浪博客",
"channelUrl" : "http:\/\/blog.sina.com.cn\/lm\/games\/",
"author" : "WWW.SINA.COM.CN",
"tags" : [],
"desc" : "",
"emailed" : False,
"forwarded" : False,
"english" : False
}  , {
"index" : 15,
"articleIndex" : "6126",
"favor" :  False ,
     "read" : False,    
"title" : "微软不得人心 XboxOne强制联网惹怒美军士兵",
"titleTip" : "微软不得人心 XboxOne强制联网惹怒美军士兵",
"titleSummary" : "微软不得人心 XboxOne强制联网惹怒美军士兵",
"descSummary" : "",
"url" : "http:\/\/go.rss.sina.com.cn\/redirect.php?url=http:\/\/blog.sina.com.cn\/s\/blog_7c6a1f2c0101ew7x.html",
"pubDate" : "2013年6月17日",
"enterDate" : "384200:24:52",
"channelId" : "1424338626741568361",
"channelName" : "游戏-新浪博客",
"channelNameSummary" : "游戏-新浪博客",
"channelUrl" : "http:\/\/blog.sina.com.cn\/lm\/games\/",
"author" : "WWW.SINA.COM.CN",
"tags" : [],
"desc" : "",
"emailed" : False,
"forwarded" : False,
"english" : False
}  , {
"index" : 16,
"articleIndex" : "6125",
"favor" :  False ,
     "read" : False,    
"title" : "上班族眼中的WOW：魔兽会变 玩家的心永不变",
"titleTip" : "上班族眼中的WOW：魔兽会变 玩家的心永不变",
"titleSummary" : "上班族眼中的WOW：魔兽会变 玩家的心永不变",
"descSummary" : "",
"url" : "http:\/\/go.rss.sina.com.cn\/redirect.php?url=http:\/\/blog.sina.com.cn\/s\/blog_7c6a1f2c0101ew8e.html",
"pubDate" : "2013年6月17日",
"enterDate" : "384200:24:31",
"channelId" : "1424338626741568361",
"channelName" : "游戏-新浪博客",
"channelNameSummary" : "游戏-新浪博客",
"channelUrl" : "http:\/\/blog.sina.com.cn\/lm\/games\/",
"author" : "WWW.SINA.COM.CN",
"tags" : [],
"desc" : "",
"emailed" : False,
"forwarded" : False,
"english" : False
}  , {
"index" : 17,
"articleIndex" : "6124",
"favor" :  False ,
     "read" : False,    
"title" : "玩家逆袭厂商+玩游戏不花钱反倒赚十万",
"titleTip" : "玩家逆袭厂商+玩游戏不花钱反倒赚十万",
"titleSummary" : "玩家逆袭厂商+玩游戏不花钱反倒赚十万",
"descSummary" : "",
"url" : "http:\/\/go.rss.sina.com.cn\/redirect.php?url=http:\/\/blog.sina.com.cn\/s\/blog_7c6a1f2c0101eu4z.html",
"pubDate" : "2013年6月14日",
"enterDate" : "384200:12:49",
"channelId" : "1424338626741568361",
"channelName" : "游戏-新浪博客",
"channelNameSummary" : "游戏-新浪博客",
"channelUrl" : "http:\/\/blog.sina.com.cn\/lm\/games\/",
"author" : "WWW.SINA.COM.CN",
"tags" : [],
"desc" : "",
"emailed" : False,
"forwarded" : False,
"english" : False
}  , {
"index" : 18,
"articleIndex" : "6123",
"favor" :  False ,
     "read" : False,    
"title" : "六大理由说明一切 玩家更喜欢PS4非Xbox One",
"titleTip" : "六大理由说明一切 玩家更喜欢PS4非Xbox One",
"titleSummary" : "六大理由说明一切 玩家更喜欢PS4非Xbox One",
"descSummary" : "",
"url" : "http:\/\/go.rss.sina.com.cn\/redirect.php?url=http:\/\/blog.sina.com.cn\/s\/blog_7c6a1f2c0101eu5v.html",
"pubDate" : "2013年6月14日",
"enterDate" : "384200:12:32",
"channelId" : "1424338626741568361",
"channelName" : "游戏-新浪博客",
"channelNameSummary" : "游戏-新浪博客",
"channelUrl" : "http:\/\/blog.sina.com.cn\/lm\/games\/",
"author" : "WWW.SINA.COM.CN",
"tags" : [],
"desc" : "",
"emailed" : False,
"forwarded" : False,
"english" : False
}  , {
"index" : 19,
"articleIndex" : "6122",
"favor" :  False ,
     "read" : False,    
"title" : "羊毒秀三萝COS赏",
"titleTip" : "羊毒秀三萝COS赏",
"titleSummary" : "羊毒秀三萝COS赏",
"descSummary" : "",
"url" : "http:\/\/go.rss.sina.com.cn\/redirect.php?url=http:\/\/blog.sina.com.cn\/s\/blog_81d5ddb001019b70.html",
"pubDate" : "2013年6月13日",
"enterDate" : "384200:20:28",
"channelId" : "1424338626741568361",
"channelName" : "游戏-新浪博客",
"channelNameSummary" : "游戏-新浪博客",
"channelUrl" : "http:\/\/blog.sina.com.cn\/lm\/games\/",
"author" : "WWW.SINA.COM.CN",
"tags" : [],
"desc" : "",
"emailed" : False,
"forwarded" : False,
"english" : False
} ]
}
