{
"mode" : {"viewTitle" : 1,   "viewNew" : 0,  "pageIndex" : 2 },
 "channel" : {"id" : "1424338626741568361", "booked" : False, "subNumber" : 1, "name" : "游戏-新浪博客", "url" : "http:\/\/blog.sina.com.cn\/lm\/games\/", "feed" : "http:\/\/rss.sina.com.cn\/blog\/games\/yx.xml", "author" : "WWW.SINA.COM.CN", "desc" : "游戏博客列表", "imageUrl" : "http:\/\/www.sinaimg.cn\/blog\/main\/index2010\/blog_logo.png", "postPerWeek" : "0", "lastCrawTime" : "17:05:35", "crawDateTime" : "15:50:15", "lastHttpCode" : "304"}, "page" : {
"startIndex" : 20,
"totalCount" : 5000,
"pageIndex" : 2,
"lastPage" : 250,
"pageSize" : 20,
"english" :  False },
 "unreadNum" : 0, "shotIndex" : -1,
"articles" : [
{
"index" : 0,
"articleIndex" : "6121",
"favor" :  False ,
     "read" : False,    
"title" : "索尼PS4痛抽微软XboxOne 成为E3展最大赢家",
"titleTip" : "索尼PS4痛抽微软XboxOne 成为E3展最大赢家",
"titleSummary" : "索尼PS4痛抽微软XboxOne 成为E3展最大赢家",
"descSummary" : "",
"url" : "http:\/\/go.rss.sina.com.cn\/redirect.php?url=http:\/\/blog.sina.com.cn\/s\/blog_7c6a1f2c0101etiu.html",
"pubDate" : "2013年6月13日",
"enterDate" : "384200:17:19",
"channelId" : "1424338626741568361",
"channelName" : "游戏-新浪博客",
"channelNameSummary" : "游戏-新浪博客",
"channelUrl" : "http:\/\/blog.sina.com.cn\/lm\/games\/",
"author" : "WWW.SINA.COM.CN",
"tags" : [],
"desc" : "",
"emailed" : False,
"forwarded" : False,
"english" : False
}  , {
"index" : 1,
"articleIndex" : "6120",
"favor" :  False ,
     "read" : False,    
"title" : "IOS7移动游戏新特性 苹果加强游戏开发支持",
"titleTip" : "IOS7移动游戏新特性 苹果加强游戏开发支持",
"titleSummary" : "IOS7移动游戏新特性 苹果加强游戏开发支持",
"descSummary" : "",
"url" : "http:\/\/go.rss.sina.com.cn\/redirect.php?url=http:\/\/blog.sina.com.cn\/s\/blog_7c6a1f2c0101etj7.html",
"pubDate" : "2013年6月13日",
"enterDate" : "384200:16:55",
"channelId" : "1424338626741568361",
"channelName" : "游戏-新浪博客",
"channelNameSummary" : "游戏-新浪博客",
"channelUrl" : "http:\/\/blog.sina.com.cn\/lm\/games\/",
"author" : "WWW.SINA.COM.CN",
"tags" : [],
"desc" : "",
"emailed" : False,
"forwarded" : False,
"english" : False
}  , {
"index" : 2,
"articleIndex" : "6119",
"favor" :  False ,
     "read" : False,    
"title" : "该如何应对迷恋网络游戏不爱学习的孩子",
"titleTip" : "该如何应对迷恋网络游戏不爱学习的孩子",
"titleSummary" : "该如何应对迷恋网络游戏不爱学习的孩子",
"descSummary" : "",
"url" : "http:\/\/go.rss.sina.com.cn\/redirect.php?url=http:\/\/blog.sina.com.cn\/s\/blog_64e5abde0102f7ks.html",
"pubDate" : "2013年6月9日",
"enterDate" : "384199:26:25",
"channelId" : "1424338626741568361",
"channelName" : "游戏-新浪博客",
"channelNameSummary" : "游戏-新浪博客",
"channelUrl" : "http:\/\/blog.sina.com.cn\/lm\/games\/",
"author" : "WWW.SINA.COM.CN",
"tags" : [],
"desc" : "",
"emailed" : False,
"forwarded" : False,
"english" : False
}  , {
"index" : 3,
"articleIndex" : "6118",
"favor" :  False ,
     "read" : False,    
"title" : "史上最贵游戏售价116万 申请吉尼斯记录",
"titleTip" : "史上最贵游戏售价116万 申请吉尼斯记录",
"titleSummary" : "史上最贵游戏售价116万 申请吉尼斯记录",
"descSummary" : "",
"url" : "http:\/\/go.rss.sina.com.cn\/redirect.php?url=http:\/\/blog.sina.com.cn\/s\/blog_7c6a1f2c0101eraz.html",
"pubDate" : "2013年6月9日",
"enterDate" : "384199:19:15",
"channelId" : "1424338626741568361",
"channelName" : "游戏-新浪博客",
"channelNameSummary" : "游戏-新浪博客",
"channelUrl" : "http:\/\/blog.sina.com.cn\/lm\/games\/",
"author" : "WWW.SINA.COM.CN",
"tags" : [],
"desc" : "",
"emailed" : False,
"forwarded" : False,
"english" : False
}  , {
"index" : 4,
"articleIndex" : "6117",
"favor" :  False ,
     "read" : False,    
"title" : "男生晕场高考作文没写完 愧对母亲网游排解",
"titleTip" : "男生晕场高考作文没写完 愧对母亲网游排解",
"titleSummary" : "男生晕场高考作文没写完 愧对母亲网游排解",
"descSummary" : "",
"url" : "http:\/\/go.rss.sina.com.cn\/redirect.php?url=http:\/\/blog.sina.com.cn\/s\/blog_7c6a1f2c0101erb5.html",
"pubDate" : "2013年6月9日",
"enterDate" : "384199:18:51",
"channelId" : "1424338626741568361",
"channelName" : "游戏-新浪博客",
"channelNameSummary" : "游戏-新浪博客",
"channelUrl" : "http:\/\/blog.sina.com.cn\/lm\/games\/",
"author" : "WWW.SINA.COM.CN",
"tags" : [],
"desc" : "",
"emailed" : False,
"forwarded" : False,
"english" : False
}  , {
"index" : 5,
"articleIndex" : "6116",
"favor" :  False ,
     "read" : False,    
"title" : "微软Xbox One将支持二手游戏 选择范围增大",
"titleTip" : "微软Xbox One将支持二手游戏 选择范围增大",
"titleSummary" : "微软Xbox One将支持二手游戏 选择范围增大",
"descSummary" : "",
"url" : "http:\/\/go.rss.sina.com.cn\/redirect.php?url=http:\/\/blog.sina.com.cn\/s\/blog_7c6a1f2c0101erbb.html",
"pubDate" : "2013年6月9日",
"enterDate" : "384199:14:18",
"channelId" : "1424338626741568361",
"channelName" : "游戏-新浪博客",
"channelNameSummary" : "游戏-新浪博客",
"channelUrl" : "http:\/\/blog.sina.com.cn\/lm\/games\/",
"author" : "WWW.SINA.COM.CN",
"tags" : [],
"desc" : "",
"emailed" : False,
"forwarded" : False,
"english" : False
}  , {
"index" : 6,
"articleIndex" : "6115",
"favor" :  False ,
     "read" : False,    
"title" : "2013盘点上市网游公司和它的大佬们",
"titleTip" : "2013盘点上市网游公司和它的大佬们",
"titleSummary" : "2013盘点上市网游公司和它的大佬们",
"descSummary" : "",
"url" : "http:\/\/go.rss.sina.com.cn\/redirect.php?url=http:\/\/blog.sina.com.cn\/s\/blog_5927654e0102emom.html",
"pubDate" : "2013年6月9日",
"enterDate" : "384199:13:48",
"channelId" : "1424338626741568361",
"channelName" : "游戏-新浪博客",
"channelNameSummary" : "游戏-新浪博客",
"channelUrl" : "http:\/\/blog.sina.com.cn\/lm\/games\/",
"author" : "WWW.SINA.COM.CN",
"tags" : [],
"desc" : "",
"emailed" : False,
"forwarded" : False,
"english" : False
}  , {
"index" : 7,
"articleIndex" : "6114",
"favor" :  False ,
     "read" : False,    
"title" : "《联盟通用语部落兽人语互译手册》",
"titleTip" : "《联盟通用语部落兽人语互译手册》",
"titleSummary" : "《联盟通用语部落兽人语互译手册》",
"descSummary" : "",
"url" : "http:\/\/go.rss.sina.com.cn\/redirect.php?url=http:\/\/blog.sina.com.cn\/s\/blog_865edcec0101ctod.html",
"pubDate" : "2013年6月9日",
"enterDate" : "384201:13:39",
"channelId" : "1424338626741568361",
"channelName" : "游戏-新浪博客",
"channelNameSummary" : "游戏-新浪博客",
"channelUrl" : "http:\/\/blog.sina.com.cn\/lm\/games\/",
"author" : "WWW.SINA.COM.CN",
"tags" : [],
"desc" : "",
"emailed" : False,
"forwarded" : False,
"english" : False
}  , {
"index" : 8,
"articleIndex" : "6113",
"favor" :  False ,
     "read" : False,    
"title" : "西班牙美女版COS-猎天使魔女",
"titleTip" : "西班牙美女版COS-猎天使魔女",
"titleSummary" : "西班牙美女版COS-猎天使魔女",
"descSummary" : "",
"url" : "http:\/\/go.rss.sina.com.cn\/redirect.php?url=http:\/\/blog.sina.com.cn\/s\/blog_7c6a1f2c0101eqar.html",
"pubDate" : "2013年6月8日",
"enterDate" : "384200:11:23",
"channelId" : "1424338626741568361",
"channelName" : "游戏-新浪博客",
"channelNameSummary" : "游戏-新浪博客",
"channelUrl" : "http:\/\/blog.sina.com.cn\/lm\/games\/",
"author" : "WWW.SINA.COM.CN",
"tags" : [],
"desc" : "",
"emailed" : False,
"forwarded" : False,
"english" : False
}  , {
"index" : 9,
"articleIndex" : "6112",
"favor" :  False ,
     "read" : False,    
"title" : "为啥不让《疯狂原始人》在中国影院疯狂",
"titleTip" : "为啥不让《疯狂原始人》在中国影院疯狂",
"titleSummary" : "为啥不让《疯狂原始人》在中国影院疯狂",
"descSummary" : "",
"url" : "http:\/\/go.rss.sina.com.cn\/redirect.php?url=http:\/\/blog.sina.com.cn\/s\/blog_62596ca20102emqa.html",
"pubDate" : "2013年6月8日",
"enterDate" : "384200:06:26",
"channelId" : "1424338626741568361",
"channelName" : "游戏-新浪博客",
"channelNameSummary" : "游戏-新浪博客",
"channelUrl" : "http:\/\/blog.sina.com.cn\/lm\/games\/",
"author" : "WWW.SINA.COM.CN",
"tags" : [],
"desc" : "",
"emailed" : False,
"forwarded" : False,
"english" : False
}  , {
"index" : 10,
"articleIndex" : "6111",
"favor" :  False ,
     "read" : False,    
"title" : "魔兽世界联盟部落间的恩怨大盘点",
"titleTip" : "魔兽世界联盟部落间的恩怨大盘点",
"titleSummary" : "魔兽世界联盟部落间的恩怨大盘点",
"descSummary" : "",
"url" : "http:\/\/go.rss.sina.com.cn\/redirect.php?url=http:\/\/blog.sina.com.cn\/s\/blog_865edcec0101csw6.html",
"pubDate" : "2013年6月8日",
"enterDate" : "384200:05:58",
"channelId" : "1424338626741568361",
"channelName" : "游戏-新浪博客",
"channelNameSummary" : "游戏-新浪博客",
"channelUrl" : "http:\/\/blog.sina.com.cn\/lm\/games\/",
"author" : "WWW.SINA.COM.CN",
"tags" : [],
"desc" : "",
"emailed" : False,
"forwarded" : False,
"english" : False
}  , {
"index" : 11,
"articleIndex" : "6110",
"favor" :  False ,
     "read" : False,    
"title" : "次世代横扫天下：页游新时代的来临？",
"titleTip" : "次世代横扫天下：页游新时代的来临？",
"titleSummary" : "次世代横扫天下：页游新时代的来临？",
"descSummary" : "",
"url" : "http:\/\/go.rss.sina.com.cn\/redirect.php?url=http:\/\/blog.sina.com.cn\/s\/blog_7c6a1f2c0101eq93.html",
"pubDate" : "2013年6月8日",
"enterDate" : "384200:04:34",
"channelId" : "1424338626741568361",
"channelName" : "游戏-新浪博客",
"channelNameSummary" : "游戏-新浪博客",
"channelUrl" : "http:\/\/blog.sina.com.cn\/lm\/games\/",
"author" : "WWW.SINA.COM.CN",
"tags" : [],
"desc" : "",
"emailed" : False,
"forwarded" : False,
"english" : False
}  , {
"index" : 12,
"articleIndex" : "6109",
"favor" :  False ,
     "read" : False,    
"title" : "《剑网3》安史之乱+完整版CG首映",
"titleTip" : "《剑网3》安史之乱+完整版CG首映",
"titleSummary" : "《剑网3》安史之乱+完整版CG首映",
"descSummary" : "",
"url" : "http:\/\/go.rss.sina.com.cn\/redirect.php?url=http:\/\/blog.sina.com.cn\/s\/blog_7c6a1f2c0101eqit.html",
"pubDate" : "2013年6月8日",
"enterDate" : "384200:03:51",
"channelId" : "1424338626741568361",
"channelName" : "游戏-新浪博客",
"channelNameSummary" : "游戏-新浪博客",
"channelUrl" : "http:\/\/blog.sina.com.cn\/lm\/games\/",
"author" : "WWW.SINA.COM.CN",
"tags" : [],
"desc" : "",
"emailed" : False,
"forwarded" : False,
"english" : False
}  , {
"index" : 13,
"articleIndex" : "6108",
"favor" :  False ,
     "read" : False,    
"title" : "捕鱼机如何去选择程序呢？",
"titleTip" : "捕鱼机如何去选择程序呢？",
"titleSummary" : "捕鱼机如何去选择程序呢？",
"descSummary" : "",
"url" : "http:\/\/go.rss.sina.com.cn\/redirect.php?url=http:\/\/blog.sina.com.cn\/s\/blog_aa25e9f401018whl.html",
"pubDate" : "2013年6月8日",
"enterDate" : "384200:02:56",
"channelId" : "1424338626741568361",
"channelName" : "游戏-新浪博客",
"channelNameSummary" : "游戏-新浪博客",
"channelUrl" : "http:\/\/blog.sina.com.cn\/lm\/games\/",
"author" : "WWW.SINA.COM.CN",
"tags" : [],
"desc" : "",
"emailed" : False,
"forwarded" : False,
"english" : False
}  , {
"index" : 14,
"articleIndex" : "6107",
"favor" :  False ,
     "read" : False,    
"title" : "微信\u2015\u2015手机游戏推广蓝海",
"titleTip" : "微信\u2015\u2015手机游戏推广蓝海",
"titleSummary" : "微信\u2015\u2015手机游戏推广蓝海",
"descSummary" : "",
"url" : "http:\/\/go.rss.sina.com.cn\/redirect.php?url=http:\/\/blog.sina.com.cn\/s\/blog_668b94990101dnmw.html",
"pubDate" : "2013年6月8日",
"enterDate" : "384200:02:33",
"channelId" : "1424338626741568361",
"channelName" : "游戏-新浪博客",
"channelNameSummary" : "游戏-新浪博客",
"channelUrl" : "http:\/\/blog.sina.com.cn\/lm\/games\/",
"author" : "WWW.SINA.COM.CN",
"tags" : [],
"desc" : "",
"emailed" : False,
"forwarded" : False,
"english" : False
}  , {
"index" : 15,
"articleIndex" : "6106",
"favor" :  False ,
     "read" : False,    
"title" : "找个高游戏为何比找个好女人还难？（图）",
"titleTip" : "找个高游戏为何比找个好女人还难？（图）",
"titleSummary" : "找个高游戏为何比找个好女人还难？（图）",
"descSummary" : "",
"url" : "http:\/\/go.rss.sina.com.cn\/redirect.php?url=http:\/\/blog.sina.com.cn\/s\/blog_64e5abde0102f7gp.html",
"pubDate" : "2013年6月8日",
"enterDate" : "384200:00:08",
"channelId" : "1424338626741568361",
"channelName" : "游戏-新浪博客",
"channelNameSummary" : "游戏-新浪博客",
"channelUrl" : "http:\/\/blog.sina.com.cn\/lm\/games\/",
"author" : "WWW.SINA.COM.CN",
"tags" : [],
"desc" : "",
"emailed" : False,
"forwarded" : False,
"english" : False
}  , {
"index" : 16,
"articleIndex" : "6105",
"favor" :  False ,
     "read" : False,    
"title" : "暗黑3登陆中国？暴雪中国战网首页悄然改变",
"titleTip" : "暗黑3登陆中国？暴雪中国战网首页悄然改变",
"titleSummary" : "暗黑3登陆中国？暴雪中国战网首页悄然改变",
"descSummary" : "",
"url" : "http:\/\/go.rss.sina.com.cn\/redirect.php?url=http:\/\/blog.sina.com.cn\/s\/blog_7c6a1f2c0101epih.html",
"pubDate" : "2013年6月7日",
"enterDate" : "384200:30:15",
"channelId" : "1424338626741568361",
"channelName" : "游戏-新浪博客",
"channelNameSummary" : "游戏-新浪博客",
"channelUrl" : "http:\/\/blog.sina.com.cn\/lm\/games\/",
"author" : "WWW.SINA.COM.CN",
"tags" : [],
"desc" : "",
"emailed" : False,
"forwarded" : False,
"english" : False
}  , {
"index" : 17,
"articleIndex" : "6104",
"favor" :  False ,
     "read" : False,    
"title" : "细数2013年E3展会最令人期待的十大火爆看点",
"titleTip" : "细数2013年E3展会最令人期待的十大火爆看点",
"titleSummary" : "细数2013年E3展会最令人期待的十大火爆看点",
"descSummary" : "",
"url" : "http:\/\/go.rss.sina.com.cn\/redirect.php?url=http:\/\/blog.sina.com.cn\/s\/blog_7c6a1f2c0101epip.html",
"pubDate" : "2013年6月7日",
"enterDate" : "384200:29:06",
"channelId" : "1424338626741568361",
"channelName" : "游戏-新浪博客",
"channelNameSummary" : "游戏-新浪博客",
"channelUrl" : "http:\/\/blog.sina.com.cn\/lm\/games\/",
"author" : "WWW.SINA.COM.CN",
"tags" : [],
"desc" : "",
"emailed" : False,
"forwarded" : False,
"english" : False
}  , {
"index" : 18,
"articleIndex" : "6103",
"favor" :  False ,
     "read" : False,    
"title" : "东方project蕾米莉亚COS",
"titleTip" : "东方project蕾米莉亚COS",
"titleSummary" : "东方project蕾米莉亚COS",
"descSummary" : "",
"url" : "http:\/\/go.rss.sina.com.cn\/redirect.php?url=http:\/\/blog.sina.com.cn\/s\/blog_865edcec0101cs60.html",
"pubDate" : "2013年6月7日",
"enterDate" : "384200:26:18",
"channelId" : "1424338626741568361",
"channelName" : "游戏-新浪博客",
"channelNameSummary" : "游戏-新浪博客",
"channelUrl" : "http:\/\/blog.sina.com.cn\/lm\/games\/",
"author" : "WWW.SINA.COM.CN",
"tags" : [],
"desc" : "",
"emailed" : False,
"forwarded" : False,
"english" : False
}  , {
"index" : 19,
"articleIndex" : "6102",
"favor" :  False ,
     "read" : False,    
"title" : "警察临检害角色阵亡+网吧游戏男怒提索赔",
"titleTip" : "警察临检害角色阵亡+网吧游戏男怒提索赔",
"titleSummary" : "警察临检害角色阵亡+网吧游戏男怒提索赔",
"descSummary" : "",
"url" : "http:\/\/go.rss.sina.com.cn\/redirect.php?url=http:\/\/blog.sina.com.cn\/s\/blog_81d5ddb0010197mt.html",
"pubDate" : "2013年6月7日",
"enterDate" : "384200:22:10",
"channelId" : "1424338626741568361",
"channelName" : "游戏-新浪博客",
"channelNameSummary" : "游戏-新浪博客",
"channelUrl" : "http:\/\/blog.sina.com.cn\/lm\/games\/",
"author" : "WWW.SINA.COM.CN",
"tags" : [],
"desc" : "",
"emailed" : False,
"forwarded" : False,
"english" : False
} ]
}
