{
"mode" : {"viewTitle" : 1,   "viewNew" : 0,  "pageIndex" : 1 },
 "channel" : {"id" : "1362678720032962036", "booked" : False, "subNumber" : 1, "name" : "北京房产-房产企业", "url" : "http:\/\/bj.house.sina.com.cn\/company2009-01-13\/index.html", "feed" : "http:\/\/rss.sina.com.cn\/bjhouse\/fcqy.xml", "author" : "", "desc" : "北京房产-房产企业", "imageUrl" : "http:\/\/www.sinaimg.cn\/house\/sina_fc.gif", "postPerWeek" : "0", "lastCrawTime" : "17:07:25", "crawDateTime" : "昨天16:44:25", "lastHttpCode" : "304"}, "page" : {
"startIndex" : 0,
"totalCount" : 5000,
"pageIndex" : 1,
"lastPage" : 250,
"pageSize" : 20,
"english" :  False },
 "unreadNum" : 0, "shotIndex" : -1,
"articles" : [
{
"index" : 0,
"articleIndex" : "10486",
"favor" :  False ,
     "read" : False,    
"title" : "招商地产1.99亿购东力实业逾70%股权",
"titleTip" : "招商地产1.99亿购东力实业逾70%股权",
"titleSummary" : "招商地产1.99亿购东力实业逾70%股权",
"descSummary" : "东力实业4月27日公告，招商地产透过离岸公司斥资1.99亿元，向公...",
"url" : "http:\/\/go.rss.sina.com.cn\/redirect.php?url=http:\/\/house.sina.com.cn\/2012\/04\/28\/482565_all.html?source=rss",
"pubDate" : "2012年4月28日",
"enterDate" : "384200:47:39",
"channelId" : "1362678720032962036",
"channelName" : "北京房产-房产企业",
"channelNameSummary" : "北京房产-房产企业",
"channelUrl" : "http:\/\/bj.house.sina.com.cn\/company2009-01-13\/index.html",
"author" : "WWW.SINA.COM.CN",
"tags" : [],
"desc" : "东力实业4月27日公告，招商地产透过离岸公司斥资1.99亿元，向公司主席兼主要股东苏树辉等人合共收购东力实业70.18%股权。待全部买卖协议完成后，东力实业将成为招商地产间接拥有70.18%的附属公司，而集团的财务业绩将作为附属公司于招商地产的集团财务业绩综合计算。",
"emailed" : False,
"forwarded" : False,
"english" : False
}  , {
"index" : 1,
"articleIndex" : "10485",
"favor" :  False ,
     "read" : False,    
"title" : "招商地产1.99亿购东力实业逾70%股权",
"titleTip" : "招商地产1.99亿购东力实业逾70%股权",
"titleSummary" : "招商地产1.99亿购东力实业逾70%股权",
"descSummary" : "提要：东力实业4月27日公告，招商地产透过离岸公司斥资1.99亿元...",
"url" : "http:\/\/go.rss.sina.com.cn\/redirect.php?url=http:\/\/house.sina.com.cn\/2012\/04\/28\/482565.html?source=rss",
"pubDate" : "2012年4月28日",
"enterDate" : "384201:17:40",
"channelId" : "1362678720032962036",
"channelName" : "北京房产-房产企业",
"channelNameSummary" : "北京房产-房产企业",
"channelUrl" : "http:\/\/bj.house.sina.com.cn\/company2009-01-13\/index.html",
"author" : "WWW.SINA.COM.CN",
"tags" : [],
"desc" : "提要：东力实业4月27日公告，招商地产透过离岸公司斥资1.99亿元，向公司主席兼主要股东苏树辉等人合共收购东力实业70.18%股权。待全部买卖协议完成后，东力实业将成为招商地产间接拥有70.18%的附属公司，而集团的财务业绩将作为附属公司于招商地产的集团财务业绩综合计算。",
"emailed" : False,
"forwarded" : False,
"english" : False
}  , {
"index" : 2,
"articleIndex" : "10484",
"favor" :  False ,
     "read" : False,    
"title" : "香江家居CBD，备受推崇成商铺\"高富帅\"",
"titleTip" : "香江家居CBD，备受推崇成商铺\"高富帅\"",
"titleSummary" : "香江家居CBD，备受推崇成商铺\"高富帅\"",
"descSummary" : "",
"url" : "http:\/\/go.rss.sina.com.cn\/redirect.php?url=http:\/\/house.sina.com.cn\/2012\/04\/28\/482549.html?source=rss",
"pubDate" : "2012年4月28日",
"enterDate" : "384200:58:32",
"channelId" : "1362678720032962036",
"channelName" : "北京房产-房产企业",
"channelNameSummary" : "北京房产-房产企业",
"channelUrl" : "http:\/\/bj.house.sina.com.cn\/company2009-01-13\/index.html",
"author" : "WWW.SINA.COM.CN",
"tags" : [],
"desc" : "",
"emailed" : False,
"forwarded" : False,
"english" : False
}  , {
"index" : 3,
"articleIndex" : "10483",
"favor" :  False ,
     "read" : False,    
"title" : "西贵不贵 熙望\"换脸\"迎刚需",
"titleTip" : "西贵不贵 熙望\"换脸\"迎刚需",
"titleSummary" : "西贵不贵 熙望\"换脸\"迎刚需",
"descSummary" : "",
"url" : "http:\/\/go.rss.sina.com.cn\/redirect.php?url=http:\/\/house.sina.com.cn\/2012\/04\/28\/482531.html?source=rss",
"pubDate" : "2012年4月28日",
"enterDate" : "384201:15:40",
"channelId" : "1362678720032962036",
"channelName" : "北京房产-房产企业",
"channelNameSummary" : "北京房产-房产企业",
"channelUrl" : "http:\/\/bj.house.sina.com.cn\/company2009-01-13\/index.html",
"author" : "WWW.SINA.COM.CN",
"tags" : [],
"desc" : "",
"emailed" : False,
"forwarded" : False,
"english" : False
}  , {
"index" : 4,
"articleIndex" : "10482",
"favor" :  False ,
     "read" : False,    
"title" : "2012年龙湖儿童才艺选拔大赛火热报名中",
"titleTip" : "2012年龙湖儿童才艺选拔大赛火热报名中",
"titleSummary" : "2012年龙湖儿童才艺选拔大赛火热报名中",
"descSummary" : "",
"url" : "http:\/\/go.rss.sina.com.cn\/redirect.php?url=http:\/\/house.sina.com.cn\/2012\/04\/28\/482507.html?source=rss",
"pubDate" : "2012年4月28日",
"enterDate" : "384105:01:26",
"channelId" : "1362678720032962036",
"channelName" : "北京房产-房产企业",
"channelNameSummary" : "北京房产-房产企业",
"channelUrl" : "http:\/\/bj.house.sina.com.cn\/company2009-01-13\/index.html",
"author" : "WWW.SINA.COM.CN",
"tags" : [],
"desc" : "",
"emailed" : False,
"forwarded" : False,
"english" : False
}  , {
"index" : 5,
"articleIndex" : "10481",
"favor" :  False ,
     "read" : False,    
"title" : "白桦林\u2022明天项目开工奠基仪式隆重举行",
"titleTip" : "白桦林\u2022明天项目开工奠基仪式隆重举行",
"titleSummary" : "白桦林\u2022明天项目开工奠基仪式隆重举行",
"descSummary" : "",
"url" : "http:\/\/go.rss.sina.com.cn\/redirect.php?url=http:\/\/house.sina.com.cn\/2012\/04\/28\/482467.html?source=rss",
"pubDate" : "2012年4月28日",
"enterDate" : "384200:55:55",
"channelId" : "1362678720032962036",
"channelName" : "北京房产-房产企业",
"channelNameSummary" : "北京房产-房产企业",
"channelUrl" : "http:\/\/bj.house.sina.com.cn\/company2009-01-13\/index.html",
"author" : "WWW.SINA.COM.CN",
"tags" : [],
"desc" : "",
"emailed" : False,
"forwarded" : False,
"english" : False
}  , {
"index" : 6,
"articleIndex" : "10480",
"favor" :  False ,
     "read" : False,    
"title" : "宫园壹号五一好礼庆楼王登场",
"titleTip" : "宫园壹号五一好礼庆楼王登场",
"titleSummary" : "宫园壹号五一好礼庆楼王登场",
"descSummary" : "",
"url" : "http:\/\/go.rss.sina.com.cn\/redirect.php?url=http:\/\/house.sina.com.cn\/2012\/04\/28\/482465.html?source=rss",
"pubDate" : "2012年4月28日",
"enterDate" : "384200:55:14",
"channelId" : "1362678720032962036",
"channelName" : "北京房产-房产企业",
"channelNameSummary" : "北京房产-房产企业",
"channelUrl" : "http:\/\/bj.house.sina.com.cn\/company2009-01-13\/index.html",
"author" : "WWW.SINA.COM.CN",
"tags" : [],
"desc" : "",
"emailed" : False,
"forwarded" : False,
"english" : False
}  , {
"index" : 7,
"articleIndex" : "10479",
"favor" :  False ,
     "read" : False,    
"title" : "再造重庆顶级商业名片 \u201C棕榈岛\u201D全球招商盛大起航",
"titleTip" : "再造重庆顶级商业名片 \u201C棕榈岛\u201D全球招商盛大起航",
"titleSummary" : "再造重庆顶级商业名片 \u201C棕榈岛\u201D全球招商盛大起航",
"descSummary" : "",
"url" : "http:\/\/go.rss.sina.com.cn\/redirect.php?url=http:\/\/house.sina.com.cn\/2012\/04\/28\/482462.html?source=rss",
"pubDate" : "2012年4月28日",
"enterDate" : "384200:48:00",
"channelId" : "1362678720032962036",
"channelName" : "北京房产-房产企业",
"channelNameSummary" : "北京房产-房产企业",
"channelUrl" : "http:\/\/bj.house.sina.com.cn\/company2009-01-13\/index.html",
"author" : "WWW.SINA.COM.CN",
"tags" : [],
"desc" : "",
"emailed" : False,
"forwarded" : False,
"english" : False
}  , {
"index" : 8,
"articleIndex" : "10474",
"favor" :  False ,
     "read" : False,    
"title" : "东莞万科高骏：今年将重点打造三个商业项目",
"titleTip" : "东莞万科高骏：今年将重点打造三个商业项目",
"titleSummary" : "东莞万科高骏：今年将重点打造三个商业项目",
"descSummary" : "",
"url" : "http:\/\/go.rss.sina.com.cn\/redirect.php?url=http:\/\/house.sina.com.cn\/2012\/04\/28\/482420.html?source=rss",
"pubDate" : "2012年4月28日",
"enterDate" : "384201:17:39",
"channelId" : "1362678720032962036",
"channelName" : "北京房产-房产企业",
"channelNameSummary" : "北京房产-房产企业",
"channelUrl" : "http:\/\/bj.house.sina.com.cn\/company2009-01-13\/index.html",
"author" : "WWW.SINA.COM.CN",
"tags" : [],
"desc" : "",
"emailed" : False,
"forwarded" : False,
"english" : False
}  , {
"index" : 9,
"articleIndex" : "10473",
"favor" :  False ,
     "read" : False,    
"title" : "关于住宅开发",
"titleTip" : "关于住宅开发",
"titleSummary" : "关于住宅开发",
"descSummary" : "",
"url" : "http:\/\/go.rss.sina.com.cn\/redirect.php?url=http:\/\/house.sina.com.cn\/2012\/04\/28\/482418.html?source=rss",
"pubDate" : "2012年4月28日",
"enterDate" : "384201:17:10",
"channelId" : "1362678720032962036",
"channelName" : "北京房产-房产企业",
"channelNameSummary" : "北京房产-房产企业",
"channelUrl" : "http:\/\/bj.house.sina.com.cn\/company2009-01-13\/index.html",
"author" : "WWW.SINA.COM.CN",
"tags" : [],
"desc" : "",
"emailed" : False,
"forwarded" : False,
"english" : False
}  , {
"index" : 10,
"articleIndex" : "10472",
"favor" :  False ,
     "read" : False,    
"title" : "房地产业务下降 四川长虹一季度净利仅增2.28%",
"titleTip" : "房地产业务下降 四川长虹一季度净利仅增2.28%",
"titleSummary" : "房地产业务下降 四川长虹一季度净利仅增2.28%",
"descSummary" : "4月27日晚间，四川长虹电器股份有限公司（600839.SH...",
"url" : "http:\/\/go.rss.sina.com.cn\/redirect.php?url=http:\/\/house.sina.com.cn\/2012\/04\/28\/482356_all.html?source=rss",
"pubDate" : "2012年4月28日",
"enterDate" : "384201:10:28",
"channelId" : "1362678720032962036",
"channelName" : "北京房产-房产企业",
"channelNameSummary" : "北京房产-房产企业",
"channelUrl" : "http:\/\/bj.house.sina.com.cn\/company2009-01-13\/index.html",
"author" : "WWW.SINA.COM.CN",
"tags" : [],
"desc" : "4月27日晚间，四川长虹电器股份有限公司（600839.SH）发布了2012年一季度业绩报告。报告称，公司一季度实现营业收入为108.80亿元，同比增长3.25%；归属于上市公司股东的净利润为1.06亿元，同比增长2.28%；基本每股收益为0.0229。",
"emailed" : False,
"forwarded" : False,
"english" : False
}  , {
"index" : 11,
"articleIndex" : "10471",
"favor" :  False ,
     "read" : False,    
"title" : "房地产业务下降 四川长虹一季度净利仅增2.28%",
"titleTip" : "房地产业务下降 四川长虹一季度净利仅增2.28%",
"titleSummary" : "房地产业务下降 四川长虹一季度净利仅增2.28%",
"descSummary" : "提要：4月27日晚间，四川长虹电器股份有限公司（600...",
"url" : "http:\/\/go.rss.sina.com.cn\/redirect.php?url=http:\/\/house.sina.com.cn\/2012\/04\/28\/482356.html?source=rss",
"pubDate" : "2012年4月28日",
"enterDate" : "384201:10:21",
"channelId" : "1362678720032962036",
"channelName" : "北京房产-房产企业",
"channelNameSummary" : "北京房产-房产企业",
"channelUrl" : "http:\/\/bj.house.sina.com.cn\/company2009-01-13\/index.html",
"author" : "WWW.SINA.COM.CN",
"tags" : [],
"desc" : "提要：4月27日晚间，四川长虹电器股份有限公司（600839.SH）发布了2012年一季度业绩报告。报告称，公司一季度实现营业收入为108.80亿元，同比增长3.25%；归属于上市公司股东的净利润为1.06亿元，同比增长2.28%；基本每股收益为0.0229。",
"emailed" : False,
"forwarded" : False,
"english" : False
}  , {
"index" : 12,
"articleIndex" : "10477",
"favor" :  False ,
     "read" : False,    
"title" : "格力地产少提坏账增厚业绩 为原股东1.8亿欠款买单",
"titleTip" : "格力地产少提坏账增厚业绩 为原股东1.8亿欠款买单",
"titleSummary" : "格力地产少提坏账增厚业绩 为原股东1.8亿欠款买单",
"descSummary" : "",
"url" : "http:\/\/go.rss.sina.com.cn\/redirect.php?url=http:\/\/house.sina.com.cn\/2012\/04\/28\/482325.html?source=rss",
"pubDate" : "2012年4月28日",
"enterDate" : "384199:53:59",
"channelId" : "1362678720032962036",
"channelName" : "北京房产-房产企业",
"channelNameSummary" : "北京房产-房产企业",
"channelUrl" : "http:\/\/bj.house.sina.com.cn\/company2009-01-13\/index.html",
"author" : "WWW.SINA.COM.CN",
"tags" : [],
"desc" : "",
"emailed" : False,
"forwarded" : False,
"english" : False
}  , {
"index" : 13,
"articleIndex" : "10470",
"favor" :  False ,
     "read" : False,    
"title" : "一季度五大行日赚23亿 利息和手续费收入为主来源",
"titleTip" : "一季度五大行日赚23亿 利息和手续费收入为主来源",
"titleSummary" : "一季度五大行日赚23亿 利息和手续费收入为主来源",
"descSummary" : "昨晚，五大大型国有银行的一季度业绩全部亮相。鉴于...",
"url" : "http:\/\/go.rss.sina.com.cn\/redirect.php?url=http:\/\/house.sina.com.cn\/2012\/04\/28\/482312.html?source=rss",
"pubDate" : "2012年4月28日",
"enterDate" : "384200:46:56",
"channelId" : "1362678720032962036",
"channelName" : "北京房产-房产企业",
"channelNameSummary" : "北京房产-房产企业",
"channelUrl" : "http:\/\/bj.house.sina.com.cn\/company2009-01-13\/index.html",
"author" : "WWW.SINA.COM.CN",
"tags" : [],
"desc" : "昨晚，五大大型国有银行的一季度业绩全部亮相。鉴于息差环比见顶、宏观调控和利率市场化等因素，不少券商都认为银行业的业绩将出现平稳放缓增长趋势。预计行业盈利增速2012年放缓至19%，中小银行盈利增速仍能维持在20%以上。",
"emailed" : False,
"forwarded" : False,
"english" : False
}  , {
"index" : 14,
"articleIndex" : "10469",
"favor" :  False ,
     "read" : False,    
"title" : "大龙地产一季度净利亏损992万元 同比减少160%",
"titleTip" : "大龙地产一季度净利亏损992万元 同比减少160%",
"titleSummary" : "大龙地产一季度净利亏损992万元 同比减少160%",
"descSummary" : "报告期内，大龙地产营业总收入为716万元，比上年同期...",
"url" : "http:\/\/go.rss.sina.com.cn\/redirect.php?url=http:\/\/house.sina.com.cn\/2012\/04\/28\/482309_all.html?source=rss",
"pubDate" : "2012年4月28日",
"enterDate" : "384200:44:15",
"channelId" : "1362678720032962036",
"channelName" : "北京房产-房产企业",
"channelNameSummary" : "北京房产-房产企业",
"channelUrl" : "http:\/\/bj.house.sina.com.cn\/company2009-01-13\/index.html",
"author" : "WWW.SINA.COM.CN",
"tags" : [],
"desc" : "报告期内，大龙地产营业总收入为716万元，比上年同期1.57亿元减少95.42%；营业成本为512.59万，比上年同期9673.84万减少94.70%。大龙地产表示，一季度营业收入减少及净利润下降都是由于本期裕龙花园三区及五里仓项目实现销售同比下降所致。",
"emailed" : False,
"forwarded" : False,
"english" : False
}  , {
"index" : 15,
"articleIndex" : "10468",
"favor" :  False ,
     "read" : False,    
"title" : "大龙地产一季度净利亏损992万元 同比减少160%",
"titleTip" : "大龙地产一季度净利亏损992万元 同比减少160%",
"titleSummary" : "大龙地产一季度净利亏损992万元 同比减少160%",
"descSummary" : "提要：报告期内，大龙地产营业总收入为716万元，比上...",
"url" : "http:\/\/go.rss.sina.com.cn\/redirect.php?url=http:\/\/house.sina.com.cn\/2012\/04\/28\/482309.html?source=rss",
"pubDate" : "2012年4月28日",
"enterDate" : "384200:44:07",
"channelId" : "1362678720032962036",
"channelName" : "北京房产-房产企业",
"channelNameSummary" : "北京房产-房产企业",
"channelUrl" : "http:\/\/bj.house.sina.com.cn\/company2009-01-13\/index.html",
"author" : "WWW.SINA.COM.CN",
"tags" : [],
"desc" : "提要：报告期内，大龙地产营业总收入为716万元，比上年同期1.57亿元减少95.42%；营业成本为512.59万，比上年同期9673.84万减少94.70%。大龙地产表示，一季度营业收入减少及净利润下降都是由于本期裕龙花园三区及五里仓项目实现销售同比下降所致。",
"emailed" : False,
"forwarded" : False,
"english" : False
}  , {
"index" : 16,
"articleIndex" : "10467",
"favor" :  False ,
     "read" : False,    
"title" : "广东保利一季度销售逾55亿",
"titleTip" : "广东保利一季度销售逾55亿",
"titleSummary" : "广东保利一季度销售逾55亿",
"descSummary" : "",
"url" : "http:\/\/go.rss.sina.com.cn\/redirect.php?url=http:\/\/house.sina.com.cn\/2012\/04\/28\/482303_all.html?source=rss",
"pubDate" : "2012年4月28日",
"enterDate" : "384201:11:47",
"channelId" : "1362678720032962036",
"channelName" : "北京房产-房产企业",
"channelNameSummary" : "北京房产-房产企业",
"channelUrl" : "http:\/\/bj.house.sina.com.cn\/company2009-01-13\/index.html",
"author" : "WWW.SINA.COM.CN",
"tags" : [],
"desc" : "",
"emailed" : False,
"forwarded" : False,
"english" : False
}  , {
"index" : 17,
"articleIndex" : "10478",
"favor" :  False ,
     "read" : False,    
"title" : "从万科 保利 招商看房地产行业现状",
"titleTip" : "从万科 保利 招商看房地产行业现状",
"titleSummary" : "从万科 保利 招商看房地产行业现状",
"descSummary" : "",
"url" : "http:\/\/go.rss.sina.com.cn\/redirect.php?url=http:\/\/house.sina.com.cn\/2012\/04\/28\/482094.html?source=rss",
"pubDate" : "2012年4月28日",
"enterDate" : "384196:52:55",
"channelId" : "1362678720032962036",
"channelName" : "北京房产-房产企业",
"channelNameSummary" : "北京房产-房产企业",
"channelUrl" : "http:\/\/bj.house.sina.com.cn\/company2009-01-13\/index.html",
"author" : "WWW.SINA.COM.CN",
"tags" : [],
"desc" : "",
"emailed" : False,
"forwarded" : False,
"english" : False
}  , {
"index" : 18,
"articleIndex" : "10476",
"favor" :  False ,
     "read" : False,    
"title" : "马鞍山绿地楼盘被曝钢筋不达标 专家称问题罕见",
"titleTip" : "马鞍山绿地楼盘被曝钢筋不达标 专家称问题罕见",
"titleSummary" : "马鞍山绿地楼盘被曝钢筋不达标 专家称问题罕见",
"descSummary" : "",
"url" : "http:\/\/go.rss.sina.com.cn\/redirect.php?url=http:\/\/house.sina.com.cn\/2012\/04\/28\/482082.html?source=rss",
"pubDate" : "2012年4月28日",
"enterDate" : "384197:13:44",
"channelId" : "1362678720032962036",
"channelName" : "北京房产-房产企业",
"channelNameSummary" : "北京房产-房产企业",
"channelUrl" : "http:\/\/bj.house.sina.com.cn\/company2009-01-13\/index.html",
"author" : "WWW.SINA.COM.CN",
"tags" : [],
"desc" : "",
"emailed" : False,
"forwarded" : False,
"english" : False
}  , {
"index" : 19,
"articleIndex" : "10475",
"favor" :  False ,
     "read" : False,    
"title" : "周大福低价抛售金名都 港企或看淡内地楼市",
"titleTip" : "周大福低价抛售金名都 港企或看淡内地楼市",
"titleSummary" : "周大福低价抛售金名都 港企或看淡内地楼市",
"descSummary" : "",
"url" : "http:\/\/go.rss.sina.com.cn\/redirect.php?url=http:\/\/house.sina.com.cn\/2012\/04\/28\/482053.html?source=rss",
"pubDate" : "2012年4月28日",
"enterDate" : "384196:56:45",
"channelId" : "1362678720032962036",
"channelName" : "北京房产-房产企业",
"channelNameSummary" : "北京房产-房产企业",
"channelUrl" : "http:\/\/bj.house.sina.com.cn\/company2009-01-13\/index.html",
"author" : "WWW.SINA.COM.CN",
"tags" : [],
"desc" : "",
"emailed" : False,
"forwarded" : False,
"english" : False
} ]
}
