{
"mode" : {"viewTitle" : 1,   "viewNew" : 0,  "pageIndex" : 2 },
 "channel" : {"id" : "1362678720032962036", "booked" : False, "subNumber" : 1, "name" : "北京房产-房产企业", "url" : "http:\/\/bj.house.sina.com.cn\/company2009-01-13\/index.html", "feed" : "http:\/\/rss.sina.com.cn\/bjhouse\/fcqy.xml", "author" : "", "desc" : "北京房产-房产企业", "imageUrl" : "http:\/\/www.sinaimg.cn\/house\/sina_fc.gif", "postPerWeek" : "0", "lastCrawTime" : "17:07:25", "crawDateTime" : "昨天16:44:25", "lastHttpCode" : "304"}, "page" : {
"startIndex" : 20,
"totalCount" : 5000,
"pageIndex" : 2,
"lastPage" : 250,
"pageSize" : 20,
"english" :  False },
 "unreadNum" : 0, "shotIndex" : -1,
"articles" : [
{
"index" : 0,
"articleIndex" : "10466",
"favor" :  False ,
     "read" : False,    
"title" : "广东保利一季度销售逾55亿",
"titleTip" : "广东保利一季度销售逾55亿",
"titleSummary" : "广东保利一季度销售逾55亿",
"descSummary" : "提要：4月25日，广东保利在官方微博上表示，一季度分别夺得广州、东莞、...",
"url" : "http:\/\/go.rss.sina.com.cn\/redirect.php?url=http:\/\/house.sina.com.cn\/2012\/04\/28\/482303.html?source=rss",
"pubDate" : "2012年4月28日",
"enterDate" : "384201:11:41",
"channelId" : "1362678720032962036",
"channelName" : "北京房产-房产企业",
"channelNameSummary" : "北京房产-房产企业",
"channelUrl" : "http:\/\/bj.house.sina.com.cn\/company2009-01-13\/index.html",
"author" : "WWW.SINA.COM.CN",
"tags" : [],
"desc" : "提要：4月25日，广东保利在官方微博上表示，一季度分别夺得广州、东莞、珠海、佛山四城销售冠军，销售金额逾55亿元。4月26日消息，广汽集团近日以14亿元人民币的价格整体购入广州保利中达广场1号楼，用作集团总部；另外，保利今年在广州推出的高端豪宅项目保利天悦，截至4月中旬已....",
"emailed" : False,
"forwarded" : False,
"english" : False
}  , {
"index" : 1,
"articleIndex" : "10465",
"favor" :  False ,
     "read" : False,    
"title" : "中信新城公司总价52.4亿京地王是非法\u201C地王\u201D？",
"titleTip" : "中信新城公司总价52.4亿京地王是非法\u201C地王\u201D？",
"titleSummary" : "中信新城公司总价52.4亿京地王是非法\u201C地王\u201D？",
"descSummary" : "如今这块位于北京亦庄，编号X1-1B的\u201C地王\u201D已盖起了...",
"url" : "http:\/\/go.rss.sina.com.cn\/redirect.php?url=http:\/\/house.sina.com.cn\/2012\/04\/28\/482058_all.html?source=rss",
"pubDate" : "2012年4月28日",
"enterDate" : "384200:58:25",
"channelId" : "1362678720032962036",
"channelName" : "北京房产-房产企业",
"channelNameSummary" : "北京房产-房产企业",
"channelUrl" : "http:\/\/bj.house.sina.com.cn\/company2009-01-13\/index.html",
"author" : "WWW.SINA.COM.CN",
"tags" : [],
"desc" : "如今这块位于北京亦庄，编号X1-1B的\u201C地王\u201D已盖起了名为中信新城的小区，且已对外销售。李称，赛斯特公司拥有使用权的土地，明显包括在X1-1B地块的出让范围中，应该先把征地补偿谈妥，再行拍卖。",
"emailed" : False,
"forwarded" : False,
"english" : False
}  , {
"index" : 2,
"articleIndex" : "10464",
"favor" :  False ,
     "read" : False,    
"title" : "中信新城公司总价52.4亿京地王是非法\u201C地王\u201D？",
"titleTip" : "中信新城公司总价52.4亿京地王是非法\u201C地王\u201D？",
"titleSummary" : "中信新城公司总价52.4亿京地王是非法\u201C地王\u201D？",
"descSummary" : "提要：如今这块位于北京亦庄，编号X1-1B的\u201C地王\u201D已...",
"url" : "http:\/\/go.rss.sina.com.cn\/redirect.php?url=http:\/\/house.sina.com.cn\/2012\/04\/28\/482058.html?source=rss",
"pubDate" : "2012年4月28日",
"enterDate" : "384200:58:20",
"channelId" : "1362678720032962036",
"channelName" : "北京房产-房产企业",
"channelNameSummary" : "北京房产-房产企业",
"channelUrl" : "http:\/\/bj.house.sina.com.cn\/company2009-01-13\/index.html",
"author" : "WWW.SINA.COM.CN",
"tags" : [],
"desc" : "提要：如今这块位于北京亦庄，编号X1-1B的\u201C地王\u201D已盖起了名为中信新城的小区，且已对外销售。李称，赛斯特公司拥有使用权的土地，明显包括在X1-1B地块的出让范围中，应该先把征地补偿谈妥，再行拍卖。",
"emailed" : False,
"forwarded" : False,
"english" : False
}  , {
"index" : 3,
"articleIndex" : "10463",
"favor" :  False ,
     "read" : False,    
"title" : "四大房企一季度末存货超4500亿",
"titleTip" : "四大房企一季度末存货超4500亿",
"titleSummary" : "四大房企一季度末存货超4500亿",
"descSummary" : "",
"url" : "http:\/\/go.rss.sina.com.cn\/redirect.php?url=http:\/\/house.sina.com.cn\/2012\/04\/28\/482002.html?source=rss",
"pubDate" : "2012年4月28日",
"enterDate" : "384200:46:13",
"channelId" : "1362678720032962036",
"channelName" : "北京房产-房产企业",
"channelNameSummary" : "北京房产-房产企业",
"channelUrl" : "http:\/\/bj.house.sina.com.cn\/company2009-01-13\/index.html",
"author" : "WWW.SINA.COM.CN",
"tags" : [],
"desc" : "",
"emailed" : False,
"forwarded" : False,
"english" : False
}  , {
"index" : 4,
"articleIndex" : "10462",
"favor" :  False ,
     "read" : False,    
"title" : "雅居乐总部5月2日起迁入广州珠江新城",
"titleTip" : "雅居乐总部5月2日起迁入广州珠江新城",
"titleSummary" : "雅居乐总部5月2日起迁入广州珠江新城",
"descSummary" : "",
"url" : "http:\/\/go.rss.sina.com.cn\/redirect.php?url=http:\/\/house.sina.com.cn\/2012\/04\/27\/481961.html?source=rss",
"pubDate" : "2012年4月27日",
"enterDate" : "384201:02:12",
"channelId" : "1362678720032962036",
"channelName" : "北京房产-房产企业",
"channelNameSummary" : "北京房产-房产企业",
"channelUrl" : "http:\/\/bj.house.sina.com.cn\/company2009-01-13\/index.html",
"author" : "WWW.SINA.COM.CN",
"tags" : [],
"desc" : "",
"emailed" : False,
"forwarded" : False,
"english" : False
}  , {
"index" : 5,
"articleIndex" : "10461",
"favor" :  False ,
     "read" : False,    
"title" : "澳信集团5月进京办大型澳大利亚房产投资博览会",
"titleTip" : "澳信集团5月进京办大型澳大利亚房产投资博览会",
"titleSummary" : "澳信集团5月进京办大型澳大利亚房产投资博览会",
"descSummary" : "",
"url" : "http:\/\/go.rss.sina.com.cn\/redirect.php?url=http:\/\/house.sina.com.cn\/2012\/04\/27\/481936.html?source=rss",
"pubDate" : "2012年4月27日",
"enterDate" : "384200:50:30",
"channelId" : "1362678720032962036",
"channelName" : "北京房产-房产企业",
"channelNameSummary" : "北京房产-房产企业",
"channelUrl" : "http:\/\/bj.house.sina.com.cn\/company2009-01-13\/index.html",
"author" : "WWW.SINA.COM.CN",
"tags" : [],
"desc" : "",
"emailed" : False,
"forwarded" : False,
"english" : False
}  , {
"index" : 6,
"articleIndex" : "10460",
"favor" :  False ,
     "read" : False,    
"title" : "粤派百亿房企去年纳税共超百亿",
"titleTip" : "粤派百亿房企去年纳税共超百亿",
"titleSummary" : "粤派百亿房企去年纳税共超百亿",
"descSummary" : "",
"url" : "http:\/\/go.rss.sina.com.cn\/redirect.php?url=http:\/\/house.sina.com.cn\/2012\/04\/27\/481892.html?source=rss",
"pubDate" : "2012年4月27日",
"enterDate" : "384200:24:20",
"channelId" : "1362678720032962036",
"channelName" : "北京房产-房产企业",
"channelNameSummary" : "北京房产-房产企业",
"channelUrl" : "http:\/\/bj.house.sina.com.cn\/company2009-01-13\/index.html",
"author" : "WWW.SINA.COM.CN",
"tags" : [],
"desc" : "",
"emailed" : False,
"forwarded" : False,
"english" : False
}  , {
"index" : 7,
"articleIndex" : "10459",
"favor" :  False ,
     "read" : False,    
"title" : "金辉融侨城109\u2015190O奢华新品绽放大城号召力",
"titleTip" : "金辉融侨城109\u2015190O奢华新品绽放大城号召力",
"titleSummary" : "金辉融侨城109\u2015190O奢华新品绽放大城号召力",
"descSummary" : "",
"url" : "http:\/\/go.rss.sina.com.cn\/redirect.php?url=http:\/\/house.sina.com.cn\/2012\/04\/27\/481880.html?source=rss",
"pubDate" : "2012年4月27日",
"enterDate" : "384199:57:11",
"channelId" : "1362678720032962036",
"channelName" : "北京房产-房产企业",
"channelNameSummary" : "北京房产-房产企业",
"channelUrl" : "http:\/\/bj.house.sina.com.cn\/company2009-01-13\/index.html",
"author" : "WWW.SINA.COM.CN",
"tags" : [],
"desc" : "",
"emailed" : False,
"forwarded" : False,
"english" : False
}  , {
"index" : 8,
"articleIndex" : "10458",
"favor" :  False ,
     "read" : False,    
"title" : "如何向新浪乐居牡丹江站投稿",
"titleTip" : "如何向新浪乐居牡丹江站投稿",
"titleSummary" : "如何向新浪乐居牡丹江站投稿",
"descSummary" : "",
"url" : "http:\/\/go.rss.sina.com.cn\/redirect.php?url=http:\/\/house.sina.com.cn\/2012\/04\/27\/481866.html?source=rss",
"pubDate" : "2012年4月27日",
"enterDate" : "384201:04:25",
"channelId" : "1362678720032962036",
"channelName" : "北京房产-房产企业",
"channelNameSummary" : "北京房产-房产企业",
"channelUrl" : "http:\/\/bj.house.sina.com.cn\/company2009-01-13\/index.html",
"author" : "WWW.SINA.COM.CN",
"tags" : [],
"desc" : "",
"emailed" : False,
"forwarded" : False,
"english" : False
}  , {
"index" : 9,
"articleIndex" : "10457",
"favor" :  False ,
     "read" : False,    
"title" : "\u201C十万人看绿城样板活动\u201D4月27日正式揭幕",
"titleTip" : "\u201C十万人看绿城样板活动\u201D4月27日正式揭幕",
"titleSummary" : "\u201C十万人看绿城样板活动\u201D4月27日正式揭幕",
"descSummary" : "",
"url" : "http:\/\/go.rss.sina.com.cn\/redirect.php?url=http:\/\/house.sina.com.cn\/2012\/04\/27\/481856.html?source=rss",
"pubDate" : "2012年4月27日",
"enterDate" : "384200:57:33",
"channelId" : "1362678720032962036",
"channelName" : "北京房产-房产企业",
"channelNameSummary" : "北京房产-房产企业",
"channelUrl" : "http:\/\/bj.house.sina.com.cn\/company2009-01-13\/index.html",
"author" : "WWW.SINA.COM.CN",
"tags" : [],
"desc" : "",
"emailed" : False,
"forwarded" : False,
"english" : False
}  , {
"index" : 10,
"articleIndex" : "10456",
"favor" :  False ,
     "read" : False,    
"title" : "福布斯发布全球企业2000强 碧桂园入千强",
"titleTip" : "福布斯发布全球企业2000强 碧桂园入千强",
"titleSummary" : "福布斯发布全球企业2000强 碧桂园入千强",
"descSummary" : "",
"url" : "http:\/\/go.rss.sina.com.cn\/redirect.php?url=http:\/\/house.sina.com.cn\/2012\/04\/27\/481787.html?source=rss",
"pubDate" : "2012年4月27日",
"enterDate" : "384200:11:14",
"channelId" : "1362678720032962036",
"channelName" : "北京房产-房产企业",
"channelNameSummary" : "北京房产-房产企业",
"channelUrl" : "http:\/\/bj.house.sina.com.cn\/company2009-01-13\/index.html",
"author" : "WWW.SINA.COM.CN",
"tags" : [],
"desc" : "",
"emailed" : False,
"forwarded" : False,
"english" : False
}  , {
"index" : 11,
"articleIndex" : "10455",
"favor" :  False ,
     "read" : False,    
"title" : "亿城股份一季度营收8亿 同比增长158%",
"titleTip" : "亿城股份一季度营收8亿 同比增长158%",
"titleSummary" : "亿城股份一季度营收8亿 同比增长158%",
"descSummary" : "4月26日，亿城股份发布2012年一季度报告称，期内共实现营业收...",
"url" : "http:\/\/go.rss.sina.com.cn\/redirect.php?url=http:\/\/house.sina.com.cn\/2012\/04\/27\/481605_all.html?source=rss",
"pubDate" : "2012年4月27日",
"enterDate" : "384200:59:46",
"channelId" : "1362678720032962036",
"channelName" : "北京房产-房产企业",
"channelNameSummary" : "北京房产-房产企业",
"channelUrl" : "http:\/\/bj.house.sina.com.cn\/company2009-01-13\/index.html",
"author" : "WWW.SINA.COM.CN",
"tags" : [],
"desc" : "4月26日，亿城股份发布2012年一季度报告称，期内共实现营业收入8.01亿元，同比增长158.02%；实现净利润1.02亿元，同比增长393.35%；基本每股收益为0.09元，同比增长350%。公告显示，截止一季度末，亿城股份的存货为76.26亿元，相比去年同期小幅下降，资产负债率为62.81%。",
"emailed" : False,
"forwarded" : False,
"english" : False
}  , {
"index" : 12,
"articleIndex" : "10454",
"favor" :  False ,
     "read" : False,    
"title" : "亿城股份一季度营收8亿 同比增长158%",
"titleTip" : "亿城股份一季度营收8亿 同比增长158%",
"titleSummary" : "亿城股份一季度营收8亿 同比增长158%",
"descSummary" : "提要：4月26日，亿城股份发布2012年一季度报告称，期内共实现...",
"url" : "http:\/\/go.rss.sina.com.cn\/redirect.php?url=http:\/\/house.sina.com.cn\/2012\/04\/27\/481605.html?source=rss",
"pubDate" : "2012年4月27日",
"enterDate" : "384200:59:42",
"channelId" : "1362678720032962036",
"channelName" : "北京房产-房产企业",
"channelNameSummary" : "北京房产-房产企业",
"channelUrl" : "http:\/\/bj.house.sina.com.cn\/company2009-01-13\/index.html",
"author" : "WWW.SINA.COM.CN",
"tags" : [],
"desc" : "提要：4月26日，亿城股份发布2012年一季度报告称，期内共实现营业收入8.01亿元，同比增长158.02%；实现净利润1.02亿元，同比增长393.35%；基本每股收益为0.09元，同比增长350%。公告显示，截止一季度末，亿城股份的存货为76.26亿元，相比去年同期小幅下降，资产负债率为62.81%。",
"emailed" : False,
"forwarded" : False,
"english" : False
}  , {
"index" : 13,
"articleIndex" : "10453",
"favor" :  False ,
     "read" : False,    
"title" : "华侨城：需要既有短期收益又有长远目标的战略",
"titleTip" : "华侨城：需要既有短期收益又有长远目标的战略",
"titleSummary" : "华侨城：需要既有短期收益又有长远目标的战略",
"descSummary" : "当时采用了两个模式，其中，白金五星级华侨城大酒店和...",
"url" : "http:\/\/go.rss.sina.com.cn\/redirect.php?url=http:\/\/house.sina.com.cn\/2012\/04\/27\/481602_all.html?source=rss",
"pubDate" : "2012年4月27日",
"enterDate" : "384200:59:07",
"channelId" : "1362678720032962036",
"channelName" : "北京房产-房产企业",
"channelNameSummary" : "北京房产-房产企业",
"channelUrl" : "http:\/\/bj.house.sina.com.cn\/company2009-01-13\/index.html",
"author" : "WWW.SINA.COM.CN",
"tags" : [],
"desc" : "当时采用了两个模式，其中，白金五星级华侨城大酒店和五星威尼斯酒店是由洲际集团国际酒店管理公司来跟我们进行合作管理。深圳以后区外的白金五星和奢华五星仍然跟外方合作，能够获得品牌支持，能够吸取的人才队伍，团队的建设和所有好处还是能够继续获得。",
"emailed" : False,
"forwarded" : False,
"english" : False
}  , {
"index" : 14,
"articleIndex" : "10452",
"favor" :  False ,
     "read" : False,    
"title" : "华侨城：需要既有短期收益又有长远目标的战略",
"titleTip" : "华侨城：需要既有短期收益又有长远目标的战略",
"titleSummary" : "华侨城：需要既有短期收益又有长远目标的战略",
"descSummary" : "提要：当时采用了两个模式，其中，白金五星级华侨城大...",
"url" : "http:\/\/go.rss.sina.com.cn\/redirect.php?url=http:\/\/house.sina.com.cn\/2012\/04\/27\/481602.html?source=rss",
"pubDate" : "2012年4月27日",
"enterDate" : "384200:58:57",
"channelId" : "1362678720032962036",
"channelName" : "北京房产-房产企业",
"channelNameSummary" : "北京房产-房产企业",
"channelUrl" : "http:\/\/bj.house.sina.com.cn\/company2009-01-13\/index.html",
"author" : "WWW.SINA.COM.CN",
"tags" : [],
"desc" : "提要：当时采用了两个模式，其中，白金五星级华侨城大酒店和五星威尼斯酒店是由洲际集团国际酒店管理公司来跟我们进行合作管理。深圳以后区外的白金五星和奢华五星仍然跟外方合作，能够获得品牌支持，能够吸取的人才队伍，团队的建设和所有好处还是能够继续获得。",
"emailed" : False,
"forwarded" : False,
"english" : False
}  , {
"index" : 15,
"articleIndex" : "10451",
"favor" :  False ,
     "read" : False,    
"title" : "世联地产一季度净利润亏1290万元 同比倒退121.1%",
"titleTip" : "世联地产一季度净利润亏1290万元 同比倒退121.1%",
"titleSummary" : "世联地产一季度净利润亏1290万元 同比倒退121.1%",
"descSummary" : "4月25日晚间，世联地产披露2012年一季度业绩数据，...",
"url" : "http:\/\/go.rss.sina.com.cn\/redirect.php?url=http:\/\/house.sina.com.cn\/2012\/04\/27\/481593_all.html?source=rss",
"pubDate" : "2012年4月27日",
"enterDate" : "384200:54:29",
"channelId" : "1362678720032962036",
"channelName" : "北京房产-房产企业",
"channelNameSummary" : "北京房产-房产企业",
"channelUrl" : "http:\/\/bj.house.sina.com.cn\/company2009-01-13\/index.html",
"author" : "WWW.SINA.COM.CN",
"tags" : [],
"desc" : "4月25日晚间，世联地产披露2012年一季度业绩数据，报告期内，公司营业总收入2.77亿元，归属于上市公司股东的净利润为亏损1290.5万元，分别同比下跌20.50%和121.10%。因归属于上市公司股东的净利润的同比下降同时也影响到基本每股收益和稀释每股收益的变动，两项每股收益均比上年同....",
"emailed" : False,
"forwarded" : False,
"english" : False
}  , {
"index" : 16,
"articleIndex" : "10450",
"favor" :  False ,
     "read" : False,    
"title" : "世联地产一季度净利润亏1290万元 同比倒退121.1%",
"titleTip" : "世联地产一季度净利润亏1290万元 同比倒退121.1%",
"titleSummary" : "世联地产一季度净利润亏1290万元 同比倒退121.1%",
"descSummary" : "提要：4月25日晚间，世联地产披露2012年一季度业绩...",
"url" : "http:\/\/go.rss.sina.com.cn\/redirect.php?url=http:\/\/house.sina.com.cn\/2012\/04\/27\/481593.html?source=rss",
"pubDate" : "2012年4月27日",
"enterDate" : "384200:54:22",
"channelId" : "1362678720032962036",
"channelName" : "北京房产-房产企业",
"channelNameSummary" : "北京房产-房产企业",
"channelUrl" : "http:\/\/bj.house.sina.com.cn\/company2009-01-13\/index.html",
"author" : "WWW.SINA.COM.CN",
"tags" : [],
"desc" : "提要：4月25日晚间，世联地产披露2012年一季度业绩数据，报告期内，公司营业总收入2.77亿元，归属于上市公司股东的净利润为亏损1290.5万元，分别同比下跌20.50%和121.10%。因归属于上市公司股东的净利润的同比下降同时也影响到基本每股收益和稀释每股收益的变动，两项每股收益均比....",
"emailed" : False,
"forwarded" : False,
"english" : False
}  , {
"index" : 17,
"articleIndex" : "10449",
"favor" :  False ,
     "read" : False,    
"title" : "佳兆业：暂无降价促销及发债的计划",
"titleTip" : "佳兆业：暂无降价促销及发债的计划",
"titleSummary" : "佳兆业：暂无降价促销及发债的计划",
"descSummary" : "佳兆业集团4月26日表示，目前公司旗下楼盘暂时没有降价促销的计...",
"url" : "http:\/\/go.rss.sina.com.cn\/redirect.php?url=http:\/\/house.sina.com.cn\/2012\/04\/27\/481594_all.html?source=rss",
"pubDate" : "2012年4月27日",
"enterDate" : "384200:54:18",
"channelId" : "1362678720032962036",
"channelName" : "北京房产-房产企业",
"channelNameSummary" : "北京房产-房产企业",
"channelUrl" : "http:\/\/bj.house.sina.com.cn\/company2009-01-13\/index.html",
"author" : "WWW.SINA.COM.CN",
"tags" : [],
"desc" : "佳兆业集团4月26日表示，目前公司旗下楼盘暂时没有降价促销的计划，具体售价会根据个别地区作调整，从而采取随行就市的方式。佳兆业近日还向外界表示，将于4月下旬到整个5月，向市场推出价值百亿的房源，主推80至120平方米的中小户型。",
"emailed" : False,
"forwarded" : False,
"english" : False
}  , {
"index" : 18,
"articleIndex" : "10448",
"favor" :  False ,
     "read" : False,    
"title" : "佳兆业：暂无降价促销及发债的计划",
"titleTip" : "佳兆业：暂无降价促销及发债的计划",
"titleSummary" : "佳兆业：暂无降价促销及发债的计划",
"descSummary" : "提要：佳兆业集团4月26日表示，目前公司旗下楼盘暂时没有降价促...",
"url" : "http:\/\/go.rss.sina.com.cn\/redirect.php?url=http:\/\/house.sina.com.cn\/2012\/04\/27\/481594.html?source=rss",
"pubDate" : "2012年4月27日",
"enterDate" : "384200:54:12",
"channelId" : "1362678720032962036",
"channelName" : "北京房产-房产企业",
"channelNameSummary" : "北京房产-房产企业",
"channelUrl" : "http:\/\/bj.house.sina.com.cn\/company2009-01-13\/index.html",
"author" : "WWW.SINA.COM.CN",
"tags" : [],
"desc" : "提要：佳兆业集团4月26日表示，目前公司旗下楼盘暂时没有降价促销的计划，具体售价会根据个别地区作调整，从而采取随行就市的方式。佳兆业近日还向外界表示，将于4月下旬到整个5月，向市场推出价值百亿的房源，主推80至120平方米的中小户型。",
"emailed" : False,
"forwarded" : False,
"english" : False
}  , {
"index" : 19,
"articleIndex" : "10447",
"favor" :  False ,
     "read" : False,    
"title" : "绿城未来6至12个月的合同销售可能将维持疲软",
"titleTip" : "绿城未来6至12个月的合同销售可能将维持疲软",
"titleSummary" : "绿城未来6至12个月的合同销售可能将维持疲软",
"descSummary" : "标准普尔评级服务4月26日宣布，将绿城中国的长期企业信...",
"url" : "http:\/\/go.rss.sina.com.cn\/redirect.php?url=http:\/\/house.sina.com.cn\/2012\/04\/27\/481587_all.html?source=rss",
"pubDate" : "2012年4月27日",
"enterDate" : "384200:50:16",
"channelId" : "1362678720032962036",
"channelName" : "北京房产-房产企业",
"channelNameSummary" : "北京房产-房产企业",
"channelUrl" : "http:\/\/bj.house.sina.com.cn\/company2009-01-13\/index.html",
"author" : "WWW.SINA.COM.CN",
"tags" : [],
"desc" : "标准普尔评级服务4月26日宣布，将绿城中国的长期企业信用评级由\u201CB-\u201D下调至\u201CCCC+\u201D，展望负面。标普的上述观点基于以下预期：绿城中国的物业销售可能疲弱，大规模建设支出需求和预料紧张的银行信贷。",
"emailed" : False,
"forwarded" : False,
"english" : False
} ]
}
