{
"mode" : {"viewTitle" : 1,   "viewNew" : 0,  "pageIndex" : 1 },
 "channel" : {"id" : "1951069878543014279", "booked" : False, "subNumber" : 1, "name" : "文化教育焦点新闻-新浪教育", "url" : "http:\/\/edu.sina.com.cn\/rss\/index.html", "feed" : "http:\/\/rss.sina.com.cn\/edu\/focus19.xml", "author" : "WWW.SINA.COM.CN", "desc" : "文化教育-焦点新闻", "imageUrl" : "http:\/\/www.sinaimg.cn\/home\/deco\/2009\/0330\/logo_home_edu.gif", "postPerWeek" : "0", "lastCrawTime" : "16:52:46", "crawDateTime" : "16:52:46", "lastHttpCode" : "200"}, "page" : {
"startIndex" : 0,
"totalCount" : 5000,
"pageIndex" : 1,
"lastPage" : 250,
"pageSize" : 20,
"english" :  False },
 "unreadNum" : 0, "shotIndex" : -1,
"articles" : [
{
"index" : 0,
"articleIndex" : "9455",
"favor" :  False ,
     "read" : False,    
"title" : "\u201C烤鸭\u201D必读：托福110分的备考秘籍",
"titleTip" : "\u201C烤鸭\u201D必读：托福110分的备考秘籍",
"titleSummary" : "\u201C烤鸭\u201D必读：托福110分的备考秘籍",
"descSummary" : "如果不是大牛，请牢记：一份耕耘一分收获。托福还是很科学的，比...",
"url" : "http:\/\/go.rss.sina.com.cn\/redirect.php?url=http:\/\/edu.sina.com.cn\/yyks\/2013-10-30\/1642399816.shtml",
"pubDate" : "16:42:12",
"enterDate" : "384201:09:19",
"channelId" : "1951069878543014279",
"channelName" : "文化教育焦点新闻-新浪教育",
"channelNameSummary" : "文化教育焦点新闻-新...",
"channelUrl" : "http:\/\/edu.sina.com.cn\/rss\/index.html",
"author" : "WWW.SINA.COM.CN",
"tags" : [],
"desc" : "如果不是大牛，请牢记：一份耕耘一分收获。托福还是很科学的，比较依据考试者的英语水平的：请相信你有一百分的实力你就不会考出八十分的成绩。 如果你觉得自己在瓶颈期：请相信：坚持就是胜利，也许只要多积累一天，你就能有质的飞跃。 如果你像曾经的我一般担....",
"emailed" : False,
"forwarded" : False,
"english" : False
}  , {
"index" : 1,
"articleIndex" : "9454",
"favor" :  False ,
     "read" : False,    
"title" : "公务员的\u201C性价比\u201D为何这么高？",
"titleTip" : "公务员的\u201C性价比\u201D为何这么高？",
"titleSummary" : "公务员的\u201C性价比\u201D为何这么高？",
"descSummary" : "1 0月23日\u201C世相圈点\u201D《国考热何以多年没降温》，指出年轻人现在...",
"url" : "http:\/\/go.rss.sina.com.cn\/redirect.php?url=http:\/\/edu.sina.com.cn\/official\/2013-10-30\/1637399815.shtml",
"pubDate" : "16:37:06",
"enterDate" : "384201:04:13",
"channelId" : "1951069878543014279",
"channelName" : "文化教育焦点新闻-新浪教育",
"channelNameSummary" : "文化教育焦点新闻-新...",
"channelUrl" : "http:\/\/edu.sina.com.cn\/rss\/index.html",
"author" : "WWW.SINA.COM.CN",
"tags" : [],
"desc" : "1 0月23日\u201C世相圈点\u201D《国考热何以多年没降温》，指出年轻人现在争着报考公务员，\u201C折射出社会保障体系还不够健全、鼓励创业的机制还不够完善等诸多问题\u201D。笔者赞成这个看法，但同时认为，千军万马争过独木桥，最主要的原因，还是公务员这个饭碗本身太吸引人了。 统....",
"emailed" : False,
"forwarded" : False,
"english" : False
}  , {
"index" : 2,
"articleIndex" : "9453",
"favor" :  False ,
     "read" : False,    
"title" : "经验分享：尖子生如何备战期中考",
"titleTip" : "经验分享：尖子生如何备战期中考",
"titleSummary" : "经验分享：尖子生如何备战期中考",
"descSummary" : "本文选自《迷鹿Sheila》的博客，请点击查看博客原文。期中考进入倒...",
"url" : "http:\/\/go.rss.sina.com.cn\/redirect.php?url=http:\/\/edu.sina.com.cn\/zhongkao\/2013-10-30\/1615399809.shtml",
"pubDate" : "16:15:58",
"enterDate" : "384201:13:09",
"channelId" : "1951069878543014279",
"channelName" : "文化教育焦点新闻-新浪教育",
"channelNameSummary" : "文化教育焦点新闻-新...",
"channelUrl" : "http:\/\/edu.sina.com.cn\/rss\/index.html",
"author" : "WWW.SINA.COM.CN",
"tags" : [],
"desc" : "本文选自《迷鹿Sheila》的博客，请点击查看博客原文。 期中考进入倒计时，在这段时间，考生该制订怎样的复习计划？如何提高备考质量释放考试压力？下面的这两招也许会让想突破自己的你能实现自己的理想。 错题本，最好的复习资料 在平时考试中，绝大部分题难....",
"emailed" : False,
"forwarded" : False,
"english" : False
}  , {
"index" : 3,
"articleIndex" : "9452",
"favor" :  False ,
     "read" : False,    
"title" : "消除疲劳有三招 助你高效备战中考",
"titleTip" : "消除疲劳有三招 助你高效备战中考",
"titleSummary" : "消除疲劳有三招 助你高效备战中考",
"descSummary" : "本文选自《迷鹿Sheila》的博客，请点击查看博客原文。2014年中考正...",
"url" : "http:\/\/go.rss.sina.com.cn\/redirect.php?url=http:\/\/edu.sina.com.cn\/zhongkao\/2013-10-30\/1612399806.shtml",
"pubDate" : "16:12:35",
"enterDate" : "384201:09:46",
"channelId" : "1951069878543014279",
"channelName" : "文化教育焦点新闻-新浪教育",
"channelNameSummary" : "文化教育焦点新闻-新...",
"channelUrl" : "http:\/\/edu.sina.com.cn\/rss\/index.html",
"author" : "WWW.SINA.COM.CN",
"tags" : [],
"desc" : "本文选自《迷鹿Sheila》的博客，请点击查看博客原文。 2014年中考正跟随着时间的脚步在向初三学子们慢慢地逼近，而中考\u201C保卫战\u201D早已经打响。堆满书的桌边，是考生们埋首苦读的身影。距离中考还有好几个月，在这么高强度的复习中，考生们难免会感到疲劳？而疲劳又难免会影....",
"emailed" : False,
"forwarded" : False,
"english" : False
}  , {
"index" : 4,
"articleIndex" : "9451",
"favor" :  False ,
     "read" : False,    
"title" : "湘考研报名31日21时前须网上缴费不再补报",
"titleTip" : "湘考研报名31日21时前须网上缴费不再补报",
"titleSummary" : "湘考研报名31日21时前须网上缴费不再补报",
"descSummary" : "本报10月29日讯 省教育考试院发布消息，2014年硕士研究生...",
"url" : "http:\/\/go.rss.sina.com.cn\/redirect.php?url=http:\/\/edu.sina.com.cn\/kaoyan\/2013-10-30\/1544399801.shtml",
"pubDate" : "15:44:42",
"enterDate" : "384201:11:59",
"channelId" : "1951069878543014279",
"channelName" : "文化教育焦点新闻-新浪教育",
"channelNameSummary" : "文化教育焦点新闻-新...",
"channelUrl" : "http:\/\/edu.sina.com.cn\/rss\/index.html",
"author" : "WWW.SINA.COM.CN",
"tags" : [],
"desc" : "本报10月29日讯&#160;&#160;省教育考试院发布消息，2014年硕士研究生招生考试网上报名将于10月31日结束，目前，我省已有8.1万人进行了网上报名。按照教育部规定，今年现场确认期间不再进行补报名。省教育考试院提醒尚未进行网上缴费的考生，务必在10月31日21时前，通过硕士研....",
"emailed" : False,
"forwarded" : False,
"english" : False
}  , {
"index" : 5,
"articleIndex" : "9450",
"favor" :  False ,
     "read" : False,    
"title" : "中考语文成语改错200题及答案解析",
"titleTip" : "中考语文成语改错200题及答案解析",
"titleSummary" : "中考语文成语改错200题及答案解析",
"descSummary" : "001、关怀倍至()002、随声附和()003、巧妆打扮() 004、记忆尤新()00...",
"url" : "http:\/\/go.rss.sina.com.cn\/redirect.php?url=http:\/\/edu.sina.com.cn\/zhongkao\/2013-10-30\/1508399791.shtml",
"pubDate" : "15:08:14",
"enterDate" : "384201:05:36",
"channelId" : "1951069878543014279",
"channelName" : "文化教育焦点新闻-新浪教育",
"channelNameSummary" : "文化教育焦点新闻-新...",
"channelUrl" : "http:\/\/edu.sina.com.cn\/rss\/index.html",
"author" : "WWW.SINA.COM.CN",
"tags" : [],
"desc" : "001、关怀倍至()002、随声附和()003、巧妆打扮() 004、记忆尤新()005、挺而走险()006、融汇贯通() 007、并行不背()008、略见一般()009、宽洪大量() 010、无耻滥言()011、世外桃园()012、伶牙利齿() 013、汗流夹背()014、轰堂大笑()015、名列前矛(....",
"emailed" : False,
"forwarded" : False,
"english" : False
}  , {
"index" : 6,
"articleIndex" : "9449",
"favor" :  False ,
     "read" : False,    
"title" : "周日起青岛考研网上缴费 不再接受现场缴费",
"titleTip" : "周日起青岛考研网上缴费 不再接受现场缴费",
"titleSummary" : "周日起青岛考研网上缴费 不再接受现场缴费",
"descSummary" : "半岛都市报10月29日讯(记者 单俊楠) 青岛市招考办29日发出...",
"url" : "http:\/\/go.rss.sina.com.cn\/redirect.php?url=http:\/\/edu.sina.com.cn\/kaoyan\/2013-10-30\/1451399790.shtml",
"pubDate" : "14:51:01",
"enterDate" : "384200:48:23",
"channelId" : "1951069878543014279",
"channelName" : "文化教育焦点新闻-新浪教育",
"channelNameSummary" : "文化教育焦点新闻-新...",
"channelUrl" : "http:\/\/edu.sina.com.cn\/rss\/index.html",
"author" : "WWW.SINA.COM.CN",
"tags" : [],
"desc" : "半岛都市报10月29日讯(记者 单俊楠) 青岛市招考办29日发出提醒，根据山东省教育招生考试院的规定，明年全国硕士研究生招生考试报名首次实行网上缴费，不再接受现场缴费。青岛市招考办报考点网上缴费时间为2013年11月3日至8日，缴费网址为http：\/\/124.128.62.12\/yjsjf\/。 ....",
"emailed" : False,
"forwarded" : False,
"english" : False
}  , {
"index" : 7,
"articleIndex" : "9448",
"favor" :  False ,
     "read" : False,    
"title" : "专家：男孩缺父爱易导致女性化倾向(图)",
"titleTip" : "专家：男孩缺父爱易导致女性化倾向(图)",
"titleSummary" : "专家：男孩缺父爱易导致女性化倾向(图)",
"descSummary" : "亲子节目受捧 近期，电视亲子节目《爸爸去哪儿》大热，也让爸...",
"url" : "http:\/\/go.rss.sina.com.cn\/redirect.php?url=http:\/\/edu.sina.com.cn\/zxx\/2013-10-30\/1358399785.shtml",
"pubDate" : "13:58:59",
"enterDate" : "384200:26:26",
"channelId" : "1951069878543014279",
"channelName" : "文化教育焦点新闻-新浪教育",
"channelNameSummary" : "文化教育焦点新闻-新...",
"channelUrl" : "http:\/\/edu.sina.com.cn\/rss\/index.html",
"author" : "WWW.SINA.COM.CN",
"tags" : [],
"desc" : "亲子节目受捧 近期，电视亲子节目《爸爸去哪儿》大热，也让爸爸在孩子成长中的重要性、教育缺位等问题成为观众讨论的热点。昨日，华西城市读本记者带着这些热点问题采访了宜宾学院教师教育学院副院长何奎莲，她认为父亲对孩子的成长作用巨大，要让孩子感受到父爱。&#160;....",
"emailed" : False,
"forwarded" : False,
"english" : False
}  , {
"index" : 8,
"articleIndex" : "9447",
"favor" :  False ,
     "read" : False,    
"title" : "东莞一学校校规严厉遭吐槽：被打也要开除",
"titleTip" : "东莞一学校校规严厉遭吐槽：被打也要开除",
"titleSummary" : "东莞一学校校规严厉遭吐槽：被打也要开除",
"descSummary" : "东莞一学校校规称若打架斗殴，被打的也要开除，网友吐槽太...",
"url" : "http:\/\/go.rss.sina.com.cn\/redirect.php?url=http:\/\/edu.sina.com.cn\/zxx\/2013-10-30\/1145399771.shtml",
"pubDate" : "11:45:08",
"enterDate" : "384198:12:35",
"channelId" : "1951069878543014279",
"channelName" : "文化教育焦点新闻-新浪教育",
"channelNameSummary" : "文化教育焦点新闻-新...",
"channelUrl" : "http:\/\/edu.sina.com.cn\/rss\/index.html",
"author" : "WWW.SINA.COM.CN",
"tags" : [],
"desc" : "东莞一学校校规称若打架斗殴，被打的也要开除，网友吐槽太严了 校方解释：学生打架竟用刀和铁棍 \u201C打架斗殴，打人的和被打的都开除；抽烟一次留校察看，两次开除；仪容仪表检查三次不合格开除\u2026\u2026\u201D在严厉的校规下，东莞市技师学院职教城校区开学两个月来开除....",
"emailed" : False,
"forwarded" : False,
"english" : False
}  , {
"index" : 9,
"articleIndex" : "9442",
"favor" :  False ,
     "read" : False,    
"title" : "国家公务员考试11月2日起确认缴费",
"titleTip" : "国家公务员考试11月2日起确认缴费",
"titleSummary" : "国家公务员考试11月2日起确认缴费",
"descSummary" : "北京考试报讯(记者 蔡文玲)2014年国家公务员招考网上报名日前结束...",
"url" : "http:\/\/go.rss.sina.com.cn\/redirect.php?url=http:\/\/edu.sina.com.cn\/official\/2013-10-30\/1137399769.shtml",
"pubDate" : "11:37:07",
"enterDate" : "384200:34:59",
"channelId" : "1951069878543014279",
"channelName" : "文化教育焦点新闻-新浪教育",
"channelNameSummary" : "文化教育焦点新闻-新...",
"channelUrl" : "http:\/\/edu.sina.com.cn\/rss\/index.html",
"author" : "WWW.SINA.COM.CN",
"tags" : [],
"desc" : "北京考试报讯(记者 蔡文玲)2014年国家公务员招考网上报名日前结束。通过资格审查的人数超过140万。11月2日起，已经通过报名审查的考生要及时完成网上确认及缴费。 报名确认采取网上确认的方式。11月2日9时至7日16时，考生在所选考区考试机构网站进行网上报名确认及缴费....",
"emailed" : False,
"forwarded" : False,
"english" : False
}  , {
"index" : 10,
"articleIndex" : "9446",
"favor" :  False ,
     "read" : False,    
"title" : "武汉一小学集体拜佛许愿 领导跪拜学生模仿",
"titleTip" : "武汉一小学集体拜佛许愿 领导跪拜学生模仿",
"titleSummary" : "武汉一小学集体拜佛许愿 领导跪拜学生模仿",
"descSummary" : "楚天金报讯(首席记者 周寿江)昨日，网友\u201C@踏歌行4\u201D向本...",
"url" : "http:\/\/go.rss.sina.com.cn\/redirect.php?url=http:\/\/edu.sina.com.cn\/zxx\/2013-10-30\/1135399768.shtml",
"pubDate" : "11:35:32",
"enterDate" : "384198:02:59",
"channelId" : "1951069878543014279",
"channelName" : "文化教育焦点新闻-新浪教育",
"channelNameSummary" : "文化教育焦点新闻-新...",
"channelUrl" : "http:\/\/edu.sina.com.cn\/rss\/index.html",
"author" : "WWW.SINA.COM.CN",
"tags" : [],
"desc" : "楚天金报讯(首席记者 周寿江)昨日，网友\u201C@踏歌行4\u201D向本报报料说：江岸一小学组织学生集体参观江夏某寺拜佛许愿，领导跪拜，学生模仿。当天，当事学校在受访时称，确实组织了该校400名小学生到江夏龙泉山参加实践，\u201C但因工作上的漏洞\u201D，出现了一些未料想到的情况。\u201C@踏歌....",
"emailed" : False,
"forwarded" : False,
"english" : False
}  , {
"index" : 11,
"articleIndex" : "9441",
"favor" :  False ,
     "read" : False,    
"title" : "书呆子和聪明的学生一样 但为啥不受欢迎？",
"titleTip" : "书呆子和聪明的学生一样 但为啥不受欢迎？",
"titleSummary" : "书呆子和聪明的学生一样 但为啥不受欢迎？",
"descSummary" : "书呆子不受欢迎的真正原因，是他们脑子里想着别的事情。...",
"url" : "http:\/\/go.rss.sina.com.cn\/redirect.php?url=http:\/\/edu.sina.com.cn\/ischool\/2013-10-30\/1100399764.shtml",
"pubDate" : "11:00:12",
"enterDate" : "384195:57:23",
"channelId" : "1951069878543014279",
"channelName" : "文化教育焦点新闻-新浪教育",
"channelNameSummary" : "文化教育焦点新闻-新...",
"channelUrl" : "http:\/\/edu.sina.com.cn\/rss\/index.html",
"author" : "WWW.SINA.COM.CN",
"tags" : [],
"desc" : "书呆子不受欢迎的真正原因，是他们脑子里想着别的事情。他们的注意力都放在读书或者观察世界上面，而不是放在穿衣打扮、开晚会上面。他们就像头顶一杯水来踢足球，一边踢球，一边拼命保持不让水洒出来。其他人都在一门心思玩足球，遇到这样的对手，自然能够毫不费力地击败，并....",
"emailed" : False,
"forwarded" : False,
"english" : False
}  , {
"index" : 12,
"articleIndex" : "9445",
"favor" :  False ,
     "read" : False,    
"title" : "北京一小学推出\u201C男子汉培养计划\u201D(图)",
"titleTip" : "北京一小学推出\u201C男子汉培养计划\u201D(图)",
"titleSummary" : "北京一小学推出\u201C男子汉培养计划\u201D(图)",
"descSummary" : "朝阳实验小学的男孩们正在进行拔河比赛。本报特约摄影 董德 朝...",
"url" : "http:\/\/go.rss.sina.com.cn\/redirect.php?url=http:\/\/edu.sina.com.cn\/zxx\/2013-10-30\/1052399763.shtml",
"pubDate" : "10:52:46",
"enterDate" : "384197:20:13",
"channelId" : "1951069878543014279",
"channelName" : "文化教育焦点新闻-新浪教育",
"channelNameSummary" : "文化教育焦点新闻-新...",
"channelUrl" : "http:\/\/edu.sina.com.cn\/rss\/index.html",
"author" : "WWW.SINA.COM.CN",
"tags" : [],
"desc" : "朝阳实验小学的男孩们正在进行拔河比赛。本报特约摄影 董德 朝阳实验小学推出一项\u201C男子汉培养计划\u201D，给全校男孩加\u201C钢\u201D。 上课铃声响过，朝阳实验小学操场上热闹起来，男孩子们有踢足球的，有拔河的，有攀岩的，还有练武术的\u2026\u2026秋风萧瑟，穿着薄冬衣尚嫌冷，而....",
"emailed" : False,
"forwarded" : False,
"english" : False
}  , {
"index" : 13,
"articleIndex" : "9444",
"favor" :  False ,
     "read" : False,    
"title" : "厦门中学定恋爱标准：男女生一起闲逛即恋爱",
"titleTip" : "厦门中学定恋爱标准：男女生一起闲逛即恋爱",
"titleSummary" : "厦门中学定恋爱标准：男女生一起闲逛即恋爱",
"descSummary" : "禁止早恋邓慧祥\/绘 @东南快报：\u201C无论男女，单独约会去...",
"url" : "http:\/\/go.rss.sina.com.cn\/redirect.php?url=http:\/\/edu.sina.com.cn\/zxx\/2013-10-30\/1052399762.shtml",
"pubDate" : "10:52:18",
"enterDate" : "384197:19:45",
"channelId" : "1951069878543014279",
"channelName" : "文化教育焦点新闻-新浪教育",
"channelNameSummary" : "文化教育焦点新闻-新...",
"channelUrl" : "http:\/\/edu.sina.com.cn\/rss\/index.html",
"author" : "WWW.SINA.COM.CN",
"tags" : [],
"desc" : "禁止早恋邓慧祥\/绘 @东南快报：\u201C无论男女，单独约会去逛公园或一起去玩或以补习为借口，均视为谈恋爱。\u201D昨日，厦门市一所中学的一条关于如何界定男女生谈恋爱的征求意见稿在网络疯传，其中涉及到男女手拉手、两人一起闲逛等情况，均视为谈恋爱的行为，也引发网友热议，有....",
"emailed" : False,
"forwarded" : False,
"english" : False
}  , {
"index" : 14,
"articleIndex" : "9443",
"favor" :  False ,
     "read" : False,    
"title" : "晚上怎么睡 年轻妈妈把儿子\u201C赶\u201D下床",
"titleTip" : "晚上怎么睡 年轻妈妈把儿子\u201C赶\u201D下床",
"titleSummary" : "晚上怎么睡 年轻妈妈把儿子\u201C赶\u201D下床",
"descSummary" : "\u201C儿童房总算布置好了，儿子终于不用再跟我们挤在一起睡了。\u201D...",
"url" : "http:\/\/go.rss.sina.com.cn\/redirect.php?url=http:\/\/edu.sina.com.cn\/zxx\/2013-10-30\/1049399761.shtml",
"pubDate" : "10:49:26",
"enterDate" : "384197:16:53",
"channelId" : "1951069878543014279",
"channelName" : "文化教育焦点新闻-新浪教育",
"channelNameSummary" : "文化教育焦点新闻-新...",
"channelUrl" : "http:\/\/edu.sina.com.cn\/rss\/index.html",
"author" : "WWW.SINA.COM.CN",
"tags" : [],
"desc" : "\u201C儿童房总算布置好了，儿子终于不用再跟我们挤在一起睡了。\u201D80后妈妈肖女士昨日告诉记者。在她看来，儿子已经4岁半了，早该拥有自己的房间，再跟家长挤在一张床上睡觉不利于其成长。记者在本报幼儿家长qq群里作了随机调查，发现超过六成的家长晚上习惯陪孩子睡觉，少数家庭....",
"emailed" : False,
"forwarded" : False,
"english" : False
}  , {
"index" : 15,
"articleIndex" : "9440",
"favor" :  False ,
     "read" : False,    
"title" : "公务员故事：夫妻都加班都没有加班费",
"titleTip" : "公务员故事：夫妻都加班都没有加班费",
"titleSummary" : "公务员故事：夫妻都加班都没有加班费",
"descSummary" : "亚心网讯(记者 李鹏)10月16日，当很多人还在享受古尔邦节假期...",
"url" : "http:\/\/go.rss.sina.com.cn\/redirect.php?url=http:\/\/edu.sina.com.cn\/official\/2013-10-30\/0948399750.shtml",
"pubDate" : "09:48:09",
"enterDate" : "384200:46:21",
"channelId" : "1951069878543014279",
"channelName" : "文化教育焦点新闻-新浪教育",
"channelNameSummary" : "文化教育焦点新闻-新...",
"channelUrl" : "http:\/\/edu.sina.com.cn\/rss\/index.html",
"author" : "WWW.SINA.COM.CN",
"tags" : [],
"desc" : "亚心网讯(记者 李鹏)10月16日，当很多人还在享受古尔邦节假期的时候，在乌鲁木齐市政府机关上班的王晓峰已经早早来到了单位，打开办公室的电脑，看着一堆要整理的材料，他长长地叹了口气说：\u201C和国庆节一样，古尔邦节也泡汤了。\u201D 国庆节加古尔邦节，双节连休的这个10....",
"emailed" : False,
"forwarded" : False,
"english" : False
}  , {
"index" : 16,
"articleIndex" : "9439",
"favor" :  False ,
     "read" : False,    
"title" : "听力高分技巧分享：托福听力六大\u201C宝\u201D",
"titleTip" : "听力高分技巧分享：托福听力六大\u201C宝\u201D",
"titleSummary" : "听力高分技巧分享：托福听力六大\u201C宝\u201D",
"descSummary" : "以下各部用时根据自己情况把握为佳，我还有个建议是练习(不...",
"url" : "http:\/\/go.rss.sina.com.cn\/redirect.php?url=http:\/\/edu.sina.com.cn\/yyks\/2013-10-30\/0913399748.shtml",
"pubDate" : "09:13:11",
"enterDate" : "384201:11:31",
"channelId" : "1951069878543014279",
"channelName" : "文化教育焦点新闻-新浪教育",
"channelNameSummary" : "文化教育焦点新闻-新...",
"channelUrl" : "http:\/\/edu.sina.com.cn\/rss\/index.html",
"author" : "WWW.SINA.COM.CN",
"tags" : [],
"desc" : "以下各部用时根据自己情况把握为佳，我还有个建议是练习(不是模考)时把短对话和段子分开，分而治之。 第一宝：边看边听 第一次接触托福的菜鸟大多是错到 lost an arm and a leg :) 。边看听力文字边听的目的就是熟悉美音和T的速度，为以后打基础。 第二....",
"emailed" : False,
"forwarded" : False,
"english" : False
}  , {
"index" : 17,
"articleIndex" : "9438",
"favor" :  False ,
     "read" : False,    
"title" : "\u201C烤鸭\u201D必读：八招搞定雅思口语考官",
"titleTip" : "\u201C烤鸭\u201D必读：八招搞定雅思口语考官",
"titleSummary" : "\u201C烤鸭\u201D必读：八招搞定雅思口语考官",
"descSummary" : "很多同学在应付笔试方面的能力令人叹服，他们在TOFEL,GRE等...",
"url" : "http:\/\/go.rss.sina.com.cn\/redirect.php?url=http:\/\/edu.sina.com.cn\/yyks\/2013-10-30\/0908399746.shtml",
"pubDate" : "09:08:28",
"enterDate" : "384201:06:48",
"channelId" : "1951069878543014279",
"channelName" : "文化教育焦点新闻-新浪教育",
"channelNameSummary" : "文化教育焦点新闻-新...",
"channelUrl" : "http:\/\/edu.sina.com.cn\/rss\/index.html",
"author" : "WWW.SINA.COM.CN",
"tags" : [],
"desc" : "很多同学在应付笔试方面的能力令人叹服，他们在TOFEL,GRE等诸类考试中所取得的成绩，即使是以英语为母语的人也只能望其项背。然而在面 对 IELTS口语考试时，他们的表现就不尽如人意了。除了语言知识的储备外，下面这些小提示，希望可以帮到正在为雅思口试而拼搏的你。 ....",
"emailed" : False,
"forwarded" : False,
"english" : False
}  , {
"index" : 18,
"articleIndex" : "9437",
"favor" :  False ,
     "read" : False,    
"title" : "2013年下半年CATTI考试准考证打印时间汇总",
"titleTip" : "2013年下半年CATTI考试准考证打印时间汇总",
"titleSummary" : "2013年下半年CATTI考试准考证打印时间汇总",
"descSummary" : "各省市翻译资格考试准考证打印时间汇总 省份 准考证打印时...",
"url" : "http:\/\/go.rss.sina.com.cn\/redirect.php?url=http:\/\/edu.sina.com.cn\/yyks\/2013-10-30\/0902399744.shtml",
"pubDate" : "09:02:44",
"enterDate" : "384201:01:04",
"channelId" : "1951069878543014279",
"channelName" : "文化教育焦点新闻-新浪教育",
"channelNameSummary" : "文化教育焦点新闻-新...",
"channelUrl" : "http:\/\/edu.sina.com.cn\/rss\/index.html",
"author" : "WWW.SINA.COM.CN",
"tags" : [],
"desc" : "各省市翻译资格考试准考证打印时间汇总 省份 准考证打印时间 北 京 打印时间：11月5日\u201511月8日打印网站：北京市人事考试网 上 海 打印时间：10月30日10:00－11月6日16:00打印网站：上海市职业....",
"emailed" : False,
"forwarded" : False,
"english" : False
}  , {
"index" : 19,
"articleIndex" : "9436",
"favor" :  False ,
     "read" : False,    
"title" : "清华\u201C领军计划\u201D启动 京23所中学可推荐",
"titleTip" : "清华\u201C领军计划\u201D启动 京23所中学可推荐",
"titleSummary" : "清华\u201C领军计划\u201D启动 京23所中学可推荐",
"descSummary" : "昨晚，清华大学宣布，该校2014年自主选拔\u201C新百年领军计划...",
"url" : "http:\/\/go.rss.sina.com.cn\/redirect.php?url=http:\/\/edu.sina.com.cn\/gaokao\/2013-10-30\/0800399740.shtml",
"pubDate" : "08:00:39",
"enterDate" : "384200:59:11",
"channelId" : "1951069878543014279",
"channelName" : "文化教育焦点新闻-新浪教育",
"channelNameSummary" : "文化教育焦点新闻-新...",
"channelUrl" : "http:\/\/edu.sina.com.cn\/rss\/index.html",
"author" : "WWW.SINA.COM.CN",
"tags" : [],
"desc" : "昨晚，清华大学宣布，该校2014年自主选拔\u201C新百年领军计划\u201D正式启动，全国共309所学校获得推荐资格，其中北京23所中学入选，比今年增加两所。明年高考录取时，入选\u201C领军计划\u201D的优秀学生将享受到更大的录取优惠，最高可降至一本线录取。 清华大学\u201C领军计划\u201D旨在培....",
"emailed" : False,
"forwarded" : False,
"english" : False
} ]
}
