{
"mode" : {"viewTitle" : 1,   "viewNew" : 0,  "pageIndex" : 2 },
 "channel" : {"id" : "1951069878543014279", "booked" : False, "subNumber" : 1, "name" : "文化教育焦点新闻-新浪教育", "url" : "http:\/\/edu.sina.com.cn\/rss\/index.html", "feed" : "http:\/\/rss.sina.com.cn\/edu\/focus19.xml", "author" : "WWW.SINA.COM.CN", "desc" : "文化教育-焦点新闻", "imageUrl" : "http:\/\/www.sinaimg.cn\/home\/deco\/2009\/0330\/logo_home_edu.gif", "postPerWeek" : "0", "lastCrawTime" : "16:52:46", "crawDateTime" : "16:52:46", "lastHttpCode" : "200"}, "page" : {
"startIndex" : 20,
"totalCount" : 5000,
"pageIndex" : 2,
"lastPage" : 250,
"pageSize" : 20,
"english" :  False },
 "unreadNum" : 0, "shotIndex" : -1,
"articles" : [
{
"index" : 0,
"articleIndex" : "9435",
"favor" :  False ,
     "read" : False,    
"title" : "围观无奈语文题：2008奥运会在北京举行判错",
"titleTip" : "围观无奈语文题：2008奥运会在北京举行判错",
"titleSummary" : "围观无奈语文题：2008奥运会在北京举行判错",
"descSummary" : "原标题：2008奥运会哪举行 答&quot;北京&quot;错 围观让人无奈语文...",
"url" : "http:\/\/go.rss.sina.com.cn\/redirect.php?url=http:\/\/edu.sina.com.cn\/zxx\/2013-10-30\/0758399739.shtml",
"pubDate" : "07:58:50",
"enterDate" : "384200:57:22",
"channelId" : "1951069878543014279",
"channelName" : "文化教育焦点新闻-新浪教育",
"channelNameSummary" : "文化教育焦点新闻-新...",
"channelUrl" : "http:\/\/edu.sina.com.cn\/rss\/index.html",
"author" : "WWW.SINA.COM.CN",
"tags" : [],
"desc" : "原标题：2008奥运会哪举行 答\"北京\"错 围观让人无奈语文题 本报昨天刊登《高考语文加分，语文老师预测：阅读和写作是大头》，引来家长吐槽：语文如果继续一段段分析段落大意，总结中心思想，填写与课文一字不差的内容，还不如高考不加分。 语文试题 \u201C合....",
"emailed" : False,
"forwarded" : False,
"english" : False
}  , {
"index" : 1,
"articleIndex" : "9434",
"favor" :  False ,
     "read" : False,    
"title" : "中学出\u201C界定谈恋爱征求意见稿\u201D遭吐槽",
"titleTip" : "中学出\u201C界定谈恋爱征求意见稿\u201D遭吐槽",
"titleSummary" : "中学出\u201C界定谈恋爱征求意见稿\u201D遭吐槽",
"descSummary" : "\u201C除上课之外的课间活动\u2026\u2026只要出现一男一女在校园内的各角...",
"url" : "http:\/\/go.rss.sina.com.cn\/redirect.php?url=http:\/\/edu.sina.com.cn\/zxx\/2013-10-30\/0751399736.shtml",
"pubDate" : "07:51:09",
"enterDate" : "384200:49:41",
"channelId" : "1951069878543014279",
"channelName" : "文化教育焦点新闻-新浪教育",
"channelNameSummary" : "文化教育焦点新闻-新...",
"channelUrl" : "http:\/\/edu.sina.com.cn\/rss\/index.html",
"author" : "WWW.SINA.COM.CN",
"tags" : [],
"desc" : "\u201C除上课之外的课间活动\u2026\u2026只要出现一男一女在校园内的各角落、操场、教室及走廊两人在一起或在校园内手拉手或超过手拉手的举动均视为谈恋爱。\u201D 昨天，一份名为《厦门市翔安第一中学关于如何界定男女生谈恋爱的征求意见稿》在网上被大量转载，《意见稿》制定出8种将....",
"emailed" : False,
"forwarded" : False,
"english" : False
}  , {
"index" : 2,
"articleIndex" : "9433",
"favor" :  False ,
     "read" : False,    
"title" : "考研大纲有变：超八成学生选报班应考",
"titleTip" : "考研大纲有变：超八成学生选报班应考",
"titleSummary" : "考研大纲有变：超八成学生选报班应考",
"descSummary" : "年底将是考研冲刺的关键时刻。新华社发 在刚刚过去的9月，琳琅...",
"url" : "http:\/\/go.rss.sina.com.cn\/redirect.php?url=http:\/\/edu.sina.com.cn\/kaoyan\/2013-10-30\/0747399735.shtml",
"pubDate" : "07:47:49",
"enterDate" : "384200:46:21",
"channelId" : "1951069878543014279",
"channelName" : "文化教育焦点新闻-新浪教育",
"channelNameSummary" : "文化教育焦点新闻-新...",
"channelUrl" : "http:\/\/edu.sina.com.cn\/rss\/index.html",
"author" : "WWW.SINA.COM.CN",
"tags" : [],
"desc" : "年底将是考研冲刺的关键时刻。 新华社发 在刚刚过去的9月，琳琅满目的考研信息纷至沓来，先是2014年各院校研究生招生简章陆续公布，紧接着备受瞩目的2014年考研大纲于9月13日发布， 而9月25日至9月28日，是应届考生网上预报名。各类考研资讯在短时间内集中爆发，对于第一....",
"emailed" : False,
"forwarded" : False,
"english" : False
}  , {
"index" : 3,
"articleIndex" : "9432",
"favor" :  False ,
     "read" : False,    
"title" : "山大继续\u201C北约\u201D：拟调自招加分优惠幅度",
"titleTip" : "山大继续\u201C北约\u201D：拟调自招加分优惠幅度",
"titleSummary" : "山大继续\u201C北约\u201D：拟调自招加分优惠幅度",
"descSummary" : "大众网济南10月29日讯(记者 姜洋) 记者今天从山东大学举行...",
"url" : "http:\/\/go.rss.sina.com.cn\/redirect.php?url=http:\/\/edu.sina.com.cn\/gaokao\/2013-10-30\/0743399734.shtml",
"pubDate" : "07:43:58",
"enterDate" : "384201:12:35",
"channelId" : "1951069878543014279",
"channelName" : "文化教育焦点新闻-新浪教育",
"channelNameSummary" : "文化教育焦点新闻-新...",
"channelUrl" : "http:\/\/edu.sina.com.cn\/rss\/index.html",
"author" : "WWW.SINA.COM.CN",
"tags" : [],
"desc" : "大众网济南10月29日讯(记者 姜洋) 记者今天从山东大学举行的全国重点中学校长论坛上了解到，2014年山大自主招生将出现一系列政策变化，其中之一是调整通过自主招生考试考生在录取时所享 受到的加分优惠幅度。往年在录取线下降低20分或者10分的优惠，今年将会有一定调整，至于....",
"emailed" : False,
"forwarded" : False,
"english" : False
}  , {
"index" : 4,
"articleIndex" : "9431",
"favor" :  False ,
     "read" : False,    
"title" : "小学生作业字写对被扣分 老师称没按要求做",
"titleTip" : "小学生作业字写对被扣分 老师称没按要求做",
"titleSummary" : "小学生作业字写对被扣分 老师称没按要求做",
"descSummary" : "江北区，刚上一年级的童童在作业本上写全对却只得了个A-...",
"url" : "http:\/\/go.rss.sina.com.cn\/redirect.php?url=http:\/\/edu.sina.com.cn\/zxx\/2013-10-30\/0724399732.shtml",
"pubDate" : "07:24:34",
"enterDate" : "384200:53:11",
"channelId" : "1951069878543014279",
"channelName" : "文化教育焦点新闻-新浪教育",
"channelNameSummary" : "文化教育焦点新闻-新...",
"channelUrl" : "http:\/\/edu.sina.com.cn\/rss\/index.html",
"author" : "WWW.SINA.COM.CN",
"tags" : [],
"desc" : "江北区，刚上一年级的童童在作业本上写全对却只得了个A-，原因是老师要求将不会写的字写拼音 昨天，江北区的文女士向我们展示了小学一年级女儿童童的一次作业。 童童的作业本上，所有的字都写对了，但只得了个A-，评分后还有老师的批注：没学过写的字用拼音！ ....",
"emailed" : False,
"forwarded" : False,
"english" : False
}  , {
"index" : 5,
"articleIndex" : "9430",
"favor" :  False ,
     "read" : False,    
"title" : "名校学霸怕被剩 160人硕博相亲会实到800人",
"titleTip" : "名校学霸怕被剩 160人硕博相亲会实到800人",
"titleSummary" : "名校学霸怕被剩 160人硕博相亲会实到800人",
"descSummary" : "160人硕博相亲实到800人 楚天都市报讯 本报记者李晓梦 他...",
"url" : "http:\/\/go.rss.sina.com.cn\/redirect.php?url=http:\/\/edu.sina.com.cn\/kaoyan\/2013-10-29\/1817399729.shtml",
"pubDate" : "昨天18:17:52",
"enterDate" : "384200:48:39",
"channelId" : "1951069878543014279",
"channelName" : "文化教育焦点新闻-新浪教育",
"channelNameSummary" : "文化教育焦点新闻-新...",
"channelUrl" : "http:\/\/edu.sina.com.cn\/rss\/index.html",
"author" : "WWW.SINA.COM.CN",
"tags" : [],
"desc" : "160人硕博相亲实到800人 楚天都市报讯 本报记者李晓梦 他们已经考取了名校的研究生，是在读硕士或者博士，他们有超强的学习能力，不愁毕业论文或将来找工作，他们最大的担心是，被\u201C剩\u201D成孤男寡女。前日下午，一场专为在汉硕士、博士生举行的相亲会在中南财经政法....",
"emailed" : False,
"forwarded" : False,
"english" : False
}  , {
"index" : 6,
"articleIndex" : "9429",
"favor" :  False ,
     "read" : False,    
"title" : "\u201C最失败\u201D专科生考研传奇：没人比我笨",
"titleTip" : "\u201C最失败\u201D专科生考研传奇：没人比我笨",
"titleSummary" : "\u201C最失败\u201D专科生考研传奇：没人比我笨",
"descSummary" : "就像大雁对南方有一种天生的直觉，当自己一路前行，终于飞到...",
"url" : "http:\/\/go.rss.sina.com.cn\/redirect.php?url=http:\/\/edu.sina.com.cn\/kaoyan\/2013-10-29\/1809399728.shtml",
"pubDate" : "昨天18:09:41",
"enterDate" : "384201:10:33",
"channelId" : "1951069878543014279",
"channelName" : "文化教育焦点新闻-新浪教育",
"channelNameSummary" : "文化教育焦点新闻-新...",
"channelUrl" : "http:\/\/edu.sina.com.cn\/rss\/index.html",
"author" : "WWW.SINA.COM.CN",
"tags" : [],
"desc" : "就像大雁对南方有一种天生的直觉，当自己一路前行，终于飞到了这里，我知道，我找到了自己的南方。 当我坐在所报大学里听了生平第一节研究生课后这是我由心发出的感慨，不是说校园还有多纯洁也不是说大家学习的目的有多纯粹，而是作为一名考研草根，无论何时我们都可以....",
"emailed" : False,
"forwarded" : False,
"english" : False
}  , {
"index" : 7,
"articleIndex" : "9428",
"favor" :  False ,
     "read" : False,    
"title" : "山东财经再现考研占座疯狂：玻璃门被挤爆(图)",
"titleTip" : "山东财经再现考研占座疯狂：玻璃门被挤爆(图)",
"titleSummary" : "山东财经再现考研占座疯狂：玻璃门被挤爆(图)",
"descSummary" : "济南时报讯 27日中午12点，山财大舜耕校区上演\u201C疯狂占...",
"url" : "http:\/\/go.rss.sina.com.cn\/redirect.php?url=http:\/\/edu.sina.com.cn\/kaoyan\/2013-10-29\/1726399724.shtml",
"pubDate" : "昨天17:26:55",
"enterDate" : "384200:57:51",
"channelId" : "1951069878543014279",
"channelName" : "文化教育焦点新闻-新浪教育",
"channelNameSummary" : "文化教育焦点新闻-新...",
"channelUrl" : "http:\/\/edu.sina.com.cn\/rss\/index.html",
"author" : "WWW.SINA.COM.CN",
"tags" : [],
"desc" : "济南时报讯 27日中午12点，山财大舜耕校区上演\u201C疯狂占座\u201D，教学楼大门玻璃被挤爆。28日，在山财大舜耕校区 3号教学楼，课桌上占座的字迹处处可见。 距离2014年考研还有2个多月，复习已进入冲刺阶段。27日中午12点，山财大舜耕校区再次上演疯狂的考研占座，学生为争抢....",
"emailed" : False,
"forwarded" : False,
"english" : False
}  , {
"index" : 8,
"articleIndex" : "9427",
"favor" :  False ,
     "read" : False,    
"title" : "初中女生公交车公开谈性 要与男友同床睡",
"titleTip" : "初中女生公交车公开谈性 要与男友同床睡",
"titleSummary" : "初中女生公交车公开谈性 要与男友同床睡",
"descSummary" : "水母网9月16日讯 (YMG记者滕新书)市民刘先生昨天来电反映，...",
"url" : "http:\/\/go.rss.sina.com.cn\/redirect.php?url=http:\/\/edu.sina.com.cn\/zxx\/2013-10-29\/1655399722.shtml",
"pubDate" : "昨天16:55:01",
"enterDate" : "384200:56:03",
"channelId" : "1951069878543014279",
"channelName" : "文化教育焦点新闻-新浪教育",
"channelNameSummary" : "文化教育焦点新闻-新...",
"channelUrl" : "http:\/\/edu.sina.com.cn\/rss\/index.html",
"author" : "WWW.SINA.COM.CN",
"tags" : [],
"desc" : "水母网9月16日讯 (YMG记者滕新书)市民刘先生昨天来电反映，他坐公交车时遇到两名初中女生公开谈论涉性问题，让他感到很担心，希望家长和老师能合理引导孩子，不要让他们误入歧途。 日前，刘先生傍晚下班后乘坐46路公交车回家。6点半左右，车到西南河公交站点，上来几名....",
"emailed" : False,
"forwarded" : False,
"english" : False
}  , {
"index" : 9,
"articleIndex" : "9426",
"favor" :  False ,
     "read" : False,    
"title" : "家长必读：女孩教育最不可取的七种方法",
"titleTip" : "家长必读：女孩教育最不可取的七种方法",
"titleSummary" : "家长必读：女孩教育最不可取的七种方法",
"descSummary" : "有的人表示是女性不擅长谈判或者女性承担过多家庭责任，可能...",
"url" : "http:\/\/go.rss.sina.com.cn\/redirect.php?url=http:\/\/edu.sina.com.cn\/zxx\/2013-10-29\/1637399717.shtml",
"pubDate" : "昨天16:37:15",
"enterDate" : "384201:08:22",
"channelId" : "1951069878543014279",
"channelName" : "文化教育焦点新闻-新浪教育",
"channelNameSummary" : "文化教育焦点新闻-新...",
"channelUrl" : "http:\/\/edu.sina.com.cn\/rss\/index.html",
"author" : "WWW.SINA.COM.CN",
"tags" : [],
"desc" : "有的人表示是女性不擅长谈判或者女性承担过多家庭责任，可能这一切都是对的。但是也可能这与女性从小被父母潜移默化灌输的观念相关。到底哪些教育方式可能会毁掉你女儿的未来呢？ 1、教导她有礼貌且沉默寡言 举止得体和沉默寡言之间有天壤之别，但是女孩子似乎....",
"emailed" : False,
"forwarded" : False,
"english" : False
}  , {
"index" : 10,
"articleIndex" : "9425",
"favor" :  False ,
     "read" : False,    
"title" : "商院关注：揭秘各国结婚炫富手段",
"titleTip" : "商院关注：揭秘各国结婚炫富手段",
"titleSummary" : "商院关注：揭秘各国结婚炫富手段",
"descSummary" : "又收到\u201C红色炸弹\u201D了吧？你参加婚宴\u201C哑巴吃黄连\u201D，人家举办婚宴...",
"url" : "http:\/\/go.rss.sina.com.cn\/redirect.php?url=http:\/\/edu.sina.com.cn\/bschool\/2013-10-29\/1635399716.shtml",
"pubDate" : "昨天16:35:16",
"enterDate" : "384201:06:23",
"channelId" : "1951069878543014279",
"channelName" : "文化教育焦点新闻-新浪教育",
"channelNameSummary" : "文化教育焦点新闻-新...",
"channelUrl" : "http:\/\/edu.sina.com.cn\/rss\/index.html",
"author" : "WWW.SINA.COM.CN",
"tags" : [],
"desc" : "又收到\u201C红色炸弹\u201D了吧？你参加婚宴\u201C哑巴吃黄连\u201D，人家举办婚宴更是\u201C有苦说不出\u201D：调查表明，超过九成的受访者表示，婚礼的花费让人吃不消。还有近八成的人认为，当下的婚礼已经变味了，盲目攀比，越来越奢靡！ 现在都爱\u201C中外\u201D对比，那世界其他地区结婚都是什么....",
"emailed" : False,
"forwarded" : False,
"english" : False
}  , {
"index" : 11,
"articleIndex" : "9424",
"favor" :  False ,
     "read" : False,    
"title" : "商院关注：房价工资比最悲催十大城市",
"titleTip" : "商院关注：房价工资比最悲催十大城市",
"titleSummary" : "商院关注：房价工资比最悲催十大城市",
"descSummary" : "人力资源和社会保障部新闻发言人尹成基今日表示，截至9月底，...",
"url" : "http:\/\/go.rss.sina.com.cn\/redirect.php?url=http:\/\/edu.sina.com.cn\/bschool\/2013-10-29\/1631399714.shtml",
"pubDate" : "昨天16:31:05",
"enterDate" : "384201:02:12",
"channelId" : "1951069878543014279",
"channelName" : "文化教育焦点新闻-新浪教育",
"channelNameSummary" : "文化教育焦点新闻-新...",
"channelUrl" : "http:\/\/edu.sina.com.cn\/rss\/index.html",
"author" : "WWW.SINA.COM.CN",
"tags" : [],
"desc" : "人力资源和社会保障部新闻发言人尹成基今日表示，截至9月底，共有24个地区调整了最低工资标准，平均调增幅度为18%。目前，全国月最低工资标准最高的是上海的1620元，小时最低工资标准最高的是北京和新疆的15.2元。 人力资源和社会保障部今日上午10时召开新闻发布会，介....",
"emailed" : False,
"forwarded" : False,
"english" : False
}  , {
"index" : 12,
"articleIndex" : "9423",
"favor" :  False ,
     "read" : False,    
"title" : "商院关注：揭秘马云进李嘉诚退背后",
"titleTip" : "商院关注：揭秘马云进李嘉诚退背后",
"titleSummary" : "商院关注：揭秘马云进李嘉诚退背后",
"descSummary" : "内容导读：在以Amay为代表的港人看来，经历数轮大风大浪的李嘉...",
"url" : "http:\/\/go.rss.sina.com.cn\/redirect.php?url=http:\/\/edu.sina.com.cn\/bschool\/2013-10-29\/1624399711.shtml",
"pubDate" : "昨天16:24:16",
"enterDate" : "384200:55:23",
"channelId" : "1951069878543014279",
"channelName" : "文化教育焦点新闻-新浪教育",
"channelNameSummary" : "文化教育焦点新闻-新...",
"channelUrl" : "http:\/\/edu.sina.com.cn\/rss\/index.html",
"author" : "WWW.SINA.COM.CN",
"tags" : [],
"desc" : "内容导读：在以Amay为代表的港人看来，经历数轮大风大浪的李嘉诚，在此时大量抛售旗下资产，并大举\u201C西进\u201D，显然是已经看到了一些别人尚未意识到的东西。 Amay是香港人，工作日生活在深圳，周末回香港。 在香港，Amay住在乐信台，她喜欢早上起床就把电视机打开....",
"emailed" : False,
"forwarded" : False,
"english" : False
}  , {
"index" : 13,
"articleIndex" : "9422",
"favor" :  False ,
     "read" : False,    
"title" : "商院人物：6位从失败走向成功的创始人",
"titleTip" : "商院人物：6位从失败走向成功的创始人",
"titleSummary" : "商院人物：6位从失败走向成功的创始人",
"descSummary" : "内容导读：著名的作家马尔科姆・格拉德威尔(Malcolm Gladwell...",
"url" : "http:\/\/go.rss.sina.com.cn\/redirect.php?url=http:\/\/edu.sina.com.cn\/bschool\/2013-10-29\/1605399705.shtml",
"pubDate" : "昨天16:05:27",
"enterDate" : "384201:06:39",
"channelId" : "1951069878543014279",
"channelName" : "文化教育焦点新闻-新浪教育",
"channelNameSummary" : "文化教育焦点新闻-新...",
"channelUrl" : "http:\/\/edu.sina.com.cn\/rss\/index.html",
"author" : "WWW.SINA.COM.CN",
"tags" : [],
"desc" : "内容导读：著名的作家马尔科姆・格拉德威尔(Malcolm Gladwell)说过，我们生活中的许许多多的困难，其实根本都不算不上是真正的困难。 著名的作家马尔科姆 格拉德威尔(Malcolm Gladwell)说过，我们生活中的许许多多的困难，其实根本都不算不上是真正的困难。不过可以肯....",
"emailed" : False,
"forwarded" : False,
"english" : False
}  , {
"index" : 14,
"articleIndex" : "9421",
"favor" :  False ,
     "read" : False,    
"title" : "美国老师如何对待孩子打小报告",
"titleTip" : "美国老师如何对待孩子打小报告",
"titleSummary" : "美国老师如何对待孩子打小报告",
"descSummary" : "去年在孩子班上做义工的时候，发现5-6岁这个年龄的孩子特别爱打小报...",
"url" : "http:\/\/go.rss.sina.com.cn\/redirect.php?url=http:\/\/edu.sina.com.cn\/ischool\/2013-10-29\/1501399675.shtml",
"pubDate" : "昨天15:01:54",
"enterDate" : "384201:03:16",
"channelId" : "1951069878543014279",
"channelName" : "文化教育焦点新闻-新浪教育",
"channelNameSummary" : "文化教育焦点新闻-新...",
"channelUrl" : "http:\/\/edu.sina.com.cn\/rss\/index.html",
"author" : "WWW.SINA.COM.CN",
"tags" : [],
"desc" : "去年在孩子班上做义工的时候，发现5-6岁这个年龄的孩子特别爱打小报告，一点点小事就会招来这么一句\u201CI am going to tell on you\u201D(我要到老师那里告你)。这话听起来不陌生吧？于是，我就看到孩子班上的美国老师是用什么办法处理孩子之间相互告状的。 一是鼓励孩子自己....",
"emailed" : False,
"forwarded" : False,
"english" : False
}  , {
"index" : 15,
"articleIndex" : "9420",
"favor" :  False ,
     "read" : False,    
"title" : "家长为什么要送孩子上国际学校",
"titleTip" : "家长为什么要送孩子上国际学校",
"titleSummary" : "家长为什么要送孩子上国际学校",
"descSummary" : "一般来说，很多选择国际学校的家长都是因为不满国内传统学校的教育方...",
"url" : "http:\/\/go.rss.sina.com.cn\/redirect.php?url=http:\/\/edu.sina.com.cn\/ischool\/2013-10-29\/1454399672.shtml",
"pubDate" : "昨天14:54:56",
"enterDate" : "384200:56:18",
"channelId" : "1951069878543014279",
"channelName" : "文化教育焦点新闻-新浪教育",
"channelNameSummary" : "文化教育焦点新闻-新...",
"channelUrl" : "http:\/\/edu.sina.com.cn\/rss\/index.html",
"author" : "WWW.SINA.COM.CN",
"tags" : [],
"desc" : "一般来说，很多选择国际学校的家长都是因为不满国内传统学校的教育方式，希望接受更加开放的国际化教育模式，让孩子从小就培养成为一个自信、自立、自主决定自己人生目标的人，所以才选择了国际学校。 还有的家长是想让孩子到国外去接受更加开放和先进的大学教育，为了....",
"emailed" : False,
"forwarded" : False,
"english" : False
}  , {
"index" : 16,
"articleIndex" : "9419",
"favor" :  False ,
     "read" : False,    
"title" : "幼升小必读：如何制作幼升小简历",
"titleTip" : "幼升小必读：如何制作幼升小简历",
"titleSummary" : "幼升小必读：如何制作幼升小简历",
"descSummary" : "近几年，幼升小成为年轻父母们讨论的热点话题，怎么才能让孩子上一...",
"url" : "http:\/\/go.rss.sina.com.cn\/redirect.php?url=http:\/\/edu.sina.com.cn\/zxx\/2013-10-29\/1432399663.shtml",
"pubDate" : "昨天14:32:22",
"enterDate" : "384201:03:49",
"channelId" : "1951069878543014279",
"channelName" : "文化教育焦点新闻-新浪教育",
"channelNameSummary" : "文化教育焦点新闻-新...",
"channelUrl" : "http:\/\/edu.sina.com.cn\/rss\/index.html",
"author" : "WWW.SINA.COM.CN",
"tags" : [],
"desc" : "近几年，幼升小成为年轻父母们讨论的热点话题，怎么才能让孩子上一所心仪的小学，重点小学报名需要注意哪些问题呢？目前，孩子幼升小时要先主动给心仪的学校投简历才会有机会参加入学测试，那么小的孩子简历能写什么内容呢？\"小编特整理相关内容供家长参考。 简历就是....",
"emailed" : False,
"forwarded" : False,
"english" : False
}  , {
"index" : 17,
"articleIndex" : "9418",
"favor" :  False ,
     "read" : False,    
"title" : "国考培训上演招生战 万元\u201C包过班\u201D最火",
"titleTip" : "国考培训上演招生战 万元\u201C包过班\u201D最火",
"titleSummary" : "国考培训上演招生战 万元\u201C包过班\u201D最火",
"descSummary" : "随着2014年国家公务员考试(以下称\u201C国考\u201D)时间临近，邕城公...",
"url" : "http:\/\/go.rss.sina.com.cn\/redirect.php?url=http:\/\/edu.sina.com.cn\/official\/2013-10-29\/1349399653.shtml",
"pubDate" : "昨天13:49:53",
"enterDate" : "384200:51:24",
"channelId" : "1951069878543014279",
"channelName" : "文化教育焦点新闻-新浪教育",
"channelNameSummary" : "文化教育焦点新闻-新...",
"channelUrl" : "http:\/\/edu.sina.com.cn\/rss\/index.html",
"author" : "WWW.SINA.COM.CN",
"tags" : [],
"desc" : "随着2014年国家公务员考试(以下称\u201C国考\u201D)时间临近，邕城公务员考试培训机构打响\u201C招生大战\u201D。各种名头的培训班五花八门，学费相差悬殊，从几百元的单科短训班到两三万元的高级定制班，收费最高相差20多倍。其中，上万元的\u201C包过班\u201D最火爆，多家机构都已经报满。为什么培训....",
"emailed" : False,
"forwarded" : False,
"english" : False
}  , {
"index" : 18,
"articleIndex" : "9417",
"favor" :  False ,
     "read" : False,    
"title" : "另类古代\u201C国考\u201D：唐代出了考场进青楼",
"titleTip" : "另类古代\u201C国考\u201D：唐代出了考场进青楼",
"titleSummary" : "另类古代\u201C国考\u201D：唐代出了考场进青楼",
"descSummary" : "国家公务员考试，简称为\u201C国考\u201D。在古代，\u201C国考\u201D叫科举，...",
"url" : "http:\/\/go.rss.sina.com.cn\/redirect.php?url=http:\/\/edu.sina.com.cn\/official\/2013-10-29\/1346399652.shtml",
"pubDate" : "昨天13:46:35",
"enterDate" : "384200:48:06",
"channelId" : "1951069878543014279",
"channelName" : "文化教育焦点新闻-新浪教育",
"channelNameSummary" : "文化教育焦点新闻-新...",
"channelUrl" : "http:\/\/edu.sina.com.cn\/rss\/index.html",
"author" : "WWW.SINA.COM.CN",
"tags" : [],
"desc" : "国家公务员考试，简称为\u201C国考\u201D。在古代，\u201C国考\u201D叫科举，秦汉魏晋时尚无科举制度，故又附会为\u201C察举\u201D。古装喜剧《刁蛮娇妻苏小妹》演绎的正是宋代读书人对科举的种种态度，诸多清宫戏也对清代科场之细节做了详细介绍。传统戏剧《孔雀东南飞》中的那位庐江小吏焦仲卿，则是....",
"emailed" : False,
"forwarded" : False,
"english" : False
}  , {
"index" : 19,
"articleIndex" : "9416",
"favor" :  False ,
     "read" : False,    
"title" : "名师解读：2014北京中考语文改革",
"titleTip" : "名师解读：2014北京中考语文改革",
"titleSummary" : "名师解读：2014北京中考语文改革",
"descSummary" : "语文教学改革的呼声已经持续多年。语文虽然在整个中小学教育阶段一...",
"url" : "http:\/\/go.rss.sina.com.cn\/redirect.php?url=http:\/\/edu.sina.com.cn\/zhongkao\/2013-10-29\/1116399644.shtml",
"pubDate" : "昨天11:16:24",
"enterDate" : "384200:48:21",
"channelId" : "1951069878543014279",
"channelName" : "文化教育焦点新闻-新浪教育",
"channelNameSummary" : "文化教育焦点新闻-新...",
"channelUrl" : "http:\/\/edu.sina.com.cn\/rss\/index.html",
"author" : "WWW.SINA.COM.CN",
"tags" : [],
"desc" : "语文教学改革的呼声已经持续多年。语文虽然在整个中小学教育阶段一直作为主科出现，但是却一直被有意无意地忽视。面对如今众多学生文字水平低下，语言基础薄弱，表达能力欠佳的现状，北京率先推出中高考改革的意见稿，消息一出，引起了强烈的社会反响，大家热议的重点是语文和....",
"emailed" : False,
"forwarded" : False,
"english" : False
} ]
}
