{
"mode" : {"viewTitle" : 1,   "viewNew" : 0,  "pageIndex" : 1 },
 "channel" : {"id" : "-1283040664413788516", "booked" : False, "subNumber" : 377, "name" : "新浪游戏-游戏产业新闻", "url" : "http:\/\/games.sina.com.cn\/gamenews\/cyxw\/index.shtml", "feed" : "http:\/\/rss.sina.com.cn\/games\/cyxw.xml", "author" : "WWW.SINA.COM.CN", "desc" : "新浪游戏之游戏产业新闻", "imageUrl" : "http:\/\/www.sinaimg.cn\/home\/images\/sina_logo2.gif", "postPerWeek" : "0", "lastCrawTime" : "2013年10月27日 (4天前)", "crawDateTime" : "2013年10月26日 (5天前)", "lastHttpCode" : "304"}, "page" : {
"startIndex" : 0,
"totalCount" : 5000,
"pageIndex" : 1,
"lastPage" : 250,
"pageSize" : 20,
"english" :  False },
 "unreadNum" : 0, "shotIndex" : -1,
"articles" : [
{
"index" : 0,
"articleIndex" : "13723",
"favor" :  False ,
     "read" : False,    
"title" : "游族信息作价38亿元借壳 梅花伞变身游戏股",
"titleTip" : "游族信息作价38亿元借壳 梅花伞变身游戏股",
"titleSummary" : "游族信息作价38亿元借壳 梅花伞变身游戏股",
"descSummary" : "梅花伞10月23日晚间发布重组方案，公司拟出售全部资产及...",
"url" : "http:\/\/go.rss.sina.com.cn\/redirect.php?url=http:\/\/games.sina.com.cn\/y\/n\/2013-10-23\/2148739489.shtml",
"pubDate" : "2013年10月23日 (1周前)",
"enterDate" : "384196:13:36",
"channelId" : "-1283040664413788516",
"channelName" : "新浪游戏-游戏产业新闻",
"channelNameSummary" : "新浪游戏-游戏产业新...",
"channelUrl" : "http:\/\/games.sina.com.cn\/gamenews\/cyxw\/index.shtml",
"author" : "WWW.SINA.COM.CN",
"tags" : [],
"desc" : "梅花伞10月23日晚间发布重组方案，公司拟出售全部资产及负债，并以发行股份方式收购上海游族信息技术有限公司(简称\u201C游族信息\u201D)100%股权并募集配套资金。值得注意的是，游族信息100%股权评估价值为38.67亿元，较其净资产1.14亿元增值3281.05%。 游族网络 根据预案....",
"emailed" : False,
"forwarded" : False,
"english" : False
}  , {
"index" : 1,
"articleIndex" : "13722",
"favor" :  False ,
     "read" : False,    
"title" : "Supercell：超级细胞的诞生之路",
"titleTip" : "Supercell：超级细胞的诞生之路",
"titleSummary" : "Supercell：超级细胞的诞生之路",
"descSummary" : "文\/楚云帆 这是2013年最受瞩目的一场并购。2013年10月15日，日本软...",
"url" : "http:\/\/go.rss.sina.com.cn\/redirect.php?url=http:\/\/games.sina.com.cn\/y\/n\/2013-10-17\/1453738435.shtml",
"pubDate" : "2013年10月17日 (1周前)",
"enterDate" : "384189:38:27",
"channelId" : "-1283040664413788516",
"channelName" : "新浪游戏-游戏产业新闻",
"channelNameSummary" : "新浪游戏-游戏产业新...",
"channelUrl" : "http:\/\/games.sina.com.cn\/gamenews\/cyxw\/index.shtml",
"author" : "WWW.SINA.COM.CN",
"tags" : [],
"desc" : "文\/楚云帆 这是2013年最受瞩目的一场并购。 2013年10月15日，日本软银和其控股公司Gungho共同出资15.3亿美元，收购位于芬兰的《Clash of Clans(官方译名：部落冲突)》开发商Supercell公司51%的股权，这意味着Supercell和Gungho一样也成为了软银的子公司。 本....",
"emailed" : False,
"forwarded" : False,
"english" : False
}  , {
"index" : 2,
"articleIndex" : "13721",
"favor" :  False ,
     "read" : False,    
"title" : "《最无极》新浪玩玩探寻中国网游运营新模式",
"titleTip" : "《最无极》新浪玩玩探寻中国网游运营新模式",
"titleSummary" : "《最无极》新浪玩玩探寻中国网游运营新模式",
"descSummary" : "近些年，随着传统网游大鳄入局，页游质量、运营模式、行...",
"url" : "http:\/\/go.rss.sina.com.cn\/redirect.php?url=http:\/\/games.sina.com.cn\/y\/n\/2013-10-12\/1400737447.shtml",
"pubDate" : "2013年10月12日 (2周前)",
"enterDate" : "384188:44:13",
"channelId" : "-1283040664413788516",
"channelName" : "新浪游戏-游戏产业新闻",
"channelNameSummary" : "新浪游戏-游戏产业新...",
"channelUrl" : "http:\/\/games.sina.com.cn\/gamenews\/cyxw\/index.shtml",
"author" : "WWW.SINA.COM.CN",
"tags" : [],
"desc" : "近些年，随着传统网游大鳄入局，页游质量、运营模式、行业布局悄然改变。近期，巨人、新浪玩玩、风游凭借视觉网游《最无极》高调杀入页游市场，开创\u201C云端多端\u201D网游新模式，抢占市场份额。 中国网游在经历了十多年地发展，市场格局几经变化。随着中国互联网地发展....",
"emailed" : False,
"forwarded" : False,
"english" : False
}  , {
"index" : 3,
"articleIndex" : "13720",
"favor" :  False ,
     "read" : False,    
"title" : "完美世界连续两年获\"中国网络文化杰出成就奖\"",
"titleTip" : "完美世界连续两年获\"中国网络文化杰出成就奖\"",
"titleSummary" : "完美世界连续两年获\"中国网络文化杰出成就奖\"",
"descSummary" : "10月11日，在2013中国网络文化盛典中，完美世界在继20...",
"url" : "http:\/\/go.rss.sina.com.cn\/redirect.php?url=http:\/\/games.sina.com.cn\/y\/n\/2013-10-12\/1143737407.shtml",
"pubDate" : "2013年10月12日 (2周前)",
"enterDate" : "384186:26:55",
"channelId" : "-1283040664413788516",
"channelName" : "新浪游戏-游戏产业新闻",
"channelNameSummary" : "新浪游戏-游戏产业新...",
"channelUrl" : "http:\/\/games.sina.com.cn\/gamenews\/cyxw\/index.shtml",
"author" : "WWW.SINA.COM.CN",
"tags" : [],
"desc" : "10月11日，在2013中国网络文化盛典中，完美世界在继2012年后，再次荣获\"中国网络文化杰出成就奖\"，完美世界副总裁兼官方发言人王雨蕴代表到场并领奖。 以原创技术立本的完美世界，整合全球资源，已在全球建立了自己的运营平台，在北美、欧洲和亚洲设有全资子公司自主运....",
"emailed" : False,
"forwarded" : False,
"english" : False
}  , {
"index" : 4,
"articleIndex" : "13719",
"favor" :  False ,
     "read" : False,    
"title" : "卡牌手游谈：浅谈手游交易功能的功过",
"titleTip" : "卡牌手游谈：浅谈手游交易功能的功过",
"titleSummary" : "卡牌手游谈：浅谈手游交易功能的功过",
"descSummary" : "者：吉川明静[微博] 授权新浪独家发布，转载请注明出处 随着《...",
"url" : "http:\/\/go.rss.sina.com.cn\/redirect.php?url=http:\/\/games.sina.com.cn\/y\/n\/2013-10-10\/1715737005.shtml",
"pubDate" : "2013年10月10日 (2周前)",
"enterDate" : "384158:03:31",
"channelId" : "-1283040664413788516",
"channelName" : "新浪游戏-游戏产业新闻",
"channelNameSummary" : "新浪游戏-游戏产业新...",
"channelUrl" : "http:\/\/games.sina.com.cn\/gamenews\/cyxw\/index.shtml",
"author" : "WWW.SINA.COM.CN",
"tags" : [],
"desc" : "者：吉川明静[微博] 授权新浪独家发布，转载请注明出处 随着《炉石传说》国服的临近开测，最近TCG这个词语成为了业内同行口中的一个热门话题。所谓TCG，全称是Trading Card Game，即集换式卡牌游戏。目前国内移动游戏市场上的卡牌类游戏虽然如过江之鲫，但正统TCG却还鲜见....",
"emailed" : False,
"forwarded" : False,
"english" : False
}  , {
"index" : 5,
"articleIndex" : "13718",
"favor" :  False ,
     "read" : False,    
"title" : "《俄罗斯方块》版权持有人悼念山内溥 回忆合作之路",
"titleTip" : "《俄罗斯方块》版权持有人悼念山内溥 回忆合作之路",
"titleSummary" : "《俄罗斯方块》版权持有人悼念山内溥 回忆合作之路",
"descSummary" : "新浪游戏编译，转载请注明出处 编者按：任天堂远...",
"url" : "http:\/\/go.rss.sina.com.cn\/redirect.php?url=http:\/\/games.sina.com.cn\/y\/n\/2013-10-10\/1046736836.shtml",
"pubDate" : "2013年10月10日 (2周前)",
"enterDate" : "384151:34:10",
"channelId" : "-1283040664413788516",
"channelName" : "新浪游戏-游戏产业新闻",
"channelNameSummary" : "新浪游戏-游戏产业新...",
"channelUrl" : "http:\/\/games.sina.com.cn\/gamenews\/cyxw\/index.shtml",
"author" : "WWW.SINA.COM.CN",
"tags" : [],
"desc" : "新浪游戏编译，转载请注明出处 编者按：任天堂远见卓识的前任社长山内溥于9月19日离世，享年85岁。他生前极其注重隐私，鲜少在公共场合露面或接受采访。因此，可以宣称自己和他有过近距离接触的人寥寥无几，而Henk Rogers就是其中之一。他一名游戏产业的先锋，在1970年代晚....",
"emailed" : False,
"forwarded" : False,
"english" : False
}  , {
"index" : 6,
"articleIndex" : "13717",
"favor" :  False ,
     "read" : False,    
"title" : "顺荣股份收购页游平台三七玩60%股权",
"titleTip" : "顺荣股份收购页游平台三七玩60%股权",
"titleSummary" : "顺荣股份收购页游平台三七玩60%股权",
"descSummary" : "中国证券网讯(记者 刘向红)游戏行业内的又一桩并购案落定。10月1...",
"url" : "http:\/\/go.rss.sina.com.cn\/redirect.php?url=http:\/\/games.sina.com.cn\/y\/n\/2013-10-09\/2016736768.shtml",
"pubDate" : "2013年10月9日 (3周前)",
"enterDate" : "384193:28:46",
"channelId" : "-1283040664413788516",
"channelName" : "新浪游戏-游戏产业新闻",
"channelNameSummary" : "新浪游戏-游戏产业新...",
"channelUrl" : "http:\/\/games.sina.com.cn\/gamenews\/cyxw\/index.shtml",
"author" : "WWW.SINA.COM.CN",
"tags" : [],
"desc" : "中国证券网讯(记者 刘向红)游戏行业内的又一桩并购案落定。10月10日，顺荣股份公告拟以19.2亿元收购上海三七玩网络科技有限公司60%股权。其中，75%的对价由上市公司以发行股份的方式支付，25%的对价以现金支付并由上市公司实施配套融资解决。上市公司的控股股东吴氏家族为巩固....",
"emailed" : False,
"forwarded" : False,
"english" : False
}  , {
"index" : 7,
"articleIndex" : "13716",
"favor" :  False ,
     "read" : False,    
"title" : "传IGG已通过港交所上市聆讯 筹备10月上市",
"titleTip" : "传IGG已通过港交所上市聆讯 筹备10月上市",
"titleSummary" : "传IGG已通过港交所上市聆讯 筹备10月上市",
"descSummary" : "经济通通讯社报道，总部设于新加坡的游戏公司IGG，已通过...",
"url" : "http:\/\/go.rss.sina.com.cn\/redirect.php?url=http:\/\/games.sina.com.cn\/y\/n\/2013-09-27\/1714735821.shtml",
"pubDate" : "2013年9月27日",
"enterDate" : "384191:41:10",
"channelId" : "-1283040664413788516",
"channelName" : "新浪游戏-游戏产业新闻",
"channelNameSummary" : "新浪游戏-游戏产业新...",
"channelUrl" : "http:\/\/games.sina.com.cn\/gamenews\/cyxw\/index.shtml",
"author" : "WWW.SINA.COM.CN",
"tags" : [],
"desc" : "经济通通讯社报道，总部设于新加坡的游戏公司IGG，已通过港交所(00388)上市聆讯，将筹备10月于创业板上市。 根据此前游戏葡萄的报道，IGG是福州天盟数码旗下的游戏娱乐平台，由17173原总裁蔡宗建创建。17173被收购后，蔡宗建离职与几位美国合伙人在2006年左右创立天盟....",
"emailed" : False,
"forwarded" : False,
"english" : False
}  , {
"index" : 8,
"articleIndex" : "13715",
"favor" :  False ,
     "read" : False,    
"title" : "螃蟹答疑：如何成为暴雪游戏设计师",
"titleTip" : "螃蟹答疑：如何成为暴雪游戏设计师",
"titleSummary" : "螃蟹答疑：如何成为暴雪游戏设计师",
"descSummary" : "美服有一位玩家的孩子8岁，立志想要当一名游戏设计师，尤其中意...",
"url" : "http:\/\/go.rss.sina.com.cn\/redirect.php?url=http:\/\/games.sina.com.cn\/y\/n\/2013-09-27\/1106735679.shtml",
"pubDate" : "2013年9月27日",
"enterDate" : "384185:33:41",
"channelId" : "-1283040664413788516",
"channelName" : "新浪游戏-游戏产业新闻",
"channelNameSummary" : "新浪游戏-游戏产业新...",
"channelUrl" : "http:\/\/games.sina.com.cn\/gamenews\/cyxw\/index.shtml",
"author" : "WWW.SINA.COM.CN",
"tags" : [],
"desc" : "美服有一位玩家的孩子8岁，立志想要当一名游戏设计师，尤其中意暴雪。这名玩家在论坛上发帖子寻求相关资讯，而螃蟹(格雷格・斯特里特《魔兽世界》首席系统设计师，人称鬼蟹、螃蟹)则写了一篇详尽而且贴心的帖子，对这个话题进行了相当全面的回复。 游戏设计业年轻....",
"emailed" : False,
"forwarded" : False,
"english" : False
}  , {
"index" : 9,
"articleIndex" : "13714",
"favor" :  False ,
     "read" : False,    
"title" : "私服十年：黑客与游戏私服的隐秘江湖",
"titleTip" : "私服十年：黑客与游戏私服的隐秘江湖",
"titleSummary" : "私服十年：黑客与游戏私服的隐秘江湖",
"descSummary" : "【新浪游戏专稿 转载请注明出处】 \u201C我们对他们来说就是夜壶，...",
"url" : "http:\/\/go.rss.sina.com.cn\/redirect.php?url=http:\/\/games.sina.com.cn\/y\/n\/2013-09-27\/1015735615.shtml",
"pubDate" : "2013年9月27日",
"enterDate" : "384184:42:29",
"channelId" : "-1283040664413788516",
"channelName" : "新浪游戏-游戏产业新闻",
"channelNameSummary" : "新浪游戏-游戏产业新...",
"channelUrl" : "http:\/\/games.sina.com.cn\/gamenews\/cyxw\/index.shtml",
"author" : "WWW.SINA.COM.CN",
"tags" : [],
"desc" : "【新浪游戏专稿 转载请注明出处】 \u201C我们对他们来说就是夜壶，晚上要用的时候拿过来就要用，等天亮了，就嫌又脏又臭，一脚踢到床下去了。\u201D \u2015\u2015出自电影《黑金》周朝先之口 8月25日零时06分起，国内很多用户发现自己在访问.CN域名的网站时出现访问失败无法....",
"emailed" : False,
"forwarded" : False,
"english" : False
}  , {
"index" : 10,
"articleIndex" : "13713",
"favor" :  False ,
     "read" : False,    
"title" : "EA管理层大变动 原品牌主席接管移动业务",
"titleTip" : "EA管理层大变动 原品牌主席接管移动业务",
"titleSummary" : "EA管理层大变动 原品牌主席接管移动业务",
"descSummary" : "EA Sports的老大安德鲁・威尔森(Andrew Wilson)被提任为首席...",
"url" : "http:\/\/go.rss.sina.com.cn\/redirect.php?url=http:\/\/games.sina.com.cn\/y\/n\/2013-09-26\/1101735422.shtml",
"pubDate" : "2013年9月26日",
"enterDate" : "384185:49:59",
"channelId" : "-1283040664413788516",
"channelName" : "新浪游戏-游戏产业新闻",
"channelNameSummary" : "新浪游戏-游戏产业新...",
"channelUrl" : "http:\/\/games.sina.com.cn\/gamenews\/cyxw\/index.shtml",
"author" : "WWW.SINA.COM.CN",
"tags" : [],
"desc" : "EA Sports的老大安德鲁・威尔森(Andrew Wilson)被提任为首席执行官后不过一周的时间，艺电公司就在内部管理层做出了一系列的调整变化，以填补威尔森提任后的空缺。据海外媒体的报道，EA游戏品牌副总裁帕特里克・索德朗(Patrick Soderlund)将会接管EA Sports掌门人一职。索朗德....",
"emailed" : False,
"forwarded" : False,
"english" : False
}  , {
"index" : 11,
"articleIndex" : "13712",
"favor" :  False ,
     "read" : False,    
"title" : "任天堂原社长山内溥逝世 缔造传奇帝国",
"titleTip" : "任天堂原社长山内溥逝世 缔造传奇帝国",
"titleSummary" : "任天堂原社长山内溥逝世 缔造传奇帝国",
"descSummary" : "日本媒体报道，任天堂游戏帝国的创造者，前任社长山内溥于20...",
"url" : "http:\/\/go.rss.sina.com.cn\/redirect.php?url=http:\/\/games.sina.com.cn\/y\/n\/2013-09-19\/2259734366.shtml",
"pubDate" : "2013年9月19日",
"enterDate" : "384197:34:14",
"channelId" : "-1283040664413788516",
"channelName" : "新浪游戏-游戏产业新闻",
"channelNameSummary" : "新浪游戏-游戏产业新...",
"channelUrl" : "http:\/\/games.sina.com.cn\/gamenews\/cyxw\/index.shtml",
"author" : "WWW.SINA.COM.CN",
"tags" : [],
"desc" : "日本媒体报道，任天堂游戏帝国的创造者，前任社长山内溥于2013年9月19日去世，享年85岁。山内溥自1949年接任任天堂社长至2002年卸任，将原本家族的扑克牌工厂发展成为世界级的游戏帝国，为玩家们带来了超级玛丽、FC、NDS等无数难以忘怀的回忆。 山内溥生于1927年11月7....",
"emailed" : False,
"forwarded" : False,
"english" : False
}  , {
"index" : 12,
"articleIndex" : "13711",
"favor" :  False ,
     "read" : False,    
"title" : "谢丽尔\u2022桑德伯格中国之行 意欲何为",
"titleTip" : "谢丽尔\u2022桑德伯格中国之行 意欲何为",
"titleSummary" : "谢丽尔\u2022桑德伯格中国之行 意欲何为",
"descSummary" : "2013年9月10日，Facebook首席运营官谢丽尔・桑德伯格(Sheryl S...",
"url" : "http:\/\/go.rss.sina.com.cn\/redirect.php?url=http:\/\/games.sina.com.cn\/y\/n\/2013-09-13\/1744733400.shtml",
"pubDate" : "2013年9月13日",
"enterDate" : "384142:58:09",
"channelId" : "-1283040664413788516",
"channelName" : "新浪游戏-游戏产业新闻",
"channelNameSummary" : "新浪游戏-游戏产业新...",
"channelUrl" : "http:\/\/games.sina.com.cn\/gamenews\/cyxw\/index.shtml",
"author" : "WWW.SINA.COM.CN",
"tags" : [],
"desc" : "2013年9月10日，Facebook首席运营官谢丽尔・桑德伯格(Sheryl Sandberg)携新书《向前一步：女性，工作及领导意志》(LeanIn: Women, Work, and the Will to Lead)来到北京。 这是继2012年5月Facebook的CEO马克・扎克伯格(MarkZuckerberg)来华之后的第二个来自Facebook的....",
"emailed" : False,
"forwarded" : False,
"english" : False
}  , {
"index" : 13,
"articleIndex" : "13710",
"favor" :  False ,
     "read" : False,    
"title" : "《魔兽世界》9月收入和4月相比下降54%",
"titleTip" : "《魔兽世界》9月收入和4月相比下降54%",
"titleSummary" : "《魔兽世界》9月收入和4月相比下降54%",
"descSummary" : "",
"url" : "http:\/\/go.rss.sina.com.cn\/redirect.php?url=http:\/\/games.sina.com.cn\/z\/wow\/2013-09-12\/1030499399.shtml",
"pubDate" : "2013年9月12日",
"enterDate" : "384111:48:38",
"channelId" : "-1283040664413788516",
"channelName" : "新浪游戏-游戏产业新闻",
"channelNameSummary" : "新浪游戏-游戏产业新...",
"channelUrl" : "http:\/\/games.sina.com.cn\/gamenews\/cyxw\/index.shtml",
"author" : "WWW.SINA.COM.CN",
"tags" : [],
"desc" : "",
"emailed" : False,
"forwarded" : False,
"english" : False
}  , {
"index" : 14,
"articleIndex" : "13709",
"favor" :  False ,
     "read" : False,    
"title" : "《植物大战僵尸2》安卓版中国全球首发",
"titleTip" : "《植物大战僵尸2》安卓版中国全球首发",
"titleSummary" : "《植物大战僵尸2》安卓版中国全球首发",
"descSummary" : "宝开游戏旗下《植物大战僵尸2-奇妙时空之旅》安卓版，于2013年...",
"url" : "http:\/\/go.rss.sina.com.cn\/redirect.php?url=http:\/\/games.sina.com.cn\/y\/n\/2013-09-12\/0201732744.shtml",
"pubDate" : "2013年9月12日",
"enterDate" : "384199:13:32",
"channelId" : "-1283040664413788516",
"channelName" : "新浪游戏-游戏产业新闻",
"channelNameSummary" : "新浪游戏-游戏产业新...",
"channelUrl" : "http:\/\/games.sina.com.cn\/gamenews\/cyxw\/index.shtml",
"author" : "WWW.SINA.COM.CN",
"tags" : [],
"desc" : "宝开游戏旗下《植物大战僵尸2\u2015奇妙时空之旅》安卓版，于2013年9月12日10：59正式在中国大陆地区全球首发。&#160; 《植物大战僵尸2》在iOS平台上已经取得了巨大的成功，自发布以来，仅中国大陆地区便下载量超过2000万次，上线后即登顶iPhone、iPad免费排行榜双榜第一及....",
"emailed" : False,
"forwarded" : False,
"english" : False
}  , {
"index" : 15,
"articleIndex" : "13708",
"favor" :  False ,
     "read" : False,    
"title" : "老厂商开发手机游戏为何容易败？",
"titleTip" : "老厂商开发手机游戏为何容易败？",
"titleSummary" : "老厂商开发手机游戏为何容易败？",
"descSummary" : "页游发展初期无数端游厂商摩拳擦掌却最终倒在深谙渠道之道的新兴厂...",
"url" : "http:\/\/go.rss.sina.com.cn\/redirect.php?url=http:\/\/games.sina.com.cn\/y\/n\/2013-09-10\/1659732422.shtml",
"pubDate" : "2013年9月10日",
"enterDate" : "384166:11:17",
"channelId" : "-1283040664413788516",
"channelName" : "新浪游戏-游戏产业新闻",
"channelNameSummary" : "新浪游戏-游戏产业新...",
"channelUrl" : "http:\/\/games.sina.com.cn\/gamenews\/cyxw\/index.shtml",
"author" : "WWW.SINA.COM.CN",
"tags" : [],
"desc" : "页游发展初期无数端游厂商摩拳擦掌却最终倒在深谙渠道之道的新兴厂商面前，转眼间手游兴起如火如荼，眼看兴风作浪的又是另一批熟悉而又陌生的面孔，我不禁在想，端游厂商、页游厂商会不会在手游战场上吃下一次败仗？从他们现在拿出的产品看，我想这是必然的。 仅从硬件....",
"emailed" : False,
"forwarded" : False,
"english" : False
}  , {
"index" : 16,
"articleIndex" : "13707",
"favor" :  False ,
     "read" : False,    
"title" : "分析：手游市场已经进入无序化的前夜",
"titleTip" : "分析：手游市场已经进入无序化的前夜",
"titleSummary" : "分析：手游市场已经进入无序化的前夜",
"descSummary" : "2012年7月24日，上海嘉里中心发生过这样的一幕：一位远道而来...",
"url" : "http:\/\/go.rss.sina.com.cn\/redirect.php?url=http:\/\/games.sina.com.cn\/y\/n\/2013-09-06\/1722731780.shtml",
"pubDate" : "2013年9月6日",
"enterDate" : "384142:33:31",
"channelId" : "-1283040664413788516",
"channelName" : "新浪游戏-游戏产业新闻",
"channelNameSummary" : "新浪游戏-游戏产业新...",
"channelUrl" : "http:\/\/games.sina.com.cn\/gamenews\/cyxw\/index.shtml",
"author" : "WWW.SINA.COM.CN",
"tags" : [],
"desc" : "2012年7月24日，上海嘉里中心发生过这样的一幕：一位远道而来的手游开发者利用会议茶歇期间与91无线的代表进行面谈，但还未等这位开发者将手中笔记本内有关游戏的DEMO演示完，对方就明确提出2：8分成的比例。同样的状况也发生在他与另一位渠道商的合作面谈中。 手游：渠道....",
"emailed" : False,
"forwarded" : False,
"english" : False
}  , {
"index" : 17,
"articleIndex" : "13706",
"favor" :  False ,
     "read" : False,    
"title" : "\u201C吃\u201D端游\u201C望\u201D手游 巨头或改写行业格局",
"titleTip" : "\u201C吃\u201D端游\u201C望\u201D手游 巨头或改写行业格局",
"titleSummary" : "\u201C吃\u201D端游\u201C望\u201D手游 巨头或改写行业格局",
"descSummary" : "尽管一批手游公司在ChinaJoy展上均不遗余力地吆喝，唱衰...",
"url" : "http:\/\/go.rss.sina.com.cn\/redirect.php?url=http:\/\/games.sina.com.cn\/y\/n\/2013-09-06\/1713731776.shtml",
"pubDate" : "2013年9月6日",
"enterDate" : "384142:24:40",
"channelId" : "-1283040664413788516",
"channelName" : "新浪游戏-游戏产业新闻",
"channelNameSummary" : "新浪游戏-游戏产业新...",
"channelUrl" : "http:\/\/games.sina.com.cn\/gamenews\/cyxw\/index.shtml",
"author" : "WWW.SINA.COM.CN",
"tags" : [],
"desc" : "尽管一批手游公司在ChinaJoy展上均不遗余力地吆喝，唱衰网游的声音不绝于耳，但是传统网游公司仍然把更多的精力花在了客户端游戏(以下简称端游)上面。 \u201C吃\u201D端游\u201C望\u201D手游 中国游戏产业报告统计显示：2013年上半年，中国游戏市场实际销售收入338.9亿元，客户端游....",
"emailed" : False,
"forwarded" : False,
"english" : False
}  , {
"index" : 18,
"articleIndex" : "13705",
"favor" :  False ,
     "read" : False,    
"title" : "手游业夹缝寻机：渠道和版权运营易成突破口",
"titleTip" : "手游业夹缝寻机：渠道和版权运营易成突破口",
"titleSummary" : "手游业夹缝寻机：渠道和版权运营易成突破口",
"descSummary" : "在手游竞争达到白热化之前三年，人人游戏已经意识到当时...",
"url" : "http:\/\/go.rss.sina.com.cn\/redirect.php?url=http:\/\/games.sina.com.cn\/y\/n\/2013-09-06\/1428731704.shtml",
"pubDate" : "2013年9月6日",
"enterDate" : "384139:39:56",
"channelId" : "-1283040664413788516",
"channelName" : "新浪游戏-游戏产业新闻",
"channelNameSummary" : "新浪游戏-游戏产业新...",
"channelUrl" : "http:\/\/games.sina.com.cn\/gamenews\/cyxw\/index.shtml",
"author" : "WWW.SINA.COM.CN",
"tags" : [],
"desc" : "在手游竞争达到白热化之前三年，人人游戏已经意识到当时的页游行业已进入危局，而这与今天手游市场的现状，多少有些相似。 随着手游产业的发展，渠道也变得愈发重要，甚至已经成为寡头之间的游戏。作为手游探路者之一的人人游戏发现，手游的利润越来越多地由研发向渠道....",
"emailed" : False,
"forwarded" : False,
"english" : False
}  , {
"index" : 19,
"articleIndex" : "13704",
"favor" :  False ,
     "read" : False,    
"title" : "任天堂游戏开发生态系统遭遇危机",
"titleTip" : "任天堂游戏开发生态系统遭遇危机",
"titleSummary" : "任天堂游戏开发生态系统遭遇危机",
"descSummary" : "上周任天堂发布了新款掌机2DS，同时北美版WiiU豪华版降价50美元...",
"url" : "http:\/\/go.rss.sina.com.cn\/redirect.php?url=http:\/\/games.sina.com.cn\/y\/n\/2013-09-05\/1333731425.shtml",
"pubDate" : "2013年9月5日",
"enterDate" : "384188:06:06",
"channelId" : "-1283040664413788516",
"channelName" : "新浪游戏-游戏产业新闻",
"channelNameSummary" : "新浪游戏-游戏产业新...",
"channelUrl" : "http:\/\/games.sina.com.cn\/gamenews\/cyxw\/index.shtml",
"author" : "WWW.SINA.COM.CN",
"tags" : [],
"desc" : "上周任天堂发布了新款掌机2DS，同时北美版WiiU豪华版降价50美元。任天堂推出的种种措施非但玩家不领情，连不少媒体与分析师都感叹不理解，一代游戏霸主任天堂出现了前所未有的危机。 新品不给力 市场屡屡受挫 2DS这款新主机售价为129.99美元，比现有的两款3....",
"emailed" : False,
"forwarded" : False,
"english" : False
} ]
}
