{
"mode" : {"viewTitle" : 1,   "viewNew" : 0,  "pageIndex" : 2 },
 "channel" : {"id" : "-1283040664413788516", "booked" : False, "subNumber" : 377, "name" : "新浪游戏-游戏产业新闻", "url" : "http:\/\/games.sina.com.cn\/gamenews\/cyxw\/index.shtml", "feed" : "http:\/\/rss.sina.com.cn\/games\/cyxw.xml", "author" : "WWW.SINA.COM.CN", "desc" : "新浪游戏之游戏产业新闻", "imageUrl" : "http:\/\/www.sinaimg.cn\/home\/images\/sina_logo2.gif", "postPerWeek" : "0", "lastCrawTime" : "2013年10月27日 (4天前)", "crawDateTime" : "2013年10月26日 (5天前)", "lastHttpCode" : "304"}, "page" : {
"startIndex" : 20,
"totalCount" : 5000,
"pageIndex" : 2,
"lastPage" : 250,
"pageSize" : 20,
"english" :  False },
 "unreadNum" : 0, "shotIndex" : -1,
"articles" : [
{
"index" : 0,
"articleIndex" : "13703",
"favor" :  False ,
     "read" : False,    
"title" : "昆仑：与《时空猎人》欧版发行无关 日韩成绩斐然",
"titleTip" : "昆仑：与《时空猎人》欧版发行无关 日韩成绩斐然",
"titleSummary" : "昆仑：与《时空猎人》欧版发行无关 日韩成绩斐然",
"descSummary" : "针对近日有不少媒体报道《时空猎人》德语、法语等欧...",
"url" : "http:\/\/go.rss.sina.com.cn\/redirect.php?url=http:\/\/games.sina.com.cn\/y\/n\/2013-09-04\/1722731232.shtml",
"pubDate" : "2013年9月4日",
"enterDate" : "384190:33:34",
"channelId" : "-1283040664413788516",
"channelName" : "新浪游戏-游戏产业新闻",
"channelNameSummary" : "新浪游戏-游戏产业新...",
"channelUrl" : "http:\/\/games.sina.com.cn\/gamenews\/cyxw\/index.shtml",
"author" : "WWW.SINA.COM.CN",
"tags" : [],
"desc" : "针对近日有不少媒体报道《时空猎人》德语、法语等欧洲版本运营惨淡，北美《英雄战魂》成绩不理想，甚至传闻昆仑游戏将延期《时空猎人》北美版发行时间，昆仑游戏发表正式声明：《时空猎人》欧洲版由国内另外2家厂商代理发行，《英雄战魂》北美由美国老牌厂商Glu mobile代理发....",
"emailed" : False,
"forwarded" : False,
"english" : False
}  , {
"index" : 1,
"articleIndex" : "13702",
"favor" :  False ,
     "read" : False,    
"title" : "报告称93%电竞选手月收低于1500元",
"titleTip" : "报告称93%电竞选手月收低于1500元",
"titleSummary" : "报告称93%电竞选手月收低于1500元",
"descSummary" : "网易电竞公布一组数据报告显示，93%中国中低层专职电竞玩家月收...",
"url" : "http:\/\/go.rss.sina.com.cn\/redirect.php?url=http:\/\/games.sina.com.cn\/y\/n\/2013-09-04\/1545731203.shtml",
"pubDate" : "2013年9月4日",
"enterDate" : "384188:56:31",
"channelId" : "-1283040664413788516",
"channelName" : "新浪游戏-游戏产业新闻",
"channelNameSummary" : "新浪游戏-游戏产业新...",
"channelUrl" : "http:\/\/games.sina.com.cn\/gamenews\/cyxw\/index.shtml",
"author" : "WWW.SINA.COM.CN",
"tags" : [],
"desc" : "网易电竞公布一组数据报告显示，93%中国中低层专职电竞玩家月收入在1500元以下，收入难以保障生活。 这份调研数据由网易电竞和专业调研公司共同完成，样本覆盖职业电竞战队，行业从业人员，网吧等群体。 数据显示，目前中国专职电竞的玩家有3000多名，他们分布....",
"emailed" : False,
"forwarded" : False,
"english" : False
}  , {
"index" : 2,
"articleIndex" : "13701",
"favor" :  False ,
     "read" : False,    
"title" : "微信手游发力 带动腾讯股价连续上涨趋势",
"titleTip" : "微信手游发力 带动腾讯股价连续上涨趋势",
"titleSummary" : "微信手游发力 带动腾讯股价连续上涨趋势",
"descSummary" : "9月4日消息，由于受到多款移动端游戏(手游)面世影响，腾讯股...",
"url" : "http:\/\/go.rss.sina.com.cn\/redirect.php?url=http:\/\/games.sina.com.cn\/y\/n\/2013-09-04\/1504731188.shtml",
"pubDate" : "2013年9月4日",
"enterDate" : "384188:16:00",
"channelId" : "-1283040664413788516",
"channelName" : "新浪游戏-游戏产业新闻",
"channelNameSummary" : "新浪游戏-游戏产业新...",
"channelUrl" : "http:\/\/games.sina.com.cn\/gamenews\/cyxw\/index.shtml",
"author" : "WWW.SINA.COM.CN",
"tags" : [],
"desc" : "9月4日消息，由于受到多款移动端游戏(手游)面世影响，腾讯股价呈现连续上涨态势，最高股价曾达到384.8亿港币的历史新高。 受手游利好消息影响，腾讯连续两日保持估计增长态势(图片来源于和讯股票) 从本周港股的股价涨幅情况可以看到，腾讯连续两日呈现了3%的增长。....",
"emailed" : False,
"forwarded" : False,
"english" : False
}  , {
"index" : 3,
"articleIndex" : "13700",
"favor" :  False ,
     "read" : False,    
"title" : "CGDA中国游戏制作人评选大赛报名启动",
"titleTip" : "CGDA中国游戏制作人评选大赛报名启动",
"titleSummary" : "CGDA中国游戏制作人评选大赛报名启动",
"descSummary" : "伴随ChinaJoy 2013的喧嚣逐渐退散，\u201C中国优秀游戏制作人评选...",
"url" : "http:\/\/go.rss.sina.com.cn\/redirect.php?url=http:\/\/games.sina.com.cn\/y\/n\/2013-09-04\/1433731153.shtml",
"pubDate" : "2013年9月4日",
"enterDate" : "384187:44:52",
"channelId" : "-1283040664413788516",
"channelName" : "新浪游戏-游戏产业新闻",
"channelNameSummary" : "新浪游戏-游戏产业新...",
"channelUrl" : "http:\/\/games.sina.com.cn\/gamenews\/cyxw\/index.shtml",
"author" : "WWW.SINA.COM.CN",
"tags" : [],
"desc" : "伴随ChinaJoy 2013的喧嚣逐渐退散，\u201C中国优秀游戏制作人评选大赛\u201D(CGDA)已经缓缓拉开了帷幕。在这场为中国游戏产业准备的褒奖盛典中，谁将是本年度中国最强的本土游戏制作团队？象征中国最高游戏研发实力的奖杯终将花落谁家？这一切将在2013年度CGDA颁奖盛典现场揭晓！....",
"emailed" : False,
"forwarded" : False,
"english" : False
}  , {
"index" : 4,
"articleIndex" : "13699",
"favor" :  False ,
     "read" : False,    
"title" : "神圣颠覆世界 GungHo新作《DivineGate》发表",
"titleTip" : "神圣颠覆世界 GungHo新作《DivineGate》发表",
"titleSummary" : "神圣颠覆世界 GungHo新作《DivineGate》发表",
"descSummary" : "先前日本游戏厂商GungHo预告的神z预告页面终于揭开了...",
"url" : "http:\/\/go.rss.sina.com.cn\/redirect.php?url=http:\/\/games.sina.com.cn\/y\/n\/2013-09-03\/1705730923.shtml",
"pubDate" : "2013年9月3日",
"enterDate" : "384191:53:30",
"channelId" : "-1283040664413788516",
"channelName" : "新浪游戏-游戏产业新闻",
"channelNameSummary" : "新浪游戏-游戏产业新...",
"channelUrl" : "http:\/\/games.sina.com.cn\/gamenews\/cyxw\/index.shtml",
"author" : "WWW.SINA.COM.CN",
"tags" : [],
"desc" : "先前日本游戏厂商GungHo预告的神z预告页面终于揭开了神z面纱。这次发表的作品是一款名为《Divine Gate》的全新作品，但除了曝光六名主要角色的设定资料外，本作并未曝光太多相关的游戏内容资讯。 至于游戏玩法的部分，官方则是透露这是一款基于完全原创故事....",
"emailed" : False,
"forwarded" : False,
"english" : False
}  , {
"index" : 5,
"articleIndex" : "13698",
"favor" :  False ,
     "read" : False,    
"title" : "动视暴雪将于9月4日发行信贷回购维旺迪股份",
"titleTip" : "动视暴雪将于9月4日发行信贷回购维旺迪股份",
"titleSummary" : "动视暴雪将于9月4日发行信贷回购维旺迪股份",
"descSummary" : "据路透社报道，动视暴雪将于9月4日发行价值25亿美元的...",
"url" : "http:\/\/go.rss.sina.com.cn\/redirect.php?url=http:\/\/games.sina.com.cn\/y\/n\/2013-08-29\/1403729863.shtml",
"pubDate" : "2013年8月29日",
"enterDate" : "384188:42:54",
"channelId" : "-1283040664413788516",
"channelName" : "新浪游戏-游戏产业新闻",
"channelNameSummary" : "新浪游戏-游戏产业新...",
"channelUrl" : "http:\/\/games.sina.com.cn\/gamenews\/cyxw\/index.shtml",
"author" : "WWW.SINA.COM.CN",
"tags" : [],
"desc" : "据路透社报道，动视暴雪将于9月4日发行价值25亿美元的信贷，用于回购维旺迪集团所持该公司的股票。 在此轮交易后，动视暴雪将成为一家独立公司。动视暴雪以58.3亿美元自行回购近4.3亿股，回购资金包括12亿美元的现金和47.5亿美元的债务融资，回购将在9月底之前完成....",
"emailed" : False,
"forwarded" : False,
"english" : False
}  , {
"index" : 6,
"articleIndex" : "13697",
"favor" :  False ,
     "read" : False,    
"title" : "展望中国梦 全球移动游戏产业白皮书发布下载",
"titleTip" : "展望中国梦 全球移动游戏产业白皮书发布下载",
"titleSummary" : "展望中国梦 全球移动游戏产业白皮书发布下载",
"descSummary" : "《2013全球移动游戏产业白皮书》自7月25日于世界移动游...",
"url" : "http:\/\/go.rss.sina.com.cn\/redirect.php?url=http:\/\/games.sina.com.cn\/y\/n\/2013-08-28\/1515729618.shtml",
"pubDate" : "2013年8月28日",
"enterDate" : "384189:57:33",
"channelId" : "-1283040664413788516",
"channelName" : "新浪游戏-游戏产业新闻",
"channelNameSummary" : "新浪游戏-游戏产业新...",
"channelUrl" : "http:\/\/games.sina.com.cn\/gamenews\/cyxw\/index.shtml",
"author" : "WWW.SINA.COM.CN",
"tags" : [],
"desc" : "《2013全球移动游戏产业白皮书》自7月25日于世界移动游戏大会(WMGC)上对外发布以来，便得到了移动互联网产业以及数码互动娱乐产业的广泛关注。由于受众人群为参与世界移动游戏大会的听众，因此自发布以来，大会主办方收到了大量产业人士的邮件以及电话，问询获取事宜。主办方....",
"emailed" : False,
"forwarded" : False,
"english" : False
}  , {
"index" : 7,
"articleIndex" : "13696",
"favor" :  False ,
     "read" : False,    
"title" : "\u201Cmo9之夜\u201DHigh爆全场 精品好礼连环送",
"titleTip" : "\u201Cmo9之夜\u201DHigh爆全场 精品好礼连环送",
"titleSummary" : "\u201Cmo9之夜\u201DHigh爆全场 精品好礼连环送",
"descSummary" : "2013年8月21日，位于北京后海的银海轩内人山人海热闹非凡，...",
"url" : "http:\/\/go.rss.sina.com.cn\/redirect.php?url=http:\/\/games.sina.com.cn\/y\/n\/2013-08-28\/1052729450.shtml",
"pubDate" : "2013年8月28日",
"enterDate" : "384185:34:34",
"channelId" : "-1283040664413788516",
"channelName" : "新浪游戏-游戏产业新闻",
"channelNameSummary" : "新浪游戏-游戏产业新...",
"channelUrl" : "http:\/\/games.sina.com.cn\/gamenews\/cyxw\/index.shtml",
"author" : "WWW.SINA.COM.CN",
"tags" : [],
"desc" : "2013年8月21日，位于北京后海的银海轩内人山人海热闹非凡，这是由专注于移动游戏支付的mo9先玩后付联合上方网举行的\u201Cmo9之夜\u201D客户答谢会，参加本次酒会的嘉宾均来自全国移动游戏行业，这已经是mo9第3次主办手游圈的高层聚会，为中国手游圈内的大佬们提供了一个轻松交流的行....",
"emailed" : False,
"forwarded" : False,
"english" : False
}  , {
"index" : 8,
"articleIndex" : "13695",
"favor" :  False ,
     "read" : False,    
"title" : "天舟文化收购《忘仙》开发商神奇时代 总价12.54亿",
"titleTip" : "天舟文化收购《忘仙》开发商神奇时代 总价12.54亿",
"titleSummary" : "天舟文化收购《忘仙》开发商神奇时代 总价12.54亿",
"descSummary" : "手游彻底火了！继华谊之后，又一家企业对手游展开并...",
"url" : "http:\/\/go.rss.sina.com.cn\/redirect.php?url=http:\/\/games.sina.com.cn\/y\/n\/2013-08-27\/1706729352.shtml",
"pubDate" : "2013年8月27日",
"enterDate" : "384191:54:55",
"channelId" : "-1283040664413788516",
"channelName" : "新浪游戏-游戏产业新闻",
"channelNameSummary" : "新浪游戏-游戏产业新...",
"channelUrl" : "http:\/\/games.sina.com.cn\/gamenews\/cyxw\/index.shtml",
"author" : "WWW.SINA.COM.CN",
"tags" : [],
"desc" : "手游彻底火了！继华谊之后，又一家企业对手游展开并购。陷入营收下滑困境的天舟文化将手游作为自救稻草，欲借并购\u201C手游\u201D业务转机业绩。 天舟文化并购神奇时代，只是本轮资本逐鹿网络游戏业的缩影。 天舟文化昨日发布资产重组预案，宣布拟斥资12.54亿，以增发股份....",
"emailed" : False,
"forwarded" : False,
"english" : False
}  , {
"index" : 9,
"articleIndex" : "13694",
"favor" :  False ,
     "read" : False,    
"title" : "2013ChinaJoy回归游戏本质 手游成业界新热点",
"titleTip" : "2013ChinaJoy回归游戏本质 手游成业界新热点",
"titleSummary" : "2013ChinaJoy回归游戏本质 手游成业界新热点",
"descSummary" : "经历了前十届的成功举办之后，2013ChinaJoy在万众瞩目...",
"url" : "http:\/\/go.rss.sina.com.cn\/redirect.php?url=http:\/\/games.sina.com.cn\/y\/n\/2013-08-27\/1136729219.shtml",
"pubDate" : "2013年8月27日",
"enterDate" : "384186:24:05",
"channelId" : "-1283040664413788516",
"channelName" : "新浪游戏-游戏产业新闻",
"channelNameSummary" : "新浪游戏-游戏产业新...",
"channelUrl" : "http:\/\/games.sina.com.cn\/gamenews\/cyxw\/index.shtml",
"author" : "WWW.SINA.COM.CN",
"tags" : [],
"desc" : "经历了前十届的成功举办之后，2013ChinaJoy在万众瞩目下于7月25日盛大开幕。 在25-28日为期4天的展期内，共吸引超过20万人次入场参观，超过以往历届观众人数。 今年ChinaJoy展延续了以往的火爆场面，吸引了300多家国内外各地的游戏厂商、渠道商、技术研发商等多家相关....",
"emailed" : False,
"forwarded" : False,
"english" : False
}  , {
"index" : 10,
"articleIndex" : "13693",
"favor" :  False ,
     "read" : False,    
"title" : "更加注重游戏体验 外媒称ChinaJoy已是国际展水准",
"titleTip" : "更加注重游戏体验 外媒称ChinaJoy已是国际展水准",
"titleSummary" : "更加注重游戏体验 外媒称ChinaJoy已是国际展水准",
"descSummary" : "第十一届ChinaJoy已经圆满落下帷幕，但本届ChinaJ...",
"url" : "http:\/\/go.rss.sina.com.cn\/redirect.php?url=http:\/\/games.sina.com.cn\/y\/n\/2013-08-26\/1443728991.shtml",
"pubDate" : "2013年8月26日",
"enterDate" : "384189:22:16",
"channelId" : "-1283040664413788516",
"channelName" : "新浪游戏-游戏产业新闻",
"channelNameSummary" : "新浪游戏-游戏产业新...",
"channelUrl" : "http:\/\/games.sina.com.cn\/gamenews\/cyxw\/index.shtml",
"author" : "WWW.SINA.COM.CN",
"tags" : [],
"desc" : "第十一届ChinaJoy已经圆满落下帷幕，但本届ChinaJoy取得的骄人成绩却久有回响。作为目前国内规模最大、规格最高、最权威的数码互动娱乐产品游戏展览会，它正凭借自己的实力和迅速的成长，获得了国外媒体的瞩目，多家外媒称：ChinaJoy已是国际大展水准。&#160; ChinaJoy今年....",
"emailed" : False,
"forwarded" : False,
"english" : False
}  , {
"index" : 11,
"articleIndex" : "13692",
"favor" :  False ,
     "read" : False,    
"title" : "日游戏开发者现状调查:34岁年收522万",
"titleTip" : "日游戏开发者现状调查:34岁年收522万",
"titleSummary" : "日游戏开发者现状调查:34岁年收522万",
"descSummary" : "日本最大面向计算机娱乐开发者的会议CEDEC2013于8月21日至23...",
"url" : "http:\/\/go.rss.sina.com.cn\/redirect.php?url=http:\/\/games.sina.com.cn\/y\/n\/2013-08-24\/1259728761.shtml",
"pubDate" : "2013年8月24日",
"enterDate" : "384187:40:47",
"channelId" : "-1283040664413788516",
"channelName" : "新浪游戏-游戏产业新闻",
"channelNameSummary" : "新浪游戏-游戏产业新...",
"channelUrl" : "http:\/\/games.sina.com.cn\/gamenews\/cyxw\/index.shtml",
"author" : "WWW.SINA.COM.CN",
"tags" : [],
"desc" : "日本最大面向计算机娱乐开发者的会议CEDEC2013于8月21日至23日在横浜举行。计算机娱乐协会CEDEC运营委员会发表了针对日本游戏开发者为对象进行的调查结果。 CEDEC运营委员会在\u201DCEDEC2013\u201D举办前就进行了从事游戏制作开发者的经验形成及技能提升相关的\u201C生活和意识的....",
"emailed" : False,
"forwarded" : False,
"english" : False
}  , {
"index" : 12,
"articleIndex" : "13691",
"favor" :  False ,
     "read" : False,    
"title" : "暴雪试水免费游戏 八大箴言解读炉石传说",
"titleTip" : "暴雪试水免费游戏 八大箴言解读炉石传说",
"titleSummary" : "暴雪试水免费游戏 八大箴言解读炉石传说",
"descSummary" : "根据传统，暴雪会给每一位为公司效力满5年、10年、15年、2...",
"url" : "http:\/\/go.rss.sina.com.cn\/redirect.php?url=http:\/\/games.sina.com.cn\/y\/n\/2013-08-23\/1042728504.shtml",
"pubDate" : "2013年8月23日",
"enterDate" : "384185:29:45",
"channelId" : "-1283040664413788516",
"channelName" : "新浪游戏-游戏产业新闻",
"channelNameSummary" : "新浪游戏-游戏产业新...",
"channelUrl" : "http:\/\/games.sina.com.cn\/gamenews\/cyxw\/index.shtml",
"author" : "WWW.SINA.COM.CN",
"tags" : [],
"desc" : "根据传统，暴雪会给每一位为公司效力满5年、10年、15年、20年的员工发放特殊纪念品。2011年，暴雪成立20年，无论工龄长短，所有员工都得到了一个\u201C狗圈\u201D类物品。上面复刻了暴雪总部著名的\u201C八大箴言\u201D：\u201CThink Globally(放眼全球)\u201D、\u201CCommit To Quality(精益求精)\u201D、\u201CGa....",
"emailed" : False,
"forwarded" : False,
"english" : False
}  , {
"index" : 13,
"articleIndex" : "13690",
"favor" :  False ,
     "read" : False,    
"title" : "掌上明珠武春雷《明珠十年 机遇与挑战》演讲实录",
"titleTip" : "掌上明珠武春雷《明珠十年 机遇与挑战》演讲实录",
"titleSummary" : "掌上明珠武春雷《明珠十年 机遇与挑战》演讲实录",
"descSummary" : "2013年8月21日，掌上明珠10周年庆典大会如期在北京...",
"url" : "http:\/\/go.rss.sina.com.cn\/redirect.php?url=http:\/\/games.sina.com.cn\/y\/n\/2013-08-22\/1109728207.shtml",
"pubDate" : "2013年8月22日",
"enterDate" : "384185:48:32",
"channelId" : "-1283040664413788516",
"channelName" : "新浪游戏-游戏产业新闻",
"channelNameSummary" : "新浪游戏-游戏产业新...",
"channelUrl" : "http:\/\/games.sina.com.cn\/gamenews\/cyxw\/index.shtml",
"author" : "WWW.SINA.COM.CN",
"tags" : [],
"desc" : "2013年8月21日，掌上明珠10周年庆典大会如期在北京国际会议中心举行。 武春雷：明珠十年机遇与挑战 以下为掌上明珠创始人兼CEO武春雷先生演讲实录： 尊敬的来宾、尊敬的朋友，大家好！ 很荣幸的请到大家跟我们掌上明珠的同仁一起来庆祝掌上明珠十年....",
"emailed" : False,
"forwarded" : False,
"english" : False
}  , {
"index" : 14,
"articleIndex" : "13689",
"favor" :  False ,
     "read" : False,    
"title" : "FL Mobile(飞流)携手完美 神雕侠侣22日全面公测",
"titleTip" : "FL Mobile(飞流)携手完美 神雕侠侣22日全面公测",
"titleSummary" : "FL Mobile(飞流)携手完美 神雕侠侣22日全面公测",
"descSummary" : "2013年，手游市场的火爆依然持续，在年初的第一轮爆...",
"url" : "http:\/\/go.rss.sina.com.cn\/redirect.php?url=http:\/\/games.sina.com.cn\/y\/n\/2013-08-22\/1104728202.shtml",
"pubDate" : "2013年8月22日",
"enterDate" : "384185:43:37",
"channelId" : "-1283040664413788516",
"channelName" : "新浪游戏-游戏产业新闻",
"channelNameSummary" : "新浪游戏-游戏产业新...",
"channelUrl" : "http:\/\/games.sina.com.cn\/gamenews\/cyxw\/index.shtml",
"author" : "WWW.SINA.COM.CN",
"tags" : [],
"desc" : "2013年，手游市场的火爆依然持续，在年初的第一轮爆发后，行业逐渐开始成熟，各种精品手游也不断涌现。8月22日，由国内游戏巨头\u201C完美世界\u201D携手全球移动游戏发行与运营服务商\u201C飞流\u201D联手推出的扛鼎之作《神雕侠侣》手游正式公测，因其是唯一获得金庸先生官方授权改编的游戏....",
"emailed" : False,
"forwarded" : False,
"english" : False
}  , {
"index" : 15,
"articleIndex" : "13688",
"favor" :  False ,
     "read" : False,    
"title" : "掌上明珠10周年庆典 谈手游生态圈的平衡与发展",
"titleTip" : "掌上明珠10周年庆典 谈手游生态圈的平衡与发展",
"titleSummary" : "掌上明珠10周年庆典 谈手游生态圈的平衡与发展",
"descSummary" : "2013年8月21日，掌上明珠10周年庆典大会如期在北京国...",
"url" : "http:\/\/go.rss.sina.com.cn\/redirect.php?url=http:\/\/games.sina.com.cn\/y\/n\/2013-08-22\/1103728200.shtml",
"pubDate" : "2013年8月22日",
"enterDate" : "384185:41:53",
"channelId" : "-1283040664413788516",
"channelName" : "新浪游戏-游戏产业新闻",
"channelNameSummary" : "新浪游戏-游戏产业新...",
"channelUrl" : "http:\/\/games.sina.com.cn\/gamenews\/cyxw\/index.shtml",
"author" : "WWW.SINA.COM.CN",
"tags" : [],
"desc" : "2013年8月21日，掌上明珠10周年庆典大会如期在北京国际会议中心举行。期间，由众多行业大佬参与的圆桌论坛可以说是众星云集，大家在祝福掌上明珠成立十周年之际，畅谈\u201D手机游戏生态圈的平衡与发展\u201D，将庆典活动推向新的高潮。 掌上明珠10周年庆典大会 圆桌论道由....",
"emailed" : False,
"forwarded" : False,
"english" : False
}  , {
"index" : 16,
"articleIndex" : "13687",
"favor" :  False ,
     "read" : False,    
"title" : "日本手游圈大地震：15家手游商联合抵制渠道",
"titleTip" : "日本手游圈大地震：15家手游商联合抵制渠道",
"titleSummary" : "日本手游圈大地震：15家手游商联合抵制渠道",
"descSummary" : "北京时间8月21日，据日本最大商业日报《日本经济新闻》...",
"url" : "http:\/\/go.rss.sina.com.cn\/redirect.php?url=http:\/\/games.sina.com.cn\/y\/n\/2013-08-21\/1440727998.shtml",
"pubDate" : "2013年8月21日",
"enterDate" : "384189:15:59",
"channelId" : "-1283040664413788516",
"channelName" : "新浪游戏-游戏产业新闻",
"channelNameSummary" : "新浪游戏-游戏产业新...",
"channelUrl" : "http:\/\/games.sina.com.cn\/gamenews\/cyxw\/index.shtml",
"author" : "WWW.SINA.COM.CN",
"tags" : [],
"desc" : "北京时间8月21日，据日本最大商业日报《日本经济新闻》报道，15家日本移动游戏开发商正准备联手，在智能手机平台营销各自的产品。 日本15家手游商联合抵制渠道 据了解，参与此次合作的15家厂商将通过广告形式，在游戏内搭建一个交叉推广网络，引导用户从一款游戏进....",
"emailed" : False,
"forwarded" : False,
"english" : False
}  , {
"index" : 17,
"articleIndex" : "13686",
"favor" :  False ,
     "read" : False,    
"title" : "速艺卡牌手游《撸啊撸LOL》下月开测",
"titleTip" : "速艺卡牌手游《撸啊撸LOL》下月开测",
"titleSummary" : "速艺卡牌手游《撸啊撸LOL》下月开测",
"descSummary" : "继DOTA题材卡牌手游国内开发商一阵热烈追捧、蹦出若干款之后，...",
"url" : "http:\/\/go.rss.sina.com.cn\/redirect.php?url=http:\/\/games.sina.com.cn\/y\/n\/2013-08-21\/1202727944.shtml",
"pubDate" : "2013年8月21日",
"enterDate" : "384186:37:30",
"channelId" : "-1283040664413788516",
"channelName" : "新浪游戏-游戏产业新闻",
"channelNameSummary" : "新浪游戏-游戏产业新...",
"channelUrl" : "http:\/\/games.sina.com.cn\/gamenews\/cyxw\/index.shtml",
"author" : "WWW.SINA.COM.CN",
"tags" : [],
"desc" : "继DOTA题材卡牌手游国内开发商一阵热烈追捧、蹦出若干款之后，MOBA类对战游戏的另一个热门产品《英雄联盟》也被国内开发商瞄上，且一出来就是多款，可见有多么热门。为什么开发商选这个题材很容易想明白，主要就是看中了LOL庞大的玩家群。 今天爆出的这款名叫《撸啊撸L....",
"emailed" : False,
"forwarded" : False,
"english" : False
}  , {
"index" : 18,
"articleIndex" : "13685",
"favor" :  False ,
     "read" : False,    
"title" : "索尼否认破产传闻 暗示IFA大展将推新品",
"titleTip" : "索尼否认破产传闻 暗示IFA大展将推新品",
"titleSummary" : "索尼否认破产传闻 暗示IFA大展将推新品",
"descSummary" : "8月19日消息，18日夜间有网友发布央视新闻频道的\u201C截图\u201D，称...",
"url" : "http:\/\/go.rss.sina.com.cn\/redirect.php?url=http:\/\/games.sina.com.cn\/y\/n\/2013-08-19\/1518727386.shtml",
"pubDate" : "2013年8月19日",
"enterDate" : "384190:06:09",
"channelId" : "-1283040664413788516",
"channelName" : "新浪游戏-游戏产业新闻",
"channelNameSummary" : "新浪游戏-游戏产业新...",
"channelUrl" : "http:\/\/games.sina.com.cn\/gamenews\/cyxw\/index.shtml",
"author" : "WWW.SINA.COM.CN",
"tags" : [],
"desc" : "8月19日消息，18日夜间有网友发布央视新闻频道的\u201C截图\u201D，称索尼申请破产，索尼中国通过官方微博对此进行否认，并暗示将在九月的柏林IFA上推出新品。 18日夜间，有网友发布了疑似央视新闻频道的\u201C截图\u201D，称索尼申请破产，截图显示，新闻主标题是《索尼公司申请破产》....",
"emailed" : False,
"forwarded" : False,
"english" : False
}  , {
"index" : 19,
"articleIndex" : "13684",
"favor" :  False ,
     "read" : False,    
"title" : "8月21日启动 91无线・游龙会会员全名单",
"titleTip" : "8月21日启动 91无线・游龙会会员全名单",
"titleSummary" : "8月21日启动 91无线・游龙会会员全名单",
"descSummary" : "2013年8月21日，上方网将在北京国际会议中心主办\u201C2013全球移...",
"url" : "http:\/\/go.rss.sina.com.cn\/redirect.php?url=http:\/\/games.sina.com.cn\/y\/n\/2013-08-19\/1254727291.shtml",
"pubDate" : "2013年8月19日",
"enterDate" : "384187:41:37",
"channelId" : "-1283040664413788516",
"channelName" : "新浪游戏-游戏产业新闻",
"channelNameSummary" : "新浪游戏-游戏产业新...",
"channelUrl" : "http:\/\/games.sina.com.cn\/gamenews\/cyxw\/index.shtml",
"author" : "WWW.SINA.COM.CN",
"tags" : [],
"desc" : "2013年8月21日，上方网将在北京国际会议中心主办\u201C2013全球移动游戏与渠道博览会\u201D。当日下午91无线将举办\u201C首届游龙会高端论坛\u2015\u2015重新定义精品游戏\u201D，并正式启动\u201C91无线・游龙会\u201D。 \u201C91无线・游龙会\u201D是一个汇集了中国手机游戏圈精英的高端俱乐部，首批入会的20....",
"emailed" : False,
"forwarded" : False,
"english" : False
} ]
}
