{
"mode" : {"viewTitle" : 1,   "viewNew" : 0,  "pageIndex" : 1 },
 "channel" : {"id" : "7255642855892914742", "booked" : False, "subNumber" : 1, "name" : "汽车用品-新浪汽车", "url" : "http:\/\/auto.sina.com.cn\/automotive\/index.shtml", "feed" : "http:\/\/rss.sina.com.cn\/auto\/automotive\/index.xml", "author" : "WWW.SINA.COM.CN", "desc" : "汽车用品-要闻列表", "imageUrl" : "http:\/\/www.sinaimg.cn\/dy\/auto\/index\/topbar_03.gif", "postPerWeek" : "0", "lastCrawTime" : "17:03:50", "crawDateTime" : "16:33:45", "lastHttpCode" : "200"}, "page" : {
"startIndex" : 0,
"totalCount" : 812,
"pageIndex" : 1,
"lastPage" : 41,
"pageSize" : 20,
"english" :  False },
 "unreadNum" : 0, "shotIndex" : -1,
"articles" : [
{
"index" : 0,
"articleIndex" : "811",
"favor" :  False ,
     "read" : False,    
"title" : "汽车电商前景与模式思考:短促无益平台可期",
"titleTip" : "汽车电商前景与模式思考:短促无益平台可期",
"titleSummary" : "汽车电商前景与模式思考:短促无益平台可期",
"descSummary" : "",
"url" : "http:\/\/go.rss.sina.com.cn\/redirect.php?url=http:\/\/auto.sina.com.cn\/service\/2013-10-29\/18441241049.shtml",
"pubDate" : "昨天18:44:38",
"enterDate" : "384199:34:34",
"channelId" : "7255642855892914742",
"channelName" : "汽车用品-新浪汽车",
"channelNameSummary" : "汽车用品-新浪汽车",
"channelUrl" : "http:\/\/auto.sina.com.cn\/automotive\/index.shtml",
"author" : "WWW.SINA.COM.CN",
"tags" : [],
"desc" : "",
"emailed" : False,
"forwarded" : False,
"english" : False
}  , {
"index" : 1,
"articleIndex" : "810",
"favor" :  False ,
     "read" : False,    
"title" : "易湃汽车营销:微信营销到底能做什么",
"titleTip" : "易湃汽车营销:微信营销到底能做什么",
"titleSummary" : "易湃汽车营销:微信营销到底能做什么",
"descSummary" : "",
"url" : "http:\/\/go.rss.sina.com.cn\/redirect.php?url=http:\/\/auto.sina.com.cn\/service\/2013-10-29\/18431241048.shtml",
"pubDate" : "昨天18:43:17",
"enterDate" : "384199:33:13",
"channelId" : "7255642855892914742",
"channelName" : "汽车用品-新浪汽车",
"channelNameSummary" : "汽车用品-新浪汽车",
"channelUrl" : "http:\/\/auto.sina.com.cn\/automotive\/index.shtml",
"author" : "WWW.SINA.COM.CN",
"tags" : [],
"desc" : "",
"emailed" : False,
"forwarded" : False,
"english" : False
}  , {
"index" : 2,
"articleIndex" : "809",
"favor" :  False ,
     "read" : False,    
"title" : "首届云南国际汽车露营大会在石林开幕",
"titleTip" : "首届云南国际汽车露营大会在石林开幕",
"titleSummary" : "首届云南国际汽车露营大会在石林开幕",
"descSummary" : "",
"url" : "http:\/\/go.rss.sina.com.cn\/redirect.php?url=http:\/\/auto.sina.com.cn\/service\/2013-10-29\/18401241046.shtml",
"pubDate" : "昨天18:40:29",
"enterDate" : "384199:30:25",
"channelId" : "7255642855892914742",
"channelName" : "汽车用品-新浪汽车",
"channelNameSummary" : "汽车用品-新浪汽车",
"channelUrl" : "http:\/\/auto.sina.com.cn\/automotive\/index.shtml",
"author" : "WWW.SINA.COM.CN",
"tags" : [],
"desc" : "",
"emailed" : False,
"forwarded" : False,
"english" : False
}  , {
"index" : 3,
"articleIndex" : "808",
"favor" :  False ,
     "read" : False,    
"title" : "王凯明专访：正确认识车内微环境中的气味问题",
"titleTip" : "王凯明专访：正确认识车内微环境中的气味问题",
"titleSummary" : "王凯明专访：正确认识车内微环境中的气味问题",
"descSummary" : "",
"url" : "http:\/\/go.rss.sina.com.cn\/redirect.php?url=http:\/\/auto.sina.com.cn\/service\/2013-10-29\/18391241045.shtml",
"pubDate" : "昨天18:39:22",
"enterDate" : "384199:29:18",
"channelId" : "7255642855892914742",
"channelName" : "汽车用品-新浪汽车",
"channelNameSummary" : "汽车用品-新浪汽车",
"channelUrl" : "http:\/\/auto.sina.com.cn\/automotive\/index.shtml",
"author" : "WWW.SINA.COM.CN",
"tags" : [],
"desc" : "",
"emailed" : False,
"forwarded" : False,
"english" : False
}  , {
"index" : 4,
"articleIndex" : "807",
"favor" :  False ,
     "read" : False,    
"title" : "舰船夜视保千里 蛟龙下水惊四海",
"titleTip" : "舰船夜视保千里 蛟龙下水惊四海",
"titleSummary" : "舰船夜视保千里 蛟龙下水惊四海",
"descSummary" : "",
"url" : "http:\/\/go.rss.sina.com.cn\/redirect.php?url=http:\/\/auto.sina.com.cn\/service\/2013-10-29\/18371241044.shtml",
"pubDate" : "昨天18:37:56",
"enterDate" : "384199:27:52",
"channelId" : "7255642855892914742",
"channelName" : "汽车用品-新浪汽车",
"channelNameSummary" : "汽车用品-新浪汽车",
"channelUrl" : "http:\/\/auto.sina.com.cn\/automotive\/index.shtml",
"author" : "WWW.SINA.COM.CN",
"tags" : [],
"desc" : "",
"emailed" : False,
"forwarded" : False,
"english" : False
}  , {
"index" : 5,
"articleIndex" : "806",
"favor" :  False ,
     "read" : False,    
"title" : "超越头等舱的牧宝羊毛汽车坐垫",
"titleTip" : "超越头等舱的牧宝羊毛汽车坐垫",
"titleSummary" : "超越头等舱的牧宝羊毛汽车坐垫",
"descSummary" : "",
"url" : "http:\/\/go.rss.sina.com.cn\/redirect.php?url=http:\/\/auto.sina.com.cn\/service\/2013-10-29\/18291241038.shtml",
"pubDate" : "昨天18:29:09",
"enterDate" : "384199:19:05",
"channelId" : "7255642855892914742",
"channelName" : "汽车用品-新浪汽车",
"channelNameSummary" : "汽车用品-新浪汽车",
"channelUrl" : "http:\/\/auto.sina.com.cn\/automotive\/index.shtml",
"author" : "WWW.SINA.COM.CN",
"tags" : [],
"desc" : "",
"emailed" : False,
"forwarded" : False,
"english" : False
}  , {
"index" : 6,
"articleIndex" : "805",
"favor" :  False ,
     "read" : False,    
"title" : "罚单\u201C隐形杀手\u201D 威仕特H1首度深测",
"titleTip" : "罚单\u201C隐形杀手\u201D 威仕特H1首度深测",
"titleSummary" : "罚单\u201C隐形杀手\u201D 威仕特H1首度深测",
"descSummary" : "",
"url" : "http:\/\/go.rss.sina.com.cn\/redirect.php?url=http:\/\/auto.sina.com.cn\/service\/2013-10-29\/18191241034.shtml",
"pubDate" : "昨天18:19:49",
"enterDate" : "384199:09:45",
"channelId" : "7255642855892914742",
"channelName" : "汽车用品-新浪汽车",
"channelNameSummary" : "汽车用品-新浪汽车",
"channelUrl" : "http:\/\/auto.sina.com.cn\/automotive\/index.shtml",
"author" : "WWW.SINA.COM.CN",
"tags" : [],
"desc" : "",
"emailed" : False,
"forwarded" : False,
"english" : False
}  , {
"index" : 7,
"articleIndex" : "804",
"favor" :  False ,
     "read" : False,    
"title" : "汽车三包法倒逼汽车用品产业升级",
"titleTip" : "汽车三包法倒逼汽车用品产业升级",
"titleSummary" : "汽车三包法倒逼汽车用品产业升级",
"descSummary" : "",
"url" : "http:\/\/go.rss.sina.com.cn\/redirect.php?url=http:\/\/auto.sina.com.cn\/service\/2013-10-29\/18141241033.shtml",
"pubDate" : "昨天18:14:17",
"enterDate" : "384201:04:33",
"channelId" : "7255642855892914742",
"channelName" : "汽车用品-新浪汽车",
"channelNameSummary" : "汽车用品-新浪汽车",
"channelUrl" : "http:\/\/auto.sina.com.cn\/automotive\/index.shtml",
"author" : "WWW.SINA.COM.CN",
"tags" : [],
"desc" : "",
"emailed" : False,
"forwarded" : False,
"english" : False
}  , {
"index" : 8,
"articleIndex" : "803",
"favor" :  False ,
     "read" : False,    
"title" : "2013深圳车展 11月9日深圳湾F1摩托艇赛场盛装启幕",
"titleTip" : "2013深圳车展 11月9日深圳湾F1摩托艇赛场盛装启幕",
"titleSummary" : "2013深圳车展 11月9日深圳湾F1摩托艇赛场盛装启幕",
"descSummary" : "",
"url" : "http:\/\/go.rss.sina.com.cn\/redirect.php?url=http:\/\/auto.sina.com.cn\/service\/2013-10-28\/21071240531.shtml",
"pubDate" : "前天21:07:35",
"enterDate" : "384199:01:31",
"channelId" : "7255642855892914742",
"channelName" : "汽车用品-新浪汽车",
"channelNameSummary" : "汽车用品-新浪汽车",
"channelUrl" : "http:\/\/auto.sina.com.cn\/automotive\/index.shtml",
"author" : "WWW.SINA.COM.CN",
"tags" : [],
"desc" : "",
"emailed" : False,
"forwarded" : False,
"english" : False
}  , {
"index" : 9,
"articleIndex" : "802",
"favor" :  False ,
     "read" : False,    
"title" : "车易卖悄然布局京城 二手车网上竞价再跃进",
"titleTip" : "车易卖悄然布局京城 二手车网上竞价再跃进",
"titleSummary" : "车易卖悄然布局京城 二手车网上竞价再跃进",
"descSummary" : "",
"url" : "http:\/\/go.rss.sina.com.cn\/redirect.php?url=http:\/\/auto.sina.com.cn\/service\/2013-10-28\/21021240528.shtml",
"pubDate" : "前天21:02:25",
"enterDate" : "384198:56:21",
"channelId" : "7255642855892914742",
"channelName" : "汽车用品-新浪汽车",
"channelNameSummary" : "汽车用品-新浪汽车",
"channelUrl" : "http:\/\/auto.sina.com.cn\/automotive\/index.shtml",
"author" : "WWW.SINA.COM.CN",
"tags" : [],
"desc" : "",
"emailed" : False,
"forwarded" : False,
"english" : False
}  , {
"index" : 10,
"articleIndex" : "801",
"favor" :  False ,
     "read" : False,    
"title" : "台湾快译通行车记录仪评测（二）",
"titleTip" : "台湾快译通行车记录仪评测（二）",
"titleSummary" : "台湾快译通行车记录仪评测（二）",
"descSummary" : "",
"url" : "http:\/\/go.rss.sina.com.cn\/redirect.php?url=http:\/\/auto.sina.com.cn\/service\/2013-10-28\/21001240527.shtml",
"pubDate" : "前天21:00:23",
"enterDate" : "384198:54:19",
"channelId" : "7255642855892914742",
"channelName" : "汽车用品-新浪汽车",
"channelNameSummary" : "汽车用品-新浪汽车",
"channelUrl" : "http:\/\/auto.sina.com.cn\/automotive\/index.shtml",
"author" : "WWW.SINA.COM.CN",
"tags" : [],
"desc" : "",
"emailed" : False,
"forwarded" : False,
"english" : False
}  , {
"index" : 11,
"articleIndex" : "800",
"favor" :  False ,
     "read" : False,    
"title" : "儿童安全座椅使用率仅15% 自驾旅行前需准备什么",
"titleTip" : "儿童安全座椅使用率仅15% 自驾旅行前需准备什么",
"titleSummary" : "儿童安全座椅使用率仅15% 自驾旅行前需准备什么",
"descSummary" : "",
"url" : "http:\/\/go.rss.sina.com.cn\/redirect.php?url=http:\/\/auto.sina.com.cn\/service\/2013-10-28\/18121240508.shtml",
"pubDate" : "前天18:12:12",
"enterDate" : "384198:51:38",
"channelId" : "7255642855892914742",
"channelName" : "汽车用品-新浪汽车",
"channelNameSummary" : "汽车用品-新浪汽车",
"channelUrl" : "http:\/\/auto.sina.com.cn\/automotive\/index.shtml",
"author" : "WWW.SINA.COM.CN",
"tags" : [],
"desc" : "",
"emailed" : False,
"forwarded" : False,
"english" : False
}  , {
"index" : 12,
"articleIndex" : "799",
"favor" :  False ,
     "read" : False,    
"title" : "第二代电子狗行车记录仪一体机瑞世泰R303来袭",
"titleTip" : "第二代电子狗行车记录仪一体机瑞世泰R303来袭",
"titleSummary" : "第二代电子狗行车记录仪一体机瑞世泰R303来袭",
"descSummary" : "",
"url" : "http:\/\/go.rss.sina.com.cn\/redirect.php?url=http:\/\/auto.sina.com.cn\/service\/2013-10-25\/22491239904.shtml",
"pubDate" : "2013年10月25日 (5天前)",
"enterDate" : "384200:56:49",
"channelId" : "7255642855892914742",
"channelName" : "汽车用品-新浪汽车",
"channelNameSummary" : "汽车用品-新浪汽车",
"channelUrl" : "http:\/\/auto.sina.com.cn\/automotive\/index.shtml",
"author" : "WWW.SINA.COM.CN",
"tags" : [],
"desc" : "",
"emailed" : False,
"forwarded" : False,
"english" : False
}  , {
"index" : 13,
"articleIndex" : "798",
"favor" :  False ,
     "read" : False,    
"title" : "驰骋于心 捷达随行--捷达驾享营线上征集",
"titleTip" : "驰骋于心 捷达随行--捷达驾享营线上征集",
"titleSummary" : "驰骋于心 捷达随行--捷达驾享营线上征集",
"descSummary" : "",
"url" : "http:\/\/go.rss.sina.com.cn\/redirect.php?url=http:\/\/auto.sina.com.cn\/service\/2013-10-25\/19041239893.shtml",
"pubDate" : "2013年10月25日 (5天前)",
"enterDate" : "384199:43:10",
"channelId" : "7255642855892914742",
"channelName" : "汽车用品-新浪汽车",
"channelNameSummary" : "汽车用品-新浪汽车",
"channelUrl" : "http:\/\/auto.sina.com.cn\/automotive\/index.shtml",
"author" : "WWW.SINA.COM.CN",
"tags" : [],
"desc" : "",
"emailed" : False,
"forwarded" : False,
"english" : False
}  , {
"index" : 14,
"articleIndex" : "797",
"favor" :  False ,
     "read" : False,    
"title" : "艾仕得荣获年度中国汽车及零部件行业发展创新大奖",
"titleTip" : "艾仕得荣获年度中国汽车及零部件行业发展创新大奖",
"titleSummary" : "艾仕得荣获年度中国汽车及零部件行业发展创新大奖",
"descSummary" : "",
"url" : "http:\/\/go.rss.sina.com.cn\/redirect.php?url=http:\/\/auto.sina.com.cn\/service\/2013-10-25\/19001239891.shtml",
"pubDate" : "2013年10月25日 (5天前)",
"enterDate" : "384199:38:54",
"channelId" : "7255642855892914742",
"channelName" : "汽车用品-新浪汽车",
"channelNameSummary" : "汽车用品-新浪汽车",
"channelUrl" : "http:\/\/auto.sina.com.cn\/automotive\/index.shtml",
"author" : "WWW.SINA.COM.CN",
"tags" : [],
"desc" : "",
"emailed" : False,
"forwarded" : False,
"english" : False
}  , {
"index" : 15,
"articleIndex" : "796",
"favor" :  False ,
     "read" : False,    
"title" : "上海RA改博会今日启幕 改联网邀您网上观展",
"titleTip" : "上海RA改博会今日启幕 改联网邀您网上观展",
"titleSummary" : "上海RA改博会今日启幕 改联网邀您网上观展",
"descSummary" : "",
"url" : "http:\/\/go.rss.sina.com.cn\/redirect.php?url=http:\/\/auto.sina.com.cn\/service\/2013-10-25\/17511239874.shtml",
"pubDate" : "2013年10月25日 (5天前)",
"enterDate" : "384198:30:05",
"channelId" : "7255642855892914742",
"channelName" : "汽车用品-新浪汽车",
"channelNameSummary" : "汽车用品-新浪汽车",
"channelUrl" : "http:\/\/auto.sina.com.cn\/automotive\/index.shtml",
"author" : "WWW.SINA.COM.CN",
"tags" : [],
"desc" : "",
"emailed" : False,
"forwarded" : False,
"english" : False
}  , {
"index" : 16,
"articleIndex" : "795",
"favor" :  False ,
     "read" : False,    
"title" : "五羊-本田车队车手陈远航入围Moto3 赛事",
"titleTip" : "五羊-本田车队车手陈远航入围Moto3 赛事",
"titleSummary" : "五羊-本田车队车手陈远航入围Moto3 赛事",
"descSummary" : "",
"url" : "http:\/\/go.rss.sina.com.cn\/redirect.php?url=http:\/\/auto.sina.com.cn\/service\/2013-10-24\/20391239426.shtml",
"pubDate" : "2013年10月24日 (6天前)",
"enterDate" : "384198:22:11",
"channelId" : "7255642855892914742",
"channelName" : "汽车用品-新浪汽车",
"channelNameSummary" : "汽车用品-新浪汽车",
"channelUrl" : "http:\/\/auto.sina.com.cn\/automotive\/index.shtml",
"author" : "WWW.SINA.COM.CN",
"tags" : [],
"desc" : "",
"emailed" : False,
"forwarded" : False,
"english" : False
}  , {
"index" : 17,
"articleIndex" : "794",
"favor" :  False ,
     "read" : False,    
"title" : "政捷瞄准高端车主用户 首推ACME极致会员服务",
"titleTip" : "政捷瞄准高端车主用户 首推ACME极致会员服务",
"titleSummary" : "政捷瞄准高端车主用户 首推ACME极致会员服务",
"descSummary" : "",
"url" : "http:\/\/go.rss.sina.com.cn\/redirect.php?url=http:\/\/auto.sina.com.cn\/service\/2013-10-24\/20371239425.shtml",
"pubDate" : "2013年10月24日 (6天前)",
"enterDate" : "384198:19:53",
"channelId" : "7255642855892914742",
"channelName" : "汽车用品-新浪汽车",
"channelNameSummary" : "汽车用品-新浪汽车",
"channelUrl" : "http:\/\/auto.sina.com.cn\/automotive\/index.shtml",
"author" : "WWW.SINA.COM.CN",
"tags" : [],
"desc" : "",
"emailed" : False,
"forwarded" : False,
"english" : False
}  , {
"index" : 18,
"articleIndex" : "793",
"favor" :  False ,
     "read" : False,    
"title" : "牧宝负离子养生汽车脚垫见证健康核心科技",
"titleTip" : "牧宝负离子养生汽车脚垫见证健康核心科技",
"titleSummary" : "牧宝负离子养生汽车脚垫见证健康核心科技",
"descSummary" : "",
"url" : "http:\/\/go.rss.sina.com.cn\/redirect.php?url=http:\/\/auto.sina.com.cn\/service\/2013-10-24\/20331239423.shtml",
"pubDate" : "2013年10月24日 (6天前)",
"enterDate" : "384198:15:45",
"channelId" : "7255642855892914742",
"channelName" : "汽车用品-新浪汽车",
"channelNameSummary" : "汽车用品-新浪汽车",
"channelUrl" : "http:\/\/auto.sina.com.cn\/automotive\/index.shtml",
"author" : "WWW.SINA.COM.CN",
"tags" : [],
"desc" : "",
"emailed" : False,
"forwarded" : False,
"english" : False
}  , {
"index" : 19,
"articleIndex" : "792",
"favor" :  False ,
     "read" : False,    
"title" : "273实例解析购买二手车的十大注意事项",
"titleTip" : "273实例解析购买二手车的十大注意事项",
"titleSummary" : "273实例解析购买二手车的十大注意事项",
"descSummary" : "",
"url" : "http:\/\/go.rss.sina.com.cn\/redirect.php?url=http:\/\/auto.sina.com.cn\/service\/2013-10-24\/20271239420.shtml",
"pubDate" : "2013年10月24日 (6天前)",
"enterDate" : "384198:09:44",
"channelId" : "7255642855892914742",
"channelName" : "汽车用品-新浪汽车",
"channelNameSummary" : "汽车用品-新浪汽车",
"channelUrl" : "http:\/\/auto.sina.com.cn\/automotive\/index.shtml",
"author" : "WWW.SINA.COM.CN",
"tags" : [],
"desc" : "",
"emailed" : False,
"forwarded" : False,
"english" : False
} ]
}
