{
"mode" : {"viewTitle" : 1,   "viewNew" : 0,  "pageIndex" : 2 },
 "channel" : {"id" : "7255642855892914742", "booked" : False, "subNumber" : 1, "name" : "汽车用品-新浪汽车", "url" : "http:\/\/auto.sina.com.cn\/automotive\/index.shtml", "feed" : "http:\/\/rss.sina.com.cn\/auto\/automotive\/index.xml", "author" : "WWW.SINA.COM.CN", "desc" : "汽车用品-要闻列表", "imageUrl" : "http:\/\/www.sinaimg.cn\/dy\/auto\/index\/topbar_03.gif", "postPerWeek" : "0", "lastCrawTime" : "17:03:50", "crawDateTime" : "16:33:45", "lastHttpCode" : "200"}, "page" : {
"startIndex" : 20,
"totalCount" : 812,
"pageIndex" : 2,
"lastPage" : 41,
"pageSize" : 20,
"english" :  False },
 "unreadNum" : 0, "shotIndex" : -1,
"articles" : [
{
"index" : 0,
"articleIndex" : "791",
"favor" :  False ,
     "read" : False,    
"title" : "做到实处的极速\u2015\u2015任我游U351体验归来",
"titleTip" : "做到实处的极速\u2015\u2015任我游U351体验归来",
"titleSummary" : "做到实处的极速\u2015\u2015任我游U351体验归来",
"descSummary" : "",
"url" : "http:\/\/go.rss.sina.com.cn\/redirect.php?url=http:\/\/auto.sina.com.cn\/service\/2013-10-24\/18161239394.shtml",
"pubDate" : "2013年10月24日 (6天前)",
"enterDate" : "384199:14:24",
"channelId" : "7255642855892914742",
"channelName" : "汽车用品-新浪汽车",
"channelNameSummary" : "汽车用品-新浪汽车",
"channelUrl" : "http:\/\/auto.sina.com.cn\/automotive\/index.shtml",
"author" : "WWW.SINA.COM.CN",
"tags" : [],
"desc" : "",
"emailed" : False,
"forwarded" : False,
"english" : False
}  , {
"index" : 1,
"articleIndex" : "790",
"favor" :  False ,
     "read" : False,    
"title" : "全国汽配会汽配行业十佳评选投票进行中",
"titleTip" : "全国汽配会汽配行业十佳评选投票进行中",
"titleSummary" : "全国汽配会汽配行业十佳评选投票进行中",
"descSummary" : "",
"url" : "http:\/\/go.rss.sina.com.cn\/redirect.php?url=http:\/\/auto.sina.com.cn\/service\/2013-10-24\/15071239351.shtml",
"pubDate" : "2013年10月24日 (6天前)",
"enterDate" : "384200:51:28",
"channelId" : "7255642855892914742",
"channelName" : "汽车用品-新浪汽车",
"channelNameSummary" : "汽车用品-新浪汽车",
"channelUrl" : "http:\/\/auto.sina.com.cn\/automotive\/index.shtml",
"author" : "WWW.SINA.COM.CN",
"tags" : [],
"desc" : "",
"emailed" : False,
"forwarded" : False,
"english" : False
}  , {
"index" : 2,
"articleIndex" : "789",
"favor" :  False ,
     "read" : False,    
"title" : "牧宝激活碧玺石\u201C微\u201D能量",
"titleTip" : "牧宝激活碧玺石\u201C微\u201D能量",
"titleSummary" : "牧宝激活碧玺石\u201C微\u201D能量",
"descSummary" : "",
"url" : "http:\/\/go.rss.sina.com.cn\/redirect.php?url=http:\/\/auto.sina.com.cn\/service\/2013-10-23\/20071238808.shtml",
"pubDate" : "2013年10月23日 (1周前)",
"enterDate" : "384201:10:37",
"channelId" : "7255642855892914742",
"channelName" : "汽车用品-新浪汽车",
"channelNameSummary" : "汽车用品-新浪汽车",
"channelUrl" : "http:\/\/auto.sina.com.cn\/automotive\/index.shtml",
"author" : "WWW.SINA.COM.CN",
"tags" : [],
"desc" : "",
"emailed" : False,
"forwarded" : False,
"english" : False
}  , {
"index" : 3,
"articleIndex" : "788",
"favor" :  False ,
     "read" : False,    
"title" : "大学生方程式比赛收官 昆仑润滑油为汽车梦想加油",
"titleTip" : "大学生方程式比赛收官 昆仑润滑油为汽车梦想加油",
"titleSummary" : "大学生方程式比赛收官 昆仑润滑油为汽车梦想加油",
"descSummary" : "",
"url" : "http:\/\/go.rss.sina.com.cn\/redirect.php?url=http:\/\/auto.sina.com.cn\/service\/2013-10-23\/19401238798.shtml",
"pubDate" : "2013年10月23日 (1周前)",
"enterDate" : "384200:42:54",
"channelId" : "7255642855892914742",
"channelName" : "汽车用品-新浪汽车",
"channelNameSummary" : "汽车用品-新浪汽车",
"channelUrl" : "http:\/\/auto.sina.com.cn\/automotive\/index.shtml",
"author" : "WWW.SINA.COM.CN",
"tags" : [],
"desc" : "",
"emailed" : False,
"forwarded" : False,
"english" : False
}  , {
"index" : 4,
"articleIndex" : "787",
"favor" :  False ,
     "read" : False,    
"title" : "宝得适Britax\u201C完美出行系统\u201D 亮相婴童用品展",
"titleTip" : "宝得适Britax\u201C完美出行系统\u201D 亮相婴童用品展",
"titleSummary" : "宝得适Britax\u201C完美出行系统\u201D 亮相婴童用品展",
"descSummary" : "",
"url" : "http:\/\/go.rss.sina.com.cn\/redirect.php?url=http:\/\/auto.sina.com.cn\/service\/2013-10-23\/19311238797.shtml",
"pubDate" : "2013年10月23日 (1周前)",
"enterDate" : "384200:33:53",
"channelId" : "7255642855892914742",
"channelName" : "汽车用品-新浪汽车",
"channelNameSummary" : "汽车用品-新浪汽车",
"channelUrl" : "http:\/\/auto.sina.com.cn\/automotive\/index.shtml",
"author" : "WWW.SINA.COM.CN",
"tags" : [],
"desc" : "",
"emailed" : False,
"forwarded" : False,
"english" : False
}  , {
"index" : 5,
"articleIndex" : "786",
"favor" :  False ,
     "read" : False,    
"title" : "开启全新车生活 诚锐嘉倡导文明出行停车绿色生活",
"titleTip" : "开启全新车生活 诚锐嘉倡导文明出行停车绿色生活",
"titleSummary" : "开启全新车生活 诚锐嘉倡导文明出行停车绿色生活",
"descSummary" : "",
"url" : "http:\/\/go.rss.sina.com.cn\/redirect.php?url=http:\/\/auto.sina.com.cn\/service\/2013-10-23\/17571238790.shtml",
"pubDate" : "2013年10月23日 (1周前)",
"enterDate" : "384199:00:08",
"channelId" : "7255642855892914742",
"channelName" : "汽车用品-新浪汽车",
"channelNameSummary" : "汽车用品-新浪汽车",
"channelUrl" : "http:\/\/auto.sina.com.cn\/automotive\/index.shtml",
"author" : "WWW.SINA.COM.CN",
"tags" : [],
"desc" : "",
"emailed" : False,
"forwarded" : False,
"english" : False
}  , {
"index" : 6,
"articleIndex" : "785",
"favor" :  False ,
     "read" : False,    
"title" : "动感十足 威仕特T3全面实测",
"titleTip" : "动感十足 威仕特T3全面实测",
"titleSummary" : "动感十足 威仕特T3全面实测",
"descSummary" : "",
"url" : "http:\/\/go.rss.sina.com.cn\/redirect.php?url=http:\/\/auto.sina.com.cn\/service\/2013-10-23\/17551238789.shtml",
"pubDate" : "2013年10月23日 (1周前)",
"enterDate" : "384198:58:38",
"channelId" : "7255642855892914742",
"channelName" : "汽车用品-新浪汽车",
"channelNameSummary" : "汽车用品-新浪汽车",
"channelUrl" : "http:\/\/auto.sina.com.cn\/automotive\/index.shtml",
"author" : "WWW.SINA.COM.CN",
"tags" : [],
"desc" : "",
"emailed" : False,
"forwarded" : False,
"english" : False
}  , {
"index" : 7,
"articleIndex" : "784",
"favor" :  False ,
     "read" : False,    
"title" : "鑫源赛阿盟引领越野新生活",
"titleTip" : "鑫源赛阿盟引领越野新生活",
"titleSummary" : "鑫源赛阿盟引领越野新生活",
"descSummary" : "",
"url" : "http:\/\/go.rss.sina.com.cn\/redirect.php?url=http:\/\/auto.sina.com.cn\/service\/2013-10-22\/20001238248.shtml",
"pubDate" : "2013年10月22日 (1周前)",
"enterDate" : "384200:52:45",
"channelId" : "7255642855892914742",
"channelName" : "汽车用品-新浪汽车",
"channelNameSummary" : "汽车用品-新浪汽车",
"channelUrl" : "http:\/\/auto.sina.com.cn\/automotive\/index.shtml",
"author" : "WWW.SINA.COM.CN",
"tags" : [],
"desc" : "",
"emailed" : False,
"forwarded" : False,
"english" : False
}  , {
"index" : 8,
"articleIndex" : "783",
"favor" :  False ,
     "read" : False,    
"title" : "2013深圳车展 11月15-17日宝安体育馆隆重开展",
"titleTip" : "2013深圳车展 11月15-17日宝安体育馆隆重开展",
"titleSummary" : "2013深圳车展 11月15-17日宝安体育馆隆重开展",
"descSummary" : "",
"url" : "http:\/\/go.rss.sina.com.cn\/redirect.php?url=http:\/\/auto.sina.com.cn\/service\/2013-10-22\/19571238246.shtml",
"pubDate" : "2013年10月22日 (1周前)",
"enterDate" : "384200:49:27",
"channelId" : "7255642855892914742",
"channelName" : "汽车用品-新浪汽车",
"channelNameSummary" : "汽车用品-新浪汽车",
"channelUrl" : "http:\/\/auto.sina.com.cn\/automotive\/index.shtml",
"author" : "WWW.SINA.COM.CN",
"tags" : [],
"desc" : "",
"emailed" : False,
"forwarded" : False,
"english" : False
}  , {
"index" : 9,
"articleIndex" : "782",
"favor" :  False ,
     "read" : False,    
"title" : "全国热销电动车品牌排行榜公布 雅迪居首",
"titleTip" : "全国热销电动车品牌排行榜公布 雅迪居首",
"titleSummary" : "全国热销电动车品牌排行榜公布 雅迪居首",
"descSummary" : "",
"url" : "http:\/\/go.rss.sina.com.cn\/redirect.php?url=http:\/\/auto.sina.com.cn\/service\/2013-10-22\/19521238242.shtml",
"pubDate" : "2013年10月22日 (1周前)",
"enterDate" : "384200:44:23",
"channelId" : "7255642855892914742",
"channelName" : "汽车用品-新浪汽车",
"channelNameSummary" : "汽车用品-新浪汽车",
"channelUrl" : "http:\/\/auto.sina.com.cn\/automotive\/index.shtml",
"author" : "WWW.SINA.COM.CN",
"tags" : [],
"desc" : "",
"emailed" : False,
"forwarded" : False,
"english" : False
}  , {
"index" : 10,
"articleIndex" : "781",
"favor" :  False ,
     "read" : False,    
"title" : "悠驾宝汽车自动离合器 8大优势创就销售奇迹",
"titleTip" : "悠驾宝汽车自动离合器 8大优势创就销售奇迹",
"titleSummary" : "悠驾宝汽车自动离合器 8大优势创就销售奇迹",
"descSummary" : "",
"url" : "http:\/\/go.rss.sina.com.cn\/redirect.php?url=http:\/\/auto.sina.com.cn\/service\/2013-10-22\/19491238241.shtml",
"pubDate" : "2013年10月22日 (1周前)",
"enterDate" : "384200:41:20",
"channelId" : "7255642855892914742",
"channelName" : "汽车用品-新浪汽车",
"channelNameSummary" : "汽车用品-新浪汽车",
"channelUrl" : "http:\/\/auto.sina.com.cn\/automotive\/index.shtml",
"author" : "WWW.SINA.COM.CN",
"tags" : [],
"desc" : "",
"emailed" : False,
"forwarded" : False,
"english" : False
}  , {
"index" : 11,
"articleIndex" : "780",
"favor" :  False ,
     "read" : False,    
"title" : "前三季度新品电动车销量排名 雅迪电动车居首",
"titleTip" : "前三季度新品电动车销量排名 雅迪电动车居首",
"titleSummary" : "前三季度新品电动车销量排名 雅迪电动车居首",
"descSummary" : "",
"url" : "http:\/\/go.rss.sina.com.cn\/redirect.php?url=http:\/\/auto.sina.com.cn\/service\/2013-10-22\/19471238240.shtml",
"pubDate" : "2013年10月22日 (1周前)",
"enterDate" : "384200:39:18",
"channelId" : "7255642855892914742",
"channelName" : "汽车用品-新浪汽车",
"channelNameSummary" : "汽车用品-新浪汽车",
"channelUrl" : "http:\/\/auto.sina.com.cn\/automotive\/index.shtml",
"author" : "WWW.SINA.COM.CN",
"tags" : [],
"desc" : "",
"emailed" : False,
"forwarded" : False,
"english" : False
}  , {
"index" : 12,
"articleIndex" : "779",
"favor" :  False ,
     "read" : False,    
"title" : "五羊-本田2013新品锋格125 大气俊朗",
"titleTip" : "五羊-本田2013新品锋格125 大气俊朗",
"titleSummary" : "五羊-本田2013新品锋格125 大气俊朗",
"descSummary" : "",
"url" : "http:\/\/go.rss.sina.com.cn\/redirect.php?url=http:\/\/auto.sina.com.cn\/service\/2013-10-22\/19421238239.shtml",
"pubDate" : "2013年10月22日 (1周前)",
"enterDate" : "384200:34:37",
"channelId" : "7255642855892914742",
"channelName" : "汽车用品-新浪汽车",
"channelNameSummary" : "汽车用品-新浪汽车",
"channelUrl" : "http:\/\/auto.sina.com.cn\/automotive\/index.shtml",
"author" : "WWW.SINA.COM.CN",
"tags" : [],
"desc" : "",
"emailed" : False,
"forwarded" : False,
"english" : False
}  , {
"index" : 13,
"articleIndex" : "778",
"favor" :  False ,
     "read" : False,    
"title" : "\u201C博鹏\u201D行车记录仪 安全出门远离交通事故",
"titleTip" : "\u201C博鹏\u201D行车记录仪 安全出门远离交通事故",
"titleSummary" : "\u201C博鹏\u201D行车记录仪 安全出门远离交通事故",
"descSummary" : "",
"url" : "http:\/\/go.rss.sina.com.cn\/redirect.php?url=http:\/\/auto.sina.com.cn\/service\/2013-10-22\/19021238233.shtml",
"pubDate" : "2013年10月22日 (1周前)",
"enterDate" : "384199:54:33",
"channelId" : "7255642855892914742",
"channelName" : "汽车用品-新浪汽车",
"channelNameSummary" : "汽车用品-新浪汽车",
"channelUrl" : "http:\/\/auto.sina.com.cn\/automotive\/index.shtml",
"author" : "WWW.SINA.COM.CN",
"tags" : [],
"desc" : "",
"emailed" : False,
"forwarded" : False,
"english" : False
}  , {
"index" : 14,
"articleIndex" : "777",
"favor" :  False ,
     "read" : False,    
"title" : "豪车云集 深圳汉萨名车会成立",
"titleTip" : "豪车云集 深圳汉萨名车会成立",
"titleSummary" : "豪车云集 深圳汉萨名车会成立",
"descSummary" : "",
"url" : "http:\/\/go.rss.sina.com.cn\/redirect.php?url=http:\/\/auto.sina.com.cn\/service\/2013-10-22\/18551238228.shtml",
"pubDate" : "2013年10月22日 (1周前)",
"enterDate" : "384199:47:35",
"channelId" : "7255642855892914742",
"channelName" : "汽车用品-新浪汽车",
"channelNameSummary" : "汽车用品-新浪汽车",
"channelUrl" : "http:\/\/auto.sina.com.cn\/automotive\/index.shtml",
"author" : "WWW.SINA.COM.CN",
"tags" : [],
"desc" : "",
"emailed" : False,
"forwarded" : False,
"english" : False
}  , {
"index" : 15,
"articleIndex" : "776",
"favor" :  False ,
     "read" : False,    
"title" : "倍耐力为阿尔法∙罗密欧4C特别定制轮胎",
"titleTip" : "倍耐力为阿尔法∙罗密欧4C特别定制轮胎",
"titleSummary" : "倍耐力为阿尔法∙罗密欧4C特别定制轮胎",
"descSummary" : "",
"url" : "http:\/\/go.rss.sina.com.cn\/redirect.php?url=http:\/\/auto.sina.com.cn\/service\/2013-10-22\/13561238164.shtml",
"pubDate" : "2013年10月22日 (1周前)",
"enterDate" : "384200:04:21",
"channelId" : "7255642855892914742",
"channelName" : "汽车用品-新浪汽车",
"channelNameSummary" : "汽车用品-新浪汽车",
"channelUrl" : "http:\/\/auto.sina.com.cn\/automotive\/index.shtml",
"author" : "WWW.SINA.COM.CN",
"tags" : [],
"desc" : "",
"emailed" : False,
"forwarded" : False,
"english" : False
}  , {
"index" : 16,
"articleIndex" : "775",
"favor" :  False ,
     "read" : False,    
"title" : "大潮退去方知谁在裸泳《魔域》回馈玩家良心报告",
"titleTip" : "大潮退去方知谁在裸泳《魔域》回馈玩家良心报告",
"titleSummary" : "大潮退去方知谁在裸泳《魔域》回馈玩家良心报告",
"descSummary" : "",
"url" : "http:\/\/go.rss.sina.com.cn\/redirect.php?url=http:\/\/auto.sina.com.cn\/service\/2013-10-21\/21161237696.shtml",
"pubDate" : "2013年10月21日 (1周前)",
"enterDate" : "384198:57:34",
"channelId" : "7255642855892914742",
"channelName" : "汽车用品-新浪汽车",
"channelNameSummary" : "汽车用品-新浪汽车",
"channelUrl" : "http:\/\/auto.sina.com.cn\/automotive\/index.shtml",
"author" : "WWW.SINA.COM.CN",
"tags" : [],
"desc" : "",
"emailed" : False,
"forwarded" : False,
"english" : False
}  , {
"index" : 17,
"articleIndex" : "774",
"favor" :  False ,
     "read" : False,    
"title" : "崔永元公益:长安神童校车 支持上海平安校园大会",
"titleTip" : "崔永元公益:长安神童校车 支持上海平安校园大会",
"titleSummary" : "崔永元公益:长安神童校车 支持上海平安校园大会",
"descSummary" : "",
"url" : "http:\/\/go.rss.sina.com.cn\/redirect.php?url=http:\/\/auto.sina.com.cn\/service\/2013-10-21\/21151237695.shtml",
"pubDate" : "2013年10月21日 (1周前)",
"enterDate" : "384198:56:15",
"channelId" : "7255642855892914742",
"channelName" : "汽车用品-新浪汽车",
"channelNameSummary" : "汽车用品-新浪汽车",
"channelUrl" : "http:\/\/auto.sina.com.cn\/automotive\/index.shtml",
"author" : "WWW.SINA.COM.CN",
"tags" : [],
"desc" : "",
"emailed" : False,
"forwarded" : False,
"english" : False
}  , {
"index" : 18,
"articleIndex" : "773",
"favor" :  False ,
     "read" : False,    
"title" : "奥山集团赞助亚洲勒芒赛车手程飞所属OAK车队夺冠",
"titleTip" : "奥山集团赞助亚洲勒芒赛车手程飞所属OAK车队夺冠",
"titleSummary" : "奥山集团赞助亚洲勒芒赛车手程飞所属OAK车队夺冠",
"descSummary" : "",
"url" : "http:\/\/go.rss.sina.com.cn\/redirect.php?url=http:\/\/auto.sina.com.cn\/service\/2013-10-21\/21121237693.shtml",
"pubDate" : "2013年10月21日 (1周前)",
"enterDate" : "384198:53:45",
"channelId" : "7255642855892914742",
"channelName" : "汽车用品-新浪汽车",
"channelNameSummary" : "汽车用品-新浪汽车",
"channelUrl" : "http:\/\/auto.sina.com.cn\/automotive\/index.shtml",
"author" : "WWW.SINA.COM.CN",
"tags" : [],
"desc" : "",
"emailed" : False,
"forwarded" : False,
"english" : False
}  , {
"index" : 19,
"articleIndex" : "772",
"favor" :  False ,
     "read" : False,    
"title" : "爱玛电动车首创基尼斯纪录 一次充电续行1000里",
"titleTip" : "爱玛电动车首创基尼斯纪录 一次充电续行1000里",
"titleSummary" : "爱玛电动车首创基尼斯纪录 一次充电续行1000里",
"descSummary" : "",
"url" : "http:\/\/go.rss.sina.com.cn\/redirect.php?url=http:\/\/auto.sina.com.cn\/service\/2013-10-21\/21101237691.shtml",
"pubDate" : "2013年10月21日 (1周前)",
"enterDate" : "384198:51:29",
"channelId" : "7255642855892914742",
"channelName" : "汽车用品-新浪汽车",
"channelNameSummary" : "汽车用品-新浪汽车",
"channelUrl" : "http:\/\/auto.sina.com.cn\/automotive\/index.shtml",
"author" : "WWW.SINA.COM.CN",
"tags" : [],
"desc" : "",
"emailed" : False,
"forwarded" : False,
"english" : False
} ]
}
