{
"mode" : {"viewTitle" : 1,   "viewNew" : 0,  "pageIndex" : 1 },
 "channel" : {"id" : "4162878786041438345", "booked" : False, "subNumber" : 2297, "name" : "军事焦点新闻-新浪军事", "url" : "http:\/\/mil.news.sina.com.cn\/focus\/index.html", "feed" : "http:\/\/rss.sina.com.cn\/jczs\/focus.xml", "author" : "www.sina.com.cn", "desc" : "焦点新闻", "imageUrl" : "http:\/\/www.sinaimg.cn\/jc\/deco\/2010\/0909\/mil_yc_common.jpg", "postPerWeek" : "194", "lastCrawTime" : "16:51:30", "crawDateTime" : "16:51:30", "lastHttpCode" : "200"}, "page" : {
"startIndex" : 0,
"totalCount" : 5000,
"pageIndex" : 1,
"lastPage" : 250,
"pageSize" : 20,
"english" :  False },
 "unreadNum" : 0, "shotIndex" : -1,
"articles" : [
{
"index" : 0,
"articleIndex" : "58445",
"favor" :  False ,
     "read" : False,    
"title" : "美国3年内可投产陆基电磁炮 可执行反导任务(图)",
"titleTip" : "美国3年内可投产陆基电磁炮 可执行反导任务(图)",
"titleSummary" : "美国3年内可投产陆基电磁炮 可执行反导任务(图)",
"descSummary" : "【环球网报道 记者 刘昆】10月30日出版的简氏防务周刊...",
"url" : "http:\/\/go.rss.sina.com.cn\/redirect.php?url=http:\/\/mil.news.sina.com.cn\/2013-10-30\/1530747038.html",
"pubDate" : "15:30:21",
"enterDate" : "384200:58:13",
"channelId" : "4162878786041438345",
"channelName" : "军事焦点新闻-新浪军事",
"channelNameSummary" : "军事焦点新闻-新浪军...",
"channelUrl" : "http:\/\/mil.news.sina.com.cn\/focus\/index.html",
"author" : "www.sina.com.cn",
"tags" : [],
"desc" : "【环球网报道 记者 刘昆】10月30日出版的简氏防务周刊称，美国通用原子公司近期展出了一款陆基电磁轨道炮概念模型。 该公司称，如果资金充足，这款陆基电磁炮可在2-3年内投产。电磁炮最先为海军研发，2010年发射测试中创出了弹丸速度达五倍音速的记录。通用原子公司还....",
"emailed" : False,
"forwarded" : False,
"english" : False
}  , {
"index" : 1,
"articleIndex" : "58437",
"favor" :  False ,
     "read" : False,    
"title" : "日本夺岛主力部队7成士兵受过高强度特种作战训练",
"titleTip" : "日本夺岛主力部队7成士兵受过高强度特种作战训练",
"titleSummary" : "日本夺岛主力部队7成士兵受过高强度特种作战训练",
"descSummary" : "《法制文萃报》专稿 作者：武居玄 日本大型夺岛演习...",
"url" : "http:\/\/go.rss.sina.com.cn\/redirect.php?url=http:\/\/mil.news.sina.com.cn\/2013-10-30\/1459747036.html",
"pubDate" : "14:59:17",
"enterDate" : "384200:57:13",
"channelId" : "4162878786041438345",
"channelName" : "军事焦点新闻-新浪军事",
"channelNameSummary" : "军事焦点新闻-新浪军...",
"channelUrl" : "http:\/\/mil.news.sina.com.cn\/focus\/index.html",
"author" : "www.sina.com.cn",
"tags" : [],
"desc" : "&#160; 《法制文萃报》专稿 作者：武居玄 日本大型夺岛演习即将开始 根据日本《产经新闻》报道称，日本首相安倍晋三10月27日上午在日本陆上自卫队朝霞基地观看了阅兵仪式。约50架飞机、240辆战车及近4000名自卫队队员参加了当天的自卫队日阅兵式。负责离岛防....",
"emailed" : False,
"forwarded" : False,
"english" : False
}  , {
"index" : 2,
"articleIndex" : "58444",
"favor" :  False ,
     "read" : False,    
"title" : "越美举行第4次防务政策对话 将加强安全合作",
"titleTip" : "越美举行第4次防务政策对话 将加强安全合作",
"titleSummary" : "越美举行第4次防务政策对话 将加强安全合作",
"descSummary" : "中新网10月30日 据越通社报道，越南与美国副部长级第4次防...",
"url" : "http:\/\/go.rss.sina.com.cn\/redirect.php?url=http:\/\/mil.news.sina.com.cn\/2013-10-30\/1422747034.html",
"pubDate" : "14:22:00",
"enterDate" : "384199:49:52",
"channelId" : "4162878786041438345",
"channelName" : "军事焦点新闻-新浪军事",
"channelNameSummary" : "军事焦点新闻-新浪军...",
"channelUrl" : "http:\/\/mil.news.sina.com.cn\/focus\/index.html",
"author" : "www.sina.com.cn",
"tags" : [],
"desc" : "中新网10月30日 据越通社报道，越南与美国副部长级第4次防务政策对话于当地时间10月28日至29日在美国首都华盛顿举行。对话期间，越南与美国就加强在清除越战遗留危险物、救难救灾、海上安全、地区形势、联合国维和行动等方面的合作达成一致。 报道称，由越共中央委员、....",
"emailed" : False,
"forwarded" : False,
"english" : False
}  , {
"index" : 3,
"articleIndex" : "58443",
"favor" :  False ,
     "read" : False,    
"title" : "日媒称中国4艘海警船连续3天巡航钓鱼岛海域",
"titleTip" : "日媒称中国4艘海警船连续3天巡航钓鱼岛海域",
"titleSummary" : "日媒称中国4艘海警船连续3天巡航钓鱼岛海域",
"descSummary" : "【环球网综合报道】日本《读卖新闻》10月30日报道称，...",
"url" : "http:\/\/go.rss.sina.com.cn\/redirect.php?url=http:\/\/mil.news.sina.com.cn\/2013-10-30\/1404747030.html",
"pubDate" : "14:04:49",
"enterDate" : "384199:32:41",
"channelId" : "4162878786041438345",
"channelName" : "军事焦点新闻-新浪军事",
"channelNameSummary" : "军事焦点新闻-新浪军...",
"channelUrl" : "http:\/\/mil.news.sina.com.cn\/focus\/index.html",
"author" : "www.sina.com.cn",
"tags" : [],
"desc" : "【环球网综合报道】日本《读卖新闻》10月30日报道称，经日本海上保安厅巡逻船确认，30日当天，4艘中国海警船进入钓鱼岛周边毗邻水域巡航执法。 报道称，此次已是中方公务船连续3天巡航钓鱼岛。日本第11管区那霸海上保安本部称，此次巡航执法的4艘海警船分别是\u201C海警112....",
"emailed" : False,
"forwarded" : False,
"english" : False
}  , {
"index" : 4,
"articleIndex" : "58442",
"favor" :  False ,
     "read" : False,    
"title" : "英媒称钓鱼岛发生意外冲突可能性比以往都大",
"titleTip" : "英媒称钓鱼岛发生意外冲突可能性比以往都大",
"titleSummary" : "英媒称钓鱼岛发生意外冲突可能性比以往都大",
"descSummary" : "【环球网综合报道】据英国《金融时报》网站10月28日报...",
"url" : "http:\/\/go.rss.sina.com.cn\/redirect.php?url=http:\/\/mil.news.sina.com.cn\/2013-10-30\/1346747029.html",
"pubDate" : "13:46:52",
"enterDate" : "384199:14:44",
"channelId" : "4162878786041438345",
"channelName" : "军事焦点新闻-新浪军事",
"channelNameSummary" : "军事焦点新闻-新浪军...",
"channelUrl" : "http:\/\/mil.news.sina.com.cn\/focus\/index.html",
"author" : "www.sina.com.cn",
"tags" : [],
"desc" : "【环球网综合报道】据英国《金融时报》网站10月28日报道，自东京去年将争议岛屿\u201C国有化\u201D以来，中日关系高度紧张。 报道援引战略与国际问题研究中心亚洲问题专家迈克尔・格林的话说，钓鱼岛附近发生意外冲突的可能性\u201C比以往任何时候都大，但现在并非1914年\u201D。 ....",
"emailed" : False,
"forwarded" : False,
"english" : False
}  , {
"index" : 5,
"articleIndex" : "58441",
"favor" :  False ,
     "read" : False,    
"title" : "土耳其：若与中国磋商失败将重新招标反导系统",
"titleTip" : "土耳其：若与中国磋商失败将重新招标反导系统",
"titleSummary" : "土耳其：若与中国磋商失败将重新招标反导系统",
"descSummary" : "中新网10月30日电 据中国国防科技信息网报道，土耳其...",
"url" : "http:\/\/go.rss.sina.com.cn\/redirect.php?url=http:\/\/mil.news.sina.com.cn\/2013-10-30\/1145747028.html",
"pubDate" : "11:45:00",
"enterDate" : "384197:12:52",
"channelId" : "4162878786041438345",
"channelName" : "军事焦点新闻-新浪军事",
"channelNameSummary" : "军事焦点新闻-新浪军...",
"channelUrl" : "http:\/\/mil.news.sina.com.cn\/focus\/index.html",
"author" : "www.sina.com.cn",
"tags" : [],
"desc" : "中新网10月30日电 据中国国防科技信息网报道，土耳其于近日表示，如与中国磋商失败，其计划就获得首批远程反导弹系统举行新的公开招标。土耳其外交部长达乌特奥卢表示，交易并没有完成，如果美国和欧洲公司能够为其提供更好的产品，土耳其愿意同其保持对话。 上月，土....",
"emailed" : False,
"forwarded" : False,
"english" : False
}  , {
"index" : 6,
"articleIndex" : "58440",
"favor" :  False ,
     "read" : False,    
"title" : "英媒称中国首艘核潜艇或入驻青岛海军博物馆",
"titleTip" : "英媒称中国首艘核潜艇或入驻青岛海军博物馆",
"titleSummary" : "英媒称中国首艘核潜艇或入驻青岛海军博物馆",
"descSummary" : "【环球网综合报道】据英国广播公司网站10月29日援引中...",
"url" : "http:\/\/go.rss.sina.com.cn\/redirect.php?url=http:\/\/mil.news.sina.com.cn\/2013-10-30\/1141747027.html",
"pubDate" : "11:41:51",
"enterDate" : "384197:09:43",
"channelId" : "4162878786041438345",
"channelName" : "军事焦点新闻-新浪军事",
"channelNameSummary" : "军事焦点新闻-新浪军...",
"channelUrl" : "http:\/\/mil.news.sina.com.cn\/focus\/index.html",
"author" : "www.sina.com.cn",
"tags" : [],
"desc" : "【环球网综合报道】据英国广播公司网站10月29日援引中国媒体的报道，就在中国向外界解密其核潜艇部队后数日，中国军方媒体称中国首艘核潜艇已经退役。 中国首艘核潜艇在1970年下水，4年后正式开始服役。10月29日出版的《解放军报》刊登报道称，目前这艘隶属北海舰队的....",
"emailed" : False,
"forwarded" : False,
"english" : False
}  , {
"index" : 7,
"articleIndex" : "58439",
"favor" :  False ,
     "read" : False,    
"title" : "日本炒作中国无人机意在购美MQ-8控制钓鱼岛",
"titleTip" : "日本炒作中国无人机意在购美MQ-8控制钓鱼岛",
"titleSummary" : "日本炒作中国无人机意在购美MQ-8控制钓鱼岛",
"descSummary" : "人民网10月30日电 (记者 黄子娟)28号，日本内阁官房长官...",
"url" : "http:\/\/go.rss.sina.com.cn\/redirect.php?url=http:\/\/mil.news.sina.com.cn\/2013-10-30\/1137747025.html",
"pubDate" : "11:37:04",
"enterDate" : "384197:04:56",
"channelId" : "4162878786041438345",
"channelName" : "军事焦点新闻-新浪军事",
"channelNameSummary" : "军事焦点新闻-新浪军...",
"channelUrl" : "http:\/\/mil.news.sina.com.cn\/focus\/index.html",
"author" : "www.sina.com.cn",
"tags" : [],
"desc" : "人民网10月30日电 (记者 黄子娟)28号，日本内阁官房长官菅义伟称，日本将依照《国际法》应对中国的无人机。鉴于之前日本曾经多次声称将会击落侵入日本领空的中国无人机，这个发言让刚刚消停的无人机风波再起。军事专家杜文龙在接受媒体采访时表示，日本炒作中国的无人机，实际....",
"emailed" : False,
"forwarded" : False,
"english" : False
}  , {
"index" : 8,
"articleIndex" : "58436",
"favor" :  False ,
     "read" : False,    
"title" : "我军大校：中国攻击核潜艇将为航母编队护航",
"titleTip" : "我军大校：中国攻击核潜艇将为航母编队护航",
"titleSummary" : "我军大校：中国攻击核潜艇将为航母编队护航",
"descSummary" : "近日，中国首次公开核潜艇部队的消息引起各方热议。军事...",
"url" : "http:\/\/go.rss.sina.com.cn\/redirect.php?url=http:\/\/mil.news.sina.com.cn\/2013-10-30\/1118747017.html",
"pubDate" : "11:18:22",
"enterDate" : "384200:47:03",
"channelId" : "4162878786041438345",
"channelName" : "军事焦点新闻-新浪军事",
"channelNameSummary" : "军事焦点新闻-新浪军...",
"channelUrl" : "http:\/\/mil.news.sina.com.cn\/focus\/index.html",
"author" : "www.sina.com.cn",
"tags" : [],
"desc" : "近日，中国首次公开核潜艇部队的消息引起各方热议。军事专家杜文龙在接受媒体采访时，解读了中国战略导弹核潜艇和攻击型核潜艇的区别和作战任务，认为今后航母走向大洋时可能将有攻击型核潜艇伴随护航。 英国《金融时报》28日发表文章，题目为\u201C中国核潜艇驰骋于大洋深....",
"emailed" : False,
"forwarded" : False,
"english" : False
}  , {
"index" : 9,
"articleIndex" : "58435",
"favor" :  False ,
     "read" : False,    
"title" : "外媒评中国战略核潜艇部队：不再是海岸警备队",
"titleTip" : "外媒评中国战略核潜艇部队：不再是海岸警备队",
"titleSummary" : "外媒评中国战略核潜艇部队：不再是海岸警备队",
"descSummary" : "中国核潜艇某部队虽已组建42年，却一直充满神秘感。...",
"url" : "http:\/\/go.rss.sina.com.cn\/redirect.php?url=http:\/\/mil.news.sina.com.cn\/2013-10-30\/1116747016.html",
"pubDate" : "11:16:06",
"enterDate" : "384200:44:47",
"channelId" : "4162878786041438345",
"channelName" : "军事焦点新闻-新浪军事",
"channelNameSummary" : "军事焦点新闻-新浪军...",
"channelUrl" : "http:\/\/mil.news.sina.com.cn\/focus\/index.html",
"author" : "www.sina.com.cn",
"tags" : [],
"desc" : "中国核潜艇某部队虽已组建42年，却一直充满神秘感。近日，我国各大媒体对中国核潜艇某部队进行了大量解密报道，引起国内外的广泛关注。1970年12月26日，我国第一艘核潜艇下水，这是继\u201C两弹一星\u201D之后的又一国之重器。中国第一支核潜艇部队在人民海军北海舰队某潜艇基地诞生，....",
"emailed" : False,
"forwarded" : False,
"english" : False
}  , {
"index" : 10,
"articleIndex" : "58438",
"favor" :  False ,
     "read" : False,    
"title" : "港媒：中日攻防战事关国运 比美苏争霸更激烈",
"titleTip" : "港媒：中日攻防战事关国运 比美苏争霸更激烈",
"titleSummary" : "港媒：中日攻防战事关国运 比美苏争霸更激烈",
"descSummary" : "【环球网综合报道】据香港《东方日报》10月29日报道，...",
"url" : "http:\/\/go.rss.sina.com.cn\/redirect.php?url=http:\/\/mil.news.sina.com.cn\/2013-10-30\/1114747021.html",
"pubDate" : "11:14:00",
"enterDate" : "384196:41:52",
"channelId" : "4162878786041438345",
"channelName" : "军事焦点新闻-新浪军事",
"channelNameSummary" : "军事焦点新闻-新浪军...",
"channelUrl" : "http:\/\/mil.news.sina.com.cn\/focus\/index.html",
"author" : "www.sina.com.cn",
"tags" : [],
"desc" : "【环球网综合报道】据香港《东方日报》10月29日报道，中日钓鱼岛之争已演变成两国总体攻防战，双方在军事、外交、经济等多个层面短兵相接，比冷战时期美苏争霸更加激烈。这场攸关两国国运的争斗，将影响东亚乃至世界的格局。 据报道，日本首相安倍晋三日前出访土耳其，....",
"emailed" : False,
"forwarded" : False,
"english" : False
}  , {
"index" : 11,
"articleIndex" : "58434",
"favor" :  False ,
     "read" : False,    
"title" : "解放军大校称094核潜艇将载巨浪2导弹只是猜测",
"titleTip" : "解放军大校称094核潜艇将载巨浪2导弹只是猜测",
"titleSummary" : "解放军大校称094核潜艇将载巨浪2导弹只是猜测",
"descSummary" : "人民网10月30日电（记者黄子娟）近日，中国首次公开...",
"url" : "http:\/\/go.rss.sina.com.cn\/redirect.php?url=http:\/\/mil.news.sina.com.cn\/2013-10-30\/1101747015.html",
"pubDate" : "11:01:00",
"enterDate" : "384200:29:41",
"channelId" : "4162878786041438345",
"channelName" : "军事焦点新闻-新浪军事",
"channelNameSummary" : "军事焦点新闻-新浪军...",
"channelUrl" : "http:\/\/mil.news.sina.com.cn\/focus\/index.html",
"author" : "www.sina.com.cn",
"tags" : [],
"desc" : "&#160; 人民网10月30日电（记者黄子娟）近日，中国首次公开核潜艇部队的消息引起了各方的热议。外媒对094型的晋级核潜艇格外关注，称将搭载巨浪2导弹，威力很大。军事专家杜文龙在接受媒体采访时表示，这都是外媒的猜测，我们发展武器及能力，要根据自己的战略需要来进行。....",
"emailed" : False,
"forwarded" : False,
"english" : False
}  , {
"index" : 12,
"articleIndex" : "58433",
"favor" :  False ,
     "read" : False,    
"title" : "分析称中国空军远程对地攻击能力全面领先日本",
"titleTip" : "分析称中国空军远程对地攻击能力全面领先日本",
"titleSummary" : "分析称中国空军远程对地攻击能力全面领先日本",
"descSummary" : "针对所谓\u201C中国无人机闯入钓鱼岛空域\u201D一事，日方发出...",
"url" : "http:\/\/go.rss.sina.com.cn\/redirect.php?url=http:\/\/mil.news.sina.com.cn\/2013-10-30\/1057747011.html",
"pubDate" : "10:57:32",
"enterDate" : "384200:26:13",
"channelId" : "4162878786041438345",
"channelName" : "军事焦点新闻-新浪军事",
"channelNameSummary" : "军事焦点新闻-新浪军...",
"channelUrl" : "http:\/\/mil.news.sina.com.cn\/focus\/index.html",
"author" : "www.sina.com.cn",
"tags" : [],
"desc" : "针对所谓\u201C中国无人机闯入钓鱼岛空域\u201D一事，日方发出了\u201C击落\u201D的威胁，中国国防部回应，中国飞机从未侵犯他国领空，日如击落我无人机即为战争行为，中方必将采取果断措施予以反击。 尽管日本为争夺钓鱼岛附近海空域控制权加紧布局，但其在极力叫嚣的同时，也反映出了....",
"emailed" : False,
"forwarded" : False,
"english" : False
}  , {
"index" : 13,
"articleIndex" : "58432",
"favor" :  False ,
     "read" : False,    
"title" : "俄今年已出口6架苏30MK2战机 买家或为越南",
"titleTip" : "俄今年已出口6架苏30MK2战机 买家或为越南",
"titleSummary" : "俄今年已出口6架苏30MK2战机 买家或为越南",
"descSummary" : "中新网10月30日电据俄罗斯之声网站报道，俄罗斯联邦工业...",
"url" : "http:\/\/go.rss.sina.com.cn\/redirect.php?url=http:\/\/mil.news.sina.com.cn\/2013-10-30\/1033747004.html",
"pubDate" : "10:33:00",
"enterDate" : "384200:01:41",
"channelId" : "4162878786041438345",
"channelName" : "军事焦点新闻-新浪军事",
"channelNameSummary" : "军事焦点新闻-新浪军...",
"channelUrl" : "http:\/\/mil.news.sina.com.cn\/focus\/index.html",
"author" : "www.sina.com.cn",
"tags" : [],
"desc" : "&#160; 中新网10月30日电据俄罗斯之声网站报道，俄罗斯联邦工业和贸易部公告称，俄罗斯苏霍伊飞机制造集团2013年已出口6架苏-30MK2多用途战斗机，2012年则为10架。 报道称，俄工贸部没有披露买家是谁。然而据之前报道，2013年8月俄罗斯签署了向越南出口12架苏-30MK2....",
"emailed" : False,
"forwarded" : False,
"english" : False
}  , {
"index" : 14,
"articleIndex" : "58431",
"favor" :  False ,
     "read" : False,    
"title" : "中国记者模拟驾驶F-35：操纵极灵敏随意翻跟头",
"titleTip" : "中国记者模拟驾驶F-35：操纵极灵敏随意翻跟头",
"titleSummary" : "中国记者模拟驾驶F-35：操纵极灵敏随意翻跟头",
"descSummary" : "两年一次的\u201C2013年首尔国际航空宇宙及防卫产业展(ADE...",
"url" : "http:\/\/go.rss.sina.com.cn\/redirect.php?url=http:\/\/mil.news.sina.com.cn\/2013-10-30\/1007746999.html",
"pubDate" : "10:07:00",
"enterDate" : "384199:35:41",
"channelId" : "4162878786041438345",
"channelName" : "军事焦点新闻-新浪军事",
"channelNameSummary" : "军事焦点新闻-新浪军...",
"channelUrl" : "http:\/\/mil.news.sina.com.cn\/focus\/index.html",
"author" : "www.sina.com.cn",
"tags" : [],
"desc" : "&#160; 两年一次的\u201C2013年首尔国际航空宇宙及防卫产业展(ADEX)\u201D29日在京畿道高阳市的KINTEX正式开幕。今年的展会有来自世界28个国家的361家相关企业参加，规模为有史以来最大。展品中不仅包括韩国主要的武器装备，美国准备对韩出售的F-35战机和\u201C全球鹰\u201D无人机等高端装....",
"emailed" : False,
"forwarded" : False,
"english" : False
}  , {
"index" : 15,
"articleIndex" : "58426",
"favor" :  False ,
     "read" : False,    
"title" : "中国军舰靠近日本领海返航 日防相称须早期预警",
"titleTip" : "中国军舰靠近日本领海返航 日防相称须早期预警",
"titleSummary" : "中国军舰靠近日本领海返航 日防相称须早期预警",
"descSummary" : "【环球网报道 记者 关超】日本《读卖新闻》10月29日援...",
"url" : "http:\/\/go.rss.sina.com.cn\/redirect.php?url=http:\/\/mil.news.sina.com.cn\/2013-10-30\/1006746995.html",
"pubDate" : "10:06:47",
"enterDate" : "384201:05:43",
"channelId" : "4162878786041438345",
"channelName" : "军事焦点新闻-新浪军事",
"channelNameSummary" : "军事焦点新闻-新浪军...",
"channelUrl" : "http:\/\/mil.news.sina.com.cn\/focus\/index.html",
"author" : "www.sina.com.cn",
"tags" : [],
"desc" : "【环球网报道 记者 关超】日本《读卖新闻》10月29日援引日防卫省消息称，29日上午，经日海自护卫舰确认，2艘中国海军护卫舰通过日冲绳县与那国岛与西表岛之间的日本毗连区返航。对此，日防相小野寺五典称\u201C十分罕见\u201D。 日本防卫省统合幕僚监部29日发布消息称，29日上....",
"emailed" : False,
"forwarded" : False,
"english" : False
}  , {
"index" : 16,
"articleIndex" : "58430",
"favor" :  False ,
     "read" : False,    
"title" : "我军大校称中国无人机若被击落 将打掉肇事日机",
"titleTip" : "我军大校称中国无人机若被击落 将打掉肇事日机",
"titleSummary" : "我军大校称中国无人机若被击落 将打掉肇事日机",
"descSummary" : "28号，日本内阁官房长官菅义伟称，日本将依照《国际...",
"url" : "http:\/\/go.rss.sina.com.cn\/redirect.php?url=http:\/\/mil.news.sina.com.cn\/2013-10-30\/1004746997.html",
"pubDate" : "10:04:00",
"enterDate" : "384199:32:41",
"channelId" : "4162878786041438345",
"channelName" : "军事焦点新闻-新浪军事",
"channelNameSummary" : "军事焦点新闻-新浪军...",
"channelUrl" : "http:\/\/mil.news.sina.com.cn\/focus\/index.html",
"author" : "www.sina.com.cn",
"tags" : [],
"desc" : "28号，日本内阁官房长官菅义伟称，日本将依照《国际法》应对中国的无人机。鉴于之前日本曾经多次声称将会击落侵入日本领空的中国无人机，这个发言让刚刚消停的无人机风波再起。军事专家杜文龙在接受媒体采访时表示，如果日本击落了中国的无人机或者有人机，对方肇事者的飞机肯....",
"emailed" : False,
"forwarded" : False,
"english" : False
}  , {
"index" : 17,
"articleIndex" : "58427",
"favor" :  False ,
     "read" : False,    
"title" : "美国回应中国解密核潜艇：鼓励继续提高透明度",
"titleTip" : "美国回应中国解密核潜艇：鼓励继续提高透明度",
"titleSummary" : "美国回应中国解密核潜艇：鼓励继续提高透明度",
"descSummary" : "据印度《商业旗帜报》网站10月29日报道，美国国务院...",
"url" : "http:\/\/go.rss.sina.com.cn\/redirect.php?url=http:\/\/mil.news.sina.com.cn\/2013-10-30\/1002746998.html",
"pubDate" : "10:02:00",
"enterDate" : "384200:00:47",
"channelId" : "4162878786041438345",
"channelName" : "军事焦点新闻-新浪军事",
"channelNameSummary" : "军事焦点新闻-新浪军...",
"channelUrl" : "http:\/\/mil.news.sina.com.cn\/focus\/index.html",
"author" : "www.sina.com.cn",
"tags" : [],
"desc" : "据印度《商业旗帜报》网站10月29日报道，美国国务院发言人说，美国正密切关注中国的军事发展，并表示美国鼓励中国在其(军事)能力和意图方面提高透明度。 报道援引美国国务院发言人珍・普萨基的话说：\u201C我们继续密切关注中国的军事发展，鼓励中国在其能力和意图方面展现....",
"emailed" : False,
"forwarded" : False,
"english" : False
}  , {
"index" : 18,
"articleIndex" : "58429",
"favor" :  False ,
     "read" : False,    
"title" : "中国将在北京大兴建无人机研发产业基地",
"titleTip" : "中国将在北京大兴建无人机研发产业基地",
"titleSummary" : "中国将在北京大兴建无人机研发产业基地",
"descSummary" : "【环球网综合报道】英国《简氏防务周刊》网站10月28日援引...",
"url" : "http:\/\/go.rss.sina.com.cn\/redirect.php?url=http:\/\/mil.news.sina.com.cn\/2013-10-30\/0943746986.html",
"pubDate" : "09:43:19",
"enterDate" : "384199:12:00",
"channelId" : "4162878786041438345",
"channelName" : "军事焦点新闻-新浪军事",
"channelNameSummary" : "军事焦点新闻-新浪军...",
"channelUrl" : "http:\/\/mil.news.sina.com.cn\/focus\/index.html",
"author" : "www.sina.com.cn",
"tags" : [],
"desc" : "【环球网综合报道】英国《简氏防务周刊》网站10月28日援引中国网的报道称，中国将在北京南郊的大兴区建立一个专门从事无人飞行器开发的工业基地。 报道称，这个无人机工业园区计划几年后开始运行，园区占地面积约134公顷。 据国营的中国航天科技集团下属无人机....",
"emailed" : False,
"forwarded" : False,
"english" : False
}  , {
"index" : 19,
"articleIndex" : "58428",
"favor" :  False ,
     "read" : False,    
"title" : "机动5军演让南海舰队司令紧张 外军曾近距离侦察",
"titleTip" : "机动5军演让南海舰队司令紧张 外军曾近距离侦察",
"titleSummary" : "机动5军演让南海舰队司令紧张 外军曾近距离侦察",
"descSummary" : "新华网广州舰10月29日电(白瑞雪 高毅 王栋)10月25日起...",
"url" : "http:\/\/go.rss.sina.com.cn\/redirect.php?url=http:\/\/mil.news.sina.com.cn\/2013-10-30\/0914746971.html",
"pubDate" : "09:14:30",
"enterDate" : "384198:43:11",
"channelId" : "4162878786041438345",
"channelName" : "军事焦点新闻-新浪军事",
"channelNameSummary" : "军事焦点新闻-新浪军...",
"channelUrl" : "http:\/\/mil.news.sina.com.cn\/focus\/index.html",
"author" : "www.sina.com.cn",
"tags" : [],
"desc" : "新华网广州舰10月29日电(白瑞雪 高毅 王栋)10月25日起，海军\u201C机动－5号\u201D演习在西太平洋展开实兵对抗。这是海军第一次同步组织三大舰队赴远海训练，也是第一次依托远海作战体系进行\u201C背靠背\u201D对抗。 第一轮对抗 海上的黎明来得格外早。 25日8时，西太平....",
"emailed" : False,
"forwarded" : False,
"english" : False
} ]
}
