{
"mode" : {"viewTitle" : 1,   "viewNew" : 0,  "pageIndex" : 2 },
 "channel" : {"id" : "4162878786041438345", "booked" : False, "subNumber" : 2297, "name" : "军事焦点新闻-新浪军事", "url" : "http:\/\/mil.news.sina.com.cn\/focus\/index.html", "feed" : "http:\/\/rss.sina.com.cn\/jczs\/focus.xml", "author" : "www.sina.com.cn", "desc" : "焦点新闻", "imageUrl" : "http:\/\/www.sinaimg.cn\/jc\/deco\/2010\/0909\/mil_yc_common.jpg", "postPerWeek" : "194", "lastCrawTime" : "16:51:30", "crawDateTime" : "16:51:30", "lastHttpCode" : "200"}, "page" : {
"startIndex" : 20,
"totalCount" : 5000,
"pageIndex" : 2,
"lastPage" : 250,
"pageSize" : 20,
"english" :  False },
 "unreadNum" : 0, "shotIndex" : -1,
"articles" : [
{
"index" : 0,
"articleIndex" : "58425",
"favor" :  False ,
     "read" : False,    
"title" : "美军方高层称最大限度提升日本军力是美国义务",
"titleTip" : "美军方高层称最大限度提升日本军力是美国义务",
"titleSummary" : "美军方高层称最大限度提升日本军力是美国义务",
"descSummary" : "【钓鱼岛局势动态实时报道】【南海局势中方最新布局】...",
"url" : "http:\/\/go.rss.sina.com.cn\/redirect.php?url=http:\/\/mil.news.sina.com.cn\/2013-10-30\/0950746987.html",
"pubDate" : "09:50:16",
"enterDate" : "384200:49:12",
"channelId" : "4162878786041438345",
"channelName" : "军事焦点新闻-新浪军事",
"channelNameSummary" : "军事焦点新闻-新浪军...",
"channelUrl" : "http:\/\/mil.news.sina.com.cn\/focus\/index.html",
"author" : "www.sina.com.cn",
"tags" : [],
"desc" : "【钓鱼岛局势动态实时报道】【南海局势中方最新布局】【更多内容尽在军事频道】",
"emailed" : False,
"forwarded" : False,
"english" : False
}  , {
"index" : 1,
"articleIndex" : "58424",
"favor" :  False ,
     "read" : False,    
"title" : "俄罗斯一架卡-52武装直升机在莫斯科坠毁",
"titleTip" : "俄罗斯一架卡-52武装直升机在莫斯科坠毁",
"titleSummary" : "俄罗斯一架卡-52武装直升机在莫斯科坠毁",
"descSummary" : "原标题：一架直升机在莫斯科坠毁未致地面人员伤亡 中新网10...",
"url" : "http:\/\/go.rss.sina.com.cn\/redirect.php?url=http:\/\/mil.news.sina.com.cn\/2013-10-30\/0944746988.html",
"pubDate" : "09:44:00",
"enterDate" : "384200:42:56",
"channelId" : "4162878786041438345",
"channelName" : "军事焦点新闻-新浪军事",
"channelNameSummary" : "军事焦点新闻-新浪军...",
"channelUrl" : "http:\/\/mil.news.sina.com.cn\/focus\/index.html",
"author" : "www.sina.com.cn",
"tags" : [],
"desc" : "&#160; 原标题：一架直升机在莫斯科坠毁未致地面人员伤亡 中新网10月29日电据俄媒29日报道，俄罗斯莫斯科强力部门消息人士表示，一架卡-32直升机（新浪编者注：原文如此，从坠毁图片看为卡-52）在莫斯科东南部坠毁。 莫斯科紧急情况总局人士说：\u201C一架绿色直....",
"emailed" : False,
"forwarded" : False,
"english" : False
}  , {
"index" : 2,
"articleIndex" : "58419",
"favor" :  False ,
     "read" : False,    
"title" : "土耳其遭美质问：想让F-35出现在中国雷达上？",
"titleTip" : "土耳其遭美质问：想让F-35出现在中国雷达上？",
"titleSummary" : "土耳其遭美质问：想让F-35出现在中国雷达上？",
"descSummary" : "【环球网综合报道】据路透社10月28日报道，土耳其已要...",
"url" : "http:\/\/go.rss.sina.com.cn\/redirect.php?url=http:\/\/mil.news.sina.com.cn\/2013-10-30\/0941746985.html",
"pubDate" : "09:41:29",
"enterDate" : "384201:10:31",
"channelId" : "4162878786041438345",
"channelName" : "军事焦点新闻-新浪军事",
"channelNameSummary" : "军事焦点新闻-新浪军...",
"channelUrl" : "http:\/\/mil.news.sina.com.cn\/focus\/index.html",
"author" : "www.sina.com.cn",
"tags" : [],
"desc" : "【环球网综合报道】据路透社10月28日报道，土耳其已要求美国延长雷神公司的\u201C爱国者\u201D导弹防御系统的投标报价有效期，这表明安卡拉希望保留选择余地，以防与其选中的中国供应商的谈判失败。 两位消息人士28日对路透社表示，土耳其总理埃尔多安此前曾说，如果土耳其与中....",
"emailed" : False,
"forwarded" : False,
"english" : False
}  , {
"index" : 3,
"articleIndex" : "58423",
"favor" :  False ,
     "read" : False,    
"title" : "西方忧虑土耳其购中国导弹将威胁F-35战机",
"titleTip" : "西方忧虑土耳其购中国导弹将威胁F-35战机",
"titleSummary" : "西方忧虑土耳其购中国导弹将威胁F-35战机",
"descSummary" : "【环球网综合报道】据路透社10月28日报道，土耳其已要求美...",
"url" : "http:\/\/go.rss.sina.com.cn\/redirect.php?url=http:\/\/mil.news.sina.com.cn\/2013-10-30\/0941746984.html",
"pubDate" : "09:41:04",
"enterDate" : "384200:40:00",
"channelId" : "4162878786041438345",
"channelName" : "军事焦点新闻-新浪军事",
"channelNameSummary" : "军事焦点新闻-新浪军...",
"channelUrl" : "http:\/\/mil.news.sina.com.cn\/focus\/index.html",
"author" : "www.sina.com.cn",
"tags" : [],
"desc" : "【环球网综合报道】据路透社10月28日报道，土耳其已要求美国延长雷神公司的\u201C爱国者\u201D导弹防御系统的投标报价有效期，这表明安卡拉希望保留选择余地，以防与其选中的中国供应商的谈判失败。 两位消息人士28日对路透社表示，土耳其总理埃尔多安此前曾说，如果土耳其....",
"emailed" : False,
"forwarded" : False,
"english" : False
}  , {
"index" : 4,
"articleIndex" : "58418",
"favor" :  False ,
     "read" : False,    
"title" : "美媒称解放军在西太处于严重劣势 一机入役可改观",
"titleTip" : "美媒称解放军在西太处于严重劣势 一机入役可改观",
"titleSummary" : "美媒称解放军在西太处于严重劣势 一机入役可改观",
"descSummary" : "【环球网综合报道】据美国战略之页网站10月28日报...",
"url" : "http:\/\/go.rss.sina.com.cn\/redirect.php?url=http:\/\/mil.news.sina.com.cn\/2013-10-30\/0917746972.html",
"pubDate" : "09:17:33",
"enterDate" : "384200:46:35",
"channelId" : "4162878786041438345",
"channelName" : "军事焦点新闻-新浪军事",
"channelNameSummary" : "军事焦点新闻-新浪军...",
"channelUrl" : "http:\/\/mil.news.sina.com.cn\/focus\/index.html",
"author" : "www.sina.com.cn",
"tags" : [],
"desc" : "【环球网综合报道】据美国战略之页网站10月28日报道，过去三年，中国一直在测试运-8GX6(也叫\u201C高新6号\u201D)反潜巡逻机，这是与美国的P-3C海上反潜巡逻机相对应的机型。 文章称，中国\u201C高新6号\u201D是一种四发涡轮螺旋桨飞机，重61吨，翼展38米，巡航速度为每小时660公里。这....",
"emailed" : False,
"forwarded" : False,
"english" : False
}  , {
"index" : 5,
"articleIndex" : "58422",
"favor" :  False ,
     "read" : False,    
"title" : "北海舰队出访编队与军演编队会合西太 练导弹攻防",
"titleTip" : "北海舰队出访编队与军演编队会合西太 练导弹攻防",
"titleSummary" : "北海舰队出访编队与军演编队会合西太 练导弹攻防",
"descSummary" : "本网西太平洋10月29日电记者陈国全、通讯员刘云海...",
"url" : "http:\/\/go.rss.sina.com.cn\/redirect.php?url=http:\/\/mil.news.sina.com.cn\/2013-10-30\/0916746975.html",
"pubDate" : "09:16:00",
"enterDate" : "384200:14:56",
"channelId" : "4162878786041438345",
"channelName" : "军事焦点新闻-新浪军事",
"channelNameSummary" : "军事焦点新闻-新浪军...",
"channelUrl" : "http:\/\/mil.news.sina.com.cn\/focus\/index.html",
"author" : "www.sina.com.cn",
"tags" : [],
"desc" : "本网西太平洋10月29日电记者陈国全、通讯员刘云海报道：28日晚上，正在返航途中的我海军北海舰队出访美澳新三国舰艇编队在西太平洋某海域，与参加海军\u201C机动-5号\u201D的北海舰队舰艇编队展开了一场夜间实兵对抗演练。北海舰队利用出访等各种时机，在陌生海域和复杂条件下，组织实....",
"emailed" : False,
"forwarded" : False,
"english" : False
}  , {
"index" : 6,
"articleIndex" : "58417",
"favor" :  False ,
     "read" : False,    
"title" : "俄媒分析中土红旗-9交易前景：兼容性不是问题",
"titleTip" : "俄媒分析中土红旗-9交易前景：兼容性不是问题",
"titleSummary" : "俄媒分析中土红旗-9交易前景：兼容性不是问题",
"descSummary" : "据俄罗斯之声网站报道：中国HQ-9防空导弹系统在土耳其...",
"url" : "http:\/\/go.rss.sina.com.cn\/redirect.php?url=http:\/\/mil.news.sina.com.cn\/2013-10-30\/0911746969.html",
"pubDate" : "09:11:56",
"enterDate" : "384200:40:58",
"channelId" : "4162878786041438345",
"channelName" : "军事焦点新闻-新浪军事",
"channelNameSummary" : "军事焦点新闻-新浪军...",
"channelUrl" : "http:\/\/mil.news.sina.com.cn\/focus\/index.html",
"author" : "www.sina.com.cn",
"tags" : [],
"desc" : "据俄罗斯之声网站报道：中国HQ-9防空导弹系统在土耳其竞标获胜后，美国和北约对土耳其政府的压力在不断增大。他们要求土耳其对购买中国系统的决定进行重新审议。现在，已经出现的征兆表明，安卡拉进行这笔交易的决心已开始松动。俄罗斯战略技术分析中心专家瓦西里・卡申对局势....",
"emailed" : False,
"forwarded" : False,
"english" : False
}  , {
"index" : 7,
"articleIndex" : "58421",
"favor" :  False ,
     "read" : False,    
"title" : "俄媒称北约施压致土耳其购中国红旗-9决心松动",
"titleTip" : "俄媒称北约施压致土耳其购中国红旗-9决心松动",
"titleSummary" : "俄媒称北约施压致土耳其购中国红旗-9决心松动",
"descSummary" : "人民网10月30日讯据俄罗斯之声网站报道，中国HQ-9防空...",
"url" : "http:\/\/go.rss.sina.com.cn\/redirect.php?url=http:\/\/mil.news.sina.com.cn\/2013-10-30\/0911746973.html",
"pubDate" : "09:11:00",
"enterDate" : "384200:09:56",
"channelId" : "4162878786041438345",
"channelName" : "军事焦点新闻-新浪军事",
"channelNameSummary" : "军事焦点新闻-新浪军...",
"channelUrl" : "http:\/\/mil.news.sina.com.cn\/focus\/index.html",
"author" : "www.sina.com.cn",
"tags" : [],
"desc" : "人民网10月30日讯据俄罗斯之声网站报道，中国HQ-9防空导弹系统在土耳其竞标获胜后，美国和北约对土耳其政府的压力在不断增大。他们要求土耳其对购买中国系统的决定进行重新审议。现在，已经出现的征兆表明，土耳其进行这笔交易的决心已开始松动。俄罗斯战略技术分析中心专家瓦....",
"emailed" : False,
"forwarded" : False,
"english" : False
}  , {
"index" : 8,
"articleIndex" : "58415",
"favor" :  False ,
     "read" : False,    
"title" : "日本防卫教授：无美国支持日本没与中国开战底气",
"titleTip" : "日本防卫教授：无美国支持日本没与中国开战底气",
"titleSummary" : "日本防卫教授：无美国支持日本没与中国开战底气",
"descSummary" : "【环球时报综合报道】新加坡国立大学东亚研究所研究...",
"url" : "http:\/\/go.rss.sina.com.cn\/redirect.php?url=http:\/\/mil.news.sina.com.cn\/2013-10-30\/0853746967.html",
"pubDate" : "08:53:26",
"enterDate" : "384200:52:33",
"channelId" : "4162878786041438345",
"channelName" : "军事焦点新闻-新浪军事",
"channelNameSummary" : "军事焦点新闻-新浪军...",
"channelUrl" : "http:\/\/mil.news.sina.com.cn\/focus\/index.html",
"author" : "www.sina.com.cn",
"tags" : [],
"desc" : "【环球时报综合报道】新加坡国立大学东亚研究所研究员郭良平29日对《环球时报》表示，目前中美日之间的关系很微妙。美国重返亚太，希望平衡中国在亚洲的影响力，但又不希望把中美关系搞僵。韩国国防大学日本问题专家朴勇俊对《韩国先驱报》表示，如何评估中国的威胁是美日面临....",
"emailed" : False,
"forwarded" : False,
"english" : False
}  , {
"index" : 9,
"articleIndex" : "58416",
"favor" :  False ,
     "read" : False,    
"title" : "德媒：中日动武将是极不明智甚至愚蠢的行为",
"titleTip" : "德媒：中日动武将是极不明智甚至愚蠢的行为",
"titleSummary" : "德媒：中日动武将是极不明智甚至愚蠢的行为",
"descSummary" : "\u201C看来岛屿争端还会继续加剧下去，暂时还看不到何时终了...",
"url" : "http:\/\/go.rss.sina.com.cn\/redirect.php?url=http:\/\/mil.news.sina.com.cn\/2013-10-30\/0842746965.html",
"pubDate" : "08:42:00",
"enterDate" : "384200:11:02",
"channelId" : "4162878786041438345",
"channelName" : "军事焦点新闻-新浪军事",
"channelNameSummary" : "军事焦点新闻-新浪军...",
"channelUrl" : "http:\/\/mil.news.sina.com.cn\/focus\/index.html",
"author" : "www.sina.com.cn",
"tags" : [],
"desc" : "\u201C看来岛屿争端还会继续加剧下去，暂时还看不到何时终了。\u201D俄科学院远东研究所日本研究中心主任基斯塔诺夫表示。 \u201C德国之声\u201D29日以\u201C中日动武将是极不明智甚至愚蠢的行为\u201D为题说，中日互相探测各自表明立场的界限，是意料之中的事。不过，中国已渐渐撤销对日货的抵....",
"emailed" : False,
"forwarded" : False,
"english" : False
}  , {
"index" : 10,
"articleIndex" : "58420",
"favor" :  False ,
     "read" : False,    
"title" : "媒体称中国应在钓鱼岛深刻教训日本 警告美国",
"titleTip" : "媒体称中国应在钓鱼岛深刻教训日本 警告美国",
"titleSummary" : "媒体称中国应在钓鱼岛深刻教训日本 警告美国",
"descSummary" : "日本防卫相小野寺五典29日上午在记者会上说，中国\u201C入...",
"url" : "http:\/\/go.rss.sina.com.cn\/redirect.php?url=http:\/\/mil.news.sina.com.cn\/2013-10-30\/0841746966.html",
"pubDate" : "08:41:00",
"enterDate" : "384199:39:56",
"channelId" : "4162878786041438345",
"channelName" : "军事焦点新闻-新浪军事",
"channelNameSummary" : "军事焦点新闻-新浪军...",
"channelUrl" : "http:\/\/mil.news.sina.com.cn\/focus\/index.html",
"author" : "www.sina.com.cn",
"tags" : [],
"desc" : "日本防卫相小野寺五典29日上午在记者会上说，中国\u201C入侵\u201D钓鱼岛周边领海的行为，\u201C已落入和平时期和紧急状态之间的灰色地带\u201D。他的这一表态把中日对抗再次做了程度和气氛上的拉高。 中日已经没什么可谈的了，有的只是相互攻击和警告。现在双方都固守自己的强硬立场，....",
"emailed" : False,
"forwarded" : False,
"english" : False
}  , {
"index" : 11,
"articleIndex" : "58414",
"favor" :  False ,
     "read" : False,    
"title" : "越南下月接收基洛级潜艇 或比中国版更先进(图)",
"titleTip" : "越南下月接收基洛级潜艇 或比中国版更先进(图)",
"titleSummary" : "越南下月接收基洛级潜艇 或比中国版更先进(图)",
"descSummary" : "俄罗斯军工综合体网29日报道，越南海军将于11月7日从俄...",
"url" : "http:\/\/go.rss.sina.com.cn\/redirect.php?url=http:\/\/mil.news.sina.com.cn\/2013-10-30\/0835746963.html",
"pubDate" : "08:35:00",
"enterDate" : "384200:34:07",
"channelId" : "4162878786041438345",
"channelName" : "军事焦点新闻-新浪军事",
"channelNameSummary" : "军事焦点新闻-新浪军...",
"channelUrl" : "http:\/\/mil.news.sina.com.cn\/focus\/index.html",
"author" : "www.sina.com.cn",
"tags" : [],
"desc" : "俄罗斯军工综合体网29日报道，越南海军将于11月7日从俄罗斯手中接收6艘\u201C基洛\u201D级636型潜艇中的首艘\u201C河内\u201D号。潜艇的制造方\u201C圣彼得堡海军上将\u201D造船厂官员表示，11月中旬这艘潜艇将驶向越南，并于明年1月底抵达越南金兰湾军事基地，在那里升起越南国旗，并正式签署接收文件....",
"emailed" : False,
"forwarded" : False,
"english" : False
}  , {
"index" : 12,
"articleIndex" : "58413",
"favor" :  False ,
     "read" : False,    
"title" : "军报：安倍系\u201C三无\u201D政客 欲作亚洲领袖纯属梦呓",
"titleTip" : "军报：安倍系\u201C三无\u201D政客 欲作亚洲领袖纯属梦呓",
"titleSummary" : "军报：安倍系\u201C三无\u201D政客 欲作亚洲领袖纯属梦呓",
"descSummary" : "\u201C三无\u201D安倍何谈\u201C领袖\u201D 日本首相安倍晋三日前在...",
"url" : "http:\/\/go.rss.sina.com.cn\/redirect.php?url=http:\/\/mil.news.sina.com.cn\/2013-10-30\/0827746960.html",
"pubDate" : "08:27:00",
"enterDate" : "384200:56:12",
"channelId" : "4162878786041438345",
"channelName" : "军事焦点新闻-新浪军事",
"channelNameSummary" : "军事焦点新闻-新浪军...",
"channelUrl" : "http:\/\/mil.news.sina.com.cn\/focus\/index.html",
"author" : "www.sina.com.cn",
"tags" : [],
"desc" : "\u201C三无\u201D安倍何谈\u201C领袖\u201D 日本首相安倍晋三日前在接受采访时表示，日本今后将在亚洲发挥更强大的领导作用，他希望日本成为\u201C亚太地区安全领域的领袖\u201D。 一个对邻国无诚信、对历史无担当、对右翼无底线的政客领导的政府，居然声言要做\u201C安全领域的领袖\u201D，实在....",
"emailed" : False,
"forwarded" : False,
"english" : False
}  , {
"index" : 13,
"articleIndex" : "58412",
"favor" :  False ,
     "read" : False,    
"title" : "日防相称中国危及和平 中日离战争仅一步之遥",
"titleTip" : "日防相称中国危及和平 中日离战争仅一步之遥",
"titleSummary" : "日防相称中国危及和平 中日离战争仅一步之遥",
"descSummary" : "【环球时报综合报道】日本防卫相小野寺五典10月29日在...",
"url" : "http:\/\/go.rss.sina.com.cn\/redirect.php?url=http:\/\/mil.news.sina.com.cn\/2013-10-30\/0819746955.html",
"pubDate" : "08:19:56",
"enterDate" : "384200:49:08",
"channelId" : "4162878786041438345",
"channelName" : "军事焦点新闻-新浪军事",
"channelNameSummary" : "军事焦点新闻-新浪军...",
"channelUrl" : "http:\/\/mil.news.sina.com.cn\/focus\/index.html",
"author" : "www.sina.com.cn",
"tags" : [],
"desc" : "【环球时报综合报道】日本防卫相小野寺五典10月29日在记者会上表示，计划年内成立的国家安全保障会议(NSC)将讨论如何应对中国公务船侵犯\u201C尖阁诸岛\u201D(即中国钓鱼岛及其附属岛屿)日本领海以及朝鲜把驻日美军基地作为导弹攻击目标的问题，称\u201CNSC将就应对办法确定一定的方向性\u201D....",
"emailed" : False,
"forwarded" : False,
"english" : False
}  , {
"index" : 14,
"articleIndex" : "58411",
"favor" :  False ,
     "read" : False,    
"title" : "父亲遭遇核泄漏45岁牺牲 儿子按遗愿仍当核潜艇兵",
"titleTip" : "父亲遭遇核泄漏45岁牺牲 儿子按遗愿仍当核潜艇兵",
"titleSummary" : "父亲遭遇核泄漏45岁牺牲 儿子按遗愿仍当核潜艇兵",
"descSummary" : "惊涛骇浪铸忠诚 --海军北海舰队某潜艇基地官兵无私奉...",
"url" : "http:\/\/go.rss.sina.com.cn\/redirect.php?url=http:\/\/mil.news.sina.com.cn\/2013-10-30\/0816746956.html",
"pubDate" : "08:16:00",
"enterDate" : "384200:45:12",
"channelId" : "4162878786041438345",
"channelName" : "军事焦点新闻-新浪军事",
"channelNameSummary" : "军事焦点新闻-新浪军...",
"channelUrl" : "http:\/\/mil.news.sina.com.cn\/focus\/index.html",
"author" : "www.sina.com.cn",
"tags" : [],
"desc" : "惊涛骇浪铸忠诚 \u2015\u2015海军北海舰队某潜艇基地官兵无私奉献践行使命纪实 本报记者张强 本报通讯员胡军 刘凯 时代先锋 人最宝贵的是生命，但对于海军北海舰队某潜艇基地官兵来说，当党和人民需要时，当使命任务需要时，他们甘愿透支生命，甚至....",
"emailed" : False,
"forwarded" : False,
"english" : False
}  , {
"index" : 15,
"articleIndex" : "58410",
"favor" :  False ,
     "read" : False,    
"title" : "日防卫省：中国2艘护卫舰经日先岛诸岛毗邻区返航",
"titleTip" : "日防卫省：中国2艘护卫舰经日先岛诸岛毗邻区返航",
"titleSummary" : "日防卫省：中国2艘护卫舰经日先岛诸岛毗邻区返航",
"descSummary" : "日本防卫省统合幕僚监部10月29日发布公告称，北京...",
"url" : "http:\/\/go.rss.sina.com.cn\/redirect.php?url=http:\/\/mil.news.sina.com.cn\/2013-10-30\/0804746951.html",
"pubDate" : "08:04:00",
"enterDate" : "384200:33:12",
"channelId" : "4162878786041438345",
"channelName" : "军事焦点新闻-新浪军事",
"channelNameSummary" : "军事焦点新闻-新浪军...",
"channelUrl" : "http:\/\/mil.news.sina.com.cn\/focus\/index.html",
"author" : "www.sina.com.cn",
"tags" : [],
"desc" : "日本防卫省统合幕僚监部10月29日发布公告称，北京时间29日凌晨4点左右，经过日本海上自卫队第13护卫队\u201C春雪\u201D号护卫舰确认，中国海军2艘军舰在日本仲之神岛西南约44公里、与那国岛东南偏南约49海里出海域，从太平洋方向向东海海域方向航行。随后，2艘军舰于29日上午8点左右，....",
"emailed" : False,
"forwarded" : False,
"english" : False
}  , {
"index" : 16,
"articleIndex" : "58409",
"favor" :  False ,
     "read" : False,    
"title" : "院士：嫦娥五号落月返回时将停靠中国空间站",
"titleTip" : "院士：嫦娥五号落月返回时将停靠中国空间站",
"titleSummary" : "院士：嫦娥五号落月返回时将停靠中国空间站",
"descSummary" : "中国探月工程首席科学家欧阳自远院士昨日在汉透露，探月...",
"url" : "http:\/\/go.rss.sina.com.cn\/redirect.php?url=http:\/\/mil.news.sina.com.cn\/2013-10-30\/0800746950.html",
"pubDate" : "08:00:00",
"enterDate" : "384200:29:12",
"channelId" : "4162878786041438345",
"channelName" : "军事焦点新闻-新浪军事",
"channelNameSummary" : "军事焦点新闻-新浪军...",
"channelUrl" : "http:\/\/mil.news.sina.com.cn\/focus\/index.html",
"author" : "www.sina.com.cn",
"tags" : [],
"desc" : "中国探月工程首席科学家欧阳自远院士昨日在汉透露，探月工程第三步\u201C回\u201D的路线已明确，这项任务将由嫦娥五号完成。 欧阳自远昨日做客中国地质大学(武汉)弘毅堂，进行航天科普演讲。 中国探月工程分\u201C绕\u201D、\u201C落\u201D、\u201C回\u201D三步走。欧阳自远说，嫦娥一号、嫦娥二....",
"emailed" : False,
"forwarded" : False,
"english" : False
}  , {
"index" : 17,
"articleIndex" : "58408",
"favor" :  False ,
     "read" : False,    
"title" : "美智库报告称朝鲜为发射大型导弹扩建卫星基地",
"titleTip" : "美智库报告称朝鲜为发射大型导弹扩建卫星基地",
"titleSummary" : "美智库报告称朝鲜为发射大型导弹扩建卫星基地",
"descSummary" : "【环球时报驻韩国特约记者 王刚 刘皓然】美国智库的一...",
"url" : "http:\/\/go.rss.sina.com.cn\/redirect.php?url=http:\/\/mil.news.sina.com.cn\/2013-10-30\/0759746948.html",
"pubDate" : "07:59:04",
"enterDate" : "384200:28:16",
"channelId" : "4162878786041438345",
"channelName" : "军事焦点新闻-新浪军事",
"channelNameSummary" : "军事焦点新闻-新浪军...",
"channelUrl" : "http:\/\/mil.news.sina.com.cn\/focus\/index.html",
"author" : "www.sina.com.cn",
"tags" : [],
"desc" : "【环球时报驻韩国特约记者 王刚 刘皓然】美国智库的一份研究报告日前称：\u201C朝鲜正在大规模扩建西海卫星发射场，可能为发射大型导弹做准备。\u201D这则消息迅速引发世界关注。10月29日，韩国国防部对此表态称，朝鲜并非在新建发射台，也没有发射导弹的迹象。与此同时，韩国高官表态....",
"emailed" : False,
"forwarded" : False,
"english" : False
}  , {
"index" : 18,
"articleIndex" : "58407",
"favor" :  False ,
     "read" : False,    
"title" : "中国三大舰队齐赴西太演习 第一岛链已被\u201C肢解\u201D",
"titleTip" : "中国三大舰队齐赴西太演习 第一岛链已被\u201C肢解\u201D",
"titleSummary" : "中国三大舰队齐赴西太演习 第一岛链已被\u201C肢解\u201D",
"descSummary" : "中国海军远海断\u201C链\u201D 三大舰队齐赴西太平洋演习 瓦...",
"url" : "http:\/\/go.rss.sina.com.cn\/redirect.php?url=http:\/\/mil.news.sina.com.cn\/2013-10-30\/0754746947.html",
"pubDate" : "07:54:00",
"enterDate" : "384200:23:12",
"channelId" : "4162878786041438345",
"channelName" : "军事焦点新闻-新浪军事",
"channelNameSummary" : "军事焦点新闻-新浪军...",
"channelUrl" : "http:\/\/mil.news.sina.com.cn\/focus\/index.html",
"author" : "www.sina.com.cn",
"tags" : [],
"desc" : "中国海军远海断\u201C链\u201D 三大舰队齐赴西太平洋演习 瓦解岛链封锁 本月18日起，中国海军北海、东海、南海三大舰队齐赴西太平洋，展开\u201C机动-5号\u201D远海实兵对抗演习。军事专家认为，海军三大舰队的这种实战演习，标志着所谓的岛链封锁已经逐渐被\u201C肢解\u201D，对我国的....",
"emailed" : False,
"forwarded" : False,
"english" : False
}  , {
"index" : 19,
"articleIndex" : "58406",
"favor" :  False ,
     "read" : False,    
"title" : "我三大舰队兵分三路穿岛链返航 日舰船全程监视",
"titleTip" : "我三大舰队兵分三路穿岛链返航 日舰船全程监视",
"titleSummary" : "我三大舰队兵分三路穿岛链返航 日舰船全程监视",
"descSummary" : "【钓鱼岛局势动态实时报道】【南海局势中方最新布局】...",
"url" : "http:\/\/go.rss.sina.com.cn\/redirect.php?url=http:\/\/mil.news.sina.com.cn\/2013-10-30\/0750746946.html",
"pubDate" : "07:50:18",
"enterDate" : "384200:19:30",
"channelId" : "4162878786041438345",
"channelName" : "军事焦点新闻-新浪军事",
"channelNameSummary" : "军事焦点新闻-新浪军...",
"channelUrl" : "http:\/\/mil.news.sina.com.cn\/focus\/index.html",
"author" : "www.sina.com.cn",
"tags" : [],
"desc" : "【钓鱼岛局势动态实时报道】【南海局势中方最新布局】【更多内容尽在军事频道】",
"emailed" : False,
"forwarded" : False,
"english" : False
} ]
}
