{
"mode" : {"viewTitle" : 1,   "viewNew" : 0,  "pageIndex" : 1 },
 "channel" : {"id" : "5911132460954853360", "booked" : False, "subNumber" : 1, "name" : "北京房产-楼市活动", "url" : "http:\/\/bj.house.sina.com.cn\/scan\/huodong\/index.html", "feed" : "http:\/\/rss.sina.com.cn\/bjhouse\/scan\/huodong.xml", "author" : "WWW.SINA.COM.CN", "desc" : "北京房产-楼市活动", "imageUrl" : "http:\/\/www.sinaimg.cn\/house\/sina_fc.gif", "postPerWeek" : "0", "lastCrawTime" : "17:15:50", "crawDateTime" : "2013年1月10日", "lastHttpCode" : "304"}, "page" : {
"startIndex" : 0,
"totalCount" : 5000,
"pageIndex" : 1,
"lastPage" : 250,
"pageSize" : 20,
"english" :  False },
 "unreadNum" : 0, "shotIndex" : -1,
"articles" : [
{
"index" : 0,
"articleIndex" : "9559",
"favor" :  False ,
     "read" : False,    
"title" : "1.9新浪乐居走进海龙大厦",
"titleTip" : "1.9新浪乐居走进海龙大厦",
"titleSummary" : "1.9新浪乐居走进海龙大厦",
"descSummary" : "新浪乐居\u201C走进名企\u201D系列活动2013年1月首次走进海龙大厦。海龙大厦隶属于...",
"url" : "http:\/\/go.rss.sina.com.cn\/redirect.php?url=http:\/\/house.sina.com.cn\/scan\/2013-01-08\/1017427176.shtml?source=rss",
"pubDate" : "2013年1月8日",
"enterDate" : "384200:45:48",
"channelId" : "5911132460954853360",
"channelName" : "北京房产-楼市活动",
"channelNameSummary" : "北京房产-楼市活动",
"channelUrl" : "http:\/\/bj.house.sina.com.cn\/scan\/huodong\/index.html",
"author" : "WWW.SINA.COM.CN",
"tags" : [],
"desc" : "新浪乐居\u201C走进名企\u201D系列活动2013年1月首次走进海龙大厦。海龙大厦隶属于北京海龙集团，是经营IT产品的综合性大卖场。在业内，海龙是中关村IT零售业的龙头，中国北方地区最大IT产品集散中心。电脑发烧友称海龙是\u201C心中的圣殿\u201D；微软副总裁称海龙是\u201C全球最繁忙的店\u201D。 ....",
"emailed" : False,
"forwarded" : False,
"english" : False
}  , {
"index" : 1,
"articleIndex" : "9558",
"favor" :  False ,
     "read" : False,    
"title" : "益园圣诞狂欢细微处体现品牌实力(组图)",
"titleTip" : "益园圣诞狂欢细微处体现品牌实力(组图)",
"titleSummary" : "益园圣诞狂欢细微处体现品牌实力(组图)",
"descSummary" : "益园文化创意产业基地(简称：益园)的人们才不理会古玛雅人的那...",
"url" : "http:\/\/go.rss.sina.com.cn\/redirect.php?url=http:\/\/house.sina.com.cn\/scan\/2012-12-31\/1008427022.shtml?source=rss",
"pubDate" : "2012年12月31日",
"enterDate" : "384200:48:47",
"channelId" : "5911132460954853360",
"channelName" : "北京房产-楼市活动",
"channelNameSummary" : "北京房产-楼市活动",
"channelUrl" : "http:\/\/bj.house.sina.com.cn\/scan\/huodong\/index.html",
"author" : "WWW.SINA.COM.CN",
"tags" : [],
"desc" : "益园文化创意产业基地(简称：益园)的人们才不理会古玛雅人的那些记述，一场\u201C圣诞快闪\u201D已然把末日变成了一场狂欢。 职场关怀 圣诞引爆 12月21日，12时21分，益园中心水池边音乐响起，一段激情的集体骑马舞随之跃起。站在旁边的保安小哥、保洁阿姨放下矜持，也....",
"emailed" : False,
"forwarded" : False,
"english" : False
}  , {
"index" : 2,
"articleIndex" : "9557",
"favor" :  False ,
     "read" : False,    
"title" : "第二空港崛起 永定河孔雀城价值无限攀升",
"titleTip" : "第二空港崛起 永定河孔雀城价值无限攀升",
"titleSummary" : "第二空港崛起 永定河孔雀城价值无限攀升",
"descSummary" : "空港区是指依托机场的区位、便捷运输和口岸的优势而形成的、...",
"url" : "http:\/\/go.rss.sina.com.cn\/redirect.php?url=http:\/\/house.sina.com.cn\/scan\/2012-12-31\/1001427021.shtml?source=rss",
"pubDate" : "2012年12月31日",
"enterDate" : "384201:11:28",
"channelId" : "5911132460954853360",
"channelName" : "北京房产-楼市活动",
"channelNameSummary" : "北京房产-楼市活动",
"channelUrl" : "http:\/\/bj.house.sina.com.cn\/scan\/huodong\/index.html",
"author" : "WWW.SINA.COM.CN",
"tags" : [],
"desc" : "空港区是指依托机场的区位、便捷运输和口岸的优势而形成的、以大型枢纽机场为中心，以航空运输、物流、高新技术产业为核心功能，以各种服务配套产业为辅助功能的、具有城市功能和性质的新城市化空间。 第二空港去 区域价值蓄势待发 据国家相关部门负责人介绍：....",
"emailed" : False,
"forwarded" : False,
"english" : False
}  , {
"index" : 3,
"articleIndex" : "9556",
"favor" :  False ,
     "read" : False,    
"title" : "K2玉m湾 用5分钟读懂ＣＢＤ特供华宅",
"titleTip" : "K2玉m湾 用5分钟读懂ＣＢＤ特供华宅",
"titleSummary" : "K2玉m湾 用5分钟读懂ＣＢＤ特供华宅",
"descSummary" : "位处国贸、新城双CBD间，作为2013年1月绽放东部房市的K2・玉m...",
"url" : "http:\/\/go.rss.sina.com.cn\/redirect.php?url=http:\/\/house.sina.com.cn\/scan\/2012-12-31\/0958427020.shtml?source=rss",
"pubDate" : "2012年12月31日",
"enterDate" : "384201:08:41",
"channelId" : "5911132460954853360",
"channelName" : "北京房产-楼市活动",
"channelNameSummary" : "北京房产-楼市活动",
"channelUrl" : "http:\/\/bj.house.sina.com.cn\/scan\/huodong\/index.html",
"author" : "WWW.SINA.COM.CN",
"tags" : [],
"desc" : "位处国贸、新城双CBD间，作为2013年1月绽放东部房市的K2・玉m湾，以37万平米都会花园地标打造CBD门槛级豪宅作品，CBD规划建设20年来，首次让CBD豪宅从奢侈品成为普惠多数人的生活品。 图为项目效果图 K2・玉m湾，以地标级宜居抢位豪宅坐标之首，更以半小时通达世....",
"emailed" : False,
"forwarded" : False,
"english" : False
}  , {
"index" : 4,
"articleIndex" : "9555",
"favor" :  False ,
     "read" : False,    
"title" : "宝蓝股份为职场提供极致关怀服务(组图)",
"titleTip" : "宝蓝股份为职场提供极致关怀服务(组图)",
"titleSummary" : "宝蓝股份为职场提供极致关怀服务(组图)",
"descSummary" : "图为宝蓝股份为职场提供极致关怀服务 2012年12月21日，12点2...",
"url" : "http:\/\/go.rss.sina.com.cn\/redirect.php?url=http:\/\/house.sina.com.cn\/scan\/2012-12-31\/0957427019.shtml?source=rss",
"pubDate" : "2012年12月31日",
"enterDate" : "384201:08:06",
"channelId" : "5911132460954853360",
"channelName" : "北京房产-楼市活动",
"channelNameSummary" : "北京房产-楼市活动",
"channelUrl" : "http:\/\/bj.house.sina.com.cn\/scan\/huodong\/index.html",
"author" : "WWW.SINA.COM.CN",
"tags" : [],
"desc" : "图为宝蓝股份为职场提供极致关怀服务 2012年12月21日，12点21日，一场创意快闪在益园文创基地火热开启，提前到来的圣诞狂欢让益园入驻企业的员工惊喜不已，而500份免费赠送的圣诞大礼更是让本就火爆的现场更加火爆。 创意快闪 跃动职场关爱 作为益园文化创意....",
"emailed" : False,
"forwarded" : False,
"english" : False
}  , {
"index" : 5,
"articleIndex" : "9554",
"favor" :  False ,
     "read" : False,    
"title" : "12月29日 润枫领尚完美交房",
"titleTip" : "12月29日 润枫领尚完美交房",
"titleSummary" : "12月29日 润枫领尚完美交房",
"descSummary" : "2012年12月29日，一场瑞雪让年末的北京银装素裹，分外妖娆。而位于亦庄...",
"url" : "http:\/\/go.rss.sina.com.cn\/redirect.php?url=http:\/\/house.sina.com.cn\/scan\/2012-12-31\/0927427013.shtml?source=rss",
"pubDate" : "2012年12月31日",
"enterDate" : "384201:07:37",
"channelId" : "5911132460954853360",
"channelName" : "北京房产-楼市活动",
"channelNameSummary" : "北京房产-楼市活动",
"channelUrl" : "http:\/\/bj.house.sina.com.cn\/scan\/huodong\/index.html",
"author" : "WWW.SINA.COM.CN",
"tags" : [],
"desc" : "2012年12月29日，一场瑞雪让年末的北京银装素裹，分外妖娆。而位于亦庄开发区嘉创二路西侧的润枫领尚 (论坛 相册 户型 样板间 点评 地图搜索)售楼处依然人头攒动，熙熙攘攘，这里正在进行着领尚一期的交房。经过两年多的精心设计规划、倾力打造，在广大业主的翘首企盼中，润枫....",
"emailed" : False,
"forwarded" : False,
"english" : False
}  , {
"index" : 6,
"articleIndex" : "9552",
"favor" :  False ,
     "read" : False,    
"title" : "首都空港新城 永定河孔雀英国宫开盘盛典(组图)",
"titleTip" : "首都空港新城 永定河孔雀英国宫开盘盛典(组图)",
"titleSummary" : "首都空港新城 永定河孔雀英国宫开盘盛典(组图)",
"descSummary" : "新浪乐居讯 随着北京楼市在年底迎来翘尾局面，置业者对...",
"url" : "http:\/\/go.rss.sina.com.cn\/redirect.php?url=http:\/\/house.sina.com.cn\/scan\/2012-12-29\/1411426915.shtml?source=rss",
"pubDate" : "2012年12月29日",
"enterDate" : "384200:44:05",
"channelId" : "5911132460954853360",
"channelName" : "北京房产-楼市活动",
"channelNameSummary" : "北京房产-楼市活动",
"channelUrl" : "http:\/\/bj.house.sina.com.cn\/scan\/huodong\/index.html",
"author" : "WWW.SINA.COM.CN",
"tags" : [],
"desc" : "新浪乐居讯 随着北京楼市在年底迎来翘尾局面，置业者对燕郊、固安等环北京地区楼市的关注度也随之高涨，其中以高品质高性价比著称的固安永定河・孔雀英国宫 (论坛 相册 户型 样板间 点评 地图搜索)项目受到了北京南城乃至整个大北京区域的刚需及改善型置业者追捧。日前该项目....",
"emailed" : False,
"forwarded" : False,
"english" : False
}  , {
"index" : 7,
"articleIndex" : "9551",
"favor" :  False ,
     "read" : False,    
"title" : "华贸喜来登酒店：北戴河新地标",
"titleTip" : "华贸喜来登酒店：北戴河新地标",
"titleSummary" : "华贸喜来登酒店：北戴河新地标",
"descSummary" : "图为华贸喜来登酒店实景 度假地产格局中，开发建设上升为国家发展战...",
"url" : "http:\/\/go.rss.sina.com.cn\/redirect.php?url=http:\/\/house.sina.com.cn\/scan\/2012-12-28\/1610426878.shtml?source=rss",
"pubDate" : "2012年12月28日",
"enterDate" : "384201:17:20",
"channelId" : "5911132460954853360",
"channelName" : "北京房产-楼市活动",
"channelNameSummary" : "北京房产-楼市活动",
"channelUrl" : "http:\/\/bj.house.sina.com.cn\/scan\/huodong\/index.html",
"author" : "WWW.SINA.COM.CN",
"tags" : [],
"desc" : "图为华贸喜来登酒店实景 度假地产格局中，开发建设上升为国家发展战略的北戴河正强势崛起，由传统旅游观光区向国际度假胜地转型。作为北戴河历史上第一座国际五星级酒店，华贸喜来登酒店开启了度假新纪元，占据高端度假制高点，必然成为北戴河的新地标。 北戴河拥有....",
"emailed" : False,
"forwarded" : False,
"english" : False
}  , {
"index" : 8,
"articleIndex" : "9550",
"favor" :  False ,
     "read" : False,    
"title" : "顺鑫华玺瀚 定义顺义城市建筑地标",
"titleTip" : "顺鑫华玺瀚 定义顺义城市建筑地标",
"titleSummary" : "顺鑫华玺瀚 定义顺义城市建筑地标",
"descSummary" : "每一座城市都有属于自己的城市地标，从纽约经济中心的帝国大厦、迪...",
"url" : "http:\/\/go.rss.sina.com.cn\/redirect.php?url=http:\/\/house.sina.com.cn\/scan\/2012-12-28\/1610426877.shtml?source=rss",
"pubDate" : "2012年12月28日",
"enterDate" : "384201:17:14",
"channelId" : "5911132460954853360",
"channelName" : "北京房产-楼市活动",
"channelNameSummary" : "北京房产-楼市活动",
"channelUrl" : "http:\/\/bj.house.sina.com.cn\/scan\/huodong\/index.html",
"author" : "WWW.SINA.COM.CN",
"tags" : [],
"desc" : "每一座城市都有属于自己的城市地标，从纽约经济中心的帝国大厦、迪拜顶级豪华的帆船酒店，到香港天玺、台湾的101大厦\u2026\u2026地标级建筑的瞩目璀璨，领衔世界一线都市的潮流，成为财富贵胄权利和身份的象征。 在北京晋级国际化都会的今天，大顺义区域借势崛起，日益成长的....",
"emailed" : False,
"forwarded" : False,
"english" : False
}  , {
"index" : 9,
"articleIndex" : "9549",
"favor" :  False ,
     "read" : False,    
"title" : "新周期新模式 博雅CC夺金厦奖(组图)",
"titleTip" : "新周期新模式 博雅CC夺金厦奖(组图)",
"titleSummary" : "新周期新模式 博雅CC夺金厦奖(组图)",
"descSummary" : "2012年，地产调控走向常态，地产商面临传统市场和操作手法的转...",
"url" : "http:\/\/go.rss.sina.com.cn\/redirect.php?url=http:\/\/house.sina.com.cn\/scan\/2012-12-28\/1510426874.shtml?source=rss",
"pubDate" : "2012年12月28日",
"enterDate" : "384200:47:45",
"channelId" : "5911132460954853360",
"channelName" : "北京房产-楼市活动",
"channelNameSummary" : "北京房产-楼市活动",
"channelUrl" : "http:\/\/bj.house.sina.com.cn\/scan\/huodong\/index.html",
"author" : "WWW.SINA.COM.CN",
"tags" : [],
"desc" : "2012年，地产调控走向常态，地产商面临传统市场和操作手法的转型压力，也迎来各地产业升级、产业调整与集聚所创造的新机会。中国写字楼发展论坛第九届年会于12月18日在北京隆重举行，以\"变革与重塑，房地产新周期下的新模式\"为主题寻找新模式应对行业转型。 北大资源商....",
"emailed" : False,
"forwarded" : False,
"english" : False
}  , {
"index" : 10,
"articleIndex" : "9548",
"favor" :  False ,
     "read" : False,    
"title" : "东亚首航国际喜迎元旦节 好礼大派送(图)",
"titleTip" : "东亚首航国际喜迎元旦节 好礼大派送(图)",
"titleSummary" : "东亚首航国际喜迎元旦节 好礼大派送(图)",
"descSummary" : "临近元旦节，东亚首航国际 (论坛 相册 户型 样板间 点评 地图搜...",
"url" : "http:\/\/go.rss.sina.com.cn\/redirect.php?url=http:\/\/house.sina.com.cn\/scan\/2012-12-28\/1509426872.shtml?source=rss",
"pubDate" : "2012年12月28日",
"enterDate" : "384200:46:35",
"channelId" : "5911132460954853360",
"channelName" : "北京房产-楼市活动",
"channelNameSummary" : "北京房产-楼市活动",
"channelUrl" : "http:\/\/bj.house.sina.com.cn\/scan\/huodong\/index.html",
"author" : "WWW.SINA.COM.CN",
"tags" : [],
"desc" : "临近元旦节，东亚首航国际 (论坛 相册 户型 样板间 点评 地图搜索)项目将于1月1日、2日在售楼处举办老业主回馈活动，老业主到访可获得精美礼品一份，礼品有：暖手宝、加湿器、小音箱、电吹风等，另外售楼处配置精美茶歇，供新老客户品尝。 图为首航国际电梯厅效果图 ....",
"emailed" : False,
"forwarded" : False,
"english" : False
}  , {
"index" : 11,
"articleIndex" : "9547",
"favor" :  False ,
     "read" : False,    
"title" : "山旮里旯冰雪季 滑雪自驾京崇两日游圆满落幕",
"titleTip" : "山旮里旯冰雪季 滑雪自驾京崇两日游圆满落幕",
"titleSummary" : "山旮里旯冰雪季 滑雪自驾京崇两日游圆满落幕",
"descSummary" : "2012年12月22日，山旮里旯 (论坛 相册 户型 样板间 点评...",
"url" : "http:\/\/go.rss.sina.com.cn\/redirect.php?url=http:\/\/house.sina.com.cn\/scan\/2012-12-28\/1509426871.shtml?source=rss",
"pubDate" : "2012年12月28日",
"enterDate" : "384200:46:24",
"channelId" : "5911132460954853360",
"channelName" : "北京房产-楼市活动",
"channelNameSummary" : "北京房产-楼市活动",
"channelUrl" : "http:\/\/bj.house.sina.com.cn\/scan\/huodong\/index.html",
"author" : "WWW.SINA.COM.CN",
"tags" : [],
"desc" : "2012年12月22日，山旮里旯 (论坛 相册 户型 样板间 点评 地图搜索)以\u201C远离都市繁华，轻松乐居崇礼，零距浪漫雪域\u201D为主题的山旮里旯冰雪季滑雪两日游活动温暖举行。尽管恰逢北京建国以来的第二低温，却丝毫没有影响雪友们的出行兴致，大家还是怀着极大的热情踏上了崇礼滑雪之....",
"emailed" : False,
"forwarded" : False,
"english" : False
}  , {
"index" : 12,
"articleIndex" : "9546",
"favor" :  False ,
     "read" : False,    
"title" : "山旮里旯 原生态山地小镇:虽为人作 宛若天成",
"titleTip" : "山旮里旯 原生态山地小镇:虽为人作 宛若天成",
"titleSummary" : "山旮里旯 原生态山地小镇:虽为人作 宛若天成",
"descSummary" : "为什么法国人一年6周漫步在户外阳光下？为什么意大利人每...",
"url" : "http:\/\/go.rss.sina.com.cn\/redirect.php?url=http:\/\/house.sina.com.cn\/scan\/2012-12-28\/1501426867.shtml?source=rss",
"pubDate" : "2012年12月28日",
"enterDate" : "384132:41:27",
"channelId" : "5911132460954853360",
"channelName" : "北京房产-楼市活动",
"channelNameSummary" : "北京房产-楼市活动",
"channelUrl" : "http:\/\/bj.house.sina.com.cn\/scan\/huodong\/index.html",
"author" : "WWW.SINA.COM.CN",
"tags" : [],
"desc" : "为什么法国人一年6周漫步在户外阳光下？为什么意大利人每年8月像候鸟一样飞走？度假让生活更自由。雪山秘境中超乎想象的奢华生活更使假期充满惊世传奇。如今，一站式拥有世界级山地度假生活，以王者的姿态礼赞全球，将由梦想变为现实。 图为项目效果图 浅山溪谷 异....",
"emailed" : False,
"forwarded" : False,
"english" : False
}  , {
"index" : 13,
"articleIndex" : "9545",
"favor" :  False ,
     "read" : False,    
"title" : "山旮里旯开盘在即 多重优惠回馈业主",
"titleTip" : "山旮里旯开盘在即 多重优惠回馈业主",
"titleSummary" : "山旮里旯开盘在即 多重优惠回馈业主",
"descSummary" : "崇礼首席山地滑雪度假小镇--山旮里旯 (论坛 相册 户型 样板间 点评...",
"url" : "http:\/\/go.rss.sina.com.cn\/redirect.php?url=http:\/\/house.sina.com.cn\/scan\/2012-12-28\/1456426864.shtml?source=rss",
"pubDate" : "2012年12月28日",
"enterDate" : "384201:03:49",
"channelId" : "5911132460954853360",
"channelName" : "北京房产-楼市活动",
"channelNameSummary" : "北京房产-楼市活动",
"channelUrl" : "http:\/\/bj.house.sina.com.cn\/scan\/huodong\/index.html",
"author" : "WWW.SINA.COM.CN",
"tags" : [],
"desc" : "崇礼首席山地滑雪度假小镇\u2015\u2015山旮里旯 (论坛 相册 户型 样板间 点评 地图搜索)，将于1月中下旬开盘出售。开盘当天开发商制定了多重优惠活动回馈广大业主对山旮里旯的支持和厚爱。 记者从山旮里旯销售总监处获悉，山旮里旯其实早已经具备接待客户的条件，但是为了更广....",
"emailed" : False,
"forwarded" : False,
"english" : False
}  , {
"index" : 14,
"articleIndex" : "9544",
"favor" :  False ,
     "read" : False,    
"title" : "万科蓝开盘盛典暨向上小学捐赠活动即将举行",
"titleTip" : "万科蓝开盘盛典暨向上小学捐赠活动即将举行",
"titleSummary" : "万科蓝开盘盛典暨向上小学捐赠活动即将举行",
"descSummary" : "如果您关注公益，关注贫困孩子发展，那您一定不能错过万...",
"url" : "http:\/\/go.rss.sina.com.cn\/redirect.php?url=http:\/\/house.sina.com.cn\/scan\/2012-12-28\/1453426863.shtml?source=rss",
"pubDate" : "2012年12月28日",
"enterDate" : "384201:01:05",
"channelId" : "5911132460954853360",
"channelName" : "北京房产-楼市活动",
"channelNameSummary" : "北京房产-楼市活动",
"channelUrl" : "http:\/\/bj.house.sina.com.cn\/scan\/huodong\/index.html",
"author" : "WWW.SINA.COM.CN",
"tags" : [],
"desc" : "如果您关注公益，关注贫困孩子发展，那您一定不能错过万科蓝 (论坛 相册 户型 样板间 点评 地图搜索)的开盘盛典。 首先，感谢北京众多购房者一直以来对万科责任社会的关注和关心。万科蓝践行奉献精神，回溯一路走来的爱心之旅：在2012年9月7日，来到京郊回龙观一所民工....",
"emailed" : False,
"forwarded" : False,
"english" : False
}  , {
"index" : 15,
"articleIndex" : "9543",
"favor" :  False ,
     "read" : False,    
"title" : "爱心旅程第三站 万科蓝即将创心开盘",
"titleTip" : "爱心旅程第三站 万科蓝即将创心开盘",
"titleSummary" : "爱心旅程第三站 万科蓝即将创心开盘",
"descSummary" : "每个人身上都是带有能量的，阳光、积极、乐观的人带有正能量，和...",
"url" : "http:\/\/go.rss.sina.com.cn\/redirect.php?url=http:\/\/house.sina.com.cn\/scan\/2012-12-28\/1451426862.shtml?source=rss",
"pubDate" : "2012年12月28日",
"enterDate" : "384200:59:05",
"channelId" : "5911132460954853360",
"channelName" : "北京房产-楼市活动",
"channelNameSummary" : "北京房产-楼市活动",
"channelUrl" : "http:\/\/bj.house.sina.com.cn\/scan\/huodong\/index.html",
"author" : "WWW.SINA.COM.CN",
"tags" : [],
"desc" : "每个人身上都是带有能量的，阳光、积极、乐观的人带有正能量，和他们交流也能将正能量传递给你，令大家感染到那种快乐向上的感觉。 \u201C爱心不是只有在少数人那能看见，更不是生活的奢侈品\u201D万科蓝 (论坛 相册 户型 样板间 点评 地图搜索)坚信一直坚信。万科蓝希望当我们....",
"emailed" : False,
"forwarded" : False,
"english" : False
}  , {
"index" : 16,
"articleIndex" : "9542",
"favor" :  False ,
     "read" : False,    
"title" : "万科蓝 开盘矩献独享地铁大礼",
"titleTip" : "万科蓝 开盘矩献独享地铁大礼",
"titleSummary" : "万科蓝 开盘矩献独享地铁大礼",
"descSummary" : "对越来越多的都市人来说，朝九晚五的工作之余，如何让自己生活得更舒服...",
"url" : "http:\/\/go.rss.sina.com.cn\/redirect.php?url=http:\/\/house.sina.com.cn\/scan\/2012-12-28\/1449426861.shtml?source=rss",
"pubDate" : "2012年12月28日",
"enterDate" : "384200:57:04",
"channelId" : "5911132460954853360",
"channelName" : "北京房产-楼市活动",
"channelNameSummary" : "北京房产-楼市活动",
"channelUrl" : "http:\/\/bj.house.sina.com.cn\/scan\/huodong\/index.html",
"author" : "WWW.SINA.COM.CN",
"tags" : [],
"desc" : "对越来越多的都市人来说，朝九晚五的工作之余，如何让自己生活得更舒服、更有品位，是他们关注的重点，而在这其中，城市扮演了重要角色。何以串联城市的生活？当然得行出色！即刻开启新都市大幕的万科蓝 (论坛 相册 户型 样板间 点评 地图搜索)，即是从当前市场环境和区域出发....",
"emailed" : False,
"forwarded" : False,
"english" : False
}  , {
"index" : 17,
"articleIndex" : "9541",
"favor" :  False ,
     "read" : False,    
"title" : "金域缇香 西南五环的明星楼盘",
"titleTip" : "金域缇香 西南五环的明星楼盘",
"titleSummary" : "金域缇香 西南五环的明星楼盘",
"descSummary" : "贯通了，贯通了，地铁9号线在众目期盼中终于要全程贯通了，这意味着北...",
"url" : "http:\/\/go.rss.sina.com.cn\/redirect.php?url=http:\/\/house.sina.com.cn\/scan\/2012-12-28\/1448426860.shtml?source=rss",
"pubDate" : "2012年12月28日",
"enterDate" : "384200:55:23",
"channelId" : "5911132460954853360",
"channelName" : "北京房产-楼市活动",
"channelNameSummary" : "北京房产-楼市活动",
"channelUrl" : "http:\/\/bj.house.sina.com.cn\/scan\/huodong\/index.html",
"author" : "WWW.SINA.COM.CN",
"tags" : [],
"desc" : "贯通了，贯通了，地铁9号线在众目期盼中终于要全程贯通了，这意味着北京西南居民又新添了一条快速进城通道，房山区与中心城区之间的联系因此更加紧密。 9号线的贯通对距城铁房山线稻田站仅300米的金域缇香 (论坛 相册 户型 样板间 点评 地图搜索) (论坛 相册 户型 样板....",
"emailed" : False,
"forwarded" : False,
"english" : False
}  , {
"index" : 18,
"articleIndex" : "9553",
"favor" :  False ,
     "read" : False,    
"title" : "山旮里旯野奢酒店 拓展休闲度假产品新领域",
"titleTip" : "山旮里旯野奢酒店 拓展休闲度假产品新领域",
"titleSummary" : "山旮里旯野奢酒店 拓展休闲度假产品新领域",
"descSummary" : "野奢酒店在地域选择上要求具有天然美景之地，而在物质上也...",
"url" : "http:\/\/go.rss.sina.com.cn\/redirect.php?url=http:\/\/house.sina.com.cn\/scan\/2012-12-28\/1444426857.shtml?source=rss",
"pubDate" : "2012年12月28日",
"enterDate" : "384160:44:22",
"channelId" : "5911132460954853360",
"channelName" : "北京房产-楼市活动",
"channelNameSummary" : "北京房产-楼市活动",
"channelUrl" : "http:\/\/bj.house.sina.com.cn\/scan\/huodong\/index.html",
"author" : "WWW.SINA.COM.CN",
"tags" : [],
"desc" : "野奢酒店在地域选择上要求具有天然美景之地，而在物质上也提出了豪华舒适的物质影响，兼顾\u201C灵\u201D与\u201C物\u201D的双重享受，因此野奢酒店一直备受驴友们的青睐。山旮里旯 (论坛 相册 户型 样板间&#160;点评 地图搜索)打破传统，将野奢酒店这一全新的概念引进到休闲度假产品之中，该项目一....",
"emailed" : False,
"forwarded" : False,
"english" : False
}  , {
"index" : 19,
"articleIndex" : "9540",
"favor" :  False ,
     "read" : False,    
"title" : "金域缇香 让生活惊艳起来",
"titleTip" : "金域缇香 让生活惊艳起来",
"titleSummary" : "金域缇香 让生活惊艳起来",
"descSummary" : "临近年末，很多开发商都在大力推盘，网上也是纷纷发动看房团。打开网页，新...",
"url" : "http:\/\/go.rss.sina.com.cn\/redirect.php?url=http:\/\/house.sina.com.cn\/scan\/2012-12-28\/1443426856.shtml?source=rss",
"pubDate" : "2012年12月28日",
"enterDate" : "384200:51:05",
"channelId" : "5911132460954853360",
"channelName" : "北京房产-楼市活动",
"channelNameSummary" : "北京房产-楼市活动",
"channelUrl" : "http:\/\/bj.house.sina.com.cn\/scan\/huodong\/index.html",
"author" : "WWW.SINA.COM.CN",
"tags" : [],
"desc" : "临近年末，很多开发商都在大力推盘，网上也是纷纷发动看房团。打开网页，新浪乐居举办的1月12日大型看房团正在火热招募，眼光流转，看到了一只精雕细琢的孔雀形象。点击进去，赫然进入金域缇香 (论坛 相册 户型 样板间 点评 地图搜索)的页面，立时惊艳于华丽的画面而细品起来....",
"emailed" : False,
"forwarded" : False,
"english" : False
} ]
}
