{
"mode" : {"viewTitle" : 1,   "viewNew" : 0,  "pageIndex" : 2 },
 "channel" : {"id" : "5911132460954853360", "booked" : False, "subNumber" : 1, "name" : "北京房产-楼市活动", "url" : "http:\/\/bj.house.sina.com.cn\/scan\/huodong\/index.html", "feed" : "http:\/\/rss.sina.com.cn\/bjhouse\/scan\/huodong.xml", "author" : "WWW.SINA.COM.CN", "desc" : "北京房产-楼市活动", "imageUrl" : "http:\/\/www.sinaimg.cn\/house\/sina_fc.gif", "postPerWeek" : "0", "lastCrawTime" : "17:15:50", "crawDateTime" : "2013年1月10日", "lastHttpCode" : "304"}, "page" : {
"startIndex" : 20,
"totalCount" : 5000,
"pageIndex" : 2,
"lastPage" : 250,
"pageSize" : 20,
"english" :  False },
 "unreadNum" : 0, "shotIndex" : -1,
"articles" : [
{
"index" : 0,
"articleIndex" : "9539",
"favor" :  False ,
     "read" : False,    
"title" : "山旮里旯精益求精 与细节处见真章",
"titleTip" : "山旮里旯精益求精 与细节处见真章",
"titleSummary" : "山旮里旯精益求精 与细节处见真章",
"descSummary" : "旅游地产的产生和发展，给旅游度假市场带来了新的增长点。崇礼的新...",
"url" : "http:\/\/go.rss.sina.com.cn\/redirect.php?url=http:\/\/house.sina.com.cn\/scan\/2012-12-28\/1441426855.shtml?source=rss",
"pubDate" : "2012年12月28日",
"enterDate" : "384200:48:16",
"channelId" : "5911132460954853360",
"channelName" : "北京房产-楼市活动",
"channelNameSummary" : "北京房产-楼市活动",
"channelUrl" : "http:\/\/bj.house.sina.com.cn\/scan\/huodong\/index.html",
"author" : "WWW.SINA.COM.CN",
"tags" : [],
"desc" : "旅游地产的产生和发展，给旅游度假市场带来了新的增长点。崇礼的新兴滑雪度假产品，以全新的产品设计理念，全新的度假方式异军突起，成为了市场新的关注点。其中山旮里旯 (论坛 相册 户型 样板间 点评 地图搜索)将全新的理念注入到旅游地产产品设计中来，成为了区域内的佼佼者....",
"emailed" : False,
"forwarded" : False,
"english" : False
}  , {
"index" : 1,
"articleIndex" : "9538",
"favor" :  False ,
     "read" : False,    
"title" : "气候变化 东君府MOMA打造生态独栋",
"titleTip" : "气候变化 东君府MOMA打造生态独栋",
"titleSummary" : "气候变化 东君府MOMA打造生态独栋",
"descSummary" : "北京的这个冬天，寒流来袭。刚刚过去的周末，连续出现-15 的低温...",
"url" : "http:\/\/go.rss.sina.com.cn\/redirect.php?url=http:\/\/house.sina.com.cn\/scan\/2012-12-28\/1439426854.shtml?source=rss",
"pubDate" : "2012年12月28日",
"enterDate" : "384200:46:34",
"channelId" : "5911132460954853360",
"channelName" : "北京房产-楼市活动",
"channelNameSummary" : "北京房产-楼市活动",
"channelUrl" : "http:\/\/bj.house.sina.com.cn\/scan\/huodong\/index.html",
"author" : "WWW.SINA.COM.CN",
"tags" : [],
"desc" : "北京的这个冬天，寒流来袭。刚刚过去的周末，连续出现-15℃的低温，已超出北京地区冬季供热最低环境温度-9℃。更是创下了30年的最低值，似乎将北京所在的纬度被向北推进了5度。显然，人们并不会拥抱这一纪录，而是将脖子紧紧地缩在衣服中，期待着明天会暖和些。北京热力集团也....",
"emailed" : False,
"forwarded" : False,
"english" : False
}  , {
"index" : 2,
"articleIndex" : "9537",
"favor" :  False ,
     "read" : False,    
"title" : "万科幸福汇 引领房山成品住宅时代",
"titleTip" : "万科幸福汇 引领房山成品住宅时代",
"titleSummary" : "万科幸福汇 引领房山成品住宅时代",
"descSummary" : "惬意、优雅的生活方式对于繁忙的城市人而言，有时候也成为一种\u201C奢...",
"url" : "http:\/\/go.rss.sina.com.cn\/redirect.php?url=http:\/\/house.sina.com.cn\/scan\/2012-12-28\/1431426851.shtml?source=rss",
"pubDate" : "2012年12月28日",
"enterDate" : "384201:08:36",
"channelId" : "5911132460954853360",
"channelName" : "北京房产-楼市活动",
"channelNameSummary" : "北京房产-楼市活动",
"channelUrl" : "http:\/\/bj.house.sina.com.cn\/scan\/huodong\/index.html",
"author" : "WWW.SINA.COM.CN",
"tags" : [],
"desc" : "惬意、优雅的生活方式对于繁忙的城市人而言，有时候也成为一种\u201C奢侈\u201D。因为它的前提是\u201C无需烦忧\u201D的客观条件，让人们在日常起居中不再为多余的事情烦恼。譬如装修交付、高品质的物业服务等等均能解决一些实际矛盾，让人们倾心专注于生活享受。 众所周知，万科幸福汇 (论坛 ....",
"emailed" : False,
"forwarded" : False,
"english" : False
}  , {
"index" : 3,
"articleIndex" : "9536",
"favor" :  False ,
     "read" : False,    
"title" : "万科幸福汇 95O装修三居 刚需置业一步到位",
"titleTip" : "万科幸福汇 95O装修三居 刚需置业一步到位",
"titleSummary" : "万科幸福汇 95O装修三居 刚需置业一步到位",
"descSummary" : "一所房子，无论它是\u201C诗意地栖居\u201D，还是\u201C精神容器\u201D，它...",
"url" : "http:\/\/go.rss.sina.com.cn\/redirect.php?url=http:\/\/house.sina.com.cn\/scan\/2012-12-28\/1429426850.shtml?source=rss",
"pubDate" : "2012年12月28日",
"enterDate" : "384201:07:05",
"channelId" : "5911132460954853360",
"channelName" : "北京房产-楼市活动",
"channelNameSummary" : "北京房产-楼市活动",
"channelUrl" : "http:\/\/bj.house.sina.com.cn\/scan\/huodong\/index.html",
"author" : "WWW.SINA.COM.CN",
"tags" : [],
"desc" : "一所房子，无论它是\u201C诗意地栖居\u201D，还是\u201C精神容器\u201D，它都会成为一家人穷尽一生的追寻。面对目前的生活现状，不管市场如何跌宕起伏，对于多数购房者来说，买房自住始终是他们购房的最主要需求。而房子作为家的载体，将真正承担起承载幸福的责任。 懂得生活的房子才是....",
"emailed" : False,
"forwarded" : False,
"english" : False
}  , {
"index" : 4,
"articleIndex" : "9535",
"favor" :  False ,
     "read" : False,    
"title" : "万科幸福汇 西南六环高品质住宅吸引购房者",
"titleTip" : "万科幸福汇 西南六环高品质住宅吸引购房者",
"titleSummary" : "万科幸福汇 西南六环高品质住宅吸引购房者",
"descSummary" : "2010年以来，随着北京城南计划的逐步实施与房山区十二五...",
"url" : "http:\/\/go.rss.sina.com.cn\/redirect.php?url=http:\/\/house.sina.com.cn\/scan\/2012-12-28\/1356426846.shtml?source=rss",
"pubDate" : "2012年12月28日",
"enterDate" : "384201:04:10",
"channelId" : "5911132460954853360",
"channelName" : "北京房产-楼市活动",
"channelNameSummary" : "北京房产-楼市活动",
"channelUrl" : "http:\/\/bj.house.sina.com.cn\/scan\/huodong\/index.html",
"author" : "WWW.SINA.COM.CN",
"tags" : [],
"desc" : "2010年以来，随着北京城南计划的逐步实施与房山区十二五规划的展开，房山迎来了华丽的转变，其发展速度几乎超越了其他区域，成为很多企业逐鹿南城的首选之地。作为城市发展新区，房山将凭借其西南门户的独特属性与生态绿色的自然环境，充分发挥其促进北京经济发展、疏散人口和....",
"emailed" : False,
"forwarded" : False,
"english" : False
}  , {
"index" : 5,
"articleIndex" : "9534",
"favor" :  False ,
     "read" : False,    
"title" : "幸福汇 居住品质万科房尽享无忧幸福家",
"titleTip" : "幸福汇 居住品质万科房尽享无忧幸福家",
"titleSummary" : "幸福汇 居住品质万科房尽享无忧幸福家",
"descSummary" : "随着北京城南发展计划的实施建设，与高端产业区的规划开发，房...",
"url" : "http:\/\/go.rss.sina.com.cn\/redirect.php?url=http:\/\/house.sina.com.cn\/scan\/2012-12-28\/1349426845.shtml?source=rss",
"pubDate" : "2012年12月28日",
"enterDate" : "384200:57:13",
"channelId" : "5911132460954853360",
"channelName" : "北京房产-楼市活动",
"channelNameSummary" : "北京房产-楼市活动",
"channelUrl" : "http:\/\/bj.house.sina.com.cn\/scan\/huodong\/index.html",
"author" : "WWW.SINA.COM.CN",
"tags" : [],
"desc" : "随着北京城南发展计划的实施建设，与高端产业区的规划开发，房山已经成为高端产业入驻的必选地。除了引进北控太阳能、港中旅温泉城、西门子云计算中心等一批能源、电子信息等重大产业项目之外，五大功能区建设也全面展开：北京石化科技产业基地、中石化投资项目等建成16项；总....",
"emailed" : False,
"forwarded" : False,
"english" : False
}  , {
"index" : 6,
"articleIndex" : "9533",
"favor" :  False ,
     "read" : False,    
"title" : "万科幸福汇新年推95平3居 再拼楼市性价比",
"titleTip" : "万科幸福汇新年推95平3居 再拼楼市性价比",
"titleSummary" : "万科幸福汇新年推95平3居 再拼楼市性价比",
"descSummary" : "万科幸福汇 (论坛 相册 户型 样板间 点评 地图搜索)项目继11月...",
"url" : "http:\/\/go.rss.sina.com.cn\/redirect.php?url=http:\/\/house.sina.com.cn\/scan\/2012-12-28\/1346426844.shtml?source=rss",
"pubDate" : "2012年12月28日",
"enterDate" : "384200:53:28",
"channelId" : "5911132460954853360",
"channelName" : "北京房产-楼市活动",
"channelNameSummary" : "北京房产-楼市活动",
"channelUrl" : "http:\/\/bj.house.sina.com.cn\/scan\/huodong\/index.html",
"author" : "WWW.SINA.COM.CN",
"tags" : [],
"desc" : "万科幸福汇 (论坛 相册 户型 样板间 点评 地图搜索)项目继11月份推出88平米两居房源实现良好销售后，项目将于近期加推二期新品，此次推出的房源均为品质升级的装修房，户型面积为约95平方米左右的三居室。另外，此次加推将会延续之前两居房源的高性价比优势，继续领跑房山刚需市场....",
"emailed" : False,
"forwarded" : False,
"english" : False
}  , {
"index" : 7,
"articleIndex" : "9532",
"favor" :  False ,
     "read" : False,    
"title" : "北京ONE三号楼盛大入住 首批业主先享健康春日",
"titleTip" : "北京ONE三号楼盛大入住 首批业主先享健康春日",
"titleSummary" : "北京ONE三号楼盛大入住 首批业主先享健康春日",
"descSummary" : "隆冬时节，当整座北京城都笼罩在数十年不遇的低温天气...",
"url" : "http:\/\/go.rss.sina.com.cn\/redirect.php?url=http:\/\/house.sina.com.cn\/scan\/2012-12-28\/1324426842.shtml?source=rss",
"pubDate" : "2012年12月28日",
"enterDate" : "384201:01:54",
"channelId" : "5911132460954853360",
"channelName" : "北京房产-楼市活动",
"channelNameSummary" : "北京房产-楼市活动",
"channelUrl" : "http:\/\/bj.house.sina.com.cn\/scan\/huodong\/index.html",
"author" : "WWW.SINA.COM.CN",
"tags" : [],
"desc" : "隆冬时节，当整座北京城都笼罩在数十年不遇的低温天气中时，位于通州区新华大街与新华南路交汇处的北京ONE (论坛 相册 户型 样板间 点评 地图搜索)却独有一分融融暖意。汇聚全球领先科技打造而成的、集\u201C衡温、衡湿、衡氧、低噪、适光、智能\u201D六大舒居元素于一体的健康养生住....",
"emailed" : False,
"forwarded" : False,
"english" : False
}  , {
"index" : 8,
"articleIndex" : "9531",
"favor" :  False ,
     "read" : False,    
"title" : "旭辉空港中心上市感恩季 年终大回馈活动启幕",
"titleTip" : "旭辉空港中心上市感恩季 年终大回馈活动启幕",
"titleSummary" : "旭辉空港中心上市感恩季 年终大回馈活动启幕",
"descSummary" : "2012年12月25日，旭辉集团股份有限公司旗下旭辉・空港...",
"url" : "http:\/\/go.rss.sina.com.cn\/redirect.php?url=http:\/\/house.sina.com.cn\/scan\/2012-12-28\/1318426841.shtml?source=rss",
"pubDate" : "2012年12月28日",
"enterDate" : "384200:55:42",
"channelId" : "5911132460954853360",
"channelName" : "北京房产-楼市活动",
"channelNameSummary" : "北京房产-楼市活动",
"channelUrl" : "http:\/\/bj.house.sina.com.cn\/scan\/huodong\/index.html",
"author" : "WWW.SINA.COM.CN",
"tags" : [],
"desc" : "2012年12月25日，旭辉集团股份有限公司旗下旭辉・空港中心 (论坛 相册 户型 样板间 点评 地图搜索)项目举办的\u201C上市感恩季 年终大回馈\u201D活动正式启幕，活动中推出的两套竞买房源深受欢迎，多轮竞价后终于由参与活动的两组客户以绝对优惠价竞得，其他参与未得客户纷纷表示遗憾....",
"emailed" : False,
"forwarded" : False,
"english" : False
}  , {
"index" : 9,
"articleIndex" : "9530",
"favor" :  False ,
     "read" : False,    
"title" : "17.5影城管庄店",
"titleTip" : "17.5影城管庄店",
"titleSummary" : "17.5影城管庄店",
"descSummary" : "合作商户名称 17.5影城管庄店 商户简介 17.5京通苑店，位于北京市朝阳区繁华商业圈华润...",
"url" : "http:\/\/go.rss.sina.com.cn\/redirect.php?url=http:\/\/house.sina.com.cn\/scan\/2012-12-28\/1238426840.shtml?source=rss",
"pubDate" : "2012年12月28日",
"enterDate" : "384200:45:57",
"channelId" : "5911132460954853360",
"channelName" : "北京房产-楼市活动",
"channelNameSummary" : "北京房产-楼市活动",
"channelUrl" : "http:\/\/bj.house.sina.com.cn\/scan\/huodong\/index.html",
"author" : "WWW.SINA.COM.CN",
"tags" : [],
"desc" : "合作商户名称 17.5影城管庄店 商户简介 17.5京通苑店，位于北京市朝阳区繁华商业圈华润万家商场三层，位于CBD商圈东部延长线，京通快速路，近轻轨(八通线)管庄站，快速公交等公共交通系统。周边拥有东方家园建材城，京客隆超市，美廉美超市等大型设施。....",
"emailed" : False,
"forwarded" : False,
"english" : False
}  , {
"index" : 10,
"articleIndex" : "9529",
"favor" :  False ,
     "read" : False,    
"title" : "12.27新浪乐居走进用友软件园圆满落幕",
"titleTip" : "12.27新浪乐居走进用友软件园圆满落幕",
"titleSummary" : "12.27新浪乐居走进用友软件园圆满落幕",
"descSummary" : "图为活动现场 新浪乐居\u201C走进名企\u201D系列活动2012年12月新浪乐...",
"url" : "http:\/\/go.rss.sina.com.cn\/redirect.php?url=http:\/\/house.sina.com.cn\/scan\/2012-12-28\/1134426838.shtml?source=rss",
"pubDate" : "2012年12月28日",
"enterDate" : "384201:12:02",
"channelId" : "5911132460954853360",
"channelName" : "北京房产-楼市活动",
"channelNameSummary" : "北京房产-楼市活动",
"channelUrl" : "http:\/\/bj.house.sina.com.cn\/scan\/huodong\/index.html",
"author" : "WWW.SINA.COM.CN",
"tags" : [],
"desc" : "图为活动现场 新浪乐居\u201C走进名企\u201D系列活动2012年12月新浪乐居正式携手龙山跃、金色漫香苑、联港幸福湾、万科长阳半岛四大热盘首次走进用友软件园。这些楼盘均向企业提供独家优惠，此次活动圆满结束。 新浪乐居走进名企系列活动旨在以其优势的平台，选择市场红....",
"emailed" : False,
"forwarded" : False,
"english" : False
}  , {
"index" : 11,
"articleIndex" : "9528",
"favor" :  False ,
     "read" : False,    
"title" : "中粮万科长阳半岛 买房警示录之装修篇",
"titleTip" : "中粮万科长阳半岛 买房警示录之装修篇",
"titleSummary" : "中粮万科长阳半岛 买房警示录之装修篇",
"descSummary" : "曾几何时，网上盛行着这样的说法：\u201C如果想吵架，那就装修房子...",
"url" : "http:\/\/go.rss.sina.com.cn\/redirect.php?url=http:\/\/house.sina.com.cn\/scan\/2012-12-28\/1107426836.shtml?source=rss",
"pubDate" : "2012年12月28日",
"enterDate" : "384200:44:57",
"channelId" : "5911132460954853360",
"channelName" : "北京房产-楼市活动",
"channelNameSummary" : "北京房产-楼市活动",
"channelUrl" : "http:\/\/bj.house.sina.com.cn\/scan\/huodong\/index.html",
"author" : "WWW.SINA.COM.CN",
"tags" : [],
"desc" : "曾几何时，网上盛行着这样的说法：\u201C如果想吵架，那就装修房子吧。\u201D确实，非精装房钥匙到手了，可是毛坯的状态让将要居住的人没一点家的感觉和幸福的欲望。而接下来的装修工程又是一场恶战，好不容易风格敲定了，建材买好了，亲自动手一没有时间，二没有经验，当初想的甜甜蜜....",
"emailed" : False,
"forwarded" : False,
"english" : False
}  , {
"index" : 12,
"articleIndex" : "9527",
"favor" :  False ,
     "read" : False,    
"title" : "85-120O畅销户型 长阳半岛幸福加推",
"titleTip" : "85-120O畅销户型 长阳半岛幸福加推",
"titleSummary" : "85-120O畅销户型 长阳半岛幸福加推",
"descSummary" : "致力于\u201C一生之城\u201D的中粮万科长阳半岛先后推出众多产品户型，各...",
"url" : "http:\/\/go.rss.sina.com.cn\/redirect.php?url=http:\/\/house.sina.com.cn\/scan\/2012-12-28\/1016426822.shtml?source=rss",
"pubDate" : "2012年12月28日",
"enterDate" : "384200:54:49",
"channelId" : "5911132460954853360",
"channelName" : "北京房产-楼市活动",
"channelNameSummary" : "北京房产-楼市活动",
"channelUrl" : "http:\/\/bj.house.sina.com.cn\/scan\/huodong\/index.html",
"author" : "WWW.SINA.COM.CN",
"tags" : [],
"desc" : "致力于\u201C一生之城\u201D的中粮万科长阳半岛先后推出众多产品户型，各有千秋、各有优势。近期开盘热销的140-165O改善型居住产品更是中粮万科・长阳半岛 (论坛 相册 户型 样板间 点评 地图搜索)大宅之作，舒逸空间可实现三代同堂而居。而2013年初即将推出的85-120O中小户型，却是....",
"emailed" : False,
"forwarded" : False,
"english" : False
}  , {
"index" : 13,
"articleIndex" : "9526",
"favor" :  False ,
     "read" : False,    
"title" : "地铁9号月底全线贯通 速达长阳半岛",
"titleTip" : "地铁9号月底全线贯通 速达长阳半岛",
"titleSummary" : "地铁9号月底全线贯通 速达长阳半岛",
"descSummary" : "如果问2012年什么交通工具最潮，非\u201C北京地铁\u201D莫属。撇开\u201C王鹏...",
"url" : "http:\/\/go.rss.sina.com.cn\/redirect.php?url=http:\/\/house.sina.com.cn\/scan\/2012-12-28\/1013426820.shtml?source=rss",
"pubDate" : "2012年12月28日",
"enterDate" : "384200:51:58",
"channelId" : "5911132460954853360",
"channelName" : "北京房产-楼市活动",
"channelNameSummary" : "北京房产-楼市活动",
"channelUrl" : "http:\/\/bj.house.sina.com.cn\/scan\/huodong\/index.html",
"author" : "WWW.SINA.COM.CN",
"tags" : [],
"desc" : "如果问2012年什么交通工具最潮，非\u201C北京地铁\u201D莫属。撇开\u201C王鹏，你妹\u201D事件一时的震惊和娱乐，放下总长442公里的线路跃居世界首位的欣喜，仅仅官微开设也让北京地铁在最流行的微时代里露了一把脸。而值得长阳半岛居民开心的是，9号线北段预计将于年底开通运营，各方面准备工....",
"emailed" : False,
"forwarded" : False,
"english" : False
}  , {
"index" : 14,
"articleIndex" : "9525",
"favor" :  False ,
     "read" : False,    
"title" : "长阳半岛 一部长阳笔记记录一段成长史记",
"titleTip" : "长阳半岛 一部长阳笔记记录一段成长史记",
"titleSummary" : "长阳半岛 一部长阳笔记记录一段成长史记",
"descSummary" : "《长阳笔记》，一部绘刻长阳发展的史记巨著即将问世，本书由...",
"url" : "http:\/\/go.rss.sina.com.cn\/redirect.php?url=http:\/\/house.sina.com.cn\/scan\/2012-12-28\/1010426819.shtml?source=rss",
"pubDate" : "2012年12月28日",
"enterDate" : "384200:48:51",
"channelId" : "5911132460954853360",
"channelName" : "北京房产-楼市活动",
"channelNameSummary" : "北京房产-楼市活动",
"channelUrl" : "http:\/\/bj.house.sina.com.cn\/scan\/huodong\/index.html",
"author" : "WWW.SINA.COM.CN",
"tags" : [],
"desc" : "《长阳笔记》，一部绘刻长阳发展的史记巨著即将问世，本书由北京城市规划学会副理事长柯焕章院长亲著前言，宁高宁、王石、周政、郁亮联袂推荐。著作描述了新发展时代房山区长阳镇的成长历史，在一群有抱负、有责任、肯吃苦、谋发展的政府、企业、有志之士的努力下，长阳从落后....",
"emailed" : False,
"forwarded" : False,
"english" : False
}  , {
"index" : 15,
"articleIndex" : "9524",
"favor" :  False ,
     "read" : False,    
"title" : "中粮万科长阳半岛 产业化楼获得科技表彰",
"titleTip" : "中粮万科长阳半岛 产业化楼获得科技表彰",
"titleSummary" : "中粮万科长阳半岛 产业化楼获得科技表彰",
"descSummary" : "金鸡奖、百花奖人人熟知，诺贝尔奖也是久闻其名、如雷贯耳。...",
"url" : "http:\/\/go.rss.sina.com.cn\/redirect.php?url=http:\/\/house.sina.com.cn\/scan\/2012-12-28\/1007426815.shtml?source=rss",
"pubDate" : "2012年12月28日",
"enterDate" : "384200:45:03",
"channelId" : "5911132460954853360",
"channelName" : "北京房产-楼市活动",
"channelNameSummary" : "北京房产-楼市活动",
"channelUrl" : "http:\/\/bj.house.sina.com.cn\/scan\/huodong\/index.html",
"author" : "WWW.SINA.COM.CN",
"tags" : [],
"desc" : "金鸡奖、百花奖人人熟知，诺贝尔奖也是久闻其名、如雷贯耳。可是跟我们每天居住息息相关的精瑞奖又有几人知晓？ 精瑞奖，全称\u201C精瑞科学技术奖\u201D，是目前唯一被批准在中国人居与城市建设领域进行表彰与奖励工作的国家科技奖项。将科技注入住宅，利用预制技术装配化、标....",
"emailed" : False,
"forwarded" : False,
"english" : False
}  , {
"index" : 16,
"articleIndex" : "9523",
"favor" :  False ,
     "read" : False,    
"title" : "紫御华府2013缔造豪宅全新传奇",
"titleTip" : "紫御华府2013缔造豪宅全新传奇",
"titleSummary" : "紫御华府2013缔造豪宅全新传奇",
"descSummary" : "北京，从来没有一年如今年这样寒冷过，但是再寒冷的天气也比不了人与...",
"url" : "http:\/\/go.rss.sina.com.cn\/redirect.php?url=http:\/\/house.sina.com.cn\/scan\/2012-12-28\/0955426812.shtml?source=rss",
"pubDate" : "2012年12月28日",
"enterDate" : "384201:04:04",
"channelId" : "5911132460954853360",
"channelName" : "北京房产-楼市活动",
"channelNameSummary" : "北京房产-楼市活动",
"channelUrl" : "http:\/\/bj.house.sina.com.cn\/scan\/huodong\/index.html",
"author" : "WWW.SINA.COM.CN",
"tags" : [],
"desc" : "北京，从来没有一年如今年这样寒冷过，但是再寒冷的天气也比不了人与人之间的尊重和关爱来的更温暖，更持久。而这份关爱如果来自开发商和客户之间，就显得更为弥足珍贵。 图为紫御华府外立面实景 紫御华府 (论坛 相册 户型 样板间 点评 地图搜索)，是金力地产倾力打....",
"emailed" : False,
"forwarded" : False,
"english" : False
}  , {
"index" : 17,
"articleIndex" : "9522",
"favor" :  False ,
     "read" : False,    
"title" : "中铁建国际花园七大价值成就长阳高品质住宅",
"titleTip" : "中铁建国际花园七大价值成就长阳高品质住宅",
"titleSummary" : "中铁建国际花园七大价值成就长阳高品质住宅",
"descSummary" : "北京2900亿新南城计划正式推行后，房山、大兴等地成为...",
"url" : "http:\/\/go.rss.sina.com.cn\/redirect.php?url=http:\/\/house.sina.com.cn\/scan\/2012-12-28\/0916426804.shtml?source=rss",
"pubDate" : "2012年12月28日",
"enterDate" : "384200:54:46",
"channelId" : "5911132460954853360",
"channelName" : "北京房产-楼市活动",
"channelNameSummary" : "北京房产-楼市活动",
"channelUrl" : "http:\/\/bj.house.sina.com.cn\/scan\/huodong\/index.html",
"author" : "WWW.SINA.COM.CN",
"tags" : [],
"desc" : "北京2900亿新南城计划正式推行后，房山、大兴等地成为开发商云集的热土，仅2012年房山长阳区域在售楼盘就有十余个，一时间，此地成为最受瞩目的投资潜力区。然而，面对众多品牌，很难找出区域品质住宅标尺，在此前提下，中国铁建入驻长阳CSD核心，以七大价值开创长阳高品质住....",
"emailed" : False,
"forwarded" : False,
"english" : False
}  , {
"index" : 18,
"articleIndex" : "9521",
"favor" :  False ,
     "read" : False,    
"title" : "均价11000元\/O M15号线地铁上盖建筑",
"titleTip" : "均价11000元\/O M15号线地铁上盖建筑",
"titleSummary" : "均价11000元\/O M15号线地铁上盖建筑",
"descSummary" : "在寸土寸金的北京，能有一个自己的空间已是奢望，对建筑的品质...",
"url" : "http:\/\/go.rss.sina.com.cn\/redirect.php?url=http:\/\/house.sina.com.cn\/scan\/2012-12-27\/1649426743.shtml?source=rss",
"pubDate" : "2012年12月27日",
"enterDate" : "384201:00:04",
"channelId" : "5911132460954853360",
"channelName" : "北京房产-楼市活动",
"channelNameSummary" : "北京房产-楼市活动",
"channelUrl" : "http:\/\/bj.house.sina.com.cn\/scan\/huodong\/index.html",
"author" : "WWW.SINA.COM.CN",
"tags" : [],
"desc" : "在寸土寸金的北京，能有一个自己的空间已是奢望，对建筑的品质更不敢奢求。但是作为真正的MINI不动产专家，东亚新华地产博采众长，独具匠心，赋予东亚首航国际 (论坛 相册 户型 样板间 点评 地图搜索)兼具功能性及时尚性的完美品质。在保持27-68平米精巧格局的经济型原则之外....",
"emailed" : False,
"forwarded" : False,
"english" : False
}  , {
"index" : 19,
"articleIndex" : "9520",
"favor" :  False ,
     "read" : False,    
"title" : "性价比突围 东亚马赛公馆现房交付",
"titleTip" : "性价比突围 东亚马赛公馆现房交付",
"titleSummary" : "性价比突围 东亚马赛公馆现房交付",
"descSummary" : "持续的限购调控，或许让炒房客暂停了他们的脚步，却难以抵挡实实在...",
"url" : "http:\/\/go.rss.sina.com.cn\/redirect.php?url=http:\/\/house.sina.com.cn\/scan\/2012-12-27\/1636426737.shtml?source=rss",
"pubDate" : "2012年12月27日",
"enterDate" : "384200:47:21",
"channelId" : "5911132460954853360",
"channelName" : "北京房产-楼市活动",
"channelNameSummary" : "北京房产-楼市活动",
"channelUrl" : "http:\/\/bj.house.sina.com.cn\/scan\/huodong\/index.html",
"author" : "WWW.SINA.COM.CN",
"tags" : [],
"desc" : "持续的限购调控，或许让炒房客暂停了他们的脚步，却难以抵挡实实在在的首次置业购房者。毕竟无论楼市将来如何变幻也无法阻挡安家的梦想，何况现在的房价对安家来说也是不难接受的。对首次置业的购房者一族来说，需求更为迫切。 选择房源，对于首次置业者来说，价格较低....",
"emailed" : False,
"forwarded" : False,
"english" : False
} ]
}
