{
"mode" : {"viewTitle" : 1,   "viewNew" : 0,  "pageIndex" : 1 },
 "channel" : {"id" : "1228067551493561959", "booked" : False, "subNumber" : 1, "name" : "小说排行榜-新浪读书", "url" : "http:\/\/book.sina.com.cn\/novel\/", "feed" : "http:\/\/rss.sina.com.cn\/book\/story_rank.xml", "author" : "WWW.SINA.COM.CN", "desc" : "小说排行榜", "imageUrl" : "http:\/\/www.sinaimg.cn\/book\/deco\/2010\/0826\/logo_v3.gif", "postPerWeek" : "0", "lastCrawTime" : "17:08:40", "crawDateTime" : "昨天00:04:55", "lastHttpCode" : "304"}, "page" : {
"startIndex" : 0,
"totalCount" : 524,
"pageIndex" : 1,
"lastPage" : 27,
"pageSize" : 20,
"english" :  False },
 "unreadNum" : 0, "shotIndex" : -1,
"articles" : [
{
"index" : 0,
"articleIndex" : "523",
"favor" :  False ,
     "read" : False,    
"title" : "靠近女领导：靠山",
"titleTip" : "靠近女领导：靠山",
"titleSummary" : "靠近女领导：靠山",
"descSummary" : "市委副书记的爱护，省长的青睐，让张劲松在工作中如鱼得水。从市里到省里，与同事...",
"url" : "http:\/\/go.rss.sina.com.cn\/redirect.php?url=http:\/\/vip.book.sina.com.cn\/book\/index_149183.html",
"pubDate" : "2013年10月13日 (2周前)",
"enterDate" : "384099:20:10",
"channelId" : "1228067551493561959",
"channelName" : "小说排行榜-新浪读书",
"channelNameSummary" : "小说排行榜-新浪读书",
"channelUrl" : "http:\/\/book.sina.com.cn\/novel\/",
"author" : "WWW.SINA.COM.CN",
"tags" : [],
"desc" : "市委副书记的爱护，省长的青睐，让张劲松在工作中如鱼得水。从市里到省里，与同事斗勇、跟领导斗智、和对手斗法。一个个出其不意的圈套、一场场惊心动魄的较量、一幕幕尔虞我诈的...",
"emailed" : False,
"forwarded" : False,
"english" : False
}  , {
"index" : 1,
"articleIndex" : "521",
"favor" :  False ,
     "read" : False,    
"title" : "抵押尊严的情人：最是缠绵无尽意",
"titleTip" : "抵押尊严的情人：最是缠绵无尽意",
"titleSummary" : "抵押尊严的情人：最是缠绵无尽意",
"descSummary" : "那一年，她成了他的情人那一年，她介入他的婚姻触犯了道德的底线，...",
"url" : "http:\/\/go.rss.sina.com.cn\/redirect.php?url=http:\/\/vip.book.sina.com.cn\/book\/index_155768.html",
"pubDate" : "2013年10月4日 (3周前)",
"enterDate" : "384170:35:16",
"channelId" : "1228067551493561959",
"channelName" : "小说排行榜-新浪读书",
"channelNameSummary" : "小说排行榜-新浪读书",
"channelUrl" : "http:\/\/book.sina.com.cn\/novel\/",
"author" : "WWW.SINA.COM.CN",
"tags" : [],
"desc" : "那一年，她成了他的情人那一年，她介入他的婚姻触犯了道德的底线，抵押了所谓的尊严，为的，难道只是金钱?当他向媒体宣布将会娶她，在所有人艳羡的目光中仅有她自己知道，失去的是...",
"emailed" : False,
"forwarded" : False,
"english" : False
}  , {
"index" : 2,
"articleIndex" : "519",
"favor" :  False ,
     "read" : False,    
"title" : "薄情帝王的夺爱游戏：废弃皇妃",
"titleTip" : "薄情帝王的夺爱游戏：废弃皇妃",
"titleSummary" : "薄情帝王的夺爱游戏：废弃皇妃",
"descSummary" : "颜若歆本是国的帝王之女，却被遗落山林，成为Q国颜家精心培养的棋子...",
"url" : "http:\/\/go.rss.sina.com.cn\/redirect.php?url=http:\/\/vip.book.sina.com.cn\/book\/index_169629.html",
"pubDate" : "2013年9月17日",
"enterDate" : "384201:18:51",
"channelId" : "1228067551493561959",
"channelName" : "小说排行榜-新浪读书",
"channelNameSummary" : "小说排行榜-新浪读书",
"channelUrl" : "http:\/\/book.sina.com.cn\/novel\/",
"author" : "WWW.SINA.COM.CN",
"tags" : [],
"desc" : "颜若歆本是国的帝王之女，却被遗落山林，成为Q国颜家精心培养的棋子。她不甘向命运屈服，情愿终日与冷宫相伴，也不愿争宠沦为政治的棋子。天意弄人，滂沱大雨中，她为救青梅竹...",
"emailed" : False,
"forwarded" : False,
"english" : False
}  , {
"index" : 3,
"articleIndex" : "518",
"favor" :  False ,
     "read" : False,    
"title" : "女部长的绝色宠男：背后高人",
"titleTip" : "女部长的绝色宠男：背后高人",
"titleSummary" : "女部长的绝色宠男：背后高人",
"descSummary" : "进入官场之后的杜逸凡，很快总结出一条升迁经验，征服女领导以及大领导...",
"url" : "http:\/\/go.rss.sina.com.cn\/redirect.php?url=http:\/\/vip.book.sina.com.cn\/book\/index_211373.html",
"pubDate" : "2013年9月12日",
"enterDate" : "384201:18:51",
"channelId" : "1228067551493561959",
"channelName" : "小说排行榜-新浪读书",
"channelNameSummary" : "小说排行榜-新浪读书",
"channelUrl" : "http:\/\/book.sina.com.cn\/novel\/",
"author" : "WWW.SINA.COM.CN",
"tags" : [],
"desc" : "进入官场之后的杜逸凡，很快总结出一条升迁经验，征服女领导以及大领导身边的女人，远比搞定大领导容易。于是，他找到了一条靠征服女领导和征服大领导身边的女人上位的捷径，从此...",
"emailed" : False,
"forwarded" : False,
"english" : False
}  , {
"index" : 4,
"articleIndex" : "515",
"favor" :  False ,
     "read" : False,    
"title" : "前妻太诱人：离婚以后",
"titleTip" : "前妻太诱人：离婚以后",
"titleSummary" : "前妻太诱人：离婚以后",
"descSummary" : "于是十年后取下戒指，签字，握手，说再见，离婚的过程真的不复杂。他和她深深...",
"url" : "http:\/\/go.rss.sina.com.cn\/redirect.php?url=http:\/\/vip.book.sina.com.cn\/book\/index_68906.html",
"pubDate" : "2013年9月4日",
"enterDate" : "384190:48:33",
"channelId" : "1228067551493561959",
"channelName" : "小说排行榜-新浪读书",
"channelNameSummary" : "小说排行榜-新浪读书",
"channelUrl" : "http:\/\/book.sina.com.cn\/novel\/",
"author" : "WWW.SINA.COM.CN",
"tags" : [],
"desc" : "于是十年后取下戒指，签字，握手，说再见，离婚的过程真的不复杂。他和她深深相爱，结婚三年，却因为爱最终变成彼此的负担。再见面，依然是满心的牵绊，但更多的是层层怨恨的执念...",
"emailed" : False,
"forwarded" : False,
"english" : False
}  , {
"index" : 5,
"articleIndex" : "520",
"favor" :  False ,
     "read" : False,    
"title" : "高干浪子情陷失心女：你若安好",
"titleTip" : "高干浪子情陷失心女：你若安好",
"titleSummary" : "高干浪子情陷失心女：你若安好",
"descSummary" : "无意间情绪的宣泄，她竟间接造成了父亲的意外死亡。遭遇了这样的变故...",
"url" : "http:\/\/go.rss.sina.com.cn\/redirect.php?url=http:\/\/vip.book.sina.com.cn\/book\/index_198216.html",
"pubDate" : "2013年9月4日",
"enterDate" : "383501:36:14",
"channelId" : "1228067551493561959",
"channelName" : "小说排行榜-新浪读书",
"channelNameSummary" : "小说排行榜-新浪读书",
"channelUrl" : "http:\/\/book.sina.com.cn\/novel\/",
"author" : "WWW.SINA.COM.CN",
"tags" : [],
"desc" : "无意间情绪的宣泄，她竟间接造成了父亲的意外死亡。遭遇了这样的变故，她对爱情绝望，给自己竖起了一堵厚厚的墙，不愿出去，也不让别人进来\u2026\u2026高干子弟莫怀远，有着别人无法比拟...",
"emailed" : False,
"forwarded" : False,
"english" : False
}  , {
"index" : 6,
"articleIndex" : "517",
"favor" :  False ,
     "read" : False,    
"title" : "冷魅王爷要休妻：失宠王妃",
"titleTip" : "冷魅王爷要休妻：失宠王妃",
"titleSummary" : "冷魅王爷要休妻：失宠王妃",
"descSummary" : "她以为她的人生就此圆满，却不想新婚夜的一出偷梁换柱，让她成了他与侧妃...",
"url" : "http:\/\/go.rss.sina.com.cn\/redirect.php?url=http:\/\/vip.book.sina.com.cn\/book\/index_153999.html",
"pubDate" : "2013年8月28日",
"enterDate" : "383982:55:09",
"channelId" : "1228067551493561959",
"channelName" : "小说排行榜-新浪读书",
"channelNameSummary" : "小说排行榜-新浪读书",
"channelUrl" : "http:\/\/book.sina.com.cn\/novel\/",
"author" : "WWW.SINA.COM.CN",
"tags" : [],
"desc" : "她以为她的人生就此圆满，却不想新婚夜的一出偷梁换柱，让她成了他与侧妃洞房的看客。他是显国最不受宠的三皇子，身上背负着母亲惨死的血海深仇。她是帝王的义女，亦是家破人亡的...",
"emailed" : False,
"forwarded" : False,
"english" : False
}  , {
"index" : 7,
"articleIndex" : "513",
"favor" :  False ,
     "read" : False,    
"title" : "掉包新娘上错床：若是相逢未爱时",
"titleTip" : "掉包新娘上错床：若是相逢未爱时",
"titleSummary" : "掉包新娘上错床：若是相逢未爱时",
"descSummary" : "他是高高在上的商界精英，翻手为云覆手为雨她是见不得光的私生女，...",
"url" : "http:\/\/go.rss.sina.com.cn\/redirect.php?url=http:\/\/vip.book.sina.com.cn\/book\/index_173866.html",
"pubDate" : "2013年8月28日",
"enterDate" : "384190:16:03",
"channelId" : "1228067551493561959",
"channelName" : "小说排行榜-新浪读书",
"channelNameSummary" : "小说排行榜-新浪读书",
"channelUrl" : "http:\/\/book.sina.com.cn\/novel\/",
"author" : "WWW.SINA.COM.CN",
"tags" : [],
"desc" : "他是高高在上的商界精英，翻手为云覆手为雨她是见不得光的私生女，却成了他的掉包新娘新婚夜，他和情人在她跟前极致缠绵她顶着已婚的身份，竟还是处子之身他从不碰她，又刻意与她...",
"emailed" : False,
"forwarded" : False,
"english" : False
}  , {
"index" : 8,
"articleIndex" : "514",
"favor" :  False ,
     "read" : False,    
"title" : "非常规出轨：结婚五年",
"titleTip" : "非常规出轨：结婚五年",
"titleSummary" : "非常规出轨：结婚五年",
"descSummary" : "结婚五年与丈夫徐健分居两地的苏琳在这种安慰下选择了出轨。当她想回头，以为...",
"url" : "http:\/\/go.rss.sina.com.cn\/redirect.php?url=http:\/\/vip.book.sina.com.cn\/book\/index_156476.html",
"pubDate" : "2013年8月23日",
"enterDate" : "383886:29:00",
"channelId" : "1228067551493561959",
"channelName" : "小说排行榜-新浪读书",
"channelNameSummary" : "小说排行榜-新浪读书",
"channelUrl" : "http:\/\/book.sina.com.cn\/novel\/",
"author" : "WWW.SINA.COM.CN",
"tags" : [],
"desc" : "结婚五年与丈夫徐健分居两地的苏琳在这种安慰下选择了出轨。当她想回头，以为能隐瞒这一切时却被徐健发现。徐健选择了另一种非常规出轨方式报复\u2026\u2026...",
"emailed" : False,
"forwarded" : False,
"english" : False
}  , {
"index" : 9,
"articleIndex" : "512",
"favor" :  False ,
     "read" : False,    
"title" : "泌尿科男医风流腾达路：医界传奇(全)",
"titleTip" : "泌尿科男医风流腾达路：医界传奇(全)",
"titleSummary" : "泌尿科男医风流腾达路：医界传奇(全)",
"descSummary" : "她是我的病人，我是泌尿科的门诊医生。陈瑶！我差点叫出了她的名...",
"url" : "http:\/\/go.rss.sina.com.cn\/redirect.php?url=http:\/\/vip.book.sina.com.cn\/book\/index_139322.html",
"pubDate" : "2013年8月21日",
"enterDate" : "384094:09:19",
"channelId" : "1228067551493561959",
"channelName" : "小说排行榜-新浪读书",
"channelNameSummary" : "小说排行榜-新浪读书",
"channelUrl" : "http:\/\/book.sina.com.cn\/novel\/",
"author" : "WWW.SINA.COM.CN",
"tags" : [],
"desc" : "她是我的病人，我是泌尿科的门诊医生。陈瑶！我差点叫出了她的名字。她好像没有认出我来，忽然想到自己戴着帽子，口罩也遮住了大半个脸。更可能的是，她根本就不曾把我放在心里过...",
"emailed" : False,
"forwarded" : False,
"english" : False
}  , {
"index" : 10,
"articleIndex" : "511",
"favor" :  False ,
     "read" : False,    
"title" : "凶猛藏獒血战群狼：藏獒笔记(全两册)",
"titleTip" : "凶猛藏獒血战群狼：藏獒笔记(全两册)",
"titleSummary" : "凶猛藏獒血战群狼：藏獒笔记(全两册)",
"descSummary" : "5000多年来，藏獒出现于各种精彩纷呈的传说与宗教典籍之中，它...",
"url" : "http:\/\/go.rss.sina.com.cn\/redirect.php?url=http:\/\/vip.book.sina.com.cn\/book\/index_234916.html",
"pubDate" : "2013年8月16日",
"enterDate" : "384200:25:09",
"channelId" : "1228067551493561959",
"channelName" : "小说排行榜-新浪读书",
"channelNameSummary" : "小说排行榜-新浪读书",
"channelUrl" : "http:\/\/book.sina.com.cn\/novel\/",
"author" : "WWW.SINA.COM.CN",
"tags" : [],
"desc" : "5000多年来，藏獒出现于各种精彩纷呈的传说与宗教典籍之中，它们由此披上了一层浓重的神秘色彩。退役特种兵肖兵，就是在西藏日喀则的一个村落里认识了这样一只纯种的藏獒\u2015\u2015大黑。...",
"emailed" : False,
"forwarded" : False,
"english" : False
}  , {
"index" : 11,
"articleIndex" : "510",
"favor" :  False ,
     "read" : False,    
"title" : "爱情的开关",
"titleTip" : "爱情的开关",
"titleSummary" : "爱情的开关",
"descSummary" : "青梅竹马的相处，让这对\u201C兄妹\u201D互生爱慕之心。当两人决心为爱远走的时候，周衍照的父亲...",
"url" : "http:\/\/go.rss.sina.com.cn\/redirect.php?url=http:\/\/vip.book.sina.com.cn\/book\/index_242743.html",
"pubDate" : "2013年7月31日",
"enterDate" : "384148:37:30",
"channelId" : "1228067551493561959",
"channelName" : "小说排行榜-新浪读书",
"channelNameSummary" : "小说排行榜-新浪读书",
"channelUrl" : "http:\/\/book.sina.com.cn\/novel\/",
"author" : "WWW.SINA.COM.CN",
"tags" : [],
"desc" : "青梅竹马的相处，让这对\u201C兄妹\u201D互生爱慕之心。当两人决心为爱远走的时候，周衍照的父亲意外出了车祸，而这场车祸的始因竟然是小萌的母亲蓄意设计的\u2026\u2026周衍照接手了因车祸瘫痪并...",
"emailed" : False,
"forwarded" : False,
"english" : False
}  , {
"index" : 12,
"articleIndex" : "508",
"favor" :  False ,
     "read" : False,    
"title" : "一念",
"titleTip" : "一念",
"titleSummary" : "一念",
"descSummary" : "佑染，有染\u2026\u2026明三少说，他们的名字相配得如此销魂，不做点有染的事，简直是暴殄天物。傅染轻...",
"url" : "http:\/\/go.rss.sina.com.cn\/redirect.php?url=http:\/\/vip.book.sina.com.cn\/book\/index_224149.html",
"pubDate" : "2013年7月27日",
"enterDate" : "384057:49:59",
"channelId" : "1228067551493561959",
"channelName" : "小说排行榜-新浪读书",
"channelNameSummary" : "小说排行榜-新浪读书",
"channelUrl" : "http:\/\/book.sina.com.cn\/novel\/",
"author" : "WWW.SINA.COM.CN",
"tags" : [],
"desc" : "佑染，有染\u2026\u2026明三少说，他们的名字相配得如此销魂，不做点有染的事，简直是暴殄天物。傅染轻扬下巴看着男人压到她身上，她嘴角点缀了笑意，\u201C我不是处女，你要不要？\u201D她自己都...",
"emailed" : False,
"forwarded" : False,
"english" : False
}  , {
"index" : 13,
"articleIndex" : "509",
"favor" :  False ,
     "read" : False,    
"title" : "名媛望族",
"titleTip" : "名媛望族",
"titleSummary" : "名媛望族",
"descSummary" : "然而族人觊觎家业，竟对她百般算计。红罗帐中，夺她正室之位的族姐和誓言爱她一生的夫婿翻...",
"url" : "http:\/\/go.rss.sina.com.cn\/redirect.php?url=http:\/\/vip.book.sina.com.cn\/book\/index_234169.html",
"pubDate" : "2013年7月18日",
"enterDate" : "383837:09:43",
"channelId" : "1228067551493561959",
"channelName" : "小说排行榜-新浪读书",
"channelNameSummary" : "小说排行榜-新浪读书",
"channelUrl" : "http:\/\/book.sina.com.cn\/novel\/",
"author" : "WWW.SINA.COM.CN",
"tags" : [],
"desc" : "然而族人觊觎家业，竟对她百般算计。红罗帐中，夺她正室之位的族姐和誓言爱她一生的夫婿翻云覆雨。她跪在一旁，如坠地狱。此仇不报天难容！她用一封叛国信，使得侯府抄家灭门，然...",
"emailed" : False,
"forwarded" : False,
"english" : False
}  , {
"index" : 14,
"articleIndex" : "522",
"favor" :  False ,
     "read" : False,    
"title" : "未婚妈妈误入豪门：契约婚姻",
"titleTip" : "未婚妈妈误入豪门：契约婚姻",
"titleSummary" : "未婚妈妈误入豪门：契约婚姻",
"descSummary" : "然后，分开，两不相欠。几年后，他再次遇见她，她的身边，却多了一个人...",
"url" : "http:\/\/go.rss.sina.com.cn\/redirect.php?url=http:\/\/vip.book.sina.com.cn\/book\/index_153650.html",
"pubDate" : "2013年7月2日",
"enterDate" : "381866:26:58",
"channelId" : "1228067551493561959",
"channelName" : "小说排行榜-新浪读书",
"channelNameSummary" : "小说排行榜-新浪读书",
"channelUrl" : "http:\/\/book.sina.com.cn\/novel\/",
"author" : "WWW.SINA.COM.CN",
"tags" : [],
"desc" : "然后，分开，两不相欠。几年后，他再次遇见她，她的身边，却多了一个人小鬼大的小屁孩\u2015\u2015我可以给你取之不尽的财富，给你随心所欲的权力，给你天高海阔的自由，惟独，给不起你要...",
"emailed" : False,
"forwarded" : False,
"english" : False
}  , {
"index" : 15,
"articleIndex" : "507",
"favor" :  False ,
     "read" : False,    
"title" : "狙杀",
"titleTip" : "狙杀",
"titleSummary" : "狙杀",
"descSummary" : "他以狩猎为名，孤身一人进入太行山区，把从德国学来的狙击技能，用于狙杀日军，枪枪夺命，冷血...",
"url" : "http:\/\/go.rss.sina.com.cn\/redirect.php?url=http:\/\/vip.book.sina.com.cn\/book\/index_79453.html",
"pubDate" : "2013年5月28日",
"enterDate" : "382636:52:33",
"channelId" : "1228067551493561959",
"channelName" : "小说排行榜-新浪读书",
"channelNameSummary" : "小说排行榜-新浪读书",
"channelUrl" : "http:\/\/book.sina.com.cn\/novel\/",
"author" : "WWW.SINA.COM.CN",
"tags" : [],
"desc" : "他以狩猎为名，孤身一人进入太行山区，把从德国学来的狙击技能，用于狙杀日军，枪枪夺命，冷血无情。日本天皇的亲戚，具有皇家血统的平谷忍大尉，还有十二名士兵，在一个夜黑风高...",
"emailed" : False,
"forwarded" : False,
"english" : False
}  , {
"index" : 16,
"articleIndex" : "506",
"favor" :  False ,
     "read" : False,    
"title" : "我的野蛮上司",
"titleTip" : "我的野蛮上司",
"titleSummary" : "我的野蛮上司",
"descSummary" : "应酬酒席上，因为商业合同某些细节双方持不同意见，加盟商狠下心在林夕与殷然的酒里下...",
"url" : "http:\/\/go.rss.sina.com.cn\/redirect.php?url=http:\/\/vip.book.sina.com.cn\/book\/index_104174.html",
"pubDate" : "2012年12月1日",
"enterDate" : "378363:13:05",
"channelId" : "1228067551493561959",
"channelName" : "小说排行榜-新浪读书",
"channelNameSummary" : "小说排行榜-新浪读书",
"channelUrl" : "http:\/\/book.sina.com.cn\/novel\/",
"author" : "WWW.SINA.COM.CN",
"tags" : [],
"desc" : "应酬酒席上，因为商业合同某些细节双方持不同意见，加盟商狠下心在林夕与殷然的酒里下了药，阴错阳差的，公司里最下等的小职员殷然与神态娇媚、雍容华贵却又心狠手辣、丧尽天良、...",
"emailed" : False,
"forwarded" : False,
"english" : False
}  , {
"index" : 17,
"articleIndex" : "516",
"favor" :  False ,
     "read" : False,    
"title" : "失宠皇后",
"titleTip" : "失宠皇后",
"titleSummary" : "失宠皇后",
"descSummary" : "一切只因，他不愿娶她为后。在他眼中，她贪慕虚荣，毒如蛇蝎。他惟独珍惜着那一位娇弱美人...",
"url" : "http:\/\/go.rss.sina.com.cn\/redirect.php?url=http:\/\/vip.book.sina.com.cn\/book\/index_145153.html",
"pubDate" : "2012年1月2日",
"enterDate" : "369511:28:22",
"channelId" : "1228067551493561959",
"channelName" : "小说排行榜-新浪读书",
"channelNameSummary" : "小说排行榜-新浪读书",
"channelUrl" : "http:\/\/book.sina.com.cn\/novel\/",
"author" : "WWW.SINA.COM.CN",
"tags" : [],
"desc" : "一切只因，他不愿娶她为后。在他眼中，她贪慕虚荣，毒如蛇蝎。他惟独珍惜着那一位娇弱美人，他的残暴冷酷，从来不在那个女子面前显露。寂寞深宫，她得不到他的喜爱，却得到更多的...",
"emailed" : False,
"forwarded" : False,
"english" : False
}  , {
"index" : 18,
"articleIndex" : "505",
"favor" :  False ,
     "read" : False,    
"title" : "新任市长官场突围：官色",
"titleTip" : "新任市长官场突围：官色",
"titleSummary" : "新任市长官场突围：官色",
"descSummary" : "常务副市长宋建德继任市长、其早年女搭档俞青田接任常务副市长。宋建德的政...",
"url" : "http:\/\/go.rss.sina.com.cn\/redirect.php?url=http:\/\/vip.book.sina.com.cn\/book\/index_184260.html",
"pubDate" : "2011年11月9日",
"enterDate" : "369035:29:14",
"channelId" : "1228067551493561959",
"channelName" : "小说排行榜-新浪读书",
"channelNameSummary" : "小说排行榜-新浪读书",
"channelUrl" : "http:\/\/book.sina.com.cn\/novel\/",
"author" : "WWW.SINA.COM.CN",
"tags" : [],
"desc" : "常务副市长宋建德继任市长、其早年女搭档俞青田接任常务副市长。宋建德的政敌、市委专职副书记黄桐庐派人私下调查跟踪，发现了俞青田及其弟弟俞庆元、弟媳魏乐清的违法事实。魏乐...",
"emailed" : False,
"forwarded" : False,
"english" : False
}  , {
"index" : 19,
"articleIndex" : "504",
"favor" :  False ,
     "read" : False,    
"title" : "80后血色浪漫:匆匆那年",
"titleTip" : "80后血色浪漫:匆匆那年",
"titleSummary" : "80后血色浪漫:匆匆那年",
"descSummary" : "就在他被方茴的神秘感吸引时，阴错阳差，与方茴住在了同一屋檐下，并且通过其...",
"url" : "http:\/\/go.rss.sina.com.cn\/redirect.php?url=http:\/\/vip.book.sina.com.cn\/book\/index_53338.html",
"pubDate" : "2009年8月14日",
"enterDate" : "349439:17:09",
"channelId" : "1228067551493561959",
"channelName" : "小说排行榜-新浪读书",
"channelNameSummary" : "小说排行榜-新浪读书",
"channelUrl" : "http:\/\/book.sina.com.cn\/novel\/",
"author" : "WWW.SINA.COM.CN",
"tags" : [],
"desc" : "就在他被方茴的神秘感吸引时，阴错阳差，与方茴住在了同一屋檐下，并且通过其他朋友知道方茴曾经深受伤害，有过一段难以忘怀的经历。一次偶然的机会，在张楠的房间里，方茴给他讲...",
"emailed" : False,
"forwarded" : False,
"english" : False
} ]
}
