{
"mode" : {"viewTitle" : 1,   "viewNew" : 0,  "pageIndex" : 2 },
 "channel" : {"id" : "1228067551493561959", "booked" : False, "subNumber" : 1, "name" : "小说排行榜-新浪读书", "url" : "http:\/\/book.sina.com.cn\/novel\/", "feed" : "http:\/\/rss.sina.com.cn\/book\/story_rank.xml", "author" : "WWW.SINA.COM.CN", "desc" : "小说排行榜", "imageUrl" : "http:\/\/www.sinaimg.cn\/book\/deco\/2010\/0826\/logo_v3.gif", "postPerWeek" : "0", "lastCrawTime" : "17:08:40", "crawDateTime" : "昨天00:04:55", "lastHttpCode" : "304"}, "page" : {
"startIndex" : 20,
"totalCount" : 524,
"pageIndex" : 2,
"lastPage" : 27,
"pageSize" : 20,
"english" :  False },
 "unreadNum" : 0, "shotIndex" : -1,
"articles" : [
{
"index" : 0,
"articleIndex" : "491",
"favor" :  False ,
     "read" : False,    
"title" : "和美女董事长那些事：交易（①-⑥册）",
"titleTip" : "和美女董事长那些事：交易（①-⑥册）",
"titleSummary" : "和美女董事长那些事：交易（①-⑥册）",
"descSummary" : "期间，张伟一直接受着伞人在虚拟世界的引导和帮助，但却没有把...",
"url" : "http:\/\/go.rss.sina.com.cn\/redirect.php?url=http:\/\/vip.book.sina.com.cn\/book\/index_108847.html",
"pubDate" : "2013年8月26日",
"enterDate" : "384143:57:29",
"channelId" : "1228067551493561959",
"channelName" : "小说排行榜-新浪读书",
"channelNameSummary" : "小说排行榜-新浪读书",
"channelUrl" : "http:\/\/book.sina.com.cn\/novel\/",
"author" : "WWW.SINA.COM.CN",
"tags" : [],
"desc" : "期间，张伟一直接受着伞人在虚拟世界的引导和帮助，但却没有把伞人和现实中自己无比敬仰的那位美若天仙的女董事长联系在一起。在打拼中张伟先后与三位美女董事长相识，周旋于她们...",
"emailed" : False,
"forwarded" : False,
"english" : False
}  , {
"index" : 1,
"articleIndex" : "501",
"favor" :  False ,
     "read" : False,    
"title" : "女副部长官场博弈：出牌(①-⑤册)",
"titleTip" : "女副部长官场博弈：出牌(①-⑤册)",
"titleSummary" : "女副部长官场博弈：出牌(①-⑤册)",
"descSummary" : "大醉之后，江峰上了美女上司柳月。自此，引发出一场缠绵悱恻情感之战...",
"url" : "http:\/\/go.rss.sina.com.cn\/redirect.php?url=http:\/\/vip.book.sina.com.cn\/book\/index_104102.html",
"pubDate" : "2013年8月7日",
"enterDate" : "384192:01:37",
"channelId" : "1228067551493561959",
"channelName" : "小说排行榜-新浪读书",
"channelNameSummary" : "小说排行榜-新浪读书",
"channelUrl" : "http:\/\/book.sina.com.cn\/novel\/",
"author" : "WWW.SINA.COM.CN",
"tags" : [],
"desc" : "大醉之后，江峰上了美女上司柳月。自此，引发出一场缠绵悱恻情感之战和惊心动魄的官场博弈。官场的\u201C圆滑\u201D、\u201C伪装\u201D、\u201C谦虚\u201D、\u201C意气\u201D，被睿智的江峰演绎地淋漓尽致。这是谋...",
"emailed" : False,
"forwarded" : False,
"english" : False
}  , {
"index" : 2,
"articleIndex" : "502",
"favor" :  False ,
     "read" : False,    
"title" : "别碰我的婚姻",
"titleTip" : "别碰我的婚姻",
"titleSummary" : "别碰我的婚姻",
"descSummary" : "过了会儿，刁小鹰给苏小晚搓着背，触到了苏小晚的瘦。一双想象的男人的手在苏小晚的身...",
"url" : "http:\/\/go.rss.sina.com.cn\/redirect.php?url=http:\/\/vip.book.sina.com.cn\/book\/index_240952.html",
"pubDate" : "2013年7月19日",
"enterDate" : "384194:32:02",
"channelId" : "1228067551493561959",
"channelName" : "小说排行榜-新浪读书",
"channelNameSummary" : "小说排行榜-新浪读书",
"channelUrl" : "http:\/\/book.sina.com.cn\/novel\/",
"author" : "WWW.SINA.COM.CN",
"tags" : [],
"desc" : "过了会儿，刁小鹰给苏小晚搓着背，触到了苏小晚的瘦。一双想象的男人的手在苏小晚的身上二滑过。一股奠名的气息从眼前的身体上散发出来。\u201C我得不到的男人，她得到了。可是，我必...",
"emailed" : False,
"forwarded" : False,
"english" : False
}  , {
"index" : 3,
"articleIndex" : "503",
"favor" :  False ,
     "read" : False,    
"title" : "亿万老婆买一送一",
"titleTip" : "亿万老婆买一送一",
"titleSummary" : "亿万老婆买一送一",
"descSummary" : "七年后，她带着女性杀手的天才儿子回国，没想到又再一次遇上叶三少，还成了顶头上...",
"url" : "http:\/\/go.rss.sina.com.cn\/redirect.php?url=http:\/\/vip.book.sina.com.cn\/book\/index_205154.html",
"pubDate" : "2013年7月17日",
"enterDate" : "383860:10:46",
"channelId" : "1228067551493561959",
"channelName" : "小说排行榜-新浪读书",
"channelNameSummary" : "小说排行榜-新浪读书",
"channelUrl" : "http:\/\/book.sina.com.cn\/novel\/",
"author" : "WWW.SINA.COM.CN",
"tags" : [],
"desc" : "七年后，她带着女性杀手的天才儿子回国，没想到又再一次遇上叶三少，还成了顶头上司\u2026\u2026\u201C一百万，我买你一夜!\u201D叶三少一脸邪魅，程安雅甜甜一笑：\u201C1000万，我买你一夜，如何？\u201D。...",
"emailed" : False,
"forwarded" : False,
"english" : False
}  , {
"index" : 4,
"articleIndex" : "500",
"favor" :  False ,
     "read" : False,    
"title" : "卧底",
"titleTip" : "卧底",
"titleSummary" : "卧底",
"descSummary" : "他经请示省公安厅同意，秘密进行代号为\u201C猎鸟\u201D的行动，派刑警杜大浩去卧底。本书通过触目惊心...",
"url" : "http:\/\/go.rss.sina.com.cn\/redirect.php?url=http:\/\/vip.book.sina.com.cn\/book\/index_240281.html",
"pubDate" : "2013年7月11日",
"enterDate" : "384154:46:11",
"channelId" : "1228067551493561959",
"channelName" : "小说排行榜-新浪读书",
"channelNameSummary" : "小说排行榜-新浪读书",
"channelUrl" : "http:\/\/book.sina.com.cn\/novel\/",
"author" : "WWW.SINA.COM.CN",
"tags" : [],
"desc" : "他经请示省公安厅同意，秘密进行代号为\u201C猎鸟\u201D的行动，派刑警杜大浩去卧底。本书通过触目惊心的故事，表现了刑警大智大勇、出生入死，无私无畏，最终打掉\u201C蓝雀\u201D黑恶团伙，揭开...",
"emailed" : False,
"forwarded" : False,
"english" : False
}  , {
"index" : 5,
"articleIndex" : "498",
"favor" :  False ,
     "read" : False,    
"title" : "山西煤老板",
"titleTip" : "山西煤老板",
"titleSummary" : "山西煤老板",
"descSummary" : "山西煤老板是一个特殊的老板群体，在中国几乎没有任何富人阶层能够像他们一样让人们产生...",
"url" : "http:\/\/go.rss.sina.com.cn\/redirect.php?url=http:\/\/vip.book.sina.com.cn\/book\/index_92348.html",
"pubDate" : "2013年7月1日",
"enterDate" : "384149:12:23",
"channelId" : "1228067551493561959",
"channelName" : "小说排行榜-新浪读书",
"channelNameSummary" : "小说排行榜-新浪读书",
"channelUrl" : "http:\/\/book.sina.com.cn\/novel\/",
"author" : "WWW.SINA.COM.CN",
"tags" : [],
"desc" : "山西煤老板是一个特殊的老板群体，在中国几乎没有任何富人阶层能够像他们一样让人们产生好奇与关注。他们身处中国的能源大省，巧遇中国近二十年经济腾飞的发展时机，一夜暴富，拥...",
"emailed" : False,
"forwarded" : False,
"english" : False
}  , {
"index" : 6,
"articleIndex" : "497",
"favor" :  False ,
     "read" : False,    
"title" : "瑾年绝恋醉流苏",
"titleTip" : "瑾年绝恋醉流苏",
"titleSummary" : "瑾年绝恋醉流苏",
"descSummary" : "他说，就算下地狱，你也逃不开我！一场绚烂的桃花雨，牵动美丽的邂逅，桃花雨下，初...",
"url" : "http:\/\/go.rss.sina.com.cn\/redirect.php?url=http:\/\/vip.book.sina.com.cn\/book\/index_202472.html",
"pubDate" : "2013年6月30日",
"enterDate" : "384176:20:45",
"channelId" : "1228067551493561959",
"channelName" : "小说排行榜-新浪读书",
"channelNameSummary" : "小说排行榜-新浪读书",
"channelUrl" : "http:\/\/book.sina.com.cn\/novel\/",
"author" : "WWW.SINA.COM.CN",
"tags" : [],
"desc" : "他说，就算下地狱，你也逃不开我！一场绚烂的桃花雨，牵动美丽的邂逅，桃花雨下，初遇风南瑾。他说，桃花是最寂寞的花，因为寂寞，所以开得如此热闹。姻缘寺，桃花雨，他们牵着同...",
"emailed" : False,
"forwarded" : False,
"english" : False
}  , {
"index" : 7,
"articleIndex" : "496",
"favor" :  False ,
     "read" : False,    
"title" : "齐天传",
"titleTip" : "齐天传",
"titleSummary" : "齐天传",
"descSummary" : "这也是一部揭秘小说。粉碎\u201C取经阴谋\u201D，改变取经人和众多仙佛妖魔的命运，揭开\u201C西游世界\u201D...",
"url" : "http:\/\/go.rss.sina.com.cn\/redirect.php?url=http:\/\/vip.book.sina.com.cn\/book\/index_224150.html",
"pubDate" : "2013年6月28日",
"enterDate" : "384122:24:18",
"channelId" : "1228067551493561959",
"channelName" : "小说排行榜-新浪读书",
"channelNameSummary" : "小说排行榜-新浪读书",
"channelUrl" : "http:\/\/book.sina.com.cn\/novel\/",
"author" : "WWW.SINA.COM.CN",
"tags" : [],
"desc" : "这也是一部揭秘小说。粉碎\u201C取经阴谋\u201D，改变取经人和众多仙佛妖魔的命运，揭开\u201C西游世界\u201D的终极秘密。这还是一部神话小说。从盘古、后羿等上古神话人物，至杨戬、哪吒等中古神...",
"emailed" : False,
"forwarded" : False,
"english" : False
}  , {
"index" : 8,
"articleIndex" : "495",
"favor" :  False ,
     "read" : False,    
"title" : "第九个寡妇",
"titleTip" : "第九个寡妇",
"titleSummary" : "第九个寡妇",
"descSummary" : "度过了一次次饥馑、一次次政治运动带来的危机\u2026\u2026本书是著名女作家严歌苓的重要代表作，...",
"url" : "http:\/\/go.rss.sina.com.cn\/redirect.php?url=http:\/\/vip.book.sina.com.cn\/book\/index_40105.html",
"pubDate" : "2013年6月27日",
"enterDate" : "384098:21:40",
"channelId" : "1228067551493561959",
"channelName" : "小说排行榜-新浪读书",
"channelNameSummary" : "小说排行榜-新浪读书",
"channelUrl" : "http:\/\/book.sina.com.cn\/novel\/",
"author" : "WWW.SINA.COM.CN",
"tags" : [],
"desc" : "度过了一次次饥馑、一次次政治运动带来的危机\u2026\u2026本书是著名女作家严歌苓的重要代表作，也是她的转型作。小说的情节从葡萄以童养媳身份掩护公爹尽孝与作为寡妇以强烈情欲与不同男...",
"emailed" : False,
"forwarded" : False,
"english" : False
}  , {
"index" : 9,
"articleIndex" : "494",
"favor" :  False ,
     "read" : False,    
"title" : "我只是忘了忘记你",
"titleTip" : "我只是忘了忘记你",
"titleSummary" : "我只是忘了忘记你",
"descSummary" : "而她，安静如睡莲，似浮世喧哗中的一抹黑与白，就那么黯淡而耀眼地俘获了他的心。...",
"url" : "http:\/\/go.rss.sina.com.cn\/redirect.php?url=http:\/\/vip.book.sina.com.cn\/book\/index_231790.html",
"pubDate" : "2013年6月27日",
"enterDate" : "384097:12:44",
"channelId" : "1228067551493561959",
"channelName" : "小说排行榜-新浪读书",
"channelNameSummary" : "小说排行榜-新浪读书",
"channelUrl" : "http:\/\/book.sina.com.cn\/novel\/",
"author" : "WWW.SINA.COM.CN",
"tags" : [],
"desc" : "而她，安静如睡莲，似浮世喧哗中的一抹黑与白，就那么黯淡而耀眼地俘获了他的心。甜蜜青涩的爱恋，却因进入同一所大学而演变成一场你追我逃的虐心审判。他为她委身豪门对手而心伤...",
"emailed" : False,
"forwarded" : False,
"english" : False
}  , {
"index" : 10,
"articleIndex" : "493",
"favor" :  False ,
     "read" : False,    
"title" : "终极高手",
"titleTip" : "终极高手",
"titleSummary" : "终极高手",
"descSummary" : "然而，随着一位女招商局长的突然到来，林一凡似乎遇到了新的挑战。他应邀和炒房团一起去韩...",
"url" : "http:\/\/go.rss.sina.com.cn\/redirect.php?url=http:\/\/vip.book.sina.com.cn\/book\/index_141739.html",
"pubDate" : "2013年6月20日",
"enterDate" : "384053:11:20",
"channelId" : "1228067551493561959",
"channelName" : "小说排行榜-新浪读书",
"channelNameSummary" : "小说排行榜-新浪读书",
"channelUrl" : "http:\/\/book.sina.com.cn\/novel\/",
"author" : "WWW.SINA.COM.CN",
"tags" : [],
"desc" : "然而，随着一位女招商局长的突然到来，林一凡似乎遇到了新的挑战。他应邀和炒房团一起去韩山炒房，会有什么样的冒险和奇遇？美丽而又神秘的局长为什么偏偏挑中了他，是巧合还是预...",
"emailed" : False,
"forwarded" : False,
"english" : False
}  , {
"index" : 11,
"articleIndex" : "492",
"favor" :  False ,
     "read" : False,    
"title" : "大清赌王",
"titleTip" : "大清赌王",
"titleSummary" : "大清赌王",
"descSummary" : "香山决斗，赌局、赌注前所未有，引来万人围观，连嘉庆帝都乔装打扮看个究竟。对赌风云变幻...",
"url" : "http:\/\/go.rss.sina.com.cn\/redirect.php?url=http:\/\/vip.book.sina.com.cn\/book\/index_238259.html",
"pubDate" : "2013年6月9日",
"enterDate" : "384158:40:00",
"channelId" : "1228067551493561959",
"channelName" : "小说排行榜-新浪读书",
"channelNameSummary" : "小说排行榜-新浪读书",
"channelUrl" : "http:\/\/book.sina.com.cn\/novel\/",
"author" : "WWW.SINA.COM.CN",
"tags" : [],
"desc" : "香山决斗，赌局、赌注前所未有，引来万人围观，连嘉庆帝都乔装打扮看个究竟。对赌风云变幻，胜负几经周折，奇招怪招诱招纷呈叠出，不断生出令人意外的事端，最终竟牵涉出本朝悬案...",
"emailed" : False,
"forwarded" : False,
"english" : False
}  , {
"index" : 12,
"articleIndex" : "499",
"favor" :  False ,
     "read" : False,    
"title" : "赶尸客栈",
"titleTip" : "赶尸客栈",
"titleSummary" : "赶尸客栈",
"descSummary" : "在魏宁修习\u201C赶尸\u201D的过程中经历了一系列的神秘事件。最终，他发现自己陷入了一个又一个的...",
"url" : "http:\/\/go.rss.sina.com.cn\/redirect.php?url=http:\/\/vip.book.sina.com.cn\/book\/index_238398.html",
"pubDate" : "2013年6月8日",
"enterDate" : "383570:33:51",
"channelId" : "1228067551493561959",
"channelName" : "小说排行榜-新浪读书",
"channelNameSummary" : "小说排行榜-新浪读书",
"channelUrl" : "http:\/\/book.sina.com.cn\/novel\/",
"author" : "WWW.SINA.COM.CN",
"tags" : [],
"desc" : "在魏宁修习\u201C赶尸\u201D的过程中经历了一系列的神秘事件。最终，他发现自己陷入了一个又一个的谜团之中，种种劫难过后，魏宁才看清楚自己只是一个大局中的一颗棋子而已，他开始慢慢寻...",
"emailed" : False,
"forwarded" : False,
"english" : False
}  , {
"index" : 13,
"articleIndex" : "484",
"favor" :  False ,
     "read" : False,    
"title" : "前门",
"titleTip" : "前门",
"titleSummary" : "前门",
"descSummary" : "围绕谁来继任局长位子的过程，银州市内暗潮涌动，竞争激烈。这个时候，省委书记表示希望银州市...",
"url" : "http:\/\/go.rss.sina.com.cn\/redirect.php?url=http:\/\/vip.book.sina.com.cn\/book\/index_237871.html",
"pubDate" : "2013年5月30日",
"enterDate" : "384147:32:53",
"channelId" : "1228067551493561959",
"channelName" : "小说排行榜-新浪读书",
"channelNameSummary" : "小说排行榜-新浪读书",
"channelUrl" : "http:\/\/book.sina.com.cn\/novel\/",
"author" : "WWW.SINA.COM.CN",
"tags" : [],
"desc" : "围绕谁来继任局长位子的过程，银州市内暗潮涌动，竞争激烈。这个时候，省委书记表示希望银州市委利用公安局长任命的机会对选拔任用干部进行改革。彭远大、蒋卫生、姚开放、庄扬四...",
"emailed" : False,
"forwarded" : False,
"english" : False
}  , {
"index" : 14,
"articleIndex" : "487",
"favor" :  False ,
     "read" : False,    
"title" : "女招商局长",
"titleTip" : "女招商局长",
"titleSummary" : "女招商局长",
"descSummary" : "小说表现的多是高等学府的知识分子和政府机关工作人员的情感与欲望、生存压力与人际纷争...",
"url" : "http:\/\/go.rss.sina.com.cn\/redirect.php?url=http:\/\/vip.book.sina.com.cn\/book\/index_135922.html",
"pubDate" : "2013年5月22日",
"enterDate" : "383907:53:49",
"channelId" : "1228067551493561959",
"channelName" : "小说排行榜-新浪读书",
"channelNameSummary" : "小说排行榜-新浪读书",
"channelUrl" : "http:\/\/book.sina.com.cn\/novel\/",
"author" : "WWW.SINA.COM.CN",
"tags" : [],
"desc" : "小说表现的多是高等学府的知识分子和政府机关工作人员的情感与欲望、生存压力与人际纷争等社会问题。...",
"emailed" : False,
"forwarded" : False,
"english" : False
}  , {
"index" : 15,
"articleIndex" : "488",
"favor" :  False ,
     "read" : False,    
"title" : "客官不可以",
"titleTip" : "客官不可以",
"titleSummary" : "客官不可以",
"descSummary" : "刚见面就结仇，胡一下的职场生活注定是个悲剧。身为\u201C暴发户二代\u201D，胡一下吃穿不愁只愁...",
"url" : "http:\/\/go.rss.sina.com.cn\/redirect.php?url=http:\/\/vip.book.sina.com.cn\/book\/index_189148.html",
"pubDate" : "2013年5月22日",
"enterDate" : "383866:46:08",
"channelId" : "1228067551493561959",
"channelName" : "小说排行榜-新浪读书",
"channelNameSummary" : "小说排行榜-新浪读书",
"channelUrl" : "http:\/\/book.sina.com.cn\/novel\/",
"author" : "WWW.SINA.COM.CN",
"tags" : [],
"desc" : "刚见面就结仇，胡一下的职场生活注定是个悲剧。身为\u201C暴发户二代\u201D，胡一下吃穿不愁只愁青梅竹马的许方舟，但他心里从来没有她。她看他辗转花丛片叶不沾身，看他对她宠溺有加却从...",
"emailed" : False,
"forwarded" : False,
"english" : False
}  , {
"index" : 16,
"articleIndex" : "486",
"favor" :  False ,
     "read" : False,    
"title" : "护花特种兵：兵血燃烧",
"titleTip" : "护花特种兵：兵血燃烧",
"titleSummary" : "护花特种兵：兵血燃烧",
"descSummary" : "\u201C战神\u201D尖兵李无悔，偶然救下被恐怖组织下药绑架的总统女儿，恰遇其药性发作...",
"url" : "http:\/\/go.rss.sina.com.cn\/redirect.php?url=http:\/\/vip.book.sina.com.cn\/book\/index_169379.html",
"pubDate" : "2013年5月17日",
"enterDate" : "383772:26:40",
"channelId" : "1228067551493561959",
"channelName" : "小说排行榜-新浪读书",
"channelNameSummary" : "小说排行榜-新浪读书",
"channelUrl" : "http:\/\/book.sina.com.cn\/novel\/",
"author" : "WWW.SINA.COM.CN",
"tags" : [],
"desc" : "\u201C战神\u201D尖兵李无悔，偶然救下被恐怖组织下药绑架的总统女儿，恰遇其药性发作欲难自禁，胡乱找他救急，至此一段惊天动地的感情开始，却是爱与恨两难的交集\u2026\u2026且看潘刻刂直在强...",
"emailed" : False,
"forwarded" : False,
"english" : False
}  , {
"index" : 17,
"articleIndex" : "485",
"favor" :  False ,
     "read" : False,    
"title" : "云殇倾城",
"titleTip" : "云殇倾城",
"titleSummary" : "云殇倾城",
"descSummary" : "民间二皇子被召入宫，却带来神秘女子云容。那一年，宫门外山梅开遍，他说从今后有我的地方...",
"url" : "http:\/\/go.rss.sina.com.cn\/redirect.php?url=http:\/\/vip.book.sina.com.cn\/book\/index_134189.html",
"pubDate" : "2013年5月7日",
"enterDate" : "383547:19:35",
"channelId" : "1228067551493561959",
"channelName" : "小说排行榜-新浪读书",
"channelNameSummary" : "小说排行榜-新浪读书",
"channelUrl" : "http:\/\/book.sina.com.cn\/novel\/",
"author" : "WWW.SINA.COM.CN",
"tags" : [],
"desc" : "民间二皇子被召入宫，却带来神秘女子云容。那一年，宫门外山梅开遍，他说从今后有我的地方就是你的家，可原来后宫深海他的家里却不会只有她一个女人\u2026\u2026那一天，皇家别苑，他说从...",
"emailed" : False,
"forwarded" : False,
"english" : False
}  , {
"index" : 18,
"articleIndex" : "490",
"favor" :  False ,
     "read" : False,    
"title" : "高位过招",
"titleTip" : "高位过招",
"titleSummary" : "高位过招",
"descSummary" : "一石激起千层浪，大鱼惶恐，小鱼失措。清者为证明自己，\u201C裸\u201D者为洗白自己，一时间班子里...",
"url" : "http:\/\/go.rss.sina.com.cn\/redirect.php?url=http:\/\/vip.book.sina.com.cn\/book\/index_229428.html",
"pubDate" : "2013年2月21日",
"enterDate" : "381626:34:45",
"channelId" : "1228067551493561959",
"channelName" : "小说排行榜-新浪读书",
"channelNameSummary" : "小说排行榜-新浪读书",
"channelUrl" : "http:\/\/book.sina.com.cn\/novel\/",
"author" : "WWW.SINA.COM.CN",
"tags" : [],
"desc" : "一石激起千层浪，大鱼惶恐，小鱼失措。清者为证明自己，\u201C裸\u201D者为洗白自己，一时间班子里人事调动此起披伏。明升暗降，暗降名升，各方势力此消彼长。海州市委书记朱天运从波诡云...",
"emailed" : False,
"forwarded" : False,
"english" : False
}  , {
"index" : 19,
"articleIndex" : "489",
"favor" :  False ,
     "read" : False,    
"title" : "锦绣妃途",
"titleTip" : "锦绣妃途",
"titleSummary" : "锦绣妃途",
"descSummary" : "既然穿越了一回，她就要恣意活一把，现代女子岂容你们揉圆搓扁？在娘家，她看似胆小，实则...",
"url" : "http:\/\/go.rss.sina.com.cn\/redirect.php?url=http:\/\/vip.book.sina.com.cn\/book\/index_196013.html",
"pubDate" : "2012年11月29日",
"enterDate" : "379607:07:06",
"channelId" : "1228067551493561959",
"channelName" : "小说排行榜-新浪读书",
"channelNameSummary" : "小说排行榜-新浪读书",
"channelUrl" : "http:\/\/book.sina.com.cn\/novel\/",
"author" : "WWW.SINA.COM.CN",
"tags" : [],
"desc" : "既然穿越了一回，她就要恣意活一把，现代女子岂容你们揉圆搓扁？在娘家，她看似胆小，实则狡诈如狐，机智百出。惩嫡母，罚嫡姐，活得风声水起。但封建社会下，再聪慧能干，还是得...",
"emailed" : False,
"forwarded" : False,
"english" : False
} ]
}
