{
"mode" : {"viewTitle" : 1,   "viewNew" : 0,  "pageIndex" : 1 },
 "channel" : {"id" : "2509861480227877380", "booked" : False, "subNumber" : 884, "name" : "综合-焦点新闻", "url" : "http:\/\/sports.sina.com.cn\/others\/index.shtml", "feed" : "http:\/\/rss.sina.com.cn\/sports\/others\/focus.xml", "author" : "WWW.SINA.COM.CN", "desc" : "综合-焦点新闻", "imageUrl" : "", "postPerWeek" : "114", "lastCrawTime" : "17:18:10", "crawDateTime" : "17:18:10", "lastHttpCode" : "200"}, "page" : {
"startIndex" : 0,
"totalCount" : 5000,
"pageIndex" : 1,
"lastPage" : 250,
"pageSize" : 20,
"english" :  False },
 "unreadNum" : 0, "shotIndex" : -1,
"articles" : [
{
"index" : 0,
"articleIndex" : "62755",
"favor" :  False ,
     "read" : False,    
"title" : "16岁黑马终结!国锦赛傅家俊6-2赵心童 轰4杆60+",
"titleTip" : "16岁黑马终结!国锦赛傅家俊6-2赵心童 轰4杆60+",
"titleSummary" : "16岁黑马终结!国锦赛傅家俊6-2赵心童 轰4杆60+",
"descSummary" : "北京时间10月30日下午，2013年世界斯诺克国际锦标赛...",
"url" : "http:\/\/go.rss.sina.com.cn\/redirect.php?url=http:\/\/sports.sina.com.cn\/o\/2013-10-30\/16376858724.shtml",
"pubDate" : "16:37:41",
"enterDate" : "384201:09:44",
"channelId" : "2509861480227877380",
"channelName" : "综合-焦点新闻",
"channelNameSummary" : "综合-焦点新闻",
"channelUrl" : "http:\/\/sports.sina.com.cn\/others\/index.shtml",
"author" : "WWW.SINA.COM.CN",
"tags" : [],
"desc" : "北京时间10月30日下午，2013年世界斯诺克国际锦标赛在四川成都东区音乐公园继续进行。1\/8决赛的德比战，天才小将赵心童虽然频频打进精准远台，无奈经验欠缺而得分不多。傅家俊1杆破百4杆60+，6-2终结了他的黑马之旅。1\/4决赛傅家俊将对阵塞尔比和宾汉姆的胜者。 本赛季....",
"emailed" : False,
"forwarded" : False,
"english" : False
}  , {
"index" : 1,
"articleIndex" : "62754",
"favor" :  False ,
     "read" : False,    
"title" : "美女古尔比斯拉斯维加斯泛舟 上演美女漂流记(图)",
"titleTip" : "美女古尔比斯拉斯维加斯泛舟 上演美女漂流记(图)",
"titleSummary" : "美女古尔比斯拉斯维加斯泛舟 上演美女漂流记(图)",
"descSummary" : "北京时间10月30日消息，LPGA巡回赛上周结束台湾锦标...",
"url" : "http:\/\/go.rss.sina.com.cn\/redirect.php?url=http:\/\/sports.sina.com.cn\/golf\/2013-10-30\/16286858696.shtml",
"pubDate" : "16:28:00",
"enterDate" : "384201:00:03",
"channelId" : "2509861480227877380",
"channelName" : "综合-焦点新闻",
"channelNameSummary" : "综合-焦点新闻",
"channelUrl" : "http:\/\/sports.sina.com.cn\/others\/index.shtml",
"author" : "WWW.SINA.COM.CN",
"tags" : [],
"desc" : "北京时间10月30日消息，LPGA巡回赛上周结束台湾锦标赛之后，本周将休战一周，下周转战日本举行美津浓精英赛。高尔夫大美女古尔比斯回到拉斯维加斯湖中泛舟，上演\u201C美女漂流记\u201D。 古尔比斯泛舟 古尔比斯将两张湖中泛舟的图片发到推特上，照片中古尔比斯穿着一身橙色....",
"emailed" : False,
"forwarded" : False,
"english" : False
}  , {
"index" : 2,
"articleIndex" : "62753",
"favor" :  False ,
     "read" : False,    
"title" : "郎平不为女排打分称目的达到 亚锦赛比预想打得差",
"titleTip" : "郎平不为女排打分称目的达到 亚锦赛比预想打得差",
"titleSummary" : "郎平不为女排打分称目的达到 亚锦赛比预想打得差",
"descSummary" : "北京时间10月30日，中国女排[微博]三期集训在国家体...",
"url" : "http:\/\/go.rss.sina.com.cn\/redirect.php?url=http:\/\/sports.sina.com.cn\/o\/2013-10-30\/16016858683.shtml",
"pubDate" : "16:01:43",
"enterDate" : "384201:03:52",
"channelId" : "2509861480227877380",
"channelName" : "综合-焦点新闻",
"channelNameSummary" : "综合-焦点新闻",
"channelUrl" : "http:\/\/sports.sina.com.cn\/others\/index.shtml",
"author" : "WWW.SINA.COM.CN",
"tags" : [],
"desc" : "北京时间10月30日，中国女排[微博]三期集训在国家体育总局训练局排管中心进行了一堂媒体公开训练课，这是中国女排在结束了国际赛场的征战后鲜有地进行集中训练。在被要求对中国女排今年全年的表现打分时，郎平[微博]说：\u201C不打分，我们的目的达到了，成绩是球员进步了。我没有....",
"emailed" : False,
"forwarded" : False,
"english" : False
}  , {
"index" : 3,
"articleIndex" : "62752",
"favor" :  False ,
     "read" : False,    
"title" : "女排三训郎平看新人强化基本功 刘聪聪随队集训",
"titleTip" : "女排三训郎平看新人强化基本功 刘聪聪随队集训",
"titleSummary" : "女排三训郎平看新人强化基本功 刘聪聪随队集训",
"descSummary" : "北京时间10月30日，今天上午在国家体育总局训练局排...",
"url" : "http:\/\/go.rss.sina.com.cn\/redirect.php?url=http:\/\/sports.sina.com.cn\/o\/2013-10-30\/15156858649.shtml",
"pubDate" : "15:15:40",
"enterDate" : "384200:47:54",
"channelId" : "2509861480227877380",
"channelName" : "综合-焦点新闻",
"channelNameSummary" : "综合-焦点新闻",
"channelUrl" : "http:\/\/sports.sina.com.cn\/others\/index.shtml",
"author" : "WWW.SINA.COM.CN",
"tags" : [],
"desc" : "北京时间10月30日，今天上午在国家体育总局训练局排球馆中国女排[微博]进行了一堂媒体公开训练课，\u201C郎三期\u201D的16名队员悉数到场。袁心h[微博]、黄柳燕、张晓雅[微博]、王琦、杨方旭\u2026\u2026这些国青、国少和U23世锦赛夺冠的核心球员加入中国女排第三期集训名单，在全运会上表现....",
"emailed" : False,
"forwarded" : False,
"english" : False
}  , {
"index" : 4,
"articleIndex" : "62751",
"favor" :  False ,
     "read" : False,    
"title" : "王皓喜得贵子升级当爸爸 宝宝11点出生重7斤2两",
"titleTip" : "王皓喜得贵子升级当爸爸 宝宝11点出生重7斤2两",
"titleSummary" : "王皓喜得贵子升级当爸爸 宝宝11点出生重7斤2两",
"descSummary" : "北京时间10月30日，乒乓球[微博]名将王皓微博透露自己...",
"url" : "http:\/\/go.rss.sina.com.cn\/redirect.php?url=http:\/\/sports.sina.com.cn\/o\/2013-10-30\/14366858515.shtml",
"pubDate" : "14:36:08",
"enterDate" : "384200:38:27",
"channelId" : "2509861480227877380",
"channelName" : "综合-焦点新闻",
"channelNameSummary" : "综合-焦点新闻",
"channelUrl" : "http:\/\/sports.sina.com.cn\/others\/index.shtml",
"author" : "WWW.SINA.COM.CN",
"tags" : [],
"desc" : "北京时间10月30日，乒乓球[微博]名将王皓微博透露自己于今早11点整喜得贵子，升级做父亲。 王皓与舞蹈演员闫博雅相恋多年，今年6月29日在长春举办了盛大的婚礼。妻子临产在即，王皓也尽可能地多陪在妻子身边。 今天王皓微博公布了喜讯：\u201C现在的心情才稍微平复....",
"emailed" : False,
"forwarded" : False,
"english" : False
}  , {
"index" : 5,
"articleIndex" : "62750",
"favor" :  False ,
     "read" : False,    
"title" : "正视频播国锦赛16岁赵心童-傅家俊 罗伯逊-艾伯顿",
"titleTip" : "正视频播国锦赛16岁赵心童-傅家俊 罗伯逊-艾伯顿",
"titleSummary" : "正视频播国锦赛16岁赵心童-傅家俊 罗伯逊-艾伯顿",
"descSummary" : "北京时间10月30日，2013年世界斯诺克国际锦标赛将进...",
"url" : "http:\/\/go.rss.sina.com.cn\/redirect.php?url=http:\/\/sports.sina.com.cn\/o\/2013-10-30\/01146857273.shtml",
"pubDate" : "14:30:00",
"enterDate" : "384200:32:19",
"channelId" : "2509861480227877380",
"channelName" : "综合-焦点新闻",
"channelNameSummary" : "综合-焦点新闻",
"channelUrl" : "http:\/\/sports.sina.com.cn\/others\/index.shtml",
"author" : "WWW.SINA.COM.CN",
"tags" : [],
"desc" : "北京时间10月30日，2013年世界斯诺克国际锦标赛将进入第4比赛日的较量，这一天将举行全部8场正赛第三轮比赛，中国有4名球手将冲击3个8强席位，其中傅家俊将和赵心童上演本届比赛第4场中国德比，而丁俊晖和梁文博将各自迎战一名TOP16球手。 &gt;&gt;&gt;&gt;国锦赛第三....",
"emailed" : False,
"forwarded" : False,
"english" : False
}  , {
"index" : 6,
"articleIndex" : "62749",
"favor" :  False ,
     "read" : False,    
"title" : "郎平做客鲁豫有约揭拿手菜 96年奥运晕倒真相曝光",
"titleTip" : "郎平做客鲁豫有约揭拿手菜 96年奥运晕倒真相曝光",
"titleSummary" : "郎平做客鲁豫有约揭拿手菜 96年奥运晕倒真相曝光",
"descSummary" : "北京时间10月30日消息，安徽卫视《鲁豫有约--说出你...",
"url" : "http:\/\/go.rss.sina.com.cn\/redirect.php?url=http:\/\/sports.sina.com.cn\/o\/2013-10-30\/13256858447.shtml",
"pubDate" : "13:25:47",
"enterDate" : "384200:28:16",
"channelId" : "2509861480227877380",
"channelName" : "综合-焦点新闻",
"channelNameSummary" : "综合-焦点新闻",
"channelUrl" : "http:\/\/sports.sina.com.cn\/others\/index.shtml",
"author" : "WWW.SINA.COM.CN",
"tags" : [],
"desc" : "北京时间10月30日消息，安徽卫视《鲁豫有约--说出你的故事》回顾了中国女排主教练郎平几次做客节目的精彩花絮并对节目做了重新剪辑。郎平在节目中自曝了拿手菜是红烧排骨以及在美国深造的一些趣事。一段父亲在亚特兰大奥运会时与赖亚文的越洋电话资料揭露了郎平荣誉背后几次晕....",
"emailed" : False,
"forwarded" : False,
"english" : False
}  , {
"index" : 7,
"articleIndex" : "62748",
"favor" :  False ,
     "read" : False,    
"title" : "天津女排封训陪练出难题 殷娜：和他们打球太费脑了",
"titleTip" : "天津女排封训陪练出难题 殷娜：和他们打球太费脑了",
"titleSummary" : "天津女排封训陪练出难题 殷娜：和他们打球太费脑了",
"descSummary" : "本报讯(记者周芳明)虽然天津女排[微博]主帅王宝泉...",
"url" : "http:\/\/go.rss.sina.com.cn\/redirect.php?url=http:\/\/sports.sina.com.cn\/o\/2013-10-30\/10526858183.shtml",
"pubDate" : "10:52:11",
"enterDate" : "384200:55:09",
"channelId" : "2509861480227877380",
"channelName" : "综合-焦点新闻",
"channelNameSummary" : "综合-焦点新闻",
"channelUrl" : "http:\/\/sports.sina.com.cn\/others\/index.shtml",
"author" : "WWW.SINA.COM.CN",
"tags" : [],
"desc" : "本报讯(记者周芳明)虽然天津女排[微博]主帅王宝泉因参加2013年排球高级教练员岗位培训班，缺席了天津队近几天在蓟县的封闭训练。天津队在临时负责训练的常良才带领下，队员们苦练不辍。常良才介绍：\u201C这几天我带队训练，一直按照主教练的要求去做，队员们的积极性很高。有新队....",
"emailed" : False,
"forwarded" : False,
"english" : False
}  , {
"index" : 8,
"articleIndex" : "62747",
"favor" :  False ,
     "read" : False,    
"title" : "朴泰桓：很荣幸我的故事被拍成电影 希望票房大卖",
"titleTip" : "朴泰桓：很荣幸我的故事被拍成电影 希望票房大卖",
"titleSummary" : "朴泰桓：很荣幸我的故事被拍成电影 希望票房大卖",
"descSummary" : "为电影《屏息》提供主题的朴泰桓表达了观看电影后的...",
"url" : "http:\/\/go.rss.sina.com.cn\/redirect.php?url=http:\/\/sports.sina.com.cn\/o\/2013-10-30\/10456858177.shtml",
"pubDate" : "10:45:53",
"enterDate" : "384200:48:51",
"channelId" : "2509861480227877380",
"channelName" : "综合-焦点新闻",
"channelNameSummary" : "综合-焦点新闻",
"channelUrl" : "http:\/\/sports.sina.com.cn\/others\/index.shtml",
"author" : "WWW.SINA.COM.CN",
"tags" : [],
"desc" : "为电影《屏息》提供主题的朴泰桓表达了观看电影后的感受。 在10月25日举办的电影《屏息》VIP预展上，朴泰桓选手表示\u201C事实上，我非常荣幸自己的故事能够拍成电影。这部电影是韩国国内最早的有关游泳素材的电影，令人非常期待。我希望电影能够大卖，也希望观众能够更加....",
"emailed" : False,
"forwarded" : False,
"english" : False
}  , {
"index" : 9,
"articleIndex" : "62744",
"favor" :  False ,
     "read" : False,    
"title" : "女排欧冠伊蒂萨奇3-2逆转莫斯科 马蕴雯入账12分",
"titleTip" : "女排欧冠伊蒂萨奇3-2逆转莫斯科 马蕴雯入账12分",
"titleSummary" : "女排欧冠伊蒂萨奇3-2逆转莫斯科 马蕴雯入账12分",
"descSummary" : "北京时间10月30日消息，2014年欧洲女排[微博]冠军联赛...",
"url" : "http:\/\/go.rss.sina.com.cn\/redirect.php?url=http:\/\/sports.sina.com.cn\/o\/2013-10-30\/09246857927.shtml",
"pubDate" : "09:24:38",
"enterDate" : "384200:57:52",
"channelId" : "2509861480227877380",
"channelName" : "综合-焦点新闻",
"channelNameSummary" : "综合-焦点新闻",
"channelUrl" : "http:\/\/sports.sina.com.cn\/others\/index.shtml",
"author" : "WWW.SINA.COM.CN",
"tags" : [],
"desc" : "北京时间10月30日消息，2014年欧洲女排[微博]冠军联赛今天凌晨展开小组赛第二轮的较量，伊蒂萨奇女排鏖战五局主场以3-2力挫俄超亚军莫斯科迪纳摩收获两连胜，五局比分为23-25、25-21、19-25、25-23和15-13。马蕴雯[微博]和魏秋月[微博]首发分别斩获12分和3分，张磊[微博]替补....",
"emailed" : False,
"forwarded" : False,
"english" : False
}  , {
"index" : 10,
"articleIndex" : "62745",
"favor" :  False ,
     "read" : False,    
"title" : "高球天王学关公手忙脚乱 罗斯兵器玩反惹来笑声",
"titleTip" : "高球天王学关公手忙脚乱 罗斯兵器玩反惹来笑声",
"titleSummary" : "高球天王学关公手忙脚乱 罗斯兵器玩反惹来笑声",
"descSummary" : "北京时间10月29日，BMW大师赛的开幕仪式搬来杨门女...",
"url" : "http:\/\/go.rss.sina.com.cn\/redirect.php?url=http:\/\/sports.sina.com.cn\/golf\/2013-10-30\/09176857918.shtml",
"pubDate" : "09:17:22",
"enterDate" : "384200:20:31",
"channelId" : "2509861480227877380",
"channelName" : "综合-焦点新闻",
"channelNameSummary" : "综合-焦点新闻",
"channelUrl" : "http:\/\/sports.sina.com.cn\/others\/index.shtml",
"author" : "WWW.SINA.COM.CN",
"tags" : [],
"desc" : "北京时间10月29日，BMW大师赛的开幕仪式搬来杨门女将，世锦赛-汇丰冠军赛的开幕仪式请出关公。看上去，关公比杨门女将更难学。五个高尔夫巨星今天玩得有点手忙脚乱，美国公开赛冠军贾斯汀-罗斯更是弄反了兵刃。 世锦赛-汇丰冠军赛星期二的拍照环节是大赛周相对轻松，也....",
"emailed" : False,
"forwarded" : False,
"english" : False
}  , {
"index" : 11,
"articleIndex" : "62746",
"favor" :  False ,
     "read" : False,    
"title" : "北京游泳中坚力量纷纷离队 全运会未见金事出有因",
"titleTip" : "北京游泳中坚力量纷纷离队 全运会未见金事出有因",
"titleSummary" : "北京游泳中坚力量纷纷离队 全运会未见金事出有因",
"descSummary" : "黄山全国游泳锦标赛昨天落下了帷幕，在这次以年轻选...",
"url" : "http:\/\/go.rss.sina.com.cn\/redirect.php?url=http:\/\/sports.sina.com.cn\/o\/2013-10-30\/04206857467.shtml",
"pubDate" : "昨天04:20:06",
"enterDate" : "384194:53:10",
"channelId" : "2509861480227877380",
"channelName" : "综合-焦点新闻",
"channelNameSummary" : "综合-焦点新闻",
"channelUrl" : "http:\/\/sports.sina.com.cn\/others\/index.shtml",
"author" : "WWW.SINA.COM.CN",
"tags" : [],
"desc" : "黄山全国游泳锦标赛昨天落下了帷幕，在这次以年轻选手为主导的赛事中，最终正式参赛的各省市选手仅有200多名，其中北京队就占了将近30人，仅次于浙江队。队员中除了年初在全国冠军赛男子100米蛙泳中夺冠的王帅[微博]是90后之外，其余均是95后小将。北京游泳队领队刘洵岚对北京....",
"emailed" : False,
"forwarded" : False,
"english" : False
}  , {
"index" : 12,
"articleIndex" : "62742",
"favor" :  False ,
     "read" : False,    
"title" : "国锦赛30日看点:丁俊晖冲世界第3 赵心童PK傅家俊",
"titleTip" : "国锦赛30日看点:丁俊晖冲世界第3 赵心童PK傅家俊",
"titleSummary" : "国锦赛30日看点:丁俊晖冲世界第3 赵心童PK傅家俊",
"descSummary" : "北京时间10月30日，2013年世界斯诺克国际锦标赛将...",
"url" : "http:\/\/go.rss.sina.com.cn\/redirect.php?url=http:\/\/sports.sina.com.cn\/o\/2013-10-30\/01136857272.shtml",
"pubDate" : "昨天01:13:17",
"enterDate" : "384201:02:56",
"channelId" : "2509861480227877380",
"channelName" : "综合-焦点新闻",
"channelNameSummary" : "综合-焦点新闻",
"channelUrl" : "http:\/\/sports.sina.com.cn\/others\/index.shtml",
"author" : "WWW.SINA.COM.CN",
"tags" : [],
"desc" : "北京时间10月30日，2013年世界斯诺克国际锦标赛将进入第4比赛日的较量，这一天将举行全部8场正赛第三轮比赛，中国有4名球手将冲击3个8强席位，其中傅家俊将和赵心童上演本届比赛第4场中国德比，而丁俊晖和梁文博将各自迎战一名TOP16球手。 丁俊晖16强的对手是自己的福....",
"emailed" : False,
"forwarded" : False,
"english" : False
}  , {
"index" : 13,
"articleIndex" : "62741",
"favor" :  False ,
     "read" : False,    
"title" : "75三杰同1日告别!火箭有隐情 双星完爆世锦赛双雄",
"titleTip" : "75三杰同1日告别!火箭有隐情 双星完爆世锦赛双雄",
"titleSummary" : "75三杰同1日告别!火箭有隐情 双星完爆世锦赛双雄",
"descSummary" : "全明星阵容的2013年斯诺克[微博]国锦赛成了大腕坟场...",
"url" : "http:\/\/go.rss.sina.com.cn\/redirect.php?url=http:\/\/sports.sina.com.cn\/o\/2013-10-30\/01086857267.shtml",
"pubDate" : "昨天01:08:38",
"enterDate" : "384200:58:17",
"channelId" : "2509861480227877380",
"channelName" : "综合-焦点新闻",
"channelNameSummary" : "综合-焦点新闻",
"channelUrl" : "http:\/\/sports.sina.com.cn\/others\/index.shtml",
"author" : "WWW.SINA.COM.CN",
"tags" : [],
"desc" : "全明星阵容的2013年斯诺克[微博]国锦赛成了大腕坟场！同一天，希金斯出局了，威廉姆斯输了。晚间，奥沙利文[微博]没能捍卫75三杰尊严，也离开了赛场。这并不是当天的全部，一位16岁的中国小选手也冷不丁送出了一个冷门，倒在其杆下的是霍金斯。这意味着，今年世锦赛冠亚军都被....",
"emailed" : False,
"forwarded" : False,
"english" : False
}  , {
"index" : 14,
"articleIndex" : "62740",
"favor" :  False ,
     "read" : False,    
"title" : "奥沙利文:丁俊晖罗伯逊争No.1 沮丧!已做到最好",
"titleTip" : "奥沙利文:丁俊晖罗伯逊争No.1 沮丧!已做到最好",
"titleSummary" : "奥沙利文:丁俊晖罗伯逊争No.1 沮丧!已做到最好",
"descSummary" : "终于把奥沙利文[微博]盼来了，可成都的球迷们却没有开心...",
"url" : "http:\/\/go.rss.sina.com.cn\/redirect.php?url=http:\/\/sports.sina.com.cn\/o\/2013-10-30\/00266857250.shtml",
"pubDate" : "昨天00:26:10",
"enterDate" : "384201:15:59",
"channelId" : "2509861480227877380",
"channelName" : "综合-焦点新闻",
"channelNameSummary" : "综合-焦点新闻",
"channelUrl" : "http:\/\/sports.sina.com.cn\/others\/index.shtml",
"author" : "WWW.SINA.COM.CN",
"tags" : [],
"desc" : "终于把奥沙利文[微博]盼来了，可成都的球迷们却没有开心多久，在以4比6负于梁文博[微博]后，奥沙利文的此次国际锦标赛之行已经结束。在离开成都之行，他想向成都的球迷转达自己的谢意，同时也表明了自己未来很有可能再次来到成都参加比赛，\u201C我非常希望自己能更加强大地回来，....",
"emailed" : False,
"forwarded" : False,
"english" : False
}  , {
"index" : 15,
"articleIndex" : "62739",
"favor" :  False ,
     "read" : False,    
"title" : "灭奥沙利文!十年生涯头一回 梁文博挥臂激情怒吼",
"titleTip" : "灭奥沙利文!十年生涯头一回 梁文博挥臂激情怒吼",
"titleSummary" : "灭奥沙利文!十年生涯头一回 梁文博挥臂激情怒吼",
"descSummary" : "北京时间10月29日晚，在2013年斯诺克[微博]国际锦标赛...",
"url" : "http:\/\/go.rss.sina.com.cn\/redirect.php?url=http:\/\/sports.sina.com.cn\/o\/2013-10-30\/00186857248.shtml",
"pubDate" : "昨天00:18:01",
"enterDate" : "384201:07:50",
"channelId" : "2509861480227877380",
"channelName" : "综合-焦点新闻",
"channelNameSummary" : "综合-焦点新闻",
"channelUrl" : "http:\/\/sports.sina.com.cn\/others\/index.shtml",
"author" : "WWW.SINA.COM.CN",
"tags" : [],
"desc" : "北京时间10月29日晚，在2013年斯诺克[微博]国际锦标赛次轮的一场焦点战中，沉寂已久的中国选手梁文博[微博]打出了顽强的一面。与头号大热门奥沙利文[微博]争夺，他在1-4落后的不利局面下轰单杆破百，连赢5局以6-4完成超级大逆转，迎来了生涯至关重要的一场胜利。一声怒吼，数....",
"emailed" : False,
"forwarded" : False,
"english" : False
}  , {
"index" : 16,
"articleIndex" : "62738",
"favor" :  False ,
     "read" : False,    
"title" : "国锦赛梁文博1-4落后大逆转 6-4胜奥沙利文晋级",
"titleTip" : "国锦赛梁文博1-4落后大逆转 6-4胜奥沙利文晋级",
"titleSummary" : "国锦赛梁文博1-4落后大逆转 6-4胜奥沙利文晋级",
"descSummary" : "北京时间10月29日晚，2013年世界斯诺克[微博]国际锦标...",
"url" : "http:\/\/go.rss.sina.com.cn\/redirect.php?url=http:\/\/sports.sina.com.cn\/o\/2013-10-29\/23326857236.shtml",
"pubDate" : "昨天23:32:35",
"enterDate" : "384200:52:29",
"channelId" : "2509861480227877380",
"channelName" : "综合-焦点新闻",
"channelNameSummary" : "综合-焦点新闻",
"channelUrl" : "http:\/\/sports.sina.com.cn\/others\/index.shtml",
"author" : "WWW.SINA.COM.CN",
"tags" : [],
"desc" : "北京时间10月29日晚，2013年世界斯诺克[微博]国际锦标赛次轮比赛进入收尾阶段。奥沙利文[微博]2杆破百4-1领先，之后梁文博[微博]稳打稳扎，轰1杆破百，连胜五局以6-4完成逆转，75三杰于是在同一天全部出局。中国16岁小将赵心童持续爆冷，6-1大胜世锦赛亚军霍金斯，晋级16强将....",
"emailed" : False,
"forwarded" : False,
"english" : False
}  , {
"index" : 17,
"articleIndex" : "62737",
"favor" :  False ,
     "read" : False,    
"title" : "没看错!中国16岁小将6-1世锦赛亚军 想学火箭打球",
"titleTip" : "没看错!中国16岁小将6-1世锦赛亚军 想学火箭打球",
"titleSummary" : "没看错!中国16岁小将6-1世锦赛亚军 想学火箭打球",
"descSummary" : "说话\u201C奶声奶气\u201D是年仅16岁的赵心童一大特点，但他...",
"url" : "http:\/\/go.rss.sina.com.cn\/redirect.php?url=http:\/\/sports.sina.com.cn\/o\/2013-10-29\/23126857215.shtml",
"pubDate" : "昨天23:12:08",
"enterDate" : "384201:02:07",
"channelId" : "2509861480227877380",
"channelName" : "综合-焦点新闻",
"channelNameSummary" : "综合-焦点新闻",
"channelUrl" : "http:\/\/sports.sina.com.cn\/others\/index.shtml",
"author" : "WWW.SINA.COM.CN",
"tags" : [],
"desc" : "说话\u201C奶声奶气\u201D是年仅16岁的赵心童一大特点，但他的球风可一点都不软。即便是面对经验丰富的世锦赛亚军巴里-霍金斯，赵心童也毫不畏惧。5比0从6比1，赵心童以一个令人意想不到的过程与结果取得了胜利。在晋级本次比赛16强之时，他也进一步逼近吕昊天[微博][微博]去年在此项....",
"emailed" : False,
"forwarded" : False,
"english" : False
}  , {
"index" : 18,
"articleIndex" : "62736",
"favor" :  False ,
     "read" : False,    
"title" : "天王挑战赛的经济学：伍兹小麦瓜分150万美元出场费",
"titleTip" : "天王挑战赛的经济学：伍兹小麦瓜分150万美元出场费",
"titleSummary" : "天王挑战赛的经济学：伍兹小麦瓜分150万美元出场费",
"descSummary" : "北京时间10月29日，根据业内一些知情人士的爆料...",
"url" : "http:\/\/go.rss.sina.com.cn\/redirect.php?url=http:\/\/sports.sina.com.cn\/golf\/2013-10-29\/21006857156.shtml",
"pubDate" : "昨天21:00:24",
"enterDate" : "384200:50:43",
"channelId" : "2509861480227877380",
"channelName" : "综合-焦点新闻",
"channelNameSummary" : "综合-焦点新闻",
"channelUrl" : "http:\/\/sports.sina.com.cn\/others\/index.shtml",
"author" : "WWW.SINA.COM.CN",
"tags" : [],
"desc" : "北京时间10月29日，根据业内一些知情人士的爆料，这次泰格-伍兹与麦克罗伊参加海口的\u201C高尔夫世界第一挑战赛\u201D，总共出场费大约在150万美元左右。 \u201C博蓝公司对赛事的第一期投入为150万美元，这部分资金基本上用于支付伍兹与麦克罗伊的出场费。\u201D一位知情人士披露说。....",
"emailed" : False,
"forwarded" : False,
"english" : False
}  , {
"index" : 19,
"articleIndex" : "62743",
"favor" :  False ,
     "read" : False,    
"title" : "伍兹：作弊言论让人失望 等待美国高尔夫频道表态",
"titleTip" : "伍兹：作弊言论让人失望 等待美国高尔夫频道表态",
"titleSummary" : "伍兹：作弊言论让人失望 等待美国高尔夫频道表态",
"descSummary" : "北京时间10月29日，高尔夫[微博]世界第一泰格-伍兹...",
"url" : "http:\/\/go.rss.sina.com.cn\/redirect.php?url=http:\/\/sports.sina.com.cn\/golf\/2013-10-29\/13596856824.shtml",
"pubDate" : "昨天13:59:49",
"enterDate" : "384182:03:08",
"channelId" : "2509861480227877380",
"channelName" : "综合-焦点新闻",
"channelNameSummary" : "综合-焦点新闻",
"channelUrl" : "http:\/\/sports.sina.com.cn\/others\/index.shtml",
"author" : "WWW.SINA.COM.CN",
"tags" : [],
"desc" : "北京时间10月29日，高尔夫[微博]世界第一泰格-伍兹明显在给美国高尔夫频道施压，要他们处理球评布兰德尔-查布利(Brandel Chamblee)。后者在其专栏中暗示伍兹在高尔夫比赛中作弊，因此今年的表现不及格。星期一，伍兹在海口参加表演赛的时候说，他本人已经向前看，而接下来要怎....",
"emailed" : False,
"forwarded" : False,
"english" : False
} ]
}
