{
"mode" : {"viewTitle" : 1,   "viewNew" : 0,  "pageIndex" : 2 },
 "channel" : {"id" : "2509861480227877380", "booked" : False, "subNumber" : 884, "name" : "综合-焦点新闻", "url" : "http:\/\/sports.sina.com.cn\/others\/index.shtml", "feed" : "http:\/\/rss.sina.com.cn\/sports\/others\/focus.xml", "author" : "WWW.SINA.COM.CN", "desc" : "综合-焦点新闻", "imageUrl" : "", "postPerWeek" : "114", "lastCrawTime" : "17:18:10", "crawDateTime" : "17:18:10", "lastHttpCode" : "200"}, "page" : {
"startIndex" : 20,
"totalCount" : 5000,
"pageIndex" : 2,
"lastPage" : 250,
"pageSize" : 20,
"english" :  False },
 "unreadNum" : 0, "shotIndex" : -1,
"articles" : [
{
"index" : 0,
"articleIndex" : "62735",
"favor" :  False ,
     "read" : False,    
"title" : "丁俊晖评小特:精力放在比赛吧 打球是他仅有特长",
"titleTip" : "丁俊晖评小特:精力放在比赛吧 打球是他仅有特长",
"titleSummary" : "丁俊晖评小特:精力放在比赛吧 打球是他仅有特长",
"descSummary" : "北京时间10月29日下午，2013年世界斯诺克[微博]国际锦...",
"url" : "http:\/\/go.rss.sina.com.cn\/redirect.php?url=http:\/\/sports.sina.com.cn\/o\/2013-10-29\/19046857104.shtml",
"pubDate" : "昨天19:04:22",
"enterDate" : "384200:55:01",
"channelId" : "2509861480227877380",
"channelName" : "综合-焦点新闻",
"channelNameSummary" : "综合-焦点新闻",
"channelUrl" : "http:\/\/sports.sina.com.cn\/others\/index.shtml",
"author" : "WWW.SINA.COM.CN",
"tags" : [],
"desc" : "北京时间10月29日下午，2013年世界斯诺克[微博]国际锦标赛继续在成都进行次轮争夺。丁俊晖[微博]与瓦塔纳展开\u201C亚洲球王\u201D大战，结果主场作战的丁俊晖表现更胜一筹，以强劲的发挥6比3击败瓦塔纳，晋级16强之后将在1\/8决赛迎战史蒂文斯。 和昨晚首轮对阵曹宇鹏[微博]时....",
"emailed" : False,
"forwarded" : False,
"english" : False
}  , {
"index" : 1,
"articleIndex" : "62734",
"favor" :  False ,
     "read" : False,    
"title" : "中国战神揭幕汇丰冠军赛 五大巨星身披龙袍抢奖杯",
"titleTip" : "中国战神揭幕汇丰冠军赛 五大巨星身披龙袍抢奖杯",
"titleSummary" : "中国战神揭幕汇丰冠军赛 五大巨星身披龙袍抢奖杯",
"descSummary" : "北京时间10月20日，在\u201C中国战神\u201D关公的带领下，...",
"url" : "http:\/\/go.rss.sina.com.cn\/redirect.php?url=http:\/\/sports.sina.com.cn\/golf\/2013-10-29\/18506857091.shtml",
"pubDate" : "昨天18:50:22",
"enterDate" : "384201:11:06",
"channelId" : "2509861480227877380",
"channelName" : "综合-焦点新闻",
"channelNameSummary" : "综合-焦点新闻",
"channelUrl" : "http:\/\/sports.sina.com.cn\/others\/index.shtml",
"author" : "WWW.SINA.COM.CN",
"tags" : [],
"desc" : "北京时间10月20日，在\u201C中国战神\u201D关公的带领下，美国公开赛冠军贾斯汀-罗斯、英国公开赛冠军米克尔森、美国PGA锦标赛冠军詹森-杜夫纳以及前高尔夫[微博]世界第一麦克罗伊[微博]身披龙袍去抢世锦赛-汇丰冠军赛[微博]伊恩-保尔特的奖杯。 听上去有点超现实，的确有点超....",
"emailed" : False,
"forwarded" : False,
"english" : False
}  , {
"index" : 2,
"articleIndex" : "62733",
"favor" :  False ,
     "read" : False,    
"title" : "破百斩落球王唤回最佳丁俊晖 已连胜15场不得不服",
"titleTip" : "破百斩落球王唤回最佳丁俊晖 已连胜15场不得不服",
"titleSummary" : "破百斩落球王唤回最佳丁俊晖 已连胜15场不得不服",
"descSummary" : "北京时间10月29日下午，2013年世界斯诺克[微博]国际...",
"url" : "http:\/\/go.rss.sina.com.cn\/redirect.php?url=http:\/\/sports.sina.com.cn\/o\/2013-10-29\/18286857087.shtml",
"pubDate" : "昨天18:28:46",
"enterDate" : "384200:49:30",
"channelId" : "2509861480227877380",
"channelName" : "综合-焦点新闻",
"channelNameSummary" : "综合-焦点新闻",
"channelUrl" : "http:\/\/sports.sina.com.cn\/others\/index.shtml",
"author" : "WWW.SINA.COM.CN",
"tags" : [],
"desc" : "北京时间10月29日下午，2013年世界斯诺克[微博]国际锦标赛展开次轮争夺。在一场新老亚洲球王的交锋中，丁俊晖[微博]更胜一筹，轰两杆破百，6-3击败瓦塔纳，一扫首轮磕磕绊绊阴霾的同时，将大型排名赛的连胜纪录扩大到15场。 在丁俊晖跻身世界舞台中央之前，来自泰国的....",
"emailed" : False,
"forwarded" : False,
"english" : False
}  , {
"index" : 3,
"articleIndex" : "62732",
"favor" :  False ,
     "read" : False,    
"title" : "中羽赛谌龙独守半区李雪芮担重任 风云第二轮火并",
"titleTip" : "中羽赛谌龙独守半区李雪芮担重任 风云第二轮火并",
"titleSummary" : "中羽赛谌龙独守半区李雪芮担重任 风云第二轮火并",
"descSummary" : "上海10月29日消息，2013年世界羽联超级赛顶级赛中...",
"url" : "http:\/\/go.rss.sina.com.cn\/redirect.php?url=http:\/\/sports.sina.com.cn\/o\/2013-10-29\/18106857049.shtml",
"pubDate" : "昨天18:10:50",
"enterDate" : "384201:01:38",
"channelId" : "2509861480227877380",
"channelName" : "综合-焦点新闻",
"channelNameSummary" : "综合-焦点新闻",
"channelUrl" : "http:\/\/sports.sina.com.cn\/others\/index.shtml",
"author" : "WWW.SINA.COM.CN",
"tags" : [],
"desc" : "上海10月29日消息，2013年世界羽联超级赛顶级赛中国羽毛球[微博]公开赛组委会今天下午公布了各单项的抽签，中国选手谌龙将独守半区，奥运冠军李雪芮则率领一干新秀镇守半区。 在男单抽签中，马来西亚的李宗伟和谌龙做为头两号种子分在上下半区。与李宗伟同在上半区的中....",
"emailed" : False,
"forwarded" : False,
"english" : False
}  , {
"index" : 4,
"articleIndex" : "62728",
"favor" :  False ,
     "read" : False,    
"title" : "正视频直播国锦赛罗伯逊出战 奥沙利文-梁文博",
"titleTip" : "正视频直播国锦赛罗伯逊出战 奥沙利文-梁文博",
"titleSummary" : "正视频直播国锦赛罗伯逊出战 奥沙利文-梁文博",
"descSummary" : "北京时间10月29日，2013年世界斯诺克国际锦标赛将进入...",
"url" : "http:\/\/go.rss.sina.com.cn\/redirect.php?url=http:\/\/sports.sina.com.cn\/o\/2013-10-29\/01156855805.shtml",
"pubDate" : "昨天18:00:00",
"enterDate" : "384198:50:29",
"channelId" : "2509861480227877380",
"channelName" : "综合-焦点新闻",
"channelNameSummary" : "综合-焦点新闻",
"channelUrl" : "http:\/\/sports.sina.com.cn\/others\/index.shtml",
"author" : "WWW.SINA.COM.CN",
"tags" : [],
"desc" : "北京时间10月29日，2013年世界斯诺克国际锦标赛将进入第3比赛日较量，这一天将举行全部16场正赛第二轮比赛，中国将有5名球手冲击16强，晚上7点半，将视频直播焦点战，奥沙利文对阵梁文博，敬请关注！ &gt;&gt;&gt;&gt;国锦赛第二轮看点 &gt;&gt;&gt;&gt;视频直....",
"emailed" : False,
"forwarded" : False,
"english" : False
}  , {
"index" : 5,
"articleIndex" : "62731",
"favor" :  False ,
     "read" : False,    
"title" : "国锦赛丁俊晖两杆破百 6-3胜亚洲球王战史蒂文斯",
"titleTip" : "国锦赛丁俊晖两杆破百 6-3胜亚洲球王战史蒂文斯",
"titleSummary" : "国锦赛丁俊晖两杆破百 6-3胜亚洲球王战史蒂文斯",
"descSummary" : "北京时间10月29日下午，2013年世界斯诺克国际锦标赛...",
"url" : "http:\/\/go.rss.sina.com.cn\/redirect.php?url=http:\/\/sports.sina.com.cn\/o\/2013-10-29\/17386857011.shtml",
"pubDate" : "昨天17:38:35",
"enterDate" : "384200:59:29",
"channelId" : "2509861480227877380",
"channelName" : "综合-焦点新闻",
"channelNameSummary" : "综合-焦点新闻",
"channelUrl" : "http:\/\/sports.sina.com.cn\/others\/index.shtml",
"author" : "WWW.SINA.COM.CN",
"tags" : [],
"desc" : "北京时间10月29日下午，2013年世界斯诺克国际锦标赛继续次轮争夺。亚洲球王大战丁俊晖更胜一筹，轰2杆破百及2杆80+，6-3击败泰国的瓦塔纳，晋级16强将在1\/8决赛迎战史蒂文斯。同时进行的比赛中威廉姆斯2-6遭马福林淘汰，加上上午出局的希金斯，75三杰仅存火箭一人还有机会冲击....",
"emailed" : False,
"forwarded" : False,
"english" : False
}  , {
"index" : 6,
"articleIndex" : "62730",
"favor" :  False ,
     "read" : False,    
"title" : "希金斯罕见发怒爆杆打飞母球 对手:他今天很沮丧",
"titleTip" : "希金斯罕见发怒爆杆打飞母球 对手:他今天很沮丧",
"titleSummary" : "希金斯罕见发怒爆杆打飞母球 对手:他今天很沮丧",
"descSummary" : "北京时间10月29日，2013斯诺克[微博]国际锦标赛今天上...",
"url" : "http:\/\/go.rss.sina.com.cn\/redirect.php?url=http:\/\/sports.sina.com.cn\/o\/2013-10-29\/14266856832.shtml",
"pubDate" : "昨天14:26:39",
"enterDate" : "384200:48:03",
"channelId" : "2509861480227877380",
"channelName" : "综合-焦点新闻",
"channelNameSummary" : "综合-焦点新闻",
"channelUrl" : "http:\/\/sports.sina.com.cn\/others\/index.shtml",
"author" : "WWW.SINA.COM.CN",
"tags" : [],
"desc" : "北京时间10月29日，2013斯诺克[微博]国际锦标赛今天上午进入到次轮较量，希金斯遭遇马修-史蒂文斯， 结果\u201C巫师\u201D2比6不敌\u201C威尔士龙\u201D，无缘国锦赛16强。本场比赛节奏并不流畅，擅长控球的希金 斯更是自始至终都难以找到状态，打得非常郁闷，第七局中断他甚至因为叫球走位不....",
"emailed" : False,
"forwarded" : False,
"english" : False
}  , {
"index" : 7,
"articleIndex" : "62729",
"favor" :  False ,
     "read" : False,    
"title" : "安保如临大敌人墙对峙球迷 中国特色观赛仪何时休",
"titleTip" : "安保如临大敌人墙对峙球迷 中国特色观赛仪何时休",
"titleSummary" : "安保如临大敌人墙对峙球迷 中国特色观赛仪何时休",
"descSummary" : "丁俊晖[微博]打进制胜球，全场观众起立鼓掌，前排观...",
"url" : "http:\/\/go.rss.sina.com.cn\/redirect.php?url=http:\/\/sports.sina.com.cn\/o\/2013-10-29\/13536856816.shtml",
"pubDate" : "昨天13:53:52",
"enterDate" : "384200:45:20",
"channelId" : "2509861480227877380",
"channelName" : "综合-焦点新闻",
"channelNameSummary" : "综合-焦点新闻",
"channelUrl" : "http:\/\/sports.sina.com.cn\/others\/index.shtml",
"author" : "WWW.SINA.COM.CN",
"tags" : [],
"desc" : "丁俊晖[微博]打进制胜球，全场观众起立鼓掌，前排观众激动的想要接近丁俊晖，索取签名，但这时一排安保略带粗暴的动作将热情的球迷和丁俊晖隔开，如同一道沟壑，隔开了绅士的斯诺克运动与火热的中国球迷。 这一幕发生在斯诺克国际锦标赛上，本土人气之星丁俊晖迎战同胞....",
"emailed" : False,
"forwarded" : False,
"english" : False
}  , {
"index" : 8,
"articleIndex" : "62727",
"favor" :  False ,
     "read" : False,    
"title" : "国锦赛希金斯失误多多 2-6不敌威尔士龙惨遭淘汰",
"titleTip" : "国锦赛希金斯失误多多 2-6不敌威尔士龙惨遭淘汰",
"titleSummary" : "国锦赛希金斯失误多多 2-6不敌威尔士龙惨遭淘汰",
"descSummary" : "北京时间10月29日上午，2013年世界斯诺克[微博]国际锦...",
"url" : "http:\/\/go.rss.sina.com.cn\/redirect.php?url=http:\/\/sports.sina.com.cn\/o\/2013-10-29\/13146856776.shtml",
"pubDate" : "昨天13:14:33",
"enterDate" : "384200:06:01",
"channelId" : "2509861480227877380",
"channelName" : "综合-焦点新闻",
"channelNameSummary" : "综合-焦点新闻",
"channelUrl" : "http:\/\/sports.sina.com.cn\/others\/index.shtml",
"author" : "WWW.SINA.COM.CN",
"tags" : [],
"desc" : "北京时间10月29日上午，2013年世界斯诺克[微博]国际锦标赛刚刚进入第二轮争夺，场上便又爆出意外。希金斯状态欠佳，2-6大比分负史蒂文斯，止步次轮。威尔士龙晋级后将在1\/8决赛迎战丁俊晖[微博]和瓦塔纳的胜者。马克-戴维斯轰143分刷新单杆榜，晋级16强后其对手在奥沙利文[微....",
"emailed" : False,
"forwarded" : False,
"english" : False
}  , {
"index" : 9,
"articleIndex" : "62726",
"favor" :  False ,
     "read" : False,    
"title" : "拳击世锦赛鸣金 东道主哈萨克斯坦独得四金",
"titleTip" : "拳击世锦赛鸣金 东道主哈萨克斯坦独得四金",
"titleSummary" : "拳击世锦赛鸣金 东道主哈萨克斯坦独得四金",
"descSummary" : "北京时间10月26日，第17届世界拳击锦标赛在哈萨克斯坦的...",
"url" : "http:\/\/go.rss.sina.com.cn\/redirect.php?url=http:\/\/sports.sina.com.cn\/o\/2013-10-29\/09046856365.shtml",
"pubDate" : "昨天09:04:00",
"enterDate" : "384197:25:44",
"channelId" : "2509861480227877380",
"channelName" : "综合-焦点新闻",
"channelNameSummary" : "综合-焦点新闻",
"channelUrl" : "http:\/\/sports.sina.com.cn\/others\/index.shtml",
"author" : "WWW.SINA.COM.CN",
"tags" : [],
"desc" : "北京时间10月26日，第17届世界拳击锦标赛在哈萨克斯坦的阿拉木图落幕，东道主占尽天时地利人和，独得4金2银2铜，成为最大赢家。古巴和阿塞拜疆分别以2金2银1铜和2金1铜的成绩位居奖牌榜第二三名。 本届世锦赛国际拳联首次采用职业拳击的10分制计分规则和拳手摘头盔，因....",
"emailed" : False,
"forwarded" : False,
"english" : False
}  , {
"index" : 10,
"articleIndex" : "62725",
"favor" :  False ,
     "read" : False,    
"title" : "世锦赛男举综述：中国14连霸 夺金面缩小须面对",
"titleTip" : "世锦赛男举综述：中国14连霸 夺金面缩小须面对",
"titleSummary" : "世锦赛男举综述：中国14连霸 夺金面缩小须面对",
"descSummary" : "继女举比赛26日结束之后，在波兰弗罗茨瓦夫举行的世...",
"url" : "http:\/\/go.rss.sina.com.cn\/redirect.php?url=http:\/\/sports.sina.com.cn\/o\/2013-10-29\/08076856216.shtml",
"pubDate" : "昨天08:07:57",
"enterDate" : "384201:00:26",
"channelId" : "2509861480227877380",
"channelName" : "综合-焦点新闻",
"channelNameSummary" : "综合-焦点新闻",
"channelUrl" : "http:\/\/sports.sina.com.cn\/others\/index.shtml",
"author" : "WWW.SINA.COM.CN",
"tags" : [],
"desc" : "继女举比赛26日结束之后，在波兰弗罗茨瓦夫举行的世锦赛27日又发完了男子举重全部24枚金牌。中国选手获其中8枚、包括3项总成绩冠军，位居各队之首，加上女举夺得12冠，累计金牌数为20枚，其中5枚为总成绩金牌，同样占据奖牌榜首之位。 \u201C湖北双雄\u201D统治赛场 本....",
"emailed" : False,
"forwarded" : False,
"english" : False
}  , {
"index" : 11,
"articleIndex" : "62724",
"favor" :  False ,
     "read" : False,    
"title" : "浪费3赛点!没想到这么艰苦! 真不赖小晖他太累了",
"titleTip" : "浪费3赛点!没想到这么艰苦! 真不赖小晖他太累了",
"titleSummary" : "浪费3赛点!没想到这么艰苦! 真不赖小晖他太累了",
"descSummary" : "刚刚结束的2013年世界斯诺克[微博]国际锦标赛首轮比赛...",
"url" : "http:\/\/go.rss.sina.com.cn\/redirect.php?url=http:\/\/sports.sina.com.cn\/o\/2013-10-29\/01096855787.shtml",
"pubDate" : "前天01:09:01",
"enterDate" : "384201:02:50",
"channelId" : "2509861480227877380",
"channelName" : "综合-焦点新闻",
"channelNameSummary" : "综合-焦点新闻",
"channelUrl" : "http:\/\/sports.sina.com.cn\/others\/index.shtml",
"author" : "WWW.SINA.COM.CN",
"tags" : [],
"desc" : "刚刚结束的2013年世界斯诺克[微博]国际锦标赛首轮比赛，被一致看好的丁俊晖[微博]虽然众望所归获得胜利，却出乎意料玩了一把心跳。在5-2手握大把赛点的大好形势下，却被曹宇鹏[微博]逼至决胜局。最终决胜局丁俊晖再出重手，完成一记绝杀，为首轮比赛留下最为扣人心弦的一场对....",
"emailed" : False,
"forwarded" : False,
"english" : False
}  , {
"index" : 12,
"articleIndex" : "62723",
"favor" :  False ,
     "read" : False,    
"title" : "国锦赛29日看点:中国5虎冲16强 丁俊晖pk亚洲球王",
"titleTip" : "国锦赛29日看点:中国5虎冲16强 丁俊晖pk亚洲球王",
"titleSummary" : "国锦赛29日看点:中国5虎冲16强 丁俊晖pk亚洲球王",
"descSummary" : "北京时间10月29日，2013年世界斯诺克[微博]国际锦标...",
"url" : "http:\/\/go.rss.sina.com.cn\/redirect.php?url=http:\/\/sports.sina.com.cn\/o\/2013-10-29\/01086855786.shtml",
"pubDate" : "前天01:08:48",
"enterDate" : "384193:01:06",
"channelId" : "2509861480227877380",
"channelName" : "综合-焦点新闻",
"channelNameSummary" : "综合-焦点新闻",
"channelUrl" : "http:\/\/sports.sina.com.cn\/others\/index.shtml",
"author" : "WWW.SINA.COM.CN",
"tags" : [],
"desc" : "北京时间10月29日，2013年世界斯诺克[微博]国际锦标赛将进入第3比赛日较量，这一天将举行全部16场正赛第二轮比赛，中国将有5名球手冲击16强，其中傅家俊[微博]将与肖国栋上演中国德比，丁俊晖[微博]将迎来泰国球王瓦塔纳挑战。 在丁俊晖成名之前，瓦塔纳一直是亚洲斯诺....",
"emailed" : False,
"forwarded" : False,
"english" : False
}  , {
"index" : 13,
"articleIndex" : "62722",
"favor" :  False ,
     "read" : False,    
"title" : "丁俊晖：今天打决胜局我肯定赢 新换皮头还不适应",
"titleTip" : "丁俊晖：今天打决胜局我肯定赢 新换皮头还不适应",
"titleSummary" : "丁俊晖：今天打决胜局我肯定赢 新换皮头还不适应",
"descSummary" : "北京时间10月28日晚，2013年世界斯诺克[微博]国际锦...",
"url" : "http:\/\/go.rss.sina.com.cn\/redirect.php?url=http:\/\/sports.sina.com.cn\/o\/2013-10-29\/00556855775.shtml",
"pubDate" : "前天00:55:57",
"enterDate" : "384200:49:46",
"channelId" : "2509861480227877380",
"channelName" : "综合-焦点新闻",
"channelNameSummary" : "综合-焦点新闻",
"channelUrl" : "http:\/\/sports.sina.com.cn\/others\/index.shtml",
"author" : "WWW.SINA.COM.CN",
"tags" : [],
"desc" : "北京时间10月28日晚，2013年世界斯诺克[微博]国际锦标赛继续进行，首轮争夺进入收尾阶段。焦点战中，丁俊晖[微博]5-2拿到赛点连丢三局，最终决胜局他完成绝杀，6-5赢得与曹宇鹏[微博]的德比战，晋级次轮将战泰国球王瓦塔纳。比赛结束后，丁俊晖接受了国锦赛官方网站新浪体育的....",
"emailed" : False,
"forwarded" : False,
"english" : False
}  , {
"index" : 14,
"articleIndex" : "62721",
"favor" :  False ,
     "read" : False,    
"title" : "丁俊晖合影86岁老粉丝 1天前女儿哭诉买错票(图)",
"titleTip" : "丁俊晖合影86岁老粉丝 1天前女儿哭诉买错票(图)",
"titleSummary" : "丁俊晖合影86岁老粉丝 1天前女儿哭诉买错票(图)",
"descSummary" : "在参加完新闻发布会后，丁俊晖[微博]径直走进了官网办...",
"url" : "http:\/\/go.rss.sina.com.cn\/redirect.php?url=http:\/\/sports.sina.com.cn\/o\/2013-10-29\/00396855773.shtml",
"pubDate" : "前天00:39:16",
"enterDate" : "384201:03:10",
"channelId" : "2509861480227877380",
"channelName" : "综合-焦点新闻",
"channelNameSummary" : "综合-焦点新闻",
"channelUrl" : "http:\/\/sports.sina.com.cn\/others\/index.shtml",
"author" : "WWW.SINA.COM.CN",
"tags" : [],
"desc" : "在参加完新闻发布会后，丁俊晖[微博]径直走进了官网办公室，接受新浪体育专访。就在此时，一位86岁的老奶奶悄然地走到官网门口，手里拿着本次比赛的秩序册，安静地站着等待丁俊晖的出现。老奶奶花白的头发，白皙的皮肤，戴着眼镜，虽然脊背已经略有拱起，但依然精神矍铄。....",
"emailed" : False,
"forwarded" : False,
"english" : False
}  , {
"index" : 15,
"articleIndex" : "62720",
"favor" :  False ,
     "read" : False,    
"title" : "国锦赛首轮丁俊晖5-2领先连丢3局 6-5绝杀进32强",
"titleTip" : "国锦赛首轮丁俊晖5-2领先连丢3局 6-5绝杀进32强",
"titleSummary" : "国锦赛首轮丁俊晖5-2领先连丢3局 6-5绝杀进32强",
"descSummary" : "",
"url" : "http:\/\/go.rss.sina.com.cn\/redirect.php?url=http:\/\/sports.sina.com.cn\/o\/2013-10-28\/23536855745.shtml",
"pubDate" : "前天23:53:16",
"enterDate" : "384201:17:20",
"channelId" : "2509861480227877380",
"channelName" : "综合-焦点新闻",
"channelNameSummary" : "综合-焦点新闻",
"channelUrl" : "http:\/\/sports.sina.com.cn\/others\/index.shtml",
"author" : "WWW.SINA.COM.CN",
"tags" : [],
"desc" : "",
"emailed" : False,
"forwarded" : False,
"english" : False
}  , {
"index" : 16,
"articleIndex" : "62719",
"favor" :  False ,
     "read" : False,    
"title" : "小特输个帽子戏法 练得比谁都苦?对得起女粉丝吗",
"titleTip" : "小特输个帽子戏法 练得比谁都苦?对得起女粉丝吗",
"titleSummary" : "小特输个帽子戏法 练得比谁都苦?对得起女粉丝吗",
"descSummary" : "北京时间10月28日，本届斯诺克国际锦标赛爆出开赛以...",
"url" : "http:\/\/go.rss.sina.com.cn\/redirect.php?url=http:\/\/sports.sina.com.cn\/o\/2013-10-28\/19436855615.shtml",
"pubDate" : "前天19:43:50",
"enterDate" : "384196:37:49",
"channelId" : "2509861480227877380",
"channelName" : "综合-焦点新闻",
"channelNameSummary" : "综合-焦点新闻",
"channelUrl" : "http:\/\/sports.sina.com.cn\/others\/index.shtml",
"author" : "WWW.SINA.COM.CN",
"tags" : [],
"desc" : "北京时间10月28日，本届斯诺克国际锦标赛爆出开赛以来的最大冷门，卫冕冠军特鲁姆普在苦战十一局后以5比6不敌麦克马努斯，止步于首轮比赛，让喜爱他的球迷伤心不已。这也是特鲁姆普今年第三次止步于在中国举行的排名赛首轮比赛，前两次分别是无锡精英赛与上海大师赛。输了比赛....",
"emailed" : False,
"forwarded" : False,
"english" : False
}  , {
"index" : 17,
"articleIndex" : "62718",
"favor" :  False ,
     "read" : False,    
"title" : "罗伯逊连输丁俊晖不爽了? 小心!这或是No.1心理战",
"titleTip" : "罗伯逊连输丁俊晖不爽了? 小心!这或是No.1心理战",
"titleSummary" : "罗伯逊连输丁俊晖不爽了? 小心!这或是No.1心理战",
"descSummary" : "北京时间10月28日下午，斯诺克[微博]国际锦标赛继续...",
"url" : "http:\/\/go.rss.sina.com.cn\/redirect.php?url=http:\/\/sports.sina.com.cn\/o\/2013-10-28\/19396855594.shtml",
"pubDate" : "前天19:39:20",
"enterDate" : "384201:04:04",
"channelId" : "2509861480227877380",
"channelName" : "综合-焦点新闻",
"channelNameSummary" : "综合-焦点新闻",
"channelUrl" : "http:\/\/sports.sina.com.cn\/others\/index.shtml",
"author" : "WWW.SINA.COM.CN",
"tags" : [],
"desc" : "北京时间10月28日下午，斯诺克[微博]国际锦标赛继续在成都进行首轮较量，世界排名第一的澳洲名将罗伯逊6比4击败阿莱克斯-戴维斯后挺进32强。根据本次国锦赛签表，罗伯逊和丁俊晖[微博]极有可能再度相逢于四分之一决赛，对于上海大师赛和印度公开赛丁俊晖连续淘汰自己并最终夺....",
"emailed" : False,
"forwarded" : False,
"english" : False
}  , {
"index" : 18,
"articleIndex" : "62717",
"favor" :  False ,
     "read" : False,    
"title" : "国锦赛罗伯逊5-0领先6-4胜 卫冕冠军小特首轮出局",
"titleTip" : "国锦赛罗伯逊5-0领先6-4胜 卫冕冠军小特首轮出局",
"titleSummary" : "国锦赛罗伯逊5-0领先6-4胜 卫冕冠军小特首轮出局",
"descSummary" : "北京时间10月28日下午，2013年世界斯诺克[微博]国际...",
"url" : "http:\/\/go.rss.sina.com.cn\/redirect.php?url=http:\/\/sports.sina.com.cn\/o\/2013-10-28\/18286855541.shtml",
"pubDate" : "前天18:28:08",
"enterDate" : "384200:22:57",
"channelId" : "2509861480227877380",
"channelName" : "综合-焦点新闻",
"channelNameSummary" : "综合-焦点新闻",
"channelUrl" : "http:\/\/sports.sina.com.cn\/others\/index.shtml",
"author" : "WWW.SINA.COM.CN",
"tags" : [],
"desc" : "北京时间10月28日下午，2013年世界斯诺克[微博]国际锦标赛继续首轮争夺。卫冕冠军特鲁姆普[微博]尽管轰出2杆破百，依然5-6输给麦克马努斯而止步首轮。同样制造了2杆破百的世界第1罗伯逊则6-4赢下阿列克斯-戴维斯。中国小将赵心童再次爆冷，完成1杆破百6-2大胜刷新单杆榜的斯蒂....",
"emailed" : False,
"forwarded" : False,
"english" : False
}  , {
"index" : 19,
"articleIndex" : "62716",
"favor" :  False ,
     "read" : False,    
"title" : "高清-英大学赛艇队为慈善全裸拍年历 拿水桶遮下体",
"titleTip" : "高清-英大学赛艇队为慈善全裸拍年历 拿水桶遮下体",
"titleSummary" : "高清-英大学赛艇队为慈善全裸拍年历 拿水桶遮下体",
"descSummary" : "",
"url" : "http:\/\/go.rss.sina.com.cn\/redirect.php?url=http:\/\/slide.sports.sina.com.cn\/gossip\/slide_2_730_55377.html",
"pubDate" : "前天18:14:12",
"enterDate" : "384200:09:01",
"channelId" : "2509861480227877380",
"channelName" : "综合-焦点新闻",
"channelNameSummary" : "综合-焦点新闻",
"channelUrl" : "http:\/\/sports.sina.com.cn\/others\/index.shtml",
"author" : "WWW.SINA.COM.CN",
"tags" : [],
"desc" : "",
"emailed" : False,
"forwarded" : False,
"english" : False
} ]
}
