{
"mode" : {"viewTitle" : 1,   "viewNew" : 0,  "pageIndex" : 1 },
 "channel" : {"id" : "-6170129143688040987", "booked" : False, "subNumber" : 1, "name" : "北京房产-地产人物", "url" : "http:\/\/bj.house.sina.com.cn\/renwu\/index.html", "feed" : "http:\/\/rss.sina.com.cn\/bjhouse\/dcrw.xml", "author" : "", "desc" : "北京房产-地产人物", "imageUrl" : "http:\/\/www.sinaimg.cn\/house\/sina_fc.gif", "postPerWeek" : "0", "lastCrawTime" : "16:54:10", "crawDateTime" : "16:54:10", "lastHttpCode" : "200"}, "page" : {
"startIndex" : 0,
"totalCount" : 2492,
"pageIndex" : 1,
"lastPage" : 125,
"pageSize" : 20,
"english" :  False },
 "unreadNum" : 0, "shotIndex" : -1,
"articles" : [
{
"index" : 0,
"articleIndex" : "2491",
"favor" :  False ,
     "read" : False,    
"title" : "大摩前高管认罪 \u201C中国通\u201D彼得森的地产前尘",
"titleTip" : "大摩前高管认罪 \u201C中国通\u201D彼得森的地产前尘",
"titleSummary" : "大摩前高管认罪 \u201C中国通\u201D彼得森的地产前尘",
"descSummary" : "武瑾莹于2009年爆发的那起大摩前房地产基金中国区负责...",
"url" : "http:\/\/go.rss.sina.com.cn\/redirect.php?url=http:\/\/news.dichan.sina.com.cn\/2012\/04\/27\/481435.html?source=rss",
"pubDate" : "2012年4月27日",
"enterDate" : "384201:12:37",
"channelId" : "-6170129143688040987",
"channelName" : "北京房产-地产人物",
"channelNameSummary" : "北京房产-地产人物",
"channelUrl" : "http:\/\/bj.house.sina.com.cn\/renwu\/index.html",
"author" : "WWW.SINA.COM.CN",
"tags" : [],
"desc" : "武瑾莹于2009年爆发的那起大摩前房地产基金中国区负责人内地行贿案件或许终可尘埃落定了。随着他在上海圆满完成多个重量级房地产项目，彼得森很快成为大摩房地产基金在华业务一把手。",
"emailed" : False,
"forwarded" : False,
"english" : False
}  , {
"index" : 1,
"articleIndex" : "2490",
"favor" :  False ,
     "read" : False,    
"title" : "胡润百富榜发布 许家印460亿成地产大王",
"titleTip" : "胡润百富榜发布 许家印460亿成地产大王",
"titleSummary" : "胡润百富榜发布 许家印460亿成地产大王",
"descSummary" : "9月7日，胡润研究院发布《2011海南清水湾胡润百富榜》前50名...",
"url" : "http:\/\/go.rss.sina.com.cn\/redirect.php?url=http:\/\/news.dichan.sina.com.cn\/2011\/09\/08\/370319.html?source=rss",
"pubDate" : "2012年4月26日",
"enterDate" : "384201:06:12",
"channelId" : "-6170129143688040987",
"channelName" : "北京房产-地产人物",
"channelNameSummary" : "北京房产-地产人物",
"channelUrl" : "http:\/\/bj.house.sina.com.cn\/renwu\/index.html",
"author" : "WWW.SINA.COM.CN",
"tags" : [],
"desc" : "9月7日，胡润研究院发布《2011海南清水湾胡润百富榜》前50名。龙湖地产的的吴亚军及其家族以财富420亿元首次进入前十名，排名第七，取代张茵家族成为中国女首富。",
"emailed" : False,
"forwarded" : False,
"english" : False
}  , {
"index" : 2,
"articleIndex" : "2489",
"favor" :  False ,
     "read" : False,    
"title" : "这一次是刘銮雄 香港地产富豪再爆丑闻",
"titleTip" : "这一次是刘銮雄 香港地产富豪再爆丑闻",
"titleSummary" : "这一次是刘銮雄 香港地产富豪再爆丑闻",
"descSummary" : "见习编辑 李琼皙 香港地产富豪的丑闻近日东家起火，西家冒烟。...",
"url" : "http:\/\/go.rss.sina.com.cn\/redirect.php?url=http:\/\/news.dichan.sina.com.cn\/2012\/04\/18\/475245.html?source=rss",
"pubDate" : "2012年4月26日",
"enterDate" : "384200:46:53",
"channelId" : "-6170129143688040987",
"channelName" : "北京房产-地产人物",
"channelNameSummary" : "北京房产-地产人物",
"channelUrl" : "http:\/\/bj.house.sina.com.cn\/renwu\/index.html",
"author" : "WWW.SINA.COM.CN",
"tags" : [],
"desc" : "见习编辑 李琼皙 香港地产富豪的丑闻近日东家起火，西家冒烟。而在这页公告亮出来的前一天，4月16日，澳门前运输工务司司长欧文龙贪污案第三阶段在澳门终审法院开审。",
"emailed" : False,
"forwarded" : False,
"english" : False
}  , {
"index" : 3,
"articleIndex" : "2488",
"favor" :  False ,
     "read" : False,    
"title" : "吴国金：如何用产业化的方式建设保障房",
"titleTip" : "吴国金：如何用产业化的方式建设保障房",
"titleSummary" : "吴国金：如何用产业化的方式建设保障房",
"descSummary" : "4月25日，由国家保障性住房建设材料部品采购信息平台主办，...",
"url" : "http:\/\/go.rss.sina.com.cn\/redirect.php?url=http:\/\/news.dichan.sina.com.cn\/2012\/04\/25\/480364.html?source=rss",
"pubDate" : "2012年4月25日",
"enterDate" : "384192:03:59",
"channelId" : "-6170129143688040987",
"channelName" : "北京房产-地产人物",
"channelNameSummary" : "北京房产-地产人物",
"channelUrl" : "http:\/\/bj.house.sina.com.cn\/renwu\/index.html",
"author" : "WWW.SINA.COM.CN",
"tags" : [],
"desc" : "4月25日，由国家保障性住房建设材料部品采购信息平台主办，新浪地产承办\u201C百强对接 民生精品\u201D沈阳建筑部品采购大会暨保障房优质建材采购会盛大召开。会上沈阳地铁房地产开发有限公司总经理吴国金分享企业建设保障房的经验，做了关于\u201C如何用产业化的方式建设保障房\u201D的演讲。",
"emailed" : False,
"forwarded" : False,
"english" : False
}  , {
"index" : 4,
"articleIndex" : "2487",
"favor" :  False ,
     "read" : False,    
"title" : "隋明悦：沈阳\u2015\u2015住宅产业化试点城市的机遇和挑战",
"titleTip" : "隋明悦：沈阳\u2015\u2015住宅产业化试点城市的机遇和挑战",
"titleSummary" : "隋明悦：沈阳\u2015\u2015住宅产业化试点城市的机遇和挑战",
"descSummary" : "4月25日，由国家保障性住房建设材料部品采购信息...",
"url" : "http:\/\/go.rss.sina.com.cn\/redirect.php?url=http:\/\/news.dichan.sina.com.cn\/2012\/04\/25\/480360.html?source=rss",
"pubDate" : "2012年4月25日",
"enterDate" : "384191:03:03",
"channelId" : "-6170129143688040987",
"channelName" : "北京房产-地产人物",
"channelNameSummary" : "北京房产-地产人物",
"channelUrl" : "http:\/\/bj.house.sina.com.cn\/renwu\/index.html",
"author" : "WWW.SINA.COM.CN",
"tags" : [],
"desc" : "4月25日，由国家保障性住房建设材料部品采购信息平台主办，新浪地产承办\u201C百强对接 民生精品\u201D沈阳建筑部品采购大会暨保障房优质建材采购会盛大召开。会上沈阳市建委副主任隋明悦介绍了沈阳作为试点城市推进住宅产业化取得的成绩和面临的挑战。",
"emailed" : False,
"forwarded" : False,
"english" : False
}  , {
"index" : 5,
"articleIndex" : "2486",
"favor" :  False ,
     "read" : False,    
"title" : "朱中一：2011市场整体平稳 2012坚持调控不动摇",
"titleTip" : "朱中一：2011市场整体平稳 2012坚持调控不动摇",
"titleSummary" : "朱中一：2011市场整体平稳 2012坚持调控不动摇",
"descSummary" : "近日，第八届钢铁产业发展战略暨钢铁产品产需研讨会议...",
"url" : "http:\/\/go.rss.sina.com.cn\/redirect.php?url=http:\/\/news.dichan.sina.com.cn\/sh\/2012\/04\/23\/478833.html?source=rss",
"pubDate" : "2012年4月23日",
"enterDate" : "384200:44:46",
"channelId" : "-6170129143688040987",
"channelName" : "北京房产-地产人物",
"channelNameSummary" : "北京房产-地产人物",
"channelUrl" : "http:\/\/bj.house.sina.com.cn\/renwu\/index.html",
"author" : "WWW.SINA.COM.CN",
"tags" : [],
"desc" : "近日，第八届钢铁产业发展战略暨钢铁产品产需研讨会议在上海浦东星河湾酒店盛大落幕，在会上，中国房地产业协会副会长朱中一先生就中国房地产的发展现状以及与钢铁行业之前的关联影响发表了演讲。",
"emailed" : False,
"forwarded" : False,
"english" : False
}  , {
"index" : 6,
"articleIndex" : "2485",
"favor" :  False ,
     "read" : False,    
"title" : "黄怒波冰岛租地进展顺利 力挺富豪移民",
"titleTip" : "黄怒波冰岛租地进展顺利 力挺富豪移民",
"titleSummary" : "黄怒波冰岛租地进展顺利 力挺富豪移民",
"descSummary" : "冰岛购地三百平方公里一事让原本低调的北京中坤投资集团董事长...",
"url" : "http:\/\/go.rss.sina.com.cn\/redirect.php?url=http:\/\/news.dichan.sina.com.cn\/2012\/04\/20\/477014.html?source=rss",
"pubDate" : "2012年4月20日",
"enterDate" : "384201:06:58",
"channelId" : "-6170129143688040987",
"channelName" : "北京房产-地产人物",
"channelNameSummary" : "北京房产-地产人物",
"channelUrl" : "http:\/\/bj.house.sina.com.cn\/renwu\/index.html",
"author" : "WWW.SINA.COM.CN",
"tags" : [],
"desc" : "冰岛购地三百平方公里一事让原本低调的北京中坤投资集团董事长黄怒波为全球瞩目，后来项目因故折戟。目前，黄怒波在国内与云南普洱市联系密切，其集团拟在云南普洱牵头开发原生态国际休闲养生度假区，项目整体投资规模约500亿元。",
"emailed" : False,
"forwarded" : False,
"english" : False
}  , {
"index" : 7,
"articleIndex" : "2484",
"favor" :  False ,
     "read" : False,    
"title" : "\u201C亿元姐\u201DMISS李：够专业一季度卖楼1亿元",
"titleTip" : "\u201C亿元姐\u201DMISS李：够专业一季度卖楼1亿元",
"titleSummary" : "\u201C亿元姐\u201DMISS李：够专业一季度卖楼1亿元",
"descSummary" : "记者在参观时，李小姐就开始了有条不紊、逻辑性强的讲解...",
"url" : "http:\/\/go.rss.sina.com.cn\/redirect.php?url=http:\/\/news.dichan.sina.com.cn\/2012\/04\/20\/476969.html?source=rss",
"pubDate" : "2012年4月20日",
"enterDate" : "384200:51:31",
"channelId" : "-6170129143688040987",
"channelName" : "北京房产-地产人物",
"channelNameSummary" : "北京房产-地产人物",
"channelUrl" : "http:\/\/bj.house.sina.com.cn\/renwu\/index.html",
"author" : "WWW.SINA.COM.CN",
"tags" : [],
"desc" : "记者在参观时，李小姐就开始了有条不紊、逻辑性强的讲解，\u201C项目位于广州天河区珠江新城海安路13号，位于珠江新城东区。按照相关数据2011年第二季度珠江新城写字楼月均租金158元\/m2\/月计算，租财富世纪广场1000平方米写字楼，一年租金要将近200万元。",
"emailed" : False,
"forwarded" : False,
"english" : False
}  , {
"index" : 8,
"articleIndex" : "2483",
"favor" :  False ,
     "read" : False,    
"title" : "杨贵龙：打造钻石品质的作品",
"titleTip" : "杨贵龙：打造钻石品质的作品",
"titleSummary" : "杨贵龙：打造钻石品质的作品",
"descSummary" : "近期，第八届上海臻品物业私人品鉴会在上海展览中心低调开放，值得一提...",
"url" : "http:\/\/go.rss.sina.com.cn\/redirect.php?url=http:\/\/news.dichan.sina.com.cn\/sh\/2012\/04\/17\/474933.html?source=rss",
"pubDate" : "2012年4月17日",
"enterDate" : "384200:49:55",
"channelId" : "-6170129143688040987",
"channelName" : "北京房产-地产人物",
"channelNameSummary" : "北京房产-地产人物",
"channelUrl" : "http:\/\/bj.house.sina.com.cn\/renwu\/index.html",
"author" : "WWW.SINA.COM.CN",
"tags" : [],
"desc" : "近期，第八届上海臻品物业私人品鉴会在上海展览中心低调开放，值得一提的是，之前缺席\u201C上海之春\u201D房展会的部分高端物业项目纷纷亮相此次品鉴会，其中新江湾豪宅项目建发江湾萃也在其中，新浪乐居记者有幸采访到了建发房地产上海有限公司副总经理杨贵龙先生。",
"emailed" : False,
"forwarded" : False,
"english" : False
}  , {
"index" : 9,
"articleIndex" : "2482",
"favor" :  False ,
     "read" : False,    
"title" : "哈佛校园对话王石：我仍然还是万科的董事长",
"titleTip" : "哈佛校园对话王石：我仍然还是万科的董事长",
"titleSummary" : "哈佛校园对话王石：我仍然还是万科的董事长",
"descSummary" : "站在哈佛大学的演讲台上，61岁的王石一张嘴，就露了英...",
"url" : "http:\/\/go.rss.sina.com.cn\/redirect.php?url=http:\/\/news.dichan.sina.com.cn\/2012\/04\/17\/474544.html?source=rss",
"pubDate" : "2012年4月17日",
"enterDate" : "384197:44:21",
"channelId" : "-6170129143688040987",
"channelName" : "北京房产-地产人物",
"channelNameSummary" : "北京房产-地产人物",
"channelUrl" : "http:\/\/bj.house.sina.com.cn\/renwu\/index.html",
"author" : "WWW.SINA.COM.CN",
"tags" : [],
"desc" : "站在哈佛大学的演讲台上，61岁的王石一张嘴，就露了英语还不灵光的\u201C怯\u201D：一个并不太难的单词他费劲地说了三遍，直到发音正确才继续。\u201C我计划在60岁到70岁这个阶段把更多的精力用到学校去，通过学习更多地和下一代交流，\u201D王石说。",
"emailed" : False,
"forwarded" : False,
"english" : False
}  , {
"index" : 10,
"articleIndex" : "2481",
"favor" :  False ,
     "read" : False,    
"title" : "从地产到乳业 孙伊萍中粮职业二进制",
"titleTip" : "从地产到乳业 孙伊萍中粮职业二进制",
"titleSummary" : "从地产到乳业 孙伊萍中粮职业二进制",
"descSummary" : "见习编辑 李雯露 中粮地产副总经理孙伊萍的书面辞呈多少还是有些...",
"url" : "http:\/\/go.rss.sina.com.cn\/redirect.php?url=http:\/\/news.dichan.sina.com.cn\/2012\/04\/17\/474450.html?source=rss",
"pubDate" : "2012年4月17日",
"enterDate" : "384197:14:37",
"channelId" : "-6170129143688040987",
"channelName" : "北京房产-地产人物",
"channelNameSummary" : "北京房产-地产人物",
"channelUrl" : "http:\/\/bj.house.sina.com.cn\/renwu\/index.html",
"author" : "WWW.SINA.COM.CN",
"tags" : [],
"desc" : "见习编辑 李雯露 中粮地产副总经理孙伊萍的书面辞呈多少还是有些出人意料。2007年7月，孙伊萍首次尝试跨行业发展，担任中粮地产(集团)股份有限公司副总经理、中粮地产成都公司总经理，直至其升任蒙牛集团总裁。",
"emailed" : False,
"forwarded" : False,
"english" : False
}  , {
"index" : 11,
"articleIndex" : "2480",
"favor" :  False ,
     "read" : False,    
"title" : "陈萍：完美扩张",
"titleTip" : "陈萍：完美扩张",
"titleSummary" : "陈萍：完美扩张",
"descSummary" : "专访同福易家丽集团董事长陈萍",
"url" : "http:\/\/go.rss.sina.com.cn\/redirect.php?url=http:\/\/news.dichan.sina.com.cn\/sh\/2012\/04\/16\/474047.html?source=rss",
"pubDate" : "2012年4月16日",
"enterDate" : "384177:41:02",
"channelId" : "-6170129143688040987",
"channelName" : "北京房产-地产人物",
"channelNameSummary" : "北京房产-地产人物",
"channelUrl" : "http:\/\/bj.house.sina.com.cn\/renwu\/index.html",
"author" : "WWW.SINA.COM.CN",
"tags" : [],
"desc" : "专访同福易家丽集团董事长陈萍",
"emailed" : False,
"forwarded" : False,
"english" : False
}  , {
"index" : 12,
"articleIndex" : "2479",
"favor" :  False ,
     "read" : False,    
"title" : "乐荪：优质商业项目的打造任重道远",
"titleTip" : "乐荪：优质商业项目的打造任重道远",
"titleSummary" : "乐荪：优质商业项目的打造任重道远",
"descSummary" : "季节上的春天已经到来，楼市的寒冬却仍将继续，房地产开发商是否...",
"url" : "http:\/\/go.rss.sina.com.cn\/redirect.php?url=http:\/\/news.dichan.sina.com.cn\/sh\/2012\/04\/09\/469264.html?source=rss",
"pubDate" : "2012年4月9日",
"enterDate" : "384201:11:10",
"channelId" : "-6170129143688040987",
"channelName" : "北京房产-地产人物",
"channelNameSummary" : "北京房产-地产人物",
"channelUrl" : "http:\/\/bj.house.sina.com.cn\/renwu\/index.html",
"author" : "WWW.SINA.COM.CN",
"tags" : [],
"desc" : "季节上的春天已经到来，楼市的寒冬却仍将继续，房地产开发商是否应该转型商业地产寻求出路，商业地产这块\u201C香饽饽\u201D是否适合所有的房地产开发商呢？就此类问题新浪乐居独家采访易居中国大上海事业部项目总监乐荪先生，为我们拨开着重重疑云。",
"emailed" : False,
"forwarded" : False,
"english" : False
}  , {
"index" : 13,
"articleIndex" : "2478",
"favor" :  False ,
     "read" : False,    
"title" : "陈湛匀: 目前中国房地产业转型出现新特点",
"titleTip" : "陈湛匀: 目前中国房地产业转型出现新特点",
"titleSummary" : "陈湛匀: 目前中国房地产业转型出现新特点",
"descSummary" : "在房地产调控政策持续深化，房地产企业须要认识到现在房地产...",
"url" : "http:\/\/go.rss.sina.com.cn\/redirect.php?url=http:\/\/news.dichan.sina.com.cn\/2012\/04\/06\/467976.html?source=rss",
"pubDate" : "2012年4月6日",
"enterDate" : "384200:43:31",
"channelId" : "-6170129143688040987",
"channelName" : "北京房产-地产人物",
"channelNameSummary" : "北京房产-地产人物",
"channelUrl" : "http:\/\/bj.house.sina.com.cn\/renwu\/index.html",
"author" : "WWW.SINA.COM.CN",
"tags" : [],
"desc" : "在房地产调控政策持续深化，房地产企业须要认识到现在房地产业正处于转型发展时期",
"emailed" : False,
"forwarded" : False,
"english" : False
}  , {
"index" : 14,
"articleIndex" : "2477",
"favor" :  False ,
     "read" : False,    
"title" : "孙宏斌:融创的挑战不是现金流和价格",
"titleTip" : "孙宏斌:融创的挑战不是现金流和价格",
"titleSummary" : "孙宏斌:融创的挑战不是现金流和价格",
"descSummary" : "\u201C今年最后把负债率控制在多少就看我们买多少地了\u201D，所以，孙宏...",
"url" : "http:\/\/go.rss.sina.com.cn\/redirect.php?url=http:\/\/news.dichan.sina.com.cn\/2012\/03\/31\/464879.html?source=rss",
"pubDate" : "2012年3月31日",
"enterDate" : "384186:40:06",
"channelId" : "-6170129143688040987",
"channelName" : "北京房产-地产人物",
"channelNameSummary" : "北京房产-地产人物",
"channelUrl" : "http:\/\/bj.house.sina.com.cn\/renwu\/index.html",
"author" : "WWW.SINA.COM.CN",
"tags" : [],
"desc" : "\u201C今年最后把负债率控制在多少就看我们买多少地了\u201D，所以，孙宏斌现在想的问题就是，究竟是在北京、上海，还是天津拿地，\u201C很简单的\u201D。汪孟德：我们这个项目在销售环节，根据项目本身的现金流情况，比如说它需要的时候我们就投入一部分，绿城也会投入一定的现金流。",
"emailed" : False,
"forwarded" : False,
"english" : False
}  , {
"index" : 15,
"articleIndex" : "2476",
"favor" :  False ,
     "read" : False,    
"title" : "住宅产业化是保障房优质高效建设的根本途径",
"titleTip" : "住宅产业化是保障房优质高效建设的根本途径",
"titleSummary" : "住宅产业化是保障房优质高效建设的根本途径",
"descSummary" : "2012年3月29日，由中国房地产研究会、中国房地产业协会...",
"url" : "http:\/\/go.rss.sina.com.cn\/redirect.php?url=http:\/\/news.dichan.sina.com.cn\/2012\/03\/31\/465375.html?source=rss",
"pubDate" : "2012年3月31日",
"enterDate" : "384183:18:40",
"channelId" : "-6170129143688040987",
"channelName" : "北京房产-地产人物",
"channelNameSummary" : "北京房产-地产人物",
"channelUrl" : "http:\/\/bj.house.sina.com.cn\/renwu\/index.html",
"author" : "WWW.SINA.COM.CN",
"tags" : [],
"desc" : "2012年3月29日，由中国房地产研究会、中国房地产业协会主办的第四届中国房地产科学发展论坛在上海圆满落幕。本次论坛以\u201C完善保障制度，推进住有所居\u201D为主题，本次论坛是对我国住房保障体系建设的一次集中、深入探讨，来自北京、上海、天津、安徽、湖北、山东等地的代表就保障房....",
"emailed" : False,
"forwarded" : False,
"english" : False
}  , {
"index" : 16,
"articleIndex" : "2475",
"favor" :  False ,
     "read" : False,    
"title" : "北京鲁迅\u201C旧居所在地\u201D将拆除 现建筑为70年代翻建",
"titleTip" : "北京鲁迅\u201C旧居所在地\u201D将拆除 现建筑为70年代翻建",
"titleSummary" : "北京鲁迅\u201C旧居所在地\u201D将拆除 现建筑为70年代翻建",
"descSummary" : "西城区政府官方微博昨天表示，近日媒体所言\u201C北京...",
"url" : "http:\/\/go.rss.sina.com.cn\/redirect.php?url=http:\/\/news.dichan.sina.com.cn\/2012\/03\/30\/464341.html?source=rss",
"pubDate" : "2012年3月30日",
"enterDate" : "384153:19:01",
"channelId" : "-6170129143688040987",
"channelName" : "北京房产-地产人物",
"channelNameSummary" : "北京房产-地产人物",
"channelUrl" : "http:\/\/bj.house.sina.com.cn\/renwu\/index.html",
"author" : "WWW.SINA.COM.CN",
"tags" : [],
"desc" : "西城区政府官方微博昨天表示，近日媒体所言\u201C北京西城区鲁迅故居将拆迁\u201D为失实报道。西城区砖塔胡同西头的84号院是鲁迅\u201C旧居所在地\u201D，而非\u201C故居\u201D，其故居已在40年前被拆除翻建。",
"emailed" : False,
"forwarded" : False,
"english" : False
}  , {
"index" : 17,
"articleIndex" : "2474",
"favor" :  False ,
     "read" : False,    
"title" : "绿色风席卷建筑业 建筑节能时机成熟",
"titleTip" : "绿色风席卷建筑业 建筑节能时机成熟",
"titleSummary" : "绿色风席卷建筑业 建筑节能时机成熟",
"descSummary" : "在住房和城乡建设部等部委的鼎力支持下，由中国城市科学研究会、...",
"url" : "http:\/\/go.rss.sina.com.cn\/redirect.php?url=http:\/\/news.dichan.sina.com.cn\/2012\/03\/30\/464324.html?source=rss",
"pubDate" : "2012年3月30日",
"enterDate" : "384153:07:02",
"channelId" : "-6170129143688040987",
"channelName" : "北京房产-地产人物",
"channelNameSummary" : "北京房产-地产人物",
"channelUrl" : "http:\/\/bj.house.sina.com.cn\/renwu\/index.html",
"author" : "WWW.SINA.COM.CN",
"tags" : [],
"desc" : "在住房和城乡建设部等部委的鼎力支持下，由中国城市科学研究会、中国建筑节能协会及中国城科会绿色建筑与节能专业委员会共同主办的\u201C第八届国际绿色建筑与建筑节能大会暨新技术与产品博览会\u201D于2012年3月29日至31日在北京国际会议中心隆重召开。",
"emailed" : False,
"forwarded" : False,
"english" : False
}  , {
"index" : 18,
"articleIndex" : "2473",
"favor" :  False ,
     "read" : False,    
"title" : "雅居乐老板陈卓贤香港买\u201C地王\u201D 业界猜测建私人别墅",
"titleTip" : "雅居乐老板陈卓贤香港买\u201C地王\u201D 业界猜测建私人别墅",
"titleSummary" : "雅居乐老板陈卓贤香港买\u201C地王\u201D 业界猜测建私人别墅",
"descSummary" : "陈卓贤花7亿港元买下的西贡碧沙路地块拥有无敌...",
"url" : "http:\/\/go.rss.sina.com.cn\/redirect.php?url=http:\/\/news.dichan.sina.com.cn\/2012\/03\/30\/464291.html?source=rss",
"pubDate" : "2012年3月30日",
"enterDate" : "384152:50:26",
"channelId" : "-6170129143688040987",
"channelName" : "北京房产-地产人物",
"channelNameSummary" : "北京房产-地产人物",
"channelUrl" : "http:\/\/bj.house.sina.com.cn\/renwu\/index.html",
"author" : "WWW.SINA.COM.CN",
"tags" : [],
"desc" : "陈卓贤花7亿港元买下的西贡碧沙路地块拥有无敌海景。有地产人士指出，该地块拥有得天独厚的海景和地利之便，不排除陈卓贤购入是为了兴建私人别墅。据了解，西贡银线湾一带现有约600幢别墅洋房，深受明星青睐，在此有房产的明星包括汪明荃、曾志伟、吴彦祖、梁朝伟、任达华等。",
"emailed" : False,
"forwarded" : False,
"english" : False
}  , {
"index" : 19,
"articleIndex" : "2472",
"favor" :  False ,
     "read" : False,    
"title" : "刘志峰：没有垮掉的行业只有垮掉的企业",
"titleTip" : "刘志峰：没有垮掉的行业只有垮掉的企业",
"titleSummary" : "刘志峰：没有垮掉的行业只有垮掉的企业",
"descSummary" : "被誉为建筑部品领域\u201C奥斯卡\u201D盛典的2012中国房地产开发企...",
"url" : "http:\/\/go.rss.sina.com.cn\/redirect.php?url=http:\/\/news.dichan.sina.com.cn\/2012\/03\/22\/458770.html?source=rss",
"pubDate" : "2012年3月22日",
"enterDate" : "384193:25:02",
"channelId" : "-6170129143688040987",
"channelName" : "北京房产-地产人物",
"channelNameSummary" : "北京房产-地产人物",
"channelUrl" : "http:\/\/bj.house.sina.com.cn\/renwu\/index.html",
"author" : "WWW.SINA.COM.CN",
"tags" : [],
"desc" : "被誉为建筑部品领域\u201C奥斯卡\u201D盛典的2012中国房地产开发企业500强首选供应商品牌评选于3月21日举办500强峰会发布品牌报告分享成果经验，探讨房地产业创新、转型。会场上中国房地产研究会会长、中国房地产业协会会长刘志峰做了致辞。",
"emailed" : False,
"forwarded" : False,
"english" : False
} ]
}
