{
"mode" : {"viewTitle" : 1,   "viewNew" : 0,  "pageIndex" : 2 },
 "channel" : {"id" : "-6170129143688040987", "booked" : False, "subNumber" : 1, "name" : "北京房产-地产人物", "url" : "http:\/\/bj.house.sina.com.cn\/renwu\/index.html", "feed" : "http:\/\/rss.sina.com.cn\/bjhouse\/dcrw.xml", "author" : "", "desc" : "北京房产-地产人物", "imageUrl" : "http:\/\/www.sinaimg.cn\/house\/sina_fc.gif", "postPerWeek" : "0", "lastCrawTime" : "16:54:10", "crawDateTime" : "16:54:10", "lastHttpCode" : "200"}, "page" : {
"startIndex" : 20,
"totalCount" : 2492,
"pageIndex" : 2,
"lastPage" : 125,
"pageSize" : 20,
"english" :  False },
 "unreadNum" : 0, "shotIndex" : -1,
"articles" : [
{
"index" : 0,
"articleIndex" : "2471",
"favor" :  False ,
     "read" : False,    
"title" : "融创李绍忠：打造高端精品是融创坚定的选择",
"titleTip" : "融创李绍忠：打造高端精品是融创坚定的选择",
"titleSummary" : "融创李绍忠：打造高端精品是融创坚定的选择",
"descSummary" : "我们持之以恒的为客户打造精品的物业，持续不断的提升产...",
"url" : "http:\/\/go.rss.sina.com.cn\/redirect.php?url=http:\/\/news.dichan.sina.com.cn\/2012\/03\/22\/458769.html?source=rss",
"pubDate" : "2012年3月22日",
"enterDate" : "384193:24:50",
"channelId" : "-6170129143688040987",
"channelName" : "北京房产-地产人物",
"channelNameSummary" : "北京房产-地产人物",
"channelUrl" : "http:\/\/bj.house.sina.com.cn\/renwu\/index.html",
"author" : "WWW.SINA.COM.CN",
"tags" : [],
"desc" : "我们持之以恒的为客户打造精品的物业，持续不断的提升产品的品质和服务水平，已经初步树立了公司缔造高端精品的市场形象，今天我和大家分享的内容主要是四点：第一点是2011年的卓越的增长业绩;第二，优势和机遇筑就企业的成长;第三，打造高端精品是我们坚定的选择;第四，做好高端....",
"emailed" : False,
"forwarded" : False,
"english" : False
}  , {
"index" : 1,
"articleIndex" : "2470",
"favor" :  False ,
     "read" : False,    
"title" : "邵明晓：调控市场下应注重高周转与客户至上",
"titleTip" : "邵明晓：调控市场下应注重高周转与客户至上",
"titleSummary" : "邵明晓：调控市场下应注重高周转与客户至上",
"descSummary" : "尊敬的刘部长，各位领导，大家下午好，刚才听了大庆的演...",
"url" : "http:\/\/go.rss.sina.com.cn\/redirect.php?url=http:\/\/news.dichan.sina.com.cn\/2012\/03\/22\/458766.html?source=rss",
"pubDate" : "2012年3月22日",
"enterDate" : "384186:14:05",
"channelId" : "-6170129143688040987",
"channelName" : "北京房产-地产人物",
"channelNameSummary" : "北京房产-地产人物",
"channelUrl" : "http:\/\/bj.house.sina.com.cn\/renwu\/index.html",
"author" : "WWW.SINA.COM.CN",
"tags" : [],
"desc" : "尊敬的刘部长，各位领导，大家下午好，刚才听了大庆的演讲，很受启发，万科也一直是我们学习的榜样。非常荣幸今天有这样的机会分享龙湖的一些感受，主要有五点。",
"emailed" : False,
"forwarded" : False,
"english" : False
}  , {
"index" : 2,
"articleIndex" : "2469",
"favor" :  False ,
     "read" : False,    
"title" : "万科毛大庆：房地产行业应坚持主流",
"titleTip" : "万科毛大庆：房地产行业应坚持主流",
"titleSummary" : "万科毛大庆：房地产行业应坚持主流",
"descSummary" : "我们一直还是处在乐观的态度，在看待市场和政策的变化，形势也并...",
"url" : "http:\/\/go.rss.sina.com.cn\/redirect.php?url=http:\/\/news.dichan.sina.com.cn\/2012\/03\/21\/458765.html?source=rss",
"pubDate" : "2012年3月21日",
"enterDate" : "384193:02:20",
"channelId" : "-6170129143688040987",
"channelName" : "北京房产-地产人物",
"channelNameSummary" : "北京房产-地产人物",
"channelUrl" : "http:\/\/bj.house.sina.com.cn\/renwu\/index.html",
"author" : "WWW.SINA.COM.CN",
"tags" : [],
"desc" : "我们一直还是处在乐观的态度，在看待市场和政策的变化，形势也并不是末日来临或者以博求命的状态，而是新的产业调整下，行业规则和发展思路要怎么样不断的探索。我们感觉更像球场，从主场变成了客场，我想场地、气候、观众氛围和裁判的力度都与原来不太一样，这个需要我们不仅要充....",
"emailed" : False,
"forwarded" : False,
"english" : False
}  , {
"index" : 3,
"articleIndex" : "2468",
"favor" :  False ,
     "read" : False,    
"title" : "1504万元 王石领跑内地房企高管年薪",
"titleTip" : "1504万元 王石领跑内地房企高管年薪",
"titleSummary" : "1504万元 王石领跑内地房企高管年薪",
"descSummary" : "万科本周发布的2011年年报显示，万科董事局主席王石从公司领取...",
"url" : "http:\/\/go.rss.sina.com.cn\/redirect.php?url=http:\/\/news.dichan.sina.com.cn\/2012\/03\/16\/456131.html?source=rss",
"pubDate" : "2012年3月16日",
"enterDate" : "384079:33:31",
"channelId" : "-6170129143688040987",
"channelName" : "北京房产-地产人物",
"channelNameSummary" : "北京房产-地产人物",
"channelUrl" : "http:\/\/bj.house.sina.com.cn\/renwu\/index.html",
"author" : "WWW.SINA.COM.CN",
"tags" : [],
"desc" : "万科本周发布的2011年年报显示，万科董事局主席王石从公司领取的税后报酬总额为857万元，算上缴纳的647万元个人所得税，合计金额达1504万元，是另一房企大佬华远地产董事长任志强的年薪（税前691.66万元）两倍有余。",
"emailed" : False,
"forwarded" : False,
"english" : False
}  , {
"index" : 4,
"articleIndex" : "2467",
"favor" :  False ,
     "read" : False,    
"title" : "王石去年年薪1504万 超任志强1倍",
"titleTip" : "王石去年年薪1504万 超任志强1倍",
"titleSummary" : "王石去年年薪1504万 超任志强1倍",
"descSummary" : "(设计台词) 地产龙头万科A(000002)前日晚间发布年报，2011年，公司实...",
"url" : "http:\/\/go.rss.sina.com.cn\/redirect.php?url=http:\/\/news.dichan.sina.com.cn\/2012\/03\/14\/455164.html?source=rss",
"pubDate" : "2012年3月14日",
"enterDate" : "384036:17:31",
"channelId" : "-6170129143688040987",
"channelName" : "北京房产-地产人物",
"channelNameSummary" : "北京房产-地产人物",
"channelUrl" : "http:\/\/bj.house.sina.com.cn\/renwu\/index.html",
"author" : "WWW.SINA.COM.CN",
"tags" : [],
"desc" : "(设计台词) 地产龙头万科A(000002)前日晚间发布年报，2011年，公司实现营业收入717.8亿元，同比增长41.5%，净利润首次接近百亿大关，达到96.2亿元，同比增长32.15%，创历史新高。",
"emailed" : False,
"forwarded" : False,
"english" : False
}  , {
"index" : 5,
"articleIndex" : "2466",
"favor" :  False ,
     "read" : False,    
"title" : "央行副行长：银行必须保证个人首套房贷款",
"titleTip" : "央行副行长：银行必须保证个人首套房贷款",
"titleSummary" : "央行副行长：银行必须保证个人首套房贷款",
"descSummary" : "3月12日，中国人民银行副行长刘士余在记者会上表示，各家...",
"url" : "http:\/\/go.rss.sina.com.cn\/redirect.php?url=http:\/\/news.dichan.sina.com.cn\/2012\/03\/14\/454797.html?source=rss",
"pubDate" : "2012年3月14日",
"enterDate" : "384030:13:35",
"channelId" : "-6170129143688040987",
"channelName" : "北京房产-地产人物",
"channelNameSummary" : "北京房产-地产人物",
"channelUrl" : "http:\/\/bj.house.sina.com.cn\/renwu\/index.html",
"author" : "WWW.SINA.COM.CN",
"tags" : [],
"desc" : "3月12日，中国人民银行副行长刘士余在记者会上表示，各家银行对居民个人首套自住普通商品住宅的贷款必须予以保证。对于利率水平，央行鼓励各家金融机构在央行的基准利率和首套普通商品住宅贷款优惠利率的下限之间，根据借款人的财务状况权衡定价。",
"emailed" : False,
"forwarded" : False,
"english" : False
}  , {
"index" : 6,
"articleIndex" : "2465",
"favor" :  False ,
     "read" : False,    
"title" : "王石郁亮税后年薪逾740万 排房企高层收入前两位",
"titleTip" : "王石郁亮税后年薪逾740万 排房企高层收入前两位",
"titleSummary" : "王石郁亮税后年薪逾740万 排房企高层收入前两位",
"descSummary" : "3月12日，万科公布了2011年年度报告，报告显示，万科...",
"url" : "http:\/\/go.rss.sina.com.cn\/redirect.php?url=http:\/\/news.dichan.sina.com.cn\/2012\/03\/13\/454416.html?source=rss",
"pubDate" : "2012年3月13日",
"enterDate" : "384008:39:57",
"channelId" : "-6170129143688040987",
"channelName" : "北京房产-地产人物",
"channelNameSummary" : "北京房产-地产人物",
"channelUrl" : "http:\/\/bj.house.sina.com.cn\/renwu\/index.html",
"author" : "WWW.SINA.COM.CN",
"tags" : [],
"desc" : "3月12日，万科公布了2011年年度报告，报告显示，万科董事长王石税后年薪857万元，相较2010年760万元的年薪，增幅达12.76%。净利润录得人民币96.2亿元，按年升32%；每股基本收益0.88元，增长33%；期内销售金额提升逾12%至人民币1215亿元。",
"emailed" : False,
"forwarded" : False,
"english" : False
}  , {
"index" : 7,
"articleIndex" : "2464",
"favor" :  False ,
     "read" : False,    
"title" : "1504万元 王石年薪居内地房企第一",
"titleTip" : "1504万元 王石年薪居内地房企第一",
"titleSummary" : "1504万元 王石年薪居内地房企第一",
"descSummary" : "根据年报，2011年新增加开发项目52个，按万科权益计算规划建筑面...",
"url" : "http:\/\/go.rss.sina.com.cn\/redirect.php?url=http:\/\/news.dichan.sina.com.cn\/2012\/03\/13\/454399.html?source=rss",
"pubDate" : "2012年3月13日",
"enterDate" : "384008:29:42",
"channelId" : "-6170129143688040987",
"channelName" : "北京房产-地产人物",
"channelNameSummary" : "北京房产-地产人物",
"channelUrl" : "http:\/\/bj.house.sina.com.cn\/renwu\/index.html",
"author" : "WWW.SINA.COM.CN",
"tags" : [],
"desc" : "根据年报，2011年新增加开发项目52个，按万科权益计算规划建筑面积约922万平方米，平均楼面地价约2707元\/平方米。他同时坦承，2011年下半年后，市场景气度下滑，企业打折促销行为增加，住宅销售的毛利率亦不可避免的受到影响。",
"emailed" : False,
"forwarded" : False,
"english" : False
}  , {
"index" : 8,
"articleIndex" : "2463",
"favor" :  False ,
     "read" : False,    
"title" : "万科总裁郁亮：首套房银行贷款限制已经放松",
"titleTip" : "万科总裁郁亮：首套房银行贷款限制已经放松",
"titleSummary" : "万科总裁郁亮：首套房银行贷款限制已经放松",
"descSummary" : "3月12日，万科总裁郁亮表示，中国今年还将执行房地产调...",
"url" : "http:\/\/go.rss.sina.com.cn\/redirect.php?url=http:\/\/news.dichan.sina.com.cn\/2012\/03\/13\/454167.html?source=rss",
"pubDate" : "2012年3月13日",
"enterDate" : "384006:32:12",
"channelId" : "-6170129143688040987",
"channelName" : "北京房产-地产人物",
"channelNameSummary" : "北京房产-地产人物",
"channelUrl" : "http:\/\/bj.house.sina.com.cn\/renwu\/index.html",
"author" : "WWW.SINA.COM.CN",
"tags" : [],
"desc" : "3月12日，万科总裁郁亮表示，中国今年还将执行房地产调控政策，但针对首套房的银行贷款限制已经放松。万科总裁郁亮税后年薪747万元，两人收入排内地房企高层收入前两位。",
"emailed" : False,
"forwarded" : False,
"english" : False
}  , {
"index" : 9,
"articleIndex" : "2462",
"favor" :  False ,
     "read" : False,    
"title" : "看好发展前景 郑康豪等增持深国商股份",
"titleTip" : "看好发展前景 郑康豪等增持深国商股份",
"titleSummary" : "看好发展前景 郑康豪等增持深国商股份",
"descSummary" : "本次增持后，郑康豪先生和其控股的深圳市皇庭投资管理有限公司...",
"url" : "http:\/\/go.rss.sina.com.cn\/redirect.php?url=http:\/\/news.dichan.sina.com.cn\/2012\/03\/13\/454164.html?source=rss",
"pubDate" : "2012年3月13日",
"enterDate" : "384006:29:21",
"channelId" : "-6170129143688040987",
"channelName" : "北京房产-地产人物",
"channelNameSummary" : "北京房产-地产人物",
"channelUrl" : "http:\/\/bj.house.sina.com.cn\/renwu\/index.html",
"author" : "WWW.SINA.COM.CN",
"tags" : [],
"desc" : "本次增持后，郑康豪先生和其控股的深圳市皇庭投资管理有限公司、百利亚太投资有限公司合计持有公司股份35942405股，占公司总股本的16.27％。增持人郑康豪先生及其控股的深圳市皇庭投资管理有限公司承诺在未来12个月内不减持本次增持的深国商股份。",
"emailed" : False,
"forwarded" : False,
"english" : False
}  , {
"index" : 10,
"articleIndex" : "2461",
"favor" :  False ,
     "read" : False,    
"title" : "富力地产董事长：房价该降的都降了 现在买房划算",
"titleTip" : "富力地产董事长：房价该降的都降了 现在买房划算",
"titleSummary" : "富力地产董事长：房价该降的都降了 现在买房划算",
"descSummary" : "在3月9日的政协分组讨论上，全国政协委员、财政部...",
"url" : "http:\/\/go.rss.sina.com.cn\/redirect.php?url=http:\/\/news.dichan.sina.com.cn\/2012\/03\/12\/453663.html?source=rss",
"pubDate" : "2012年3月12日",
"enterDate" : "383982:33:43",
"channelId" : "-6170129143688040987",
"channelName" : "北京房产-地产人物",
"channelNameSummary" : "北京房产-地产人物",
"channelUrl" : "http:\/\/bj.house.sina.com.cn\/renwu\/index.html",
"author" : "WWW.SINA.COM.CN",
"tags" : [],
"desc" : "在3月9日的政协分组讨论上，全国政协委员、财政部财政科学研究所经济学博导刘克崮表示，当前保障房制度不完善，国家分派的指标可能被用于建设企业福利房。刘克崮认为，目前保障房仍缺一套严格制度，从管理、资金到流通均需有详细政策规定，否则难以落地。",
"emailed" : False,
"forwarded" : False,
"english" : False
}  , {
"index" : 11,
"articleIndex" : "2460",
"favor" :  False ,
     "read" : False,    
"title" : "委员：房价已经跌得很厉害 房产税无调降作用",
"titleTip" : "委员：房价已经跌得很厉害 房产税无调降作用",
"titleSummary" : "委员：房价已经跌得很厉害 房产税无调降作用",
"descSummary" : "据中国之声《央广新闻》报道，在&quot;史上最严厉&quot;的调控政策...",
"url" : "http:\/\/go.rss.sina.com.cn\/redirect.php?url=http:\/\/news.dichan.sina.com.cn\/2012\/03\/12\/453668.html?source=rss",
"pubDate" : "2012年3月12日",
"enterDate" : "383982:19:44",
"channelId" : "-6170129143688040987",
"channelName" : "北京房产-地产人物",
"channelNameSummary" : "北京房产-地产人物",
"channelUrl" : "http:\/\/bj.house.sina.com.cn\/renwu\/index.html",
"author" : "WWW.SINA.COM.CN",
"tags" : [],
"desc" : "据中国之声《央广新闻》报道，在\"史上最严厉\"的调控政策之下，房价过快上涨的势头似乎已得到初步遏制。张力：我个人认为国家是调控房地产，不是打压房地产，中央(调控)房产的主原因是不想房价太高，是压抑房地产，希望房产能够健康发展，这是最重要的。",
"emailed" : False,
"forwarded" : False,
"english" : False
}  , {
"index" : 12,
"articleIndex" : "2459",
"favor" :  False ,
     "read" : False,    
"title" : "国土部部长徐绍史：不让小产权房现象蔓延",
"titleTip" : "国土部部长徐绍史：不让小产权房现象蔓延",
"titleSummary" : "国土部部长徐绍史：不让小产权房现象蔓延",
"descSummary" : "全国人大代表、国土资源部部长徐绍史昨日在人民大会堂接受...",
"url" : "http:\/\/go.rss.sina.com.cn\/redirect.php?url=http:\/\/news.dichan.sina.com.cn\/2012\/03\/12\/453656.html?source=rss",
"pubDate" : "2012年3月12日",
"enterDate" : "383982:19:18",
"channelId" : "-6170129143688040987",
"channelName" : "北京房产-地产人物",
"channelNameSummary" : "北京房产-地产人物",
"channelUrl" : "http:\/\/bj.house.sina.com.cn\/renwu\/index.html",
"author" : "WWW.SINA.COM.CN",
"tags" : [],
"desc" : "全国人大代表、国土资源部部长徐绍史昨日在人民大会堂接受记者采访时表示，今年国土部清理小产权房的工作，将一手抓调查研究清理试点，一手抓执法检查严格防范，不让小产权房现象蔓延。",
"emailed" : False,
"forwarded" : False,
"english" : False
}  , {
"index" : 13,
"articleIndex" : "2458",
"favor" :  False ,
     "read" : False,    
"title" : "曹建海：放任房价上涨不调控将摧毁中国经济",
"titleTip" : "曹建海：放任房价上涨不调控将摧毁中国经济",
"titleSummary" : "曹建海：放任房价上涨不调控将摧毁中国经济",
"descSummary" : "据经济之声《交易实况》报道，有观点认为，如果楼市打压...",
"url" : "http:\/\/go.rss.sina.com.cn\/redirect.php?url=http:\/\/news.dichan.sina.com.cn\/2012\/03\/12\/453662.html?source=rss",
"pubDate" : "2012年3月12日",
"enterDate" : "383982:17:31",
"channelId" : "-6170129143688040987",
"channelName" : "北京房产-地产人物",
"channelNameSummary" : "北京房产-地产人物",
"channelUrl" : "http:\/\/bj.house.sina.com.cn\/renwu\/index.html",
"author" : "WWW.SINA.COM.CN",
"tags" : [],
"desc" : "据经济之声《交易实况》报道，有观点认为，如果楼市打压成功，房价降下来了，中国就完了。有一种观点跟它完全相近，认为\u201C放任炒房鼓舞房价上涨的人实际上是更爱护老百姓\u201D。",
"emailed" : False,
"forwarded" : False,
"english" : False
}  , {
"index" : 14,
"articleIndex" : "2457",
"favor" :  False ,
     "read" : False,    
"title" : "王健林：今年京沪房价再降10-20%左右",
"titleTip" : "王健林：今年京沪房价再降10-20%左右",
"titleSummary" : "王健林：今年京沪房价再降10-20%左右",
"descSummary" : "全国政协委员、大连万达集团董事长王健林3月10日在接受记者采...",
"url" : "http:\/\/go.rss.sina.com.cn\/redirect.php?url=http:\/\/news.dichan.sina.com.cn\/2012\/03\/12\/453657.html?source=rss",
"pubDate" : "2012年3月12日",
"enterDate" : "383982:13:30",
"channelId" : "-6170129143688040987",
"channelName" : "北京房产-地产人物",
"channelNameSummary" : "北京房产-地产人物",
"channelUrl" : "http:\/\/bj.house.sina.com.cn\/renwu\/index.html",
"author" : "WWW.SINA.COM.CN",
"tags" : [],
"desc" : "全国政协委员、大连万达集团董事长王健林3月10日在接受记者采访时表示，《政府工作报告》中的\u201C促进房价合理回归\u201D的提法容易引起一些误读。在他看来，目前，北京、上海等城市房价已平均下降了10%左右，今年合理回归的幅度大概也就是再降10-20%左右。",
"emailed" : False,
"forwarded" : False,
"english" : False
}  , {
"index" : 15,
"articleIndex" : "2456",
"favor" :  False ,
     "read" : False,    
"title" : "陈湛匀：今年房地产市场迎来更大一轮的调整",
"titleTip" : "陈湛匀：今年房地产市场迎来更大一轮的调整",
"titleSummary" : "陈湛匀：今年房地产市场迎来更大一轮的调整",
"descSummary" : "近期，北京市住建委宣布，北京去年已注销473家房地产开...",
"url" : "http:\/\/go.rss.sina.com.cn\/redirect.php?url=http:\/\/news.dichan.sina.com.cn\/2012\/02\/08\/439479.html?source=rss",
"pubDate" : "2012年2月8日",
"enterDate" : "384192:03:27",
"channelId" : "-6170129143688040987",
"channelName" : "北京房产-地产人物",
"channelNameSummary" : "北京房产-地产人物",
"channelUrl" : "http:\/\/bj.house.sina.com.cn\/renwu\/index.html",
"author" : "WWW.SINA.COM.CN",
"tags" : [],
"desc" : "近期，北京市住建委宣布，北京去年已注销473家房地产开发企业，武汉市有关统计数据显示，去年至少注销了200余家房地产开发企业。这是因为去年国家实施更加严厉的房地产调控政策，所以房地产市场经历了前所未有的调整。",
"emailed" : False,
"forwarded" : False,
"english" : False
}  , {
"index" : 16,
"articleIndex" : "2455",
"favor" :  False ,
     "read" : False,    
"title" : "陈湛匀：小微企业关键需要自主学习与创新",
"titleTip" : "陈湛匀：小微企业关键需要自主学习与创新",
"titleSummary" : "陈湛匀：小微企业关键需要自主学习与创新",
"descSummary" : "最近国务院常务会议研究部署支持小微企业的发展，中央财政...",
"url" : "http:\/\/go.rss.sina.com.cn\/redirect.php?url=http:\/\/news.dichan.sina.com.cn\/2012\/02\/08\/439478.html?source=rss",
"pubDate" : "2012年2月8日",
"enterDate" : "384192:02:54",
"channelId" : "-6170129143688040987",
"channelName" : "北京房产-地产人物",
"channelNameSummary" : "北京房产-地产人物",
"channelUrl" : "http:\/\/bj.house.sina.com.cn\/renwu\/index.html",
"author" : "WWW.SINA.COM.CN",
"tags" : [],
"desc" : "最近国务院常务会议研究部署支持小微企业的发展，中央财政安排150亿元，加快小微企业技术改造，目的是要提高创新能力。这对中国小微企业来说是一次机遇。",
"emailed" : False,
"forwarded" : False,
"english" : False
}  , {
"index" : 17,
"articleIndex" : "2454",
"favor" :  False ,
     "read" : False,    
"title" : "聂梅生：中央说房价合理回归 没说\u201C回调下降\u201D",
"titleTip" : "聂梅生：中央说房价合理回归 没说\u201C回调下降\u201D",
"titleSummary" : "聂梅生：中央说房价合理回归 没说\u201C回调下降\u201D",
"descSummary" : "聂梅生：总体的方向应该是的，不放松是对商品房这块的...",
"url" : "http:\/\/go.rss.sina.com.cn\/redirect.php?url=http:\/\/news.dichan.sina.com.cn\/2012\/02\/07\/438449.html?source=rss",
"pubDate" : "2012年2月7日",
"enterDate" : "384200:46:41",
"channelId" : "-6170129143688040987",
"channelName" : "北京房产-地产人物",
"channelNameSummary" : "北京房产-地产人物",
"channelUrl" : "http:\/\/bj.house.sina.com.cn\/renwu\/index.html",
"author" : "WWW.SINA.COM.CN",
"tags" : [],
"desc" : "聂梅生：总体的方向应该是的，不放松是对商品房这块的调控不放松。聂梅生：其实这一次中央经济工作会议提出来，让房价合理的回归，用的是\u201C合理\u201D，不是用的\u201C回调\u201D，也不是用的\u201C下降\u201D，用的是\u201C回归\u201D。",
"emailed" : False,
"forwarded" : False,
"english" : False
}  , {
"index" : 18,
"articleIndex" : "2453",
"favor" :  False ,
     "read" : False,    
"title" : "易宪容：后续将出台多个政策抑制房地产投资需求",
"titleTip" : "易宪容：后续将出台多个政策抑制房地产投资需求",
"titleSummary" : "易宪容：后续将出台多个政策抑制房地产投资需求",
"descSummary" : "日前，经国务院全体会议讨论并即将提请十一届全国人...",
"url" : "http:\/\/go.rss.sina.com.cn\/redirect.php?url=http:\/\/news.dichan.sina.com.cn\/2012\/02\/04\/437666.html?source=rss",
"pubDate" : "2012年2月4日",
"enterDate" : "384201:11:47",
"channelId" : "-6170129143688040987",
"channelName" : "北京房产-地产人物",
"channelNameSummary" : "北京房产-地产人物",
"channelUrl" : "http:\/\/bj.house.sina.com.cn\/renwu\/index.html",
"author" : "WWW.SINA.COM.CN",
"tags" : [],
"desc" : "日前，经国务院全体会议讨论并即将提请十一届全国人大五次会议审议的《政府工作报告(征求意见稿)》提出，继续严格执行并逐步完善抑制投机投资性需求的政策措施，促进房价合理回归;采取有效措施增加普通商品房供给;做好保障性住房建设和管理工作。对此，中国社会科学院金融研究所研....",
"emailed" : False,
"forwarded" : False,
"english" : False
}  , {
"index" : 19,
"articleIndex" : "2452",
"favor" :  False ,
     "read" : False,    
"title" : "陈湛匀解读：2012年房产调控基调是否逐步转向稳价保量",
"titleTip" : "陈湛匀解读：2012年房产调控基调是否逐步转向稳价保量",
"titleSummary" : "陈湛匀解读：2012年房产调控基调是否逐步转向稳价保量",
"descSummary" : "经历过2011年地产寒冬之后，2012年调控基调...",
"url" : "http:\/\/go.rss.sina.com.cn\/redirect.php?url=http:\/\/news.dichan.sina.com.cn\/2012\/01\/20\/435102.html?source=rss",
"pubDate" : "2012年1月20日",
"enterDate" : "384200:53:28",
"channelId" : "-6170129143688040987",
"channelName" : "北京房产-地产人物",
"channelNameSummary" : "北京房产-地产人物",
"channelUrl" : "http:\/\/bj.house.sina.com.cn\/renwu\/index.html",
"author" : "WWW.SINA.COM.CN",
"tags" : [],
"desc" : "经历过2011年地产寒冬之后，2012年调控基调是否会逐步转向稳价保量吗？对此问题，今日第一财经电视第一地产节目采访著名经济学家、上海市投资学会副会长陈湛匀教授。",
"emailed" : False,
"forwarded" : False,
"english" : False
} ]
}
