{
"mode" : {"viewTitle" : 1,   "viewNew" : 0,  "pageIndex" : 1 },
 "channel" : {"id" : "-7530802552058786047", "booked" : False, "subNumber" : 1, "name" : "电信新闻-新浪科技", "url" : "http:\/\/tech.sina.com.cn\/tele\/", "feed" : "http:\/\/rss.sina.com.cn\/tech\/tele\/gn37.xml", "author" : "WWW.SINA.COM.CN", "desc" : "电信新闻", "imageUrl" : "http:\/\/www.sinaimg.cn\/home\/deco\/2009\/0330\/logo_home_tech_news.gif", "postPerWeek" : "0", "lastCrawTime" : "17:14:30", "crawDateTime" : "17:14:30", "lastHttpCode" : "200"}, "page" : {
"startIndex" : 0,
"totalCount" : 5000,
"pageIndex" : 1,
"lastPage" : 250,
"pageSize" : 20,
"english" :  False },
 "unreadNum" : 0, "shotIndex" : -1,
"articles" : [
{
"index" : 0,
"articleIndex" : "47360",
"favor" :  False ,
     "read" : False,    
"title" : "富士康在台获2张4G牌照 竞标价为3.11亿美元",
"titleTip" : "富士康在台获2张4G牌照 竞标价为3.11亿美元",
"titleSummary" : "富士康在台获2张4G牌照 竞标价为3.11亿美元",
"descSummary" : "【TechWeb报道】10月30日消息，据国外媒体报道，《路...",
"url" : "http:\/\/go.rss.sina.com.cn\/redirect.php?url=http:\/\/tech.sina.com.cn\/t\/2013-10-30\/17088868377.shtml",
"pubDate" : "17:08:58",
"enterDate" : "384201:13:32",
"channelId" : "-7530802552058786047",
"channelName" : "电信新闻-新浪科技",
"channelNameSummary" : "电信新闻-新浪科技",
"channelUrl" : "http:\/\/tech.sina.com.cn\/tele\/",
"author" : "WWW.SINA.COM.CN",
"tags" : [],
"desc" : "【TechWeb报道】10月30日消息，据国外媒体报道，《路透社》称，台湾\u201C国家通讯传播委员会\u201D(NCC)周三表示，富士康获得了2张4G移动频谱牌照，并为此支付了91.8亿新台币(3.11亿美元)的竞标价。 据悉，此次共有6家公司赢得了12张4G移动频谱牌照，除了富士康外，还包括中华....",
"emailed" : False,
"forwarded" : False,
"english" : False
}  , {
"index" : 1,
"articleIndex" : "47359",
"favor" :  False ,
     "read" : False,    
"title" : "专家支持如何防手机流量流失",
"titleTip" : "专家支持如何防手机流量流失",
"titleSummary" : "专家支持如何防手机流量流失",
"descSummary" : "本报记者 王茂林 智能手机用着是很爽，但莫名跑流量的遭遇相信不少用户...",
"url" : "http:\/\/go.rss.sina.com.cn\/redirect.php?url=http:\/\/tech.sina.com.cn\/t\/2013-10-30\/16568868354.shtml",
"pubDate" : "16:56:07",
"enterDate" : "384201:00:41",
"channelId" : "-7530802552058786047",
"channelName" : "电信新闻-新浪科技",
"channelNameSummary" : "电信新闻-新浪科技",
"channelUrl" : "http:\/\/tech.sina.com.cn\/tele\/",
"author" : "WWW.SINA.COM.CN",
"tags" : [],
"desc" : "本报记者 王茂林 智能手机用着是很爽，但莫名跑流量的遭遇相信不少用户有过吧？像近日滨州一市民，一夜间手机竟自己偷偷跑了1G多(1G=1024M)的流量，为此他要多掏400多元！他实在搞不明白，这到底是咋整的？ 恼人经历&gt;&gt; 手机一夜间自己跑了1G多流量 ....",
"emailed" : False,
"forwarded" : False,
"english" : False
}  , {
"index" : 2,
"articleIndex" : "47358",
"favor" :  False ,
     "read" : False,    
"title" : "女孩武汉丢iPhone5定位郑州 警方嫌麻烦不受理",
"titleTip" : "女孩武汉丢iPhone5定位郑州 警方嫌麻烦不受理",
"titleSummary" : "女孩武汉丢iPhone5定位郑州 警方嫌麻烦不受理",
"descSummary" : "一女孩武汉丢了iPhone5 手机现在定位在郑州市二七区某手...",
"url" : "http:\/\/go.rss.sina.com.cn\/redirect.php?url=http:\/\/tech.sina.com.cn\/t\/2013-10-30\/15268868122.shtml",
"pubDate" : "15:26:24",
"enterDate" : "384201:01:13",
"channelId" : "-7530802552058786047",
"channelName" : "电信新闻-新浪科技",
"channelNameSummary" : "电信新闻-新浪科技",
"channelUrl" : "http:\/\/tech.sina.com.cn\/tele\/",
"author" : "WWW.SINA.COM.CN",
"tags" : [],
"desc" : "一女孩武汉丢了iPhone5 手机现在定位在郑州市二七区某手机店 想要回手机，警方答曰\u201C太复杂\u201D 你丢过\u201C苹果\u201D没？ 定位追踪要回来没有？ 苹果手机可定位 丢失手机能找到 找到手机要不回 只会让你更生气 武汉....",
"emailed" : False,
"forwarded" : False,
"english" : False
}  , {
"index" : 3,
"articleIndex" : "47357",
"favor" :  False ,
     "read" : False,    
"title" : "爱立信报告称智能手机将改变城市",
"titleTip" : "爱立信报告称智能手机将改变城市",
"titleSummary" : "爱立信报告称智能手机将改变城市",
"descSummary" : "新浪科技讯 10月30日消息，在日本举行的爱立信商业论坛上，爱立信...",
"url" : "http:\/\/go.rss.sina.com.cn\/redirect.php?url=http:\/\/tech.sina.com.cn\/t\/2013-10-30\/13148867830.shtml",
"pubDate" : "13:14:23",
"enterDate" : "384200:49:32",
"channelId" : "-7530802552058786047",
"channelName" : "电信新闻-新浪科技",
"channelNameSummary" : "电信新闻-新浪科技",
"channelUrl" : "http:\/\/tech.sina.com.cn\/tele\/",
"author" : "WWW.SINA.COM.CN",
"tags" : [],
"desc" : "新浪科技讯 10月30日消息，在日本举行的爱立信商业论坛上，爱立信发布了其最新的消费者研究报告，其中显示，居民对城市购物、餐饮和休闲设施的满意度最高，而对儿童及老年人关爱、与政府机关的沟通以及交通等的满意度最低，如果这些真正转变为大众服务，通信市场范围将扩大到....",
"emailed" : False,
"forwarded" : False,
"english" : False
}  , {
"index" : 4,
"articleIndex" : "47356",
"favor" :  False ,
     "read" : False,    
"title" : "高通副总裁沈劲：4G用户有望一年内过亿",
"titleTip" : "高通副总裁沈劲：4G用户有望一年内过亿",
"titleSummary" : "高通副总裁沈劲：4G用户有望一年内过亿",
"descSummary" : "美国高通公司副总裁沈劲 新浪科技讯 10月30日上午消息，201...",
"url" : "http:\/\/go.rss.sina.com.cn\/redirect.php?url=http:\/\/tech.sina.com.cn\/t\/2013-10-30\/12388867793.shtml",
"pubDate" : "12:38:50",
"enterDate" : "384201:14:08",
"channelId" : "-7530802552058786047",
"channelName" : "电信新闻-新浪科技",
"channelNameSummary" : "电信新闻-新浪科技",
"channelUrl" : "http:\/\/tech.sina.com.cn\/tele\/",
"author" : "WWW.SINA.COM.CN",
"tags" : [],
"desc" : "美国高通公司副总裁沈劲 新浪科技讯 10月30日上午消息，2013年安卓全球开发者大会今日在深圳召开，美国高通公司副总裁沈劲在会上表示，未来4G普及的速度将远远快于3G，并有望在第一年内出现上亿用户。 沈劲预计，今年下半年将有非常多的4G手机上市，并且价位也会相....",
"emailed" : False,
"forwarded" : False,
"english" : False
}  , {
"index" : 5,
"articleIndex" : "47355",
"favor" :  False ,
     "read" : False,    
"title" : "巴西拟用热气球为偏远地区部署宽带:与谷歌无关",
"titleTip" : "巴西拟用热气球为偏远地区部署宽带:与谷歌无关",
"titleSummary" : "巴西拟用热气球为偏远地区部署宽带:与谷歌无关",
"descSummary" : "刘长安 姚文文 本报讯 巴西政府正在计划利用热气球把互...",
"url" : "http:\/\/go.rss.sina.com.cn\/redirect.php?url=http:\/\/tech.sina.com.cn\/t\/2013-10-30\/10238867520.shtml",
"pubDate" : "10:23:51",
"enterDate" : "384200:59:30",
"channelId" : "-7530802552058786047",
"channelName" : "电信新闻-新浪科技",
"channelNameSummary" : "电信新闻-新浪科技",
"channelUrl" : "http:\/\/tech.sina.com.cn\/tele\/",
"author" : "WWW.SINA.COM.CN",
"tags" : [],
"desc" : "刘长安 姚文文 本报讯 巴西政府正在计划利用热气球把互联网接入带至该国的偏远地区。该项目与谷歌的热气球项目(Google Loon)并无关联。 10月初，谷歌公司的代表与巴西政府官员举行了会谈，讨论了双方合作的可能，不过，由巴西公共电信公司Telebrás和巴西空间技....",
"emailed" : False,
"forwarded" : False,
"english" : False
}  , {
"index" : 6,
"articleIndex" : "47354",
"favor" :  False ,
     "read" : False,    
"title" : "三季度电信服务申诉率上升5.5%",
"titleTip" : "三季度电信服务申诉率上升5.5%",
"titleSummary" : "三季度电信服务申诉率上升5.5%",
"descSummary" : "飞象网讯(章芳\/文)10月30日消息，据工信部公布的2013年第三季度电信...",
"url" : "http:\/\/go.rss.sina.com.cn\/redirect.php?url=http:\/\/tech.sina.com.cn\/t\/2013-10-30\/10028867386.shtml",
"pubDate" : "10:02:56",
"enterDate" : "384201:08:40",
"channelId" : "-7530802552058786047",
"channelName" : "电信新闻-新浪科技",
"channelNameSummary" : "电信新闻-新浪科技",
"channelUrl" : "http:\/\/tech.sina.com.cn\/tele\/",
"author" : "WWW.SINA.COM.CN",
"tags" : [],
"desc" : "飞象网讯(章芳\/文)10月30日消息，据工信部公布的2013年第三季度电信服务质量情况显示，三季度，工信部及各省(自治区、直辖市)电信用户申诉受理机构通过申诉热线、政府网站等渠道，共受理有关电信服务的申诉18645人次，较上季度上升5.5%，季度百万用户申诉率为12.7人次，较上季....",
"emailed" : False,
"forwarded" : False,
"english" : False
}  , {
"index" : 7,
"articleIndex" : "47353",
"favor" :  False ,
     "read" : False,    
"title" : "智能手机\u201C芯\u201D战争：高通或已错过最好时机",
"titleTip" : "智能手机\u201C芯\u201D战争：高通或已错过最好时机",
"titleSummary" : "智能手机\u201C芯\u201D战争：高通或已错过最好时机",
"descSummary" : "张思 或许这场智能手机领域的芯片战争，正是智能手机厂...",
"url" : "http:\/\/go.rss.sina.com.cn\/redirect.php?url=http:\/\/tech.sina.com.cn\/t\/2013-10-30\/09458867343.shtml",
"pubDate" : "09:45:14",
"enterDate" : "384200:50:58",
"channelId" : "-7530802552058786047",
"channelName" : "电信新闻-新浪科技",
"channelNameSummary" : "电信新闻-新浪科技",
"channelUrl" : "http:\/\/tech.sina.com.cn\/tele\/",
"author" : "WWW.SINA.COM.CN",
"tags" : [],
"desc" : "张思 或许这场智能手机领域的芯片战争，正是智能手机厂商们期待已久的。 昔日，小米手机是高通阵营中一员猛将，第一代小米手机采用高通1.5G双核芯片，祭出了宣称\u201C性能最强\u201D智能手机的大旗，将智能手机芯片参数这一原本较为后台的概念带到消费者眼前。....",
"emailed" : False,
"forwarded" : False,
"english" : False
}  , {
"index" : 8,
"articleIndex" : "47352",
"favor" :  False ,
     "read" : False,    
"title" : "摩托罗拉开发DIY智能手机：可自由组装",
"titleTip" : "摩托罗拉开发DIY智能手机：可自由组装",
"titleSummary" : "摩托罗拉开发DIY智能手机：可自由组装",
"descSummary" : "新浪科技讯 北京时间10月30日上午消息，谷歌旗下摩托罗拉移动...",
"url" : "http:\/\/go.rss.sina.com.cn\/redirect.php?url=http:\/\/tech.sina.com.cn\/t\/2013-10-30\/08598867203.shtml",
"pubDate" : "08:59:48",
"enterDate" : "384201:05:42",
"channelId" : "-7530802552058786047",
"channelName" : "电信新闻-新浪科技",
"channelNameSummary" : "电信新闻-新浪科技",
"channelUrl" : "http:\/\/tech.sina.com.cn\/tele\/",
"author" : "WWW.SINA.COM.CN",
"tags" : [],
"desc" : "新浪科技讯 北京时间10月30日上午消息，谷歌旗下摩托罗拉移动本周表示，该公司已经启动了\u201CAra项目\u201D，希望创造一套免费、开放的标准化平台，让用户可以自由选择自己想要的手机配件，然后组装起来。 这个项目的目标是制作一套手机框架，可以根据用户的偏好向其中添加不....",
"emailed" : False,
"forwarded" : False,
"english" : False
}  , {
"index" : 9,
"articleIndex" : "47351",
"favor" :  False ,
     "read" : False,    
"title" : "传亚马逊明年上半年推智能手机：支持3D手势",
"titleTip" : "传亚马逊明年上半年推智能手机：支持3D手势",
"titleSummary" : "传亚马逊明年上半年推智能手机：支持3D手势",
"descSummary" : "新浪科技讯 北京时间10月30日早间消息，美国科技博客A...",
"url" : "http:\/\/go.rss.sina.com.cn\/redirect.php?url=http:\/\/tech.sina.com.cn\/t\/2013-10-30\/08178867088.shtml",
"pubDate" : "08:17:11",
"enterDate" : "384200:53:10",
"channelId" : "-7530802552058786047",
"channelName" : "电信新闻-新浪科技",
"channelNameSummary" : "电信新闻-新浪科技",
"channelUrl" : "http:\/\/tech.sina.com.cn\/tele\/",
"author" : "WWW.SINA.COM.CN",
"tags" : [],
"desc" : "新浪科技讯 北京时间10月30日早间消息，美国科技博客AppleInsider报道称，亚马逊正与亚洲多家集成摄像头模组厂商合作，开发支持3D手势和眼球运动输入的先进传感器，用于明年推出的新款智能手机。 接近亚马逊的消息人士表示，很明显亚马逊正计划于2014年第二季度推出新....",
"emailed" : False,
"forwarded" : False,
"english" : False
}  , {
"index" : 10,
"articleIndex" : "47350",
"favor" :  False ,
     "read" : False,    
"title" : "黑莓或被Facebook收购：双方高管展开接触",
"titleTip" : "黑莓或被Facebook收购：双方高管展开接触",
"titleSummary" : "黑莓或被Facebook收购：双方高管展开接触",
"descSummary" : "新浪科技讯 北京时间10月30日早间消息，《华尔街日报》援...",
"url" : "http:\/\/go.rss.sina.com.cn\/redirect.php?url=http:\/\/tech.sina.com.cn\/t\/2013-10-30\/07498866980.shtml",
"pubDate" : "07:49:28",
"enterDate" : "384200:55:32",
"channelId" : "-7530802552058786047",
"channelName" : "电信新闻-新浪科技",
"channelNameSummary" : "电信新闻-新浪科技",
"channelUrl" : "http:\/\/tech.sina.com.cn\/tele\/",
"author" : "WWW.SINA.COM.CN",
"tags" : [],
"desc" : "新浪科技讯 北京时间10月30日早间消息，《华尔街日报》援引消息人士的说法称，黑莓高管上周前往加州拜访Facebook，以了解Facebook对于收购黑莓的兴趣。 目前尚不清楚，Facebook是否有意提出收购黑莓。两家公司均拒绝对这一报道置评。 此前，由黑莓最大的投资方F....",
"emailed" : False,
"forwarded" : False,
"english" : False
}  , {
"index" : 11,
"articleIndex" : "47349",
"favor" :  False ,
     "read" : False,    
"title" : "第三季度全球智能手机出货2.58亿台：同比增39%",
"titleTip" : "第三季度全球智能手机出货2.58亿台：同比增39%",
"titleSummary" : "第三季度全球智能手机出货2.58亿台：同比增39%",
"descSummary" : "新浪科技讯 北京时间10月30日早间消息，市场研究公司...",
"url" : "http:\/\/go.rss.sina.com.cn\/redirect.php?url=http:\/\/tech.sina.com.cn\/t\/2013-10-30\/07418866841.shtml",
"pubDate" : "07:41:14",
"enterDate" : "384200:47:18",
"channelId" : "-7530802552058786047",
"channelName" : "电信新闻-新浪科技",
"channelNameSummary" : "电信新闻-新浪科技",
"channelUrl" : "http:\/\/tech.sina.com.cn\/tele\/",
"author" : "WWW.SINA.COM.CN",
"tags" : [],
"desc" : "新浪科技讯 北京时间10月30日早间消息，市场研究公司IDC公布的最新数据显示，在截至9月30日的第三季度中，全球智能手机出货量同比增长39%，至2.58亿台。中国市场对低价Android手机的需求影响了苹果公司的市场份额。 随着美国和欧洲智能手机出货量增长的放缓，市场的关....",
"emailed" : False,
"forwarded" : False,
"english" : False
}  , {
"index" : 12,
"articleIndex" : "47347",
"favor" :  False ,
     "read" : False,    
"title" : "传苹果明年9月推5英寸iPhone 6：可单手使用",
"titleTip" : "传苹果明年9月推5英寸iPhone 6：可单手使用",
"titleSummary" : "传苹果明年9月推5英寸iPhone 6：可单手使用",
"descSummary" : "新浪科技讯 北京时间10月30日早间消息，据日本杂志Mac...",
"url" : "http:\/\/go.rss.sina.com.cn\/redirect.php?url=http:\/\/tech.sina.com.cn\/t\/2013-10-30\/07188866641.shtml",
"pubDate" : "07:18:57",
"enterDate" : "384200:55:06",
"channelId" : "-7530802552058786047",
"channelName" : "电信新闻-新浪科技",
"channelNameSummary" : "电信新闻-新浪科技",
"channelUrl" : "http:\/\/tech.sina.com.cn\/tele\/",
"author" : "WWW.SINA.COM.CN",
"tags" : [],
"desc" : "新浪科技讯 北京时间10月30日早间消息，据日本杂志Mac Fan报道，苹果公司计划在明年9月推出iPhone 6，这将是首款可仅用一只手进行操作的大显示屏手机。 报道称，苹果公司下一代iPhone将配备1920x1080像素的5英寸显示屏，每英寸像素密度为440ppi。据称，苹果公司计划将....",
"emailed" : False,
"forwarded" : False,
"english" : False
}  , {
"index" : 13,
"articleIndex" : "47345",
"favor" :  False ,
     "read" : False,    
"title" : "广州移动4G正式体验在即：预约用户已超5万",
"titleTip" : "广州移动4G正式体验在即：预约用户已超5万",
"titleSummary" : "广州移动4G正式体验在即：预约用户已超5万",
"descSummary" : "广州移动4G正式体验在即 近日，笔者从中国移动广东公司广...",
"url" : "http:\/\/go.rss.sina.com.cn\/redirect.php?url=http:\/\/tech.sina.com.cn\/t\/3g\/2013-10-30\/04188866395.shtml",
"pubDate" : "昨天04:18:43",
"enterDate" : "384197:54:52",
"channelId" : "-7530802552058786047",
"channelName" : "电信新闻-新浪科技",
"channelNameSummary" : "电信新闻-新浪科技",
"channelUrl" : "http:\/\/tech.sina.com.cn\/tele\/",
"author" : "WWW.SINA.COM.CN",
"tags" : [],
"desc" : "广州移动4G正式体验在即 近日，笔者从中国移动广东公司广州分公司(下称广州移动)获悉，正开展得如火如荼广深两地4G-LTE用户预约，光广州地区的预约便已超过5万人，而正式的4G体验即将在本周内开启。随后，通过审核的预约客户将陆续收到广州移动的通知，办理4G服务。9月29日....",
"emailed" : False,
"forwarded" : False,
"english" : False
}  , {
"index" : 14,
"articleIndex" : "47344",
"favor" :  False ,
     "read" : False,    
"title" : "监听丑闻影响TTIP谈判 欧盟欲推进数据立法",
"titleTip" : "监听丑闻影响TTIP谈判 欧盟欲推进数据立法",
"titleSummary" : "监听丑闻影响TTIP谈判 欧盟欲推进数据立法",
"descSummary" : "陆振华 由于默克尔总理的手机遭美国情报机构监控，越来越...",
"url" : "http:\/\/go.rss.sina.com.cn\/redirect.php?url=http:\/\/tech.sina.com.cn\/t\/2013-10-30\/03038866204.shtml",
"pubDate" : "昨天03:03:51",
"enterDate" : "384201:10:45",
"channelId" : "-7530802552058786047",
"channelName" : "电信新闻-新浪科技",
"channelNameSummary" : "电信新闻-新浪科技",
"channelUrl" : "http:\/\/tech.sina.com.cn\/tele\/",
"author" : "WWW.SINA.COM.CN",
"tags" : [],
"desc" : "陆振华 由于默克尔总理的手机遭美国情报机构监控，越来越多的德国政要要求暂停与美国的跨大西洋自由贸易谈判(TTIP)。而在大规模的抗议活动背后的真正目的，或是欧盟正在借力推进境内数据传送和保护新立法。 德国巴伐利亚州经济部长艾格纳、德国社民党欧盟政治家....",
"emailed" : False,
"forwarded" : False,
"english" : False
}  , {
"index" : 15,
"articleIndex" : "47346",
"favor" :  False ,
     "read" : False,    
"title" : "二维码成手机病毒新兴来源渠道",
"titleTip" : "二维码成手机病毒新兴来源渠道",
"titleSummary" : "二维码成手机病毒新兴来源渠道",
"descSummary" : "智能手机快速发展的同时，Android系统的手机安全风险也在进一步增长...",
"url" : "http:\/\/go.rss.sina.com.cn\/redirect.php?url=http:\/\/tech.sina.com.cn\/t\/2013-10-30\/01008865194.shtml",
"pubDate" : "昨天01:00:39",
"enterDate" : "384195:36:58",
"channelId" : "-7530802552058786047",
"channelName" : "电信新闻-新浪科技",
"channelNameSummary" : "电信新闻-新浪科技",
"channelUrl" : "http:\/\/tech.sina.com.cn\/tele\/",
"author" : "WWW.SINA.COM.CN",
"tags" : [],
"desc" : "智能手机快速发展的同时，Android系统的手机安全风险也在进一步增长。近日，基于腾讯手机管家3亿用户服务的腾讯移动安全实验室发布了《2013年三季度手机安全报告》，该报告显示今年三季度，Android病毒包占据比例达到96.5%。同时，二维码等成为新兴的手机病毒来源渠道。 ....",
"emailed" : False,
"forwarded" : False,
"english" : False
}  , {
"index" : 16,
"articleIndex" : "47348",
"favor" :  False ,
     "read" : False,    
"title" : "手机App频繁更新背后猫腻：厂商为保持活跃度",
"titleTip" : "手机App频繁更新背后猫腻：厂商为保持活跃度",
"titleSummary" : "手机App频繁更新背后猫腻：厂商为保持活跃度",
"descSummary" : "五花八门的手机软件在丰富人们生活的同时，其频繁的更新...",
"url" : "http:\/\/go.rss.sina.com.cn\/redirect.php?url=http:\/\/tech.sina.com.cn\/t\/2013-10-30\/01008865158.shtml",
"pubDate" : "昨天01:00:38",
"enterDate" : "384194:06:42",
"channelId" : "-7530802552058786047",
"channelName" : "电信新闻-新浪科技",
"channelNameSummary" : "电信新闻-新浪科技",
"channelUrl" : "http:\/\/tech.sina.com.cn\/tele\/",
"author" : "WWW.SINA.COM.CN",
"tags" : [],
"desc" : "五花八门的手机软件在丰富人们生活的同时，其频繁的更新与升级也给用户带来了极大困扰。北京商报记者通过采访调查发现，软件更新的背后是厂商利用更新升级谋求增加其在应用市场的活跃度及排名前列。 用户遭升级\u201C绑架\u201D 消耗大量手机流量 如今，\u201C刚升级....",
"emailed" : False,
"forwarded" : False,
"english" : False
}  , {
"index" : 17,
"articleIndex" : "47343",
"favor" :  False ,
     "read" : False,    
"title" : "我国前9个月智能机出货3.47亿部 市场占比74%",
"titleTip" : "我国前9个月智能机出货3.47亿部 市场占比74%",
"titleSummary" : "我国前9个月智能机出货3.47亿部 市场占比74%",
"descSummary" : "新浪科技讯 10月30日消息，工信部的相关报告显示，我国...",
"url" : "http:\/\/go.rss.sina.com.cn\/redirect.php?url=http:\/\/tech.sina.com.cn\/t\/2013-10-30\/00538864901.shtml",
"pubDate" : "昨天00:53:18",
"enterDate" : "384201:00:32",
"channelId" : "-7530802552058786047",
"channelName" : "电信新闻-新浪科技",
"channelNameSummary" : "电信新闻-新浪科技",
"channelUrl" : "http:\/\/tech.sina.com.cn\/tele\/",
"author" : "WWW.SINA.COM.CN",
"tags" : [],
"desc" : "新浪科技讯 10月30日消息，工信部的相关报告显示，我国智能手机加速普及，1-9月出货量3.47亿，在国内手机市场的占比达到74.3%。 智能手机的大爆发始于前两年。去年我国的智能手机出货量比上年增长了60%以上，智能手机出货量份额均突破50%。今年上半年，我国智能手机销....",
"emailed" : False,
"forwarded" : False,
"english" : False
}  , {
"index" : 18,
"articleIndex" : "47342",
"favor" :  False ,
     "read" : False,    
"title" : "统计显示运营商短信危机四伏增长靠企业短信",
"titleTip" : "统计显示运营商短信危机四伏增长靠企业短信",
"titleSummary" : "统计显示运营商短信危机四伏增长靠企业短信",
"descSummary" : "2011-2013年各季度移动点对点短信业务量比较 新浪科技讯...",
"url" : "http:\/\/go.rss.sina.com.cn\/redirect.php?url=http:\/\/tech.sina.com.cn\/t\/2013-10-30\/00448864900.shtml",
"pubDate" : "昨天00:44:33",
"enterDate" : "384200:51:47",
"channelId" : "-7530802552058786047",
"channelName" : "电信新闻-新浪科技",
"channelNameSummary" : "电信新闻-新浪科技",
"channelUrl" : "http:\/\/tech.sina.com.cn\/tele\/",
"author" : "WWW.SINA.COM.CN",
"tags" : [],
"desc" : "2011-2013年各季度移动点对点短信业务量比较 新浪科技讯 10月29日消息，随着三大运营商近日相继公布前三季度业绩，埋伏在电信运营商中的\u201C定时炸弹\u201D不断涌现，其中最明显的是人均点对点短信量同比大降13.7%，依靠企业短信发送量的增加，电信运营商的短信总量才勉强同比增....",
"emailed" : False,
"forwarded" : False,
"english" : False
}  , {
"index" : 19,
"articleIndex" : "47341",
"favor" :  False ,
     "read" : False,    
"title" : "三星第三季度手机出货量超诺基亚苹果LG之和",
"titleTip" : "三星第三季度手机出货量超诺基亚苹果LG之和",
"titleSummary" : "三星第三季度手机出货量超诺基亚苹果LG之和",
"descSummary" : "新浪科技讯 北京时间10月29日晚间消息，市场研究公司S...",
"url" : "http:\/\/go.rss.sina.com.cn\/redirect.php?url=http:\/\/tech.sina.com.cn\/t\/2013-10-29\/22318864863.shtml",
"pubDate" : "昨天22:31:36",
"enterDate" : "384201:09:15",
"channelId" : "-7530802552058786047",
"channelName" : "电信新闻-新浪科技",
"channelNameSummary" : "电信新闻-新浪科技",
"channelUrl" : "http:\/\/tech.sina.com.cn\/tele\/",
"author" : "WWW.SINA.COM.CN",
"tags" : [],
"desc" : "新浪科技讯 北京时间10月29日晚间消息，市场研究公司Strategy Analytics周二发布报告称，三星第三季度的手机出货量达到1.201亿台，超过了诺基亚、苹果公司和LG的总和。 该季度，三星的全球手机出货量同比增长17%，在全球市场的份额为29%。Strategy Analytics认为，这一....",
"emailed" : False,
"forwarded" : False,
"english" : False
} ]
}
