{
"mode" : {"viewTitle" : 1,   "viewNew" : 0,  "pageIndex" : 2 },
 "channel" : {"id" : "-7530802552058786047", "booked" : False, "subNumber" : 1, "name" : "电信新闻-新浪科技", "url" : "http:\/\/tech.sina.com.cn\/tele\/", "feed" : "http:\/\/rss.sina.com.cn\/tech\/tele\/gn37.xml", "author" : "WWW.SINA.COM.CN", "desc" : "电信新闻", "imageUrl" : "http:\/\/www.sinaimg.cn\/home\/deco\/2009\/0330\/logo_home_tech_news.gif", "postPerWeek" : "0", "lastCrawTime" : "17:14:30", "crawDateTime" : "17:14:30", "lastHttpCode" : "200"}, "page" : {
"startIndex" : 20,
"totalCount" : 5000,
"pageIndex" : 2,
"lastPage" : 250,
"pageSize" : 20,
"english" :  False },
 "unreadNum" : 0, "shotIndex" : -1,
"articles" : [
{
"index" : 0,
"articleIndex" : "47340",
"favor" :  False ,
     "read" : False,    
"title" : "诺基亚发布第三财季财报：净亏损1.25亿美元",
"titleTip" : "诺基亚发布第三财季财报：净亏损1.25亿美元",
"titleSummary" : "诺基亚发布第三财季财报：净亏损1.25亿美元",
"descSummary" : "新浪科技讯 北京时间10月29日晚间消息，诺基亚今日发布了...",
"url" : "http:\/\/go.rss.sina.com.cn\/redirect.php?url=http:\/\/tech.sina.com.cn\/t\/2013-10-29\/19568864669.shtml",
"pubDate" : "昨天19:56:39",
"enterDate" : "384200:34:38",
"channelId" : "-7530802552058786047",
"channelName" : "电信新闻-新浪科技",
"channelNameSummary" : "电信新闻-新浪科技",
"channelUrl" : "http:\/\/tech.sina.com.cn\/tele\/",
"author" : "WWW.SINA.COM.CN",
"tags" : [],
"desc" : "新浪科技讯 北京时间10月29日晚间消息，诺基亚今日发布了2013财年第三财季财报，净营收为56.6亿欧元(约合77.9亿美元)，而上年同期为72.39亿欧元。净亏损为9100万欧元(约合1.25亿美元)，而上年同期净亏损为9.7亿欧元。 在截至9月底的第三财季，诺基亚净营收为56.6亿欧元....",
"emailed" : False,
"forwarded" : False,
"english" : False
}  , {
"index" : 1,
"articleIndex" : "47339",
"favor" :  False ,
     "read" : False,    
"title" : "女士遭匿名举报 被运营商强行停用短信功能",
"titleTip" : "女士遭匿名举报 被运营商强行停用短信功能",
"titleSummary" : "女士遭匿名举报 被运营商强行停用短信功能",
"descSummary" : "给女儿发条短信 遭举报滥发信息 被强停短信功能 要恢复须有...",
"url" : "http:\/\/go.rss.sina.com.cn\/redirect.php?url=http:\/\/tech.sina.com.cn\/t\/2013-10-29\/17048864064.shtml",
"pubDate" : "昨天17:04:45",
"enterDate" : "384201:13:19",
"channelId" : "-7530802552058786047",
"channelName" : "电信新闻-新浪科技",
"channelNameSummary" : "电信新闻-新浪科技",
"channelUrl" : "http:\/\/tech.sina.com.cn\/tele\/",
"author" : "WWW.SINA.COM.CN",
"tags" : [],
"desc" : "给女儿发条短信 遭举报滥发信息 被强停短信功能 要恢复须有承诺 羊城晚报讯 记者何伟杰报道：只因给女儿发了条短信，就被人匿名举报滥发信息而被某通讯运营商禁用了手机短信收发功能。市民李女士近日就遇到这等烦心事。 \u201C你放学后记得把书包和波鞋拿回来。\u201D25日早....",
"emailed" : False,
"forwarded" : False,
"english" : False
}  , {
"index" : 2,
"articleIndex" : "47338",
"favor" :  False ,
     "read" : False,    
"title" : "三星第三季智能手机销量达8840万部领跑全球",
"titleTip" : "三星第三季智能手机销量达8840万部领跑全球",
"titleSummary" : "三星第三季智能手机销量达8840万部领跑全球",
"descSummary" : "新浪科技讯 北京时间10月29日下午消息，美国市场研究公...",
"url" : "http:\/\/go.rss.sina.com.cn\/redirect.php?url=http:\/\/tech.sina.com.cn\/t\/2013-10-29\/15168863893.shtml",
"pubDate" : "昨天15:16:18",
"enterDate" : "384200:55:07",
"channelId" : "-7530802552058786047",
"channelName" : "电信新闻-新浪科技",
"channelNameSummary" : "电信新闻-新浪科技",
"channelUrl" : "http:\/\/tech.sina.com.cn\/tele\/",
"author" : "WWW.SINA.COM.CN",
"tags" : [],
"desc" : "新浪科技讯 北京时间10月29日下午消息，美国市场研究公司Strategy Analytics周一发布报告称，今年第三季度全球智能手机出货量创历史新高，单季出货量首次突破2.5亿部，同比增长45%。三星的市场份额位居首位。 \u201C三星当季的智能手机出货量超过苹果公司的两倍。\u201DStrateg....",
"emailed" : False,
"forwarded" : False,
"english" : False
}  , {
"index" : 3,
"articleIndex" : "47337",
"favor" :  False ,
     "read" : False,    
"title" : "路透社：中国运营商面临漫漫4G盈利路",
"titleTip" : "路透社：中国运营商面临漫漫4G盈利路",
"titleSummary" : "路透社：中国运营商面临漫漫4G盈利路",
"descSummary" : "导语：路透社今天刊登题为《中国电信公司面临漫漫4G盈利路》...",
"url" : "http:\/\/go.rss.sina.com.cn\/redirect.php?url=http:\/\/tech.sina.com.cn\/t\/2013-10-29\/14058863756.shtml",
"pubDate" : "昨天14:05:19",
"enterDate" : "384201:14:23",
"channelId" : "-7530802552058786047",
"channelName" : "电信新闻-新浪科技",
"channelNameSummary" : "电信新闻-新浪科技",
"channelUrl" : "http:\/\/tech.sina.com.cn\/tele\/",
"author" : "WWW.SINA.COM.CN",
"tags" : [],
"desc" : "导语：路透社今天刊登题为《中国电信公司面临漫漫4G盈利路》(China telecom firms take long road to profit with 4G rollout)的评论文章称，虽然4G技术可以提供更快的网速，但由于需要耗费巨额成本，因此将挤压中国运营商的利润。 以下为文章全文： 升级....",
"emailed" : False,
"forwarded" : False,
"english" : False
}  , {
"index" : 4,
"articleIndex" : "47336",
"favor" :  False ,
     "read" : False,    
"title" : "运营商WiFi发展陷入\u201C外热内殇\u201D错失良机",
"titleTip" : "运营商WiFi发展陷入\u201C外热内殇\u201D错失良机",
"titleSummary" : "运营商WiFi发展陷入\u201C外热内殇\u201D错失良机",
"descSummary" : "【通信产业网讯】(记者 陈宝亮)2013年上半年是一个Wi-Fi大...",
"url" : "http:\/\/go.rss.sina.com.cn\/redirect.php?url=http:\/\/tech.sina.com.cn\/t\/2013-10-29\/10498863415.shtml",
"pubDate" : "昨天10:49:19",
"enterDate" : "384200:58:53",
"channelId" : "-7530802552058786047",
"channelName" : "电信新闻-新浪科技",
"channelNameSummary" : "电信新闻-新浪科技",
"channelUrl" : "http:\/\/tech.sina.com.cn\/tele\/",
"author" : "WWW.SINA.COM.CN",
"tags" : [],
"desc" : "【通信产业网讯】(记者 陈宝亮)2013年上半年是一个Wi-Fi大爆炸的时间段。在此期间，360推出了10元的便携式Wi-Fi，极短时间内出货数十万；小米手机在MIUI V5系统中推出了\u201CWi-Fi互助分享\u201D功能，誉谤纷纷。在国外，Google宣布与星巴克美国7000家店面合作推出免费Wi-Fi、Faceboo....",
"emailed" : False,
"forwarded" : False,
"english" : False
}  , {
"index" : 5,
"articleIndex" : "47335",
"favor" :  False ,
     "read" : False,    
"title" : "澳大利亚新政府继续对华为实施禁令",
"titleTip" : "澳大利亚新政府继续对华为实施禁令",
"titleSummary" : "澳大利亚新政府继续对华为实施禁令",
"descSummary" : "新浪科技讯 北京时间10月29日上午消息，澳大利亚总检察长周二表...",
"url" : "http:\/\/go.rss.sina.com.cn\/redirect.php?url=http:\/\/tech.sina.com.cn\/t\/2013-10-29\/10258863311.shtml",
"pubDate" : "昨天10:25:47",
"enterDate" : "384201:05:26",
"channelId" : "-7530802552058786047",
"channelName" : "电信新闻-新浪科技",
"channelNameSummary" : "电信新闻-新浪科技",
"channelUrl" : "http:\/\/tech.sina.com.cn\/tele\/",
"author" : "WWW.SINA.COM.CN",
"tags" : [],
"desc" : "新浪科技讯 北京时间10月29日上午消息，澳大利亚总检察长周二表示，该国新当选的保守政府支持针对华为下达的禁令，禁止其参与该国380亿美元的\u201C国家宽带网络计划\u201D。 前工党政府曾以网络安全为由禁止华为参与该项目的竞标。而自由党领导的新一届联合政府的一些高官却支....",
"emailed" : False,
"forwarded" : False,
"english" : False
}  , {
"index" : 6,
"articleIndex" : "47333",
"favor" :  False ,
     "read" : False,    
"title" : "八成白领患手机依赖症：染上指尖上的\u201C毒瘾\u201D",
"titleTip" : "八成白领患手机依赖症：染上指尖上的\u201C毒瘾\u201D",
"titleSummary" : "八成白领患手机依赖症：染上指尖上的\u201C毒瘾\u201D",
"descSummary" : "深圳晚报记者 李瑶娜 伊宵鸿 无论走到哪里，小简都会将...",
"url" : "http:\/\/go.rss.sina.com.cn\/redirect.php?url=http:\/\/tech.sina.com.cn\/t\/2013-10-29\/09478863087.shtml",
"pubDate" : "昨天09:47:36",
"enterDate" : "384200:57:20",
"channelId" : "-7530802552058786047",
"channelName" : "电信新闻-新浪科技",
"channelNameSummary" : "电信新闻-新浪科技",
"channelUrl" : "http:\/\/tech.sina.com.cn\/tele\/",
"author" : "WWW.SINA.COM.CN",
"tags" : [],
"desc" : "深圳晚报记者 李瑶娜 伊宵鸿 无论走到哪里，小简都会将手机握在手里，就连过马路等红灯，吃饭等上菜的空隙，她都要刷几下手机屏幕，看看微信朋友圈有什么动态，QQ有没有留言。在使用智能机前，小简的手机只是用来接打电话或发短信的。\u201C自从用了智能手机，我一定得时刻....",
"emailed" : False,
"forwarded" : False,
"english" : False
}  , {
"index" : 7,
"articleIndex" : "47332",
"favor" :  False ,
     "read" : False,    
"title" : "4G网络或难觅新品牌：运营商深耕服务淡化技术",
"titleTip" : "4G网络或难觅新品牌：运营商深耕服务淡化技术",
"titleSummary" : "4G网络或难觅新品牌：运营商深耕服务淡化技术",
"descSummary" : "中国移动今年的TD-LTE网络设备集采已结束，布网正在...",
"url" : "http:\/\/go.rss.sina.com.cn\/redirect.php?url=http:\/\/tech.sina.com.cn\/zl\/post\/detail\/t\/2013-10-29\/pid_8436451.htm",
"pubDate" : "昨天09:41:48",
"enterDate" : "384200:51:32",
"channelId" : "-7530802552058786047",
"channelName" : "电信新闻-新浪科技",
"channelNameSummary" : "电信新闻-新浪科技",
"channelUrl" : "http:\/\/tech.sina.com.cn\/tele\/",
"author" : "WWW.SINA.COM.CN",
"tags" : [],
"desc" : "中国移动今年的TD-LTE网络设备集采已结束，布网正在进行中；中国电信在一些城市的FDD LTE实验网建设正如火如荼；而近期的传闻称，中国联通将启动LTE网络设备集采，涉及5.2万个基站。三大运营商的4G LTE网络建设已成为中国通信行业关注的热点，但这些运营商自身似乎并未对4G网....",
"emailed" : False,
"forwarded" : False,
"english" : False
}  , {
"index" : 8,
"articleIndex" : "47331",
"favor" :  False ,
     "read" : False,    
"title" : "大唐电信前三季度业绩再下滑 \u201C游戏\u201D光环褪色",
"titleTip" : "大唐电信前三季度业绩再下滑 \u201C游戏\u201D光环褪色",
"titleSummary" : "大唐电信前三季度业绩再下滑 \u201C游戏\u201D光环褪色",
"descSummary" : "谷东 [ 但有分析人士认为，业绩不及预期的同时，更深层...",
"url" : "http:\/\/go.rss.sina.com.cn\/redirect.php?url=http:\/\/tech.sina.com.cn\/t\/2013-10-29\/09268862984.shtml",
"pubDate" : "昨天09:26:08",
"enterDate" : "384201:05:57",
"channelId" : "-7530802552058786047",
"channelName" : "电信新闻-新浪科技",
"channelNameSummary" : "电信新闻-新浪科技",
"channelUrl" : "http:\/\/tech.sina.com.cn\/tele\/",
"author" : "WWW.SINA.COM.CN",
"tags" : [],
"desc" : "谷东 [ 但有分析人士认为，业绩不及预期的同时，更深层的原因是整个TMT行业相关概念板块泡沫破灭，并预期仍有向下空间 ] 就在昨日三季报披露后，大唐电信(600198.SH)出现本轮调整以来最大跌幅，收盘下跌了8.28%，股价跌至12.74元。累计逾20%的下跌，也令第三季....",
"emailed" : False,
"forwarded" : False,
"english" : False
}  , {
"index" : 9,
"articleIndex" : "47330",
"favor" :  False ,
     "read" : False,    
"title" : "江苏无锡开建全国首个WiFi全免费城市",
"titleTip" : "江苏无锡开建全国首个WiFi全免费城市",
"titleSummary" : "江苏无锡开建全国首个WiFi全免费城市",
"descSummary" : "本报讯 无锡开建全国首个\u201CWIFI全免费城市\u201D。公共免费无线热...",
"url" : "http:\/\/go.rss.sina.com.cn\/redirect.php?url=http:\/\/tech.sina.com.cn\/t\/2013-10-29\/09148862966.shtml",
"pubDate" : "昨天09:14:44",
"enterDate" : "384200:54:33",
"channelId" : "-7530802552058786047",
"channelName" : "电信新闻-新浪科技",
"channelNameSummary" : "电信新闻-新浪科技",
"channelUrl" : "http:\/\/tech.sina.com.cn\/tele\/",
"author" : "WWW.SINA.COM.CN",
"tags" : [],
"desc" : "本报讯 无锡开建全国首个\u201CWIFI全免费城市\u201D。公共免费无线热点建设项目签约仪式28日上午在该市市民中心举行。无锡市政府和投资方上海中路集团、运营方无锡中苗科技有限公司签约，计划通过1.5年时间，在全市建设4万个公共无线热点，使进入无锡区域的所有电子终端都能享受免费....",
"emailed" : False,
"forwarded" : False,
"english" : False
}  , {
"index" : 10,
"articleIndex" : "47327",
"favor" :  False ,
     "read" : False,    
"title" : "广东联通发动流量经营变革 流量包动辄包含数G",
"titleTip" : "广东联通发动流量经营变革 流量包动辄包含数G",
"titleSummary" : "广东联通发动流量经营变革 流量包动辄包含数G",
"descSummary" : "新浪科技讯 10月29日消息，来自广东联通的消息显示，...",
"url" : "http:\/\/go.rss.sina.com.cn\/redirect.php?url=http:\/\/tech.sina.com.cn\/t\/2013-10-29\/07588862641.shtml",
"pubDate" : "昨天07:58:01",
"enterDate" : "384201:08:05",
"channelId" : "-7530802552058786047",
"channelName" : "电信新闻-新浪科技",
"channelNameSummary" : "电信新闻-新浪科技",
"channelUrl" : "http:\/\/tech.sina.com.cn\/tele\/",
"author" : "WWW.SINA.COM.CN",
"tags" : [],
"desc" : "新浪科技讯 10月29日消息，来自广东联通的消息显示，为应对即将到来的大数据、大流量需求，作为中国联通试验田的广东联通率先酝酿积极变革，已大量推出用户期待已久的上网流量大数据包，其中包含的流量非常大，也就是说，我国上网流量套餐开始走进G时代，将逐步取代以M计算的....",
"emailed" : False,
"forwarded" : False,
"english" : False
}  , {
"index" : 11,
"articleIndex" : "47324",
"favor" :  False ,
     "read" : False,    
"title" : "NTT斥资8.75亿美元收购两家美国公司",
"titleTip" : "NTT斥资8.75亿美元收购两家美国公司",
"titleSummary" : "NTT斥资8.75亿美元收购两家美国公司",
"descSummary" : "新浪财经讯 北京时间10月29日凌晨消息，日本NTT通信公司周一宣...",
"url" : "http:\/\/go.rss.sina.com.cn\/redirect.php?url=http:\/\/tech.sina.com.cn\/t\/2013-10-29\/06328862258.shtml",
"pubDate" : "昨天06:32:18",
"enterDate" : "384201:12:37",
"channelId" : "-7530802552058786047",
"channelName" : "电信新闻-新浪科技",
"channelNameSummary" : "电信新闻-新浪科技",
"channelUrl" : "http:\/\/tech.sina.com.cn\/tele\/",
"author" : "WWW.SINA.COM.CN",
"tags" : [],
"desc" : "新浪财经讯 北京时间10月29日凌晨消息，日本NTT通信公司周一宣布，将斥资8.75亿美元收购美国两家公司，以扩大其在美国及海外市场的供应。 根据协议，NTT将以5.25亿美元现金收购总部位于丹佛的云网络服务提供商Virtela Technology Services Inc，并以3.50亿美元收购总部....",
"emailed" : False,
"forwarded" : False,
"english" : False
}  , {
"index" : 12,
"articleIndex" : "47326",
"favor" :  False ,
     "read" : False,    
"title" : "三大运营商利润增长率不一 联通电信远甩移动",
"titleTip" : "三大运营商利润增长率不一 联通电信远甩移动",
"titleSummary" : "三大运营商利润增长率不一 联通电信远甩移动",
"descSummary" : "京华时报讯(记者古晓宇)昨天，中国电信公布了今年前三季...",
"url" : "http:\/\/go.rss.sina.com.cn\/redirect.php?url=http:\/\/tech.sina.com.cn\/t\/2013-10-29\/02308861663.shtml",
"pubDate" : "前天02:30:03",
"enterDate" : "384195:40:07",
"channelId" : "-7530802552058786047",
"channelName" : "电信新闻-新浪科技",
"channelNameSummary" : "电信新闻-新浪科技",
"channelUrl" : "http:\/\/tech.sina.com.cn\/tele\/",
"author" : "WWW.SINA.COM.CN",
"tags" : [],
"desc" : "京华时报讯(记者古晓宇)昨天，中国电信公布了今年前三季度的财报，至此，国内三大电信运营商都已经交出了今年前9个月的答卷。从表现来看，中国移动无论营收还是利润从体量来看还是一马当先，不过在利润的增长上，移动已经被联通和电信远远甩在身后。 仅移动净利润下滑....",
"emailed" : False,
"forwarded" : False,
"english" : False
}  , {
"index" : 13,
"articleIndex" : "47329",
"favor" :  False ,
     "read" : False,    
"title" : "百视通前三季净利增27% 拟推中长期激励方案",
"titleTip" : "百视通前三季净利增27% 拟推中长期激励方案",
"titleSummary" : "百视通前三季净利增27% 拟推中长期激励方案",
"descSummary" : "徐明徽 备受市场关注的传媒股百视通(600637.SH)昨晚公布...",
"url" : "http:\/\/go.rss.sina.com.cn\/redirect.php?url=http:\/\/tech.sina.com.cn\/t\/2013-10-29\/01518861641.shtml",
"pubDate" : "前天01:51:02",
"enterDate" : "384193:30:51",
"channelId" : "-7530802552058786047",
"channelName" : "电信新闻-新浪科技",
"channelNameSummary" : "电信新闻-新浪科技",
"channelUrl" : "http:\/\/tech.sina.com.cn\/tele\/",
"author" : "WWW.SINA.COM.CN",
"tags" : [],
"desc" : "徐明徽 备受市场关注的传媒股百视通(600637.SH)昨晚公布三季报，前三季度营业收入17.42亿元，同比增长20.47%；归属于上市公司股东净利润达到4.98亿元，同比增长27.07%。此外，为了进一步完善市场化的薪酬体系与激励机制，加强公司人才队伍建设，适应公司业务扩张步伐，....",
"emailed" : False,
"forwarded" : False,
"english" : False
}  , {
"index" : 14,
"articleIndex" : "47325",
"favor" :  False ,
     "read" : False,    
"title" : "三大电信运营商前三季日赚4.2亿元",
"titleTip" : "三大电信运营商前三季日赚4.2亿元",
"titleSummary" : "三大电信运营商前三季日赚4.2亿元",
"descSummary" : "随着中国电信昨日公布三季报，三大电信运营商的成绩单都公之于众。...",
"url" : "http:\/\/go.rss.sina.com.cn\/redirect.php?url=http:\/\/tech.sina.com.cn\/t\/2013-10-29\/01308861525.shtml",
"pubDate" : "前天01:30:41",
"enterDate" : "384194:40:45",
"channelId" : "-7530802552058786047",
"channelName" : "电信新闻-新浪科技",
"channelNameSummary" : "电信新闻-新浪科技",
"channelUrl" : "http:\/\/tech.sina.com.cn\/tele\/",
"author" : "WWW.SINA.COM.CN",
"tags" : [],
"desc" : "随着中国电信昨日公布三季报，三大电信运营商的成绩单都公之于众。综合起来看，三大电信运营商今年前三季平均日赚约4.2亿元，略高于去年同期。 对比三家运营商的经营数据，中国移动的净利润依然遥遥领先，为915亿元。中国电信和中国联通两家的净利润合起来也只是老大哥....",
"emailed" : False,
"forwarded" : False,
"english" : False
}  , {
"index" : 15,
"articleIndex" : "47334",
"favor" :  False ,
     "read" : False,    
"title" : "鹏博士拟1400万购易和讯 加速免费WiFi布局",
"titleTip" : "鹏博士拟1400万购易和讯 加速免费WiFi布局",
"titleSummary" : "鹏博士拟1400万购易和讯 加速免费WiFi布局",
"descSummary" : "每经实习记者 杨B 发自成都 计划用20亿元在北上广深等大城...",
"url" : "http:\/\/go.rss.sina.com.cn\/redirect.php?url=http:\/\/tech.sina.com.cn\/t\/2013-10-29\/01108860817.shtml",
"pubDate" : "前天01:10:00",
"enterDate" : "384191:49:39",
"channelId" : "-7530802552058786047",
"channelName" : "电信新闻-新浪科技",
"channelNameSummary" : "电信新闻-新浪科技",
"channelUrl" : "http:\/\/tech.sina.com.cn\/tele\/",
"author" : "WWW.SINA.COM.CN",
"tags" : [],
"desc" : "每经实习记者 杨B 发自成都 计划用20亿元在北上广深等大城市布局免费Wi-Fi的鹏博士(600804，SH)，近日又有新动作。 10月25日，鹏博士发布公告称，拟以1400万元收购北京易和讯科技有限公司 (以下简称易和讯)100%股权，旨在\u201C加快公司移动互联网业务进展，延揽组....",
"emailed" : False,
"forwarded" : False,
"english" : False
}  , {
"index" : 16,
"articleIndex" : "47323",
"favor" :  False ,
     "read" : False,    
"title" : "北京联通20M宽带装IPTV免月费 直播频道过百",
"titleTip" : "北京联通20M宽带装IPTV免月费 直播频道过百",
"titleSummary" : "北京联通20M宽带装IPTV免月费 直播频道过百",
"descSummary" : "新浪科技讯 10月28日消息，备受关注的北京联通IPTV业务...",
"url" : "http:\/\/go.rss.sina.com.cn\/redirect.php?url=http:\/\/tech.sina.com.cn\/t\/2013-10-29\/00418860676.shtml",
"pubDate" : "前天00:41:58",
"enterDate" : "384200:53:12",
"channelId" : "-7530802552058786047",
"channelName" : "电信新闻-新浪科技",
"channelNameSummary" : "电信新闻-新浪科技",
"channelUrl" : "http:\/\/tech.sina.com.cn\/tele\/",
"author" : "WWW.SINA.COM.CN",
"tags" : [],
"desc" : "新浪科技讯 10月28日消息，备受关注的北京联通IPTV业务的资费较测试商用初期有了较大的降低，目前，10M光纤宽带用户每月仅需15元，20M光纤宽带用户IPTV免月使用费，同时，北京联通IPTV业务将直播频道进行大规模扩容，一举增加了30个直播频道，直播频道总数超过百路。 ....",
"emailed" : False,
"forwarded" : False,
"english" : False
}  , {
"index" : 17,
"articleIndex" : "47322",
"favor" :  False ,
     "read" : False,    
"title" : "电信运营商重组风声再起 源自广电网络重组未明",
"titleTip" : "电信运营商重组风声再起 源自广电网络重组未明",
"titleSummary" : "电信运营商重组风声再起 源自广电网络重组未明",
"descSummary" : "新浪科技讯 10月29日消息，对于国务院发展研究中心(国...",
"url" : "http:\/\/go.rss.sina.com.cn\/redirect.php?url=http:\/\/tech.sina.com.cn\/t\/2013-10-29\/00398860675.shtml",
"pubDate" : "前天00:39:04",
"enterDate" : "384200:50:18",
"channelId" : "-7530802552058786047",
"channelName" : "电信新闻-新浪科技",
"channelNameSummary" : "电信新闻-新浪科技",
"channelUrl" : "http:\/\/tech.sina.com.cn\/tele\/",
"author" : "WWW.SINA.COM.CN",
"tags" : [],
"desc" : "新浪科技讯 10月29日消息，对于国务院发展研究中心(国研中心)的相关报告近日提到要再次重组电信企业，业内判断，这可能更多地针对国家级广电网络公司如何组建以及未来是否重组，目前迟迟未出炉的国家级广电网络公司未来可能难以只扎根广电市场。 国务院发展研究中心是....",
"emailed" : False,
"forwarded" : False,
"english" : False
}  , {
"index" : 18,
"articleIndex" : "47328",
"favor" :  False ,
     "read" : False,    
"title" : "广东高院判定美国IDC公司垄断 赔华为2千万元",
"titleTip" : "广东高院判定美国IDC公司垄断 赔华为2千万元",
"titleSummary" : "广东高院判定美国IDC公司垄断 赔华为2千万元",
"descSummary" : "中新社广州10月28日电 (索有为 林劲标)一方是世界通信终...",
"url" : "http:\/\/go.rss.sina.com.cn\/redirect.php?url=http:\/\/tech.sina.com.cn\/t\/2013-10-28\/20458860562.shtml",
"pubDate" : "前天20:45:00",
"enterDate" : "384189:24:59",
"channelId" : "-7530802552058786047",
"channelName" : "电信新闻-新浪科技",
"channelNameSummary" : "电信新闻-新浪科技",
"channelUrl" : "http:\/\/tech.sina.com.cn\/tele\/",
"author" : "WWW.SINA.COM.CN",
"tags" : [],
"desc" : "中新社广州10月28日电 (索有为 林劲标)一方是世界通信终端生产巨头中国华为公司，另一方是全球通信标准专利巨头美国IDC公司，这场知识产权纷争横跨太平洋，从美国一直打到中国。28日，广东省高级法院对该案作出终审判决，判定美国IDC公司构成垄断，赔偿华为公司2000万元人民币....",
"emailed" : False,
"forwarded" : False,
"english" : False
}  , {
"index" : 19,
"articleIndex" : "47321",
"favor" :  False ,
     "read" : False,    
"title" : "广东联通全省网络升级至42M 推出大流量套餐包",
"titleTip" : "广东联通全省网络升级至42M 推出大流量套餐包",
"titleSummary" : "广东联通全省网络升级至42M 推出大流量套餐包",
"descSummary" : "10月28日，谜底揭晓。广东联通召开\u201CG时代 看沃的\u201D...",
"url" : "http:\/\/go.rss.sina.com.cn\/redirect.php?url=http:\/\/tech.sina.com.cn\/t\/2013-10-28\/18258860340.shtml",
"pubDate" : "前天18:25:14",
"enterDate" : "384201:07:33",
"channelId" : "-7530802552058786047",
"channelName" : "电信新闻-新浪科技",
"channelNameSummary" : "电信新闻-新浪科技",
"channelUrl" : "http:\/\/tech.sina.com.cn\/tele\/",
"author" : "WWW.SINA.COM.CN",
"tags" : [],
"desc" : "10月28日，谜底揭晓。广东联通召开\u201CG时代 看沃的\u201D新闻发布会，正式宣布全省21个地市的3G网络全部升级至42M，同时重磅推出一系列超G大流量政策以及\u201C流量共享产品\u201D。 广东联通所有地市全面升级42M网络 \u201C速度\u201D是移动互联网时代的显著特征，是客户体验通信网....",
"emailed" : False,
"forwarded" : False,
"english" : False
} ]
}
