{
"mode" : {"viewTitle" : 1,   "viewNew" : 0,  "pageIndex" : 1 },
 "channel" : {"id" : "6595358247649711959", "booked" : False, "subNumber" : 1, "name" : "总排行榜-新浪读书", "url" : "http:\/\/book.sina.com.cn\/", "feed" : "http:\/\/rss.sina.com.cn\/book\/total_rank.xml", "author" : "WWW.SINA.COM.CN", "desc" : "总排行榜", "imageUrl" : "http:\/\/www.sinaimg.cn\/book\/deco\/2010\/0826\/logo_v3.gif", "postPerWeek" : "0", "lastCrawTime" : "2013年10月15日 (2周前)", "crawDateTime" : "2013年10月15日 (2周前)", "lastHttpCode" : "304"}, "page" : {
"startIndex" : 0,
"totalCount" : 1549,
"pageIndex" : 1,
"lastPage" : 78,
"pageSize" : 20,
"english" :  False },
 "unreadNum" : 0, "shotIndex" : -1,
"articles" : [
{
"index" : 0,
"articleIndex" : "1548",
"favor" :  False ,
     "read" : False,    
"title" : "击鼓传花",
"titleTip" : "击鼓传花",
"titleSummary" : "击鼓传花",
"descSummary" : "当上副市长后，郑焰红是怀着喜忧参半的心情进了市委大院。喜的是进了政府大院，平台更高了...",
"url" : "http:\/\/go.rss.sina.com.cn\/redirect.php?url=http:\/\/vip.book.sina.com.cn\/book\/index_172243.html",
"pubDate" : "2013年10月15日 (2周前)",
"enterDate" : "384201:18:50",
"channelId" : "6595358247649711959",
"channelName" : "总排行榜-新浪读书",
"channelNameSummary" : "总排行榜-新浪读书",
"channelUrl" : "http:\/\/book.sina.com.cn\/",
"author" : "WWW.SINA.COM.CN",
"tags" : [],
"desc" : "当上副市长后，郑焰红是怀着喜忧参半的心情进了市委大院。喜的是进了政府大院，平台更高了一个层次；忧的是这里比不得教委可以自己说了算，\u201C婆婆众多\u201D，稍一不慎就得出娄子。做女人难，当女干部更难！ 一朝天子一朝臣。赵慎三身为秘书，却迎来送往换了三位上司：女教委主任郑....",
"emailed" : False,
"forwarded" : False,
"english" : False
}  , {
"index" : 1,
"articleIndex" : "1546",
"favor" :  False ,
     "read" : False,    
"title" : "一支黑玫瑰",
"titleTip" : "一支黑玫瑰",
"titleSummary" : "一支黑玫瑰",
"descSummary" : "《一支黑玫瑰》是中国第一部以国土局长为主题的长篇小说。拆迁、国有土地规划交易、房地...",
"url" : "http:\/\/go.rss.sina.com.cn\/redirect.php?url=http:\/\/vip.book.sina.com.cn\/book\/index_248877.html",
"pubDate" : "2013年10月12日 (2周前)",
"enterDate" : "384179:10:08",
"channelId" : "6595358247649711959",
"channelName" : "总排行榜-新浪读书",
"channelNameSummary" : "总排行榜-新浪读书",
"channelUrl" : "http:\/\/book.sina.com.cn\/",
"author" : "WWW.SINA.COM.CN",
"tags" : [],
"desc" : "《一支黑玫瑰》是中国第一部以国土局长为主题的长篇小说。拆迁、国有土地规划交易、房地产开发，是现代社会的时髦名词，也是老百姓关注的热门话题：台前幕后，一些利益集团的代表人物运筹帷幄于密室之中，博弈于\u201C国土\u201D舞台之上。就是在这种背景下，一个科级级别的《一支黑玫瑰》....",
"emailed" : False,
"forwarded" : False,
"english" : False
}  , {
"index" : 2,
"articleIndex" : "1545",
"favor" :  False ,
     "read" : False,    
"title" : "靠近女领导",
"titleTip" : "靠近女领导",
"titleSummary" : "靠近女领导",
"descSummary" : "草根出身的公务员张劲松，鬼迷心窍，征服女领导为捷径，背倚更大更高的\u201C靠山\u201D，乘风破...",
"url" : "http:\/\/go.rss.sina.com.cn\/redirect.php?url=http:\/\/vip.book.sina.com.cn\/book\/index_149183.html",
"pubDate" : "2013年10月10日 (2周前)",
"enterDate" : "384160:01:26",
"channelId" : "6595358247649711959",
"channelName" : "总排行榜-新浪读书",
"channelNameSummary" : "总排行榜-新浪读书",
"channelUrl" : "http:\/\/book.sina.com.cn\/",
"author" : "WWW.SINA.COM.CN",
"tags" : [],
"desc" : "草根出身的公务员张劲松，鬼迷心窍，征服女领导为捷径，背倚更大更高的\u201C靠山\u201D，乘风破浪，遨游官场。市委副书记的爱护，省长的青睐，让张劲松在工作中如鱼得水。从市里到省里，与同事斗勇、跟领导斗智、和对手斗法。一个个出其不意的圈套、一场场惊心动魄的较量、一幕幕尔虞我诈....",
"emailed" : False,
"forwarded" : False,
"english" : False
}  , {
"index" : 3,
"articleIndex" : "1547",
"favor" :  False ,
     "read" : False,    
"title" : "宁非",
"titleTip" : "宁非",
"titleSummary" : "宁非",
"descSummary" : "她叫宁非，前世本为律师，做事干练、性情果断，不幸刚刚死于仇杀。她叫江凝菲，乃某朝代将军徐...",
"url" : "http:\/\/go.rss.sina.com.cn\/redirect.php?url=http:\/\/vip.book.sina.com.cn\/book\/index_147303.html",
"pubDate" : "2013年10月9日 (3周前)",
"enterDate" : "384103:44:28",
"channelId" : "6595358247649711959",
"channelName" : "总排行榜-新浪读书",
"channelNameSummary" : "总排行榜-新浪读书",
"channelUrl" : "http:\/\/book.sina.com.cn\/",
"author" : "WWW.SINA.COM.CN",
"tags" : [],
"desc" : "她叫宁非，前世本为律师，做事干练、性情果断，不幸刚刚死于仇杀。她叫江凝菲，乃某朝代将军徐灿的二房妻，被夫君嫌弃，被大房银林公主欺压，马上便要香消玉殒。阴差阳错，宁非竟重生在江凝菲身上！重生很美好，但日子很难熬。终于有一天，宁非受够了在将军府屈辱的日子，她一咬牙....",
"emailed" : False,
"forwarded" : False,
"english" : False
}  , {
"index" : 4,
"articleIndex" : "1543",
"favor" :  False ,
     "read" : False,    
"title" : "假如爱有来生",
"titleTip" : "假如爱有来生",
"titleSummary" : "假如爱有来生",
"descSummary" : "那一年，夏日的午后，是谁让她尝尽铭记一生的凌辱？那一日，漆黑的雨夜，是谁霸道地肆...",
"url" : "http:\/\/go.rss.sina.com.cn\/redirect.php?url=http:\/\/vip.book.sina.com.cn\/book\/index_112645.html",
"pubDate" : "2013年10月8日 (3周前)",
"enterDate" : "384194:11:22",
"channelId" : "6595358247649711959",
"channelName" : "总排行榜-新浪读书",
"channelNameSummary" : "总排行榜-新浪读书",
"channelUrl" : "http:\/\/book.sina.com.cn\/",
"author" : "WWW.SINA.COM.CN",
"tags" : [],
"desc" : "那一年，夏日的午后，是谁让她尝尽铭记一生的凌辱？那一日，漆黑的雨夜，是谁霸道地肆虐她冰冷的红唇？那一夜，芙蓉帐暖，他震怒于她的轻解罗裳，却不曾料到她背后的谍影重重这一生，辗转红尘，款款深情只换来与君决绝，却不曾见她离去的婆娑泪眼她，寒门女子，一生都背负着母亲卖....",
"emailed" : False,
"forwarded" : False,
"english" : False
}  , {
"index" : 5,
"articleIndex" : "1540",
"favor" :  False ,
     "read" : False,    
"title" : "最是缠绵无尽意",
"titleTip" : "最是缠绵无尽意",
"titleSummary" : "最是缠绵无尽意",
"descSummary" : "那一年，她成了他的情人那一年，她介入他的婚姻触犯了道德的底线，抵押了所谓的尊严...",
"url" : "http:\/\/go.rss.sina.com.cn\/redirect.php?url=http:\/\/vip.book.sina.com.cn\/book\/index_155768.html",
"pubDate" : "2013年10月4日 (3周前)",
"enterDate" : "384194:28:29",
"channelId" : "6595358247649711959",
"channelName" : "总排行榜-新浪读书",
"channelNameSummary" : "总排行榜-新浪读书",
"channelUrl" : "http:\/\/book.sina.com.cn\/",
"author" : "WWW.SINA.COM.CN",
"tags" : [],
"desc" : "那一年，她成了他的情人那一年，她介入他的婚姻触犯了道德的底线，抵押了所谓的尊严，为的，难道只是金钱?当他向媒体宣布将会娶她，在所有人艳羡的目光中仅有她自己知道，失去的是什么\u2026\u2026",
"emailed" : False,
"forwarded" : False,
"english" : False
}  , {
"index" : 6,
"articleIndex" : "1539",
"favor" :  False ,
     "read" : False,    
"title" : "北京重案庭审实录",
"titleTip" : "北京重案庭审实录",
"titleSummary" : "北京重案庭审实录",
"descSummary" : "这本书中的案件从不同的层面和方面构成了我们社会生活的一部分，我们无法也不能把...",
"url" : "http:\/\/go.rss.sina.com.cn\/redirect.php?url=http:\/\/vip.book.sina.com.cn\/book\/index_248081.html",
"pubDate" : "2013年10月2日 (4周前)",
"enterDate" : "384180:06:44",
"channelId" : "6595358247649711959",
"channelName" : "总排行榜-新浪读书",
"channelNameSummary" : "总排行榜-新浪读书",
"channelUrl" : "http:\/\/book.sina.com.cn\/",
"author" : "WWW.SINA.COM.CN",
"tags" : [],
"desc" : "这本书中的案件从不同的层面和方面构成了我们社会生活的一部分，我们无法也不能把它们排斥在社会生活之处，这正反映了社会生活的复杂之处。常态的生活和非常态的生活总是共生的，总是在制约着我们的生活关系、生活质量和生活进步。",
"emailed" : False,
"forwarded" : False,
"english" : False
}  , {
"index" : 7,
"articleIndex" : "1537",
"favor" :  False ,
     "read" : False,    
"title" : "打黑",
"titleTip" : "打黑",
"titleSummary" : "打黑",
"descSummary" : "黑色遮住的是阳光和色彩，黑社会蒙蔽的是正义和良知。沉渣泛起，群魔乱舞，穷凶极恶，血雨腥风...",
"url" : "http:\/\/go.rss.sina.com.cn\/redirect.php?url=http:\/\/vip.book.sina.com.cn\/book\/index_247957.html",
"pubDate" : "2013年9月29日",
"enterDate" : "384192:40:11",
"channelId" : "6595358247649711959",
"channelName" : "总排行榜-新浪读书",
"channelNameSummary" : "总排行榜-新浪读书",
"channelUrl" : "http:\/\/book.sina.com.cn\/",
"author" : "WWW.SINA.COM.CN",
"tags" : [],
"desc" : "黑色遮住的是阳光和色彩，黑社会蒙蔽的是正义和良知。沉渣泛起，群魔乱舞，穷凶极恶，血雨腥风。丧失了人性尊严的黑恶势力，不仅让善良弱小的人们承受苦难，也无时无刻不腐蚀着社会准则与国家利益。当我们惊恐于黑势力的泛滥时，是否想过那些潜藏在罪恶背后的权力\u201C保护伞\u201D和道貌....",
"emailed" : False,
"forwarded" : False,
"english" : False
}  , {
"index" : 8,
"articleIndex" : "1536",
"favor" :  False ,
     "read" : False,    
"title" : "对手",
"titleTip" : "对手",
"titleSummary" : "对手",
"descSummary" : "将相斗，万事成蹉跎；将相和，万事有奔头。对手是敌手，对手是搭档，既斗争，又妥协，留余地，...",
"url" : "http:\/\/go.rss.sina.com.cn\/redirect.php?url=http:\/\/vip.book.sina.com.cn\/book\/index_138620.html",
"pubDate" : "2013年9月27日",
"enterDate" : "384185:08:36",
"channelId" : "6595358247649711959",
"channelName" : "总排行榜-新浪读书",
"channelNameSummary" : "总排行榜-新浪读书",
"channelUrl" : "http:\/\/book.sina.com.cn\/",
"author" : "WWW.SINA.COM.CN",
"tags" : [],
"desc" : "将相斗，万事成蹉跎；将相和，万事有奔头。对手是敌手，对手是搭档，既斗争，又妥协，留余地，讲圆通，同心同德才是官场智慧的结晶。孙永和曲炜是海川市的党政一把手，棋逢对手，将遇良才，多年来，他们相辅相成，既斗也和，堪称最佳搭档和对手。市长曲炜步步突进，省委有意调走孙....",
"emailed" : False,
"forwarded" : False,
"english" : False
}  , {
"index" : 9,
"articleIndex" : "1535",
"favor" :  False ,
     "read" : False,    
"title" : "北京要案",
"titleTip" : "北京要案",
"titleSummary" : "北京要案",
"descSummary" : "任何一个案件都不是偶然的，把他们放在时代的大背景上参照他们就是时代发展中的一个印记，...",
"url" : "http:\/\/go.rss.sina.com.cn\/redirect.php?url=http:\/\/vip.book.sina.com.cn\/book\/index_247824.html",
"pubDate" : "2013年9月26日",
"enterDate" : "384195:42:00",
"channelId" : "6595358247649711959",
"channelName" : "总排行榜-新浪读书",
"channelNameSummary" : "总排行榜-新浪读书",
"channelUrl" : "http:\/\/book.sina.com.cn\/",
"author" : "WWW.SINA.COM.CN",
"tags" : [],
"desc" : "任何一个案件都不是偶然的，把他们放在时代的大背景上参照他们就是时代发展中的一个印记，他们是有时代烙印的，我记下了他们的犯罪和心灵轨迹，也看到了形形色色的人生。",
"emailed" : False,
"forwarded" : False,
"english" : False
}  , {
"index" : 10,
"articleIndex" : "1534",
"favor" :  False ,
     "read" : False,    
"title" : "要有多爱才会缠绵不休",
"titleTip" : "要有多爱才会缠绵不休",
"titleSummary" : "要有多爱才会缠绵不休",
"descSummary" : "爱不是不能言说的秘密，而是蚀骨沉沦的游戏。我开始练习着如何去爱，终于变成...",
"url" : "http:\/\/go.rss.sina.com.cn\/redirect.php?url=http:\/\/vip.book.sina.com.cn\/book\/index_240242.html",
"pubDate" : "2013年9月26日",
"enterDate" : "384194:23:08",
"channelId" : "6595358247649711959",
"channelName" : "总排行榜-新浪读书",
"channelNameSummary" : "总排行榜-新浪读书",
"channelUrl" : "http:\/\/book.sina.com.cn\/",
"author" : "WWW.SINA.COM.CN",
"tags" : [],
"desc" : "爱不是不能言说的秘密，而是蚀骨沉沦的游戏。我开始练习着如何去爱，终于变成不怕失去的人。莫锦年在前男友程然的婚礼上邂逅了一个名叫杜明晟的英俊男子，她\u201C借\u201D他冒充她的现任男友，想挫挫程然的锐气。阴差阳错之下，莫锦年和他发生了一夜情。莫锦年以为这只是一个意外，谁知这....",
"emailed" : False,
"forwarded" : False,
"english" : False
}  , {
"index" : 11,
"articleIndex" : "1541",
"favor" :  False ,
     "read" : False,    
"title" : "女县长",
"titleTip" : "女县长",
"titleSummary" : "女县长",
"descSummary" : "当年轻美丽的林雅雯出任沙湖县长时，她做梦也想不到后来发生的一切。地处沙漠边缘的沙湖县，...",
"url" : "http:\/\/go.rss.sina.com.cn\/redirect.php?url=http:\/\/vip.book.sina.com.cn\/book\/index_57202.html",
"pubDate" : "2013年9月26日",
"enterDate" : "383953:56:40",
"channelId" : "6595358247649711959",
"channelName" : "总排行榜-新浪读书",
"channelNameSummary" : "总排行榜-新浪读书",
"channelUrl" : "http:\/\/book.sina.com.cn\/",
"author" : "WWW.SINA.COM.CN",
"tags" : [],
"desc" : "当年轻美丽的林雅雯出任沙湖县长时，她做梦也想不到后来发生的一切。地处沙漠边缘的沙湖县，是一个穷县。常年肆虐的漫天风沙，磨砺着沙乡人的面容，也覆盖了他们的土地。雄心万丈的女县长并不知道，比风沙更凌厉的，是官场中贪腐的魔掌，还有种种说不清道不明的势力。而当她意识到....",
"emailed" : False,
"forwarded" : False,
"english" : False
}  , {
"index" : 12,
"articleIndex" : "1533",
"favor" :  False ,
     "read" : False,    
"title" : "城府",
"titleTip" : "城府",
"titleSummary" : "城府",
"descSummary" : "男人紧贴着她，对着她耳语：\u201C你要知道，弯腰驼背地走路很容易给人一种气场颓废的感觉，容易被...",
"url" : "http:\/\/go.rss.sina.com.cn\/redirect.php?url=http:\/\/vip.book.sina.com.cn\/book\/index_246967.html",
"pubDate" : "2013年9月24日",
"enterDate" : "384165:37:23",
"channelId" : "6595358247649711959",
"channelName" : "总排行榜-新浪读书",
"channelNameSummary" : "总排行榜-新浪读书",
"channelUrl" : "http:\/\/book.sina.com.cn\/",
"author" : "WWW.SINA.COM.CN",
"tags" : [],
"desc" : "男人紧贴着她，对着她耳语：\u201C你要知道，弯腰驼背地走路很容易给人一种气场颓废的感觉，容易被人轻视欺负。以后走路的时候把腰挺直了走。\u201D她是个窝囊的女人，潦倒半生，在她的记忆里没有过一个欢乐的片段。他是一个强悍优雅的男人，却浑身沾满血腥，多年都在寻求灵魂的救赎。上帝....",
"emailed" : False,
"forwarded" : False,
"english" : False
}  , {
"index" : 13,
"articleIndex" : "1529",
"favor" :  False ,
     "read" : False,    
"title" : "刑场翻供",
"titleTip" : "刑场翻供",
"titleSummary" : "刑场翻供",
"descSummary" : "《刑场翻供》是一本小说集，那一桩桩奇案、悬案，在作者笔下无不呈现出推理过程的严谨、破...",
"url" : "http:\/\/go.rss.sina.com.cn\/redirect.php?url=http:\/\/vip.book.sina.com.cn\/book\/index_247280.html",
"pubDate" : "2013年9月18日",
"enterDate" : "384172:57:48",
"channelId" : "6595358247649711959",
"channelName" : "总排行榜-新浪读书",
"channelNameSummary" : "总排行榜-新浪读书",
"channelUrl" : "http:\/\/book.sina.com.cn\/",
"author" : "WWW.SINA.COM.CN",
"tags" : [],
"desc" : "《刑场翻供》是一本小说集，那一桩桩奇案、悬案，在作者笔下无不呈现出推理过程的严谨、破案过程的惊险和审判过程的庄严。更引人入胜的还数那诡谲曲折的故事情节，细腻入骨的心理描写，生动鲜活的人物形象\u2015\u2015技艺非凡而又诡谲颖黠的女神探，执法如山而又侠骨柔肠的检察官\u2026\u2026",
"emailed" : False,
"forwarded" : False,
"english" : False
}  , {
"index" : 14,
"articleIndex" : "1538",
"favor" :  False ,
     "read" : False,    
"title" : "凤影重重(全)",
"titleTip" : "凤影重重(全)",
"titleSummary" : "凤影重重(全)",
"descSummary" : "灭门之夜，他毁去她的清白，残忍如修罗。当她抽丝剥茧，终于接近真相，却五内俱焚，那个...",
"url" : "http:\/\/go.rss.sina.com.cn\/redirect.php?url=http:\/\/vip.book.sina.com.cn\/book\/index_131627.html",
"pubDate" : "2013年9月15日",
"enterDate" : "383799:32:27",
"channelId" : "6595358247649711959",
"channelName" : "总排行榜-新浪读书",
"channelNameSummary" : "总排行榜-新浪读书",
"channelUrl" : "http:\/\/book.sina.com.cn\/",
"author" : "WWW.SINA.COM.CN",
"tags" : [],
"desc" : "灭门之夜，他毁去她的清白，残忍如修罗。当她抽丝剥茧，终于接近真相，却五内俱焚，那个戴青铜面具的恶魔，怎会是他\u2026\u2026她踏着血泪，一步步走上权力的巅峰，却仍逃不过红鸾帐内，他的无尽掠夺。她在他耳边含恨轻语：\u201C我总会等到杀你那一天。\u201D他邪魅低笑：\u201C只怕到了那时，你发现....",
"emailed" : False,
"forwarded" : False,
"english" : False
}  , {
"index" : 15,
"articleIndex" : "1532",
"favor" :  False ,
     "read" : False,    
"title" : "一号保镖",
"titleTip" : "一号保镖",
"titleSummary" : "一号保镖",
"descSummary" : "一名传奇警卫，超凡脱俗的风X流史；一位中华英雄，在世界掀起的强烈风暴；一个热血男儿，...",
"url" : "http:\/\/go.rss.sina.com.cn\/redirect.php?url=http:\/\/vip.book.sina.com.cn\/book\/index_123471.html",
"pubDate" : "2013年8月31日",
"enterDate" : "383581:25:40",
"channelId" : "6595358247649711959",
"channelName" : "总排行榜-新浪读书",
"channelNameSummary" : "总排行榜-新浪读书",
"channelUrl" : "http:\/\/book.sina.com.cn\/",
"author" : "WWW.SINA.COM.CN",
"tags" : [],
"desc" : "一名传奇警卫，超凡脱俗的风X流史；一位中华英雄，在世界掀起的强烈风暴；一个热血男儿，在花花大都市里的快意纵横。震惊世界的惊世绝技，绝非虚构。多少俏美佳人，为他芳心荡漾；多少英雄骄子，为他两肋插刀，成就一段都市英豪传奇。《随时了解本书动态，请关注@北京习美文化微博....",
"emailed" : False,
"forwarded" : False,
"english" : False
}  , {
"index" : 16,
"articleIndex" : "1531",
"favor" :  False ,
     "read" : False,    
"title" : "山城兄弟(全本)",
"titleTip" : "山城兄弟(全本)",
"titleSummary" : "山城兄弟(全本)",
"descSummary" : "他本是一名特种兵，却为一个女人坐了牢，到头来这个女人却背弃了他。现实说这社会笑贫...",
"url" : "http:\/\/go.rss.sina.com.cn\/redirect.php?url=http:\/\/vip.book.sina.com.cn\/book\/index_124121.html",
"pubDate" : "2013年5月29日",
"enterDate" : "381340:46:15",
"channelId" : "6595358247649711959",
"channelName" : "总排行榜-新浪读书",
"channelNameSummary" : "总排行榜-新浪读书",
"channelUrl" : "http:\/\/book.sina.com.cn\/",
"author" : "WWW.SINA.COM.CN",
"tags" : [],
"desc" : "他本是一名特种兵，却为一个女人坐了牢，到头来这个女人却背弃了他。现实说这社会笑贫不笑娼，他为了不被笑，就走上高风险但高利润的黑道。从帮派的马前卒，到全黑道的大哥，再杀回正道，登上政治舞台，惊险。他的又一春爱情，是伤城首富的女儿，但他与她从弥天大谎开始。她父亲反....",
"emailed" : False,
"forwarded" : False,
"english" : False
}  , {
"index" : 17,
"articleIndex" : "1544",
"favor" :  False ,
     "read" : False,    
"title" : "一切疑难杂症都是纸老虎",
"titleTip" : "一切疑难杂症都是纸老虎",
"titleSummary" : "一切疑难杂症都是纸老虎",
"descSummary" : "对于癌症、糖尿病等疑难杂症，只找高明的医生就够了吗？不！治病不仅是医生...",
"url" : "http:\/\/go.rss.sina.com.cn\/redirect.php?url=http:\/\/vip.book.sina.com.cn\/book\/index_188293.html",
"pubDate" : "2011年12月14日",
"enterDate" : "368218:29:12",
"channelId" : "6595358247649711959",
"channelName" : "总排行榜-新浪读书",
"channelNameSummary" : "总排行榜-新浪读书",
"channelUrl" : "http:\/\/book.sina.com.cn\/",
"author" : "WWW.SINA.COM.CN",
"tags" : [],
"desc" : "对于癌症、糖尿病等疑难杂症，只找高明的医生就够了吗？不！治病不仅是医生的事，更需要病人、家属、健身教练、食品监管人员\u2026\u2026所有与之相关的人员的努力。对疑难杂症要整合治疗，要以系统观的思路来看待各器官、各组织，并综合考虑睡眠、情绪、饮食、运动等各种因素，方能取得最....",
"emailed" : False,
"forwarded" : False,
"english" : False
}  , {
"index" : 18,
"articleIndex" : "1542",
"favor" :  False ,
     "read" : False,    
"title" : "冥婚",
"titleTip" : "冥婚",
"titleSummary" : "冥婚",
"descSummary" : "绿绿和周冲是通过国内最大一家婚介网站--情网相识并相爱，但绿绿的电脑里总是莫名其妙地出现一...",
"url" : "http:\/\/go.rss.sina.com.cn\/redirect.php?url=http:\/\/vip.book.sina.com.cn\/book\/index_180431.html",
"pubDate" : "2011年9月21日",
"enterDate" : "366227:36:15",
"channelId" : "6595358247649711959",
"channelName" : "总排行榜-新浪读书",
"channelNameSummary" : "总排行榜-新浪读书",
"channelUrl" : "http:\/\/book.sina.com.cn\/",
"author" : "WWW.SINA.COM.CN",
"tags" : [],
"desc" : "绿绿和周冲是通过国内最大一家婚介网站\u2015\u2015情网相识并相爱，但绿绿的电脑里总是莫名其妙地出现一张恐怖的冥婚照片，令她陷入恐惧之中。不久，一个叫曲添竹的女孩和她的男友赵靖双双神秘失踪，最后只有曲添竹一人回来，绿绿前往采访此事，并跟踪曲添竹一路来到贵州。正待查明真相之....",
"emailed" : False,
"forwarded" : False,
"english" : False
}  , {
"index" : 19,
"articleIndex" : "1530",
"favor" :  False ,
     "read" : False,    
"title" : "盗墓迷局",
"titleTip" : "盗墓迷局",
"titleSummary" : "盗墓迷局",
"descSummary" : "千古蚕洞、鱼凫悬棺，究竟暗藏了哪些玄机？三星文明、古蜀王棺真假难辨。神秘诡谲的古墓，...",
"url" : "http:\/\/go.rss.sina.com.cn\/redirect.php?url=http:\/\/vip.book.sina.com.cn\/book\/index_175796.html",
"pubDate" : "2011年8月8日",
"enterDate" : "365569:58:23",
"channelId" : "6595358247649711959",
"channelName" : "总排行榜-新浪读书",
"channelNameSummary" : "总排行榜-新浪读书",
"channelUrl" : "http:\/\/book.sina.com.cn\/",
"author" : "WWW.SINA.COM.CN",
"tags" : [],
"desc" : "千古蚕洞、鱼凫悬棺，究竟暗藏了哪些玄机？三星文明、古蜀王棺真假难辨。神秘诡谲的古墓，离奇难解的谜团，堪称一部媲美《盗墓笔记》的精彩之作。考古系学生印晓飞参与挖掘明代古墓时遭遇一件古怪离奇的事，为揭开谜团，在朋友阿诚等人协助下，一行人进入神秘莫测的蚕洞探险。蚕洞....",
"emailed" : False,
"forwarded" : False,
"english" : False
} ]
}
