{
"mode" : {"viewTitle" : 1,   "viewNew" : 0,  "pageIndex" : 2 },
 "channel" : {"id" : "6595358247649711959", "booked" : False, "subNumber" : 1, "name" : "总排行榜-新浪读书", "url" : "http:\/\/book.sina.com.cn\/", "feed" : "http:\/\/rss.sina.com.cn\/book\/total_rank.xml", "author" : "WWW.SINA.COM.CN", "desc" : "总排行榜", "imageUrl" : "http:\/\/www.sinaimg.cn\/book\/deco\/2010\/0826\/logo_v3.gif", "postPerWeek" : "0", "lastCrawTime" : "2013年10月15日 (2周前)", "crawDateTime" : "2013年10月15日 (2周前)", "lastHttpCode" : "304"}, "page" : {
"startIndex" : 20,
"totalCount" : 1549,
"pageIndex" : 2,
"lastPage" : 78,
"pageSize" : 20,
"english" :  False },
 "unreadNum" : 0, "shotIndex" : -1,
"articles" : [
{
"index" : 0,
"articleIndex" : "1528",
"favor" :  False ,
     "read" : False,    
"title" : "背后高手",
"titleTip" : "背后高手",
"titleSummary" : "背后高手",
"descSummary" : "杨冲锋受过特训的军人，复原后进柳芸烟厂；偶然机会从炸药包下救了柳泽县第一实权人物，...",
"url" : "http:\/\/go.rss.sina.com.cn\/redirect.php?url=http:\/\/vip.book.sina.com.cn\/book\/index_102852.html",
"pubDate" : "2013年9月18日",
"enterDate" : "384181:07:28",
"channelId" : "6595358247649711959",
"channelName" : "总排行榜-新浪读书",
"channelNameSummary" : "总排行榜-新浪读书",
"channelUrl" : "http:\/\/book.sina.com.cn\/",
"author" : "WWW.SINA.COM.CN",
"tags" : [],
"desc" : "杨冲锋受过特训的军人，复原后进柳芸烟厂；偶然机会从炸药包下救了柳泽县第一实权人物，从此生活多彩起来。一年后，娶了高官女儿，成高官女婿后，在渐渐行走的官路上，是是非非，种种利诱，各种潜规则。权力越大，利诱越多：金钱、女人，权势。看他怎么在经济复苏的几年里，畅游官....",
"emailed" : False,
"forwarded" : False,
"english" : False
}  , {
"index" : 1,
"articleIndex" : "1527",
"favor" :  False ,
     "read" : False,    
"title" : "废弃皇妃",
"titleTip" : "废弃皇妃",
"titleSummary" : "废弃皇妃",
"descSummary" : "一场皇位之争，一段真凤传说，牵扯出两代人的爱恨情仇。颜若歆本是国的帝王之女，却被遗落...",
"url" : "http:\/\/go.rss.sina.com.cn\/redirect.php?url=http:\/\/vip.book.sina.com.cn\/book\/index_169629.html",
"pubDate" : "2013年9月17日",
"enterDate" : "384166:59:28",
"channelId" : "6595358247649711959",
"channelName" : "总排行榜-新浪读书",
"channelNameSummary" : "总排行榜-新浪读书",
"channelUrl" : "http:\/\/book.sina.com.cn\/",
"author" : "WWW.SINA.COM.CN",
"tags" : [],
"desc" : "一场皇位之争，一段真凤传说，牵扯出两代人的爱恨情仇。颜若歆本是国的帝王之女，却被遗落山林，成为Q国颜家精心培养的棋子。她不甘向命运屈服，情愿终日与冷宫相伴，也不愿争宠沦为政治的棋子。天意弄人，滂沱大雨中，她为救青梅竹马的恋人，当众求他宠幸，堕入他精心安排的圈....",
"emailed" : False,
"forwarded" : False,
"english" : False
}  , {
"index" : 2,
"articleIndex" : "1525",
"favor" :  False ,
     "read" : False,    
"title" : "天生凉薄",
"titleTip" : "天生凉薄",
"titleSummary" : "天生凉薄",
"descSummary" : "萧家小七，天之骄女，绝色容颜、显赫光环下，却是来自现代的平凡女子宋淇安。再世为人，纵...",
"url" : "http:\/\/go.rss.sina.com.cn\/redirect.php?url=http:\/\/vip.book.sina.com.cn\/book\/index_246826.html",
"pubDate" : "2013年9月16日",
"enterDate" : "384193:58:46",
"channelId" : "6595358247649711959",
"channelName" : "总排行榜-新浪读书",
"channelNameSummary" : "总排行榜-新浪读书",
"channelUrl" : "http:\/\/book.sina.com.cn\/",
"author" : "WWW.SINA.COM.CN",
"tags" : [],
"desc" : "萧家小七，天之骄女，绝色容颜、显赫光环下，却是来自现代的平凡女子宋淇安。再世为人，纵使伤痕累累，仍坚强执著。君既无情我便休，当誓言不在，决然转身，连怨恨都显多余。死而复生的挚亲，扑朔迷离的局。繁华落尽，谁能为伊人撑起一方天地？是风华绝世，口不能言却做尽一切的尊....",
"emailed" : False,
"forwarded" : False,
"english" : False
}  , {
"index" : 3,
"articleIndex" : "1524",
"favor" :  False ,
     "read" : False,    
"title" : "时光若有张不老的脸",
"titleTip" : "时光若有张不老的脸",
"titleSummary" : "时光若有张不老的脸",
"descSummary" : "他是个极有军人气质的男人，连吵架时掷出的话都如发口令般短促而有力：\u201C不许大...",
"url" : "http:\/\/go.rss.sina.com.cn\/redirect.php?url=http:\/\/vip.book.sina.com.cn\/book\/index_215575.html",
"pubDate" : "2013年9月13日",
"enterDate" : "384124:44:50",
"channelId" : "6595358247649711959",
"channelName" : "总排行榜-新浪读书",
"channelNameSummary" : "总排行榜-新浪读书",
"channelUrl" : "http:\/\/book.sina.com.cn\/",
"author" : "WWW.SINA.COM.CN",
"tags" : [],
"desc" : "他是个极有军人气质的男人，连吵架时掷出的话都如发口令般短促而有力：\u201C不许大喊大叫！给你十秒钟时间调整自己，现在倒计时，十，九\u2026\u2026\u201D她气愤：\u201C有没有点儿时间观念？需要调整十秒钟那么久？\u201D他是个很血性霸道的男人，对她裙子长度引来的较高回头率颇有微词：\u201C你可真给我长....",
"emailed" : False,
"forwarded" : False,
"english" : False
}  , {
"index" : 4,
"articleIndex" : "1523",
"favor" :  False ,
     "read" : False,    
"title" : "无爱承欢",
"titleTip" : "无爱承欢",
"titleSummary" : "无爱承欢",
"descSummary" : "她遇见他，正是莲花开落的季节。彼时，夏正盛。当年遇见那个人，时机不对，他忘得一干二净...",
"url" : "http:\/\/go.rss.sina.com.cn\/redirect.php?url=http:\/\/vip.book.sina.com.cn\/book\/index_150582.html",
"pubDate" : "2013年9月13日",
"enterDate" : "384142:00:10",
"channelId" : "6595358247649711959",
"channelName" : "总排行榜-新浪读书",
"channelNameSummary" : "总排行榜-新浪读书",
"channelUrl" : "http:\/\/book.sina.com.cn\/",
"author" : "WWW.SINA.COM.CN",
"tags" : [],
"desc" : "她遇见他，正是莲花开落的季节。彼时，夏正盛。当年遇见那个人，时机不对，他忘得一干二净，她却沉沦至谷底；重逢的时机也不对，他想要回儿子，而儿子却是她的所有，不得不法庭相见\u2026\u2026总之，最不该，无爱承欢。夜色下，谁的心，受了蛊惑？又是谁在高处，俯瞰着她走投无路？爱恨兜....",
"emailed" : False,
"forwarded" : False,
"english" : False
}  , {
"index" : 5,
"articleIndex" : "1526",
"favor" :  False ,
     "read" : False,    
"title" : "下堂妻的悠哉日子",
"titleTip" : "下堂妻的悠哉日子",
"titleSummary" : "下堂妻的悠哉日子",
"descSummary" : "宋骅影是翰林府的大小姐，但爹爹生性风流，家中姨娘常换常新。在生母绝望出家后，...",
"url" : "http:\/\/go.rss.sina.com.cn\/redirect.php?url=http:\/\/vip.book.sina.com.cn\/book\/index_108775.html",
"pubDate" : "2013年9月13日",
"enterDate" : "384055:46:09",
"channelId" : "6595358247649711959",
"channelName" : "总排行榜-新浪读书",
"channelNameSummary" : "总排行榜-新浪读书",
"channelUrl" : "http:\/\/book.sina.com.cn\/",
"author" : "WWW.SINA.COM.CN",
"tags" : [],
"desc" : "宋骅影是翰林府的大小姐，但爹爹生性风流，家中姨娘常换常新。在生母绝望出家后，她只得化身母老虎，才保全年幼的弟弟不受姨娘的百般凌辱。直到宋骅影巧遇贵人，凭着自己的力量秘密经营着富可敌国的第一商号\u2015\u2015落华影，那个垂涎她的\u201C老狐狸\u201D终于出现了\u2026\u2026带着和\u201C老狐狸\u201D的一....",
"emailed" : False,
"forwarded" : False,
"english" : False
}  , {
"index" : 6,
"articleIndex" : "1522",
"favor" :  False ,
     "read" : False,    
"title" : "易经密码1・古玉尸衣",
"titleTip" : "易经密码1・古玉尸衣",
"titleSummary" : "易经密码1・古玉尸衣",
"descSummary" : "一位象数高人留下的神秘字符--金&amp;#9783;LX，竟牵出一幅来自金玉尸衣的怪异太极...",
"url" : "http:\/\/go.rss.sina.com.cn\/redirect.php?url=http:\/\/vip.book.sina.com.cn\/book\/index_240695.html",
"pubDate" : "2013年9月12日",
"enterDate" : "384102:13:01",
"channelId" : "6595358247649711959",
"channelName" : "总排行榜-新浪读书",
"channelNameSummary" : "总排行榜-新浪读书",
"channelUrl" : "http:\/\/book.sina.com.cn\/",
"author" : "WWW.SINA.COM.CN",
"tags" : [],
"desc" : "一位象数高人留下的神秘字符\u2015\u2015金&amp;#9783;LX，竟牵出一幅来自金玉尸衣的怪异太极图和一份战国鸟虫书背后的《易经》之秘！按照战国鸟虫书的提示，一支由易学专家、考古学家、特种兵等组成的探险队，来到了野人频频出没的神农架，闯入山鬼尸谷，遭遇了奇门遁甲阵、九宫八卦阵、....",
"emailed" : False,
"forwarded" : False,
"english" : False
}  , {
"index" : 7,
"articleIndex" : "1519",
"favor" :  False ,
     "read" : False,    
"title" : "背后高人",
"titleTip" : "背后高人",
"titleSummary" : "背后高人",
"descSummary" : "草根出身的小记者杜逸凡，偶然之中成为女部长的宠男，女部长为了长期占有他，把他带进了官...",
"url" : "http:\/\/go.rss.sina.com.cn\/redirect.php?url=http:\/\/vip.book.sina.com.cn\/book\/index_211373.html",
"pubDate" : "2013年9月10日",
"enterDate" : "384201:18:50",
"channelId" : "6595358247649711959",
"channelName" : "总排行榜-新浪读书",
"channelNameSummary" : "总排行榜-新浪读书",
"channelUrl" : "http:\/\/book.sina.com.cn\/",
"author" : "WWW.SINA.COM.CN",
"tags" : [],
"desc" : "草根出身的小记者杜逸凡，偶然之中成为女部长的宠男，女部长为了长期占有他，把他带进了官场。进入官场之后的杜逸凡，很快总结出一条升迁经验，征服女领导以及大领导身边的女人，远比搞定大领导容易。于是，他找到了一条靠征服女领导和征服大领导身边的女人上位的捷径，从此在官场....",
"emailed" : False,
"forwarded" : False,
"english" : False
}  , {
"index" : 8,
"articleIndex" : "1516",
"favor" :  False ,
     "read" : False,    
"title" : "爱在我们相遇的瞬间",
"titleTip" : "爱在我们相遇的瞬间",
"titleSummary" : "爱在我们相遇的瞬间",
"descSummary" : "著名大学新闻系毕业的安雅意，是报社的名记者，并有一个青梅竹马之后水到渠成的...",
"url" : "http:\/\/go.rss.sina.com.cn\/redirect.php?url=http:\/\/vip.book.sina.com.cn\/book\/index_246349.html",
"pubDate" : "2013年9月6日",
"enterDate" : "384193:30:14",
"channelId" : "6595358247649711959",
"channelName" : "总排行榜-新浪读书",
"channelNameSummary" : "总排行榜-新浪读书",
"channelUrl" : "http:\/\/book.sina.com.cn\/",
"author" : "WWW.SINA.COM.CN",
"tags" : [],
"desc" : "著名大学新闻系毕业的安雅意，是报社的名记者，并有一个青梅竹马之后水到渠成的模范老公唐誉，可谓是事业爱情双丰收。看似巧合的一场采访，让她遇见了高深莫测又对她一见钟情的成功商人林泽生。他把安雅意的采访搞得乱七八糟，可就是在这样的冲撞、摩擦中，两个人从相知到相恋，慢....",
"emailed" : False,
"forwarded" : False,
"english" : False
}  , {
"index" : 9,
"articleIndex" : "1515",
"favor" :  False ,
     "read" : False,    
"title" : "领导亲信",
"titleTip" : "领导亲信",
"titleSummary" : "领导亲信",
"descSummary" : "小人物初入官场，情陷美女处长，面对着凶险莫测的官场厮杀，各种权色诱惑，竞争对手的尔虞...",
"url" : "http:\/\/go.rss.sina.com.cn\/redirect.php?url=http:\/\/vip.book.sina.com.cn\/book\/index_183187.html",
"pubDate" : "2013年9月6日",
"enterDate" : "384185:49:55",
"channelId" : "6595358247649711959",
"channelName" : "总排行榜-新浪读书",
"channelNameSummary" : "总排行榜-新浪读书",
"channelUrl" : "http:\/\/book.sina.com.cn\/",
"author" : "WWW.SINA.COM.CN",
"tags" : [],
"desc" : "小人物初入官场，情陷美女处长，面对着凶险莫测的官场厮杀，各种权色诱惑，竞争对手的尔虞我诈，几个女人的情感纠葛，宋三喜挣扎在一场情感和权欲的双重博弈中。三喜以此为契机，周旋于多名女性之间，用自己的聪明智慧躲过了竞争对手的一次次暗算，在官场中如鱼得水。机关男人的官....",
"emailed" : False,
"forwarded" : False,
"english" : False
}  , {
"index" : 10,
"articleIndex" : "1517",
"favor" :  False ,
     "read" : False,    
"title" : "大隐隐于婚",
"titleTip" : "大隐隐于婚",
"titleSummary" : "大隐隐于婚",
"descSummary" : "阴差阳错，林晚晚去相亲的时候去错了桌子见错了\u201C顾先生\u201D顾凯。第二次她被相亲对象鄙夷...",
"url" : "http:\/\/go.rss.sina.com.cn\/redirect.php?url=http:\/\/vip.book.sina.com.cn\/book\/index_152068.html",
"pubDate" : "2013年9月5日",
"enterDate" : "384147:15:41",
"channelId" : "6595358247649711959",
"channelName" : "总排行榜-新浪读书",
"channelNameSummary" : "总排行榜-新浪读书",
"channelUrl" : "http:\/\/book.sina.com.cn\/",
"author" : "WWW.SINA.COM.CN",
"tags" : [],
"desc" : "阴差阳错，林晚晚去相亲的时候去错了桌子见错了\u201C顾先生\u201D顾凯。第二次她被相亲对象鄙夷的时候，顾凯适逢经过替林晚晚解围。不久后顾凯认出了她，又厌倦了无休止的相亲活动，于是提出跟林晚晚秘密结婚，就是所谓的\u201C隐婚\u201D，并替她承担成为植物人母亲的所有医药费。说服顾家二老，....",
"emailed" : False,
"forwarded" : False,
"english" : False
}  , {
"index" : 11,
"articleIndex" : "1512",
"favor" :  False ,
     "read" : False,    
"title" : "青铜石棺",
"titleTip" : "青铜石棺",
"titleSummary" : "青铜石棺",
"descSummary" : "邙山上冢连冢，墓压墓，素来有\u201C凤巢龙穴\u201D之称，自古以来就是下葬的宝地。一次阴差阳错的...",
"url" : "http:\/\/go.rss.sina.com.cn\/redirect.php?url=http:\/\/vip.book.sina.com.cn\/book\/index_246312.html",
"pubDate" : "2013年9月4日",
"enterDate" : "384177:03:02",
"channelId" : "6595358247649711959",
"channelName" : "总排行榜-新浪读书",
"channelNameSummary" : "总排行榜-新浪读书",
"channelUrl" : "http:\/\/book.sina.com.cn\/",
"author" : "WWW.SINA.COM.CN",
"tags" : [],
"desc" : "邙山上冢连冢，墓压墓，素来有\u201C凤巢龙穴\u201D之称，自古以来就是下葬的宝地。一次阴差阳错的经历苏家老四被卷进了一次莫名的盗墓活动中。然而意想不到的是，原来冥冥之中暗布千年的迷局早已经是命运在驱使。伴随着洛阳铲的挥舞，他们走得越来越。深暗中一直尾随其后不见其身的\u201C它\u201D....",
"emailed" : False,
"forwarded" : False,
"english" : False
}  , {
"index" : 12,
"articleIndex" : "1514",
"favor" :  False ,
     "read" : False,    
"title" : "七寸",
"titleTip" : "七寸",
"titleSummary" : "七寸",
"descSummary" : "老公出轨，为了孩子，为了母亲，她选择了隐瞒。可不想离婚后的老公却仍然要\u201C霸\u201D着她。给她富...",
"url" : "http:\/\/go.rss.sina.com.cn\/redirect.php?url=http:\/\/vip.book.sina.com.cn\/book\/index_190198.html",
"pubDate" : "2013年9月4日",
"enterDate" : "384148:04:35",
"channelId" : "6595358247649711959",
"channelName" : "总排行榜-新浪读书",
"channelNameSummary" : "总排行榜-新浪读书",
"channelUrl" : "http:\/\/book.sina.com.cn\/",
"author" : "WWW.SINA.COM.CN",
"tags" : [],
"desc" : "老公出轨，为了孩子，为了母亲，她选择了隐瞒。可不想离婚后的老公却仍然要\u201C霸\u201D着她。给她富足无忧的生活，唯一的条件就是不许她另找男人。曾经婚内的日子让她受尽屈辱，而离了婚，她的心再难平静。后来她遇到了自认为可以付出一生的好男人，可没想到这份爱却再起波澜\u2026\u2026历尽不....",
"emailed" : False,
"forwarded" : False,
"english" : False
}  , {
"index" : 13,
"articleIndex" : "1518",
"favor" :  False ,
     "read" : False,    
"title" : "无限趋近于爱",
"titleTip" : "无限趋近于爱",
"titleSummary" : "无限趋近于爱",
"descSummary" : "当生活被命运的指挥棒高高低低地游戏着，她倔强地站在青春即将干涸的河床上，说：\u201C只...",
"url" : "http:\/\/go.rss.sina.com.cn\/redirect.php?url=http:\/\/vip.book.sina.com.cn\/book\/index_169757.html",
"pubDate" : "2013年9月4日",
"enterDate" : "384073:55:31",
"channelId" : "6595358247649711959",
"channelName" : "总排行榜-新浪读书",
"channelNameSummary" : "总排行榜-新浪读书",
"channelUrl" : "http:\/\/book.sina.com.cn\/",
"author" : "WWW.SINA.COM.CN",
"tags" : [],
"desc" : "当生活被命运的指挥棒高高低低地游戏着，她倔强地站在青春即将干涸的河床上，说：\u201C只要有人娶，我就嫁。\u201D却有王子问她：\u201C你说过的话，当真？\u201D那么地，漫不经心\u2026\u2026当命运再次以颠覆的面具在她面前翻云覆雨，她在婚姻的温床前断然做出决定：\u201C我们，离婚吧。\u201D那个契约者却宣称....",
"emailed" : False,
"forwarded" : False,
"english" : False
}  , {
"index" : 14,
"articleIndex" : "1513",
"favor" :  False ,
     "read" : False,    
"title" : "你若安好",
"titleTip" : "你若安好",
"titleSummary" : "你若安好",
"descSummary" : "安好，一个单纯倔强的女孩，在最美的时间里，遇到了一段最刻骨的爱，本以为可以天长地久，...",
"url" : "http:\/\/go.rss.sina.com.cn\/redirect.php?url=http:\/\/vip.book.sina.com.cn\/book\/index_198216.html",
"pubDate" : "2013年9月4日",
"enterDate" : "384129:36:13",
"channelId" : "6595358247649711959",
"channelName" : "总排行榜-新浪读书",
"channelNameSummary" : "总排行榜-新浪读书",
"channelUrl" : "http:\/\/book.sina.com.cn\/",
"author" : "WWW.SINA.COM.CN",
"tags" : [],
"desc" : "安好，一个单纯倔强的女孩，在最美的时间里，遇到了一段最刻骨的爱，本以为可以天长地久，可情至深处却戛然而止，只留给她那么不堪回首的伤痛。无意间情绪的宣泄，她竟间接造成了父亲的意外死亡。遭遇了这样的变故，她对爱情绝望，给自己竖起了一堵厚厚的墙，不愿出去，也不让别人....",
"emailed" : False,
"forwarded" : False,
"english" : False
}  , {
"index" : 15,
"articleIndex" : "1509",
"favor" :  False ,
     "read" : False,    
"title" : "奸妃",
"titleTip" : "奸妃",
"titleSummary" : "奸妃",
"descSummary" : "她是人们口中狐媚惑主的\u201C奸妃\u201D，她是后宫翻云覆雨的幕后推手，她被迫受宠却又主动下堂。一个...",
"url" : "http:\/\/go.rss.sina.com.cn\/redirect.php?url=http:\/\/vip.book.sina.com.cn\/book\/index_144154.html",
"pubDate" : "2013年8月28日",
"enterDate" : "384076:03:21",
"channelId" : "6595358247649711959",
"channelName" : "总排行榜-新浪读书",
"channelNameSummary" : "总排行榜-新浪读书",
"channelUrl" : "http:\/\/book.sina.com.cn\/",
"author" : "WWW.SINA.COM.CN",
"tags" : [],
"desc" : "她是人们口中狐媚惑主的\u201C奸妃\u201D，她是后宫翻云覆雨的幕后推手，她被迫受宠却又主动下堂。一个相貌平凡的女子如何能让帝王念念不忘？她给了他一个局，一个最终也逃脱不开的局。一盘苦菊，让他在佳丽三千中，记住了她，也开始了她被荣耀、被繁华的凄苦命运。从淡然无为到机关算尽，....",
"emailed" : False,
"forwarded" : False,
"english" : False
}  , {
"index" : 16,
"articleIndex" : "1510",
"favor" :  False ,
     "read" : False,    
"title" : "最后一个道士2",
"titleTip" : "最后一个道士2",
"titleSummary" : "最后一个道士2",
"descSummary" : "查文斌--中国茅山派最后一位茅山祖印持有者，他是中国最神秘的民间道士。他救人于阴阳...",
"url" : "http:\/\/go.rss.sina.com.cn\/redirect.php?url=http:\/\/vip.book.sina.com.cn\/book\/index_230756.html",
"pubDate" : "2013年4月23日",
"enterDate" : "381004:02:28",
"channelId" : "6595358247649711959",
"channelName" : "总排行榜-新浪读书",
"channelNameSummary" : "总排行榜-新浪读书",
"channelUrl" : "http:\/\/book.sina.com.cn\/",
"author" : "WWW.SINA.COM.CN",
"tags" : [],
"desc" : "查文斌\u2015\u2015中国茅山派最后一位茅山祖印持有者，他是中国最神秘的民间道士。他救人于阴阳之间，却引火烧身；他带你了解道术中最不为人知的秘密，揭开阴间生死簿密码；他的经历传奇而真实，几十年来从未被关注的离奇故事正式揭晓。凡人究竟能否改变上天注定的命运，失落的村庄究竟暗....",
"emailed" : False,
"forwarded" : False,
"english" : False
}  , {
"index" : 17,
"articleIndex" : "1520",
"favor" :  False ,
     "read" : False,    
"title" : "乱世枭雄",
"titleTip" : "乱世枭雄",
"titleSummary" : "乱世枭雄",
"descSummary" : "《乱世枭雄》共五部，全书共二百多万字，本书是第一部《风起云涌》。这是一部著名评书艺术...",
"url" : "http:\/\/go.rss.sina.com.cn\/redirect.php?url=http:\/\/vip.book.sina.com.cn\/book\/index_210273.html",
"pubDate" : "2012年7月13日",
"enterDate" : "373977:35:39",
"channelId" : "6595358247649711959",
"channelName" : "总排行榜-新浪读书",
"channelNameSummary" : "总排行榜-新浪读书",
"channelUrl" : "http:\/\/book.sina.com.cn\/",
"author" : "WWW.SINA.COM.CN",
"tags" : [],
"desc" : "《乱世枭雄》共五部，全书共二百多万字，本书是第一部《风起云涌》。这是一部著名评书艺术大师单田芳最为满意亿万粉丝最为喜爱的评书经典，一部融政治、历史、军事、权谋于一体的百科全书，一部揭示中国传统文化没落与重生的长篇巨著。它深度讲述了一代枭雄张作霖及张学良父子的传....",
"emailed" : False,
"forwarded" : False,
"english" : False
}  , {
"index" : 18,
"articleIndex" : "1511",
"favor" :  False ,
     "read" : False,    
"title" : "失宠皇后",
"titleTip" : "失宠皇后",
"titleSummary" : "失宠皇后",
"descSummary" : "大婚当夜，他尽显无情。一切只因，他不愿娶她为后。在他眼中，她贪慕虚荣，毒如蛇蝎。他惟...",
"url" : "http:\/\/go.rss.sina.com.cn\/redirect.php?url=http:\/\/vip.book.sina.com.cn\/book\/index_145153.html",
"pubDate" : "2012年1月2日",
"enterDate" : "369535:27:52",
"channelId" : "6595358247649711959",
"channelName" : "总排行榜-新浪读书",
"channelNameSummary" : "总排行榜-新浪读书",
"channelUrl" : "http:\/\/book.sina.com.cn\/",
"author" : "WWW.SINA.COM.CN",
"tags" : [],
"desc" : "大婚当夜，他尽显无情。一切只因，他不愿娶她为后。在他眼中，她贪慕虚荣，毒如蛇蝎。他惟独珍惜着那一位娇弱美人，他的残暴冷酷，从来不在那个女子面前显露。寂寞深宫，她得不到他的喜爱，却得到更多的折磨。芙蓉帐暖，她只夜夜泪垂。彻底的给予，换来的却是无情的摧残。倾心相付....",
"emailed" : False,
"forwarded" : False,
"english" : False
}  , {
"index" : 19,
"articleIndex" : "1521",
"favor" :  False ,
     "read" : False,    
"title" : "川岛芳子生死大揭秘",
"titleTip" : "川岛芳子生死大揭秘",
"titleSummary" : "川岛芳子生死大揭秘",
"descSummary" : "她，位尊\u201C格格\u201D，却成为日本浪人的养女；她，胸怀复辟清朝的大志，却沦为万民...",
"url" : "http:\/\/go.rss.sina.com.cn\/redirect.php?url=http:\/\/vip.book.sina.com.cn\/book\/index_135485.html",
"pubDate" : "2010年7月29日",
"enterDate" : "356735:33:02",
"channelId" : "6595358247649711959",
"channelName" : "总排行榜-新浪读书",
"channelNameSummary" : "总排行榜-新浪读书",
"channelUrl" : "http:\/\/book.sina.com.cn\/",
"author" : "WWW.SINA.COM.CN",
"tags" : [],
"desc" : "她，位尊\u201C格格\u201D，却成为日本浪人的养女；她，胸怀复辟清朝的大志，却沦为万民唾弃的汉奸；她，貌美如花，却自甘堕落；她，被执行枪决，却奇迹般的\u201C潜伏\u201D了30年\u2026\u2026她就是曾经名噪一时、蜚声海外的男装丽人、一代谍后的川岛芳子。而关于她众多传闻中最为人关注的是她的生死之谜....",
"emailed" : False,
"forwarded" : False,
"english" : False
} ]
}
