{
"mode" : {"viewTitle" : 1,   "viewNew" : 0,  "pageIndex" : 1 },
 "channel" : {"id" : "-4453967312484368010", "booked" : False, "subNumber" : 1, "name" : "行业动态-新浪汽车", "url" : "http:\/\/auto.sina.com.cn\/news\/t\/index.shtml", "feed" : "http:\/\/rss.sina.com.cn\/auto\/news\/t\/index.xml", "author" : "WWW.SINA.COM.CN", "desc" : "行业动态-要闻列表", "imageUrl" : "http:\/\/www.sinaimg.cn\/dy\/auto\/index\/topbar_03.gif", "postPerWeek" : "0", "lastCrawTime" : "16:57:01", "crawDateTime" : "16:57:01", "lastHttpCode" : "200"}, "page" : {
"startIndex" : 0,
"totalCount" : 5000,
"pageIndex" : 1,
"lastPage" : 250,
"pageSize" : 20,
"english" :  False },
 "unreadNum" : 0, "shotIndex" : -1,
"articles" : [
{
"index" : 0,
"articleIndex" : "8175",
"favor" :  False ,
     "read" : False,    
"title" : "北京机动车闯限行明年拟罚钱又扣分",
"titleTip" : "北京机动车闯限行明年拟罚钱又扣分",
"titleSummary" : "北京机动车闯限行明年拟罚钱又扣分",
"descSummary" : "",
"url" : "http:\/\/go.rss.sina.com.cn\/redirect.php?url=http:\/\/auto.sina.com.cn\/news\/2013-10-30\/08491241289.shtml",
"pubDate" : "08:49:31",
"enterDate" : "384201:13:44",
"channelId" : "-4453967312484368010",
"channelName" : "行业动态-新浪汽车",
"channelNameSummary" : "行业动态-新浪汽车",
"channelUrl" : "http:\/\/auto.sina.com.cn\/news\/t\/index.shtml",
"author" : "WWW.SINA.COM.CN",
"tags" : [],
"desc" : "",
"emailed" : False,
"forwarded" : False,
"english" : False
}  , {
"index" : 1,
"articleIndex" : "8174",
"favor" :  False ,
     "read" : False,    
"title" : "今年国内已召回超188万辆车 本田大众居前",
"titleTip" : "今年国内已召回超188万辆车 本田大众居前",
"titleSummary" : "今年国内已召回超188万辆车 本田大众居前",
"descSummary" : "",
"url" : "http:\/\/go.rss.sina.com.cn\/redirect.php?url=http:\/\/auto.sina.com.cn\/news\/2013-10-30\/08351241252.shtml",
"pubDate" : "08:35:00",
"enterDate" : "384200:59:13",
"channelId" : "-4453967312484368010",
"channelName" : "行业动态-新浪汽车",
"channelNameSummary" : "行业动态-新浪汽车",
"channelUrl" : "http:\/\/auto.sina.com.cn\/news\/t\/index.shtml",
"author" : "WWW.SINA.COM.CN",
"tags" : [],
"desc" : "",
"emailed" : False,
"forwarded" : False,
"english" : False
}  , {
"index" : 2,
"articleIndex" : "8173",
"favor" :  False ,
     "read" : False,    
"title" : "研究：车内有毒物质吞噬人体健康",
"titleTip" : "研究：车内有毒物质吞噬人体健康",
"titleSummary" : "研究：车内有毒物质吞噬人体健康",
"descSummary" : "",
"url" : "http:\/\/go.rss.sina.com.cn\/redirect.php?url=http:\/\/auto.sina.com.cn\/news\/2013-10-30\/08291241244.shtml",
"pubDate" : "08:29:24",
"enterDate" : "384200:53:37",
"channelId" : "-4453967312484368010",
"channelName" : "行业动态-新浪汽车",
"channelNameSummary" : "行业动态-新浪汽车",
"channelUrl" : "http:\/\/auto.sina.com.cn\/news\/t\/index.shtml",
"author" : "WWW.SINA.COM.CN",
"tags" : [],
"desc" : "",
"emailed" : False,
"forwarded" : False,
"english" : False
}  , {
"index" : 3,
"articleIndex" : "8171",
"favor" :  False ,
     "read" : False,    
"title" : "\"两桶油\"发第三季度财报 日均赚5.38亿元",
"titleTip" : "\"两桶油\"发第三季度财报 日均赚5.38亿元",
"titleSummary" : "\"两桶油\"发第三季度财报 日均赚5.38亿元",
"descSummary" : "",
"url" : "http:\/\/go.rss.sina.com.cn\/redirect.php?url=http:\/\/auto.sina.com.cn\/news\/2013-10-30\/08061241232.shtml",
"pubDate" : "08:06:08",
"enterDate" : "384201:00:26",
"channelId" : "-4453967312484368010",
"channelName" : "行业动态-新浪汽车",
"channelNameSummary" : "行业动态-新浪汽车",
"channelUrl" : "http:\/\/auto.sina.com.cn\/news\/t\/index.shtml",
"author" : "WWW.SINA.COM.CN",
"tags" : [],
"desc" : "",
"emailed" : False,
"forwarded" : False,
"english" : False
}  , {
"index" : 4,
"articleIndex" : "8170",
"favor" :  False ,
     "read" : False,    
"title" : "韩国汽车的秘密武器 政府引导竞争",
"titleTip" : "韩国汽车的秘密武器 政府引导竞争",
"titleSummary" : "韩国汽车的秘密武器 政府引导竞争",
"descSummary" : "",
"url" : "http:\/\/go.rss.sina.com.cn\/redirect.php?url=http:\/\/auto.sina.com.cn\/news\/2013-10-30\/08011241229.shtml",
"pubDate" : "08:01:06",
"enterDate" : "384200:55:24",
"channelId" : "-4453967312484368010",
"channelName" : "行业动态-新浪汽车",
"channelNameSummary" : "行业动态-新浪汽车",
"channelUrl" : "http:\/\/auto.sina.com.cn\/news\/t\/index.shtml",
"author" : "WWW.SINA.COM.CN",
"tags" : [],
"desc" : "",
"emailed" : False,
"forwarded" : False,
"english" : False
}  , {
"index" : 5,
"articleIndex" : "8169",
"favor" :  False ,
     "read" : False,    
"title" : "车虫黑4S店网站揽客 层层欺诈甚至卷走购车款",
"titleTip" : "车虫黑4S店网站揽客 层层欺诈甚至卷走购车款",
"titleSummary" : "车虫黑4S店网站揽客 层层欺诈甚至卷走购车款",
"descSummary" : "",
"url" : "http:\/\/go.rss.sina.com.cn\/redirect.php?url=http:\/\/auto.sina.com.cn\/news\/2013-10-30\/07591241228.shtml",
"pubDate" : "07:59:47",
"enterDate" : "384200:54:05",
"channelId" : "-4453967312484368010",
"channelName" : "行业动态-新浪汽车",
"channelNameSummary" : "行业动态-新浪汽车",
"channelUrl" : "http:\/\/auto.sina.com.cn\/news\/t\/index.shtml",
"author" : "WWW.SINA.COM.CN",
"tags" : [],
"desc" : "",
"emailed" : False,
"forwarded" : False,
"english" : False
}  , {
"index" : 6,
"articleIndex" : "8168",
"favor" :  False ,
     "read" : False,    
"title" : "科力远长沙工厂投产 中国开启混动汽车产业化",
"titleTip" : "科力远长沙工厂投产 中国开启混动汽车产业化",
"titleSummary" : "科力远长沙工厂投产 中国开启混动汽车产业化",
"descSummary" : "",
"url" : "http:\/\/go.rss.sina.com.cn\/redirect.php?url=http:\/\/auto.sina.com.cn\/news\/2013-10-30\/07571241227.shtml",
"pubDate" : "07:57:01",
"enterDate" : "384200:51:19",
"channelId" : "-4453967312484368010",
"channelName" : "行业动态-新浪汽车",
"channelNameSummary" : "行业动态-新浪汽车",
"channelUrl" : "http:\/\/auto.sina.com.cn\/news\/t\/index.shtml",
"author" : "WWW.SINA.COM.CN",
"tags" : [],
"desc" : "",
"emailed" : False,
"forwarded" : False,
"english" : False
}  , {
"index" : 7,
"articleIndex" : "8167",
"favor" :  False ,
     "read" : False,    
"title" : "电动出租车年底将达1600辆 每天充电两次",
"titleTip" : "电动出租车年底将达1600辆 每天充电两次",
"titleSummary" : "电动出租车年底将达1600辆 每天充电两次",
"descSummary" : "",
"url" : "http:\/\/go.rss.sina.com.cn\/redirect.php?url=http:\/\/auto.sina.com.cn\/news\/2013-10-30\/07511241225.shtml",
"pubDate" : "07:51:32",
"enterDate" : "384200:45:50",
"channelId" : "-4453967312484368010",
"channelName" : "行业动态-新浪汽车",
"channelNameSummary" : "行业动态-新浪汽车",
"channelUrl" : "http:\/\/auto.sina.com.cn\/news\/t\/index.shtml",
"author" : "WWW.SINA.COM.CN",
"tags" : [],
"desc" : "",
"emailed" : False,
"forwarded" : False,
"english" : False
}  , {
"index" : 8,
"articleIndex" : "8166",
"favor" :  False ,
     "read" : False,    
"title" : "北京提高机动车使用成本 遵循排污者付费原则",
"titleTip" : "北京提高机动车使用成本 遵循排污者付费原则",
"titleSummary" : "北京提高机动车使用成本 遵循排污者付费原则",
"descSummary" : "",
"url" : "http:\/\/go.rss.sina.com.cn\/redirect.php?url=http:\/\/auto.sina.com.cn\/news\/2013-10-30\/07501241224.shtml",
"pubDate" : "07:50:36",
"enterDate" : "384200:44:54",
"channelId" : "-4453967312484368010",
"channelName" : "行业动态-新浪汽车",
"channelNameSummary" : "行业动态-新浪汽车",
"channelUrl" : "http:\/\/auto.sina.com.cn\/news\/t\/index.shtml",
"author" : "WWW.SINA.COM.CN",
"tags" : [],
"desc" : "",
"emailed" : False,
"forwarded" : False,
"english" : False
}  , {
"index" : 9,
"articleIndex" : "8165",
"favor" :  False ,
     "read" : False,    
"title" : "欧盟可能延后实施废气排放新标准",
"titleTip" : "欧盟可能延后实施废气排放新标准",
"titleSummary" : "欧盟可能延后实施废气排放新标准",
"descSummary" : "",
"url" : "http:\/\/go.rss.sina.com.cn\/redirect.php?url=http:\/\/auto.sina.com.cn\/news\/2013-10-30\/07381241212.shtml",
"pubDate" : "07:38:07",
"enterDate" : "384200:32:25",
"channelId" : "-4453967312484368010",
"channelName" : "行业动态-新浪汽车",
"channelNameSummary" : "行业动态-新浪汽车",
"channelUrl" : "http:\/\/auto.sina.com.cn\/news\/t\/index.shtml",
"author" : "WWW.SINA.COM.CN",
"tags" : [],
"desc" : "",
"emailed" : False,
"forwarded" : False,
"english" : False
}  , {
"index" : 10,
"articleIndex" : "8164",
"favor" :  False ,
     "read" : False,    
"title" : "豪华品牌与超豪华品牌竞争加剧",
"titleTip" : "豪华品牌与超豪华品牌竞争加剧",
"titleSummary" : "豪华品牌与超豪华品牌竞争加剧",
"descSummary" : "",
"url" : "http:\/\/go.rss.sina.com.cn\/redirect.php?url=http:\/\/auto.sina.com.cn\/news\/2013-10-30\/07291241179.shtml",
"pubDate" : "07:29:07",
"enterDate" : "384200:23:25",
"channelId" : "-4453967312484368010",
"channelName" : "行业动态-新浪汽车",
"channelNameSummary" : "行业动态-新浪汽车",
"channelUrl" : "http:\/\/auto.sina.com.cn\/news\/t\/index.shtml",
"author" : "WWW.SINA.COM.CN",
"tags" : [],
"desc" : "",
"emailed" : False,
"forwarded" : False,
"english" : False
}  , {
"index" : 11,
"articleIndex" : "8163",
"favor" :  False ,
     "read" : False,    
"title" : "盘点销量占比超过一半的\u201C神车们\u201D",
"titleTip" : "盘点销量占比超过一半的\u201C神车们\u201D",
"titleSummary" : "盘点销量占比超过一半的\u201C神车们\u201D",
"descSummary" : "",
"url" : "http:\/\/go.rss.sina.com.cn\/redirect.php?url=http:\/\/auto.sina.com.cn\/news\/2013-10-30\/07261241177.shtml",
"pubDate" : "07:26:47",
"enterDate" : "384200:21:05",
"channelId" : "-4453967312484368010",
"channelName" : "行业动态-新浪汽车",
"channelNameSummary" : "行业动态-新浪汽车",
"channelUrl" : "http:\/\/auto.sina.com.cn\/news\/t\/index.shtml",
"author" : "WWW.SINA.COM.CN",
"tags" : [],
"desc" : "",
"emailed" : False,
"forwarded" : False,
"english" : False
}  , {
"index" : 12,
"articleIndex" : "8162",
"favor" :  False ,
     "read" : False,    
"title" : "48家车企面临被\u201C劝退\u201D 9家广东车企上榜",
"titleTip" : "48家车企面临被\u201C劝退\u201D 9家广东车企上榜",
"titleSummary" : "48家车企面临被\u201C劝退\u201D 9家广东车企上榜",
"descSummary" : "",
"url" : "http:\/\/go.rss.sina.com.cn\/redirect.php?url=http:\/\/auto.sina.com.cn\/news\/2013-10-30\/07231241175.shtml",
"pubDate" : "07:23:54",
"enterDate" : "384200:18:12",
"channelId" : "-4453967312484368010",
"channelName" : "行业动态-新浪汽车",
"channelNameSummary" : "行业动态-新浪汽车",
"channelUrl" : "http:\/\/auto.sina.com.cn\/news\/t\/index.shtml",
"author" : "WWW.SINA.COM.CN",
"tags" : [],
"desc" : "",
"emailed" : False,
"forwarded" : False,
"english" : False
}  , {
"index" : 13,
"articleIndex" : "8161",
"favor" :  False ,
     "read" : False,    
"title" : "王侠：抓住机遇迎接专用车行业新发展高峰",
"titleTip" : "王侠：抓住机遇迎接专用车行业新发展高峰",
"titleSummary" : "王侠：抓住机遇迎接专用车行业新发展高峰",
"descSummary" : "",
"url" : "http:\/\/go.rss.sina.com.cn\/redirect.php?url=http:\/\/auto.sina.com.cn\/news\/2013-10-29\/18041241027.shtml",
"pubDate" : "昨天18:04:45",
"enterDate" : "384201:02:18",
"channelId" : "-4453967312484368010",
"channelName" : "行业动态-新浪汽车",
"channelNameSummary" : "行业动态-新浪汽车",
"channelUrl" : "http:\/\/auto.sina.com.cn\/news\/t\/index.shtml",
"author" : "WWW.SINA.COM.CN",
"tags" : [],
"desc" : "",
"emailed" : False,
"forwarded" : False,
"english" : False
}  , {
"index" : 14,
"articleIndex" : "8160",
"favor" :  False ,
     "read" : False,    
"title" : "2013中国年度家用汽车评选正式启动",
"titleTip" : "2013中国年度家用汽车评选正式启动",
"titleSummary" : "2013中国年度家用汽车评选正式启动",
"descSummary" : "",
"url" : "http:\/\/go.rss.sina.com.cn\/redirect.php?url=http:\/\/auto.sina.com.cn\/news\/2013-10-29\/17061241021.shtml",
"pubDate" : "昨天17:06:56",
"enterDate" : "384200:49:39",
"channelId" : "-4453967312484368010",
"channelName" : "行业动态-新浪汽车",
"channelNameSummary" : "行业动态-新浪汽车",
"channelUrl" : "http:\/\/auto.sina.com.cn\/news\/t\/index.shtml",
"author" : "WWW.SINA.COM.CN",
"tags" : [],
"desc" : "",
"emailed" : False,
"forwarded" : False,
"english" : False
}  , {
"index" : 15,
"articleIndex" : "8159",
"favor" :  False ,
     "read" : False,    
"title" : "《家用汽车》杂志即将迎来100期创刊",
"titleTip" : "《家用汽车》杂志即将迎来100期创刊",
"titleSummary" : "《家用汽车》杂志即将迎来100期创刊",
"descSummary" : "",
"url" : "http:\/\/go.rss.sina.com.cn\/redirect.php?url=http:\/\/auto.sina.com.cn\/news\/2013-10-29\/17021241019.shtml",
"pubDate" : "昨天17:02:59",
"enterDate" : "384200:45:42",
"channelId" : "-4453967312484368010",
"channelName" : "行业动态-新浪汽车",
"channelNameSummary" : "行业动态-新浪汽车",
"channelUrl" : "http:\/\/auto.sina.com.cn\/news\/t\/index.shtml",
"author" : "WWW.SINA.COM.CN",
"tags" : [],
"desc" : "",
"emailed" : False,
"forwarded" : False,
"english" : False
}  , {
"index" : 16,
"articleIndex" : "8157",
"favor" :  False ,
     "read" : False,    
"title" : "特斯拉起火梅开二度 NHTSA称无缺陷",
"titleTip" : "特斯拉起火梅开二度 NHTSA称无缺陷",
"titleSummary" : "特斯拉起火梅开二度 NHTSA称无缺陷",
"descSummary" : "",
"url" : "http:\/\/go.rss.sina.com.cn\/redirect.php?url=http:\/\/auto.sina.com.cn\/news\/2013-10-29\/14521240974.shtml",
"pubDate" : "昨天14:52:16",
"enterDate" : "384200:35:19",
"channelId" : "-4453967312484368010",
"channelName" : "行业动态-新浪汽车",
"channelNameSummary" : "行业动态-新浪汽车",
"channelUrl" : "http:\/\/auto.sina.com.cn\/news\/t\/index.shtml",
"author" : "WWW.SINA.COM.CN",
"tags" : [],
"desc" : "",
"emailed" : False,
"forwarded" : False,
"english" : False
}  , {
"index" : 17,
"articleIndex" : "8156",
"favor" :  False ,
     "read" : False,    
"title" : "城镇化或为自主品牌最后机遇 营销待创新",
"titleTip" : "城镇化或为自主品牌最后机遇 营销待创新",
"titleSummary" : "城镇化或为自主品牌最后机遇 营销待创新",
"descSummary" : "",
"url" : "http:\/\/go.rss.sina.com.cn\/redirect.php?url=http:\/\/auto.sina.com.cn\/news\/2013-10-29\/10041240854.shtml",
"pubDate" : "昨天10:04:47",
"enterDate" : "384201:03:42",
"channelId" : "-4453967312484368010",
"channelName" : "行业动态-新浪汽车",
"channelNameSummary" : "行业动态-新浪汽车",
"channelUrl" : "http:\/\/auto.sina.com.cn\/news\/t\/index.shtml",
"author" : "WWW.SINA.COM.CN",
"tags" : [],
"desc" : "",
"emailed" : False,
"forwarded" : False,
"english" : False
}  , {
"index" : 18,
"articleIndex" : "8158",
"favor" :  False ,
     "read" : False,    
"title" : "工信部:48家汽车企业须在两年内进行整改",
"titleTip" : "工信部:48家汽车企业须在两年内进行整改",
"titleSummary" : "工信部:48家汽车企业须在两年内进行整改",
"descSummary" : "",
"url" : "http:\/\/go.rss.sina.com.cn\/redirect.php?url=http:\/\/auto.sina.com.cn\/news\/2013-10-29\/06561240632.shtml",
"pubDate" : "昨天06:56:18",
"enterDate" : "384191:39:11",
"channelId" : "-4453967312484368010",
"channelName" : "行业动态-新浪汽车",
"channelNameSummary" : "行业动态-新浪汽车",
"channelUrl" : "http:\/\/auto.sina.com.cn\/news\/t\/index.shtml",
"author" : "WWW.SINA.COM.CN",
"tags" : [],
"desc" : "",
"emailed" : False,
"forwarded" : False,
"english" : False
}  , {
"index" : 19,
"articleIndex" : "8172",
"favor" :  False ,
     "read" : False,    
"title" : "欧洲汽车产能过剩7百万辆 仍需关18座工厂",
"titleTip" : "欧洲汽车产能过剩7百万辆 仍需关18座工厂",
"titleSummary" : "欧洲汽车产能过剩7百万辆 仍需关18座工厂",
"descSummary" : "",
"url" : "http:\/\/go.rss.sina.com.cn\/redirect.php?url=http:\/\/auto.sina.com.cn\/car\/2013-10-28\/09071240273.shtml",
"pubDate" : "前天09:07:41",
"enterDate" : "384153:31:54",
"channelId" : "-4453967312484368010",
"channelName" : "行业动态-新浪汽车",
"channelNameSummary" : "行业动态-新浪汽车",
"channelUrl" : "http:\/\/auto.sina.com.cn\/news\/t\/index.shtml",
"author" : "WWW.SINA.COM.CN",
"tags" : [],
"desc" : "",
"emailed" : False,
"forwarded" : False,
"english" : False
} ]
}
