{
"mode" : {"viewTitle" : 1,   "viewNew" : 0,  "pageIndex" : 2 },
 "channel" : {"id" : "-4453967312484368010", "booked" : False, "subNumber" : 1, "name" : "行业动态-新浪汽车", "url" : "http:\/\/auto.sina.com.cn\/news\/t\/index.shtml", "feed" : "http:\/\/rss.sina.com.cn\/auto\/news\/t\/index.xml", "author" : "WWW.SINA.COM.CN", "desc" : "行业动态-要闻列表", "imageUrl" : "http:\/\/www.sinaimg.cn\/dy\/auto\/index\/topbar_03.gif", "postPerWeek" : "0", "lastCrawTime" : "16:57:01", "crawDateTime" : "16:57:01", "lastHttpCode" : "200"}, "page" : {
"startIndex" : 20,
"totalCount" : 5000,
"pageIndex" : 2,
"lastPage" : 250,
"pageSize" : 20,
"english" :  False },
 "unreadNum" : 0, "shotIndex" : -1,
"articles" : [
{
"index" : 0,
"articleIndex" : "8150",
"favor" :  False ,
     "read" : False,    
"title" : "混合动力是实现2020油耗目标的必然选择",
"titleTip" : "混合动力是实现2020油耗目标的必然选择",
"titleSummary" : "混合动力是实现2020油耗目标的必然选择",
"descSummary" : "",
"url" : "http:\/\/go.rss.sina.com.cn\/redirect.php?url=http:\/\/auto.sina.com.cn\/news\/2013-10-29\/09051240772.shtml",
"pubDate" : "昨天09:05:32",
"enterDate" : "384201:04:38",
"channelId" : "-4453967312484368010",
"channelName" : "行业动态-新浪汽车",
"channelNameSummary" : "行业动态-新浪汽车",
"channelUrl" : "http:\/\/auto.sina.com.cn\/news\/t\/index.shtml",
"author" : "WWW.SINA.COM.CN",
"tags" : [],
"desc" : "",
"emailed" : False,
"forwarded" : False,
"english" : False
}  , {
"index" : 1,
"articleIndex" : "8151",
"favor" :  False ,
     "read" : False,    
"title" : "混合动力是实现2020油耗目标的必然选择(3)",
"titleTip" : "混合动力是实现2020油耗目标的必然选择(3)",
"titleSummary" : "混合动力是实现2020油耗目标的必然选择(3)",
"descSummary" : "",
"url" : "http:\/\/go.rss.sina.com.cn\/redirect.php?url=http:\/\/auto.sina.com.cn\/news\/2013-10-29\/09051240772_3.shtml",
"pubDate" : "昨天09:05:32",
"enterDate" : "384201:04:38",
"channelId" : "-4453967312484368010",
"channelName" : "行业动态-新浪汽车",
"channelNameSummary" : "行业动态-新浪汽车",
"channelUrl" : "http:\/\/auto.sina.com.cn\/news\/t\/index.shtml",
"author" : "WWW.SINA.COM.CN",
"tags" : [],
"desc" : "",
"emailed" : False,
"forwarded" : False,
"english" : False
}  , {
"index" : 2,
"articleIndex" : "8152",
"favor" :  False ,
     "read" : False,    
"title" : "混合动力是实现2020油耗目标的必然选择(4)",
"titleTip" : "混合动力是实现2020油耗目标的必然选择(4)",
"titleSummary" : "混合动力是实现2020油耗目标的必然选择(4)",
"descSummary" : "",
"url" : "http:\/\/go.rss.sina.com.cn\/redirect.php?url=http:\/\/auto.sina.com.cn\/news\/2013-10-29\/09051240772_4.shtml",
"pubDate" : "昨天09:05:32",
"enterDate" : "384201:04:38",
"channelId" : "-4453967312484368010",
"channelName" : "行业动态-新浪汽车",
"channelNameSummary" : "行业动态-新浪汽车",
"channelUrl" : "http:\/\/auto.sina.com.cn\/news\/t\/index.shtml",
"author" : "WWW.SINA.COM.CN",
"tags" : [],
"desc" : "",
"emailed" : False,
"forwarded" : False,
"english" : False
}  , {
"index" : 3,
"articleIndex" : "8153",
"favor" :  False ,
     "read" : False,    
"title" : "混合动力是实现2020油耗目标的必然选择(5)",
"titleTip" : "混合动力是实现2020油耗目标的必然选择(5)",
"titleSummary" : "混合动力是实现2020油耗目标的必然选择(5)",
"descSummary" : "",
"url" : "http:\/\/go.rss.sina.com.cn\/redirect.php?url=http:\/\/auto.sina.com.cn\/news\/2013-10-29\/09051240772_5.shtml",
"pubDate" : "昨天09:05:32",
"enterDate" : "384201:04:38",
"channelId" : "-4453967312484368010",
"channelName" : "行业动态-新浪汽车",
"channelNameSummary" : "行业动态-新浪汽车",
"channelUrl" : "http:\/\/auto.sina.com.cn\/news\/t\/index.shtml",
"author" : "WWW.SINA.COM.CN",
"tags" : [],
"desc" : "",
"emailed" : False,
"forwarded" : False,
"english" : False
}  , {
"index" : 4,
"articleIndex" : "8154",
"favor" :  False ,
     "read" : False,    
"title" : "混合动力是实现2020油耗目标的必然选择(6)",
"titleTip" : "混合动力是实现2020油耗目标的必然选择(6)",
"titleSummary" : "混合动力是实现2020油耗目标的必然选择(6)",
"descSummary" : "",
"url" : "http:\/\/go.rss.sina.com.cn\/redirect.php?url=http:\/\/auto.sina.com.cn\/news\/2013-10-29\/09051240772_6.shtml",
"pubDate" : "昨天09:05:32",
"enterDate" : "384201:04:38",
"channelId" : "-4453967312484368010",
"channelName" : "行业动态-新浪汽车",
"channelNameSummary" : "行业动态-新浪汽车",
"channelUrl" : "http:\/\/auto.sina.com.cn\/news\/t\/index.shtml",
"author" : "WWW.SINA.COM.CN",
"tags" : [],
"desc" : "",
"emailed" : False,
"forwarded" : False,
"english" : False
}  , {
"index" : 5,
"articleIndex" : "8155",
"favor" :  False ,
     "read" : False,    
"title" : "混合动力是实现2020油耗目标的必然选择(2)",
"titleTip" : "混合动力是实现2020油耗目标的必然选择(2)",
"titleSummary" : "混合动力是实现2020油耗目标的必然选择(2)",
"descSummary" : "",
"url" : "http:\/\/go.rss.sina.com.cn\/redirect.php?url=http:\/\/auto.sina.com.cn\/news\/2013-10-29\/09051240772_2.shtml",
"pubDate" : "昨天09:05:32",
"enterDate" : "384201:04:38",
"channelId" : "-4453967312484368010",
"channelName" : "行业动态-新浪汽车",
"channelNameSummary" : "行业动态-新浪汽车",
"channelUrl" : "http:\/\/auto.sina.com.cn\/news\/t\/index.shtml",
"author" : "WWW.SINA.COM.CN",
"tags" : [],
"desc" : "",
"emailed" : False,
"forwarded" : False,
"english" : False
}  , {
"index" : 6,
"articleIndex" : "8149",
"favor" :  False ,
     "read" : False,    
"title" : "财政部：今年重型载货车补贴每车1.8万元",
"titleTip" : "财政部：今年重型载货车补贴每车1.8万元",
"titleSummary" : "财政部：今年重型载货车补贴每车1.8万元",
"descSummary" : "",
"url" : "http:\/\/go.rss.sina.com.cn\/redirect.php?url=http:\/\/auto.sina.com.cn\/news\/2013-10-29\/08151240741.shtml",
"pubDate" : "昨天08:15:37",
"enterDate" : "384201:14:55",
"channelId" : "-4453967312484368010",
"channelName" : "行业动态-新浪汽车",
"channelNameSummary" : "行业动态-新浪汽车",
"channelUrl" : "http:\/\/auto.sina.com.cn\/news\/t\/index.shtml",
"author" : "WWW.SINA.COM.CN",
"tags" : [],
"desc" : "",
"emailed" : False,
"forwarded" : False,
"english" : False
}  , {
"index" : 7,
"articleIndex" : "8148",
"favor" :  False ,
     "read" : False,    
"title" : "车内空气污染\u201C有标没用\u201D尴尬将终结",
"titleTip" : "车内空气污染\u201C有标没用\u201D尴尬将终结",
"titleSummary" : "车内空气污染\u201C有标没用\u201D尴尬将终结",
"descSummary" : "",
"url" : "http:\/\/go.rss.sina.com.cn\/redirect.php?url=http:\/\/auto.sina.com.cn\/news\/2013-10-29\/07501240702.shtml",
"pubDate" : "昨天07:50:27",
"enterDate" : "384200:49:45",
"channelId" : "-4453967312484368010",
"channelName" : "行业动态-新浪汽车",
"channelNameSummary" : "行业动态-新浪汽车",
"channelUrl" : "http:\/\/auto.sina.com.cn\/news\/t\/index.shtml",
"author" : "WWW.SINA.COM.CN",
"tags" : [],
"desc" : "",
"emailed" : False,
"forwarded" : False,
"english" : False
}  , {
"index" : 8,
"articleIndex" : "8147",
"favor" :  False ,
     "read" : False,    
"title" : "\u201C双11\u201D卖车车商有点痛 网站宣传声势浩大",
"titleTip" : "\u201C双11\u201D卖车车商有点痛 网站宣传声势浩大",
"titleSummary" : "\u201C双11\u201D卖车车商有点痛 网站宣传声势浩大",
"descSummary" : "",
"url" : "http:\/\/go.rss.sina.com.cn\/redirect.php?url=http:\/\/auto.sina.com.cn\/news\/2013-10-29\/07481240700.shtml",
"pubDate" : "昨天07:48:48",
"enterDate" : "384200:48:06",
"channelId" : "-4453967312484368010",
"channelName" : "行业动态-新浪汽车",
"channelNameSummary" : "行业动态-新浪汽车",
"channelUrl" : "http:\/\/auto.sina.com.cn\/news\/t\/index.shtml",
"author" : "WWW.SINA.COM.CN",
"tags" : [],
"desc" : "",
"emailed" : False,
"forwarded" : False,
"english" : False
}  , {
"index" : 9,
"articleIndex" : "8146",
"favor" :  False ,
     "read" : False,    
"title" : "进口车在俄罗斯挑战\u201C国车\u201D拉达霸主地位",
"titleTip" : "进口车在俄罗斯挑战\u201C国车\u201D拉达霸主地位",
"titleSummary" : "进口车在俄罗斯挑战\u201C国车\u201D拉达霸主地位",
"descSummary" : "",
"url" : "http:\/\/go.rss.sina.com.cn\/redirect.php?url=http:\/\/auto.sina.com.cn\/news\/2013-10-29\/07471240699.shtml",
"pubDate" : "昨天07:47:02",
"enterDate" : "384200:46:20",
"channelId" : "-4453967312484368010",
"channelName" : "行业动态-新浪汽车",
"channelNameSummary" : "行业动态-新浪汽车",
"channelUrl" : "http:\/\/auto.sina.com.cn\/news\/t\/index.shtml",
"author" : "WWW.SINA.COM.CN",
"tags" : [],
"desc" : "",
"emailed" : False,
"forwarded" : False,
"english" : False
}  , {
"index" : 10,
"articleIndex" : "8145",
"favor" :  False ,
     "read" : False,    
"title" : "接轨汽车三包新规 修理厂面临\u201C大考\u201D？",
"titleTip" : "接轨汽车三包新规 修理厂面临\u201C大考\u201D？",
"titleSummary" : "接轨汽车三包新规 修理厂面临\u201C大考\u201D？",
"descSummary" : "",
"url" : "http:\/\/go.rss.sina.com.cn\/redirect.php?url=http:\/\/auto.sina.com.cn\/news\/2013-10-29\/07371240696.shtml",
"pubDate" : "昨天07:37:12",
"enterDate" : "384200:36:30",
"channelId" : "-4453967312484368010",
"channelName" : "行业动态-新浪汽车",
"channelNameSummary" : "行业动态-新浪汽车",
"channelUrl" : "http:\/\/auto.sina.com.cn\/news\/t\/index.shtml",
"author" : "WWW.SINA.COM.CN",
"tags" : [],
"desc" : "",
"emailed" : False,
"forwarded" : False,
"english" : False
}  , {
"index" : 11,
"articleIndex" : "8144",
"favor" :  False ,
     "read" : False,    
"title" : "超跑遭遇\u201C减速带\u201D 高性能跑车逆势增长",
"titleTip" : "超跑遭遇\u201C减速带\u201D 高性能跑车逆势增长",
"titleSummary" : "超跑遭遇\u201C减速带\u201D 高性能跑车逆势增长",
"descSummary" : "",
"url" : "http:\/\/go.rss.sina.com.cn\/redirect.php?url=http:\/\/auto.sina.com.cn\/news\/2013-10-29\/07331240693.shtml",
"pubDate" : "昨天07:33:33",
"enterDate" : "384200:32:51",
"channelId" : "-4453967312484368010",
"channelName" : "行业动态-新浪汽车",
"channelNameSummary" : "行业动态-新浪汽车",
"channelUrl" : "http:\/\/auto.sina.com.cn\/news\/t\/index.shtml",
"author" : "WWW.SINA.COM.CN",
"tags" : [],
"desc" : "",
"emailed" : False,
"forwarded" : False,
"english" : False
}  , {
"index" : 12,
"articleIndex" : "8143",
"favor" :  False ,
     "read" : False,    
"title" : "兰州宇通等48车企被工信部劝退警告",
"titleTip" : "兰州宇通等48车企被工信部劝退警告",
"titleSummary" : "兰州宇通等48车企被工信部劝退警告",
"descSummary" : "",
"url" : "http:\/\/go.rss.sina.com.cn\/redirect.php?url=http:\/\/auto.sina.com.cn\/news\/2013-10-29\/07311240692.shtml",
"pubDate" : "昨天07:31:01",
"enterDate" : "384200:30:19",
"channelId" : "-4453967312484368010",
"channelName" : "行业动态-新浪汽车",
"channelNameSummary" : "行业动态-新浪汽车",
"channelUrl" : "http:\/\/auto.sina.com.cn\/news\/t\/index.shtml",
"author" : "WWW.SINA.COM.CN",
"tags" : [],
"desc" : "",
"emailed" : False,
"forwarded" : False,
"english" : False
}  , {
"index" : 13,
"articleIndex" : "8142",
"favor" :  False ,
     "read" : False,    
"title" : "轮胎企业呼吁取消天然橡胶20%关税",
"titleTip" : "轮胎企业呼吁取消天然橡胶20%关税",
"titleSummary" : "轮胎企业呼吁取消天然橡胶20%关税",
"descSummary" : "",
"url" : "http:\/\/go.rss.sina.com.cn\/redirect.php?url=http:\/\/auto.sina.com.cn\/news\/2013-10-29\/07261240657.shtml",
"pubDate" : "昨天07:26:49",
"enterDate" : "384200:26:07",
"channelId" : "-4453967312484368010",
"channelName" : "行业动态-新浪汽车",
"channelNameSummary" : "行业动态-新浪汽车",
"channelUrl" : "http:\/\/auto.sina.com.cn\/news\/t\/index.shtml",
"author" : "WWW.SINA.COM.CN",
"tags" : [],
"desc" : "",
"emailed" : False,
"forwarded" : False,
"english" : False
}  , {
"index" : 14,
"articleIndex" : "8141",
"favor" :  False ,
     "read" : False,    
"title" : "2013：豪华车进入拼\u201C智商\u201D元年",
"titleTip" : "2013：豪华车进入拼\u201C智商\u201D元年",
"titleSummary" : "2013：豪华车进入拼\u201C智商\u201D元年",
"descSummary" : "",
"url" : "http:\/\/go.rss.sina.com.cn\/redirect.php?url=http:\/\/auto.sina.com.cn\/news\/2013-10-29\/07171240643.shtml",
"pubDate" : "昨天07:17:07",
"enterDate" : "384200:16:25",
"channelId" : "-4453967312484368010",
"channelName" : "行业动态-新浪汽车",
"channelNameSummary" : "行业动态-新浪汽车",
"channelUrl" : "http:\/\/auto.sina.com.cn\/news\/t\/index.shtml",
"author" : "WWW.SINA.COM.CN",
"tags" : [],
"desc" : "",
"emailed" : False,
"forwarded" : False,
"english" : False
}  , {
"index" : 15,
"articleIndex" : "8140",
"favor" :  False ,
     "read" : False,    
"title" : "二线豪车国产化之路 豪车格局裂变趋势显现",
"titleTip" : "二线豪车国产化之路 豪车格局裂变趋势显现",
"titleSummary" : "二线豪车国产化之路 豪车格局裂变趋势显现",
"descSummary" : "",
"url" : "http:\/\/go.rss.sina.com.cn\/redirect.php?url=http:\/\/auto.sina.com.cn\/news\/2013-10-29\/07161240641.shtml",
"pubDate" : "昨天07:16:12",
"enterDate" : "384200:15:30",
"channelId" : "-4453967312484368010",
"channelName" : "行业动态-新浪汽车",
"channelNameSummary" : "行业动态-新浪汽车",
"channelUrl" : "http:\/\/auto.sina.com.cn\/news\/t\/index.shtml",
"author" : "WWW.SINA.COM.CN",
"tags" : [],
"desc" : "",
"emailed" : False,
"forwarded" : False,
"english" : False
}  , {
"index" : 16,
"articleIndex" : "8139",
"favor" :  False ,
     "read" : False,    
"title" : "赶超日系车 韩系车在华首次进入四强",
"titleTip" : "赶超日系车 韩系车在华首次进入四强",
"titleSummary" : "赶超日系车 韩系车在华首次进入四强",
"descSummary" : "",
"url" : "http:\/\/go.rss.sina.com.cn\/redirect.php?url=http:\/\/auto.sina.com.cn\/news\/2013-10-29\/07131240640.shtml",
"pubDate" : "昨天07:13:55",
"enterDate" : "384200:13:13",
"channelId" : "-4453967312484368010",
"channelName" : "行业动态-新浪汽车",
"channelNameSummary" : "行业动态-新浪汽车",
"channelUrl" : "http:\/\/auto.sina.com.cn\/news\/t\/index.shtml",
"author" : "WWW.SINA.COM.CN",
"tags" : [],
"desc" : "",
"emailed" : False,
"forwarded" : False,
"english" : False
}  , {
"index" : 17,
"articleIndex" : "8138",
"favor" :  False ,
     "read" : False,    
"title" : "扎堆国产 二线豪车重划在华市场格局",
"titleTip" : "扎堆国产 二线豪车重划在华市场格局",
"titleSummary" : "扎堆国产 二线豪车重划在华市场格局",
"descSummary" : "",
"url" : "http:\/\/go.rss.sina.com.cn\/redirect.php?url=http:\/\/auto.sina.com.cn\/news\/2013-10-29\/07091240636.shtml",
"pubDate" : "昨天07:09:05",
"enterDate" : "384201:08:33",
"channelId" : "-4453967312484368010",
"channelName" : "行业动态-新浪汽车",
"channelNameSummary" : "行业动态-新浪汽车",
"channelUrl" : "http:\/\/auto.sina.com.cn\/news\/t\/index.shtml",
"author" : "WWW.SINA.COM.CN",
"tags" : [],
"desc" : "",
"emailed" : False,
"forwarded" : False,
"english" : False
}  , {
"index" : 18,
"articleIndex" : "8137",
"favor" :  False ,
     "read" : False,    
"title" : "停车3分即熄火 理念应大于处罚",
"titleTip" : "停车3分即熄火 理念应大于处罚",
"titleSummary" : "停车3分即熄火 理念应大于处罚",
"descSummary" : "",
"url" : "http:\/\/go.rss.sina.com.cn\/redirect.php?url=http:\/\/auto.sina.com.cn\/news\/2013-10-29\/06491240622.shtml",
"pubDate" : "昨天06:49:18",
"enterDate" : "384200:48:46",
"channelId" : "-4453967312484368010",
"channelName" : "行业动态-新浪汽车",
"channelNameSummary" : "行业动态-新浪汽车",
"channelUrl" : "http:\/\/auto.sina.com.cn\/news\/t\/index.shtml",
"author" : "WWW.SINA.COM.CN",
"tags" : [],
"desc" : "",
"emailed" : False,
"forwarded" : False,
"english" : False
}  , {
"index" : 19,
"articleIndex" : "8136",
"favor" :  False ,
     "read" : False,    
"title" : "中国汽研新基地10月26重庆落成投入使用",
"titleTip" : "中国汽研新基地10月26重庆落成投入使用",
"titleSummary" : "中国汽研新基地10月26重庆落成投入使用",
"descSummary" : "",
"url" : "http:\/\/go.rss.sina.com.cn\/redirect.php?url=http:\/\/auto.sina.com.cn\/news\/2013-10-28\/10581240377.shtml",
"pubDate" : "前天10:58:25",
"enterDate" : "384200:46:37",
"channelId" : "-4453967312484368010",
"channelName" : "行业动态-新浪汽车",
"channelNameSummary" : "行业动态-新浪汽车",
"channelUrl" : "http:\/\/auto.sina.com.cn\/news\/t\/index.shtml",
"author" : "WWW.SINA.COM.CN",
"tags" : [],
"desc" : "",
"emailed" : False,
"forwarded" : False,
"english" : False
} ]
}
