{
"mode" : {"viewTitle" : 1,   "viewNew" : 0,  "pageIndex" : 1 },
 "channel" : {"id" : "1139110432970308134", "booked" : False, "subNumber" : 1, "name" : "情感婚姻-新浪女性", "url" : "http:\/\/eladies.sina.com.cn\/feel\/index.shtml", "feed" : "http:\/\/rss.sina.com.cn\/eladies\/marry.xml", "author" : "WWW.SINA.COM.CN", "desc" : "情感婚姻新闻列表", "imageUrl" : "http:\/\/www.sinaimg.cn\/home\/deco\/2009\/0330\/logo_home_eladies.gif", "postPerWeek" : "0", "lastCrawTime" : "16:52:40", "crawDateTime" : "16:52:40", "lastHttpCode" : "200"}, "page" : {
"startIndex" : 0,
"totalCount" : 5000,
"pageIndex" : 1,
"lastPage" : 250,
"pageSize" : 20,
"english" :  False },
 "unreadNum" : 0, "shotIndex" : -1,
"articles" : [
{
"index" : 0,
"articleIndex" : "33420",
"favor" :  False ,
     "read" : False,    
"title" : "美国男女因肾结缘 浪漫完婚悲剧变喜剧",
"titleTip" : "美国男女因肾结缘 浪漫完婚悲剧变喜剧",
"titleSummary" : "美国男女因肾结缘 浪漫完婚悲剧变喜剧",
"descSummary" : "导语：美国女子切尔茜・克莱尔3年前不顾家人反对，向与她没有...",
"url" : "http:\/\/go.rss.sina.com.cn\/redirect.php?url=http:\/\/eladies.sina.com.cn\/qg\/2013\/1030\/12381235588.shtml",
"pubDate" : "12:38:08",
"enterDate" : "384201:05:07",
"channelId" : "1139110432970308134",
"channelName" : "情感婚姻-新浪女性",
"channelNameSummary" : "情感婚姻-新浪女性",
"channelUrl" : "http:\/\/eladies.sina.com.cn\/feel\/index.shtml",
"author" : "WWW.SINA.COM.CN",
"tags" : [],
"desc" : "导语：美国女子切尔茜・克莱尔3年前不顾家人反对，向与她没有血缘关系的凯尔・弗勒利希捐出自己的一个肾脏。如今，弗勒利希身体健康。移植手术还意外促成一段良缘。弗勒利希和克莱尔于本月12日在他们相识的地方浪漫完婚。 因肾结缘的弗勒利希和克莱尔于本月12日在他们相识....",
"emailed" : False,
"forwarded" : False,
"english" : False
}  , {
"index" : 1,
"articleIndex" : "33419",
"favor" :  False ,
     "read" : False,    
"title" : "女儿雇凶将父亲杀害 或因曾遭其性侵",
"titleTip" : "女儿雇凶将父亲杀害 或因曾遭其性侵",
"titleSummary" : "女儿雇凶将父亲杀害 或因曾遭其性侵",
"descSummary" : "导语：9月22日晚发生在南京市蓝旗新村的一起凶杀案，因死者女儿...",
"url" : "http:\/\/go.rss.sina.com.cn\/redirect.php?url=http:\/\/eladies.sina.com.cn\/qg\/2013\/1030\/10561235576.shtml",
"pubDate" : "10:56:45",
"enterDate" : "384200:53:58",
"channelId" : "1139110432970308134",
"channelName" : "情感婚姻-新浪女性",
"channelNameSummary" : "情感婚姻-新浪女性",
"channelUrl" : "http:\/\/eladies.sina.com.cn\/feel\/index.shtml",
"author" : "WWW.SINA.COM.CN",
"tags" : [],
"desc" : "导语：9月22日晚发生在南京市蓝旗新村的一起凶杀案，因死者女儿胡某涉嫌雇凶杀父引来多方关注。昨日，秦淮检察院以故意杀人罪，批准逮捕了包括胡某在内的两名犯罪嫌疑人。 随着两名犯罪嫌疑人被批捕，作案的细节也部分浮出水面：金陵晚报记者从秦淮检察院了解到，待杀....",
"emailed" : False,
"forwarded" : False,
"english" : False
}  , {
"index" : 2,
"articleIndex" : "33418",
"favor" :  False ,
     "read" : False,    
"title" : "初二女生回家途中被5男孩强奸 最小者12岁",
"titleTip" : "初二女生回家途中被5男孩强奸 最小者12岁",
"titleSummary" : "初二女生回家途中被5男孩强奸 最小者12岁",
"descSummary" : "导语：商洛一名初二女生晚自习放学后，被几名辍学未成年人强...",
"url" : "http:\/\/go.rss.sina.com.cn\/redirect.php?url=http:\/\/eladies.sina.com.cn\/qg\/2013\/1030\/10521235575.shtml",
"pubDate" : "10:52:07",
"enterDate" : "384200:49:20",
"channelId" : "1139110432970308134",
"channelName" : "情感婚姻-新浪女性",
"channelNameSummary" : "情感婚姻-新浪女性",
"channelUrl" : "http:\/\/eladies.sina.com.cn\/feel\/index.shtml",
"author" : "WWW.SINA.COM.CN",
"tags" : [],
"desc" : "导语：商洛一名初二女生晚自习放学后，被几名辍学未成年人强奸，涉案5人，最大的17岁，最小的仅12岁。案发后，商洛市公安局商州分局立即安排侦破。 据介绍，10月24日晚8时许，商洛市商州区一名15岁初二女学生晚自习放学回家途中，被当地5名辍学少年张某某(16岁)、王某(....",
"emailed" : False,
"forwarded" : False,
"english" : False
}  , {
"index" : 3,
"articleIndex" : "33417",
"favor" :  False ,
     "read" : False,    
"title" : "丈夫逼妻子诱杀情夫 妻子命丧情夫刀下",
"titleTip" : "丈夫逼妻子诱杀情夫 妻子命丧情夫刀下",
"titleSummary" : "丈夫逼妻子诱杀情夫 妻子命丧情夫刀下",
"descSummary" : "导语：丈夫打工返乡知道妻子与同村男子有染，便逼着妻子下套诱...",
"url" : "http:\/\/go.rss.sina.com.cn\/redirect.php?url=http:\/\/eladies.sina.com.cn\/qg\/2013\/1030\/10451235573.shtml",
"pubDate" : "10:45:21",
"enterDate" : "384201:12:39",
"channelId" : "1139110432970308134",
"channelName" : "情感婚姻-新浪女性",
"channelNameSummary" : "情感婚姻-新浪女性",
"channelUrl" : "http:\/\/eladies.sina.com.cn\/feel\/index.shtml",
"author" : "WWW.SINA.COM.CN",
"tags" : [],
"desc" : "导语：丈夫打工返乡知道妻子与同村男子有染，便逼着妻子下套诱杀情夫，情夫狗急跳墙，刺死情妇\u2026\u202610月8日，杀人情夫在13年后终被沈阳康平警方抓获，同时被害人丈夫也因故意伤害被刑拘。 女子家中被杀 凶手疑是情夫 昨日，沈阳康平警方介绍，2000年10月9日凌晨....",
"emailed" : False,
"forwarded" : False,
"english" : False
}  , {
"index" : 4,
"articleIndex" : "33416",
"favor" :  False ,
     "read" : False,    
"title" : "女子找女学生帮手迷倒前男友 抢黄金首饰",
"titleTip" : "女子找女学生帮手迷倒前男友 抢黄金首饰",
"titleSummary" : "女子找女学生帮手迷倒前男友 抢黄金首饰",
"descSummary" : "导语：今年10月9日，历城区港沟某商业街中段一足疗店，老板...",
"url" : "http:\/\/go.rss.sina.com.cn\/redirect.php?url=http:\/\/eladies.sina.com.cn\/qg\/2013\/1030\/10391235570.shtml",
"pubDate" : "10:39:55",
"enterDate" : "384201:07:13",
"channelId" : "1139110432970308134",
"channelName" : "情感婚姻-新浪女性",
"channelNameSummary" : "情感婚姻-新浪女性",
"channelUrl" : "http:\/\/eladies.sina.com.cn\/feel\/index.shtml",
"author" : "WWW.SINA.COM.CN",
"tags" : [],
"desc" : "导语：今年10月9日，历城区港沟某商业街中段一足疗店，老板李某被人下药迷倒，价值5万元的金饰等财物被抢走。原来，竟是李某的前女友找来一名女大学生当帮手，实施抢劫。案发后，历城警方迅速控制了\u201C前女友\u201D杨某；10月12日，女大学生付某投案自首。 嫌疑人杨某藏匿的抢劫....",
"emailed" : False,
"forwarded" : False,
"english" : False
}  , {
"index" : 5,
"articleIndex" : "33415",
"favor" :  False ,
     "read" : False,    
"title" : "\u201C情侣简历\u201D兴起 专家称同进退要冷静",
"titleTip" : "\u201C情侣简历\u201D兴起 专家称同进退要冷静",
"titleSummary" : "\u201C情侣简历\u201D兴起 专家称同进退要冷静",
"descSummary" : "导语：一张A4纸，沿竖线分成两栏。左边是男孩子的简历，右边...",
"url" : "http:\/\/go.rss.sina.com.cn\/redirect.php?url=http:\/\/eladies.sina.com.cn\/qg\/2013\/1030\/10211235567.shtml",
"pubDate" : "10:21:50",
"enterDate" : "384200:49:08",
"channelId" : "1139110432970308134",
"channelName" : "情感婚姻-新浪女性",
"channelNameSummary" : "情感婚姻-新浪女性",
"channelUrl" : "http:\/\/eladies.sina.com.cn\/feel\/index.shtml",
"author" : "WWW.SINA.COM.CN",
"tags" : [],
"desc" : "导语：一张A4纸，沿竖线分成两栏。左边是男孩子的简历，右边是女孩子的简历。不一样的表述，诉说一样的求职意愿：要录用，就把我们一起录用吧。在2014届大学生纷纷开始加入求职大军时，一种\u201C情侣简历\u201D悄然兴起。对于情侣们\u201C同进退\u201D的态度，职场专家表示，毕业生应理性求职....",
"emailed" : False,
"forwarded" : False,
"english" : False
}  , {
"index" : 6,
"articleIndex" : "33414",
"favor" :  False ,
     "read" : False,    
"title" : "为何美女配野兽 择偶到底是择什么",
"titleTip" : "为何美女配野兽 择偶到底是择什么",
"titleSummary" : "为何美女配野兽 择偶到底是择什么",
"descSummary" : "导语：自古以来，红花配绿叶，美女搭帅哥，看似天经地义，也无可厚...",
"url" : "http:\/\/go.rss.sina.com.cn\/redirect.php?url=http:\/\/eladies.sina.com.cn\/qg\/2013\/1030\/09251235533.shtml",
"pubDate" : "09:25:17",
"enterDate" : "384200:52:46",
"channelId" : "1139110432970308134",
"channelName" : "情感婚姻-新浪女性",
"channelNameSummary" : "情感婚姻-新浪女性",
"channelUrl" : "http:\/\/eladies.sina.com.cn\/feel\/index.shtml",
"author" : "WWW.SINA.COM.CN",
"tags" : [],
"desc" : "导语：自古以来，红花配绿叶，美女搭帅哥，看似天经地义，也无可厚非。似乎美好的事物放在一起，就是一件比较可心的事情。可这是否有一些过于完美了呢？要知道凡是没有绝对的完美，近些年，美女归宿的趋势发展成为人们所谓的\u201C下坡路\u201D美女与野兽的搭配越来越多，一朵鲜花真真....",
"emailed" : False,
"forwarded" : False,
"english" : False
}  , {
"index" : 7,
"articleIndex" : "33413",
"favor" :  False ,
     "read" : False,    
"title" : "口述：邻家风情女为掩丑事引诱我亲热",
"titleTip" : "口述：邻家风情女为掩丑事引诱我亲热",
"titleSummary" : "口述：邻家风情女为掩丑事引诱我亲热",
"descSummary" : "导语：不过，我的好奇心被勾起来吧，从那天起，我经常在黑暗中...",
"url" : "http:\/\/go.rss.sina.com.cn\/redirect.php?url=http:\/\/eladies.sina.com.cn\/qg\/2013\/1030\/08461235522.shtml",
"pubDate" : "08:46:44",
"enterDate" : "384200:44:17",
"channelId" : "1139110432970308134",
"channelName" : "情感婚姻-新浪女性",
"channelNameSummary" : "情感婚姻-新浪女性",
"channelUrl" : "http:\/\/eladies.sina.com.cn\/feel\/index.shtml",
"author" : "WWW.SINA.COM.CN",
"tags" : [],
"desc" : "导语：不过，我的好奇心被勾起来吧，从那天起，我经常在黑暗中站在窗口，看着她家房门。接连几天，我看到她带着不同的男人回来过夜。她的形象在我心中彻底崩溃了，觉得这个女人好淫荡，好虚伪，好做作，尤其是好有心计。 查看更多网友口述&gt;&gt; 网友来信：....",
"emailed" : False,
"forwarded" : False,
"english" : False
}  , {
"index" : 8,
"articleIndex" : "33412",
"favor" :  False ,
     "read" : False,    
"title" : "口述：老公偷睡女邻被我8岁儿撞破",
"titleTip" : "口述：老公偷睡女邻被我8岁儿撞破",
"titleSummary" : "口述：老公偷睡女邻被我8岁儿撞破",
"descSummary" : "导语：儿子说到这，我的心猛一惊，老公竟然在女邻的床上睡觉。于是...",
"url" : "http:\/\/go.rss.sina.com.cn\/redirect.php?url=http:\/\/eladies.sina.com.cn\/qg\/2013\/1030\/08461235521.shtml",
"pubDate" : "08:46:11",
"enterDate" : "384200:43:44",
"channelId" : "1139110432970308134",
"channelName" : "情感婚姻-新浪女性",
"channelNameSummary" : "情感婚姻-新浪女性",
"channelUrl" : "http:\/\/eladies.sina.com.cn\/feel\/index.shtml",
"author" : "WWW.SINA.COM.CN",
"tags" : [],
"desc" : "导语：儿子说到这，我的心猛一惊，老公竟然在女邻的床上睡觉。于是我质问老公这是怎么回事，老公不承认，还骂儿子说瞎话，儿子哭的稀里哗啦，老公还是不停的解释。我是了解他的，这里一定有问题，他们俩的关系一定不正常。从那之后我就再没和女邻说过话，也不让她来我们家。....",
"emailed" : False,
"forwarded" : False,
"english" : False
}  , {
"index" : 9,
"articleIndex" : "33411",
"favor" :  False ,
     "read" : False,    
"title" : "口述：怕成剩女找个大叔却被骗走初夜",
"titleTip" : "口述：怕成剩女找个大叔却被骗走初夜",
"titleSummary" : "口述：怕成剩女找个大叔却被骗走初夜",
"descSummary" : "导语：6月13号我们又在一起了，是去的他家，我把第一次给了他...",
"url" : "http:\/\/go.rss.sina.com.cn\/redirect.php?url=http:\/\/eladies.sina.com.cn\/qg\/2013\/1030\/08451235520.shtml",
"pubDate" : "08:45:37",
"enterDate" : "384201:13:15",
"channelId" : "1139110432970308134",
"channelName" : "情感婚姻-新浪女性",
"channelNameSummary" : "情感婚姻-新浪女性",
"channelUrl" : "http:\/\/eladies.sina.com.cn\/feel\/index.shtml",
"author" : "WWW.SINA.COM.CN",
"tags" : [],
"desc" : "导语：6月13号我们又在一起了，是去的他家，我把第一次给了他，很疼，也流血了，人都说男的很在乎女人的第一次，15号他就出差了，但他莫名其妙的说跟我探讨个问题，让我不要生气，说我给他的感觉不像第一次，因为他的第二个女朋友就是处女。 查看更多网友口述&gt;&gt;....",
"emailed" : False,
"forwarded" : False,
"english" : False
}  , {
"index" : 10,
"articleIndex" : "33410",
"favor" :  False ,
     "read" : False,    
"title" : "恋爱提示：情侣没吵过架先不要结婚",
"titleTip" : "恋爱提示：情侣没吵过架先不要结婚",
"titleSummary" : "恋爱提示：情侣没吵过架先不要结婚",
"descSummary" : "导语：两个相爱的人，难免都会有吵架的时候。情侣吵架怎么办？情...",
"url" : "http:\/\/go.rss.sina.com.cn\/redirect.php?url=http:\/\/eladies.sina.com.cn\/qg\/2013\/1030\/08271235529.shtml",
"pubDate" : "08:27:31",
"enterDate" : "384200:55:09",
"channelId" : "1139110432970308134",
"channelName" : "情感婚姻-新浪女性",
"channelNameSummary" : "情感婚姻-新浪女性",
"channelUrl" : "http:\/\/eladies.sina.com.cn\/feel\/index.shtml",
"author" : "WWW.SINA.COM.CN",
"tags" : [],
"desc" : "导语：两个相爱的人，难免都会有吵架的时候。情侣吵架怎么办？情侣吵架是一件再平常不过的事情，如果吵架之后能找到缓解的方法可以有效避免错上加错，这样可以使两人感情更好。 恋爱提示 情侣没吵过架先不要结婚 吵完懂反省 越吵越亲密 如果吵完架，你觉得他....",
"emailed" : False,
"forwarded" : False,
"english" : False
}  , {
"index" : 11,
"articleIndex" : "33409",
"favor" :  False ,
     "read" : False,    
"title" : "婚姻5大禁忌 容易谋杀夫妻幸福",
"titleTip" : "婚姻5大禁忌 容易谋杀夫妻幸福",
"titleSummary" : "婚姻5大禁忌 容易谋杀夫妻幸福",
"descSummary" : "导语：婚后生活，难免磕磕绊绊，顶个嘴，吵个架，有时候也是生活情趣。...",
"url" : "http:\/\/go.rss.sina.com.cn\/redirect.php?url=http:\/\/eladies.sina.com.cn\/qg\/2013\/1030\/08261235534.shtml",
"pubDate" : "08:26:52",
"enterDate" : "384200:54:30",
"channelId" : "1139110432970308134",
"channelName" : "情感婚姻-新浪女性",
"channelNameSummary" : "情感婚姻-新浪女性",
"channelUrl" : "http:\/\/eladies.sina.com.cn\/feel\/index.shtml",
"author" : "WWW.SINA.COM.CN",
"tags" : [],
"desc" : "导语：婚后生活，难免磕磕绊绊，顶个嘴，吵个架，有时候也是生活情趣。但是，有些话，有些行为，一旦过了对方的心理承受线，就会影响了两人的感情，甚至让婚姻走向崩裂。请看看，是什么谋杀了你们的幸福！ 婚姻5大禁忌 容易谋杀夫妻幸福 一、离婚分手 挂在嘴边....",
"emailed" : False,
"forwarded" : False,
"english" : False
}  , {
"index" : 12,
"articleIndex" : "33408",
"favor" :  False ,
     "read" : False,    
"title" : "《爸爸去哪儿》引关注 解析5种类型爸爸",
"titleTip" : "《爸爸去哪儿》引关注 解析5种类型爸爸",
"titleSummary" : "《爸爸去哪儿》引关注 解析5种类型爸爸",
"descSummary" : "导语：孩子们的表现其实和爸爸的性格、处理问题的方式有着很大...",
"url" : "http:\/\/go.rss.sina.com.cn\/redirect.php?url=http:\/\/eladies.sina.com.cn\/qg\/2013\/1030\/08261235524.shtml",
"pubDate" : "08:26:28",
"enterDate" : "384200:54:06",
"channelId" : "1139110432970308134",
"channelName" : "情感婚姻-新浪女性",
"channelNameSummary" : "情感婚姻-新浪女性",
"channelUrl" : "http:\/\/eladies.sina.com.cn\/feel\/index.shtml",
"author" : "WWW.SINA.COM.CN",
"tags" : [],
"desc" : "导语：孩子们的表现其实和爸爸的性格、处理问题的方式有着很大关系。著名亲子教育专家东子说：\u201C父亲的意识决定孩子的一生。\u201D 《爸爸去哪儿》引关注 解析5种类型爸爸 11日在湖南卫视首播的父子亲情互动秀《爸爸去哪儿》为观众带来了全新的综艺节目观看体验，....",
"emailed" : False,
"forwarded" : False,
"english" : False
}  , {
"index" : 13,
"articleIndex" : "33407",
"favor" :  False ,
     "read" : False,    
"title" : "单独生二胎政策有望全面放开 不采取试点",
"titleTip" : "单独生二胎政策有望全面放开 不采取试点",
"titleSummary" : "单独生二胎政策有望全面放开 不采取试点",
"descSummary" : "导语：踟蹰已久的生育政策调整正在开始提速。《第一财经日报...",
"url" : "http:\/\/go.rss.sina.com.cn\/redirect.php?url=http:\/\/eladies.sina.com.cn\/qg\/2013\/1030\/07471235523.shtml",
"pubDate" : "07:47:06",
"enterDate" : "384200:44:49",
"channelId" : "1139110432970308134",
"channelName" : "情感婚姻-新浪女性",
"channelNameSummary" : "情感婚姻-新浪女性",
"channelUrl" : "http:\/\/eladies.sina.com.cn\/feel\/index.shtml",
"author" : "WWW.SINA.COM.CN",
"tags" : [],
"desc" : "导语：踟蹰已久的生育政策调整正在开始提速。《第一财经日报》获悉，单独(夫妻有一方是独生子女)生二胎政策有望全国放开实施，不采取先在某个或某些省市试点的做法。下月召开的十八届三中全会日益临近，市场对此越发期待。 媒体称单独生二胎政策有望全面放开 不采取试点....",
"emailed" : False,
"forwarded" : False,
"english" : False
}  , {
"index" : 14,
"articleIndex" : "33406",
"favor" :  False ,
     "read" : False,    
"title" : "男子因眼红表哥幸福 捅死对方妻儿5人",
"titleTip" : "男子因眼红表哥幸福 捅死对方妻儿5人",
"titleSummary" : "男子因眼红表哥幸福 捅死对方妻儿5人",
"descSummary" : "导语：美国警方27日确认，纽约市一个华人社区26日深夜发生严重...",
"url" : "http:\/\/go.rss.sina.com.cn\/redirect.php?url=http:\/\/eladies.sina.com.cn\/qg\/2013\/1029\/11081235518.shtml",
"pubDate" : "昨天11:08:11",
"enterDate" : "384200:39:20",
"channelId" : "1139110432970308134",
"channelName" : "情感婚姻-新浪女性",
"channelNameSummary" : "情感婚姻-新浪女性",
"channelUrl" : "http:\/\/eladies.sina.com.cn\/feel\/index.shtml",
"author" : "WWW.SINA.COM.CN",
"tags" : [],
"desc" : "导语：美国警方27日确认，纽约市一个华人社区26日深夜发生严重凶案，一名成年女子及其年龄不足10岁的4个孩子被捅死。被害者的一名亲戚事后被捕，他对此案供认不讳。 遇害4童不满10岁 纽约市警察局高级警官菲利普・班克斯说，25岁的陈明东(音译)承认26日晚在纽约....",
"emailed" : False,
"forwarded" : False,
"english" : False
}  , {
"index" : 15,
"articleIndex" : "33405",
"favor" :  False ,
     "read" : False,    
"title" : "男子不满被甩拿皮带抽打女友 强奸拍裸照",
"titleTip" : "男子不满被甩拿皮带抽打女友 强奸拍裸照",
"titleSummary" : "男子不满被甩拿皮带抽打女友 强奸拍裸照",
"descSummary" : "导语：因不满正在读书的前女友移情别恋，王某将其骗到自己的...",
"url" : "http:\/\/go.rss.sina.com.cn\/redirect.php?url=http:\/\/eladies.sina.com.cn\/qg\/2013\/1029\/11011235516.shtml",
"pubDate" : "昨天11:01:54",
"enterDate" : "384200:33:03",
"channelId" : "1139110432970308134",
"channelName" : "情感婚姻-新浪女性",
"channelNameSummary" : "情感婚姻-新浪女性",
"channelUrl" : "http:\/\/eladies.sina.com.cn\/feel\/index.shtml",
"author" : "WWW.SINA.COM.CN",
"tags" : [],
"desc" : "导语：因不满正在读书的前女友移情别恋，王某将其骗到自己的租住地，在和好不成情况下，他用皮带抽打18岁的女友，并多次实施强奸、拍裸照。上午，昌平检方通报，王某已因涉嫌强奸罪被昌平检察院批准逮捕。 因不满正在读书的前女友移情别恋，王某将其骗到自己的租住地，....",
"emailed" : False,
"forwarded" : False,
"english" : False
}  , {
"index" : 16,
"articleIndex" : "33404",
"favor" :  False ,
     "read" : False,    
"title" : "8对新人工地办婚礼 新娘穿高跟鞋搬砖",
"titleTip" : "8对新人工地办婚礼 新娘穿高跟鞋搬砖",
"titleSummary" : "8对新人工地办婚礼 新娘穿高跟鞋搬砖",
"descSummary" : "导语：脚踩高跟鞋、身披白婚纱，27岁的高莹和爱人甘波在婚礼当...",
"url" : "http:\/\/go.rss.sina.com.cn\/redirect.php?url=http:\/\/eladies.sina.com.cn\/qg\/2013\/1029\/10431235510.shtml",
"pubDate" : "昨天10:43:09",
"enterDate" : "384201:14:28",
"channelId" : "1139110432970308134",
"channelName" : "情感婚姻-新浪女性",
"channelNameSummary" : "情感婚姻-新浪女性",
"channelUrl" : "http:\/\/eladies.sina.com.cn\/feel\/index.shtml",
"author" : "WWW.SINA.COM.CN",
"tags" : [],
"desc" : "导语：脚踩高跟鞋、身披白婚纱，27岁的高莹和爱人甘波在婚礼当日走进工地合力搬砖，感受夫妻携手、勤劳致富的真谛。26日是 \u201C环卫工人节\u201D，郑州8对新人将集体婚礼的其中一项内容放在工地，声称将俭朴进行到底。 婚礼现场，夫妻二人合力搬砖。 26日上午，郑州郑东新....",
"emailed" : False,
"forwarded" : False,
"english" : False
}  , {
"index" : 17,
"articleIndex" : "33403",
"favor" :  False ,
     "read" : False,    
"title" : "工科男自制床上书架送给怕冷女朋友",
"titleTip" : "工科男自制床上书架送给怕冷女朋友",
"titleSummary" : "工科男自制床上书架送给怕冷女朋友",
"descSummary" : "导语：大小刚好可以放在床上，既能当书架，也能当电脑桌\u2026\u2026近日...",
"url" : "http:\/\/go.rss.sina.com.cn\/redirect.php?url=http:\/\/eladies.sina.com.cn\/qg\/2013\/1029\/10371235509.shtml",
"pubDate" : "昨天10:37:13",
"enterDate" : "384201:08:32",
"channelId" : "1139110432970308134",
"channelName" : "情感婚姻-新浪女性",
"channelNameSummary" : "情感婚姻-新浪女性",
"channelUrl" : "http:\/\/eladies.sina.com.cn\/feel\/index.shtml",
"author" : "WWW.SINA.COM.CN",
"tags" : [],
"desc" : "导语：大小刚好可以放在床上，既能当书架，也能当电脑桌\u2026\u2026近日， 江苏大学京江学院模具专业大三学生牛皓，自制床上书架送给远在武汉的女友，在国内著名社交网站上受追捧。有人赞叹：\u201C这才是男朋友该做的！\u201D 牛皓制作的床上书架 本人供图 \u201C我当时想，女朋友宿舍....",
"emailed" : False,
"forwarded" : False,
"english" : False
}  , {
"index" : 18,
"articleIndex" : "33402",
"favor" :  False ,
     "read" : False,    
"title" : "口述：老公在婚房贴了前妻365张裸照",
"titleTip" : "口述：老公在婚房贴了前妻365张裸照",
"titleSummary" : "口述：老公在婚房贴了前妻365张裸照",
"descSummary" : "导语：可不幸降临到了我的头上，在举行婚礼那天，等我们进婚房的...",
"url" : "http:\/\/go.rss.sina.com.cn\/redirect.php?url=http:\/\/eladies.sina.com.cn\/qg\/2013\/1029\/07121235459.shtml",
"pubDate" : "昨天07:12:33",
"enterDate" : "384200:44:22",
"channelId" : "1139110432970308134",
"channelName" : "情感婚姻-新浪女性",
"channelNameSummary" : "情感婚姻-新浪女性",
"channelUrl" : "http:\/\/eladies.sina.com.cn\/feel\/index.shtml",
"author" : "WWW.SINA.COM.CN",
"tags" : [],
"desc" : "导语：可不幸降临到了我的头上，在举行婚礼那天，等我们进婚房的时候，我发现婚房里贴满了照片，我还以为自己是进了照相馆，因为到处是照片。当我看到那些照片的时候，我想呕吐，因为墙上那些照片全部是裸照，我数了数，一共有365张。 查看更多网友口述&gt;&gt; ....",
"emailed" : False,
"forwarded" : False,
"english" : False
}  , {
"index" : 19,
"articleIndex" : "33401",
"favor" :  False ,
     "read" : False,    
"title" : "口述：与准嫂子销魂一夜她怀上我的孩子",
"titleTip" : "口述：与准嫂子销魂一夜她怀上我的孩子",
"titleSummary" : "口述：与准嫂子销魂一夜她怀上我的孩子",
"descSummary" : "导语：之后的事情，我就记不起来了，只是隐约记得我被她脱掉...",
"url" : "http:\/\/go.rss.sina.com.cn\/redirect.php?url=http:\/\/eladies.sina.com.cn\/qg\/2013\/1029\/07121235458.shtml",
"pubDate" : "昨天07:12:18",
"enterDate" : "384200:44:07",
"channelId" : "1139110432970308134",
"channelName" : "情感婚姻-新浪女性",
"channelNameSummary" : "情感婚姻-新浪女性",
"channelUrl" : "http:\/\/eladies.sina.com.cn\/feel\/index.shtml",
"author" : "WWW.SINA.COM.CN",
"tags" : [],
"desc" : "导语：之后的事情，我就记不起来了，只是隐约记得我被她脱掉了衣服，与准嫂子销魂一夜后，我从小男生变成了大男人，第一次领略到了女人的风味。说实话，准嫂子确实很有女人味道，比我以前谈的女朋友好多了，也是准嫂子破了我的处男身。 查看更多网友口述&gt;&gt; ....",
"emailed" : False,
"forwarded" : False,
"english" : False
} ]
}
