{
"mode" : {"viewTitle" : 1,   "viewNew" : 0,  "pageIndex" : 2 },
 "channel" : {"id" : "1139110432970308134", "booked" : False, "subNumber" : 1, "name" : "情感婚姻-新浪女性", "url" : "http:\/\/eladies.sina.com.cn\/feel\/index.shtml", "feed" : "http:\/\/rss.sina.com.cn\/eladies\/marry.xml", "author" : "WWW.SINA.COM.CN", "desc" : "情感婚姻新闻列表", "imageUrl" : "http:\/\/www.sinaimg.cn\/home\/deco\/2009\/0330\/logo_home_eladies.gif", "postPerWeek" : "0", "lastCrawTime" : "16:52:40", "crawDateTime" : "16:52:40", "lastHttpCode" : "200"}, "page" : {
"startIndex" : 20,
"totalCount" : 5000,
"pageIndex" : 2,
"lastPage" : 250,
"pageSize" : 20,
"english" :  False },
 "unreadNum" : 0, "shotIndex" : -1,
"articles" : [
{
"index" : 0,
"articleIndex" : "33400",
"favor" :  False ,
     "read" : False,    
"title" : "口述：老婆与不同男人泳池偷欢我崩溃",
"titleTip" : "口述：老婆与不同男人泳池偷欢我崩溃",
"titleSummary" : "口述：老婆与不同男人泳池偷欢我崩溃",
"descSummary" : "导语：但是，前两天我收到一份快递，里面的照片却令我头晕目眩...",
"url" : "http:\/\/go.rss.sina.com.cn\/redirect.php?url=http:\/\/eladies.sina.com.cn\/qg\/2013\/1029\/07111235456.shtml",
"pubDate" : "昨天07:11:48",
"enterDate" : "384200:43:38",
"channelId" : "1139110432970308134",
"channelName" : "情感婚姻-新浪女性",
"channelNameSummary" : "情感婚姻-新浪女性",
"channelUrl" : "http:\/\/eladies.sina.com.cn\/feel\/index.shtml",
"author" : "WWW.SINA.COM.CN",
"tags" : [],
"desc" : "导语：但是，前两天我收到一份快递，里面的照片却令我头晕目眩，表面上看上去老实的老婆，竟然与很多男人在泳池偷欢。原来的我，一直觉得我是一个农村人，能够在大城市拥有美满婚姻是令人骄傲的，可谁知老婆早已背着我与别的男人偷欢了，因为这个我突然觉得自己好失败。 ....",
"emailed" : False,
"forwarded" : False,
"english" : False
}  , {
"index" : 1,
"articleIndex" : "33399",
"favor" :  False ,
     "read" : False,    
"title" : "魅力激增 恋爱中女人会有6个变化",
"titleTip" : "魅力激增 恋爱中女人会有6个变化",
"titleSummary" : "魅力激增 恋爱中女人会有6个变化",
"descSummary" : "导语：每个人都说，如果一对男女在谈恋爱当中，身体上总会发生一些微...",
"url" : "http:\/\/go.rss.sina.com.cn\/redirect.php?url=http:\/\/eladies.sina.com.cn\/qg\/2013\/1029\/07111235466.shtml",
"pubDate" : "昨天07:11:31",
"enterDate" : "384200:43:21",
"channelId" : "1139110432970308134",
"channelName" : "情感婚姻-新浪女性",
"channelNameSummary" : "情感婚姻-新浪女性",
"channelUrl" : "http:\/\/eladies.sina.com.cn\/feel\/index.shtml",
"author" : "WWW.SINA.COM.CN",
"tags" : [],
"desc" : "导语：每个人都说，如果一对男女在谈恋爱当中，身体上总会发生一些微妙的变化，注入眼睛更亮，皮肤更好。下面爱美网小编就为每一个爱恋中的你们说说恋爱那点事，让你感受到恋爱让男女双方不仅仅是精神上的滋润，还有身体上的滋润。 恋爱中的女人会有6个变化 恋爱时....",
"emailed" : False,
"forwarded" : False,
"english" : False
}  , {
"index" : 2,
"articleIndex" : "33398",
"favor" :  False ,
     "read" : False,    
"title" : "男人9个部位 做梦都希望你触碰",
"titleTip" : "男人9个部位 做梦都希望你触碰",
"titleSummary" : "男人9个部位 做梦都希望你触碰",
"descSummary" : "导语：男人跟女人一样，都有属于自己的敏感部位，触碰这些部位能唤起他...",
"url" : "http:\/\/go.rss.sina.com.cn\/redirect.php?url=http:\/\/eladies.sina.com.cn\/qg\/2013\/1029\/07101235463.shtml",
"pubDate" : "昨天07:10:55",
"enterDate" : "384200:42:45",
"channelId" : "1139110432970308134",
"channelName" : "情感婚姻-新浪女性",
"channelNameSummary" : "情感婚姻-新浪女性",
"channelUrl" : "http:\/\/eladies.sina.com.cn\/feel\/index.shtml",
"author" : "WWW.SINA.COM.CN",
"tags" : [],
"desc" : "导语：男人跟女人一样，都有属于自己的敏感部位，触碰这些部位能唤起他们的快感，让两人一起享受美好的性爱过程。那么具体是哪些部位呢？女性朋友们可要好好学习了。 男人9个部位 做梦都希望你触碰 1.唇齿 很多人喜欢舒淇，不仅因为起率性的个性，还因为她....",
"emailed" : False,
"forwarded" : False,
"english" : False
}  , {
"index" : 3,
"articleIndex" : "33397",
"favor" :  False ,
     "read" : False,    
"title" : "英国调查：1\/6妻子不让丈夫看到自己裸体",
"titleTip" : "英国调查：1\/6妻子不让丈夫看到自己裸体",
"titleSummary" : "英国调查：1\/6妻子不让丈夫看到自己裸体",
"descSummary" : "导语：英国的妻子们有时候不那么自信，一项针对1,902名已婚...",
"url" : "http:\/\/go.rss.sina.com.cn\/redirect.php?url=http:\/\/eladies.sina.com.cn\/qg\/2013\/1029\/07101235462.shtml",
"pubDate" : "昨天07:10:20",
"enterDate" : "384200:42:10",
"channelId" : "1139110432970308134",
"channelName" : "情感婚姻-新浪女性",
"channelNameSummary" : "情感婚姻-新浪女性",
"channelUrl" : "http:\/\/eladies.sina.com.cn\/feel\/index.shtml",
"author" : "WWW.SINA.COM.CN",
"tags" : [],
"desc" : "导语：英国的妻子们有时候不那么自信，一项针对1,902名已婚女性的调查显示，1\/6的被调查者的丈夫们，一年多都见不到自己妻子的裸体一次。 英国调查：1\/6妻子不让丈夫看到自己裸体 几乎一半的人是因为对自己的身材不自信使然。 显然丈夫们对此都不大满意，约....",
"emailed" : False,
"forwarded" : False,
"english" : False
}  , {
"index" : 4,
"articleIndex" : "33396",
"favor" :  False ,
     "read" : False,    
"title" : "经营甜蜜婚姻 10个日常生活细节需注意",
"titleTip" : "经营甜蜜婚姻 10个日常生活细节需注意",
"titleSummary" : "经营甜蜜婚姻 10个日常生活细节需注意",
"descSummary" : "导语：有人说婚姻如同坟墓，但如果能做点小改变，就能将这个坟...",
"url" : "http:\/\/go.rss.sina.com.cn\/redirect.php?url=http:\/\/eladies.sina.com.cn\/qg\/2013\/1029\/07101235467.shtml",
"pubDate" : "昨天07:10:12",
"enterDate" : "384200:42:02",
"channelId" : "1139110432970308134",
"channelName" : "情感婚姻-新浪女性",
"channelNameSummary" : "情感婚姻-新浪女性",
"channelUrl" : "http:\/\/eladies.sina.com.cn\/feel\/index.shtml",
"author" : "WWW.SINA.COM.CN",
"tags" : [],
"desc" : "导语：有人说婚姻如同坟墓，但如果能做点小改变，就能将这个坟墓变成乐土，何乐而不为呢？今天爱美网小编就来分享调查研究总结出来的10个拥有甜蜜婚姻的秘诀，微调日常的小细节，就能让你和老公的爱恒久远，赶紧来看看吧。 经营甜蜜婚姻 10个日常生活细节需注意 古....",
"emailed" : False,
"forwarded" : False,
"english" : False
}  , {
"index" : 5,
"articleIndex" : "33395",
"favor" :  False ,
     "read" : False,    
"title" : "曝中国富豪相亲会内幕：\u201C土豪\u201D选妃秀",
"titleTip" : "曝中国富豪相亲会内幕：\u201C土豪\u201D选妃秀",
"titleSummary" : "曝中国富豪相亲会内幕：\u201C土豪\u201D选妃秀",
"descSummary" : "导语：富豪找对象，看相貌，测才智，体检，最后还用上了测谎...",
"url" : "http:\/\/go.rss.sina.com.cn\/redirect.php?url=http:\/\/eladies.sina.com.cn\/qg\/2013\/1029\/07091235461.shtml",
"pubDate" : "昨天07:09:27",
"enterDate" : "384200:41:17",
"channelId" : "1139110432970308134",
"channelName" : "情感婚姻-新浪女性",
"channelNameSummary" : "情感婚姻-新浪女性",
"channelUrl" : "http:\/\/eladies.sina.com.cn\/feel\/index.shtml",
"author" : "WWW.SINA.COM.CN",
"tags" : [],
"desc" : "导语：富豪找对象，看相貌，测才智，体检，最后还用上了测谎仪，简直比军检还严。这场轰轰烈烈的富豪\u201C选妃宴\u201D，席卷了大半个中国，整整已年过去了，据央视调查，这样让美女挤破头颅的相亲，只有美女，没有富豪。 央视曝中国富豪相亲会内幕：蒙在鼓里的拜金女 据....",
"emailed" : False,
"forwarded" : False,
"english" : False
}  , {
"index" : 6,
"articleIndex" : "33394",
"favor" :  False ,
     "read" : False,    
"title" : "老婆想离婚找不到人 老公伪造离婚证行骗",
"titleTip" : "老婆想离婚找不到人 老公伪造离婚证行骗",
"titleSummary" : "老婆想离婚找不到人 老公伪造离婚证行骗",
"descSummary" : "导语：这边老婆到处找他要离婚找不到，那边他却伪造个离婚证...",
"url" : "http:\/\/go.rss.sina.com.cn\/redirect.php?url=http:\/\/eladies.sina.com.cn\/qg\/2013\/1028\/11241235455.shtml",
"pubDate" : "前天11:24:50",
"enterDate" : "384201:01:10",
"channelId" : "1139110432970308134",
"channelName" : "情感婚姻-新浪女性",
"channelNameSummary" : "情感婚姻-新浪女性",
"channelUrl" : "http:\/\/eladies.sina.com.cn\/feel\/index.shtml",
"author" : "WWW.SINA.COM.CN",
"tags" : [],
"desc" : "导语：这边老婆到处找他要离婚找不到，那边他却伪造个离婚证在外面骗女人的钱花。10月25日，南京秦淮法院对一起利用征婚诈骗的案件作出一审判决，被告人许伟被以诈骗罪判处有期徒刑5年2个月，罚金8万元。 我可是单身哦！ 张叶 绘 大龄单身女士遇到\u201C北京老板\u201D ....",
"emailed" : False,
"forwarded" : False,
"english" : False
}  , {
"index" : 7,
"articleIndex" : "33393",
"favor" :  False ,
     "read" : False,    
"title" : "世界最高男将结婚 与妻相差77厘米",
"titleTip" : "世界最高男将结婚 与妻相差77厘米",
"titleSummary" : "世界最高男将结婚 与妻相差77厘米",
"descSummary" : "导语：据外媒27日报道，目前世界上最高的人土耳其青年苏尔坦\u2022科...",
"url" : "http:\/\/go.rss.sina.com.cn\/redirect.php?url=http:\/\/eladies.sina.com.cn\/qg\/2013\/1028\/11171235454.shtml",
"pubDate" : "前天11:17:37",
"enterDate" : "384200:53:57",
"channelId" : "1139110432970308134",
"channelName" : "情感婚姻-新浪女性",
"channelNameSummary" : "情感婚姻-新浪女性",
"channelUrl" : "http:\/\/eladies.sina.com.cn\/feel\/index.shtml",
"author" : "WWW.SINA.COM.CN",
"tags" : [],
"desc" : "导语：据外媒27日报道，目前世界上最高的人土耳其青年苏尔坦\u2022科森(Sultan Kosen)近日宣布已经找到了自己心爱的人，两人将择日结婚并组建家庭。科森的未婚妻迪波(Merve Dibo)与他2.465米的身高相差将近77厘米。 2.465科森与迪波的身高相差将近77厘米 此前，科....",
"emailed" : False,
"forwarded" : False,
"english" : False
}  , {
"index" : 8,
"articleIndex" : "33392",
"favor" :  False ,
     "read" : False,    
"title" : "男子在前女友订婚前夕散发两人性爱影片",
"titleTip" : "男子在前女友订婚前夕散发两人性爱影片",
"titleSummary" : "男子在前女友订婚前夕散发两人性爱影片",
"descSummary" : "导语：据台湾\u201C今日新闻网\u201D报道，台北一名室内设计师和前女...",
"url" : "http:\/\/go.rss.sina.com.cn\/redirect.php?url=http:\/\/eladies.sina.com.cn\/qg\/2013\/1028\/10571235451.shtml",
"pubDate" : "前天10:57:47",
"enterDate" : "384201:04:12",
"channelId" : "1139110432970308134",
"channelName" : "情感婚姻-新浪女性",
"channelNameSummary" : "情感婚姻-新浪女性",
"channelUrl" : "http:\/\/eladies.sina.com.cn\/feel\/index.shtml",
"author" : "WWW.SINA.COM.CN",
"tags" : [],
"desc" : "导语：据台湾\u201C今日新闻网\u201D报道，台北一名室内设计师和前女友分手后，试图挽回对方不成，见爱人要嫁给别人，在她订婚前夕，竟然散发过往2人的性爱影片给前女友的亲友和同事。前女友身心受创报警抓人，连警察都大骂\u201C没见过这么恶劣的人！\u201D 现年40岁的郑姓男子，2年前....",
"emailed" : False,
"forwarded" : False,
"english" : False
}  , {
"index" : 9,
"articleIndex" : "33391",
"favor" :  False ,
     "read" : False,    
"title" : "马来西亚新娘嫁中国瘫痪新郎 因网络相识",
"titleTip" : "马来西亚新娘嫁中国瘫痪新郎 因网络相识",
"titleSummary" : "马来西亚新娘嫁中国瘫痪新郎 因网络相识",
"descSummary" : "导语：手捧着中国和马来西亚两国的结婚证，李康宇和颜淑英恩...",
"url" : "http:\/\/go.rss.sina.com.cn\/redirect.php?url=http:\/\/eladies.sina.com.cn\/qg\/2013\/1028\/10341235441.shtml",
"pubDate" : "前天10:34:53",
"enterDate" : "384200:41:18",
"channelId" : "1139110432970308134",
"channelName" : "情感婚姻-新浪女性",
"channelNameSummary" : "情感婚姻-新浪女性",
"channelUrl" : "http:\/\/eladies.sina.com.cn\/feel\/index.shtml",
"author" : "WWW.SINA.COM.CN",
"tags" : [],
"desc" : "导语：手捧着中国和马来西亚两国的结婚证，李康宇和颜淑英恩爱地笑了。按马来西亚登记结婚的日期算起，中国农村瘫痪小伙李康宇和他的马来西亚媳妇刚刚过完他们的马来西亚\u201C蜜月\u201D。27日，记者走进了河北唐山丰南区的李康宇家，探访这段鲜花与掌声过后的特殊爱情故事。 手捧....",
"emailed" : False,
"forwarded" : False,
"english" : False
}  , {
"index" : 10,
"articleIndex" : "33390",
"favor" :  False ,
     "read" : False,    
"title" : "父亲强奸亲生女获刑5年 称找小姐得花钱",
"titleTip" : "父亲强奸亲生女获刑5年 称找小姐得花钱",
"titleSummary" : "父亲强奸亲生女获刑5年 称找小姐得花钱",
"descSummary" : "导语：坐过牢的任某出狱后因妻子在老家，多次强奸亲生女儿。...",
"url" : "http:\/\/go.rss.sina.com.cn\/redirect.php?url=http:\/\/eladies.sina.com.cn\/qg\/2013\/1028\/10251235437.shtml",
"pubDate" : "前天10:25:25",
"enterDate" : "384201:01:55",
"channelId" : "1139110432970308134",
"channelName" : "情感婚姻-新浪女性",
"channelNameSummary" : "情感婚姻-新浪女性",
"channelUrl" : "http:\/\/eladies.sina.com.cn\/feel\/index.shtml",
"author" : "WWW.SINA.COM.CN",
"tags" : [],
"desc" : "导语：坐过牢的任某出狱后因妻子在老家，多次强奸亲生女儿。其儿子知道此事后报警将父亲抓获。记者昨天获悉，任某已被通州法院一审以强奸罪判处有期徒刑5年。&#160; 现年49岁的任某原是安徽省农民，小学文化。2000年1月26日曾因犯抢劫罪、盗窃罪被判处有期徒刑8年，2004年5月....",
"emailed" : False,
"forwarded" : False,
"english" : False
}  , {
"index" : 11,
"articleIndex" : "33389",
"favor" :  False ,
     "read" : False,    
"title" : "夫妻婚后3个月被女方旧情人砍死",
"titleTip" : "夫妻婚后3个月被女方旧情人砍死",
"titleSummary" : "夫妻婚后3个月被女方旧情人砍死",
"descSummary" : "导语：10月12日晚上，宿迁市泗洪县一小区发生一起恶性凶杀案件，刚...",
"url" : "http:\/\/go.rss.sina.com.cn\/redirect.php?url=http:\/\/eladies.sina.com.cn\/qg\/2013\/1028\/10201235436.shtml",
"pubDate" : "前天10:20:36",
"enterDate" : "384200:57:06",
"channelId" : "1139110432970308134",
"channelName" : "情感婚姻-新浪女性",
"channelNameSummary" : "情感婚姻-新浪女性",
"channelUrl" : "http:\/\/eladies.sina.com.cn\/feel\/index.shtml",
"author" : "WWW.SINA.COM.CN",
"tags" : [],
"desc" : "导语：10月12日晚上，宿迁市泗洪县一小区发生一起恶性凶杀案件，刚刚结婚3个多月的一对夫妇在自家楼下被人砍杀，双双倒在血泊中不治身亡。面对突发的杀人大案，泗洪警方迅速部署，仅用了7个小时就将犯罪嫌疑人抓捕归案。 夫妻俩小区楼下被杀 12日晚上7点多钟，....",
"emailed" : False,
"forwarded" : False,
"english" : False
}  , {
"index" : 12,
"articleIndex" : "33388",
"favor" :  False ,
     "read" : False,    
"title" : "口述：房事不给力丈母娘当众让我难堪",
"titleTip" : "口述：房事不给力丈母娘当众让我难堪",
"titleSummary" : "口述：房事不给力丈母娘当众让我难堪",
"descSummary" : "导语：晚上回家的时候，我的心情十分不好。丈母娘每天在妻子耳...",
"url" : "http:\/\/go.rss.sina.com.cn\/redirect.php?url=http:\/\/eladies.sina.com.cn\/qg\/2013\/1028\/07071235395.shtml",
"pubDate" : "前天07:07:39",
"enterDate" : "384200:44:39",
"channelId" : "1139110432970308134",
"channelName" : "情感婚姻-新浪女性",
"channelNameSummary" : "情感婚姻-新浪女性",
"channelUrl" : "http:\/\/eladies.sina.com.cn\/feel\/index.shtml",
"author" : "WWW.SINA.COM.CN",
"tags" : [],
"desc" : "导语：晚上回家的时候，我的心情十分不好。丈母娘每天在妻子耳边上说这说那，妻子早晚会被她说动心的。到时候妻子如果忍受不了寂寞红杏出墙怎么办？现在这种情况下，我是不是应该把车卖了，回到妻子身边陪伴她？ 查看更多网友口述&gt;&gt; 读者倾诉：小钽&#160;....",
"emailed" : False,
"forwarded" : False,
"english" : False
}  , {
"index" : 13,
"articleIndex" : "33387",
"favor" :  False ,
     "read" : False,    
"title" : "口述：老公祸害我妹称为检查身体",
"titleTip" : "口述：老公祸害我妹称为检查身体",
"titleSummary" : "口述：老公祸害我妹称为检查身体",
"descSummary" : "导语：我看见，阿力的双手正猥琐的僵持在我妹妹的胸前，因为受到突...",
"url" : "http:\/\/go.rss.sina.com.cn\/redirect.php?url=http:\/\/eladies.sina.com.cn\/qg\/2013\/1028\/07071235394.shtml",
"pubDate" : "前天07:07:14",
"enterDate" : "384200:44:14",
"channelId" : "1139110432970308134",
"channelName" : "情感婚姻-新浪女性",
"channelNameSummary" : "情感婚姻-新浪女性",
"channelUrl" : "http:\/\/eladies.sina.com.cn\/feel\/index.shtml",
"author" : "WWW.SINA.COM.CN",
"tags" : [],
"desc" : "导语：我看见，阿力的双手正猥琐的僵持在我妹妹的胸前，因为受到突如其来的惊吓，他双眼瞪得像对灯泡，局促地不安地看着我。我无法相信，自己的老公竟然对我的亲妹做出这种事来。 查看更多网友口述&gt;&gt; 夜起风了，有些凉，我随手拉了拉毛毯，发现阿力不在床....",
"emailed" : False,
"forwarded" : False,
"english" : False
}  , {
"index" : 14,
"articleIndex" : "33386",
"favor" :  False ,
     "read" : False,    
"title" : "口述：一天陪睡两个痴情男让我心烦",
"titleTip" : "口述：一天陪睡两个痴情男让我心烦",
"titleSummary" : "口述：一天陪睡两个痴情男让我心烦",
"descSummary" : "导语：现在我了解自己了，我喜欢被无条件的宠着，所以，我还和山...",
"url" : "http:\/\/go.rss.sina.com.cn\/redirect.php?url=http:\/\/eladies.sina.com.cn\/qg\/2013\/1028\/07061235393.shtml",
"pubDate" : "前天07:06:46",
"enterDate" : "384200:43:46",
"channelId" : "1139110432970308134",
"channelName" : "情感婚姻-新浪女性",
"channelNameSummary" : "情感婚姻-新浪女性",
"channelUrl" : "http:\/\/eladies.sina.com.cn\/feel\/index.shtml",
"author" : "WWW.SINA.COM.CN",
"tags" : [],
"desc" : "导语：现在我了解自己了，我喜欢被无条件的宠着，所以，我还和山西男友保持联系，当然，他们彼此之间并不知道。有时候，他们同一天来找我，我就白天陪早来的睡觉，晚上陪后来的睡觉。 查看更多网友口述&gt;&gt; 网友来信： 你好，因为开始就是错误，所以....",
"emailed" : False,
"forwarded" : False,
"english" : False
}  , {
"index" : 15,
"articleIndex" : "33385",
"favor" :  False ,
     "read" : False,    
"title" : "面对面or背对背 从睡姿检测夫妻恩爱指数",
"titleTip" : "面对面or背对背 从睡姿检测夫妻恩爱指数",
"titleSummary" : "面对面or背对背 从睡姿检测夫妻恩爱指数",
"descSummary" : "导语：古语有云\u201C床头吵架床尾和\u201D、\u201C同床异梦\u201D，\u201C床上关...",
"url" : "http:\/\/go.rss.sina.com.cn\/redirect.php?url=http:\/\/eladies.sina.com.cn\/qg\/2013\/1028\/07061235401.shtml",
"pubDate" : "前天07:06:18",
"enterDate" : "384200:43:18",
"channelId" : "1139110432970308134",
"channelName" : "情感婚姻-新浪女性",
"channelNameSummary" : "情感婚姻-新浪女性",
"channelUrl" : "http:\/\/eladies.sina.com.cn\/feel\/index.shtml",
"author" : "WWW.SINA.COM.CN",
"tags" : [],
"desc" : "导语：古语有云\u201C床头吵架床尾和\u201D、\u201C同床异梦\u201D，\u201C床上关系\u201D是夫妻关系的缩影。从床上的互动，可看出伴侣的感情如何，以及两人的相处模式，两人正面临的感情问题，从睡姿更可以看出两个人之间的恩爱指数。你与伴侣之间的关系如何呢？一起做个自我检测吧！ 面对面or背对....",
"emailed" : False,
"forwarded" : False,
"english" : False
}  , {
"index" : 16,
"articleIndex" : "33384",
"favor" :  False ,
     "read" : False,    
"title" : "男人5个性秘密 千万别揭穿他",
"titleTip" : "男人5个性秘密 千万别揭穿他",
"titleSummary" : "男人5个性秘密 千万别揭穿他",
"descSummary" : "导语：对于男人难以启齿的这些芝麻小事，你不需要费劲周折，在弹指之间都...",
"url" : "http:\/\/go.rss.sina.com.cn\/redirect.php?url=http:\/\/eladies.sina.com.cn\/qg\/2013\/1028\/07051235341.shtml",
"pubDate" : "前天07:05:22",
"enterDate" : "384200:42:22",
"channelId" : "1139110432970308134",
"channelName" : "情感婚姻-新浪女性",
"channelNameSummary" : "情感婚姻-新浪女性",
"channelUrl" : "http:\/\/eladies.sina.com.cn\/feel\/index.shtml",
"author" : "WWW.SINA.COM.CN",
"tags" : [],
"desc" : "导语：对于男人难以启齿的这些芝麻小事，你不需要费劲周折，在弹指之间都可以轻易了解到！现在看一下女人不可不知的关于男人的5个性秘密。 男人5个性秘密 千万别揭穿他 1.喜欢打野战 男人喜欢寻求刺激，对早已熟悉的人与地方，他日渐失去兴趣，很多时候就....",
"emailed" : False,
"forwarded" : False,
"english" : False
}  , {
"index" : 17,
"articleIndex" : "33383",
"favor" :  False ,
     "read" : False,    
"title" : "10大诱惑场景 最容易让男人想入非非",
"titleTip" : "10大诱惑场景 最容易让男人想入非非",
"titleSummary" : "10大诱惑场景 最容易让男人想入非非",
"descSummary" : "导语：男人与女人的思维大相径庭，女人有些不经意的行为，却会让...",
"url" : "http:\/\/go.rss.sina.com.cn\/redirect.php?url=http:\/\/eladies.sina.com.cn\/qg\/2013\/1028\/07041235399.shtml",
"pubDate" : "前天07:04:54",
"enterDate" : "384200:41:54",
"channelId" : "1139110432970308134",
"channelName" : "情感婚姻-新浪女性",
"channelNameSummary" : "情感婚姻-新浪女性",
"channelUrl" : "http:\/\/eladies.sina.com.cn\/feel\/index.shtml",
"author" : "WWW.SINA.COM.CN",
"tags" : [],
"desc" : "导语：男人与女人的思维大相径庭，女人有些不经意的行为，却会让男人浮想翩翩，想入非非。认清这10个对男人极具诱惑力的场景，如果有意，请把握，如果无意，请放过！ 10大诱惑场景 最容易让男人想入非非 男人究竟在想什么？是他的荷尔蒙在轻舞飞扬地驱使？还是真....",
"emailed" : False,
"forwarded" : False,
"english" : False
}  , {
"index" : 18,
"articleIndex" : "33382",
"favor" :  False ,
     "read" : False,    
"title" : "恋爱胜利法 8招让你拥有幸福情感",
"titleTip" : "恋爱胜利法 8招让你拥有幸福情感",
"titleSummary" : "恋爱胜利法 8招让你拥有幸福情感",
"descSummary" : "导语：现实不是言情剧，不会有高富帅把蛮横任性、白目自私作为择偶标...",
"url" : "http:\/\/go.rss.sina.com.cn\/redirect.php?url=http:\/\/eladies.sina.com.cn\/qg\/2013\/1028\/07041235332.shtml",
"pubDate" : "前天07:04:09",
"enterDate" : "384200:41:09",
"channelId" : "1139110432970308134",
"channelName" : "情感婚姻-新浪女性",
"channelNameSummary" : "情感婚姻-新浪女性",
"channelUrl" : "http:\/\/eladies.sina.com.cn\/feel\/index.shtml",
"author" : "WWW.SINA.COM.CN",
"tags" : [],
"desc" : "导语：现实不是言情剧，不会有高富帅把蛮横任性、白目自私作为择偶标杆。优秀的好男人，都是女人培养出来的。与其盼望天上掉下个好男人，对你忠心不二、任你予取予求，不如自己学会调教好男人。爱美网情感分享恋爱胜利法，利用这8招，让你获得美满幸福的好归宿。 恋爱胜利....",
"emailed" : False,
"forwarded" : False,
"english" : False
}  , {
"index" : 19,
"articleIndex" : "33381",
"favor" :  False ,
     "read" : False,    
"title" : "男人初次动手前心理 和家庭暴力Say No",
"titleTip" : "男人初次动手前心理 和家庭暴力Say No",
"titleSummary" : "男人初次动手前心理 和家庭暴力Say No",
"descSummary" : "导语：家庭暴力是当今社会问题之一，那么，为什么会产生家庭暴...",
"url" : "http:\/\/go.rss.sina.com.cn\/redirect.php?url=http:\/\/eladies.sina.com.cn\/qg\/2013\/1028\/06591235402.shtml",
"pubDate" : "前天06:59:10",
"enterDate" : "384201:06:14",
"channelId" : "1139110432970308134",
"channelName" : "情感婚姻-新浪女性",
"channelNameSummary" : "情感婚姻-新浪女性",
"channelUrl" : "http:\/\/eladies.sina.com.cn\/feel\/index.shtml",
"author" : "WWW.SINA.COM.CN",
"tags" : [],
"desc" : "导语：家庭暴力是当今社会问题之一，那么，为什么会产生家庭暴力呢？男人又为什么要打自己的老婆呢？可以预防家庭暴力的出现吗？下面的调查资料及专家看法，可以一一为我们解答以上几个问题。&#160;男人们为什么打老婆？ 男人们为什么打老婆？ 1.性别歧视：加害人....",
"emailed" : False,
"forwarded" : False,
"english" : False
} ]
}
