{
"mode" : {"viewTitle" : 1,   "viewNew" : 0,  "pageIndex" : 1 },
 "channel" : {"id" : "-391414959827299045", "booked" : False, "subNumber" : 2733, "name" : "考试频道-新浪教育", "url" : "http:\/\/edu.sina.com.cn\/rss\/index.html", "feed" : "http:\/\/rss.sina.com.cn\/edu\/exam.xml", "author" : "WWW.SINA.COM.CN", "desc" : "文化教育-考试频道", "imageUrl" : "http:\/\/www.sinaimg.cn\/home\/deco\/2009\/0330\/logo_home_edu.gif", "postPerWeek" : "0", "lastCrawTime" : "2013年10月15日 (2周前)", "crawDateTime" : "2013年10月15日 (2周前)", "lastHttpCode" : "200"}, "page" : {
"startIndex" : 0,
"totalCount" : 5000,
"pageIndex" : 1,
"lastPage" : 250,
"pageSize" : 20,
"english" :  False },
 "unreadNum" : 0, "shotIndex" : -1,
"articles" : [
{
"index" : 0,
"articleIndex" : "30284",
"favor" :  False ,
     "read" : False,    
"title" : "2014年国家公务员考试报名流程详细图解",
"titleTip" : "2014年国家公务员考试报名流程详细图解",
"titleSummary" : "2014年国家公务员考试报名流程详细图解",
"descSummary" : "想要取得国家公务员考试成功的第一步就是成功报考，中公教育...",
"url" : "http:\/\/go.rss.sina.com.cn\/redirect.php?url=http:\/\/edu.sina.com.cn\/official\/2013-10-15\/1017397761.shtml",
"pubDate" : "2013年10月15日 (2周前)",
"enterDate" : "384200:47:34",
"channelId" : "-391414959827299045",
"channelName" : "考试频道-新浪教育",
"channelNameSummary" : "考试频道-新浪教育",
"channelUrl" : "http:\/\/edu.sina.com.cn\/rss\/index.html",
"author" : "WWW.SINA.COM.CN",
"tags" : [],
"desc" : "想要取得国家公务员考试成功的第一步就是成功报考，中公教育专家建议考生首先要对报名流程做一个大致的了解，增进报名速度，提高报名质量，打造高通过率。 第一步：注册 考生在进入国家公务员考试专题信息页面(bm.scs.gov.cn)之后，第一步要先注册，只有成功注....",
"emailed" : False,
"forwarded" : False,
"english" : False
}  , {
"index" : 1,
"articleIndex" : "30281",
"favor" :  False ,
     "read" : False,    
"title" : "2014年国考招录人数三年来首次减少",
"titleTip" : "2014年国考招录人数三年来首次减少",
"titleSummary" : "2014年国考招录人数三年来首次减少",
"descSummary" : "本报讯(记者 解丽)2014年国考，申论考试的时长首次由150分钟增加...",
"url" : "http:\/\/go.rss.sina.com.cn\/redirect.php?url=http:\/\/edu.sina.com.cn\/official\/2013-10-15\/0940397745.shtml",
"pubDate" : "2013年10月15日 (2周前)",
"enterDate" : "384201:10:53",
"channelId" : "-391414959827299045",
"channelName" : "考试频道-新浪教育",
"channelNameSummary" : "考试频道-新浪教育",
"channelUrl" : "http:\/\/edu.sina.com.cn\/rss\/index.html",
"author" : "WWW.SINA.COM.CN",
"tags" : [],
"desc" : "本报讯(记者 解丽)2014年国考，申论考试的时长首次由150分钟增加至180分钟。昨日，国家公务员局发布2014年国考公告及考试大纲，计划招录1.9万余人，较之去年的2万余人略有降低，更是三年来的首次减少。报名时间比去年压缩了一天，从明日开始，10月24日截止。 招录人数....",
"emailed" : False,
"forwarded" : False,
"english" : False
}  , {
"index" : 2,
"articleIndex" : "30283",
"favor" :  False ,
     "read" : False,    
"title" : "年轻人为什么热衷报考公务员？",
"titleTip" : "年轻人为什么热衷报考公务员？",
"titleSummary" : "年轻人为什么热衷报考公务员？",
"descSummary" : "又到一年\u201C国考\u201D季，持续多年的\u201C公务员热\u201D仍在升温。统计数据显示...",
"url" : "http:\/\/go.rss.sina.com.cn\/redirect.php?url=http:\/\/edu.sina.com.cn\/official\/2013-10-15\/0937397743.shtml",
"pubDate" : "2013年10月15日 (2周前)",
"enterDate" : "384200:37:27",
"channelId" : "-391414959827299045",
"channelName" : "考试频道-新浪教育",
"channelNameSummary" : "考试频道-新浪教育",
"channelUrl" : "http:\/\/edu.sina.com.cn\/rss\/index.html",
"author" : "WWW.SINA.COM.CN",
"tags" : [],
"desc" : "又到一年\u201C国考\u201D季，持续多年的\u201C公务员热\u201D仍在升温。统计数据显示，2011年度至2013年度中央国家机关招考公务员报名并通过资格审查的人数，分别为130.5万、123.4万和138.3万，基本保持着\u201C百里挑一\u201D的热度。其中，大部分报考者是应届高校毕业生。 年轻人为什么热衷....",
"emailed" : False,
"forwarded" : False,
"english" : False
}  , {
"index" : 3,
"articleIndex" : "30282",
"favor" :  False ,
     "read" : False,    
"title" : "国家公务员考试热折射官本位回潮",
"titleTip" : "国家公务员考试热折射官本位回潮",
"titleSummary" : "国家公务员考试热折射官本位回潮",
"descSummary" : "【新华社北京10月14日电】又到一年\u201C国考\u201D季，持续多年的\u201C公务...",
"url" : "http:\/\/go.rss.sina.com.cn\/redirect.php?url=http:\/\/edu.sina.com.cn\/official\/2013-10-15\/0919397733.shtml",
"pubDate" : "2013年10月15日 (2周前)",
"enterDate" : "384200:19:24",
"channelId" : "-391414959827299045",
"channelName" : "考试频道-新浪教育",
"channelNameSummary" : "考试频道-新浪教育",
"channelUrl" : "http:\/\/edu.sina.com.cn\/rss\/index.html",
"author" : "WWW.SINA.COM.CN",
"tags" : [],
"desc" : "【新华社北京10月14日电】又到一年\u201C国考\u201D季，持续多年的\u201C公务员热\u201D仍在升温。公务员为何如此有吸引力？人们都抱着怎样的心态报考公务员？\u201C公务员热\u201D的背后有哪些喜与忧？中央国家机关招考公务员公告发布之际，记者对此进行了深入采访。 为求稳年轻人进\u201C围城\u201D....",
"emailed" : False,
"forwarded" : False,
"english" : False
}  , {
"index" : 4,
"articleIndex" : "30280",
"favor" :  False ,
     "read" : False,    
"title" : "港校应针对内地生源变化推进办学改革",
"titleTip" : "港校应针对内地生源变化推进办学改革",
"titleSummary" : "港校应针对内地生源变化推进办学改革",
"descSummary" : "据港媒报道，香港城市大学一硕士课程的内地生选读\u201C以粤语授课...",
"url" : "http:\/\/go.rss.sina.com.cn\/redirect.php?url=http:\/\/edu.sina.com.cn\/gaokao\/2013-10-15\/0820397726.shtml",
"pubDate" : "2013年10月15日 (2周前)",
"enterDate" : "384200:50:55",
"channelId" : "-391414959827299045",
"channelName" : "考试频道-新浪教育",
"channelNameSummary" : "考试频道-新浪教育",
"channelUrl" : "http:\/\/edu.sina.com.cn\/rss\/index.html",
"author" : "WWW.SINA.COM.CN",
"tags" : [],
"desc" : "据港媒报道，香港城市大学一硕士课程的内地生选读\u201C以粤语授课\u201D的班，却要求老师改用普通话讲课，引发香港学生不满对骂。老师只能讲一句粤语，再用普通话翻译一次。 这其实不应该在内地生和香港生之间引发\u201C骂战\u201D。从根本上说，这暴露有的香港地区高校并没有做好生源....",
"emailed" : False,
"forwarded" : False,
"english" : False
}  , {
"index" : 5,
"articleIndex" : "30279",
"favor" :  False ,
     "read" : False,    
"title" : "衡水中学被称\u201C高考工厂\u201D 吃饭4分钟系误传",
"titleTip" : "衡水中学被称\u201C高考工厂\u201D 吃饭4分钟系误传",
"titleSummary" : "衡水中学被称\u201C高考工厂\u201D 吃饭4分钟系误传",
"descSummary" : "衡水中学会定期举办活动让学生充满激情。网络图片 学生跑...",
"url" : "http:\/\/go.rss.sina.com.cn\/redirect.php?url=http:\/\/edu.sina.com.cn\/gaokao\/2013-10-15\/0742397721.shtml",
"pubDate" : "2013年10月15日 (2周前)",
"enterDate" : "384199:12:52",
"channelId" : "-391414959827299045",
"channelName" : "考试频道-新浪教育",
"channelNameSummary" : "考试频道-新浪教育",
"channelUrl" : "http:\/\/edu.sina.com.cn\/rss\/index.html",
"author" : "WWW.SINA.COM.CN",
"tags" : [],
"desc" : "衡水中学会定期举办活动让学生充满激情。 网络图片 学生跑步时还夹着书。 网络图片 3年做的卷子有2米高。网络图片 104人考入清华北大、本二上线率高达98.2%，被称为\u201C高考超级工厂\u201D的河北衡水中学，昨天出现在南京。衡水中学副校长康新江带着约60人的\u201C教师团....",
"emailed" : False,
"forwarded" : False,
"english" : False
}  , {
"index" : 6,
"articleIndex" : "30278",
"favor" :  False ,
     "read" : False,    
"title" : "中央机关2014年考录国家公务员报考指南",
"titleTip" : "中央机关2014年考录国家公务员报考指南",
"titleSummary" : "中央机关2014年考录国家公务员报考指南",
"descSummary" : "新浪教育讯 中央机关及其直属机构2014年国家公务员招录考试...",
"url" : "http:\/\/go.rss.sina.com.cn\/redirect.php?url=http:\/\/edu.sina.com.cn\/official\/2013-10-14\/1927397709.shtml",
"pubDate" : "2013年10月14日 (2周前)",
"enterDate" : "384200:30:13",
"channelId" : "-391414959827299045",
"channelName" : "考试频道-新浪教育",
"channelNameSummary" : "考试频道-新浪教育",
"channelUrl" : "http:\/\/edu.sina.com.cn\/rss\/index.html",
"author" : "WWW.SINA.COM.CN",
"tags" : [],
"desc" : "新浪教育讯&#160; 中央机关及其直属机构2014年国家公务员招录考试正式启动，10月16日起开始报名。请考生们点击查看报考指南。 第一章 报考政策规定 一、关于报考条件 二、报考时间、方式和基本步骤....",
"emailed" : False,
"forwarded" : False,
"english" : False
}  , {
"index" : 7,
"articleIndex" : "30277",
"favor" :  False ,
     "read" : False,    
"title" : "2014国家公务员考试最全政策答疑300问",
"titleTip" : "2014国家公务员考试最全政策答疑300问",
"titleSummary" : "2014国家公务员考试最全政策答疑300问",
"descSummary" : "从考生的角度出发，中公教育为广大考生汇集了2014年国家公务...",
"url" : "http:\/\/go.rss.sina.com.cn\/redirect.php?url=http:\/\/edu.sina.com.cn\/official\/2013-10-14\/1835397701.shtml",
"pubDate" : "2013年10月14日 (2周前)",
"enterDate" : "384200:38:41",
"channelId" : "-391414959827299045",
"channelName" : "考试频道-新浪教育",
"channelNameSummary" : "考试频道-新浪教育",
"channelUrl" : "http:\/\/edu.sina.com.cn\/rss\/index.html",
"author" : "WWW.SINA.COM.CN",
"tags" : [],
"desc" : "从考生的角度出发，中公教育为广大考生汇集了2014年国家公务员考试从报名到面试全部环节中会遇到的常见问题，归纳出二十五部分，以一问一答形式全面帮助考生解决疑问。 第一部分&#160;&#160;国家公务员报考政策(47问) 第二部分 国家公务员报考基层工作经历常见....",
"emailed" : False,
"forwarded" : False,
"english" : False
}  , {
"index" : 8,
"articleIndex" : "30276",
"favor" :  False ,
     "read" : False,    
"title" : "2014年国家公务员考试公共科目考试大纲",
"titleTip" : "2014年国家公务员考试公共科目考试大纲",
"titleSummary" : "2014年国家公务员考试公共科目考试大纲",
"descSummary" : "新浪教育讯 2014年度国家公务员录用考试公共科目考试大纲今...",
"url" : "http:\/\/go.rss.sina.com.cn\/redirect.php?url=http:\/\/edu.sina.com.cn\/official\/2013-10-14\/1727397681.shtml",
"pubDate" : "2013年10月14日 (2周前)",
"enterDate" : "384199:30:10",
"channelId" : "-391414959827299045",
"channelName" : "考试频道-新浪教育",
"channelNameSummary" : "考试频道-新浪教育",
"channelUrl" : "http:\/\/edu.sina.com.cn\/rss\/index.html",
"author" : "WWW.SINA.COM.CN",
"tags" : [],
"desc" : "新浪教育讯 2014年度国家公务员录用考试公共科目考试大纲今日公布，以下为大纲全文。 点击查看： 2014年度中央机关公务员招考7个非通用语职位外语水平测试考试大纲 银监会系统2014年度公务员录用考试专业科目笔试考试大纲 2014年考录中国证监会参....",
"emailed" : False,
"forwarded" : False,
"english" : False
}  , {
"index" : 9,
"articleIndex" : "30273",
"favor" :  False ,
     "read" : False,    
"title" : "调查：2014国家公务员考试你准备好了吗？",
"titleTip" : "调查：2014国家公务员考试你准备好了吗？",
"titleSummary" : "调查：2014国家公务员考试你准备好了吗？",
"descSummary" : "新浪教育讯 中共中央组织部、人力资源和社会保障部、国家...",
"url" : "http:\/\/go.rss.sina.com.cn\/redirect.php?url=http:\/\/edu.sina.com.cn\/official\/2013-10-14\/1427397626.shtml",
"pubDate" : "2013年10月14日 (2周前)",
"enterDate" : "384201:01:33",
"channelId" : "-391414959827299045",
"channelName" : "考试频道-新浪教育",
"channelNameSummary" : "考试频道-新浪教育",
"channelUrl" : "http:\/\/edu.sina.com.cn\/rss\/index.html",
"author" : "WWW.SINA.COM.CN",
"tags" : [],
"desc" : "新浪教育讯 中共中央组织部、人力资源和社会保障部、国家公务员局中央机关及其直属机构2014年度考试录用公务员公告今日公布，考试定于10月16日8:00-24日18:00报名，11月24日举行公共科目笔试。",
"emailed" : False,
"forwarded" : False,
"english" : False
}  , {
"index" : 10,
"articleIndex" : "30272",
"favor" :  False ,
     "read" : False,    
"title" : "2014年国考报名16日开始 11月24日笔试",
"titleTip" : "2014年国考报名16日开始 11月24日笔试",
"titleSummary" : "2014年国考报名16日开始 11月24日笔试",
"descSummary" : "新浪教育讯 来自国家公务员局的最新消息，2014年中央机关及其...",
"url" : "http:\/\/go.rss.sina.com.cn\/redirect.php?url=http:\/\/edu.sina.com.cn\/official\/2013-10-14\/1418397625.shtml",
"pubDate" : "2013年10月14日 (2周前)",
"enterDate" : "384200:51:56",
"channelId" : "-391414959827299045",
"channelName" : "考试频道-新浪教育",
"channelNameSummary" : "考试频道-新浪教育",
"channelUrl" : "http:\/\/edu.sina.com.cn\/rss\/index.html",
"author" : "WWW.SINA.COM.CN",
"tags" : [],
"desc" : "新浪教育讯 来自国家公务员局的最新消息，2014年中央机关及其直属机构招录国家公务员考试已于10月14日发布招考公告，15日发布招考职位，16日-24日开始网上报名，11月24日公共科目笔试。 网上报名：10月16日8:00-24日18:00 资格审查：10月16日8:00-26日18:00....",
"emailed" : False,
"forwarded" : False,
"english" : False
}  , {
"index" : 11,
"articleIndex" : "30271",
"favor" :  False ,
     "read" : False,    
"title" : "2014国家公务员考试招录1.9万人 16日报名",
"titleTip" : "2014国家公务员考试招录1.9万人 16日报名",
"titleSummary" : "2014国家公务员考试招录1.9万人 16日报名",
"descSummary" : "记者今天从中共中央组织部、人力资源社会保障部和国家公务员...",
"url" : "http:\/\/go.rss.sina.com.cn\/redirect.php?url=http:\/\/edu.sina.com.cn\/official\/2013-10-14\/1409397622.shtml",
"pubDate" : "2013年10月14日 (2周前)",
"enterDate" : "384200:43:02",
"channelId" : "-391414959827299045",
"channelName" : "考试频道-新浪教育",
"channelNameSummary" : "考试频道-新浪教育",
"channelUrl" : "http:\/\/edu.sina.com.cn\/rss\/index.html",
"author" : "WWW.SINA.COM.CN",
"tags" : [],
"desc" : "记者今天从中共中央组织部、人力资源社会保障部和国家公务员局获悉，2014年度中央机关及其直属机构考试录用公务员工作即将开始，报名和公共科目笔试时间也已确定。2013年10月15日以后，报考人员可登录人力资源社会保障部门户网站(http:\/\/www.mohrss.gov.cn)、国家公务员局门户....",
"emailed" : False,
"forwarded" : False,
"english" : False
}  , {
"index" : 12,
"articleIndex" : "30270",
"favor" :  False ,
     "read" : False,    
"title" : "2014年国家公务员考试招考公告",
"titleTip" : "2014年国家公务员考试招考公告",
"titleSummary" : "2014年国家公务员考试招考公告",
"descSummary" : "新浪教育讯 中共中央组织部、人力资源和社会保障部、国家公务员局中...",
"url" : "http:\/\/go.rss.sina.com.cn\/redirect.php?url=http:\/\/edu.sina.com.cn\/official\/2013-10-14\/1404397621.shtml",
"pubDate" : "2013年10月14日 (2周前)",
"enterDate" : "384201:08:41",
"channelId" : "-391414959827299045",
"channelName" : "考试频道-新浪教育",
"channelNameSummary" : "考试频道-新浪教育",
"channelUrl" : "http:\/\/edu.sina.com.cn\/rss\/index.html",
"author" : "WWW.SINA.COM.CN",
"tags" : [],
"desc" : "新浪教育讯 中共中央组织部、人力资源和社会保障部、国家公务员局中央机关及其直属机构2014年度考试录用公务员公告今日公布，以下为公告全文： 中共中央组织部&#160; 人力资源和社会保障部&#160; 国家公务员局 中央机关及其直属机构2014年度考试录用公务员....",
"emailed" : False,
"forwarded" : False,
"english" : False
}  , {
"index" : 13,
"articleIndex" : "30275",
"favor" :  False ,
     "read" : False,    
"title" : "中考语文复习紧跟的\u201C八\u201D个步伐",
"titleTip" : "中考语文复习紧跟的\u201C八\u201D个步伐",
"titleSummary" : "中考语文复习紧跟的\u201C八\u201D个步伐",
"descSummary" : "本文选自《迷鹿Sheila》的博客，请点击查看博客原文。很多学生认为...",
"url" : "http:\/\/go.rss.sina.com.cn\/redirect.php?url=http:\/\/edu.sina.com.cn\/zhongkao\/2013-10-14\/1148397598.shtml",
"pubDate" : "2013年10月14日 (2周前)",
"enterDate" : "384197:51:59",
"channelId" : "-391414959827299045",
"channelName" : "考试频道-新浪教育",
"channelNameSummary" : "考试频道-新浪教育",
"channelUrl" : "http:\/\/edu.sina.com.cn\/rss\/index.html",
"author" : "WWW.SINA.COM.CN",
"tags" : [],
"desc" : "本文选自《迷鹿Sheila》的博客，请点击查看博客原文。 很多学生认为，做语文题纯粹是\u201C跟着感觉走，紧抓住梦的手\u201D，做时凭直觉，做完凭运气，\u201C文无定法\u201D，语文学习也无定法。其实，每一门功课都有它自身的规律，有它自身的特点，语文当然也不例外，如果同学们在平日的学....",
"emailed" : False,
"forwarded" : False,
"english" : False
}  , {
"index" : 14,
"articleIndex" : "30274",
"favor" :  False ,
     "read" : False,    
"title" : "中考报考指南：什么样的考生适合中考签约",
"titleTip" : "中考报考指南：什么样的考生适合中考签约",
"titleSummary" : "中考报考指南：什么样的考生适合中考签约",
"descSummary" : "本文选自《迷鹿Sheila》的博客，请点击查看博客原文。各重...",
"url" : "http:\/\/go.rss.sina.com.cn\/redirect.php?url=http:\/\/edu.sina.com.cn\/zhongkao\/2013-10-14\/1136397588.shtml",
"pubDate" : "2013年10月14日 (2周前)",
"enterDate" : "384197:40:05",
"channelId" : "-391414959827299045",
"channelName" : "考试频道-新浪教育",
"channelNameSummary" : "考试频道-新浪教育",
"channelUrl" : "http:\/\/edu.sina.com.cn\/rss\/index.html",
"author" : "WWW.SINA.COM.CN",
"tags" : [],
"desc" : "本文选自《迷鹿Sheila》的博客，请点击查看博客原文。 各重点中学签约的学生虽然参考条件的方向不同，但是总结起来却也大同小异。主要概括成下面三种典型： 签约学生类型一：考试综合成绩优秀 基本上大多数的重点中学都会以学生在初中期间考试的综合成绩来判....",
"emailed" : False,
"forwarded" : False,
"english" : False
}  , {
"index" : 15,
"articleIndex" : "30265",
"favor" :  False ,
     "read" : False,    
"title" : "高中会考综评或入高考评价 将改变一考定终身",
"titleTip" : "高中会考综评或入高考评价 将改变一考定终身",
"titleSummary" : "高中会考综评或入高考评价 将改变一考定终身",
"descSummary" : "羊城晚报记者 陈晓璇 通讯员 陈燕丽 全国高考改革方案将...",
"url" : "http:\/\/go.rss.sina.com.cn\/redirect.php?url=http:\/\/edu.sina.com.cn\/gaokao\/2013-10-14\/1110397586.shtml",
"pubDate" : "2013年10月14日 (2周前)",
"enterDate" : "384200:44:52",
"channelId" : "-391414959827299045",
"channelName" : "考试频道-新浪教育",
"channelNameSummary" : "考试频道-新浪教育",
"channelUrl" : "http:\/\/edu.sina.com.cn\/rss\/index.html",
"author" : "WWW.SINA.COM.CN",
"tags" : [],
"desc" : "羊城晚报记者 陈晓璇 通讯员 陈燕丽 全国高考改革方案将会在十八届三中全会后公布(详见昨日本报报道)，消息一出，引起了社会的极大关注。新一轮的高考改革重点会在哪里？12日，在\u201C教育与中国未来\u201D30人论坛2013年会上，参与制订全国高考改革方案的21世纪教育研究院院....",
"emailed" : False,
"forwarded" : False,
"english" : False
}  , {
"index" : 16,
"articleIndex" : "30269",
"favor" :  False ,
     "read" : False,    
"title" : "2014考研报名须知：网上支付报名费的提醒",
"titleTip" : "2014考研报名须知：网上支付报名费的提醒",
"titleSummary" : "2014考研报名须知：网上支付报名费的提醒",
"descSummary" : "网络报名缴费今年新增了五个省市区--报考点选择北京、天津...",
"url" : "http:\/\/go.rss.sina.com.cn\/redirect.php?url=http:\/\/edu.sina.com.cn\/kaoyan\/2013-10-14\/1021397559.shtml",
"pubDate" : "2013年10月14日 (2周前)",
"enterDate" : "384199:25:23",
"channelId" : "-391414959827299045",
"channelName" : "考试频道-新浪教育",
"channelNameSummary" : "考试频道-新浪教育",
"channelUrl" : "http:\/\/edu.sina.com.cn\/rss\/index.html",
"author" : "WWW.SINA.COM.CN",
"tags" : [],
"desc" : "网络报名缴费今年新增了五个省市区\u2015\u2015报考点选择北京、天津、河北、山东、河南、四川、湖南和广西的，需要网上支付报名费，其他一律都是现场确认时缴费。 四川省网报提醒：2014年考研报名费用180\/人 据悉，选择四川省各报考点的考生必须在规定的网上报名时间内....",
"emailed" : False,
"forwarded" : False,
"english" : False
}  , {
"index" : 17,
"articleIndex" : "30268",
"favor" :  False ,
     "read" : False,    
"title" : "拖家带口去考研 大龄人士应谨慎选择考研",
"titleTip" : "拖家带口去考研 大龄人士应谨慎选择考研",
"titleSummary" : "拖家带口去考研 大龄人士应谨慎选择考研",
"descSummary" : "在《2014年全国硕士学位研究生招生工作通知》中，报考者年...",
"url" : "http:\/\/go.rss.sina.com.cn\/redirect.php?url=http:\/\/edu.sina.com.cn\/kaoyan\/2013-10-14\/1014397553.shtml",
"pubDate" : "2013年10月14日 (2周前)",
"enterDate" : "384199:18:27",
"channelId" : "-391414959827299045",
"channelName" : "考试频道-新浪教育",
"channelNameSummary" : "考试频道-新浪教育",
"channelUrl" : "http:\/\/edu.sina.com.cn\/rss\/index.html",
"author" : "WWW.SINA.COM.CN",
"tags" : [],
"desc" : "在《2014年全国硕士学位研究生招生工作通知》中，报考者年龄一般不超过40周岁的规定被取消。图\/CFP 10月10日，2014年全国硕士研究生招生考试进入正式报名阶段。而教育部发布的《2014年全国硕士学位研究生招生工作通知》中，存在多年的报考者年龄一般不超过40周岁的规定....",
"emailed" : False,
"forwarded" : False,
"english" : False
}  , {
"index" : 18,
"articleIndex" : "30267",
"favor" :  False ,
     "read" : False,    
"title" : "男硕士女更衣室偷内衣被罚 法官斥伤风败德",
"titleTip" : "男硕士女更衣室偷内衣被罚 法官斥伤风败德",
"titleSummary" : "男硕士女更衣室偷内衣被罚 法官斥伤风败德",
"descSummary" : "中新网10月12日电 据香港《文汇报》报道，香港中文大学硕...",
"url" : "http:\/\/go.rss.sina.com.cn\/redirect.php?url=http:\/\/edu.sina.com.cn\/kaoyan\/2013-10-12\/1756397502.shtml",
"pubDate" : "2013年10月12日 (2周前)",
"enterDate" : "384159:00:27",
"channelId" : "-391414959827299045",
"channelName" : "考试频道-新浪教育",
"channelNameSummary" : "考试频道-新浪教育",
"channelUrl" : "http:\/\/edu.sina.com.cn\/rss\/index.html",
"author" : "WWW.SINA.COM.CN",
"tags" : [],
"desc" : "中新网10月12日电 据香港《文汇报》报道，香港中文大学硕士生，今年7月8日在元朗翘翠峰寓所楼下的会所闯入女更衣室，企图偷去在h桑拿女住客脱下后放于纸袋内的粉红色胸围，被女事主喝止后立即逃走。翌日他\u201C自投罗网\u201D返回案发现场，被警凭闭路电视影像将他拘捕。被告余伟....",
"emailed" : False,
"forwarded" : False,
"english" : False
}  , {
"index" : 19,
"articleIndex" : "30266",
"favor" :  False ,
     "read" : False,    
"title" : "2014考研80天冲刺：英语完型考前强化",
"titleTip" : "2014考研80天冲刺：英语完型考前强化",
"titleSummary" : "2014考研80天冲刺：英语完型考前强化",
"descSummary" : "2014考研英语完型考前强化 掌握考查重点 考研英语完型根据历年...",
"url" : "http:\/\/go.rss.sina.com.cn\/redirect.php?url=http:\/\/edu.sina.com.cn\/kaoyan\/2013-10-12\/1728397495.shtml",
"pubDate" : "2013年10月12日 (2周前)",
"enterDate" : "384158:32:47",
"channelId" : "-391414959827299045",
"channelName" : "考试频道-新浪教育",
"channelNameSummary" : "考试频道-新浪教育",
"channelUrl" : "http:\/\/edu.sina.com.cn\/rss\/index.html",
"author" : "WWW.SINA.COM.CN",
"tags" : [],
"desc" : "2014考研英语完型考前强化 掌握考查重点 考研英语完型根据历年真题总结来说，主要是对考生对不同语境中规范的语言要素(包括词汇、表达方式和结构)的掌握程度，而且还考查考生对语段特征(如连贯性和一致性等)的辨识能力等的综合测评，所以太奇考研英语辅导老师建议同学们在....",
"emailed" : False,
"forwarded" : False,
"english" : False
} ]
}
