{
"mode" : {"viewTitle" : 1,   "viewNew" : 0,  "pageIndex" : 2 },
 "channel" : {"id" : "-391414959827299045", "booked" : False, "subNumber" : 2733, "name" : "考试频道-新浪教育", "url" : "http:\/\/edu.sina.com.cn\/rss\/index.html", "feed" : "http:\/\/rss.sina.com.cn\/edu\/exam.xml", "author" : "WWW.SINA.COM.CN", "desc" : "文化教育-考试频道", "imageUrl" : "http:\/\/www.sinaimg.cn\/home\/deco\/2009\/0330\/logo_home_edu.gif", "postPerWeek" : "0", "lastCrawTime" : "2013年10月15日 (2周前)", "crawDateTime" : "2013年10月15日 (2周前)", "lastHttpCode" : "200"}, "page" : {
"startIndex" : 20,
"totalCount" : 5000,
"pageIndex" : 2,
"lastPage" : 250,
"pageSize" : 20,
"english" :  False },
 "unreadNum" : 0, "shotIndex" : -1,
"articles" : [
{
"index" : 0,
"articleIndex" : "30264",
"favor" :  False ,
     "read" : False,    
"title" : "研究生将缴学费 但待遇普遍提高",
"titleTip" : "研究生将缴学费 但待遇普遍提高",
"titleSummary" : "研究生将缴学费 但待遇普遍提高",
"descSummary" : "本报南昌讯 见习记者陈宸实习生曹硕翰、何博颖报道：2014年研究生报...",
"url" : "http:\/\/go.rss.sina.com.cn\/redirect.php?url=http:\/\/edu.sina.com.cn\/kaoyan\/2013-10-14\/1041397576.shtml",
"pubDate" : "2013年10月14日 (2周前)",
"enterDate" : "384200:15:39",
"channelId" : "-391414959827299045",
"channelName" : "考试频道-新浪教育",
"channelNameSummary" : "考试频道-新浪教育",
"channelUrl" : "http:\/\/edu.sina.com.cn\/rss\/index.html",
"author" : "WWW.SINA.COM.CN",
"tags" : [],
"desc" : "本报南昌讯 见习记者陈宸实习生曹硕翰、何博颖报道：2014年研究生报名已开始！记者近日从江西教育考试院获悉，报名时间截至31日22时。2014年江西共有17所研究生招生单位，其中江西师大预计招收1500人、江西财大1441人、南昌大学2600人左右。 据介绍，从今年开始，报考....",
"emailed" : False,
"forwarded" : False,
"english" : False
}  , {
"index" : 1,
"articleIndex" : "30263",
"favor" :  False ,
     "read" : False,    
"title" : "考研冲刺80天 \u201C学霸\u201D出招提醒",
"titleTip" : "考研冲刺80天 \u201C学霸\u201D出招提醒",
"titleSummary" : "考研冲刺80天 \u201C学霸\u201D出招提醒",
"descSummary" : "10月10日起，2014考研进入正式报名阶段，报名时间为10月31日前的每...",
"url" : "http:\/\/go.rss.sina.com.cn\/redirect.php?url=http:\/\/edu.sina.com.cn\/kaoyan\/2013-10-14\/1035397571.shtml",
"pubDate" : "2013年10月14日 (2周前)",
"enterDate" : "384200:10:00",
"channelId" : "-391414959827299045",
"channelName" : "考试频道-新浪教育",
"channelNameSummary" : "考试频道-新浪教育",
"channelUrl" : "http:\/\/edu.sina.com.cn\/rss\/index.html",
"author" : "WWW.SINA.COM.CN",
"tags" : [],
"desc" : "10月10日起，2014考研进入正式报名阶段，报名时间为10月31日前的每天9时至22时，而且从今年起，考研报名将不再受年龄限制。随着正式报名的开始，备战考研进入了最后的冲刺阶段。那么在这紧张而又忙碌的80多天里，考生们应该如何积极备战？ 四川大学教授程祥说，心态是....",
"emailed" : False,
"forwarded" : False,
"english" : False
}  , {
"index" : 2,
"articleIndex" : "30262",
"favor" :  False ,
     "read" : False,    
"title" : "2014年国家公考申论考试时间延长至180分钟",
"titleTip" : "2014年国家公考申论考试时间延长至180分钟",
"titleSummary" : "2014年国家公考申论考试时间延长至180分钟",
"descSummary" : "人民网北京10月14日电 (郝孟佳)据中央组织部、人力资源社...",
"url" : "http:\/\/go.rss.sina.com.cn\/redirect.php?url=http:\/\/edu.sina.com.cn\/official\/2013-10-14\/1022397560.shtml",
"pubDate" : "2013年10月14日 (2周前)",
"enterDate" : "384199:56:27",
"channelId" : "-391414959827299045",
"channelName" : "考试频道-新浪教育",
"channelNameSummary" : "考试频道-新浪教育",
"channelUrl" : "http:\/\/edu.sina.com.cn\/rss\/index.html",
"author" : "WWW.SINA.COM.CN",
"tags" : [],
"desc" : "人民网北京10月14日电 (郝孟佳)据中央组织部、人力资源社会保障部和国家公务员局消息，2014年度中央机关及其直属机构考试录用公务员工作即将开始，报名和公共科目笔试时间也已确定。 据了解，2014年国家公考报名时间为2013年10月16日至24日，资格审查时间将于26日截止....",
"emailed" : False,
"forwarded" : False,
"english" : False
}  , {
"index" : 3,
"articleIndex" : "30261",
"favor" :  False ,
     "read" : False,    
"title" : "\u201C烤鸭\u201D必读：雅思阅读判断题两点法则",
"titleTip" : "\u201C烤鸭\u201D必读：雅思阅读判断题两点法则",
"titleSummary" : "\u201C烤鸭\u201D必读：雅思阅读判断题两点法则",
"descSummary" : "很多考生由于没有掌握一个比较巧的做题方法，使得这个题型略...",
"url" : "http:\/\/go.rss.sina.com.cn\/redirect.php?url=http:\/\/edu.sina.com.cn\/yyks\/2013-10-14\/0841397536.shtml",
"pubDate" : "2013年10月14日 (2周前)",
"enterDate" : "384200:46:24",
"channelId" : "-391414959827299045",
"channelName" : "考试频道-新浪教育",
"channelNameSummary" : "考试频道-新浪教育",
"channelUrl" : "http:\/\/edu.sina.com.cn\/rss\/index.html",
"author" : "WWW.SINA.COM.CN",
"tags" : [],
"desc" : "很多考生由于没有掌握一个比较巧的做题方法，使得这个题型略显有难度。通常，大家在处理这种题型的时候，会采取定位----翻译题干----翻译原文这样的方法，这种方法不能说不对，但不是最省力的。 我们都知道，在处理细节题的时候，定位词是我们必须掌握的东西。所以，我....",
"emailed" : False,
"forwarded" : False,
"english" : False
}  , {
"index" : 4,
"articleIndex" : "30260",
"favor" :  False ,
     "read" : False,    
"title" : "雅思词汇秘籍：从\u201Csunday\u201D看词汇记忆",
"titleTip" : "雅思词汇秘籍：从\u201Csunday\u201D看词汇记忆",
"titleSummary" : "雅思词汇秘籍：从\u201Csunday\u201D看词汇记忆",
"descSummary" : "单词的记忆是参加任何考试和掌握一门语言的第一步。很多同学...",
"url" : "http:\/\/go.rss.sina.com.cn\/redirect.php?url=http:\/\/edu.sina.com.cn\/yyks\/2013-10-14\/0840397535.shtml",
"pubDate" : "2013年10月14日 (2周前)",
"enterDate" : "384200:44:55",
"channelId" : "-391414959827299045",
"channelName" : "考试频道-新浪教育",
"channelNameSummary" : "考试频道-新浪教育",
"channelUrl" : "http:\/\/edu.sina.com.cn\/rss\/index.html",
"author" : "WWW.SINA.COM.CN",
"tags" : [],
"desc" : "单词的记忆是参加任何考试和掌握一门语言的第一步。很多同学在雅思备考的时候，苦于单词背诵。其实，参与雅思考试的同学已经基本掌握了一定量的单词，在此 基础上，只要掌握一些方法，加以符合记忆规律的复习，就可以迅速地扩充自己的词汇量。在诸多方法之中，词源记忆是较为....",
"emailed" : False,
"forwarded" : False,
"english" : False
}  , {
"index" : 5,
"articleIndex" : "30259",
"favor" :  False ,
     "read" : False,    
"title" : "\u201C烤鸭\u201D必读：托福写作如何抓住主题段",
"titleTip" : "\u201C烤鸭\u201D必读：托福写作如何抓住主题段",
"titleSummary" : "\u201C烤鸭\u201D必读：托福写作如何抓住主题段",
"descSummary" : "编辑点评：众所周知，主体段是新托福独立写作的核心，虽然开...",
"url" : "http:\/\/go.rss.sina.com.cn\/redirect.php?url=http:\/\/edu.sina.com.cn\/yyks\/2013-10-14\/0836397534.shtml",
"pubDate" : "2013年10月14日 (2周前)",
"enterDate" : "384200:41:30",
"channelId" : "-391414959827299045",
"channelName" : "考试频道-新浪教育",
"channelNameSummary" : "考试频道-新浪教育",
"channelUrl" : "http:\/\/edu.sina.com.cn\/rss\/index.html",
"author" : "WWW.SINA.COM.CN",
"tags" : [],
"desc" : "编辑点评：众所周知，主体段是新托福独立写作的核心，虽然开头和结尾也很重要，可是主体段才是一篇文章的灵魂所在。 从ETS对TOFEL Independent Writing的文章及段落发展的评分要求中，我们可以看到托福独立写作主体段展开其实就是对作者自己提出的分论点的解释和说明。....",
"emailed" : False,
"forwarded" : False,
"english" : False
}  , {
"index" : 6,
"articleIndex" : "30256",
"favor" :  False ,
     "read" : False,    
"title" : "\u201C最美\u201D新生报到 大学减除全部学费",
"titleTip" : "\u201C最美\u201D新生报到 大学减除全部学费",
"titleSummary" : "\u201C最美\u201D新生报到 大学减除全部学费",
"descSummary" : "本报烟台10月13日电(通讯员刘海军)大学新生报到的日期早已过去一...",
"url" : "http:\/\/go.rss.sina.com.cn\/redirect.php?url=http:\/\/edu.sina.com.cn\/gaokao\/2013-10-14\/0723397528.shtml",
"pubDate" : "2013年10月14日 (2周前)",
"enterDate" : "384200:58:26",
"channelId" : "-391414959827299045",
"channelName" : "考试频道-新浪教育",
"channelNameSummary" : "考试频道-新浪教育",
"channelUrl" : "http:\/\/edu.sina.com.cn\/rss\/index.html",
"author" : "WWW.SINA.COM.CN",
"tags" : [],
"desc" : "本报烟台10月13日电(通讯员刘海军)大学新生报到的日期早已过去一个多月，然而10月10日下午，山东工商学院校门前却举行了一场隆重的迎新仪式\u2015\u2015不少师生手捧鲜花、拉起横幅、排成队伍，学院领导站在队伍前面，一起等待一名特殊学生的到来。这名学生就是今年被该校录取的青年楷....",
"emailed" : False,
"forwarded" : False,
"english" : False
}  , {
"index" : 7,
"articleIndex" : "30258",
"favor" :  False ,
     "read" : False,    
"title" : "大学生\u201C回炉\u201D读中专 最高月收入上万",
"titleTip" : "大学生\u201C回炉\u201D读中专 最高月收入上万",
"titleSummary" : "大学生\u201C回炉\u201D读中专 最高月收入上万",
"descSummary" : "一群大专院校毕业生，有的在社会上摸爬滚打几年，有的毕业后找...",
"url" : "http:\/\/go.rss.sina.com.cn\/redirect.php?url=http:\/\/edu.sina.com.cn\/gaokao\/2013-10-14\/0721397527.shtml",
"pubDate" : "2013年10月14日 (2周前)",
"enterDate" : "384200:26:24",
"channelId" : "-391414959827299045",
"channelName" : "考试频道-新浪教育",
"channelNameSummary" : "考试频道-新浪教育",
"channelUrl" : "http:\/\/edu.sina.com.cn\/rss\/index.html",
"author" : "WWW.SINA.COM.CN",
"tags" : [],
"desc" : "一群大专院校毕业生，有的在社会上摸爬滚打几年，有的毕业后找工作不顺利，大家不约而同选择到中专\u201C回炉\u201D念书，只为谋个稳定有前途的好工作。在武汉铁路桥梁学校，就有50名这类特殊的学生。 武汉铁路桥梁学校就业办主任张元照介绍，近几年该校学生毕业后，一个月拿六....",
"emailed" : False,
"forwarded" : False,
"english" : False
}  , {
"index" : 8,
"articleIndex" : "30257",
"favor" :  False ,
     "read" : False,    
"title" : "研究生就业率连续3年不敌本科 全班8成学生考研",
"titleTip" : "研究生就业率连续3年不敌本科 全班8成学生考研",
"titleSummary" : "研究生就业率连续3年不敌本科 全班8成学生考研",
"descSummary" : "近十年考研人数 2014年全国硕士研究生招生考试，10月...",
"url" : "http:\/\/go.rss.sina.com.cn\/redirect.php?url=http:\/\/edu.sina.com.cn\/kaoyan\/2013-10-14\/0717397526.shtml",
"pubDate" : "2013年10月14日 (2周前)",
"enterDate" : "384200:22:20",
"channelId" : "-391414959827299045",
"channelName" : "考试频道-新浪教育",
"channelNameSummary" : "考试频道-新浪教育",
"channelUrl" : "http:\/\/edu.sina.com.cn\/rss\/index.html",
"author" : "WWW.SINA.COM.CN",
"tags" : [],
"desc" : "近十年考研人数 2014年全国硕士研究生招生考试，10月10日正式报名。尽管从2014年秋季起读研全自费，但商报记者调查发现，考研依然备受追捧。而重庆市考试院提供的数据显示，全国研究生报考人数已连续9年达百万人以上，连续四年以超过10万人的速度递增。 但从2009年....",
"emailed" : False,
"forwarded" : False,
"english" : False
}  , {
"index" : 9,
"articleIndex" : "30254",
"favor" :  False ,
     "read" : False,    
"title" : "2014年国家公务员考试网上报名入口",
"titleTip" : "2014年国家公务员考试网上报名入口",
"titleSummary" : "2014年国家公务员考试网上报名入口",
"descSummary" : "新浪教育讯 中央机关及其直属机构2014年度考试录用公务员专题网...",
"url" : "http:\/\/go.rss.sina.com.cn\/redirect.php?url=http:\/\/edu.sina.com.cn\/official\/2013-10-13\/1528397524.shtml",
"pubDate" : "2013年10月13日 (2周前)",
"enterDate" : "384200:35:52",
"channelId" : "-391414959827299045",
"channelName" : "考试频道-新浪教育",
"channelNameSummary" : "考试频道-新浪教育",
"channelUrl" : "http:\/\/edu.sina.com.cn\/rss\/index.html",
"author" : "WWW.SINA.COM.CN",
"tags" : [],
"desc" : "新浪教育讯 中央机关及其直属机构2014年度考试录用公务员专题网站(http:\/\/bm.scs.gov.cn\/2014)已上线，考生可登录网站点击左上角\u201C考生由此进入\u201D进行注册和报名工作，16日起将接受报名(目前不在报名时间段)。 点击图片进入报名入口 2014年中央机关及其直属机构招录....",
"emailed" : False,
"forwarded" : False,
"english" : False
}  , {
"index" : 10,
"articleIndex" : "30255",
"favor" :  False ,
     "read" : False,    
"title" : "2014国家公务员考试\u201C三大利器\u201D让考生逆袭",
"titleTip" : "2014国家公务员考试\u201C三大利器\u201D让考生逆袭",
"titleSummary" : "2014国家公务员考试\u201C三大利器\u201D让考生逆袭",
"descSummary" : "本文选自《玩转校园》的博客，点击查看博客原文 随着20...",
"url" : "http:\/\/go.rss.sina.com.cn\/redirect.php?url=http:\/\/edu.sina.com.cn\/official\/2013-10-13\/1408397520.shtml",
"pubDate" : "2013年10月13日 (2周前)",
"enterDate" : "384198:45:48",
"channelId" : "-391414959827299045",
"channelName" : "考试频道-新浪教育",
"channelNameSummary" : "考试频道-新浪教育",
"channelUrl" : "http:\/\/edu.sina.com.cn\/rss\/index.html",
"author" : "WWW.SINA.COM.CN",
"tags" : [],
"desc" : "本文选自《玩转校园》的博客，点击查看博客原文 随着2013年政法干警笔试的落幕，10月，2014年国家公务员考试来敲门了。通过近四年国家公务员考试报考人数的分析，每年报考人数均突破了百万，而在刚结束的4月13日联考，涉及的考生也超过百万。近几年，公务员考试俨然成....",
"emailed" : False,
"forwarded" : False,
"english" : False
}  , {
"index" : 11,
"articleIndex" : "30253",
"favor" :  False ,
     "read" : False,    
"title" : "国家公务员考试公告尚未发布 备考气氛浓",
"titleTip" : "国家公务员考试公告尚未发布 备考气氛浓",
"titleSummary" : "国家公务员考试公告尚未发布 备考气氛浓",
"descSummary" : "国家公务员考试公告尚未发布 备考气氛浓 记者近日发现，才刚...",
"url" : "http:\/\/go.rss.sina.com.cn\/redirect.php?url=http:\/\/edu.sina.com.cn\/official\/2013-10-13\/1355397518.shtml",
"pubDate" : "2013年10月13日 (2周前)",
"enterDate" : "384199:02:54",
"channelId" : "-391414959827299045",
"channelName" : "考试频道-新浪教育",
"channelNameSummary" : "考试频道-新浪教育",
"channelUrl" : "http:\/\/edu.sina.com.cn\/rss\/index.html",
"author" : "WWW.SINA.COM.CN",
"tags" : [],
"desc" : "国家公务员考试公告尚未发布 备考气氛浓 记者近日发现，才刚进入十月中旬，很多贵阳市民就已紧盯一年一度的国考。据了解，虽然2014年国家公务员考试公告尚未发布，考试大纲也要等到10月中旬才会出来，但各类\u201C最新版\u201D国考辅导书已上架开卖，备考的气氛不亚于国考临近。 ■....",
"emailed" : False,
"forwarded" : False,
"english" : False
}  , {
"index" : 12,
"articleIndex" : "30252",
"favor" :  False ,
     "read" : False,    
"title" : "对话休学港大辽宁高考状元自称古代人",
"titleTip" : "对话休学港大辽宁高考状元自称古代人",
"titleSummary" : "对话休学港大辽宁高考状元自称古代人",
"descSummary" : "据中国之声《新闻晚高峰》报道，上香港大学是让很多人羡慕的一...",
"url" : "http:\/\/go.rss.sina.com.cn\/redirect.php?url=http:\/\/edu.sina.com.cn\/gaokao\/2013-10-13\/1113397514.shtml",
"pubDate" : "2013年10月13日 (2周前)",
"enterDate" : "384200:21:07",
"channelId" : "-391414959827299045",
"channelName" : "考试频道-新浪教育",
"channelNameSummary" : "考试频道-新浪教育",
"channelUrl" : "http:\/\/edu.sina.com.cn\/rss\/index.html",
"author" : "WWW.SINA.COM.CN",
"tags" : [],
"desc" : "据中国之声《新闻晚高峰》报道，上香港大学是让很多人羡慕的一件事，尤其是还有高达72万人民币的全额奖学金。但刘丁宁，这位2013年的辽宁省文科状元，却在开学仅仅一个月后，匆匆选择放弃香港大学优厚的学习条件，回家准备复读考北京大学。 对于这样一种做法，香港大学....",
"emailed" : False,
"forwarded" : False,
"english" : False
}  , {
"index" : 13,
"articleIndex" : "30251",
"favor" :  False ,
     "read" : False,    
"title" : "北京高招7类考试时间确定 考生需网上报名",
"titleTip" : "北京高招7类考试时间确定 考生需网上报名",
"titleSummary" : "北京高招7类考试时间确定 考生需网上报名",
"descSummary" : "本市2014年普通高等学校招收艺术特长生统测等7类考试时间已...",
"url" : "http:\/\/go.rss.sina.com.cn\/redirect.php?url=http:\/\/edu.sina.com.cn\/gaokao\/2013-10-13\/1110397513.shtml",
"pubDate" : "2013年10月13日 (2周前)",
"enterDate" : "384200:18:41",
"channelId" : "-391414959827299045",
"channelName" : "考试频道-新浪教育",
"channelNameSummary" : "考试频道-新浪教育",
"channelUrl" : "http:\/\/edu.sina.com.cn\/rss\/index.html",
"author" : "WWW.SINA.COM.CN",
"tags" : [],
"desc" : "本市2014年普通高等学校招收艺术特长生统测等7类考试时间已经确定。有关负责人提醒，考生要先参加2013年11月进行的高考网上报名。 ■相关测试安排 报名项目 准考证发放(或打印)时间 测试时间 成绩发布时间 艺术特长生统测 2013年12月11日 2013年12月14、....",
"emailed" : False,
"forwarded" : False,
"english" : False
}  , {
"index" : 14,
"articleIndex" : "30250",
"favor" :  False ,
     "read" : False,    
"title" : "2014国考在即山寨官网横行售卖辅导书",
"titleTip" : "2014国考在即山寨官网横行售卖辅导书",
"titleSummary" : "2014国考在即山寨官网横行售卖辅导书",
"descSummary" : "有的山寨网站把自己伪装成\u201C官网\u201D发布考试信息甚至不实信息，...",
"url" : "http:\/\/go.rss.sina.com.cn\/redirect.php?url=http:\/\/edu.sina.com.cn\/official\/2013-10-12\/1843397506.shtml",
"pubDate" : "2013年10月12日 (2周前)",
"enterDate" : "384185:22:16",
"channelId" : "-391414959827299045",
"channelName" : "考试频道-新浪教育",
"channelNameSummary" : "考试频道-新浪教育",
"channelUrl" : "http:\/\/edu.sina.com.cn\/rss\/index.html",
"author" : "WWW.SINA.COM.CN",
"tags" : [],
"desc" : "有的山寨网站把自己伪装成\u201C官网\u201D发布考试信息甚至不实信息，借机售卖考试材料和宣传辅导班，有的山寨网站\u201C内部材料\u201D实为网络资料拼凑，有的以高价推出所谓的\u201C保过\u201D培训班，更有甚者冠冕堂皇地打出售卖\u201C考前答案\u201D的旗号\u2026\u2026随着2014年国家公务员考试的临近，形形色色的....",
"emailed" : False,
"forwarded" : False,
"english" : False
}  , {
"index" : 15,
"articleIndex" : "30248",
"favor" :  False ,
     "read" : False,    
"title" : "托福阅读满分技巧：词汇与阅读技巧是关键",
"titleTip" : "托福阅读满分技巧：词汇与阅读技巧是关键",
"titleSummary" : "托福阅读满分技巧：词汇与阅读技巧是关键",
"descSummary" : "TOEFL阅读理解满分的出现必须依赖于三个方面的训练： 1...",
"url" : "http:\/\/go.rss.sina.com.cn\/redirect.php?url=http:\/\/edu.sina.com.cn\/yyks\/2013-10-12\/1750397499.shtml",
"pubDate" : "2013年10月12日 (2周前)",
"enterDate" : "384200:31:14",
"channelId" : "-391414959827299045",
"channelName" : "考试频道-新浪教育",
"channelNameSummary" : "考试频道-新浪教育",
"channelUrl" : "http:\/\/edu.sina.com.cn\/rss\/index.html",
"author" : "WWW.SINA.COM.CN",
"tags" : [],
"desc" : "TOEFL阅读理解满分的出现必须依赖于三个方面的训练： 1.词汇 从某种意义上来讲，词汇量的大小是TOEFL阅读理解高分的基础和关键。如果词汇量没有达到基本要求(五千以上)，纵然你有\"葵花宝典\"在手，也只能命丧ETS的\"毒招\"之下。所以，以牺牲词汇量为代价的技巧练....",
"emailed" : False,
"forwarded" : False,
"english" : False
}  , {
"index" : 16,
"articleIndex" : "30249",
"favor" :  False ,
     "read" : False,    
"title" : "\u201C烤鸭\u201D必读：备考雅思词汇巧做\u201C加减法\u201D",
"titleTip" : "\u201C烤鸭\u201D必读：备考雅思词汇巧做\u201C加减法\u201D",
"titleSummary" : "\u201C烤鸭\u201D必读：备考雅思词汇巧做\u201C加减法\u201D",
"descSummary" : "编辑点评：考生们在雅思考前准备的时候，词汇是一项重要...",
"url" : "http:\/\/go.rss.sina.com.cn\/redirect.php?url=http:\/\/edu.sina.com.cn\/yyks\/2013-10-12\/1745397497.shtml",
"pubDate" : "2013年10月12日 (2周前)",
"enterDate" : "384199:56:38",
"channelId" : "-391414959827299045",
"channelName" : "考试频道-新浪教育",
"channelNameSummary" : "考试频道-新浪教育",
"channelUrl" : "http:\/\/edu.sina.com.cn\/rss\/index.html",
"author" : "WWW.SINA.COM.CN",
"tags" : [],
"desc" : "编辑点评：考生们在雅思考前准备的时候，词汇是一项重要的工作。如何准备？不妨\u201C做减法\u201D和\u201C做加法\u201D。 什么是\u201C做加法\u201D？ 做加法的意义是补充我们所欠缺的词汇。大量的实例告诉我们，具有大学英语 CET6英语基础的考生之中拿到已经成为出国基本要求的雅思阅....",
"emailed" : False,
"forwarded" : False,
"english" : False
}  , {
"index" : 17,
"articleIndex" : "30247",
"favor" :  False ,
     "read" : False,    
"title" : "在职公考4年：考霸谈国家公务员考试报考",
"titleTip" : "在职公考4年：考霸谈国家公务员考试报考",
"titleSummary" : "在职公考4年：考霸谈国家公务员考试报考",
"descSummary" : "本文选自《玩转校园》的博客，点击查看博客原文 就快到北京...",
"url" : "http:\/\/go.rss.sina.com.cn\/redirect.php?url=http:\/\/edu.sina.com.cn\/official\/2013-10-12\/1704397483.shtml",
"pubDate" : "2013年10月12日 (2周前)",
"enterDate" : "384200:45:18",
"channelId" : "-391414959827299045",
"channelName" : "考试频道-新浪教育",
"channelNameSummary" : "考试频道-新浪教育",
"channelUrl" : "http:\/\/edu.sina.com.cn\/rss\/index.html",
"author" : "WWW.SINA.COM.CN",
"tags" : [],
"desc" : "本文选自《玩转校园》的博客，点击查看博客原文 就快到北京工作了，4年来\"盼过昨宵又盼今朝\"，在原单位忍辱负重，忍气吞声，卧薪尝胆，终于在2012年实现梦想了。我从北京奥运会考到了伦敦奥运会，从党的十七大考到了党的十八大，从24岁硕士应届的青春年少考到了28岁眼....",
"emailed" : False,
"forwarded" : False,
"english" : False
}  , {
"index" : 18,
"articleIndex" : "30246",
"favor" :  False ,
     "read" : False,    
"title" : "2014年国考公告预计14日公布 16日开始报名",
"titleTip" : "2014年国考公告预计14日公布 16日开始报名",
"titleSummary" : "2014年国考公告预计14日公布 16日开始报名",
"descSummary" : "新浪教育讯 来自国家公务员局的最新消息，近期即将公布20...",
"url" : "http:\/\/go.rss.sina.com.cn\/redirect.php?url=http:\/\/edu.sina.com.cn\/official\/2013-10-12\/1645397480.shtml",
"pubDate" : "2013年10月12日 (2周前)",
"enterDate" : "384200:26:23",
"channelId" : "-391414959827299045",
"channelName" : "考试频道-新浪教育",
"channelNameSummary" : "考试频道-新浪教育",
"channelUrl" : "http:\/\/edu.sina.com.cn\/rss\/index.html",
"author" : "WWW.SINA.COM.CN",
"tags" : [],
"desc" : "新浪教育讯 来自国家公务员局的最新消息，近期即将公布2014年国家公务员考试公告、大纲、招考职位等重要信息。据悉，10月14日发布招考公告及大纲，15日发布招考职位，16日-24日开始网上报名，11月24日公共科目笔试。2014年国考申论考试时间有变化，由2.5小时改为3小时。",
"emailed" : False,
"forwarded" : False,
"english" : False
}  , {
"index" : 19,
"articleIndex" : "30245",
"favor" :  False ,
     "read" : False,    
"title" : "初三生必知的全年的\u201C五\u201D次大考",
"titleTip" : "初三生必知的全年的\u201C五\u201D次大考",
"titleSummary" : "初三生必知的全年的\u201C五\u201D次大考",
"descSummary" : "初三的新学年已开始半多月，有不少家长关心在这一年初三生要面对几...",
"url" : "http:\/\/go.rss.sina.com.cn\/redirect.php?url=http:\/\/edu.sina.com.cn\/zhongkao\/2013-10-12\/1637397476.shtml",
"pubDate" : "2013年10月12日 (2周前)",
"enterDate" : "384200:48:48",
"channelId" : "-391414959827299045",
"channelName" : "考试频道-新浪教育",
"channelNameSummary" : "考试频道-新浪教育",
"channelUrl" : "http:\/\/edu.sina.com.cn\/rss\/index.html",
"author" : "WWW.SINA.COM.CN",
"tags" : [],
"desc" : "初三的新学年已开始半多月，有不少家长关心在这一年初三生要面对几次考试，有哪些考试需要特别重视。有关老师表示，初三生除了学校常规组织的测验、月考、期中考等阶段性考试，最重要的是面对期末、结业考、\u201C一模\u201D、\u201C二模\u201D和中考等5次大考。 月考是孩子进入初三后....",
"emailed" : False,
"forwarded" : False,
"english" : False
} ]
}
