{
"mode" : {"viewTitle" : 1,   "viewNew" : 0,  "pageIndex" : 1 },
 "channel" : {"id" : "-9010553425750345964", "booked" : False, "subNumber" : 1, "name" : "娱乐博客-新浪博客", "url" : "http:\/\/blog.sina.com.cn\/lm\/ent\/", "feed" : "http:\/\/rss.sina.com.cn\/blog\/ent\/yl.xml", "author" : "WWW.SINA.COM.CN", "desc" : "娱乐博客列表", "imageUrl" : "http:\/\/www.sinaimg.cn\/blog\/main\/index2010\/blog_logo.png", "postPerWeek" : "0", "lastCrawTime" : "2013年10月27日 (3天前)", "crawDateTime" : "2013年10月27日 (3天前)", "lastHttpCode" : "200"}, "page" : {
"startIndex" : 0,
"totalCount" : 5000,
"pageIndex" : 1,
"lastPage" : 250,
"pageSize" : 20,
"english" :  False },
 "unreadNum" : 0, "shotIndex" : -1,
"articles" : [
{
"index" : 0,
"articleIndex" : "11542",
"favor" :  False ,
     "read" : False,    
"title" : "51岁关之琳坎坷情史全回顾(图)",
"titleTip" : "51岁关之琳坎坷情史全回顾(图)",
"titleSummary" : "51岁关之琳坎坷情史全回顾(图)",
"descSummary" : "",
"url" : "http:\/\/go.rss.sina.com.cn\/redirect.php?url=http:\/\/blog.sina.com.cn\/s\/blog_50721ef70102ef4g.html",
"pubDate" : "2013年10月25日 (5天前)",
"enterDate" : "384200:00:47",
"channelId" : "-9010553425750345964",
"channelName" : "娱乐博客-新浪博客",
"channelNameSummary" : "娱乐博客-新浪博客",
"channelUrl" : "http:\/\/blog.sina.com.cn\/lm\/ent\/",
"author" : "WWW.SINA.COM.CN",
"tags" : [],
"desc" : "",
"emailed" : False,
"forwarded" : False,
"english" : False
}  , {
"index" : 1,
"articleIndex" : "11541",
"favor" :  False ,
     "read" : False,    
"title" : "李亚鹏\u201C没用\u201D是王菲要离婚的原因吗？",
"titleTip" : "李亚鹏\u201C没用\u201D是王菲要离婚的原因吗？",
"titleSummary" : "李亚鹏\u201C没用\u201D是王菲要离婚的原因吗？",
"descSummary" : "",
"url" : "http:\/\/go.rss.sina.com.cn\/redirect.php?url=http:\/\/blog.sina.com.cn\/s\/blog_4c08246e0102e94l.html",
"pubDate" : "2013年10月25日 (5天前)",
"enterDate" : "384199:58:15",
"channelId" : "-9010553425750345964",
"channelName" : "娱乐博客-新浪博客",
"channelNameSummary" : "娱乐博客-新浪博客",
"channelUrl" : "http:\/\/blog.sina.com.cn\/lm\/ent\/",
"author" : "WWW.SINA.COM.CN",
"tags" : [],
"desc" : "",
"emailed" : False,
"forwarded" : False,
"english" : False
}  , {
"index" : 2,
"articleIndex" : "11540",
"favor" :  False ,
     "read" : False,    
"title" : "曝谢霆锋\u201C床战\u201D高圆圆有化学反应",
"titleTip" : "曝谢霆锋\u201C床战\u201D高圆圆有化学反应",
"titleSummary" : "曝谢霆锋\u201C床战\u201D高圆圆有化学反应",
"descSummary" : "",
"url" : "http:\/\/go.rss.sina.com.cn\/redirect.php?url=http:\/\/blog.sina.com.cn\/s\/blog_3d98fb7b0102eenm.html",
"pubDate" : "2013年10月25日 (5天前)",
"enterDate" : "384200:35:42",
"channelId" : "-9010553425750345964",
"channelName" : "娱乐博客-新浪博客",
"channelNameSummary" : "娱乐博客-新浪博客",
"channelUrl" : "http:\/\/blog.sina.com.cn\/lm\/ent\/",
"author" : "WWW.SINA.COM.CN",
"tags" : [],
"desc" : "",
"emailed" : False,
"forwarded" : False,
"english" : False
}  , {
"index" : 3,
"articleIndex" : "11539",
"favor" :  False ,
     "read" : False,    
"title" : "金城武不为人知的神秘情史大盘点(图)",
"titleTip" : "金城武不为人知的神秘情史大盘点(图)",
"titleSummary" : "金城武不为人知的神秘情史大盘点(图)",
"descSummary" : "",
"url" : "http:\/\/go.rss.sina.com.cn\/redirect.php?url=http:\/\/ent.sina.com.cn\/zl\/bagua\/blog\/2013-10-24\/1811417\/1349656311\/50721ef70102ef3v.shtml?qq-pf-to=pcqq.c2c",
"pubDate" : "2013年10月24日 (6天前)",
"enterDate" : "384199:36:17",
"channelId" : "-9010553425750345964",
"channelName" : "娱乐博客-新浪博客",
"channelNameSummary" : "娱乐博客-新浪博客",
"channelUrl" : "http:\/\/blog.sina.com.cn\/lm\/ent\/",
"author" : "WWW.SINA.COM.CN",
"tags" : [],
"desc" : "",
"emailed" : False,
"forwarded" : False,
"english" : False
}  , {
"index" : 4,
"articleIndex" : "11538",
"favor" :  False ,
     "read" : False,    
"title" : "苍井空愁嫁 中国爷们儿哪个敢娶？",
"titleTip" : "苍井空愁嫁 中国爷们儿哪个敢娶？",
"titleSummary" : "苍井空愁嫁 中国爷们儿哪个敢娶？",
"descSummary" : "",
"url" : "http:\/\/go.rss.sina.com.cn\/redirect.php?url=http:\/\/ent.sina.com.cn\/zl\/bagua\/blog\/2013-10-24\/1804416\/1565813144\/5d5469980102eg3w.shtml?qq-pf-to=pcqq.c2c",
"pubDate" : "2013年10月24日 (6天前)",
"enterDate" : "384199:29:00",
"channelId" : "-9010553425750345964",
"channelName" : "娱乐博客-新浪博客",
"channelNameSummary" : "娱乐博客-新浪博客",
"channelUrl" : "http:\/\/blog.sina.com.cn\/lm\/ent\/",
"author" : "WWW.SINA.COM.CN",
"tags" : [],
"desc" : "",
"emailed" : False,
"forwarded" : False,
"english" : False
}  , {
"index" : 5,
"articleIndex" : "11537",
"favor" :  False ,
     "read" : False,    
"title" : "崔永元18岁清瘦学生照",
"titleTip" : "崔永元18岁清瘦学生照",
"titleSummary" : "崔永元18岁清瘦学生照",
"descSummary" : "",
"url" : "http:\/\/go.rss.sina.com.cn\/redirect.php?url=http:\/\/blog.sina.com.cn\/s\/blog_a58054480101gcr0.html",
"pubDate" : "2013年10月24日 (6天前)",
"enterDate" : "384200:39:11",
"channelId" : "-9010553425750345964",
"channelName" : "娱乐博客-新浪博客",
"channelNameSummary" : "娱乐博客-新浪博客",
"channelUrl" : "http:\/\/blog.sina.com.cn\/lm\/ent\/",
"author" : "WWW.SINA.COM.CN",
"tags" : [],
"desc" : "",
"emailed" : False,
"forwarded" : False,
"english" : False
}  , {
"index" : 6,
"articleIndex" : "11536",
"favor" :  False ,
     "read" : False,    
"title" : "姚贝娜与侯磊\u201C姐弟恋\u201D的五大理由",
"titleTip" : "姚贝娜与侯磊\u201C姐弟恋\u201D的五大理由",
"titleSummary" : "姚贝娜与侯磊\u201C姐弟恋\u201D的五大理由",
"descSummary" : "",
"url" : "http:\/\/go.rss.sina.com.cn\/redirect.php?url=http:\/\/ent.sina.com.cn\/zl\/bagua\/blog\/2013-10-23\/1742410\/1420555367\/54abf4670102er64.shtml?qq-pf-to=pcqq.c2c",
"pubDate" : "2013年10月23日 (1周前)",
"enterDate" : "384199:31:44",
"channelId" : "-9010553425750345964",
"channelName" : "娱乐博客-新浪博客",
"channelNameSummary" : "娱乐博客-新浪博客",
"channelUrl" : "http:\/\/blog.sina.com.cn\/lm\/ent\/",
"author" : "WWW.SINA.COM.CN",
"tags" : [],
"desc" : "",
"emailed" : False,
"forwarded" : False,
"english" : False
}  , {
"index" : 7,
"articleIndex" : "11535",
"favor" :  False ,
     "read" : False,    
"title" : "陈楚生亿万女友曝光是真是假(图)",
"titleTip" : "陈楚生亿万女友曝光是真是假(图)",
"titleSummary" : "陈楚生亿万女友曝光是真是假(图)",
"descSummary" : "",
"url" : "http:\/\/go.rss.sina.com.cn\/redirect.php?url=http:\/\/ent.sina.com.cn\/zl\/bagua\/blog\/2013-10-23\/1518408\/1350965992\/50861ae80102ec9x.shtml?qq-pf-to=pcqq.c2c",
"pubDate" : "2013年10月23日 (1周前)",
"enterDate" : "384200:14:12",
"channelId" : "-9010553425750345964",
"channelName" : "娱乐博客-新浪博客",
"channelNameSummary" : "娱乐博客-新浪博客",
"channelUrl" : "http:\/\/blog.sina.com.cn\/lm\/ent\/",
"author" : "WWW.SINA.COM.CN",
"tags" : [],
"desc" : "",
"emailed" : False,
"forwarded" : False,
"english" : False
}  , {
"index" : 8,
"articleIndex" : "11534",
"favor" :  False ,
     "read" : False,    
"title" : "许戈辉8岁女儿近照",
"titleTip" : "许戈辉8岁女儿近照",
"titleSummary" : "许戈辉8岁女儿近照",
"descSummary" : "",
"url" : "http:\/\/go.rss.sina.com.cn\/redirect.php?url=http:\/\/blog.sina.com.cn\/s\/blog_545646500101el31.html",
"pubDate" : "2013年10月23日 (1周前)",
"enterDate" : "384200:16:01",
"channelId" : "-9010553425750345964",
"channelName" : "娱乐博客-新浪博客",
"channelNameSummary" : "娱乐博客-新浪博客",
"channelUrl" : "http:\/\/blog.sina.com.cn\/lm\/ent\/",
"author" : "WWW.SINA.COM.CN",
"tags" : [],
"desc" : "",
"emailed" : False,
"forwarded" : False,
"english" : False
}  , {
"index" : 9,
"articleIndex" : "11533",
"favor" :  False ,
     "read" : False,    
"title" : "曝《中国达人秀》周润发刘烨将加盟",
"titleTip" : "曝《中国达人秀》周润发刘烨将加盟",
"titleSummary" : "曝《中国达人秀》周润发刘烨将加盟",
"descSummary" : "",
"url" : "http:\/\/go.rss.sina.com.cn\/redirect.php?url=http:\/\/blog.sina.com.cn\/s\/blog_532b88150101c726.html",
"pubDate" : "2013年10月23日 (1周前)",
"enterDate" : "384199:21:18",
"channelId" : "-9010553425750345964",
"channelName" : "娱乐博客-新浪博客",
"channelNameSummary" : "娱乐博客-新浪博客",
"channelUrl" : "http:\/\/blog.sina.com.cn\/lm\/ent\/",
"author" : "WWW.SINA.COM.CN",
"tags" : [],
"desc" : "",
"emailed" : False,
"forwarded" : False,
"english" : False
}  , {
"index" : 10,
"articleIndex" : "11532",
"favor" :  False ,
     "read" : False,    
"title" : "刘欢22岁靓女儿私房照",
"titleTip" : "刘欢22岁靓女儿私房照",
"titleSummary" : "刘欢22岁靓女儿私房照",
"descSummary" : "",
"url" : "http:\/\/go.rss.sina.com.cn\/redirect.php?url=http:\/\/blog.sina.com.cn\/s\/blog_4baa667b0102e3gb.html",
"pubDate" : "2013年10月23日 (1周前)",
"enterDate" : "384200:48:34",
"channelId" : "-9010553425750345964",
"channelName" : "娱乐博客-新浪博客",
"channelNameSummary" : "娱乐博客-新浪博客",
"channelUrl" : "http:\/\/blog.sina.com.cn\/lm\/ent\/",
"author" : "WWW.SINA.COM.CN",
"tags" : [],
"desc" : "",
"emailed" : False,
"forwarded" : False,
"english" : False
}  , {
"index" : 11,
"articleIndex" : "11531",
"favor" :  False ,
     "read" : False,    
"title" : "请章子怡汪峰参加春晚是救命稻草？",
"titleTip" : "请章子怡汪峰参加春晚是救命稻草？",
"titleSummary" : "请章子怡汪峰参加春晚是救命稻草？",
"descSummary" : "",
"url" : "http:\/\/go.rss.sina.com.cn\/redirect.php?url=http:\/\/ent.sina.com.cn\/zl\/bagua\/blog\/2013-10-23\/1000406\/2029649307\/78f9fd9b0102ecr5.shtml?qq-pf-to=pcqq.c2c",
"pubDate" : "2013年10月23日 (1周前)",
"enterDate" : "384200:42:49",
"channelId" : "-9010553425750345964",
"channelName" : "娱乐博客-新浪博客",
"channelNameSummary" : "娱乐博客-新浪博客",
"channelUrl" : "http:\/\/blog.sina.com.cn\/lm\/ent\/",
"author" : "WWW.SINA.COM.CN",
"tags" : [],
"desc" : "",
"emailed" : False,
"forwarded" : False,
"english" : False
}  , {
"index" : 12,
"articleIndex" : "11530",
"favor" :  False ,
     "read" : False,    
"title" : "六小龄童能否拯救被恶搞的悟空？",
"titleTip" : "六小龄童能否拯救被恶搞的悟空？",
"titleSummary" : "六小龄童能否拯救被恶搞的悟空？",
"descSummary" : "",
"url" : "http:\/\/go.rss.sina.com.cn\/redirect.php?url=http:\/\/blog.sina.com.cn\/s\/blog_76ccd1110101bsir.html",
"pubDate" : "2013年10月23日 (1周前)",
"enterDate" : "384200:32:38",
"channelId" : "-9010553425750345964",
"channelName" : "娱乐博客-新浪博客",
"channelNameSummary" : "娱乐博客-新浪博客",
"channelUrl" : "http:\/\/blog.sina.com.cn\/lm\/ent\/",
"author" : "WWW.SINA.COM.CN",
"tags" : [],
"desc" : "",
"emailed" : False,
"forwarded" : False,
"english" : False
}  , {
"index" : 13,
"articleIndex" : "11529",
"favor" :  False ,
     "read" : False,    
"title" : "陈楚生露私处童年萌照",
"titleTip" : "陈楚生露私处童年萌照",
"titleSummary" : "陈楚生露私处童年萌照",
"descSummary" : "",
"url" : "http:\/\/go.rss.sina.com.cn\/redirect.php?url=http:\/\/blog.sina.com.cn\/s\/blog_64e5abde0102fjvz.html",
"pubDate" : "2013年10月23日 (1周前)",
"enterDate" : "384200:30:20",
"channelId" : "-9010553425750345964",
"channelName" : "娱乐博客-新浪博客",
"channelNameSummary" : "娱乐博客-新浪博客",
"channelUrl" : "http:\/\/blog.sina.com.cn\/lm\/ent\/",
"author" : "WWW.SINA.COM.CN",
"tags" : [],
"desc" : "",
"emailed" : False,
"forwarded" : False,
"english" : False
}  , {
"index" : 14,
"articleIndex" : "11528",
"favor" :  False ,
     "read" : False,    
"title" : "日本最具人气的短发美女明星(图)",
"titleTip" : "日本最具人气的短发美女明星(图)",
"titleSummary" : "日本最具人气的短发美女明星(图)",
"descSummary" : "",
"url" : "http:\/\/go.rss.sina.com.cn\/redirect.php?url=http:\/\/ent.sina.com.cn\/zl\/bagua\/blog\/2013-10-22\/1730405\/2036655340\/7964e4ec0101qck9.shtml?qq-pf-to=pcqq.c2c",
"pubDate" : "2013年10月22日 (1周前)",
"enterDate" : "384201:01:31",
"channelId" : "-9010553425750345964",
"channelName" : "娱乐博客-新浪博客",
"channelNameSummary" : "娱乐博客-新浪博客",
"channelUrl" : "http:\/\/blog.sina.com.cn\/lm\/ent\/",
"author" : "WWW.SINA.COM.CN",
"tags" : [],
"desc" : "",
"emailed" : False,
"forwarded" : False,
"english" : False
}  , {
"index" : 15,
"articleIndex" : "11527",
"favor" :  False ,
     "read" : False,    
"title" : "《爸爸去哪儿》中的\u201C黑暗料理\u201D",
"titleTip" : "《爸爸去哪儿》中的\u201C黑暗料理\u201D",
"titleSummary" : "《爸爸去哪儿》中的\u201C黑暗料理\u201D",
"descSummary" : "",
"url" : "http:\/\/go.rss.sina.com.cn\/redirect.php?url=http:\/\/ent.sina.com.cn\/zl\/discuss\/blog\/2013-10-22\/1645403\/1216311280\/487f6ff00102eh6a.shtml?qq-pf-to=pcqq.c2c",
"pubDate" : "2013年10月22日 (1周前)",
"enterDate" : "384200:16:55",
"channelId" : "-9010553425750345964",
"channelName" : "娱乐博客-新浪博客",
"channelNameSummary" : "娱乐博客-新浪博客",
"channelUrl" : "http:\/\/blog.sina.com.cn\/lm\/ent\/",
"author" : "WWW.SINA.COM.CN",
"tags" : [],
"desc" : "",
"emailed" : False,
"forwarded" : False,
"english" : False
}  , {
"index" : 16,
"articleIndex" : "11526",
"favor" :  False ,
     "read" : False,    
"title" : "水均益20岁女儿美照",
"titleTip" : "水均益20岁女儿美照",
"titleSummary" : "水均益20岁女儿美照",
"descSummary" : "",
"url" : "http:\/\/go.rss.sina.com.cn\/redirect.php?url=http:\/\/blog.sina.com.cn\/s\/blog_532b88150101c62r.html",
"pubDate" : "2013年10月22日 (1周前)",
"enterDate" : "384200:18:04",
"channelId" : "-9010553425750345964",
"channelName" : "娱乐博客-新浪博客",
"channelNameSummary" : "娱乐博客-新浪博客",
"channelUrl" : "http:\/\/blog.sina.com.cn\/lm\/ent\/",
"author" : "WWW.SINA.COM.CN",
"tags" : [],
"desc" : "",
"emailed" : False,
"forwarded" : False,
"english" : False
}  , {
"index" : 17,
"articleIndex" : "11525",
"favor" :  False ,
     "read" : False,    
"title" : "水均益20岁漂亮女儿美照曝光(图)",
"titleTip" : "水均益20岁漂亮女儿美照曝光(图)",
"titleSummary" : "水均益20岁漂亮女儿美照曝光(图)",
"descSummary" : "",
"url" : "http:\/\/go.rss.sina.com.cn\/redirect.php?url=http:\/\/blog.sina.com.cn\/s\/blog_532b88150101c62r.html",
"pubDate" : "2013年10月22日 (1周前)",
"enterDate" : "384200:01:29",
"channelId" : "-9010553425750345964",
"channelName" : "娱乐博客-新浪博客",
"channelNameSummary" : "娱乐博客-新浪博客",
"channelUrl" : "http:\/\/blog.sina.com.cn\/lm\/ent\/",
"author" : "WWW.SINA.COM.CN",
"tags" : [],
"desc" : "",
"emailed" : False,
"forwarded" : False,
"english" : False
}  , {
"index" : 18,
"articleIndex" : "11524",
"favor" :  False ,
     "read" : False,    
"title" : "龚琳娜童年萌照",
"titleTip" : "龚琳娜童年萌照",
"titleSummary" : "龚琳娜童年萌照",
"descSummary" : "",
"url" : "http:\/\/go.rss.sina.com.cn\/redirect.php?url=http:\/\/blog.sina.com.cn\/s\/blog_64e5abde0102fjpf.html",
"pubDate" : "2013年10月21日 (1周前)",
"enterDate" : "384199:36:38",
"channelId" : "-9010553425750345964",
"channelName" : "娱乐博客-新浪博客",
"channelNameSummary" : "娱乐博客-新浪博客",
"channelUrl" : "http:\/\/blog.sina.com.cn\/lm\/ent\/",
"author" : "WWW.SINA.COM.CN",
"tags" : [],
"desc" : "",
"emailed" : False,
"forwarded" : False,
"english" : False
}  , {
"index" : 19,
"articleIndex" : "11523",
"favor" :  False ,
     "read" : False,    
"title" : "矢野浩二：我超越木村拓哉拿第一(图)",
"titleTip" : "矢野浩二：我超越木村拓哉拿第一(图)",
"titleSummary" : "矢野浩二：我超越木村拓哉拿第一(图)",
"descSummary" : "",
"url" : "http:\/\/go.rss.sina.com.cn\/redirect.php?url=http:\/\/blog.sina.com.cn\/s\/blog_4a6c545e0102e8n4.html?tj=1",
"pubDate" : "2013年10月21日 (1周前)",
"enterDate" : "384200:34:52",
"channelId" : "-9010553425750345964",
"channelName" : "娱乐博客-新浪博客",
"channelNameSummary" : "娱乐博客-新浪博客",
"channelUrl" : "http:\/\/blog.sina.com.cn\/lm\/ent\/",
"author" : "WWW.SINA.COM.CN",
"tags" : [],
"desc" : "",
"emailed" : False,
"forwarded" : False,
"english" : False
} ]
}
