{
"mode" : {"viewTitle" : 1,   "viewNew" : 0,  "pageIndex" : 2 },
 "channel" : {"id" : "-9010553425750345964", "booked" : False, "subNumber" : 1, "name" : "娱乐博客-新浪博客", "url" : "http:\/\/blog.sina.com.cn\/lm\/ent\/", "feed" : "http:\/\/rss.sina.com.cn\/blog\/ent\/yl.xml", "author" : "WWW.SINA.COM.CN", "desc" : "娱乐博客列表", "imageUrl" : "http:\/\/www.sinaimg.cn\/blog\/main\/index2010\/blog_logo.png", "postPerWeek" : "0", "lastCrawTime" : "2013年10月27日 (3天前)", "crawDateTime" : "2013年10月27日 (3天前)", "lastHttpCode" : "200"}, "page" : {
"startIndex" : 20,
"totalCount" : 5000,
"pageIndex" : 2,
"lastPage" : 250,
"pageSize" : 20,
"english" :  False },
 "unreadNum" : 0, "shotIndex" : -1,
"articles" : [
{
"index" : 0,
"articleIndex" : "11522",
"favor" :  False ,
     "read" : False,    
"title" : "龚琳娜：看自己唱《小河淌水》时哭了",
"titleTip" : "龚琳娜：看自己唱《小河淌水》时哭了",
"titleSummary" : "龚琳娜：看自己唱《小河淌水》时哭了",
"descSummary" : "",
"url" : "http:\/\/go.rss.sina.com.cn\/redirect.php?url=http:\/\/ent.sina.com.cn\/zl\/discuss\/blog\/2013-10-21\/1126395\/1712782607\/6616fd0f0101brvy.shtml",
"pubDate" : "2013年10月21日 (1周前)",
"enterDate" : "384200:15:58",
"channelId" : "-9010553425750345964",
"channelName" : "娱乐博客-新浪博客",
"channelNameSummary" : "娱乐博客-新浪博客",
"channelUrl" : "http:\/\/blog.sina.com.cn\/lm\/ent\/",
"author" : "WWW.SINA.COM.CN",
"tags" : [],
"desc" : "",
"emailed" : False,
"forwarded" : False,
"english" : False
}  , {
"index" : 1,
"articleIndex" : "11521",
"favor" :  False ,
     "read" : False,    
"title" : "揭秘姚贝娜曲折走红六部曲(图)",
"titleTip" : "揭秘姚贝娜曲折走红六部曲(图)",
"titleSummary" : "揭秘姚贝娜曲折走红六部曲(图)",
"descSummary" : "",
"url" : "http:\/\/go.rss.sina.com.cn\/redirect.php?url=http:\/\/ent.sina.com.cn\/zl\/bagua\/blog\/2013-10-21\/1113394\/1243021947\/4a17027b0102exrj.shtml",
"pubDate" : "2013年10月21日 (1周前)",
"enterDate" : "384200:32:41",
"channelId" : "-9010553425750345964",
"channelName" : "娱乐博客-新浪博客",
"channelNameSummary" : "娱乐博客-新浪博客",
"channelUrl" : "http:\/\/blog.sina.com.cn\/lm\/ent\/",
"author" : "WWW.SINA.COM.CN",
"tags" : [],
"desc" : "",
"emailed" : False,
"forwarded" : False,
"english" : False
}  , {
"index" : 2,
"articleIndex" : "11520",
"favor" :  False ,
     "read" : False,    
"title" : "央视主播赵普四岁漂亮女儿近照(图)",
"titleTip" : "央视主播赵普四岁漂亮女儿近照(图)",
"titleSummary" : "央视主播赵普四岁漂亮女儿近照(图)",
"descSummary" : "",
"url" : "http:\/\/go.rss.sina.com.cn\/redirect.php?url=http:\/\/blog.sina.com.cn\/s\/blog_532b88150101c5cl.html",
"pubDate" : "2013年10月21日 (1周前)",
"enterDate" : "384200:06:42",
"channelId" : "-9010553425750345964",
"channelName" : "娱乐博客-新浪博客",
"channelNameSummary" : "娱乐博客-新浪博客",
"channelUrl" : "http:\/\/blog.sina.com.cn\/lm\/ent\/",
"author" : "WWW.SINA.COM.CN",
"tags" : [],
"desc" : "",
"emailed" : False,
"forwarded" : False,
"english" : False
}  , {
"index" : 3,
"articleIndex" : "11519",
"favor" :  False ,
     "read" : False,    
"title" : "日本情色女王坛蜜为何能男女通杀(图)",
"titleTip" : "日本情色女王坛蜜为何能男女通杀(图)",
"titleSummary" : "日本情色女王坛蜜为何能男女通杀(图)",
"descSummary" : "",
"url" : "http:\/\/go.rss.sina.com.cn\/redirect.php?url=http:\/\/ent.sina.com.cn\/zl\/bagua\/blog\/2013-10-18\/1831389\/2036655340\/7964e4ec0101qa9h.shtml",
"pubDate" : "2013年10月18日 (1周前)",
"enterDate" : "384199:56:14",
"channelId" : "-9010553425750345964",
"channelName" : "娱乐博客-新浪博客",
"channelNameSummary" : "娱乐博客-新浪博客",
"channelUrl" : "http:\/\/blog.sina.com.cn\/lm\/ent\/",
"author" : "WWW.SINA.COM.CN",
"tags" : [],
"desc" : "",
"emailed" : False,
"forwarded" : False,
"english" : False
}  , {
"index" : 4,
"articleIndex" : "11518",
"favor" :  False ,
     "read" : False,    
"title" : "解读：韩国帅气小生的进化论(图)",
"titleTip" : "解读：韩国帅气小生的进化论(图)",
"titleSummary" : "解读：韩国帅气小生的进化论(图)",
"descSummary" : "",
"url" : "http:\/\/go.rss.sina.com.cn\/redirect.php?url=http:\/\/ent.sina.com.cn\/zl\/bagua\/blog\/2013-10-18\/1827388\/1300786970\/4d886f1a0101pejm.shtml",
"pubDate" : "2013年10月18日 (1周前)",
"enterDate" : "384199:52:16",
"channelId" : "-9010553425750345964",
"channelName" : "娱乐博客-新浪博客",
"channelNameSummary" : "娱乐博客-新浪博客",
"channelUrl" : "http:\/\/blog.sina.com.cn\/lm\/ent\/",
"author" : "WWW.SINA.COM.CN",
"tags" : [],
"desc" : "",
"emailed" : False,
"forwarded" : False,
"english" : False
}  , {
"index" : 5,
"articleIndex" : "11517",
"favor" :  False ,
     "read" : False,    
"title" : "m侨伟梅艳芳翁美玲间混乱情史(图)",
"titleTip" : "m侨伟梅艳芳翁美玲间混乱情史(图)",
"titleSummary" : "m侨伟梅艳芳翁美玲间混乱情史(图)",
"descSummary" : "",
"url" : "http:\/\/go.rss.sina.com.cn\/redirect.php?url=http:\/\/ent.sina.com.cn\/zl\/bagua\/blog\/2013-10-18\/1822387\/1275602030\/4c08246e0102e926.shtml",
"pubDate" : "2013年10月18日 (1周前)",
"enterDate" : "384199:46:58",
"channelId" : "-9010553425750345964",
"channelName" : "娱乐博客-新浪博客",
"channelNameSummary" : "娱乐博客-新浪博客",
"channelUrl" : "http:\/\/blog.sina.com.cn\/lm\/ent\/",
"author" : "WWW.SINA.COM.CN",
"tags" : [],
"desc" : "",
"emailed" : False,
"forwarded" : False,
"english" : False
}  , {
"index" : 6,
"articleIndex" : "11516",
"favor" :  False ,
     "read" : False,    
"title" : "TVB六大守贞处女女星谁最性感(图)",
"titleTip" : "TVB六大守贞处女女星谁最性感(图)",
"titleSummary" : "TVB六大守贞处女女星谁最性感(图)",
"descSummary" : "",
"url" : "http:\/\/go.rss.sina.com.cn\/redirect.php?url=http:\/\/ent.sina.com.cn\/zl\/bagua\/blog\/2013-10-18\/1652386\/1420555367\/54abf4670102er1s.shtml",
"pubDate" : "2013年10月18日 (1周前)",
"enterDate" : "384200:20:24",
"channelId" : "-9010553425750345964",
"channelName" : "娱乐博客-新浪博客",
"channelNameSummary" : "娱乐博客-新浪博客",
"channelUrl" : "http:\/\/blog.sina.com.cn\/lm\/ent\/",
"author" : "WWW.SINA.COM.CN",
"tags" : [],
"desc" : "",
"emailed" : False,
"forwarded" : False,
"english" : False
}  , {
"index" : 7,
"articleIndex" : "11515",
"favor" :  False ,
     "read" : False,    
"title" : "成龙家谱曝光祖先是唐名相房玄龄？",
"titleTip" : "成龙家谱曝光祖先是唐名相房玄龄？",
"titleSummary" : "成龙家谱曝光祖先是唐名相房玄龄？",
"descSummary" : "",
"url" : "http:\/\/go.rss.sina.com.cn\/redirect.php?url=http:\/\/ent.sina.com.cn\/zl\/discuss\/blog\/2013-10-18\/1646385\/1350965992\/50861ae80102ec0b.shtml",
"pubDate" : "2013年10月18日 (1周前)",
"enterDate" : "384200:11:40",
"channelId" : "-9010553425750345964",
"channelName" : "娱乐博客-新浪博客",
"channelNameSummary" : "娱乐博客-新浪博客",
"channelUrl" : "http:\/\/blog.sina.com.cn\/lm\/ent\/",
"author" : "WWW.SINA.COM.CN",
"tags" : [],
"desc" : "",
"emailed" : False,
"forwarded" : False,
"english" : False
}  , {
"index" : 8,
"articleIndex" : "11514",
"favor" :  False ,
     "read" : False,    
"title" : "周杰伦前女助理和Hebe是女同？(图)",
"titleTip" : "周杰伦前女助理和Hebe是女同？(图)",
"titleSummary" : "周杰伦前女助理和Hebe是女同？(图)",
"descSummary" : "",
"url" : "http:\/\/go.rss.sina.com.cn\/redirect.php?url=http:\/\/ent.sina.com.cn\/zl\/bagua\/blog\/2013-10-18\/1422380\/2029649307\/78f9fd9b0102eclt.shtml",
"pubDate" : "2013年10月18日 (1周前)",
"enterDate" : "384199:49:33",
"channelId" : "-9010553425750345964",
"channelName" : "娱乐博客-新浪博客",
"channelNameSummary" : "娱乐博客-新浪博客",
"channelUrl" : "http:\/\/blog.sina.com.cn\/lm\/ent\/",
"author" : "WWW.SINA.COM.CN",
"tags" : [],
"desc" : "",
"emailed" : False,
"forwarded" : False,
"english" : False
}  , {
"index" : 9,
"articleIndex" : "11513",
"favor" :  False ,
     "read" : False,    
"title" : "《好声音》姚贝娜人红是非多的幕后",
"titleTip" : "《好声音》姚贝娜人红是非多的幕后",
"titleSummary" : "《好声音》姚贝娜人红是非多的幕后",
"descSummary" : "",
"url" : "http:\/\/go.rss.sina.com.cn\/redirect.php?url=http:\/\/blog.sina.com.cn\/s\/blog_476cf13e0102e3bw.html",
"pubDate" : "2013年10月18日 (1周前)",
"enterDate" : "384199:40:22",
"channelId" : "-9010553425750345964",
"channelName" : "娱乐博客-新浪博客",
"channelNameSummary" : "娱乐博客-新浪博客",
"channelUrl" : "http:\/\/blog.sina.com.cn\/lm\/ent\/",
"author" : "WWW.SINA.COM.CN",
"tags" : [],
"desc" : "",
"emailed" : False,
"forwarded" : False,
"english" : False
}  , {
"index" : 10,
"articleIndex" : "11512",
"favor" :  False ,
     "read" : False,    
"title" : "三大谋女郎恋情绯闻垄断十月娱乐头条",
"titleTip" : "三大谋女郎恋情绯闻垄断十月娱乐头条",
"titleSummary" : "三大谋女郎恋情绯闻垄断十月娱乐头条",
"descSummary" : "",
"url" : "http:\/\/go.rss.sina.com.cn\/redirect.php?url=http:\/\/ent.sina.com.cn\/zl\/bagua\/blog\/2013-10-17\/1454370\/1243021947\/4a17027b0102exmd.shtml",
"pubDate" : "2013年10月17日 (1周前)",
"enterDate" : "384200:13:11",
"channelId" : "-9010553425750345964",
"channelName" : "娱乐博客-新浪博客",
"channelNameSummary" : "娱乐博客-新浪博客",
"channelUrl" : "http:\/\/blog.sina.com.cn\/lm\/ent\/",
"author" : "WWW.SINA.COM.CN",
"tags" : [],
"desc" : "",
"emailed" : False,
"forwarded" : False,
"english" : False
}  , {
"index" : 11,
"articleIndex" : "11511",
"favor" :  False ,
     "read" : False,    
"title" : "林更新旧爱新欢素颜美照大比拼(图)",
"titleTip" : "林更新旧爱新欢素颜美照大比拼(图)",
"titleSummary" : "林更新旧爱新欢素颜美照大比拼(图)",
"descSummary" : "",
"url" : "http:\/\/go.rss.sina.com.cn\/redirect.php?url=http:\/\/ent.sina.com.cn\/zl\/bagua\/blog\/2013-10-17\/1211366\/2029649307\/78f9fd9b0102ecl6.shtml",
"pubDate" : "2013年10月17日 (1周前)",
"enterDate" : "384200:53:06",
"channelId" : "-9010553425750345964",
"channelName" : "娱乐博客-新浪博客",
"channelNameSummary" : "娱乐博客-新浪博客",
"channelUrl" : "http:\/\/blog.sina.com.cn\/lm\/ent\/",
"author" : "WWW.SINA.COM.CN",
"tags" : [],
"desc" : "",
"emailed" : False,
"forwarded" : False,
"english" : False
}  , {
"index" : 12,
"articleIndex" : "11510",
"favor" :  False ,
     "read" : False,    
"title" : "苍井空喜欢王宝强类型为何遭嘲笑？",
"titleTip" : "苍井空喜欢王宝强类型为何遭嘲笑？",
"titleSummary" : "苍井空喜欢王宝强类型为何遭嘲笑？",
"descSummary" : "",
"url" : "http:\/\/go.rss.sina.com.cn\/redirect.php?url=http:\/\/blog.sina.com.cn\/s\/blog_3d98fb7b0102eehc.html",
"pubDate" : "2013年10月17日 (1周前)",
"enterDate" : "384200:31:07",
"channelId" : "-9010553425750345964",
"channelName" : "娱乐博客-新浪博客",
"channelNameSummary" : "娱乐博客-新浪博客",
"channelUrl" : "http:\/\/blog.sina.com.cn\/lm\/ent\/",
"author" : "WWW.SINA.COM.CN",
"tags" : [],
"desc" : "",
"emailed" : False,
"forwarded" : False,
"english" : False
}  , {
"index" : 13,
"articleIndex" : "11509",
"favor" :  False ,
     "read" : False,    
"title" : "张柏芝加拿大豪宅曝光(图)",
"titleTip" : "张柏芝加拿大豪宅曝光(图)",
"titleSummary" : "张柏芝加拿大豪宅曝光(图)",
"descSummary" : "",
"url" : "http:\/\/go.rss.sina.com.cn\/redirect.php?url=http:\/\/blog.sina.com.cn\/s\/blog_532b88150101c1vt.html",
"pubDate" : "2013年10月17日 (1周前)",
"enterDate" : "384200:50:43",
"channelId" : "-9010553425750345964",
"channelName" : "娱乐博客-新浪博客",
"channelNameSummary" : "娱乐博客-新浪博客",
"channelUrl" : "http:\/\/blog.sina.com.cn\/lm\/ent\/",
"author" : "WWW.SINA.COM.CN",
"tags" : [],
"desc" : "",
"emailed" : False,
"forwarded" : False,
"english" : False
}  , {
"index" : 14,
"articleIndex" : "11508",
"favor" :  False ,
     "read" : False,    
"title" : "谁是中国华语歌坛十大天后？",
"titleTip" : "谁是中国华语歌坛十大天后？",
"titleSummary" : "谁是中国华语歌坛十大天后？",
"descSummary" : "",
"url" : "http:\/\/go.rss.sina.com.cn\/redirect.php?url=http:\/\/blog.sina.com.cn\/s\/blog_e4ce0b4c01019ysq.html",
"pubDate" : "2013年10月17日 (1周前)",
"enterDate" : "384200:36:11",
"channelId" : "-9010553425750345964",
"channelName" : "娱乐博客-新浪博客",
"channelNameSummary" : "娱乐博客-新浪博客",
"channelUrl" : "http:\/\/blog.sina.com.cn\/lm\/ent\/",
"author" : "WWW.SINA.COM.CN",
"tags" : [],
"desc" : "",
"emailed" : False,
"forwarded" : False,
"english" : False
}  , {
"index" : 15,
"articleIndex" : "11507",
"favor" :  False ,
     "read" : False,    
"title" : "曝光蘑菇头兄弟童年练功照及辛酸经历",
"titleTip" : "曝光蘑菇头兄弟童年练功照及辛酸经历",
"titleSummary" : "曝光蘑菇头兄弟童年练功照及辛酸经历",
"descSummary" : "",
"url" : "http:\/\/go.rss.sina.com.cn\/redirect.php?url=http:\/\/blog.sina.com.cn\/s\/blog_a58054480101g8bj.html",
"pubDate" : "2013年10月16日 (2周前)",
"enterDate" : "384199:29:37",
"channelId" : "-9010553425750345964",
"channelName" : "娱乐博客-新浪博客",
"channelNameSummary" : "娱乐博客-新浪博客",
"channelUrl" : "http:\/\/blog.sina.com.cn\/lm\/ent\/",
"author" : "WWW.SINA.COM.CN",
"tags" : [],
"desc" : "",
"emailed" : False,
"forwarded" : False,
"english" : False
}  , {
"index" : 16,
"articleIndex" : "11506",
"favor" :  False ,
     "read" : False,    
"title" : "台湾选秀被封女神的陈昊宇海量生活照",
"titleTip" : "台湾选秀被封女神的陈昊宇海量生活照",
"titleSummary" : "台湾选秀被封女神的陈昊宇海量生活照",
"descSummary" : "",
"url" : "http:\/\/go.rss.sina.com.cn\/redirect.php?url=http:\/\/blog.sina.com.cn\/s\/blog_64e5abde0102fjbh.html",
"pubDate" : "2013年10月16日 (2周前)",
"enterDate" : "384199:28:51",
"channelId" : "-9010553425750345964",
"channelName" : "娱乐博客-新浪博客",
"channelNameSummary" : "娱乐博客-新浪博客",
"channelUrl" : "http:\/\/blog.sina.com.cn\/lm\/ent\/",
"author" : "WWW.SINA.COM.CN",
"tags" : [],
"desc" : "",
"emailed" : False,
"forwarded" : False,
"english" : False
}  , {
"index" : 17,
"articleIndex" : "11505",
"favor" :  False ,
     "read" : False,    
"title" : "风靡台湾选秀被封女神的大陆女生美艳照",
"titleTip" : "风靡台湾选秀被封女神的大陆女生美艳照",
"titleSummary" : "风靡台湾选秀被封女神的大陆女生美艳照",
"descSummary" : "",
"url" : "http:\/\/go.rss.sina.com.cn\/redirect.php?url=http:\/\/blog.sina.com.cn\/s\/blog_78f9fd9b0102eckv.html",
"pubDate" : "2013年10月16日 (2周前)",
"enterDate" : "384200:29:58",
"channelId" : "-9010553425750345964",
"channelName" : "娱乐博客-新浪博客",
"channelNameSummary" : "娱乐博客-新浪博客",
"channelUrl" : "http:\/\/blog.sina.com.cn\/lm\/ent\/",
"author" : "WWW.SINA.COM.CN",
"tags" : [],
"desc" : "",
"emailed" : False,
"forwarded" : False,
"english" : False
}  , {
"index" : 18,
"articleIndex" : "11504",
"favor" :  False ,
     "read" : False,    
"title" : "当红偶像歌手的另类成名路(图)",
"titleTip" : "当红偶像歌手的另类成名路(图)",
"titleSummary" : "当红偶像歌手的另类成名路(图)",
"descSummary" : "",
"url" : "http:\/\/go.rss.sina.com.cn\/redirect.php?url=http:\/\/blog.sina.com.cn\/s\/blog_4b630e770102edda.html",
"pubDate" : "2013年10月16日 (2周前)",
"enterDate" : "384200:10:59",
"channelId" : "-9010553425750345964",
"channelName" : "娱乐博客-新浪博客",
"channelNameSummary" : "娱乐博客-新浪博客",
"channelUrl" : "http:\/\/blog.sina.com.cn\/lm\/ent\/",
"author" : "WWW.SINA.COM.CN",
"tags" : [],
"desc" : "",
"emailed" : False,
"forwarded" : False,
"english" : False
}  , {
"index" : 19,
"articleIndex" : "11503",
"favor" :  False ,
     "read" : False,    
"title" : "桂纶镁10岁清秀照",
"titleTip" : "桂纶镁10岁清秀照",
"titleSummary" : "桂纶镁10岁清秀照",
"descSummary" : "",
"url" : "http:\/\/go.rss.sina.com.cn\/redirect.php?url=http:\/\/blog.sina.com.cn\/s\/blog_545646500101eg04.html",
"pubDate" : "2013年10月16日 (2周前)",
"enterDate" : "384200:29:26",
"channelId" : "-9010553425750345964",
"channelName" : "娱乐博客-新浪博客",
"channelNameSummary" : "娱乐博客-新浪博客",
"channelUrl" : "http:\/\/blog.sina.com.cn\/lm\/ent\/",
"author" : "WWW.SINA.COM.CN",
"tags" : [],
"desc" : "",
"emailed" : False,
"forwarded" : False,
"english" : False
} ]
}
