{
"mode" : {"viewTitle" : 1,   "viewNew" : 0,  "pageIndex" : 1 },
 "channel" : {"id" : "6946326418527977722", "booked" : False, "subNumber" : 1, "name" : "购车方案-新浪汽车", "url" : "http:\/\/auto.sina.com.cn\/guide\/index.shtml", "feed" : "http:\/\/rss.sina.com.cn\/auto\/guide\/index.xml", "author" : "WWW.SINA.COM.CN", "desc" : "购车方案-要闻列表", "imageUrl" : "http:\/\/www.sinaimg.cn\/dy\/auto\/index\/topbar_03.gif", "postPerWeek" : "0", "lastCrawTime" : "16:58:30", "crawDateTime" : "15:13:10", "lastHttpCode" : "200"}, "page" : {
"startIndex" : 0,
"totalCount" : 1192,
"pageIndex" : 1,
"lastPage" : 60,
"pageSize" : 20,
"english" :  False },
 "unreadNum" : 0, "shotIndex" : -1,
"articles" : [
{
"index" : 0,
"articleIndex" : "1191",
"favor" :  False ,
     "read" : False,    
"title" : "10万元内跨界之争 启辰等三款车大对比",
"titleTip" : "10万元内跨界之争 启辰等三款车大对比",
"titleSummary" : "10万元内跨界之争 启辰等三款车大对比",
"descSummary" : "",
"url" : "http:\/\/go.rss.sina.com.cn\/redirect.php?url=http:\/\/auto.sina.com.cn\/car\/2013-10-30\/10301241481.shtml",
"pubDate" : "10:30:08",
"enterDate" : "384196:36:46",
"channelId" : "6946326418527977722",
"channelName" : "购车方案-新浪汽车",
"channelNameSummary" : "购车方案-新浪汽车",
"channelUrl" : "http:\/\/auto.sina.com.cn\/guide\/index.shtml",
"author" : "WWW.SINA.COM.CN",
"tags" : [],
"desc" : "",
"emailed" : False,
"forwarded" : False,
"english" : False
}  , {
"index" : 1,
"articleIndex" : "1190",
"favor" :  False ,
     "read" : False,    
"title" : "迎接四口之家时代 五款7座SUV实惠推荐",
"titleTip" : "迎接四口之家时代 五款7座SUV实惠推荐",
"titleSummary" : "迎接四口之家时代 五款7座SUV实惠推荐",
"descSummary" : "",
"url" : "http:\/\/go.rss.sina.com.cn\/redirect.php?url=http:\/\/auto.sina.com.cn\/news\/2013-10-30\/08371241261.shtml",
"pubDate" : "08:37:14",
"enterDate" : "384200:29:52",
"channelId" : "6946326418527977722",
"channelName" : "购车方案-新浪汽车",
"channelNameSummary" : "购车方案-新浪汽车",
"channelUrl" : "http:\/\/auto.sina.com.cn\/guide\/index.shtml",
"author" : "WWW.SINA.COM.CN",
"tags" : [],
"desc" : "",
"emailed" : False,
"forwarded" : False,
"english" : False
}  , {
"index" : 2,
"articleIndex" : "1189",
"favor" :  False ,
     "read" : False,    
"title" : "15万买什么车？ 三款热门高端家轿推荐",
"titleTip" : "15万买什么车？ 三款热门高端家轿推荐",
"titleSummary" : "15万买什么车？ 三款热门高端家轿推荐",
"descSummary" : "",
"url" : "http:\/\/go.rss.sina.com.cn\/redirect.php?url=http:\/\/auto.sina.com.cn\/car\/2013-10-26\/18101239987.shtml",
"pubDate" : "2013年10月26日 (4天前)",
"enterDate" : "384151:10:26",
"channelId" : "6946326418527977722",
"channelName" : "购车方案-新浪汽车",
"channelNameSummary" : "购车方案-新浪汽车",
"channelUrl" : "http:\/\/auto.sina.com.cn\/guide\/index.shtml",
"author" : "WWW.SINA.COM.CN",
"tags" : [],
"desc" : "",
"emailed" : False,
"forwarded" : False,
"english" : False
}  , {
"index" : 3,
"articleIndex" : "1188",
"favor" :  False ,
     "read" : False,    
"title" : "省油高效车型推荐 海马福仕达购车推荐",
"titleTip" : "省油高效车型推荐 海马福仕达购车推荐",
"titleSummary" : "省油高效车型推荐 海马福仕达购车推荐",
"descSummary" : "",
"url" : "http:\/\/go.rss.sina.com.cn\/redirect.php?url=http:\/\/auto.sina.com.cn\/car\/2013-10-25\/15001239836.shtml",
"pubDate" : "2013年10月25日 (5天前)",
"enterDate" : "384198:46:15",
"channelId" : "6946326418527977722",
"channelName" : "购车方案-新浪汽车",
"channelNameSummary" : "购车方案-新浪汽车",
"channelUrl" : "http:\/\/auto.sina.com.cn\/guide\/index.shtml",
"author" : "WWW.SINA.COM.CN",
"tags" : [],
"desc" : "",
"emailed" : False,
"forwarded" : False,
"english" : False
}  , {
"index" : 4,
"articleIndex" : "1187",
"favor" :  False ,
     "read" : False,    
"title" : "哪些车值得我们期待 未来将引入轿车盘点",
"titleTip" : "哪些车值得我们期待 未来将引入轿车盘点",
"titleSummary" : "哪些车值得我们期待 未来将引入轿车盘点",
"descSummary" : "",
"url" : "http:\/\/go.rss.sina.com.cn\/redirect.php?url=http:\/\/auto.sina.com.cn\/news\/2013-10-24\/22051239429.shtml",
"pubDate" : "2013年10月24日 (6天前)",
"enterDate" : "384200:10:22",
"channelId" : "6946326418527977722",
"channelName" : "购车方案-新浪汽车",
"channelNameSummary" : "购车方案-新浪汽车",
"channelUrl" : "http:\/\/auto.sina.com.cn\/guide\/index.shtml",
"author" : "WWW.SINA.COM.CN",
"tags" : [],
"desc" : "",
"emailed" : False,
"forwarded" : False,
"english" : False
}  , {
"index" : 5,
"articleIndex" : "1186",
"favor" :  False ,
     "read" : False,    
"title" : "加速变革 新浪汽车科技体验本田FUNTEC技术",
"titleTip" : "加速变革 新浪汽车科技体验本田FUNTEC技术",
"titleSummary" : "加速变革 新浪汽车科技体验本田FUNTEC技术",
"descSummary" : "",
"url" : "http:\/\/go.rss.sina.com.cn\/redirect.php?url=http:\/\/auto.sina.com.cn\/car\/2013-10-24\/18291239399.shtml",
"pubDate" : "2013年10月24日 (6天前)",
"enterDate" : "384199:19:37",
"channelId" : "6946326418527977722",
"channelName" : "购车方案-新浪汽车",
"channelNameSummary" : "购车方案-新浪汽车",
"channelUrl" : "http:\/\/auto.sina.com.cn\/guide\/index.shtml",
"author" : "WWW.SINA.COM.CN",
"tags" : [],
"desc" : "",
"emailed" : False,
"forwarded" : False,
"english" : False
}  , {
"index" : 6,
"articleIndex" : "1185",
"favor" :  False ,
     "read" : False,    
"title" : "三国杀之中日韩三款运动中高级车PK！",
"titleTip" : "三国杀之中日韩三款运动中高级车PK！",
"titleSummary" : "三国杀之中日韩三款运动中高级车PK！",
"descSummary" : "",
"url" : "http:\/\/go.rss.sina.com.cn\/redirect.php?url=http:\/\/auto.sina.com.cn\/news\/2013-10-23\/17441238785.shtml",
"pubDate" : "2013年10月23日 (1周前)",
"enterDate" : "384198:39:35",
"channelId" : "6946326418527977722",
"channelName" : "购车方案-新浪汽车",
"channelNameSummary" : "购车方案-新浪汽车",
"channelUrl" : "http:\/\/auto.sina.com.cn\/guide\/index.shtml",
"author" : "WWW.SINA.COM.CN",
"tags" : [],
"desc" : "",
"emailed" : False,
"forwarded" : False,
"english" : False
}  , {
"index" : 7,
"articleIndex" : "1184",
"favor" :  False ,
     "read" : False,    
"title" : "有空间有优势 三款大空间SUV车型导购",
"titleTip" : "有空间有优势 三款大空间SUV车型导购",
"titleSummary" : "有空间有优势 三款大空间SUV车型导购",
"descSummary" : "",
"url" : "http:\/\/go.rss.sina.com.cn\/redirect.php?url=http:\/\/auto.sina.com.cn\/car\/2013-10-23\/10101238649.shtml",
"pubDate" : "2013年10月23日 (1周前)",
"enterDate" : "384199:52:00",
"channelId" : "6946326418527977722",
"channelName" : "购车方案-新浪汽车",
"channelNameSummary" : "购车方案-新浪汽车",
"channelUrl" : "http:\/\/auto.sina.com.cn\/guide\/index.shtml",
"author" : "WWW.SINA.COM.CN",
"tags" : [],
"desc" : "",
"emailed" : False,
"forwarded" : False,
"english" : False
}  , {
"index" : 8,
"articleIndex" : "1183",
"favor" :  False ,
     "read" : False,    
"title" : "小排量大空间 三款高性价比MPV推荐",
"titleTip" : "小排量大空间 三款高性价比MPV推荐",
"titleSummary" : "小排量大空间 三款高性价比MPV推荐",
"descSummary" : "",
"url" : "http:\/\/go.rss.sina.com.cn\/redirect.php?url=http:\/\/auto.sina.com.cn\/car\/2013-10-22\/12301238154.shtml",
"pubDate" : "2013年10月22日 (1周前)",
"enterDate" : "384198:31:00",
"channelId" : "6946326418527977722",
"channelName" : "购车方案-新浪汽车",
"channelNameSummary" : "购车方案-新浪汽车",
"channelUrl" : "http:\/\/auto.sina.com.cn\/guide\/index.shtml",
"author" : "WWW.SINA.COM.CN",
"tags" : [],
"desc" : "",
"emailed" : False,
"forwarded" : False,
"english" : False
}  , {
"index" : 9,
"articleIndex" : "1182",
"favor" :  False ,
     "read" : False,    
"title" : "大话汽车江湖 土豪跟我做朋友吧",
"titleTip" : "大话汽车江湖 土豪跟我做朋友吧",
"titleSummary" : "大话汽车江湖 土豪跟我做朋友吧",
"descSummary" : "",
"url" : "http:\/\/go.rss.sina.com.cn\/redirect.php?url=http:\/\/auto.sina.com.cn\/news\/2013-10-21\/20291237680.shtml",
"pubDate" : "2013年10月21日 (1周前)",
"enterDate" : "384187:31:40",
"channelId" : "6946326418527977722",
"channelName" : "购车方案-新浪汽车",
"channelNameSummary" : "购车方案-新浪汽车",
"channelUrl" : "http:\/\/auto.sina.com.cn\/guide\/index.shtml",
"author" : "WWW.SINA.COM.CN",
"tags" : [],
"desc" : "",
"emailed" : False,
"forwarded" : False,
"english" : False
}  , {
"index" : 10,
"articleIndex" : "1181",
"favor" :  False ,
     "read" : False,    
"title" : "新车扎堆 深秋新款SUV车型购车土建",
"titleTip" : "新车扎堆 深秋新款SUV车型购车土建",
"titleSummary" : "新车扎堆 深秋新款SUV车型购车土建",
"descSummary" : "",
"url" : "http:\/\/go.rss.sina.com.cn\/redirect.php?url=http:\/\/auto.sina.com.cn\/car\/2013-10-18\/16101236961.shtml",
"pubDate" : "2013年10月18日 (1周前)",
"enterDate" : "384199:59:22",
"channelId" : "6946326418527977722",
"channelName" : "购车方案-新浪汽车",
"channelNameSummary" : "购车方案-新浪汽车",
"channelUrl" : "http:\/\/auto.sina.com.cn\/guide\/index.shtml",
"author" : "WWW.SINA.COM.CN",
"tags" : [],
"desc" : "",
"emailed" : False,
"forwarded" : False,
"english" : False
}  , {
"index" : 11,
"articleIndex" : "1180",
"favor" :  False ,
     "read" : False,    
"title" : "又好用又实用 6款热销MPV购车推荐",
"titleTip" : "又好用又实用 6款热销MPV购车推荐",
"titleSummary" : "又好用又实用 6款热销MPV购车推荐",
"descSummary" : "",
"url" : "http:\/\/go.rss.sina.com.cn\/redirect.php?url=http:\/\/auto.sina.com.cn\/car\/2013-10-17\/10501236261.shtml",
"pubDate" : "2013年10月17日 (1周前)",
"enterDate" : "384200:30:15",
"channelId" : "6946326418527977722",
"channelName" : "购车方案-新浪汽车",
"channelNameSummary" : "购车方案-新浪汽车",
"channelUrl" : "http:\/\/auto.sina.com.cn\/guide\/index.shtml",
"author" : "WWW.SINA.COM.CN",
"tags" : [],
"desc" : "",
"emailed" : False,
"forwarded" : False,
"english" : False
}  , {
"index" : 12,
"articleIndex" : "1179",
"favor" :  False ,
     "read" : False,    
"title" : "车型相对论之丰田RAV4对比马自达CX-5",
"titleTip" : "车型相对论之丰田RAV4对比马自达CX-5",
"titleSummary" : "车型相对论之丰田RAV4对比马自达CX-5",
"descSummary" : "",
"url" : "http:\/\/go.rss.sina.com.cn\/redirect.php?url=http:\/\/sina.allyes.com\/main\/adfclick?db=sina&bid=600349,668474,673735&cid=0,0,0&sid=678586&advid=21546&camid=102665&show=ignore&url=http:\/\/photo.auto.sina.com.cn\/highpix\/31329818.html",
"pubDate" : "2013年10月17日 (1周前)",
"enterDate" : "384200:09:26",
"channelId" : "6946326418527977722",
"channelName" : "购车方案-新浪汽车",
"channelNameSummary" : "购车方案-新浪汽车",
"channelUrl" : "http:\/\/auto.sina.com.cn\/guide\/index.shtml",
"author" : "WWW.SINA.COM.CN",
"tags" : [],
"desc" : "",
"emailed" : False,
"forwarded" : False,
"english" : False
}  , {
"index" : 13,
"articleIndex" : "1178",
"favor" :  False ,
     "read" : False,    
"title" : "个性舒适还不贵 4款热门自主大两厢推荐",
"titleTip" : "个性舒适还不贵 4款热门自主大两厢推荐",
"titleSummary" : "个性舒适还不贵 4款热门自主大两厢推荐",
"descSummary" : "",
"url" : "http:\/\/go.rss.sina.com.cn\/redirect.php?url=http:\/\/auto.sina.com.cn\/car\/2013-10-15\/15301235289.shtml",
"pubDate" : "2013年10月15日 (2周前)",
"enterDate" : "384199:34:11",
"channelId" : "6946326418527977722",
"channelName" : "购车方案-新浪汽车",
"channelNameSummary" : "购车方案-新浪汽车",
"channelUrl" : "http:\/\/auto.sina.com.cn\/guide\/index.shtml",
"author" : "WWW.SINA.COM.CN",
"tags" : [],
"desc" : "",
"emailed" : False,
"forwarded" : False,
"english" : False
}  , {
"index" : 14,
"articleIndex" : "1177",
"favor" :  False ,
     "read" : False,    
"title" : "长安马自达CX-5微长测",
"titleTip" : "长安马自达CX-5微长测",
"titleSummary" : "长安马自达CX-5微长测",
"descSummary" : "",
"url" : "http:\/\/go.rss.sina.com.cn\/redirect.php?url=http:\/\/sina.allyes.com\/main\/adfclick?db=sina&bid=596916,665016,670277&cid=0,0,0&sid=675099&advid=21546&camid=102665&show=ignore&url=http:\/\/auto.sina.com.cn\/848\/2013-08-27\/9.html",
"pubDate" : "2013年10月15日 (2周前)",
"enterDate" : "384200:29:01",
"channelId" : "6946326418527977722",
"channelName" : "购车方案-新浪汽车",
"channelNameSummary" : "购车方案-新浪汽车",
"channelUrl" : "http:\/\/auto.sina.com.cn\/guide\/index.shtml",
"author" : "WWW.SINA.COM.CN",
"tags" : [],
"desc" : "",
"emailed" : False,
"forwarded" : False,
"english" : False
}  , {
"index" : 15,
"articleIndex" : "1176",
"favor" :  False ,
     "read" : False,    
"title" : "性价比之选 5万元紧凑型家轿购车推荐",
"titleTip" : "性价比之选 5万元紧凑型家轿购车推荐",
"titleSummary" : "性价比之选 5万元紧凑型家轿购车推荐",
"descSummary" : "",
"url" : "http:\/\/go.rss.sina.com.cn\/redirect.php?url=http:\/\/auto.sina.com.cn\/car\/2013-10-11\/10301233329.shtml",
"pubDate" : "2013年10月11日 (2周前)",
"enterDate" : "384199:36:23",
"channelId" : "6946326418527977722",
"channelName" : "购车方案-新浪汽车",
"channelNameSummary" : "购车方案-新浪汽车",
"channelUrl" : "http:\/\/auto.sina.com.cn\/guide\/index.shtml",
"author" : "WWW.SINA.COM.CN",
"tags" : [],
"desc" : "",
"emailed" : False,
"forwarded" : False,
"english" : False
}  , {
"index" : 16,
"articleIndex" : "1175",
"favor" :  False ,
     "read" : False,    
"title" : "节油与配置 两款经济型家轿购车推荐",
"titleTip" : "节油与配置 两款经济型家轿购车推荐",
"titleSummary" : "节油与配置 两款经济型家轿购车推荐",
"descSummary" : "",
"url" : "http:\/\/go.rss.sina.com.cn\/redirect.php?url=http:\/\/auto.sina.com.cn\/car\/2013-10-10\/11501232680.shtml",
"pubDate" : "2013年10月10日 (2周前)",
"enterDate" : "384199:45:42",
"channelId" : "6946326418527977722",
"channelName" : "购车方案-新浪汽车",
"channelNameSummary" : "购车方案-新浪汽车",
"channelUrl" : "http:\/\/auto.sina.com.cn\/guide\/index.shtml",
"author" : "WWW.SINA.COM.CN",
"tags" : [],
"desc" : "",
"emailed" : False,
"forwarded" : False,
"english" : False
}  , {
"index" : 17,
"articleIndex" : "1174",
"favor" :  False ,
     "read" : False,    
"title" : "品牌带来销量提升 国内畅销MPV车型推荐",
"titleTip" : "品牌带来销量提升 国内畅销MPV车型推荐",
"titleSummary" : "品牌带来销量提升 国内畅销MPV车型推荐",
"descSummary" : "",
"url" : "http:\/\/go.rss.sina.com.cn\/redirect.php?url=http:\/\/auto.sina.com.cn\/car\/2013-10-09\/15201232093.shtml",
"pubDate" : "2013年10月9日 (3周前)",
"enterDate" : "384196:26:25",
"channelId" : "6946326418527977722",
"channelName" : "购车方案-新浪汽车",
"channelNameSummary" : "购车方案-新浪汽车",
"channelUrl" : "http:\/\/auto.sina.com.cn\/guide\/index.shtml",
"author" : "WWW.SINA.COM.CN",
"tags" : [],
"desc" : "",
"emailed" : False,
"forwarded" : False,
"english" : False
}  , {
"index" : 18,
"articleIndex" : "1173",
"favor" :  False ,
     "read" : False,    
"title" : "个性十足 5款30万内进口SUV车型推荐",
"titleTip" : "个性十足 5款30万内进口SUV车型推荐",
"titleSummary" : "个性十足 5款30万内进口SUV车型推荐",
"descSummary" : "",
"url" : "http:\/\/go.rss.sina.com.cn\/redirect.php?url=http:\/\/auto.sina.com.cn\/news\/2013-10-09\/08541231789.shtml",
"pubDate" : "2013年10月9日 (3周前)",
"enterDate" : "384200:32:53",
"channelId" : "6946326418527977722",
"channelName" : "购车方案-新浪汽车",
"channelNameSummary" : "购车方案-新浪汽车",
"channelUrl" : "http:\/\/auto.sina.com.cn\/guide\/index.shtml",
"author" : "WWW.SINA.COM.CN",
"tags" : [],
"desc" : "",
"emailed" : False,
"forwarded" : False,
"english" : False
}  , {
"index" : 19,
"articleIndex" : "1172",
"favor" :  False ,
     "read" : False,    
"title" : "技术先进 车型较少 奔驰新S级竞争力分析",
"titleTip" : "技术先进 车型较少 奔驰新S级竞争力分析",
"titleSummary" : "技术先进 车型较少 奔驰新S级竞争力分析",
"descSummary" : "",
"url" : "http:\/\/go.rss.sina.com.cn\/redirect.php?url=http:\/\/auto.sina.com.cn\/news\/2013-09-29\/23271230047.shtml",
"pubDate" : "2013年9月29日",
"enterDate" : "384188:31:46",
"channelId" : "6946326418527977722",
"channelName" : "购车方案-新浪汽车",
"channelNameSummary" : "购车方案-新浪汽车",
"channelUrl" : "http:\/\/auto.sina.com.cn\/guide\/index.shtml",
"author" : "WWW.SINA.COM.CN",
"tags" : [],
"desc" : "",
"emailed" : False,
"forwarded" : False,
"english" : False
} ]
}
