{
"mode" : {"viewTitle" : 1,   "viewNew" : 0,  "pageIndex" : 2 },
 "channel" : {"id" : "6946326418527977722", "booked" : False, "subNumber" : 1, "name" : "购车方案-新浪汽车", "url" : "http:\/\/auto.sina.com.cn\/guide\/index.shtml", "feed" : "http:\/\/rss.sina.com.cn\/auto\/guide\/index.xml", "author" : "WWW.SINA.COM.CN", "desc" : "购车方案-要闻列表", "imageUrl" : "http:\/\/www.sinaimg.cn\/dy\/auto\/index\/topbar_03.gif", "postPerWeek" : "0", "lastCrawTime" : "16:58:30", "crawDateTime" : "15:13:10", "lastHttpCode" : "200"}, "page" : {
"startIndex" : 20,
"totalCount" : 1192,
"pageIndex" : 2,
"lastPage" : 60,
"pageSize" : 20,
"english" :  False },
 "unreadNum" : 0, "shotIndex" : -1,
"articles" : [
{
"index" : 0,
"articleIndex" : "1171",
"favor" :  False ,
     "read" : False,    
"title" : "车型相对论之丰田RAV4对比马自达CX-5",
"titleTip" : "车型相对论之丰田RAV4对比马自达CX-5",
"titleSummary" : "车型相对论之丰田RAV4对比马自达CX-5",
"descSummary" : "",
"url" : "http:\/\/go.rss.sina.com.cn\/redirect.php?url=http:\/\/sina.allyes.com\/main\/adfclick?db=sina&bid=596916,665016,670277&cid=0,0,0&sid=675099&advid=21546&camid=102665&show=ignore&url=http:\/\/photo.auto.sina.com.cn\/highpix\/31329818.html",
"pubDate" : "2013年10月17日 (1周前)",
"enterDate" : "384176:19:36",
"channelId" : "6946326418527977722",
"channelName" : "购车方案-新浪汽车",
"channelNameSummary" : "购车方案-新浪汽车",
"channelUrl" : "http:\/\/auto.sina.com.cn\/guide\/index.shtml",
"author" : "WWW.SINA.COM.CN",
"tags" : [],
"desc" : "",
"emailed" : False,
"forwarded" : False,
"english" : False
}  , {
"index" : 1,
"articleIndex" : "1170",
"favor" :  False ,
     "read" : False,    
"title" : "选购实惠车 四款高性价比家轿推荐",
"titleTip" : "选购实惠车 四款高性价比家轿推荐",
"titleSummary" : "选购实惠车 四款高性价比家轿推荐",
"descSummary" : "",
"url" : "http:\/\/go.rss.sina.com.cn\/redirect.php?url=http:\/\/auto.sina.com.cn\/car\/2013-09-30\/09201230265.shtml",
"pubDate" : "2013年9月30日",
"enterDate" : "384200:25:55",
"channelId" : "6946326418527977722",
"channelName" : "购车方案-新浪汽车",
"channelNameSummary" : "购车方案-新浪汽车",
"channelUrl" : "http:\/\/auto.sina.com.cn\/guide\/index.shtml",
"author" : "WWW.SINA.COM.CN",
"tags" : [],
"desc" : "",
"emailed" : False,
"forwarded" : False,
"english" : False
}  , {
"index" : 2,
"articleIndex" : "1169",
"favor" :  False ,
     "read" : False,    
"title" : "凯迪拉克ATS领衔 十月将上市新车盘点",
"titleTip" : "凯迪拉克ATS领衔 十月将上市新车盘点",
"titleSummary" : "凯迪拉克ATS领衔 十月将上市新车盘点",
"descSummary" : "",
"url" : "http:\/\/go.rss.sina.com.cn\/redirect.php?url=http:\/\/auto.sina.com.cn\/news\/2013-09-29\/08351229734.shtml",
"pubDate" : "2013年9月29日",
"enterDate" : "384181:43:26",
"channelId" : "6946326418527977722",
"channelName" : "购车方案-新浪汽车",
"channelNameSummary" : "购车方案-新浪汽车",
"channelUrl" : "http:\/\/auto.sina.com.cn\/guide\/index.shtml",
"author" : "WWW.SINA.COM.CN",
"tags" : [],
"desc" : "",
"emailed" : False,
"forwarded" : False,
"english" : False
}  , {
"index" : 3,
"articleIndex" : "1168",
"favor" :  False ,
     "read" : False,    
"title" : "三国杀第十期 天籁\/雅阁\/凯美瑞三强对比",
"titleTip" : "三国杀第十期 天籁\/雅阁\/凯美瑞三强对比",
"titleSummary" : "三国杀第十期 天籁\/雅阁\/凯美瑞三强对比",
"descSummary" : "",
"url" : "http:\/\/go.rss.sina.com.cn\/redirect.php?url=http:\/\/auto.sina.com.cn\/news\/2013-09-28\/20391229522.shtml",
"pubDate" : "2013年9月28日",
"enterDate" : "384169:46:37",
"channelId" : "6946326418527977722",
"channelName" : "购车方案-新浪汽车",
"channelNameSummary" : "购车方案-新浪汽车",
"channelUrl" : "http:\/\/auto.sina.com.cn\/guide\/index.shtml",
"author" : "WWW.SINA.COM.CN",
"tags" : [],
"desc" : "",
"emailed" : False,
"forwarded" : False,
"english" : False
}  , {
"index" : 4,
"articleIndex" : "1167",
"favor" :  False ,
     "read" : False,    
"title" : "有刚有柔 4款亲民中高级车推荐",
"titleTip" : "有刚有柔 4款亲民中高级车推荐",
"titleSummary" : "有刚有柔 4款亲民中高级车推荐",
"descSummary" : "",
"url" : "http:\/\/go.rss.sina.com.cn\/redirect.php?url=http:\/\/auto.sina.com.cn\/news\/2013-09-25\/20081228023.shtml",
"pubDate" : "2013年9月25日",
"enterDate" : "384198:09:46",
"channelId" : "6946326418527977722",
"channelName" : "购车方案-新浪汽车",
"channelNameSummary" : "购车方案-新浪汽车",
"channelUrl" : "http:\/\/auto.sina.com.cn\/guide\/index.shtml",
"author" : "WWW.SINA.COM.CN",
"tags" : [],
"desc" : "",
"emailed" : False,
"forwarded" : False,
"english" : False
}  , {
"index" : 5,
"articleIndex" : "1166",
"favor" :  False ,
     "read" : False,    
"title" : "精打细算 5款8万元内自动挡小型车推荐",
"titleTip" : "精打细算 5款8万元内自动挡小型车推荐",
"titleSummary" : "精打细算 5款8万元内自动挡小型车推荐",
"descSummary" : "",
"url" : "http:\/\/go.rss.sina.com.cn\/redirect.php?url=http:\/\/auto.sina.com.cn\/news\/2013-09-24\/08291227025.shtml",
"pubDate" : "2013年9月24日",
"enterDate" : "384200:23:09",
"channelId" : "6946326418527977722",
"channelName" : "购车方案-新浪汽车",
"channelNameSummary" : "购车方案-新浪汽车",
"channelUrl" : "http:\/\/auto.sina.com.cn\/guide\/index.shtml",
"author" : "WWW.SINA.COM.CN",
"tags" : [],
"desc" : "",
"emailed" : False,
"forwarded" : False,
"english" : False
}  , {
"index" : 6,
"articleIndex" : "1165",
"favor" :  False ,
     "read" : False,    
"title" : "10万元购车有选择 全新捷达对比新凯越",
"titleTip" : "10万元购车有选择 全新捷达对比新凯越",
"titleSummary" : "10万元购车有选择 全新捷达对比新凯越",
"descSummary" : "",
"url" : "http:\/\/go.rss.sina.com.cn\/redirect.php?url=http:\/\/auto.sina.com.cn\/car\/2013-09-17\/09501224465.shtml",
"pubDate" : "2013年9月17日",
"enterDate" : "384199:40:33",
"channelId" : "6946326418527977722",
"channelName" : "购车方案-新浪汽车",
"channelNameSummary" : "购车方案-新浪汽车",
"channelUrl" : "http:\/\/auto.sina.com.cn\/guide\/index.shtml",
"author" : "WWW.SINA.COM.CN",
"tags" : [],
"desc" : "",
"emailed" : False,
"forwarded" : False,
"english" : False
}  , {
"index" : 7,
"articleIndex" : "1163",
"favor" :  False ,
     "read" : False,    
"title" : "无惧钱荒 盘点近期车企金融购车方案",
"titleTip" : "无惧钱荒 盘点近期车企金融购车方案",
"titleSummary" : "无惧钱荒 盘点近期车企金融购车方案",
"descSummary" : "",
"url" : "http:\/\/go.rss.sina.com.cn\/redirect.php?url=http:\/\/auto.sina.com.cn\/car\/2013-09-12\/13401222539.shtml",
"pubDate" : "2013年9月12日",
"enterDate" : "384199:44:52",
"channelId" : "6946326418527977722",
"channelName" : "购车方案-新浪汽车",
"channelNameSummary" : "购车方案-新浪汽车",
"channelUrl" : "http:\/\/auto.sina.com.cn\/guide\/index.shtml",
"author" : "WWW.SINA.COM.CN",
"tags" : [],
"desc" : "",
"emailed" : False,
"forwarded" : False,
"english" : False
}  , {
"index" : 8,
"articleIndex" : "1164",
"favor" :  False ,
     "read" : False,    
"title" : "启辰十万台下线暨北斗导航版上市",
"titleTip" : "启辰十万台下线暨北斗导航版上市",
"titleSummary" : "启辰十万台下线暨北斗导航版上市",
"descSummary" : "",
"url" : "http:\/\/go.rss.sina.com.cn\/redirect.php?url=http:\/\/sina.allyes.com\/main\/adfclick?db=sina&bid=590620,658481,663743&cid=0,0,0&sid=668308&advid=21910&camid=104337&show=ignore&url=http:\/\/auto.sina.com.cn\/z\/qichenanniversary\/",
"pubDate" : "2013年9月12日",
"enterDate" : "384104:43:41",
"channelId" : "6946326418527977722",
"channelName" : "购车方案-新浪汽车",
"channelNameSummary" : "购车方案-新浪汽车",
"channelUrl" : "http:\/\/auto.sina.com.cn\/guide\/index.shtml",
"author" : "WWW.SINA.COM.CN",
"tags" : [],
"desc" : "",
"emailed" : False,
"forwarded" : False,
"english" : False
}  , {
"index" : 9,
"articleIndex" : "1162",
"favor" :  False ,
     "read" : False,    
"title" : "商务家庭兼具 解析商务舱级座驾英菲尼迪JX35",
"titleTip" : "商务家庭兼具 解析商务舱级座驾英菲尼迪JX35",
"titleSummary" : "商务家庭兼具 解析商务舱级座驾英菲尼迪JX35",
"descSummary" : "",
"url" : "http:\/\/go.rss.sina.com.cn\/redirect.php?url=http:\/\/auto.sina.com.cn\/car\/2013-09-11\/16231221914.shtml",
"pubDate" : "2013年9月11日",
"enterDate" : "384189:30:18",
"channelId" : "6946326418527977722",
"channelName" : "购车方案-新浪汽车",
"channelNameSummary" : "购车方案-新浪汽车",
"channelUrl" : "http:\/\/auto.sina.com.cn\/guide\/index.shtml",
"author" : "WWW.SINA.COM.CN",
"tags" : [],
"desc" : "",
"emailed" : False,
"forwarded" : False,
"english" : False
}  , {
"index" : 10,
"articleIndex" : "1161",
"favor" :  False ,
     "read" : False,    
"title" : "6万元起 四款适合教师选购的入门家轿导购",
"titleTip" : "6万元起 四款适合教师选购的入门家轿导购",
"titleSummary" : "6万元起 四款适合教师选购的入门家轿导购",
"descSummary" : "",
"url" : "http:\/\/go.rss.sina.com.cn\/redirect.php?url=http:\/\/auto.sina.com.cn\/car\/2013-09-10\/09191220968.shtml",
"pubDate" : "2013年9月10日",
"enterDate" : "384193:15:27",
"channelId" : "6946326418527977722",
"channelName" : "购车方案-新浪汽车",
"channelNameSummary" : "购车方案-新浪汽车",
"channelUrl" : "http:\/\/auto.sina.com.cn\/guide\/index.shtml",
"author" : "WWW.SINA.COM.CN",
"tags" : [],
"desc" : "",
"emailed" : False,
"forwarded" : False,
"english" : False
}  , {
"index" : 11,
"articleIndex" : "1160",
"favor" :  False ,
     "read" : False,    
"title" : "新概念跨界车 东风本田杰德竞争力分析",
"titleTip" : "新概念跨界车 东风本田杰德竞争力分析",
"titleSummary" : "新概念跨界车 东风本田杰德竞争力分析",
"descSummary" : "",
"url" : "http:\/\/go.rss.sina.com.cn\/redirect.php?url=http:\/\/auto.sina.com.cn\/car\/2013-09-06\/21351219711.shtml",
"pubDate" : "2013年9月6日",
"enterDate" : "384199:22:35",
"channelId" : "6946326418527977722",
"channelName" : "购车方案-新浪汽车",
"channelNameSummary" : "购车方案-新浪汽车",
"channelUrl" : "http:\/\/auto.sina.com.cn\/guide\/index.shtml",
"author" : "WWW.SINA.COM.CN",
"tags" : [],
"desc" : "",
"emailed" : False,
"forwarded" : False,
"english" : False
}  , {
"index" : 12,
"articleIndex" : "1159",
"favor" :  False ,
     "read" : False,    
"title" : "会省钱买好车 小排量国产车购车推荐",
"titleTip" : "会省钱买好车 小排量国产车购车推荐",
"titleSummary" : "会省钱买好车 小排量国产车购车推荐",
"descSummary" : "",
"url" : "http:\/\/go.rss.sina.com.cn\/redirect.php?url=http:\/\/auto.sina.com.cn\/car\/2013-09-06\/15001219613.shtml",
"pubDate" : "2013年9月6日",
"enterDate" : "384199:03:36",
"channelId" : "6946326418527977722",
"channelName" : "购车方案-新浪汽车",
"channelNameSummary" : "购车方案-新浪汽车",
"channelUrl" : "http:\/\/auto.sina.com.cn\/guide\/index.shtml",
"author" : "WWW.SINA.COM.CN",
"tags" : [],
"desc" : "",
"emailed" : False,
"forwarded" : False,
"english" : False
}  , {
"index" : 13,
"articleIndex" : "1158",
"favor" :  False ,
     "read" : False,    
"title" : "轻松购车 部分自主品牌贷款购车政策盘点",
"titleTip" : "轻松购车 部分自主品牌贷款购车政策盘点",
"titleSummary" : "轻松购车 部分自主品牌贷款购车政策盘点",
"descSummary" : "",
"url" : "http:\/\/go.rss.sina.com.cn\/redirect.php?url=http:\/\/auto.sina.com.cn\/car\/2013-09-05\/10001218713.shtml",
"pubDate" : "2013年9月5日",
"enterDate" : "384199:54:29",
"channelId" : "6946326418527977722",
"channelName" : "购车方案-新浪汽车",
"channelNameSummary" : "购车方案-新浪汽车",
"channelUrl" : "http:\/\/auto.sina.com.cn\/guide\/index.shtml",
"author" : "WWW.SINA.COM.CN",
"tags" : [],
"desc" : "",
"emailed" : False,
"forwarded" : False,
"english" : False
}  , {
"index" : 14,
"articleIndex" : "1157",
"favor" :  False ,
     "read" : False,    
"title" : "并不遥远的未来 基于网络的车载信息生活",
"titleTip" : "并不遥远的未来 基于网络的车载信息生活",
"titleSummary" : "并不遥远的未来 基于网络的车载信息生活",
"descSummary" : "",
"url" : "http:\/\/go.rss.sina.com.cn\/redirect.php?url=http:\/\/auto.sina.com.cn\/news\/2013-09-04\/17231218196.shtml",
"pubDate" : "2013年9月4日",
"enterDate" : "384198:14:45",
"channelId" : "6946326418527977722",
"channelName" : "购车方案-新浪汽车",
"channelNameSummary" : "购车方案-新浪汽车",
"channelUrl" : "http:\/\/auto.sina.com.cn\/guide\/index.shtml",
"author" : "WWW.SINA.COM.CN",
"tags" : [],
"desc" : "",
"emailed" : False,
"forwarded" : False,
"english" : False
}  , {
"index" : 15,
"articleIndex" : "1156",
"favor" :  False ,
     "read" : False,    
"title" : "新天籁获5星评价 解读新天籁高安全性指标",
"titleTip" : "新天籁获5星评价 解读新天籁高安全性指标",
"titleSummary" : "新天籁获5星评价 解读新天籁高安全性指标",
"descSummary" : "",
"url" : "http:\/\/go.rss.sina.com.cn\/redirect.php?url=http:\/\/auto.sina.com.cn\/car\/2013-09-04\/13441218120.shtml",
"pubDate" : "2013年9月4日",
"enterDate" : "384199:37:21",
"channelId" : "6946326418527977722",
"channelName" : "购车方案-新浪汽车",
"channelNameSummary" : "购车方案-新浪汽车",
"channelUrl" : "http:\/\/auto.sina.com.cn\/guide\/index.shtml",
"author" : "WWW.SINA.COM.CN",
"tags" : [],
"desc" : "",
"emailed" : False,
"forwarded" : False,
"english" : False
}  , {
"index" : 16,
"articleIndex" : "1155",
"favor" :  False ,
     "read" : False,    
"title" : "各取所需 四款国产MPV车型购车推荐",
"titleTip" : "各取所需 四款国产MPV车型购车推荐",
"titleSummary" : "各取所需 四款国产MPV车型购车推荐",
"descSummary" : "",
"url" : "http:\/\/go.rss.sina.com.cn\/redirect.php?url=http:\/\/auto.sina.com.cn\/car\/2013-09-04\/11101218022.shtml",
"pubDate" : "2013年9月4日",
"enterDate" : "384200:03:15",
"channelId" : "6946326418527977722",
"channelName" : "购车方案-新浪汽车",
"channelNameSummary" : "购车方案-新浪汽车",
"channelUrl" : "http:\/\/auto.sina.com.cn\/guide\/index.shtml",
"author" : "WWW.SINA.COM.CN",
"tags" : [],
"desc" : "",
"emailed" : False,
"forwarded" : False,
"english" : False
}  , {
"index" : 17,
"articleIndex" : "1154",
"favor" :  False ,
     "read" : False,    
"title" : "底盘扎实 4款欧系运动家轿推荐",
"titleTip" : "底盘扎实 4款欧系运动家轿推荐",
"titleSummary" : "底盘扎实 4款欧系运动家轿推荐",
"descSummary" : "",
"url" : "http:\/\/go.rss.sina.com.cn\/redirect.php?url=http:\/\/auto.sina.com.cn\/news\/2013-09-03\/15431217410.shtml",
"pubDate" : "2013年9月3日",
"enterDate" : "384199:40:21",
"channelId" : "6946326418527977722",
"channelName" : "购车方案-新浪汽车",
"channelNameSummary" : "购车方案-新浪汽车",
"channelUrl" : "http:\/\/auto.sina.com.cn\/guide\/index.shtml",
"author" : "WWW.SINA.COM.CN",
"tags" : [],
"desc" : "",
"emailed" : False,
"forwarded" : False,
"english" : False
}  , {
"index" : 18,
"articleIndex" : "1153",
"favor" :  False ,
     "read" : False,    
"title" : "新锐志领衔 成都车展重量级新车图解汇总",
"titleTip" : "新锐志领衔 成都车展重量级新车图解汇总",
"titleSummary" : "新锐志领衔 成都车展重量级新车图解汇总",
"descSummary" : "",
"url" : "http:\/\/go.rss.sina.com.cn\/redirect.php?url=http:\/\/auto.sina.com.cn\/news\/2013-08-30\/22341215914.shtml",
"pubDate" : "2013年8月30日",
"enterDate" : "384147:38:30",
"channelId" : "6946326418527977722",
"channelName" : "购车方案-新浪汽车",
"channelNameSummary" : "购车方案-新浪汽车",
"channelUrl" : "http:\/\/auto.sina.com.cn\/guide\/index.shtml",
"author" : "WWW.SINA.COM.CN",
"tags" : [],
"desc" : "",
"emailed" : False,
"forwarded" : False,
"english" : False
}  , {
"index" : 19,
"articleIndex" : "1152",
"favor" :  False ,
     "read" : False,    
"title" : "强势入市 长安福特全新蒙迪欧竞争力分析",
"titleTip" : "强势入市 长安福特全新蒙迪欧竞争力分析",
"titleSummary" : "强势入市 长安福特全新蒙迪欧竞争力分析",
"descSummary" : "",
"url" : "http:\/\/go.rss.sina.com.cn\/redirect.php?url=http:\/\/auto.sina.com.cn\/car\/2013-08-29\/21551215149.shtml",
"pubDate" : "2013年8月29日",
"enterDate" : "384122:59:39",
"channelId" : "6946326418527977722",
"channelName" : "购车方案-新浪汽车",
"channelNameSummary" : "购车方案-新浪汽车",
"channelUrl" : "http:\/\/auto.sina.com.cn\/guide\/index.shtml",
"author" : "WWW.SINA.COM.CN",
"tags" : [],
"desc" : "",
"emailed" : False,
"forwarded" : False,
"english" : False
} ]
}
