{
"mode" : {"viewTitle" : 1,   "viewNew" : 0,  "pageIndex" : 1 },
 "channel" : {"id" : "-3596153908840251782", "booked" : False, "subNumber" : 1, "name" : "汽车召回-新浪汽车", "url" : "http:\/\/auto.sina.com.cn\/recalls\/index.shtml", "feed" : "http:\/\/rss.sina.com.cn\/auto\/recalls\/index.xml", "author" : "WWW.SINA.COM.CN", "desc" : "汽车召回-要闻列表", "imageUrl" : "http:\/\/www.sinaimg.cn\/dy\/auto\/index\/topbar_03.gif", "postPerWeek" : "0", "lastCrawTime" : "17:01:58", "crawDateTime" : "15:16:36", "lastHttpCode" : "200"}, "page" : {
"startIndex" : 0,
"totalCount" : 364,
"pageIndex" : 1,
"lastPage" : 19,
"pageSize" : 20,
"english" :  False },
 "unreadNum" : 0, "shotIndex" : -1,
"articles" : [
{
"index" : 0,
"articleIndex" : "363",
"favor" :  False ,
     "read" : False,    
"title" : "本田中国召回5071辆进口讴歌MDX",
"titleTip" : "本田中国召回5071辆进口讴歌MDX",
"titleSummary" : "本田中国召回5071辆进口讴歌MDX",
"descSummary" : "",
"url" : "http:\/\/go.rss.sina.com.cn\/redirect.php?url=http:\/\/auto.sina.com.cn\/service\/2013-10-24\/17201239379.shtml",
"pubDate" : "2013年10月24日 (6天前)",
"enterDate" : "384184:18:34",
"channelId" : "-3596153908840251782",
"channelName" : "汽车召回-新浪汽车",
"channelNameSummary" : "汽车召回-新浪汽车",
"channelUrl" : "http:\/\/auto.sina.com.cn\/recalls\/index.shtml",
"author" : "WWW.SINA.COM.CN",
"tags" : [],
"desc" : "",
"emailed" : False,
"forwarded" : False,
"english" : False
}  , {
"index" : 1,
"articleIndex" : "362",
"favor" :  False ,
     "read" : False,    
"title" : "丰田中国召回部分进口丰田威飒汽车",
"titleTip" : "丰田中国召回部分进口丰田威飒汽车",
"titleSummary" : "丰田中国召回部分进口丰田威飒汽车",
"descSummary" : "",
"url" : "http:\/\/go.rss.sina.com.cn\/redirect.php?url=http:\/\/auto.sina.com.cn\/service\/2013-10-18\/17301236986.shtml",
"pubDate" : "2013年10月18日 (1周前)",
"enterDate" : "384198:29:23",
"channelId" : "-3596153908840251782",
"channelName" : "汽车召回-新浪汽车",
"channelNameSummary" : "汽车召回-新浪汽车",
"channelUrl" : "http:\/\/auto.sina.com.cn\/recalls\/index.shtml",
"author" : "WWW.SINA.COM.CN",
"tags" : [],
"desc" : "",
"emailed" : False,
"forwarded" : False,
"english" : False
}  , {
"index" : 2,
"articleIndex" : "361",
"favor" :  False ,
     "read" : False,    
"title" : "保时捷中国召回部分进口保时捷凯宴系列汽车",
"titleTip" : "保时捷中国召回部分进口保时捷凯宴系列汽车",
"titleSummary" : "保时捷中国召回部分进口保时捷凯宴系列汽车",
"descSummary" : "",
"url" : "http:\/\/go.rss.sina.com.cn\/redirect.php?url=http:\/\/auto.sina.com.cn\/service\/2013-10-18\/17301236985.shtml",
"pubDate" : "2013年10月18日 (1周前)",
"enterDate" : "384198:29:20",
"channelId" : "-3596153908840251782",
"channelName" : "汽车召回-新浪汽车",
"channelNameSummary" : "汽车召回-新浪汽车",
"channelUrl" : "http:\/\/auto.sina.com.cn\/recalls\/index.shtml",
"author" : "WWW.SINA.COM.CN",
"tags" : [],
"desc" : "",
"emailed" : False,
"forwarded" : False,
"english" : False
}  , {
"index" : 3,
"articleIndex" : "360",
"favor" :  False ,
     "read" : False,    
"title" : "丰田因空调冷凝器问题全球召回88.5万辆汽车",
"titleTip" : "丰田因空调冷凝器问题全球召回88.5万辆汽车",
"titleSummary" : "丰田因空调冷凝器问题全球召回88.5万辆汽车",
"descSummary" : "",
"url" : "http:\/\/go.rss.sina.com.cn\/redirect.php?url=http:\/\/auto.sina.com.cn\/service\/2013-10-18\/08421236651.shtml",
"pubDate" : "2013年10月18日 (1周前)",
"enterDate" : "384200:43:52",
"channelId" : "-3596153908840251782",
"channelName" : "汽车召回-新浪汽车",
"channelNameSummary" : "汽车召回-新浪汽车",
"channelUrl" : "http:\/\/auto.sina.com.cn\/recalls\/index.shtml",
"author" : "WWW.SINA.COM.CN",
"tags" : [],
"desc" : "",
"emailed" : False,
"forwarded" : False,
"english" : False
}  , {
"index" : 4,
"articleIndex" : "359",
"favor" :  False ,
     "read" : False,    
"title" : "宝马召回部分进口宝马640i汽车 大陆涉及80辆",
"titleTip" : "宝马召回部分进口宝马640i汽车 大陆涉及80辆",
"titleSummary" : "宝马召回部分进口宝马640i汽车 大陆涉及80辆",
"descSummary" : "",
"url" : "http:\/\/go.rss.sina.com.cn\/redirect.php?url=http:\/\/auto.sina.com.cn\/service\/2013-10-17\/21001236450.shtml",
"pubDate" : "2013年10月17日 (1周前)",
"enterDate" : "384199:03:35",
"channelId" : "-3596153908840251782",
"channelName" : "汽车召回-新浪汽车",
"channelNameSummary" : "汽车召回-新浪汽车",
"channelUrl" : "http:\/\/auto.sina.com.cn\/recalls\/index.shtml",
"author" : "WWW.SINA.COM.CN",
"tags" : [],
"desc" : "",
"emailed" : False,
"forwarded" : False,
"english" : False
}  , {
"index" : 5,
"articleIndex" : "358",
"favor" :  False ,
     "read" : False,    
"title" : "日产中国召回部分4367辆进口英菲尼迪JX35",
"titleTip" : "日产中国召回部分4367辆进口英菲尼迪JX35",
"titleSummary" : "日产中国召回部分4367辆进口英菲尼迪JX35",
"descSummary" : "",
"url" : "http:\/\/go.rss.sina.com.cn\/redirect.php?url=http:\/\/auto.sina.com.cn\/service\/2013-10-16\/09141235676.shtml",
"pubDate" : "2013年10月16日 (2周前)",
"enterDate" : "384200:09:49",
"channelId" : "-3596153908840251782",
"channelName" : "汽车召回-新浪汽车",
"channelNameSummary" : "汽车召回-新浪汽车",
"channelUrl" : "http:\/\/auto.sina.com.cn\/recalls\/index.shtml",
"author" : "WWW.SINA.COM.CN",
"tags" : [],
"desc" : "",
"emailed" : False,
"forwarded" : False,
"english" : False
}  , {
"index" : 6,
"articleIndex" : "357",
"favor" :  False ,
     "read" : False,    
"title" : "大众中国召回部分进口宾利和兰博基尼汽车",
"titleTip" : "大众中国召回部分进口宾利和兰博基尼汽车",
"titleSummary" : "大众中国召回部分进口宾利和兰博基尼汽车",
"descSummary" : "",
"url" : "http:\/\/go.rss.sina.com.cn\/redirect.php?url=http:\/\/auto.sina.com.cn\/service\/2013-10-15\/15201235286.shtml",
"pubDate" : "2013年10月15日 (2周前)",
"enterDate" : "384196:18:19",
"channelId" : "-3596153908840251782",
"channelName" : "汽车召回-新浪汽车",
"channelNameSummary" : "汽车召回-新浪汽车",
"channelUrl" : "http:\/\/auto.sina.com.cn\/recalls\/index.shtml",
"author" : "WWW.SINA.COM.CN",
"tags" : [],
"desc" : "",
"emailed" : False,
"forwarded" : False,
"english" : False
}  , {
"index" : 7,
"articleIndex" : "356",
"favor" :  False ,
     "read" : False,    
"title" : "因进气凸轮轴设计缺陷 宝马召回部分汽车",
"titleTip" : "因进气凸轮轴设计缺陷 宝马召回部分汽车",
"titleSummary" : "因进气凸轮轴设计缺陷 宝马召回部分汽车",
"descSummary" : "",
"url" : "http:\/\/go.rss.sina.com.cn\/redirect.php?url=http:\/\/auto.sina.com.cn\/service\/2013-10-14\/07251234296.shtml",
"pubDate" : "2013年10月14日 (2周前)",
"enterDate" : "384200:31:15",
"channelId" : "-3596153908840251782",
"channelName" : "汽车召回-新浪汽车",
"channelNameSummary" : "汽车召回-新浪汽车",
"channelUrl" : "http:\/\/auto.sina.com.cn\/recalls\/index.shtml",
"author" : "WWW.SINA.COM.CN",
"tags" : [],
"desc" : "",
"emailed" : False,
"forwarded" : False,
"english" : False
}  , {
"index" : 8,
"articleIndex" : "355",
"favor" :  False ,
     "read" : False,    
"title" : "宝马在华召回25254辆国产车及进口车",
"titleTip" : "宝马在华召回25254辆国产车及进口车",
"titleSummary" : "宝马在华召回25254辆国产车及进口车",
"descSummary" : "",
"url" : "http:\/\/go.rss.sina.com.cn\/redirect.php?url=http:\/\/auto.sina.com.cn\/service\/2013-10-12\/18201234064.shtml",
"pubDate" : "2013年10月12日 (2周前)",
"enterDate" : "384186:15:43",
"channelId" : "-3596153908840251782",
"channelName" : "汽车召回-新浪汽车",
"channelNameSummary" : "汽车召回-新浪汽车",
"channelUrl" : "http:\/\/auto.sina.com.cn\/recalls\/index.shtml",
"author" : "WWW.SINA.COM.CN",
"tags" : [],
"desc" : "",
"emailed" : False,
"forwarded" : False,
"english" : False
}  , {
"index" : 9,
"articleIndex" : "353",
"favor" :  False ,
     "read" : False,    
"title" : "克莱斯勒全球召回14.3万辆大切诺基和皮卡",
"titleTip" : "克莱斯勒全球召回14.3万辆大切诺基和皮卡",
"titleSummary" : "克莱斯勒全球召回14.3万辆大切诺基和皮卡",
"descSummary" : "",
"url" : "http:\/\/go.rss.sina.com.cn\/redirect.php?url=http:\/\/auto.sina.com.cn\/service\/2013-10-08\/07551231202.shtml",
"pubDate" : "2013年10月8日 (3周前)",
"enterDate" : "384200:43:14",
"channelId" : "-3596153908840251782",
"channelName" : "汽车召回-新浪汽车",
"channelNameSummary" : "汽车召回-新浪汽车",
"channelUrl" : "http:\/\/auto.sina.com.cn\/recalls\/index.shtml",
"author" : "WWW.SINA.COM.CN",
"tags" : [],
"desc" : "",
"emailed" : False,
"forwarded" : False,
"english" : False
}  , {
"index" : 10,
"articleIndex" : "354",
"favor" :  False ,
     "read" : False,    
"title" : "东风悦达起亚召回部分福瑞迪汽车",
"titleTip" : "东风悦达起亚召回部分福瑞迪汽车",
"titleSummary" : "东风悦达起亚召回部分福瑞迪汽车",
"descSummary" : "",
"url" : "http:\/\/go.rss.sina.com.cn\/redirect.php?url=http:\/\/auto.sina.com.cn\/service\/2013-09-30\/21101230476.shtml",
"pubDate" : "2013年9月30日",
"enterDate" : "383997:07:35",
"channelId" : "-3596153908840251782",
"channelName" : "汽车召回-新浪汽车",
"channelNameSummary" : "汽车召回-新浪汽车",
"channelUrl" : "http:\/\/auto.sina.com.cn\/recalls\/index.shtml",
"author" : "WWW.SINA.COM.CN",
"tags" : [],
"desc" : "",
"emailed" : False,
"forwarded" : False,
"english" : False
}  , {
"index" : 11,
"articleIndex" : "352",
"favor" :  False ,
     "read" : False,    
"title" : "日产英菲尼迪全球召回91万车 在华近4千辆",
"titleTip" : "日产英菲尼迪全球召回91万车 在华近4千辆",
"titleSummary" : "日产英菲尼迪全球召回91万车 在华近4千辆",
"descSummary" : "",
"url" : "http:\/\/go.rss.sina.com.cn\/redirect.php?url=http:\/\/auto.sina.com.cn\/service\/2013-09-27\/08341228875.shtml",
"pubDate" : "2013年9月27日",
"enterDate" : "384133:49:37",
"channelId" : "-3596153908840251782",
"channelName" : "汽车召回-新浪汽车",
"channelNameSummary" : "汽车召回-新浪汽车",
"channelUrl" : "http:\/\/auto.sina.com.cn\/recalls\/index.shtml",
"author" : "WWW.SINA.COM.CN",
"tags" : [],
"desc" : "",
"emailed" : False,
"forwarded" : False,
"english" : False
}  , {
"index" : 12,
"articleIndex" : "351",
"favor" :  False ,
     "read" : False,    
"title" : "一汽大众因燃油压力管问题召回奥迪S6\/S7",
"titleTip" : "一汽大众因燃油压力管问题召回奥迪S6\/S7",
"titleSummary" : "一汽大众因燃油压力管问题召回奥迪S6\/S7",
"descSummary" : "",
"url" : "http:\/\/go.rss.sina.com.cn\/redirect.php?url=http:\/\/auto.sina.com.cn\/service\/2013-09-26\/17481228655.shtml",
"pubDate" : "2013年9月26日",
"enterDate" : "384119:03:07",
"channelId" : "-3596153908840251782",
"channelName" : "汽车召回-新浪汽车",
"channelNameSummary" : "汽车召回-新浪汽车",
"channelUrl" : "http:\/\/auto.sina.com.cn\/recalls\/index.shtml",
"author" : "WWW.SINA.COM.CN",
"tags" : [],
"desc" : "",
"emailed" : False,
"forwarded" : False,
"english" : False
}  , {
"index" : 13,
"articleIndex" : "350",
"favor" :  False ,
     "read" : False,    
"title" : "日产中国召回进口\u201C风雅\u201D英菲尼迪M35",
"titleTip" : "日产中国召回进口\u201C风雅\u201D英菲尼迪M35",
"titleSummary" : "日产中国召回进口\u201C风雅\u201D英菲尼迪M35",
"descSummary" : "",
"url" : "http:\/\/go.rss.sina.com.cn\/redirect.php?url=http:\/\/auto.sina.com.cn\/service\/2013-09-26\/16301228629.shtml",
"pubDate" : "2013年9月26日",
"enterDate" : "384117:45:10",
"channelId" : "-3596153908840251782",
"channelName" : "汽车召回-新浪汽车",
"channelNameSummary" : "汽车召回-新浪汽车",
"channelUrl" : "http:\/\/auto.sina.com.cn\/recalls\/index.shtml",
"author" : "WWW.SINA.COM.CN",
"tags" : [],
"desc" : "",
"emailed" : False,
"forwarded" : False,
"english" : False
}  , {
"index" : 14,
"articleIndex" : "349",
"favor" :  False ,
     "read" : False,    
"title" : "现代起亚韩国召回66万辆车 或波及其他国家",
"titleTip" : "现代起亚韩国召回66万辆车 或波及其他国家",
"titleSummary" : "现代起亚韩国召回66万辆车 或波及其他国家",
"descSummary" : "",
"url" : "http:\/\/go.rss.sina.com.cn\/redirect.php?url=http:\/\/auto.sina.com.cn\/service\/2013-09-26\/08471228265.shtml",
"pubDate" : "2013年9月26日",
"enterDate" : "384200:25:41",
"channelId" : "-3596153908840251782",
"channelName" : "汽车召回-新浪汽车",
"channelNameSummary" : "汽车召回-新浪汽车",
"channelUrl" : "http:\/\/auto.sina.com.cn\/recalls\/index.shtml",
"author" : "WWW.SINA.COM.CN",
"tags" : [],
"desc" : "",
"emailed" : False,
"forwarded" : False,
"english" : False
}  , {
"index" : 15,
"articleIndex" : "348",
"favor" :  False ,
     "read" : False,    
"title" : "宝马因车灯故障在北美召回14万辆汽车",
"titleTip" : "宝马因车灯故障在北美召回14万辆汽车",
"titleSummary" : "宝马因车灯故障在北美召回14万辆汽车",
"descSummary" : "",
"url" : "http:\/\/go.rss.sina.com.cn\/redirect.php?url=http:\/\/auto.sina.com.cn\/service\/2013-09-22\/10571225997.shtml",
"pubDate" : "2013年9月22日",
"enterDate" : "384200:49:45",
"channelId" : "-3596153908840251782",
"channelName" : "汽车召回-新浪汽车",
"channelNameSummary" : "汽车召回-新浪汽车",
"channelUrl" : "http:\/\/auto.sina.com.cn\/recalls\/index.shtml",
"author" : "WWW.SINA.COM.CN",
"tags" : [],
"desc" : "",
"emailed" : False,
"forwarded" : False,
"english" : False
}  , {
"index" : 16,
"articleIndex" : "347",
"favor" :  False ,
     "read" : False,    
"title" : "本田全球召回40.5万辆故障讴歌MDX奥德赛",
"titleTip" : "本田全球召回40.5万辆故障讴歌MDX奥德赛",
"titleSummary" : "本田全球召回40.5万辆故障讴歌MDX奥德赛",
"descSummary" : "",
"url" : "http:\/\/go.rss.sina.com.cn\/redirect.php?url=http:\/\/auto.sina.com.cn\/service\/2013-09-22\/10541225996.shtml",
"pubDate" : "2013年9月22日",
"enterDate" : "384200:46:56",
"channelId" : "-3596153908840251782",
"channelName" : "汽车召回-新浪汽车",
"channelNameSummary" : "汽车召回-新浪汽车",
"channelUrl" : "http:\/\/auto.sina.com.cn\/recalls\/index.shtml",
"author" : "WWW.SINA.COM.CN",
"tags" : [],
"desc" : "",
"emailed" : False,
"forwarded" : False,
"english" : False
}  , {
"index" : 17,
"articleIndex" : "345",
"favor" :  False ,
     "read" : False,    
"title" : "神龙汽车召回12988辆东风标致3008轿车",
"titleTip" : "神龙汽车召回12988辆东风标致3008轿车",
"titleSummary" : "神龙汽车召回12988辆东风标致3008轿车",
"descSummary" : "",
"url" : "http:\/\/go.rss.sina.com.cn\/redirect.php?url=http:\/\/auto.sina.com.cn\/service\/2013-09-17\/19201224716.shtml",
"pubDate" : "2013年9月17日",
"enterDate" : "384187:19:41",
"channelId" : "-3596153908840251782",
"channelName" : "汽车召回-新浪汽车",
"channelNameSummary" : "汽车召回-新浪汽车",
"channelUrl" : "http:\/\/auto.sina.com.cn\/recalls\/index.shtml",
"author" : "WWW.SINA.COM.CN",
"tags" : [],
"desc" : "",
"emailed" : False,
"forwarded" : False,
"english" : False
}  , {
"index" : 18,
"articleIndex" : "346",
"favor" :  False ,
     "read" : False,    
"title" : "轮毂存安全隐患 东风悦达起亚召回18135辆K5",
"titleTip" : "轮毂存安全隐患 东风悦达起亚召回18135辆K5",
"titleSummary" : "轮毂存安全隐患 东风悦达起亚召回18135辆K5",
"descSummary" : "",
"url" : "http:\/\/go.rss.sina.com.cn\/redirect.php?url=http:\/\/auto.sina.com.cn\/service\/2013-09-17\/19201224717.shtml",
"pubDate" : "2013年9月17日",
"enterDate" : "384187:19:41",
"channelId" : "-3596153908840251782",
"channelName" : "汽车召回-新浪汽车",
"channelNameSummary" : "汽车召回-新浪汽车",
"channelUrl" : "http:\/\/auto.sina.com.cn\/recalls\/index.shtml",
"author" : "WWW.SINA.COM.CN",
"tags" : [],
"desc" : "",
"emailed" : False,
"forwarded" : False,
"english" : False
}  , {
"index" : 19,
"articleIndex" : "344",
"favor" :  False ,
     "read" : False,    
"title" : "上汽通用五菱召回54566辆宝骏630轿车",
"titleTip" : "上汽通用五菱召回54566辆宝骏630轿车",
"titleSummary" : "上汽通用五菱召回54566辆宝骏630轿车",
"descSummary" : "",
"url" : "http:\/\/go.rss.sina.com.cn\/redirect.php?url=http:\/\/auto.sina.com.cn\/service\/2013-09-07\/09301219810.shtml",
"pubDate" : "2013年9月7日",
"enterDate" : "384200:37:15",
"channelId" : "-3596153908840251782",
"channelName" : "汽车召回-新浪汽车",
"channelNameSummary" : "汽车召回-新浪汽车",
"channelUrl" : "http:\/\/auto.sina.com.cn\/recalls\/index.shtml",
"author" : "WWW.SINA.COM.CN",
"tags" : [],
"desc" : "",
"emailed" : False,
"forwarded" : False,
"english" : False
} ]
}
