{
"mode" : {"viewTitle" : 1,   "viewNew" : 0,  "pageIndex" : 2 },
 "channel" : {"id" : "-3596153908840251782", "booked" : False, "subNumber" : 1, "name" : "汽车召回-新浪汽车", "url" : "http:\/\/auto.sina.com.cn\/recalls\/index.shtml", "feed" : "http:\/\/rss.sina.com.cn\/auto\/recalls\/index.xml", "author" : "WWW.SINA.COM.CN", "desc" : "汽车召回-要闻列表", "imageUrl" : "http:\/\/www.sinaimg.cn\/dy\/auto\/index\/topbar_03.gif", "postPerWeek" : "0", "lastCrawTime" : "17:01:58", "crawDateTime" : "15:16:36", "lastHttpCode" : "200"}, "page" : {
"startIndex" : 20,
"totalCount" : 364,
"pageIndex" : 2,
"lastPage" : 19,
"pageSize" : 20,
"english" :  False },
 "unreadNum" : 0, "shotIndex" : -1,
"articles" : [
{
"index" : 0,
"articleIndex" : "343",
"favor" :  False ,
     "read" : False,    
"title" : "丰田全球召回36.9万辆 在华涉及雷克萨斯",
"titleTip" : "丰田全球召回36.9万辆 在华涉及雷克萨斯",
"titleSummary" : "丰田全球召回36.9万辆 在华涉及雷克萨斯",
"descSummary" : "",
"url" : "http:\/\/go.rss.sina.com.cn\/redirect.php?url=http:\/\/auto.sina.com.cn\/service\/2013-09-05\/08491218540.shtml",
"pubDate" : "2013年9月5日",
"enterDate" : "384200:51:23",
"channelId" : "-3596153908840251782",
"channelName" : "汽车召回-新浪汽车",
"channelNameSummary" : "汽车召回-新浪汽车",
"channelUrl" : "http:\/\/auto.sina.com.cn\/recalls\/index.shtml",
"author" : "WWW.SINA.COM.CN",
"tags" : [],
"desc" : "",
"emailed" : False,
"forwarded" : False,
"english" : False
}  , {
"index" : 1,
"articleIndex" : "342",
"favor" :  False ,
     "read" : False,    
"title" : "丰田在华2021辆雷克萨斯RX400h",
"titleTip" : "丰田在华2021辆雷克萨斯RX400h",
"titleSummary" : "丰田在华2021辆雷克萨斯RX400h",
"descSummary" : "",
"url" : "http:\/\/go.rss.sina.com.cn\/redirect.php?url=http:\/\/auto.sina.com.cn\/service\/2013-09-05\/07501218440.shtml",
"pubDate" : "2013年9月5日",
"enterDate" : "384200:52:05",
"channelId" : "-3596153908840251782",
"channelName" : "汽车召回-新浪汽车",
"channelNameSummary" : "汽车召回-新浪汽车",
"channelUrl" : "http:\/\/auto.sina.com.cn\/recalls\/index.shtml",
"author" : "WWW.SINA.COM.CN",
"tags" : [],
"desc" : "",
"emailed" : False,
"forwarded" : False,
"english" : False
}  , {
"index" : 2,
"articleIndex" : "341",
"favor" :  False ,
     "read" : False,    
"title" : "丰田中国召回2021辆进口雷克萨斯RX400h",
"titleTip" : "丰田中国召回2021辆进口雷克萨斯RX400h",
"titleSummary" : "丰田中国召回2021辆进口雷克萨斯RX400h",
"descSummary" : "",
"url" : "http:\/\/go.rss.sina.com.cn\/redirect.php?url=http:\/\/auto.sina.com.cn\/service\/2013-09-04\/15101218156.shtml",
"pubDate" : "2013年9月4日",
"enterDate" : "384199:07:02",
"channelId" : "-3596153908840251782",
"channelName" : "汽车召回-新浪汽车",
"channelNameSummary" : "汽车召回-新浪汽车",
"channelUrl" : "http:\/\/auto.sina.com.cn\/recalls\/index.shtml",
"author" : "WWW.SINA.COM.CN",
"tags" : [],
"desc" : "",
"emailed" : False,
"forwarded" : False,
"english" : False
}  , {
"index" : 3,
"articleIndex" : "340",
"favor" :  False ,
     "read" : False,    
"title" : "广汽菲亚特召回部分2010年款进口博悦",
"titleTip" : "广汽菲亚特召回部分2010年款进口博悦",
"titleSummary" : "广汽菲亚特召回部分2010年款进口博悦",
"descSummary" : "",
"url" : "http:\/\/go.rss.sina.com.cn\/redirect.php?url=http:\/\/auto.sina.com.cn\/service\/2013-09-03\/10401217261.shtml",
"pubDate" : "2013年9月3日",
"enterDate" : "384199:42:57",
"channelId" : "-3596153908840251782",
"channelName" : "汽车召回-新浪汽车",
"channelNameSummary" : "汽车召回-新浪汽车",
"channelUrl" : "http:\/\/auto.sina.com.cn\/recalls\/index.shtml",
"author" : "WWW.SINA.COM.CN",
"tags" : [],
"desc" : "",
"emailed" : False,
"forwarded" : False,
"english" : False
}  , {
"index" : 4,
"articleIndex" : "338",
"favor" :  False ,
     "read" : False,    
"title" : "刹车系统存缺陷 奇瑞召回近两万辆A3轿车",
"titleTip" : "刹车系统存缺陷 奇瑞召回近两万辆A3轿车",
"titleSummary" : "刹车系统存缺陷 奇瑞召回近两万辆A3轿车",
"descSummary" : "",
"url" : "http:\/\/go.rss.sina.com.cn\/redirect.php?url=http:\/\/auto.sina.com.cn\/service\/2013-09-03\/08341217029.shtml",
"pubDate" : "2013年9月3日",
"enterDate" : "384200:37:24",
"channelId" : "-3596153908840251782",
"channelName" : "汽车召回-新浪汽车",
"channelNameSummary" : "汽车召回-新浪汽车",
"channelUrl" : "http:\/\/auto.sina.com.cn\/recalls\/index.shtml",
"author" : "WWW.SINA.COM.CN",
"tags" : [],
"desc" : "",
"emailed" : False,
"forwarded" : False,
"english" : False
}  , {
"index" : 5,
"articleIndex" : "339",
"favor" :  False ,
     "read" : False,    
"title" : "刹车系统存缺陷 近2万辆奇瑞A3召回",
"titleTip" : "刹车系统存缺陷 近2万辆奇瑞A3召回",
"titleSummary" : "刹车系统存缺陷 近2万辆奇瑞A3召回",
"descSummary" : "",
"url" : "http:\/\/go.rss.sina.com.cn\/redirect.php?url=http:\/\/auto.sina.com.cn\/service\/2013-09-02\/16001216703.shtml",
"pubDate" : "2013年9月2日",
"enterDate" : "384183:03:17",
"channelId" : "-3596153908840251782",
"channelName" : "汽车召回-新浪汽车",
"channelNameSummary" : "汽车召回-新浪汽车",
"channelUrl" : "http:\/\/auto.sina.com.cn\/recalls\/index.shtml",
"author" : "WWW.SINA.COM.CN",
"tags" : [],
"desc" : "",
"emailed" : False,
"forwarded" : False,
"english" : False
}  , {
"index" : 6,
"articleIndex" : "337",
"favor" :  False ,
     "read" : False,    
"title" : "铃木召回部分进口吉姆尼Jimny1.3L车型",
"titleTip" : "铃木召回部分进口吉姆尼Jimny1.3L车型",
"titleSummary" : "铃木召回部分进口吉姆尼Jimny1.3L车型",
"descSummary" : "",
"url" : "http:\/\/go.rss.sina.com.cn\/redirect.php?url=http:\/\/auto.sina.com.cn\/service\/2013-08-29\/09301214865.shtml",
"pubDate" : "2013年8月29日",
"enterDate" : "384200:08:29",
"channelId" : "-3596153908840251782",
"channelName" : "汽车召回-新浪汽车",
"channelNameSummary" : "汽车召回-新浪汽车",
"channelUrl" : "http:\/\/auto.sina.com.cn\/recalls\/index.shtml",
"author" : "WWW.SINA.COM.CN",
"tags" : [],
"desc" : "",
"emailed" : False,
"forwarded" : False,
"english" : False
}  , {
"index" : 7,
"articleIndex" : "336",
"favor" :  False ,
     "read" : False,    
"title" : "东风本田因减震器缺陷召回40万辆CR-V",
"titleTip" : "东风本田因减震器缺陷召回40万辆CR-V",
"titleSummary" : "东风本田因减震器缺陷召回40万辆CR-V",
"descSummary" : "",
"url" : "http:\/\/go.rss.sina.com.cn\/redirect.php?url=http:\/\/auto.sina.com.cn\/service\/2013-08-27\/17421213811.shtml",
"pubDate" : "2013年8月27日",
"enterDate" : "384198:20:42",
"channelId" : "-3596153908840251782",
"channelName" : "汽车召回-新浪汽车",
"channelNameSummary" : "汽车召回-新浪汽车",
"channelUrl" : "http:\/\/auto.sina.com.cn\/recalls\/index.shtml",
"author" : "WWW.SINA.COM.CN",
"tags" : [],
"desc" : "",
"emailed" : False,
"forwarded" : False,
"english" : False
}  , {
"index" : 8,
"articleIndex" : "335",
"favor" :  False ,
     "read" : False,    
"title" : "因刹车辅助系统故障 通用全球召回34万辆科鲁兹",
"titleTip" : "因刹车辅助系统故障 通用全球召回34万辆科鲁兹",
"titleSummary" : "因刹车辅助系统故障 通用全球召回34万辆科鲁兹",
"descSummary" : "",
"url" : "http:\/\/go.rss.sina.com.cn\/redirect.php?url=http:\/\/auto.sina.com.cn\/service\/2013-08-19\/07571209036.shtml",
"pubDate" : "2013年8月19日",
"enterDate" : "384200:55:14",
"channelId" : "-3596153908840251782",
"channelName" : "汽车召回-新浪汽车",
"channelNameSummary" : "汽车召回-新浪汽车",
"channelUrl" : "http:\/\/auto.sina.com.cn\/recalls\/index.shtml",
"author" : "WWW.SINA.COM.CN",
"tags" : [],
"desc" : "",
"emailed" : False,
"forwarded" : False,
"english" : False
}  , {
"index" : 9,
"articleIndex" : "333",
"favor" :  False ,
     "read" : False,    
"title" : "北京现代召回部分2013款全新胜达汽车",
"titleTip" : "北京现代召回部分2013款全新胜达汽车",
"titleSummary" : "北京现代召回部分2013款全新胜达汽车",
"descSummary" : "",
"url" : "http:\/\/go.rss.sina.com.cn\/redirect.php?url=http:\/\/auto.sina.com.cn\/service\/2013-08-16\/17201208596.shtml",
"pubDate" : "2013年8月16日",
"enterDate" : "384184:09:45",
"channelId" : "-3596153908840251782",
"channelName" : "汽车召回-新浪汽车",
"channelNameSummary" : "汽车召回-新浪汽车",
"channelUrl" : "http:\/\/auto.sina.com.cn\/recalls\/index.shtml",
"author" : "WWW.SINA.COM.CN",
"tags" : [],
"desc" : "",
"emailed" : False,
"forwarded" : False,
"english" : False
}  , {
"index" : 10,
"articleIndex" : "334",
"favor" :  False ,
     "read" : False,    
"title" : "长安铃木召回部分雨燕羚羊天语汽车",
"titleTip" : "长安铃木召回部分雨燕羚羊天语汽车",
"titleSummary" : "长安铃木召回部分雨燕羚羊天语汽车",
"descSummary" : "",
"url" : "http:\/\/go.rss.sina.com.cn\/redirect.php?url=http:\/\/auto.sina.com.cn\/service\/2013-08-16\/17201208597.shtml",
"pubDate" : "2013年8月16日",
"enterDate" : "384184:09:45",
"channelId" : "-3596153908840251782",
"channelName" : "汽车召回-新浪汽车",
"channelNameSummary" : "汽车召回-新浪汽车",
"channelUrl" : "http:\/\/auto.sina.com.cn\/recalls\/index.shtml",
"author" : "WWW.SINA.COM.CN",
"tags" : [],
"desc" : "",
"emailed" : False,
"forwarded" : False,
"english" : False
}  , {
"index" : 11,
"articleIndex" : "332",
"favor" :  False ,
     "read" : False,    
"title" : "召回部分进口爱尔凯普顿林肯MKT汽车",
"titleTip" : "召回部分进口爱尔凯普顿林肯MKT汽车",
"titleSummary" : "召回部分进口爱尔凯普顿林肯MKT汽车",
"descSummary" : "",
"url" : "http:\/\/go.rss.sina.com.cn\/redirect.php?url=http:\/\/auto.sina.com.cn\/service\/2013-08-16\/17001208591.shtml",
"pubDate" : "2013年8月16日",
"enterDate" : "384197:52:51",
"channelId" : "-3596153908840251782",
"channelName" : "汽车召回-新浪汽车",
"channelNameSummary" : "汽车召回-新浪汽车",
"channelUrl" : "http:\/\/auto.sina.com.cn\/recalls\/index.shtml",
"author" : "WWW.SINA.COM.CN",
"tags" : [],
"desc" : "",
"emailed" : False,
"forwarded" : False,
"english" : False
}  , {
"index" : 12,
"articleIndex" : "331",
"favor" :  False ,
     "read" : False,    
"title" : "丰田召回37万辆皮卡 不涉及中国市场",
"titleTip" : "丰田召回37万辆皮卡 不涉及中国市场",
"titleSummary" : "丰田召回37万辆皮卡 不涉及中国市场",
"descSummary" : "",
"url" : "http:\/\/go.rss.sina.com.cn\/redirect.php?url=http:\/\/auto.sina.com.cn\/service\/2013-08-15\/07071207237.shtml",
"pubDate" : "2013年8月15日",
"enterDate" : "384200:46:41",
"channelId" : "-3596153908840251782",
"channelName" : "汽车召回-新浪汽车",
"channelNameSummary" : "汽车召回-新浪汽车",
"channelUrl" : "http:\/\/auto.sina.com.cn\/recalls\/index.shtml",
"author" : "WWW.SINA.COM.CN",
"tags" : [],
"desc" : "",
"emailed" : False,
"forwarded" : False,
"english" : False
}  , {
"index" : 13,
"articleIndex" : "330",
"favor" :  False ,
     "read" : False,    
"title" : "捷豹路虎召回捷豹XF、XJ极光等1万余辆汽车",
"titleTip" : "捷豹路虎召回捷豹XF、XJ极光等1万余辆汽车",
"titleSummary" : "捷豹路虎召回捷豹XF、XJ极光等1万余辆汽车",
"descSummary" : "",
"url" : "http:\/\/go.rss.sina.com.cn\/redirect.php?url=http:\/\/auto.sina.com.cn\/service\/2013-08-12\/18501205653.shtml",
"pubDate" : "2013年8月12日",
"enterDate" : "384186:46:00",
"channelId" : "-3596153908840251782",
"channelName" : "汽车召回-新浪汽车",
"channelNameSummary" : "汽车召回-新浪汽车",
"channelUrl" : "http:\/\/auto.sina.com.cn\/recalls\/index.shtml",
"author" : "WWW.SINA.COM.CN",
"tags" : [],
"desc" : "",
"emailed" : False,
"forwarded" : False,
"english" : False
}  , {
"index" : 14,
"articleIndex" : "329",
"favor" :  False ,
     "read" : False,    
"title" : "丰田全球召回37万辆皮卡 不涉中国",
"titleTip" : "丰田全球召回37万辆皮卡 不涉中国",
"titleSummary" : "丰田全球召回37万辆皮卡 不涉中国",
"descSummary" : "",
"url" : "http:\/\/go.rss.sina.com.cn\/redirect.php?url=http:\/\/auto.sina.com.cn\/service\/2013-08-09\/09231204429.shtml",
"pubDate" : "2013年8月9日",
"enterDate" : "384200:11:22",
"channelId" : "-3596153908840251782",
"channelName" : "汽车召回-新浪汽车",
"channelNameSummary" : "汽车召回-新浪汽车",
"channelUrl" : "http:\/\/auto.sina.com.cn\/recalls\/index.shtml",
"author" : "WWW.SINA.COM.CN",
"tags" : [],
"desc" : "",
"emailed" : False,
"forwarded" : False,
"english" : False
}  , {
"index" : 15,
"articleIndex" : "328",
"favor" :  False ,
     "read" : False,    
"title" : "华晨宝马召回部分5系长轴距版汽车",
"titleTip" : "华晨宝马召回部分5系长轴距版汽车",
"titleSummary" : "华晨宝马召回部分5系长轴距版汽车",
"descSummary" : "",
"url" : "http:\/\/go.rss.sina.com.cn\/redirect.php?url=http:\/\/auto.sina.com.cn\/service\/2013-08-05\/17301201742.shtml",
"pubDate" : "2013年8月5日",
"enterDate" : "384195:28:06",
"channelId" : "-3596153908840251782",
"channelName" : "汽车召回-新浪汽车",
"channelNameSummary" : "汽车召回-新浪汽车",
"channelUrl" : "http:\/\/auto.sina.com.cn\/recalls\/index.shtml",
"author" : "WWW.SINA.COM.CN",
"tags" : [],
"desc" : "",
"emailed" : False,
"forwarded" : False,
"english" : False
}  , {
"index" : 16,
"articleIndex" : "327",
"favor" :  False ,
     "read" : False,    
"title" : "克莱斯勒召回2639辆克莱斯勒大捷龙汽车",
"titleTip" : "克莱斯勒召回2639辆克莱斯勒大捷龙汽车",
"titleSummary" : "克莱斯勒召回2639辆克莱斯勒大捷龙汽车",
"descSummary" : "",
"url" : "http:\/\/go.rss.sina.com.cn\/redirect.php?url=http:\/\/auto.sina.com.cn\/service\/2013-07-25\/09301195852.shtml",
"pubDate" : "2013年7月25日",
"enterDate" : "384110:44:21",
"channelId" : "-3596153908840251782",
"channelName" : "汽车召回-新浪汽车",
"channelNameSummary" : "汽车召回-新浪汽车",
"channelUrl" : "http:\/\/auto.sina.com.cn\/recalls\/index.shtml",
"author" : "WWW.SINA.COM.CN",
"tags" : [],
"desc" : "",
"emailed" : False,
"forwarded" : False,
"english" : False
}  , {
"index" : 17,
"articleIndex" : "326",
"favor" :  False ,
     "read" : False,    
"title" : "汽车三包标准颁布并于10月1日开始实施",
"titleTip" : "汽车三包标准颁布并于10月1日开始实施",
"titleSummary" : "汽车三包标准颁布并于10月1日开始实施",
"descSummary" : "",
"url" : "http:\/\/go.rss.sina.com.cn\/redirect.php?url=http:\/\/auto.sina.com.cn\/service\/2013-07-22\/08501193130.shtml",
"pubDate" : "2013年7月22日",
"enterDate" : "384199:35:12",
"channelId" : "-3596153908840251782",
"channelName" : "汽车召回-新浪汽车",
"channelNameSummary" : "汽车召回-新浪汽车",
"channelUrl" : "http:\/\/auto.sina.com.cn\/recalls\/index.shtml",
"author" : "WWW.SINA.COM.CN",
"tags" : [],
"desc" : "",
"emailed" : False,
"forwarded" : False,
"english" : False
}  , {
"index" : 18,
"articleIndex" : "325",
"favor" :  False ,
     "read" : False,    
"title" : "克莱斯勒在华召回指南者等6万余辆汽车",
"titleTip" : "克莱斯勒在华召回指南者等6万余辆汽车",
"titleSummary" : "克莱斯勒在华召回指南者等6万余辆汽车",
"descSummary" : "",
"url" : "http:\/\/go.rss.sina.com.cn\/redirect.php?url=http:\/\/auto.sina.com.cn\/service\/2013-07-19\/10301192397.shtml",
"pubDate" : "2013年7月19日",
"enterDate" : "384199:37:10",
"channelId" : "-3596153908840251782",
"channelName" : "汽车召回-新浪汽车",
"channelNameSummary" : "汽车召回-新浪汽车",
"channelUrl" : "http:\/\/auto.sina.com.cn\/recalls\/index.shtml",
"author" : "WWW.SINA.COM.CN",
"tags" : [],
"desc" : "",
"emailed" : False,
"forwarded" : False,
"english" : False
}  , {
"index" : 19,
"articleIndex" : "324",
"favor" :  False ,
     "read" : False,    
"title" : "克莱斯勒因软件故障在美召回4.6万辆Ram皮卡",
"titleTip" : "克莱斯勒因软件故障在美召回4.6万辆Ram皮卡",
"titleSummary" : "克莱斯勒因软件故障在美召回4.6万辆Ram皮卡",
"descSummary" : "",
"url" : "http:\/\/go.rss.sina.com.cn\/redirect.php?url=http:\/\/auto.sina.com.cn\/service\/2013-07-18\/08091191318.shtml",
"pubDate" : "2013年7月18日",
"enterDate" : "384201:09:57",
"channelId" : "-3596153908840251782",
"channelName" : "汽车召回-新浪汽车",
"channelNameSummary" : "汽车召回-新浪汽车",
"channelUrl" : "http:\/\/auto.sina.com.cn\/recalls\/index.shtml",
"author" : "WWW.SINA.COM.CN",
"tags" : [],
"desc" : "",
"emailed" : False,
"forwarded" : False,
"english" : False
} ]
}
