{
"mode" : {"viewTitle" : 1,   "viewNew" : 0,  "pageIndex" : 1 },
 "channel" : {"id" : "6501738331065329671", "booked" : False, "subNumber" : 1851, "name" : "明星全接触-新浪娱乐", "url" : "http:\/\/ent.sina.com.cn\/temp2\/star\/index.shtml", "feed" : "http:\/\/rss.sina.com.cn\/ent\/star\/focus7.xml", "author" : "WWW.SINA.COM.CN", "desc" : "明星全接触-焦点新闻", "imageUrl" : "http:\/\/www.sinaimg.cn\/home\/deco\/2009\/0330\/logo_home_ent.gif", "postPerWeek" : "0", "lastCrawTime" : "16:48:50", "crawDateTime" : "16:48:50", "lastHttpCode" : "200"}, "page" : {
"startIndex" : 0,
"totalCount" : 5000,
"pageIndex" : 1,
"lastPage" : 250,
"pageSize" : 20,
"english" :  False },
 "unreadNum" : 0, "shotIndex" : -1,
"articles" : [
{
"index" : 0,
"articleIndex" : "104311",
"favor" :  False ,
     "read" : False,    
"title" : "放大镜：好莱坞万圣节\u201C捣蛋\u201D指南(图)",
"titleTip" : "放大镜：好莱坞万圣节\u201C捣蛋\u201D指南(图)",
"titleSummary" : "放大镜：好莱坞万圣节\u201C捣蛋\u201D指南(图)",
"descSummary" : "",
"url" : "http:\/\/go.rss.sina.com.cn\/redirect.php?url=http:\/\/slide.ent.sina.com.cn\/star\/slide_4_704_68385.html",
"pubDate" : "15:11:57",
"enterDate" : "384201:12:32",
"channelId" : "6501738331065329671",
"channelName" : "明星全接触-新浪娱乐",
"channelNameSummary" : "明星全接触-新浪娱乐",
"channelUrl" : "http:\/\/ent.sina.com.cn\/temp2\/star\/index.shtml",
"author" : "WWW.SINA.COM.CN",
"tags" : [],
"desc" : "",
"emailed" : False,
"forwarded" : False,
"english" : False
}  , {
"index" : 1,
"articleIndex" : "104310",
"favor" :  False ,
     "read" : False,    
"title" : "《乔布斯》扮演者库彻受任联想产品工程师",
"titleTip" : "《乔布斯》扮演者库彻受任联想产品工程师",
"titleSummary" : "《乔布斯》扮演者库彻受任联想产品工程师",
"descSummary" : "",
"url" : "http:\/\/go.rss.sina.com.cn\/redirect.php?url=http:\/\/ent.sina.com.cn\/s\/u\/2013-10-30\/14494033557.shtml",
"pubDate" : "14:49:54",
"enterDate" : "384200:50:29",
"channelId" : "6501738331065329671",
"channelName" : "明星全接触-新浪娱乐",
"channelNameSummary" : "明星全接触-新浪娱乐",
"channelUrl" : "http:\/\/ent.sina.com.cn\/temp2\/star\/index.shtml",
"author" : "WWW.SINA.COM.CN",
"tags" : [],
"desc" : "",
"emailed" : False,
"forwarded" : False,
"english" : False
}  , {
"index" : 2,
"articleIndex" : "104309",
"favor" :  False ,
     "read" : False,    
"title" : "丁子峻结婚纪念日与妻子互诉真情秀恩爱",
"titleTip" : "丁子峻结婚纪念日与妻子互诉真情秀恩爱",
"titleSummary" : "丁子峻结婚纪念日与妻子互诉真情秀恩爱",
"descSummary" : "",
"url" : "http:\/\/go.rss.sina.com.cn\/redirect.php?url=http:\/\/ent.sina.com.cn\/s\/h\/w\/2013-10-30\/14254033526.shtml",
"pubDate" : "14:25:36",
"enterDate" : "384200:56:16",
"channelId" : "6501738331065329671",
"channelName" : "明星全接触-新浪娱乐",
"channelNameSummary" : "明星全接触-新浪娱乐",
"channelUrl" : "http:\/\/ent.sina.com.cn\/temp2\/star\/index.shtml",
"author" : "WWW.SINA.COM.CN",
"tags" : [],
"desc" : "",
"emailed" : False,
"forwarded" : False,
"english" : False
}  , {
"index" : 3,
"articleIndex" : "104308",
"favor" :  False ,
     "read" : False,    
"title" : "视频：张震18日婚宴请梁朝伟李安 明星云集",
"titleTip" : "视频：张震18日婚宴请梁朝伟李安 明星云集",
"titleSummary" : "视频：张震18日婚宴请梁朝伟李安 明星云集",
"descSummary" : "",
"url" : "http:\/\/go.rss.sina.com.cn\/redirect.php?url=http:\/\/video.sina.com.cn\/p\/ent\/s\/h\/2013-10-30\/133763083717.html",
"pubDate" : "13:37:31",
"enterDate" : "384200:08:11",
"channelId" : "6501738331065329671",
"channelName" : "明星全接触-新浪娱乐",
"channelNameSummary" : "明星全接触-新浪娱乐",
"channelUrl" : "http:\/\/ent.sina.com.cn\/temp2\/star\/index.shtml",
"author" : "WWW.SINA.COM.CN",
"tags" : [],
"desc" : "",
"emailed" : False,
"forwarded" : False,
"english" : False
}  , {
"index" : 4,
"articleIndex" : "104307",
"favor" :  False ,
     "read" : False,    
"title" : "台31岁女作家林亚若车祸身亡 曾任7年空姐",
"titleTip" : "台31岁女作家林亚若车祸身亡 曾任7年空姐",
"titleSummary" : "台31岁女作家林亚若车祸身亡 曾任7年空姐",
"descSummary" : "",
"url" : "http:\/\/go.rss.sina.com.cn\/redirect.php?url=http:\/\/ent.sina.com.cn\/s\/h\/2013-10-30\/11544033462.shtml",
"pubDate" : "11:54:14",
"enterDate" : "384198:24:54",
"channelId" : "6501738331065329671",
"channelName" : "明星全接触-新浪娱乐",
"channelNameSummary" : "明星全接触-新浪娱乐",
"channelUrl" : "http:\/\/ent.sina.com.cn\/temp2\/star\/index.shtml",
"author" : "WWW.SINA.COM.CN",
"tags" : [],
"desc" : "",
"emailed" : False,
"forwarded" : False,
"english" : False
}  , {
"index" : 5,
"articleIndex" : "104306",
"favor" :  False ,
     "read" : False,    
"title" : "今日话题：雨神萧敬腾遭泼粪惨变粪神",
"titleTip" : "今日话题：雨神萧敬腾遭泼粪惨变粪神",
"titleSummary" : "今日话题：雨神萧敬腾遭泼粪惨变粪神",
"descSummary" : "",
"url" : "http:\/\/go.rss.sina.com.cn\/redirect.php?url=http:\/\/ent.sina.com.cn\/s\/h\/2013-10-30\/11414033441.shtml",
"pubDate" : "11:41:27",
"enterDate" : "384198:12:07",
"channelId" : "6501738331065329671",
"channelName" : "明星全接触-新浪娱乐",
"channelNameSummary" : "明星全接触-新浪娱乐",
"channelUrl" : "http:\/\/ent.sina.com.cn\/temp2\/star\/index.shtml",
"author" : "WWW.SINA.COM.CN",
"tags" : [],
"desc" : "",
"emailed" : False,
"forwarded" : False,
"english" : False
}  , {
"index" : 6,
"articleIndex" : "104305",
"favor" :  False ,
     "read" : False,    
"title" : "海清登封面化身红发女郎 魅力独特(图)",
"titleTip" : "海清登封面化身红发女郎 魅力独特(图)",
"titleSummary" : "海清登封面化身红发女郎 魅力独特(图)",
"descSummary" : "",
"url" : "http:\/\/go.rss.sina.com.cn\/redirect.php?url=http:\/\/slide.ent.sina.com.cn\/star\/slide_4_704_68397.html",
"pubDate" : "11:27:48",
"enterDate" : "384197:58:28",
"channelId" : "6501738331065329671",
"channelName" : "明星全接触-新浪娱乐",
"channelNameSummary" : "明星全接触-新浪娱乐",
"channelUrl" : "http:\/\/ent.sina.com.cn\/temp2\/star\/index.shtml",
"author" : "WWW.SINA.COM.CN",
"tags" : [],
"desc" : "",
"emailed" : False,
"forwarded" : False,
"english" : False
}  , {
"index" : 7,
"articleIndex" : "104303",
"favor" :  False ,
     "read" : False,    
"title" : "组图：全智贤亮相活动紧身裤秀修长腿型",
"titleTip" : "组图：全智贤亮相活动紧身裤秀修长腿型",
"titleSummary" : "组图：全智贤亮相活动紧身裤秀修长腿型",
"descSummary" : "",
"url" : "http:\/\/go.rss.sina.com.cn\/redirect.php?url=http:\/\/slide.ent.sina.com.cn\/star\/k\/slide_4_704_68396.html",
"pubDate" : "11:16:05",
"enterDate" : "384201:02:17",
"channelId" : "6501738331065329671",
"channelName" : "明星全接触-新浪娱乐",
"channelNameSummary" : "明星全接触-新浪娱乐",
"channelUrl" : "http:\/\/ent.sina.com.cn\/temp2\/star\/index.shtml",
"author" : "WWW.SINA.COM.CN",
"tags" : [],
"desc" : "",
"emailed" : False,
"forwarded" : False,
"english" : False
}  , {
"index" : 8,
"articleIndex" : "104304",
"favor" :  False ,
     "read" : False,    
"title" : "戚薇李承铉不认恋情 微博频繁互示爱意",
"titleTip" : "戚薇李承铉不认恋情 微博频繁互示爱意",
"titleSummary" : "戚薇李承铉不认恋情 微博频繁互示爱意",
"descSummary" : "",
"url" : "http:\/\/go.rss.sina.com.cn\/redirect.php?url=http:\/\/ent.sina.com.cn\/s\/m\/w\/2013-10-30\/11164033390.shtml",
"pubDate" : "11:16:04",
"enterDate" : "384198:46:54",
"channelId" : "6501738331065329671",
"channelName" : "明星全接触-新浪娱乐",
"channelNameSummary" : "明星全接触-新浪娱乐",
"channelUrl" : "http:\/\/ent.sina.com.cn\/temp2\/star\/index.shtml",
"author" : "WWW.SINA.COM.CN",
"tags" : [],
"desc" : "",
"emailed" : False,
"forwarded" : False,
"english" : False
}  , {
"index" : 9,
"articleIndex" : "104302",
"favor" :  False ,
     "read" : False,    
"title" : "组图：袁姗姗受邀联合国之肯尼亚公益行",
"titleTip" : "组图：袁姗姗受邀联合国之肯尼亚公益行",
"titleSummary" : "组图：袁姗姗受邀联合国之肯尼亚公益行",
"descSummary" : "",
"url" : "http:\/\/go.rss.sina.com.cn\/redirect.php?url=http:\/\/slide.ent.sina.com.cn\/star\/slide_4_704_68393.html",
"pubDate" : "10:56:15",
"enterDate" : "384200:42:27",
"channelId" : "6501738331065329671",
"channelName" : "明星全接触-新浪娱乐",
"channelNameSummary" : "明星全接触-新浪娱乐",
"channelUrl" : "http:\/\/ent.sina.com.cn\/temp2\/star\/index.shtml",
"author" : "WWW.SINA.COM.CN",
"tags" : [],
"desc" : "",
"emailed" : False,
"forwarded" : False,
"english" : False
}  , {
"index" : 10,
"articleIndex" : "104301",
"favor" :  False ,
     "read" : False,    
"title" : "Gaga《Glamour》头顶易拉罐创意时尚(图)",
"titleTip" : "Gaga《Glamour》头顶易拉罐创意时尚(图)",
"titleSummary" : "Gaga《Glamour》头顶易拉罐创意时尚(图)",
"descSummary" : "",
"url" : "http:\/\/go.rss.sina.com.cn\/redirect.php?url=http:\/\/slide.ent.sina.com.cn\/star\/slide_4_704_68390.html",
"pubDate" : "10:46:51",
"enterDate" : "384196:47:26",
"channelId" : "6501738331065329671",
"channelName" : "明星全接触-新浪娱乐",
"channelNameSummary" : "明星全接触-新浪娱乐",
"channelUrl" : "http:\/\/ent.sina.com.cn\/temp2\/star\/index.shtml",
"author" : "WWW.SINA.COM.CN",
"tags" : [],
"desc" : "",
"emailed" : False,
"forwarded" : False,
"english" : False
}  , {
"index" : 11,
"articleIndex" : "104294",
"favor" :  False ,
     "read" : False,    
"title" : "视频：李某案二审将开庭 预测改判五年以下",
"titleTip" : "视频：李某案二审将开庭 预测改判五年以下",
"titleSummary" : "视频：李某案二审将开庭 预测改判五年以下",
"descSummary" : "",
"url" : "http:\/\/go.rss.sina.com.cn\/redirect.php?url=http:\/\/video.sina.com.cn\/p\/ent\/s\/m\/2013-10-30\/103763082747.html",
"pubDate" : "10:37:29",
"enterDate" : "384200:53:48",
"channelId" : "6501738331065329671",
"channelName" : "明星全接触-新浪娱乐",
"channelNameSummary" : "明星全接触-新浪娱乐",
"channelUrl" : "http:\/\/ent.sina.com.cn\/temp2\/star\/index.shtml",
"author" : "WWW.SINA.COM.CN",
"tags" : [],
"desc" : "",
"emailed" : False,
"forwarded" : False,
"english" : False
}  , {
"index" : 12,
"articleIndex" : "104295",
"favor" :  False ,
     "read" : False,    
"title" : "视频：萧敬腾险遭泼粪 经纪人与富婆粉互骂",
"titleTip" : "视频：萧敬腾险遭泼粪 经纪人与富婆粉互骂",
"titleSummary" : "视频：萧敬腾险遭泼粪 经纪人与富婆粉互骂",
"descSummary" : "",
"url" : "http:\/\/go.rss.sina.com.cn\/redirect.php?url=http:\/\/video.sina.com.cn\/p\/ent\/s\/h\/2013-10-30\/103763082745.html",
"pubDate" : "10:37:29",
"enterDate" : "384200:53:48",
"channelId" : "6501738331065329671",
"channelName" : "明星全接触-新浪娱乐",
"channelNameSummary" : "明星全接触-新浪娱乐",
"channelUrl" : "http:\/\/ent.sina.com.cn\/temp2\/star\/index.shtml",
"author" : "WWW.SINA.COM.CN",
"tags" : [],
"desc" : "",
"emailed" : False,
"forwarded" : False,
"english" : False
}  , {
"index" : 13,
"articleIndex" : "104300",
"favor" :  False ,
     "read" : False,    
"title" : "李湘晒与女儿自拍 瞪眼嘟嘴古灵精怪(图)",
"titleTip" : "李湘晒与女儿自拍 瞪眼嘟嘴古灵精怪(图)",
"titleSummary" : "李湘晒与女儿自拍 瞪眼嘟嘴古灵精怪(图)",
"descSummary" : "",
"url" : "http:\/\/go.rss.sina.com.cn\/redirect.php?url=http:\/\/ent.sina.com.cn\/s\/m\/w\/2013-10-30\/10314033274.shtml",
"pubDate" : "10:31:23",
"enterDate" : "384200:17:35",
"channelId" : "6501738331065329671",
"channelName" : "明星全接触-新浪娱乐",
"channelNameSummary" : "明星全接触-新浪娱乐",
"channelUrl" : "http:\/\/ent.sina.com.cn\/temp2\/star\/index.shtml",
"author" : "WWW.SINA.COM.CN",
"tags" : [],
"desc" : "",
"emailed" : False,
"forwarded" : False,
"english" : False
}  , {
"index" : 14,
"articleIndex" : "104293",
"favor" :  False ,
     "read" : False,    
"title" : "视频：萧敬腾出面回应泼粪事件 没跟人结怨",
"titleTip" : "视频：萧敬腾出面回应泼粪事件 没跟人结怨",
"titleSummary" : "视频：萧敬腾出面回应泼粪事件 没跟人结怨",
"descSummary" : "",
"url" : "http:\/\/go.rss.sina.com.cn\/redirect.php?url=http:\/\/video.sina.com.cn\/p\/ent\/s\/h\/2013-10-30\/102763082731.html",
"pubDate" : "10:27:29",
"enterDate" : "384200:43:48",
"channelId" : "6501738331065329671",
"channelName" : "明星全接触-新浪娱乐",
"channelNameSummary" : "明星全接触-新浪娱乐",
"channelUrl" : "http:\/\/ent.sina.com.cn\/temp2\/star\/index.shtml",
"author" : "WWW.SINA.COM.CN",
"tags" : [],
"desc" : "",
"emailed" : False,
"forwarded" : False,
"english" : False
}  , {
"index" : 15,
"articleIndex" : "104299",
"favor" :  False ,
     "read" : False,    
"title" : "李某案二审31日开庭 律师称最多减刑2年",
"titleTip" : "李某案二审31日开庭 律师称最多减刑2年",
"titleSummary" : "李某案二审31日开庭 律师称最多减刑2年",
"descSummary" : "",
"url" : "http:\/\/go.rss.sina.com.cn\/redirect.php?url=http:\/\/ent.sina.com.cn\/s\/m\/2013-10-30\/10234033259.shtml",
"pubDate" : "10:23:10",
"enterDate" : "384200:09:22",
"channelId" : "6501738331065329671",
"channelName" : "明星全接触-新浪娱乐",
"channelNameSummary" : "明星全接触-新浪娱乐",
"channelUrl" : "http:\/\/ent.sina.com.cn\/temp2\/star\/index.shtml",
"author" : "WWW.SINA.COM.CN",
"tags" : [],
"desc" : "",
"emailed" : False,
"forwarded" : False,
"english" : False
}  , {
"index" : 16,
"articleIndex" : "104296",
"favor" :  False ,
     "read" : False,    
"title" : "视频：李治廷疑承认恋情 斥与女助手假绯闻",
"titleTip" : "视频：李治廷疑承认恋情 斥与女助手假绯闻",
"titleSummary" : "视频：李治廷疑承认恋情 斥与女助手假绯闻",
"descSummary" : "",
"url" : "http:\/\/go.rss.sina.com.cn\/redirect.php?url=http:\/\/video.sina.com.cn\/p\/ent\/s\/m\/2013-10-30\/102263082851.html",
"pubDate" : "10:22:29",
"enterDate" : "384200:08:41",
"channelId" : "6501738331065329671",
"channelName" : "明星全接触-新浪娱乐",
"channelNameSummary" : "明星全接触-新浪娱乐",
"channelUrl" : "http:\/\/ent.sina.com.cn\/temp2\/star\/index.shtml",
"author" : "WWW.SINA.COM.CN",
"tags" : [],
"desc" : "",
"emailed" : False,
"forwarded" : False,
"english" : False
}  , {
"index" : 17,
"articleIndex" : "104297",
"favor" :  False ,
     "read" : False,    
"title" : "视频：杨采妮宣布婚讯 下嫁旧爱邱韶智",
"titleTip" : "视频：杨采妮宣布婚讯 下嫁旧爱邱韶智",
"titleSummary" : "视频：杨采妮宣布婚讯 下嫁旧爱邱韶智",
"descSummary" : "",
"url" : "http:\/\/go.rss.sina.com.cn\/redirect.php?url=http:\/\/video.sina.com.cn\/p\/ent\/s\/h\/2013-10-30\/102263082859.html",
"pubDate" : "10:22:29",
"enterDate" : "384200:08:41",
"channelId" : "6501738331065329671",
"channelName" : "明星全接触-新浪娱乐",
"channelNameSummary" : "明星全接触-新浪娱乐",
"channelUrl" : "http:\/\/ent.sina.com.cn\/temp2\/star\/index.shtml",
"author" : "WWW.SINA.COM.CN",
"tags" : [],
"desc" : "",
"emailed" : False,
"forwarded" : False,
"english" : False
}  , {
"index" : 18,
"articleIndex" : "104298",
"favor" :  False ,
     "read" : False,    
"title" : "视频：施南生曝林青霞不复出 早知采妮婚讯",
"titleTip" : "视频：施南生曝林青霞不复出 早知采妮婚讯",
"titleSummary" : "视频：施南生曝林青霞不复出 早知采妮婚讯",
"descSummary" : "",
"url" : "http:\/\/go.rss.sina.com.cn\/redirect.php?url=http:\/\/video.sina.com.cn\/p\/ent\/s\/h\/2013-10-30\/102263082827.html",
"pubDate" : "10:22:29",
"enterDate" : "384200:08:41",
"channelId" : "6501738331065329671",
"channelName" : "明星全接触-新浪娱乐",
"channelNameSummary" : "明星全接触-新浪娱乐",
"channelUrl" : "http:\/\/ent.sina.com.cn\/temp2\/star\/index.shtml",
"author" : "WWW.SINA.COM.CN",
"tags" : [],
"desc" : "",
"emailed" : False,
"forwarded" : False,
"english" : False
}  , {
"index" : 19,
"articleIndex" : "104292",
"favor" :  False ,
     "read" : False,    
"title" : "高清图：李钟硕冬装写真 展帅气型男本色",
"titleTip" : "高清图：李钟硕冬装写真 展帅气型男本色",
"titleSummary" : "高清图：李钟硕冬装写真 展帅气型男本色",
"descSummary" : "",
"url" : "http:\/\/go.rss.sina.com.cn\/redirect.php?url=http:\/\/slide.ent.sina.com.cn\/star\/k\/slide_4_704_68383.html",
"pubDate" : "09:56:49",
"enterDate" : "384200:43:10",
"channelId" : "6501738331065329671",
"channelName" : "明星全接触-新浪娱乐",
"channelNameSummary" : "明星全接触-新浪娱乐",
"channelUrl" : "http:\/\/ent.sina.com.cn\/temp2\/star\/index.shtml",
"author" : "WWW.SINA.COM.CN",
"tags" : [],
"desc" : "",
"emailed" : False,
"forwarded" : False,
"english" : False
} ]
}
