{
"mode" : {"viewTitle" : 1,   "viewNew" : 0,  "pageIndex" : 2 },
 "channel" : {"id" : "6501738331065329671", "booked" : False, "subNumber" : 1851, "name" : "明星全接触-新浪娱乐", "url" : "http:\/\/ent.sina.com.cn\/temp2\/star\/index.shtml", "feed" : "http:\/\/rss.sina.com.cn\/ent\/star\/focus7.xml", "author" : "WWW.SINA.COM.CN", "desc" : "明星全接触-焦点新闻", "imageUrl" : "http:\/\/www.sinaimg.cn\/home\/deco\/2009\/0330\/logo_home_ent.gif", "postPerWeek" : "0", "lastCrawTime" : "16:48:50", "crawDateTime" : "16:48:50", "lastHttpCode" : "200"}, "page" : {
"startIndex" : 20,
"totalCount" : 5000,
"pageIndex" : 2,
"lastPage" : 250,
"pageSize" : 20,
"english" :  False },
 "unreadNum" : 0, "shotIndex" : -1,
"articles" : [
{
"index" : 0,
"articleIndex" : "104291",
"favor" :  False ,
     "read" : False,    
"title" : "韩星郑糠云明年4月将迎娶大一岁圈外女友",
"titleTip" : "韩星郑糠云明年4月将迎娶大一岁圈外女友",
"titleSummary" : "韩星郑糠云明年4月将迎娶大一岁圈外女友",
"descSummary" : "",
"url" : "http:\/\/go.rss.sina.com.cn\/redirect.php?url=http:\/\/ent.sina.com.cn\/s\/j\/k\/2013-10-30\/09464033191.shtml",
"pubDate" : "09:46:17",
"enterDate" : "384201:02:44",
"channelId" : "6501738331065329671",
"channelName" : "明星全接触-新浪娱乐",
"channelNameSummary" : "明星全接触-新浪娱乐",
"channelUrl" : "http:\/\/ent.sina.com.cn\/temp2\/star\/index.shtml",
"author" : "WWW.SINA.COM.CN",
"tags" : [],
"desc" : "",
"emailed" : False,
"forwarded" : False,
"english" : False
}  , {
"index" : 1,
"articleIndex" : "104290",
"favor" :  False ,
     "read" : False,    
"title" : "组图：小宋佳《OK》大片徜徉米兰街头时尚",
"titleTip" : "组图：小宋佳《OK》大片徜徉米兰街头时尚",
"titleSummary" : "组图：小宋佳《OK》大片徜徉米兰街头时尚",
"descSummary" : "",
"url" : "http:\/\/go.rss.sina.com.cn\/redirect.php?url=http:\/\/slide.ent.sina.com.cn\/star\/slide_4_704_68380.html",
"pubDate" : "09:39:23",
"enterDate" : "384200:55:50",
"channelId" : "6501738331065329671",
"channelName" : "明星全接触-新浪娱乐",
"channelNameSummary" : "明星全接触-新浪娱乐",
"channelUrl" : "http:\/\/ent.sina.com.cn\/temp2\/star\/index.shtml",
"author" : "WWW.SINA.COM.CN",
"tags" : [],
"desc" : "",
"emailed" : False,
"forwarded" : False,
"english" : False
}  , {
"index" : 2,
"articleIndex" : "104289",
"favor" :  False ,
     "read" : False,    
"title" : "李晨秋冬写真表情酷拽 演绎西部牛仔(图)",
"titleTip" : "李晨秋冬写真表情酷拽 演绎西部牛仔(图)",
"titleSummary" : "李晨秋冬写真表情酷拽 演绎西部牛仔(图)",
"descSummary" : "",
"url" : "http:\/\/go.rss.sina.com.cn\/redirect.php?url=http:\/\/slide.ent.sina.com.cn\/star\/slide_4_704_68377.html",
"pubDate" : "09:31:16",
"enterDate" : "384200:47:43",
"channelId" : "6501738331065329671",
"channelName" : "明星全接触-新浪娱乐",
"channelNameSummary" : "明星全接触-新浪娱乐",
"channelUrl" : "http:\/\/ent.sina.com.cn\/temp2\/star\/index.shtml",
"author" : "WWW.SINA.COM.CN",
"tags" : [],
"desc" : "",
"emailed" : False,
"forwarded" : False,
"english" : False
}  , {
"index" : 3,
"articleIndex" : "104287",
"favor" :  False ,
     "read" : False,    
"title" : "联合国难民署正式授予姚晨中国亲善大使",
"titleTip" : "联合国难民署正式授予姚晨中国亲善大使",
"titleSummary" : "联合国难民署正式授予姚晨中国亲善大使",
"descSummary" : "",
"url" : "http:\/\/go.rss.sina.com.cn\/redirect.php?url=http:\/\/ent.sina.com.cn\/s\/m\/2013-10-30\/09204033168.shtml",
"pubDate" : "09:20:47",
"enterDate" : "384201:07:21",
"channelId" : "6501738331065329671",
"channelName" : "明星全接触-新浪娱乐",
"channelNameSummary" : "明星全接触-新浪娱乐",
"channelUrl" : "http:\/\/ent.sina.com.cn\/temp2\/star\/index.shtml",
"author" : "WWW.SINA.COM.CN",
"tags" : [],
"desc" : "",
"emailed" : False,
"forwarded" : False,
"english" : False
}  , {
"index" : 4,
"articleIndex" : "104288",
"favor" :  False ,
     "read" : False,    
"title" : "视频：张歆艺婆媳和睦 称照顾老公像喂狗",
"titleTip" : "视频：张歆艺婆媳和睦 称照顾老公像喂狗",
"titleSummary" : "视频：张歆艺婆媳和睦 称照顾老公像喂狗",
"descSummary" : "",
"url" : "http:\/\/go.rss.sina.com.cn\/redirect.php?url=http:\/\/video.sina.com.cn\/p\/ent\/s\/m\/2013-10-30\/091263082535.html",
"pubDate" : "09:12:27",
"enterDate" : "384200:28:54",
"channelId" : "6501738331065329671",
"channelName" : "明星全接触-新浪娱乐",
"channelNameSummary" : "明星全接触-新浪娱乐",
"channelUrl" : "http:\/\/ent.sina.com.cn\/temp2\/star\/index.shtml",
"author" : "WWW.SINA.COM.CN",
"tags" : [],
"desc" : "",
"emailed" : False,
"forwarded" : False,
"english" : False
}  , {
"index" : 5,
"articleIndex" : "104286",
"favor" :  False ,
     "read" : False,    
"title" : "杨采妮宣布结婚 与丈夫曾分手7年再复合",
"titleTip" : "杨采妮宣布结婚 与丈夫曾分手7年再复合",
"titleSummary" : "杨采妮宣布结婚 与丈夫曾分手7年再复合",
"descSummary" : "",
"url" : "http:\/\/go.rss.sina.com.cn\/redirect.php?url=http:\/\/ent.sina.com.cn\/s\/h\/2013-10-30\/09054033158.shtml",
"pubDate" : "09:05:39",
"enterDate" : "384200:52:13",
"channelId" : "6501738331065329671",
"channelName" : "明星全接触-新浪娱乐",
"channelNameSummary" : "明星全接触-新浪娱乐",
"channelUrl" : "http:\/\/ent.sina.com.cn\/temp2\/star\/index.shtml",
"author" : "WWW.SINA.COM.CN",
"tags" : [],
"desc" : "",
"emailed" : False,
"forwarded" : False,
"english" : False
}  , {
"index" : 6,
"articleIndex" : "104285",
"favor" :  False ,
     "read" : False,    
"title" : "儿童选美决赛巴黎举行 众小萝莉T台激萌",
"titleTip" : "儿童选美决赛巴黎举行 众小萝莉T台激萌",
"titleSummary" : "儿童选美决赛巴黎举行 众小萝莉T台激萌",
"descSummary" : "",
"url" : "http:\/\/go.rss.sina.com.cn\/redirect.php?url=http:\/\/slide.ent.sina.com.cn\/star\/slide_4_704_68371.html",
"pubDate" : "08:46:35",
"enterDate" : "384200:33:09",
"channelId" : "6501738331065329671",
"channelName" : "明星全接触-新浪娱乐",
"channelNameSummary" : "明星全接触-新浪娱乐",
"channelUrl" : "http:\/\/ent.sina.com.cn\/temp2\/star\/index.shtml",
"author" : "WWW.SINA.COM.CN",
"tags" : [],
"desc" : "",
"emailed" : False,
"forwarded" : False,
"english" : False
}  , {
"index" : 7,
"articleIndex" : "104284",
"favor" :  False ,
     "read" : False,    
"title" : "施南生获勋 林青霞携女见证唐唐出席",
"titleTip" : "施南生获勋 林青霞携女见证唐唐出席",
"titleSummary" : "施南生获勋 林青霞携女见证唐唐出席",
"descSummary" : "",
"url" : "http:\/\/go.rss.sina.com.cn\/redirect.php?url=http:\/\/ent.sina.com.cn\/s\/h\/2013-10-30\/08214033152.shtml",
"pubDate" : "08:21:29",
"enterDate" : "384200:08:03",
"channelId" : "6501738331065329671",
"channelName" : "明星全接触-新浪娱乐",
"channelNameSummary" : "明星全接触-新浪娱乐",
"channelUrl" : "http:\/\/ent.sina.com.cn\/temp2\/star\/index.shtml",
"author" : "WWW.SINA.COM.CN",
"tags" : [],
"desc" : "",
"emailed" : False,
"forwarded" : False,
"english" : False
}  , {
"index" : 8,
"articleIndex" : "104283",
"favor" :  False ,
     "read" : False,    
"title" : "杨千眉纺溉槲棺 一天喂足七顿(图)",
"titleTip" : "杨千眉纺溉槲棺 一天喂足七顿(图)",
"titleSummary" : "杨千眉纺溉槲棺 一天喂足七顿(图)",
"descSummary" : "",
"url" : "http:\/\/go.rss.sina.com.cn\/redirect.php?url=http:\/\/ent.sina.com.cn\/s\/h\/2013-10-30\/07444033146.shtml",
"pubDate" : "07:44:08",
"enterDate" : "384199:30:42",
"channelId" : "6501738331065329671",
"channelName" : "明星全接触-新浪娱乐",
"channelNameSummary" : "明星全接触-新浪娱乐",
"channelUrl" : "http:\/\/ent.sina.com.cn\/temp2\/star\/index.shtml",
"author" : "WWW.SINA.COM.CN",
"tags" : [],
"desc" : "",
"emailed" : False,
"forwarded" : False,
"english" : False
}  , {
"index" : 9,
"articleIndex" : "104282",
"favor" :  False ,
     "read" : False,    
"title" : "李治廷否认恋女助手 亲如兄弟不会避嫌",
"titleTip" : "李治廷否认恋女助手 亲如兄弟不会避嫌",
"titleSummary" : "李治廷否认恋女助手 亲如兄弟不会避嫌",
"descSummary" : "",
"url" : "http:\/\/go.rss.sina.com.cn\/redirect.php?url=http:\/\/ent.sina.com.cn\/s\/m\/2013-10-30\/07334033131.shtml",
"pubDate" : "07:33:46",
"enterDate" : "384198:50:13",
"channelId" : "6501738331065329671",
"channelName" : "明星全接触-新浪娱乐",
"channelNameSummary" : "明星全接触-新浪娱乐",
"channelUrl" : "http:\/\/ent.sina.com.cn\/temp2\/star\/index.shtml",
"author" : "WWW.SINA.COM.CN",
"tags" : [],
"desc" : "",
"emailed" : False,
"forwarded" : False,
"english" : False
}  , {
"index" : 10,
"articleIndex" : "104277",
"favor" :  False ,
     "read" : False,    
"title" : "乳神布鲁克性感内衣秀 榴乳傲人翘臀惹火",
"titleTip" : "乳神布鲁克性感内衣秀 榴乳傲人翘臀惹火",
"titleSummary" : "乳神布鲁克性感内衣秀 榴乳傲人翘臀惹火",
"descSummary" : "",
"url" : "http:\/\/go.rss.sina.com.cn\/redirect.php?url=http:\/\/slide.ent.sina.com.cn\/star\/slide_4_704_68368.html",
"pubDate" : "07:24:13",
"enterDate" : "384201:11:06",
"channelId" : "6501738331065329671",
"channelName" : "明星全接触-新浪娱乐",
"channelNameSummary" : "明星全接触-新浪娱乐",
"channelUrl" : "http:\/\/ent.sina.com.cn\/temp2\/star\/index.shtml",
"author" : "WWW.SINA.COM.CN",
"tags" : [],
"desc" : "",
"emailed" : False,
"forwarded" : False,
"english" : False
}  , {
"index" : 11,
"articleIndex" : "104276",
"favor" :  False ,
     "read" : False,    
"title" : "杨采妮美国挑婚纱 自曝夫妻鸳鸯戏水照",
"titleTip" : "杨采妮美国挑婚纱 自曝夫妻鸳鸯戏水照",
"titleSummary" : "杨采妮美国挑婚纱 自曝夫妻鸳鸯戏水照",
"descSummary" : "",
"url" : "http:\/\/go.rss.sina.com.cn\/redirect.php?url=http:\/\/ent.sina.com.cn\/s\/h\/2013-10-30\/04374033074.shtml",
"pubDate" : "昨天04:37:38",
"enterDate" : "384198:24:31",
"channelId" : "6501738331065329671",
"channelName" : "明星全接触-新浪娱乐",
"channelNameSummary" : "明星全接触-新浪娱乐",
"channelUrl" : "http:\/\/ent.sina.com.cn\/temp2\/star\/index.shtml",
"author" : "WWW.SINA.COM.CN",
"tags" : [],
"desc" : "",
"emailed" : False,
"forwarded" : False,
"english" : False
}  , {
"index" : 12,
"articleIndex" : "104275",
"favor" :  False ,
     "read" : False,    
"title" : "张震18日婚宴请梁朝伟李安 堪比金马奖",
"titleTip" : "张震18日婚宴请梁朝伟李安 堪比金马奖",
"titleSummary" : "张震18日婚宴请梁朝伟李安 堪比金马奖",
"descSummary" : "",
"url" : "http:\/\/go.rss.sina.com.cn\/redirect.php?url=http:\/\/ent.sina.com.cn\/s\/h\/2013-10-30\/04334033073.shtml",
"pubDate" : "昨天04:33:48",
"enterDate" : "384198:20:41",
"channelId" : "6501738331065329671",
"channelName" : "明星全接触-新浪娱乐",
"channelNameSummary" : "明星全接触-新浪娱乐",
"channelUrl" : "http:\/\/ent.sina.com.cn\/temp2\/star\/index.shtml",
"author" : "WWW.SINA.COM.CN",
"tags" : [],
"desc" : "",
"emailed" : False,
"forwarded" : False,
"english" : False
}  , {
"index" : 13,
"articleIndex" : "104274",
"favor" :  False ,
     "read" : False,    
"title" : "组图：姚晨曹郁带爱子拍照其乐融融",
"titleTip" : "组图：姚晨曹郁带爱子拍照其乐融融",
"titleSummary" : "组图：姚晨曹郁带爱子拍照其乐融融",
"descSummary" : "",
"url" : "http:\/\/go.rss.sina.com.cn\/redirect.php?url=http:\/\/slide.ent.sina.com.cn\/star\/slide_4_704_68367.html",
"pubDate" : "昨天03:21:38",
"enterDate" : "384197:08:31",
"channelId" : "6501738331065329671",
"channelName" : "明星全接触-新浪娱乐",
"channelNameSummary" : "明星全接触-新浪娱乐",
"channelUrl" : "http:\/\/ent.sina.com.cn\/temp2\/star\/index.shtml",
"author" : "WWW.SINA.COM.CN",
"tags" : [],
"desc" : "",
"emailed" : False,
"forwarded" : False,
"english" : False
}  , {
"index" : 14,
"articleIndex" : "104273",
"favor" :  False ,
     "read" : False,    
"title" : "吴彦祖与爱妻带岳母逛街 见记者急闪",
"titleTip" : "吴彦祖与爱妻带岳母逛街 见记者急闪",
"titleSummary" : "吴彦祖与爱妻带岳母逛街 见记者急闪",
"descSummary" : "",
"url" : "http:\/\/go.rss.sina.com.cn\/redirect.php?url=http:\/\/ent.sina.com.cn\/s\/h\/2013-10-30\/02224033051.shtml",
"pubDate" : "昨天02:22:29",
"enterDate" : "384196:09:22",
"channelId" : "6501738331065329671",
"channelName" : "明星全接触-新浪娱乐",
"channelNameSummary" : "明星全接触-新浪娱乐",
"channelUrl" : "http:\/\/ent.sina.com.cn\/temp2\/star\/index.shtml",
"author" : "WWW.SINA.COM.CN",
"tags" : [],
"desc" : "",
"emailed" : False,
"forwarded" : False,
"english" : False
}  , {
"index" : 15,
"articleIndex" : "104281",
"favor" :  False ,
     "read" : False,    
"title" : "台女星自曝重口味减肥：活蚯蚓配开水吞下",
"titleTip" : "台女星自曝重口味减肥：活蚯蚓配开水吞下",
"titleSummary" : "台女星自曝重口味减肥：活蚯蚓配开水吞下",
"descSummary" : "",
"url" : "http:\/\/go.rss.sina.com.cn\/redirect.php?url=http:\/\/ent.sina.com.cn\/s\/h\/2013-10-30\/01444033039.shtml",
"pubDate" : "昨天01:44:38",
"enterDate" : "384195:01:25",
"channelId" : "6501738331065329671",
"channelName" : "明星全接触-新浪娱乐",
"channelNameSummary" : "明星全接触-新浪娱乐",
"channelUrl" : "http:\/\/ent.sina.com.cn\/temp2\/star\/index.shtml",
"author" : "WWW.SINA.COM.CN",
"tags" : [],
"desc" : "",
"emailed" : False,
"forwarded" : False,
"english" : False
}  , {
"index" : 16,
"articleIndex" : "104280",
"favor" :  False ,
     "read" : False,    
"title" : "赌王千金何超盈低胸会新欢 被撞破速闪",
"titleTip" : "赌王千金何超盈低胸会新欢 被撞破速闪",
"titleSummary" : "赌王千金何超盈低胸会新欢 被撞破速闪",
"descSummary" : "",
"url" : "http:\/\/go.rss.sina.com.cn\/redirect.php?url=http:\/\/ent.sina.com.cn\/s\/h\/2013-10-30\/01144033033.shtml",
"pubDate" : "昨天01:14:16",
"enterDate" : "384194:31:03",
"channelId" : "6501738331065329671",
"channelName" : "明星全接触-新浪娱乐",
"channelNameSummary" : "明星全接触-新浪娱乐",
"channelUrl" : "http:\/\/ent.sina.com.cn\/temp2\/star\/index.shtml",
"author" : "WWW.SINA.COM.CN",
"tags" : [],
"desc" : "",
"emailed" : False,
"forwarded" : False,
"english" : False
}  , {
"index" : 17,
"articleIndex" : "104272",
"favor" :  False ,
     "read" : False,    
"title" : "林青霞携三女贺施南生授勋 唐唐现身(图)",
"titleTip" : "林青霞携三女贺施南生授勋 唐唐现身(图)",
"titleSummary" : "林青霞携三女贺施南生授勋 唐唐现身(图)",
"descSummary" : "",
"url" : "http:\/\/go.rss.sina.com.cn\/redirect.php?url=http:\/\/slide.ent.sina.com.cn\/star\/slide_4_704_68366.html",
"pubDate" : "昨天01:00:55",
"enterDate" : "384194:47:48",
"channelId" : "6501738331065329671",
"channelName" : "明星全接触-新浪娱乐",
"channelNameSummary" : "明星全接触-新浪娱乐",
"channelUrl" : "http:\/\/ent.sina.com.cn\/temp2\/star\/index.shtml",
"author" : "WWW.SINA.COM.CN",
"tags" : [],
"desc" : "",
"emailed" : False,
"forwarded" : False,
"english" : False
}  , {
"index" : 18,
"articleIndex" : "104279",
"favor" :  False ,
     "read" : False,    
"title" : "窦靖童与同父异母妹妹感情要好 贴头合照",
"titleTip" : "窦靖童与同父异母妹妹感情要好 贴头合照",
"titleSummary" : "窦靖童与同父异母妹妹感情要好 贴头合照",
"descSummary" : "",
"url" : "http:\/\/go.rss.sina.com.cn\/redirect.php?url=http:\/\/ent.sina.com.cn\/s\/m\/2013-10-30\/00394033029.shtml",
"pubDate" : "昨天00:39:37",
"enterDate" : "384193:56:24",
"channelId" : "6501738331065329671",
"channelName" : "明星全接触-新浪娱乐",
"channelNameSummary" : "明星全接触-新浪娱乐",
"channelUrl" : "http:\/\/ent.sina.com.cn\/temp2\/star\/index.shtml",
"author" : "WWW.SINA.COM.CN",
"tags" : [],
"desc" : "",
"emailed" : False,
"forwarded" : False,
"english" : False
}  , {
"index" : 19,
"articleIndex" : "104278",
"favor" :  False ,
     "read" : False,    
"title" : "明星受威胁:黑道要砍陈冠希 萧亚轩遭软禁",
"titleTip" : "明星受威胁:黑道要砍陈冠希 萧亚轩遭软禁",
"titleSummary" : "明星受威胁:黑道要砍陈冠希 萧亚轩遭软禁",
"descSummary" : "",
"url" : "http:\/\/go.rss.sina.com.cn\/redirect.php?url=http:\/\/ent.sina.com.cn\/s\/h\/2013-10-30\/00084033031.shtml",
"pubDate" : "昨天00:08:00",
"enterDate" : "384193:24:47",
"channelId" : "6501738331065329671",
"channelName" : "明星全接触-新浪娱乐",
"channelNameSummary" : "明星全接触-新浪娱乐",
"channelUrl" : "http:\/\/ent.sina.com.cn\/temp2\/star\/index.shtml",
"author" : "WWW.SINA.COM.CN",
"tags" : [],
"desc" : "",
"emailed" : False,
"forwarded" : False,
"english" : False
} ]
}
