{
"mode" : {"viewTitle" : 1,   "viewNew" : 0,  "pageIndex" : 1 },
 "channel" : {"id" : "-1432526169963652377", "booked" : False, "subNumber" : 1, "name" : "IT-新浪博客", "url" : "http:\/\/blog.sina.com.cn\/lm\/tech\/", "feed" : "http:\/\/rss.sina.com.cn\/blog\/tech\/kj.xml", "author" : "WWW.SINA.COM.CN", "desc" : "IT博客列表", "imageUrl" : "http:\/\/www.sinaimg.cn\/blog\/main\/index2010\/blog_logo.png", "postPerWeek" : "0", "lastCrawTime" : "17:11:25", "crawDateTime" : "15:41:05", "lastHttpCode" : "200"}, "page" : {
"startIndex" : 0,
"totalCount" : 5000,
"pageIndex" : 1,
"lastPage" : 250,
"pageSize" : 20,
"english" :  False },
 "unreadNum" : 0, "shotIndex" : -1,
"articles" : [
{
"index" : 0,
"articleIndex" : "11014",
"favor" :  False ,
     "read" : False,    
"title" : "为什么互联网行业马太效应尤其突出",
"titleTip" : "为什么互联网行业马太效应尤其突出",
"titleSummary" : "为什么互联网行业马太效应尤其突出",
"descSummary" : "",
"url" : "http:\/\/go.rss.sina.com.cn\/redirect.php?url=http:\/\/blog.sina.com.cn\/s\/blog_5101b9050101p4kf.html",
"pubDate" : "14:50:15",
"enterDate" : "384200:28:45",
"channelId" : "-1432526169963652377",
"channelName" : "IT-新浪博客",
"channelNameSummary" : "IT-新浪博客",
"channelUrl" : "http:\/\/blog.sina.com.cn\/lm\/tech\/",
"author" : "WWW.SINA.COM.CN",
"tags" : [],
"desc" : "",
"emailed" : False,
"forwarded" : False,
"english" : False
}  , {
"index" : 1,
"articleIndex" : "11013",
"favor" :  False ,
     "read" : False,    
"title" : "我眼中的电商布局",
"titleTip" : "我眼中的电商布局",
"titleSummary" : "我眼中的电商布局",
"descSummary" : "",
"url" : "http:\/\/go.rss.sina.com.cn\/redirect.php?url=http:\/\/blog.sina.com.cn\/s\/blog_6dc09ad70101s1os.html",
"pubDate" : "13:52:59",
"enterDate" : "384199:31:29",
"channelId" : "-1432526169963652377",
"channelName" : "IT-新浪博客",
"channelNameSummary" : "IT-新浪博客",
"channelUrl" : "http:\/\/blog.sina.com.cn\/lm\/tech\/",
"author" : "WWW.SINA.COM.CN",
"tags" : [],
"desc" : "",
"emailed" : False,
"forwarded" : False,
"english" : False
}  , {
"index" : 2,
"articleIndex" : "11012",
"favor" :  False ,
     "read" : False,    
"title" : "从小米盒子案谈家电企业版权问题",
"titleTip" : "从小米盒子案谈家电企业版权问题",
"titleSummary" : "从小米盒子案谈家电企业版权问题",
"descSummary" : "",
"url" : "http:\/\/go.rss.sina.com.cn\/redirect.php?url=http:\/\/blog.sina.com.cn\/s\/blog_4e0248da0102ek3d.html",
"pubDate" : "13:48:15",
"enterDate" : "384199:26:45",
"channelId" : "-1432526169963652377",
"channelName" : "IT-新浪博客",
"channelNameSummary" : "IT-新浪博客",
"channelUrl" : "http:\/\/blog.sina.com.cn\/lm\/tech\/",
"author" : "WWW.SINA.COM.CN",
"tags" : [],
"desc" : "",
"emailed" : False,
"forwarded" : False,
"english" : False
}  , {
"index" : 3,
"articleIndex" : "11011",
"favor" :  False ,
     "read" : False,    
"title" : "苏宁的互联网野望是否过多",
"titleTip" : "苏宁的互联网野望是否过多",
"titleSummary" : "苏宁的互联网野望是否过多",
"descSummary" : "",
"url" : "http:\/\/go.rss.sina.com.cn\/redirect.php?url=http:\/\/blog.sina.com.cn\/s\/blog_49bc1a2d0102eqh4.html",
"pubDate" : "13:45:15",
"enterDate" : "384199:23:45",
"channelId" : "-1432526169963652377",
"channelName" : "IT-新浪博客",
"channelNameSummary" : "IT-新浪博客",
"channelUrl" : "http:\/\/blog.sina.com.cn\/lm\/tech\/",
"author" : "WWW.SINA.COM.CN",
"tags" : [],
"desc" : "",
"emailed" : False,
"forwarded" : False,
"english" : False
}  , {
"index" : 4,
"articleIndex" : "11010",
"favor" :  False ,
     "read" : False,    
"title" : "PPTV活了但与出局无异",
"titleTip" : "PPTV活了但与出局无异",
"titleSummary" : "PPTV活了但与出局无异",
"descSummary" : "",
"url" : "http:\/\/go.rss.sina.com.cn\/redirect.php?url=http:\/\/blog.sina.com.cn\/s\/blog_400bf2e70101e07o.html",
"pubDate" : "13:38:47",
"enterDate" : "384199:17:17",
"channelId" : "-1432526169963652377",
"channelName" : "IT-新浪博客",
"channelNameSummary" : "IT-新浪博客",
"channelUrl" : "http:\/\/blog.sina.com.cn\/lm\/tech\/",
"author" : "WWW.SINA.COM.CN",
"tags" : [],
"desc" : "",
"emailed" : False,
"forwarded" : False,
"english" : False
}  , {
"index" : 5,
"articleIndex" : "11009",
"favor" :  False ,
     "read" : False,    
"title" : "腾讯派系图：企业上市壮大后必经之路",
"titleTip" : "腾讯派系图：企业上市壮大后必经之路",
"titleSummary" : "腾讯派系图：企业上市壮大后必经之路",
"descSummary" : "",
"url" : "http:\/\/go.rss.sina.com.cn\/redirect.php?url=http:\/\/blog.sina.com.cn\/s\/blog_5edc4ac50101b2ii.html",
"pubDate" : "13:33:19",
"enterDate" : "384201:12:09",
"channelId" : "-1432526169963652377",
"channelName" : "IT-新浪博客",
"channelNameSummary" : "IT-新浪博客",
"channelUrl" : "http:\/\/blog.sina.com.cn\/lm\/tech\/",
"author" : "WWW.SINA.COM.CN",
"tags" : [],
"desc" : "",
"emailed" : False,
"forwarded" : False,
"english" : False
}  , {
"index" : 6,
"articleIndex" : "11008",
"favor" :  False ,
     "read" : False,    
"title" : "韩国手机游戏市场启示录",
"titleTip" : "韩国手机游戏市场启示录",
"titleSummary" : "韩国手机游戏市场启示录",
"descSummary" : "",
"url" : "http:\/\/go.rss.sina.com.cn\/redirect.php?url=http:\/\/blog.sina.com.cn\/s\/blog_bf7f181c0101hxo1.html",
"pubDate" : "13:31:20",
"enterDate" : "384201:10:10",
"channelId" : "-1432526169963652377",
"channelName" : "IT-新浪博客",
"channelNameSummary" : "IT-新浪博客",
"channelUrl" : "http:\/\/blog.sina.com.cn\/lm\/tech\/",
"author" : "WWW.SINA.COM.CN",
"tags" : [],
"desc" : "",
"emailed" : False,
"forwarded" : False,
"english" : False
}  , {
"index" : 7,
"articleIndex" : "11007",
"favor" :  False ,
     "read" : False,    
"title" : "移动操盘手：如何创造属于自己的刚需",
"titleTip" : "移动操盘手：如何创造属于自己的刚需",
"titleSummary" : "移动操盘手：如何创造属于自己的刚需",
"descSummary" : "",
"url" : "http:\/\/go.rss.sina.com.cn\/redirect.php?url=http:\/\/blog.sina.com.cn\/s\/blog_3ec28e840102ea7e.html",
"pubDate" : "13:21:44",
"enterDate" : "384201:00:34",
"channelId" : "-1432526169963652377",
"channelName" : "IT-新浪博客",
"channelNameSummary" : "IT-新浪博客",
"channelUrl" : "http:\/\/blog.sina.com.cn\/lm\/tech\/",
"author" : "WWW.SINA.COM.CN",
"tags" : [],
"desc" : "",
"emailed" : False,
"forwarded" : False,
"english" : False
}  , {
"index" : 8,
"articleIndex" : "11006",
"favor" :  False ,
     "read" : False,    
"title" : "智能路由器：不仅是流量入口那么简单",
"titleTip" : "智能路由器：不仅是流量入口那么简单",
"titleSummary" : "智能路由器：不仅是流量入口那么简单",
"descSummary" : "",
"url" : "http:\/\/go.rss.sina.com.cn\/redirect.php?url=http:\/\/blog.sina.com.cn\/s\/blog_5101b9050101p4yh.html",
"pubDate" : "13:17:07",
"enterDate" : "384200:55:57",
"channelId" : "-1432526169963652377",
"channelName" : "IT-新浪博客",
"channelNameSummary" : "IT-新浪博客",
"channelUrl" : "http:\/\/blog.sina.com.cn\/lm\/tech\/",
"author" : "WWW.SINA.COM.CN",
"tags" : [],
"desc" : "",
"emailed" : False,
"forwarded" : False,
"english" : False
}  , {
"index" : 9,
"articleIndex" : "11005",
"favor" :  False ,
     "read" : False,    
"title" : "初创公司如何与媒体打交道",
"titleTip" : "初创公司如何与媒体打交道",
"titleSummary" : "初创公司如何与媒体打交道",
"descSummary" : "",
"url" : "http:\/\/go.rss.sina.com.cn\/redirect.php?url=http:\/\/blog.sina.com.cn\/s\/blog_665a4de50101drlx.html",
"pubDate" : "11:29:40",
"enterDate" : "384201:08:50",
"channelId" : "-1432526169963652377",
"channelName" : "IT-新浪博客",
"channelNameSummary" : "IT-新浪博客",
"channelUrl" : "http:\/\/blog.sina.com.cn\/lm\/tech\/",
"author" : "WWW.SINA.COM.CN",
"tags" : [],
"desc" : "",
"emailed" : False,
"forwarded" : False,
"english" : False
}  , {
"index" : 10,
"articleIndex" : "11004",
"favor" :  False ,
     "read" : False,    
"title" : "小米和凡客的成绩为何有天壤之别",
"titleTip" : "小米和凡客的成绩为何有天壤之别",
"titleSummary" : "小米和凡客的成绩为何有天壤之别",
"descSummary" : "",
"url" : "http:\/\/go.rss.sina.com.cn\/redirect.php?url=http:\/\/blog.sina.com.cn\/s\/blog_4cc015f60101her1.html",
"pubDate" : "11:24:29",
"enterDate" : "384201:03:39",
"channelId" : "-1432526169963652377",
"channelName" : "IT-新浪博客",
"channelNameSummary" : "IT-新浪博客",
"channelUrl" : "http:\/\/blog.sina.com.cn\/lm\/tech\/",
"author" : "WWW.SINA.COM.CN",
"tags" : [],
"desc" : "",
"emailed" : False,
"forwarded" : False,
"english" : False
}  , {
"index" : 11,
"articleIndex" : "11003",
"favor" :  False ,
     "read" : False,    
"title" : "一个想创业的奇葩程序员故事",
"titleTip" : "一个想创业的奇葩程序员故事",
"titleSummary" : "一个想创业的奇葩程序员故事",
"descSummary" : "",
"url" : "http:\/\/go.rss.sina.com.cn\/redirect.php?url=http:\/\/blog.sina.com.cn\/s\/blog_548254210101axgl.html",
"pubDate" : "11:18:04",
"enterDate" : "384200:57:14",
"channelId" : "-1432526169963652377",
"channelName" : "IT-新浪博客",
"channelNameSummary" : "IT-新浪博客",
"channelUrl" : "http:\/\/blog.sina.com.cn\/lm\/tech\/",
"author" : "WWW.SINA.COM.CN",
"tags" : [],
"desc" : "",
"emailed" : False,
"forwarded" : False,
"english" : False
}  , {
"index" : 12,
"articleIndex" : "11002",
"favor" :  False ,
     "read" : False,    
"title" : "300元微信支付障眼法：3%手续费才是核心",
"titleTip" : "300元微信支付障眼法：3%手续费才是核心",
"titleSummary" : "300元微信支付障眼法：3%手续费才是核心",
"descSummary" : "",
"url" : "http:\/\/go.rss.sina.com.cn\/redirect.php?url=http:\/\/blog.sina.com.cn\/s\/blog_4ce36ed10101o11u.html",
"pubDate" : "11:17:18",
"enterDate" : "384200:56:28",
"channelId" : "-1432526169963652377",
"channelName" : "IT-新浪博客",
"channelNameSummary" : "IT-新浪博客",
"channelUrl" : "http:\/\/blog.sina.com.cn\/lm\/tech\/",
"author" : "WWW.SINA.COM.CN",
"tags" : [],
"desc" : "",
"emailed" : False,
"forwarded" : False,
"english" : False
}  , {
"index" : 13,
"articleIndex" : "11001",
"favor" :  False ,
     "read" : False,    
"title" : "客户端游戏的末日和涅",
"titleTip" : "客户端游戏的末日和涅",
"titleSummary" : "客户端游戏的末日和涅",
"descSummary" : "",
"url" : "http:\/\/go.rss.sina.com.cn\/redirect.php?url=http:\/\/blog.sina.com.cn\/s\/blog_5d098bcc0102e882.html",
"pubDate" : "10:07:23",
"enterDate" : "384200:16:38",
"channelId" : "-1432526169963652377",
"channelName" : "IT-新浪博客",
"channelNameSummary" : "IT-新浪博客",
"channelUrl" : "http:\/\/blog.sina.com.cn\/lm\/tech\/",
"author" : "WWW.SINA.COM.CN",
"tags" : [],
"desc" : "",
"emailed" : False,
"forwarded" : False,
"english" : False
}  , {
"index" : 14,
"articleIndex" : "11000",
"favor" :  False ,
     "read" : False,    
"title" : "智能手机与PC的增长逻辑",
"titleTip" : "智能手机与PC的增长逻辑",
"titleSummary" : "智能手机与PC的增长逻辑",
"descSummary" : "",
"url" : "http:\/\/go.rss.sina.com.cn\/redirect.php?url=http:\/\/blog.sina.com.cn\/s\/blog_538fa7900101b2gp.html",
"pubDate" : "09:43:29",
"enterDate" : "384199:52:44",
"channelId" : "-1432526169963652377",
"channelName" : "IT-新浪博客",
"channelNameSummary" : "IT-新浪博客",
"channelUrl" : "http:\/\/blog.sina.com.cn\/lm\/tech\/",
"author" : "WWW.SINA.COM.CN",
"tags" : [],
"desc" : "",
"emailed" : False,
"forwarded" : False,
"english" : False
}  , {
"index" : 15,
"articleIndex" : "10999",
"favor" :  False ,
     "read" : False,    
"title" : "许小年：创业家唯一重要的工作是创新",
"titleTip" : "许小年：创业家唯一重要的工作是创新",
"titleSummary" : "许小年：创业家唯一重要的工作是创新",
"descSummary" : "",
"url" : "http:\/\/go.rss.sina.com.cn\/redirect.php?url=http:\/\/blog.sina.com.cn\/s\/blog_4a4b47f10101crgn.html",
"pubDate" : "09:07:24",
"enterDate" : "384199:16:39",
"channelId" : "-1432526169963652377",
"channelName" : "IT-新浪博客",
"channelNameSummary" : "IT-新浪博客",
"channelUrl" : "http:\/\/blog.sina.com.cn\/lm\/tech\/",
"author" : "WWW.SINA.COM.CN",
"tags" : [],
"desc" : "",
"emailed" : False,
"forwarded" : False,
"english" : False
}  , {
"index" : 16,
"articleIndex" : "10998",
"favor" :  False ,
     "read" : False,    
"title" : "奥迪RS美国试驾之旅",
"titleTip" : "奥迪RS美国试驾之旅",
"titleSummary" : "奥迪RS美国试驾之旅",
"descSummary" : "",
"url" : "http:\/\/go.rss.sina.com.cn\/redirect.php?url=http:\/\/blog.sina.com.cn\/s\/blog_4a23d0690101eog6.html",
"pubDate" : "08:54:28",
"enterDate" : "384199:03:43",
"channelId" : "-1432526169963652377",
"channelName" : "IT-新浪博客",
"channelNameSummary" : "IT-新浪博客",
"channelUrl" : "http:\/\/blog.sina.com.cn\/lm\/tech\/",
"author" : "WWW.SINA.COM.CN",
"tags" : [],
"desc" : "",
"emailed" : False,
"forwarded" : False,
"english" : False
}  , {
"index" : 17,
"articleIndex" : "10997",
"favor" :  False ,
     "read" : False,    
"title" : "互联网公司推电视祭出低价大旗",
"titleTip" : "互联网公司推电视祭出低价大旗",
"titleSummary" : "互联网公司推电视祭出低价大旗",
"descSummary" : "",
"url" : "http:\/\/go.rss.sina.com.cn\/redirect.php?url=http:\/\/blog.sina.com.cn\/s\/blog_49a5d77f0101n9op.html",
"pubDate" : "08:52:52",
"enterDate" : "384199:02:07",
"channelId" : "-1432526169963652377",
"channelName" : "IT-新浪博客",
"channelNameSummary" : "IT-新浪博客",
"channelUrl" : "http:\/\/blog.sina.com.cn\/lm\/tech\/",
"author" : "WWW.SINA.COM.CN",
"tags" : [],
"desc" : "",
"emailed" : False,
"forwarded" : False,
"english" : False
}  , {
"index" : 18,
"articleIndex" : "10996",
"favor" :  False ,
     "read" : False,    
"title" : "竞合与结盟：去哪儿网的上市之路",
"titleTip" : "竞合与结盟：去哪儿网的上市之路",
"titleSummary" : "竞合与结盟：去哪儿网的上市之路",
"descSummary" : "",
"url" : "http:\/\/go.rss.sina.com.cn\/redirect.php?url=http:\/\/blog.sina.com.cn\/s\/blog_477afab30101dvw8.html",
"pubDate" : "08:41:33",
"enterDate" : "384198:50:48",
"channelId" : "-1432526169963652377",
"channelName" : "IT-新浪博客",
"channelNameSummary" : "IT-新浪博客",
"channelUrl" : "http:\/\/blog.sina.com.cn\/lm\/tech\/",
"author" : "WWW.SINA.COM.CN",
"tags" : [],
"desc" : "",
"emailed" : False,
"forwarded" : False,
"english" : False
}  , {
"index" : 19,
"articleIndex" : "10995",
"favor" :  False ,
     "read" : False,    
"title" : "视频业下个收购对象：迅雷酷六均在列",
"titleTip" : "视频业下个收购对象：迅雷酷六均在列",
"titleSummary" : "视频业下个收购对象：迅雷酷六均在列",
"descSummary" : "",
"url" : "http:\/\/go.rss.sina.com.cn\/redirect.php?url=http:\/\/blog.sina.com.cn\/s\/blog_6ec2431a0101h0m8.html",
"pubDate" : "08:41:00",
"enterDate" : "384198:50:15",
"channelId" : "-1432526169963652377",
"channelName" : "IT-新浪博客",
"channelNameSummary" : "IT-新浪博客",
"channelUrl" : "http:\/\/blog.sina.com.cn\/lm\/tech\/",
"author" : "WWW.SINA.COM.CN",
"tags" : [],
"desc" : "",
"emailed" : False,
"forwarded" : False,
"english" : False
} ]
}
