{
"mode" : {"viewTitle" : 1,   "viewNew" : 0,  "pageIndex" : 2 },
 "channel" : {"id" : "-1432526169963652377", "booked" : False, "subNumber" : 1, "name" : "IT-新浪博客", "url" : "http:\/\/blog.sina.com.cn\/lm\/tech\/", "feed" : "http:\/\/rss.sina.com.cn\/blog\/tech\/kj.xml", "author" : "WWW.SINA.COM.CN", "desc" : "IT博客列表", "imageUrl" : "http:\/\/www.sinaimg.cn\/blog\/main\/index2010\/blog_logo.png", "postPerWeek" : "0", "lastCrawTime" : "17:11:25", "crawDateTime" : "15:41:05", "lastHttpCode" : "200"}, "page" : {
"startIndex" : 20,
"totalCount" : 5000,
"pageIndex" : 2,
"lastPage" : 250,
"pageSize" : 20,
"english" :  False },
 "unreadNum" : 0, "shotIndex" : -1,
"articles" : [
{
"index" : 0,
"articleIndex" : "10994",
"favor" :  False ,
     "read" : False,    
"title" : "移动入口竞争白热化：易信力推支付和游戏",
"titleTip" : "移动入口竞争白热化：易信力推支付和游戏",
"titleSummary" : "移动入口竞争白热化：易信力推支付和游戏",
"descSummary" : "",
"url" : "http:\/\/go.rss.sina.com.cn\/redirect.php?url=http:\/\/blog.sina.com.cn\/s\/blog_4ce36ed10101o0po.html",
"pubDate" : "08:40:43",
"enterDate" : "384198:49:58",
"channelId" : "-1432526169963652377",
"channelName" : "IT-新浪博客",
"channelNameSummary" : "IT-新浪博客",
"channelUrl" : "http:\/\/blog.sina.com.cn\/lm\/tech\/",
"author" : "WWW.SINA.COM.CN",
"tags" : [],
"desc" : "",
"emailed" : False,
"forwarded" : False,
"english" : False
}  , {
"index" : 1,
"articleIndex" : "10993",
"favor" :  False ,
     "read" : False,    
"title" : "电子商务是互联网的殊途同归",
"titleTip" : "电子商务是互联网的殊途同归",
"titleSummary" : "电子商务是互联网的殊途同归",
"descSummary" : "",
"url" : "http:\/\/go.rss.sina.com.cn\/redirect.php?url=http:\/\/blog.sina.com.cn\/s\/blog_497635000102e8t0.html",
"pubDate" : "08:19:24",
"enterDate" : "384200:29:14",
"channelId" : "-1432526169963652377",
"channelName" : "IT-新浪博客",
"channelNameSummary" : "IT-新浪博客",
"channelUrl" : "http:\/\/blog.sina.com.cn\/lm\/tech\/",
"author" : "WWW.SINA.COM.CN",
"tags" : [],
"desc" : "",
"emailed" : False,
"forwarded" : False,
"english" : False
}  , {
"index" : 2,
"articleIndex" : "10992",
"favor" :  False ,
     "read" : False,    
"title" : "高收益背后是互联网金融发展之困",
"titleTip" : "高收益背后是互联网金融发展之困",
"titleSummary" : "高收益背后是互联网金融发展之困",
"descSummary" : "",
"url" : "http:\/\/go.rss.sina.com.cn\/redirect.php?url=http:\/\/blog.sina.com.cn\/s\/blog_44fea84d0102ecv2.html",
"pubDate" : "08:18:22",
"enterDate" : "384200:28:12",
"channelId" : "-1432526169963652377",
"channelName" : "IT-新浪博客",
"channelNameSummary" : "IT-新浪博客",
"channelUrl" : "http:\/\/blog.sina.com.cn\/lm\/tech\/",
"author" : "WWW.SINA.COM.CN",
"tags" : [],
"desc" : "",
"emailed" : False,
"forwarded" : False,
"english" : False
}  , {
"index" : 3,
"articleIndex" : "10991",
"favor" :  False ,
     "read" : False,    
"title" : "揭秘腾讯游戏的六星级打法",
"titleTip" : "揭秘腾讯游戏的六星级打法",
"titleSummary" : "揭秘腾讯游戏的六星级打法",
"descSummary" : "",
"url" : "http:\/\/go.rss.sina.com.cn\/redirect.php?url=http:\/\/blog.sina.com.cn\/s\/blog_48b8ec0f0102es0b.html",
"pubDate" : "08:17:25",
"enterDate" : "384200:27:15",
"channelId" : "-1432526169963652377",
"channelName" : "IT-新浪博客",
"channelNameSummary" : "IT-新浪博客",
"channelUrl" : "http:\/\/blog.sina.com.cn\/lm\/tech\/",
"author" : "WWW.SINA.COM.CN",
"tags" : [],
"desc" : "",
"emailed" : False,
"forwarded" : False,
"english" : False
}  , {
"index" : 4,
"articleIndex" : "10990",
"favor" :  False ,
     "read" : False,    
"title" : "完美世界推TV游戏盒子靠谱吗",
"titleTip" : "完美世界推TV游戏盒子靠谱吗",
"titleSummary" : "完美世界推TV游戏盒子靠谱吗",
"descSummary" : "",
"url" : "http:\/\/go.rss.sina.com.cn\/redirect.php?url=http:\/\/blog.sina.com.cn\/s\/blog_bf7f181c0101hxfv.html",
"pubDate" : "08:11:42",
"enterDate" : "384200:21:32",
"channelId" : "-1432526169963652377",
"channelName" : "IT-新浪博客",
"channelNameSummary" : "IT-新浪博客",
"channelUrl" : "http:\/\/blog.sina.com.cn\/lm\/tech\/",
"author" : "WWW.SINA.COM.CN",
"tags" : [],
"desc" : "",
"emailed" : False,
"forwarded" : False,
"english" : False
}  , {
"index" : 5,
"articleIndex" : "10989",
"favor" :  False ,
     "read" : False,    
"title" : "赢在中国蓝天碧水间：安全座椅幕后揭密",
"titleTip" : "赢在中国蓝天碧水间：安全座椅幕后揭密",
"titleSummary" : "赢在中国蓝天碧水间：安全座椅幕后揭密",
"descSummary" : "",
"url" : "http:\/\/go.rss.sina.com.cn\/redirect.php?url=http:\/\/blog.sina.com.cn\/s\/blog_665b46560101fown.html",
"pubDate" : "昨天14:36:33",
"enterDate" : "384199:49:28",
"channelId" : "-1432526169963652377",
"channelName" : "IT-新浪博客",
"channelNameSummary" : "IT-新浪博客",
"channelUrl" : "http:\/\/blog.sina.com.cn\/lm\/tech\/",
"author" : "WWW.SINA.COM.CN",
"tags" : [],
"desc" : "",
"emailed" : False,
"forwarded" : False,
"english" : False
}  , {
"index" : 6,
"articleIndex" : "10988",
"favor" :  False ,
     "read" : False,    
"title" : "小分子水真能包治百病吗",
"titleTip" : "小分子水真能包治百病吗",
"titleSummary" : "小分子水真能包治百病吗",
"descSummary" : "",
"url" : "http:\/\/go.rss.sina.com.cn\/redirect.php?url=http:\/\/blog.sina.com.cn\/s\/blog_5b2b70620101hv36.html",
"pubDate" : "昨天14:33:35",
"enterDate" : "384199:46:30",
"channelId" : "-1432526169963652377",
"channelName" : "IT-新浪博客",
"channelNameSummary" : "IT-新浪博客",
"channelUrl" : "http:\/\/blog.sina.com.cn\/lm\/tech\/",
"author" : "WWW.SINA.COM.CN",
"tags" : [],
"desc" : "",
"emailed" : False,
"forwarded" : False,
"english" : False
}  , {
"index" : 7,
"articleIndex" : "10987",
"favor" :  False ,
     "read" : False,    
"title" : "百度理财即将推出后续产品",
"titleTip" : "百度理财即将推出后续产品",
"titleSummary" : "百度理财即将推出后续产品",
"descSummary" : "",
"url" : "http:\/\/go.rss.sina.com.cn\/redirect.php?url=http:\/\/blog.sina.com.cn\/s\/blog_442fed3c0101djye.html",
"pubDate" : "昨天14:26:02",
"enterDate" : "384199:38:57",
"channelId" : "-1432526169963652377",
"channelName" : "IT-新浪博客",
"channelNameSummary" : "IT-新浪博客",
"channelUrl" : "http:\/\/blog.sina.com.cn\/lm\/tech\/",
"author" : "WWW.SINA.COM.CN",
"tags" : [],
"desc" : "",
"emailed" : False,
"forwarded" : False,
"english" : False
}  , {
"index" : 8,
"articleIndex" : "10986",
"favor" :  False ,
     "read" : False,    
"title" : "手机游戏并购频繁：端游发展遇困",
"titleTip" : "手机游戏并购频繁：端游发展遇困",
"titleSummary" : "手机游戏并购频繁：端游发展遇困",
"descSummary" : "",
"url" : "http:\/\/go.rss.sina.com.cn\/redirect.php?url=http:\/\/blog.sina.com.cn\/s\/blog_88acd9c80101hwkx.html",
"pubDate" : "昨天14:20:44",
"enterDate" : "384199:33:39",
"channelId" : "-1432526169963652377",
"channelName" : "IT-新浪博客",
"channelNameSummary" : "IT-新浪博客",
"channelUrl" : "http:\/\/blog.sina.com.cn\/lm\/tech\/",
"author" : "WWW.SINA.COM.CN",
"tags" : [],
"desc" : "",
"emailed" : False,
"forwarded" : False,
"english" : False
}  , {
"index" : 9,
"articleIndex" : "10985",
"favor" :  False ,
     "read" : False,    
"title" : "双十一在即：电商猫狗大战一触即发",
"titleTip" : "双十一在即：电商猫狗大战一触即发",
"titleSummary" : "双十一在即：电商猫狗大战一触即发",
"descSummary" : "",
"url" : "http:\/\/go.rss.sina.com.cn\/redirect.php?url=http:\/\/blog.sina.com.cn\/s\/blog_47764b470102e8kn.html",
"pubDate" : "昨天13:56:58",
"enterDate" : "384199:09:53",
"channelId" : "-1432526169963652377",
"channelName" : "IT-新浪博客",
"channelNameSummary" : "IT-新浪博客",
"channelUrl" : "http:\/\/blog.sina.com.cn\/lm\/tech\/",
"author" : "WWW.SINA.COM.CN",
"tags" : [],
"desc" : "",
"emailed" : False,
"forwarded" : False,
"english" : False
}  , {
"index" : 10,
"articleIndex" : "10984",
"favor" :  False ,
     "read" : False,    
"title" : "苏宁的\u201C坑\u201D与PPTV的\u201C锅\u201D",
"titleTip" : "苏宁的\u201C坑\u201D与PPTV的\u201C锅\u201D",
"titleSummary" : "苏宁的\u201C坑\u201D与PPTV的\u201C锅\u201D",
"descSummary" : "",
"url" : "http:\/\/go.rss.sina.com.cn\/redirect.php?url=http:\/\/blog.sina.com.cn\/s\/blog_56c35a550102e5br.html",
"pubDate" : "昨天13:51:42",
"enterDate" : "384199:04:37",
"channelId" : "-1432526169963652377",
"channelName" : "IT-新浪博客",
"channelNameSummary" : "IT-新浪博客",
"channelUrl" : "http:\/\/blog.sina.com.cn\/lm\/tech\/",
"author" : "WWW.SINA.COM.CN",
"tags" : [],
"desc" : "",
"emailed" : False,
"forwarded" : False,
"english" : False
}  , {
"index" : 11,
"articleIndex" : "10983",
"favor" :  False ,
     "read" : False,    
"title" : "4G时代流量经营的主要特点",
"titleTip" : "4G时代流量经营的主要特点",
"titleSummary" : "4G时代流量经营的主要特点",
"descSummary" : "",
"url" : "http:\/\/go.rss.sina.com.cn\/redirect.php?url=http:\/\/blog.sina.com.cn\/s\/blog_497635000102e8s7.html",
"pubDate" : "昨天11:15:20",
"enterDate" : "384200:28:54",
"channelId" : "-1432526169963652377",
"channelName" : "IT-新浪博客",
"channelNameSummary" : "IT-新浪博客",
"channelUrl" : "http:\/\/blog.sina.com.cn\/lm\/tech\/",
"author" : "WWW.SINA.COM.CN",
"tags" : [],
"desc" : "",
"emailed" : False,
"forwarded" : False,
"english" : False
}  , {
"index" : 12,
"articleIndex" : "10982",
"favor" :  False ,
     "read" : False,    
"title" : "新浪：重新定义门户",
"titleTip" : "新浪：重新定义门户",
"titleSummary" : "新浪：重新定义门户",
"descSummary" : "",
"url" : "http:\/\/go.rss.sina.com.cn\/redirect.php?url=http:\/\/blog.sina.com.cn\/s\/blog_4b70fc620101p7g3.html",
"pubDate" : "昨天11:09:28",
"enterDate" : "384200:23:02",
"channelId" : "-1432526169963652377",
"channelName" : "IT-新浪博客",
"channelNameSummary" : "IT-新浪博客",
"channelUrl" : "http:\/\/blog.sina.com.cn\/lm\/tech\/",
"author" : "WWW.SINA.COM.CN",
"tags" : [],
"desc" : "",
"emailed" : False,
"forwarded" : False,
"english" : False
}  , {
"index" : 13,
"articleIndex" : "10981",
"favor" :  False ,
     "read" : False,    
"title" : "iPhone 5s升级iOS7.0.3存在哪些问题",
"titleTip" : "iPhone 5s升级iOS7.0.3存在哪些问题",
"titleSummary" : "iPhone 5s升级iOS7.0.3存在哪些问题",
"descSummary" : "",
"url" : "http:\/\/go.rss.sina.com.cn\/redirect.php?url=http:\/\/blog.sina.com.cn\/s\/blog_74f50ee70101eq7p.html",
"pubDate" : "昨天11:02:54",
"enterDate" : "384200:16:28",
"channelId" : "-1432526169963652377",
"channelName" : "IT-新浪博客",
"channelNameSummary" : "IT-新浪博客",
"channelUrl" : "http:\/\/blog.sina.com.cn\/lm\/tech\/",
"author" : "WWW.SINA.COM.CN",
"tags" : [],
"desc" : "",
"emailed" : False,
"forwarded" : False,
"english" : False
}  , {
"index" : 14,
"articleIndex" : "10980",
"favor" :  False ,
     "read" : False,    
"title" : "被严重低估的微信支付",
"titleTip" : "被严重低估的微信支付",
"titleSummary" : "被严重低估的微信支付",
"descSummary" : "",
"url" : "http:\/\/go.rss.sina.com.cn\/redirect.php?url=http:\/\/blog.sina.com.cn\/s\/blog_7d038a3b0101hf3f.html",
"pubDate" : "昨天11:01:47",
"enterDate" : "384200:15:21",
"channelId" : "-1432526169963652377",
"channelName" : "IT-新浪博客",
"channelNameSummary" : "IT-新浪博客",
"channelUrl" : "http:\/\/blog.sina.com.cn\/lm\/tech\/",
"author" : "WWW.SINA.COM.CN",
"tags" : [],
"desc" : "",
"emailed" : False,
"forwarded" : False,
"english" : False
}  , {
"index" : 15,
"articleIndex" : "10979",
"favor" :  False ,
     "read" : False,    
"title" : "苏宁为何与PPTV牵手成功",
"titleTip" : "苏宁为何与PPTV牵手成功",
"titleSummary" : "苏宁为何与PPTV牵手成功",
"descSummary" : "",
"url" : "http:\/\/go.rss.sina.com.cn\/redirect.php?url=http:\/\/blog.sina.com.cn\/s\/blog_6ec2431a0101h01n.html",
"pubDate" : "昨天10:54:57",
"enterDate" : "384200:08:31",
"channelId" : "-1432526169963652377",
"channelName" : "IT-新浪博客",
"channelNameSummary" : "IT-新浪博客",
"channelUrl" : "http:\/\/blog.sina.com.cn\/lm\/tech\/",
"author" : "WWW.SINA.COM.CN",
"tags" : [],
"desc" : "",
"emailed" : False,
"forwarded" : False,
"english" : False
}  , {
"index" : 16,
"articleIndex" : "10978",
"favor" :  False ,
     "read" : False,    
"title" : "余额宝与百度百发的区别与优势",
"titleTip" : "余额宝与百度百发的区别与优势",
"titleSummary" : "余额宝与百度百发的区别与优势",
"descSummary" : "",
"url" : "http:\/\/go.rss.sina.com.cn\/redirect.php?url=http:\/\/blog.sina.com.cn\/s\/blog_d22ebc8d0101nfar.html",
"pubDate" : "昨天10:37:11",
"enterDate" : "384200:50:54",
"channelId" : "-1432526169963652377",
"channelName" : "IT-新浪博客",
"channelNameSummary" : "IT-新浪博客",
"channelUrl" : "http:\/\/blog.sina.com.cn\/lm\/tech\/",
"author" : "WWW.SINA.COM.CN",
"tags" : [],
"desc" : "",
"emailed" : False,
"forwarded" : False,
"english" : False
}  , {
"index" : 17,
"articleIndex" : "10977",
"favor" :  False ,
     "read" : False,    
"title" : "PPTV闹剧终结束：苏宁入局看视频",
"titleTip" : "PPTV闹剧终结束：苏宁入局看视频",
"titleSummary" : "PPTV闹剧终结束：苏宁入局看视频",
"descSummary" : "",
"url" : "http:\/\/go.rss.sina.com.cn\/redirect.php?url=http:\/\/blog.sina.com.cn\/s\/blog_7d608bfa0101fck6.html",
"pubDate" : "昨天10:17:14",
"enterDate" : "384200:30:57",
"channelId" : "-1432526169963652377",
"channelName" : "IT-新浪博客",
"channelNameSummary" : "IT-新浪博客",
"channelUrl" : "http:\/\/blog.sina.com.cn\/lm\/tech\/",
"author" : "WWW.SINA.COM.CN",
"tags" : [],
"desc" : "",
"emailed" : False,
"forwarded" : False,
"english" : False
}  , {
"index" : 18,
"articleIndex" : "10976",
"favor" :  False ,
     "read" : False,    
"title" : "维基百科衰落：UGC模式如何破局",
"titleTip" : "维基百科衰落：UGC模式如何破局",
"titleSummary" : "维基百科衰落：UGC模式如何破局",
"descSummary" : "",
"url" : "http:\/\/go.rss.sina.com.cn\/redirect.php?url=http:\/\/blog.sina.com.cn\/s\/blog_6c99e2340101n0jh.html",
"pubDate" : "昨天10:15:57",
"enterDate" : "384200:29:40",
"channelId" : "-1432526169963652377",
"channelName" : "IT-新浪博客",
"channelNameSummary" : "IT-新浪博客",
"channelUrl" : "http:\/\/blog.sina.com.cn\/lm\/tech\/",
"author" : "WWW.SINA.COM.CN",
"tags" : [],
"desc" : "",
"emailed" : False,
"forwarded" : False,
"english" : False
}  , {
"index" : 19,
"articleIndex" : "10975",
"favor" :  False ,
     "read" : False,    
"title" : "华谊兄弟王中军大话：不减持华谊股票",
"titleTip" : "华谊兄弟王中军大话：不减持华谊股票",
"titleSummary" : "华谊兄弟王中军大话：不减持华谊股票",
"descSummary" : "",
"url" : "http:\/\/go.rss.sina.com.cn\/redirect.php?url=http:\/\/blog.sina.com.cn\/s\/blog_538fa7900101b1r7.html",
"pubDate" : "昨天10:01:40",
"enterDate" : "384200:15:23",
"channelId" : "-1432526169963652377",
"channelName" : "IT-新浪博客",
"channelNameSummary" : "IT-新浪博客",
"channelUrl" : "http:\/\/blog.sina.com.cn\/lm\/tech\/",
"author" : "WWW.SINA.COM.CN",
"tags" : [],
"desc" : "",
"emailed" : False,
"forwarded" : False,
"english" : False
} ]
}
