{
"mode" : {"viewTitle" : 1,   "viewNew" : 0,  "pageIndex" : 1 },
 "channel" : {"id" : "-4731591433204727374", "booked" : False, "subNumber" : 1, "name" : "房产-新浪博客", "url" : "http:\/\/blog.sina.com.cn\/lm\/house\/", "feed" : "http:\/\/rss.sina.com.cn\/blog\/house\/fc.xml", "author" : "WWW.SINA.COM.CN", "desc" : "房产博客列表", "imageUrl" : "http:\/\/www.sinaimg.cn\/blog\/main\/index2010\/blog_logo.png", "postPerWeek" : "0", "lastCrawTime" : "前天16:13:00", "crawDateTime" : "前天15:42:55", "lastHttpCode" : "10001"}, "page" : {
"startIndex" : 0,
"totalCount" : 5000,
"pageIndex" : 1,
"lastPage" : 250,
"pageSize" : 20,
"english" :  False },
 "unreadNum" : 0, "shotIndex" : -1,
"articles" : [
{
"index" : 0,
"articleIndex" : "29076",
"favor" :  False ,
     "read" : False,    
"title" : "京7条难以遏制房价上涨的6个理由",
"titleTip" : "京7条难以遏制房价上涨的6个理由",
"titleSummary" : "京7条难以遏制房价上涨的6个理由",
"descSummary" : "",
"url" : "http:\/\/go.rss.sina.com.cn\/redirect.php?url=http:\/\/blog.sina.com.cn\/s\/blog_490280f90102ea3u.html",
"pubDate" : "前天11:11:23",
"enterDate" : "384200:33:43",
"channelId" : "-4731591433204727374",
"channelName" : "房产-新浪博客",
"channelNameSummary" : "房产-新浪博客",
"channelUrl" : "http:\/\/blog.sina.com.cn\/lm\/house\/",
"author" : "WWW.SINA.COM.CN",
"tags" : [],
"desc" : "",
"emailed" : False,
"forwarded" : False,
"english" : False
}  , {
"index" : 1,
"articleIndex" : "29075",
"favor" :  False ,
     "read" : False,    
"title" : "商业地产的多元化陷阱",
"titleTip" : "商业地产的多元化陷阱",
"titleSummary" : "商业地产的多元化陷阱",
"descSummary" : "",
"url" : "http:\/\/go.rss.sina.com.cn\/redirect.php?url=http:\/\/blog.sina.com.cn\/s\/blog_59f5a0d00101asvu.html",
"pubDate" : "前天11:11:04",
"enterDate" : "384200:33:24",
"channelId" : "-4731591433204727374",
"channelName" : "房产-新浪博客",
"channelNameSummary" : "房产-新浪博客",
"channelUrl" : "http:\/\/blog.sina.com.cn\/lm\/house\/",
"author" : "WWW.SINA.COM.CN",
"tags" : [],
"desc" : "",
"emailed" : False,
"forwarded" : False,
"english" : False
}  , {
"index" : 2,
"articleIndex" : "29074",
"favor" :  False ,
     "read" : False,    
"title" : "房价上涨的真正幕后黑手",
"titleTip" : "房价上涨的真正幕后黑手",
"titleSummary" : "房价上涨的真正幕后黑手",
"descSummary" : "",
"url" : "http:\/\/go.rss.sina.com.cn\/redirect.php?url=http:\/\/blog.sina.com.cn\/s\/blog_4c4fd3070102elsa.html",
"pubDate" : "前天11:11:01",
"enterDate" : "384200:33:21",
"channelId" : "-4731591433204727374",
"channelName" : "房产-新浪博客",
"channelNameSummary" : "房产-新浪博客",
"channelUrl" : "http:\/\/blog.sina.com.cn\/lm\/house\/",
"author" : "WWW.SINA.COM.CN",
"tags" : [],
"desc" : "",
"emailed" : False,
"forwarded" : False,
"english" : False
}  , {
"index" : 3,
"articleIndex" : "29073",
"favor" :  False ,
     "read" : False,    
"title" : "调控不缺政策 缺的是执行力",
"titleTip" : "调控不缺政策 缺的是执行力",
"titleSummary" : "调控不缺政策 缺的是执行力",
"descSummary" : "",
"url" : "http:\/\/go.rss.sina.com.cn\/redirect.php?url=http:\/\/blog.sina.com.cn\/s\/blog_6e1979cf0102eah6.html",
"pubDate" : "前天11:10:58",
"enterDate" : "384200:33:18",
"channelId" : "-4731591433204727374",
"channelName" : "房产-新浪博客",
"channelNameSummary" : "房产-新浪博客",
"channelUrl" : "http:\/\/blog.sina.com.cn\/lm\/house\/",
"author" : "WWW.SINA.COM.CN",
"tags" : [],
"desc" : "",
"emailed" : False,
"forwarded" : False,
"english" : False
}  , {
"index" : 4,
"articleIndex" : "29072",
"favor" :  False ,
     "read" : False,    
"title" : "房地产调控困守笼中",
"titleTip" : "房地产调控困守笼中",
"titleSummary" : "房地产调控困守笼中",
"descSummary" : "",
"url" : "http:\/\/go.rss.sina.com.cn\/redirect.php?url=http:\/\/blog.sina.com.cn\/s\/blog_49818dcb0102fk3x.html",
"pubDate" : "前天11:02:38",
"enterDate" : "384200:24:58",
"channelId" : "-4731591433204727374",
"channelName" : "房产-新浪博客",
"channelNameSummary" : "房产-新浪博客",
"channelUrl" : "http:\/\/blog.sina.com.cn\/lm\/house\/",
"author" : "WWW.SINA.COM.CN",
"tags" : [],
"desc" : "",
"emailed" : False,
"forwarded" : False,
"english" : False
}  , {
"index" : 5,
"articleIndex" : "29071",
"favor" :  False ,
     "read" : False,    
"title" : "宏观经济还靠投资唱大戏",
"titleTip" : "宏观经济还靠投资唱大戏",
"titleSummary" : "宏观经济还靠投资唱大戏",
"descSummary" : "",
"url" : "http:\/\/go.rss.sina.com.cn\/redirect.php?url=http:\/\/blog.sina.com.cn\/s\/blog_48e8c6940102eb10.html",
"pubDate" : "2013年10月25日 (5天前)",
"enterDate" : "384200:35:09",
"channelId" : "-4731591433204727374",
"channelName" : "房产-新浪博客",
"channelNameSummary" : "房产-新浪博客",
"channelUrl" : "http:\/\/blog.sina.com.cn\/lm\/house\/",
"author" : "WWW.SINA.COM.CN",
"tags" : [],
"desc" : "",
"emailed" : False,
"forwarded" : False,
"english" : False
}  , {
"index" : 6,
"articleIndex" : "29070",
"favor" :  False ,
     "read" : False,    
"title" : "谈房屋征收与补偿的制度设计",
"titleTip" : "谈房屋征收与补偿的制度设计",
"titleSummary" : "谈房屋征收与补偿的制度设计",
"descSummary" : "",
"url" : "http:\/\/go.rss.sina.com.cn\/redirect.php?url=http:\/\/blog.sina.com.cn\/s\/blog_5377f8f70101olfg.html",
"pubDate" : "2013年10月25日 (5天前)",
"enterDate" : "384200:34:58",
"channelId" : "-4731591433204727374",
"channelName" : "房产-新浪博客",
"channelNameSummary" : "房产-新浪博客",
"channelUrl" : "http:\/\/blog.sina.com.cn\/lm\/house\/",
"author" : "WWW.SINA.COM.CN",
"tags" : [],
"desc" : "",
"emailed" : False,
"forwarded" : False,
"english" : False
}  , {
"index" : 7,
"articleIndex" : "29069",
"favor" :  False ,
     "read" : False,    
"title" : "小产权房必然合法化6大原因",
"titleTip" : "小产权房必然合法化6大原因",
"titleSummary" : "小产权房必然合法化6大原因",
"descSummary" : "",
"url" : "http:\/\/go.rss.sina.com.cn\/redirect.php?url=http:\/\/blog.sina.com.cn\/s\/blog_48f319170102e8sz.html",
"pubDate" : "2013年10月25日 (5天前)",
"enterDate" : "384200:34:54",
"channelId" : "-4731591433204727374",
"channelName" : "房产-新浪博客",
"channelNameSummary" : "房产-新浪博客",
"channelUrl" : "http:\/\/blog.sina.com.cn\/lm\/house\/",
"author" : "WWW.SINA.COM.CN",
"tags" : [],
"desc" : "",
"emailed" : False,
"forwarded" : False,
"english" : False
}  , {
"index" : 8,
"articleIndex" : "29068",
"favor" :  False ,
     "read" : False,    
"title" : "京七条给北京楼市一针兴奋剂",
"titleTip" : "京七条给北京楼市一针兴奋剂",
"titleSummary" : "京七条给北京楼市一针兴奋剂",
"descSummary" : "",
"url" : "http:\/\/go.rss.sina.com.cn\/redirect.php?url=http:\/\/blog.sina.com.cn\/s\/blog_561231ae0102eg7c.html",
"pubDate" : "2013年10月25日 (5天前)",
"enterDate" : "384200:34:51",
"channelId" : "-4731591433204727374",
"channelName" : "房产-新浪博客",
"channelNameSummary" : "房产-新浪博客",
"channelUrl" : "http:\/\/blog.sina.com.cn\/lm\/house\/",
"author" : "WWW.SINA.COM.CN",
"tags" : [],
"desc" : "",
"emailed" : False,
"forwarded" : False,
"english" : False
}  , {
"index" : 9,
"articleIndex" : "29067",
"favor" :  False ,
     "read" : False,    
"title" : "席勒说中国楼市泡沫 很傻很天真",
"titleTip" : "席勒说中国楼市泡沫 很傻很天真",
"titleSummary" : "席勒说中国楼市泡沫 很傻很天真",
"descSummary" : "",
"url" : "http:\/\/go.rss.sina.com.cn\/redirect.php?url=http:\/\/blog.sina.com.cn\/s\/blog_62a8a4160102e4wy.html",
"pubDate" : "2013年10月25日 (5天前)",
"enterDate" : "384200:34:48",
"channelId" : "-4731591433204727374",
"channelName" : "房产-新浪博客",
"channelNameSummary" : "房产-新浪博客",
"channelUrl" : "http:\/\/blog.sina.com.cn\/lm\/house\/",
"author" : "WWW.SINA.COM.CN",
"tags" : [],
"desc" : "",
"emailed" : False,
"forwarded" : False,
"english" : False
}  , {
"index" : 10,
"articleIndex" : "29066",
"favor" :  False ,
     "read" : False,    
"title" : "自住型商品住房不是福利房",
"titleTip" : "自住型商品住房不是福利房",
"titleSummary" : "自住型商品住房不是福利房",
"descSummary" : "",
"url" : "http:\/\/go.rss.sina.com.cn\/redirect.php?url=http:\/\/blog.sina.com.cn\/s\/blog_561231ae0102eg6q.html",
"pubDate" : "2013年10月24日 (6天前)",
"enterDate" : "384200:09:50",
"channelId" : "-4731591433204727374",
"channelName" : "房产-新浪博客",
"channelNameSummary" : "房产-新浪博客",
"channelUrl" : "http:\/\/blog.sina.com.cn\/lm\/house\/",
"author" : "WWW.SINA.COM.CN",
"tags" : [],
"desc" : "",
"emailed" : False,
"forwarded" : False,
"english" : False
}  , {
"index" : 11,
"articleIndex" : "29065",
"favor" :  False ,
     "read" : False,    
"title" : "我国房地产市场分化的原因",
"titleTip" : "我国房地产市场分化的原因",
"titleSummary" : "我国房地产市场分化的原因",
"descSummary" : "",
"url" : "http:\/\/go.rss.sina.com.cn\/redirect.php?url=http:\/\/blog.sina.com.cn\/s\/blog_5377f8f70101okfq.html",
"pubDate" : "2013年10月24日 (6天前)",
"enterDate" : "384200:09:34",
"channelId" : "-4731591433204727374",
"channelName" : "房产-新浪博客",
"channelNameSummary" : "房产-新浪博客",
"channelUrl" : "http:\/\/blog.sina.com.cn\/lm\/house\/",
"author" : "WWW.SINA.COM.CN",
"tags" : [],
"desc" : "",
"emailed" : False,
"forwarded" : False,
"english" : False
}  , {
"index" : 12,
"articleIndex" : "29064",
"favor" :  False ,
     "read" : False,    
"title" : "北京自住型商品房估计销路不太好",
"titleTip" : "北京自住型商品房估计销路不太好",
"titleSummary" : "北京自住型商品房估计销路不太好",
"descSummary" : "",
"url" : "http:\/\/go.rss.sina.com.cn\/redirect.php?url=http:\/\/blog.sina.com.cn\/s\/blog_49818dcb0102fjyg.html",
"pubDate" : "2013年10月24日 (6天前)",
"enterDate" : "384200:09:26",
"channelId" : "-4731591433204727374",
"channelName" : "房产-新浪博客",
"channelNameSummary" : "房产-新浪博客",
"channelUrl" : "http:\/\/blog.sina.com.cn\/lm\/house\/",
"author" : "WWW.SINA.COM.CN",
"tags" : [],
"desc" : "",
"emailed" : False,
"forwarded" : False,
"english" : False
}  , {
"index" : 13,
"articleIndex" : "29063",
"favor" :  False ,
     "read" : False,    
"title" : "自住型商品房的三大积极意义",
"titleTip" : "自住型商品房的三大积极意义",
"titleSummary" : "自住型商品房的三大积极意义",
"descSummary" : "",
"url" : "http:\/\/go.rss.sina.com.cn\/redirect.php?url=http:\/\/blog.sina.com.cn\/s\/blog_3e4237e10102ehin.html",
"pubDate" : "2013年10月24日 (6天前)",
"enterDate" : "384200:09:10",
"channelId" : "-4731591433204727374",
"channelName" : "房产-新浪博客",
"channelNameSummary" : "房产-新浪博客",
"channelUrl" : "http:\/\/blog.sina.com.cn\/lm\/house\/",
"author" : "WWW.SINA.COM.CN",
"tags" : [],
"desc" : "",
"emailed" : False,
"forwarded" : False,
"english" : False
}  , {
"index" : 14,
"articleIndex" : "29062",
"favor" :  False ,
     "read" : False,    
"title" : "\u201C京7条\u201D是在忽悠谁",
"titleTip" : "\u201C京7条\u201D是在忽悠谁",
"titleSummary" : "\u201C京7条\u201D是在忽悠谁",
"descSummary" : "",
"url" : "http:\/\/go.rss.sina.com.cn\/redirect.php?url=http:\/\/blog.sina.com.cn\/s\/blog_4c4fd3070102elpy.html",
"pubDate" : "2013年10月24日 (6天前)",
"enterDate" : "384200:09:08",
"channelId" : "-4731591433204727374",
"channelName" : "房产-新浪博客",
"channelNameSummary" : "房产-新浪博客",
"channelUrl" : "http:\/\/blog.sina.com.cn\/lm\/house\/",
"author" : "WWW.SINA.COM.CN",
"tags" : [],
"desc" : "",
"emailed" : False,
"forwarded" : False,
"english" : False
}  , {
"index" : 15,
"articleIndex" : "29061",
"favor" :  False ,
     "read" : False,    
"title" : "钱荒蔓延\u201C等贷族\u201D伤不起",
"titleTip" : "钱荒蔓延\u201C等贷族\u201D伤不起",
"titleSummary" : "钱荒蔓延\u201C等贷族\u201D伤不起",
"descSummary" : "",
"url" : "http:\/\/go.rss.sina.com.cn\/redirect.php?url=http:\/\/blog.sina.com.cn\/s\/blog_53ac84b70102ekul.html",
"pubDate" : "2013年10月23日 (1周前)",
"enterDate" : "384200:25:19",
"channelId" : "-4731591433204727374",
"channelName" : "房产-新浪博客",
"channelNameSummary" : "房产-新浪博客",
"channelUrl" : "http:\/\/blog.sina.com.cn\/lm\/house\/",
"author" : "WWW.SINA.COM.CN",
"tags" : [],
"desc" : "",
"emailed" : False,
"forwarded" : False,
"english" : False
}  , {
"index" : 16,
"articleIndex" : "29060",
"favor" :  False ,
     "read" : False,    
"title" : "房价上涨到令人绝望",
"titleTip" : "房价上涨到令人绝望",
"titleSummary" : "房价上涨到令人绝望",
"descSummary" : "",
"url" : "http:\/\/go.rss.sina.com.cn\/redirect.php?url=http:\/\/blog.sina.com.cn\/s\/blog_49818dcb0102fjub.html",
"pubDate" : "2013年10月23日 (1周前)",
"enterDate" : "384200:25:10",
"channelId" : "-4731591433204727374",
"channelName" : "房产-新浪博客",
"channelNameSummary" : "房产-新浪博客",
"channelUrl" : "http:\/\/blog.sina.com.cn\/lm\/house\/",
"author" : "WWW.SINA.COM.CN",
"tags" : [],
"desc" : "",
"emailed" : False,
"forwarded" : False,
"english" : False
}  , {
"index" : 17,
"articleIndex" : "29059",
"favor" :  False ,
     "read" : False,    
"title" : "调控楼市不能使蛮劲儿",
"titleTip" : "调控楼市不能使蛮劲儿",
"titleSummary" : "调控楼市不能使蛮劲儿",
"descSummary" : "",
"url" : "http:\/\/go.rss.sina.com.cn\/redirect.php?url=http:\/\/blog.sina.com.cn\/s\/blog_48f783610102ef1t.html",
"pubDate" : "2013年10月23日 (1周前)",
"enterDate" : "384200:15:46",
"channelId" : "-4731591433204727374",
"channelName" : "房产-新浪博客",
"channelNameSummary" : "房产-新浪博客",
"channelUrl" : "http:\/\/blog.sina.com.cn\/lm\/house\/",
"author" : "WWW.SINA.COM.CN",
"tags" : [],
"desc" : "",
"emailed" : False,
"forwarded" : False,
"english" : False
}  , {
"index" : 18,
"articleIndex" : "29058",
"favor" :  False ,
     "read" : False,    
"title" : "房价\u201C维稳\u201D谈何容易",
"titleTip" : "房价\u201C维稳\u201D谈何容易",
"titleSummary" : "房价\u201C维稳\u201D谈何容易",
"descSummary" : "",
"url" : "http:\/\/go.rss.sina.com.cn\/redirect.php?url=http:\/\/blog.sina.com.cn\/s\/blog_477a70710101ruq1.html",
"pubDate" : "2013年10月22日 (1周前)",
"enterDate" : "384200:12:38",
"channelId" : "-4731591433204727374",
"channelName" : "房产-新浪博客",
"channelNameSummary" : "房产-新浪博客",
"channelUrl" : "http:\/\/blog.sina.com.cn\/lm\/house\/",
"author" : "WWW.SINA.COM.CN",
"tags" : [],
"desc" : "",
"emailed" : False,
"forwarded" : False,
"english" : False
}  , {
"index" : 19,
"articleIndex" : "29057",
"favor" :  False ,
     "read" : False,    
"title" : "疯狂楼市暗藏杀机",
"titleTip" : "疯狂楼市暗藏杀机",
"titleSummary" : "疯狂楼市暗藏杀机",
"descSummary" : "",
"url" : "http:\/\/go.rss.sina.com.cn\/redirect.php?url=http:\/\/blog.sina.com.cn\/s\/blog_4c4fd3070102elni.html",
"pubDate" : "2013年10月22日 (1周前)",
"enterDate" : "384200:12:33",
"channelId" : "-4731591433204727374",
"channelName" : "房产-新浪博客",
"channelNameSummary" : "房产-新浪博客",
"channelUrl" : "http:\/\/blog.sina.com.cn\/lm\/house\/",
"author" : "WWW.SINA.COM.CN",
"tags" : [],
"desc" : "",
"emailed" : False,
"forwarded" : False,
"english" : False
} ]
}
