{
"mode" : {"viewTitle" : 1,   "viewNew" : 0,  "pageIndex" : 2 },
 "channel" : {"id" : "-4731591433204727374", "booked" : False, "subNumber" : 1, "name" : "房产-新浪博客", "url" : "http:\/\/blog.sina.com.cn\/lm\/house\/", "feed" : "http:\/\/rss.sina.com.cn\/blog\/house\/fc.xml", "author" : "WWW.SINA.COM.CN", "desc" : "房产博客列表", "imageUrl" : "http:\/\/www.sinaimg.cn\/blog\/main\/index2010\/blog_logo.png", "postPerWeek" : "0", "lastCrawTime" : "前天16:13:00", "crawDateTime" : "前天15:42:55", "lastHttpCode" : "10001"}, "page" : {
"startIndex" : 20,
"totalCount" : 5000,
"pageIndex" : 2,
"lastPage" : 250,
"pageSize" : 20,
"english" :  False },
 "unreadNum" : 0, "shotIndex" : -1,
"articles" : [
{
"index" : 0,
"articleIndex" : "29056",
"favor" :  False ,
     "read" : False,    
"title" : "扎克伯格博弈开发商的启示",
"titleTip" : "扎克伯格博弈开发商的启示",
"titleSummary" : "扎克伯格博弈开发商的启示",
"descSummary" : "",
"url" : "http:\/\/go.rss.sina.com.cn\/redirect.php?url=http:\/\/blog.sina.com.cn\/s\/blog_5377f8f70101oihb.html",
"pubDate" : "2013年10月22日 (1周前)",
"enterDate" : "384200:12:30",
"channelId" : "-4731591433204727374",
"channelName" : "房产-新浪博客",
"channelNameSummary" : "房产-新浪博客",
"channelUrl" : "http:\/\/blog.sina.com.cn\/lm\/house\/",
"author" : "WWW.SINA.COM.CN",
"tags" : [],
"desc" : "",
"emailed" : False,
"forwarded" : False,
"english" : False
}  , {
"index" : 1,
"articleIndex" : "29055",
"favor" :  False ,
     "read" : False,    
"title" : "席勒关于中国房价的判断是错误的",
"titleTip" : "席勒关于中国房价的判断是错误的",
"titleSummary" : "席勒关于中国房价的判断是错误的",
"descSummary" : "",
"url" : "http:\/\/go.rss.sina.com.cn\/redirect.php?url=http:\/\/blog.sina.com.cn\/s\/blog_48f783610102ef11.html",
"pubDate" : "2013年10月22日 (1周前)",
"enterDate" : "384200:10:46",
"channelId" : "-4731591433204727374",
"channelName" : "房产-新浪博客",
"channelNameSummary" : "房产-新浪博客",
"channelUrl" : "http:\/\/blog.sina.com.cn\/lm\/house\/",
"author" : "WWW.SINA.COM.CN",
"tags" : [],
"desc" : "",
"emailed" : False,
"forwarded" : False,
"english" : False
}  , {
"index" : 2,
"articleIndex" : "29054",
"favor" :  False ,
     "read" : False,    
"title" : "中国房价绝不会下跌的19个理由",
"titleTip" : "中国房价绝不会下跌的19个理由",
"titleSummary" : "中国房价绝不会下跌的19个理由",
"descSummary" : "",
"url" : "http:\/\/go.rss.sina.com.cn\/redirect.php?url=http:\/\/blog.sina.com.cn\/s\/blog_5b9e87620101hdg4.html",
"pubDate" : "2013年10月21日 (1周前)",
"enterDate" : "384200:36:42",
"channelId" : "-4731591433204727374",
"channelName" : "房产-新浪博客",
"channelNameSummary" : "房产-新浪博客",
"channelUrl" : "http:\/\/blog.sina.com.cn\/lm\/house\/",
"author" : "WWW.SINA.COM.CN",
"tags" : [],
"desc" : "",
"emailed" : False,
"forwarded" : False,
"english" : False
}  , {
"index" : 3,
"articleIndex" : "29053",
"favor" :  False ,
     "read" : False,    
"title" : "集体土地制度改革是调控试金石",
"titleTip" : "集体土地制度改革是调控试金石",
"titleSummary" : "集体土地制度改革是调控试金石",
"descSummary" : "",
"url" : "http:\/\/go.rss.sina.com.cn\/redirect.php?url=http:\/\/blog.sina.com.cn\/s\/blog_4758d4f90102ei9b.html",
"pubDate" : "2013年10月21日 (1周前)",
"enterDate" : "384200:36:09",
"channelId" : "-4731591433204727374",
"channelName" : "房产-新浪博客",
"channelNameSummary" : "房产-新浪博客",
"channelUrl" : "http:\/\/blog.sina.com.cn\/lm\/house\/",
"author" : "WWW.SINA.COM.CN",
"tags" : [],
"desc" : "",
"emailed" : False,
"forwarded" : False,
"english" : False
}  , {
"index" : 4,
"articleIndex" : "29052",
"favor" :  False ,
     "read" : False,    
"title" : "高房价是一个杀贫济富的游戏",
"titleTip" : "高房价是一个杀贫济富的游戏",
"titleSummary" : "高房价是一个杀贫济富的游戏",
"descSummary" : "",
"url" : "http:\/\/go.rss.sina.com.cn\/redirect.php?url=http:\/\/blog.sina.com.cn\/s\/blog_4db8fce80102egr3.html",
"pubDate" : "2013年10月21日 (1周前)",
"enterDate" : "384200:35:33",
"channelId" : "-4731591433204727374",
"channelName" : "房产-新浪博客",
"channelNameSummary" : "房产-新浪博客",
"channelUrl" : "http:\/\/blog.sina.com.cn\/lm\/house\/",
"author" : "WWW.SINA.COM.CN",
"tags" : [],
"desc" : "",
"emailed" : False,
"forwarded" : False,
"english" : False
}  , {
"index" : 5,
"articleIndex" : "29051",
"favor" :  False ,
     "read" : False,    
"title" : "揭孙宏斌王石老底较量桑拿房",
"titleTip" : "揭孙宏斌王石老底较量桑拿房",
"titleSummary" : "揭孙宏斌王石老底较量桑拿房",
"descSummary" : "",
"url" : "http:\/\/go.rss.sina.com.cn\/redirect.php?url=http:\/\/blog.sina.com.cn\/s\/blog_48f319170102e88e.html",
"pubDate" : "2013年10月21日 (1周前)",
"enterDate" : "384200:34:43",
"channelId" : "-4731591433204727374",
"channelName" : "房产-新浪博客",
"channelNameSummary" : "房产-新浪博客",
"channelUrl" : "http:\/\/blog.sina.com.cn\/lm\/house\/",
"author" : "WWW.SINA.COM.CN",
"tags" : [],
"desc" : "",
"emailed" : False,
"forwarded" : False,
"english" : False
}  , {
"index" : 6,
"articleIndex" : "29050",
"favor" :  False ,
     "read" : False,    
"title" : "2014年房价仍不可能跌",
"titleTip" : "2014年房价仍不可能跌",
"titleSummary" : "2014年房价仍不可能跌",
"descSummary" : "",
"url" : "http:\/\/go.rss.sina.com.cn\/redirect.php?url=http:\/\/blog.sina.com.cn\/s\/blog_3fbc1cf80102e9uf.html",
"pubDate" : "2013年10月21日 (1周前)",
"enterDate" : "384200:33:55",
"channelId" : "-4731591433204727374",
"channelName" : "房产-新浪博客",
"channelNameSummary" : "房产-新浪博客",
"channelUrl" : "http:\/\/blog.sina.com.cn\/lm\/house\/",
"author" : "WWW.SINA.COM.CN",
"tags" : [],
"desc" : "",
"emailed" : False,
"forwarded" : False,
"english" : False
}  , {
"index" : 7,
"articleIndex" : "29049",
"favor" :  False ,
     "read" : False,    
"title" : "十一后楼市仍是推货高峰",
"titleTip" : "十一后楼市仍是推货高峰",
"titleSummary" : "十一后楼市仍是推货高峰",
"descSummary" : "",
"url" : "http:\/\/go.rss.sina.com.cn\/redirect.php?url=http:\/\/blog.sina.com.cn\/s\/blog_53ac84b70102ekn1.html",
"pubDate" : "2013年10月16日 (2周前)",
"enterDate" : "384201:06:13",
"channelId" : "-4731591433204727374",
"channelName" : "房产-新浪博客",
"channelNameSummary" : "房产-新浪博客",
"channelUrl" : "http:\/\/blog.sina.com.cn\/lm\/house\/",
"author" : "WWW.SINA.COM.CN",
"tags" : [],
"desc" : "",
"emailed" : False,
"forwarded" : False,
"english" : False
}  , {
"index" : 8,
"articleIndex" : "29048",
"favor" :  False ,
     "read" : False,    
"title" : "三中全会对楼市影响不大",
"titleTip" : "三中全会对楼市影响不大",
"titleSummary" : "三中全会对楼市影响不大",
"descSummary" : "",
"url" : "http:\/\/go.rss.sina.com.cn\/redirect.php?url=http:\/\/blog.sina.com.cn\/s\/blog_5211f1f10102e5gw.html",
"pubDate" : "2013年10月16日 (2周前)",
"enterDate" : "384201:06:05",
"channelId" : "-4731591433204727374",
"channelName" : "房产-新浪博客",
"channelNameSummary" : "房产-新浪博客",
"channelUrl" : "http:\/\/blog.sina.com.cn\/lm\/house\/",
"author" : "WWW.SINA.COM.CN",
"tags" : [],
"desc" : "",
"emailed" : False,
"forwarded" : False,
"english" : False
}  , {
"index" : 9,
"articleIndex" : "29047",
"favor" :  False ,
     "read" : False,    
"title" : "希勒与任志强谁能赢",
"titleTip" : "希勒与任志强谁能赢",
"titleSummary" : "希勒与任志强谁能赢",
"descSummary" : "",
"url" : "http:\/\/go.rss.sina.com.cn\/redirect.php?url=http:\/\/blog.sina.com.cn\/s\/blog_49818dcb0102fj8w.html",
"pubDate" : "2013年10月16日 (2周前)",
"enterDate" : "384201:05:53",
"channelId" : "-4731591433204727374",
"channelName" : "房产-新浪博客",
"channelNameSummary" : "房产-新浪博客",
"channelUrl" : "http:\/\/blog.sina.com.cn\/lm\/house\/",
"author" : "WWW.SINA.COM.CN",
"tags" : [],
"desc" : "",
"emailed" : False,
"forwarded" : False,
"english" : False
}  , {
"index" : 10,
"articleIndex" : "29046",
"favor" :  False ,
     "read" : False,    
"title" : "楼市的乌烟瘴气",
"titleTip" : "楼市的乌烟瘴气",
"titleSummary" : "楼市的乌烟瘴气",
"descSummary" : "",
"url" : "http:\/\/go.rss.sina.com.cn\/redirect.php?url=http:\/\/blog.sina.com.cn\/s\/blog_561231ae0102eg38.html",
"pubDate" : "2013年10月16日 (2周前)",
"enterDate" : "384201:05:50",
"channelId" : "-4731591433204727374",
"channelName" : "房产-新浪博客",
"channelNameSummary" : "房产-新浪博客",
"channelUrl" : "http:\/\/blog.sina.com.cn\/lm\/house\/",
"author" : "WWW.SINA.COM.CN",
"tags" : [],
"desc" : "",
"emailed" : False,
"forwarded" : False,
"english" : False
}  , {
"index" : 11,
"articleIndex" : "29045",
"favor" :  False ,
     "read" : False,    
"title" : "谁杀死了百货业",
"titleTip" : "谁杀死了百货业",
"titleSummary" : "谁杀死了百货业",
"descSummary" : "",
"url" : "http:\/\/go.rss.sina.com.cn\/redirect.php?url=http:\/\/blog.sina.com.cn\/s\/blog_49240c630101mlrd.html",
"pubDate" : "2013年10月15日 (2周前)",
"enterDate" : "384200:17:44",
"channelId" : "-4731591433204727374",
"channelName" : "房产-新浪博客",
"channelNameSummary" : "房产-新浪博客",
"channelUrl" : "http:\/\/blog.sina.com.cn\/lm\/house\/",
"author" : "WWW.SINA.COM.CN",
"tags" : [],
"desc" : "",
"emailed" : False,
"forwarded" : False,
"english" : False
}  , {
"index" : 12,
"articleIndex" : "29044",
"favor" :  False ,
     "read" : False,    
"title" : "中国目前的囤房数字深不可测",
"titleTip" : "中国目前的囤房数字深不可测",
"titleSummary" : "中国目前的囤房数字深不可测",
"descSummary" : "",
"url" : "http:\/\/go.rss.sina.com.cn\/redirect.php?url=http:\/\/blog.sina.com.cn\/s\/blog_43656e910102ecdj.html",
"pubDate" : "2013年10月15日 (2周前)",
"enterDate" : "384200:17:33",
"channelId" : "-4731591433204727374",
"channelName" : "房产-新浪博客",
"channelNameSummary" : "房产-新浪博客",
"channelUrl" : "http:\/\/blog.sina.com.cn\/lm\/house\/",
"author" : "WWW.SINA.COM.CN",
"tags" : [],
"desc" : "",
"emailed" : False,
"forwarded" : False,
"english" : False
}  , {
"index" : 13,
"articleIndex" : "29043",
"favor" :  False ,
     "read" : False,    
"title" : "豪宅时代 豪宅标准解析",
"titleTip" : "豪宅时代 豪宅标准解析",
"titleSummary" : "豪宅时代 豪宅标准解析",
"descSummary" : "",
"url" : "http:\/\/go.rss.sina.com.cn\/redirect.php?url=http:\/\/blog.sina.com.cn\/s\/blog_4998f9280101im47.html",
"pubDate" : "2013年10月15日 (2周前)",
"enterDate" : "384200:17:30",
"channelId" : "-4731591433204727374",
"channelName" : "房产-新浪博客",
"channelNameSummary" : "房产-新浪博客",
"channelUrl" : "http:\/\/blog.sina.com.cn\/lm\/house\/",
"author" : "WWW.SINA.COM.CN",
"tags" : [],
"desc" : "",
"emailed" : False,
"forwarded" : False,
"english" : False
}  , {
"index" : 14,
"articleIndex" : "29042",
"favor" :  False ,
     "read" : False,    
"title" : "警惕零售趋势下的商铺投资陷阱",
"titleTip" : "警惕零售趋势下的商铺投资陷阱",
"titleSummary" : "警惕零售趋势下的商铺投资陷阱",
"descSummary" : "",
"url" : "http:\/\/go.rss.sina.com.cn\/redirect.php?url=http:\/\/blog.sina.com.cn\/s\/blog_3dc1dc120101h116.html",
"pubDate" : "2013年10月15日 (2周前)",
"enterDate" : "384200:17:27",
"channelId" : "-4731591433204727374",
"channelName" : "房产-新浪博客",
"channelNameSummary" : "房产-新浪博客",
"channelUrl" : "http:\/\/blog.sina.com.cn\/lm\/house\/",
"author" : "WWW.SINA.COM.CN",
"tags" : [],
"desc" : "",
"emailed" : False,
"forwarded" : False,
"english" : False
}  , {
"index" : 15,
"articleIndex" : "29041",
"favor" :  False ,
     "read" : False,    
"title" : "调控与房价是一场价值观的失败",
"titleTip" : "调控与房价是一场价值观的失败",
"titleSummary" : "调控与房价是一场价值观的失败",
"descSummary" : "",
"url" : "http:\/\/go.rss.sina.com.cn\/redirect.php?url=http:\/\/blog.sina.com.cn\/s\/blog_4e4e4f050101idod.html",
"pubDate" : "2013年10月15日 (2周前)",
"enterDate" : "384200:17:17",
"channelId" : "-4731591433204727374",
"channelName" : "房产-新浪博客",
"channelNameSummary" : "房产-新浪博客",
"channelUrl" : "http:\/\/blog.sina.com.cn\/lm\/house\/",
"author" : "WWW.SINA.COM.CN",
"tags" : [],
"desc" : "",
"emailed" : False,
"forwarded" : False,
"english" : False
}  , {
"index" : 16,
"articleIndex" : "29040",
"favor" :  False ,
     "read" : False,    
"title" : "北京的高房价困扰",
"titleTip" : "北京的高房价困扰",
"titleSummary" : "北京的高房价困扰",
"descSummary" : "",
"url" : "http:\/\/go.rss.sina.com.cn\/redirect.php?url=http:\/\/blog.sina.com.cn\/s\/blog_5527b5f20101acgx.html",
"pubDate" : "2013年10月14日 (2周前)",
"enterDate" : "384200:33:47",
"channelId" : "-4731591433204727374",
"channelName" : "房产-新浪博客",
"channelNameSummary" : "房产-新浪博客",
"channelUrl" : "http:\/\/blog.sina.com.cn\/lm\/house\/",
"author" : "WWW.SINA.COM.CN",
"tags" : [],
"desc" : "",
"emailed" : False,
"forwarded" : False,
"english" : False
}  , {
"index" : 17,
"articleIndex" : "29039",
"favor" :  False ,
     "read" : False,    
"title" : "70年产权问题还不是最着急的事",
"titleTip" : "70年产权问题还不是最着急的事",
"titleSummary" : "70年产权问题还不是最着急的事",
"descSummary" : "",
"url" : "http:\/\/go.rss.sina.com.cn\/redirect.php?url=http:\/\/blog.sina.com.cn\/s\/blog_490280f90102e9yy.html",
"pubDate" : "2013年10月14日 (2周前)",
"enterDate" : "384200:33:30",
"channelId" : "-4731591433204727374",
"channelName" : "房产-新浪博客",
"channelNameSummary" : "房产-新浪博客",
"channelUrl" : "http:\/\/blog.sina.com.cn\/lm\/house\/",
"author" : "WWW.SINA.COM.CN",
"tags" : [],
"desc" : "",
"emailed" : False,
"forwarded" : False,
"english" : False
}  , {
"index" : 18,
"articleIndex" : "29038",
"favor" :  False ,
     "read" : False,    
"title" : "返乡置业一定要有需求",
"titleTip" : "返乡置业一定要有需求",
"titleSummary" : "返乡置业一定要有需求",
"descSummary" : "",
"url" : "http:\/\/go.rss.sina.com.cn\/redirect.php?url=http:\/\/blog.sina.com.cn\/s\/blog_53ac84b70102ekl0.html",
"pubDate" : "2013年10月14日 (2周前)",
"enterDate" : "384200:33:08",
"channelId" : "-4731591433204727374",
"channelName" : "房产-新浪博客",
"channelNameSummary" : "房产-新浪博客",
"channelUrl" : "http:\/\/blog.sina.com.cn\/lm\/house\/",
"author" : "WWW.SINA.COM.CN",
"tags" : [],
"desc" : "",
"emailed" : False,
"forwarded" : False,
"english" : False
}  , {
"index" : 19,
"articleIndex" : "29037",
"favor" :  False ,
     "read" : False,    
"title" : "房产税的阻力何在",
"titleTip" : "房产税的阻力何在",
"titleSummary" : "房产税的阻力何在",
"descSummary" : "",
"url" : "http:\/\/go.rss.sina.com.cn\/redirect.php?url=http:\/\/blog.sina.com.cn\/s\/blog_4db8fce80102egno.html",
"pubDate" : "2013年10月14日 (2周前)",
"enterDate" : "384200:33:04",
"channelId" : "-4731591433204727374",
"channelName" : "房产-新浪博客",
"channelNameSummary" : "房产-新浪博客",
"channelUrl" : "http:\/\/blog.sina.com.cn\/lm\/house\/",
"author" : "WWW.SINA.COM.CN",
"tags" : [],
"desc" : "",
"emailed" : False,
"forwarded" : False,
"english" : False
} ]
}
