{
"mode" : {"viewTitle" : 1,   "viewNew" : 0,  "pageIndex" : 1 },
 "channel" : {"id" : "7333304547492221588", "booked" : False, "subNumber" : 1, "name" : "汽车保险-新浪汽车", "url" : "http:\/\/auto.sina.com.cn\/insurance\/index.shtml", "feed" : "http:\/\/rss.sina.com.cn\/auto\/insurance\/index.xml", "author" : "WWW.SINA.COM.CN", "desc" : "汽车保险-要闻列表", "imageUrl" : "http:\/\/www.sinaimg.cn\/dy\/auto\/index\/topbar_03.gif", "postPerWeek" : "0", "lastCrawTime" : "17:09:10", "crawDateTime" : "15:23:46", "lastHttpCode" : "304"}, "page" : {
"startIndex" : 0,
"totalCount" : 183,
"pageIndex" : 1,
"lastPage" : 10,
"pageSize" : 20,
"english" :  False },
 "unreadNum" : 0, "shotIndex" : -1,
"articles" : [
{
"index" : 0,
"articleIndex" : "182",
"favor" :  False ,
     "read" : False,    
"title" : "商业车险\"涨价\" 有理还是无理？",
"titleTip" : "商业车险\"涨价\" 有理还是无理？",
"titleSummary" : "商业车险\"涨价\" 有理还是无理？",
"descSummary" : "",
"url" : "http:\/\/go.rss.sina.com.cn\/redirect.php?url=http:\/\/auto.sina.com.cn\/car\/2013-10-17\/07321236034.shtml",
"pubDate" : "2013年10月17日 (1周前)",
"enterDate" : "384200:19:15",
"channelId" : "7333304547492221588",
"channelName" : "汽车保险-新浪汽车",
"channelNameSummary" : "汽车保险-新浪汽车",
"channelUrl" : "http:\/\/auto.sina.com.cn\/insurance\/index.shtml",
"author" : "WWW.SINA.COM.CN",
"tags" : [],
"desc" : "",
"emailed" : False,
"forwarded" : False,
"english" : False
}  , {
"index" : 1,
"articleIndex" : "181",
"favor" :  False ,
     "read" : False,    
"title" : "车主与险企啥时能不玩猫鼠游戏",
"titleTip" : "车主与险企啥时能不玩猫鼠游戏",
"titleSummary" : "车主与险企啥时能不玩猫鼠游戏",
"descSummary" : "",
"url" : "http:\/\/go.rss.sina.com.cn\/redirect.php?url=http:\/\/auto.sina.com.cn\/car\/2013-10-17\/07291236025.shtml",
"pubDate" : "2013年10月17日 (1周前)",
"enterDate" : "384200:17:01",
"channelId" : "7333304547492221588",
"channelName" : "汽车保险-新浪汽车",
"channelNameSummary" : "汽车保险-新浪汽车",
"channelUrl" : "http:\/\/auto.sina.com.cn\/insurance\/index.shtml",
"author" : "WWW.SINA.COM.CN",
"tags" : [],
"desc" : "",
"emailed" : False,
"forwarded" : False,
"english" : False
}  , {
"index" : 2,
"articleIndex" : "180",
"favor" :  False ,
     "read" : False,    
"title" : "理赔投保双便捷 阳光车险锁住车主心",
"titleTip" : "理赔投保双便捷 阳光车险锁住车主心",
"titleSummary" : "理赔投保双便捷 阳光车险锁住车主心",
"descSummary" : "",
"url" : "http:\/\/go.rss.sina.com.cn\/redirect.php?url=http:\/\/auto.sina.com.cn\/car\/2013-09-25\/18581228009.shtml",
"pubDate" : "2013年9月25日",
"enterDate" : "384192:03:03",
"channelId" : "7333304547492221588",
"channelName" : "汽车保险-新浪汽车",
"channelNameSummary" : "汽车保险-新浪汽车",
"channelUrl" : "http:\/\/auto.sina.com.cn\/insurance\/index.shtml",
"author" : "WWW.SINA.COM.CN",
"tags" : [],
"desc" : "",
"emailed" : False,
"forwarded" : False,
"english" : False
}  , {
"index" : 3,
"articleIndex" : "179",
"favor" :  False ,
     "read" : False,    
"title" : "成都车展携手人保财险聚力打造最光\u201C蓉\u201D盛事",
"titleTip" : "成都车展携手人保财险聚力打造最光\u201C蓉\u201D盛事",
"titleSummary" : "成都车展携手人保财险聚力打造最光\u201C蓉\u201D盛事",
"descSummary" : "",
"url" : "http:\/\/go.rss.sina.com.cn\/redirect.php?url=http:\/\/auto.sina.com.cn\/car\/2013-08-26\/21021213122.shtml",
"pubDate" : "2013年8月26日",
"enterDate" : "384198:55:21",
"channelId" : "7333304547492221588",
"channelName" : "汽车保险-新浪汽车",
"channelNameSummary" : "汽车保险-新浪汽车",
"channelUrl" : "http:\/\/auto.sina.com.cn\/insurance\/index.shtml",
"author" : "WWW.SINA.COM.CN",
"tags" : [],
"desc" : "",
"emailed" : False,
"forwarded" : False,
"english" : False
}  , {
"index" : 4,
"articleIndex" : "178",
"favor" :  False ,
     "read" : False,    
"title" : "工会会员持京卡专享人保直销车险大礼包",
"titleTip" : "工会会员持京卡专享人保直销车险大礼包",
"titleSummary" : "工会会员持京卡专享人保直销车险大礼包",
"descSummary" : "",
"url" : "http:\/\/go.rss.sina.com.cn\/redirect.php?url=http:\/\/auto.sina.com.cn\/car\/2013-07-23\/10361194147.shtml",
"pubDate" : "2013年7月23日",
"enterDate" : "384200:43:48",
"channelId" : "7333304547492221588",
"channelName" : "汽车保险-新浪汽车",
"channelNameSummary" : "汽车保险-新浪汽车",
"channelUrl" : "http:\/\/auto.sina.com.cn\/insurance\/index.shtml",
"author" : "WWW.SINA.COM.CN",
"tags" : [],
"desc" : "",
"emailed" : False,
"forwarded" : False,
"english" : False
}  , {
"index" : 5,
"articleIndex" : "177",
"favor" :  False ,
     "read" : False,    
"title" : "黄金10年 换了天地",
"titleTip" : "黄金10年 换了天地",
"titleSummary" : "黄金10年 换了天地",
"descSummary" : "",
"url" : "http:\/\/go.rss.sina.com.cn\/redirect.php?url=http:\/\/auto.sina.com.cn\/car\/2013-07-18\/15341191763.shtml",
"pubDate" : "2013年7月18日",
"enterDate" : "384199:41:56",
"channelId" : "7333304547492221588",
"channelName" : "汽车保险-新浪汽车",
"channelNameSummary" : "汽车保险-新浪汽车",
"channelUrl" : "http:\/\/auto.sina.com.cn\/insurance\/index.shtml",
"author" : "WWW.SINA.COM.CN",
"tags" : [],
"desc" : "",
"emailed" : False,
"forwarded" : False,
"english" : False
}  , {
"index" : 6,
"articleIndex" : "176",
"favor" :  False ,
     "read" : False,    
"title" : "知悉需求按需投保 车险夏季投保全攻略",
"titleTip" : "知悉需求按需投保 车险夏季投保全攻略",
"titleSummary" : "知悉需求按需投保 车险夏季投保全攻略",
"descSummary" : "",
"url" : "http:\/\/go.rss.sina.com.cn\/redirect.php?url=http:\/\/auto.sina.com.cn\/car\/2013-07-18\/07311191242.shtml",
"pubDate" : "2013年7月18日",
"enterDate" : "384200:25:45",
"channelId" : "7333304547492221588",
"channelName" : "汽车保险-新浪汽车",
"channelNameSummary" : "汽车保险-新浪汽车",
"channelUrl" : "http:\/\/auto.sina.com.cn\/insurance\/index.shtml",
"author" : "WWW.SINA.COM.CN",
"tags" : [],
"desc" : "",
"emailed" : False,
"forwarded" : False,
"english" : False
}  , {
"index" : 7,
"articleIndex" : "175",
"favor" :  False ,
     "read" : False,    
"title" : "买了全险就能赔？5种情况教你认识车险",
"titleTip" : "买了全险就能赔？5种情况教你认识车险",
"titleSummary" : "买了全险就能赔？5种情况教你认识车险",
"descSummary" : "",
"url" : "http:\/\/go.rss.sina.com.cn\/redirect.php?url=http:\/\/auto.sina.com.cn\/car\/2013-05-11\/13371153541.shtml",
"pubDate" : "2013年5月11日",
"enterDate" : "384199:19:29",
"channelId" : "7333304547492221588",
"channelName" : "汽车保险-新浪汽车",
"channelNameSummary" : "汽车保险-新浪汽车",
"channelUrl" : "http:\/\/auto.sina.com.cn\/insurance\/index.shtml",
"author" : "WWW.SINA.COM.CN",
"tags" : [],
"desc" : "",
"emailed" : False,
"forwarded" : False,
"english" : False
}  , {
"index" : 8,
"articleIndex" : "174",
"favor" :  False ,
     "read" : False,    
"title" : "云南致13人死亡交通事故车辆保险已过期",
"titleTip" : "云南致13人死亡交通事故车辆保险已过期",
"titleSummary" : "云南致13人死亡交通事故车辆保险已过期",
"descSummary" : "",
"url" : "http:\/\/go.rss.sina.com.cn\/redirect.php?url=http:\/\/auto.sina.com.cn\/car\/2013-05-11\/13301153540.shtml",
"pubDate" : "2013年5月11日",
"enterDate" : "384199:11:50",
"channelId" : "7333304547492221588",
"channelName" : "汽车保险-新浪汽车",
"channelNameSummary" : "汽车保险-新浪汽车",
"channelUrl" : "http:\/\/auto.sina.com.cn\/insurance\/index.shtml",
"author" : "WWW.SINA.COM.CN",
"tags" : [],
"desc" : "",
"emailed" : False,
"forwarded" : False,
"english" : False
}  , {
"index" : 9,
"articleIndex" : "173",
"favor" :  False ,
     "read" : False,    
"title" : "58岁大妈汽车被划 划别人车泄私愤",
"titleTip" : "58岁大妈汽车被划 划别人车泄私愤",
"titleSummary" : "58岁大妈汽车被划 划别人车泄私愤",
"descSummary" : "",
"url" : "http:\/\/go.rss.sina.com.cn\/redirect.php?url=http:\/\/auto.sina.com.cn\/car\/2013-05-11\/12551153537.shtml",
"pubDate" : "2013年5月11日",
"enterDate" : "384200:52:26",
"channelId" : "7333304547492221588",
"channelName" : "汽车保险-新浪汽车",
"channelNameSummary" : "汽车保险-新浪汽车",
"channelUrl" : "http:\/\/auto.sina.com.cn\/insurance\/index.shtml",
"author" : "WWW.SINA.COM.CN",
"tags" : [],
"desc" : "",
"emailed" : False,
"forwarded" : False,
"english" : False
}  , {
"index" : 10,
"articleIndex" : "172",
"favor" :  False ,
     "read" : False,    
"title" : "处理问题\u201C踢皮球\u201D太平洋车险\u201C不太平\u201D",
"titleTip" : "处理问题\u201C踢皮球\u201D太平洋车险\u201C不太平\u201D",
"titleSummary" : "处理问题\u201C踢皮球\u201D太平洋车险\u201C不太平\u201D",
"descSummary" : "",
"url" : "http:\/\/go.rss.sina.com.cn\/redirect.php?url=http:\/\/auto.sina.com.cn\/car\/2013-04-14\/09241138282.shtml",
"pubDate" : "2013年4月14日",
"enterDate" : "384182:35:02",
"channelId" : "7333304547492221588",
"channelName" : "汽车保险-新浪汽车",
"channelNameSummary" : "汽车保险-新浪汽车",
"channelUrl" : "http:\/\/auto.sina.com.cn\/insurance\/index.shtml",
"author" : "WWW.SINA.COM.CN",
"tags" : [],
"desc" : "",
"emailed" : False,
"forwarded" : False,
"english" : False
}  , {
"index" : 11,
"articleIndex" : "171",
"favor" :  False ,
     "read" : False,    
"title" : "安邦保险为您假期出游\u201C保驾护航\u201D",
"titleTip" : "安邦保险为您假期出游\u201C保驾护航\u201D",
"titleSummary" : "安邦保险为您假期出游\u201C保驾护航\u201D",
"descSummary" : "",
"url" : "http:\/\/go.rss.sina.com.cn\/redirect.php?url=http:\/\/auto.sina.com.cn\/car\/2013-04-03\/14581133029.shtml",
"pubDate" : "2013年4月3日",
"enterDate" : "384200:55:58",
"channelId" : "7333304547492221588",
"channelName" : "汽车保险-新浪汽车",
"channelNameSummary" : "汽车保险-新浪汽车",
"channelUrl" : "http:\/\/auto.sina.com.cn\/insurance\/index.shtml",
"author" : "WWW.SINA.COM.CN",
"tags" : [],
"desc" : "",
"emailed" : False,
"forwarded" : False,
"english" : False
}  , {
"index" : 12,
"articleIndex" : "170",
"favor" :  False ,
     "read" : False,    
"title" : "车被划自付万元修车费 新车应买划痕险",
"titleTip" : "车被划自付万元修车费 新车应买划痕险",
"titleSummary" : "车被划自付万元修车费 新车应买划痕险",
"descSummary" : "",
"url" : "http:\/\/go.rss.sina.com.cn\/redirect.php?url=http:\/\/auto.sina.com.cn\/car\/2013-03-01\/09191113806.shtml",
"pubDate" : "2013年3月1日",
"enterDate" : "384200:23:49",
"channelId" : "7333304547492221588",
"channelName" : "汽车保险-新浪汽车",
"channelNameSummary" : "汽车保险-新浪汽车",
"channelUrl" : "http:\/\/auto.sina.com.cn\/insurance\/index.shtml",
"author" : "WWW.SINA.COM.CN",
"tags" : [],
"desc" : "",
"emailed" : False,
"forwarded" : False,
"english" : False
}  , {
"index" : 13,
"articleIndex" : "169",
"favor" :  False ,
     "read" : False,    
"title" : "车险改革方案再易稿 推出时间或延至下半年",
"titleTip" : "车险改革方案再易稿 推出时间或延至下半年",
"titleSummary" : "车险改革方案再易稿 推出时间或延至下半年",
"descSummary" : "",
"url" : "http:\/\/go.rss.sina.com.cn\/redirect.php?url=http:\/\/auto.sina.com.cn\/news\/2013-02-28\/09551113202.shtml",
"pubDate" : "2013年2月28日",
"enterDate" : "384195:51:09",
"channelId" : "7333304547492221588",
"channelName" : "汽车保险-新浪汽车",
"channelNameSummary" : "汽车保险-新浪汽车",
"channelUrl" : "http:\/\/auto.sina.com.cn\/insurance\/index.shtml",
"author" : "WWW.SINA.COM.CN",
"tags" : [],
"desc" : "",
"emailed" : False,
"forwarded" : False,
"english" : False
}  , {
"index" : 14,
"articleIndex" : "168",
"favor" :  False ,
     "read" : False,    
"title" : "自主品牌与豪华车遇\u201C投保难\u201D",
"titleTip" : "自主品牌与豪华车遇\u201C投保难\u201D",
"titleSummary" : "自主品牌与豪华车遇\u201C投保难\u201D",
"descSummary" : "",
"url" : "http:\/\/go.rss.sina.com.cn\/redirect.php?url=http:\/\/auto.sina.com.cn\/news\/2013-02-28\/08401112969.shtml",
"pubDate" : "2013年2月28日",
"enterDate" : "384194:35:39",
"channelId" : "7333304547492221588",
"channelName" : "汽车保险-新浪汽车",
"channelNameSummary" : "汽车保险-新浪汽车",
"channelUrl" : "http:\/\/auto.sina.com.cn\/insurance\/index.shtml",
"author" : "WWW.SINA.COM.CN",
"tags" : [],
"desc" : "",
"emailed" : False,
"forwarded" : False,
"english" : False
}  , {
"index" : 15,
"articleIndex" : "167",
"favor" :  False ,
     "read" : False,    
"title" : "春节出车险 定损要耐心",
"titleTip" : "春节出车险 定损要耐心",
"titleSummary" : "春节出车险 定损要耐心",
"descSummary" : "",
"url" : "http:\/\/go.rss.sina.com.cn\/redirect.php?url=http:\/\/auto.sina.com.cn\/car\/2013-02-07\/06451103824.shtml",
"pubDate" : "2013年2月7日",
"enterDate" : "384200:43:39",
"channelId" : "7333304547492221588",
"channelName" : "汽车保险-新浪汽车",
"channelNameSummary" : "汽车保险-新浪汽车",
"channelUrl" : "http:\/\/auto.sina.com.cn\/insurance\/index.shtml",
"author" : "WWW.SINA.COM.CN",
"tags" : [],
"desc" : "",
"emailed" : False,
"forwarded" : False,
"english" : False
}  , {
"index" : 16,
"articleIndex" : "166",
"favor" :  False ,
     "read" : False,    
"title" : "春节自驾要当心 车险专家为驾车族支招",
"titleTip" : "春节自驾要当心 车险专家为驾车族支招",
"titleSummary" : "春节自驾要当心 车险专家为驾车族支招",
"descSummary" : "",
"url" : "http:\/\/go.rss.sina.com.cn\/redirect.php?url=http:\/\/auto.sina.com.cn\/car\/2013-02-01\/09031101076.shtml",
"pubDate" : "2013年2月1日",
"enterDate" : "384201:08:44",
"channelId" : "7333304547492221588",
"channelName" : "汽车保险-新浪汽车",
"channelNameSummary" : "汽车保险-新浪汽车",
"channelUrl" : "http:\/\/auto.sina.com.cn\/insurance\/index.shtml",
"author" : "WWW.SINA.COM.CN",
"tags" : [],
"desc" : "",
"emailed" : False,
"forwarded" : False,
"english" : False
}  , {
"index" : 17,
"articleIndex" : "165",
"favor" :  False ,
     "read" : False,    
"title" : "出险理赔猫腻多 过年租车如何省钱又省事",
"titleTip" : "出险理赔猫腻多 过年租车如何省钱又省事",
"titleSummary" : "出险理赔猫腻多 过年租车如何省钱又省事",
"descSummary" : "",
"url" : "http:\/\/go.rss.sina.com.cn\/redirect.php?url=http:\/\/auto.sina.com.cn\/car\/2013-01-29\/09101098880.shtml",
"pubDate" : "2013年1月29日",
"enterDate" : "384195:13:58",
"channelId" : "7333304547492221588",
"channelName" : "汽车保险-新浪汽车",
"channelNameSummary" : "汽车保险-新浪汽车",
"channelUrl" : "http:\/\/auto.sina.com.cn\/insurance\/index.shtml",
"author" : "WWW.SINA.COM.CN",
"tags" : [],
"desc" : "",
"emailed" : False,
"forwarded" : False,
"english" : False
}  , {
"index" : 18,
"articleIndex" : "164",
"favor" :  False ,
     "read" : False,    
"title" : "春节出游投保攻略 出国家宅自驾有侧重",
"titleTip" : "春节出游投保攻略 出国家宅自驾有侧重",
"titleSummary" : "春节出游投保攻略 出国家宅自驾有侧重",
"descSummary" : "",
"url" : "http:\/\/go.rss.sina.com.cn\/redirect.php?url=http:\/\/auto.sina.com.cn\/car\/2013-01-24\/07441096026.shtml",
"pubDate" : "2013年1月24日",
"enterDate" : "384200:43:48",
"channelId" : "7333304547492221588",
"channelName" : "汽车保险-新浪汽车",
"channelNameSummary" : "汽车保险-新浪汽车",
"channelUrl" : "http:\/\/auto.sina.com.cn\/insurance\/index.shtml",
"author" : "WWW.SINA.COM.CN",
"tags" : [],
"desc" : "",
"emailed" : False,
"forwarded" : False,
"english" : False
}  , {
"index" : 19,
"articleIndex" : "163",
"favor" :  False ,
     "read" : False,    
"title" : "新交规或影响车险责任认定 原合同效力不变",
"titleTip" : "新交规或影响车险责任认定 原合同效力不变",
"titleSummary" : "新交规或影响车险责任认定 原合同效力不变",
"descSummary" : "",
"url" : "http:\/\/go.rss.sina.com.cn\/redirect.php?url=http:\/\/auto.sina.com.cn\/car\/2013-01-17\/07381092042.shtml",
"pubDate" : "2013年1月17日",
"enterDate" : "384200:44:58",
"channelId" : "7333304547492221588",
"channelName" : "汽车保险-新浪汽车",
"channelNameSummary" : "汽车保险-新浪汽车",
"channelUrl" : "http:\/\/auto.sina.com.cn\/insurance\/index.shtml",
"author" : "WWW.SINA.COM.CN",
"tags" : [],
"desc" : "",
"emailed" : False,
"forwarded" : False,
"english" : False
} ]
}
