{
"mode" : {"viewTitle" : 1,   "viewNew" : 0,  "pageIndex" : 2 },
 "channel" : {"id" : "7333304547492221588", "booked" : False, "subNumber" : 1, "name" : "汽车保险-新浪汽车", "url" : "http:\/\/auto.sina.com.cn\/insurance\/index.shtml", "feed" : "http:\/\/rss.sina.com.cn\/auto\/insurance\/index.xml", "author" : "WWW.SINA.COM.CN", "desc" : "汽车保险-要闻列表", "imageUrl" : "http:\/\/www.sinaimg.cn\/dy\/auto\/index\/topbar_03.gif", "postPerWeek" : "0", "lastCrawTime" : "17:09:10", "crawDateTime" : "15:23:46", "lastHttpCode" : "304"}, "page" : {
"startIndex" : 20,
"totalCount" : 183,
"pageIndex" : 2,
"lastPage" : 10,
"pageSize" : 20,
"english" :  False },
 "unreadNum" : 0, "shotIndex" : -1,
"articles" : [
{
"index" : 0,
"articleIndex" : "162",
"favor" :  False ,
     "read" : False,    
"title" : "请广大有车人士注意：有些事故保险拒赔",
"titleTip" : "请广大有车人士注意：有些事故保险拒赔",
"titleSummary" : "请广大有车人士注意：有些事故保险拒赔",
"descSummary" : "",
"url" : "http:\/\/go.rss.sina.com.cn\/redirect.php?url=http:\/\/auto.sina.com.cn\/car\/2013-01-09\/07461087286.shtml",
"pubDate" : "2013年1月9日",
"enterDate" : "384200:45:37",
"channelId" : "7333304547492221588",
"channelName" : "汽车保险-新浪汽车",
"channelNameSummary" : "汽车保险-新浪汽车",
"channelUrl" : "http:\/\/auto.sina.com.cn\/insurance\/index.shtml",
"author" : "WWW.SINA.COM.CN",
"tags" : [],
"desc" : "",
"emailed" : False,
"forwarded" : False,
"english" : False
}  , {
"index" : 1,
"articleIndex" : "161",
"favor" :  False ,
     "read" : False,    
"title" : "火车强制险废止后 商业险五元开售",
"titleTip" : "火车强制险废止后 商业险五元开售",
"titleSummary" : "火车强制险废止后 商业险五元开售",
"descSummary" : "",
"url" : "http:\/\/go.rss.sina.com.cn\/redirect.php?url=http:\/\/auto.sina.com.cn\/forum\/2013-01-02\/10411084823.shtml",
"pubDate" : "2013年1月2日",
"enterDate" : "384200:35:15",
"channelId" : "7333304547492221588",
"channelName" : "汽车保险-新浪汽车",
"channelNameSummary" : "汽车保险-新浪汽车",
"channelUrl" : "http:\/\/auto.sina.com.cn\/insurance\/index.shtml",
"author" : "WWW.SINA.COM.CN",
"tags" : [],
"desc" : "",
"emailed" : False,
"forwarded" : False,
"english" : False
}  , {
"index" : 2,
"articleIndex" : "160",
"favor" :  False ,
     "read" : False,    
"title" : "专家提示出行安全不容小觑 保险需做足准备",
"titleTip" : "专家提示出行安全不容小觑 保险需做足准备",
"titleSummary" : "专家提示出行安全不容小觑 保险需做足准备",
"descSummary" : "",
"url" : "http:\/\/go.rss.sina.com.cn\/redirect.php?url=http:\/\/auto.sina.com.cn\/car\/2012-12-25\/13441083030.shtml",
"pubDate" : "2012年12月25日",
"enterDate" : "384162:49:54",
"channelId" : "7333304547492221588",
"channelName" : "汽车保险-新浪汽车",
"channelNameSummary" : "汽车保险-新浪汽车",
"channelUrl" : "http:\/\/auto.sina.com.cn\/insurance\/index.shtml",
"author" : "WWW.SINA.COM.CN",
"tags" : [],
"desc" : "",
"emailed" : False,
"forwarded" : False,
"english" : False
}  , {
"index" : 3,
"articleIndex" : "159",
"favor" :  False ,
     "read" : False,    
"title" : "爱车买保险切忌贪便宜 合理搭配可省钱",
"titleTip" : "爱车买保险切忌贪便宜 合理搭配可省钱",
"titleSummary" : "爱车买保险切忌贪便宜 合理搭配可省钱",
"descSummary" : "",
"url" : "http:\/\/go.rss.sina.com.cn\/redirect.php?url=http:\/\/auto.sina.com.cn\/car\/2012-12-25\/09271082889.shtml",
"pubDate" : "2012年12月25日",
"enterDate" : "384158:32:56",
"channelId" : "7333304547492221588",
"channelName" : "汽车保险-新浪汽车",
"channelNameSummary" : "汽车保险-新浪汽车",
"channelUrl" : "http:\/\/auto.sina.com.cn\/insurance\/index.shtml",
"author" : "WWW.SINA.COM.CN",
"tags" : [],
"desc" : "",
"emailed" : False,
"forwarded" : False,
"english" : False
}  , {
"index" : 4,
"articleIndex" : "158",
"favor" :  False ,
     "read" : False,    
"title" : "保险电子商务迅速发展 受消费者青睐",
"titleTip" : "保险电子商务迅速发展 受消费者青睐",
"titleSummary" : "保险电子商务迅速发展 受消费者青睐",
"descSummary" : "",
"url" : "http:\/\/go.rss.sina.com.cn\/redirect.php?url=http:\/\/auto.sina.com.cn\/car\/2012-12-24\/17251082485.shtml",
"pubDate" : "2012年12月24日",
"enterDate" : "384142:31:14",
"channelId" : "7333304547492221588",
"channelName" : "汽车保险-新浪汽车",
"channelNameSummary" : "汽车保险-新浪汽车",
"channelUrl" : "http:\/\/auto.sina.com.cn\/insurance\/index.shtml",
"author" : "WWW.SINA.COM.CN",
"tags" : [],
"desc" : "",
"emailed" : False,
"forwarded" : False,
"english" : False
}  , {
"index" : 5,
"articleIndex" : "157",
"favor" :  False ,
     "read" : False,    
"title" : "宁波法院否决车保\u201C无责免赔\u201D条款",
"titleTip" : "宁波法院否决车保\u201C无责免赔\u201D条款",
"titleSummary" : "宁波法院否决车保\u201C无责免赔\u201D条款",
"descSummary" : "",
"url" : "http:\/\/go.rss.sina.com.cn\/redirect.php?url=http:\/\/auto.sina.com.cn\/car\/2012-12-16\/10141079306.shtml",
"pubDate" : "2012年12月16日",
"enterDate" : "384200:10:10",
"channelId" : "7333304547492221588",
"channelName" : "汽车保险-新浪汽车",
"channelNameSummary" : "汽车保险-新浪汽车",
"channelUrl" : "http:\/\/auto.sina.com.cn\/insurance\/index.shtml",
"author" : "WWW.SINA.COM.CN",
"tags" : [],
"desc" : "",
"emailed" : False,
"forwarded" : False,
"english" : False
}  , {
"index" : 6,
"articleIndex" : "156",
"favor" :  False ,
     "read" : False,    
"title" : "酒驾司机找人\u201C顶包\u201D骗保被依法起诉",
"titleTip" : "酒驾司机找人\u201C顶包\u201D骗保被依法起诉",
"titleSummary" : "酒驾司机找人\u201C顶包\u201D骗保被依法起诉",
"descSummary" : "",
"url" : "http:\/\/go.rss.sina.com.cn\/redirect.php?url=http:\/\/auto.sina.com.cn\/car\/2012-12-04\/07241073684.shtml",
"pubDate" : "2012年12月4日",
"enterDate" : "384200:23:20",
"channelId" : "7333304547492221588",
"channelName" : "汽车保险-新浪汽车",
"channelNameSummary" : "汽车保险-新浪汽车",
"channelUrl" : "http:\/\/auto.sina.com.cn\/insurance\/index.shtml",
"author" : "WWW.SINA.COM.CN",
"tags" : [],
"desc" : "",
"emailed" : False,
"forwarded" : False,
"english" : False
}  , {
"index" : 7,
"articleIndex" : "155",
"favor" :  False ,
     "read" : False,    
"title" : "留意车险是否到期 续保最好提前三个月",
"titleTip" : "留意车险是否到期 续保最好提前三个月",
"titleSummary" : "留意车险是否到期 续保最好提前三个月",
"descSummary" : "",
"url" : "http:\/\/go.rss.sina.com.cn\/redirect.php?url=http:\/\/auto.sina.com.cn\/car\/2012-12-03\/09551073224.shtml",
"pubDate" : "2012年12月3日",
"enterDate" : "384200:59:32",
"channelId" : "7333304547492221588",
"channelName" : "汽车保险-新浪汽车",
"channelNameSummary" : "汽车保险-新浪汽车",
"channelUrl" : "http:\/\/auto.sina.com.cn\/insurance\/index.shtml",
"author" : "WWW.SINA.COM.CN",
"tags" : [],
"desc" : "",
"emailed" : False,
"forwarded" : False,
"english" : False
}  , {
"index" : 8,
"articleIndex" : "154",
"favor" :  False ,
     "read" : False,    
"title" : "汽车划痕走保险有无必要 是否值得投保",
"titleTip" : "汽车划痕走保险有无必要 是否值得投保",
"titleSummary" : "汽车划痕走保险有无必要 是否值得投保",
"descSummary" : "",
"url" : "http:\/\/go.rss.sina.com.cn\/redirect.php?url=http:\/\/auto.sina.com.cn\/car\/2012-11-20\/09081065650.shtml",
"pubDate" : "2012年11月20日",
"enterDate" : "384201:03:45",
"channelId" : "7333304547492221588",
"channelName" : "汽车保险-新浪汽车",
"channelNameSummary" : "汽车保险-新浪汽车",
"channelUrl" : "http:\/\/auto.sina.com.cn\/insurance\/index.shtml",
"author" : "WWW.SINA.COM.CN",
"tags" : [],
"desc" : "",
"emailed" : False,
"forwarded" : False,
"english" : False
}  , {
"index" : 9,
"articleIndex" : "153",
"favor" :  False ,
     "read" : False,    
"title" : "倒车轧死亲生儿子保险公司被判赔偿",
"titleTip" : "倒车轧死亲生儿子保险公司被判赔偿",
"titleSummary" : "倒车轧死亲生儿子保险公司被判赔偿",
"descSummary" : "",
"url" : "http:\/\/go.rss.sina.com.cn\/redirect.php?url=http:\/\/auto.sina.com.cn\/car\/2012-11-19\/10071065085.shtml",
"pubDate" : "2012年11月19日",
"enterDate" : "384201:07:15",
"channelId" : "7333304547492221588",
"channelName" : "汽车保险-新浪汽车",
"channelNameSummary" : "汽车保险-新浪汽车",
"channelUrl" : "http:\/\/auto.sina.com.cn\/insurance\/index.shtml",
"author" : "WWW.SINA.COM.CN",
"tags" : [],
"desc" : "",
"emailed" : False,
"forwarded" : False,
"english" : False
}  , {
"index" : 10,
"articleIndex" : "152",
"favor" :  False ,
     "read" : False,    
"title" : "老鼠钻进发动机致车辆故障 保险公司拒赔",
"titleTip" : "老鼠钻进发动机致车辆故障 保险公司拒赔",
"titleSummary" : "老鼠钻进发动机致车辆故障 保险公司拒赔",
"descSummary" : "",
"url" : "http:\/\/go.rss.sina.com.cn\/redirect.php?url=http:\/\/auto.sina.com.cn\/car\/2012-11-11\/10451060818.shtml",
"pubDate" : "2012年11月11日",
"enterDate" : "384200:51:52",
"channelId" : "7333304547492221588",
"channelName" : "汽车保险-新浪汽车",
"channelNameSummary" : "汽车保险-新浪汽车",
"channelUrl" : "http:\/\/auto.sina.com.cn\/insurance\/index.shtml",
"author" : "WWW.SINA.COM.CN",
"tags" : [],
"desc" : "",
"emailed" : False,
"forwarded" : False,
"english" : False
}  , {
"index" : 11,
"articleIndex" : "151",
"favor" :  False ,
     "read" : False,    
"title" : "小区内撞人不算道路交通事故？保险赔吗",
"titleTip" : "小区内撞人不算道路交通事故？保险赔吗",
"titleSummary" : "小区内撞人不算道路交通事故？保险赔吗",
"descSummary" : "",
"url" : "http:\/\/go.rss.sina.com.cn\/redirect.php?url=http:\/\/auto.sina.com.cn\/car\/2012-11-08\/10101059714.shtml",
"pubDate" : "2012年11月8日",
"enterDate" : "384200:50:52",
"channelId" : "7333304547492221588",
"channelName" : "汽车保险-新浪汽车",
"channelNameSummary" : "汽车保险-新浪汽车",
"channelUrl" : "http:\/\/auto.sina.com.cn\/insurance\/index.shtml",
"author" : "WWW.SINA.COM.CN",
"tags" : [],
"desc" : "",
"emailed" : False,
"forwarded" : False,
"english" : False
}  , {
"index" : 12,
"articleIndex" : "150",
"favor" :  False ,
     "read" : False,    
"title" : "多车连环相撞 损失由交强险先行赔付",
"titleTip" : "多车连环相撞 损失由交强险先行赔付",
"titleSummary" : "多车连环相撞 损失由交强险先行赔付",
"descSummary" : "",
"url" : "http:\/\/go.rss.sina.com.cn\/redirect.php?url=http:\/\/auto.sina.com.cn\/car\/2012-11-05\/07221057381.shtml",
"pubDate" : "2012年11月5日",
"enterDate" : "384200:17:58",
"channelId" : "7333304547492221588",
"channelName" : "汽车保险-新浪汽车",
"channelNameSummary" : "汽车保险-新浪汽车",
"channelUrl" : "http:\/\/auto.sina.com.cn\/insurance\/index.shtml",
"author" : "WWW.SINA.COM.CN",
"tags" : [],
"desc" : "",
"emailed" : False,
"forwarded" : False,
"english" : False
}  , {
"index" : 13,
"articleIndex" : "149",
"favor" :  False ,
     "read" : False,    
"title" : "车险拒保爆出新规则 拒保缩至1年出险3次",
"titleTip" : "车险拒保爆出新规则 拒保缩至1年出险3次",
"titleSummary" : "车险拒保爆出新规则 拒保缩至1年出险3次",
"descSummary" : "",
"url" : "http:\/\/go.rss.sina.com.cn\/redirect.php?url=http:\/\/auto.sina.com.cn\/news\/2012-10-27\/13581053170.shtml",
"pubDate" : "2012年10月27日",
"enterDate" : "384185:16:07",
"channelId" : "7333304547492221588",
"channelName" : "汽车保险-新浪汽车",
"channelNameSummary" : "汽车保险-新浪汽车",
"channelUrl" : "http:\/\/auto.sina.com.cn\/insurance\/index.shtml",
"author" : "WWW.SINA.COM.CN",
"tags" : [],
"desc" : "",
"emailed" : False,
"forwarded" : False,
"english" : False
}  , {
"index" : 14,
"articleIndex" : "148",
"favor" :  False ,
     "read" : False,    
"title" : "帕萨特未到首保机油烧干 车主堵门讨说法",
"titleTip" : "帕萨特未到首保机油烧干 车主堵门讨说法",
"titleSummary" : "帕萨特未到首保机油烧干 车主堵门讨说法",
"descSummary" : "",
"url" : "http:\/\/go.rss.sina.com.cn\/redirect.php?url=http:\/\/auto.sina.com.cn\/car\/2012-10-24\/07361051263.shtml",
"pubDate" : "2012年10月24日",
"enterDate" : "384200:34:48",
"channelId" : "7333304547492221588",
"channelName" : "汽车保险-新浪汽车",
"channelNameSummary" : "汽车保险-新浪汽车",
"channelUrl" : "http:\/\/auto.sina.com.cn\/insurance\/index.shtml",
"author" : "WWW.SINA.COM.CN",
"tags" : [],
"desc" : "",
"emailed" : False,
"forwarded" : False,
"english" : False
}  , {
"index" : 15,
"articleIndex" : "147",
"favor" :  False ,
     "read" : False,    
"title" : "无照男子借车出行撞死人 车主被判赔6万",
"titleTip" : "无照男子借车出行撞死人 车主被判赔6万",
"titleSummary" : "无照男子借车出行撞死人 车主被判赔6万",
"descSummary" : "",
"url" : "http:\/\/go.rss.sina.com.cn\/redirect.php?url=http:\/\/auto.sina.com.cn\/car\/2012-09-25\/09511038044.shtml",
"pubDate" : "2012年9月25日",
"enterDate" : "384200:36:43",
"channelId" : "7333304547492221588",
"channelName" : "汽车保险-新浪汽车",
"channelNameSummary" : "汽车保险-新浪汽车",
"channelUrl" : "http:\/\/auto.sina.com.cn\/insurance\/index.shtml",
"author" : "WWW.SINA.COM.CN",
"tags" : [],
"desc" : "",
"emailed" : False,
"forwarded" : False,
"english" : False
}  , {
"index" : 16,
"articleIndex" : "146",
"favor" :  False ,
     "read" : False,    
"title" : "保险课堂 车辆停车场被撞保险赔7成",
"titleTip" : "保险课堂 车辆停车场被撞保险赔7成",
"titleSummary" : "保险课堂 车辆停车场被撞保险赔7成",
"descSummary" : "",
"url" : "http:\/\/go.rss.sina.com.cn\/redirect.php?url=http:\/\/auto.sina.com.cn\/car\/2012-09-24\/09431037344.shtml",
"pubDate" : "2012年9月24日",
"enterDate" : "384200:48:26",
"channelId" : "7333304547492221588",
"channelName" : "汽车保险-新浪汽车",
"channelNameSummary" : "汽车保险-新浪汽车",
"channelUrl" : "http:\/\/auto.sina.com.cn\/insurance\/index.shtml",
"author" : "WWW.SINA.COM.CN",
"tags" : [],
"desc" : "",
"emailed" : False,
"forwarded" : False,
"english" : False
}  , {
"index" : 17,
"articleIndex" : "145",
"favor" :  False ,
     "read" : False,    
"title" : "车辆停车场被撞保险赔7成 扣30%免赔率",
"titleTip" : "车辆停车场被撞保险赔7成 扣30%免赔率",
"titleSummary" : "车辆停车场被撞保险赔7成 扣30%免赔率",
"descSummary" : "",
"url" : "http:\/\/go.rss.sina.com.cn\/redirect.php?url=http:\/\/auto.sina.com.cn\/car\/2012-09-24\/07291037170.shtml",
"pubDate" : "2012年9月24日",
"enterDate" : "384200:35:22",
"channelId" : "7333304547492221588",
"channelName" : "汽车保险-新浪汽车",
"channelNameSummary" : "汽车保险-新浪汽车",
"channelUrl" : "http:\/\/auto.sina.com.cn\/insurance\/index.shtml",
"author" : "WWW.SINA.COM.CN",
"tags" : [],
"desc" : "",
"emailed" : False,
"forwarded" : False,
"english" : False
}  , {
"index" : 18,
"articleIndex" : "144",
"favor" :  False ,
     "read" : False,    
"title" : "车险理赔要注意 小心你的爱车被\u201C代撞\u201D",
"titleTip" : "车险理赔要注意 小心你的爱车被\u201C代撞\u201D",
"titleSummary" : "车险理赔要注意 小心你的爱车被\u201C代撞\u201D",
"descSummary" : "",
"url" : "http:\/\/go.rss.sina.com.cn\/redirect.php?url=http:\/\/auto.sina.com.cn\/car\/2012-09-20\/10261035725.shtml",
"pubDate" : "2012年9月20日",
"enterDate" : "384200:27:03",
"channelId" : "7333304547492221588",
"channelName" : "汽车保险-新浪汽车",
"channelNameSummary" : "汽车保险-新浪汽车",
"channelUrl" : "http:\/\/auto.sina.com.cn\/insurance\/index.shtml",
"author" : "WWW.SINA.COM.CN",
"tags" : [],
"desc" : "",
"emailed" : False,
"forwarded" : False,
"english" : False
}  , {
"index" : 19,
"articleIndex" : "143",
"favor" :  False ,
     "read" : False,    
"title" : "如何让异地理赔快起来 专家答疑解惑",
"titleTip" : "如何让异地理赔快起来 专家答疑解惑",
"titleSummary" : "如何让异地理赔快起来 专家答疑解惑",
"descSummary" : "",
"url" : "http:\/\/go.rss.sina.com.cn\/redirect.php?url=http:\/\/auto.sina.com.cn\/car\/2012-09-12\/08351031129.shtml",
"pubDate" : "2012年9月12日",
"enterDate" : "384200:18:51",
"channelId" : "7333304547492221588",
"channelName" : "汽车保险-新浪汽车",
"channelNameSummary" : "汽车保险-新浪汽车",
"channelUrl" : "http:\/\/auto.sina.com.cn\/insurance\/index.shtml",
"author" : "WWW.SINA.COM.CN",
"tags" : [],
"desc" : "",
"emailed" : False,
"forwarded" : False,
"english" : False
} ]
}
