{
"mode" : {"viewTitle" : 1,   "viewNew" : 0,  "pageIndex" : 1 },
 "channel" : {"id" : "3923000373629945052", "booked" : False, "subNumber" : 1, "name" : "北京房产-地产新闻", "url" : "http:\/\/bj.house.sina.com.cn\/news2008-04-10\/index.html", "feed" : "http:\/\/rss.sina.com.cn\/bjhouse\/dcnews.xml", "author" : "", "desc" : "北京房产-地产新闻", "imageUrl" : "http:\/\/www.sinaimg.cn\/house\/sina_fc.gif", "postPerWeek" : "0", "lastCrawTime" : "17:04:50", "crawDateTime" : "17:04:50", "lastHttpCode" : "200"}, "page" : {
"startIndex" : 0,
"totalCount" : 5000,
"pageIndex" : 1,
"lastPage" : 250,
"pageSize" : 20,
"english" :  False },
 "unreadNum" : 0, "shotIndex" : -1,
"articles" : [
{
"index" : 0,
"articleIndex" : "110645",
"favor" :  False ,
     "read" : False,    
"title" : "招商地产1.99亿购东力实业逾70%股权",
"titleTip" : "招商地产1.99亿购东力实业逾70%股权",
"titleSummary" : "招商地产1.99亿购东力实业逾70%股权",
"descSummary" : "东力实业4月27日公告，招商地产透过离岸公司斥资1.99亿元，向公...",
"url" : "http:\/\/go.rss.sina.com.cn\/redirect.php?url=http:\/\/news.dichan.sina.com.cn\/2012\/04\/28\/482565.html?source=rss",
"pubDate" : "2012年4月28日",
"enterDate" : "384200:59:23",
"channelId" : "3923000373629945052",
"channelName" : "北京房产-地产新闻",
"channelNameSummary" : "北京房产-地产新闻",
"channelUrl" : "http:\/\/bj.house.sina.com.cn\/news2008-04-10\/index.html",
"author" : "WWW.SINA.COM.CN",
"tags" : [],
"desc" : "东力实业4月27日公告，招商地产透过离岸公司斥资1.99亿元，向公司主席兼主要股东苏树辉等人合共收购东力实业70.18%股权。待全部买卖协议完成后，东力实业将成为招商地产间接拥有70.18%的附属公司，而集团的财务业绩将作为附属公司于招商地产的集团财务业绩综合计算。",
"emailed" : False,
"forwarded" : False,
"english" : False
}  , {
"index" : 1,
"articleIndex" : "110644",
"favor" :  False ,
     "read" : False,    
"title" : "买房办理产权登记户口簿能否代替结婚证",
"titleTip" : "买房办理产权登记户口簿能否代替结婚证",
"titleSummary" : "买房办理产权登记户口簿能否代替结婚证",
"descSummary" : "东力实业4月27日公告，招商地产透过离岸公司斥资1.99亿元，...",
"url" : "http:\/\/go.rss.sina.com.cn\/redirect.php?url=http:\/\/news.dichan.sina.com.cn\/2012\/04\/28\/482562.html?source=rss",
"pubDate" : "2012年4月28日",
"enterDate" : "384200:57:17",
"channelId" : "3923000373629945052",
"channelName" : "北京房产-地产新闻",
"channelNameSummary" : "北京房产-地产新闻",
"channelUrl" : "http:\/\/bj.house.sina.com.cn\/news2008-04-10\/index.html",
"author" : "WWW.SINA.COM.CN",
"tags" : [],
"desc" : "东力实业4月27日公告，招商地产透过离岸公司斥资1.99亿元，向公司主席兼主要股东苏树辉等人合共收购东力实业70.18%股权。待全部买卖协议完成后，东力实业将成为招商地产间接拥有70.18%的附属公司，而集团的财务业绩将作为附属公司于招商地产的集团财务业绩综合计算。",
"emailed" : False,
"forwarded" : False,
"english" : False
}  , {
"index" : 2,
"articleIndex" : "110643",
"favor" :  False ,
     "read" : False,    
"title" : "东汇森语林预计5月开盘 敬请关注(图)",
"titleTip" : "东汇森语林预计5月开盘 敬请关注(图)",
"titleSummary" : "东汇森语林预计5月开盘 敬请关注(图)",
"descSummary" : "东力实业4月27日公告，招商地产透过离岸公司斥资1.99亿元，向公...",
"url" : "http:\/\/go.rss.sina.com.cn\/redirect.php?url=http:\/\/news.dichan.sina.com.cn\/2012\/04\/28\/482561.html?source=rss",
"pubDate" : "2012年4月28日",
"enterDate" : "384200:55:22",
"channelId" : "3923000373629945052",
"channelName" : "北京房产-地产新闻",
"channelNameSummary" : "北京房产-地产新闻",
"channelUrl" : "http:\/\/bj.house.sina.com.cn\/news2008-04-10\/index.html",
"author" : "WWW.SINA.COM.CN",
"tags" : [],
"desc" : "东力实业4月27日公告，招商地产透过离岸公司斥资1.99亿元，向公司主席兼主要股东苏树辉等人合共收购东力实业70.18%股权。待全部买卖协议完成后，东力实业将成为招商地产间接拥有70.18%的附属公司，而集团的财务业绩将作为附属公司于招商地产的集团财务业绩综合计算。",
"emailed" : False,
"forwarded" : False,
"english" : False
}  , {
"index" : 3,
"articleIndex" : "110642",
"favor" :  False ,
     "read" : False,    
"title" : "上海:受调控影响 一季度住房公积金个贷续降至60亿",
"titleTip" : "上海:受调控影响 一季度住房公积金个贷续降至60亿",
"titleSummary" : "上海:受调控影响 一季度住房公积金个贷续降至60亿",
"descSummary" : "其中，住房公积金归集98.04亿元，占归集额的77%；...",
"url" : "http:\/\/go.rss.sina.com.cn\/redirect.php?url=http:\/\/news.dichan.sina.com.cn\/2012\/04\/28\/482559.html?source=rss",
"pubDate" : "2012年4月28日",
"enterDate" : "384200:55:01",
"channelId" : "3923000373629945052",
"channelName" : "北京房产-地产新闻",
"channelNameSummary" : "北京房产-地产新闻",
"channelUrl" : "http:\/\/bj.house.sina.com.cn\/news2008-04-10\/index.html",
"author" : "WWW.SINA.COM.CN",
"tags" : [],
"desc" : "其中，住房公积金归集98.04亿元，占归集额的77%；补充公积金归集29.12亿元，占归集额的23%。报告指，上海一季度公积金个贷规模持续下降，其中共有产权保障房(经济适用住房)个贷量上升。",
"emailed" : False,
"forwarded" : False,
"english" : False
}  , {
"index" : 4,
"articleIndex" : "110641",
"favor" :  False ,
     "read" : False,    
"title" : "个税综合计征或将施行 首先在金融房地产业进行试点",
"titleTip" : "个税综合计征或将施行 首先在金融房地产业进行试点",
"titleSummary" : "个税综合计征或将施行 首先在金融房地产业进行试点",
"descSummary" : "报道，4月26日，中国社科院财经战略研究院研究员...",
"url" : "http:\/\/go.rss.sina.com.cn\/redirect.php?url=http:\/\/news.dichan.sina.com.cn\/2012\/04\/28\/482558.html?source=rss",
"pubDate" : "2012年4月28日",
"enterDate" : "384200:54:04",
"channelId" : "3923000373629945052",
"channelName" : "北京房产-地产新闻",
"channelNameSummary" : "北京房产-地产新闻",
"channelUrl" : "http:\/\/bj.house.sina.com.cn\/news2008-04-10\/index.html",
"author" : "WWW.SINA.COM.CN",
"tags" : [],
"desc" : "报道，4月26日，中国社科院财经战略研究院研究员杨志勇透露，税收征管部门已经准备在金融、房地产从业者等高收入群体进行个人所得税综合征税试点工作。\u201D \u201C综合税制\u201D是税收征管机关的专业用语，意指将个人或征税对象的所有收入先行加总，然后按照一定的税率统一征税。",
"emailed" : False,
"forwarded" : False,
"english" : False
}  , {
"index" : 5,
"articleIndex" : "110640",
"favor" :  False ,
     "read" : False,    
"title" : "印象生活圈①：栽得梧桐凤来至 刚需置业青枫里",
"titleTip" : "印象生活圈①：栽得梧桐凤来至 刚需置业青枫里",
"titleSummary" : "印象生活圈①：栽得梧桐凤来至 刚需置业青枫里",
"descSummary" : "报道，4月26日，中国社科院财经战略研究院研究员杨志...",
"url" : "http:\/\/go.rss.sina.com.cn\/redirect.php?url=http:\/\/news.dichan.sina.com.cn\/2012\/04\/28\/482553.html?source=rss",
"pubDate" : "2012年4月28日",
"enterDate" : "384200:50:09",
"channelId" : "3923000373629945052",
"channelName" : "北京房产-地产新闻",
"channelNameSummary" : "北京房产-地产新闻",
"channelUrl" : "http:\/\/bj.house.sina.com.cn\/news2008-04-10\/index.html",
"author" : "WWW.SINA.COM.CN",
"tags" : [],
"desc" : "报道，4月26日，中国社科院财经战略研究院研究员杨志勇透露，税收征管部门已经准备在金融、房地产从业者等高收入群体进行个人所得税综合征税试点工作。\u201D \u201C综合税制\u201D是税收征管机关的专业用语，意指将个人或征税对象的所有收入先行加总，然后按照一定的税率统一征税。",
"emailed" : False,
"forwarded" : False,
"english" : False
}  , {
"index" : 6,
"articleIndex" : "110639",
"favor" :  False ,
     "read" : False,    
"title" : "秘境阿拉善向浙商伸出橄榄枝",
"titleTip" : "秘境阿拉善向浙商伸出橄榄枝",
"titleSummary" : "秘境阿拉善向浙商伸出橄榄枝",
"descSummary" : "报道，4月26日，中国社科院财经战略研究院研究员杨志勇透露，税收征管...",
"url" : "http:\/\/go.rss.sina.com.cn\/redirect.php?url=http:\/\/news.dichan.sina.com.cn\/2012\/04\/28\/482552.html?source=rss",
"pubDate" : "2012年4月28日",
"enterDate" : "384200:47:38",
"channelId" : "3923000373629945052",
"channelName" : "北京房产-地产新闻",
"channelNameSummary" : "北京房产-地产新闻",
"channelUrl" : "http:\/\/bj.house.sina.com.cn\/news2008-04-10\/index.html",
"author" : "WWW.SINA.COM.CN",
"tags" : [],
"desc" : "报道，4月26日，中国社科院财经战略研究院研究员杨志勇透露，税收征管部门已经准备在金融、房地产从业者等高收入群体进行个人所得税综合征税试点工作。\u201D \u201C综合税制\u201D是税收征管机关的专业用语，意指将个人或征税对象的所有收入先行加总，然后按照一定的税率统一征税。",
"emailed" : False,
"forwarded" : False,
"english" : False
}  , {
"index" : 7,
"articleIndex" : "110638",
"favor" :  False ,
     "read" : False,    
"title" : "北京2012国有建设用地供应计划拟供应工业用地共计1100公顷",
"titleTip" : "北京2012国有建设用地供应计划拟供应工业用地共计1100公顷",
"titleSummary" : "北京2012国有建设用地供应计划拟供应工业用地共计1100公顷",
"descSummary" : "",
"url" : "http:\/\/go.rss.sina.com.cn\/redirect.php?url=http:\/\/news.dichan.sina.com.cn\/2012\/04\/28\/482550.html?source=rss",
"pubDate" : "2012年4月28日",
"enterDate" : "384201:13:37",
"channelId" : "3923000373629945052",
"channelName" : "北京房产-地产新闻",
"channelNameSummary" : "北京房产-地产新闻",
"channelUrl" : "http:\/\/bj.house.sina.com.cn\/news2008-04-10\/index.html",
"author" : "WWW.SINA.COM.CN",
"tags" : [],
"desc" : "",
"emailed" : False,
"forwarded" : False,
"english" : False
}  , {
"index" : 8,
"articleIndex" : "110637",
"favor" :  False ,
     "read" : False,    
"title" : "香江家居CBD，备受推崇成商铺\"高富帅\"",
"titleTip" : "香江家居CBD，备受推崇成商铺\"高富帅\"",
"titleSummary" : "香江家居CBD，备受推崇成商铺\"高富帅\"",
"descSummary" : "",
"url" : "http:\/\/go.rss.sina.com.cn\/redirect.php?url=http:\/\/news.dichan.sina.com.cn\/2012\/04\/28\/482549.html?source=rss",
"pubDate" : "2012年4月28日",
"enterDate" : "384201:10:20",
"channelId" : "3923000373629945052",
"channelName" : "北京房产-地产新闻",
"channelNameSummary" : "北京房产-地产新闻",
"channelUrl" : "http:\/\/bj.house.sina.com.cn\/news2008-04-10\/index.html",
"author" : "WWW.SINA.COM.CN",
"tags" : [],
"desc" : "",
"emailed" : False,
"forwarded" : False,
"english" : False
}  , {
"index" : 9,
"articleIndex" : "110636",
"favor" :  False ,
     "read" : False,    
"title" : "今年想买房人群占52% 心理价位在6500元左右",
"titleTip" : "今年想买房人群占52% 心理价位在6500元左右",
"titleSummary" : "今年想买房人群占52% 心理价位在6500元左右",
"descSummary" : "杨波 上实熙望置业顾问 今年有购房打算，本次购房属于首...",
"url" : "http:\/\/go.rss.sina.com.cn\/redirect.php?url=http:\/\/news.dichan.sina.com.cn\/2012\/04\/28\/482542.html?source=rss",
"pubDate" : "2012年4月28日",
"enterDate" : "384201:02:26",
"channelId" : "3923000373629945052",
"channelName" : "北京房产-地产新闻",
"channelNameSummary" : "北京房产-地产新闻",
"channelUrl" : "http:\/\/bj.house.sina.com.cn\/news2008-04-10\/index.html",
"author" : "WWW.SINA.COM.CN",
"tags" : [],
"desc" : "杨波 上实熙望置业顾问 今年有购房打算，本次购房属于首套房，鉴于市场观望情绪严重，希望再等一段时间入手，看重区域在金沙、茶店子一带，价格在5000-6000元\/平米内可以接受。",
"emailed" : False,
"forwarded" : False,
"english" : False
}  , {
"index" : 10,
"articleIndex" : "110635",
"favor" :  False ,
     "read" : False,    
"title" : "4月商品住宅成交下滑 回归正常不比3月刚需爆发",
"titleTip" : "4月商品住宅成交下滑 回归正常不比3月刚需爆发",
"titleSummary" : "4月商品住宅成交下滑 回归正常不比3月刚需爆发",
"descSummary" : "杨波 上实熙望置业顾问 今年有购房打算，本次购房属于...",
"url" : "http:\/\/go.rss.sina.com.cn\/redirect.php?url=http:\/\/news.dichan.sina.com.cn\/2012\/04\/28\/482535.html?source=rss",
"pubDate" : "2012年4月28日",
"enterDate" : "384201:00:18",
"channelId" : "3923000373629945052",
"channelName" : "北京房产-地产新闻",
"channelNameSummary" : "北京房产-地产新闻",
"channelUrl" : "http:\/\/bj.house.sina.com.cn\/news2008-04-10\/index.html",
"author" : "WWW.SINA.COM.CN",
"tags" : [],
"desc" : "杨波 上实熙望置业顾问 今年有购房打算，本次购房属于首套房，鉴于市场观望情绪严重，希望再等一段时间入手，看重区域在金沙、茶店子一带，价格在5000-6000元\/平米内可以接受。",
"emailed" : False,
"forwarded" : False,
"english" : False
}  , {
"index" : 11,
"articleIndex" : "110634",
"favor" :  False ,
     "read" : False,    
"title" : "海南：让全省每个中低收入家庭都有房住",
"titleTip" : "海南：让全省每个中低收入家庭都有房住",
"titleSummary" : "海南：让全省每个中低收入家庭都有房住",
"descSummary" : "胡光辉说，党代会报告今年在教育方面用了较大篇幅，提出把引...",
"url" : "http:\/\/go.rss.sina.com.cn\/redirect.php?url=http:\/\/news.dichan.sina.com.cn\/2012\/04\/28\/482538.html?source=rss",
"pubDate" : "2012年4月28日",
"enterDate" : "384201:00:03",
"channelId" : "3923000373629945052",
"channelName" : "北京房产-地产新闻",
"channelNameSummary" : "北京房产-地产新闻",
"channelUrl" : "http:\/\/bj.house.sina.com.cn\/news2008-04-10\/index.html",
"author" : "WWW.SINA.COM.CN",
"tags" : [],
"desc" : "胡光辉说，党代会报告今年在教育方面用了较大篇幅，提出把引进好校长、好教师作为一项战略工程逐年实施。肖杰提出，海南目前的农民收入来源比较单一，下一步将进一步拓展农民的收入来源，从生产性收入、务工性收入和财产性收入三方面拉动农民增收。",
"emailed" : False,
"forwarded" : False,
"english" : False
}  , {
"index" : 12,
"articleIndex" : "110633",
"favor" :  False ,
     "read" : False,    
"title" : "海南琼海楼市五一或难现热旺 以价换量仍是主流",
"titleTip" : "海南琼海楼市五一或难现热旺 以价换量仍是主流",
"titleSummary" : "海南琼海楼市五一或难现热旺 以价换量仍是主流",
"descSummary" : "\u201C五一\u201D假期两天后即将到来，与以往不同的是，琼海楼...",
"url" : "http:\/\/go.rss.sina.com.cn\/redirect.php?url=http:\/\/news.dichan.sina.com.cn\/2012\/04\/28\/482536.html?source=rss",
"pubDate" : "2012年4月28日",
"enterDate" : "384200:59:28",
"channelId" : "3923000373629945052",
"channelName" : "北京房产-地产新闻",
"channelNameSummary" : "北京房产-地产新闻",
"channelUrl" : "http:\/\/bj.house.sina.com.cn\/news2008-04-10\/index.html",
"author" : "WWW.SINA.COM.CN",
"tags" : [],
"desc" : "\u201C五一\u201D假期两天后即将到来，与以往不同的是，琼海楼市近期出奇地\u201C平静\u201D，笔者走访并了解了大部分琼海楼盘，在价格这一方面。而黄金周之前的一季度，琼海楼市促销优惠层出不穷，2、3月份均迎来成交高潮，据琼海房产热线数据统计，一季度，琼海楼市成交1663套，排在海口、三亚之....",
"emailed" : False,
"forwarded" : False,
"english" : False
}  , {
"index" : 13,
"articleIndex" : "110632",
"favor" :  False ,
     "read" : False,    
"title" : "中国房企上演\u201C刚需\u201D争夺战",
"titleTip" : "中国房企上演\u201C刚需\u201D争夺战",
"titleSummary" : "中国房企上演\u201C刚需\u201D争夺战",
"descSummary" : "\u201D中国指数研究院杭州分院研究总监曹旭东表示，楼市再次掀起\u201C刚需\u201D争...",
"url" : "http:\/\/go.rss.sina.com.cn\/redirect.php?url=http:\/\/news.dichan.sina.com.cn\/2012\/04\/28\/482532.html?source=rss",
"pubDate" : "2012年4月28日",
"enterDate" : "384200:57:59",
"channelId" : "3923000373629945052",
"channelName" : "北京房产-地产新闻",
"channelNameSummary" : "北京房产-地产新闻",
"channelUrl" : "http:\/\/bj.house.sina.com.cn\/news2008-04-10\/index.html",
"author" : "WWW.SINA.COM.CN",
"tags" : [],
"desc" : "\u201D中国指数研究院杭州分院研究总监曹旭东表示，楼市再次掀起\u201C刚需\u201D争夺战，主要是近期楼市调控政策微调，\u201C保刚需\u201D政策取向明显。2012年一季度，房企对\u201C刚需\u201D的激烈争夺引致深度\u201C以价换量\u201D，中国楼市迎来本轮调控以来的首次成交回升。",
"emailed" : False,
"forwarded" : False,
"english" : False
}  , {
"index" : 14,
"articleIndex" : "110631",
"favor" :  False ,
     "read" : False,    
"title" : "西贵不贵 熙望\"换脸\"迎刚需",
"titleTip" : "西贵不贵 熙望\"换脸\"迎刚需",
"titleSummary" : "西贵不贵 熙望\"换脸\"迎刚需",
"descSummary" : "\u201D中国指数研究院杭州分院研究总监曹旭东表示，楼市再次掀起\u201C刚需\u201D争夺...",
"url" : "http:\/\/go.rss.sina.com.cn\/redirect.php?url=http:\/\/news.dichan.sina.com.cn\/2012\/04\/28\/482531.html?source=rss",
"pubDate" : "2012年4月28日",
"enterDate" : "384200:57:23",
"channelId" : "3923000373629945052",
"channelName" : "北京房产-地产新闻",
"channelNameSummary" : "北京房产-地产新闻",
"channelUrl" : "http:\/\/bj.house.sina.com.cn\/news2008-04-10\/index.html",
"author" : "WWW.SINA.COM.CN",
"tags" : [],
"desc" : "\u201D中国指数研究院杭州分院研究总监曹旭东表示，楼市再次掀起\u201C刚需\u201D争夺战，主要是近期楼市调控政策微调，\u201C保刚需\u201D政策取向明显。2012年一季度，房企对\u201C刚需\u201D的激烈争夺引致深度\u201C以价换量\u201D，中国楼市迎来本轮调控以来的首次成交回升。",
"emailed" : False,
"forwarded" : False,
"english" : False
}  , {
"index" : 15,
"articleIndex" : "110630",
"favor" :  False ,
     "read" : False,    
"title" : "今年成都市中心城区新建近1.6万套保障房",
"titleTip" : "今年成都市中心城区新建近1.6万套保障房",
"titleSummary" : "今年成都市中心城区新建近1.6万套保障房",
"descSummary" : "昨日，记者从成都市房管局获悉，今年，成都市中心城区将新建...",
"url" : "http:\/\/go.rss.sina.com.cn\/redirect.php?url=http:\/\/news.dichan.sina.com.cn\/2012\/04\/28\/482529.html?source=rss",
"pubDate" : "2012年4月28日",
"enterDate" : "384200:55:54",
"channelId" : "3923000373629945052",
"channelName" : "北京房产-地产新闻",
"channelNameSummary" : "北京房产-地产新闻",
"channelUrl" : "http:\/\/bj.house.sina.com.cn\/news2008-04-10\/index.html",
"author" : "WWW.SINA.COM.CN",
"tags" : [],
"desc" : "昨日，记者从成都市房管局获悉，今年，成都市中心城区将新建7个保障性住房项目。记者从房管局相关人士处得知，这7个项目分别是\u201C东锦城\u201D（A、B区）、\u201C尚锦苑\u201D、\u201C银木佳苑\u201D、\u201C海棠佳苑\u201D、\u201C蓉西阳光\u201D以及\u201C粉房佳苑\u201D（暂定名）。",
"emailed" : False,
"forwarded" : False,
"english" : False
}  , {
"index" : 16,
"articleIndex" : "110629",
"favor" :  False ,
     "read" : False,    
"title" : "海口：购房者可以对不公平条款说\u201C不\u201D",
"titleTip" : "海口：购房者可以对不公平条款说\u201C不\u201D",
"titleSummary" : "海口：购房者可以对不公平条款说\u201C不\u201D",
"descSummary" : "在法庭上开发商主张应当按照合同第十五条约定的，在未能如约...",
"url" : "http:\/\/go.rss.sina.com.cn\/redirect.php?url=http:\/\/news.dichan.sina.com.cn\/2012\/04\/28\/482528.html?source=rss",
"pubDate" : "2012年4月28日",
"enterDate" : "384200:55:07",
"channelId" : "3923000373629945052",
"channelName" : "北京房产-地产新闻",
"channelNameSummary" : "北京房产-地产新闻",
"channelUrl" : "http:\/\/bj.house.sina.com.cn\/news2008-04-10\/index.html",
"author" : "WWW.SINA.COM.CN",
"tags" : [],
"desc" : "在法庭上开发商主张应当按照合同第十五条约定的，在未能如约办理房产证的情况下，买受人退房，开发商向买受人全额退款，并付清相关利息。最终海口中院作出终审判决，支持李某等买受人主张，要求开发商继续履行合同义务，为李某等人办理房产证。",
"emailed" : False,
"forwarded" : False,
"english" : False
}  , {
"index" : 17,
"articleIndex" : "110628",
"favor" :  False ,
     "read" : False,    
"title" : "道一句\u201C邻居，您好！\u201D 让\u201C邻里文化\u201D成金科符号",
"titleTip" : "道一句\u201C邻居，您好！\u201D 让\u201C邻里文化\u201D成金科符号",
"titleSummary" : "道一句\u201C邻居，您好！\u201D 让\u201C邻里文化\u201D成金科符号",
"descSummary" : "在法庭上开发商主张应当按照合同第十五条约定的，...",
"url" : "http:\/\/go.rss.sina.com.cn\/redirect.php?url=http:\/\/news.dichan.sina.com.cn\/2012\/04\/28\/482527.html?source=rss",
"pubDate" : "2012年4月28日",
"enterDate" : "384200:54:56",
"channelId" : "3923000373629945052",
"channelName" : "北京房产-地产新闻",
"channelNameSummary" : "北京房产-地产新闻",
"channelUrl" : "http:\/\/bj.house.sina.com.cn\/news2008-04-10\/index.html",
"author" : "WWW.SINA.COM.CN",
"tags" : [],
"desc" : "在法庭上开发商主张应当按照合同第十五条约定的，在未能如约办理房产证的情况下，买受人退房，开发商向买受人全额退款，并付清相关利息。最终海口中院作出终审判决，支持李某等买受人主张，要求开发商继续履行合同义务，为李某等人办理房产证。",
"emailed" : False,
"forwarded" : False,
"english" : False
}  , {
"index" : 18,
"articleIndex" : "110627",
"favor" :  False ,
     "read" : False,    
"title" : "4月大量刚需入市 会否引起楼市反弹？",
"titleTip" : "4月大量刚需入市 会否引起楼市反弹？",
"titleSummary" : "4月大量刚需入市 会否引起楼市反弹？",
"descSummary" : "即使大量的刚需入市，但从长远看对楼市的影响还是有限 当前，楼...",
"url" : "http:\/\/go.rss.sina.com.cn\/redirect.php?url=http:\/\/news.dichan.sina.com.cn\/2012\/04\/28\/482525.html?source=rss",
"pubDate" : "2012年4月28日",
"enterDate" : "384200:53:21",
"channelId" : "3923000373629945052",
"channelName" : "北京房产-地产新闻",
"channelNameSummary" : "北京房产-地产新闻",
"channelUrl" : "http:\/\/bj.house.sina.com.cn\/news2008-04-10\/index.html",
"author" : "WWW.SINA.COM.CN",
"tags" : [],
"desc" : "即使大量的刚需入市，但从长远看对楼市的影响还是有限 当前，楼市调控效果正在逐渐显现，多地推出一系列减轻刚需买房困难的政策。据记者粗略统计，自2011年下半年以来，北京、上海、杭州、武汉、南京等10多个城市出台了不同角度的楼市政策\u201C微调\u201D，内容涉及限购变化、土地出让....",
"emailed" : False,
"forwarded" : False,
"english" : False
}  , {
"index" : 19,
"articleIndex" : "110626",
"favor" :  False ,
     "read" : False,    
"title" : "渝派翘楚 挥师华中",
"titleTip" : "渝派翘楚 挥师华中",
"titleSummary" : "渝派翘楚 挥师华中",
"descSummary" : "即使大量的刚需入市，但从长远看对楼市的影响还是有限 当前，楼市调控效果正在逐...",
"url" : "http:\/\/go.rss.sina.com.cn\/redirect.php?url=http:\/\/news.dichan.sina.com.cn\/2012\/04\/28\/482524.html?source=rss",
"pubDate" : "2012年4月28日",
"enterDate" : "384200:53:02",
"channelId" : "3923000373629945052",
"channelName" : "北京房产-地产新闻",
"channelNameSummary" : "北京房产-地产新闻",
"channelUrl" : "http:\/\/bj.house.sina.com.cn\/news2008-04-10\/index.html",
"author" : "WWW.SINA.COM.CN",
"tags" : [],
"desc" : "即使大量的刚需入市，但从长远看对楼市的影响还是有限 当前，楼市调控效果正在逐渐显现，多地推出一系列减轻刚需买房困难的政策。据记者粗略统计，自2011年下半年以来，北京、上海、杭州、武汉、南京等10多个城市出台了不同角度的楼市政策\u201C微调\u201D，内容涉及限购变化、土地出让....",
"emailed" : False,
"forwarded" : False,
"english" : False
} ]
}
