{
"mode" : {"viewTitle" : 1,   "viewNew" : 0,  "pageIndex" : 2 },
 "channel" : {"id" : "3923000373629945052", "booked" : False, "subNumber" : 1, "name" : "北京房产-地产新闻", "url" : "http:\/\/bj.house.sina.com.cn\/news2008-04-10\/index.html", "feed" : "http:\/\/rss.sina.com.cn\/bjhouse\/dcnews.xml", "author" : "", "desc" : "北京房产-地产新闻", "imageUrl" : "http:\/\/www.sinaimg.cn\/house\/sina_fc.gif", "postPerWeek" : "0", "lastCrawTime" : "17:04:50", "crawDateTime" : "17:04:50", "lastHttpCode" : "200"}, "page" : {
"startIndex" : 20,
"totalCount" : 5000,
"pageIndex" : 2,
"lastPage" : 250,
"pageSize" : 20,
"english" :  False },
 "unreadNum" : 0, "shotIndex" : -1,
"articles" : [
{
"index" : 0,
"articleIndex" : "110625",
"favor" :  False ,
     "read" : False,    
"title" : "云南住建厅：滇房价未回到合理价位 调控不动摇",
"titleTip" : "云南住建厅：滇房价未回到合理价位 调控不动摇",
"titleSummary" : "云南住建厅：滇房价未回到合理价位 调控不动摇",
"descSummary" : "2012年各州市房地产开发投资目标任务分别为：昆明75...",
"url" : "http:\/\/go.rss.sina.com.cn\/redirect.php?url=http:\/\/news.dichan.sina.com.cn\/2012\/04\/28\/482520.html?source=rss",
"pubDate" : "2012年4月28日",
"enterDate" : "384200:50:22",
"channelId" : "3923000373629945052",
"channelName" : "北京房产-地产新闻",
"channelNameSummary" : "北京房产-地产新闻",
"channelUrl" : "http:\/\/bj.house.sina.com.cn\/news2008-04-10\/index.html",
"author" : "WWW.SINA.COM.CN",
"tags" : [],
"desc" : "2012年各州市房地产开发投资目标任务分别为：昆明751亿元、曲靖166亿元、玉溪80亿元、保山35亿元、昭通30亿元、丽江47亿元、普洱56亿元、临沧32亿元、楚雄63亿元、红河87亿元、文山37亿元、西双版纳37亿元、大理55亿元、德宏38亿元、怒江7亿元、迪庆6亿元。",
"emailed" : False,
"forwarded" : False,
"english" : False
}  , {
"index" : 1,
"articleIndex" : "110624",
"favor" :  False ,
     "read" : False,    
"title" : "广州前期降价楼盘部分反弹 46%的楼盘价格上扬",
"titleTip" : "广州前期降价楼盘部分反弹 46%的楼盘价格上扬",
"titleSummary" : "广州前期降价楼盘部分反弹 46%的楼盘价格上扬",
"descSummary" : "一方面，4月楼市又加多两成楼盘加入促销阵营，在番禺...",
"url" : "http:\/\/go.rss.sina.com.cn\/redirect.php?url=http:\/\/news.dichan.sina.com.cn\/2012\/04\/28\/482517.html?source=rss",
"pubDate" : "2012年4月28日",
"enterDate" : "384200:49:12",
"channelId" : "3923000373629945052",
"channelName" : "北京房产-地产新闻",
"channelNameSummary" : "北京房产-地产新闻",
"channelUrl" : "http:\/\/bj.house.sina.com.cn\/news2008-04-10\/index.html",
"author" : "WWW.SINA.COM.CN",
"tags" : [],
"desc" : "一方面，4月楼市又加多两成楼盘加入促销阵营，在番禺兴起，并日渐向天河、海珠行进。具体而言：(2月25日~3月25日)和本月数据(3月26日~4月24日)进行对比分析显示，全市网签均价方面，本月网签均价为12180元\/平方米，环比上月的11120元\/平方米，上涨9.5%。",
"emailed" : False,
"forwarded" : False,
"english" : False
}  , {
"index" : 2,
"articleIndex" : "110623",
"favor" :  False ,
     "read" : False,    
"title" : "江苏扬州保障房：卫星定位监控建设进程",
"titleTip" : "江苏扬州保障房：卫星定位监控建设进程",
"titleSummary" : "江苏扬州保障房：卫星定位监控建设进程",
"descSummary" : "扬州市房管部门日前演示了新开发的保障性住房信息系统，其中...",
"url" : "http:\/\/go.rss.sina.com.cn\/redirect.php?url=http:\/\/news.dichan.sina.com.cn\/2012\/04\/28\/482516.html?source=rss",
"pubDate" : "2012年4月28日",
"enterDate" : "384200:48:08",
"channelId" : "3923000373629945052",
"channelName" : "北京房产-地产新闻",
"channelNameSummary" : "北京房产-地产新闻",
"channelUrl" : "http:\/\/bj.house.sina.com.cn\/news2008-04-10\/index.html",
"author" : "WWW.SINA.COM.CN",
"tags" : [],
"desc" : "扬州市房管部门日前演示了新开发的保障性住房信息系统，其中卫星定位功能引人注目。运用GIS卫星定位后，房管部门可从后方终端获取保障性住房的卫星图片，远程监控各类保障性住房的建设进程。",
"emailed" : False,
"forwarded" : False,
"english" : False
}  , {
"index" : 3,
"articleIndex" : "110622",
"favor" :  False ,
     "read" : False,    
"title" : "广州今年首批廉租房昨摇珠分配 廿三户抢一套",
"titleTip" : "广州今年首批廉租房昨摇珠分配 廿三户抢一套",
"titleSummary" : "广州今年首批廉租房昨摇珠分配 廿三户抢一套",
"descSummary" : "昨日，广州市住房保障办举行广州今年第一批1038套廉租...",
"url" : "http:\/\/go.rss.sina.com.cn\/redirect.php?url=http:\/\/news.dichan.sina.com.cn\/2012\/04\/28\/482513.html?source=rss",
"pubDate" : "2012年4月28日",
"enterDate" : "384200:44:47",
"channelId" : "3923000373629945052",
"channelName" : "北京房产-地产新闻",
"channelNameSummary" : "北京房产-地产新闻",
"channelUrl" : "http:\/\/bj.house.sina.com.cn\/news2008-04-10\/index.html",
"author" : "WWW.SINA.COM.CN",
"tags" : [],
"desc" : "昨日，广州市住房保障办举行广州今年第一批1038套廉租住房摇珠分配仪式，1723户家庭参加摇珠分配。5月7日～11日 各街道办事处(镇政府)向取得配租资格的家庭发放《廉租住房入住通知书》。",
"emailed" : False,
"forwarded" : False,
"english" : False
}  , {
"index" : 4,
"articleIndex" : "110621",
"favor" :  False ,
     "read" : False,    
"title" : "今年杭州要竣工48806套保障房",
"titleTip" : "今年杭州要竣工48806套保障房",
"titleSummary" : "今年杭州要竣工48806套保障房",
"descSummary" : "具体的任务包括：开工公共租赁住房(含廉租住房)16040套，91万平方米；...",
"url" : "http:\/\/go.rss.sina.com.cn\/redirect.php?url=http:\/\/news.dichan.sina.com.cn\/2012\/04\/28\/482511.html?source=rss",
"pubDate" : "2012年4月28日",
"enterDate" : "384201:13:52",
"channelId" : "3923000373629945052",
"channelName" : "北京房产-地产新闻",
"channelNameSummary" : "北京房产-地产新闻",
"channelUrl" : "http:\/\/bj.house.sina.com.cn\/news2008-04-10\/index.html",
"author" : "WWW.SINA.COM.CN",
"tags" : [],
"desc" : "具体的任务包括：开工公共租赁住房(含廉租住房)16040套，91万平方米；开工经济适用住房7110套、56万平方米；开工拆迁安置房34402套、519万平方米；竣工公共租赁住房(含廉租住房)8905套、57万平方米；竣工经济适用住房8458套、62万平方米；竣工拆迁安置房31443套、445万平方米。",
"emailed" : False,
"forwarded" : False,
"english" : False
}  , {
"index" : 5,
"articleIndex" : "110620",
"favor" :  False ,
     "read" : False,    
"title" : "广州1031户家庭分到廉租房 两房一厅最抢手",
"titleTip" : "广州1031户家庭分到廉租房 两房一厅最抢手",
"titleSummary" : "广州1031户家庭分到廉租房 两房一厅最抢手",
"descSummary" : "具体的任务包括：开工公共租赁住房(含廉租住房)16040套，...",
"url" : "http:\/\/go.rss.sina.com.cn\/redirect.php?url=http:\/\/news.dichan.sina.com.cn\/2012\/04\/28\/482510.html?source=rss",
"pubDate" : "2012年4月28日",
"enterDate" : "384201:13:02",
"channelId" : "3923000373629945052",
"channelName" : "北京房产-地产新闻",
"channelNameSummary" : "北京房产-地产新闻",
"channelUrl" : "http:\/\/bj.house.sina.com.cn\/news2008-04-10\/index.html",
"author" : "WWW.SINA.COM.CN",
"tags" : [],
"desc" : "具体的任务包括：开工公共租赁住房(含廉租住房)16040套，91万平方米；开工经济适用住房7110套、56万平方米；开工拆迁安置房34402套、519万平方米；竣工公共租赁住房(含廉租住房)8905套、57万平方米；竣工经济适用住房8458套、62万平方米；竣工拆迁安置房31443套、445万平方米。",
"emailed" : False,
"forwarded" : False,
"english" : False
}  , {
"index" : 6,
"articleIndex" : "110619",
"favor" :  False ,
     "read" : False,    
"title" : "\"阳光童星秀\"，为龙湖小业主插上梦想的翅膀 2012年龙湖小业主声乐、器乐大赛开赛在即",
"titleTip" : "\"阳光童星秀\"，为龙湖小业主插上梦想的翅膀 2012年龙湖小业主声乐、器乐大赛开赛在即",
"titleSummary" : "\"阳光童星秀\"，为龙湖小业主插上梦想的翅膀 2012年龙湖小业主声乐、器乐大赛开赛在即",
"descSummary" : "具体的任务包括...",
"url" : "http:\/\/go.rss.sina.com.cn\/redirect.php?url=http:\/\/news.dichan.sina.com.cn\/2012\/04\/28\/482507.html?source=rss",
"pubDate" : "2012年4月28日",
"enterDate" : "384201:12:32",
"channelId" : "3923000373629945052",
"channelName" : "北京房产-地产新闻",
"channelNameSummary" : "北京房产-地产新闻",
"channelUrl" : "http:\/\/bj.house.sina.com.cn\/news2008-04-10\/index.html",
"author" : "WWW.SINA.COM.CN",
"tags" : [],
"desc" : "具体的任务包括：开工公共租赁住房(含廉租住房)16040套，91万平方米；开工经济适用住房7110套、56万平方米；开工拆迁安置房34402套、519万平方米；竣工公共租赁住房(含廉租住房)8905套、57万平方米；竣工经济适用住房8458套、62万平方米；竣工拆迁安置房31443套、445万平方米。",
"emailed" : False,
"forwarded" : False,
"english" : False
}  , {
"index" : 7,
"articleIndex" : "110618",
"favor" :  False ,
     "read" : False,    
"title" : "杭州今年将开建经济适用住房7110套",
"titleTip" : "杭州今年将开建经济适用住房7110套",
"titleSummary" : "杭州今年将开建经济适用住房7110套",
"descSummary" : "大学毕业生要在杭州就业创业，外来务工人员要在杭州安心工作，低...",
"url" : "http:\/\/go.rss.sina.com.cn\/redirect.php?url=http:\/\/news.dichan.sina.com.cn\/2012\/04\/28\/482508.html?source=rss",
"pubDate" : "2012年4月28日",
"enterDate" : "384201:12:30",
"channelId" : "3923000373629945052",
"channelName" : "北京房产-地产新闻",
"channelNameSummary" : "北京房产-地产新闻",
"channelUrl" : "http:\/\/bj.house.sina.com.cn\/news2008-04-10\/index.html",
"author" : "WWW.SINA.COM.CN",
"tags" : [],
"desc" : "大学毕业生要在杭州就业创业，外来务工人员要在杭州安心工作，低收入家庭要过和美的小日子，有房可住是基本的保障条件。今年将推出的公租房房源有2020套，其中1800套都在田园地块，剩下220套位于下城区，面积都在60平方米以下。",
"emailed" : False,
"forwarded" : False,
"english" : False
}  , {
"index" : 8,
"articleIndex" : "110617",
"favor" :  False ,
     "read" : False,    
"title" : "北京公租房租金补贴标准公布 租金三年不变",
"titleTip" : "北京公租房租金补贴标准公布 租金三年不变",
"titleSummary" : "北京公租房租金补贴标准公布 租金三年不变",
"descSummary" : "公租房租金补贴标准按照家庭收入及困难程度分为六档，最高...",
"url" : "http:\/\/go.rss.sina.com.cn\/redirect.php?url=http:\/\/news.dichan.sina.com.cn\/2012\/04\/28\/482506.html?source=rss",
"pubDate" : "2012年4月28日",
"enterDate" : "384201:12:04",
"channelId" : "3923000373629945052",
"channelName" : "北京房产-地产新闻",
"channelNameSummary" : "北京房产-地产新闻",
"channelUrl" : "http:\/\/bj.house.sina.com.cn\/news2008-04-10\/index.html",
"author" : "WWW.SINA.COM.CN",
"tags" : [],
"desc" : "公租房租金补贴标准按照家庭收入及困难程度分为六档，最高租金补贴可达95%。承租家庭未能及时交纳租金的，住房保障管理部门暂不发放公共租赁住房租金补贴，待其补齐相应租金后一并补发。",
"emailed" : False,
"forwarded" : False,
"english" : False
}  , {
"index" : 9,
"articleIndex" : "110616",
"favor" :  False ,
     "read" : False,    
"title" : "杭州今年将开工建造5.7万套保障房",
"titleTip" : "杭州今年将开工建造5.7万套保障房",
"titleSummary" : "杭州今年将开工建造5.7万套保障房",
"descSummary" : "2012年开工的57152套保障性安居工程，包含了公共租赁住房(含廉租...",
"url" : "http:\/\/go.rss.sina.com.cn\/redirect.php?url=http:\/\/news.dichan.sina.com.cn\/2012\/04\/28\/482504.html?source=rss",
"pubDate" : "2012年4月28日",
"enterDate" : "384201:09:33",
"channelId" : "3923000373629945052",
"channelName" : "北京房产-地产新闻",
"channelNameSummary" : "北京房产-地产新闻",
"channelUrl" : "http:\/\/bj.house.sina.com.cn\/news2008-04-10\/index.html",
"author" : "WWW.SINA.COM.CN",
"tags" : [],
"desc" : "2012年开工的57152套保障性安居工程，包含了公共租赁住房(含廉租住房)、经济适用住房、拆迁安置房等。今年将力争开工的7110套经济适用房，除了东风杭汽原厂区地块，还分别位于三墩北大型居住区和长睦大型居住区等。",
"emailed" : False,
"forwarded" : False,
"english" : False
}  , {
"index" : 10,
"articleIndex" : "110615",
"favor" :  False ,
     "read" : False,    
"title" : "一周关注：楼市五月天",
"titleTip" : "一周关注：楼市五月天",
"titleSummary" : "一周关注：楼市五月天",
"descSummary" : "2012年开工的57152套保障性安居工程，包含了公共租赁住房(含廉租住房)、经济...",
"url" : "http:\/\/go.rss.sina.com.cn\/redirect.php?url=http:\/\/news.dichan.sina.com.cn\/2012\/04\/28\/482502.html?source=rss",
"pubDate" : "2012年4月28日",
"enterDate" : "384201:07:32",
"channelId" : "3923000373629945052",
"channelName" : "北京房产-地产新闻",
"channelNameSummary" : "北京房产-地产新闻",
"channelUrl" : "http:\/\/bj.house.sina.com.cn\/news2008-04-10\/index.html",
"author" : "WWW.SINA.COM.CN",
"tags" : [],
"desc" : "2012年开工的57152套保障性安居工程，包含了公共租赁住房(含廉租住房)、经济适用住房、拆迁安置房等。今年将力争开工的7110套经济适用房，除了东风杭汽原厂区地块，还分别位于三墩北大型居住区和长睦大型居住区等。",
"emailed" : False,
"forwarded" : False,
"english" : False
}  , {
"index" : 11,
"articleIndex" : "110614",
"favor" :  False ,
     "read" : False,    
"title" : "杭州加快推进保障性安居工程建设",
"titleTip" : "杭州加快推进保障性安居工程建设",
"titleSummary" : "杭州加快推进保障性安居工程建设",
"descSummary" : "2012年开工的57152套保障性安居工程，包含了公共租赁住房(含廉租...",
"url" : "http:\/\/go.rss.sina.com.cn\/redirect.php?url=http:\/\/news.dichan.sina.com.cn\/2012\/04\/28\/482501.html?source=rss",
"pubDate" : "2012年4月28日",
"enterDate" : "384201:07:14",
"channelId" : "3923000373629945052",
"channelName" : "北京房产-地产新闻",
"channelNameSummary" : "北京房产-地产新闻",
"channelUrl" : "http:\/\/bj.house.sina.com.cn\/news2008-04-10\/index.html",
"author" : "WWW.SINA.COM.CN",
"tags" : [],
"desc" : "2012年开工的57152套保障性安居工程，包含了公共租赁住房(含廉租住房)、经济适用住房、拆迁安置房等。今年将力争开工的7110套经济适用房，除了东风杭汽原厂区地块，还分别位于三墩北大型居住区和长睦大型居住区等。",
"emailed" : False,
"forwarded" : False,
"english" : False
}  , {
"index" : 12,
"articleIndex" : "110613",
"favor" :  False ,
     "read" : False,    
"title" : "月月拍第三季预热五一楼市 广州房源劲省约171万",
"titleTip" : "月月拍第三季预热五一楼市 广州房源劲省约171万",
"titleSummary" : "月月拍第三季预热五一楼市 广州房源劲省约171万",
"descSummary" : "2012年开工的57152套保障性安居工程，包含了公共租赁...",
"url" : "http:\/\/go.rss.sina.com.cn\/redirect.php?url=http:\/\/news.dichan.sina.com.cn\/2012\/04\/28\/482496.html?source=rss",
"pubDate" : "2012年4月28日",
"enterDate" : "384200:58:06",
"channelId" : "3923000373629945052",
"channelName" : "北京房产-地产新闻",
"channelNameSummary" : "北京房产-地产新闻",
"channelUrl" : "http:\/\/bj.house.sina.com.cn\/news2008-04-10\/index.html",
"author" : "WWW.SINA.COM.CN",
"tags" : [],
"desc" : "2012年开工的57152套保障性安居工程，包含了公共租赁住房(含廉租住房)、经济适用住房、拆迁安置房等。今年将力争开工的7110套经济适用房，除了东风杭汽原厂区地块，还分别位于三墩北大型居住区和长睦大型居住区等。",
"emailed" : False,
"forwarded" : False,
"english" : False
}  , {
"index" : 13,
"articleIndex" : "110612",
"favor" :  False ,
     "read" : False,    
"title" : "渝派地产更懂重庆人",
"titleTip" : "渝派地产更懂重庆人",
"titleSummary" : "渝派地产更懂重庆人",
"descSummary" : "2012年开工的57152套保障性安居工程，包含了公共租赁住房(含廉租住房)、经济适...",
"url" : "http:\/\/go.rss.sina.com.cn\/redirect.php?url=http:\/\/news.dichan.sina.com.cn\/2012\/04\/28\/482495.html?source=rss",
"pubDate" : "2012年4月28日",
"enterDate" : "384200:56:42",
"channelId" : "3923000373629945052",
"channelName" : "北京房产-地产新闻",
"channelNameSummary" : "北京房产-地产新闻",
"channelUrl" : "http:\/\/bj.house.sina.com.cn\/news2008-04-10\/index.html",
"author" : "WWW.SINA.COM.CN",
"tags" : [],
"desc" : "2012年开工的57152套保障性安居工程，包含了公共租赁住房(含廉租住房)、经济适用住房、拆迁安置房等。今年将力争开工的7110套经济适用房，除了东风杭汽原厂区地块，还分别位于三墩北大型居住区和长睦大型居住区等。",
"emailed" : False,
"forwarded" : False,
"english" : False
}  , {
"index" : 14,
"articleIndex" : "110611",
"favor" :  False ,
     "read" : False,    
"title" : "买房故事：卖国内一套婚房换三套澳洲别墅",
"titleTip" : "买房故事：卖国内一套婚房换三套澳洲别墅",
"titleSummary" : "买房故事：卖国内一套婚房换三套澳洲别墅",
"descSummary" : "",
"url" : "http:\/\/go.rss.sina.com.cn\/redirect.php?url=http:\/\/news.dichan.sina.com.cn\/2012\/04\/28\/482488.html?source=rss",
"pubDate" : "2012年4月28日",
"enterDate" : "384201:12:50",
"channelId" : "3923000373629945052",
"channelName" : "北京房产-地产新闻",
"channelNameSummary" : "北京房产-地产新闻",
"channelUrl" : "http:\/\/bj.house.sina.com.cn\/news2008-04-10\/index.html",
"author" : "WWW.SINA.COM.CN",
"tags" : [],
"desc" : "",
"emailed" : False,
"forwarded" : False,
"english" : False
}  , {
"index" : 15,
"articleIndex" : "110610",
"favor" :  False ,
     "read" : False,    
"title" : "金三银四成交量同比上涨2.5倍 刚需盘撑起楼市半边天",
"titleTip" : "金三银四成交量同比上涨2.5倍 刚需盘撑起楼市半边天",
"titleSummary" : "金三银四成交量同比上涨2.5倍 刚需盘撑起楼市半边天",
"descSummary" : "",
"url" : "http:\/\/go.rss.sina.com.cn\/redirect.php?url=http:\/\/news.dichan.sina.com.cn\/2012\/04\/28\/482485.html?source=rss",
"pubDate" : "2012年4月28日",
"enterDate" : "384201:05:04",
"channelId" : "3923000373629945052",
"channelName" : "北京房产-地产新闻",
"channelNameSummary" : "北京房产-地产新闻",
"channelUrl" : "http:\/\/bj.house.sina.com.cn\/news2008-04-10\/index.html",
"author" : "WWW.SINA.COM.CN",
"tags" : [],
"desc" : "",
"emailed" : False,
"forwarded" : False,
"english" : False
}  , {
"index" : 16,
"articleIndex" : "110609",
"favor" :  False ,
     "read" : False,    
"title" : "渝派问道：未来出路在哪？",
"titleTip" : "渝派问道：未来出路在哪？",
"titleSummary" : "渝派问道：未来出路在哪？",
"descSummary" : "",
"url" : "http:\/\/go.rss.sina.com.cn\/redirect.php?url=http:\/\/news.dichan.sina.com.cn\/2012\/04\/28\/482482.html?source=rss",
"pubDate" : "2012年4月28日",
"enterDate" : "384201:03:31",
"channelId" : "3923000373629945052",
"channelName" : "北京房产-地产新闻",
"channelNameSummary" : "北京房产-地产新闻",
"channelUrl" : "http:\/\/bj.house.sina.com.cn\/news2008-04-10\/index.html",
"author" : "WWW.SINA.COM.CN",
"tags" : [],
"desc" : "",
"emailed" : False,
"forwarded" : False,
"english" : False
}  , {
"index" : 17,
"articleIndex" : "110608",
"favor" :  False ,
     "read" : False,    
"title" : "月月拍第三季南京馆10套房源竞拍成功 总优惠100万元",
"titleTip" : "月月拍第三季南京馆10套房源竞拍成功 总优惠100万元",
"titleSummary" : "月月拍第三季南京馆10套房源竞拍成功 总优惠100万元",
"descSummary" : "",
"url" : "http:\/\/go.rss.sina.com.cn\/redirect.php?url=http:\/\/news.dichan.sina.com.cn\/2012\/04\/28\/482480.html?source=rss",
"pubDate" : "2012年4月28日",
"enterDate" : "384200:59:22",
"channelId" : "3923000373629945052",
"channelName" : "北京房产-地产新闻",
"channelNameSummary" : "北京房产-地产新闻",
"channelUrl" : "http:\/\/bj.house.sina.com.cn\/news2008-04-10\/index.html",
"author" : "WWW.SINA.COM.CN",
"tags" : [],
"desc" : "",
"emailed" : False,
"forwarded" : False,
"english" : False
}  , {
"index" : 18,
"articleIndex" : "110607",
"favor" :  False ,
     "read" : False,    
"title" : "渝派地产已成为重庆又一张名片",
"titleTip" : "渝派地产已成为重庆又一张名片",
"titleSummary" : "渝派地产已成为重庆又一张名片",
"descSummary" : "",
"url" : "http:\/\/go.rss.sina.com.cn\/redirect.php?url=http:\/\/news.dichan.sina.com.cn\/2012\/04\/28\/482479.html?source=rss",
"pubDate" : "2012年4月28日",
"enterDate" : "384200:52:48",
"channelId" : "3923000373629945052",
"channelName" : "北京房产-地产新闻",
"channelNameSummary" : "北京房产-地产新闻",
"channelUrl" : "http:\/\/bj.house.sina.com.cn\/news2008-04-10\/index.html",
"author" : "WWW.SINA.COM.CN",
"tags" : [],
"desc" : "",
"emailed" : False,
"forwarded" : False,
"english" : False
}  , {
"index" : 19,
"articleIndex" : "110606",
"favor" :  False ,
     "read" : False,    
"title" : "房价你做主月月拍第三季 杭州7套房源全部竞拍成功",
"titleTip" : "房价你做主月月拍第三季 杭州7套房源全部竞拍成功",
"titleSummary" : "房价你做主月月拍第三季 杭州7套房源全部竞拍成功",
"descSummary" : "",
"url" : "http:\/\/go.rss.sina.com.cn\/redirect.php?url=http:\/\/news.dichan.sina.com.cn\/2012\/04\/28\/482477.html?source=rss",
"pubDate" : "2012年4月28日",
"enterDate" : "384200:44:42",
"channelId" : "3923000373629945052",
"channelName" : "北京房产-地产新闻",
"channelNameSummary" : "北京房产-地产新闻",
"channelUrl" : "http:\/\/bj.house.sina.com.cn\/news2008-04-10\/index.html",
"author" : "WWW.SINA.COM.CN",
"tags" : [],
"desc" : "",
"emailed" : False,
"forwarded" : False,
"english" : False
} ]
}
