{
"mode" : {"viewTitle" : 1,   "viewNew" : 0,  "pageIndex" : 1 },
 "channel" : {"id" : "-8036465548618984449", "booked" : False, "subNumber" : 1, "name" : "教育要闻汇总-新浪教育", "url" : "http:\/\/edu.sina.com.cn\/", "feed" : "http:\/\/rss.sina.com.cn\/roll\/edu\/hot_roll.xml", "author" : "WWW.SINA.COM.CN", "desc" : "教育要闻汇总", "imageUrl" : "http:\/\/www.sinaimg.cn\/home\/deco\/2009\/0330\/logo_home_edu.gif", "postPerWeek" : "0", "lastCrawTime" : "17:16:35", "crawDateTime" : "17:16:35", "lastHttpCode" : "200"}, "page" : {
"startIndex" : 0,
"totalCount" : 5000,
"pageIndex" : 1,
"lastPage" : 250,
"pageSize" : 20,
"english" :  False },
 "unreadNum" : 0, "shotIndex" : -1,
"articles" : [
{
"index" : 0,
"articleIndex" : "52899",
"favor" :  False ,
     "read" : False,    
"title" : "在职硕士学位全国联考考生求学欲越来越高",
"titleTip" : "在职硕士学位全国联考考生求学欲越来越高",
"titleSummary" : "在职硕士学位全国联考考生求学欲越来越高",
"descSummary" : "北京考试报讯(记者 刘婧)10月27日，北京市2.2万余名考生参...",
"url" : "http:\/\/go.rss.sina.com.cn\/redirect.php?url=http:\/\/edu.sina.com.cn\/kaoyan\/2013-10-30\/1708399823.shtml",
"pubDate" : "17:08:37",
"enterDate" : "384201:11:54",
"channelId" : "-8036465548618984449",
"channelName" : "教育要闻汇总-新浪教育",
"channelNameSummary" : "教育要闻汇总-新浪教...",
"channelUrl" : "http:\/\/edu.sina.com.cn\/",
"author" : "WWW.SINA.COM.CN",
"tags" : [],
"desc" : "北京考试报讯(记者 刘婧)10月27日，北京市2.2万余名考生参加了在职人员攻读硕士学位全国联考，记者走进北京师范大学考试现场，发现参加考试的在职人员求学欲越来越高。 上午8时30分开考，还不到8时就有不少考生在门外守候了。中午11时30分考完，很多考生在附近匆匆吃口....",
"emailed" : False,
"forwarded" : False,
"english" : False
}  , {
"index" : 1,
"articleIndex" : "52898",
"favor" :  False ,
     "read" : False,    
"title" : "朱F基等会见清华经管学院顾问委员会委员(图)",
"titleTip" : "朱F基等会见清华经管学院顾问委员会委员(图)",
"titleSummary" : "朱F基等会见清华经管学院顾问委员会委员(图)",
"descSummary" : "朱F基等会见清华经管学院顾问委员会委员 集体合影。朱F...",
"url" : "http:\/\/go.rss.sina.com.cn\/redirect.php?url=http:\/\/edu.sina.com.cn\/bschool\/2013-10-30\/1705399822.shtml",
"pubDate" : "17:05:56",
"enterDate" : "384201:09:13",
"channelId" : "-8036465548618984449",
"channelName" : "教育要闻汇总-新浪教育",
"channelNameSummary" : "教育要闻汇总-新浪教...",
"channelUrl" : "http:\/\/edu.sina.com.cn\/",
"author" : "WWW.SINA.COM.CN",
"tags" : [],
"desc" : "朱F基等会见清华经管学院顾问委员会委员 集体合影。 朱F基、王岐山、刘延东、马凯等会见清华经管学院顾问委员会委员 2013年10月23日下午，清华大学经济管理学院首任院长、学院顾问委员会名誉主席朱F基及夫人劳安，中共中央政治局常委、中央纪委书记、清华经管....",
"emailed" : False,
"forwarded" : False,
"english" : False
}  , {
"index" : 2,
"articleIndex" : "52897",
"favor" :  False ,
     "read" : False,    
"title" : "南开校长：研究生全面收费需与改革并行",
"titleTip" : "南开校长：研究生全面收费需与改革并行",
"titleSummary" : "南开校长：研究生全面收费需与改革并行",
"descSummary" : "自2014年秋季学期起，中国将全面实行研究生教育收费制度，...",
"url" : "http:\/\/go.rss.sina.com.cn\/redirect.php?url=http:\/\/edu.sina.com.cn\/kaoyan\/2013-10-30\/1700399821.shtml",
"pubDate" : "17:00:56",
"enterDate" : "384201:04:13",
"channelId" : "-8036465548618984449",
"channelName" : "教育要闻汇总-新浪教育",
"channelNameSummary" : "教育要闻汇总-新浪教...",
"channelUrl" : "http:\/\/edu.sina.com.cn\/",
"author" : "WWW.SINA.COM.CN",
"tags" : [],
"desc" : "自2014年秋季学期起，中国将全面实行研究生教育收费制度，即所有学生都将缴纳学费。此政策一出，众说纷纭，有人叫好，有人质疑。南开大学校长龚克，就此新闻事件接受《科学新闻》采访。龚克指出，研究生收费制度是国际惯例、法律要求、大势所趋，是研究生培养机制改革的组成部....",
"emailed" : False,
"forwarded" : False,
"english" : False
}  , {
"index" : 3,
"articleIndex" : "52896",
"favor" :  False ,
     "read" : False,    
"title" : "中国高考数学考题难度震惊英国专家",
"titleTip" : "中国高考数学考题难度震惊英国专家",
"titleSummary" : "中国高考数学考题难度震惊英国专家",
"descSummary" : "继英语被舆论批判，多个省市也纷纷降低高考英语比重之际，网民又...",
"url" : "http:\/\/go.rss.sina.com.cn\/redirect.php?url=http:\/\/edu.sina.com.cn\/gaokao\/2013-10-30\/1700399820.shtml",
"pubDate" : "17:00:55",
"enterDate" : "384201:04:12",
"channelId" : "-8036465548618984449",
"channelName" : "教育要闻汇总-新浪教育",
"channelNameSummary" : "教育要闻汇总-新浪教...",
"channelUrl" : "http:\/\/edu.sina.com.cn\/",
"author" : "WWW.SINA.COM.CN",
"tags" : [],
"desc" : "继英语被舆论批判，多个省市也纷纷降低高考英语比重之际，网民又将愤怒的矛头对准了数学。某门户微博关于\u201C数学该滚出高考吗\u201D的调查显示，70%支持数学滚出高考。有网友吐槽：\u201C工作这么多年了，除了数钱用到过数学，别的基本用不到。\u201D 只能用来数钱的数学真的那么没....",
"emailed" : False,
"forwarded" : False,
"english" : False
}  , {
"index" : 4,
"articleIndex" : "52895",
"favor" :  False ,
     "read" : False,    
"title" : "托福听力备考提要：坚持以真题为根本",
"titleTip" : "托福听力备考提要：坚持以真题为根本",
"titleSummary" : "托福听力备考提要：坚持以真题为根本",
"descSummary" : "托福听力篇幅较长，延续时间长，以及听力内容信息量大等原因，...",
"url" : "http:\/\/go.rss.sina.com.cn\/redirect.php?url=http:\/\/edu.sina.com.cn\/yyks\/2013-10-30\/1655399819.shtml",
"pubDate" : "16:55:32",
"enterDate" : "384200:58:49",
"channelId" : "-8036465548618984449",
"channelName" : "教育要闻汇总-新浪教育",
"channelNameSummary" : "教育要闻汇总-新浪教...",
"channelUrl" : "http:\/\/edu.sina.com.cn\/",
"author" : "WWW.SINA.COM.CN",
"tags" : [],
"desc" : "托福听力篇幅较长，延续时间长，以及听力内容信息量大等原因，成为很多中国考生的头疼问题。这不仅要求考生拥有较强的短暂记忆力、复述能力和快速笔记的能力，也要求考生积累大量的听力背景知识，并熟练对特点词汇进行反馈。因此，备考托福听力不简简单单需要大量的反复练习，....",
"emailed" : False,
"forwarded" : False,
"english" : False
}  , {
"index" : 5,
"articleIndex" : "52894",
"favor" :  False ,
     "read" : False,    
"title" : "小学班主任领秘籍：不骂学生评语用第二人称",
"titleTip" : "小学班主任领秘籍：不骂学生评语用第二人称",
"titleSummary" : "小学班主任领秘籍：不骂学生评语用第二人称",
"descSummary" : "班主任被称为\u201C世界上最小的主任\u201D，但想当好这个小主任...",
"url" : "http:\/\/go.rss.sina.com.cn\/redirect.php?url=http:\/\/edu.sina.com.cn\/zxx\/2013-10-30\/1649399818.shtml",
"pubDate" : "16:49:46",
"enterDate" : "384200:53:03",
"channelId" : "-8036465548618984449",
"channelName" : "教育要闻汇总-新浪教育",
"channelNameSummary" : "教育要闻汇总-新浪教...",
"channelUrl" : "http:\/\/edu.sina.com.cn\/",
"author" : "WWW.SINA.COM.CN",
"tags" : [],
"desc" : "班主任被称为\u201C世界上最小的主任\u201D，但想当好这个小主任却着实不易。不仅要善于和家长沟通，还要巧妙和学生\u201C斗智\u201D。昨天下午，和平里四小给所有班主任发放了一本名为\u201C做精彩班主任\u201D的\u201C秘籍\u201D，这是由学校11位\u201C紫禁杯\u201D优秀班主任集合集体智慧研究出来的，从班级管理、师....",
"emailed" : False,
"forwarded" : False,
"english" : False
}  , {
"index" : 6,
"articleIndex" : "52893",
"favor" :  False ,
     "read" : False,    
"title" : "武汉叫停补课和晚自习 八成家长望恢复(图)",
"titleTip" : "武汉叫停补课和晚自习 八成家长望恢复(图)",
"titleSummary" : "武汉叫停补课和晚自习 八成家长望恢复(图)",
"descSummary" : "记者杨枫 杨静雅 本月26日～29日，武汉市大部分高中家长都陆...",
"url" : "http:\/\/go.rss.sina.com.cn\/redirect.php?url=http:\/\/edu.sina.com.cn\/zxx\/2013-10-30\/1644399817.shtml",
"pubDate" : "16:44:59",
"enterDate" : "384201:18:20",
"channelId" : "-8036465548618984449",
"channelName" : "教育要闻汇总-新浪教育",
"channelNameSummary" : "教育要闻汇总-新浪教...",
"channelUrl" : "http:\/\/edu.sina.com.cn\/",
"author" : "WWW.SINA.COM.CN",
"tags" : [],
"desc" : "记者杨枫 杨静雅 本月26日～29日，武汉市大部分高中家长都陆续收到一则班主任发送的短信\u2015\u2015\u201C接省市教育部门通知：从即日开始，中学所有年级停止补课和晚自习，期间要布置合适的课外作业。请家长督促学生完成作业，注意安全。\u201D本来从学生减负、家长减压、老师增加休息时....",
"emailed" : False,
"forwarded" : False,
"english" : False
}  , {
"index" : 7,
"articleIndex" : "52892",
"favor" :  False ,
     "read" : False,    
"title" : "\u201C烤鸭\u201D必读：托福110分的备考秘籍",
"titleTip" : "\u201C烤鸭\u201D必读：托福110分的备考秘籍",
"titleSummary" : "\u201C烤鸭\u201D必读：托福110分的备考秘籍",
"descSummary" : "如果不是大牛，请牢记：一份耕耘一分收获。托福还是很科学的，比...",
"url" : "http:\/\/go.rss.sina.com.cn\/redirect.php?url=http:\/\/edu.sina.com.cn\/yyks\/2013-10-30\/1642399816.shtml",
"pubDate" : "16:42:12",
"enterDate" : "384201:15:33",
"channelId" : "-8036465548618984449",
"channelName" : "教育要闻汇总-新浪教育",
"channelNameSummary" : "教育要闻汇总-新浪教...",
"channelUrl" : "http:\/\/edu.sina.com.cn\/",
"author" : "WWW.SINA.COM.CN",
"tags" : [],
"desc" : "如果不是大牛，请牢记：一份耕耘一分收获。托福还是很科学的，比较依据考试者的英语水平的：请相信你有一百分的实力你就不会考出八十分的成绩。 如果你觉得自己在瓶颈期：请相信：坚持就是胜利，也许只要多积累一天，你就能有质的飞跃。 如果你像曾经的我一般担....",
"emailed" : False,
"forwarded" : False,
"english" : False
}  , {
"index" : 8,
"articleIndex" : "52891",
"favor" :  False ,
     "read" : False,    
"title" : "公务员的\u201C性价比\u201D为何这么高？",
"titleTip" : "公务员的\u201C性价比\u201D为何这么高？",
"titleSummary" : "公务员的\u201C性价比\u201D为何这么高？",
"descSummary" : "1 0月23日\u201C世相圈点\u201D《国考热何以多年没降温》，指出年轻人现在...",
"url" : "http:\/\/go.rss.sina.com.cn\/redirect.php?url=http:\/\/edu.sina.com.cn\/official\/2013-10-30\/1637399815.shtml",
"pubDate" : "16:37:06",
"enterDate" : "384201:10:27",
"channelId" : "-8036465548618984449",
"channelName" : "教育要闻汇总-新浪教育",
"channelNameSummary" : "教育要闻汇总-新浪教...",
"channelUrl" : "http:\/\/edu.sina.com.cn\/",
"author" : "WWW.SINA.COM.CN",
"tags" : [],
"desc" : "1 0月23日\u201C世相圈点\u201D《国考热何以多年没降温》，指出年轻人现在争着报考公务员，\u201C折射出社会保障体系还不够健全、鼓励创业的机制还不够完善等诸多问题\u201D。笔者赞成这个看法，但同时认为，千军万马争过独木桥，最主要的原因，还是公务员这个饭碗本身太吸引人了。 统....",
"emailed" : False,
"forwarded" : False,
"english" : False
}  , {
"index" : 9,
"articleIndex" : "52890",
"favor" :  False ,
     "read" : False,    
"title" : "2014国考申论热点：养孩子的代价",
"titleTip" : "2014国考申论热点：养孩子的代价",
"titleSummary" : "2014国考申论热点：养孩子的代价",
"descSummary" : "【背景链接】 据媒体报道，在一朋友的婚庆上，一男子说到兴起时，...",
"url" : "http:\/\/go.rss.sina.com.cn\/redirect.php?url=http:\/\/edu.sina.com.cn\/official\/2013-10-30\/1634399814.shtml",
"pubDate" : "16:34:00",
"enterDate" : "384201:07:21",
"channelId" : "-8036465548618984449",
"channelName" : "教育要闻汇总-新浪教育",
"channelNameSummary" : "教育要闻汇总-新浪教...",
"channelUrl" : "http:\/\/edu.sina.com.cn\/",
"author" : "WWW.SINA.COM.CN",
"tags" : [],
"desc" : "【背景链接】 据媒体报道，在一朋友的婚庆上，一男子说到兴起时，站起来直指父母怒吼：\u201C没有一百万！你们生我出来干吗！不是害我吗！\u201D男子的父亲一声不吭坐在座位上，母亲则一直默默流泪。亲友们见势不妙，赶紧将该男子带去婚宴厅外醒酒。此事在社会上引起热议。....",
"emailed" : False,
"forwarded" : False,
"english" : False
}  , {
"index" : 10,
"articleIndex" : "52889",
"favor" :  False ,
     "read" : False,    
"title" : "小学深秋穿夏装露天表演 学校被令作检查",
"titleTip" : "小学深秋穿夏装露天表演 学校被令作检查",
"titleSummary" : "小学深秋穿夏装露天表演 学校被令作检查",
"descSummary" : "中新网陕西宝鸡10月30日电 (记者 田进)陕西省宝鸡市陈仓区官...",
"url" : "http:\/\/go.rss.sina.com.cn\/redirect.php?url=http:\/\/edu.sina.com.cn\/zxx\/2013-10-30\/1628399813.shtml",
"pubDate" : "16:28:59",
"enterDate" : "384201:02:20",
"channelId" : "-8036465548618984449",
"channelName" : "教育要闻汇总-新浪教育",
"channelNameSummary" : "教育要闻汇总-新浪教...",
"channelUrl" : "http:\/\/edu.sina.com.cn\/",
"author" : "WWW.SINA.COM.CN",
"tags" : [],
"desc" : "中新网陕西宝鸡10月30日电 (记者 田进)陕西省宝鸡市陈仓区官方30日透露，针对\u201C虢镇小学深秋要求学生穿夏装演出\u201D一事，当地教育部门已派员赴涉事学校开展调查，要求学校作出深刻检查。 此前有媒体报道称，10月28日，宝鸡市陈仓区虢镇小学为迎接检查，要求小学生在深秋....",
"emailed" : False,
"forwarded" : False,
"english" : False
}  , {
"index" : 11,
"articleIndex" : "52888",
"favor" :  False ,
     "read" : False,    
"title" : "中考引体向上成难关 家长称小学就该练",
"titleTip" : "中考引体向上成难关 家长称小学就该练",
"titleSummary" : "中考引体向上成难关 家长称小学就该练",
"descSummary" : "台海网(微博)10月30日讯 据厦门晚报报道(记者 郭文娟)近日，北京...",
"url" : "http:\/\/go.rss.sina.com.cn\/redirect.php?url=http:\/\/edu.sina.com.cn\/zxx\/2013-10-30\/1626399812.shtml",
"pubDate" : "16:26:27",
"enterDate" : "384200:59:48",
"channelId" : "-8036465548618984449",
"channelName" : "教育要闻汇总-新浪教育",
"channelNameSummary" : "教育要闻汇总-新浪教...",
"channelUrl" : "http:\/\/edu.sina.com.cn\/",
"author" : "WWW.SINA.COM.CN",
"tags" : [],
"desc" : "台海网(微博)10月30日讯 据厦门晚报报道(记者 郭文娟)近日，北京随机抽取2880名中小学生进行体育测试，其中引体向上标准为：初中6个及格，10个满分；高中10个及格，15个满分。结果，能达标的初中生几乎没有，高中生平均每个学校有一两个满分，一两个及格。 引体向上真....",
"emailed" : False,
"forwarded" : False,
"english" : False
}  , {
"index" : 12,
"articleIndex" : "52887",
"favor" :  False ,
     "read" : False,    
"title" : "时评：要减负\u201C探索性作业\u201D更重要",
"titleTip" : "时评：要减负\u201C探索性作业\u201D更重要",
"titleSummary" : "时评：要减负\u201C探索性作业\u201D更重要",
"descSummary" : "一直优秀或阶段性表现好的学生，可以少做作业，腾出来的时间用于...",
"url" : "http:\/\/go.rss.sina.com.cn\/redirect.php?url=http:\/\/edu.sina.com.cn\/zxx\/2013-10-30\/1620399811.shtml",
"pubDate" : "16:20:23",
"enterDate" : "384200:53:44",
"channelId" : "-8036465548618984449",
"channelName" : "教育要闻汇总-新浪教育",
"channelNameSummary" : "教育要闻汇总-新浪教...",
"channelUrl" : "http:\/\/edu.sina.com.cn\/",
"author" : "WWW.SINA.COM.CN",
"tags" : [],
"desc" : "一直优秀或阶段性表现好的学生，可以少做作业，腾出来的时间用于做自己感兴趣的事\u2015\u2015记者近日在镇江、南京等地采访，这种让小学生作业减负的\u201C基层创造\u201D令人眼睛一亮。 \u201C老师，我又有5次单词默写全对了，来兑换一张作业\u2018免做券\u2019。\u201D10月21日下午1点多钟，镇江新区....",
"emailed" : False,
"forwarded" : False,
"english" : False
}  , {
"index" : 13,
"articleIndex" : "52886",
"favor" :  False ,
     "read" : False,    
"title" : "时评：超级妈背后是孩子们被掩盖的青春",
"titleTip" : "时评：超级妈背后是孩子们被掩盖的青春",
"titleSummary" : "时评：超级妈背后是孩子们被掩盖的青春",
"descSummary" : "新华网福州10月30日电(记者董建国)近日，一则\u201C当妈新标准\u201D...",
"url" : "http:\/\/go.rss.sina.com.cn\/redirect.php?url=http:\/\/edu.sina.com.cn\/zxx\/2013-10-30\/1617399810.shtml",
"pubDate" : "16:17:16",
"enterDate" : "384200:50:37",
"channelId" : "-8036465548618984449",
"channelName" : "教育要闻汇总-新浪教育",
"channelNameSummary" : "教育要闻汇总-新浪教...",
"channelUrl" : "http:\/\/edu.sina.com.cn\/",
"author" : "WWW.SINA.COM.CN",
"tags" : [],
"desc" : "新华网福州10月30日电(记者董建国)近日，一则\u201C当妈新标准\u201D的消息火爆网络：下得了菜场，上得了课堂；做得了蛋糕，讲得了故事；教得了奥数，讲得了语法；改得了作文，做得了小报\u2026\u2026网友将此称为\u201C十八得了超级妈\u201D。 如此十八般武艺都要精通的当妈标准，虽有戏谑成分....",
"emailed" : False,
"forwarded" : False,
"english" : False
}  , {
"index" : 14,
"articleIndex" : "52884",
"favor" :  False ,
     "read" : False,    
"title" : "考研网报明日结束 11月10日至14日现场确认",
"titleTip" : "考研网报明日结束 11月10日至14日现场确认",
"titleSummary" : "考研网报明日结束 11月10日至14日现场确认",
"descSummary" : "现场确认时间：2013年11月10日-14日 打印准考证时间：20...",
"url" : "http:\/\/go.rss.sina.com.cn\/redirect.php?url=http:\/\/edu.sina.com.cn\/kaoyan\/2013-10-30\/1615399808.shtml",
"pubDate" : "16:15:58",
"enterDate" : "384200:49:19",
"channelId" : "-8036465548618984449",
"channelName" : "教育要闻汇总-新浪教育",
"channelNameSummary" : "教育要闻汇总-新浪教...",
"channelUrl" : "http:\/\/edu.sina.com.cn\/",
"author" : "WWW.SINA.COM.CN",
"tags" : [],
"desc" : "现场确认时间：2013年11月10日\u201514日 打印准考证时间：2013年12月25日\u20152014年1月6日 本报10月29日讯(记者 王冠兴)2014年硕士研究生招生网上报名将于10月31日结束。今日，省招生考试管理中心提醒广大考生，一定要注意现场确认、准考证打印时间，以免因自己大意对考试造....",
"emailed" : False,
"forwarded" : False,
"english" : False
}  , {
"index" : 15,
"articleIndex" : "52885",
"favor" :  False ,
     "read" : False,    
"title" : "经验分享：尖子生如何备战期中考",
"titleTip" : "经验分享：尖子生如何备战期中考",
"titleSummary" : "经验分享：尖子生如何备战期中考",
"descSummary" : "本文选自《迷鹿Sheila》的博客，请点击查看博客原文。期中考进入倒...",
"url" : "http:\/\/go.rss.sina.com.cn\/redirect.php?url=http:\/\/edu.sina.com.cn\/zhongkao\/2013-10-30\/1615399809.shtml",
"pubDate" : "16:15:58",
"enterDate" : "384200:49:19",
"channelId" : "-8036465548618984449",
"channelName" : "教育要闻汇总-新浪教育",
"channelNameSummary" : "教育要闻汇总-新浪教...",
"channelUrl" : "http:\/\/edu.sina.com.cn\/",
"author" : "WWW.SINA.COM.CN",
"tags" : [],
"desc" : "本文选自《迷鹿Sheila》的博客，请点击查看博客原文。 期中考进入倒计时，在这段时间，考生该制订怎样的复习计划？如何提高备考质量释放考试压力？下面的这两招也许会让想突破自己的你能实现自己的理想。 错题本，最好的复习资料 在平时考试中，绝大部分题难....",
"emailed" : False,
"forwarded" : False,
"english" : False
}  , {
"index" : 16,
"articleIndex" : "52883",
"favor" :  False ,
     "read" : False,    
"title" : "武汉中学停止补课和晚自习 家长要求恢复",
"titleTip" : "武汉中学停止补课和晚自习 家长要求恢复",
"titleSummary" : "武汉中学停止补课和晚自习 家长要求恢复",
"descSummary" : "据中国之声《央广新闻》报道，10月26号到29号，武汉市大部...",
"url" : "http:\/\/go.rss.sina.com.cn\/redirect.php?url=http:\/\/edu.sina.com.cn\/zxx\/2013-10-30\/1615399807.shtml",
"pubDate" : "16:15:14",
"enterDate" : "384200:48:35",
"channelId" : "-8036465548618984449",
"channelName" : "教育要闻汇总-新浪教育",
"channelNameSummary" : "教育要闻汇总-新浪教...",
"channelUrl" : "http:\/\/edu.sina.com.cn\/",
"author" : "WWW.SINA.COM.CN",
"tags" : [],
"desc" : "据中国之声《央广新闻》报道，10月26号到29号，武汉市大部分高中家长都陆续收到一则告知短信，中学所有年级停止补课和晚自习。本来从学生减负、家长减压、老师增加休息时间来说，这是一件好事，但是很多武汉市的家长们却强烈表示要\u201C恢复补课\u201D。 其实在武汉市，以前叫....",
"emailed" : False,
"forwarded" : False,
"english" : False
}  , {
"index" : 17,
"articleIndex" : "52882",
"favor" :  False ,
     "read" : False,    
"title" : "消除疲劳有三招 助你高效备战中考",
"titleTip" : "消除疲劳有三招 助你高效备战中考",
"titleSummary" : "消除疲劳有三招 助你高效备战中考",
"descSummary" : "本文选自《迷鹿Sheila》的博客，请点击查看博客原文。2014年中考正...",
"url" : "http:\/\/go.rss.sina.com.cn\/redirect.php?url=http:\/\/edu.sina.com.cn\/zhongkao\/2013-10-30\/1612399806.shtml",
"pubDate" : "16:12:35",
"enterDate" : "384201:16:02",
"channelId" : "-8036465548618984449",
"channelName" : "教育要闻汇总-新浪教育",
"channelNameSummary" : "教育要闻汇总-新浪教...",
"channelUrl" : "http:\/\/edu.sina.com.cn\/",
"author" : "WWW.SINA.COM.CN",
"tags" : [],
"desc" : "本文选自《迷鹿Sheila》的博客，请点击查看博客原文。 2014年中考正跟随着时间的脚步在向初三学子们慢慢地逼近，而中考\u201C保卫战\u201D早已经打响。堆满书的桌边，是考生们埋首苦读的身影。距离中考还有好几个月，在这么高强度的复习中，考生们难免会感到疲劳？而疲劳又难免会影....",
"emailed" : False,
"forwarded" : False,
"english" : False
}  , {
"index" : 18,
"articleIndex" : "52881",
"favor" :  False ,
     "read" : False,    
"title" : "2014国考申论热点：建立平安医",
"titleTip" : "2014国考申论热点：建立平安医",
"titleSummary" : "2014国考申论热点：建立平安医",
"descSummary" : "【背景链接】 国家卫生计生委和公安部印发的《关于加强医院安全防范...",
"url" : "http:\/\/go.rss.sina.com.cn\/redirect.php?url=http:\/\/edu.sina.com.cn\/official\/2013-10-30\/1609399805.shtml",
"pubDate" : "16:09:46",
"enterDate" : "384201:13:13",
"channelId" : "-8036465548618984449",
"channelName" : "教育要闻汇总-新浪教育",
"channelNameSummary" : "教育要闻汇总-新浪教...",
"channelUrl" : "http:\/\/edu.sina.com.cn\/",
"author" : "WWW.SINA.COM.CN",
"tags" : [],
"desc" : "【背景链接】 国家卫生计生委和公安部印发的《关于加强医院安全防范系统建设指导意见》中通过人防、物防、技防三级防护体系构建\u201C平安医院\u201D，以防止恶性\u201C医闹\u201D。其中，在人防队伍建设上规定，保安员数量应当遵循\u201C就高不就低\u201D原则，按照不低于在岗医务人员总数的3%....",
"emailed" : False,
"forwarded" : False,
"english" : False
}  , {
"index" : 19,
"articleIndex" : "52880",
"favor" :  False ,
     "read" : False,    
"title" : "首都高中生英语演出原创戏剧 推介中国文化",
"titleTip" : "首都高中生英语演出原创戏剧 推介中国文化",
"titleSummary" : "首都高中生英语演出原创戏剧 推介中国文化",
"descSummary" : "千龙网讯 10月29日，由北京市教委、北京市国际教育交流中...",
"url" : "http:\/\/go.rss.sina.com.cn\/redirect.php?url=http:\/\/edu.sina.com.cn\/l\/2013-10-30\/1606235439.shtml",
"pubDate" : "16:06:47",
"enterDate" : "384201:10:14",
"channelId" : "-8036465548618984449",
"channelName" : "教育要闻汇总-新浪教育",
"channelNameSummary" : "教育要闻汇总-新浪教...",
"channelUrl" : "http:\/\/edu.sina.com.cn\/",
"author" : "WWW.SINA.COM.CN",
"tags" : [],
"desc" : "千龙网讯 10月29日，由北京市教委、北京市国际教育交流中心举办的第二届首都学生外语展示系列活动高中组英语原创戏剧比赛在北京青年宫举行，同学们全英文演出自己创编的戏剧，显示出对英语的良好运用能力。 与去年的首次大赛相比，今年的赛事更多地考虑高中生的知识结....",
"emailed" : False,
"forwarded" : False,
"english" : False
} ]
}
