{
"mode" : {"viewTitle" : 1,   "viewNew" : 0,  "pageIndex" : 2 },
 "channel" : {"id" : "-8036465548618984449", "booked" : False, "subNumber" : 1, "name" : "教育要闻汇总-新浪教育", "url" : "http:\/\/edu.sina.com.cn\/", "feed" : "http:\/\/rss.sina.com.cn\/roll\/edu\/hot_roll.xml", "author" : "WWW.SINA.COM.CN", "desc" : "教育要闻汇总", "imageUrl" : "http:\/\/www.sinaimg.cn\/home\/deco\/2009\/0330\/logo_home_edu.gif", "postPerWeek" : "0", "lastCrawTime" : "17:16:35", "crawDateTime" : "17:16:35", "lastHttpCode" : "200"}, "page" : {
"startIndex" : 20,
"totalCount" : 5000,
"pageIndex" : 2,
"lastPage" : 250,
"pageSize" : 20,
"english" :  False },
 "unreadNum" : 0, "shotIndex" : -1,
"articles" : [
{
"index" : 0,
"articleIndex" : "52879",
"favor" :  False ,
     "read" : False,    
"title" : "中考英语复习最佳方法走\u201C四\u201D步",
"titleTip" : "中考英语复习最佳方法走\u201C四\u201D步",
"titleSummary" : "中考英语复习最佳方法走\u201C四\u201D步",
"descSummary" : "中考英语是个日积月累的科目，那么在这短暂的一年里，初三的同学们...",
"url" : "http:\/\/go.rss.sina.com.cn\/redirect.php?url=http:\/\/edu.sina.com.cn\/zhongkao\/2013-10-30\/1605399804.shtml",
"pubDate" : "16:05:17",
"enterDate" : "384201:08:44",
"channelId" : "-8036465548618984449",
"channelName" : "教育要闻汇总-新浪教育",
"channelNameSummary" : "教育要闻汇总-新浪教...",
"channelUrl" : "http:\/\/edu.sina.com.cn\/",
"author" : "WWW.SINA.COM.CN",
"tags" : [],
"desc" : "中考英语是个日积月累的科目，那么在这短暂的一年里，初三的同学们该如何应对呢？大家可以从以下几个方面来做： (1)通览课文提出要点攻破难点。课文是教材的中心，是语音、词汇、语法知识、听说读写活动和培养听说读写能力的综合材料，是复习的主要依据。当然在复习课....",
"emailed" : False,
"forwarded" : False,
"english" : False
}  , {
"index" : 1,
"articleIndex" : "52878",
"favor" :  False ,
     "read" : False,    
"title" : "家长课堂：父母传给子女的十大错误理财观",
"titleTip" : "家长课堂：父母传给子女的十大错误理财观",
"titleSummary" : "家长课堂：父母传给子女的十大错误理财观",
"descSummary" : "《爸爸去哪儿》的第三期节目中爸爸带着孩子们来到比京郊农...",
"url" : "http:\/\/go.rss.sina.com.cn\/redirect.php?url=http:\/\/edu.sina.com.cn\/zxx\/2013-10-30\/1600399803.shtml",
"pubDate" : "16:00:18",
"enterDate" : "384201:03:45",
"channelId" : "-8036465548618984449",
"channelName" : "教育要闻汇总-新浪教育",
"channelNameSummary" : "教育要闻汇总-新浪教...",
"channelUrl" : "http:\/\/edu.sina.com.cn\/",
"author" : "WWW.SINA.COM.CN",
"tags" : [],
"desc" : "《爸爸去哪儿》的第三期节目中爸爸带着孩子们来到比京郊农村条件更\u201C朴素\u201D的西北大漠，节目组给每个父亲50块钱，要采购两天的伙食。手中仅有50块的爸爸们没了从前的豪迈，各自都为了花少钱办大事各显神通。张亮带着儿子展现魅力成功要到一根免费的胡萝卜，林志颖带着儿子买菜....",
"emailed" : False,
"forwarded" : False,
"english" : False
}  , {
"index" : 2,
"articleIndex" : "52877",
"favor" :  False ,
     "read" : False,    
"title" : "2014国考申论热点：恢复女子三从四德",
"titleTip" : "2014国考申论热点：恢复女子三从四德",
"titleSummary" : "2014国考申论热点：恢复女子三从四德",
"descSummary" : "【背景链接】 媒体报道，在孔子诞辰2564年，以儒家思想为办学...",
"url" : "http:\/\/go.rss.sina.com.cn\/redirect.php?url=http:\/\/edu.sina.com.cn\/official\/2013-10-30\/1559399802.shtml",
"pubDate" : "15:59:42",
"enterDate" : "384201:03:09",
"channelId" : "-8036465548618984449",
"channelName" : "教育要闻汇总-新浪教育",
"channelNameSummary" : "教育要闻汇总-新浪教...",
"channelUrl" : "http:\/\/edu.sina.com.cn\/",
"author" : "WWW.SINA.COM.CN",
"tags" : [],
"desc" : "【背景链接】 媒体报道，在孔子诞辰2564年，以儒家思想为办学特色的重庆信息技术职业学院举办了一场万余师生齐诵《论语》的祭孔大典，还推出了孔子文化节的创新项目：正式开设女德班\u2015\u2015要将儒家思想的精华和现代女性的独立、智慧相互融合，教女生学会处理人际关系、解....",
"emailed" : False,
"forwarded" : False,
"english" : False
}  , {
"index" : 3,
"articleIndex" : "52876",
"favor" :  False ,
     "read" : False,    
"title" : "湘考研报名31日21时前须网上缴费不再补报",
"titleTip" : "湘考研报名31日21时前须网上缴费不再补报",
"titleSummary" : "湘考研报名31日21时前须网上缴费不再补报",
"descSummary" : "本报10月29日讯 省教育考试院发布消息，2014年硕士研究生...",
"url" : "http:\/\/go.rss.sina.com.cn\/redirect.php?url=http:\/\/edu.sina.com.cn\/kaoyan\/2013-10-30\/1544399801.shtml",
"pubDate" : "15:44:42",
"enterDate" : "384201:18:12",
"channelId" : "-8036465548618984449",
"channelName" : "教育要闻汇总-新浪教育",
"channelNameSummary" : "教育要闻汇总-新浪教...",
"channelUrl" : "http:\/\/edu.sina.com.cn\/",
"author" : "WWW.SINA.COM.CN",
"tags" : [],
"desc" : "本报10月29日讯&#160;&#160;省教育考试院发布消息，2014年硕士研究生招生考试网上报名将于10月31日结束，目前，我省已有8.1万人进行了网上报名。按照教育部规定，今年现场确认期间不再进行补报名。省教育考试院提醒尚未进行网上缴费的考生，务必在10月31日21时前，通过硕士研....",
"emailed" : False,
"forwarded" : False,
"english" : False
}  , {
"index" : 4,
"articleIndex" : "52875",
"favor" :  False ,
     "read" : False,    
"title" : "云南4教师考上公务员 教育局拒提档",
"titleTip" : "云南4教师考上公务员 教育局拒提档",
"titleSummary" : "云南4教师考上公务员 教育局拒提档",
"descSummary" : "杨嫦波出示寻甸县人民政府办公室和单位开出的\u201C提档函\u201D及同意报考...",
"url" : "http:\/\/go.rss.sina.com.cn\/redirect.php?url=http:\/\/edu.sina.com.cn\/official\/2013-10-30\/1539399800.shtml",
"pubDate" : "15:39:56",
"enterDate" : "384201:13:26",
"channelId" : "-8036465548618984449",
"channelName" : "教育要闻汇总-新浪教育",
"channelNameSummary" : "教育要闻汇总-新浪教...",
"channelUrl" : "http:\/\/edu.sina.com.cn\/",
"author" : "WWW.SINA.COM.CN",
"tags" : [],
"desc" : "杨嫦波出示寻甸县人民政府办公室和单位开出的\u201C提档函\u201D及同意报考证明 见习记者 谢瑞 只差一步，杨嫦波就能够实现自己的公务员梦想。而得知她考上公务员的消息后，她的家人更像是中了大奖一样欣喜。 笔试第一、面试第一、资格复审、政审等多个环节，杨嫦波均顺利通....",
"emailed" : False,
"forwarded" : False,
"english" : False
}  , {
"index" : 5,
"articleIndex" : "52874",
"favor" :  False ,
     "read" : False,    
"title" : "美研究称移民有助美国改善经济减少美赤字",
"titleTip" : "美研究称移民有助美国改善经济减少美赤字",
"titleSummary" : "美研究称移民有助美国改善经济减少美赤字",
"descSummary" : "据美联社10月29日报道，一个新的两党政策研究中心的研究...",
"url" : "http:\/\/go.rss.sina.com.cn\/redirect.php?url=http:\/\/edu.sina.com.cn\/a\/2013-10-30\/1530235438.shtml",
"pubDate" : "15:30:58",
"enterDate" : "384201:04:28",
"channelId" : "-8036465548618984449",
"channelName" : "教育要闻汇总-新浪教育",
"channelNameSummary" : "教育要闻汇总-新浪教...",
"channelUrl" : "http:\/\/edu.sina.com.cn\/",
"author" : "WWW.SINA.COM.CN",
"tags" : [],
"desc" : "据美联社10月29日报道，一个新的两党政策研究中心的研究显示，移民改革或可以促进美国的经济复苏。尽管如此，移民改革的前景仍不甚乐观，大部分众议院共和党人对参议院的移民法案不是很感兴趣。 研究表示，在接下来的20年里，移民将提高4.8%的国家经济。移民改革可使更....",
"emailed" : False,
"forwarded" : False,
"english" : False
}  , {
"index" : 6,
"articleIndex" : "52873",
"favor" :  False ,
     "read" : False,    
"title" : "组图：网友为见韩国军校甜美女神甘愿当兵",
"titleTip" : "组图：网友为见韩国军校甜美女神甘愿当兵",
"titleSummary" : "组图：网友为见韩国军校甜美女神甘愿当兵",
"descSummary" : "前还在校的李妍智，长相清秀，看起来相当有气质，被网友称...",
"url" : "http:\/\/go.rss.sina.com.cn\/redirect.php?url=http:\/\/edu.sina.com.cn\/a\/2013-10-30\/1525235437.shtml",
"pubDate" : "15:25:55",
"enterDate" : "384200:59:25",
"channelId" : "-8036465548618984449",
"channelName" : "教育要闻汇总-新浪教育",
"channelNameSummary" : "教育要闻汇总-新浪教...",
"channelUrl" : "http:\/\/edu.sina.com.cn\/",
"author" : "WWW.SINA.COM.CN",
"tags" : [],
"desc" : "前还在校的李妍智，长相清秀，看起来相当有气质，被网友称为\u201C军队里的曙光\u201D，还被认为跟韩国乐坛小天后IU以及少女时代的徐玄容貌相仿。李妍智穿上军服后魅力仍然不减，无论是在网络上或是校内，人气都相当高。有网友直呼，为了看李妍智，就算去当10年兵也心甘情愿。",
"emailed" : False,
"forwarded" : False,
"english" : False
}  , {
"index" : 7,
"articleIndex" : "52872",
"favor" :  False ,
     "read" : False,    
"title" : "2014开始四川自贡中考将实行网上阅卷",
"titleTip" : "2014开始四川自贡中考将实行网上阅卷",
"titleSummary" : "2014开始四川自贡中考将实行网上阅卷",
"descSummary" : "华西城市读本讯(实习记者 梁睿瑶)为全面提升学校管理和教育教学...",
"url" : "http:\/\/go.rss.sina.com.cn\/redirect.php?url=http:\/\/edu.sina.com.cn\/zhongkao\/2013-10-30\/1524399799.shtml",
"pubDate" : "15:24:03",
"enterDate" : "384200:57:33",
"channelId" : "-8036465548618984449",
"channelName" : "教育要闻汇总-新浪教育",
"channelNameSummary" : "教育要闻汇总-新浪教...",
"channelUrl" : "http:\/\/edu.sina.com.cn\/",
"author" : "WWW.SINA.COM.CN",
"tags" : [],
"desc" : "华西城市读本讯(实习记者 梁睿瑶)为全面提升学校管理和教育教学水平，自贡市教育局于10月23日召开了教学工作会。工作会上全面安排部署了2013到2014学年度教育教学工作，确定13所中小学作为课堂教学改革市级试点学校，并明确指出，从2014年开始，自贡市中考将实行网上阅卷。....",
"emailed" : False,
"forwarded" : False,
"english" : False
}  , {
"index" : 8,
"articleIndex" : "52871",
"favor" :  False ,
     "read" : False,    
"title" : "北京四中人文实验班 国子监内学国学",
"titleTip" : "北京四中人文实验班 国子监内学国学",
"titleSummary" : "北京四中人文实验班 国子监内学国学",
"descSummary" : "10月24日下午，秋意正浓，淡淡的阳光映在国子监朱漆大门上，许...",
"url" : "http:\/\/go.rss.sina.com.cn\/redirect.php?url=http:\/\/edu.sina.com.cn\/zhongkao\/2013-10-30\/1522399798.shtml",
"pubDate" : "15:22:57",
"enterDate" : "384200:56:27",
"channelId" : "-8036465548618984449",
"channelName" : "教育要闻汇总-新浪教育",
"channelNameSummary" : "教育要闻汇总-新浪教...",
"channelUrl" : "http:\/\/edu.sina.com.cn\/",
"author" : "WWW.SINA.COM.CN",
"tags" : [],
"desc" : "10月24日下午，秋意正浓，淡淡的阳光映在国子监朱漆大门上，许多学生正在门口列队等着老师。有些特别的是，这些学生身着两种不同的校服，他们分别是来自北京四中高一12班人文实验班的32名学生，和来自台湾明道中学的41名学生。\u201C整队，进入！\u201D在一位稍年长的学生的带领下，他....",
"emailed" : False,
"forwarded" : False,
"english" : False
}  , {
"index" : 9,
"articleIndex" : "52870",
"favor" :  False ,
     "read" : False,    
"title" : "土木工程专业：培养城市建设全能人才",
"titleTip" : "土木工程专业：培养城市建设全能人才",
"titleSummary" : "土木工程专业：培养城市建设全能人才",
"descSummary" : "北京考试报记者 邱乾谋 体育馆、航站楼、大剧院、铁路、隧道\u2026...",
"url" : "http:\/\/go.rss.sina.com.cn\/redirect.php?url=http:\/\/edu.sina.com.cn\/gaokao\/2013-10-30\/1520399797.shtml",
"pubDate" : "15:20:40",
"enterDate" : "384200:54:10",
"channelId" : "-8036465548618984449",
"channelName" : "教育要闻汇总-新浪教育",
"channelNameSummary" : "教育要闻汇总-新浪教...",
"channelUrl" : "http:\/\/edu.sina.com.cn\/",
"author" : "WWW.SINA.COM.CN",
"tags" : [],
"desc" : "北京考试报记者&#160; 邱乾谋 体育馆、航站楼、大剧院、铁路、隧道\u2026\u2026这些大型工程的建设，都凝结着土木工程专业人才的才智和汗水。那么，目前有多少院校的土木工程专业在北京招生呢？该专业培养有哪些特点，招生、就业情况又如何呢？ 不同院校培养特点迥异....",
"emailed" : False,
"forwarded" : False,
"english" : False
}  , {
"index" : 10,
"articleIndex" : "52869",
"favor" :  False ,
     "read" : False,    
"title" : "全国高校口译大赛 41所高校80余人进复赛",
"titleTip" : "全国高校口译大赛 41所高校80余人进复赛",
"titleSummary" : "全国高校口译大赛 41所高校80余人进复赛",
"descSummary" : "北京考试报讯(记者 邓 菡) 上周末，来自北京大学、北京外国语...",
"url" : "http:\/\/go.rss.sina.com.cn\/redirect.php?url=http:\/\/edu.sina.com.cn\/gaokao\/2013-10-30\/1518399796.shtml",
"pubDate" : "15:18:32",
"enterDate" : "384200:52:02",
"channelId" : "-8036465548618984449",
"channelName" : "教育要闻汇总-新浪教育",
"channelNameSummary" : "教育要闻汇总-新浪教...",
"channelUrl" : "http:\/\/edu.sina.com.cn\/",
"author" : "WWW.SINA.COM.CN",
"tags" : [],
"desc" : "北京考试报讯(记者&#160; 邓 菡)&#160; 上周末，来自北京大学、北京外国语大学、上海外国语大学、南京大学等41所高校的80余名优秀翻译类专业学生，齐聚北京第二外国语学院，参加第六届\u201C全国口译大赛\u2015\u2015多语种邀请赛\u201D。 早上8时30分，来自北二外日语学院口译(同传)专....",
"emailed" : False,
"forwarded" : False,
"english" : False
}  , {
"index" : 11,
"articleIndex" : "52868",
"favor" :  False ,
     "read" : False,    
"title" : "京籍高考生11月9日起提交报名申请",
"titleTip" : "京籍高考生11月9日起提交报名申请",
"titleSummary" : "京籍高考生11月9日起提交报名申请",
"descSummary" : "北京考试报讯(记者 邓 菡) 记者从北京教育考试院获悉，2013年11月9...",
"url" : "http:\/\/go.rss.sina.com.cn\/redirect.php?url=http:\/\/edu.sina.com.cn\/gaokao\/2013-10-30\/1514399795.shtml",
"pubDate" : "15:14:53",
"enterDate" : "384201:18:30",
"channelId" : "-8036465548618984449",
"channelName" : "教育要闻汇总-新浪教育",
"channelNameSummary" : "教育要闻汇总-新浪教...",
"channelUrl" : "http:\/\/edu.sina.com.cn\/",
"author" : "WWW.SINA.COM.CN",
"tags" : [],
"desc" : "北京考试报讯(记者 邓 菡) 记者从北京教育考试院获悉，2013年11月9日8时至12日20时是本市京籍高考生网上提交2014年高考报名申请的时间。北京教育考试院高招办有关负责人表示，符合报名条件的考生要登录考试院网站，按要求提交报名申请并设定登录密码。 参加2014年高考....",
"emailed" : False,
"forwarded" : False,
"english" : False
}  , {
"index" : 12,
"articleIndex" : "52867",
"favor" :  False ,
     "read" : False,    
"title" : "超7成留学生回国就业 海外工作只是传说？",
"titleTip" : "超7成留学生回国就业 海外工作只是传说？",
"titleSummary" : "超7成留学生回国就业 海外工作只是传说？",
"descSummary" : "图\/东方IC \u201C近五年来，回国留学人员近80万人，接近前30年的...",
"url" : "http:\/\/go.rss.sina.com.cn\/redirect.php?url=http:\/\/edu.sina.com.cn\/a\/2013-10-30\/1511235436.shtml",
"pubDate" : "15:11:57",
"enterDate" : "384201:15:34",
"channelId" : "-8036465548618984449",
"channelName" : "教育要闻汇总-新浪教育",
"channelNameSummary" : "教育要闻汇总-新浪教...",
"channelUrl" : "http:\/\/edu.sina.com.cn\/",
"author" : "WWW.SINA.COM.CN",
"tags" : [],
"desc" : "图\/东方IC \u201C近五年来，回国留学人员近80万人，接近前30年的3倍。\u201D2013年《国际人才蓝皮书：中国留学生发展报告》指出，2012年，留学人员回国数量达到27.29万人，同比增长46.56%，超过七成的留学生选择回国就业，形成\u201C史上最大回国潮\u201D。在近期举办的各大国际教育展上，....",
"emailed" : False,
"forwarded" : False,
"english" : False
}  , {
"index" : 13,
"articleIndex" : "52866",
"favor" :  False ,
     "read" : False,    
"title" : "加拿大公布明年移民额度 被动移民变主动",
"titleTip" : "加拿大公布明年移民额度 被动移民变主动",
"titleSummary" : "加拿大公布明年移民额度 被动移民变主动",
"descSummary" : "加拿大联邦政府公民与移民部公布了2014年度移民额度，总数...",
"url" : "http:\/\/go.rss.sina.com.cn\/redirect.php?url=http:\/\/edu.sina.com.cn\/a\/2013-10-30\/1509235435.shtml",
"pubDate" : "15:09:52",
"enterDate" : "384201:13:29",
"channelId" : "-8036465548618984449",
"channelName" : "教育要闻汇总-新浪教育",
"channelNameSummary" : "教育要闻汇总-新浪教...",
"channelUrl" : "http:\/\/edu.sina.com.cn\/",
"author" : "WWW.SINA.COM.CN",
"tags" : [],
"desc" : "加拿大联邦政府公民与移民部公布了2014年度移民额度，总数为24万人到26.5万人之间。这是该部在提交给联邦议会《移民问题年度报告》中宣布的。 公民与移民部长亚历山大今天表示：确保经济增长是加联邦政府的工作重心，为此加拿大正在同其他国家为吸引更多的优秀人材展开....",
"emailed" : False,
"forwarded" : False,
"english" : False
}  , {
"index" : 14,
"articleIndex" : "52862",
"favor" :  False ,
     "read" : False,    
"title" : "中考语文成语改错200题及答案解析",
"titleTip" : "中考语文成语改错200题及答案解析",
"titleSummary" : "中考语文成语改错200题及答案解析",
"descSummary" : "001、关怀倍至()002、随声附和()003、巧妆打扮() 004、记忆尤新()00...",
"url" : "http:\/\/go.rss.sina.com.cn\/redirect.php?url=http:\/\/edu.sina.com.cn\/zhongkao\/2013-10-30\/1508399791.shtml",
"pubDate" : "15:08:14",
"enterDate" : "384201:11:51",
"channelId" : "-8036465548618984449",
"channelName" : "教育要闻汇总-新浪教育",
"channelNameSummary" : "教育要闻汇总-新浪教...",
"channelUrl" : "http:\/\/edu.sina.com.cn\/",
"author" : "WWW.SINA.COM.CN",
"tags" : [],
"desc" : "001、关怀倍至()002、随声附和()003、巧妆打扮() 004、记忆尤新()005、挺而走险()006、融汇贯通() 007、并行不背()008、略见一般()009、宽洪大量() 010、无耻滥言()011、世外桃园()012、伶牙利齿() 013、汗流夹背()014、轰堂大笑()015、名列前矛(....",
"emailed" : False,
"forwarded" : False,
"english" : False
}  , {
"index" : 15,
"articleIndex" : "52863",
"favor" :  False ,
     "read" : False,    
"title" : "中考语文成语改错200题答案解析",
"titleTip" : "中考语文成语改错200题答案解析",
"titleSummary" : "中考语文成语改错200题答案解析",
"descSummary" : "中考语文成语改错200题答案解析 【参考答案】 01、关怀备至 02、(正确...",
"url" : "http:\/\/go.rss.sina.com.cn\/redirect.php?url=http:\/\/edu.sina.com.cn\/zhongkao\/2013-10-30\/1508399791_2.shtml",
"pubDate" : "15:08:14",
"enterDate" : "384201:11:51",
"channelId" : "-8036465548618984449",
"channelName" : "教育要闻汇总-新浪教育",
"channelNameSummary" : "教育要闻汇总-新浪教...",
"channelUrl" : "http:\/\/edu.sina.com.cn\/",
"author" : "WWW.SINA.COM.CN",
"tags" : [],
"desc" : "中考语文成语改错200题答案解析 【参考答案】 01、关怀备至 02、(正确)不要写成\"随声附合\"。 03、乔装打扮：装，改变服装、面貌；打扮，指化装。指进行伪装，隐藏身份。 04、记忆犹新 05、铤而走险 &#160;&#160; 06、融会贯....",
"emailed" : False,
"forwarded" : False,
"english" : False
}  , {
"index" : 16,
"articleIndex" : "52864",
"favor" :  False ,
     "read" : False,    
"title" : "中考语文成语改错200题及答案解析(3)",
"titleTip" : "中考语文成语改错200题及答案解析(3)",
"titleSummary" : "中考语文成语改错200题及答案解析(3)",
"descSummary" : "57、(正确)蓬，蓬草；荜，用竹子、荆条等编成的篱笆等物。蓬筚，...",
"url" : "http:\/\/go.rss.sina.com.cn\/redirect.php?url=http:\/\/edu.sina.com.cn\/zhongkao\/2013-10-30\/1508399791_3.shtml",
"pubDate" : "15:08:14",
"enterDate" : "384201:11:51",
"channelId" : "-8036465548618984449",
"channelName" : "教育要闻汇总-新浪教育",
"channelNameSummary" : "教育要闻汇总-新浪教...",
"channelUrl" : "http:\/\/edu.sina.com.cn\/",
"author" : "WWW.SINA.COM.CN",
"tags" : [],
"desc" : "57、(正确)蓬，蓬草；荜，用竹子、荆条等编成的篱笆等物。蓬筚，也作\"蓬荜\"，蓬门筚门的略语，比喻穷人住的房子。草屋也发出了光辉。用以称谢他人过访之词。蓬筚生辉，也作\"蓬筚增辉\"。 58、计日程功。程，估量；功，成效。可以按日子来计算功效。形容进展快，成功指日....",
"emailed" : False,
"forwarded" : False,
"english" : False
}  , {
"index" : 17,
"articleIndex" : "52865",
"favor" :  False ,
     "read" : False,    
"title" : "中考语文成语改错200题及答案解析(4)",
"titleTip" : "中考语文成语改错200题及答案解析(4)",
"titleSummary" : "中考语文成语改错200题及答案解析(4)",
"descSummary" : "106、万里平畴。畴，田野。 107、高潮迭起 108、惹是生非 109、...",
"url" : "http:\/\/go.rss.sina.com.cn\/redirect.php?url=http:\/\/edu.sina.com.cn\/zhongkao\/2013-10-30\/1508399791_4.shtml",
"pubDate" : "15:08:14",
"enterDate" : "384201:11:51",
"channelId" : "-8036465548618984449",
"channelName" : "教育要闻汇总-新浪教育",
"channelNameSummary" : "教育要闻汇总-新浪教...",
"channelUrl" : "http:\/\/edu.sina.com.cn\/",
"author" : "WWW.SINA.COM.CN",
"tags" : [],
"desc" : "106、万里平畴。畴，田野。 107、高潮迭起 108、惹是生非 109、群英荟萃 110、(正确) 111、湮没无闻 112、徇私舞弊 113、呕心沥血 114、千锤百炼 115、欢欣鼓舞 116、声名鹊起 117、常备不懈....",
"emailed" : False,
"forwarded" : False,
"english" : False
}  , {
"index" : 18,
"articleIndex" : "52861",
"favor" :  False ,
     "read" : False,    
"title" : "留学申请靠机构还是靠自己？(图)",
"titleTip" : "留学申请靠机构还是靠自己？(图)",
"titleSummary" : "留学申请靠机构还是靠自己？(图)",
"descSummary" : "出国留学，DIY还是找机构？随着出国留学群体的壮大，学生们英文水平...",
"url" : "http:\/\/go.rss.sina.com.cn\/redirect.php?url=http:\/\/edu.sina.com.cn\/a\/2013-10-30\/1508235434.shtml",
"pubDate" : "15:08:00",
"enterDate" : "384201:11:37",
"channelId" : "-8036465548618984449",
"channelName" : "教育要闻汇总-新浪教育",
"channelNameSummary" : "教育要闻汇总-新浪教...",
"channelUrl" : "http:\/\/edu.sina.com.cn\/",
"author" : "WWW.SINA.COM.CN",
"tags" : [],
"desc" : "出国留学，DIY还是找机构？随着出国留学群体的壮大，学生们英文水平的提高，纠结在DIY还是找机构这个问题上的学生和家长越来越多。找机构，省时省力，就是比较贵。自己DIY，可以真正学到东西，可就怕申请不到好学校。家长和学生们困惑着，于是一边自己搜索各种资料，一边游走....",
"emailed" : False,
"forwarded" : False,
"english" : False
}  , {
"index" : 19,
"articleIndex" : "52860",
"favor" :  False ,
     "read" : False,    
"title" : "加公布2014年新移民配额 创加国历史新高",
"titleTip" : "加公布2014年新移民配额 创加国历史新高",
"titleSummary" : "加公布2014年新移民配额 创加国历史新高",
"descSummary" : "明年移民配额创加国史上新高。(加拿大《星岛日报》数据图片...",
"url" : "http:\/\/go.rss.sina.com.cn\/redirect.php?url=http:\/\/edu.sina.com.cn\/a\/2013-10-30\/1453235432.shtml",
"pubDate" : "14:53:50",
"enterDate" : "384200:57:27",
"channelId" : "-8036465548618984449",
"channelName" : "教育要闻汇总-新浪教育",
"channelNameSummary" : "教育要闻汇总-新浪教...",
"channelUrl" : "http:\/\/edu.sina.com.cn\/",
"author" : "WWW.SINA.COM.CN",
"tags" : [],
"desc" : "明年移民配额创加国史上新高。(加拿大《星岛日报》数据图片) 中新网10月30日电据加拿大《星岛日报》报道，加拿大联邦移民部公布明年移民配额，计划接收24万至26.5万个新移民，其中经济类移民占63%。加拿大经验类别(CEC)和省提名移民计划(PNP)人数均创历史新高。移民部还力....",
"emailed" : False,
"forwarded" : False,
"english" : False
} ]
}
