{
"mode" : {"viewTitle" : 1,   "viewNew" : 0,  "pageIndex" : 1 },
 "channel" : {"id" : "156269739505722682", "booked" : False, "subNumber" : 1, "name" : "国产新车-新浪汽车", "url" : "http:\/\/auto.sina.com.cn\/newcar\/index.shtml", "feed" : "http:\/\/rss.sina.com.cn\/auto\/newcar\/index.xml", "author" : "WWW.SINA.COM.CN", "desc" : "国产新车-要闻列表", "imageUrl" : "http:\/\/www.sinaimg.cn\/dy\/auto\/index\/topbar_03.gif", "postPerWeek" : "0", "lastCrawTime" : "2013年10月18日 (1周前)", "crawDateTime" : "2013年10月17日 (1周前)", "lastHttpCode" : "304"}, "page" : {
"startIndex" : 0,
"totalCount" : 3043,
"pageIndex" : 1,
"lastPage" : 153,
"pageSize" : 20,
"english" :  False },
 "unreadNum" : 0, "shotIndex" : -1,
"articles" : [
{
"index" : 0,
"articleIndex" : "3042",
"favor" :  False ,
     "read" : False,    
"title" : "海马M3风阻系数0.27 排放达到国V标准",
"titleTip" : "海马M3风阻系数0.27 排放达到国V标准",
"titleSummary" : "海马M3风阻系数0.27 排放达到国V标准",
"descSummary" : "",
"url" : "http:\/\/go.rss.sina.com.cn\/redirect.php?url=http:\/\/auto.sina.com.cn\/car\/2013-10-17\/14301236356.shtml",
"pubDate" : "2013年10月17日 (1周前)",
"enterDate" : "384198:16:49",
"channelId" : "156269739505722682",
"channelName" : "国产新车-新浪汽车",
"channelNameSummary" : "国产新车-新浪汽车",
"channelUrl" : "http:\/\/auto.sina.com.cn\/newcar\/index.shtml",
"author" : "WWW.SINA.COM.CN",
"tags" : [],
"desc" : "",
"emailed" : False,
"forwarded" : False,
"english" : False
}  , {
"index" : 1,
"articleIndex" : "3040",
"favor" :  False ,
     "read" : False,    
"title" : "2014款众泰Z300上市 售5.8999-8.6999万",
"titleTip" : "2014款众泰Z300上市 售5.8999-8.6999万",
"titleSummary" : "2014款众泰Z300上市 售5.8999-8.6999万",
"descSummary" : "",
"url" : "http:\/\/go.rss.sina.com.cn\/redirect.php?url=http:\/\/auto.sina.com.cn\/car\/2013-10-17\/13291236331.shtml",
"pubDate" : "2013年10月17日 (1周前)",
"enterDate" : "384199:31:48",
"channelId" : "156269739505722682",
"channelName" : "国产新车-新浪汽车",
"channelNameSummary" : "国产新车-新浪汽车",
"channelUrl" : "http:\/\/auto.sina.com.cn\/newcar\/index.shtml",
"author" : "WWW.SINA.COM.CN",
"tags" : [],
"desc" : "",
"emailed" : False,
"forwarded" : False,
"english" : False
}  , {
"index" : 2,
"articleIndex" : "3041",
"favor" :  False ,
     "read" : False,    
"title" : "2014款众泰Z300上市 售5.8999-8.6999万(2)",
"titleTip" : "2014款众泰Z300上市 售5.8999-8.6999万(2)",
"titleSummary" : "2014款众泰Z300上市 售5.8999-8.6999万(2)",
"descSummary" : "",
"url" : "http:\/\/go.rss.sina.com.cn\/redirect.php?url=http:\/\/auto.sina.com.cn\/car\/2013-10-17\/13291236331_2.shtml",
"pubDate" : "2013年10月17日 (1周前)",
"enterDate" : "384199:31:48",
"channelId" : "156269739505722682",
"channelName" : "国产新车-新浪汽车",
"channelNameSummary" : "国产新车-新浪汽车",
"channelUrl" : "http:\/\/auto.sina.com.cn\/newcar\/index.shtml",
"author" : "WWW.SINA.COM.CN",
"tags" : [],
"desc" : "",
"emailed" : False,
"forwarded" : False,
"english" : False
}  , {
"index" : 3,
"articleIndex" : "3039",
"favor" :  False ,
     "read" : False,    
"title" : "一汽丰田\u201C感恩\u2022畅行\u201D服务活动开启",
"titleTip" : "一汽丰田\u201C感恩\u2022畅行\u201D服务活动开启",
"titleSummary" : "一汽丰田\u201C感恩\u2022畅行\u201D服务活动开启",
"descSummary" : "",
"url" : "http:\/\/go.rss.sina.com.cn\/redirect.php?url=http:\/\/auto.sina.com.cn\/car\/2013-10-17\/10101236233.shtml",
"pubDate" : "2013年10月17日 (1周前)",
"enterDate" : "384200:12:49",
"channelId" : "156269739505722682",
"channelName" : "国产新车-新浪汽车",
"channelNameSummary" : "国产新车-新浪汽车",
"channelUrl" : "http:\/\/auto.sina.com.cn\/newcar\/index.shtml",
"author" : "WWW.SINA.COM.CN",
"tags" : [],
"desc" : "",
"emailed" : False,
"forwarded" : False,
"english" : False
}  , {
"index" : 4,
"articleIndex" : "3038",
"favor" :  False ,
     "read" : False,    
"title" : "中兴首款SUV命名中兴C3 参数配置曝光",
"titleTip" : "中兴首款SUV命名中兴C3 参数配置曝光",
"titleSummary" : "中兴首款SUV命名中兴C3 参数配置曝光",
"descSummary" : "",
"url" : "http:\/\/go.rss.sina.com.cn\/redirect.php?url=http:\/\/auto.sina.com.cn\/car\/2013-10-16\/16301235888.shtml",
"pubDate" : "2013年10月16日 (2周前)",
"enterDate" : "384200:36:36",
"channelId" : "156269739505722682",
"channelName" : "国产新车-新浪汽车",
"channelNameSummary" : "国产新车-新浪汽车",
"channelUrl" : "http:\/\/auto.sina.com.cn\/newcar\/index.shtml",
"author" : "WWW.SINA.COM.CN",
"tags" : [],
"desc" : "",
"emailed" : False,
"forwarded" : False,
"english" : False
}  , {
"index" : 5,
"articleIndex" : "3037",
"favor" :  False ,
     "read" : False,    
"title" : "海马M3主推二三线城市 安全工艺有提升",
"titleTip" : "海马M3主推二三线城市 安全工艺有提升",
"titleSummary" : "海马M3主推二三线城市 安全工艺有提升",
"descSummary" : "",
"url" : "http:\/\/go.rss.sina.com.cn\/redirect.php?url=http:\/\/auto.sina.com.cn\/car\/2013-10-16\/12501235839.shtml",
"pubDate" : "2013年10月16日 (2周前)",
"enterDate" : "384198:41:35",
"channelId" : "156269739505722682",
"channelName" : "国产新车-新浪汽车",
"channelNameSummary" : "国产新车-新浪汽车",
"channelUrl" : "http:\/\/auto.sina.com.cn\/newcar\/index.shtml",
"author" : "WWW.SINA.COM.CN",
"tags" : [],
"desc" : "",
"emailed" : False,
"forwarded" : False,
"english" : False
}  , {
"index" : 6,
"articleIndex" : "3035",
"favor" :  False ,
     "read" : False,    
"title" : "2014款东南V3菱悦上市 售价5.78-7.78万",
"titleTip" : "2014款东南V3菱悦上市 售价5.78-7.78万",
"titleSummary" : "2014款东南V3菱悦上市 售价5.78-7.78万",
"descSummary" : "",
"url" : "http:\/\/go.rss.sina.com.cn\/redirect.php?url=http:\/\/auto.sina.com.cn\/car\/2013-10-16\/10431235779.shtml",
"pubDate" : "2013年10月16日 (2周前)",
"enterDate" : "384200:35:27",
"channelId" : "156269739505722682",
"channelName" : "国产新车-新浪汽车",
"channelNameSummary" : "国产新车-新浪汽车",
"channelUrl" : "http:\/\/auto.sina.com.cn\/newcar\/index.shtml",
"author" : "WWW.SINA.COM.CN",
"tags" : [],
"desc" : "",
"emailed" : False,
"forwarded" : False,
"english" : False
}  , {
"index" : 7,
"articleIndex" : "3036",
"favor" :  False ,
     "read" : False,    
"title" : "2014款东南V3菱悦上市 售价5.78-7.78万(2)",
"titleTip" : "2014款东南V3菱悦上市 售价5.78-7.78万(2)",
"titleSummary" : "2014款东南V3菱悦上市 售价5.78-7.78万(2)",
"descSummary" : "",
"url" : "http:\/\/go.rss.sina.com.cn\/redirect.php?url=http:\/\/auto.sina.com.cn\/car\/2013-10-16\/10431235779_2.shtml",
"pubDate" : "2013年10月16日 (2周前)",
"enterDate" : "384200:35:27",
"channelId" : "156269739505722682",
"channelName" : "国产新车-新浪汽车",
"channelNameSummary" : "国产新车-新浪汽车",
"channelUrl" : "http:\/\/auto.sina.com.cn\/newcar\/index.shtml",
"author" : "WWW.SINA.COM.CN",
"tags" : [],
"desc" : "",
"emailed" : False,
"forwarded" : False,
"english" : False
}  , {
"index" : 8,
"articleIndex" : "3033",
"favor" :  False ,
     "read" : False,    
"title" : "上汽全新MG6搭载TST双离合 油耗大幅降低",
"titleTip" : "上汽全新MG6搭载TST双离合 油耗大幅降低",
"titleSummary" : "上汽全新MG6搭载TST双离合 油耗大幅降低",
"descSummary" : "",
"url" : "http:\/\/go.rss.sina.com.cn\/redirect.php?url=http:\/\/auto.sina.com.cn\/car\/2013-10-16\/07101235461.shtml",
"pubDate" : "2013年10月16日 (2周前)",
"enterDate" : "384200:18:02",
"channelId" : "156269739505722682",
"channelName" : "国产新车-新浪汽车",
"channelNameSummary" : "国产新车-新浪汽车",
"channelUrl" : "http:\/\/auto.sina.com.cn\/newcar\/index.shtml",
"author" : "WWW.SINA.COM.CN",
"tags" : [],
"desc" : "",
"emailed" : False,
"forwarded" : False,
"english" : False
}  , {
"index" : 9,
"articleIndex" : "3034",
"favor" :  False ,
     "read" : False,    
"title" : "比亚迪新款F3年底上市 搭1.2T\/1.5T引擎",
"titleTip" : "比亚迪新款F3年底上市 搭1.2T\/1.5T引擎",
"titleSummary" : "比亚迪新款F3年底上市 搭1.2T\/1.5T引擎",
"descSummary" : "",
"url" : "http:\/\/go.rss.sina.com.cn\/redirect.php?url=http:\/\/auto.sina.com.cn\/car\/2013-10-16\/07101235462.shtml",
"pubDate" : "2013年10月16日 (2周前)",
"enterDate" : "384200:18:02",
"channelId" : "156269739505722682",
"channelName" : "国产新车-新浪汽车",
"channelNameSummary" : "国产新车-新浪汽车",
"channelUrl" : "http:\/\/auto.sina.com.cn\/newcar\/index.shtml",
"author" : "WWW.SINA.COM.CN",
"tags" : [],
"desc" : "",
"emailed" : False,
"forwarded" : False,
"english" : False
}  , {
"index" : 10,
"articleIndex" : "3031",
"favor" :  False ,
     "read" : False,    
"title" : "宝马2014款3系Li上市 售32.98万-60.78万",
"titleTip" : "宝马2014款3系Li上市 售32.98万-60.78万",
"titleSummary" : "宝马2014款3系Li上市 售32.98万-60.78万",
"descSummary" : "",
"url" : "http:\/\/go.rss.sina.com.cn\/redirect.php?url=http:\/\/auto.sina.com.cn\/car\/2013-10-15\/16311235308.shtml",
"pubDate" : "2013年10月15日 (2周前)",
"enterDate" : "384200:27:45",
"channelId" : "156269739505722682",
"channelName" : "国产新车-新浪汽车",
"channelNameSummary" : "国产新车-新浪汽车",
"channelUrl" : "http:\/\/auto.sina.com.cn\/newcar\/index.shtml",
"author" : "WWW.SINA.COM.CN",
"tags" : [],
"desc" : "",
"emailed" : False,
"forwarded" : False,
"english" : False
}  , {
"index" : 11,
"articleIndex" : "3032",
"favor" :  False ,
     "read" : False,    
"title" : "宝马2014款3系Li上市 售32.98万-60.78万(2)",
"titleTip" : "宝马2014款3系Li上市 售32.98万-60.78万(2)",
"titleSummary" : "宝马2014款3系Li上市 售32.98万-60.78万(2)",
"descSummary" : "",
"url" : "http:\/\/go.rss.sina.com.cn\/redirect.php?url=http:\/\/auto.sina.com.cn\/car\/2013-10-15\/16311235308_2.shtml",
"pubDate" : "2013年10月15日 (2周前)",
"enterDate" : "384200:27:45",
"channelId" : "156269739505722682",
"channelName" : "国产新车-新浪汽车",
"channelNameSummary" : "国产新车-新浪汽车",
"channelUrl" : "http:\/\/auto.sina.com.cn\/newcar\/index.shtml",
"author" : "WWW.SINA.COM.CN",
"tags" : [],
"desc" : "",
"emailed" : False,
"forwarded" : False,
"english" : False
}  , {
"index" : 12,
"articleIndex" : "3029",
"favor" :  False ,
     "read" : False,    
"title" : "东风标致301预计11月19日上市 或售8万起",
"titleTip" : "东风标致301预计11月19日上市 或售8万起",
"titleSummary" : "东风标致301预计11月19日上市 或售8万起",
"descSummary" : "",
"url" : "http:\/\/go.rss.sina.com.cn\/redirect.php?url=http:\/\/auto.sina.com.cn\/car\/2013-10-15\/10171235150.shtml",
"pubDate" : "2013年10月15日 (2周前)",
"enterDate" : "384200:15:09",
"channelId" : "156269739505722682",
"channelName" : "国产新车-新浪汽车",
"channelNameSummary" : "国产新车-新浪汽车",
"channelUrl" : "http:\/\/auto.sina.com.cn\/newcar\/index.shtml",
"author" : "WWW.SINA.COM.CN",
"tags" : [],
"desc" : "",
"emailed" : False,
"forwarded" : False,
"english" : False
}  , {
"index" : 13,
"articleIndex" : "3030",
"favor" :  False ,
     "read" : False,    
"title" : "东风标致301预计11月19日上市 或售8万起(2)",
"titleTip" : "东风标致301预计11月19日上市 或售8万起(2)",
"titleSummary" : "东风标致301预计11月19日上市 或售8万起(2)",
"descSummary" : "",
"url" : "http:\/\/go.rss.sina.com.cn\/redirect.php?url=http:\/\/auto.sina.com.cn\/car\/2013-10-15\/10171235150_2.shtml",
"pubDate" : "2013年10月15日 (2周前)",
"enterDate" : "384200:15:09",
"channelId" : "156269739505722682",
"channelName" : "国产新车-新浪汽车",
"channelNameSummary" : "国产新车-新浪汽车",
"channelUrl" : "http:\/\/auto.sina.com.cn\/newcar\/index.shtml",
"author" : "WWW.SINA.COM.CN",
"tags" : [],
"desc" : "",
"emailed" : False,
"forwarded" : False,
"english" : False
}  , {
"index" : 14,
"articleIndex" : "3026",
"favor" :  False ,
     "read" : False,    
"title" : "\u201C没有弯道传祺世界\u201D车王挑战赛北京收官",
"titleTip" : "\u201C没有弯道传祺世界\u201D车王挑战赛北京收官",
"titleSummary" : "\u201C没有弯道传祺世界\u201D车王挑战赛北京收官",
"descSummary" : "",
"url" : "http:\/\/go.rss.sina.com.cn\/redirect.php?url=http:\/\/auto.sina.com.cn\/car\/2013-10-14\/15111234709.shtml",
"pubDate" : "2013年10月14日 (2周前)",
"enterDate" : "384199:12:06",
"channelId" : "156269739505722682",
"channelName" : "国产新车-新浪汽车",
"channelNameSummary" : "国产新车-新浪汽车",
"channelUrl" : "http:\/\/auto.sina.com.cn\/newcar\/index.shtml",
"author" : "WWW.SINA.COM.CN",
"tags" : [],
"desc" : "",
"emailed" : False,
"forwarded" : False,
"english" : False
}  , {
"index" : 15,
"articleIndex" : "3027",
"favor" :  False ,
     "read" : False,    
"title" : "广汽乘用车总经理吴松专访记录",
"titleTip" : "广汽乘用车总经理吴松专访记录",
"titleSummary" : "广汽乘用车总经理吴松专访记录",
"descSummary" : "",
"url" : "http:\/\/go.rss.sina.com.cn\/redirect.php?url=http:\/\/auto.sina.com.cn\/car\/2013-10-14\/15111234709_2.shtml",
"pubDate" : "2013年10月14日 (2周前)",
"enterDate" : "384199:12:06",
"channelId" : "156269739505722682",
"channelName" : "国产新车-新浪汽车",
"channelNameSummary" : "国产新车-新浪汽车",
"channelUrl" : "http:\/\/auto.sina.com.cn\/newcar\/index.shtml",
"author" : "WWW.SINA.COM.CN",
"tags" : [],
"desc" : "",
"emailed" : False,
"forwarded" : False,
"english" : False
}  , {
"index" : 16,
"articleIndex" : "3028",
"favor" :  False ,
     "read" : False,    
"title" : "\u201C没有弯道传祺世界\u201D车王挑战赛北京收官(3)",
"titleTip" : "\u201C没有弯道传祺世界\u201D车王挑战赛北京收官(3)",
"titleSummary" : "\u201C没有弯道传祺世界\u201D车王挑战赛北京收官(3)",
"descSummary" : "",
"url" : "http:\/\/go.rss.sina.com.cn\/redirect.php?url=http:\/\/auto.sina.com.cn\/car\/2013-10-14\/15111234709_3.shtml",
"pubDate" : "2013年10月14日 (2周前)",
"enterDate" : "384199:12:06",
"channelId" : "156269739505722682",
"channelName" : "国产新车-新浪汽车",
"channelNameSummary" : "国产新车-新浪汽车",
"channelUrl" : "http:\/\/auto.sina.com.cn\/newcar\/index.shtml",
"author" : "WWW.SINA.COM.CN",
"tags" : [],
"desc" : "",
"emailed" : False,
"forwarded" : False,
"english" : False
}  , {
"index" : 17,
"articleIndex" : "3025",
"favor" :  False ,
     "read" : False,    
"title" : "以高效为目的 马自达创驰蓝天技术解析",
"titleTip" : "以高效为目的 马自达创驰蓝天技术解析",
"titleSummary" : "以高效为目的 马自达创驰蓝天技术解析",
"descSummary" : "",
"url" : "http:\/\/go.rss.sina.com.cn\/redirect.php?url=http:\/\/auto.sina.com.cn\/car\/2013-10-14\/09451234551.shtml",
"pubDate" : "2013年10月14日 (2周前)",
"enterDate" : "384200:32:23",
"channelId" : "156269739505722682",
"channelName" : "国产新车-新浪汽车",
"channelNameSummary" : "国产新车-新浪汽车",
"channelUrl" : "http:\/\/auto.sina.com.cn\/newcar\/index.shtml",
"author" : "WWW.SINA.COM.CN",
"tags" : [],
"desc" : "",
"emailed" : False,
"forwarded" : False,
"english" : False
}  , {
"index" : 18,
"articleIndex" : "3024",
"favor" :  False ,
     "read" : False,    
"title" : "2014款众泰Z300年内上市 或将配棕色内饰",
"titleTip" : "2014款众泰Z300年内上市 或将配棕色内饰",
"titleSummary" : "2014款众泰Z300年内上市 或将配棕色内饰",
"descSummary" : "",
"url" : "http:\/\/go.rss.sina.com.cn\/redirect.php?url=http:\/\/auto.sina.com.cn\/car\/2013-10-11\/09501233249.shtml",
"pubDate" : "2013年10月11日 (2周前)",
"enterDate" : "384200:31:52",
"channelId" : "156269739505722682",
"channelName" : "国产新车-新浪汽车",
"channelNameSummary" : "国产新车-新浪汽车",
"channelUrl" : "http:\/\/auto.sina.com.cn\/newcar\/index.shtml",
"author" : "WWW.SINA.COM.CN",
"tags" : [],
"desc" : "",
"emailed" : False,
"forwarded" : False,
"english" : False
}  , {
"index" : 19,
"articleIndex" : "3023",
"favor" :  False ,
     "read" : False,    
"title" : "东风标致408车载互联版上市 售16.29万起(2)",
"titleTip" : "东风标致408车载互联版上市 售16.29万起(2)",
"titleSummary" : "东风标致408车载互联版上市 售16.29万起(2)",
"descSummary" : "",
"url" : "http:\/\/go.rss.sina.com.cn\/redirect.php?url=http:\/\/auto.sina.com.cn\/car\/2013-10-11\/09461233237_2.shtml",
"pubDate" : "2013年10月11日 (2周前)",
"enterDate" : "384200:27:50",
"channelId" : "156269739505722682",
"channelName" : "国产新车-新浪汽车",
"channelNameSummary" : "国产新车-新浪汽车",
"channelUrl" : "http:\/\/auto.sina.com.cn\/newcar\/index.shtml",
"author" : "WWW.SINA.COM.CN",
"tags" : [],
"desc" : "",
"emailed" : False,
"forwarded" : False,
"english" : False
} ]
}
