{
"mode" : {"viewTitle" : 1,   "viewNew" : 0,  "pageIndex" : 2 },
 "channel" : {"id" : "156269739505722682", "booked" : False, "subNumber" : 1, "name" : "国产新车-新浪汽车", "url" : "http:\/\/auto.sina.com.cn\/newcar\/index.shtml", "feed" : "http:\/\/rss.sina.com.cn\/auto\/newcar\/index.xml", "author" : "WWW.SINA.COM.CN", "desc" : "国产新车-要闻列表", "imageUrl" : "http:\/\/www.sinaimg.cn\/dy\/auto\/index\/topbar_03.gif", "postPerWeek" : "0", "lastCrawTime" : "2013年10月18日 (1周前)", "crawDateTime" : "2013年10月17日 (1周前)", "lastHttpCode" : "304"}, "page" : {
"startIndex" : 20,
"totalCount" : 3043,
"pageIndex" : 2,
"lastPage" : 153,
"pageSize" : 20,
"english" :  False },
 "unreadNum" : 0, "shotIndex" : -1,
"articles" : [
{
"index" : 0,
"articleIndex" : "3022",
"favor" :  False ,
     "read" : False,    
"title" : "东风标致408车载互联版上市 售16.29万起",
"titleTip" : "东风标致408车载互联版上市 售16.29万起",
"titleSummary" : "东风标致408车载互联版上市 售16.29万起",
"descSummary" : "",
"url" : "http:\/\/go.rss.sina.com.cn\/redirect.php?url=http:\/\/auto.sina.com.cn\/car\/2013-10-11\/09461233237.shtml",
"pubDate" : "2013年10月11日 (2周前)",
"enterDate" : "384200:27:50",
"channelId" : "156269739505722682",
"channelName" : "国产新车-新浪汽车",
"channelNameSummary" : "国产新车-新浪汽车",
"channelUrl" : "http:\/\/auto.sina.com.cn\/newcar\/index.shtml",
"author" : "WWW.SINA.COM.CN",
"tags" : [],
"desc" : "",
"emailed" : False,
"forwarded" : False,
"english" : False
}  , {
"index" : 1,
"articleIndex" : "3020",
"favor" :  False ,
     "read" : False,    
"title" : "力帆汽车\u201C三强联袂\u201D上市 创行业先河",
"titleTip" : "力帆汽车\u201C三强联袂\u201D上市 创行业先河",
"titleSummary" : "力帆汽车\u201C三强联袂\u201D上市 创行业先河",
"descSummary" : "",
"url" : "http:\/\/go.rss.sina.com.cn\/redirect.php?url=http:\/\/auto.sina.com.cn\/car\/2013-10-11\/08561233106.shtml",
"pubDate" : "2013年10月11日 (2周前)",
"enterDate" : "384200:53:36",
"channelId" : "156269739505722682",
"channelName" : "国产新车-新浪汽车",
"channelNameSummary" : "国产新车-新浪汽车",
"channelUrl" : "http:\/\/auto.sina.com.cn\/newcar\/index.shtml",
"author" : "WWW.SINA.COM.CN",
"tags" : [],
"desc" : "",
"emailed" : False,
"forwarded" : False,
"english" : False
}  , {
"index" : 2,
"articleIndex" : "3021",
"favor" :  False ,
     "read" : False,    
"title" : "力帆汽车\u201C三强联袂\u201D上市 创行业先河(2)",
"titleTip" : "力帆汽车\u201C三强联袂\u201D上市 创行业先河(2)",
"titleSummary" : "力帆汽车\u201C三强联袂\u201D上市 创行业先河(2)",
"descSummary" : "",
"url" : "http:\/\/go.rss.sina.com.cn\/redirect.php?url=http:\/\/auto.sina.com.cn\/car\/2013-10-11\/08561233106_2.shtml",
"pubDate" : "2013年10月11日 (2周前)",
"enterDate" : "384200:53:36",
"channelId" : "156269739505722682",
"channelName" : "国产新车-新浪汽车",
"channelNameSummary" : "国产新车-新浪汽车",
"channelUrl" : "http:\/\/auto.sina.com.cn\/newcar\/index.shtml",
"author" : "WWW.SINA.COM.CN",
"tags" : [],
"desc" : "",
"emailed" : False,
"forwarded" : False,
"english" : False
}  , {
"index" : 3,
"articleIndex" : "3019",
"favor" :  False ,
     "read" : False,    
"title" : "海马汽车启动2013留守儿童助学行动",
"titleTip" : "海马汽车启动2013留守儿童助学行动",
"titleSummary" : "海马汽车启动2013留守儿童助学行动",
"descSummary" : "",
"url" : "http:\/\/go.rss.sina.com.cn\/redirect.php?url=http:\/\/auto.sina.com.cn\/car\/2013-10-10\/12101232693.shtml",
"pubDate" : "2013年10月10日 (2周前)",
"enterDate" : "384198:10:47",
"channelId" : "156269739505722682",
"channelName" : "国产新车-新浪汽车",
"channelNameSummary" : "国产新车-新浪汽车",
"channelUrl" : "http:\/\/auto.sina.com.cn\/newcar\/index.shtml",
"author" : "WWW.SINA.COM.CN",
"tags" : [],
"desc" : "",
"emailed" : False,
"forwarded" : False,
"english" : False
}  , {
"index" : 4,
"articleIndex" : "3017",
"favor" :  False ,
     "read" : False,    
"title" : "东风标致301预计11月上市 或售8万元起",
"titleTip" : "东风标致301预计11月上市 或售8万元起",
"titleSummary" : "东风标致301预计11月上市 或售8万元起",
"descSummary" : "",
"url" : "http:\/\/go.rss.sina.com.cn\/redirect.php?url=http:\/\/auto.sina.com.cn\/car\/2013-10-09\/17531232131.shtml",
"pubDate" : "2013年10月9日 (3周前)",
"enterDate" : "384198:46:44",
"channelId" : "156269739505722682",
"channelName" : "国产新车-新浪汽车",
"channelNameSummary" : "国产新车-新浪汽车",
"channelUrl" : "http:\/\/auto.sina.com.cn\/newcar\/index.shtml",
"author" : "WWW.SINA.COM.CN",
"tags" : [],
"desc" : "",
"emailed" : False,
"forwarded" : False,
"english" : False
}  , {
"index" : 5,
"articleIndex" : "3018",
"favor" :  False ,
     "read" : False,    
"title" : "东风标致301预计11月上市 或售8万元起(2)",
"titleTip" : "东风标致301预计11月上市 或售8万元起(2)",
"titleSummary" : "东风标致301预计11月上市 或售8万元起(2)",
"descSummary" : "",
"url" : "http:\/\/go.rss.sina.com.cn\/redirect.php?url=http:\/\/auto.sina.com.cn\/car\/2013-10-09\/17531232131_2.shtml",
"pubDate" : "2013年10月9日 (3周前)",
"enterDate" : "384198:46:44",
"channelId" : "156269739505722682",
"channelName" : "国产新车-新浪汽车",
"channelNameSummary" : "国产新车-新浪汽车",
"channelUrl" : "http:\/\/auto.sina.com.cn\/newcar\/index.shtml",
"author" : "WWW.SINA.COM.CN",
"tags" : [],
"desc" : "",
"emailed" : False,
"forwarded" : False,
"english" : False
}  , {
"index" : 6,
"articleIndex" : "3015",
"favor" :  False ,
     "read" : False,    
"title" : "雪佛兰新赛欧3款新车上市 售5.94-7.04万",
"titleTip" : "雪佛兰新赛欧3款新车上市 售5.94-7.04万",
"titleSummary" : "雪佛兰新赛欧3款新车上市 售5.94-7.04万",
"descSummary" : "",
"url" : "http:\/\/go.rss.sina.com.cn\/redirect.php?url=http:\/\/auto.sina.com.cn\/car\/2013-10-09\/17231232124.shtml",
"pubDate" : "2013年10月9日 (3周前)",
"enterDate" : "384198:17:40",
"channelId" : "156269739505722682",
"channelName" : "国产新车-新浪汽车",
"channelNameSummary" : "国产新车-新浪汽车",
"channelUrl" : "http:\/\/auto.sina.com.cn\/newcar\/index.shtml",
"author" : "WWW.SINA.COM.CN",
"tags" : [],
"desc" : "",
"emailed" : False,
"forwarded" : False,
"english" : False
}  , {
"index" : 7,
"articleIndex" : "3016",
"favor" :  False ,
     "read" : False,    
"title" : "雪佛兰新赛欧3款新车上市 售5.94-7.04万(2)",
"titleTip" : "雪佛兰新赛欧3款新车上市 售5.94-7.04万(2)",
"titleSummary" : "雪佛兰新赛欧3款新车上市 售5.94-7.04万(2)",
"descSummary" : "",
"url" : "http:\/\/go.rss.sina.com.cn\/redirect.php?url=http:\/\/auto.sina.com.cn\/car\/2013-10-09\/17231232124_2.shtml",
"pubDate" : "2013年10月9日 (3周前)",
"enterDate" : "384198:17:40",
"channelId" : "156269739505722682",
"channelName" : "国产新车-新浪汽车",
"channelNameSummary" : "国产新车-新浪汽车",
"channelUrl" : "http:\/\/auto.sina.com.cn\/newcar\/index.shtml",
"author" : "WWW.SINA.COM.CN",
"tags" : [],
"desc" : "",
"emailed" : False,
"forwarded" : False,
"english" : False
}  , {
"index" : 8,
"articleIndex" : "3014",
"favor" :  False ,
     "read" : False,    
"title" : "海马M3炫彩版购车需预定 享0利息信贷服务",
"titleTip" : "海马M3炫彩版购车需预定 享0利息信贷服务",
"titleSummary" : "海马M3炫彩版购车需预定 享0利息信贷服务",
"descSummary" : "",
"url" : "http:\/\/go.rss.sina.com.cn\/redirect.php?url=http:\/\/auto.sina.com.cn\/car\/2013-10-09\/11401232025.shtml",
"pubDate" : "2013年10月9日 (3周前)",
"enterDate" : "384199:35:11",
"channelId" : "156269739505722682",
"channelName" : "国产新车-新浪汽车",
"channelNameSummary" : "国产新车-新浪汽车",
"channelUrl" : "http:\/\/auto.sina.com.cn\/newcar\/index.shtml",
"author" : "WWW.SINA.COM.CN",
"tags" : [],
"desc" : "",
"emailed" : False,
"forwarded" : False,
"english" : False
}  , {
"index" : 9,
"articleIndex" : "3013",
"favor" :  False ,
     "read" : False,    
"title" : "2013年一汽丰田服务节秋季篇如约启动",
"titleTip" : "2013年一汽丰田服务节秋季篇如约启动",
"titleSummary" : "2013年一汽丰田服务节秋季篇如约启动",
"descSummary" : "",
"url" : "http:\/\/go.rss.sina.com.cn\/redirect.php?url=http:\/\/auto.sina.com.cn\/car\/2013-10-09\/10501231963.shtml",
"pubDate" : "2013年10月9日 (3周前)",
"enterDate" : "384198:45:10",
"channelId" : "156269739505722682",
"channelName" : "国产新车-新浪汽车",
"channelNameSummary" : "国产新车-新浪汽车",
"channelUrl" : "http:\/\/auto.sina.com.cn\/newcar\/index.shtml",
"author" : "WWW.SINA.COM.CN",
"tags" : [],
"desc" : "",
"emailed" : False,
"forwarded" : False,
"english" : False
}  , {
"index" : 10,
"articleIndex" : "3012",
"favor" :  False ,
     "read" : False,    
"title" : "2013年一汽丰田水性涂料广州启动大会",
"titleTip" : "2013年一汽丰田水性涂料广州启动大会",
"titleSummary" : "2013年一汽丰田水性涂料广州启动大会",
"descSummary" : "",
"url" : "http:\/\/go.rss.sina.com.cn\/redirect.php?url=http:\/\/auto.sina.com.cn\/car\/2013-10-09\/10201231947.shtml",
"pubDate" : "2013年10月9日 (3周前)",
"enterDate" : "384200:15:31",
"channelId" : "156269739505722682",
"channelName" : "国产新车-新浪汽车",
"channelNameSummary" : "国产新车-新浪汽车",
"channelUrl" : "http:\/\/auto.sina.com.cn\/newcar\/index.shtml",
"author" : "WWW.SINA.COM.CN",
"tags" : [],
"desc" : "",
"emailed" : False,
"forwarded" : False,
"english" : False
}  , {
"index" : 11,
"articleIndex" : "3011",
"favor" :  False ,
     "read" : False,    
"title" : "一汽丰田全新RAV4首月订单突破2000辆",
"titleTip" : "一汽丰田全新RAV4首月订单突破2000辆",
"titleSummary" : "一汽丰田全新RAV4首月订单突破2000辆",
"descSummary" : "",
"url" : "http:\/\/go.rss.sina.com.cn\/redirect.php?url=http:\/\/auto.sina.com.cn\/car\/2013-10-09\/10101231931.shtml",
"pubDate" : "2013年10月9日 (3周前)",
"enterDate" : "384200:05:31",
"channelId" : "156269739505722682",
"channelName" : "国产新车-新浪汽车",
"channelNameSummary" : "国产新车-新浪汽车",
"channelUrl" : "http:\/\/auto.sina.com.cn\/newcar\/index.shtml",
"author" : "WWW.SINA.COM.CN",
"tags" : [],
"desc" : "",
"emailed" : False,
"forwarded" : False,
"english" : False
}  , {
"index" : 12,
"articleIndex" : "3010",
"favor" :  False ,
     "read" : False,    
"title" : "五菱荣光S将于11月上市 或售4.5万起",
"titleTip" : "五菱荣光S将于11月上市 或售4.5万起",
"titleSummary" : "五菱荣光S将于11月上市 或售4.5万起",
"descSummary" : "",
"url" : "http:\/\/go.rss.sina.com.cn\/redirect.php?url=http:\/\/auto.sina.com.cn\/car\/2013-10-08\/10411231426.shtml",
"pubDate" : "2013年10月8日 (3周前)",
"enterDate" : "384200:42:27",
"channelId" : "156269739505722682",
"channelName" : "国产新车-新浪汽车",
"channelNameSummary" : "国产新车-新浪汽车",
"channelUrl" : "http:\/\/auto.sina.com.cn\/newcar\/index.shtml",
"author" : "WWW.SINA.COM.CN",
"tags" : [],
"desc" : "",
"emailed" : False,
"forwarded" : False,
"english" : False
}  , {
"index" : 13,
"articleIndex" : "3009",
"favor" :  False ,
     "read" : False,    
"title" : "南京依维柯超越C100上市 售8.98-9.88万元",
"titleTip" : "南京依维柯超越C100上市 售8.98-9.88万元",
"titleSummary" : "南京依维柯超越C100上市 售8.98-9.88万元",
"descSummary" : "",
"url" : "http:\/\/go.rss.sina.com.cn\/redirect.php?url=http:\/\/auto.sina.com.cn\/car\/2013-09-28\/22111229542.shtml",
"pubDate" : "2013年9月28日",
"enterDate" : "384171:23:56",
"channelId" : "156269739505722682",
"channelName" : "国产新车-新浪汽车",
"channelNameSummary" : "国产新车-新浪汽车",
"channelUrl" : "http:\/\/auto.sina.com.cn\/newcar\/index.shtml",
"author" : "WWW.SINA.COM.CN",
"tags" : [],
"desc" : "",
"emailed" : False,
"forwarded" : False,
"english" : False
}  , {
"index" : 14,
"articleIndex" : "3007",
"favor" :  False ,
     "read" : False,    
"title" : "别克全新君威\/君威GS上市 售17.89万元起",
"titleTip" : "别克全新君威\/君威GS上市 售17.89万元起",
"titleSummary" : "别克全新君威\/君威GS上市 售17.89万元起",
"descSummary" : "",
"url" : "http:\/\/go.rss.sina.com.cn\/redirect.php?url=http:\/\/auto.sina.com.cn\/car\/2013-09-28\/21591229538.shtml",
"pubDate" : "2013年9月28日",
"enterDate" : "384171:12:20",
"channelId" : "156269739505722682",
"channelName" : "国产新车-新浪汽车",
"channelNameSummary" : "国产新车-新浪汽车",
"channelUrl" : "http:\/\/auto.sina.com.cn\/newcar\/index.shtml",
"author" : "WWW.SINA.COM.CN",
"tags" : [],
"desc" : "",
"emailed" : False,
"forwarded" : False,
"english" : False
}  , {
"index" : 15,
"articleIndex" : "3008",
"favor" :  False ,
     "read" : False,    
"title" : "别克全新君威\/君威GS上市 售17.89万元起(2)",
"titleTip" : "别克全新君威\/君威GS上市 售17.89万元起(2)",
"titleSummary" : "别克全新君威\/君威GS上市 售17.89万元起(2)",
"descSummary" : "",
"url" : "http:\/\/go.rss.sina.com.cn\/redirect.php?url=http:\/\/auto.sina.com.cn\/car\/2013-09-28\/21591229538_2.shtml",
"pubDate" : "2013年9月28日",
"enterDate" : "384171:12:20",
"channelId" : "156269739505722682",
"channelName" : "国产新车-新浪汽车",
"channelNameSummary" : "国产新车-新浪汽车",
"channelUrl" : "http:\/\/auto.sina.com.cn\/newcar\/index.shtml",
"author" : "WWW.SINA.COM.CN",
"tags" : [],
"desc" : "",
"emailed" : False,
"forwarded" : False,
"english" : False
}  , {
"index" : 16,
"articleIndex" : "3005",
"favor" :  False ,
     "read" : False,    
"title" : "别克新款君威今晚上市 预计售价19万元起",
"titleTip" : "别克新款君威今晚上市 预计售价19万元起",
"titleSummary" : "别克新款君威今晚上市 预计售价19万元起",
"descSummary" : "",
"url" : "http:\/\/go.rss.sina.com.cn\/redirect.php?url=http:\/\/auto.sina.com.cn\/car\/2013-09-28\/07551229436.shtml",
"pubDate" : "2013年9月28日",
"enterDate" : "384157:07:39",
"channelId" : "156269739505722682",
"channelName" : "国产新车-新浪汽车",
"channelNameSummary" : "国产新车-新浪汽车",
"channelUrl" : "http:\/\/auto.sina.com.cn\/newcar\/index.shtml",
"author" : "WWW.SINA.COM.CN",
"tags" : [],
"desc" : "",
"emailed" : False,
"forwarded" : False,
"english" : False
}  , {
"index" : 17,
"articleIndex" : "3006",
"favor" :  False ,
     "read" : False,    
"title" : "别克新款君威今晚上市 预计售价19万元起(2)",
"titleTip" : "别克新款君威今晚上市 预计售价19万元起(2)",
"titleSummary" : "别克新款君威今晚上市 预计售价19万元起(2)",
"descSummary" : "",
"url" : "http:\/\/go.rss.sina.com.cn\/redirect.php?url=http:\/\/auto.sina.com.cn\/car\/2013-09-28\/07551229436_2.shtml",
"pubDate" : "2013年9月28日",
"enterDate" : "384157:07:39",
"channelId" : "156269739505722682",
"channelName" : "国产新车-新浪汽车",
"channelNameSummary" : "国产新车-新浪汽车",
"channelUrl" : "http:\/\/auto.sina.com.cn\/newcar\/index.shtml",
"author" : "WWW.SINA.COM.CN",
"tags" : [],
"desc" : "",
"emailed" : False,
"forwarded" : False,
"english" : False
}  , {
"index" : 18,
"articleIndex" : "3003",
"favor" :  False ,
     "read" : False,    
"title" : "不看对手专注做自己 全新DS5竞争力分析",
"titleTip" : "不看对手专注做自己 全新DS5竞争力分析",
"titleSummary" : "不看对手专注做自己 全新DS5竞争力分析",
"descSummary" : "",
"url" : "http:\/\/go.rss.sina.com.cn\/redirect.php?url=http:\/\/auto.sina.com.cn\/car\/2013-09-28\/07101229395.shtml",
"pubDate" : "2013年9月28日",
"enterDate" : "384156:23:15",
"channelId" : "156269739505722682",
"channelName" : "国产新车-新浪汽车",
"channelNameSummary" : "国产新车-新浪汽车",
"channelUrl" : "http:\/\/auto.sina.com.cn\/newcar\/index.shtml",
"author" : "WWW.SINA.COM.CN",
"tags" : [],
"desc" : "",
"emailed" : False,
"forwarded" : False,
"english" : False
}  , {
"index" : 19,
"articleIndex" : "3004",
"favor" :  False ,
     "read" : False,    
"title" : "不看对手专注做自己 全新DS5竞争力分析(2)",
"titleTip" : "不看对手专注做自己 全新DS5竞争力分析(2)",
"titleSummary" : "不看对手专注做自己 全新DS5竞争力分析(2)",
"descSummary" : "",
"url" : "http:\/\/go.rss.sina.com.cn\/redirect.php?url=http:\/\/auto.sina.com.cn\/car\/2013-09-28\/07101229395_2.shtml",
"pubDate" : "2013年9月28日",
"enterDate" : "384156:23:15",
"channelId" : "156269739505722682",
"channelName" : "国产新车-新浪汽车",
"channelNameSummary" : "国产新车-新浪汽车",
"channelUrl" : "http:\/\/auto.sina.com.cn\/newcar\/index.shtml",
"author" : "WWW.SINA.COM.CN",
"tags" : [],
"desc" : "",
"emailed" : False,
"forwarded" : False,
"english" : False
} ]
}
