{
"mode" : {"viewTitle" : 1,   "viewNew" : 0,  "pageIndex" : 1 },
 "channel" : {"id" : "-1229935446764640466", "booked" : False, "subNumber" : 5, "name" : "高考-新浪教育", "url" : "http:\/\/edu.sina.com.cn\/rss\/index.html", "feed" : "http:\/\/rss.sina.com.cn\/edu\/gaokao.xml", "author" : "WWW.SINA.COM.CN", "desc" : "文化教育-高考", "imageUrl" : "http:\/\/www.sinaimg.cn\/home\/deco\/2009\/0330\/logo_home_edu.gif", "postPerWeek" : "0", "lastCrawTime" : "2013年10月14日 (2周前)", "crawDateTime" : "2013年10月14日 (2周前)", "lastHttpCode" : "200"}, "page" : {
"startIndex" : 0,
"totalCount" : 5000,
"pageIndex" : 1,
"lastPage" : 250,
"pageSize" : 20,
"english" :  False },
 "unreadNum" : 0, "shotIndex" : -1,
"articles" : [
{
"index" : 0,
"articleIndex" : "60185",
"favor" :  False ,
     "read" : False,    
"title" : "高中会考综评或入高考评价 将改变一考定终身",
"titleTip" : "高中会考综评或入高考评价 将改变一考定终身",
"titleSummary" : "高中会考综评或入高考评价 将改变一考定终身",
"descSummary" : "羊城晚报记者 陈晓璇 通讯员 陈燕丽 全国高考改革方案将...",
"url" : "http:\/\/go.rss.sina.com.cn\/redirect.php?url=http:\/\/edu.sina.com.cn\/gaokao\/2013-10-14\/1110397586.shtml",
"pubDate" : "2013年10月14日 (2周前)",
"enterDate" : "384200:45:29",
"channelId" : "-1229935446764640466",
"channelName" : "高考-新浪教育",
"channelNameSummary" : "高考-新浪教育",
"channelUrl" : "http:\/\/edu.sina.com.cn\/rss\/index.html",
"author" : "WWW.SINA.COM.CN",
"tags" : [],
"desc" : "羊城晚报记者 陈晓璇 通讯员 陈燕丽 全国高考改革方案将会在十八届三中全会后公布(详见昨日本报报道)，消息一出，引起了社会的极大关注。新一轮的高考改革重点会在哪里？12日，在\u201C教育与中国未来\u201D30人论坛2013年会上，参与制订全国高考改革方案的21世纪教育研究院院....",
"emailed" : False,
"forwarded" : False,
"english" : False
}  , {
"index" : 1,
"articleIndex" : "60184",
"favor" :  False ,
     "read" : False,    
"title" : "2014年高考全国名校一轮复习作文考题精编汇总",
"titleTip" : "2014年高考全国名校一轮复习作文考题精编汇总",
"titleSummary" : "2014年高考全国名校一轮复习作文考题精编汇总",
"descSummary" : "冠华作文网为高三的同学们悉心整理出2014年全国名校...",
"url" : "http:\/\/go.rss.sina.com.cn\/redirect.php?url=http:\/\/edu.sina.com.cn\/gaokao\/2013-10-14\/1059397584.shtml",
"pubDate" : "2013年10月14日 (2周前)",
"enterDate" : "384201:04:32",
"channelId" : "-1229935446764640466",
"channelName" : "高考-新浪教育",
"channelNameSummary" : "高考-新浪教育",
"channelUrl" : "http:\/\/edu.sina.com.cn\/rss\/index.html",
"author" : "WWW.SINA.COM.CN",
"tags" : [],
"desc" : "冠华作文网为高三的同学们悉心整理出2014年全国名校高考一轮复习作文考题库，出题来自全国名校，命题内容丰富，为大家开拓语文作文写作领域，锻炼同学们的发散思维。 2014年全国名校一轮复习作文考题精编(1-10) 2014年全国名校一轮复习作文考题精编(11-20) ....",
"emailed" : False,
"forwarded" : False,
"english" : False
}  , {
"index" : 2,
"articleIndex" : "60183",
"favor" :  False ,
     "read" : False,    
"title" : "14年高考全国名校一轮复习作文考题精编(61-70)",
"titleTip" : "14年高考全国名校一轮复习作文考题精编(61-70)",
"titleSummary" : "14年高考全国名校一轮复习作文考题精编(61-70)",
"descSummary" : "61、浙江省温州市十校联合体 阅读下面的文字，根据要...",
"url" : "http:\/\/go.rss.sina.com.cn\/redirect.php?url=http:\/\/edu.sina.com.cn\/gaokao\/2013-10-14\/1034397569.shtml",
"pubDate" : "2013年10月14日 (2周前)",
"enterDate" : "384201:09:05",
"channelId" : "-1229935446764640466",
"channelName" : "高考-新浪教育",
"channelNameSummary" : "高考-新浪教育",
"channelUrl" : "http:\/\/edu.sina.com.cn\/rss\/index.html",
"author" : "WWW.SINA.COM.CN",
"tags" : [],
"desc" : "61、浙江省温州市十校联合体 阅读下面的文字，根据要求作文。(6 0分) \u201C此岸\u201D与\u201C彼岸\u201D是一对矛盾对立的概念，\u201C此岸\u201D即\u201C江、河、湖、海\u201D的这一边，可指目前所处的现实世界，也可比喻现在拥有的人生境界；\u201C彼岸\u201D指\u201C江、河、湖、海\u201D的那一边，可指未来....",
"emailed" : False,
"forwarded" : False,
"english" : False
}  , {
"index" : 3,
"articleIndex" : "60182",
"favor" :  False ,
     "read" : False,    
"title" : "14年高考全国名校一轮复习作文考题精编(51-60)",
"titleTip" : "14年高考全国名校一轮复习作文考题精编(51-60)",
"titleSummary" : "14年高考全国名校一轮复习作文考题精编(51-60)",
"descSummary" : "51、湖南省湘潭市凤凰中学 阅读下面材料，根据自己的...",
"url" : "http:\/\/go.rss.sina.com.cn\/redirect.php?url=http:\/\/edu.sina.com.cn\/gaokao\/2013-10-14\/1031397567.shtml",
"pubDate" : "2013年10月14日 (2周前)",
"enterDate" : "384201:06:18",
"channelId" : "-1229935446764640466",
"channelName" : "高考-新浪教育",
"channelNameSummary" : "高考-新浪教育",
"channelUrl" : "http:\/\/edu.sina.com.cn\/rss\/index.html",
"author" : "WWW.SINA.COM.CN",
"tags" : [],
"desc" : "51、湖南省湘潭市凤凰中学 阅读下面材料，根据自己的感语和联想，写一篇不少于800字的文章。(60分) 易卜生说：\u201C社会犹如一条船，每个人都要有掌舵的准备。\u201D 要求：①选准角度，自定立意；②自拟题目；③除诗歌外，文体不限；④文体特点鲜明。 5....",
"emailed" : False,
"forwarded" : False,
"english" : False
}  , {
"index" : 4,
"articleIndex" : "60181",
"favor" :  False ,
     "read" : False,    
"title" : "14年高考全国名校一轮复习作文考题精编(41-50)",
"titleTip" : "14年高考全国名校一轮复习作文考题精编(41-50)",
"titleSummary" : "14年高考全国名校一轮复习作文考题精编(41-50)",
"descSummary" : "41、四川省南充市高中 阅读下面的文字，根据要求作文...",
"url" : "http:\/\/go.rss.sina.com.cn\/redirect.php?url=http:\/\/edu.sina.com.cn\/gaokao\/2013-10-14\/1027397565.shtml",
"pubDate" : "2013年10月14日 (2周前)",
"enterDate" : "384201:02:38",
"channelId" : "-1229935446764640466",
"channelName" : "高考-新浪教育",
"channelNameSummary" : "高考-新浪教育",
"channelUrl" : "http:\/\/edu.sina.com.cn\/rss\/index.html",
"author" : "WWW.SINA.COM.CN",
"tags" : [],
"desc" : "41、四川省南充市高中 阅读下面的文字，根据要求作文。 袁隆平对招收研究生和博士生有如下看法： \u201C我培养研究生、博士生第一个条件是你要下田。你怕下田，怕吃苦，我就不接收你。电脑很重要，书本知识也很重要，都是基础，但是电脑里面，书本里面种不出....",
"emailed" : False,
"forwarded" : False,
"english" : False
}  , {
"index" : 5,
"articleIndex" : "60180",
"favor" :  False ,
     "read" : False,    
"title" : "14年高考全国名校一轮复习作文考题精编(31-40)",
"titleTip" : "14年高考全国名校一轮复习作文考题精编(31-40)",
"titleSummary" : "14年高考全国名校一轮复习作文考题精编(31-40)",
"descSummary" : "31、山西省忻州一中 康杰中学 临汾一中长治二中 阅读下...",
"url" : "http:\/\/go.rss.sina.com.cn\/redirect.php?url=http:\/\/edu.sina.com.cn\/gaokao\/2013-10-14\/1024397561.shtml",
"pubDate" : "2013年10月14日 (2周前)",
"enterDate" : "384200:59:20",
"channelId" : "-1229935446764640466",
"channelName" : "高考-新浪教育",
"channelNameSummary" : "高考-新浪教育",
"channelUrl" : "http:\/\/edu.sina.com.cn\/rss\/index.html",
"author" : "WWW.SINA.COM.CN",
"tags" : [],
"desc" : "31、山西省忻州一中 康杰中学 临汾一中长治二中 阅读下面的材料，根据要求写一篇不少于800字的文章。(60分) 肖伯纳：人生有两大悲剧，一是没有得到你心爱的东西，一是得到了你心爱的东西。周国平：人生有两大快乐，一是没有得到你心爱的东西，于是你可以去追求....",
"emailed" : False,
"forwarded" : False,
"english" : False
}  , {
"index" : 6,
"articleIndex" : "60179",
"favor" :  False ,
     "read" : False,    
"title" : "14年高考全国名校一轮复习作文考题精编(21-30)",
"titleTip" : "14年高考全国名校一轮复习作文考题精编(21-30)",
"titleSummary" : "14年高考全国名校一轮复习作文考题精编(21-30)",
"descSummary" : "21、苏州市 阅读下面的材料，按照要求作文。在日常活...",
"url" : "http:\/\/go.rss.sina.com.cn\/redirect.php?url=http:\/\/edu.sina.com.cn\/gaokao\/2013-10-14\/1019397558.shtml",
"pubDate" : "2013年10月14日 (2周前)",
"enterDate" : "384200:54:22",
"channelId" : "-1229935446764640466",
"channelName" : "高考-新浪教育",
"channelNameSummary" : "高考-新浪教育",
"channelUrl" : "http:\/\/edu.sina.com.cn\/rss\/index.html",
"author" : "WWW.SINA.COM.CN",
"tags" : [],
"desc" : "21、苏州市 阅读下面的材料，按照要求作文。 在日常活动中，大部分蚂蚁都很勤快地寻找、搬运食物，少数蚂蚁却整日无所事事、东张西望。人们把这少数蚂蚁叫做\u201C懒蚂蚁\u201D。有趣的是，当生物学家在这些\u201C懒蚂蚁\u201D身上做上标记，并且断绝蚁群的食物来源时，那些平时....",
"emailed" : False,
"forwarded" : False,
"english" : False
}  , {
"index" : 7,
"articleIndex" : "60178",
"favor" :  False ,
     "read" : False,    
"title" : "14年高考全国名校一轮复习作文考题精编(11-20)",
"titleTip" : "14年高考全国名校一轮复习作文考题精编(11-20)",
"titleSummary" : "14年高考全国名校一轮复习作文考题精编(11-20)",
"descSummary" : "11、江西师大附中 阅读下面的文字，按要求作文。(50分...",
"url" : "http:\/\/go.rss.sina.com.cn\/redirect.php?url=http:\/\/edu.sina.com.cn\/gaokao\/2013-10-14\/1013397551.shtml",
"pubDate" : "2013年10月14日 (2周前)",
"enterDate" : "384200:48:15",
"channelId" : "-1229935446764640466",
"channelName" : "高考-新浪教育",
"channelNameSummary" : "高考-新浪教育",
"channelUrl" : "http:\/\/edu.sina.com.cn\/rss\/index.html",
"author" : "WWW.SINA.COM.CN",
"tags" : [],
"desc" : "11、江西师大附中 阅读下面的文字，按要求作文。(50分) 进入21世纪，科学技术日新月异。一项又一项科技成果给人们的工作与生活带来了巨大变化。互联网诞生，世界变成了\u201C地球村\u201D，不出门也能了解世界\u2026\u2026医疗方面有CT、核磁共振、各种电子内视镜，把人体透视得....",
"emailed" : False,
"forwarded" : False,
"english" : False
}  , {
"index" : 8,
"articleIndex" : "60177",
"favor" :  False ,
     "read" : False,    
"title" : "14年高考全国名校一轮复习作文考题精编(1-10)",
"titleTip" : "14年高考全国名校一轮复习作文考题精编(1-10)",
"titleSummary" : "14年高考全国名校一轮复习作文考题精编(1-10)",
"descSummary" : "1、广东省惠州市高三 阅读下面的文字，根据要求作文。(...",
"url" : "http:\/\/go.rss.sina.com.cn\/redirect.php?url=http:\/\/edu.sina.com.cn\/gaokao\/2013-10-14\/1007397546.shtml",
"pubDate" : "2013年10月14日 (2周前)",
"enterDate" : "384201:12:44",
"channelId" : "-1229935446764640466",
"channelName" : "高考-新浪教育",
"channelNameSummary" : "高考-新浪教育",
"channelUrl" : "http:\/\/edu.sina.com.cn\/rss\/index.html",
"author" : "WWW.SINA.COM.CN",
"tags" : [],
"desc" : "1、广东省惠州市高三 阅读下面的文字，根据要求作文。(60分) 星期六放假，高二学生小明准备和父母去郊游。出门前，小明看到阳光金灿灿的，望望天色，不像有雨的样子，就想把久未见阳光的衣物拿到露天阳台去曝晒。妈妈说，天气预报说今天有阵雨。 阳光真....",
"emailed" : False,
"forwarded" : False,
"english" : False
}  , {
"index" : 9,
"articleIndex" : "60176",
"favor" :  False ,
     "read" : False,    
"title" : "北京市2014年高招七类考试时间确定",
"titleTip" : "北京市2014年高招七类考试时间确定",
"titleSummary" : "北京市2014年高招七类考试时间确定",
"descSummary" : "昨天，记者从北京教育考试院获悉，本市2014年高招艺术特长生统...",
"url" : "http:\/\/go.rss.sina.com.cn\/redirect.php?url=http:\/\/edu.sina.com.cn\/gaokao\/2013-10-14\/0957397540.shtml",
"pubDate" : "2013年10月14日 (2周前)",
"enterDate" : "384201:01:57",
"channelId" : "-1229935446764640466",
"channelName" : "高考-新浪教育",
"channelNameSummary" : "高考-新浪教育",
"channelUrl" : "http:\/\/edu.sina.com.cn\/rss\/index.html",
"author" : "WWW.SINA.COM.CN",
"tags" : [],
"desc" : "昨天，记者从北京教育考试院获悉，本市2014年高招艺术特长生统测、美术统考、外语口试等七类考试时间已确定，符合相关报考条件的考生，要在规定时间报名并到指定地点参加测试。 最早进行的是全市艺术特长生统测，2013年12月14日、15日、21日、22日举行。美术类专业统一....",
"emailed" : False,
"forwarded" : False,
"english" : False
}  , {
"index" : 10,
"articleIndex" : "60175",
"favor" :  False ,
     "read" : False,    
"title" : "高考英语不计入总分是釜底抽薪之策",
"titleTip" : "高考英语不计入总分是釜底抽薪之策",
"titleSummary" : "高考英语不计入总分是釜底抽薪之策",
"descSummary" : "记者8日多方打听获悉，江苏新高考方案正在酝酿改革，目前最有可...",
"url" : "http:\/\/go.rss.sina.com.cn\/redirect.php?url=http:\/\/edu.sina.com.cn\/gaokao\/2013-10-14\/0848397537.shtml",
"pubDate" : "2013年10月14日 (2周前)",
"enterDate" : "384200:53:13",
"channelId" : "-1229935446764640466",
"channelName" : "高考-新浪教育",
"channelNameSummary" : "高考-新浪教育",
"channelUrl" : "http:\/\/edu.sina.com.cn\/rss\/index.html",
"author" : "WWW.SINA.COM.CN",
"tags" : [],
"desc" : "记者8日多方打听获悉，江苏新高考方案正在酝酿改革，目前最有可能的模式是高考考语文、数学以及文理\u201C小综合\u201D，而英语将实行一年两考，不再计入总分，而是按等级计入高考成绩，高校在录取时将对英语等级提出要求。(《新消息报》10月10日) 近些年来，对于英语过热现象....",
"emailed" : False,
"forwarded" : False,
"english" : False
}  , {
"index" : 11,
"articleIndex" : "60174",
"favor" :  False ,
     "read" : False,    
"title" : "\u201C农爹爹\u201D不敌\u201C城爸爸\u201D是寒门学子之殇",
"titleTip" : "\u201C农爹爹\u201D不敌\u201C城爸爸\u201D是寒门学子之殇",
"titleSummary" : "\u201C农爹爹\u201D不敌\u201C城爸爸\u201D是寒门学子之殇",
"descSummary" : "\u201C教育与中国未来\u201D30人论坛昨日在中山大学举行。有教育...",
"url" : "http:\/\/go.rss.sina.com.cn\/redirect.php?url=http:\/\/edu.sina.com.cn\/gaokao\/2013-10-14\/0744397532.shtml",
"pubDate" : "2013年10月14日 (2周前)",
"enterDate" : "384200:50:06",
"channelId" : "-1229935446764640466",
"channelName" : "高考-新浪教育",
"channelNameSummary" : "高考-新浪教育",
"channelUrl" : "http:\/\/edu.sina.com.cn\/rss\/index.html",
"author" : "WWW.SINA.COM.CN",
"tags" : [],
"desc" : "\u201C教育与中国未来\u201D30人论坛昨日在中山大学举行。有教育专家介绍，寒门子弟上重点大学比例下降，全国985工程高校农村考生比例仅为20.8%。城乡和社会阶层之间的差异明显，北京高校招生数据发现，考生父亲来自农村和来自城市，高考分数相差37分。(10月12日新华网) 自古以....",
"emailed" : False,
"forwarded" : False,
"english" : False
}  , {
"index" : 12,
"articleIndex" : "60172",
"favor" :  False ,
     "read" : False,    
"title" : "2014年高校自主招生报名提前 考试科目可能瘦身",
"titleTip" : "2014年高校自主招生报名提前 考试科目可能瘦身",
"titleSummary" : "2014年高校自主招生报名提前 考试科目可能瘦身",
"descSummary" : "明天是北大接受高中校长申请2014年实名推荐资格的最...",
"url" : "http:\/\/go.rss.sina.com.cn\/redirect.php?url=http:\/\/edu.sina.com.cn\/gaokao\/2013-10-14\/0737397531.shtml",
"pubDate" : "2013年10月14日 (2周前)",
"enterDate" : "384201:13:04",
"channelId" : "-1229935446764640466",
"channelName" : "高考-新浪教育",
"channelNameSummary" : "高考-新浪教育",
"channelUrl" : "http:\/\/edu.sina.com.cn\/rss\/index.html",
"author" : "WWW.SINA.COM.CN",
"tags" : [],
"desc" : "明天是北大接受高中校长申请2014年实名推荐资格的最后一天，一旦确定获得资格的学校名单，就意味着新一轮的掐尖战拉开序幕。记者获悉，相比较往年，今年名校掐尖行动的时间再次提前，招生形式更加多样化。 自主招生报名提前 据了解，去年首批学校启动招生大约在....",
"emailed" : False,
"forwarded" : False,
"english" : False
}  , {
"index" : 13,
"articleIndex" : "60171",
"favor" :  False ,
     "read" : False,    
"title" : "高职生毕业3年年薪30万 6家单位抛橄榄枝",
"titleTip" : "高职生毕业3年年薪30万 6家单位抛橄榄枝",
"titleSummary" : "高职生毕业3年年薪30万 6家单位抛橄榄枝",
"descSummary" : "高职学历，毕业3年，电视招聘现场6家用人单位同时抛出橄榄...",
"url" : "http:\/\/go.rss.sina.com.cn\/redirect.php?url=http:\/\/edu.sina.com.cn\/gaokao\/2013-10-14\/0730397530.shtml",
"pubDate" : "2013年10月14日 (2周前)",
"enterDate" : "384201:06:01",
"channelId" : "-1229935446764640466",
"channelName" : "高考-新浪教育",
"channelNameSummary" : "高考-新浪教育",
"channelUrl" : "http:\/\/edu.sina.com.cn\/rss\/index.html",
"author" : "WWW.SINA.COM.CN",
"tags" : [],
"desc" : "高职学历，毕业3年，电视招聘现场6家用人单位同时抛出橄榄枝，年薪30万\u2026\u2026最难就业季，这样的经历听上去有些天方夜谭。在近日播出的《非你莫属》节目中，河北工业职业技术学院09届物流管理专业毕业生张东东，一举成名，实现职场上的华丽转身。 &#160;&#160;&#160;&#160;\u201C....",
"emailed" : False,
"forwarded" : False,
"english" : False
}  , {
"index" : 14,
"articleIndex" : "60170",
"favor" :  False ,
     "read" : False,    
"title" : "北京异地高考仅限高职 有限政策短期受益者少",
"titleTip" : "北京异地高考仅限高职 有限政策短期受益者少",
"titleSummary" : "北京异地高考仅限高职 有限政策短期受益者少",
"descSummary" : "国庆长假前夕，北京市教育部门公布了《2014年进城务工...",
"url" : "http:\/\/go.rss.sina.com.cn\/redirect.php?url=http:\/\/edu.sina.com.cn\/gaokao\/2013-10-14\/0728397529.shtml",
"pubDate" : "2013年10月14日 (2周前)",
"enterDate" : "384201:03:27",
"channelId" : "-1229935446764640466",
"channelName" : "高考-新浪教育",
"channelNameSummary" : "高考-新浪教育",
"channelUrl" : "http:\/\/edu.sina.com.cn\/rss\/index.html",
"author" : "WWW.SINA.COM.CN",
"tags" : [],
"desc" : "国庆长假前夕，北京市教育部门公布了《2014年进城务工人员随迁子女在京参加高等职业学校招生考试实施办法》，规定从2014年起，随迁子女可在京参加高等职业学校招生录取。对于这项有限放开的政策，各方评价不一。一批多年期盼孩子能够在京参加高考的非京籍人士更是失望，因为他....",
"emailed" : False,
"forwarded" : False,
"english" : False
}  , {
"index" : 15,
"articleIndex" : "60169",
"favor" :  False ,
     "read" : False,    
"title" : "\u201C最美\u201D新生报到 大学减除全部学费",
"titleTip" : "\u201C最美\u201D新生报到 大学减除全部学费",
"titleSummary" : "\u201C最美\u201D新生报到 大学减除全部学费",
"descSummary" : "本报烟台10月13日电(通讯员刘海军)大学新生报到的日期早已过去一...",
"url" : "http:\/\/go.rss.sina.com.cn\/redirect.php?url=http:\/\/edu.sina.com.cn\/gaokao\/2013-10-14\/0723397528.shtml",
"pubDate" : "2013年10月14日 (2周前)",
"enterDate" : "384200:59:01",
"channelId" : "-1229935446764640466",
"channelName" : "高考-新浪教育",
"channelNameSummary" : "高考-新浪教育",
"channelUrl" : "http:\/\/edu.sina.com.cn\/rss\/index.html",
"author" : "WWW.SINA.COM.CN",
"tags" : [],
"desc" : "本报烟台10月13日电(通讯员刘海军)大学新生报到的日期早已过去一个多月，然而10月10日下午，山东工商学院校门前却举行了一场隆重的迎新仪式\u2015\u2015不少师生手捧鲜花、拉起横幅、排成队伍，学院领导站在队伍前面，一起等待一名特殊学生的到来。这名学生就是今年被该校录取的青年楷....",
"emailed" : False,
"forwarded" : False,
"english" : False
}  , {
"index" : 16,
"articleIndex" : "60173",
"favor" :  False ,
     "read" : False,    
"title" : "大学生\u201C回炉\u201D读中专 最高月收入上万",
"titleTip" : "大学生\u201C回炉\u201D读中专 最高月收入上万",
"titleSummary" : "大学生\u201C回炉\u201D读中专 最高月收入上万",
"descSummary" : "一群大专院校毕业生，有的在社会上摸爬滚打几年，有的毕业后找...",
"url" : "http:\/\/go.rss.sina.com.cn\/redirect.php?url=http:\/\/edu.sina.com.cn\/gaokao\/2013-10-14\/0721397527.shtml",
"pubDate" : "2013年10月14日 (2周前)",
"enterDate" : "384200:26:59",
"channelId" : "-1229935446764640466",
"channelName" : "高考-新浪教育",
"channelNameSummary" : "高考-新浪教育",
"channelUrl" : "http:\/\/edu.sina.com.cn\/rss\/index.html",
"author" : "WWW.SINA.COM.CN",
"tags" : [],
"desc" : "一群大专院校毕业生，有的在社会上摸爬滚打几年，有的毕业后找工作不顺利，大家不约而同选择到中专\u201C回炉\u201D念书，只为谋个稳定有前途的好工作。在武汉铁路桥梁学校，就有50名这类特殊的学生。 武汉铁路桥梁学校就业办主任张元照介绍，近几年该校学生毕业后，一个月拿六....",
"emailed" : False,
"forwarded" : False,
"english" : False
}  , {
"index" : 17,
"articleIndex" : "60168",
"favor" :  False ,
     "read" : False,    
"title" : "陕西异地高考方案细则出台征意见",
"titleTip" : "陕西异地高考方案细则出台征意见",
"titleSummary" : "陕西异地高考方案细则出台征意见",
"descSummary" : "陕西省异地高考方案细则出台，12日至16日征求意见，2016年施行。...",
"url" : "http:\/\/go.rss.sina.com.cn\/redirect.php?url=http:\/\/edu.sina.com.cn\/gaokao\/2013-10-13\/1417397521.shtml",
"pubDate" : "2013年10月13日 (2周前)",
"enterDate" : "384200:55:52",
"channelId" : "-1229935446764640466",
"channelName" : "高考-新浪教育",
"channelNameSummary" : "高考-新浪教育",
"channelUrl" : "http:\/\/edu.sina.com.cn\/rss\/index.html",
"author" : "WWW.SINA.COM.CN",
"tags" : [],
"desc" : "陕西省异地高考方案细则出台，12日至16日征求意见，2016年施行。 基本条件 截至高考当年，高级中等教育阶段在陕连续学籍满3年。即从第一学年开始，在我省高级中等教育阶段学校注册学籍、连续就读3年，按规定完成学业并获得陕西省高级中等教育阶段学校颁发的毕业....",
"emailed" : False,
"forwarded" : False,
"english" : False
}  , {
"index" : 18,
"articleIndex" : "60167",
"favor" :  False ,
     "read" : False,    
"title" : "对话休学港大辽宁高考状元自称古代人",
"titleTip" : "对话休学港大辽宁高考状元自称古代人",
"titleSummary" : "对话休学港大辽宁高考状元自称古代人",
"descSummary" : "据中国之声《新闻晚高峰》报道，上香港大学是让很多人羡慕的一...",
"url" : "http:\/\/go.rss.sina.com.cn\/redirect.php?url=http:\/\/edu.sina.com.cn\/gaokao\/2013-10-13\/1113397514.shtml",
"pubDate" : "2013年10月13日 (2周前)",
"enterDate" : "384200:21:43",
"channelId" : "-1229935446764640466",
"channelName" : "高考-新浪教育",
"channelNameSummary" : "高考-新浪教育",
"channelUrl" : "http:\/\/edu.sina.com.cn\/rss\/index.html",
"author" : "WWW.SINA.COM.CN",
"tags" : [],
"desc" : "据中国之声《新闻晚高峰》报道，上香港大学是让很多人羡慕的一件事，尤其是还有高达72万人民币的全额奖学金。但刘丁宁，这位2013年的辽宁省文科状元，却在开学仅仅一个月后，匆匆选择放弃香港大学优厚的学习条件，回家准备复读考北京大学。 对于这样一种做法，香港大学....",
"emailed" : False,
"forwarded" : False,
"english" : False
}  , {
"index" : 19,
"articleIndex" : "60166",
"favor" :  False ,
     "read" : False,    
"title" : "北京高招7类考试时间确定 考生需网上报名",
"titleTip" : "北京高招7类考试时间确定 考生需网上报名",
"titleSummary" : "北京高招7类考试时间确定 考生需网上报名",
"descSummary" : "本市2014年普通高等学校招收艺术特长生统测等7类考试时间已...",
"url" : "http:\/\/go.rss.sina.com.cn\/redirect.php?url=http:\/\/edu.sina.com.cn\/gaokao\/2013-10-13\/1110397513.shtml",
"pubDate" : "2013年10月13日 (2周前)",
"enterDate" : "384200:19:17",
"channelId" : "-1229935446764640466",
"channelName" : "高考-新浪教育",
"channelNameSummary" : "高考-新浪教育",
"channelUrl" : "http:\/\/edu.sina.com.cn\/rss\/index.html",
"author" : "WWW.SINA.COM.CN",
"tags" : [],
"desc" : "本市2014年普通高等学校招收艺术特长生统测等7类考试时间已经确定。有关负责人提醒，考生要先参加2013年11月进行的高考网上报名。 ■相关测试安排 报名项目 准考证发放(或打印)时间 测试时间 成绩发布时间 艺术特长生统测 2013年12月11日 2013年12月14、....",
"emailed" : False,
"forwarded" : False,
"english" : False
} ]
}
