{
"mode" : {"viewTitle" : 1,   "viewNew" : 0,  "pageIndex" : 2 },
 "channel" : {"id" : "-1229935446764640466", "booked" : False, "subNumber" : 5, "name" : "高考-新浪教育", "url" : "http:\/\/edu.sina.com.cn\/rss\/index.html", "feed" : "http:\/\/rss.sina.com.cn\/edu\/gaokao.xml", "author" : "WWW.SINA.COM.CN", "desc" : "文化教育-高考", "imageUrl" : "http:\/\/www.sinaimg.cn\/home\/deco\/2009\/0330\/logo_home_edu.gif", "postPerWeek" : "0", "lastCrawTime" : "2013年10月14日 (2周前)", "crawDateTime" : "2013年10月14日 (2周前)", "lastHttpCode" : "200"}, "page" : {
"startIndex" : 20,
"totalCount" : 5000,
"pageIndex" : 2,
"lastPage" : 250,
"pageSize" : 20,
"english" :  False },
 "unreadNum" : 0, "shotIndex" : -1,
"articles" : [
{
"index" : 0,
"articleIndex" : "60165",
"favor" :  False ,
     "read" : False,    
"title" : "陕西高考弃考生可免费参加一年职业培训",
"titleTip" : "陕西高考弃考生可免费参加一年职业培训",
"titleSummary" : "陕西高考弃考生可免费参加一年职业培训",
"descSummary" : "新华网西安10月13日电(记者许祖华)记者从陕西省教育厅了解到...",
"url" : "http:\/\/go.rss.sina.com.cn\/redirect.php?url=http:\/\/edu.sina.com.cn\/gaokao\/2013-10-13\/1102397511.shtml",
"pubDate" : "2013年10月13日 (2周前)",
"enterDate" : "384201:10:50",
"channelId" : "-1229935446764640466",
"channelName" : "高考-新浪教育",
"channelNameSummary" : "高考-新浪教育",
"channelUrl" : "http:\/\/edu.sina.com.cn\/rss\/index.html",
"author" : "WWW.SINA.COM.CN",
"tags" : [],
"desc" : "新华网西安10月13日电(记者许祖华)记者从陕西省教育厅了解到，陕西省将对2013年高考弃考学生实施免费一年职业培训。 据介绍，2013年陕西普通高中约有2400余名毕业生放弃参加高考，流向社会。陕西省高考弃考考生免费职业教育培训工作由省教育厅、省人社厅统筹安排，拟由....",
"emailed" : False,
"forwarded" : False,
"english" : False
}  , {
"index" : 1,
"articleIndex" : "60163",
"favor" :  False ,
     "read" : False,    
"title" : "英语教学回归本质需高考改革\u201C一盘棋\u201D",
"titleTip" : "英语教学回归本质需高考改革\u201C一盘棋\u201D",
"titleSummary" : "英语教学回归本质需高考改革\u201C一盘棋\u201D",
"descSummary" : "熊丙奇 江苏又在酝酿新的高考改革方案了。据报道，最有可能...",
"url" : "http:\/\/go.rss.sina.com.cn\/redirect.php?url=http:\/\/edu.sina.com.cn\/gaokao\/2013-10-12\/1104397392.shtml",
"pubDate" : "2013年10月12日 (2周前)",
"enterDate" : "384199:46:40",
"channelId" : "-1229935446764640466",
"channelName" : "高考-新浪教育",
"channelNameSummary" : "高考-新浪教育",
"channelUrl" : "http:\/\/edu.sina.com.cn\/rss\/index.html",
"author" : "WWW.SINA.COM.CN",
"tags" : [],
"desc" : "□熊丙奇&#160; 江苏又在酝酿新的高考改革方案了。据报道，最有可能的模式是高考考语文、数学以及文理\u201C小综合\u201D，而英语将实行一年两考，不再计入总分，而是以等级形式计入高考成绩，高校在录取时将对英语等级提出要求。对此，江苏省有关方面回应称，高考改革方案还没....",
"emailed" : False,
"forwarded" : False,
"english" : False
}  , {
"index" : 2,
"articleIndex" : "60164",
"favor" :  False ,
     "read" : False,    
"title" : "传2014北京高考有望施行考后知分填报",
"titleTip" : "传2014北京高考有望施行考后知分填报",
"titleSummary" : "传2014北京高考有望施行考后知分填报",
"descSummary" : "新浪教育讯 北京2014年高考报名通知删除了填报志愿的时间安排...",
"url" : "http:\/\/go.rss.sina.com.cn\/redirect.php?url=http:\/\/edu.sina.com.cn\/gaokao\/2013-10-12\/1103397391.shtml",
"pubDate" : "2013年10月12日 (2周前)",
"enterDate" : "384195:45:10",
"channelId" : "-1229935446764640466",
"channelName" : "高考-新浪教育",
"channelNameSummary" : "高考-新浪教育",
"channelUrl" : "http:\/\/edu.sina.com.cn\/rss\/index.html",
"author" : "WWW.SINA.COM.CN",
"tags" : [],
"desc" : "新浪教育讯 北京2014年高考报名通知删除了填报志愿的时间安排，高考填报志愿专家@志愿无忧网韩旭 今日撰写博文《北京2014年高考志愿的猜想与浅见》，预计北京高考填报志愿方式或改为考后出分报志愿。是顺序志愿(具体含义见下文)还是平行志愿还不得而知。此举将降低填报志愿的....",
"emailed" : False,
"forwarded" : False,
"english" : False
}  , {
"index" : 3,
"articleIndex" : "60162",
"favor" :  False ,
     "read" : False,    
"title" : "畅谈高考改革：专家力撑高校自主阳光招生",
"titleTip" : "畅谈高考改革：专家力撑高校自主阳光招生",
"titleSummary" : "畅谈高考改革：专家力撑高校自主阳光招生",
"descSummary" : "新快报讯 记者黄婷报道 昨日，由中山大学教育学院、北京大...",
"url" : "http:\/\/go.rss.sina.com.cn\/redirect.php?url=http:\/\/edu.sina.com.cn\/gaokao\/2013-10-12\/1051397386.shtml",
"pubDate" : "2013年10月12日 (2周前)",
"enterDate" : "384199:33:46",
"channelId" : "-1229935446764640466",
"channelName" : "高考-新浪教育",
"channelNameSummary" : "高考-新浪教育",
"channelUrl" : "http:\/\/edu.sina.com.cn\/rss\/index.html",
"author" : "WWW.SINA.COM.CN",
"tags" : [],
"desc" : "新快报讯 记者黄婷报道 昨日，由中山大学教育学院、北京大学教育学院等联合举办的\u201C教育与中国未来\u201D30人论坛2013年年会在中山大学怀士堂举行，来自思想界、教育界、实业界的专家一起把脉中国教育。 江苏省或试水高考英语改革这一热点成为与会专家讨论的焦点。 ....",
"emailed" : False,
"forwarded" : False,
"english" : False
}  , {
"index" : 4,
"articleIndex" : "60161",
"favor" :  False ,
     "read" : False,    
"title" : "专家称寒门子弟上重点大学比例日渐下降",
"titleTip" : "专家称寒门子弟上重点大学比例日渐下降",
"titleSummary" : "专家称寒门子弟上重点大学比例日渐下降",
"descSummary" : "本报讯 (记者徐静 实习生贺莉娜、黄晓燕 通讯员黄爱成)\u201C教育...",
"url" : "http:\/\/go.rss.sina.com.cn\/redirect.php?url=http:\/\/edu.sina.com.cn\/gaokao\/2013-10-12\/1048397383.shtml",
"pubDate" : "2013年10月12日 (2周前)",
"enterDate" : "384199:31:06",
"channelId" : "-1229935446764640466",
"channelName" : "高考-新浪教育",
"channelNameSummary" : "高考-新浪教育",
"channelUrl" : "http:\/\/edu.sina.com.cn\/rss\/index.html",
"author" : "WWW.SINA.COM.CN",
"tags" : [],
"desc" : "本报讯&#160;(记者徐静 实习生贺莉娜、黄晓燕 通讯员黄爱成)\u201C教育与中国未来\u201D30人论坛昨日在中山大学举行。教育专家介绍，寒门子弟上重点大学比例下降，全国985工程高校农村考生比例仅为20.8%。 在招生上，有城乡和社会阶层之间的差异。北京大学教育学院常务副院长文东茅....",
"emailed" : False,
"forwarded" : False,
"english" : False
}  , {
"index" : 5,
"articleIndex" : "60160",
"favor" :  False ,
     "read" : False,    
"title" : "北大教授：高考题目不要过度女性化",
"titleTip" : "北大教授：高考题目不要过度女性化",
"titleSummary" : "北大教授：高考题目不要过度女性化",
"descSummary" : "信息时报讯(记者 邝凝丹 通讯员 黄爱成) 备受关注的高考改革今年应...",
"url" : "http:\/\/go.rss.sina.com.cn\/redirect.php?url=http:\/\/edu.sina.com.cn\/gaokao\/2013-10-12\/1041397380.shtml",
"pubDate" : "2013年10月12日 (2周前)",
"enterDate" : "384199:23:35",
"channelId" : "-1229935446764640466",
"channelName" : "高考-新浪教育",
"channelNameSummary" : "高考-新浪教育",
"channelUrl" : "http:\/\/edu.sina.com.cn\/rss\/index.html",
"author" : "WWW.SINA.COM.CN",
"tags" : [],
"desc" : "信息时报讯(记者 邝凝丹 通讯员 黄爱成)&#160;备受关注的高考改革今年应该没有\u201C大动作\u201D，而广东高中学业水平考试的科目将逐步增加。近日，一年一度的\u201C教育与中国未来\u201D30人论坛・2013年会在中山大学南校区举办，记者从中获悉以上教育新动向。 广东将完善一年多考制....",
"emailed" : False,
"forwarded" : False,
"english" : False
}  , {
"index" : 6,
"articleIndex" : "60159",
"favor" :  False ,
     "read" : False,    
"title" : "专家：广东高考改革方案最快有望下月公布",
"titleTip" : "专家：广东高考改革方案最快有望下月公布",
"titleSummary" : "专家：广东高考改革方案最快有望下月公布",
"descSummary" : "备受关注的我国高考改革方案，最快有望在下月召开的十八届...",
"url" : "http:\/\/go.rss.sina.com.cn\/redirect.php?url=http:\/\/edu.sina.com.cn\/gaokao\/2013-10-12\/1038397377.shtml",
"pubDate" : "2013年10月12日 (2周前)",
"enterDate" : "384199:20:49",
"channelId" : "-1229935446764640466",
"channelName" : "高考-新浪教育",
"channelNameSummary" : "高考-新浪教育",
"channelUrl" : "http:\/\/edu.sina.com.cn\/rss\/index.html",
"author" : "WWW.SINA.COM.CN",
"tags" : [],
"desc" : "备受关注的我国高考改革方案，最快有望在下月召开的十八届三中全会后公布！昨日，\u201C教育与中国未来\u201D30人论坛2013年会在中山大学举行，席间多位专家向记者证实了这一消息。&#160;&#160;&#160; 该论坛由中山大学、北京大学、北京师范大学、华东师范大学、南京师范大学等....",
"emailed" : False,
"forwarded" : False,
"english" : False
}  , {
"index" : 7,
"articleIndex" : "60158",
"favor" :  False ,
     "read" : False,    
"title" : "随迁子女考高职\u201C6年社保\u201D成拦路虎",
"titleTip" : "随迁子女考高职\u201C6年社保\u201D成拦路虎",
"titleSummary" : "随迁子女考高职\u201C6年社保\u201D成拦路虎",
"descSummary" : "新京报讯 2014年进城务工人员随迁子女在京参加高职网上报名申请...",
"url" : "http:\/\/go.rss.sina.com.cn\/redirect.php?url=http:\/\/edu.sina.com.cn\/gaokao\/2013-10-12\/1024397374.shtml",
"pubDate" : "2013年10月12日 (2周前)",
"enterDate" : "384199:07:16",
"channelId" : "-1229935446764640466",
"channelName" : "高考-新浪教育",
"channelNameSummary" : "高考-新浪教育",
"channelUrl" : "http:\/\/edu.sina.com.cn\/rss\/index.html",
"author" : "WWW.SINA.COM.CN",
"tags" : [],
"desc" : "新京报讯 2014年进城务工人员随迁子女在京参加高职网上报名申请昨日启动，因不符合规定的\u201C在京连续缴纳社会保险已满6年\u201D等条件，部分非京籍学生将无缘此次报考。 随迁子女报名受阻最多的为\u201C6年社保\u201D 黄庄职业高中有30个学生准备明年参加高职考试，其中只有2名非....",
"emailed" : False,
"forwarded" : False,
"english" : False
}  , {
"index" : 8,
"articleIndex" : "60157",
"favor" :  False ,
     "read" : False,    
"title" : "\u201C高考状元回炉\u201D不是励志故事而是教育悲情",
"titleTip" : "\u201C高考状元回炉\u201D不是励志故事而是教育悲情",
"titleSummary" : "\u201C高考状元回炉\u201D不是励志故事而是教育悲情",
"descSummary" : "评论员 线教平 近日，被香港大学录取的今年辽宁省文科状...",
"url" : "http:\/\/go.rss.sina.com.cn\/redirect.php?url=http:\/\/edu.sina.com.cn\/gaokao\/2013-10-12\/0937397361.shtml",
"pubDate" : "2013年10月12日 (2周前)",
"enterDate" : "384198:20:19",
"channelId" : "-1229935446764640466",
"channelName" : "高考-新浪教育",
"channelNameSummary" : "高考-新浪教育",
"channelUrl" : "http:\/\/edu.sina.com.cn\/rss\/index.html",
"author" : "WWW.SINA.COM.CN",
"tags" : [],
"desc" : "评论员 线教平 近日，被香港大学录取的今年辽宁省文科状元刘丁宁又返校\u201C复读\u201D的事引来热议。关于刘丁宁离开香港大学的原因，众说纷纭：有说是被港大辞退的，有说是她辞退港大的。比较而言，她中学校长的话似乎更可靠：刘丁宁现在确实在本溪市高级中学上课，但只是为....",
"emailed" : False,
"forwarded" : False,
"english" : False
}  , {
"index" : 9,
"articleIndex" : "60156",
"favor" :  False ,
     "read" : False,    
"title" : "江苏高考有望搬开英语硬杠杠引热议",
"titleTip" : "江苏高考有望搬开英语硬杠杠引热议",
"titleSummary" : "江苏高考有望搬开英语硬杠杠引热议",
"descSummary" : "据报道，根据江苏省正在讨论中的高考改革方案，学生1年中有多次...",
"url" : "http:\/\/go.rss.sina.com.cn\/redirect.php?url=http:\/\/edu.sina.com.cn\/gaokao\/2013-10-12\/0929397359.shtml",
"pubDate" : "2013年10月12日 (2周前)",
"enterDate" : "384198:12:07",
"channelId" : "-1229935446764640466",
"channelName" : "高考-新浪教育",
"channelNameSummary" : "高考-新浪教育",
"channelUrl" : "http:\/\/edu.sina.com.cn\/rss\/index.html",
"author" : "WWW.SINA.COM.CN",
"tags" : [],
"desc" : "据报道，根据江苏省正在讨论中的高考改革方案，学生1年中有多次英语考试机会。 媒体近日报道，江苏正在酝酿的高考新方案中，英语将实行一年两考，不再计入总分，而是以等级形式计入高考成绩，高校在录取时将对英语等级提出要求。虽然该省教育厅对此回应称，江苏省新一轮高....",
"emailed" : False,
"forwarded" : False,
"english" : False
}  , {
"index" : 10,
"articleIndex" : "60155",
"favor" :  False ,
     "read" : False,    
"title" : "状元退学复读凸显内地高校缺自由转学短板",
"titleTip" : "状元退学复读凸显内地高校缺自由转学短板",
"titleSummary" : "状元退学复读凸显内地高校缺自由转学短板",
"descSummary" : "人民网北京10月12日电(欧兴荣)日前，辽宁省2013年文科状元...",
"url" : "http:\/\/go.rss.sina.com.cn\/redirect.php?url=http:\/\/edu.sina.com.cn\/gaokao\/2013-10-12\/0924397358.shtml",
"pubDate" : "2013年10月12日 (2周前)",
"enterDate" : "384198:06:42",
"channelId" : "-1229935446764640466",
"channelName" : "高考-新浪教育",
"channelNameSummary" : "高考-新浪教育",
"channelUrl" : "http:\/\/edu.sina.com.cn\/rss\/index.html",
"author" : "WWW.SINA.COM.CN",
"tags" : [],
"desc" : "人民网北京10月12日电(欧兴荣)日前，辽宁省2013年文科状元刘丁宁，从港大退学回高中复读，准备重新报考北大的新闻，引发了社会的广泛关注和讨论，有人赞其勇敢，也有人对其做法很不理解，莫衷一是。香港大学发言人表示，港大尊重刘丁宁同学的决定，现正在与北京大学展开商讨，....",
"emailed" : False,
"forwarded" : False,
"english" : False
}  , {
"index" : 11,
"articleIndex" : "60154",
"favor" :  False ,
     "read" : False,    
"title" : "复旦大学第十届博雅杯人文学科体验营招生简章",
"titleTip" : "复旦大学第十届博雅杯人文学科体验营招生简章",
"titleSummary" : "复旦大学第十届博雅杯人文学科体验营招生简章",
"descSummary" : "依据《国家中长期教育改革和发展规划纲要(2010-2020年...",
"url" : "http:\/\/go.rss.sina.com.cn\/redirect.php?url=http:\/\/edu.sina.com.cn\/gaokao\/2013-10-12\/0920397357.shtml",
"pubDate" : "2013年10月12日 (2周前)",
"enterDate" : "384198:03:09",
"channelId" : "-1229935446764640466",
"channelName" : "高考-新浪教育",
"channelNameSummary" : "高考-新浪教育",
"channelUrl" : "http:\/\/edu.sina.com.cn\/rss\/index.html",
"author" : "WWW.SINA.COM.CN",
"tags" : [],
"desc" : "依据《国家中长期教育改革和发展规划纲要(2010\u20152020年)》精神，\u201C对特长显著、符合学校培养要求的，依据面试或者测试结果自主录取；高中阶段全面发展、表现优异的，推荐录取；对在实践岗位上作出突出贡献或具有特殊才能的人才，建立专门程序，破格录取\u201D，经我校招生工作领导....",
"emailed" : False,
"forwarded" : False,
"english" : False
}  , {
"index" : 12,
"articleIndex" : "60153",
"favor" :  False ,
     "read" : False,    
"title" : "北京2014年高考志愿的猜想与浅见",
"titleTip" : "北京2014年高考志愿的猜想与浅见",
"titleSummary" : "北京2014年高考志愿的猜想与浅见",
"descSummary" : "http:\/\/blog.sina.com.cn\/viphanxu",
"url" : "http:\/\/go.rss.sina.com.cn\/redirect.php?url=http:\/\/blog.sina.com.cn\/s\/blog_5d96d54f0102ej46.html",
"pubDate" : "2013年10月12日 (2周前)",
"enterDate" : "384197:46:11",
"channelId" : "-1229935446764640466",
"channelName" : "高考-新浪教育",
"channelNameSummary" : "高考-新浪教育",
"channelUrl" : "http:\/\/edu.sina.com.cn\/rss\/index.html",
"author" : "WWW.SINA.COM.CN",
"tags" : [],
"desc" : "http:\/\/blog.sina.com.cn\/viphanxu",
"emailed" : False,
"forwarded" : False,
"english" : False
}  , {
"index" : 13,
"articleIndex" : "60152",
"favor" :  False ,
     "read" : False,    
"title" : "学中文 选择港大还是北大？",
"titleTip" : "学中文 选择港大还是北大？",
"titleSummary" : "学中文 选择港大还是北大？",
"descSummary" : "http:\/\/blog.sina.com.cn\/chenwu",
"url" : "http:\/\/go.rss.sina.com.cn\/redirect.php?url=http:\/\/blog.sina.com.cn\/s\/blog_53fe981c0102e83x.html",
"pubDate" : "2013年10月12日 (2周前)",
"enterDate" : "384197:41:26",
"channelId" : "-1229935446764640466",
"channelName" : "高考-新浪教育",
"channelNameSummary" : "高考-新浪教育",
"channelUrl" : "http:\/\/edu.sina.com.cn\/rss\/index.html",
"author" : "WWW.SINA.COM.CN",
"tags" : [],
"desc" : "http:\/\/blog.sina.com.cn\/chenwu",
"emailed" : False,
"forwarded" : False,
"english" : False
}  , {
"index" : 14,
"articleIndex" : "60151",
"favor" :  False ,
     "read" : False,    
"title" : "为脑瘫同学 37个孩子甘愿蜗居小教室上课",
"titleTip" : "为脑瘫同学 37个孩子甘愿蜗居小教室上课",
"titleSummary" : "为脑瘫同学 37个孩子甘愿蜗居小教室上课",
"descSummary" : "从三年级起，身患脑瘫的双胞胎姐妹余美、余丽和班上的37名...",
"url" : "http:\/\/go.rss.sina.com.cn\/redirect.php?url=http:\/\/edu.sina.com.cn\/gaokao\/2013-10-12\/0821397354.shtml",
"pubDate" : "2013年10月12日 (2周前)",
"enterDate" : "384197:03:57",
"channelId" : "-1229935446764640466",
"channelName" : "高考-新浪教育",
"channelNameSummary" : "高考-新浪教育",
"channelUrl" : "http:\/\/edu.sina.com.cn\/rss\/index.html",
"author" : "WWW.SINA.COM.CN",
"tags" : [],
"desc" : "从三年级起，身患脑瘫的双胞胎姐妹余美、余丽和班上的37名同学一起，一直挤在一间仅有37平方米的小教室里上课，至今已是第四个年头。这件在武汉市三眼桥小学师生们眼里已习以为常的事，让前来交流任教的惠济路小学老师韩隽感动不已，他充满感情地告诉本报记者：\u201C我担任六(1)....",
"emailed" : False,
"forwarded" : False,
"english" : False
}  , {
"index" : 15,
"articleIndex" : "60150",
"favor" :  False ,
     "read" : False,    
"title" : "高考改革方案三中全会后出台 或给大学放权",
"titleTip" : "高考改革方案三中全会后出台 或给大学放权",
"titleSummary" : "高考改革方案三中全会后出台 或给大学放权",
"descSummary" : "羊城晚报讯 记者林世宁，通讯员黄爱成、许慧妍报道：11日...",
"url" : "http:\/\/go.rss.sina.com.cn\/redirect.php?url=http:\/\/edu.sina.com.cn\/gaokao\/2013-10-12\/0810397351.shtml",
"pubDate" : "2013年10月12日 (2周前)",
"enterDate" : "384196:53:00",
"channelId" : "-1229935446764640466",
"channelName" : "高考-新浪教育",
"channelNameSummary" : "高考-新浪教育",
"channelUrl" : "http:\/\/edu.sina.com.cn\/rss\/index.html",
"author" : "WWW.SINA.COM.CN",
"tags" : [],
"desc" : "羊城晚报讯 记者林世宁，通讯员黄爱成、许慧妍报道：11日，\u201C教育与中国未来\u201D30人论坛2013年会在中山大学开幕。论坛上，多名专家学者提及，全国高考改革方案制定已进入最后阶段，预计在十八届三中全会后公布。 对于现行的高考制度，民众可谓\u201C又爱又恨\u201D。中国教育学....",
"emailed" : False,
"forwarded" : False,
"english" : False
}  , {
"index" : 16,
"articleIndex" : "60149",
"favor" :  False ,
     "read" : False,    
"title" : "随迁子女在京高考昨起申请 须满6年社保条件",
"titleTip" : "随迁子女在京高考昨起申请 须满6年社保条件",
"titleSummary" : "随迁子女在京高考昨起申请 须满6年社保条件",
"descSummary" : "难以满足\u201C6年社保\u201D条件致部分非京籍考生放弃申请 随迁子...",
"url" : "http:\/\/go.rss.sina.com.cn\/redirect.php?url=http:\/\/edu.sina.com.cn\/gaokao\/2013-10-12\/0746397346.shtml",
"pubDate" : "2013年10月12日 (2周前)",
"enterDate" : "384196:28:57",
"channelId" : "-1229935446764640466",
"channelName" : "高考-新浪教育",
"channelNameSummary" : "高考-新浪教育",
"channelUrl" : "http:\/\/edu.sina.com.cn\/rss\/index.html",
"author" : "WWW.SINA.COM.CN",
"tags" : [],
"desc" : "难以满足\u201C6年社保\u201D条件致部分非京籍考生放弃申请 随迁子女在京高考昨起申请 本报讯(记者 任敏)昨天，2014年进城务工人员随迁子女在京参加高考报名申请正式启动，2014年本市高考报名由此拉开大幕。这是本市高考首次对非京籍学生开放。记者从多所学校了解到，....",
"emailed" : False,
"forwarded" : False,
"english" : False
}  , {
"index" : 17,
"articleIndex" : "60148",
"favor" :  False ,
     "read" : False,    
"title" : "专家认为英语投入产出不成正比 高考应取消",
"titleTip" : "专家认为英语投入产出不成正比 高考应取消",
"titleSummary" : "专家认为英语投入产出不成正比 高考应取消",
"descSummary" : "南都讯 记者阳广霞 实习生覃雯 近日有消息称江苏省2016年...",
"url" : "http:\/\/go.rss.sina.com.cn\/redirect.php?url=http:\/\/edu.sina.com.cn\/gaokao\/2013-10-12\/0744397345.shtml",
"pubDate" : "2013年10月12日 (2周前)",
"enterDate" : "384196:27:05",
"channelId" : "-1229935446764640466",
"channelName" : "高考-新浪教育",
"channelNameSummary" : "高考-新浪教育",
"channelUrl" : "http:\/\/edu.sina.com.cn\/rss\/index.html",
"author" : "WWW.SINA.COM.CN",
"tags" : [],
"desc" : "南都讯 记者阳广霞 实习生覃雯 近日有消息称江苏省2016年高考英语或将不计入总分，而这一说法被官方否定。不过，一场高考是否应改革的讨论由此展开。昨日，教育与中国未来30人论坛在中山大学举行，专家称英语权重太大，投入产出不成正比。而高考制度短期内不可能改变，其改革....",
"emailed" : False,
"forwarded" : False,
"english" : False
}  , {
"index" : 18,
"articleIndex" : "60147",
"favor" :  False ,
     "read" : False,    
"title" : "父女被同一所高校录取 签订协议互不干涉",
"titleTip" : "父女被同一所高校录取 签订协议互不干涉",
"titleSummary" : "父女被同一所高校录取 签订协议互不干涉",
"descSummary" : "\u201C男版孟母\u201D和女儿同上一所大学 女儿到哪里读书，父亲苏以...",
"url" : "http:\/\/go.rss.sina.com.cn\/redirect.php?url=http:\/\/edu.sina.com.cn\/gaokao\/2013-10-11\/1620397327.shtml",
"pubDate" : "2013年10月11日 (2周前)",
"enterDate" : "384181:02:35",
"channelId" : "-1229935446764640466",
"channelName" : "高考-新浪教育",
"channelNameSummary" : "高考-新浪教育",
"channelUrl" : "http:\/\/edu.sina.com.cn\/rss\/index.html",
"author" : "WWW.SINA.COM.CN",
"tags" : [],
"desc" : "\u201C男版孟母\u201D和女儿同上一所大学 女儿到哪里读书，父亲苏以彬就将自己的小餐馆开到哪里。今年，父女俩一起参加高考，同时被中国地质大学(招生办)江城学院同一个专业录取。 经过一个多月的协商，\u201C十一\u201D过后，43岁的苏以彬终于作为一名大学生，坐进了该校的教室....",
"emailed" : False,
"forwarded" : False,
"english" : False
}  , {
"index" : 19,
"articleIndex" : "60146",
"favor" :  False ,
     "read" : False,    
"title" : "广东省教育考试院：广东或尝试英语一年多考",
"titleTip" : "广东省教育考试院：广东或尝试英语一年多考",
"titleSummary" : "广东省教育考试院：广东或尝试英语一年多考",
"descSummary" : "羊城晚报讯 江苏省新一轮高考方案正在紧锣密鼓制定之中...",
"url" : "http:\/\/go.rss.sina.com.cn\/redirect.php?url=http:\/\/edu.sina.com.cn\/gaokao\/2013-10-11\/1457397315.shtml",
"pubDate" : "2013年10月11日 (2周前)",
"enterDate" : "384200:58:46",
"channelId" : "-1229935446764640466",
"channelName" : "高考-新浪教育",
"channelNameSummary" : "高考-新浪教育",
"channelUrl" : "http:\/\/edu.sina.com.cn\/rss\/index.html",
"author" : "WWW.SINA.COM.CN",
"tags" : [],
"desc" : "羊城晚报讯 江苏省新一轮高考方案正在紧锣密鼓制定之中，有消息称，目前最有可能的模式是高考考语文、数学以及文理\u201C小综合\u201D，英语将实行一年两考，不再计入总分，而是以等级计形式计入高考成绩，高校在录取时将对英语等级提出要求。 据悉，此次江苏高考方案的改革是....",
"emailed" : False,
"forwarded" : False,
"english" : False
} ]
}
