{
"mode" : {"viewTitle" : 1,   "viewNew" : 0,  "pageIndex" : 1 },
 "channel" : {"id" : "-3924839554755310452", "booked" : False, "subNumber" : 275, "name" : "网络游戏新闻-新浪游戏", "url" : "http:\/\/games.sina.com.cn\/news\/wlyx\/index.shtml", "feed" : "http:\/\/rss.sina.com.cn\/games\/wlyx.xml", "author" : "WWW.SINA.COM.CN", "desc" : "新浪游戏之网络游戏新闻", "imageUrl" : "http:\/\/www.sinaimg.cn\/home\/images\/sina_logo2.gif", "postPerWeek" : "0", "lastCrawTime" : "17:19:30", "crawDateTime" : "06:17:05", "lastHttpCode" : "304"}, "page" : {
"startIndex" : 0,
"totalCount" : 5000,
"pageIndex" : 1,
"lastPage" : 250,
"pageSize" : 20,
"english" :  False },
 "unreadNum" : 0, "shotIndex" : -1,
"articles" : [
{
"index" : 0,
"articleIndex" : "174845",
"favor" :  False ,
     "read" : False,    
"title" : "南瓜怪入侵苏州城《新仙剑》万圣节BOSS",
"titleTip" : "南瓜怪入侵苏州城《新仙剑》万圣节BOSS",
"titleSummary" : "南瓜怪入侵苏州城《新仙剑》万圣节BOSS",
"descSummary" : "《新仙剑》万圣节版本震撼来袭，稀有金色伙伴苏媚高端大气上...",
"url" : "http:\/\/go.rss.sina.com.cn\/redirect.php?url=http:\/\/games.sina.com.cn\/o\/n\/2013-10-29\/1742740536.shtml",
"pubDate" : "昨天17:42:44",
"enterDate" : "384188:45:20",
"channelId" : "-3924839554755310452",
"channelName" : "网络游戏新闻-新浪游戏",
"channelNameSummary" : "网络游戏新闻-新浪游...",
"channelUrl" : "http:\/\/games.sina.com.cn\/news\/wlyx\/index.shtml",
"author" : "WWW.SINA.COM.CN",
"tags" : [],
"desc" : "《新仙剑》万圣节版本震撼来袭，稀有金色伙伴苏媚高端大气上档次！鬼节特有南瓜BOSS等你来挑战，海量万圣节元素和精彩奖品坐等你来拿！万圣节召唤南瓜BOSS击杀获赠专属坐骑外观拉风酷炫吸引所有人的眼球！ 【一大波南瓜正在接近中，为首一员BOSS乃南瓜怪】 《新....",
"emailed" : False,
"forwarded" : False,
"english" : False
}  , {
"index" : 1,
"articleIndex" : "174844",
"favor" :  False ,
     "read" : False,    
"title" : "骏梦新作神秘页面 或为秦时明月RPG版",
"titleTip" : "骏梦新作神秘页面 或为秦时明月RPG版",
"titleSummary" : "骏梦新作神秘页面 或为秦时明月RPG版",
"descSummary" : "今天，骏梦游戏在www.qins.com放出新作神秘页面，分析认为，...",
"url" : "http:\/\/go.rss.sina.com.cn\/redirect.php?url=http:\/\/games.sina.com.cn\/o\/n\/2013-10-29\/1731740535.shtml",
"pubDate" : "昨天17:31:59",
"enterDate" : "384188:34:35",
"channelId" : "-3924839554755310452",
"channelName" : "网络游戏新闻-新浪游戏",
"channelNameSummary" : "网络游戏新闻-新浪游...",
"channelUrl" : "http:\/\/games.sina.com.cn\/news\/wlyx\/index.shtml",
"author" : "WWW.SINA.COM.CN",
"tags" : [],
"desc" : "今天，骏梦游戏在www.qins.com放出新作神秘页面，分析认为，这很可能是其正在研发中的《秦时明月》RPG版即将推出的先兆。这款由玄机科技和骏梦游戏共同研发，根据同名3D动漫剧改编的游戏，在公布之初就被当成了ACG产业发展的一座里程碑而寄予厚望。 而今，这坛酝酿了一....",
"emailed" : False,
"forwarded" : False,
"english" : False
}  , {
"index" : 2,
"articleIndex" : "174843",
"favor" :  False ,
     "read" : False,    
"title" : "Nexon公布卡通新作《佩里亚编年史》",
"titleTip" : "Nexon公布卡通新作《佩里亚编年史》",
"titleSummary" : "Nexon公布卡通新作《佩里亚编年史》",
"descSummary" : "【新浪游戏专稿，转载请注明出处】 新浪游戏讯 10月29日消息，韩...",
"url" : "http:\/\/go.rss.sina.com.cn\/redirect.php?url=http:\/\/games.sina.com.cn\/xyz\/n\/2013-10-29\/1725740533.shtml",
"pubDate" : "昨天17:25:35",
"enterDate" : "384188:28:11",
"channelId" : "-3924839554755310452",
"channelName" : "网络游戏新闻-新浪游戏",
"channelNameSummary" : "网络游戏新闻-新浪游...",
"channelUrl" : "http:\/\/games.sina.com.cn\/news\/wlyx\/index.shtml",
"author" : "WWW.SINA.COM.CN",
"tags" : [],
"desc" : "【新浪游戏专稿，转载请注明出处】 新浪游戏讯 10月29日消息，韩国Nexon公司今日宣布，旗下ThingSoft开发的代号为\u201CProject NT\u201D的卡通风MMORPG正式定名为《Peria Chronicles》(暂译：佩里亚编年史)，该作将参展11月举行的韩国游戏展Gstar。 在2012年的Gsta....",
"emailed" : False,
"forwarded" : False,
"english" : False
}  , {
"index" : 3,
"articleIndex" : "174842",
"favor" :  False ,
     "read" : False,    
"title" : "我要变强《新仙剑》玩家战力指导功能",
"titleTip" : "我要变强《新仙剑》玩家战力指导功能",
"titleSummary" : "我要变强《新仙剑》玩家战力指导功能",
"descSummary" : "在同一个等级之内如何才能达到战力的巅峰？众多变强的途径是否...",
"url" : "http:\/\/go.rss.sina.com.cn\/redirect.php?url=http:\/\/games.sina.com.cn\/o\/n\/2013-10-29\/1719740532.shtml",
"pubDate" : "昨天17:19:54",
"enterDate" : "384188:22:30",
"channelId" : "-3924839554755310452",
"channelName" : "网络游戏新闻-新浪游戏",
"channelNameSummary" : "网络游戏新闻-新浪游...",
"channelUrl" : "http:\/\/games.sina.com.cn\/news\/wlyx\/index.shtml",
"author" : "WWW.SINA.COM.CN",
"tags" : [],
"desc" : "在同一个等级之内如何才能达到战力的巅峰？众多变强的途径是否让你迷失了方向？骏梦游戏《新仙剑》推出\u201C变强\u201D指导系统，将从伙伴、装备、仙术、坐骑等全方位为你指点迷津，完美打造最强状态的你。 《新仙剑》官方网站 【发现自己的不足 才能对症下药】 ....",
"emailed" : False,
"forwarded" : False,
"english" : False
}  , {
"index" : 4,
"articleIndex" : "174841",
"favor" :  False ,
     "read" : False,    
"title" : "Dota2至宝品质流浪新套可改技能图标",
"titleTip" : "Dota2至宝品质流浪新套可改技能图标",
"titleSummary" : "Dota2至宝品质流浪新套可改技能图标",
"descSummary" : "",
"url" : "http:\/\/go.rss.sina.com.cn\/redirect.php?url=http:\/\/games.sina.com.cn\/xyz\/z\/dota2\/2013-10-29\/1653506001.shtml",
"pubDate" : "昨天17:07:54",
"enterDate" : "384188:10:30",
"channelId" : "-3924839554755310452",
"channelName" : "网络游戏新闻-新浪游戏",
"channelNameSummary" : "网络游戏新闻-新浪游...",
"channelUrl" : "http:\/\/games.sina.com.cn\/news\/wlyx\/index.shtml",
"author" : "WWW.SINA.COM.CN",
"tags" : [],
"desc" : "",
"emailed" : False,
"forwarded" : False,
"english" : False
}  , {
"index" : 5,
"articleIndex" : "174840",
"favor" :  False ,
     "read" : False,    
"title" : "奖金高达二十万《远征OL》跨区明星赛",
"titleTip" : "奖金高达二十万《远征OL》跨区明星赛",
"titleSummary" : "奖金高达二十万《远征OL》跨区明星赛",
"descSummary" : "竞技擂台，争霸不息！国战网游经典《远征OL》公测三周年特别...",
"url" : "http:\/\/go.rss.sina.com.cn\/redirect.php?url=http:\/\/games.sina.com.cn\/o\/n\/2013-10-29\/1658740521.shtml",
"pubDate" : "昨天16:58:16",
"enterDate" : "384188:00:52",
"channelId" : "-3924839554755310452",
"channelName" : "网络游戏新闻-新浪游戏",
"channelNameSummary" : "网络游戏新闻-新浪游...",
"channelUrl" : "http:\/\/games.sina.com.cn\/news\/wlyx\/index.shtml",
"author" : "WWW.SINA.COM.CN",
"tags" : [],
"desc" : "竞技擂台，争霸不息！国战网游经典《远征OL》公测三周年特别献礼，铁骑版新服持续火爆。御马厮杀，天下第一技术流争霸激情不断！挑战20万大奖，铁骑版首届武道会竞技擂台明星赛今日启动！谁能成为绝世兵器的首任主人，谁能一统武林称霸擂台，战神传奇，我们一同见证。 ....",
"emailed" : False,
"forwarded" : False,
"english" : False
}  , {
"index" : 6,
"articleIndex" : "174839",
"favor" :  False ,
     "read" : False,    
"title" : "2013年太平洋高校游戏风暴席卷江城",
"titleTip" : "2013年太平洋高校游戏风暴席卷江城",
"titleSummary" : "2013年太平洋高校游戏风暴席卷江城",
"descSummary" : "江城又迎来了一场星级竞技游戏赛事。10月27日，由国内著名竞技...",
"url" : "http:\/\/go.rss.sina.com.cn\/redirect.php?url=http:\/\/games.sina.com.cn\/o\/n\/2013-10-29\/1643740519.shtml",
"pubDate" : "昨天16:43:50",
"enterDate" : "384187:46:26",
"channelId" : "-3924839554755310452",
"channelName" : "网络游戏新闻-新浪游戏",
"channelNameSummary" : "网络游戏新闻-新浪游...",
"channelUrl" : "http:\/\/games.sina.com.cn\/news\/wlyx\/index.shtml",
"author" : "WWW.SINA.COM.CN",
"tags" : [],
"desc" : "江城又迎来了一场星级竞技游戏赛事。10月27日，由国内著名竞技游戏门户网站PCgames举办的\u201C2013全国高校游戏风暴\u201D秋季赛华中地区决赛，在武汉理工大学打响。 武汉电竞协会(筹)负责人唐洪磊表示，近年来武汉电竞发展迅速，武汉300万高校学生中，不仅有大量的潜在玩家，....",
"emailed" : False,
"forwarded" : False,
"english" : False
}  , {
"index" : 7,
"articleIndex" : "174838",
"favor" :  False ,
     "read" : False,    
"title" : "美女完胜公会《坦克英雄》对抗赛落幕",
"titleTip" : "美女完胜公会《坦克英雄》对抗赛落幕",
"titleSummary" : "美女完胜公会《坦克英雄》对抗赛落幕",
"descSummary" : "主打轻竞技风格的《坦克英雄》早前以其简易的操作，快速的战斗...",
"url" : "http:\/\/go.rss.sina.com.cn\/redirect.php?url=http:\/\/games.sina.com.cn\/o\/n\/2013-10-29\/1619740514.shtml",
"pubDate" : "昨天16:19:04",
"enterDate" : "384187:21:40",
"channelId" : "-3924839554755310452",
"channelName" : "网络游戏新闻-新浪游戏",
"channelNameSummary" : "网络游戏新闻-新浪游...",
"channelUrl" : "http:\/\/games.sina.com.cn\/news\/wlyx\/index.shtml",
"author" : "WWW.SINA.COM.CN",
"tags" : [],
"desc" : "主打轻竞技风格的《坦克英雄》早前以其简易的操作，快速的战斗时间吸引了不少女性玩家涌入游戏。官方也借此机会，展开了公会与美女之间的线上争霸赛。双方激烈开战，妹子更有巾帼不让须眉之势。昨晚，战斗再次升级，公会与美女将在线下面对面来了一场较量，届时，官方将在YY频....",
"emailed" : False,
"forwarded" : False,
"english" : False
}  , {
"index" : 8,
"articleIndex" : "174837",
"favor" :  False ,
     "read" : False,    
"title" : "《街头篮球》下一版本预改角色体型",
"titleTip" : "《街头篮球》下一版本预改角色体型",
"titleSummary" : "《街头篮球》下一版本预改角色体型",
"descSummary" : "《街头篮球》为国内首部NBA官方授权电影《神奇》所打造的专属...",
"url" : "http:\/\/go.rss.sina.com.cn\/redirect.php?url=http:\/\/games.sina.com.cn\/o\/n\/2013-10-29\/1613740513.shtml",
"pubDate" : "昨天16:13:00",
"enterDate" : "384187:15:36",
"channelId" : "-3924839554755310452",
"channelName" : "网络游戏新闻-新浪游戏",
"channelNameSummary" : "网络游戏新闻-新浪游...",
"channelUrl" : "http:\/\/games.sina.com.cn\/news\/wlyx\/index.shtml",
"author" : "WWW.SINA.COM.CN",
"tags" : [],
"desc" : "《街头篮球》为国内首部NBA官方授权电影《神奇》所打造的专属版本，获得玩家认可，另一款7年之久的游戏重新焕发光彩。这让官方更有信心大胆尝试，在游戏中大刀阔斧一番。据悉，在下一个即将更新的版本中，不仅将有新的球场与特殊人物与玩家见面。在玩法和玩家自主性上也会有更....",
"emailed" : False,
"forwarded" : False,
"english" : False
}  , {
"index" : 9,
"articleIndex" : "174836",
"favor" :  False ,
     "read" : False,    
"title" : "詹妮弗・劳伦斯或代言网易《龙剑》",
"titleTip" : "詹妮弗・劳伦斯或代言网易《龙剑》",
"titleSummary" : "詹妮弗・劳伦斯或代言网易《龙剑》",
"descSummary" : "【新浪游戏专稿，转载请注明出处】 新浪游戏讯 10月29日消息，网...",
"url" : "http:\/\/go.rss.sina.com.cn\/redirect.php?url=http:\/\/games.sina.com.cn\/xyz\/n\/2013-10-29\/1603740510.shtml",
"pubDate" : "昨天16:03:06",
"enterDate" : "384187:05:42",
"channelId" : "-3924839554755310452",
"channelName" : "网络游戏新闻-新浪游戏",
"channelNameSummary" : "网络游戏新闻-新浪游...",
"channelUrl" : "http:\/\/games.sina.com.cn\/news\/wlyx\/index.shtml",
"author" : "WWW.SINA.COM.CN",
"tags" : [],
"desc" : "【新浪游戏专稿，转载请注明出处】 新浪游戏讯 10月29日消息，网易《龙剑》11月6日将开启不删档内测，而今日官方微博透露，奥斯卡影后詹妮弗・劳伦斯加盟游戏，并曝光一张詹妮弗・劳伦斯与游戏种族皇族女外形神似的宣传画面。这则内容或预示着詹妮弗・劳伦斯将成为游戏....",
"emailed" : False,
"forwarded" : False,
"english" : False
}  , {
"index" : 10,
"articleIndex" : "174835",
"favor" :  False ,
     "read" : False,    
"title" : "《亮剑2》11.2资料片聚焦中日坦克战",
"titleTip" : "《亮剑2》11.2资料片聚焦中日坦克战",
"titleSummary" : "《亮剑2》11.2资料片聚焦中日坦克战",
"descSummary" : "【导语】近日，国防部发言人发表言论指出，中国无人机若被日本击...",
"url" : "http:\/\/go.rss.sina.com.cn\/redirect.php?url=http:\/\/games.sina.com.cn\/o\/n\/2013-10-29\/1601740509.shtml",
"pubDate" : "昨天16:01:51",
"enterDate" : "384187:04:27",
"channelId" : "-3924839554755310452",
"channelName" : "网络游戏新闻-新浪游戏",
"channelNameSummary" : "网络游戏新闻-新浪游...",
"channelUrl" : "http:\/\/games.sina.com.cn\/news\/wlyx\/index.shtml",
"author" : "WWW.SINA.COM.CN",
"tags" : [],
"desc" : "【导语】近日，国防部发言人发表言论指出，中国无人机若被日本击落，中国将采取果断措施予以严厉反击！首款热血军旅网游《亮剑2》年度资料片\u201C策马东京\u201D11月2日即将开测，新式武器上阵，中日之战将震撼上演！ 《亮剑2》年度资料片\u201C策马东京\u201D出动新式陆战武器，多款....",
"emailed" : False,
"forwarded" : False,
"english" : False
}  , {
"index" : 11,
"articleIndex" : "174834",
"favor" :  False ,
     "read" : False,    
"title" : "视觉冲击《天堂之冠》人物特效曝光",
"titleTip" : "视觉冲击《天堂之冠》人物特效曝光",
"titleSummary" : "视觉冲击《天堂之冠》人物特效曝光",
"descSummary" : "熠熠生辉，妖娆迷人，光效的有效运用才能让人物角色更加光彩夺目...",
"url" : "http:\/\/go.rss.sina.com.cn\/redirect.php?url=http:\/\/games.sina.com.cn\/o\/n\/2013-10-29\/1552740506.shtml",
"pubDate" : "昨天15:52:51",
"enterDate" : "384186:55:27",
"channelId" : "-3924839554755310452",
"channelName" : "网络游戏新闻-新浪游戏",
"channelNameSummary" : "网络游戏新闻-新浪游...",
"channelUrl" : "http:\/\/games.sina.com.cn\/news\/wlyx\/index.shtml",
"author" : "WWW.SINA.COM.CN",
"tags" : [],
"desc" : "熠熠生辉，妖娆迷人，光效的有效运用才能让人物角色更加光彩夺目，《天堂之冠》体验服经过最新版本的更新后，在游戏中加入了光效系统，玩家到达指定强力值后，在自身散发闪耀的光芒，让其他玩家为之向往，现在一起进入游戏，欣赏下游戏中光芒闪耀下的人物。 天堂之冠 ....",
"emailed" : False,
"forwarded" : False,
"english" : False
}  , {
"index" : 12,
"articleIndex" : "174833",
"favor" :  False ,
     "read" : False,    
"title" : "《亮剑2》六大职业11月2日策马东京",
"titleTip" : "《亮剑2》六大职业11月2日策马东京",
"titleSummary" : "《亮剑2》六大职业11月2日策马东京",
"descSummary" : "弹指落、千军破，坦克枪械灭东京！首款热血军旅网游《亮剑2》年...",
"url" : "http:\/\/go.rss.sina.com.cn\/redirect.php?url=http:\/\/games.sina.com.cn\/o\/n\/2013-10-29\/1552740505.shtml",
"pubDate" : "昨天15:52:25",
"enterDate" : "384186:55:01",
"channelId" : "-3924839554755310452",
"channelName" : "网络游戏新闻-新浪游戏",
"channelNameSummary" : "网络游戏新闻-新浪游...",
"channelUrl" : "http:\/\/games.sina.com.cn\/news\/wlyx\/index.shtml",
"author" : "WWW.SINA.COM.CN",
"tags" : [],
"desc" : "弹指落、千军破，坦克枪械灭东京！首款热血军旅网游《亮剑2》年度资料片\u201C策马东京\u201D将于11月2日火爆来袭，六大职业聚首东京，新式武器红缨枪与众经典武器出击，巨型武器坦克震撼上阵，硬派作战风格的战争盛宴，即将拉开序幕！ 首款热血军旅网游 年度资料片\u201C策....",
"emailed" : False,
"forwarded" : False,
"english" : False
}  , {
"index" : 13,
"articleIndex" : "174832",
"favor" :  False ,
     "read" : False,    
"title" : "穿越海峡 抗战2无人机飞行线路曝光",
"titleTip" : "穿越海峡 抗战2无人机飞行线路曝光",
"titleSummary" : "穿越海峡 抗战2无人机飞行线路曝光",
"descSummary" : "日本政府在中日主权领土问题上持续保持强硬态度，并放话未来可能将...",
"url" : "http:\/\/go.rss.sina.com.cn\/redirect.php?url=http:\/\/games.sina.com.cn\/o\/n\/2013-10-29\/1550740504.shtml",
"pubDate" : "昨天15:50:33",
"enterDate" : "384186:53:09",
"channelId" : "-3924839554755310452",
"channelName" : "网络游戏新闻-新浪游戏",
"channelNameSummary" : "网络游戏新闻-新浪游...",
"channelUrl" : "http:\/\/games.sina.com.cn\/news\/wlyx\/index.shtml",
"author" : "WWW.SINA.COM.CN",
"tags" : [],
"desc" : "日本政府在中日主权领土问题上持续保持强硬态度，并放话未来可能将以武力予以对抗，如此恶行再次激发了爱国勇士的战斗神经！首款反攻日本爱国网游《抗战2》派出新型无人机进行秘密勘测，飞行线路涵盖江户、大阪、日本皇宫三大重地，此番侦察行动将扩展为新一波反击进攻，一场....",
"emailed" : False,
"forwarded" : False,
"english" : False
}  , {
"index" : 14,
"articleIndex" : "174831",
"favor" :  False ,
     "read" : False,    
"title" : "《九阴真经》好声音之张陈采访纪实",
"titleTip" : "《九阴真经》好声音之张陈采访纪实",
"titleSummary" : "《九阴真经》好声音之张陈采访纪实",
"descSummary" : "九阴好声音，千金寻名伶。来自雁门关服务器的张陈在九阴好声音多...",
"url" : "http:\/\/go.rss.sina.com.cn\/redirect.php?url=http:\/\/games.sina.com.cn\/o\/n\/2013-10-29\/1550740503.shtml",
"pubDate" : "昨天15:50:30",
"enterDate" : "384186:53:06",
"channelId" : "-3924839554755310452",
"channelName" : "网络游戏新闻-新浪游戏",
"channelNameSummary" : "网络游戏新闻-新浪游...",
"channelUrl" : "http:\/\/games.sina.com.cn\/news\/wlyx\/index.shtml",
"author" : "WWW.SINA.COM.CN",
"tags" : [],
"desc" : "九阴好声音，千金寻名伶。来自雁门关服务器的张陈在九阴好声音多轮活动中胜出，顺利在18强中占有一席之位。擅长使用情歌催人泪下并且将歌曲演绎得颇具自己独特的风格使之成功打动评委，当仁不让的列于18强名单之中。下面，我们一起走进《九阴好声音》32强选手张陈的访谈录。....",
"emailed" : False,
"forwarded" : False,
"english" : False
}  , {
"index" : 15,
"articleIndex" : "174830",
"favor" :  False ,
     "read" : False,    
"title" : "再进化《音乐侠》主题舞场精彩抢先看",
"titleTip" : "再进化《音乐侠》主题舞场精彩抢先看",
"titleSummary" : "再进化《音乐侠》主题舞场精彩抢先看",
"descSummary" : "如今音乐舞蹈类网游的游戏模式日渐多样化，简单的跳舞娱乐到后...",
"url" : "http:\/\/go.rss.sina.com.cn\/redirect.php?url=http:\/\/games.sina.com.cn\/o\/n\/2013-10-29\/1549740502.shtml",
"pubDate" : "昨天15:49:18",
"enterDate" : "384186:51:54",
"channelId" : "-3924839554755310452",
"channelName" : "网络游戏新闻-新浪游戏",
"channelNameSummary" : "网络游戏新闻-新浪游...",
"channelUrl" : "http:\/\/games.sina.com.cn\/news\/wlyx\/index.shtml",
"author" : "WWW.SINA.COM.CN",
"tags" : [],
"desc" : "如今音乐舞蹈类网游的游戏模式日渐多样化，简单的跳舞娱乐到后来婚恋、舞团等社区互动平台为舞游注入新鲜血液。出众的游戏理念，新颖的游戏玩法无疑能够吸引更多的舞游玩家，《音乐侠》就是这样一款具有次世代舞蹈魅力的3D音乐社区网游。《音乐侠》首测期间，凭借独创的主题夜....",
"emailed" : False,
"forwarded" : False,
"english" : False
}  , {
"index" : 16,
"articleIndex" : "174829",
"favor" :  False ,
     "read" : False,    
"title" : "微利《二战OL》率先进入5C模式时代",
"titleTip" : "微利《二战OL》率先进入5C模式时代",
"titleSummary" : "微利《二战OL》率先进入5C模式时代",
"descSummary" : "对于玩家来说，玩网游更多的是一种消遣行为，但如果这种消遣变成...",
"url" : "http:\/\/go.rss.sina.com.cn\/redirect.php?url=http:\/\/games.sina.com.cn\/o\/n\/2013-10-29\/1546740500.shtml",
"pubDate" : "昨天15:46:10",
"enterDate" : "384186:48:46",
"channelId" : "-3924839554755310452",
"channelName" : "网络游戏新闻-新浪游戏",
"channelNameSummary" : "网络游戏新闻-新浪游...",
"channelUrl" : "http:\/\/games.sina.com.cn\/news\/wlyx\/index.shtml",
"author" : "WWW.SINA.COM.CN",
"tags" : [],
"desc" : "对于玩家来说，玩网游更多的是一种消遣行为，但如果这种消遣变成了奢侈，那么网游将偏离轨道，不再是玩家们娱乐的工具。然而，即将于11月8日开放内测的《二战OL》，首创5C模式，以\u201C网游真正微利\u201D出现在玩家面前。游戏更以\u201C人人穿金装，天天领社保\u201D的实际行动，为玩家打造....",
"emailed" : False,
"forwarded" : False,
"english" : False
}  , {
"index" : 17,
"articleIndex" : "174828",
"favor" :  False ,
     "read" : False,    
"title" : "谁敢跟中国动武《抗战》三大军事优势",
"titleTip" : "谁敢跟中国动武《抗战》三大军事优势",
"titleSummary" : "谁敢跟中国动武《抗战》三大军事优势",
"descSummary" : "日前，日本陆上自卫队举行年度阅兵仪式，日本首相安倍晋三在仪...",
"url" : "http:\/\/go.rss.sina.com.cn\/redirect.php?url=http:\/\/games.sina.com.cn\/o\/n\/2013-10-29\/1545740499.shtml",
"pubDate" : "昨天15:45:45",
"enterDate" : "384186:48:21",
"channelId" : "-3924839554755310452",
"channelName" : "网络游戏新闻-新浪游戏",
"channelNameSummary" : "网络游戏新闻-新浪游...",
"channelUrl" : "http:\/\/games.sina.com.cn\/news\/wlyx\/index.shtml",
"author" : "WWW.SINA.COM.CN",
"tags" : [],
"desc" : "日前，日本陆上自卫队举行年度阅兵仪式，日本首相安倍晋三在仪式上叫嚣要对抗中国，帝国主义的野心昭然若揭！中国第一抗日网游《抗战》率先已进入现代化抗日时代，摒弃昔日的\u201C小米加步枪\u201D，保留中华儿女的热血战魂，以海、陆、空三栖全方位的军事实力，向入侵的鬼子发起最猛....",
"emailed" : False,
"forwarded" : False,
"english" : False
}  , {
"index" : 18,
"articleIndex" : "174827",
"favor" :  False ,
     "read" : False,    
"title" : "PK极致《二战OL》细数经典PK大场面",
"titleTip" : "PK极致《二战OL》细数经典PK大场面",
"titleSummary" : "PK极致《二战OL》细数经典PK大场面",
"descSummary" : "超爽2D全球PK国战网游《二战OL》全面激发玩家战斗血性，11月...",
"url" : "http:\/\/go.rss.sina.com.cn\/redirect.php?url=http:\/\/games.sina.com.cn\/o\/n\/2013-10-29\/1545740498.shtml",
"pubDate" : "昨天15:45:21",
"enterDate" : "384186:47:57",
"channelId" : "-3924839554755310452",
"channelName" : "网络游戏新闻-新浪游戏",
"channelNameSummary" : "网络游戏新闻-新浪游...",
"channelUrl" : "http:\/\/games.sina.com.cn\/news\/wlyx\/index.shtml",
"author" : "WWW.SINA.COM.CN",
"tags" : [],
"desc" : "超爽2D全球PK国战网游《二战OL》全面激发玩家战斗血性，11月8日开放内测邀群雄亲自见证2D经典PK大场面！游戏以战斗为核心，追求极致PK的爽快打击感，带来全球国战、战役难度副本、轰炸日本地图、终极BOSS对决、跨国挑战等多层PVP战斗盛世，点燃你对极限战斗的无限渴望！ ....",
"emailed" : False,
"forwarded" : False,
"english" : False
}  , {
"index" : 19,
"articleIndex" : "174826",
"favor" :  False ,
     "read" : False,    
"title" : "深度剖析 九阴五郎八卦棍全方位解读",
"titleTip" : "深度剖析 九阴五郎八卦棍全方位解读",
"titleSummary" : "深度剖析 九阴五郎八卦棍全方位解读",
"descSummary" : "北宋中叶，杨家功业岿然，却被奸人窥视通敌所害。在金沙滩一战中...",
"url" : "http:\/\/go.rss.sina.com.cn\/redirect.php?url=http:\/\/games.sina.com.cn\/o\/n\/2013-10-29\/1542740496.shtml",
"pubDate" : "昨天15:42:54",
"enterDate" : "384186:45:30",
"channelId" : "-3924839554755310452",
"channelName" : "网络游戏新闻-新浪游戏",
"channelNameSummary" : "网络游戏新闻-新浪游...",
"channelUrl" : "http:\/\/games.sina.com.cn\/news\/wlyx\/index.shtml",
"author" : "WWW.SINA.COM.CN",
"tags" : [],
"desc" : "北宋中叶，杨家功业岿然，却被奸人窥视通敌所害。在金沙滩一战中，杨家将几乎全军覆灭，只得五郎、六郎自乱军中成功突围。后杨五郎负伤逃至荒野，转至清凉寺出家为僧，苦练成继承杨家枪法精髓的\u201C五郎八卦棍\u201D流传后世。近日，这套棍法在九阴江湖中横空出世，引来了无数侠客竞....",
"emailed" : False,
"forwarded" : False,
"english" : False
} ]
}
