{
"mode" : {"viewTitle" : 1,   "viewNew" : 0,  "pageIndex" : 2 },
 "channel" : {"id" : "-3924839554755310452", "booked" : False, "subNumber" : 275, "name" : "网络游戏新闻-新浪游戏", "url" : "http:\/\/games.sina.com.cn\/news\/wlyx\/index.shtml", "feed" : "http:\/\/rss.sina.com.cn\/games\/wlyx.xml", "author" : "WWW.SINA.COM.CN", "desc" : "新浪游戏之网络游戏新闻", "imageUrl" : "http:\/\/www.sinaimg.cn\/home\/images\/sina_logo2.gif", "postPerWeek" : "0", "lastCrawTime" : "17:19:30", "crawDateTime" : "06:17:05", "lastHttpCode" : "304"}, "page" : {
"startIndex" : 20,
"totalCount" : 5000,
"pageIndex" : 2,
"lastPage" : 250,
"pageSize" : 20,
"english" :  False },
 "unreadNum" : 0, "shotIndex" : -1,
"articles" : [
{
"index" : 0,
"articleIndex" : "174825",
"favor" :  False ,
     "read" : False,    
"title" : "全金属狂潮 EVE周年纪念卡实物曝光",
"titleTip" : "全金属狂潮 EVE周年纪念卡实物曝光",
"titleSummary" : "全金属狂潮 EVE周年纪念卡实物曝光",
"descSummary" : "全球最大星战网游EVE将于2013年11月2日在北京、天津、广州、杭...",
"url" : "http:\/\/go.rss.sina.com.cn\/redirect.php?url=http:\/\/games.sina.com.cn\/o\/n\/2013-10-29\/1540740494.shtml",
"pubDate" : "昨天15:40:09",
"enterDate" : "384186:42:45",
"channelId" : "-3924839554755310452",
"channelName" : "网络游戏新闻-新浪游戏",
"channelNameSummary" : "网络游戏新闻-新浪游...",
"channelUrl" : "http:\/\/games.sina.com.cn\/news\/wlyx\/index.shtml",
"author" : "WWW.SINA.COM.CN",
"tags" : [],
"desc" : "全球最大星战网游EVE将于2013年11月2日在北京、天津、广州、杭州、温州、成都六大城市同步举行EVE周年纪念卡套装首发会。其中，首发会暨玩家见面会将在成都隆重举行。 近日，我们就有幸拿到了一套包装精美的EVE周年纪念卡。从外观上来看，纪念卡制作精良。此次纪念卡材....",
"emailed" : False,
"forwarded" : False,
"english" : False
}  , {
"index" : 1,
"articleIndex" : "174824",
"favor" :  False ,
     "read" : False,    
"title" : "5C概念公布《二战OL》内测版五大革新",
"titleTip" : "5C概念公布《二战OL》内测版五大革新",
"titleSummary" : "5C概念公布《二战OL》内测版五大革新",
"descSummary" : "超爽2D全球PK国战网游《二战OL》定于11月8日开放内测，5C模...",
"url" : "http:\/\/go.rss.sina.com.cn\/redirect.php?url=http:\/\/games.sina.com.cn\/o\/n\/2013-10-29\/1538740493.shtml",
"pubDate" : "昨天15:38:32",
"enterDate" : "384186:41:08",
"channelId" : "-3924839554755310452",
"channelName" : "网络游戏新闻-新浪游戏",
"channelNameSummary" : "网络游戏新闻-新浪游...",
"channelUrl" : "http:\/\/games.sina.com.cn\/news\/wlyx\/index.shtml",
"author" : "WWW.SINA.COM.CN",
"tags" : [],
"desc" : "超爽2D全球PK国战网游《二战OL》定于11月8日开放内测，5C模式概念今日曝光！游戏打造非RMB玩家崛起革命，首创5C模式，人人穿金装，天天发社保。更有轰炸日本地图、史诗战役新副本、坦克国战、部队指挥官系统等革新内容上线，引爆经典国战网游的极限PK体验！ 5C模式国战....",
"emailed" : False,
"forwarded" : False,
"english" : False
}  , {
"index" : 2,
"articleIndex" : "174823",
"favor" :  False ,
     "read" : False,    
"title" : "颠覆以往EVE舍旧谋新打造全新工业舰",
"titleTip" : "颠覆以往EVE舍旧谋新打造全新工业舰",
"titleSummary" : "颠覆以往EVE舍旧谋新打造全新工业舰",
"descSummary" : "工业是经济社会发展的动力和引擎。工业对于我们的重要性体现在...",
"url" : "http:\/\/go.rss.sina.com.cn\/redirect.php?url=http:\/\/games.sina.com.cn\/o\/n\/2013-10-29\/1537740492.shtml",
"pubDate" : "昨天15:37:24",
"enterDate" : "384186:40:00",
"channelId" : "-3924839554755310452",
"channelName" : "网络游戏新闻-新浪游戏",
"channelNameSummary" : "网络游戏新闻-新浪游...",
"channelUrl" : "http:\/\/games.sina.com.cn\/news\/wlyx\/index.shtml",
"author" : "WWW.SINA.COM.CN",
"tags" : [],
"desc" : "工业是经济社会发展的动力和引擎。工业对于我们的重要性体现在我们出门用到的交通工具，吃饭用到的器皿，办公用品、生活用品等，任何一件物品的批量化生产都离不开工业的支持。在EVE中，工业一样非常重要。它在整个经济链条上有着不可替代的地位和作用。为了完成工业化的大规....",
"emailed" : False,
"forwarded" : False,
"english" : False
}  , {
"index" : 3,
"articleIndex" : "174822",
"favor" :  False ,
     "read" : False,    
"title" : "K1职业联赛第4赛季开启三强争霸时代",
"titleTip" : "K1职业联赛第4赛季开启三强争霸时代",
"titleSummary" : "K1职业联赛第4赛季开启三强争霸时代",
"descSummary" : "K1职业联赛第4赛季自9月22日于上海节能环保园正式开战以来，已...",
"url" : "http:\/\/go.rss.sina.com.cn\/redirect.php?url=http:\/\/games.sina.com.cn\/o\/n\/2013-10-29\/1535740489.shtml",
"pubDate" : "昨天15:35:18",
"enterDate" : "384186:37:54",
"channelId" : "-3924839554755310452",
"channelName" : "网络游戏新闻-新浪游戏",
"channelNameSummary" : "网络游戏新闻-新浪游...",
"channelUrl" : "http:\/\/games.sina.com.cn\/news\/wlyx\/index.shtml",
"author" : "WWW.SINA.COM.CN",
"tags" : [],
"desc" : "K1职业联赛第4赛季自9月22日于上海节能环保园正式开战以来，已经历经30多天的赛程。比赛项目《反恐精英Online》、《自由篮球》、《跑跑卡丁车》的18支参赛队伍，经过三轮循环赛后正式决出三强的名单，紧接着将进行最为严酷的三强争霸对决！争夺年度总决赛参赛荣耀！ 《....",
"emailed" : False,
"forwarded" : False,
"english" : False
}  , {
"index" : 4,
"articleIndex" : "174821",
"favor" :  False ,
     "read" : False,    
"title" : "《创想兵团》战队赛第一季鸣金收兵",
"titleTip" : "《创想兵团》战队赛第一季鸣金收兵",
"titleSummary" : "《创想兵团》战队赛第一季鸣金收兵",
"descSummary" : "10月27日，由淘米游戏旗下首款TPS第三人称射击Q萌网游巨作《创...",
"url" : "http:\/\/go.rss.sina.com.cn\/redirect.php?url=http:\/\/games.sina.com.cn\/o\/n\/2013-10-29\/1534740487.shtml",
"pubDate" : "昨天15:34:08",
"enterDate" : "384186:36:44",
"channelId" : "-3924839554755310452",
"channelName" : "网络游戏新闻-新浪游戏",
"channelNameSummary" : "网络游戏新闻-新浪游...",
"channelUrl" : "http:\/\/games.sina.com.cn\/news\/wlyx\/index.shtml",
"author" : "WWW.SINA.COM.CN",
"tags" : [],
"desc" : "10月27日，由淘米游戏旗下首款TPS第三人称射击Q萌网游巨作《创想兵团》所举办的战队赛第一季在硝烟弥漫的射击战场中鸣金收兵，正式吹响落幕的号角。最终，\"星光战队\"勇夺《创想兵团》战队赛第一季的冠军，\u201CTF\u201D战队和\u201CMarine.Wing\u201D战队分别荣获亚军和季军。 《创想....",
"emailed" : False,
"forwarded" : False,
"english" : False
}  , {
"index" : 5,
"articleIndex" : "174820",
"favor" :  False ,
     "read" : False,    
"title" : "《星际公民》筹款达$2500万 游戏尚未上市",
"titleTip" : "《星际公民》筹款达$2500万 游戏尚未上市",
"titleSummary" : "《星际公民》筹款达$2500万 游戏尚未上市",
"descSummary" : "【新浪游戏翻译专稿，转载请注明出处】 在国外热情的玩家的...",
"url" : "http:\/\/go.rss.sina.com.cn\/redirect.php?url=http:\/\/games.sina.com.cn\/o\/n\/2013-10-29\/1533740486.shtml",
"pubDate" : "昨天15:33:29",
"enterDate" : "384186:36:05",
"channelId" : "-3924839554755310452",
"channelName" : "网络游戏新闻-新浪游戏",
"channelNameSummary" : "网络游戏新闻-新浪游...",
"channelUrl" : "http:\/\/games.sina.com.cn\/news\/wlyx\/index.shtml",
"author" : "WWW.SINA.COM.CN",
"tags" : [],
"desc" : "【新浪游戏翻译专稿，转载请注明出处】 在国外热情的玩家的帮助下，《星际公民》(Star Citizen)在Kickstarter众筹平台上所获得的开发资金正式超越2500万美元，并且Cloud Imperium Games游戏公司未来将参与到帮助这款游戏拓展首次测试规模的工作中来。 星际公民游戏....",
"emailed" : False,
"forwarded" : False,
"english" : False
}  , {
"index" : 6,
"articleIndex" : "174819",
"favor" :  False ,
     "read" : False,    
"title" : "天冷不发愁 修魔好基友陪你烤火暖身",
"titleTip" : "天冷不发愁 修魔好基友陪你烤火暖身",
"titleSummary" : "天冷不发愁 修魔好基友陪你烤火暖身",
"descSummary" : "不知从何时起，兄弟基情成了永恒的主题，好基友之间的故事总能掀...",
"url" : "http:\/\/go.rss.sina.com.cn\/redirect.php?url=http:\/\/games.sina.com.cn\/o\/n\/2013-10-29\/1533740485.shtml",
"pubDate" : "昨天15:33:09",
"enterDate" : "384186:35:45",
"channelId" : "-3924839554755310452",
"channelName" : "网络游戏新闻-新浪游戏",
"channelNameSummary" : "网络游戏新闻-新浪游...",
"channelUrl" : "http:\/\/games.sina.com.cn\/news\/wlyx\/index.shtml",
"author" : "WWW.SINA.COM.CN",
"tags" : [],
"desc" : "不知从何时起，兄弟基情成了永恒的主题，好基友之间的故事总能掀起潮流，好兄弟的情谊也最暖人心脾。天气渐冷，2.5DMMORPG《修魔》中的好基友们，最好的温暖就是一起伴着家族篝火取暖；彼此鉴证对方的幸福，和兄弟一起游历这洪荒大地。 《修魔》攻城战现已开放，点击掠....",
"emailed" : False,
"forwarded" : False,
"english" : False
}  , {
"index" : 7,
"articleIndex" : "174818",
"favor" :  False ,
     "read" : False,    
"title" : "有胆你就来《颓废之心》万圣节狂欢",
"titleTip" : "有胆你就来《颓废之心》万圣节狂欢",
"titleSummary" : "有胆你就来《颓废之心》万圣节狂欢",
"descSummary" : "西方传统万圣节即将到来，为了迎接这个鬼马而欢快的年度盛宴，《...",
"url" : "http:\/\/go.rss.sina.com.cn\/redirect.php?url=http:\/\/games.sina.com.cn\/o\/n\/2013-10-29\/1532740484.shtml",
"pubDate" : "昨天15:32:33",
"enterDate" : "384186:35:09",
"channelId" : "-3924839554755310452",
"channelName" : "网络游戏新闻-新浪游戏",
"channelNameSummary" : "网络游戏新闻-新浪游...",
"channelUrl" : "http:\/\/games.sina.com.cn\/news\/wlyx\/index.shtml",
"author" : "WWW.SINA.COM.CN",
"tags" : [],
"desc" : "西方传统万圣节即将到来，为了迎接这个鬼马而欢快的年度盛宴，《颓废之心》不甘示弱，为玩家们准备了一场动魄惊心的大PARTY。从10月29日起，玩家通过打怪开启\u201C哈妮的恐怖宝箱\u201D，即可获取万圣节狂欢大礼，有恐怖服装、还有双倍经验值、万圣节称号、实用道具等奖励，与你一同....",
"emailed" : False,
"forwarded" : False,
"english" : False
}  , {
"index" : 8,
"articleIndex" : "174817",
"favor" :  False ,
     "read" : False,    
"title" : "新网游《神话大陆》升级攻略全解读",
"titleTip" : "新网游《神话大陆》升级攻略全解读",
"titleSummary" : "新网游《神话大陆》升级攻略全解读",
"descSummary" : "M-dps最3D战斗网游《神话大陆》最新版本已经开启，两大种族的...",
"url" : "http:\/\/go.rss.sina.com.cn\/redirect.php?url=http:\/\/games.sina.com.cn\/o\/n\/2013-10-29\/1531740483.shtml",
"pubDate" : "昨天15:31:10",
"enterDate" : "384186:33:46",
"channelId" : "-3924839554755310452",
"channelName" : "网络游戏新闻-新浪游戏",
"channelNameSummary" : "网络游戏新闻-新浪游...",
"channelUrl" : "http:\/\/games.sina.com.cn\/news\/wlyx\/index.shtml",
"author" : "WWW.SINA.COM.CN",
"tags" : [],
"desc" : "M-dps最3D战斗网游《神话大陆》最新版本已经开启，两大种族的战争已经爆发。想要更快加入战斗的玩家很多，但是升级却是一件痛苦的事情。So，为了各位玩家不在升级的路上痛快徘徊，今天就教大家如何在《神话大陆》里快速升级！ 场景画面 首先，需要清楚的知道《神话....",
"emailed" : False,
"forwarded" : False,
"english" : False
}  , {
"index" : 9,
"articleIndex" : "174816",
"favor" :  False ,
     "read" : False,    
"title" : "《新大话3》新房屋系统打造美好家园",
"titleTip" : "《新大话3》新房屋系统打造美好家园",
"titleSummary" : "《新大话3》新房屋系统打造美好家园",
"descSummary" : "作为中国最有爱的原创网游之一，《新大话西游3》在10月终极内测...",
"url" : "http:\/\/go.rss.sina.com.cn\/redirect.php?url=http:\/\/games.sina.com.cn\/o\/n\/2013-10-29\/1528740481.shtml",
"pubDate" : "昨天15:28:21",
"enterDate" : "384186:30:57",
"channelId" : "-3924839554755310452",
"channelName" : "网络游戏新闻-新浪游戏",
"channelNameSummary" : "网络游戏新闻-新浪游...",
"channelUrl" : "http:\/\/games.sina.com.cn\/news\/wlyx\/index.shtml",
"author" : "WWW.SINA.COM.CN",
"tags" : [],
"desc" : "作为中国最有爱的原创网游之一，《新大话西游3》在10月终极内测期间，推出了全新的家园系统，让玩家们可以在游戏里找到了一种\u201C家\u201D的感觉。 《新大话3》终极内测至尊礼包领取 终极内测七大全新内容 为了让各位玩家可以展开更深层次的互动，为让游戏社区的氛....",
"emailed" : False,
"forwarded" : False,
"english" : False
}  , {
"index" : 10,
"articleIndex" : "174815",
"favor" :  False ,
     "read" : False,    
"title" : "网游《洛神》3D答题变身搞怪小猪仔",
"titleTip" : "网游《洛神》3D答题变身搞怪小猪仔",
"titleSummary" : "网游《洛神》3D答题变身搞怪小猪仔",
"descSummary" : "俗话说：书中自有黄金屋，书中自有颜如玉。在《洛神》世界中，玩...",
"url" : "http:\/\/go.rss.sina.com.cn\/redirect.php?url=http:\/\/games.sina.com.cn\/o\/n\/2013-10-29\/1522740478.shtml",
"pubDate" : "昨天15:22:37",
"enterDate" : "384186:25:13",
"channelId" : "-3924839554755310452",
"channelName" : "网络游戏新闻-新浪游戏",
"channelNameSummary" : "网络游戏新闻-新浪游...",
"channelUrl" : "http:\/\/games.sina.com.cn\/news\/wlyx\/index.shtml",
"author" : "WWW.SINA.COM.CN",
"tags" : [],
"desc" : "俗话说：书中自有黄金屋，书中自有颜如玉。在《洛神》世界中，玩家每天都可以参与黄金屋和颜如玉答题活动，这不仅仅是体现玩家知识渊博的时候，更是玩家们获取经验和银子奖励的捷径。如果你自觉见闻不必旁人差，文采更是强于他人，就来参加《洛神》答题活动吧！ 黄金屋....",
"emailed" : False,
"forwarded" : False,
"english" : False
}  , {
"index" : 11,
"articleIndex" : "174814",
"favor" :  False ,
     "read" : False,    
"title" : "《刀剑英雄》斗神传全新五大必杀技曝光",
"titleTip" : "《刀剑英雄》斗神传全新五大必杀技曝光",
"titleSummary" : "《刀剑英雄》斗神传全新五大必杀技曝光",
"descSummary" : "《刀剑英雄》2013年度巨献\u201C斗神传\u201D推出五大职业全新必杀...",
"url" : "http:\/\/go.rss.sina.com.cn\/redirect.php?url=http:\/\/games.sina.com.cn\/o\/n\/2013-10-29\/1514740475.shtml",
"pubDate" : "昨天15:14:48",
"enterDate" : "384186:17:24",
"channelId" : "-3924839554755310452",
"channelName" : "网络游戏新闻-新浪游戏",
"channelNameSummary" : "网络游戏新闻-新浪游...",
"channelUrl" : "http:\/\/games.sina.com.cn\/news\/wlyx\/index.shtml",
"author" : "WWW.SINA.COM.CN",
"tags" : [],
"desc" : "《刀剑英雄》2013年度巨献\u201C斗神传\u201D推出五大职业全新必杀技，首次采用蓄力机制，横扫江湖，或将改写九州职业格局。",
"emailed" : False,
"forwarded" : False,
"english" : False
}  , {
"index" : 12,
"articleIndex" : "174813",
"favor" :  False ,
     "read" : False,    
"title" : "新婚玩家拍摄《梦幻西游2》版婚纱照",
"titleTip" : "新婚玩家拍摄《梦幻西游2》版婚纱照",
"titleSummary" : "新婚玩家拍摄《梦幻西游2》版婚纱照",
"descSummary" : "在游戏中相识、相知、相恋，最后携手走上红地毯并相伴一生，有缘...",
"url" : "http:\/\/go.rss.sina.com.cn\/redirect.php?url=http:\/\/games.sina.com.cn\/o\/n\/2013-10-29\/1512740474.shtml",
"pubDate" : "昨天15:12:26",
"enterDate" : "384186:15:02",
"channelId" : "-3924839554755310452",
"channelName" : "网络游戏新闻-新浪游戏",
"channelNameSummary" : "网络游戏新闻-新浪游...",
"channelUrl" : "http:\/\/games.sina.com.cn\/news\/wlyx\/index.shtml",
"author" : "WWW.SINA.COM.CN",
"tags" : [],
"desc" : "在游戏中相识、相知、相恋，最后携手走上红地毯并相伴一生，有缘千里来相会的幸福值得大家送上祝福。但今天的主角\u2015\u2015来自《梦幻西游2》的玩家\u201C喵喵\u201D和\u201C小蜜\u201D，却以一种特别的方式让世人见证了他们的甜蜜，那就是Cos游戏角色，拍摄《梦幻西游2》版本的特别婚纱照，更值得....",
"emailed" : False,
"forwarded" : False,
"english" : False
}  , {
"index" : 13,
"articleIndex" : "174812",
"favor" :  False ,
     "read" : False,    
"title" : "坐骑一个不丢《仙侠世界》坐骑收集盘点",
"titleTip" : "坐骑一个不丢《仙侠世界》坐骑收集盘点",
"titleSummary" : "坐骑一个不丢《仙侠世界》坐骑收集盘点",
"descSummary" : "唯美霸气的坐骑，不仅仅是代步工具，提升游戏效率，更是身份...",
"url" : "http:\/\/go.rss.sina.com.cn\/redirect.php?url=http:\/\/games.sina.com.cn\/o\/n\/2013-10-29\/1456740471.shtml",
"pubDate" : "昨天14:56:59",
"enterDate" : "384185:59:35",
"channelId" : "-3924839554755310452",
"channelName" : "网络游戏新闻-新浪游戏",
"channelNameSummary" : "网络游戏新闻-新浪游...",
"channelUrl" : "http:\/\/games.sina.com.cn\/news\/wlyx\/index.shtml",
"author" : "WWW.SINA.COM.CN",
"tags" : [],
"desc" : "唯美霸气的坐骑，不仅仅是代步工具，提升游戏效率，更是身份的象征，拥有一头拉风的坐骑，所到之处定会留下许多回头率。 在《仙侠世界》中，坐骑并不是只是高富帅的专利，普通玩家也可以拥有拉风坐骑，为什么这么说呢？本篇幅将为大家介绍下《仙侠世界》中几匹拉风坐骑....",
"emailed" : False,
"forwarded" : False,
"english" : False
}  , {
"index" : 14,
"articleIndex" : "174811",
"favor" :  False ,
     "read" : False,    
"title" : "《零世界》11月1日新服送盛大房产",
"titleTip" : "《零世界》11月1日新服送盛大房产",
"titleSummary" : "《零世界》11月1日新服送盛大房产",
"descSummary" : "导语：2013年11月1日，大旗下全球首款创世网游《零世界》将会新开...",
"url" : "http:\/\/go.rss.sina.com.cn\/redirect.php?url=http:\/\/games.sina.com.cn\/o\/n\/2013-10-29\/1452740468.shtml",
"pubDate" : "昨天14:52:14",
"enterDate" : "384185:54:50",
"channelId" : "-3924839554755310452",
"channelName" : "网络游戏新闻-新浪游戏",
"channelNameSummary" : "网络游戏新闻-新浪游...",
"channelUrl" : "http:\/\/games.sina.com.cn\/news\/wlyx\/index.shtml",
"author" : "WWW.SINA.COM.CN",
"tags" : [],
"desc" : "导语：2013年11月1日，大旗下全球首款创世网游《零世界》将会新开服务器的消息刚刚被披露，另一个喜讯也传出：《零世界》已与盛大的房地产项目\u2015\u2015青春里开展全面合作，通过官方鉴赏活动即有机会获得入住青春里高端豪装房的机会！这不仅为以网游为基础的跨界合作传播策略树立....",
"emailed" : False,
"forwarded" : False,
"english" : False
}  , {
"index" : 15,
"articleIndex" : "174810",
"favor" :  False ,
     "read" : False,    
"title" : "联想魔兽主题定制机望亮相暴雪嘉年华",
"titleTip" : "联想魔兽主题定制机望亮相暴雪嘉年华",
"titleSummary" : "联想魔兽主题定制机望亮相暴雪嘉年华",
"descSummary" : "\u201C只为兄弟狂\u201D联想Erazer魔兽世界8年记忆创造行动堪称今年月...",
"url" : "http:\/\/go.rss.sina.com.cn\/redirect.php?url=http:\/\/games.sina.com.cn\/o\/n\/2013-10-29\/1448740466.shtml",
"pubDate" : "昨天14:48:52",
"enterDate" : "384185:51:28",
"channelId" : "-3924839554755310452",
"channelName" : "网络游戏新闻-新浪游戏",
"channelNameSummary" : "网络游戏新闻-新浪游...",
"channelUrl" : "http:\/\/games.sina.com.cn\/news\/wlyx\/index.shtml",
"author" : "WWW.SINA.COM.CN",
"tags" : [],
"desc" : "\u201C只为兄弟狂\u201D联想Erazer魔兽世界8年记忆创造行动堪称今年月最受玩家瞩目的游戏主题活动，截止10月25日活动结束共收获了12832个兽世界主题机型创意作品，有302586名玩家参与投票，46512名玩家参与讨论。玩家票选出的前20名的设计作品已经在10月26日提交暴雪总部审核，最终量....",
"emailed" : False,
"forwarded" : False,
"english" : False
}  , {
"index" : 16,
"articleIndex" : "174809",
"favor" :  False ,
     "read" : False,    
"title" : "《吞噬苍穹》首测 自由飞行系统讲解",
"titleTip" : "《吞噬苍穹》首测 自由飞行系统讲解",
"titleSummary" : "《吞噬苍穹》首测 自由飞行系统讲解",
"descSummary" : "由灵石网络开发的3D次世代玄幻空战网游《吞噬苍穹》首测已经开...",
"url" : "http:\/\/go.rss.sina.com.cn\/redirect.php?url=http:\/\/games.sina.com.cn\/o\/n\/2013-10-29\/1448740465.shtml",
"pubDate" : "昨天14:48:42",
"enterDate" : "384185:51:18",
"channelId" : "-3924839554755310452",
"channelName" : "网络游戏新闻-新浪游戏",
"channelNameSummary" : "网络游戏新闻-新浪游...",
"channelUrl" : "http:\/\/games.sina.com.cn\/news\/wlyx\/index.shtml",
"author" : "WWW.SINA.COM.CN",
"tags" : [],
"desc" : "由灵石网络开发的3D次世代玄幻空战网游《吞噬苍穹》首测已经开启四天，玩家在游戏内渐入佳境，热情不减、精彩不断，享受着飞天入地带来的乐趣。自由飞行作为游戏的核心玩法已经被不断提及，随着首测的不断深入，玩家逐步体验到有别于传统飞行的魅力所在。 吞噬苍穹 ....",
"emailed" : False,
"forwarded" : False,
"english" : False
}  , {
"index" : 17,
"articleIndex" : "174808",
"favor" :  False ,
     "read" : False,    
"title" : "网易《武魂》将赠玩家范冰冰御用战袍",
"titleTip" : "网易《武魂》将赠玩家范冰冰御用战袍",
"titleSummary" : "网易《武魂》将赠玩家范冰冰御用战袍",
"descSummary" : "《武魂》国战正在火爆公测中，有的玩家在国战中当了英雄，成为...",
"url" : "http:\/\/go.rss.sina.com.cn\/redirect.php?url=http:\/\/games.sina.com.cn\/o\/n\/2013-10-29\/1448740463.shtml",
"pubDate" : "昨天14:48:04",
"enterDate" : "384185:50:40",
"channelId" : "-3924839554755310452",
"channelName" : "网络游戏新闻-新浪游戏",
"channelNameSummary" : "网络游戏新闻-新浪游...",
"channelUrl" : "http:\/\/games.sina.com.cn\/news\/wlyx\/index.shtml",
"author" : "WWW.SINA.COM.CN",
"tags" : [],
"desc" : "《武魂》国战正在火爆公测中，有的玩家在国战中当了英雄，成为了威风凛凛的国王；有的玩家则成了军师，指挥着大大小小的各场战役。正当国战激战正酣之时，《武魂》又为玩家在游戏之外开辟了第二战场，跟国际电影巨星进行范冰冰进行PK。而第二战场的奖励更是爆出了将赠送玩家范....",
"emailed" : False,
"forwarded" : False,
"english" : False
}  , {
"index" : 18,
"articleIndex" : "174807",
"favor" :  False ,
     "read" : False,    
"title" : "少女时代代言助阵《剑灵》今日不删档",
"titleTip" : "少女时代代言助阵《剑灵》今日不删档",
"titleSummary" : "少女时代代言助阵《剑灵》今日不删档",
"descSummary" : "今日，MMORPG第一人气期待大作《剑灵》正式开启青春不删档...",
"url" : "http:\/\/go.rss.sina.com.cn\/redirect.php?url=http:\/\/games.sina.com.cn\/o\/n\/2013-10-29\/1441740462.shtml",
"pubDate" : "昨天14:41:22",
"enterDate" : "384185:43:58",
"channelId" : "-3924839554755310452",
"channelName" : "网络游戏新闻-新浪游戏",
"channelNameSummary" : "网络游戏新闻-新浪游...",
"channelUrl" : "http:\/\/games.sina.com.cn\/news\/wlyx\/index.shtml",
"author" : "WWW.SINA.COM.CN",
"tags" : [],
"desc" : "今日，MMORPG第一人气期待大作《剑灵》正式开启青春不删档测试，除了万众瞩目的新版本内容震撼上线，官方更力邀韩国超人气天团少女时代倾情代言助阵，全新时代，突破想象，青春绽放，你我共启！ 《剑灵》作为本年度RPG收官之作，由韩国知名开放公司NCSoft历时5年、耗资....",
"emailed" : False,
"forwarded" : False,
"english" : False
}  , {
"index" : 19,
"articleIndex" : "174806",
"favor" :  False ,
     "read" : False,    
"title" : "《龙武》11月1日内测 预约享VIP特权",
"titleTip" : "《龙武》11月1日内测 预约享VIP特权",
"titleSummary" : "《龙武》11月1日内测 预约享VIP特权",
"descSummary" : "首款仙侠动作网游《龙武》11月1日14:00不删档内测，新服预约正...",
"url" : "http:\/\/go.rss.sina.com.cn\/redirect.php?url=http:\/\/games.sina.com.cn\/o\/n\/2013-10-29\/1427740453.shtml",
"pubDate" : "昨天14:27:18",
"enterDate" : "384185:29:54",
"channelId" : "-3924839554755310452",
"channelName" : "网络游戏新闻-新浪游戏",
"channelNameSummary" : "网络游戏新闻-新浪游...",
"channelUrl" : "http:\/\/games.sina.com.cn\/news\/wlyx\/index.shtml",
"author" : "WWW.SINA.COM.CN",
"tags" : [],
"desc" : "首款仙侠动作网游《龙武》11月1日14:00不删档内测，新服预约正式开启。在预约期间，所有参与新服角色预创建预约的玩家，都将享有大乐透网络彩票、预约VIP礼包等六重大奖。 追加八组预约服务器：【盖世无双】、【威震天下】【倚剑长歌】、【剑啸九天】 【龙战九....",
"emailed" : False,
"forwarded" : False,
"english" : False
} ]
}
