{
"mode" : {"viewTitle" : 1,   "viewNew" : 0,  "pageIndex" : 1 },
 "channel" : {"id" : "2209272243748226972", "booked" : False, "subNumber" : 1, "name" : "财经视频-新浪视频", "url" : "http:\/\/video.sina.com.cn\/finance\/", "feed" : "http:\/\/rss.sina.com.cn\/bn\/finance.xml", "author" : "WWW.SINA.COM.CN", "desc" : "财经视频列表", "imageUrl" : "http:\/\/i2.sinaimg.cn\/home\/deco\/2009\/0330\/con_logo_video.gif", "postPerWeek" : "0", "lastCrawTime" : "16:50:05", "crawDateTime" : "16:50:05", "lastHttpCode" : "200"}, "page" : {
"startIndex" : 0,
"totalCount" : 5000,
"pageIndex" : 1,
"lastPage" : 250,
"pageSize" : 20,
"english" :  False },
 "unreadNum" : 0, "shotIndex" : -1,
"articles" : [
{
"index" : 0,
"articleIndex" : "49393",
"favor" :  False ,
     "read" : False,    
"title" : "视频：黑马是怎样炼成的 老艾传授七大绝招",
"titleTip" : "视频：黑马是怎样炼成的 老艾传授七大绝招",
"titleSummary" : "视频：黑马是怎样炼成的 老艾传授七大绝招",
"descSummary" : "",
"url" : "http:\/\/go.rss.sina.com.cn\/redirect.php?url=http:\/\/video.sina.com.cn\/p\/finance\/stock\/jsy\/20131030\/130763083903.html",
"pubDate" : "13:07:49",
"enterDate" : "384198:07:35",
"channelId" : "2209272243748226972",
"channelName" : "财经视频-新浪视频",
"channelNameSummary" : "财经视频-新浪视频",
"channelUrl" : "http:\/\/video.sina.com.cn\/finance\/",
"author" : "WWW.SINA.COM.CN",
"tags" : [],
"desc" : "",
"emailed" : False,
"forwarded" : False,
"english" : False
}  , {
"index" : 1,
"articleIndex" : "49392",
"favor" :  False ,
     "read" : False,    
"title" : "视频：李开复为台湾创业开七条药方 透露将接受化疗",
"titleTip" : "视频：李开复为台湾创业开七条药方 透露将接受化疗",
"titleSummary" : "视频：李开复为台湾创业开七条药方 透露将接受化疗",
"descSummary" : "",
"url" : "http:\/\/go.rss.sina.com.cn\/redirect.php?url=http:\/\/video.sina.com.cn\/p\/finance\/20131030\/122063083093.html",
"pubDate" : "12:20:08",
"enterDate" : "384200:50:29",
"channelId" : "2209272243748226972",
"channelName" : "财经视频-新浪视频",
"channelNameSummary" : "财经视频-新浪视频",
"channelUrl" : "http:\/\/video.sina.com.cn\/finance\/",
"author" : "WWW.SINA.COM.CN",
"tags" : [],
"desc" : "",
"emailed" : False,
"forwarded" : False,
"english" : False
}  , {
"index" : 2,
"articleIndex" : "49390",
"favor" :  False ,
     "read" : False,    
"title" : "视频：湖南扶贫村盖千万大楼办公 七层楼里八个人",
"titleTip" : "视频：湖南扶贫村盖千万大楼办公 七层楼里八个人",
"titleSummary" : "视频：湖南扶贫村盖千万大楼办公 七层楼里八个人",
"descSummary" : "",
"url" : "http:\/\/go.rss.sina.com.cn\/redirect.php?url=http:\/\/video.sina.com.cn\/p\/finance\/20131029\/214263082465.html",
"pubDate" : "昨天21:42:41",
"enterDate" : "384189:13:32",
"channelId" : "2209272243748226972",
"channelName" : "财经视频-新浪视频",
"channelNameSummary" : "财经视频-新浪视频",
"channelUrl" : "http:\/\/video.sina.com.cn\/finance\/",
"author" : "WWW.SINA.COM.CN",
"tags" : [],
"desc" : "",
"emailed" : False,
"forwarded" : False,
"english" : False
}  , {
"index" : 3,
"articleIndex" : "49391",
"favor" :  False ,
     "read" : False,    
"title" : "视频：韩国刺激国民生育 老人看孩子政府发工资",
"titleTip" : "视频：韩国刺激国民生育 老人看孩子政府发工资",
"titleSummary" : "视频：韩国刺激国民生育 老人看孩子政府发工资",
"descSummary" : "",
"url" : "http:\/\/go.rss.sina.com.cn\/redirect.php?url=http:\/\/video.sina.com.cn\/p\/finance\/20131029\/214263082451.html",
"pubDate" : "昨天21:42:41",
"enterDate" : "384189:13:32",
"channelId" : "2209272243748226972",
"channelName" : "财经视频-新浪视频",
"channelNameSummary" : "财经视频-新浪视频",
"channelUrl" : "http:\/\/video.sina.com.cn\/finance\/",
"author" : "WWW.SINA.COM.CN",
"tags" : [],
"desc" : "",
"emailed" : False,
"forwarded" : False,
"english" : False
}  , {
"index" : 4,
"articleIndex" : "49387",
"favor" :  False ,
     "read" : False,    
"title" : "视频：广州租金攀升 城中村房源更抢手",
"titleTip" : "视频：广州租金攀升 城中村房源更抢手",
"titleSummary" : "视频：广州租金攀升 城中村房源更抢手",
"descSummary" : "",
"url" : "http:\/\/go.rss.sina.com.cn\/redirect.php?url=http:\/\/video.sina.com.cn\/p\/finance\/20131029\/214263082505.html",
"pubDate" : "昨天21:42:40",
"enterDate" : "384189:13:31",
"channelId" : "2209272243748226972",
"channelName" : "财经视频-新浪视频",
"channelNameSummary" : "财经视频-新浪视频",
"channelUrl" : "http:\/\/video.sina.com.cn\/finance\/",
"author" : "WWW.SINA.COM.CN",
"tags" : [],
"desc" : "",
"emailed" : False,
"forwarded" : False,
"english" : False
}  , {
"index" : 5,
"articleIndex" : "49388",
"favor" :  False ,
     "read" : False,    
"title" : "易容术调查：从电影到现实面具成帮凶",
"titleTip" : "易容术调查：从电影到现实面具成帮凶",
"titleSummary" : "易容术调查：从电影到现实面具成帮凶",
"descSummary" : "",
"url" : "http:\/\/go.rss.sina.com.cn\/redirect.php?url=http:\/\/video.sina.com.cn\/p\/finance\/20131029\/214263082493.html",
"pubDate" : "昨天21:42:40",
"enterDate" : "384189:13:31",
"channelId" : "2209272243748226972",
"channelName" : "财经视频-新浪视频",
"channelNameSummary" : "财经视频-新浪视频",
"channelUrl" : "http:\/\/video.sina.com.cn\/finance\/",
"author" : "WWW.SINA.COM.CN",
"tags" : [],
"desc" : "",
"emailed" : False,
"forwarded" : False,
"english" : False
}  , {
"index" : 6,
"articleIndex" : "49389",
"favor" :  False ,
     "read" : False,    
"title" : "视频：湖南扶贫村借款千万建大楼是违章",
"titleTip" : "视频：湖南扶贫村借款千万建大楼是违章",
"titleSummary" : "视频：湖南扶贫村借款千万建大楼是违章",
"descSummary" : "",
"url" : "http:\/\/go.rss.sina.com.cn\/redirect.php?url=http:\/\/video.sina.com.cn\/p\/finance\/20131029\/214263082475.html",
"pubDate" : "昨天21:42:40",
"enterDate" : "384189:13:31",
"channelId" : "2209272243748226972",
"channelName" : "财经视频-新浪视频",
"channelNameSummary" : "财经视频-新浪视频",
"channelUrl" : "http:\/\/video.sina.com.cn\/finance\/",
"author" : "WWW.SINA.COM.CN",
"tags" : [],
"desc" : "",
"emailed" : False,
"forwarded" : False,
"english" : False
}  , {
"index" : 7,
"articleIndex" : "49385",
"favor" :  False ,
     "read" : False,    
"title" : "视频：广州房租连涨4年 租客不得不蜗居",
"titleTip" : "视频：广州房租连涨4年 租客不得不蜗居",
"titleSummary" : "视频：广州房租连涨4年 租客不得不蜗居",
"descSummary" : "",
"url" : "http:\/\/go.rss.sina.com.cn\/redirect.php?url=http:\/\/video.sina.com.cn\/p\/finance\/20131029\/214263082521.html",
"pubDate" : "昨天21:42:39",
"enterDate" : "384189:13:30",
"channelId" : "2209272243748226972",
"channelName" : "财经视频-新浪视频",
"channelNameSummary" : "财经视频-新浪视频",
"channelUrl" : "http:\/\/video.sina.com.cn\/finance\/",
"author" : "WWW.SINA.COM.CN",
"tags" : [],
"desc" : "",
"emailed" : False,
"forwarded" : False,
"english" : False
}  , {
"index" : 8,
"articleIndex" : "49386",
"favor" :  False ,
     "read" : False,    
"title" : "视频：广州野生动物贩卖宰杀一条龙",
"titleTip" : "视频：广州野生动物贩卖宰杀一条龙",
"titleSummary" : "视频：广州野生动物贩卖宰杀一条龙",
"descSummary" : "",
"url" : "http:\/\/go.rss.sina.com.cn\/redirect.php?url=http:\/\/video.sina.com.cn\/p\/finance\/20131029\/214263082515.html",
"pubDate" : "昨天21:42:39",
"enterDate" : "384189:13:30",
"channelId" : "2209272243748226972",
"channelName" : "财经视频-新浪视频",
"channelNameSummary" : "财经视频-新浪视频",
"channelUrl" : "http:\/\/video.sina.com.cn\/finance\/",
"author" : "WWW.SINA.COM.CN",
"tags" : [],
"desc" : "",
"emailed" : False,
"forwarded" : False,
"english" : False
}  , {
"index" : 9,
"articleIndex" : "49384",
"favor" :  False ,
     "read" : False,    
"title" : "视频：梁稳根上《新闻联播》谈三一重工国际化",
"titleTip" : "视频：梁稳根上《新闻联播》谈三一重工国际化",
"titleSummary" : "视频：梁稳根上《新闻联播》谈三一重工国际化",
"descSummary" : "",
"url" : "http:\/\/go.rss.sina.com.cn\/redirect.php?url=http:\/\/video.sina.com.cn\/p\/finance\/20131029\/211963080479.html",
"pubDate" : "昨天21:19:52",
"enterDate" : "384200:52:43",
"channelId" : "2209272243748226972",
"channelName" : "财经视频-新浪视频",
"channelNameSummary" : "财经视频-新浪视频",
"channelUrl" : "http:\/\/video.sina.com.cn\/finance\/",
"author" : "WWW.SINA.COM.CN",
"tags" : [],
"desc" : "",
"emailed" : False,
"forwarded" : False,
"english" : False
}  , {
"index" : 10,
"articleIndex" : "49382",
"favor" :  False ,
     "read" : False,    
"title" : "视频：华谊兄弟大宗交易逾千万股 卖方为马云隐身席位",
"titleTip" : "视频：华谊兄弟大宗交易逾千万股 卖方为马云隐身席位",
"titleSummary" : "视频：华谊兄弟大宗交易逾千万股 卖方为马云隐身席位",
"descSummary" : "",
"url" : "http:\/\/go.rss.sina.com.cn\/redirect.php?url=http:\/\/video.sina.com.cn\/p\/finance\/20131029\/125763079109.html",
"pubDate" : "昨天12:57:19",
"enterDate" : "384199:01:15",
"channelId" : "2209272243748226972",
"channelName" : "财经视频-新浪视频",
"channelNameSummary" : "财经视频-新浪视频",
"channelUrl" : "http:\/\/video.sina.com.cn\/finance\/",
"author" : "WWW.SINA.COM.CN",
"tags" : [],
"desc" : "",
"emailed" : False,
"forwarded" : False,
"english" : False
}  , {
"index" : 11,
"articleIndex" : "49383",
"favor" :  False ,
     "read" : False,    
"title" : "视频：圆通申通筹建航空货运 快递业打响空战",
"titleTip" : "视频：圆通申通筹建航空货运 快递业打响空战",
"titleSummary" : "视频：圆通申通筹建航空货运 快递业打响空战",
"descSummary" : "",
"url" : "http:\/\/go.rss.sina.com.cn\/redirect.php?url=http:\/\/video.sina.com.cn\/p\/finance\/20131029\/125763079107.html",
"pubDate" : "昨天12:57:19",
"enterDate" : "384199:01:15",
"channelId" : "2209272243748226972",
"channelName" : "财经视频-新浪视频",
"channelNameSummary" : "财经视频-新浪视频",
"channelUrl" : "http:\/\/video.sina.com.cn\/finance\/",
"author" : "WWW.SINA.COM.CN",
"tags" : [],
"desc" : "",
"emailed" : False,
"forwarded" : False,
"english" : False
}  , {
"index" : 12,
"articleIndex" : "49380",
"favor" :  False ,
     "read" : False,    
"title" : "视频：苏宁弘毅4.2亿美元投资PPTV",
"titleTip" : "视频：苏宁弘毅4.2亿美元投资PPTV",
"titleSummary" : "视频：苏宁弘毅4.2亿美元投资PPTV",
"descSummary" : "",
"url" : "http:\/\/go.rss.sina.com.cn\/redirect.php?url=http:\/\/video.sina.com.cn\/p\/finance\/20131028\/212263077947.html",
"pubDate" : "前天21:22:14",
"enterDate" : "384188:26:59",
"channelId" : "2209272243748226972",
"channelName" : "财经视频-新浪视频",
"channelNameSummary" : "财经视频-新浪视频",
"channelUrl" : "http:\/\/video.sina.com.cn\/finance\/",
"author" : "WWW.SINA.COM.CN",
"tags" : [],
"desc" : "",
"emailed" : False,
"forwarded" : False,
"english" : False
}  , {
"index" : 13,
"articleIndex" : "49378",
"favor" :  False ,
     "read" : False,    
"title" : "视频：国内外棉价差距大 纺织企业放弃国产棉",
"titleTip" : "视频：国内外棉价差距大 纺织企业放弃国产棉",
"titleSummary" : "视频：国内外棉价差距大 纺织企业放弃国产棉",
"descSummary" : "",
"url" : "http:\/\/go.rss.sina.com.cn\/redirect.php?url=http:\/\/video.sina.com.cn\/p\/finance\/20131028\/211263077955.html",
"pubDate" : "前天21:12:15",
"enterDate" : "384188:17:00",
"channelId" : "2209272243748226972",
"channelName" : "财经视频-新浪视频",
"channelNameSummary" : "财经视频-新浪视频",
"channelUrl" : "http:\/\/video.sina.com.cn\/finance\/",
"author" : "WWW.SINA.COM.CN",
"tags" : [],
"desc" : "",
"emailed" : False,
"forwarded" : False,
"english" : False
}  , {
"index" : 14,
"articleIndex" : "49379",
"favor" :  False ,
     "read" : False,    
"title" : "视频：山东轧棉厂里晒玉米 扩产不成变停产",
"titleTip" : "视频：山东轧棉厂里晒玉米 扩产不成变停产",
"titleSummary" : "视频：山东轧棉厂里晒玉米 扩产不成变停产",
"descSummary" : "",
"url" : "http:\/\/go.rss.sina.com.cn\/redirect.php?url=http:\/\/video.sina.com.cn\/p\/finance\/20131028\/211263077951.html",
"pubDate" : "前天21:12:15",
"enterDate" : "384188:17:00",
"channelId" : "2209272243748226972",
"channelName" : "财经视频-新浪视频",
"channelNameSummary" : "财经视频-新浪视频",
"channelUrl" : "http:\/\/video.sina.com.cn\/finance\/",
"author" : "WWW.SINA.COM.CN",
"tags" : [],
"desc" : "",
"emailed" : False,
"forwarded" : False,
"english" : False
}  , {
"index" : 15,
"articleIndex" : "49381",
"favor" :  False ,
     "read" : False,    
"title" : "视频：深圳保障房资金缺口超370亿 政府缺钱致停工",
"titleTip" : "视频：深圳保障房资金缺口超370亿 政府缺钱致停工",
"titleSummary" : "视频：深圳保障房资金缺口超370亿 政府缺钱致停工",
"descSummary" : "",
"url" : "http:\/\/go.rss.sina.com.cn\/redirect.php?url=http:\/\/video.sina.com.cn\/p\/finance\/20131028\/124763079113.html",
"pubDate" : "前天12:47:13",
"enterDate" : "384174:51:09",
"channelId" : "2209272243748226972",
"channelName" : "财经视频-新浪视频",
"channelNameSummary" : "财经视频-新浪视频",
"channelUrl" : "http:\/\/video.sina.com.cn\/finance\/",
"author" : "WWW.SINA.COM.CN",
"tags" : [],
"desc" : "",
"emailed" : False,
"forwarded" : False,
"english" : False
}  , {
"index" : 16,
"articleIndex" : "49377",
"favor" :  False ,
     "read" : False,    
"title" : "视频：记者探访揭秘网传土豪大院",
"titleTip" : "视频：记者探访揭秘网传土豪大院",
"titleSummary" : "视频：记者探访揭秘网传土豪大院",
"descSummary" : "",
"url" : "http:\/\/go.rss.sina.com.cn\/redirect.php?url=http:\/\/video.sina.com.cn\/p\/finance\/20131027\/214663073689.html",
"pubDate" : "2013年10月27日 (3天前)",
"enterDate" : "384188:55:31",
"channelId" : "2209272243748226972",
"channelName" : "财经视频-新浪视频",
"channelNameSummary" : "财经视频-新浪视频",
"channelUrl" : "http:\/\/video.sina.com.cn\/finance\/",
"author" : "WWW.SINA.COM.CN",
"tags" : [],
"desc" : "",
"emailed" : False,
"forwarded" : False,
"english" : False
}  , {
"index" : 17,
"articleIndex" : "49376",
"favor" :  False ,
     "read" : False,    
"title" : "视频：土豪大院主人称非私人别墅 是农业高观光项目",
"titleTip" : "视频：土豪大院主人称非私人别墅 是农业高观光项目",
"titleSummary" : "视频：土豪大院主人称非私人别墅 是农业高观光项目",
"descSummary" : "",
"url" : "http:\/\/go.rss.sina.com.cn\/redirect.php?url=http:\/\/video.sina.com.cn\/p\/finance\/20131027\/214663073691.html",
"pubDate" : "2013年10月27日 (3天前)",
"enterDate" : "384188:55:27",
"channelId" : "2209272243748226972",
"channelName" : "财经视频-新浪视频",
"channelNameSummary" : "财经视频-新浪视频",
"channelUrl" : "http:\/\/video.sina.com.cn\/finance\/",
"author" : "WWW.SINA.COM.CN",
"tags" : [],
"desc" : "",
"emailed" : False,
"forwarded" : False,
"english" : False
}  , {
"index" : 18,
"articleIndex" : "49375",
"favor" :  False ,
     "read" : False,    
"title" : "视频：国务院明确表示将取消公司最低注册资本限制",
"titleTip" : "视频：国务院明确表示将取消公司最低注册资本限制",
"titleSummary" : "视频：国务院明确表示将取消公司最低注册资本限制",
"descSummary" : "",
"url" : "http:\/\/go.rss.sina.com.cn\/redirect.php?url=http:\/\/video.sina.com.cn\/p\/finance\/20131027\/213163073733.html",
"pubDate" : "2013年10月27日 (3天前)",
"enterDate" : "384188:40:33",
"channelId" : "2209272243748226972",
"channelName" : "财经视频-新浪视频",
"channelNameSummary" : "财经视频-新浪视频",
"channelUrl" : "http:\/\/video.sina.com.cn\/finance\/",
"author" : "WWW.SINA.COM.CN",
"tags" : [],
"desc" : "",
"emailed" : False,
"forwarded" : False,
"english" : False
}  , {
"index" : 19,
"articleIndex" : "49374",
"favor" :  False ,
     "read" : False,    
"title" : "视频：广州上百万买小产权房 属于违建面临被拆",
"titleTip" : "视频：广州上百万买小产权房 属于违建面临被拆",
"titleSummary" : "视频：广州上百万买小产权房 属于违建面临被拆",
"descSummary" : "",
"url" : "http:\/\/go.rss.sina.com.cn\/redirect.php?url=http:\/\/video.sina.com.cn\/p\/finance\/20131026\/211163073695.html",
"pubDate" : "2013年10月26日 (4天前)",
"enterDate" : "384164:19:59",
"channelId" : "2209272243748226972",
"channelName" : "财经视频-新浪视频",
"channelNameSummary" : "财经视频-新浪视频",
"channelUrl" : "http:\/\/video.sina.com.cn\/finance\/",
"author" : "WWW.SINA.COM.CN",
"tags" : [],
"desc" : "",
"emailed" : False,
"forwarded" : False,
"english" : False
} ]
}
