{
"mode" : {"viewTitle" : 1,   "viewNew" : 0,  "pageIndex" : 2 },
 "channel" : {"id" : "2209272243748226972", "booked" : False, "subNumber" : 1, "name" : "财经视频-新浪视频", "url" : "http:\/\/video.sina.com.cn\/finance\/", "feed" : "http:\/\/rss.sina.com.cn\/bn\/finance.xml", "author" : "WWW.SINA.COM.CN", "desc" : "财经视频列表", "imageUrl" : "http:\/\/i2.sinaimg.cn\/home\/deco\/2009\/0330\/con_logo_video.gif", "postPerWeek" : "0", "lastCrawTime" : "16:50:05", "crawDateTime" : "16:50:05", "lastHttpCode" : "200"}, "page" : {
"startIndex" : 20,
"totalCount" : 5000,
"pageIndex" : 2,
"lastPage" : 250,
"pageSize" : 20,
"english" :  False },
 "unreadNum" : 0, "shotIndex" : -1,
"articles" : [
{
"index" : 0,
"articleIndex" : "49368",
"favor" :  False ,
     "read" : False,    
"title" : "视频：大连苹果丰收无人买 滞销积压储藏难",
"titleTip" : "视频：大连苹果丰收无人买 滞销积压储藏难",
"titleSummary" : "视频：大连苹果丰收无人买 滞销积压储藏难",
"descSummary" : "",
"url" : "http:\/\/go.rss.sina.com.cn\/redirect.php?url=http:\/\/video.sina.com.cn\/p\/finance\/20131027\/214663073683.html",
"pubDate" : "2013年10月27日 (3天前)",
"enterDate" : "384189:25:36",
"channelId" : "2209272243748226972",
"channelName" : "财经视频-新浪视频",
"channelNameSummary" : "财经视频-新浪视频",
"channelUrl" : "http:\/\/video.sina.com.cn\/finance\/",
"author" : "WWW.SINA.COM.CN",
"tags" : [],
"desc" : "",
"emailed" : False,
"forwarded" : False,
"english" : False
}  , {
"index" : 1,
"articleIndex" : "49369",
"favor" :  False ,
     "read" : False,    
"title" : "视频：广州购房者门前抗议 开发商暴力驱赶",
"titleTip" : "视频：广州购房者门前抗议 开发商暴力驱赶",
"titleSummary" : "视频：广州购房者门前抗议 开发商暴力驱赶",
"descSummary" : "",
"url" : "http:\/\/go.rss.sina.com.cn\/redirect.php?url=http:\/\/video.sina.com.cn\/p\/finance\/20131027\/214663073679.html",
"pubDate" : "2013年10月27日 (3天前)",
"enterDate" : "384189:25:36",
"channelId" : "2209272243748226972",
"channelName" : "财经视频-新浪视频",
"channelNameSummary" : "财经视频-新浪视频",
"channelUrl" : "http:\/\/video.sina.com.cn\/finance\/",
"author" : "WWW.SINA.COM.CN",
"tags" : [],
"desc" : "",
"emailed" : False,
"forwarded" : False,
"english" : False
}  , {
"index" : 2,
"articleIndex" : "49373",
"favor" :  False ,
     "read" : False,    
"title" : "视频：广州18层违建楼房开拆 业主讨要房款",
"titleTip" : "视频：广州18层违建楼房开拆 业主讨要房款",
"titleSummary" : "视频：广州18层违建楼房开拆 业主讨要房款",
"descSummary" : "",
"url" : "http:\/\/go.rss.sina.com.cn\/redirect.php?url=http:\/\/video.sina.com.cn\/p\/finance\/20131026\/211163073699.html",
"pubDate" : "2013年10月26日 (4天前)",
"enterDate" : "384164:19:59",
"channelId" : "2209272243748226972",
"channelName" : "财经视频-新浪视频",
"channelNameSummary" : "财经视频-新浪视频",
"channelUrl" : "http:\/\/video.sina.com.cn\/finance\/",
"author" : "WWW.SINA.COM.CN",
"tags" : [],
"desc" : "",
"emailed" : False,
"forwarded" : False,
"english" : False
}  , {
"index" : 3,
"articleIndex" : "49372",
"favor" :  False ,
     "read" : False,    
"title" : "视频：自贸区抢注热度难消 中介生意红火",
"titleTip" : "视频：自贸区抢注热度难消 中介生意红火",
"titleSummary" : "视频：自贸区抢注热度难消 中介生意红火",
"descSummary" : "",
"url" : "http:\/\/go.rss.sina.com.cn\/redirect.php?url=http:\/\/video.sina.com.cn\/p\/finance\/20131026\/210163073751.html",
"pubDate" : "2013年10月26日 (4天前)",
"enterDate" : "384164:10:09",
"channelId" : "2209272243748226972",
"channelName" : "财经视频-新浪视频",
"channelNameSummary" : "财经视频-新浪视频",
"channelUrl" : "http:\/\/video.sina.com.cn\/finance\/",
"author" : "WWW.SINA.COM.CN",
"tags" : [],
"desc" : "",
"emailed" : False,
"forwarded" : False,
"english" : False
}  , {
"index" : 4,
"articleIndex" : "49371",
"favor" :  False ,
     "read" : False,    
"title" : "视频：上海自贸区注册企业排长龙 各地客商抢先机",
"titleTip" : "视频：上海自贸区注册企业排长龙 各地客商抢先机",
"titleSummary" : "视频：上海自贸区注册企业排长龙 各地客商抢先机",
"descSummary" : "",
"url" : "http:\/\/go.rss.sina.com.cn\/redirect.php?url=http:\/\/video.sina.com.cn\/p\/finance\/20131026\/210163073745.html",
"pubDate" : "2013年10月26日 (4天前)",
"enterDate" : "384164:10:08",
"channelId" : "2209272243748226972",
"channelName" : "财经视频-新浪视频",
"channelNameSummary" : "财经视频-新浪视频",
"channelUrl" : "http:\/\/video.sina.com.cn\/finance\/",
"author" : "WWW.SINA.COM.CN",
"tags" : [],
"desc" : "",
"emailed" : False,
"forwarded" : False,
"english" : False
}  , {
"index" : 5,
"articleIndex" : "49366",
"favor" :  False ,
     "read" : False,    
"title" : "新快报记者承认收钱发报道诋毁中联重科",
"titleTip" : "新快报记者承认收钱发报道诋毁中联重科",
"titleSummary" : "新快报记者承认收钱发报道诋毁中联重科",
"descSummary" : "",
"url" : "http:\/\/go.rss.sina.com.cn\/redirect.php?url=http:\/\/video.sina.com.cn\/p\/finance\/20131026\/095563066803.html",
"pubDate" : "2013年10月26日 (4天前)",
"enterDate" : "384201:12:28",
"channelId" : "2209272243748226972",
"channelName" : "财经视频-新浪视频",
"channelNameSummary" : "财经视频-新浪视频",
"channelUrl" : "http:\/\/video.sina.com.cn\/finance\/",
"author" : "WWW.SINA.COM.CN",
"tags" : [],
"desc" : "",
"emailed" : False,
"forwarded" : False,
"english" : False
}  , {
"index" : 6,
"articleIndex" : "49367",
"favor" :  False ,
     "read" : False,    
"title" : "一周美股：网秦遭空头猎杀或拖累中概股IPO",
"titleTip" : "一周美股：网秦遭空头猎杀或拖累中概股IPO",
"titleSummary" : "一周美股：网秦遭空头猎杀或拖累中概股IPO",
"descSummary" : "",
"url" : "http:\/\/go.rss.sina.com.cn\/redirect.php?url=http:\/\/video.sina.com.cn\/p\/finance\/stock\/usstock\/c\/20131026\/093563066877.html",
"pubDate" : "2013年10月26日 (4天前)",
"enterDate" : "384200:22:22",
"channelId" : "2209272243748226972",
"channelName" : "财经视频-新浪视频",
"channelNameSummary" : "财经视频-新浪视频",
"channelUrl" : "http:\/\/video.sina.com.cn\/finance\/",
"author" : "WWW.SINA.COM.CN",
"tags" : [],
"desc" : "",
"emailed" : False,
"forwarded" : False,
"english" : False
}  , {
"index" : 7,
"articleIndex" : "49370",
"favor" :  False ,
     "read" : False,    
"title" : "视频：湖南长沙电话召车遇黑车 被宰投诉无效",
"titleTip" : "视频：湖南长沙电话召车遇黑车 被宰投诉无效",
"titleSummary" : "视频：湖南长沙电话召车遇黑车 被宰投诉无效",
"descSummary" : "",
"url" : "http:\/\/go.rss.sina.com.cn\/redirect.php?url=http:\/\/video.sina.com.cn\/p\/finance\/20131025\/212063073707.html",
"pubDate" : "2013年10月25日 (5天前)",
"enterDate" : "384140:29:19",
"channelId" : "2209272243748226972",
"channelName" : "财经视频-新浪视频",
"channelNameSummary" : "财经视频-新浪视频",
"channelUrl" : "http:\/\/video.sina.com.cn\/finance\/",
"author" : "WWW.SINA.COM.CN",
"tags" : [],
"desc" : "",
"emailed" : False,
"forwarded" : False,
"english" : False
}  , {
"index" : 8,
"articleIndex" : "49365",
"favor" :  False ,
     "read" : False,    
"title" : "视频：杨林与中美政商界探讨企业赴美投资",
"titleTip" : "视频：杨林与中美政商界探讨企业赴美投资",
"titleSummary" : "视频：杨林与中美政商界探讨企业赴美投资",
"descSummary" : "",
"url" : "http:\/\/go.rss.sina.com.cn\/redirect.php?url=http:\/\/video.sina.com.cn\/p\/finance\/20131025\/114863063001.html",
"pubDate" : "2013年10月25日 (5天前)",
"enterDate" : "384200:39:08",
"channelId" : "2209272243748226972",
"channelName" : "财经视频-新浪视频",
"channelNameSummary" : "财经视频-新浪视频",
"channelUrl" : "http:\/\/video.sina.com.cn\/finance\/",
"author" : "WWW.SINA.COM.CN",
"tags" : [],
"desc" : "",
"emailed" : False,
"forwarded" : False,
"english" : False
}  , {
"index" : 9,
"articleIndex" : "49364",
"favor" :  False ,
     "read" : False,    
"title" : "视频：工信部4G牌照发放仍按原计划推进 年底公布",
"titleTip" : "视频：工信部4G牌照发放仍按原计划推进 年底公布",
"titleSummary" : "视频：工信部4G牌照发放仍按原计划推进 年底公布",
"descSummary" : "",
"url" : "http:\/\/go.rss.sina.com.cn\/redirect.php?url=http:\/\/video.sina.com.cn\/p\/finance\/20131025\/085063062517.html",
"pubDate" : "2013年10月25日 (5天前)",
"enterDate" : "384200:11:05",
"channelId" : "2209272243748226972",
"channelName" : "财经视频-新浪视频",
"channelNameSummary" : "财经视频-新浪视频",
"channelUrl" : "http:\/\/video.sina.com.cn\/finance\/",
"author" : "WWW.SINA.COM.CN",
"tags" : [],
"desc" : "",
"emailed" : False,
"forwarded" : False,
"english" : False
}  , {
"index" : 10,
"articleIndex" : "49363",
"favor" :  False ,
     "read" : False,    
"title" : "视频：工信部称新能源汽车准入方案已经完成",
"titleTip" : "视频：工信部称新能源汽车准入方案已经完成",
"titleSummary" : "视频：工信部称新能源汽车准入方案已经完成",
"descSummary" : "",
"url" : "http:\/\/go.rss.sina.com.cn\/redirect.php?url=http:\/\/video.sina.com.cn\/p\/finance\/20131025\/085063062521.html",
"pubDate" : "2013年10月25日 (5天前)",
"enterDate" : "384200:11:04",
"channelId" : "2209272243748226972",
"channelName" : "财经视频-新浪视频",
"channelNameSummary" : "财经视频-新浪视频",
"channelUrl" : "http:\/\/video.sina.com.cn\/finance\/",
"author" : "WWW.SINA.COM.CN",
"tags" : [],
"desc" : "",
"emailed" : False,
"forwarded" : False,
"english" : False
}  , {
"index" : 11,
"articleIndex" : "49361",
"favor" :  False ,
     "read" : False,    
"title" : "视频：煤炭三巨头同时涨价 动力煤市场冬季回暖",
"titleTip" : "视频：煤炭三巨头同时涨价 动力煤市场冬季回暖",
"titleSummary" : "视频：煤炭三巨头同时涨价 动力煤市场冬季回暖",
"descSummary" : "",
"url" : "http:\/\/go.rss.sina.com.cn\/redirect.php?url=http:\/\/video.sina.com.cn\/p\/finance\/20131025\/084563062539.html",
"pubDate" : "2013年10月25日 (5天前)",
"enterDate" : "384200:06:01",
"channelId" : "2209272243748226972",
"channelName" : "财经视频-新浪视频",
"channelNameSummary" : "财经视频-新浪视频",
"channelUrl" : "http:\/\/video.sina.com.cn\/finance\/",
"author" : "WWW.SINA.COM.CN",
"tags" : [],
"desc" : "",
"emailed" : False,
"forwarded" : False,
"english" : False
}  , {
"index" : 12,
"articleIndex" : "49362",
"favor" :  False ,
     "read" : False,    
"title" : "视频：乳粉企业兼并重组方案已上报国务院",
"titleTip" : "视频：乳粉企业兼并重组方案已上报国务院",
"titleSummary" : "视频：乳粉企业兼并重组方案已上报国务院",
"descSummary" : "",
"url" : "http:\/\/go.rss.sina.com.cn\/redirect.php?url=http:\/\/video.sina.com.cn\/p\/finance\/20131025\/084563062527.html",
"pubDate" : "2013年10月25日 (5天前)",
"enterDate" : "384200:06:01",
"channelId" : "2209272243748226972",
"channelName" : "财经视频-新浪视频",
"channelNameSummary" : "财经视频-新浪视频",
"channelUrl" : "http:\/\/video.sina.com.cn\/finance\/",
"author" : "WWW.SINA.COM.CN",
"tags" : [],
"desc" : "",
"emailed" : False,
"forwarded" : False,
"english" : False
}  , {
"index" : 13,
"articleIndex" : "49359",
"favor" :  False ,
     "read" : False,    
"title" : "视频：世界第一胖国墨西哥对含糖饮料收重税",
"titleTip" : "视频：世界第一胖国墨西哥对含糖饮料收重税",
"titleSummary" : "视频：世界第一胖国墨西哥对含糖饮料收重税",
"descSummary" : "",
"url" : "http:\/\/go.rss.sina.com.cn\/redirect.php?url=http:\/\/video.sina.com.cn\/p\/finance\/20131024\/212563062451.html",
"pubDate" : "2013年10月24日 (6天前)",
"enterDate" : "384188:46:00",
"channelId" : "2209272243748226972",
"channelName" : "财经视频-新浪视频",
"channelNameSummary" : "财经视频-新浪视频",
"channelUrl" : "http:\/\/video.sina.com.cn\/finance\/",
"author" : "WWW.SINA.COM.CN",
"tags" : [],
"desc" : "",
"emailed" : False,
"forwarded" : False,
"english" : False
}  , {
"index" : 14,
"articleIndex" : "49360",
"favor" :  False ,
     "read" : False,    
"title" : "视频：英国小王子受洗礼 王室经济再迎高峰",
"titleTip" : "视频：英国小王子受洗礼 王室经济再迎高峰",
"titleSummary" : "视频：英国小王子受洗礼 王室经济再迎高峰",
"descSummary" : "",
"url" : "http:\/\/go.rss.sina.com.cn\/redirect.php?url=http:\/\/video.sina.com.cn\/p\/finance\/20131024\/212563062439.html",
"pubDate" : "2013年10月24日 (6天前)",
"enterDate" : "384188:46:00",
"channelId" : "2209272243748226972",
"channelName" : "财经视频-新浪视频",
"channelNameSummary" : "财经视频-新浪视频",
"channelUrl" : "http:\/\/video.sina.com.cn\/finance\/",
"author" : "WWW.SINA.COM.CN",
"tags" : [],
"desc" : "",
"emailed" : False,
"forwarded" : False,
"english" : False
}  , {
"index" : 15,
"articleIndex" : "49358",
"favor" :  False ,
     "read" : False,    
"title" : "视频：秘鲁海豚成捕鲨诱饵 血腥视频惨不忍睹",
"titleTip" : "视频：秘鲁海豚成捕鲨诱饵 血腥视频惨不忍睹",
"titleSummary" : "视频：秘鲁海豚成捕鲨诱饵 血腥视频惨不忍睹",
"descSummary" : "",
"url" : "http:\/\/go.rss.sina.com.cn\/redirect.php?url=http:\/\/video.sina.com.cn\/p\/finance\/20131024\/212563062459.html",
"pubDate" : "2013年10月24日 (6天前)",
"enterDate" : "384188:45:59",
"channelId" : "2209272243748226972",
"channelName" : "财经视频-新浪视频",
"channelNameSummary" : "财经视频-新浪视频",
"channelUrl" : "http:\/\/video.sina.com.cn\/finance\/",
"author" : "WWW.SINA.COM.CN",
"tags" : [],
"desc" : "",
"emailed" : False,
"forwarded" : False,
"english" : False
}  , {
"index" : 16,
"articleIndex" : "49357",
"favor" :  False ,
     "read" : False,    
"title" : "视频：和田玉价格三十年涨了上千倍",
"titleTip" : "视频：和田玉价格三十年涨了上千倍",
"titleSummary" : "视频：和田玉价格三十年涨了上千倍",
"descSummary" : "",
"url" : "http:\/\/go.rss.sina.com.cn\/redirect.php?url=http:\/\/video.sina.com.cn\/p\/finance\/20131024\/211063062467.html",
"pubDate" : "2013年10月24日 (6天前)",
"enterDate" : "384188:30:58",
"channelId" : "2209272243748226972",
"channelName" : "财经视频-新浪视频",
"channelNameSummary" : "财经视频-新浪视频",
"channelUrl" : "http:\/\/video.sina.com.cn\/finance\/",
"author" : "WWW.SINA.COM.CN",
"tags" : [],
"desc" : "",
"emailed" : False,
"forwarded" : False,
"english" : False
}  , {
"index" : 17,
"articleIndex" : "49354",
"favor" :  False ,
     "read" : False,    
"title" : "视频：高仿玉镯流向全国 简单包装标价上万",
"titleTip" : "视频：高仿玉镯流向全国 简单包装标价上万",
"titleSummary" : "视频：高仿玉镯流向全国 简单包装标价上万",
"descSummary" : "",
"url" : "http:\/\/go.rss.sina.com.cn\/redirect.php?url=http:\/\/video.sina.com.cn\/p\/finance\/20131024\/211063062491.html",
"pubDate" : "2013年10月24日 (6天前)",
"enterDate" : "384188:30:57",
"channelId" : "2209272243748226972",
"channelName" : "财经视频-新浪视频",
"channelNameSummary" : "财经视频-新浪视频",
"channelUrl" : "http:\/\/video.sina.com.cn\/finance\/",
"author" : "WWW.SINA.COM.CN",
"tags" : [],
"desc" : "",
"emailed" : False,
"forwarded" : False,
"english" : False
}  , {
"index" : 18,
"articleIndex" : "49355",
"favor" :  False ,
     "read" : False,    
"title" : "视频：河南镇平高仿玉镯玻璃造 每只成本不过一块多",
"titleTip" : "视频：河南镇平高仿玉镯玻璃造 每只成本不过一块多",
"titleSummary" : "视频：河南镇平高仿玉镯玻璃造 每只成本不过一块多",
"descSummary" : "",
"url" : "http:\/\/go.rss.sina.com.cn\/redirect.php?url=http:\/\/video.sina.com.cn\/p\/finance\/20131024\/211063062485.html",
"pubDate" : "2013年10月24日 (6天前)",
"enterDate" : "384188:30:57",
"channelId" : "2209272243748226972",
"channelName" : "财经视频-新浪视频",
"channelNameSummary" : "财经视频-新浪视频",
"channelUrl" : "http:\/\/video.sina.com.cn\/finance\/",
"author" : "WWW.SINA.COM.CN",
"tags" : [],
"desc" : "",
"emailed" : False,
"forwarded" : False,
"english" : False
}  , {
"index" : 19,
"articleIndex" : "49356",
"favor" :  False ,
     "read" : False,    
"title" : "视频：赌石赢家三十万原石卖出千万天价",
"titleTip" : "视频：赌石赢家三十万原石卖出千万天价",
"titleSummary" : "视频：赌石赢家三十万原石卖出千万天价",
"descSummary" : "",
"url" : "http:\/\/go.rss.sina.com.cn\/redirect.php?url=http:\/\/video.sina.com.cn\/p\/finance\/20131024\/211063062473.html",
"pubDate" : "2013年10月24日 (6天前)",
"enterDate" : "384188:30:57",
"channelId" : "2209272243748226972",
"channelName" : "财经视频-新浪视频",
"channelNameSummary" : "财经视频-新浪视频",
"channelUrl" : "http:\/\/video.sina.com.cn\/finance\/",
"author" : "WWW.SINA.COM.CN",
"tags" : [],
"desc" : "",
"emailed" : False,
"forwarded" : False,
"english" : False
} ]
}
