{
"mode" : {"viewTitle" : 1,   "viewNew" : 0,  "pageIndex" : 1 },
 "channel" : {"id" : "6694851995229732782", "booked" : False, "subNumber" : 3492, "name" : "焦点新闻-新浪财经", "url" : "http:\/\/finance.sina.com.cn", "feed" : "http:\/\/rss.sina.com.cn\/news\/allnews\/finance.xml", "author" : "SINA.com", "desc" : "财经焦点新闻", "imageUrl" : "http:\/\/www.sinaimg.cn\/home\/deco\/2009\/0330\/logo_home.gif", "postPerWeek" : "568", "lastCrawTime" : "16:57:21", "crawDateTime" : "16:57:21", "lastHttpCode" : "200"}, "page" : {
"startIndex" : 0,
"totalCount" : 5000,
"pageIndex" : 1,
"lastPage" : 250,
"pageSize" : 20,
"english" :  False },
 "unreadNum" : 0, "shotIndex" : -1,
"articles" : [
{
"index" : 0,
"articleIndex" : "795638",
"favor" :  False ,
     "read" : False,    
"title" : "金证股份：金融IT业务具较强后劲",
"titleTip" : "金证股份：金融IT业务具较强后劲",
"titleSummary" : "金证股份：金融IT业务具较强后劲",
"descSummary" : "招商证券 刘雪峰 金证股份前三季度收入增速13%、净利润增速34%，符...",
"url" : "http:\/\/go.rss.sina.com.cn\/redirect.php?url=http:\/\/finance.sina.com.cn\/stock\/e\/20131030\/165417167660.shtml",
"pubDate" : "16:54:01",
"enterDate" : "384201:15:54",
"channelId" : "6694851995229732782",
"channelName" : "焦点新闻-新浪财经",
"channelNameSummary" : "焦点新闻-新浪财经",
"channelUrl" : "http:\/\/finance.sina.com.cn",
"author" : "SINA.com",
"tags" : [],
"desc" : "招商证券 刘雪峰 金证股份前三季度收入增速13%、净利润增速34%，符合我们预期。公司金融IT业务市场需求长期看好，重新战略聚焦金融IT领域后具有较强的后劲。此外，智能化业务进入收获期，商品销售业务贡献稳定的利润。预计2013、14年EPS分别为0.37、0.49元，维持\u201C审慎....",
"emailed" : False,
"forwarded" : False,
"english" : False
}  , {
"index" : 1,
"articleIndex" : "795637",
"favor" :  False ,
     "read" : False,    
"title" : "坦桑尼亚总理访问宏达集团 非洲两项目进展顺利",
"titleTip" : "坦桑尼亚总理访问宏达集团 非洲两项目进展顺利",
"titleSummary" : "坦桑尼亚总理访问宏达集团 非洲两项目进展顺利",
"descSummary" : "10月21日下午，来川出席第十四届中国西部国际博览会...",
"url" : "http:\/\/go.rss.sina.com.cn\/redirect.php?url=http:\/\/finance.sina.com.cn\/roll\/20131030\/165217167657.shtml",
"pubDate" : "16:52:08",
"enterDate" : "384201:14:01",
"channelId" : "6694851995229732782",
"channelName" : "焦点新闻-新浪财经",
"channelNameSummary" : "焦点新闻-新浪财经",
"channelUrl" : "http:\/\/finance.sina.com.cn",
"author" : "SINA.com",
"tags" : [],
"desc" : "10月21日下午，来川出席第十四届中国西部国际博览会的坦桑尼亚总理平达率政府代表团参观访问宏达集团。此前，21日中午、四川省委副书记、省长魏宏会见了平达总理一行。会见结束后，在中国驻坦桑尼亚大使吕友清，中国民间商会副会长、中非商会副会长、宏达集团董事局主席刘沧龙....",
"emailed" : False,
"forwarded" : False,
"english" : False
}  , {
"index" : 2,
"articleIndex" : "795636",
"favor" :  False ,
     "read" : False,    
"title" : "上海中期：不建议追涨关注期指2400点一线",
"titleTip" : "上海中期：不建议追涨关注期指2400点一线",
"titleSummary" : "上海中期：不建议追涨关注期指2400点一线",
"descSummary" : "今天股指强势震荡，主力合约一度上攻至2400点之上，尾盘...",
"url" : "http:\/\/go.rss.sina.com.cn\/redirect.php?url=http:\/\/finance.sina.com.cn\/money\/gzqh\/20131030\/165117167656.shtml",
"pubDate" : "16:51:52",
"enterDate" : "384201:13:45",
"channelId" : "6694851995229732782",
"channelName" : "焦点新闻-新浪财经",
"channelNameSummary" : "焦点新闻-新浪财经",
"channelUrl" : "http:\/\/finance.sina.com.cn",
"author" : "SINA.com",
"tags" : [],
"desc" : "今天股指强势震荡，主力合约一度上攻至2400点之上，尾盘小幅回落令其收在2400点下方。上证指数收于长阳，不过成交量仍然较为低迷。 今日期指盘面显示，市场持仓积极性不高，日内持仓峰值处于近期较低水平，反映出市场对于目前期指走势的不确定性较高。同时盘面显示，空....",
"emailed" : False,
"forwarded" : False,
"english" : False
}  , {
"index" : 3,
"articleIndex" : "795635",
"favor" :  False ,
     "read" : False,    
"title" : "兆驰股份：与中青宝合作 参与运营新模式",
"titleTip" : "兆驰股份：与中青宝合作 参与运营新模式",
"titleSummary" : "兆驰股份：与中青宝合作 参与运营新模式",
"descSummary" : "国信证券 王念春 事项： 10月24日晚，公司公告与中青宝签署...",
"url" : "http:\/\/go.rss.sina.com.cn\/redirect.php?url=http:\/\/finance.sina.com.cn\/stock\/e\/20131030\/164717167572.shtml",
"pubDate" : "16:47:24",
"enterDate" : "384201:09:17",
"channelId" : "6694851995229732782",
"channelName" : "焦点新闻-新浪财经",
"channelNameSummary" : "焦点新闻-新浪财经",
"channelUrl" : "http:\/\/finance.sina.com.cn",
"author" : "SINA.com",
"tags" : [],
"desc" : "国信证券 王念春 事项： 10月24日晚，公司公告与中青宝签署战略合作协议，公司智能终端产品中内置中青宝游戏应用并向公司智能终端用户提供游戏娱乐服务事项达成协议，游戏产品通过开发平台、应用商城、终端预装等其他公司所有渠道产生的收益在冲抵完公司的前期....",
"emailed" : False,
"forwarded" : False,
"english" : False
}  , {
"index" : 4,
"articleIndex" : "795634",
"favor" :  False ,
     "read" : False,    
"title" : "炼金术氏：晚间行情分析 重点关注凌晨两点",
"titleTip" : "炼金术氏：晚间行情分析 重点关注凌晨两点",
"titleSummary" : "炼金术氏：晚间行情分析 重点关注凌晨两点",
"descSummary" : "北京时间周四凌晨2：00，美联储将开始召开为期两天的议息...",
"url" : "http:\/\/go.rss.sina.com.cn\/redirect.php?url=http:\/\/finance.sina.com.cn\/money\/nmetal\/20131030\/164517167560.shtml",
"pubDate" : "16:45:51",
"enterDate" : "384201:07:44",
"channelId" : "6694851995229732782",
"channelName" : "焦点新闻-新浪财经",
"channelNameSummary" : "焦点新闻-新浪财经",
"channelUrl" : "http:\/\/finance.sina.com.cn",
"author" : "SINA.com",
"tags" : [],
"desc" : "北京时间周四凌晨2：00，美联储将开始召开为期两天的议息会议，此次利率决议将再度成为全球金融市场瞩目的焦点。虽然此次决议与9月利率决议仅仅相隔一个半月的时间，但市场对于缩减QE计划的预期早已天壤之别。因为美国政府在10月中上旬经历了17年来首度的停摆风波，所造成的负....",
"emailed" : False,
"forwarded" : False,
"english" : False
}  , {
"index" : 5,
"articleIndex" : "795633",
"favor" :  False ,
     "read" : False,    
"title" : "西班牙正式结束长达两年的经济衰退",
"titleTip" : "西班牙正式结束长达两年的经济衰退",
"titleSummary" : "西班牙正式结束长达两年的经济衰退",
"descSummary" : "新浪财经讯 北京时间10月30日下午消息，据路透社，在经济连续九...",
"url" : "http:\/\/go.rss.sina.com.cn\/redirect.php?url=http:\/\/finance.sina.com.cn\/stock\/usstock\/c\/20131030\/164417167551.shtml",
"pubDate" : "16:44:34",
"enterDate" : "384201:06:27",
"channelId" : "6694851995229732782",
"channelName" : "焦点新闻-新浪财经",
"channelNameSummary" : "焦点新闻-新浪财经",
"channelUrl" : "http:\/\/finance.sina.com.cn",
"author" : "SINA.com",
"tags" : [],
"desc" : "新浪财经讯 北京时间10月30日下午消息，据路透社，在经济连续九个季度萎缩后，西班牙今年第三季度实现增长，通胀在10月有所放缓，这为疲弱的国内需求有望转升打下基础。 西班牙统计局称，第三季度GDP环比增长0.1%，为2011年初以来首次增长，正式结束了长达两年的衰退。....",
"emailed" : False,
"forwarded" : False,
"english" : False
}  , {
"index" : 6,
"articleIndex" : "795632",
"favor" :  False ,
     "read" : False,    
"title" : "中证期货：大盘缩量拉升 期指恐仍有反复",
"titleTip" : "中证期货：大盘缩量拉升 期指恐仍有反复",
"titleSummary" : "中证期货：大盘缩量拉升 期指恐仍有反复",
"descSummary" : "现货市场：释放风格转换到大蓝筹，续演二八现象，但热点变化...",
"url" : "http:\/\/go.rss.sina.com.cn\/redirect.php?url=http:\/\/finance.sina.com.cn\/money\/gzqh\/20131030\/164417167541.shtml",
"pubDate" : "16:44:13",
"enterDate" : "384201:06:06",
"channelId" : "6694851995229732782",
"channelName" : "焦点新闻-新浪财经",
"channelNameSummary" : "焦点新闻-新浪财经",
"channelUrl" : "http:\/\/finance.sina.com.cn",
"author" : "SINA.com",
"tags" : [],
"desc" : "现货市场：释放风格转换到大蓝筹，续演二八现象，但热点变化太快，且量能不足，略微对反弹形成不利，预计年线短期或再度受阻 期货市场：股指期货连续减仓，且大幅贴水，显示多头信心仍不足，虽然存在企稳迹象，预计2400点上方短期或存在阻力 操作建议：回调尝试....",
"emailed" : False,
"forwarded" : False,
"english" : False
}  , {
"index" : 7,
"articleIndex" : "795631",
"favor" :  False ,
     "read" : False,    
"title" : "拓维信息：转型方向明确 手游渐成规模",
"titleTip" : "拓维信息：转型方向明确 手游渐成规模",
"titleSummary" : "拓维信息：转型方向明确 手游渐成规模",
"descSummary" : "光大证券 顾建国 周励谦 宋嘉吉 Q3业绩符合预期，全年净利润有...",
"url" : "http:\/\/go.rss.sina.com.cn\/redirect.php?url=http:\/\/finance.sina.com.cn\/stock\/e\/20131030\/164417167538.shtml",
"pubDate" : "16:44:12",
"enterDate" : "384201:06:05",
"channelId" : "6694851995229732782",
"channelName" : "焦点新闻-新浪财经",
"channelNameSummary" : "焦点新闻-新浪财经",
"channelUrl" : "http:\/\/finance.sina.com.cn",
"author" : "SINA.com",
"tags" : [],
"desc" : "光大证券 顾建国 周励谦 宋嘉吉 Q3业绩符合预期，全年净利润有望转正。 公司发布三季报，1-9月份实现收入3.5亿元，同比增长19.2%，完成归属于母公司净利润2864万元，同比下滑14%。折算Q3单季度实现收入为1.2亿元，同比增长19.2%，完成净利润981万元，同比略微下....",
"emailed" : False,
"forwarded" : False,
"english" : False
}  , {
"index" : 8,
"articleIndex" : "795630",
"favor" :  False ,
     "read" : False,    
"title" : "肖磊：中国非常需要要做空者",
"titleTip" : "肖磊：中国非常需要要做空者",
"titleSummary" : "肖磊：中国非常需要要做空者",
"descSummary" : "新浪财经专栏作家肖磊[微博] 资本市场市场是一个很容易走向极端的市场，...",
"url" : "http:\/\/go.rss.sina.com.cn\/redirect.php?url=http:\/\/finance.sina.com.cn\/zl\/nmetal\/20131030\/164417167534.shtml",
"pubDate" : "16:44:05",
"enterDate" : "384201:05:58",
"channelId" : "6694851995229732782",
"channelName" : "焦点新闻-新浪财经",
"channelNameSummary" : "焦点新闻-新浪财经",
"channelUrl" : "http:\/\/finance.sina.com.cn",
"author" : "SINA.com",
"tags" : [],
"desc" : "新浪财经专栏作家肖磊[微博] 资本市场市场是一个很容易走向极端的市场，因为其杠杆效应和工具效率空前之高。这是几千年来人类社会活动当中无法想象，也是从来没有过的。如果庞大的投资者群体不能或不愿意对市场形成充分的\u201C表达\u201D，就容易因规则和制度以及文化的东西左....",
"emailed" : False,
"forwarded" : False,
"english" : False
}  , {
"index" : 9,
"articleIndex" : "795629",
"favor" :  False ,
     "read" : False,    
"title" : "权重股还有反弹要求 短线将延续反弹",
"titleTip" : "权重股还有反弹要求 短线将延续反弹",
"titleSummary" : "权重股还有反弹要求 短线将延续反弹",
"descSummary" : "伟晴 周三股指震荡走高收出中阳，股指自1825点见底1849点反弹到...",
"url" : "http:\/\/go.rss.sina.com.cn\/redirect.php?url=http:\/\/finance.sina.com.cn\/stock\/jsy\/20131030\/164117167502.shtml",
"pubDate" : "16:41:27",
"enterDate" : "384201:03:20",
"channelId" : "6694851995229732782",
"channelName" : "焦点新闻-新浪财经",
"channelNameSummary" : "焦点新闻-新浪财经",
"channelUrl" : "http:\/\/finance.sina.com.cn",
"author" : "SINA.com",
"tags" : [],
"desc" : "伟晴 周三股指震荡走高收出中阳，股指自1825点见底1849点反弹到2270点没出现过一个象样的调整，这也为本次下跌埋下伏笔，而当股指回补完前期缺口在60日线企稳后，主力完成诱空后的反弹的力度就会很大，压的越深，反弹的空间就越大。笔者还是坚持本次调整只是一次洗盘行....",
"emailed" : False,
"forwarded" : False,
"english" : False
}  , {
"index" : 10,
"articleIndex" : "795628",
"favor" :  False ,
     "read" : False,    
"title" : "权重酝酿全面反击战 十大博客看后市",
"titleTip" : "权重酝酿全面反击战 十大博客看后市",
"titleSummary" : "权重酝酿全面反击战 十大博客看后市",
"descSummary" : "新浪财经讯 早盘沪指低开后震荡走高，石油、电力、有色、保险等...",
"url" : "http:\/\/go.rss.sina.com.cn\/redirect.php?url=http:\/\/finance.sina.com.cn\/stock\/y\/20131030\/164017167459.shtml",
"pubDate" : "16:40:28",
"enterDate" : "384201:02:21",
"channelId" : "6694851995229732782",
"channelName" : "焦点新闻-新浪财经",
"channelNameSummary" : "焦点新闻-新浪财经",
"channelUrl" : "http:\/\/finance.sina.com.cn",
"author" : "SINA.com",
"tags" : [],
"desc" : "新浪财经讯 早盘沪指低开后震荡走高，石油、电力、有色、保险等权重板块集体上攻，股指快速走高，个股普涨，石油电力板块强势大涨，连续调整的文化传媒板块也出现了止跌回升，股指收复60日均线后维持震荡走势，临近午间收盘，银行、券商等发力上攻，大盘直线拉升。午后大盘延....",
"emailed" : False,
"forwarded" : False,
"english" : False
}  , {
"index" : 11,
"articleIndex" : "795627",
"favor" :  False ,
     "read" : False,    
"title" : "盖茨的新邻居多是中国人 海外买楼偏爱豪宅",
"titleTip" : "盖茨的新邻居多是中国人 海外买楼偏爱豪宅",
"titleSummary" : "盖茨的新邻居多是中国人 海外买楼偏爱豪宅",
"descSummary" : "世界首富比尔・盖茨面湖而建的6000万美元豪宅，被誉为美...",
"url" : "http:\/\/go.rss.sina.com.cn\/redirect.php?url=http:\/\/finance.sina.com.cn\/money\/cfgs\/20131030\/163617167422.shtml",
"pubDate" : "16:36:49",
"enterDate" : "384200:58:42",
"channelId" : "6694851995229732782",
"channelName" : "焦点新闻-新浪财经",
"channelNameSummary" : "焦点新闻-新浪财经",
"channelUrl" : "http:\/\/finance.sina.com.cn",
"author" : "SINA.com",
"tags" : [],
"desc" : "世界首富比尔・盖茨面湖而建的6000万美元豪宅，被誉为美国除白宫外最受瞩目的名人官邸。而今，比尔・盖茨的新邻居中出现越来越多的中国人。受楼市调控的影响，海外置业一年多来轮番掀起高潮。和国内类似，中国人海外买楼同样偏爱豪宅和学区房。&#160; 500万美元做比尔....",
"emailed" : False,
"forwarded" : False,
"english" : False
}  , {
"index" : 12,
"articleIndex" : "795626",
"favor" :  False ,
     "read" : False,    
"title" : "赛诺菲三季度净利润大跌21% 中国业务受影响",
"titleTip" : "赛诺菲三季度净利润大跌21% 中国业务受影响",
"titleSummary" : "赛诺菲三季度净利润大跌21% 中国业务受影响",
"descSummary" : "新浪财经讯，北京时间10月30日下午消息 身处中国行贿调...",
"url" : "http:\/\/go.rss.sina.com.cn\/redirect.php?url=http:\/\/finance.sina.com.cn\/world\/ozjj\/20131030\/163517167421.shtml",
"pubDate" : "16:35:06",
"enterDate" : "384200:56:59",
"channelId" : "6694851995229732782",
"channelName" : "焦点新闻-新浪财经",
"channelNameSummary" : "焦点新闻-新浪财经",
"channelUrl" : "http:\/\/finance.sina.com.cn",
"author" : "SINA.com",
"tags" : [],
"desc" : "新浪财经讯，北京时间10月30日下午消息 身处中国行贿调查漩涡边缘的法国赛诺菲(Sanofi SA)公司周三发布三季度财报。中国市场增速放缓至5%，拖累三季度净利润大跌21%，公司还再次下调了全年盈利预测。 赛诺菲是排名在辉瑞、葛兰素史克之后的世界第三大药企巨头。公司现....",
"emailed" : False,
"forwarded" : False,
"english" : False
}  , {
"index" : 13,
"articleIndex" : "795625",
"favor" :  False ,
     "read" : False,    
"title" : "量能小幅萎缩 大资金净流入13亿",
"titleTip" : "量能小幅萎缩 大资金净流入13亿",
"titleSummary" : "量能小幅萎缩 大资金净流入13亿",
"descSummary" : "南京证券 两市共成交1949亿，大资金净流入13亿。流入前三：电力(国电...",
"url" : "http:\/\/go.rss.sina.com.cn\/redirect.php?url=http:\/\/finance.sina.com.cn\/stock\/jsy\/20131030\/163217167410.shtml",
"pubDate" : "16:32:10",
"enterDate" : "384200:54:03",
"channelId" : "6694851995229732782",
"channelName" : "焦点新闻-新浪财经",
"channelNameSummary" : "焦点新闻-新浪财经",
"channelUrl" : "http:\/\/finance.sina.com.cn",
"author" : "SINA.com",
"tags" : [],
"desc" : "南京证券 两市共成交1949亿，大资金净流入13亿。流入前三：电力(国电电力、国投电力等)；机械(中国南车、中国北车等)；工程建筑(海油工程、中国水电等)；流出前三：计算机(掌趣科技、鹏博士等)；电子信息(京东方A、向日葵等)；商业连锁(苏宁云商，开元投资等)。 ....",
"emailed" : False,
"forwarded" : False,
"english" : False
}  , {
"index" : 14,
"articleIndex" : "795624",
"favor" :  False ,
     "read" : False,    
"title" : "瑞康医药：募投和增发助推业绩快速增长",
"titleTip" : "瑞康医药：募投和增发助推业绩快速增长",
"titleSummary" : "瑞康医药：募投和增发助推业绩快速增长",
"descSummary" : "招商证券 李珊珊 杨烨辉 徐列海 张同 公司公布三季报：收入4...",
"url" : "http:\/\/go.rss.sina.com.cn\/redirect.php?url=http:\/\/finance.sina.com.cn\/stock\/usstock\/gsyj\/20131030\/162417167280.shtml",
"pubDate" : "16:24:41",
"enterDate" : "384201:16:37",
"channelId" : "6694851995229732782",
"channelName" : "焦点新闻-新浪财经",
"channelNameSummary" : "焦点新闻-新浪财经",
"channelUrl" : "http:\/\/finance.sina.com.cn",
"author" : "SINA.com",
"tags" : [],
"desc" : "招商证券 李珊珊 杨烨辉 徐列海 张同 公司公布三季报：收入44亿元，净利9965万元，同比分别增长30.09%、29.41%，EPS1.06元，符合预期。公司预计全年净利增25%~35%。公司高端市场保持稳定增长，基础及器械配送市场快速成长，未来增发有助于缓解公司资金压力，提升公司业....",
"emailed" : False,
"forwarded" : False,
"english" : False
}  , {
"index" : 15,
"articleIndex" : "795623",
"favor" :  False ,
     "read" : False,    
"title" : "乐视网：广告收入大增 终端产能不断释放",
"titleTip" : "乐视网：广告收入大增 终端产能不断释放",
"titleSummary" : "乐视网：广告收入大增 终端产能不断释放",
"descSummary" : "渤海证券 蒋昊乐 前三季度业绩业绩增长稳定。乐视网公布了2...",
"url" : "http:\/\/go.rss.sina.com.cn\/redirect.php?url=http:\/\/finance.sina.com.cn\/stock\/usstock\/gsyj\/20131030\/162117167256.shtml",
"pubDate" : "16:21:38",
"enterDate" : "384201:13:34",
"channelId" : "6694851995229732782",
"channelName" : "焦点新闻-新浪财经",
"channelNameSummary" : "焦点新闻-新浪财经",
"channelUrl" : "http:\/\/finance.sina.com.cn",
"author" : "SINA.com",
"tags" : [],
"desc" : "渤海证券 蒋昊乐 前三季度业绩业绩增长稳定。 乐视网公布了2013年三季报，2013年前三季度公司实现营收13.65亿元，同比增长65%，归属于上市公司股东的净利润1.84亿元，同比增长37%。 网站运营指标优异，广告收入持续大幅增长。 公司业绩同比大幅上....",
"emailed" : False,
"forwarded" : False,
"english" : False
}  , {
"index" : 16,
"articleIndex" : "795622",
"favor" :  False ,
     "read" : False,    
"title" : "股指深度回调后两因素决定后市",
"titleTip" : "股指深度回调后两因素决定后市",
"titleSummary" : "股指深度回调后两因素决定后市",
"descSummary" : "顶点财经 近期，在外围市场屡创反弹新高的情况下，A股市场继续展开...",
"url" : "http:\/\/go.rss.sina.com.cn\/redirect.php?url=http:\/\/finance.sina.com.cn\/stock\/jsy\/20131030\/161817167174.shtml",
"pubDate" : "16:18:04",
"enterDate" : "384201:10:00",
"channelId" : "6694851995229732782",
"channelName" : "焦点新闻-新浪财经",
"channelNameSummary" : "焦点新闻-新浪财经",
"channelUrl" : "http:\/\/finance.sina.com.cn",
"author" : "SINA.com",
"tags" : [],
"desc" : "顶点财经 近期，在外围市场屡创反弹新高的情况下，A股市场继续展开其特立独行的走势，截止本周二，近六个交易日连续收阴，为今年以来首次出现这种弱势情况。消息面上，近期国内还算比较平静，也无重大利空层面的消息出现，市场出现此轮下跌存在以及几个方面的原因。一....",
"emailed" : False,
"forwarded" : False,
"english" : False
}  , {
"index" : 17,
"articleIndex" : "795621",
"favor" :  False ,
     "read" : False,    
"title" : "等待美联储声明 欧洲股市高开",
"titleTip" : "等待美联储声明 欧洲股市高开",
"titleSummary" : "等待美联储声明 欧洲股市高开",
"descSummary" : "新浪财经讯 北京时间10月30日下午消息 欧洲股市周三高开，投资者在等待...",
"url" : "http:\/\/go.rss.sina.com.cn\/redirect.php?url=http:\/\/finance.sina.com.cn\/world\/20131030\/161317167170.shtml",
"pubDate" : "16:13:18",
"enterDate" : "384201:05:14",
"channelId" : "6694851995229732782",
"channelName" : "焦点新闻-新浪财经",
"channelNameSummary" : "焦点新闻-新浪财经",
"channelUrl" : "http:\/\/finance.sina.com.cn",
"author" : "SINA.com",
"tags" : [],
"desc" : "新浪财经讯 北京时间10月30日下午消息 欧洲股市周三高开，投资者在等待美国私营部门就业报告以及美联储货币政策会议声明。美国股指期货与亚太股市均有所上涨。 泛欧Stoxx 600指数上涨0.2%，报321.46点。泛欧Stoxx 600指数本月已上涨3.3%。英国金融时报100指数上涨0.3%....",
"emailed" : False,
"forwarded" : False,
"english" : False
}  , {
"index" : 18,
"articleIndex" : "795620",
"favor" :  False ,
     "read" : False,    
"title" : "天虹商场：新店培育侵净利 转型利好长远",
"titleTip" : "天虹商场：新店培育侵净利 转型利好长远",
"titleSummary" : "天虹商场：新店培育侵净利 转型利好长远",
"descSummary" : "广发证券 欧亚菲 毛利率持续提升，新店培育侵蚀净利。天虹商...",
"url" : "http:\/\/go.rss.sina.com.cn\/redirect.php?url=http:\/\/finance.sina.com.cn\/stock\/usstock\/gsyj\/20131030\/161217167168.shtml",
"pubDate" : "16:12:54",
"enterDate" : "384201:04:50",
"channelId" : "6694851995229732782",
"channelName" : "焦点新闻-新浪财经",
"channelNameSummary" : "焦点新闻-新浪财经",
"channelUrl" : "http:\/\/finance.sina.com.cn",
"author" : "SINA.com",
"tags" : [],
"desc" : "广发证券 欧亚菲 毛利率持续提升，新店培育侵蚀净利。 天虹商场2013年前三季度实现营收113.07亿，同比增长10.50%；3季度营收增长9.30%，较2季度13.51%有所放缓，符合预期。公司前三季度可比门店营收增长4.37%，华东、华中和东南增长较快。公司3季度在南昌新增一....",
"emailed" : False,
"forwarded" : False,
"english" : False
}  , {
"index" : 19,
"articleIndex" : "795619",
"favor" :  False ,
     "read" : False,    
"title" : "蓝筹题材共舞 超跌反弹进行时",
"titleTip" : "蓝筹题材共舞 超跌反弹进行时",
"titleSummary" : "蓝筹题材共舞 超跌反弹进行时",
"descSummary" : "李波 连续下跌之后，沪深两市今日终于迎来反弹，蓝筹板块领涨大盘，题...",
"url" : "http:\/\/go.rss.sina.com.cn\/redirect.php?url=http:\/\/finance.sina.com.cn\/stock\/jsy\/20131030\/161117167163.shtml",
"pubDate" : "16:11:23",
"enterDate" : "384201:03:19",
"channelId" : "6694851995229732782",
"channelName" : "焦点新闻-新浪财经",
"channelNameSummary" : "焦点新闻-新浪财经",
"channelUrl" : "http:\/\/finance.sina.com.cn",
"author" : "SINA.com",
"tags" : [],
"desc" : "李波 连续下跌之后，沪深两市今日终于迎来反弹，蓝筹板块领涨大盘，题材热点全面回暖。截至收盘，上证综指报2160.46点，上涨31.60点，涨幅为1.48%；深证成指上涨154.45点至8553.37点，涨幅为1.84%。创业板指数上涨0.92%。沪深两市分别成交952.34亿元和976.86亿元，量能....",
"emailed" : False,
"forwarded" : False,
"english" : False
} ]
}
