{
"mode" : {"viewTitle" : 1,   "viewNew" : 0,  "pageIndex" : 2 },
 "channel" : {"id" : "6694851995229732782", "booked" : False, "subNumber" : 3492, "name" : "焦点新闻-新浪财经", "url" : "http:\/\/finance.sina.com.cn", "feed" : "http:\/\/rss.sina.com.cn\/news\/allnews\/finance.xml", "author" : "SINA.com", "desc" : "财经焦点新闻", "imageUrl" : "http:\/\/www.sinaimg.cn\/home\/deco\/2009\/0330\/logo_home.gif", "postPerWeek" : "568", "lastCrawTime" : "16:57:21", "crawDateTime" : "16:57:21", "lastHttpCode" : "200"}, "page" : {
"startIndex" : 20,
"totalCount" : 5000,
"pageIndex" : 2,
"lastPage" : 250,
"pageSize" : 20,
"english" :  False },
 "unreadNum" : 0, "shotIndex" : -1,
"articles" : [
{
"index" : 0,
"articleIndex" : "795618",
"favor" :  False ,
     "read" : False,    
"title" : "期指结算日恒指放量大涨2% 中资油气强劲上涨",
"titleTip" : "期指结算日恒指放量大涨2% 中资油气强劲上涨",
"titleSummary" : "期指结算日恒指放量大涨2% 中资油气强劲上涨",
"descSummary" : "港股微博圈 港股官方微博 &gt;&gt;点此进入 点击体验新浪港股...",
"url" : "http:\/\/go.rss.sina.com.cn\/redirect.php?url=http:\/\/finance.sina.com.cn\/stock\/hkstock\/marketalerts\/20131030\/160817167096.shtml",
"pubDate" : "16:08:02",
"enterDate" : "384200:59:58",
"channelId" : "6694851995229732782",
"channelName" : "焦点新闻-新浪财经",
"channelNameSummary" : "焦点新闻-新浪财经",
"channelUrl" : "http:\/\/finance.sina.com.cn",
"author" : "SINA.com",
"tags" : [],
"desc" : "港股微博圈 港股官方微博 &gt;&gt;点此进入&#160;点击体验新浪港股新版实时行情 新浪财经讯 10月30日消息，港股今日期指结算，三中全会改革预期带动中港两地相关股劲升，恒指高开高走，临近收盘更是在油气及金融股拉升带动下大幅飙升。截至收盘，恒生指数报23304.02点....",
"emailed" : False,
"forwarded" : False,
"english" : False
}  , {
"index" : 1,
"articleIndex" : "795617",
"favor" :  False ,
     "read" : False,    
"title" : "大摩投资：改革预期推动权重走强",
"titleTip" : "大摩投资：改革预期推动权重走强",
"titleSummary" : "大摩投资：改革预期推动权重走强",
"descSummary" : "大摩投资 今日上证指数报2160.46点，涨31.60点，涨幅1.48%，成交...",
"url" : "http:\/\/go.rss.sina.com.cn\/redirect.php?url=http:\/\/finance.sina.com.cn\/stock\/jsy\/20131030\/160717167088.shtml",
"pubDate" : "16:07:39",
"enterDate" : "384200:59:35",
"channelId" : "6694851995229732782",
"channelName" : "焦点新闻-新浪财经",
"channelNameSummary" : "焦点新闻-新浪财经",
"channelUrl" : "http:\/\/finance.sina.com.cn",
"author" : "SINA.com",
"tags" : [],
"desc" : "大摩投资 今日上证指数报2160.46点，涨31.60点，涨幅1.48%，成交952.34亿元；深成指报8553.37点，涨154.44点，涨幅1.84%，成交996.74亿元。中小板指报收5000.92点，涨50.40点，涨幅1.02%；创业板指报收1273.29点，涨11.61点，涨幅0.92%。两市共有2050家个股上涨，276跌....",
"emailed" : False,
"forwarded" : False,
"english" : False
}  , {
"index" : 2,
"articleIndex" : "795616",
"favor" :  False ,
     "read" : False,    
"title" : "南方泵业：未来望保持持续较快发展",
"titleTip" : "南方泵业：未来望保持持续较快发展",
"titleSummary" : "南方泵业：未来望保持持续较快发展",
"descSummary" : "民生证券 刘利 一、事件概述： 公司于10月28日晚间发布13年三季...",
"url" : "http:\/\/go.rss.sina.com.cn\/redirect.php?url=http:\/\/finance.sina.com.cn\/stock\/usstock\/gsyj\/20131030\/160717167086.shtml",
"pubDate" : "16:07:22",
"enterDate" : "384200:59:18",
"channelId" : "6694851995229732782",
"channelName" : "焦点新闻-新浪财经",
"channelNameSummary" : "焦点新闻-新浪财经",
"channelUrl" : "http:\/\/finance.sina.com.cn",
"author" : "SINA.com",
"tags" : [],
"desc" : "民生证券 刘利 一、事件概述： 公司于10月28日晚间发布13年三季度报告：1-9月实现营业收入920.57百万元，同比增加25.43%；归属于上市公司股东的净利润108.61百万元，同比增加30.5%，处在业绩预告20%-35%的中值偏上位置，符合预期。公司主营业务发展稳健，营销网....",
"emailed" : False,
"forwarded" : False,
"english" : False
}  , {
"index" : 3,
"articleIndex" : "795615",
"favor" :  False ,
     "read" : False,    
"title" : "贝莱德芬克：美联储急需缩减QE",
"titleTip" : "贝莱德芬克：美联储急需缩减QE",
"titleSummary" : "贝莱德芬克：美联储急需缩减QE",
"descSummary" : "新浪财经讯 北京时间10月30日下午消息，据彭博社，贝莱德(BlackRoc...",
"url" : "http:\/\/go.rss.sina.com.cn\/redirect.php?url=http:\/\/finance.sina.com.cn\/stock\/usstock\/c\/20131030\/160517167083.shtml",
"pubDate" : "16:05:56",
"enterDate" : "384200:57:52",
"channelId" : "6694851995229732782",
"channelName" : "焦点新闻-新浪财经",
"channelNameSummary" : "焦点新闻-新浪财经",
"channelUrl" : "http:\/\/finance.sina.com.cn",
"author" : "SINA.com",
"tags" : [],
"desc" : "新浪财经讯 北京时间10月30日下午消息，据彭博社，贝莱德(BlackRock)CEO芬克周二称，美联储政策助长了\u201C泡沫般市场\u201D的形成，QE急需缩减。 芬克称：\u201C美联储急需开始缩减资产购买项目规模，我们看到股市大幅上涨，公司债息差显著收窄。\u201D 当芬克警告\u201C我们再次....",
"emailed" : False,
"forwarded" : False,
"english" : False
}  , {
"index" : 4,
"articleIndex" : "795614",
"favor" :  False ,
     "read" : False,    
"title" : "三全食品：短期业绩承压 看好长期发展",
"titleTip" : "三全食品：短期业绩承压 看好长期发展",
"titleSummary" : "三全食品：短期业绩承压 看好长期发展",
"descSummary" : "民生证券 王永锋 一、事件概述： 三全食品公布三季报，报告期内...",
"url" : "http:\/\/go.rss.sina.com.cn\/redirect.php?url=http:\/\/finance.sina.com.cn\/stock\/usstock\/gsyj\/20131030\/160317167030.shtml",
"pubDate" : "16:03:30",
"enterDate" : "384200:55:26",
"channelId" : "6694851995229732782",
"channelName" : "焦点新闻-新浪财经",
"channelNameSummary" : "焦点新闻-新浪财经",
"channelUrl" : "http:\/\/finance.sina.com.cn",
"author" : "SINA.com",
"tags" : [],
"desc" : "民生证券 王永锋 一、事件概述： 三全食品公布三季报，报告期内实现营业收入24.48亿元，同比增长26.54%，归属于上市公司股东的净利润1.01亿元，同比增长9.65%，每股收益0.25元。 二、分析与判断： 第三季度收入较快增长，净利润出现亏损。 ....",
"emailed" : False,
"forwarded" : False,
"english" : False
}  , {
"index" : 5,
"articleIndex" : "795613",
"favor" :  False ,
     "read" : False,    
"title" : "倍新咨询：震荡反弹行情短期仍将延续",
"titleTip" : "倍新咨询：震荡反弹行情短期仍将延续",
"titleSummary" : "倍新咨询：震荡反弹行情短期仍将延续",
"descSummary" : "倍新咨询 今天上午的盘面较为平淡，大盘一直处于小幅震荡行情...",
"url" : "http:\/\/go.rss.sina.com.cn\/redirect.php?url=http:\/\/finance.sina.com.cn\/stock\/jsy\/20131030\/155917166915.shtml",
"pubDate" : "15:59:07",
"enterDate" : "384200:51:03",
"channelId" : "6694851995229732782",
"channelName" : "焦点新闻-新浪财经",
"channelNameSummary" : "焦点新闻-新浪财经",
"channelUrl" : "http:\/\/finance.sina.com.cn",
"author" : "SINA.com",
"tags" : [],
"desc" : "倍新咨询 今天上午的盘面较为平淡，大盘一直处于小幅震荡行情中，上午以超跌股反弹为主，如手游股中浙报传媒和掌趣科技反弹力度较大，但其他手游股并没有跟上。油改和页岩气概念股则继续走强，全天都有不错的表现，在今日涨幅榜上排名居前。下午在电力、页岩气、铁路基....",
"emailed" : False,
"forwarded" : False,
"english" : False
}  , {
"index" : 6,
"articleIndex" : "795612",
"favor" :  False ,
     "read" : False,    
"title" : "别怕分不清鹰鸽 美联储通讯社教你解读今晚决议",
"titleTip" : "别怕分不清鹰鸽 美联储通讯社教你解读今晚决议",
"titleSummary" : "别怕分不清鹰鸽 美联储通讯社教你解读今晚决议",
"descSummary" : "汇通网10月30日讯--目前，距离美联储10月利率决议的发...",
"url" : "http:\/\/go.rss.sina.com.cn\/redirect.php?url=http:\/\/finance.sina.com.cn\/money\/forex\/20131030\/155617166906.shtml",
"pubDate" : "15:56:57",
"enterDate" : "384200:48:53",
"channelId" : "6694851995229732782",
"channelName" : "焦点新闻-新浪财经",
"channelNameSummary" : "焦点新闻-新浪财经",
"channelUrl" : "http:\/\/finance.sina.com.cn",
"author" : "SINA.com",
"tags" : [],
"desc" : "汇通网10月30日讯\u2015\u2015目前，距离美联储10月利率决议的发布，已仅剩下几个小时的时间。而相信不少投资者目前依然不太清楚，届时将如何把握美联储声明对经济描述用词的变化。不过有\u201C美联储通讯社\u201D之称的华尔街日报专栏作家Jon&#160;Hilsenrath也许可以帮你解惑，他目前罗列了....",
"emailed" : False,
"forwarded" : False,
"english" : False
}  , {
"index" : 7,
"articleIndex" : "795611",
"favor" :  False ,
     "read" : False,    
"title" : "宁波海顺：沪指如期反弹 量能稍显不足",
"titleTip" : "宁波海顺：沪指如期反弹 量能稍显不足",
"titleSummary" : "宁波海顺：沪指如期反弹 量能稍显不足",
"descSummary" : "宁波海顺 朱佳民 经历了周二宽幅震荡，沪指周三早盘以2126.69...",
"url" : "http:\/\/go.rss.sina.com.cn\/redirect.php?url=http:\/\/finance.sina.com.cn\/stock\/jsy\/20131030\/155417166901.shtml",
"pubDate" : "15:54:51",
"enterDate" : "384201:16:54",
"channelId" : "6694851995229732782",
"channelName" : "焦点新闻-新浪财经",
"channelNameSummary" : "焦点新闻-新浪财经",
"channelUrl" : "http:\/\/finance.sina.com.cn",
"author" : "SINA.com",
"tags" : [],
"desc" : "宁波海顺 朱佳民 经历了周二宽幅震荡，沪指周三早盘以2126.69点低开2.17点，开盘后前半小时沪指在低开探底2121.84点后开始翻红走强，午后汽车、家电、房地产的活跃带领股指一路向上收复领地，收盘沪指报2161.79点，上涨32.93点，涨幅1.55%，成交952.34亿元；深成指开盘....",
"emailed" : False,
"forwarded" : False,
"english" : False
}  , {
"index" : 8,
"articleIndex" : "795610",
"favor" :  False ,
     "read" : False,    
"title" : "嘉盛集团：RBNZ会议预期",
"titleTip" : "嘉盛集团：RBNZ会议预期",
"titleSummary" : "嘉盛集团：RBNZ会议预期",
"descSummary" : "新西兰储备银行(RBNZ)政策会议将于明天召开，料2.5%利率保持不变。所有目...",
"url" : "http:\/\/go.rss.sina.com.cn\/redirect.php?url=http:\/\/finance.sina.com.cn\/money\/forex\/20131030\/155317166893.shtml",
"pubDate" : "15:53:55",
"enterDate" : "384201:15:58",
"channelId" : "6694851995229732782",
"channelName" : "焦点新闻-新浪财经",
"channelNameSummary" : "焦点新闻-新浪财经",
"channelUrl" : "http:\/\/finance.sina.com.cn",
"author" : "SINA.com",
"tags" : [],
"desc" : "新西兰储备银行(RBNZ)政策会议将于明天召开，料2.5%利率保持不变。所有目光将聚焦于同时发布的利率决议，也就是众所周知的货币政策声明(MPS)。市场将通过声明了解RBNZ董事会想法并就此作出相应反应。投资者认为RBNZ会成为发达国家中第一个着手政策收紧的央行，但他们想知道联....",
"emailed" : False,
"forwarded" : False,
"english" : False
}  , {
"index" : 9,
"articleIndex" : "795609",
"favor" :  False ,
     "read" : False,    
"title" : "NordFX：欧元弱势震荡回落 美日多头上行有限",
"titleTip" : "NordFX：欧元弱势震荡回落 美日多头上行有限",
"titleSummary" : "NordFX：欧元弱势震荡回落 美日多头上行有限",
"descSummary" : "亚市盘中，欧元兑美元回落调整，目前弱势整理，日内下方...",
"url" : "http:\/\/go.rss.sina.com.cn\/redirect.php?url=http:\/\/finance.sina.com.cn\/money\/forex\/20131030\/155217166891.shtml",
"pubDate" : "15:52:13",
"enterDate" : "384201:14:16",
"channelId" : "6694851995229732782",
"channelName" : "焦点新闻-新浪财经",
"channelNameSummary" : "焦点新闻-新浪财经",
"channelUrl" : "http:\/\/finance.sina.com.cn",
"author" : "SINA.com",
"tags" : [],
"desc" : "亚市盘中，欧元兑美元回落调整，目前弱势整理，日内下方1.3711支撑值得关注；&#160;英镑兑美元走势疲软，不过1.60关口或引发反弹修正；而美元兑日元重回98，短期震荡格局未改，多头上行恐有限。 欧元兑美元未能在1.38上方扩大涨势暗示短期多头有所失去对市场的控制。很....",
"emailed" : False,
"forwarded" : False,
"english" : False
}  , {
"index" : 10,
"articleIndex" : "795608",
"favor" :  False ,
     "read" : False,    
"title" : "震荡冲高 大蓝筹吹响反攻冲锋号",
"titleTip" : "震荡冲高 大蓝筹吹响反攻冲锋号",
"titleSummary" : "震荡冲高 大蓝筹吹响反攻冲锋号",
"descSummary" : "华讯投资 周三，三中全会召开时间的确定给了市场一剂强心针，沪指是...",
"url" : "http:\/\/go.rss.sina.com.cn\/redirect.php?url=http:\/\/finance.sina.com.cn\/stock\/jsy\/20131030\/155117166890.shtml",
"pubDate" : "15:51:57",
"enterDate" : "384201:14:00",
"channelId" : "6694851995229732782",
"channelName" : "焦点新闻-新浪财经",
"channelNameSummary" : "焦点新闻-新浪财经",
"channelUrl" : "http:\/\/finance.sina.com.cn",
"author" : "SINA.com",
"tags" : [],
"desc" : "华讯投资 周三，三中全会召开时间的确定给了市场一剂强心针，沪指是终结六连阴，大涨逾1%，突破2150点整数关口。深成指收复8500点，大涨近2%。创业板缩量企稳1250点附近，60日均线支撑力度有待进一步观察。近日创业板出现明显的高位震荡，短期注意风险控制。板块来....",
"emailed" : False,
"forwarded" : False,
"english" : False
}  , {
"index" : 11,
"articleIndex" : "795607",
"favor" :  False ,
     "read" : False,    
"title" : "美联储决议前市场谨慎 风险货币整体承压",
"titleTip" : "美联储决议前市场谨慎 风险货币整体承压",
"titleSummary" : "美联储决议前市场谨慎 风险货币整体承压",
"descSummary" : "汇通网10月30日讯--周三(10月30日)亚市盘中，美元指数窄幅整...",
"url" : "http:\/\/go.rss.sina.com.cn\/redirect.php?url=http:\/\/finance.sina.com.cn\/money\/forex\/20131030\/155117166878.shtml",
"pubDate" : "15:51:26",
"enterDate" : "384201:13:29",
"channelId" : "6694851995229732782",
"channelName" : "焦点新闻-新浪财经",
"channelNameSummary" : "焦点新闻-新浪财经",
"channelUrl" : "http:\/\/finance.sina.com.cn",
"author" : "SINA.com",
"tags" : [],
"desc" : "汇通网10月30日讯\u2015\u2015周三(10月30日)亚市盘中，美元指数窄幅整理，现交投于79.65附近。由于晚间美联储将公布10月利率决议，因此目前投资者普遍交投谨慎。风险货币时段内整体承压，未能一雪隔夜大跌之耻。 时段内基本面重要消息有限，日本经济产业省今日公布的9月工业产....",
"emailed" : False,
"forwarded" : False,
"english" : False
}  , {
"index" : 12,
"articleIndex" : "795606",
"favor" :  False ,
     "read" : False,    
"title" : "NBF：今日金融市场焦点 美联储政策声明",
"titleTip" : "NBF：今日金融市场焦点 美联储政策声明",
"titleSummary" : "NBF：今日金融市场焦点 美联储政策声明",
"descSummary" : "内容： 今晚，美联储利率决议将成为全球金融市场的焦点。尽...",
"url" : "http:\/\/go.rss.sina.com.cn\/redirect.php?url=http:\/\/finance.sina.com.cn\/money\/forex\/20131030\/155017166859.shtml",
"pubDate" : "15:50:35",
"enterDate" : "384201:12:38",
"channelId" : "6694851995229732782",
"channelName" : "焦点新闻-新浪财经",
"channelNameSummary" : "焦点新闻-新浪财经",
"channelUrl" : "http:\/\/finance.sina.com.cn",
"author" : "SINA.com",
"tags" : [],
"desc" : "内容： 今晚，美联储利率决议将成为全球金融市场的焦点。尽管与9月利率决议仅相差一个半月的时间，但市场广泛预期美联储将继续暂缓缩减QE，这主要是因为近日美国各项数据表现乏力，美国9月非农就业数据远逊于预期。诸多经济学家预期美联储将维持每月850亿美元债券购买....",
"emailed" : False,
"forwarded" : False,
"english" : False
}  , {
"index" : 13,
"articleIndex" : "795605",
"favor" :  False ,
     "read" : False,    
"title" : "BFS-牛汇：美联储宽松政策降低失业率",
"titleTip" : "BFS-牛汇：美联储宽松政策降低失业率",
"titleSummary" : "BFS-牛汇：美联储宽松政策降低失业率",
"descSummary" : "从目前市场的预期看，绝大多数的机构都斩钉截铁地表示，美联储...",
"url" : "http:\/\/go.rss.sina.com.cn\/redirect.php?url=http:\/\/finance.sina.com.cn\/money\/forex\/20131030\/155017166821.shtml",
"pubDate" : "15:50:05",
"enterDate" : "384201:12:08",
"channelId" : "6694851995229732782",
"channelName" : "焦点新闻-新浪财经",
"channelNameSummary" : "焦点新闻-新浪财经",
"channelUrl" : "http:\/\/finance.sina.com.cn",
"author" : "SINA.com",
"tags" : [],
"desc" : "从目前市场的预期看，绝大多数的机构都斩钉截铁地表示，美联储在此次决议中料将维持0-0.25%的基准利率和850亿美元的资产购买规模不变。由于许多经济数据因此前政府停摆而遭到延迟发布，美联储\u201C按兵不动\u201D的可能性变得更大。因美联储实施\u201C适宜\u201D的宽松货币政策，失业率将逐步....",
"emailed" : False,
"forwarded" : False,
"english" : False
}  , {
"index" : 14,
"articleIndex" : "795604",
"favor" :  False ,
     "read" : False,    
"title" : "北京5款产品检出二氧化硫超标 部分超标19倍",
"titleTip" : "北京5款产品检出二氧化硫超标 部分超标19倍",
"titleSummary" : "北京5款产品检出二氧化硫超标 部分超标19倍",
"descSummary" : "银耳\u201C整容\u201D 吃着\u201C恶心\u201D 法制晚报讯 (记者 张鑫)很多市民...",
"url" : "http:\/\/go.rss.sina.com.cn\/redirect.php?url=http:\/\/finance.sina.com.cn\/consume\/puguangtai\/20131030\/154817166802.shtml",
"pubDate" : "15:48:54",
"enterDate" : "384201:10:57",
"channelId" : "6694851995229732782",
"channelName" : "焦点新闻-新浪财经",
"channelNameSummary" : "焦点新闻-新浪财经",
"channelUrl" : "http:\/\/finance.sina.com.cn",
"author" : "SINA.com",
"tags" : [],
"desc" : "银耳\u201C整容\u201D 吃着\u201C恶心\u201D 法制晚报讯&#160;(记者 张鑫)很多市民在选购大料、姜片等干调味料时，都习惯通过卖相来判断好坏。但是，有商家利用这种心理，销售\u201C美容\u201D过的调味料，以次充好。今天上午，北京市食品办公布了5个批次不合格食品，不合格原因均是二氧化硫超....",
"emailed" : False,
"forwarded" : False,
"english" : False
}  , {
"index" : 15,
"articleIndex" : "795603",
"favor" :  False ,
     "read" : False,    
"title" : "美联储决议前关注德国失业数据 欧元小幅下跌",
"titleTip" : "美联储决议前关注德国失业数据 欧元小幅下跌",
"titleSummary" : "美联储决议前关注德国失业数据 欧元小幅下跌",
"descSummary" : "汇通网10月30日讯--周三(10月30日)欧市盘中，欧元兑美元...",
"url" : "http:\/\/go.rss.sina.com.cn\/redirect.php?url=http:\/\/finance.sina.com.cn\/money\/forex\/20131030\/154817166801.shtml",
"pubDate" : "15:48:34",
"enterDate" : "384201:10:37",
"channelId" : "6694851995229732782",
"channelName" : "焦点新闻-新浪财经",
"channelNameSummary" : "焦点新闻-新浪财经",
"channelUrl" : "http:\/\/finance.sina.com.cn",
"author" : "SINA.com",
"tags" : [],
"desc" : "汇通网10月30日讯\u2015\u2015周三(10月30日)欧市盘中，欧元兑美元小幅下跌至1.3740，美联储利率决议前市场交投较为谨慎，尽管此前的德国ILO就业数据不佳，市场反应亦较为平淡，稍后德国官方还将公布失业数据。 数据显示，德国9月季调后ILO就业人口增长0.2万，前值修正为增长0.....",
"emailed" : False,
"forwarded" : False,
"english" : False
}  , {
"index" : 16,
"articleIndex" : "795602",
"favor" :  False ,
     "read" : False,    
"title" : "汇丰外汇网：FOMC利率决议见分晓 美指关注80关口",
"titleTip" : "汇丰外汇网：FOMC利率决议见分晓 美指关注80关口",
"titleSummary" : "汇丰外汇网：FOMC利率决议见分晓 美指关注80关口",
"descSummary" : "昨日美指最高79.67，最低79.29，收盘报79.61。金...",
"url" : "http:\/\/go.rss.sina.com.cn\/redirect.php?url=http:\/\/finance.sina.com.cn\/money\/forex\/20131030\/154717166799.shtml",
"pubDate" : "15:47:35",
"enterDate" : "384201:09:38",
"channelId" : "6694851995229732782",
"channelName" : "焦点新闻-新浪财经",
"channelNameSummary" : "焦点新闻-新浪财经",
"channelUrl" : "http:\/\/finance.sina.com.cn",
"author" : "SINA.com",
"tags" : [],
"desc" : "昨日美指最高79.67，最低79.29，收盘报79.61。金银油纷纷冲高回落。 北京时间周四凌晨02:00，美国联邦公开市场委员会(FOMC)将公布的利率决议及政策声明。 欧元\/美元EURUSD：欧元兑美元汇价在昨日纽约时段接近中午盘时出现了\u201C过山车\u201D行情，此前，在欧洲央行执....",
"emailed" : False,
"forwarded" : False,
"english" : False
}  , {
"index" : 17,
"articleIndex" : "795601",
"favor" :  False ,
     "read" : False,    
"title" : "北京药店ATM售奶粉停止试点 官方称正进行评估",
"titleTip" : "北京药店ATM售奶粉停止试点 官方称正进行评估",
"titleSummary" : "北京药店ATM售奶粉停止试点 官方称正进行评估",
"descSummary" : "官方称正在进行评估 何时恢复无详细时间表-- 刚上岗就...",
"url" : "http:\/\/go.rss.sina.com.cn\/redirect.php?url=http:\/\/finance.sina.com.cn\/chanjing\/cyxw\/20131030\/154517166792.shtml",
"pubDate" : "15:45:33",
"enterDate" : "384201:07:36",
"channelId" : "6694851995229732782",
"channelName" : "焦点新闻-新浪财经",
"channelNameSummary" : "焦点新闻-新浪财经",
"channelUrl" : "http:\/\/finance.sina.com.cn",
"author" : "SINA.com",
"tags" : [],
"desc" : "官方称正在进行评估 何时恢复无详细时间表\u2015\u2015 刚上岗就整改 奶粉售卖停摆 法制晚报讯(记者 张鑫)上周六正式开始进药店试点的售奶粉ATM机，如今全部\u201C停摆\u201D了。上午记者从该设备运营公司处了解到，暂时停售奶粉是为了测试设备。负责此事的商务部中国国际贸易....",
"emailed" : False,
"forwarded" : False,
"english" : False
}  , {
"index" : 18,
"articleIndex" : "795600",
"favor" :  False ,
     "read" : False,    
"title" : "小摩与美司法部所达临时和解或破裂",
"titleTip" : "小摩与美司法部所达临时和解或破裂",
"titleSummary" : "小摩与美司法部所达临时和解或破裂",
"descSummary" : "新浪财经讯 北京时间10月30日下午消息，知情人士向《华尔街日报...",
"url" : "http:\/\/go.rss.sina.com.cn\/redirect.php?url=http:\/\/finance.sina.com.cn\/stock\/usstock\/c\/20131030\/154517166791.shtml",
"pubDate" : "15:45:31",
"enterDate" : "384201:07:34",
"channelId" : "6694851995229732782",
"channelName" : "焦点新闻-新浪财经",
"channelNameSummary" : "焦点新闻-新浪财经",
"channelUrl" : "http:\/\/finance.sina.com.cn",
"author" : "SINA.com",
"tags" : [],
"desc" : "新浪财经讯 北京时间10月30日下午消息，知情人士向《华尔街日报》表示，摩根大通与美国司法部130亿美元的临时和解协议可能破裂，因双方对Washington Mutual基金的债务承担意见不一。 知情人士称，谈判症结在于摩根大通或联邦存款保险公司是否应该为Washington Mutual的....",
"emailed" : False,
"forwarded" : False,
"english" : False
}  , {
"index" : 19,
"articleIndex" : "795599",
"favor" :  False ,
     "read" : False,    
"title" : "东方论金：美指强势反弹 金银面临短期回踩",
"titleTip" : "东方论金：美指强势反弹 金银面临短期回踩",
"titleSummary" : "东方论金：美指强势反弹 金银面临短期回踩",
"descSummary" : "昨晚早间开盘黄金冲高1360后亚欧盘开始走低，欧盘时段最...",
"url" : "http:\/\/go.rss.sina.com.cn\/redirect.php?url=http:\/\/finance.sina.com.cn\/money\/nmetal\/20131030\/154417166768.shtml",
"pubDate" : "15:44:20",
"enterDate" : "384201:06:23",
"channelId" : "6694851995229732782",
"channelName" : "焦点新闻-新浪财经",
"channelNameSummary" : "焦点新闻-新浪财经",
"channelUrl" : "http:\/\/finance.sina.com.cn",
"author" : "SINA.com",
"tags" : [],
"desc" : "昨晚早间开盘黄金冲高1360后亚欧盘开始走低，欧盘时段最低触及1340，晚间美盘时段受美国方面的数据金价开始反弹，昨日公布的经济数据普遍差于预期，此前公布的9月零售月率下滑0.1%，低于前值的0.2%。十点数据10月谘商会消费者信心指数公布值71.2低于预期75.0，美元止损被压制....",
"emailed" : False,
"forwarded" : False,
"english" : False
} ]
}
