{
"mode" : {"viewTitle" : 1,   "viewNew" : 0,  "pageIndex" : 1 },
 "channel" : {"id" : "3444374662253951299", "booked" : False, "subNumber" : 1, "name" : "内地明星-新浪娱乐", "url" : "http:\/\/ent.sina.com.cn\/star\/mainland\/more.html", "feed" : "http:\/\/rss.sina.com.cn\/ent\/inner.xml", "author" : "WWW.SINA.COM.CN", "desc" : "内地明星新闻列表", "imageUrl" : "http:\/\/www.sinaimg.cn\/home\/deco\/2009\/0330\/logo_home_ent.gif", "postPerWeek" : "0", "lastCrawTime" : "16:56:35", "crawDateTime" : "16:56:35", "lastHttpCode" : "200"}, "page" : {
"startIndex" : 0,
"totalCount" : 5000,
"pageIndex" : 1,
"lastPage" : 250,
"pageSize" : 20,
"english" :  False },
 "unreadNum" : 0, "shotIndex" : -1,
"articles" : [
{
"index" : 0,
"articleIndex" : "87284",
"favor" :  False ,
     "read" : False,    
"title" : "陈龙亮相上影厂演员剧团60周年庆(图)",
"titleTip" : "陈龙亮相上影厂演员剧团60周年庆(图)",
"titleSummary" : "陈龙亮相上影厂演员剧团60周年庆(图)",
"descSummary" : "新浪娱乐讯 近日，\u201C辉煌六十载，群星耀苍穹\u201D上影演员剧团成立...",
"url" : "http:\/\/go.rss.sina.com.cn\/redirect.php?url=http:\/\/ent.sina.com.cn\/s\/m\/2013-10-30\/16304033658.shtml",
"pubDate" : "16:30:21",
"enterDate" : "384200:52:53",
"channelId" : "3444374662253951299",
"channelName" : "内地明星-新浪娱乐",
"channelNameSummary" : "内地明星-新浪娱乐",
"channelUrl" : "http:\/\/ent.sina.com.cn\/star\/mainland\/more.html",
"author" : "WWW.SINA.COM.CN",
"tags" : [],
"desc" : "新浪娱乐讯 近日，\u201C辉煌六十载，群星耀苍穹\u201D上影演员剧团成立六十周年庆祝活动在上影集团900平米拥有东方第一巨幕的\u201C海上五号棚\u201D隆重举行。于今年正式加入上影演员剧团的青年演员陈龙[微博]，作为上影厂演员剧团的青年演员代表，与秦怡、仲星火、梁波罗等近八十位艺术家齐....",
"emailed" : False,
"forwarded" : False,
"english" : False
}  , {
"index" : 1,
"articleIndex" : "87283",
"favor" :  False ,
     "read" : False,    
"title" : "李某某案二审延期 上诉方临时换新律师",
"titleTip" : "李某某案二审延期 上诉方临时换新律师",
"titleSummary" : "李某某案二审延期 上诉方临时换新律师",
"descSummary" : "新浪娱乐讯 10月30日下午，北京市第一中级人民法院官方微博发...",
"url" : "http:\/\/go.rss.sina.com.cn\/redirect.php?url=http:\/\/ent.sina.com.cn\/s\/m\/w\/2013-10-30\/16034033638.shtml",
"pubDate" : "16:03:31",
"enterDate" : "384200:26:03",
"channelId" : "3444374662253951299",
"channelName" : "内地明星-新浪娱乐",
"channelNameSummary" : "内地明星-新浪娱乐",
"channelUrl" : "http:\/\/ent.sina.com.cn\/star\/mainland\/more.html",
"author" : "WWW.SINA.COM.CN",
"tags" : [],
"desc" : "新浪娱乐讯 10月30日下午，北京市第一中级人民法院官方微博发布消息称，\u201C原定于10月31日依法不公开开庭审理的李某某等五人强奸上诉一案，因上诉人一方在本院确定并通知开庭日期后，更换辩护律师，新更换的辩护律师申请延期审理。本院为充分保障被告人依法享有的辩护权和未成....",
"emailed" : False,
"forwarded" : False,
"english" : False
}  , {
"index" : 2,
"articleIndex" : "87282",
"favor" :  False ,
     "read" : False,    
"title" : "李某某案二审将开庭 李方或当庭交新证据",
"titleTip" : "李某某案二审将开庭 李方或当庭交新证据",
"titleSummary" : "李某某案二审将开庭 李方或当庭交新证据",
"descSummary" : "法制晚报讯(记者 王巍)李某某案明天将在一中院二审开庭。据了...",
"url" : "http:\/\/go.rss.sina.com.cn\/redirect.php?url=http:\/\/ent.sina.com.cn\/s\/m\/2013-10-30\/15404033613.shtml",
"pubDate" : "15:40:40",
"enterDate" : "384201:03:25",
"channelId" : "3444374662253951299",
"channelName" : "内地明星-新浪娱乐",
"channelNameSummary" : "内地明星-新浪娱乐",
"channelUrl" : "http:\/\/ent.sina.com.cn\/star\/mainland\/more.html",
"author" : "WWW.SINA.COM.CN",
"tags" : [],
"desc" : "法制晚报讯(记者 王巍)李某某案明天将在一中院二审开庭。据了解，李家之前委托的戚晓红请辞后，律师人选尚未对外披露，但据可靠消息透露，明天当庭，李家或将提交新证据给法庭。&#160;&#160;&#160;&#160;李某某等5人强奸案引发公众广泛关注。 9月26日，北京海淀区法院....",
"emailed" : False,
"forwarded" : False,
"english" : False
}  , {
"index" : 3,
"articleIndex" : "87281",
"favor" :  False ,
     "read" : False,    
"title" : "黄海波绅士写真 内敛稳重展熟男魅力(图)",
"titleTip" : "黄海波绅士写真 内敛稳重展熟男魅力(图)",
"titleSummary" : "黄海波绅士写真 内敛稳重展熟男魅力(图)",
"descSummary" : "黄海波绅士写真 内敛稳重展熟男魅力(图)",
"url" : "http:\/\/go.rss.sina.com.cn\/redirect.php?url=http:\/\/slide.ent.sina.com.cn\/star\/slide_4_704_68405.html",
"pubDate" : "15:34:43",
"enterDate" : "384200:57:28",
"channelId" : "3444374662253951299",
"channelName" : "内地明星-新浪娱乐",
"channelNameSummary" : "内地明星-新浪娱乐",
"channelUrl" : "http:\/\/ent.sina.com.cn\/star\/mainland\/more.html",
"author" : "WWW.SINA.COM.CN",
"tags" : [],
"desc" : "黄海波绅士写真 内敛稳重展熟男魅力(图)",
"emailed" : False,
"forwarded" : False,
"english" : False
}  , {
"index" : 4,
"articleIndex" : "87280",
"favor" :  False ,
     "read" : False,    
"title" : "李某某案31日二审 李方仍未提交新证据",
"titleTip" : "李某某案31日二审 李方仍未提交新证据",
"titleSummary" : "李某某案31日二审 李方仍未提交新证据",
"descSummary" : "本报讯(实习记者严琪)经与北京市第一中级人民法院核实，该院将...",
"url" : "http:\/\/go.rss.sina.com.cn\/redirect.php?url=http:\/\/ent.sina.com.cn\/s\/m\/2013-10-30\/15284033597.shtml",
"pubDate" : "15:28:12",
"enterDate" : "384200:50:57",
"channelId" : "3444374662253951299",
"channelName" : "内地明星-新浪娱乐",
"channelNameSummary" : "内地明星-新浪娱乐",
"channelUrl" : "http:\/\/ent.sina.com.cn\/star\/mainland\/more.html",
"author" : "WWW.SINA.COM.CN",
"tags" : [],
"desc" : "本报讯(实习记者严琪)经与北京市第一中级人民法院核实，该院将于10月31日，也就是明天依法不公开开庭审理李某某等5人强奸上诉一案。&#160;&#160;记者获悉，因为涉及到未成年人，本案由未成年人审判庭承办，仍将进行不公开审理。 另据记者了解，目前，李某某一方还未提....",
"emailed" : False,
"forwarded" : False,
"english" : False
}  , {
"index" : 5,
"articleIndex" : "87279",
"favor" :  False ,
     "read" : False,    
"title" : "视频：杨澜提问郎朗被指不善 发文称误会",
"titleTip" : "视频：杨澜提问郎朗被指不善 发文称误会",
"titleSummary" : "视频：杨澜提问郎朗被指不善 发文称误会",
"descSummary" : "新浪娱乐讯 近日，秘书长潘基文在联合国总部正式任命钢琴家...",
"url" : "http:\/\/go.rss.sina.com.cn\/redirect.php?url=http:\/\/video.sina.com.cn\/p\/ent\/s\/m\/2013-10-30\/133763083715.html",
"pubDate" : "13:37:31",
"enterDate" : "384200:00:26",
"channelId" : "3444374662253951299",
"channelName" : "内地明星-新浪娱乐",
"channelNameSummary" : "内地明星-新浪娱乐",
"channelUrl" : "http:\/\/ent.sina.com.cn\/star\/mainland\/more.html",
"author" : "WWW.SINA.COM.CN",
"tags" : [],
"desc" : "新浪娱乐讯 近日，秘书长潘基文在联合国总部正式任命钢琴家郎朗为关注全球教育的联合国和平使者。随后在微访谈环节中主持人杨澜也向获此殊荣的郎朗表达祝贺并提问称：\u201C对于世界上买不起钢琴，甚至生活在战乱和饥荒中的孩子，你的工作有什么意义？\u201D 对于杨澜的提问有网友指出....",
"emailed" : False,
"forwarded" : False,
"english" : False
}  , {
"index" : 6,
"articleIndex" : "87278",
"favor" :  False ,
     "read" : False,    
"title" : "海清登封面化身红发女郎 魅力独特(图)",
"titleTip" : "海清登封面化身红发女郎 魅力独特(图)",
"titleSummary" : "海清登封面化身红发女郎 魅力独特(图)",
"descSummary" : "海清登封面化身红发女郎 魅力独特(图)",
"url" : "http:\/\/go.rss.sina.com.cn\/redirect.php?url=http:\/\/slide.ent.sina.com.cn\/star\/slide_4_704_68397.html",
"pubDate" : "11:27:48",
"enterDate" : "384200:51:13",
"channelId" : "3444374662253951299",
"channelName" : "内地明星-新浪娱乐",
"channelNameSummary" : "内地明星-新浪娱乐",
"channelUrl" : "http:\/\/ent.sina.com.cn\/star\/mainland\/more.html",
"author" : "WWW.SINA.COM.CN",
"tags" : [],
"desc" : "海清登封面化身红发女郎 魅力独特(图)",
"emailed" : False,
"forwarded" : False,
"english" : False
}  , {
"index" : 7,
"articleIndex" : "87277",
"favor" :  False ,
     "read" : False,    
"title" : "《奇迹梦工厂》导师笑疯 奇兵特色风头盛",
"titleTip" : "《奇迹梦工厂》导师笑疯 奇兵特色风头盛",
"titleSummary" : "《奇迹梦工厂》导师笑疯 奇兵特色风头盛",
"descSummary" : "新浪娱乐讯 \u201C层次不够\u201D、\u201C表演要走心\u201D、\u201C没打动我\u201D、...",
"url" : "http:\/\/go.rss.sina.com.cn\/redirect.php?url=http:\/\/ent.sina.com.cn\/s\/m\/2013-10-30\/11194033398.shtml",
"pubDate" : "11:19:38",
"enterDate" : "384201:13:08",
"channelId" : "3444374662253951299",
"channelName" : "内地明星-新浪娱乐",
"channelNameSummary" : "内地明星-新浪娱乐",
"channelUrl" : "http:\/\/ent.sina.com.cn\/star\/mainland\/more.html",
"author" : "WWW.SINA.COM.CN",
"tags" : [],
"desc" : "新浪娱乐讯 \u201C层次不够\u201D、\u201C表演要走心\u201D、\u201C没打动我\u201D、\u201C再给你一次机会\u201D这是上周六、周日晚22:00(10月26日、27日)，陈可辛、张涵予[微博]、吴君如[微博]、海清[微博]、宁静[微博]五位导师在《奇迹梦工厂》中频率最高的点评。连续两晚大淘沙：导师团\u201C尖酸刻薄\u201D渐入佳境....",
"emailed" : False,
"forwarded" : False,
"english" : False
}  , {
"index" : 8,
"articleIndex" : "87276",
"favor" :  False ,
     "read" : False,    
"title" : "戚薇李承铉不认恋情 微博频繁互示爱意",
"titleTip" : "戚薇李承铉不认恋情 微博频繁互示爱意",
"titleSummary" : "戚薇李承铉不认恋情 微博频繁互示爱意",
"descSummary" : "新浪娱乐讯 10月26日是戚薇[微博]生日，10月30日则是李承铉[微...",
"url" : "http:\/\/go.rss.sina.com.cn\/redirect.php?url=http:\/\/ent.sina.com.cn\/s\/m\/w\/2013-10-30\/11164033390.shtml",
"pubDate" : "11:16:04",
"enterDate" : "384201:09:34",
"channelId" : "3444374662253951299",
"channelName" : "内地明星-新浪娱乐",
"channelNameSummary" : "内地明星-新浪娱乐",
"channelUrl" : "http:\/\/ent.sina.com.cn\/star\/mainland\/more.html",
"author" : "WWW.SINA.COM.CN",
"tags" : [],
"desc" : "新浪娱乐讯 10月26日是戚薇[微博]生日，10月30日则是李承铉[微博]生日，继李承铉在戚薇生日当天零点时刻送上暧昧爱情歌曲之后，戚薇在李承铉生日的零点时刻写下感言：\u201C傻人有傻福，稳稳的幸福。\u201D两人的绯闻相传甚久，从跳水节目示爱，到赴泰国甜蜜游玩被抓包以及微博上各种....",
"emailed" : False,
"forwarded" : False,
"english" : False
}  , {
"index" : 9,
"articleIndex" : "87275",
"favor" :  False ,
     "read" : False,    
"title" : "组图：袁姗姗受邀联合国之肯尼亚公益行",
"titleTip" : "组图：袁姗姗受邀联合国之肯尼亚公益行",
"titleSummary" : "组图：袁姗姗受邀联合国之肯尼亚公益行",
"descSummary" : "组图：袁姗姗受邀联合国之肯尼亚公益行",
"url" : "http:\/\/go.rss.sina.com.cn\/redirect.php?url=http:\/\/slide.ent.sina.com.cn\/star\/slide_4_704_68393.html",
"pubDate" : "10:56:15",
"enterDate" : "384200:49:45",
"channelId" : "3444374662253951299",
"channelName" : "内地明星-新浪娱乐",
"channelNameSummary" : "内地明星-新浪娱乐",
"channelUrl" : "http:\/\/ent.sina.com.cn\/star\/mainland\/more.html",
"author" : "WWW.SINA.COM.CN",
"tags" : [],
"desc" : "组图：袁姗姗受邀联合国之肯尼亚公益行",
"emailed" : False,
"forwarded" : False,
"english" : False
}  , {
"index" : 10,
"articleIndex" : "87274",
"favor" :  False ,
     "read" : False,    
"title" : "时尚好男人郭晓冬对儿子宠爱不溺爱(图)",
"titleTip" : "时尚好男人郭晓冬对儿子宠爱不溺爱(图)",
"titleSummary" : "时尚好男人郭晓冬对儿子宠爱不溺爱(图)",
"descSummary" : "新浪娱乐讯 近日，湖南卫视[微博]热播的《爸爸去哪儿》节目受到...",
"url" : "http:\/\/go.rss.sina.com.cn\/redirect.php?url=http:\/\/ent.sina.com.cn\/s\/m\/2013-10-30\/10524033320.shtml",
"pubDate" : "10:52:41",
"enterDate" : "384200:46:11",
"channelId" : "3444374662253951299",
"channelName" : "内地明星-新浪娱乐",
"channelNameSummary" : "内地明星-新浪娱乐",
"channelUrl" : "http:\/\/ent.sina.com.cn\/star\/mainland\/more.html",
"author" : "WWW.SINA.COM.CN",
"tags" : [],
"desc" : "新浪娱乐讯 近日，湖南卫视[微博]热播的《爸爸去哪儿》节目受到观众空前热捧，节目中各位奶爸亮出独家育儿经，给电视机前的爸爸们提供借鉴。作为一个三岁儿子的父亲，郭晓冬[微博]在与儿子的相处过程中，也有着\u201C独门秘诀\u201D。 郭晓冬曾是话剧《钢的琴》中为满足女儿心....",
"emailed" : False,
"forwarded" : False,
"english" : False
}  , {
"index" : 11,
"articleIndex" : "87271",
"favor" :  False ,
     "read" : False,    
"title" : "视频：李某案二审将开庭 预测改判五年以下",
"titleTip" : "视频：李某案二审将开庭 预测改判五年以下",
"titleSummary" : "视频：李某案二审将开庭 预测改判五年以下",
"descSummary" : "新浪娱乐讯 备受关注的李某某案将于10月31日二审开庭，第...",
"url" : "http:\/\/go.rss.sina.com.cn\/redirect.php?url=http:\/\/video.sina.com.cn\/p\/ent\/s\/m\/2013-10-30\/103763082747.html",
"pubDate" : "10:37:29",
"enterDate" : "384201:01:04",
"channelId" : "3444374662253951299",
"channelName" : "内地明星-新浪娱乐",
"channelNameSummary" : "内地明星-新浪娱乐",
"channelUrl" : "http:\/\/ent.sina.com.cn\/star\/mainland\/more.html",
"author" : "WWW.SINA.COM.CN",
"tags" : [],
"desc" : "新浪娱乐讯 备受关注的李某某案将于10月31日二审开庭，第三方律师庞理鹏表示二审关键点在于事实的认定，二审中是否会有新证据出现以及李某某的态度是否有缓和均将左右案件审理结果。如果李某某方面继续坚持无罪辩护，且不能提供能够证明强奸行为不存在的证据的话，则案件维持....",
"emailed" : False,
"forwarded" : False,
"english" : False
}  , {
"index" : 12,
"articleIndex" : "87270",
"favor" :  False ,
     "read" : False,    
"title" : "李湘晒与女儿自拍 瞪眼嘟嘴古灵精怪",
"titleTip" : "李湘晒与女儿自拍 瞪眼嘟嘴古灵精怪",
"titleSummary" : "李湘晒与女儿自拍 瞪眼嘟嘴古灵精怪",
"descSummary" : "新浪娱乐讯 10月29日晚，李湘[微博]在微博晒出女儿王诗龄和自己...",
"url" : "http:\/\/go.rss.sina.com.cn\/redirect.php?url=http:\/\/ent.sina.com.cn\/s\/m\/w\/2013-10-30\/10314033274.shtml",
"pubDate" : "10:31:23",
"enterDate" : "384195:24:03",
"channelId" : "3444374662253951299",
"channelName" : "内地明星-新浪娱乐",
"channelNameSummary" : "内地明星-新浪娱乐",
"channelUrl" : "http:\/\/ent.sina.com.cn\/star\/mainland\/more.html",
"author" : "WWW.SINA.COM.CN",
"tags" : [],
"desc" : "新浪娱乐讯 10月29日晚，李湘[微博]在微博晒出女儿王诗龄和自己及老公王岳伦[微博]的自拍合照。王诗龄完全继承了妈妈的古灵精怪和伶牙俐齿，嘟嘴瞪眼十分可爱。李湘自己也表示：\u201C有个古灵精怪的女儿是我这辈子最大的福气！\u201D(新娱)",
"emailed" : False,
"forwarded" : False,
"english" : False
}  , {
"index" : 13,
"articleIndex" : "87269",
"favor" :  False ,
     "read" : False,    
"title" : "李某案二审31日开庭 律师称最多减刑2年",
"titleTip" : "李某案二审31日开庭 律师称最多减刑2年",
"titleSummary" : "李某案二审31日开庭 律师称最多减刑2年",
"descSummary" : "新浪娱乐讯 据北京法院官方微博\u201C京法网事\u201D消息，经与北京一...",
"url" : "http:\/\/go.rss.sina.com.cn\/redirect.php?url=http:\/\/ent.sina.com.cn\/s\/m\/2013-10-30\/10234033259.shtml",
"pubDate" : "10:23:10",
"enterDate" : "384200:46:45",
"channelId" : "3444374662253951299",
"channelName" : "内地明星-新浪娱乐",
"channelNameSummary" : "内地明星-新浪娱乐",
"channelUrl" : "http:\/\/ent.sina.com.cn\/star\/mainland\/more.html",
"author" : "WWW.SINA.COM.CN",
"tags" : [],
"desc" : "新浪娱乐讯 据北京法院官方微博\u201C京法网事\u201D消息，经与北京一中院核实后，李某某案将于10月31日二审开庭。对于二审后的宣判结果将如何，新浪娱乐致电了戚连峰律师进行解读，并做出预估。戚律师表示影响二审宣判结果有两个因素，首先李某是否能够提供新证据证明自己没有强奸。....",
"emailed" : False,
"forwarded" : False,
"english" : False
}  , {
"index" : 14,
"articleIndex" : "87273",
"favor" :  False ,
     "read" : False,    
"title" : "视频：李治廷疑承认恋情 斥与女助手假绯闻",
"titleTip" : "视频：李治廷疑承认恋情 斥与女助手假绯闻",
"titleSummary" : "视频：李治廷疑承认恋情 斥与女助手假绯闻",
"descSummary" : "新浪娱乐讯 早前某周刊报道李治廷与女助手北京偷欢，玩姐...",
"url" : "http:\/\/go.rss.sina.com.cn\/redirect.php?url=http:\/\/video.sina.com.cn\/p\/ent\/s\/m\/2013-10-30\/102263082851.html",
"pubDate" : "10:22:29",
"enterDate" : "384200:15:59",
"channelId" : "3444374662253951299",
"channelName" : "内地明星-新浪娱乐",
"channelNameSummary" : "内地明星-新浪娱乐",
"channelUrl" : "http:\/\/ent.sina.com.cn\/star\/mainland\/more.html",
"author" : "WWW.SINA.COM.CN",
"tags" : [],
"desc" : "新浪娱乐讯 早前某周刊报道李治廷与女助手北京偷欢，玩姐弟恋。10月29日，李治廷到电台宣传新专辑，拍照时面无表情，心情相当不好，问及缘由，李治廷毫不保留的直斥杂志的虚假报道。 说到和女助手的绯闻，李治廷就大为光火，不过之前和范爷范冰冰的绯闻可是炒得人尽皆....",
"emailed" : False,
"forwarded" : False,
"english" : False
}  , {
"index" : 15,
"articleIndex" : "87268",
"favor" :  False ,
     "read" : False,    
"title" : "佘诗曼化身姚明粉丝 张静初冷对传闻(图)",
"titleTip" : "佘诗曼化身姚明粉丝 张静初冷对传闻(图)",
"titleSummary" : "佘诗曼化身姚明粉丝 张静初冷对传闻(图)",
"descSummary" : "",
"url" : "http:\/\/go.rss.sina.com.cn\/redirect.php?url=http:\/\/slide.ent.sina.com.cn\/star\/slide_4_704_68386.html",
"pubDate" : "10:10:57",
"enterDate" : "384196:03:47",
"channelId" : "3444374662253951299",
"channelName" : "内地明星-新浪娱乐",
"channelNameSummary" : "内地明星-新浪娱乐",
"channelUrl" : "http:\/\/ent.sina.com.cn\/star\/mainland\/more.html",
"author" : "WWW.SINA.COM.CN",
"tags" : [],
"desc" : "",
"emailed" : False,
"forwarded" : False,
"english" : False
}  , {
"index" : 16,
"articleIndex" : "87272",
"favor" :  False ,
     "read" : False,    
"title" : "视频：韩雪遭遇疯狂粉丝 间接承认已有男友",
"titleTip" : "视频：韩雪遭遇疯狂粉丝 间接承认已有男友",
"titleSummary" : "视频：韩雪遭遇疯狂粉丝 间接承认已有男友",
"descSummary" : "新浪娱乐讯 由韩晶执导，韩雪、杜海涛、Hold住姐、李佳航...",
"url" : "http:\/\/go.rss.sina.com.cn\/redirect.php?url=http:\/\/video.sina.com.cn\/p\/ent\/s\/m\/2013-10-30\/100763082853.html",
"pubDate" : "10:07:29",
"enterDate" : "384200:00:59",
"channelId" : "3444374662253951299",
"channelName" : "内地明星-新浪娱乐",
"channelNameSummary" : "内地明星-新浪娱乐",
"channelUrl" : "http:\/\/ent.sina.com.cn\/star\/mainland\/more.html",
"author" : "WWW.SINA.COM.CN",
"tags" : [],
"desc" : "新浪娱乐讯 由韩晶执导，韩雪、杜海涛、Hold住姐、李佳航等联袂主演的\u201C脱光系\u201D喜剧《我为相亲狂》即将于小光棍节11月1日正式上映。10月29日下午，该片主创也是来到影片的拍摄地上海举行了首映发布会。 原本是为了迎合影片的\u201C脱光\u201D主题，在主创们宣读\u201C脱光宣言\u201D时....",
"emailed" : False,
"forwarded" : False,
"english" : False
}  , {
"index" : 17,
"articleIndex" : "87267",
"favor" :  False ,
     "read" : False,    
"title" : "组图：张晓龙帅气写真卖萌玩转百变表情",
"titleTip" : "组图：张晓龙帅气写真卖萌玩转百变表情",
"titleSummary" : "组图：张晓龙帅气写真卖萌玩转百变表情",
"descSummary" : "组图：张晓龙帅气写真卖萌玩转百变表情",
"url" : "http:\/\/go.rss.sina.com.cn\/redirect.php?url=http:\/\/slide.ent.sina.com.cn\/star\/slide_4_704_68381.html",
"pubDate" : "09:52:55",
"enterDate" : "384200:46:34",
"channelId" : "3444374662253951299",
"channelName" : "内地明星-新浪娱乐",
"channelNameSummary" : "内地明星-新浪娱乐",
"channelUrl" : "http:\/\/ent.sina.com.cn\/star\/mainland\/more.html",
"author" : "WWW.SINA.COM.CN",
"tags" : [],
"desc" : "组图：张晓龙帅气写真卖萌玩转百变表情",
"emailed" : False,
"forwarded" : False,
"english" : False
}  , {
"index" : 18,
"articleIndex" : "87266",
"favor" :  False ,
     "read" : False,    
"title" : "组图：小宋佳《OK》大片徜徉米兰街头时尚",
"titleTip" : "组图：小宋佳《OK》大片徜徉米兰街头时尚",
"titleSummary" : "组图：小宋佳《OK》大片徜徉米兰街头时尚",
"descSummary" : "组图：小宋佳《OK》大片徜徉米兰街头时尚",
"url" : "http:\/\/go.rss.sina.com.cn\/redirect.php?url=http:\/\/slide.ent.sina.com.cn\/star\/slide_4_704_68380.html",
"pubDate" : "09:39:23",
"enterDate" : "384201:03:08",
"channelId" : "3444374662253951299",
"channelName" : "内地明星-新浪娱乐",
"channelNameSummary" : "内地明星-新浪娱乐",
"channelUrl" : "http:\/\/ent.sina.com.cn\/star\/mainland\/more.html",
"author" : "WWW.SINA.COM.CN",
"tags" : [],
"desc" : "组图：小宋佳《OK》大片徜徉米兰街头时尚",
"emailed" : False,
"forwarded" : False,
"english" : False
}  , {
"index" : 19,
"articleIndex" : "87265",
"favor" :  False ,
     "read" : False,    
"title" : "李晨秋冬写真表情酷拽 演绎西部牛仔(图)",
"titleTip" : "李晨秋冬写真表情酷拽 演绎西部牛仔(图)",
"titleSummary" : "李晨秋冬写真表情酷拽 演绎西部牛仔(图)",
"descSummary" : "李晨秋冬写真表情酷拽 演绎西部牛仔(图)",
"url" : "http:\/\/go.rss.sina.com.cn\/redirect.php?url=http:\/\/slide.ent.sina.com.cn\/star\/slide_4_704_68377.html",
"pubDate" : "09:31:16",
"enterDate" : "384200:55:01",
"channelId" : "3444374662253951299",
"channelName" : "内地明星-新浪娱乐",
"channelNameSummary" : "内地明星-新浪娱乐",
"channelUrl" : "http:\/\/ent.sina.com.cn\/star\/mainland\/more.html",
"author" : "WWW.SINA.COM.CN",
"tags" : [],
"desc" : "李晨秋冬写真表情酷拽 演绎西部牛仔(图)",
"emailed" : False,
"forwarded" : False,
"english" : False
} ]
}
