{
"mode" : {"viewTitle" : 1,   "viewNew" : 0,  "pageIndex" : 2 },
 "channel" : {"id" : "3444374662253951299", "booked" : False, "subNumber" : 1, "name" : "内地明星-新浪娱乐", "url" : "http:\/\/ent.sina.com.cn\/star\/mainland\/more.html", "feed" : "http:\/\/rss.sina.com.cn\/ent\/inner.xml", "author" : "WWW.SINA.COM.CN", "desc" : "内地明星新闻列表", "imageUrl" : "http:\/\/www.sinaimg.cn\/home\/deco\/2009\/0330\/logo_home_ent.gif", "postPerWeek" : "0", "lastCrawTime" : "16:56:35", "crawDateTime" : "16:56:35", "lastHttpCode" : "200"}, "page" : {
"startIndex" : 20,
"totalCount" : 5000,
"pageIndex" : 2,
"lastPage" : 250,
"pageSize" : 20,
"english" :  False },
 "unreadNum" : 0, "shotIndex" : -1,
"articles" : [
{
"index" : 0,
"articleIndex" : "87263",
"favor" :  False ,
     "read" : False,    
"title" : "联合国难民署正式授予姚晨中国亲善大使",
"titleTip" : "联合国难民署正式授予姚晨中国亲善大使",
"titleSummary" : "联合国难民署正式授予姚晨中国亲善大使",
"descSummary" : "新浪娱乐讯 葡萄牙前总理、联合国难民事务高级专员安东尼奥...",
"url" : "http:\/\/go.rss.sina.com.cn\/redirect.php?url=http:\/\/ent.sina.com.cn\/s\/m\/2013-10-30\/09204033168.shtml",
"pubDate" : "09:20:47",
"enterDate" : "384201:14:37",
"channelId" : "3444374662253951299",
"channelName" : "内地明星-新浪娱乐",
"channelNameSummary" : "内地明星-新浪娱乐",
"channelUrl" : "http:\/\/ent.sina.com.cn\/star\/mainland\/more.html",
"author" : "WWW.SINA.COM.CN",
"tags" : [],
"desc" : "新浪娱乐讯 葡萄牙前总理、联合国难民事务高级专员安东尼奥-古特雷斯一行最近来华到访，先后与民政部官员、公安部出入境负责人以及国务委员杨洁篪等会面。期间还专门会见了今年升任联合国难民署中国亲善大使的姚晨[微博]，感谢她过去三年为难民工作做出的努力与贡献，他表示：....",
"emailed" : False,
"forwarded" : False,
"english" : False
}  , {
"index" : 1,
"articleIndex" : "87264",
"favor" :  False ,
     "read" : False,    
"title" : "视频：张歆艺婆媳和睦 称照顾老公像喂狗",
"titleTip" : "视频：张歆艺婆媳和睦 称照顾老公像喂狗",
"titleSummary" : "视频：张歆艺婆媳和睦 称照顾老公像喂狗",
"descSummary" : "新浪娱乐讯 婆媳关系自古以来就是个头痛的话题，明星也不例...",
"url" : "http:\/\/go.rss.sina.com.cn\/redirect.php?url=http:\/\/video.sina.com.cn\/p\/ent\/s\/m\/2013-10-30\/091263082535.html",
"pubDate" : "09:12:27",
"enterDate" : "384200:36:13",
"channelId" : "3444374662253951299",
"channelName" : "内地明星-新浪娱乐",
"channelNameSummary" : "内地明星-新浪娱乐",
"channelUrl" : "http:\/\/ent.sina.com.cn\/star\/mainland\/more.html",
"author" : "WWW.SINA.COM.CN",
"tags" : [],
"desc" : "新浪娱乐讯 婆媳关系自古以来就是个头痛的话题，明星也不例外，也要处理好和婆婆之间的关系。日前，刚升级为人妇不久的张歆艺微博上\u201C得瑟\u201D和婆婆之间的美好畅聊短信，并得意劲十足的称：\u201C请允许我得瑟一下：良好的婆媳关系！\u201D短信中张歆艺首先向婆婆发出邀请，称：\u201C妈，....",
"emailed" : False,
"forwarded" : False,
"english" : False
}  , {
"index" : 2,
"articleIndex" : "87262",
"favor" :  False ,
     "read" : False,    
"title" : "李治廷与已婚女助手传绯闻 生气辟谣",
"titleTip" : "李治廷与已婚女助手传绯闻 生气辟谣",
"titleSummary" : "李治廷与已婚女助手传绯闻 生气辟谣",
"descSummary" : "新浪娱乐讯 北京时间10月30日消息，据香港媒体报导，李治廷[微博...",
"url" : "http:\/\/go.rss.sina.com.cn\/redirect.php?url=http:\/\/ent.sina.com.cn\/s\/m\/2013-10-30\/08264033153.shtml",
"pubDate" : "08:26:38",
"enterDate" : "384200:50:34",
"channelId" : "3444374662253951299",
"channelName" : "内地明星-新浪娱乐",
"channelNameSummary" : "内地明星-新浪娱乐",
"channelUrl" : "http:\/\/ent.sina.com.cn\/star\/mainland\/more.html",
"author" : "WWW.SINA.COM.CN",
"tags" : [],
"desc" : "新浪娱乐讯 北京时间10月30日消息，据香港媒体报导，李治廷[微博]昨天(10月29日)前往新城电台宣传，全程笑容欠奉，连记者建议他拍照时微笑，他回应说：\u201C笑不出来！\u201D为何心情不好？他坦言是近日被拍到跟已婚女助手的绯闻有关，他说：\u201C这个完全是彻底虚假的报道，内容没有一....",
"emailed" : False,
"forwarded" : False,
"english" : False
}  , {
"index" : 3,
"articleIndex" : "87261",
"favor" :  False ,
     "read" : False,    
"title" : "李治廷否认恋女助手 亲如兄弟不会避嫌",
"titleTip" : "李治廷否认恋女助手 亲如兄弟不会避嫌",
"titleSummary" : "李治廷否认恋女助手 亲如兄弟不会避嫌",
"descSummary" : "新浪娱乐讯 10月29日，李治廷现身香港到电台宣传新歌，拍照时...",
"url" : "http:\/\/go.rss.sina.com.cn\/redirect.php?url=http:\/\/ent.sina.com.cn\/s\/m\/2013-10-30\/07334033131.shtml",
"pubDate" : "07:33:46",
"enterDate" : "384198:27:25",
"channelId" : "3444374662253951299",
"channelName" : "内地明星-新浪娱乐",
"channelNameSummary" : "内地明星-新浪娱乐",
"channelUrl" : "http:\/\/ent.sina.com.cn\/star\/mainland\/more.html",
"author" : "WWW.SINA.COM.CN",
"tags" : [],
"desc" : "新浪娱乐讯 10月29日，李治廷现身香港到电台宣传新歌，拍照时木无表情的他被记者要求展露笑容，李治廷即谓\u201C笑不出\u201D，并坦言被最近杂志的报道影响心情。对于近日有传李治廷恋上其女助手，李治廷反应甚大，澄清说：\u201C完全不是真的，很明显有人刻意想伤害你！\u201D 问到反....",
"emailed" : False,
"forwarded" : False,
"english" : False
}  , {
"index" : 4,
"articleIndex" : "87260",
"favor" :  False ,
     "read" : False,    
"title" : "组图：姚晨曹郁带爱子拍照其乐融融",
"titleTip" : "组图：姚晨曹郁带爱子拍照其乐融融",
"titleSummary" : "组图：姚晨曹郁带爱子拍照其乐融融",
"descSummary" : "",
"url" : "http:\/\/go.rss.sina.com.cn\/redirect.php?url=http:\/\/slide.ent.sina.com.cn\/star\/slide_4_704_68367.html",
"pubDate" : "昨天03:21:38",
"enterDate" : "384200:46:24",
"channelId" : "3444374662253951299",
"channelName" : "内地明星-新浪娱乐",
"channelNameSummary" : "内地明星-新浪娱乐",
"channelUrl" : "http:\/\/ent.sina.com.cn\/star\/mainland\/more.html",
"author" : "WWW.SINA.COM.CN",
"tags" : [],
"desc" : "",
"emailed" : False,
"forwarded" : False,
"english" : False
}  , {
"index" : 5,
"articleIndex" : "87259",
"favor" :  False ,
     "read" : False,    
"title" : "窦靖童与同父异母妹妹感情好 贴头合照",
"titleTip" : "窦靖童与同父异母妹妹感情好 贴头合照",
"titleSummary" : "窦靖童与同父异母妹妹感情好 贴头合照",
"descSummary" : "新浪娱乐讯 据香港媒体报道，王菲大女窦靖童(童童)爱玩Instagra...",
"url" : "http:\/\/go.rss.sina.com.cn\/redirect.php?url=http:\/\/ent.sina.com.cn\/s\/m\/2013-10-30\/00394033029.shtml",
"pubDate" : "昨天00:39:37",
"enterDate" : "384190:33:08",
"channelId" : "3444374662253951299",
"channelName" : "内地明星-新浪娱乐",
"channelNameSummary" : "内地明星-新浪娱乐",
"channelUrl" : "http:\/\/ent.sina.com.cn\/star\/mainland\/more.html",
"author" : "WWW.SINA.COM.CN",
"tags" : [],
"desc" : "新浪娱乐讯 据香港媒体报道，王菲大女窦靖童(童童)爱玩Instagram，喜欢讲家事，但甚少提及亲生父亲窦唯，然而她和父亲与第二任妻子所生的同父异母妹妹窦家媛关系密切，童童在Instagram上载两姊妹合照，只见二人感情很好，头贴头影相，样貌亦十分相似，童童直言有这位妹妹好感....",
"emailed" : False,
"forwarded" : False,
"english" : False
}  , {
"index" : 6,
"articleIndex" : "87258",
"favor" :  False ,
     "read" : False,    
"title" : "视频：韩雪遭赤膊男强抱倒地",
"titleTip" : "视频：韩雪遭赤膊男强抱倒地",
"titleSummary" : "视频：韩雪遭赤膊男强抱倒地",
"descSummary" : "2013年10月29日东方卫视《新娱乐在线》： 韩雪遭赤膊男强抱倒地",
"url" : "http:\/\/go.rss.sina.com.cn\/redirect.php?url=http:\/\/video.sina.com.cn\/p\/ent\/s\/m\/2013-10-30\/000863080971.html",
"pubDate" : "昨天00:08:39",
"enterDate" : "384201:04:00",
"channelId" : "3444374662253951299",
"channelName" : "内地明星-新浪娱乐",
"channelNameSummary" : "内地明星-新浪娱乐",
"channelUrl" : "http:\/\/ent.sina.com.cn\/star\/mainland\/more.html",
"author" : "WWW.SINA.COM.CN",
"tags" : [],
"desc" : "2013年10月29日东方卫视《新娱乐在线》：&#160; &#160; 韩雪遭赤膊男强抱倒地",
"emailed" : False,
"forwarded" : False,
"english" : False
}  , {
"index" : 7,
"articleIndex" : "87257",
"favor" :  False ,
     "read" : False,    
"title" : "视频：王大治首度回应介入董洁潘粤明婚姻",
"titleTip" : "视频：王大治首度回应介入董洁潘粤明婚姻",
"titleSummary" : "视频：王大治首度回应介入董洁潘粤明婚姻",
"descSummary" : "2013年10月29日东方卫视《新娱乐在线》： 介入董洁潘粤明...",
"url" : "http:\/\/go.rss.sina.com.cn\/redirect.php?url=http:\/\/video.sina.com.cn\/p\/ent\/s\/m\/2013-10-30\/000563080953.html",
"pubDate" : "昨天00:05:19",
"enterDate" : "384201:00:40",
"channelId" : "3444374662253951299",
"channelName" : "内地明星-新浪娱乐",
"channelNameSummary" : "内地明星-新浪娱乐",
"channelUrl" : "http:\/\/ent.sina.com.cn\/star\/mainland\/more.html",
"author" : "WWW.SINA.COM.CN",
"tags" : [],
"desc" : "2013年10月29日东方卫视《新娱乐在线》：&#160; &#160; 介入董洁潘粤明婚姻？ 王大治首度回应",
"emailed" : False,
"forwarded" : False,
"english" : False
}  , {
"index" : 8,
"articleIndex" : "87256",
"favor" :  False ,
     "read" : False,    
"title" : "张歆艺婆媳和睦 调侃照顾老公像喂狗",
"titleTip" : "张歆艺婆媳和睦 调侃照顾老公像喂狗",
"titleSummary" : "张歆艺婆媳和睦 调侃照顾老公像喂狗",
"descSummary" : "新浪娱乐讯 婆媳关系自古以来就是个头痛的话题，明星也不例外，...",
"url" : "http:\/\/go.rss.sina.com.cn\/redirect.php?url=http:\/\/ent.sina.com.cn\/s\/m\/w\/2013-10-29\/21064032987.shtml",
"pubDate" : "昨天21:06:05",
"enterDate" : "384188:29:51",
"channelId" : "3444374662253951299",
"channelName" : "内地明星-新浪娱乐",
"channelNameSummary" : "内地明星-新浪娱乐",
"channelUrl" : "http:\/\/ent.sina.com.cn\/star\/mainland\/more.html",
"author" : "WWW.SINA.COM.CN",
"tags" : [],
"desc" : "新浪娱乐讯 婆媳关系自古以来就是个头痛的话题，明星也不例外，也要处理好和婆婆之间的关系。10月29日，张歆艺[微博]通过新浪微博\u201C得瑟\u201D和婆婆之间的美好畅聊短信，并调侃照顾老公吃饭像喂狗，惹得网友开怀大笑。 10月29日19点03分，张歆艺通过微博晒和婆婆之间的互....",
"emailed" : False,
"forwarded" : False,
"english" : False
}  , {
"index" : 9,
"articleIndex" : "87255",
"favor" :  False ,
     "read" : False,    
"title" : "方舟子妻子名誉权案开庭 曾被指论文抄袭",
"titleTip" : "方舟子妻子名誉权案开庭 曾被指论文抄袭",
"titleSummary" : "方舟子妻子名誉权案开庭 曾被指论文抄袭",
"descSummary" : "新浪娱乐讯 因数篇微博被指诽谤、贬损方舟子之妻刘菊花，深...",
"url" : "http:\/\/go.rss.sina.com.cn\/redirect.php?url=http:\/\/ent.sina.com.cn\/s\/m\/2013-10-29\/18184032953.shtml",
"pubDate" : "昨天18:18:47",
"enterDate" : "384201:15:08",
"channelId" : "3444374662253951299",
"channelName" : "内地明星-新浪娱乐",
"channelNameSummary" : "内地明星-新浪娱乐",
"channelUrl" : "http:\/\/ent.sina.com.cn\/star\/mainland\/more.html",
"author" : "WWW.SINA.COM.CN",
"tags" : [],
"desc" : "新浪娱乐讯 因数篇微博被指诽谤、贬损方舟子之妻刘菊花，深圳大学传播系副主任孙海峰成为了被告。10月29日下午2点，该名誉权纠纷案在海淀法院进行非正式开庭审理，双方交换证据。被告孙海峰及代理人出席审理，而原告方刘菊花和代理律师则集体缺席。 刘菊花诉深大教授诽....",
"emailed" : False,
"forwarded" : False,
"english" : False
}  , {
"index" : 10,
"articleIndex" : "87254",
"favor" :  False ,
     "read" : False,    
"title" : "石天琦推短发写真 尽显知性冰美人范",
"titleTip" : "石天琦推短发写真 尽显知性冰美人范",
"titleSummary" : "石天琦推短发写真 尽显知性冰美人范",
"descSummary" : "新浪娱乐讯 近日，演员石天琦推最新知性写真，首次触电短发的石...",
"url" : "http:\/\/go.rss.sina.com.cn\/redirect.php?url=http:\/\/ent.sina.com.cn\/s\/m\/2013-10-29\/17554032943.shtml",
"pubDate" : "昨天17:55:00",
"enterDate" : "384200:51:21",
"channelId" : "3444374662253951299",
"channelName" : "内地明星-新浪娱乐",
"channelNameSummary" : "内地明星-新浪娱乐",
"channelUrl" : "http:\/\/ent.sina.com.cn\/star\/mainland\/more.html",
"author" : "WWW.SINA.COM.CN",
"tags" : [],
"desc" : "新浪娱乐讯 近日，演员石天琦推最新知性写真，首次触电短发的石天琦尽显干净利索的女强人风范，一身黑色长裤配金色护胸，在寒冷冬季透露着一丝的\u201C冰美人\u201D的性感与热情。",
"emailed" : False,
"forwarded" : False,
"english" : False
}  , {
"index" : 11,
"articleIndex" : "87253",
"favor" :  False ,
     "read" : False,    
"title" : "王珞丹曝择偶：纸上谈兵通常追不到我",
"titleTip" : "王珞丹曝择偶：纸上谈兵通常追不到我",
"titleSummary" : "王珞丹曝择偶：纸上谈兵通常追不到我",
"descSummary" : "最近遭遇知名编剧孔二狗追求的女星王珞丹，日前在做客姐姐王楚...",
"url" : "http:\/\/go.rss.sina.com.cn\/redirect.php?url=http:\/\/ent.sina.com.cn\/s\/m\/2013-10-29\/17094032905.shtml",
"pubDate" : "昨天17:09:22",
"enterDate" : "384201:05:52",
"channelId" : "3444374662253951299",
"channelName" : "内地明星-新浪娱乐",
"channelNameSummary" : "内地明星-新浪娱乐",
"channelUrl" : "http:\/\/ent.sina.com.cn\/star\/mainland\/more.html",
"author" : "WWW.SINA.COM.CN",
"tags" : [],
"desc" : "最近遭遇知名编剧孔二狗追求的女星王珞丹，日前在做客姐姐王楚函主持的《最佳现场》时，终于澄清两人的关系，直言自己跟他不是很熟。而一向搞怪的王珞丹不仅在节目中弄哭姐姐，更借调侃孔二狗的同时，透露自己选男友的标准是\u201C要让自己仰视\u201D，\u201C纸上谈兵通常追不到我\u201D。....",
"emailed" : False,
"forwarded" : False,
"english" : False
}  , {
"index" : 12,
"articleIndex" : "87252",
"favor" :  False ,
     "read" : False,    
"title" : "传陆川秦岚分手 《王的盛宴》成散伙饭？",
"titleTip" : "传陆川秦岚分手 《王的盛宴》成散伙饭？",
"titleSummary" : "传陆川秦岚分手 《王的盛宴》成散伙饭？",
"descSummary" : "娱乐圈进入结婚生子高潮，但依然有不少明星情侣要分道扬镳。...",
"url" : "http:\/\/go.rss.sina.com.cn\/redirect.php?url=http:\/\/ent.sina.com.cn\/s\/m\/2013-10-29\/16424032891.shtml",
"pubDate" : "昨天16:42:26",
"enterDate" : "384201:09:02",
"channelId" : "3444374662253951299",
"channelName" : "内地明星-新浪娱乐",
"channelNameSummary" : "内地明星-新浪娱乐",
"channelUrl" : "http:\/\/ent.sina.com.cn\/star\/mainland\/more.html",
"author" : "WWW.SINA.COM.CN",
"tags" : [],
"desc" : "娱乐圈进入结婚生子高潮，但依然有不少明星情侣要分道扬镳。10月28日传出消息，有娱乐圈\u201C才子佳人\u201D之称的陆川[微博]、秦岚[微博]各奔东西已有三个月，陆川工作室正在与秦岚进行工作上的\u201C切割\u201D。虽然对此陆川方面否认并表示\u201C我们很好\u201D，但是记者了解到两人确实是分手多时....",
"emailed" : False,
"forwarded" : False,
"english" : False
}  , {
"index" : 13,
"articleIndex" : "87251",
"favor" :  False ,
     "read" : False,    
"title" : "京城土豪聚会堪比海天盛筵遭网吐槽",
"titleTip" : "京城土豪聚会堪比海天盛筵遭网吐槽",
"titleSummary" : "京城土豪聚会堪比海天盛筵遭网吐槽",
"descSummary" : "深圳晚报讯 (记者 赵伟君) 曾经闹得轰轰烈烈的三亚\u201C海天盛筵\u201D，...",
"url" : "http:\/\/go.rss.sina.com.cn\/redirect.php?url=http:\/\/ent.sina.com.cn\/s\/m\/2013-10-29\/16394032888.shtml",
"pubDate" : "昨天16:39:09",
"enterDate" : "384201:05:45",
"channelId" : "3444374662253951299",
"channelName" : "内地明星-新浪娱乐",
"channelNameSummary" : "内地明星-新浪娱乐",
"channelUrl" : "http:\/\/ent.sina.com.cn\/star\/mainland\/more.html",
"author" : "WWW.SINA.COM.CN",
"tags" : [],
"desc" : "深圳晚报讯 (记者 赵伟君) 曾经闹得轰轰烈烈的三亚\u201C海天盛筵\u201D，有了青出于蓝胜于蓝的京城版。昨天，有网友发帖爆料，自己国庆期间跟着朋友混入京城五环外一神秘山庄，亲见各种土豪、富二代与各路明星大咖、各型号美女模特云集，饮酒狂欢。期间，大妞们豪放脱衫下泳池、玩游....",
"emailed" : False,
"forwarded" : False,
"english" : False
}  , {
"index" : 14,
"articleIndex" : "87250",
"favor" :  False ,
     "read" : False,    
"title" : "林依晨生日陈晓东送祝福称其\u201Cskygirl\u201D",
"titleTip" : "林依晨生日陈晓东送祝福称其\u201Cskygirl\u201D",
"titleSummary" : "林依晨生日陈晓东送祝福称其\u201Cskygirl\u201D",
"descSummary" : "新浪娱乐讯 今日(10月29日)林依晨生日，她虽人在英国游学，却...",
"url" : "http:\/\/go.rss.sina.com.cn\/redirect.php?url=http:\/\/ent.sina.com.cn\/s\/m\/2013-10-29\/16284032881.shtml",
"pubDate" : "昨天16:28:47",
"enterDate" : "384200:55:23",
"channelId" : "3444374662253951299",
"channelName" : "内地明星-新浪娱乐",
"channelNameSummary" : "内地明星-新浪娱乐",
"channelUrl" : "http:\/\/ent.sina.com.cn\/star\/mainland\/more.html",
"author" : "WWW.SINA.COM.CN",
"tags" : [],
"desc" : "新浪娱乐讯 今日(10月29日)林依晨生日，她虽人在英国游学，却常透过微博分享异乡求学生活，昨日(10月28日)她凌晨贴出人在法国艾菲尔铁塔前的照片，写着\u201C祝我生日快乐\u201D，提前放出生日假。陈晓东也立即微博温馨送祝福，称她是skygirl-\u201C天女\u201D，并用英文祝其\u201C一些顺利永远幸....",
"emailed" : False,
"forwarded" : False,
"english" : False
}  , {
"index" : 15,
"articleIndex" : "87249",
"favor" :  False ,
     "read" : False,    
"title" : "《我不是明星》高凌风带病为儿站台险摔倒",
"titleTip" : "《我不是明星》高凌风带病为儿站台险摔倒",
"titleSummary" : "《我不是明星》高凌风带病为儿站台险摔倒",
"descSummary" : "新浪娱乐讯 自去年十一月确诊罹患血癌(白血病)以来，高凌风...",
"url" : "http:\/\/go.rss.sina.com.cn\/redirect.php?url=http:\/\/ent.sina.com.cn\/s\/m\/2013-10-29\/16204032876.shtml",
"pubDate" : "昨天16:20:55",
"enterDate" : "384201:17:35",
"channelId" : "3444374662253951299",
"channelName" : "内地明星-新浪娱乐",
"channelNameSummary" : "内地明星-新浪娱乐",
"channelUrl" : "http:\/\/ent.sina.com.cn\/star\/mainland\/more.html",
"author" : "WWW.SINA.COM.CN",
"tags" : [],
"desc" : "新浪娱乐讯 自去年十一月确诊罹患血癌(白血病)以来，高凌风[微博]已经甚少出现在电视节目当中，昨日(10月28日)高凌风却带病现身杭州，为儿子宝弟参加的节目《我不是明星》站台助阵。现场不但全程站着录制，还不顾医生不能剧烈运动的劝告，和宝弟齐唱成名曲《燃烧吧！火鸟》，....",
"emailed" : False,
"forwarded" : False,
"english" : False
}  , {
"index" : 16,
"articleIndex" : "87248",
"favor" :  False ,
     "read" : False,    
"title" : "徐翠翠穿婚纱牵手刘欢助阵时装周(图)",
"titleTip" : "徐翠翠穿婚纱牵手刘欢助阵时装周(图)",
"titleSummary" : "徐翠翠穿婚纱牵手刘欢助阵时装周(图)",
"descSummary" : "新浪娱乐讯 近日，演员徐翠翠受邀参加中国国际时装周婚纱秀，导...",
"url" : "http:\/\/go.rss.sina.com.cn\/redirect.php?url=http:\/\/ent.sina.com.cn\/s\/m\/2013-10-29\/16094032866.shtml",
"pubDate" : "昨天16:09:40",
"enterDate" : "384201:06:20",
"channelId" : "3444374662253951299",
"channelName" : "内地明星-新浪娱乐",
"channelNameSummary" : "内地明星-新浪娱乐",
"channelUrl" : "http:\/\/ent.sina.com.cn\/star\/mainland\/more.html",
"author" : "WWW.SINA.COM.CN",
"tags" : [],
"desc" : "新浪娱乐讯 近日，演员徐翠翠受邀参加中国国际时装周婚纱秀，导演在徐翠翠出场前播放了《小爸爸》中徐翠翠饰演的小艾向齐大胜求婚的视频，随后作为压轴出场的徐翠翠与刘欢一出场变引发观众掌声和尖叫，将现场气氛引发到高潮。而徐翠翠高雅气质的婚纱更将她的好身材及甜蜜笑容....",
"emailed" : False,
"forwarded" : False,
"english" : False
}  , {
"index" : 17,
"articleIndex" : "87247",
"favor" :  False ,
     "read" : False,    
"title" : "老戏骨倪土签约新东家四季桃园",
"titleTip" : "老戏骨倪土签约新东家四季桃园",
"titleSummary" : "老戏骨倪土签约新东家四季桃园",
"descSummary" : "新浪娱乐讯 日前，内地实力派\u201C老戏骨\u201D倪土正式签约北京四季桃园公...",
"url" : "http:\/\/go.rss.sina.com.cn\/redirect.php?url=http:\/\/ent.sina.com.cn\/s\/m\/2013-10-29\/16024032862.shtml",
"pubDate" : "昨天16:02:30",
"enterDate" : "384200:59:10",
"channelId" : "3444374662253951299",
"channelName" : "内地明星-新浪娱乐",
"channelNameSummary" : "内地明星-新浪娱乐",
"channelUrl" : "http:\/\/ent.sina.com.cn\/star\/mainland\/more.html",
"author" : "WWW.SINA.COM.CN",
"tags" : [],
"desc" : "新浪娱乐讯 日前，内地实力派\u201C老戏骨\u201D倪土正式签约北京四季桃园公司。其参演电视剧《工人大院》刚刚在北京台热播完，另一部电视剧《纯真的年代》又将接档于30日起在江西卫视黄金时间播出。此次在质与量都双丰收的前提下签约公司，演员倪土表示，希望通过与该公司的合作，展....",
"emailed" : False,
"forwarded" : False,
"english" : False
}  , {
"index" : 18,
"articleIndex" : "87246",
"favor" :  False ,
     "read" : False,    
"title" : "张倬闻演绎少年英雄 新戏阐述少林精神",
"titleTip" : "张倬闻演绎少年英雄 新戏阐述少林精神",
"titleSummary" : "张倬闻演绎少年英雄 新戏阐述少林精神",
"descSummary" : "新浪娱乐讯 日前，由香港著名导演马玉辉执导的功夫武侠巨制《...",
"url" : "http:\/\/go.rss.sina.com.cn\/redirect.php?url=http:\/\/ent.sina.com.cn\/s\/m\/2013-10-29\/15484032836.shtml",
"pubDate" : "昨天15:48:43",
"enterDate" : "384201:15:26",
"channelId" : "3444374662253951299",
"channelName" : "内地明星-新浪娱乐",
"channelNameSummary" : "内地明星-新浪娱乐",
"channelUrl" : "http:\/\/ent.sina.com.cn\/star\/mainland\/more.html",
"author" : "WWW.SINA.COM.CN",
"tags" : [],
"desc" : "新浪娱乐讯 日前，由香港著名导演马玉辉执导的功夫武侠巨制《少林藏经阁》在横店影视城隆重开机，现下转战象山影视城取景拍摄。人气偶像张倬闻在剧中饰演男一号魏子豪。 该剧以男主人公魏子豪的传奇故事为主线，弘扬了惩恶扬善、保家卫国的少林精神。剧中，魏子豪(张倬....",
"emailed" : False,
"forwarded" : False,
"english" : False
}  , {
"index" : 19,
"articleIndex" : "87245",
"favor" :  False ,
     "read" : False,    
"title" : "陆川顶风作答单方面否认与秦岚分手",
"titleTip" : "陆川顶风作答单方面否认与秦岚分手",
"titleSummary" : "陆川顶风作答单方面否认与秦岚分手",
"descSummary" : "天府早报记者雍铃子周琴 自合作 《南京南京》结缘后，陆川[微博]...",
"url" : "http:\/\/go.rss.sina.com.cn\/redirect.php?url=http:\/\/ent.sina.com.cn\/s\/m\/2013-10-29\/15374032824.shtml",
"pubDate" : "昨天15:37:24",
"enterDate" : "384201:04:07",
"channelId" : "3444374662253951299",
"channelName" : "内地明星-新浪娱乐",
"channelNameSummary" : "内地明星-新浪娱乐",
"channelUrl" : "http:\/\/ent.sina.com.cn\/star\/mainland\/more.html",
"author" : "WWW.SINA.COM.CN",
"tags" : [],
"desc" : "天府早报记者雍铃子周琴 自合作&#160;《南京南京》结缘后，陆川[微博]和秦岚[微博]的恋情便备受关注，可惜两人的婚期一直遥遥无期。而在27日晚，有媒体在其官方微博上爆料称，这对才子佳人早已分道扬镳，两人分手的原因是男方想要结婚，而女方不愿意安定。对此，陆川昨....",
"emailed" : False,
"forwarded" : False,
"english" : False
} ]
}
