{
"mode" : {"viewTitle" : 1,   "viewNew" : 0,  "pageIndex" : 1 },
 "channel" : {"id" : "3400579628982409496", "booked" : False, "subNumber" : 96818, "name" : "新闻要闻-新浪新闻", "url" : "http:\/\/roll.news.sina.com.cn\/s\/", "feed" : "http:\/\/rss.sina.com.cn\/news\/marquee\/ddt.xml", "author" : "WWW.SINA.COM.CN", "desc" : "新闻中心-新闻要闻", "imageUrl" : "http:\/\/www.sinaimg.cn\/home\/deco\/2009\/0330\/logo_home_news.gif", "postPerWeek" : "1260", "lastCrawTime" : "17:05:50", "crawDateTime" : "17:05:50", "lastHttpCode" : "200"}, "page" : {
"startIndex" : 0,
"totalCount" : 5000,
"pageIndex" : 1,
"lastPage" : 250,
"pageSize" : 20,
"english" :  False },
 "unreadNum" : 0, "shotIndex" : -1,
"articles" : [
{
"index" : 0,
"articleIndex" : "78791",
"favor" :  False ,
     "read" : False,    
"title" : "[科技]天猫公布\u201C双十一\u201D价格规则(10\/30 16:44)",
"titleTip" : "[科技]天猫公布\u201C双十一\u201D价格规则(10\/30 16:44)",
"titleSummary" : "[科技]天猫公布\u201C双十一\u201D价格规则(10\/30 16:44)",
"descSummary" : "新浪科技讯 10月30日下午消息，天猫今日公布了今年\u201C...",
"url" : "http:\/\/go.rss.sina.com.cn\/redirect.php?url=http:\/\/tech.sina.com.cn\/i\/2013-10-30\/16448868338.shtml",
"pubDate" : "16:44:00",
"enterDate" : "384200:57:04",
"channelId" : "3400579628982409496",
"channelName" : "新闻要闻-新浪新闻",
"channelNameSummary" : "新闻要闻-新浪新闻",
"channelUrl" : "http:\/\/roll.news.sina.com.cn\/s\/",
"author" : "WWW.SINA.COM.CN",
"tags" : [],
"desc" : "新浪科技讯 10月30日下午消息，天猫今日公布了今年\u201C双十一\u201D的价格规则。根据规则，所有参加\u201C双十一\u201D的商品价格必须是最近50天(9月15日至11月10日)内最优惠。这一时间段比去年承诺的30天有所延长。 根据官方提供的数据，今年参加\u201C双十一\u201D的商家数量从去年的1万家....",
"emailed" : False,
"forwarded" : False,
"english" : False
}  , {
"index" : 1,
"articleIndex" : "78790",
"favor" :  False ,
     "read" : False,    
"title" : "[股市]权重酝酿全面反击战 十大博客看后市(10\/30 16:40)",
"titleTip" : "[股市]权重酝酿全面反击战 十大博客看后市(10\/30 16:40)",
"titleSummary" : "[股市]权重酝酿全面反击战 十大博客看后市(10\/30 16:40)",
"descSummary" : "新浪财经讯 早盘沪指低开后震荡走高，石油、电...",
"url" : "http:\/\/go.rss.sina.com.cn\/redirect.php?url=http:\/\/finance.sina.com.cn\/stock\/y\/20131030\/164017167459.shtml",
"pubDate" : "16:40:28",
"enterDate" : "384200:53:32",
"channelId" : "3400579628982409496",
"channelName" : "新闻要闻-新浪新闻",
"channelNameSummary" : "新闻要闻-新浪新闻",
"channelUrl" : "http:\/\/roll.news.sina.com.cn\/s\/",
"author" : "WWW.SINA.COM.CN",
"tags" : [],
"desc" : "新浪财经讯 早盘沪指低开后震荡走高，石油、电力、有色、保险等权重板块集体上攻，股指快速走高，个股普涨，石油电力板块强势大涨，连续调整的文化传媒板块也出现了止跌回升，股指收复60日均线后维持震荡走势，临近午间收盘，银行、券商等发力上攻，大盘直线拉升。午后大盘延....",
"emailed" : False,
"forwarded" : False,
"english" : False
}  , {
"index" : 2,
"articleIndex" : "78789",
"favor" :  False ,
     "read" : False,    
"title" : "[体育]16岁黑马终结!国锦赛傅家俊6-2赵心童 轰4杆60+(10\/30 16:37)",
"titleTip" : "[体育]16岁黑马终结!国锦赛傅家俊6-2赵心童 轰4杆60+(10\/30 16:37)",
"titleSummary" : "[体育]16岁黑马终结!国锦赛傅家俊6-2赵心童 轰4杆60+(10\/30 16:37)",
"descSummary" : "北京时间10月30日下午，2013年世界...",
"url" : "http:\/\/go.rss.sina.com.cn\/redirect.php?url=http:\/\/sports.sina.com.cn\/o\/2013-10-30\/16376858724.shtml",
"pubDate" : "16:37:41",
"enterDate" : "384200:50:45",
"channelId" : "3400579628982409496",
"channelName" : "新闻要闻-新浪新闻",
"channelNameSummary" : "新闻要闻-新浪新闻",
"channelUrl" : "http:\/\/roll.news.sina.com.cn\/s\/",
"author" : "WWW.SINA.COM.CN",
"tags" : [],
"desc" : "北京时间10月30日下午，2013年世界斯诺克国际锦标赛在四川成都东区音乐公园继续进行。1\/8决赛的德比战，天才小将赵心童虽然频频打进精准远台，无奈经验欠缺而得分不多。傅家俊1杆破百4杆60+，6-2终结了他的黑马之旅。1\/4决赛傅家俊将对阵塞尔比和宾汉姆的胜者。 本赛季....",
"emailed" : False,
"forwarded" : False,
"english" : False
}  , {
"index" : 3,
"articleIndex" : "78788",
"favor" :  False ,
     "read" : False,    
"title" : "[财经]盖茨的新邻居多是中国人 海外买楼偏爱豪宅(10\/30 16:36)",
"titleTip" : "[财经]盖茨的新邻居多是中国人 海外买楼偏爱豪宅(10\/30 16:36)",
"titleSummary" : "[财经]盖茨的新邻居多是中国人 海外买楼偏爱豪宅(10\/30 16:36)",
"descSummary" : "世界首富比尔・盖茨面湖而建的6000万美...",
"url" : "http:\/\/go.rss.sina.com.cn\/redirect.php?url=http:\/\/finance.sina.com.cn\/money\/cfgs\/20131030\/163617167422.shtml",
"pubDate" : "16:36:49",
"enterDate" : "384200:49:53",
"channelId" : "3400579628982409496",
"channelName" : "新闻要闻-新浪新闻",
"channelNameSummary" : "新闻要闻-新浪新闻",
"channelUrl" : "http:\/\/roll.news.sina.com.cn\/s\/",
"author" : "WWW.SINA.COM.CN",
"tags" : [],
"desc" : "世界首富比尔・盖茨面湖而建的6000万美元豪宅，被誉为美国除白宫外最受瞩目的名人官邸。而今，比尔・盖茨的新邻居中出现越来越多的中国人。受楼市调控的影响，海外置业一年多来轮番掀起高潮。和国内类似，中国人海外买楼同样偏爱豪宅和学区房。&#160; 500万美元做比尔....",
"emailed" : False,
"forwarded" : False,
"english" : False
}  , {
"index" : 4,
"articleIndex" : "78787",
"favor" :  False ,
     "read" : False,    
"title" : "[体育]正视频播国锦赛罗伯逊-艾伯顿 20时视频播丁俊晖(10\/30 16:35)",
"titleTip" : "[体育]正视频播国锦赛罗伯逊-艾伯顿 20时视频播丁俊晖(10\/30 16:35)",
"titleSummary" : "[体育]正视频播国锦赛罗伯逊-艾伯顿 20时视频播丁俊晖(10\/30 16:35)",
"descSummary" : "北京时间10月30日，2013年世界斯...",
"url" : "http:\/\/go.rss.sina.com.cn\/redirect.php?url=http:\/\/sports.sina.com.cn\/o\/2013-10-30\/01146857273.shtml",
"pubDate" : "16:35:00",
"enterDate" : "384200:48:04",
"channelId" : "3400579628982409496",
"channelName" : "新闻要闻-新浪新闻",
"channelNameSummary" : "新闻要闻-新浪新闻",
"channelUrl" : "http:\/\/roll.news.sina.com.cn\/s\/",
"author" : "WWW.SINA.COM.CN",
"tags" : [],
"desc" : "北京时间10月30日，2013年世界斯诺克国际锦标赛将进入第4比赛日的较量，这一天将举行全部8场正赛第三轮比赛，中国有4名球手将冲击3个8强席位，其中傅家俊将和赵心童上演本届比赛第4场中国德比，而丁俊晖和梁文博将各自迎战一名TOP16球手。 &gt;&gt;&gt;&gt;国锦赛第三....",
"emailed" : False,
"forwarded" : False,
"english" : False
}  , {
"index" : 5,
"articleIndex" : "78786",
"favor" :  False ,
     "read" : False,    
"title" : "[国内]习近平：加快推进住房保障和供应体系建设(10\/30 16:34)",
"titleTip" : "[国内]习近平：加快推进住房保障和供应体系建设(10\/30 16:34)",
"titleSummary" : "[国内]习近平：加快推进住房保障和供应体系建设(10\/30 16:34)",
"descSummary" : "原标题：习近平在中共中央政治局第十次集...",
"url" : "http:\/\/go.rss.sina.com.cn\/redirect.php?url=http:\/\/news.sina.com.cn\/c\/2013-10-30\/163428574111.shtml",
"pubDate" : "16:34:24",
"enterDate" : "384200:47:28",
"channelId" : "3400579628982409496",
"channelName" : "新闻要闻-新浪新闻",
"channelNameSummary" : "新闻要闻-新浪新闻",
"channelUrl" : "http:\/\/roll.news.sina.com.cn\/s\/",
"author" : "WWW.SINA.COM.CN",
"tags" : [],
"desc" : "原标题：习近平在中共中央政治局第十次集体学习时强调 加快推进住房保障和供应体系建设 不断实现全体人民住有所居的目标 新华网北京10月30日电&#160; 中共中央政治局10月29日下午就加快推进住房保障体系和供应体系建设进行第十次集体学习。中共中央总书记习近平在主持....",
"emailed" : False,
"forwarded" : False,
"english" : False
}  , {
"index" : 6,
"articleIndex" : "78785",
"favor" :  False ,
     "read" : False,    
"title" : "[国内]暴力拆迁的N个柔性变身:搞株连打突击拆违建(10\/30 16:22)",
"titleTip" : "[国内]暴力拆迁的N个柔性变身:搞株连打突击拆违建(10\/30 16:22)",
"titleSummary" : "[国内]暴力拆迁的N个柔性变身:搞株连打突击拆违建(10\/30 16:22)",
"descSummary" : "搞株连 打突击 拆违建--揭示暴力拆迁的...",
"url" : "http:\/\/go.rss.sina.com.cn\/redirect.php?url=http:\/\/news.sina.com.cn\/c\/2013-10-30\/162228574024.shtml",
"pubDate" : "16:22:48",
"enterDate" : "384200:35:52",
"channelId" : "3400579628982409496",
"channelName" : "新闻要闻-新浪新闻",
"channelNameSummary" : "新闻要闻-新浪新闻",
"channelUrl" : "http:\/\/roll.news.sina.com.cn\/s\/",
"author" : "WWW.SINA.COM.CN",
"tags" : [],
"desc" : "搞株连 打突击 拆违建\u2015\u2015揭示暴力拆迁的N个\u201C柔性变身\u201D 新华网广州10月30日电 (记者 叶前)暴力拆迁征地是近年来社会经济发展中一个老问题，国务院新拆迁条例已于两年前废止行政强拆。然而，强拆行为在一些地方仍没有得到根除，反而随着用地趋紧的形势，手段更加隐蔽....",
"emailed" : False,
"forwarded" : False,
"english" : False
}  , {
"index" : 7,
"articleIndex" : "78783",
"favor" :  False ,
     "read" : False,    
"title" : "[国内]习近平:推进住房保障建设是住有所居必然要求(10\/30 16:20)",
"titleTip" : "[国内]习近平:推进住房保障建设是住有所居必然要求(10\/30 16:20)",
"titleSummary" : "[国内]习近平:推进住房保障建设是住有所居必然要求(10\/30 16:20)",
"descSummary" : "中共中央政治局昨天下午进行第十次集体...",
"url" : "http:\/\/go.rss.sina.com.cn\/redirect.php?url=http:\/\/news.sina.com.cn\/c\/2013-10-30\/162028573910.shtml",
"pubDate" : "16:20:17",
"enterDate" : "384201:03:26",
"channelId" : "3400579628982409496",
"channelName" : "新闻要闻-新浪新闻",
"channelNameSummary" : "新闻要闻-新浪新闻",
"channelUrl" : "http:\/\/roll.news.sina.com.cn\/s\/",
"author" : "WWW.SINA.COM.CN",
"tags" : [],
"desc" : "中共中央政治局昨天下午进行第十次集体学习。习近平强调，加快推进住房保障和供应体系建设，是满足群众基本住房需求、实现全体人民住有所居目标的重要任务，是促进社会公平正义、保证人民群众共享改革发展成果的必然要求。",
"emailed" : False,
"forwarded" : False,
"english" : False
}  , {
"index" : 8,
"articleIndex" : "78782",
"favor" :  False ,
     "read" : False,    
"title" : "[体育]郎平不为女排打分称目的达到 亚锦赛比预想打得差(10\/30 16:01)",
"titleTip" : "[体育]郎平不为女排打分称目的达到 亚锦赛比预想打得差(10\/30 16:01)",
"titleSummary" : "[体育]郎平不为女排打分称目的达到 亚锦赛比预想打得差(10\/30 16:01)",
"descSummary" : "北京时间10月30日，中国女排[微博...",
"url" : "http:\/\/go.rss.sina.com.cn\/redirect.php?url=http:\/\/sports.sina.com.cn\/o\/2013-10-30\/16016858683.shtml",
"pubDate" : "16:01:43",
"enterDate" : "384200:44:52",
"channelId" : "3400579628982409496",
"channelName" : "新闻要闻-新浪新闻",
"channelNameSummary" : "新闻要闻-新浪新闻",
"channelUrl" : "http:\/\/roll.news.sina.com.cn\/s\/",
"author" : "WWW.SINA.COM.CN",
"tags" : [],
"desc" : "北京时间10月30日，中国女排[微博]三期集训在国家体育总局训练局排管中心进行了一堂媒体公开训练课，这是中国女排在结束了国际赛场的征战后鲜有地进行集中训练。在被要求对中国女排今年全年的表现打分时，郎平[微博]说：\u201C不打分，我们的目的达到了，成绩是球员进步了。我没有....",
"emailed" : False,
"forwarded" : False,
"english" : False
}  , {
"index" : 9,
"articleIndex" : "78781",
"favor" :  False ,
     "read" : False,    
"title" : "[科技]英特尔将代工首款64位四核ARM处理器(10\/30 16:00)",
"titleTip" : "[科技]英特尔将代工首款64位四核ARM处理器(10\/30 16:00)",
"titleSummary" : "[科技]英特尔将代工首款64位四核ARM处理器(10\/30 16:00)",
"descSummary" : "新浪科技讯 北京时间10月30日下午消息，美国...",
"url" : "http:\/\/go.rss.sina.com.cn\/redirect.php?url=http:\/\/tech.sina.com.cn\/it\/2013-10-30\/16008868205.shtml",
"pubDate" : "16:00:26",
"enterDate" : "384201:13:40",
"channelId" : "3400579628982409496",
"channelName" : "新闻要闻-新浪新闻",
"channelNameSummary" : "新闻要闻-新浪新闻",
"channelUrl" : "http:\/\/roll.news.sina.com.cn\/s\/",
"author" : "WWW.SINA.COM.CN",
"tags" : [],
"desc" : "新浪科技讯 北京时间10月30日下午消息，美国芯片制造商Altera周二宣布，该公司的Stratix 10 SoC(片上系统)将整合\u201C高性能四核64位ARM&#160;Cortex-A53处理器\u201D。而具有讽刺意味的是，这款产品将由英特尔代工。 据悉，英特尔将使用目前最先进的14纳米制造工艺生产这款芯片，....",
"emailed" : False,
"forwarded" : False,
"english" : False
}  , {
"index" : 10,
"articleIndex" : "78780",
"favor" :  False ,
     "read" : False,    
"title" : "[国内]习近平:加快推进住房保障建设 处理好4个关系(10\/30 15:57)",
"titleTip" : "[国内]习近平:加快推进住房保障建设 处理好4个关系(10\/30 15:57)",
"titleSummary" : "[国内]习近平:加快推进住房保障建设 处理好4个关系(10\/30 15:57)",
"descSummary" : "中共中央政治局29日就加快推进住房保...",
"url" : "http:\/\/go.rss.sina.com.cn\/redirect.php?url=http:\/\/news.sina.com.cn\/c\/2013-10-30\/155728573745.shtml",
"pubDate" : "15:57:33",
"enterDate" : "384201:10:47",
"channelId" : "3400579628982409496",
"channelName" : "新闻要闻-新浪新闻",
"channelNameSummary" : "新闻要闻-新浪新闻",
"channelUrl" : "http:\/\/roll.news.sina.com.cn\/s\/",
"author" : "WWW.SINA.COM.CN",
"tags" : [],
"desc" : "中共中央政治局29日就加快推进住房保障体系和供应体系建设进行集体学习。习近平指出，加快推进住房保障和供应体系建设，要处理好政府提供公共服务和市场化的关系、住房发展的经济功能和社会功能的关系、需要和可能的关系、住房保障和防止福利陷阱的关系。",
"emailed" : False,
"forwarded" : False,
"english" : False
}  , {
"index" : 11,
"articleIndex" : "78779",
"favor" :  False ,
     "read" : False,    
"title" : "[财经]国人海外买楼偏爱学区房 盖茨新邻居多是中国人(10\/30 15:49)",
"titleTip" : "[财经]国人海外买楼偏爱学区房 盖茨新邻居多是中国人(10\/30 15:49)",
"titleSummary" : "[财经]国人海外买楼偏爱学区房 盖茨新邻居多是中国人(10\/30 15:49)",
"descSummary" : "国人海外买楼偏爱豪宅和学区房 世界...",
"url" : "http:\/\/go.rss.sina.com.cn\/redirect.php?url=http:\/\/finance.sina.com.cn\/china\/20131030\/154917166803.shtml",
"pubDate" : "15:49:19",
"enterDate" : "384201:02:33",
"channelId" : "3400579628982409496",
"channelName" : "新闻要闻-新浪新闻",
"channelNameSummary" : "新闻要闻-新浪新闻",
"channelUrl" : "http:\/\/roll.news.sina.com.cn\/s\/",
"author" : "WWW.SINA.COM.CN",
"tags" : [],
"desc" : "国人海外买楼偏爱豪宅和学区房 世界首富比尔・盖茨面湖而建的6000万美元豪宅，被誉为美国除白宫外最受瞩目的名人官邸。而今，比尔・盖茨的新邻居中出现越来越多的中国人。受楼市调控的影响，海外置业一年多来轮番掀起高潮。和国内类似，中国人海外买楼同样偏爱豪宅和学....",
"emailed" : False,
"forwarded" : False,
"english" : False
}  , {
"index" : 12,
"articleIndex" : "78778",
"favor" :  False ,
     "read" : False,    
"title" : "[体育]许家印搞足校看中\u201C金矿\u201D 新口号:不上北大上恒大(10\/30 15:49)",
"titleTip" : "[体育]许家印搞足校看中\u201C金矿\u201D 新口号:不上北大上恒大(10\/30 15:49)",
"titleSummary" : "[体育]许家印搞足校看中\u201C金矿\u201D 新口号:不上北大上恒大(10\/30 15:49)",
"descSummary" : "从大红大紫 到绝迹归零 1995年的...",
"url" : "http:\/\/go.rss.sina.com.cn\/redirect.php?url=http:\/\/sports.sina.com.cn\/j\/2013-10-30\/15496858665.shtml",
"pubDate" : "15:49:11",
"enterDate" : "384201:02:25",
"channelId" : "3400579628982409496",
"channelName" : "新闻要闻-新浪新闻",
"channelNameSummary" : "新闻要闻-新浪新闻",
"channelUrl" : "http:\/\/roll.news.sina.com.cn\/s\/",
"author" : "WWW.SINA.COM.CN",
"tags" : [],
"desc" : "从大红大紫&#160;&#160;到绝迹归零 1995年的甲A联赛掀起了中国职业足球的第一次浪潮。随之而来的，是各个城市如雨后春笋般出现的足校。仅北京足协注册有案可查的足校，上个世纪90年代的鼎盛时期就有500多所。现在的中超球星黄博文、张稀哲[微博][微博]等人都曾是中国足....",
"emailed" : False,
"forwarded" : False,
"english" : False
}  , {
"index" : 13,
"articleIndex" : "78777",
"favor" :  False ,
     "read" : False,    
"title" : "[股市]明日股市三大猜想及应对策略(10\/30 15:43)",
"titleTip" : "[股市]明日股市三大猜想及应对策略(10\/30 15:43)",
"titleSummary" : "[股市]明日股市三大猜想及应对策略(10\/30 15:43)",
"descSummary" : "大势猜想：反弹或10日线受阻？实现概率：75% 具体理...",
"url" : "http:\/\/go.rss.sina.com.cn\/redirect.php?url=http:\/\/finance.sina.com.cn\/stock\/jsy\/20131030\/154317166767.shtml",
"pubDate" : "15:43:56",
"enterDate" : "384200:57:10",
"channelId" : "3400579628982409496",
"channelName" : "新闻要闻-新浪新闻",
"channelNameSummary" : "新闻要闻-新浪新闻",
"channelUrl" : "http:\/\/roll.news.sina.com.cn\/s\/",
"author" : "WWW.SINA.COM.CN",
"tags" : [],
"desc" : "大势猜想：反弹或10日线受阻？ 实现概率：75% 具体理由：6连阴之后，大盘迎来强势反弹，两市普涨，截至收盘，上综指报2160.46点，上涨1.48%；深成指报8553.37点，上涨1.84%。板块方面：天津自贸区、页岩气、合成革、电力、林业、特钢等板块涨幅居前，园区开发下....",
"emailed" : False,
"forwarded" : False,
"english" : False
}  , {
"index" : 14,
"articleIndex" : "78776",
"favor" :  False ,
     "read" : False,    
"title" : "[体育]美国专家持续看低王哲林 选秀排名3次下滑至81位(10\/30 15:41)",
"titleTip" : "[体育]美国专家持续看低王哲林 选秀排名3次下滑至81位(10\/30 15:41)",
"titleSummary" : "[体育]美国专家持续看低王哲林 选秀排名3次下滑至81位(10\/30 15:41)",
"descSummary" : "北京时间10月30日消息，美国权威...",
"url" : "http:\/\/go.rss.sina.com.cn\/redirect.php?url=http:\/\/sports.sina.com.cn\/cba\/2013-10-30\/15416858658.shtml",
"pubDate" : "15:41:42",
"enterDate" : "384200:54:56",
"channelId" : "3400579628982409496",
"channelName" : "新闻要闻-新浪新闻",
"channelNameSummary" : "新闻要闻-新浪新闻",
"channelUrl" : "http:\/\/roll.news.sina.com.cn\/s\/",
"author" : "WWW.SINA.COM.CN",
"tags" : [],
"desc" : "北京时间10月30日消息，美国权威选秀网站《Draft Express》更新了全球百强新秀\u201CTop 100 \u201D名单，来自福建队的中锋王哲林[微博]继续出现在这份榜单当中，不过他的排名相比之前有所下滑，在所有球员中排第81位，而在国际球员排名中则是第17位。 虽然依旧是全亚洲唯一一....",
"emailed" : False,
"forwarded" : False,
"english" : False
}  , {
"index" : 15,
"articleIndex" : "78774",
"favor" :  False ,
     "read" : False,    
"title" : "[播客]独家实拍：我那永远跪着的母亲(11\/07 22:10)",
"titleTip" : "[播客]独家实拍：我那永远跪着的母亲(11\/07 22:10)",
"titleSummary" : "[播客]独家实拍：我那永远跪着的母亲(11\/07 22:10)",
"descSummary" : "独家实拍：我那永远跪着的母亲",
"url" : "http:\/\/go.rss.sina.com.cn\/redirect.php?url=http:\/\/you.video.sina.com.cn\/b\/16972162-1239095354.html",
"pubDate" : "15:35:35",
"enterDate" : "384201:18:54",
"channelId" : "3400579628982409496",
"channelName" : "新闻要闻-新浪新闻",
"channelNameSummary" : "新闻要闻-新浪新闻",
"channelUrl" : "http:\/\/roll.news.sina.com.cn\/s\/",
"author" : "WWW.SINA.COM.CN",
"tags" : [],
"desc" : "独家实拍：我那永远跪着的母亲",
"emailed" : False,
"forwarded" : False,
"english" : False
}  , {
"index" : 16,
"articleIndex" : "78773",
"favor" :  False ,
     "read" : False,    
"title" : "[国内]我军大校称中国无人机若被击落 将打掉肇事日机(10\/30 15:22)",
"titleTip" : "[国内]我军大校称中国无人机若被击落 将打掉肇事日机(10\/30 15:22)",
"titleSummary" : "[国内]我军大校称中国无人机若被击落 将打掉肇事日机(10\/30 15:22)",
"descSummary" : "",
"url" : "http:\/\/go.rss.sina.com.cn\/redirect.php?url=http:\/\/mil.news.sina.com.cn\/2013-10-30\/1004746997.html",
"pubDate" : "15:22:46",
"enterDate" : "384201:06:05",
"channelId" : "3400579628982409496",
"channelName" : "新闻要闻-新浪新闻",
"channelNameSummary" : "新闻要闻-新浪新闻",
"channelUrl" : "http:\/\/roll.news.sina.com.cn\/s\/",
"author" : "WWW.SINA.COM.CN",
"tags" : [],
"desc" : "",
"emailed" : False,
"forwarded" : False,
"english" : False
}  , {
"index" : 17,
"articleIndex" : "78772",
"favor" :  False ,
     "read" : False,    
"title" : "[国际]土耳其：若与中国磋商失败将重新招标反导系统(10\/30 15:17)",
"titleTip" : "[国际]土耳其：若与中国磋商失败将重新招标反导系统(10\/30 15:17)",
"titleSummary" : "[国际]土耳其：若与中国磋商失败将重新招标反导系统(10\/30 15:17)",
"descSummary" : "",
"url" : "http:\/\/go.rss.sina.com.cn\/redirect.php?url=http:\/\/mil.news.sina.com.cn\/2013-10-30\/1145747028.html",
"pubDate" : "15:17:26",
"enterDate" : "384201:00:45",
"channelId" : "3400579628982409496",
"channelName" : "新闻要闻-新浪新闻",
"channelNameSummary" : "新闻要闻-新浪新闻",
"channelUrl" : "http:\/\/roll.news.sina.com.cn\/s\/",
"author" : "WWW.SINA.COM.CN",
"tags" : [],
"desc" : "",
"emailed" : False,
"forwarded" : False,
"english" : False
}  , {
"index" : 18,
"articleIndex" : "78775",
"favor" :  False ,
     "read" : False,    
"title" : "[国际]日本夺岛部队7成士兵受过高强度特种作战训练(10\/30 15:02)",
"titleTip" : "[国际]日本夺岛部队7成士兵受过高强度特种作战训练(10\/30 15:02)",
"titleSummary" : "[国际]日本夺岛部队7成士兵受过高强度特种作战训练(10\/30 15:02)",
"descSummary" : "",
"url" : "http:\/\/go.rss.sina.com.cn\/redirect.php?url=http:\/\/mil.news.sina.com.cn\/2013-10-30\/1459747036.html",
"pubDate" : "15:02:15",
"enterDate" : "384200:15:29",
"channelId" : "3400579628982409496",
"channelName" : "新闻要闻-新浪新闻",
"channelNameSummary" : "新闻要闻-新浪新闻",
"channelUrl" : "http:\/\/roll.news.sina.com.cn\/s\/",
"author" : "WWW.SINA.COM.CN",
"tags" : [],
"desc" : "",
"emailed" : False,
"forwarded" : False,
"english" : False
}  , {
"index" : 19,
"articleIndex" : "78784",
"favor" :  False ,
     "read" : False,    
"title" : "[科技]联想发布两款Yoga平板电脑：宣称全球最轻(10\/30 14:30)",
"titleTip" : "[科技]联想发布两款Yoga平板电脑：宣称全球最轻(10\/30 14:30)",
"titleSummary" : "[科技]联想发布两款Yoga平板电脑：宣称全球最轻(10\/30 14:30)",
"descSummary" : "新浪科技讯 10月30日下午消息，联想集团...",
"url" : "http:\/\/go.rss.sina.com.cn\/redirect.php?url=http:\/\/tech.sina.com.cn\/it\/2013-10-30\/14308867931.shtml",
"pubDate" : "14:30:24",
"enterDate" : "384198:43:28",
"channelId" : "3400579628982409496",
"channelName" : "新闻要闻-新浪新闻",
"channelNameSummary" : "新闻要闻-新浪新闻",
"channelUrl" : "http:\/\/roll.news.sina.com.cn\/s\/",
"author" : "WWW.SINA.COM.CN",
"tags" : [],
"desc" : "新浪科技讯 10月30日下午消息，联想集团昨天在美国正式发布其本年度最重要的产品\u2015\u2015Yoga平板电脑。这款搭载Android操作系统的平板电脑分为8英寸和10英寸两个版本，其中8英寸版售价249美元，10英寸版售价299美元，10月30日起上市发售。 Yoga平板电脑运行Android 4.2.2....",
"emailed" : False,
"forwarded" : False,
"english" : False
} ]
}
