{
"mode" : {"viewTitle" : 1,   "viewNew" : 0,  "pageIndex" : 2 },
 "channel" : {"id" : "3400579628982409496", "booked" : False, "subNumber" : 96818, "name" : "新闻要闻-新浪新闻", "url" : "http:\/\/roll.news.sina.com.cn\/s\/", "feed" : "http:\/\/rss.sina.com.cn\/news\/marquee\/ddt.xml", "author" : "WWW.SINA.COM.CN", "desc" : "新闻中心-新闻要闻", "imageUrl" : "http:\/\/www.sinaimg.cn\/home\/deco\/2009\/0330\/logo_home_news.gif", "postPerWeek" : "1260", "lastCrawTime" : "17:05:50", "crawDateTime" : "17:05:50", "lastHttpCode" : "200"}, "page" : {
"startIndex" : 20,
"totalCount" : 5000,
"pageIndex" : 2,
"lastPage" : 250,
"pageSize" : 20,
"english" :  False },
 "unreadNum" : 0, "shotIndex" : -1,
"articles" : [
{
"index" : 0,
"articleIndex" : "78771",
"favor" :  False ,
     "read" : False,    
"title" : "[体育]女排三训郎平看新人强化基本功 刘聪聪随队集训(10\/30 15:15)",
"titleTip" : "[体育]女排三训郎平看新人强化基本功 刘聪聪随队集训(10\/30 15:15)",
"titleSummary" : "[体育]女排三训郎平看新人强化基本功 刘聪聪随队集训(10\/30 15:15)",
"descSummary" : "北京时间10月30日，今天上午在国家...",
"url" : "http:\/\/go.rss.sina.com.cn\/redirect.php?url=http:\/\/sports.sina.com.cn\/o\/2013-10-30\/15156858649.shtml",
"pubDate" : "15:15:40",
"enterDate" : "384200:58:59",
"channelId" : "3400579628982409496",
"channelName" : "新闻要闻-新浪新闻",
"channelNameSummary" : "新闻要闻-新浪新闻",
"channelUrl" : "http:\/\/roll.news.sina.com.cn\/s\/",
"author" : "WWW.SINA.COM.CN",
"tags" : [],
"desc" : "北京时间10月30日，今天上午在国家体育总局训练局排球馆中国女排[微博]进行了一堂媒体公开训练课，\u201C郎三期\u201D的16名队员悉数到场。袁心h[微博]、黄柳燕、张晓雅[微博]、王琦、杨方旭\u2026\u2026这些国青、国少和U23世锦赛夺冠的核心球员加入中国女排第三期集训名单，在全运会上表现....",
"emailed" : False,
"forwarded" : False,
"english" : False
}  , {
"index" : 1,
"articleIndex" : "78770",
"favor" :  False ,
     "read" : False,    
"title" : "[财经]马年生肖金银纪念币上市 最大规格10公斤(10\/30 15:12)",
"titleTip" : "[财经]马年生肖金银纪念币上市 最大规格10公斤(10\/30 15:12)",
"titleSummary" : "[财经]马年生肖金银纪念币上市 最大规格10公斤(10\/30 15:12)",
"descSummary" : "马年生肖金银纪念币 重庆晚报讯 昨日，央...",
"url" : "http:\/\/go.rss.sina.com.cn\/redirect.php?url=http:\/\/finance.sina.com.cn\/money\/lczx\/20131030\/151217166356.shtml",
"pubDate" : "15:12:06",
"enterDate" : "384200:55:25",
"channelId" : "3400579628982409496",
"channelName" : "新闻要闻-新浪新闻",
"channelNameSummary" : "新闻要闻-新浪新闻",
"channelUrl" : "http:\/\/roll.news.sina.com.cn\/s\/",
"author" : "WWW.SINA.COM.CN",
"tags" : [],
"desc" : "■马年生肖金银纪念币 重庆晚报讯 昨日，央行发行的马年生肖金银纪念币在渝开卖，最小规格为1\/10盎司，最大为10公斤。 央行公告称，该套纪念币共16枚，其中金币9枚、银币7枚，均为法定货币。正面图案均为国徽，衬以连年有余吉祥纹饰，刊国名、年号。 作为马....",
"emailed" : False,
"forwarded" : False,
"english" : False
}  , {
"index" : 2,
"articleIndex" : "78769",
"favor" :  False ,
     "read" : False,    
"title" : "[股市]沪指震荡走高涨1.48% 天津自贸概念再现涨停潮(10\/30 15:04)",
"titleTip" : "[股市]沪指震荡走高涨1.48% 天津自贸概念再现涨停潮(10\/30 15:04)",
"titleSummary" : "[股市]沪指震荡走高涨1.48% 天津自贸概念再现涨停潮(10\/30 15:04)",
"descSummary" : "新浪财经讯 早盘沪指低开后震荡走高...",
"url" : "http:\/\/go.rss.sina.com.cn\/redirect.php?url=http:\/\/finance.sina.com.cn\/stock\/jsy\/20131030\/150417166178.shtml",
"pubDate" : "15:04:28",
"enterDate" : "384200:47:47",
"channelId" : "3400579628982409496",
"channelName" : "新闻要闻-新浪新闻",
"channelNameSummary" : "新闻要闻-新浪新闻",
"channelUrl" : "http:\/\/roll.news.sina.com.cn\/s\/",
"author" : "WWW.SINA.COM.CN",
"tags" : [],
"desc" : "新浪财经讯 早盘沪指低开后震荡走高，石油、电力、有色、保险等权重板块集体上攻，股指快速走高，个股普涨，石油电力板块强势大涨，连续调整的文化传媒板块也出现了止跌回升，股指收复60日均线后维持震荡走势，临近午间收盘，银行、券商等发力上攻，大盘直线拉升。午后大盘延....",
"emailed" : False,
"forwarded" : False,
"english" : False
}  , {
"index" : 3,
"articleIndex" : "78768",
"favor" :  False ,
     "read" : False,    
"title" : "[体育]视频-布达拉峰攀登预告片《加油!布达拉》(10\/30 15:02)",
"titleTip" : "[体育]视频-布达拉峰攀登预告片《加油!布达拉》(10\/30 15:02)",
"titleSummary" : "[体育]视频-布达拉峰攀登预告片《加油!布达拉》(10\/30 15:02)",
"descSummary" : "登山很难，高海拔大岩壁的攀登更难，这部...",
"url" : "http:\/\/go.rss.sina.com.cn\/redirect.php?url=http:\/\/video.sina.com.cn\/p\/sports\/outdoor\/v\/2013-10-30\/150263083791.html",
"pubDate" : "15:02:15",
"enterDate" : "384200:45:34",
"channelId" : "3400579628982409496",
"channelName" : "新闻要闻-新浪新闻",
"channelNameSummary" : "新闻要闻-新浪新闻",
"channelUrl" : "http:\/\/roll.news.sina.com.cn\/s\/",
"author" : "WWW.SINA.COM.CN",
"tags" : [],
"desc" : "登山很难，高海拔大岩壁的攀登更难，这部真实的纪录片除了提供给探险爱好者欣赏外，同时也希望更多普通人也一起来观看此影片，理解这份探险的精神。这是一次世界殿堂级路线的攀登，通过纪录片，我们会从国际顶尖的攀登者那里了解布达拉峰背后的故事。《加油！布达拉》的预告片出炉....",
"emailed" : False,
"forwarded" : False,
"english" : False
}  , {
"index" : 4,
"articleIndex" : "78767",
"favor" :  False ,
     "read" : False,    
"title" : "[国内]西安武汉长沙入围今日空气最差十大城市 (10\/30 14:58)",
"titleTip" : "[国内]西安武汉长沙入围今日空气最差十大城市 (10\/30 14:58)",
"titleSummary" : "[国内]西安武汉长沙入围今日空气最差十大城市 (10\/30 14:58)",
"descSummary" : "人民网北京10月30日电 (杨翼)截至今天早上...",
"url" : "http:\/\/go.rss.sina.com.cn\/redirect.php?url=http:\/\/news.sina.com.cn\/c\/2013-10-30\/145828572898.shtml",
"pubDate" : "14:58:32",
"enterDate" : "384200:41:51",
"channelId" : "3400579628982409496",
"channelName" : "新闻要闻-新浪新闻",
"channelNameSummary" : "新闻要闻-新浪新闻",
"channelUrl" : "http:\/\/roll.news.sina.com.cn\/s\/",
"author" : "WWW.SINA.COM.CN",
"tags" : [],
"desc" : "人民网北京10月30日电 (杨翼)截至今天早上6点，武汉的AQI达到422，PM2.5数值为383，成为74个公布PM2.5数据城市中空气质量最差的城市。今日空气质量最差10个城市分别是：武汉、呼和浩特、长沙、西安、保定、南昌、石家庄、唐山、肇庆、邢台。其中保定、石家庄、唐山、邢台等4个....",
"emailed" : False,
"forwarded" : False,
"english" : False
}  , {
"index" : 5,
"articleIndex" : "78766",
"favor" :  False ,
     "read" : False,    
"title" : "[国内]明年电视购物广告禁止叫卖式配音 晚间将禁播(10\/30 14:54)",
"titleTip" : "[国内]明年电视购物广告禁止叫卖式配音 晚间将禁播(10\/30 14:54)",
"titleSummary" : "[国内]明年电视购物广告禁止叫卖式配音 晚间将禁播(10\/30 14:54)",
"descSummary" : "人民网北京10月30日电(记者 仝宗莉)国...",
"url" : "http:\/\/go.rss.sina.com.cn\/redirect.php?url=http:\/\/news.sina.com.cn\/c\/2013-10-30\/145428572889.shtml",
"pubDate" : "14:54:54",
"enterDate" : "384201:08:18",
"channelId" : "3400579628982409496",
"channelName" : "新闻要闻-新浪新闻",
"channelNameSummary" : "新闻要闻-新浪新闻",
"channelUrl" : "http:\/\/roll.news.sina.com.cn\/s\/",
"author" : "WWW.SINA.COM.CN",
"tags" : [],
"desc" : "人民网北京10月30日电(记者 仝宗莉)国家新闻出版广电总局日前发布《关于进一步加强卫视频道播出电视购物短片广告管理工作的通知》，自2014年1月1日实施。《通知》明确，各卫视频道每天18点至24点时段内，不得播出电视购物短片广告。其他时段播出电视购物短片广告时，必须严格....",
"emailed" : False,
"forwarded" : False,
"english" : False
}  , {
"index" : 6,
"articleIndex" : "78765",
"favor" :  False ,
     "read" : False,    
"title" : "[国内]台湾频现\u201C跳跳哥\u201D：自撞车辆引擎盖碰瓷(10\/30 14:47)",
"titleTip" : "[国内]台湾频现\u201C跳跳哥\u201D：自撞车辆引擎盖碰瓷(10\/30 14:47)",
"titleSummary" : "[国内]台湾频现\u201C跳跳哥\u201D：自撞车辆引擎盖碰瓷(10\/30 14:47)",
"descSummary" : "中新网10月30日电 据台湾\u201C中央社\u201D报道...",
"url" : "http:\/\/go.rss.sina.com.cn\/redirect.php?url=http:\/\/news.sina.com.cn\/c\/2013-10-30\/144728572857.shtml",
"pubDate" : "14:47:57",
"enterDate" : "384201:01:21",
"channelId" : "3400579628982409496",
"channelName" : "新闻要闻-新浪新闻",
"channelNameSummary" : "新闻要闻-新浪新闻",
"channelUrl" : "http:\/\/roll.news.sina.com.cn\/s\/",
"author" : "WWW.SINA.COM.CN",
"tags" : [],
"desc" : "中新网10月30日电 据台湾\u201C中央社\u201D报道，高雄警方近来查获有\u201C扑垒哥\u201D突然冲出制造交通事故借机索赔，已分别依诈欺罪、公共危险罪侦办，今天吁请民众注意自保。 高雄市警察局刑警大队表示，在左营区荣总路等交通繁忙地带，有俗称\u201C扑垒哥\u201D、\u201C盗垒伯\u201D、\u201C跳跳哥\u201D....",
"emailed" : False,
"forwarded" : False,
"english" : False
}  , {
"index" : 7,
"articleIndex" : "78764",
"favor" :  False ,
     "read" : False,    
"title" : "[体育]王皓喜得贵子升级当爸爸 宝宝11点出生重7斤2两(10\/30 14:36)",
"titleTip" : "[体育]王皓喜得贵子升级当爸爸 宝宝11点出生重7斤2两(10\/30 14:36)",
"titleSummary" : "[体育]王皓喜得贵子升级当爸爸 宝宝11点出生重7斤2两(10\/30 14:36)",
"descSummary" : "北京时间10月30日，乒乓球[微博]名...",
"url" : "http:\/\/go.rss.sina.com.cn\/redirect.php?url=http:\/\/sports.sina.com.cn\/o\/2013-10-30\/14366858515.shtml",
"pubDate" : "14:36:08",
"enterDate" : "384200:49:32",
"channelId" : "3400579628982409496",
"channelName" : "新闻要闻-新浪新闻",
"channelNameSummary" : "新闻要闻-新浪新闻",
"channelUrl" : "http:\/\/roll.news.sina.com.cn\/s\/",
"author" : "WWW.SINA.COM.CN",
"tags" : [],
"desc" : "北京时间10月30日，乒乓球[微博]名将王皓微博透露自己于今早11点整喜得贵子，升级做父亲。 王皓与舞蹈演员闫博雅相恋多年，今年6月29日在长春举办了盛大的婚礼。妻子临产在即，王皓也尽可能地多陪在妻子身边。 今天王皓微博公布了喜讯：\u201C现在的心情才稍微平复....",
"emailed" : False,
"forwarded" : False,
"english" : False
}  , {
"index" : 8,
"articleIndex" : "78763",
"favor" :  False ,
     "read" : False,    
"title" : "[财经]住建部专家：楼市调控抑制投资性需求效果明显(10\/30 14:36)",
"titleTip" : "[财经]住建部专家：楼市调控抑制投资性需求效果明显(10\/30 14:36)",
"titleSummary" : "[财经]住建部专家：楼市调控抑制投资性需求效果明显(10\/30 14:36)",
"descSummary" : "中新网10月30日电 今年的楼市\u201C金九...",
"url" : "http:\/\/go.rss.sina.com.cn\/redirect.php?url=http:\/\/finance.sina.com.cn\/china\/20131030\/143617165977.shtml",
"pubDate" : "14:36:00",
"enterDate" : "384200:49:24",
"channelId" : "3400579628982409496",
"channelName" : "新闻要闻-新浪新闻",
"channelNameSummary" : "新闻要闻-新浪新闻",
"channelUrl" : "http:\/\/roll.news.sina.com.cn\/s\/",
"author" : "WWW.SINA.COM.CN",
"tags" : [],
"desc" : "中新网10月30日电 今年的楼市\u201C金九银十\u201D期间，全国多地住宅销售表现良好，伴随销售量的上涨，重点城市的房价也一路走高。与此同时，楼市调控也一直是民众关注的焦点，对此，住建部政策研究室房地产处处长、副研究员赵路兴做客中新网视频访谈时表示，从今年\u201C国五条\u201D以后的....",
"emailed" : False,
"forwarded" : False,
"english" : False
}  , {
"index" : 9,
"articleIndex" : "78762",
"favor" :  False ,
     "read" : False,    
"title" : "[体育]李章洙助教忆慧眼替恒大挖到穆里奇 贡献数他最高(10\/30 14:31)",
"titleTip" : "[体育]李章洙助教忆慧眼替恒大挖到穆里奇 贡献数他最高(10\/30 14:31)",
"titleSummary" : "[体育]李章洙助教忆慧眼替恒大挖到穆里奇 贡献数他最高(10\/30 14:31)",
"descSummary" : "27日下午，韩国K联赛第32轮打响，...",
"url" : "http:\/\/go.rss.sina.com.cn\/redirect.php?url=http:\/\/sports.sina.com.cn\/j\/2013-10-30\/14316858491.shtml",
"pubDate" : "14:31:53",
"enterDate" : "384200:45:17",
"channelId" : "3400579628982409496",
"channelName" : "新闻要闻-新浪新闻",
"channelNameSummary" : "新闻要闻-新浪新闻",
"channelUrl" : "http:\/\/roll.news.sina.com.cn\/s\/",
"author" : "WWW.SINA.COM.CN",
"tags" : [],
"desc" : "27日下午，韩国K联赛第32轮打响，金龙甲赛季中途接手的江源FC主场2-1险胜全南天龙，近期取得3胜1平的不俗战绩，让濒临降级的江源FC看见曙光。赛后，作为广州恒大[微博]的前首席助教，金龙甲终于有心思坐下来聊聊关于亚冠首回合决赛的感受。他表示，首尔FC先进球，然后被恒大扳....",
"emailed" : False,
"forwarded" : False,
"english" : False
}  , {
"index" : 10,
"articleIndex" : "78761",
"favor" :  False ,
     "read" : False,    
"title" : "[体育]篮协出台女篮球员转会价格 国手5万普通球员仅2万(10\/30 14:25)",
"titleTip" : "[体育]篮协出台女篮球员转会价格 国手5万普通球员仅2万(10\/30 14:25)",
"titleSummary" : "[体育]篮协出台女篮球员转会价格 国手5万普通球员仅2万(10\/30 14:25)",
"descSummary" : "日前，中国篮协下发了一份《关于...",
"url" : "http:\/\/go.rss.sina.com.cn\/redirect.php?url=http:\/\/sports.sina.com.cn\/cba\/2013-10-30\/14256858485.shtml",
"pubDate" : "14:25:58",
"enterDate" : "384201:09:27",
"channelId" : "3400579628982409496",
"channelName" : "新闻要闻-新浪新闻",
"channelNameSummary" : "新闻要闻-新浪新闻",
"channelUrl" : "http:\/\/roll.news.sina.com.cn\/s\/",
"author" : "WWW.SINA.COM.CN",
"tags" : [],
"desc" : "日前，中国篮协下发了一份《关于2013-2014&#160;中国女子篮球甲级联赛运动员短期交流有关事宜的通知》，在通知中有一项关于球员转会费的细则。在这项细则中规定了一名女篮国手的转会费是5万元人民币。在市场化、职业化的今天，这样的价格还是让人有些意外。 通知中说明....",
"emailed" : False,
"forwarded" : False,
"english" : False
}  , {
"index" : 11,
"articleIndex" : "78760",
"favor" :  False ,
     "read" : False,    
"title" : "[国内]山西居委会换届得票最高者被拘 重选后获释(10\/30 14:25)",
"titleTip" : "[国内]山西居委会换届得票最高者被拘 重选后获释(10\/30 14:25)",
"titleSummary" : "[国内]山西居委会换届得票最高者被拘 重选后获释(10\/30 14:25)",
"descSummary" : "",
"url" : "http:\/\/go.rss.sina.com.cn\/redirect.php?url=http:\/\/news.sina.com.cn\/c\/2013-10-30\/011528565145.shtml",
"pubDate" : "14:25:36",
"enterDate" : "384201:09:05",
"channelId" : "3400579628982409496",
"channelName" : "新闻要闻-新浪新闻",
"channelNameSummary" : "新闻要闻-新浪新闻",
"channelUrl" : "http:\/\/roll.news.sina.com.cn\/s\/",
"author" : "WWW.SINA.COM.CN",
"tags" : [],
"desc" : "",
"emailed" : False,
"forwarded" : False,
"english" : False
}  , {
"index" : 12,
"articleIndex" : "78759",
"favor" :  False ,
     "read" : False,    
"title" : "[社会]厦门一中学界定8条恋爱标准遭吐槽(10\/30 14:23)",
"titleTip" : "[社会]厦门一中学界定8条恋爱标准遭吐槽(10\/30 14:23)",
"titleSummary" : "[社会]厦门一中学界定8条恋爱标准遭吐槽(10\/30 14:23)",
"descSummary" : "\u201C除上课之外的课间活动\u2026\u2026只要出现一男一女在...",
"url" : "http:\/\/go.rss.sina.com.cn\/redirect.php?url=http:\/\/news.sina.com.cn\/s\/2013-10-30\/142328572696.shtml",
"pubDate" : "14:23:43",
"enterDate" : "384201:07:12",
"channelId" : "3400579628982409496",
"channelName" : "新闻要闻-新浪新闻",
"channelNameSummary" : "新闻要闻-新浪新闻",
"channelUrl" : "http:\/\/roll.news.sina.com.cn\/s\/",
"author" : "WWW.SINA.COM.CN",
"tags" : [],
"desc" : "\u201C除上课之外的课间活动\u2026\u2026只要出现一男一女在校园内的各角落、操场、教室及走廊两人在一起或在校园内手拉手或超过手拉手的举动均视为谈恋爱。\u201D 昨天，一份名为《厦门市翔安第一中学关于如何界定男女生谈恋爱的征求意见稿》在网上被大量转载，《意见稿》制定出8种将....",
"emailed" : False,
"forwarded" : False,
"english" : False
}  , {
"index" : 13,
"articleIndex" : "78758",
"favor" :  False ,
     "read" : False,    
"title" : "[体育]CUBA锋霸的故事:30+20已经过去 他的未来并非CBA(10\/30 14:14)",
"titleTip" : "[体育]CUBA锋霸的故事:30+20已经过去 他的未来并非CBA(10\/30 14:14)",
"titleSummary" : "[体育]CUBA锋霸的故事:30+20已经过去 他的未来并非CBA(10\/30 14:14)",
"descSummary" : "\u201C下面入场的是北京大学的12号...",
"url" : "http:\/\/go.rss.sina.com.cn\/redirect.php?url=http:\/\/sports.sina.com.cn\/cba\/2013-10-30\/14146858474.shtml",
"pubDate" : "14:14:22",
"enterDate" : "384200:57:51",
"channelId" : "3400579628982409496",
"channelName" : "新闻要闻-新浪新闻",
"channelNameSummary" : "新闻要闻-新浪新闻",
"channelUrl" : "http:\/\/roll.news.sina.com.cn\/s\/",
"author" : "WWW.SINA.COM.CN",
"tags" : [],
"desc" : "\u201C下面入场的是北京大学的12号，程\u2015\u2015驰\u2015\u2015！\u201D伴随着现场主持人刘芳宇[微博]标志性的嗓音，首都师范大学体育馆内立刻响起了振聋发聩的呐喊和欢呼声，其受欢迎的程度甚至超过了任何一名身穿白色球衣，本场揭幕战主队清华大学队的队员，就连场馆外负责维持秩序的安保人员，在....",
"emailed" : False,
"forwarded" : False,
"english" : False
}  , {
"index" : 14,
"articleIndex" : "78757",
"favor" :  False ,
     "read" : False,    
"title" : "[国内]深圳警察杀人获死缓 当庭多次大笑展冤字背心(10\/30 14:06)",
"titleTip" : "[国内]深圳警察杀人获死缓 当庭多次大笑展冤字背心(10\/30 14:06)",
"titleSummary" : "[国内]深圳警察杀人获死缓 当庭多次大笑展冤字背心(10\/30 14:06)",
"descSummary" : "昨日上午，深圳市中院对原龙岗公安分局...",
"url" : "http:\/\/go.rss.sina.com.cn\/redirect.php?url=http:\/\/news.sina.com.cn\/c\/2013-10-30\/140628572588.shtml",
"pubDate" : "14:06:35",
"enterDate" : "384200:50:04",
"channelId" : "3400579628982409496",
"channelName" : "新闻要闻-新浪新闻",
"channelNameSummary" : "新闻要闻-新浪新闻",
"channelUrl" : "http:\/\/roll.news.sina.com.cn\/s\/",
"author" : "WWW.SINA.COM.CN",
"tags" : [],
"desc" : "昨日上午，深圳市中院对原龙岗公安分局龙新派出所民警李才坤故意杀人一案作出一审判决：认定其构成故意杀人罪，因其获被害人家属谅解判处死刑，缓期二年执行，剥夺政治权利终身。李才坤被押进法庭前，故意在摄影记者前掀开囚衣露出写有\u201C冤\u201D、\u201C悲\u201D字样的内衣，宣判现场多次....",
"emailed" : False,
"forwarded" : False,
"english" : False
}  , {
"index" : 15,
"articleIndex" : "78756",
"favor" :  False ,
     "read" : False,    
"title" : "[国际]印度总理从不用手机与电子邮件 免受美国监听(10\/30 14:02)",
"titleTip" : "[国际]印度总理从不用手机与电子邮件 免受美国监听(10\/30 14:02)",
"titleSummary" : "[国际]印度总理从不用手机与电子邮件 免受美国监听(10\/30 14:02)",
"descSummary" : "中新网10月30日电 据英国媒体30日报道...",
"url" : "http:\/\/go.rss.sina.com.cn\/redirect.php?url=http:\/\/news.sina.com.cn\/w\/2013-10-30\/140228572608.shtml",
"pubDate" : "14:02:00",
"enterDate" : "384200:45:29",
"channelId" : "3400579628982409496",
"channelName" : "新闻要闻-新浪新闻",
"channelNameSummary" : "新闻要闻-新浪新闻",
"channelUrl" : "http:\/\/roll.news.sina.com.cn\/s\/",
"author" : "WWW.SINA.COM.CN",
"tags" : [],
"desc" : "中新网10月30日电 据英国媒体30日报道，美国国家安全局(NSA)在广泛监听盟友的报道，令一些自认为与美国关系牢固的国家领导人感到严重不安。不过，至少有一位努力增进与美国关系的国际政治家，对美国电子窃听活动在全球引发的怒火漠不关心，他就是年过八旬的印度总理辛格。....",
"emailed" : False,
"forwarded" : False,
"english" : False
}  , {
"index" : 16,
"articleIndex" : "78754",
"favor" :  False ,
     "read" : False,    
"title" : "[体育]洛城疯狂夜湖人第1板匪 大帝!22+6+2穿紫金的哈登(10\/30 14:00)",
"titleTip" : "[体育]洛城疯狂夜湖人第1板匪 大帝!22+6+2穿紫金的哈登(10\/30 14:00)",
"titleSummary" : "[体育]洛城疯狂夜湖人第1板匪 大帝!22+6+2穿紫金的哈登(10\/30 14:00)",
"descSummary" : "北京时间10月30日，洛杉矶湖人...",
"url" : "http:\/\/go.rss.sina.com.cn\/redirect.php?url=http:\/\/sports.sina.com.cn\/nba\/2013-10-30\/14006858462.shtml",
"pubDate" : "14:00:45",
"enterDate" : "384201:14:19",
"channelId" : "3400579628982409496",
"channelName" : "新闻要闻-新浪新闻",
"channelNameSummary" : "新闻要闻-新浪新闻",
"channelUrl" : "http:\/\/roll.news.sina.com.cn\/s\/",
"author" : "WWW.SINA.COM.CN",
"tags" : [],
"desc" : "北京时间10月30日，洛杉矶湖人[微博]意外赢得赛季开门红，他们的替补阵容在这场洛城德比战中让人大吃一惊，而替补的领军人物莫过于哈维-亨利。这位拿到训练营邀请合同加盟湖人的球员用生涯得分新高带领球队获胜，他堪称\u201C穷人版的哈登\u201D。 \u201C亨利大帝\u201D在本场揭幕战中....",
"emailed" : False,
"forwarded" : False,
"english" : False
}  , {
"index" : 17,
"articleIndex" : "78755",
"favor" :  False ,
     "read" : False,    
"title" : "[社会]8旬老母起诉儿子要求每周探视1次 被告不服上诉(10\/30 13:57)",
"titleTip" : "[社会]8旬老母起诉儿子要求每周探视1次 被告不服上诉(10\/30 13:57)",
"titleSummary" : "[社会]8旬老母起诉儿子要求每周探视1次 被告不服上诉(10\/30 13:57)",
"descSummary" : "82岁的刘老太育有五女一子，可儿...",
"url" : "http:\/\/go.rss.sina.com.cn\/redirect.php?url=http:\/\/news.sina.com.cn\/s\/2013-10-30\/135728572548.shtml",
"pubDate" : "13:57:48",
"enterDate" : "384200:41:17",
"channelId" : "3400579628982409496",
"channelName" : "新闻要闻-新浪新闻",
"channelNameSummary" : "新闻要闻-新浪新闻",
"channelUrl" : "http:\/\/roll.news.sina.com.cn\/s\/",
"author" : "WWW.SINA.COM.CN",
"tags" : [],
"desc" : "82岁的刘老太育有五女一子，可儿子李某却很少照顾母亲。无奈的刘老太搬去与女儿同住，谁知刘某既不支付赡养费，也几乎从不探视母亲。为此，刘老太将儿子告上法院，要求李某至少每周探望自己一次。记者昨日从龙岗法院获悉，该院横岗法庭一审判刘老太胜诉。据了解，这是自《老年....",
"emailed" : False,
"forwarded" : False,
"english" : False
}  , {
"index" : 18,
"articleIndex" : "78753",
"favor" :  False ,
     "read" : False,    
"title" : "[体育]湖人板凳旋风!末节41分爆保罗 20年最差首发?不怕!(10\/30 13:57)",
"titleTip" : "[体育]湖人板凳旋风!末节41分爆保罗 20年最差首发?不怕!(10\/30 13:57)",
"titleSummary" : "[体育]湖人板凳旋风!末节41分爆保罗 20年最差首发?不怕!(10\/30 13:57)",
"descSummary" : "北京时间10月30日，NBA新赛季...",
"url" : "http:\/\/go.rss.sina.com.cn\/redirect.php?url=http:\/\/sports.sina.com.cn\/nba\/2013-10-30\/13576858460.shtml",
"pubDate" : "13:57:21",
"enterDate" : "384201:10:55",
"channelId" : "3400579628982409496",
"channelName" : "新闻要闻-新浪新闻",
"channelNameSummary" : "新闻要闻-新浪新闻",
"channelUrl" : "http:\/\/roll.news.sina.com.cn\/s\/",
"author" : "WWW.SINA.COM.CN",
"tags" : [],
"desc" : "北京时间10月30日，NBA新赛季常规赛拉开大幕，首个比赛日就有\u201C冷门\u201D爆出，缺少当家球星科比[微博]-布莱恩特的湖人[微博]，在洛城德比中以13分的优势大胜快船[微博]。在一片看衰的声音中，紫金军用这样一种方式开始新赛季的征程，着实出人意料。 过去很长一段时间，湖....",
"emailed" : False,
"forwarded" : False,
"english" : False
}  , {
"index" : 19,
"articleIndex" : "78752",
"favor" :  False ,
     "read" : False,    
"title" : "[财经]温州多地现真假拼接百元钞：三分之一为假(10\/30 13:48)",
"titleTip" : "[财经]温州多地现真假拼接百元钞：三分之一为假(10\/30 13:48)",
"titleSummary" : "[财经]温州多地现真假拼接百元钞：三分之一为假(10\/30 13:48)",
"descSummary" : "三分之一是假币，三分之二是真币。连日来...",
"url" : "http:\/\/go.rss.sina.com.cn\/redirect.php?url=http:\/\/finance.sina.com.cn\/money\/lcbgt\/20131030\/134817165378.shtml",
"pubDate" : "13:48:38",
"enterDate" : "384201:02:12",
"channelId" : "3400579628982409496",
"channelName" : "新闻要闻-新浪新闻",
"channelNameSummary" : "新闻要闻-新浪新闻",
"channelUrl" : "http:\/\/roll.news.sina.com.cn\/s\/",
"author" : "WWW.SINA.COM.CN",
"tags" : [],
"desc" : "三分之一是假币，三分之二是真币。连日来，温州的鹿城、乐清、瓯海等地，多家商铺收到了这种真假币拼接而成的\u201C阴阳币\u201D。由于一些商家使用的验钞机只能识别一个防伪特征，拼接币利用部分是真币的特征蒙混过关。 前天，温州瓯海警方行政拘留了一名拿拼接币行骗的男子。....",
"emailed" : False,
"forwarded" : False,
"english" : False
} ]
}
