{
"mode" : {"viewTitle" : 1,   "viewNew" : 0,  "pageIndex" : 1 },
 "channel" : {"id" : "545305302836504684", "booked" : False, "subNumber" : 1, "name" : "笔记本新闻-新浪科技", "url" : "http:\/\/tech.sina.com.cn\/notebook\/", "feed" : "http:\/\/rss.sina.com.cn\/tech\/notebook\/193_1.xml", "author" : "WWW.SINA.COM.CN", "desc" : "笔记本新闻", "imageUrl" : "http:\/\/www.sinaimg.cn\/home\/deco\/2009\/0330\/logo_home_tech_news.gif", "postPerWeek" : "0", "lastCrawTime" : "2013年10月17日 (1周前)", "crawDateTime" : "2013年10月17日 (1周前)", "lastHttpCode" : "200"}, "page" : {
"startIndex" : 0,
"totalCount" : 5000,
"pageIndex" : 1,
"lastPage" : 250,
"pageSize" : 20,
"english" :  False },
 "unreadNum" : 0, "shotIndex" : -1,
"articles" : [
{
"index" : 0,
"articleIndex" : "40633",
"favor" :  False ,
     "read" : False,    
"title" : "17日三大件报价：内存连跌 SSD探底",
"titleTip" : "17日三大件报价：内存连跌 SSD探底",
"titleSummary" : "17日三大件报价：内存连跌 SSD探底",
"descSummary" : "今日北京中关村英特尔处理器现货市场，英特尔处理器平稳。近期内...",
"url" : "http:\/\/go.rss.sina.com.cn\/redirect.php?url=http:\/\/tech.sina.com.cn\/n\/2013-10-17\/09428825399.shtml",
"pubDate" : "2013年10月17日 (1周前)",
"enterDate" : "384200:35:08",
"channelId" : "545305302836504684",
"channelName" : "笔记本新闻-新浪科技",
"channelNameSummary" : "笔记本新闻-新浪科技",
"channelUrl" : "http:\/\/tech.sina.com.cn\/notebook\/",
"author" : "WWW.SINA.COM.CN",
"tags" : [],
"desc" : "今日北京中关村英特尔处理器现货市场，英特尔处理器平稳。近期内存价格闹降价，低端赛扬、奔腾处理器销售上升，原本缓慢的降价举动已经消失。 &#160;&#160; 今天北京中关村AMD处理器现货市场，AMD处理器价格平稳。AMD处理器近期销售回升，延缓降价。内存降价、硬盘价格....",
"emailed" : False,
"forwarded" : False,
"english" : False
}  , {
"index" : 1,
"articleIndex" : "40632",
"favor" :  False ,
     "read" : False,    
"title" : "视网膜屏加指纹识别 苹果新iPad预测",
"titleTip" : "视网膜屏加指纹识别 苹果新iPad预测",
"titleSummary" : "视网膜屏加指纹识别 苹果新iPad预测",
"descSummary" : "终于确定了。在本月22日，苹果将在美国旧金山芳草地艺术中心举...",
"url" : "http:\/\/go.rss.sina.com.cn\/redirect.php?url=http:\/\/tech.sina.com.cn\/n\/pad\/2013-10-17\/09228825350.shtml",
"pubDate" : "2013年10月17日 (1周前)",
"enterDate" : "384200:45:23",
"channelId" : "545305302836504684",
"channelName" : "笔记本新闻-新浪科技",
"channelNameSummary" : "笔记本新闻-新浪科技",
"channelUrl" : "http:\/\/tech.sina.com.cn\/notebook\/",
"author" : "WWW.SINA.COM.CN",
"tags" : [],
"desc" : "终于确定了。在本月22日，苹果将在美国旧金山芳草地艺术中心举办今年的第二次新品发布会，按照苹果以往产品更新换代节奏，已经面世一年时间的 全尺寸iPad与iPad&#160;mini将很可能迎来各自新的继任者。虽然目前iPad依然是平板领域无可争议的王者，没有任何一款平板单兵作战能....",
"emailed" : False,
"forwarded" : False,
"english" : False
}  , {
"index" : 2,
"articleIndex" : "40630",
"favor" :  False ,
     "read" : False,    
"title" : "评论：低价拯救不了尴尬的8寸平板",
"titleTip" : "评论：低价拯救不了尴尬的8寸平板",
"titleSummary" : "评论：低价拯救不了尴尬的8寸平板",
"descSummary" : "为了寻求新的卖点和商机，不少品牌厂商都打起了8寸平板的主意，但...",
"url" : "http:\/\/go.rss.sina.com.cn\/redirect.php?url=http:\/\/tech.sina.com.cn\/n\/pad\/2013-10-17\/09118825306.shtml",
"pubDate" : "2013年10月17日 (1周前)",
"enterDate" : "384201:04:06",
"channelId" : "545305302836504684",
"channelName" : "笔记本新闻-新浪科技",
"channelNameSummary" : "笔记本新闻-新浪科技",
"channelUrl" : "http:\/\/tech.sina.com.cn\/notebook\/",
"author" : "WWW.SINA.COM.CN",
"tags" : [],
"desc" : "为了寻求新的卖点和商机，不少品牌厂商都打起了8寸平板的主意，但这个市场不是说你想推什么就能火什么，消费者对这种定位尴尬的产品并不怎么感冒。台系厂商因此开始打价格牌，但这就够了么？ 华硕最近发布了8寸的MeMO Pad 8，配备瑞芯微四核处理器、IPS屏幕，台湾地区....",
"emailed" : False,
"forwarded" : False,
"english" : False
}  , {
"index" : 3,
"articleIndex" : "40629",
"favor" :  False ,
     "read" : False,    
"title" : "英特尔明年推出安卓入门级Bay Trail芯片",
"titleTip" : "英特尔明年推出安卓入门级Bay Trail芯片",
"titleSummary" : "英特尔明年推出安卓入门级Bay Trail芯片",
"descSummary" : "据台湾媒体报道，英特尔计划于2014年第二季度推出Android版入...",
"url" : "http:\/\/go.rss.sina.com.cn\/redirect.php?url=http:\/\/tech.sina.com.cn\/n\/pad\/2013-10-17\/09088825287.shtml",
"pubDate" : "2013年10月17日 (1周前)",
"enterDate" : "384201:01:09",
"channelId" : "545305302836504684",
"channelName" : "笔记本新闻-新浪科技",
"channelNameSummary" : "笔记本新闻-新浪科技",
"channelUrl" : "http:\/\/tech.sina.com.cn\/notebook\/",
"author" : "WWW.SINA.COM.CN",
"tags" : [],
"desc" : "据台湾媒体报道，英特尔计划于2014年第二季度推出Android版入门级Bay&#160;Trail芯片。这是从平板电脑厂商处得来的消息，故应该会比较靠谱。 同时，Android版入门级Bay&#160;Trail芯片的定价也被曝光，由于定位是入门级，故定价在15美元至20美元之间，比上个月刚刚发布....",
"emailed" : False,
"forwarded" : False,
"english" : False
}  , {
"index" : 4,
"articleIndex" : "40628",
"favor" :  False ,
     "read" : False,    
"title" : "拒绝土豪金手机 便携通话平板电脑推荐",
"titleTip" : "拒绝土豪金手机 便携通话平板电脑推荐",
"titleSummary" : "拒绝土豪金手机 便携通话平板电脑推荐",
"descSummary" : "本文导航 联想A3000 华硕Fonepad 华为MediaPad 7 Vogue 3G版...",
"url" : "http:\/\/go.rss.sina.com.cn\/redirect.php?url=http:\/\/tech.sina.com.cn\/n\/pad\/2013-10-17\/09038825275.shtml",
"pubDate" : "2013年10月17日 (1周前)",
"enterDate" : "384200:56:05",
"channelId" : "545305302836504684",
"channelName" : "笔记本新闻-新浪科技",
"channelNameSummary" : "笔记本新闻-新浪科技",
"channelUrl" : "http:\/\/tech.sina.com.cn\/notebook\/",
"author" : "WWW.SINA.COM.CN",
"tags" : [],
"desc" : "本文导航 联想A3000 华硕Fonepad 华为MediaPad 7 Vogue 3G版 三星Galaxy Tab 3 8.0 自从苹果iPhone 5s发布后，\u201C土豪金\u201D这个词一下就火热起来，面对疯狂的果粉，和庞大的中国市场，有分析称\u201C土豪金\u201D是....",
"emailed" : False,
"forwarded" : False,
"english" : False
}  , {
"index" : 5,
"articleIndex" : "40626",
"favor" :  False ,
     "read" : False,    
"title" : "便携高性能 13英寸Haswell笔记本盘点",
"titleTip" : "便携高性能 13英寸Haswell笔记本盘点",
"titleSummary" : "便携高性能 13英寸Haswell笔记本盘点",
"descSummary" : "本文导航 联想S310 惠普ProBook 430 G1 苹果MacBook Air 索尼P...",
"url" : "http:\/\/go.rss.sina.com.cn\/redirect.php?url=http:\/\/tech.sina.com.cn\/n\/2013-10-17\/08418825189.shtml",
"pubDate" : "2013年10月17日 (1周前)",
"enterDate" : "384201:04:03",
"channelId" : "545305302836504684",
"channelName" : "笔记本新闻-新浪科技",
"channelNameSummary" : "笔记本新闻-新浪科技",
"channelUrl" : "http:\/\/tech.sina.com.cn\/notebook\/",
"author" : "WWW.SINA.COM.CN",
"tags" : [],
"desc" : "本文导航 联想S310 惠普ProBook&#160;430&#160;G1 苹果MacBook&#160;Air 索尼P13218SCB 三星940X3G-K01 在笔记本领域，13英寸屏幕被称为\u201C黄金尺寸\u201D：采用这个尺寸屏幕的笔记本可以放进女士随身....",
"emailed" : False,
"forwarded" : False,
"english" : False
}  , {
"index" : 6,
"articleIndex" : "40623",
"favor" :  False ,
     "read" : False,    
"title" : "17日八大热门本：微软Surface Pro仅5300元",
"titleTip" : "17日八大热门本：微软Surface Pro仅5300元",
"titleSummary" : "17日八大热门本：微软Surface Pro仅5300元",
"descSummary" : "虽然Surface Pro第二代我们还没有见到真机，但是除了更薄...",
"url" : "http:\/\/go.rss.sina.com.cn\/redirect.php?url=http:\/\/tech.sina.com.cn\/n\/pad\/2013-10-17\/08088824664.shtml",
"pubDate" : "2013年10月17日 (1周前)",
"enterDate" : "384201:01:53",
"channelId" : "545305302836504684",
"channelName" : "笔记本新闻-新浪科技",
"channelNameSummary" : "笔记本新闻-新浪科技",
"channelUrl" : "http:\/\/tech.sina.com.cn\/notebook\/",
"author" : "WWW.SINA.COM.CN",
"tags" : [],
"desc" : "虽然Surface&#160;Pro第二代我们还没有见到真机，但是除了更薄的机身和更好的支架设计之外，在处理器以及配置方面可以说变化并没有太 大，而且在上市之后有消息称顶配版将在10000元以上，那么这样的话对于一些预算不富裕的朋友来说却是是一个噩耗。不过我们退而求其次，选择 S....",
"emailed" : False,
"forwarded" : False,
"english" : False
}  , {
"index" : 7,
"articleIndex" : "40627",
"favor" :  False ,
     "read" : False,    
"title" : "中高端时尚独显本 东芝S40t价格5699元",
"titleTip" : "中高端时尚独显本 东芝S40t价格5699元",
"titleSummary" : "中高端时尚独显本 东芝S40t价格5699元",
"descSummary" : "东芝S40t-AT01M是一款有着全新设计理念的时尚笔记本，它采用...",
"url" : "http:\/\/go.rss.sina.com.cn\/redirect.php?url=http:\/\/tech.sina.com.cn\/n\/2013-10-17\/08028824674.shtml",
"pubDate" : "2013年10月17日 (1周前)",
"enterDate" : "384199:54:47",
"channelId" : "545305302836504684",
"channelName" : "笔记本新闻-新浪科技",
"channelNameSummary" : "笔记本新闻-新浪科技",
"channelUrl" : "http:\/\/tech.sina.com.cn\/notebook\/",
"author" : "WWW.SINA.COM.CN",
"tags" : [],
"desc" : "&#160;&#160;&#160; 东芝S40t-AT01M是一款有着全新设计理念的时尚笔记本，它采用14英寸十点触控电容触摸屏，搭载着第三代英特尔酷睿i5-3337U双核处理器和正版Windows 8系统，并有着中高端的NVIDIA GeForce GT 740M独立显卡，显存高达2GB，整机性能配置十分出色。目前这款东芝S40t-....",
"emailed" : False,
"forwarded" : False,
"english" : False
}  , {
"index" : 8,
"articleIndex" : "40622",
"favor" :  False ,
     "read" : False,    
"title" : "商务黑旋风 ThinkPad X230i价格4360元",
"titleTip" : "商务黑旋风 ThinkPad X230i价格4360元",
"titleSummary" : "商务黑旋风 ThinkPad X230i价格4360元",
"descSummary" : "联想ThinkPad一直是商务人士首选的笔记本品牌，其中X系列更是...",
"url" : "http:\/\/go.rss.sina.com.cn\/redirect.php?url=http:\/\/tech.sina.com.cn\/n\/2013-10-17\/06308824423.shtml",
"pubDate" : "2013年10月17日 (1周前)",
"enterDate" : "384199:22:58",
"channelId" : "545305302836504684",
"channelName" : "笔记本新闻-新浪科技",
"channelNameSummary" : "笔记本新闻-新浪科技",
"channelUrl" : "http:\/\/tech.sina.com.cn\/notebook\/",
"author" : "WWW.SINA.COM.CN",
"tags" : [],
"desc" : "&#160;&#160;&#160; 联想ThinkPad一直是商务人士首选的笔记本品牌，其中X系列更是专注于移动商务的尖端产品。联想ThinkPadX230i(2306AM6)就是这样一款商务笔记本，黑色的外观加上可180度转动的显示器，无疑是商务人士必备之选。目前现货，促销价4360元。 点击图片查看....",
"emailed" : False,
"forwarded" : False,
"english" : False
}  , {
"index" : 9,
"articleIndex" : "40625",
"favor" :  False ,
     "read" : False,    
"title" : "极具科技时尚感 东芝L800本价格3699元",
"titleTip" : "极具科技时尚感 东芝L800本价格3699元",
"titleSummary" : "极具科技时尚感 东芝L800本价格3699元",
"descSummary" : "东芝Satellite L800-C55W采用14英寸的LED屏，分辨率为1366 7...",
"url" : "http:\/\/go.rss.sina.com.cn\/redirect.php?url=http:\/\/tech.sina.com.cn\/n\/2013-10-17\/06008824379.shtml",
"pubDate" : "2013年10月17日 (1周前)",
"enterDate" : "384198:22:52",
"channelId" : "545305302836504684",
"channelName" : "笔记本新闻-新浪科技",
"channelNameSummary" : "笔记本新闻-新浪科技",
"channelUrl" : "http:\/\/tech.sina.com.cn\/notebook\/",
"author" : "WWW.SINA.COM.CN",
"tags" : [],
"desc" : "&#160;&#160;&#160; 东芝Satellite L800-C55W采用14英寸的LED屏，分辨率为1366×768像素，搭载着酷睿I5-3230M处理器，标配4G内存500G硬盘，搭配1G独显HD7670，整机性能表现非常主流，应对日常的工作和娱乐绰绰有余。目前这款东芝L800-C55W的报价为3699元，感兴趣的朋友可以去看看....",
"emailed" : False,
"forwarded" : False,
"english" : False
}  , {
"index" : 10,
"articleIndex" : "40631",
"favor" :  False ,
     "read" : False,    
"title" : "时尚触控 戴尔Ins灵越14R价格5099元",
"titleTip" : "时尚触控 戴尔Ins灵越14R价格5099元",
"titleSummary" : "时尚触控 戴尔Ins灵越14R价格5099元",
"descSummary" : "由于平板电脑以及智能手机的出现，触控操作普及开来。现在传统笔...",
"url" : "http:\/\/go.rss.sina.com.cn\/redirect.php?url=http:\/\/tech.sina.com.cn\/n\/2013-10-17\/06008824372.shtml",
"pubDate" : "2013年10月17日 (1周前)",
"enterDate" : "384197:22:43",
"channelId" : "545305302836504684",
"channelName" : "笔记本新闻-新浪科技",
"channelNameSummary" : "笔记本新闻-新浪科技",
"channelUrl" : "http:\/\/tech.sina.com.cn\/notebook\/",
"author" : "WWW.SINA.COM.CN",
"tags" : [],
"desc" : "由于平板电脑以及智能手机的出现，触控操作普及开来。现在传统笔记本也加入到了触控行列当中，戴尔Inspiron灵越14R就是其中一员。它采用了英特尔第四代酷睿i5处理器，并配有大显存独立显卡，支持主流的十点触控功能。现在这款产品官网售价为5099元。 点击图片查看....",
"emailed" : False,
"forwarded" : False,
"english" : False
}  , {
"index" : 11,
"articleIndex" : "40624",
"favor" :  False ,
     "read" : False,    
"title" : "双核心高主频 三星Tab 3 8.0价格2399元",
"titleTip" : "双核心高主频 三星Tab 3 8.0价格2399元",
"titleSummary" : "双核心高主频 三星Tab 3 8.0价格2399元",
"descSummary" : "双核1.5GHz处理器 Android 4.2智能操作系统更快，更快乐。是否...",
"url" : "http:\/\/go.rss.sina.com.cn\/redirect.php?url=http:\/\/tech.sina.com.cn\/n\/pad\/2013-10-17\/05548824341.shtml",
"pubDate" : "2013年10月17日 (1周前)",
"enterDate" : "384198:16:52",
"channelId" : "545305302836504684",
"channelName" : "笔记本新闻-新浪科技",
"channelNameSummary" : "笔记本新闻-新浪科技",
"channelUrl" : "http:\/\/tech.sina.com.cn\/notebook\/",
"author" : "WWW.SINA.COM.CN",
"tags" : [],
"desc" : "双核1.5GHz处理器 Android 4.2智能操作系统更快，更快乐。是否渴望迅如闪电的运行体验？想第一时间体验最新的操作系统？GALAXY Tab3拒绝慢动作，只要超快感！高速的双核1.5GHz处理器，支持无缝多任务处理，能更快地加载网页、启动各种应用，让您享受畅快淋漓的工作娱乐体验。....",
"emailed" : False,
"forwarded" : False,
"english" : False
}  , {
"index" : 12,
"articleIndex" : "40620",
"favor" :  False ,
     "read" : False,    
"title" : "高性价比商务本 华硕X550价格3279元",
"titleTip" : "高性价比商务本 华硕X550价格3279元",
"titleSummary" : "高性价比商务本 华硕X550价格3279元",
"descSummary" : "华硕X550XI311VC-SL是一款以超值全能为特色，主打超高性价比的...",
"url" : "http:\/\/go.rss.sina.com.cn\/redirect.php?url=http:\/\/tech.sina.com.cn\/n\/2013-10-17\/01108823077.shtml",
"pubDate" : "2013年10月17日 (2周前)",
"enterDate" : "384194:03:05",
"channelId" : "545305302836504684",
"channelName" : "笔记本新闻-新浪科技",
"channelNameSummary" : "笔记本新闻-新浪科技",
"channelUrl" : "http:\/\/tech.sina.com.cn\/notebook\/",
"author" : "WWW.SINA.COM.CN",
"tags" : [],
"desc" : "&#160;&#160;&#160; 华硕X550XI311VC-SL是一款以超值全能为特色，主打超高性价比的产品。整机采用流线楔形设计，总体外观时尚大方。搭载酷睿I3-3110处理器，NVIDIA GT720M独立显卡，足以满足日常需求及娱乐商务功能。目前该机的最新报价为3279元，感兴趣的朋友不妨关注一下。....",
"emailed" : False,
"forwarded" : False,
"english" : False
}  , {
"index" : 13,
"articleIndex" : "40621",
"favor" :  False ,
     "read" : False,    
"title" : "便携高配本 戴尔15HR-1828T价格8399元",
"titleTip" : "便携高配本 戴尔15HR-1828T价格8399元",
"titleSummary" : "便携高配本 戴尔15HR-1828T价格8399元",
"descSummary" : "戴尔灵越 Ins15HR-1828T是戴尔电脑新推出的一款机型，定位超...",
"url" : "http:\/\/go.rss.sina.com.cn\/redirect.php?url=http:\/\/tech.sina.com.cn\/n\/2013-10-17\/01108823076.shtml",
"pubDate" : "2013年10月17日 (2周前)",
"enterDate" : "384194:03:05",
"channelId" : "545305302836504684",
"channelName" : "笔记本新闻-新浪科技",
"channelNameSummary" : "笔记本新闻-新浪科技",
"channelUrl" : "http:\/\/tech.sina.com.cn\/notebook\/",
"author" : "WWW.SINA.COM.CN",
"tags" : [],
"desc" : "&#160;&#160;&#160; 戴尔灵越 Ins15HR-1828T是戴尔电脑新推出的一款机型，定位超高配置的高端机型。该机做工材料采用的是全金属做工，散热与透热方面表现也十分优秀，超高配置更是让许多机友们竞相追捧。目前该机的最新报价为8399元，有兴趣的朋友可以联系一下。 戴尔....",
"emailed" : False,
"forwarded" : False,
"english" : False
}  , {
"index" : 14,
"articleIndex" : "40619",
"favor" :  False ,
     "read" : False,    
"title" : "新Atom是否靠谱 三大应用考验华硕T100",
"titleTip" : "新Atom是否靠谱 三大应用考验华硕T100",
"titleSummary" : "新Atom是否靠谱 三大应用考验华硕T100",
"descSummary" : "华硕Transformer Book T100是 首款搭配英特尔Atom Bay Trail平...",
"url" : "http:\/\/go.rss.sina.com.cn\/redirect.php?url=http:\/\/tech.sina.com.cn\/n\/pad\/2013-10-16\/15008822263.shtml",
"pubDate" : "2013年10月16日 (2周前)",
"enterDate" : "384200:56:38",
"channelId" : "545305302836504684",
"channelName" : "笔记本新闻-新浪科技",
"channelNameSummary" : "笔记本新闻-新浪科技",
"channelUrl" : "http:\/\/tech.sina.com.cn\/notebook\/",
"author" : "WWW.SINA.COM.CN",
"tags" : [],
"desc" : "华硕Transformer&#160;Book&#160;T100是 首款搭配英特尔Atom&#160;Bay&#160;Trail平台的变形笔记本，华硕一向是一家敢于技术创新的厂商，此次把最新的Atom处理器放入自己的产品当中也是颇 具魄力的一个举动。为什么我们会用\u201C魄力\u201D这一词呢？众所周知，Atom这个名号在前几年....",
"emailed" : False,
"forwarded" : False,
"english" : False
}  , {
"index" : 15,
"articleIndex" : "40618",
"favor" :  False ,
     "read" : False,    
"title" : "14nm Broadwell存缺陷 明年再投产",
"titleTip" : "14nm Broadwell存缺陷 明年再投产",
"titleSummary" : "14nm Broadwell存缺陷 明年再投产",
"descSummary" : "14nm Broadwell存缺陷 PC行业举步维艰，但偏偏各种麻烦不断，几乎...",
"url" : "http:\/\/go.rss.sina.com.cn\/redirect.php?url=http:\/\/tech.sina.com.cn\/n\/2013-10-16\/14238822129.shtml",
"pubDate" : "2013年10月16日 (2周前)",
"enterDate" : "384200:49:45",
"channelId" : "545305302836504684",
"channelName" : "笔记本新闻-新浪科技",
"channelNameSummary" : "笔记本新闻-新浪科技",
"channelUrl" : "http:\/\/tech.sina.com.cn\/notebook\/",
"author" : "WWW.SINA.COM.CN",
"tags" : [],
"desc" : "14nm Broadwell存缺陷 PC行业举步维艰，但偏偏各种麻烦不断，几乎每一种零部件都不怎么顺利。Intel今天又公开承认，14nm Broadwell处理器的投产将被推迟到2014年。 Intel CEO科再奇在第三季度财务会议上表示，Intel将在2014年第一季度投产Broadwell，而不是原定的今....",
"emailed" : False,
"forwarded" : False,
"english" : False
}  , {
"index" : 16,
"articleIndex" : "40616",
"favor" :  False ,
     "read" : False,    
"title" : "你看懂了吗 苹果10月22日邀请函大解密",
"titleTip" : "你看懂了吗 苹果10月22日邀请函大解密",
"titleSummary" : "你看懂了吗 苹果10月22日邀请函大解密",
"descSummary" : "今天凌晨，苹果正式发布了10月22日(美国时间)新品发布会邀请函...",
"url" : "http:\/\/go.rss.sina.com.cn\/redirect.php?url=http:\/\/tech.sina.com.cn\/n\/pad\/2013-10-16\/09518821555.shtml",
"pubDate" : "2013年10月16日 (2周前)",
"enterDate" : "384200:48:10",
"channelId" : "545305302836504684",
"channelName" : "笔记本新闻-新浪科技",
"channelNameSummary" : "笔记本新闻-新浪科技",
"channelUrl" : "http:\/\/tech.sina.com.cn\/notebook\/",
"author" : "WWW.SINA.COM.CN",
"tags" : [],
"desc" : "今天凌晨，苹果正式发布了10月22日(美国时间)新品发布会邀请函，即将发布的产品大家心知肚明，就是全新的iPad5、iPad mini2和Macbook。苹果现在的保密工作虽然做的不咋地，但是每次邀请函上面都值得我们去推敲，因为苹果的邀请函上面就透露了许多消息和秘密！ 解密苹....",
"emailed" : False,
"forwarded" : False,
"english" : False
}  , {
"index" : 17,
"articleIndex" : "40614",
"favor" :  False ,
     "read" : False,    
"title" : "尺寸不会变 iPad6或将大幅提升分辨率",
"titleTip" : "尺寸不会变 iPad6或将大幅提升分辨率",
"titleSummary" : "尺寸不会变 iPad6或将大幅提升分辨率",
"descSummary" : "此前有外媒报道称，苹果将于明年推出一款12英寸的大尺寸平板电...",
"url" : "http:\/\/go.rss.sina.com.cn\/redirect.php?url=http:\/\/tech.sina.com.cn\/n\/pad\/2013-10-16\/09478821534.shtml",
"pubDate" : "2013年10月16日 (2周前)",
"enterDate" : "384201:13:42",
"channelId" : "545305302836504684",
"channelName" : "笔记本新闻-新浪科技",
"channelNameSummary" : "笔记本新闻-新浪科技",
"channelUrl" : "http:\/\/tech.sina.com.cn\/notebook\/",
"author" : "WWW.SINA.COM.CN",
"tags" : [],
"desc" : "此前有外媒报道称，苹果将于明年推出一款12英寸的大尺寸平板电脑，这则消息近日被来自KGI&#160;Securities的科技行业著名分析师Ming-Chi&#160;Kuo否认。同时他还预测，随着行业的不断发展，明年苹果推出的iPad&#160;6平板电脑，屏幕分辨率将有大幅提升。 分析师预计苹果iPa....",
"emailed" : False,
"forwarded" : False,
"english" : False
}  , {
"index" : 18,
"articleIndex" : "40617",
"favor" :  False ,
     "read" : False,    
"title" : "16日三大件报价：内存突降\/SSD再跌",
"titleTip" : "16日三大件报价：内存突降\/SSD再跌",
"titleSummary" : "16日三大件报价：内存突降\/SSD再跌",
"descSummary" : "今日北京中关村英特尔处理器现货市场，英特尔处理器平稳。配合X...",
"url" : "http:\/\/go.rss.sina.com.cn\/redirect.php?url=http:\/\/tech.sina.com.cn\/n\/2013-10-16\/09348821464.shtml",
"pubDate" : "2013年10月16日 (2周前)",
"enterDate" : "384198:30:37",
"channelId" : "545305302836504684",
"channelName" : "笔记本新闻-新浪科技",
"channelNameSummary" : "笔记本新闻-新浪科技",
"channelUrl" : "http:\/\/tech.sina.com.cn\/notebook\/",
"author" : "WWW.SINA.COM.CN",
"tags" : [],
"desc" : "今日北京中关村英特尔处理器现货市场，英特尔处理器平稳。配合X79主板的新款i7 4930K到货，中文盒装的零售价格为3900元。 &#160;&#160; 今天北京中关村AMD处理器现货市场，AMD处理器价格蓄势待降。目前每日跌幅较慢，本版仍需累计跌幅。 今日北京中关村台式机内....",
"emailed" : False,
"forwarded" : False,
"english" : False
}  , {
"index" : 19,
"articleIndex" : "40615",
"favor" :  False ,
     "read" : False,    
"title" : "红叶节的特色诉求 粉红外观笔记本大起底",
"titleTip" : "红叶节的特色诉求 粉红外观笔记本大起底",
"titleSummary" : "红叶节的特色诉求 粉红外观笔记本大起底",
"descSummary" : "每年的十月中旬到十一月中旬都是香山红叶节开幕的日子，而每...",
"url" : "http:\/\/go.rss.sina.com.cn\/redirect.php?url=http:\/\/tech.sina.com.cn\/n\/2013-10-16\/09278821420.shtml",
"pubDate" : "2013年10月16日 (2周前)",
"enterDate" : "384200:24:25",
"channelId" : "545305302836504684",
"channelName" : "笔记本新闻-新浪科技",
"channelNameSummary" : "笔记本新闻-新浪科技",
"channelUrl" : "http:\/\/tech.sina.com.cn\/notebook\/",
"author" : "WWW.SINA.COM.CN",
"tags" : [],
"desc" : "每年的十月中旬到十一月中旬都是香山红叶节开幕的日子，而每年历时一个月的满山红，除了会给大众带来轻松愉悦的心理之外，还会在潜意识中加深人们对于红色的好感，据相关调查显示，在每年的红叶节期间，红色产品的走势最为迅猛。 由此我们可以推断，在这红叶节期间大众....",
"emailed" : False,
"forwarded" : False,
"english" : False
} ]
}
