{
"mode" : {"viewTitle" : 1,   "viewNew" : 0,  "pageIndex" : 2 },
 "channel" : {"id" : "545305302836504684", "booked" : False, "subNumber" : 1, "name" : "笔记本新闻-新浪科技", "url" : "http:\/\/tech.sina.com.cn\/notebook\/", "feed" : "http:\/\/rss.sina.com.cn\/tech\/notebook\/193_1.xml", "author" : "WWW.SINA.COM.CN", "desc" : "笔记本新闻", "imageUrl" : "http:\/\/www.sinaimg.cn\/home\/deco\/2009\/0330\/logo_home_tech_news.gif", "postPerWeek" : "0", "lastCrawTime" : "2013年10月17日 (1周前)", "crawDateTime" : "2013年10月17日 (1周前)", "lastHttpCode" : "200"}, "page" : {
"startIndex" : 20,
"totalCount" : 5000,
"pageIndex" : 2,
"lastPage" : 250,
"pageSize" : 20,
"english" :  False },
 "unreadNum" : 0, "shotIndex" : -1,
"articles" : [
{
"index" : 0,
"articleIndex" : "40613",
"favor" :  False ,
     "read" : False,    
"title" : "Nexus 7运行Android 4.4系统截图曝光",
"titleTip" : "Nexus 7运行Android 4.4系统截图曝光",
"titleSummary" : "Nexus 7运行Android 4.4系统截图曝光",
"descSummary" : "自代号为\u201CKitKat\u201D的Android 4.4被曝光之后，备受安卓用户的期待...",
"url" : "http:\/\/go.rss.sina.com.cn\/redirect.php?url=http:\/\/tech.sina.com.cn\/n\/pad\/2013-10-16\/09448821525.shtml",
"pubDate" : "2013年10月16日 (2周前)",
"enterDate" : "384201:11:19",
"channelId" : "545305302836504684",
"channelName" : "笔记本新闻-新浪科技",
"channelNameSummary" : "笔记本新闻-新浪科技",
"channelUrl" : "http:\/\/tech.sina.com.cn\/notebook\/",
"author" : "WWW.SINA.COM.CN",
"tags" : [],
"desc" : "自代号为\u201CKitKat\u201D的Android&#160;4.4被曝光之后，备受安卓用户的期待。近日一组Android&#160;4.4系统在谷歌新一代Nexus&#160;7平板电脑上运行的截图曝光。 Android&#160;4.4系统在Nexus&#160;7上的主界面(图片来自CnBeta) Android&#160;4.4系统中的App应用图标(图片来....",
"emailed" : False,
"forwarded" : False,
"english" : False
}  , {
"index" : 1,
"articleIndex" : "40612",
"favor" :  False ,
     "read" : False,    
"title" : "16日八大热门本报价：白色唯美外观本3699元",
"titleTip" : "16日八大热门本报价：白色唯美外观本3699元",
"titleSummary" : "16日八大热门本报价：白色唯美外观本3699元",
"descSummary" : "东芝 L800-C55W采用14英寸的LED屏，分辨率为1366 76...",
"url" : "http:\/\/go.rss.sina.com.cn\/redirect.php?url=http:\/\/tech.sina.com.cn\/n\/2013-10-16\/09108821368.shtml",
"pubDate" : "2013年10月16日 (2周前)",
"enterDate" : "384200:37:19",
"channelId" : "545305302836504684",
"channelName" : "笔记本新闻-新浪科技",
"channelNameSummary" : "笔记本新闻-新浪科技",
"channelUrl" : "http:\/\/tech.sina.com.cn\/notebook\/",
"author" : "WWW.SINA.COM.CN",
"tags" : [],
"desc" : "东芝 L800-C55W采用14英寸的LED屏，分辨率为1366×768像素，搭载着酷睿I5-3230M处理器，标配4G内存500G硬盘，搭配1G独显 HD7670，整机性能表现非常主流，应对日常的工作和娱乐绰绰有余。目前这款东芝L800-C55W在天猫东芝官方旗舰店的报价为3699元，感兴趣的朋友可以去看看。....",
"emailed" : False,
"forwarded" : False,
"english" : False
}  , {
"index" : 2,
"articleIndex" : "40611",
"favor" :  False ,
     "read" : False,    
"title" : "真男人奉陪到底 盘点平板电脑界的硬汉",
"titleTip" : "真男人奉陪到底 盘点平板电脑界的硬汉",
"titleSummary" : "真男人奉陪到底 盘点平板电脑界的硬汉",
"descSummary" : "硬汉并不只有霸气的外表，硬汉需要承担的责任很多，硬汉总会在...",
"url" : "http:\/\/go.rss.sina.com.cn\/redirect.php?url=http:\/\/tech.sina.com.cn\/n\/pad\/2013-10-16\/09018821339.shtml",
"pubDate" : "2013年10月16日 (2周前)",
"enterDate" : "384200:58:05",
"channelId" : "545305302836504684",
"channelName" : "笔记本新闻-新浪科技",
"channelNameSummary" : "笔记本新闻-新浪科技",
"channelUrl" : "http:\/\/tech.sina.com.cn\/notebook\/",
"author" : "WWW.SINA.COM.CN",
"tags" : [],
"desc" : "硬汉并不只有霸气的外表，硬汉需要承担的责任很多，硬汉总会在别人最需要帮助的时候挺身而出，同时每个硬汉都有自己独特的魅力，岁月、经历、地位使硬汉们拥有一种独特的气场，而硬汉们对于身边的人和物选择也有着自己独特的视角。 就拿平板电脑来说，也有一些拥有特殊....",
"emailed" : False,
"forwarded" : False,
"english" : False
}  , {
"index" : 3,
"articleIndex" : "40610",
"favor" :  False ,
     "read" : False,    
"title" : "苹果公司宣布23日召开发布会 或推新iPad",
"titleTip" : "苹果公司宣布23日召开发布会 或推新iPad",
"titleSummary" : "苹果公司宣布23日召开发布会 或推新iPad",
"descSummary" : "苹果公司宣布10月22日召开iPad发布会 新浪科技讯 北京时间1...",
"url" : "http:\/\/go.rss.sina.com.cn\/redirect.php?url=http:\/\/tech.sina.com.cn\/n\/pad\/2013-10-16\/08548821328.shtml",
"pubDate" : "2013年10月16日 (2周前)",
"enterDate" : "384200:51:22",
"channelId" : "545305302836504684",
"channelName" : "笔记本新闻-新浪科技",
"channelNameSummary" : "笔记本新闻-新浪科技",
"channelUrl" : "http:\/\/tech.sina.com.cn\/notebook\/",
"author" : "WWW.SINA.COM.CN",
"tags" : [],
"desc" : "苹果公司宣布10月22日召开iPad发布会 新浪科技讯 北京时间10月16日凌晨消息，苹果公司周二发出媒体邀请函，邀请相关人士出席定于当地时间10月22日上午10点(北京时间10月23日凌晨1点)召开的一次特别发布会，预计该公司将在会上发布下一代iPad和iPad mini。 苹果公司....",
"emailed" : False,
"forwarded" : False,
"english" : False
}  , {
"index" : 4,
"articleIndex" : "40609",
"favor" :  False ,
     "read" : False,    
"title" : "32G版平板 苹果iPad mini价格2595元",
"titleTip" : "32G版平板 苹果iPad mini价格2595元",
"titleSummary" : "32G版平板 苹果iPad mini价格2595元",
"descSummary" : "苹果iPad mini作为当前最畅销的一款平板电脑，售价依然坚挺。7....",
"url" : "http:\/\/go.rss.sina.com.cn\/redirect.php?url=http:\/\/tech.sina.com.cn\/n\/pad\/2013-10-16\/08358821259.shtml",
"pubDate" : "2013年10月16日 (2周前)",
"enterDate" : "384201:02:50",
"channelId" : "545305302836504684",
"channelName" : "笔记本新闻-新浪科技",
"channelNameSummary" : "笔记本新闻-新浪科技",
"channelUrl" : "http:\/\/tech.sina.com.cn\/notebook\/",
"author" : "WWW.SINA.COM.CN",
"tags" : [],
"desc" : "苹果iPad mini作为当前最畅销的一款平板电脑，售价依然坚挺。7.2mm超薄机身，金属一体成型，加上A5双核处理器和最新iOS 6系统，可为用户带来极流畅使用体验。目前该机GB\/WIFI版报价仅2595元，想体验当前最便携平板的朋友不妨关注一下。 点击图片查看苹果 iPad Mini(32GB\/WI....",
"emailed" : False,
"forwarded" : False,
"english" : False
}  , {
"index" : 5,
"articleIndex" : "40608",
"favor" :  False ,
     "read" : False,    
"title" : "影音娱乐专属 微星GE60预装WIN8价格7599",
"titleTip" : "影音娱乐专属 微星GE60预装WIN8价格7599",
"titleSummary" : "影音娱乐专属 微星GE60预装WIN8价格7599",
"descSummary" : "有别于一般的影音游戏本，msi微星GE60系列定位游戏发烧...",
"url" : "http:\/\/go.rss.sina.com.cn\/redirect.php?url=http:\/\/tech.sina.com.cn\/n\/2013-10-16\/08318821231.shtml",
"pubDate" : "2013年10月16日 (2周前)",
"enterDate" : "384200:58:08",
"channelId" : "545305302836504684",
"channelName" : "笔记本新闻-新浪科技",
"channelNameSummary" : "笔记本新闻-新浪科技",
"channelUrl" : "http:\/\/tech.sina.com.cn\/notebook\/",
"author" : "WWW.SINA.COM.CN",
"tags" : [],
"desc" : "有别于一般的影音游戏本，msi微星GE60系列定位游戏发烧友及影音娱乐爱好者，其15.6英寸大屏拥有让人惊叹的1920×1080高分辨率，其内置I7四核处理器，内存及硬盘组合为8G RAM+750G ROM，整机性能强悍。目前推出GE60 0ND-469CN，售价7599元，有兴趣的发烧友不妨考虑一下。 点....",
"emailed" : False,
"forwarded" : False,
"english" : False
}  , {
"index" : 6,
"articleIndex" : "40607",
"favor" :  False ,
     "read" : False,    
"title" : "商务娱乐两用 ThinkPad E431价格4400元",
"titleTip" : "商务娱乐两用 ThinkPad E431价格4400元",
"titleSummary" : "商务娱乐两用 ThinkPad E431价格4400元",
"descSummary" : "如果您想选购一款兼具娱乐和商务特质的笔记本，那今天这款T...",
"url" : "http:\/\/go.rss.sina.com.cn\/redirect.php?url=http:\/\/tech.sina.com.cn\/n\/2013-10-16\/05528820186.shtml",
"pubDate" : "2013年10月16日 (2周前)",
"enterDate" : "384198:18:53",
"channelId" : "545305302836504684",
"channelName" : "笔记本新闻-新浪科技",
"channelNameSummary" : "笔记本新闻-新浪科技",
"channelUrl" : "http:\/\/tech.sina.com.cn\/notebook\/",
"author" : "WWW.SINA.COM.CN",
"tags" : [],
"desc" : "&#160;&#160;&#160; 如果您想选购一款兼具娱乐和商务特质的笔记本，那今天这款ThinkPad E431(62776HC)显然是您的最佳之选，因为其在14英寸机身下配置了酷睿i5-3230M处理器、NVIDIA GeForce GT 740M独立显卡以及500GB硬盘，当前商家的报价为4400元，并配送原装包鼠，有需要的朋友可....",
"emailed" : False,
"forwarded" : False,
"english" : False
}  , {
"index" : 7,
"articleIndex" : "40605",
"favor" :  False ,
     "read" : False,    
"title" : "14英寸超值之选 东芝L800价格3739元",
"titleTip" : "14英寸超值之选 东芝L800价格3739元",
"titleSummary" : "14英寸超值之选 东芝L800价格3739元",
"descSummary" : "东芝L800-C50W1(雪晶白)拥有强悍的Intel 酷睿i5 3230M处理器，内...",
"url" : "http:\/\/go.rss.sina.com.cn\/redirect.php?url=http:\/\/tech.sina.com.cn\/n\/2013-10-16\/05518820180.shtml",
"pubDate" : "2013年10月16日 (2周前)",
"enterDate" : "384198:47:57",
"channelId" : "545305302836504684",
"channelName" : "笔记本新闻-新浪科技",
"channelNameSummary" : "笔记本新闻-新浪科技",
"channelUrl" : "http:\/\/tech.sina.com.cn\/notebook\/",
"author" : "WWW.SINA.COM.CN",
"tags" : [],
"desc" : "&#160;&#160;&#160;&#160;东芝L800-C50W1(雪晶白)拥有强悍的Intel 酷睿i5 3230M处理器，内置AMD Radeon HD 7670M显卡，性能表现不错。目前，该机(行货)在商家处特价仅售3739元，全新机器+包+鼠标+鼠标垫+机打发票+动感耳机。 产品特点： ・纯白色的机身配色 ・内....",
"emailed" : False,
"forwarded" : False,
"english" : False
}  , {
"index" : 8,
"articleIndex" : "40604",
"favor" :  False ,
     "read" : False,    
"title" : "铝金属拉丝 华硕S46E3217CA价格3699元",
"titleTip" : "铝金属拉丝 华硕S46E3217CA价格3699元",
"titleSummary" : "铝金属拉丝 华硕S46E3217CA价格3699元",
"descSummary" : "华硕S46E3217CA-SL超极本采用了酷睿i3-3217U处理器、混合...",
"url" : "http:\/\/go.rss.sina.com.cn\/redirect.php?url=http:\/\/tech.sina.com.cn\/n\/2013-10-16\/05438820189.shtml",
"pubDate" : "2013年10月16日 (2周前)",
"enterDate" : "384198:39:57",
"channelId" : "545305302836504684",
"channelName" : "笔记本新闻-新浪科技",
"channelNameSummary" : "笔记本新闻-新浪科技",
"channelUrl" : "http:\/\/tech.sina.com.cn\/notebook\/",
"author" : "WWW.SINA.COM.CN",
"tags" : [],
"desc" : "&#160;&#160;&#160;&#160;华硕S46E3217CA-SL超极本采用了酷睿i3-3217U处理器、混合硬盘以及英特尔HD 4000核芯显卡。该机目前报价为3699元，喜欢的朋友一定不要错过。 华硕S46E3217CA-SL超极本采用棕黑色铝金属拉丝顶盖设计，不仅坚固度能得到保证，并且金属材质能散发出独特的质....",
"emailed" : False,
"forwarded" : False,
"english" : False
}  , {
"index" : 9,
"articleIndex" : "40606",
"favor" :  False ,
     "read" : False,    
"title" : "轻薄触控本 华硕VivoBook S200价格3080",
"titleTip" : "轻薄触控本 华硕VivoBook S200价格3080",
"titleSummary" : "轻薄触控本 华硕VivoBook S200价格3080",
"descSummary" : "华硕VivoBook S200L3217E是一款采用Windows 8操作系统的...",
"url" : "http:\/\/go.rss.sina.com.cn\/redirect.php?url=http:\/\/tech.sina.com.cn\/n\/2013-10-16\/05308820128.shtml",
"pubDate" : "2013年10月16日 (2周前)",
"enterDate" : "384197:56:53",
"channelId" : "545305302836504684",
"channelName" : "笔记本新闻-新浪科技",
"channelNameSummary" : "笔记本新闻-新浪科技",
"channelUrl" : "http:\/\/tech.sina.com.cn\/notebook\/",
"author" : "WWW.SINA.COM.CN",
"tags" : [],
"desc" : "&#160;&#160;&#160; 华硕VivoBook S200L3217E是一款采用Windows 8操作系统的触屏本，外观设计轻薄便携，金属拉丝外观略带商务感，且价格较低。近日，该笔记本(行货)商家\u201D售价3080元，带机打发票 带包包 鼠标 鼠标垫 清洁套装三件套。 产品特点： ・轻薄时尚 ....",
"emailed" : False,
"forwarded" : False,
"english" : False
}  , {
"index" : 10,
"articleIndex" : "40602",
"favor" :  False ,
     "read" : False,    
"title" : "14英寸轻薄本 联想U410-IFI价格销4550元",
"titleTip" : "14英寸轻薄本 联想U410-IFI价格销4550元",
"titleSummary" : "14英寸轻薄本 联想U410-IFI价格销4550元",
"descSummary" : "轻薄便携成为了目前笔记本的主要发展方向，而随着全新三代酷...",
"url" : "http:\/\/go.rss.sina.com.cn\/redirect.php?url=http:\/\/tech.sina.com.cn\/n\/2013-10-16\/03308820003.shtml",
"pubDate" : "2013年10月16日 (2周前)",
"enterDate" : "384196:27:07",
"channelId" : "545305302836504684",
"channelName" : "笔记本新闻-新浪科技",
"channelNameSummary" : "笔记本新闻-新浪科技",
"channelUrl" : "http:\/\/tech.sina.com.cn\/notebook\/",
"author" : "WWW.SINA.COM.CN",
"tags" : [],
"desc" : "&#160;&#160;&#160;&#160;轻薄便携成为了目前笔记本的主要发展方向，而随着全新三代酷睿处理器的上市，越来越多的轻薄笔记本随之热销，联想U410-IFI它拥有14英寸的屏幕搭载了Intel 酷睿i5 3337U处理器，内置NVIDIA GeForce GT 710M独立显卡，硬盘方面24GB大小的SSD固态硬盘与500G大小的....",
"emailed" : False,
"forwarded" : False,
"english" : False
}  , {
"index" : 11,
"articleIndex" : "40603",
"favor" :  False ,
     "read" : False,    
"title" : "3D游戏无压力 三星NP915S3G价格5590元",
"titleTip" : "3D游戏无压力 三星NP915S3G价格5590元",
"titleSummary" : "3D游戏无压力 三星NP915S3G价格5590元",
"descSummary" : "三星NP915S3G-K01CN采用时尚的外观设计，流线型机身，透...",
"url" : "http:\/\/go.rss.sina.com.cn\/redirect.php?url=http:\/\/tech.sina.com.cn\/n\/2013-10-16\/03308820004.shtml",
"pubDate" : "2013年10月16日 (2周前)",
"enterDate" : "384196:27:07",
"channelId" : "545305302836504684",
"channelName" : "笔记本新闻-新浪科技",
"channelNameSummary" : "笔记本新闻-新浪科技",
"channelUrl" : "http:\/\/tech.sina.com.cn\/notebook\/",
"author" : "WWW.SINA.COM.CN",
"tags" : [],
"desc" : "&#160;&#160;&#160;&#160;三星NP915S3G-K01CN采用时尚的外观设计，流线型机身，透露潮流气息，质感尽显。无论是甜美派、可爱范，还是冷酷型、欧美风，都能成为最佳数码玩伴。目前在商家报价5590元，感兴趣的朋友不妨关注一下哟。 三星NP915S3G-K01CN 三星NP915S3G-K0....",
"emailed" : False,
"forwarded" : False,
"english" : False
}  , {
"index" : 12,
"articleIndex" : "40601",
"favor" :  False ,
     "read" : False,    
"title" : "高科技穿戴设备 四款热门智能手表选购",
"titleTip" : "高科技穿戴设备 四款热门智能手表选购",
"titleSummary" : "高科技穿戴设备 四款热门智能手表选购",
"descSummary" : "本文导航 索尼SmartWatch Omate TrueSmart 盛大果壳智能手表...",
"url" : "http:\/\/go.rss.sina.com.cn\/redirect.php?url=http:\/\/tech.sina.com.cn\/n\/pad\/2013-10-15\/14348818059.shtml",
"pubDate" : "2013年10月15日 (2周前)",
"enterDate" : "384201:04:07",
"channelId" : "545305302836504684",
"channelName" : "笔记本新闻-新浪科技",
"channelNameSummary" : "笔记本新闻-新浪科技",
"channelUrl" : "http:\/\/tech.sina.com.cn\/notebook\/",
"author" : "WWW.SINA.COM.CN",
"tags" : [],
"desc" : "本文导航 索尼SmartWatch Omate TrueSmart 盛大果壳智能手表 三星Galaxy Gear智能手表 智能手表这一新产品似 乎已经成为IT产业下一个重要的发展方向，苹果、Google、三星等知名公司研发智能手表的消息一....",
"emailed" : False,
"forwarded" : False,
"english" : False
}  , {
"index" : 13,
"articleIndex" : "40599",
"favor" :  False ,
     "read" : False,    
"title" : "Retina屏iPad mini变厚0.3毫米",
"titleTip" : "Retina屏iPad mini变厚0.3毫米",
"titleSummary" : "Retina屏iPad mini变厚0.3毫米",
"descSummary" : "即将发布的第二代iPad mini最令人激动的就是传言已久的Retina显示屏了...",
"url" : "http:\/\/go.rss.sina.com.cn\/redirect.php?url=http:\/\/tech.sina.com.cn\/n\/pad\/2013-10-15\/08578817272.shtml",
"pubDate" : "2013年10月15日 (2周前)",
"enterDate" : "384200:58:47",
"channelId" : "545305302836504684",
"channelName" : "笔记本新闻-新浪科技",
"channelNameSummary" : "笔记本新闻-新浪科技",
"channelUrl" : "http:\/\/tech.sina.com.cn\/notebook\/",
"author" : "WWW.SINA.COM.CN",
"tags" : [],
"desc" : "即将发布的第二代iPad mini最令人激动的就是传言已久的Retina显示屏了，Retina视网膜显示屏目前已经在iPhone、全尺寸iPad和部分MacBook Pro上。第一代iPad mini没有配备Retina显示屏的原因有很多，比如成本、硬件尺寸以及电池续航等等。不过将于10月22日举行的新品发布会上....",
"emailed" : False,
"forwarded" : False,
"english" : False
}  , {
"index" : 14,
"articleIndex" : "40598",
"favor" :  False ,
     "read" : False,    
"title" : "款款都精彩 多款市场热销平板电脑大盘点",
"titleTip" : "款款都精彩 多款市场热销平板电脑大盘点",
"titleSummary" : "款款都精彩 多款市场热销平板电脑大盘点",
"descSummary" : "本文导航 华硕ASUS Fonepad 苹果iPad mini 宏B1-A71 三星G...",
"url" : "http:\/\/go.rss.sina.com.cn\/redirect.php?url=http:\/\/tech.sina.com.cn\/n\/pad\/2013-10-15\/08438817239.shtml",
"pubDate" : "2013年10月15日 (2周前)",
"enterDate" : "384200:44:31",
"channelId" : "545305302836504684",
"channelName" : "笔记本新闻-新浪科技",
"channelNameSummary" : "笔记本新闻-新浪科技",
"channelUrl" : "http:\/\/tech.sina.com.cn\/notebook\/",
"author" : "WWW.SINA.COM.CN",
"tags" : [],
"desc" : "本文导航 华硕ASUS Fonepad 苹果iPad mini 宏B1-A71 三星Galaxy Tab 3 8.0 HP ElitePad 900 ThinkPad Tablet 2 联想MIIX 很多消费者在选购数码产品的时候，大都会选择一些时下....",
"emailed" : False,
"forwarded" : False,
"english" : False
}  , {
"index" : 15,
"articleIndex" : "40597",
"favor" :  False ,
     "read" : False,    
"title" : "铁血真硬汉 暴力测松下ToughBook军工本",
"titleTip" : "铁血真硬汉 暴力测松下ToughBook军工本",
"titleSummary" : "铁血真硬汉 暴力测松下ToughBook军工本",
"descSummary" : "ToughBook，本本中的\u201C舒华辛力加\u201D 在美国新墨西哥州的一...",
"url" : "http:\/\/go.rss.sina.com.cn\/redirect.php?url=http:\/\/tech.sina.com.cn\/n\/2013-10-15\/08418817232.shtml",
"pubDate" : "2013年10月15日 (2周前)",
"enterDate" : "384200:42:44",
"channelId" : "545305302836504684",
"channelName" : "笔记本新闻-新浪科技",
"channelNameSummary" : "笔记本新闻-新浪科技",
"channelUrl" : "http:\/\/tech.sina.com.cn\/notebook\/",
"author" : "WWW.SINA.COM.CN",
"tags" : [],
"desc" : "ToughBook，本本中的\u201C舒华辛力加\u201D 在美国新墨西哥州的一处荒无人烟的戈壁上，特工Angelina已经布 好了定时炸弹，等待目标Tank的到来，却完全不知道他的老公Brad也接到了同样的任务，果然误会出现了。Angelina误打误撞的朝Brad开了一 枪，Brad却也全不知情的用RPG火箭....",
"emailed" : False,
"forwarded" : False,
"english" : False
}  , {
"index" : 16,
"articleIndex" : "40594",
"favor" :  False ,
     "read" : False,    
"title" : "华硕唯美一体机曝光：简约、超薄、时尚",
"titleTip" : "华硕唯美一体机曝光：简约、超薄、时尚",
"titleSummary" : "华硕唯美一体机曝光：简约、超薄、时尚",
"descSummary" : "随着人们家具环境以及电脑使用习惯的改变，一体机逐渐成为人...",
"url" : "http:\/\/go.rss.sina.com.cn\/redirect.php?url=http:\/\/tech.sina.com.cn\/n\/2013-10-15\/08368817218.shtml",
"pubDate" : "2013年10月15日 (2周前)",
"enterDate" : "384201:07:02",
"channelId" : "545305302836504684",
"channelName" : "笔记本新闻-新浪科技",
"channelNameSummary" : "笔记本新闻-新浪科技",
"channelUrl" : "http:\/\/tech.sina.com.cn\/notebook\/",
"author" : "WWW.SINA.COM.CN",
"tags" : [],
"desc" : "随着人们家具环境以及电脑使用习惯的改变，一体机逐渐成为人们的首选，但遗憾的是目前市面上所在售的产品很少能够在外观和性能方面同时满足用户的要求。 现在，华硕在官方YouTube视频专辑中加入了一款全新一体机产品\u2015\u2015ET2321，并附带了一些简单的介绍。从中我们可以....",
"emailed" : False,
"forwarded" : False,
"english" : False
}  , {
"index" : 17,
"articleIndex" : "40596",
"favor" :  False ,
     "read" : False,    
"title" : "主流14寸双显卡 东芝C805本价格2699元",
"titleTip" : "主流14寸双显卡 东芝C805本价格2699元",
"titleSummary" : "主流14寸双显卡 东芝C805本价格2699元",
"descSummary" : "东芝 C805-SC1R1有着主流的14寸高清炫彩屏，搭载了Intel 酷睿...",
"url" : "http:\/\/go.rss.sina.com.cn\/redirect.php?url=http:\/\/tech.sina.com.cn\/n\/2013-10-15\/08008816807.shtml",
"pubDate" : "2013年10月15日 (2周前)",
"enterDate" : "384200:00:48",
"channelId" : "545305302836504684",
"channelName" : "笔记本新闻-新浪科技",
"channelNameSummary" : "笔记本新闻-新浪科技",
"channelUrl" : "http:\/\/tech.sina.com.cn\/notebook\/",
"author" : "WWW.SINA.COM.CN",
"tags" : [],
"desc" : "&#160;&#160;&#160; 东芝 C805-SC1R1有着主流的14寸高清炫彩屏，搭载了Intel 酷睿i3 2348M处理器，2G内存以及500GB硬盘，有着AMD Radeon HD 7610M＋Intel GMA HD 4000的双显卡配置，拥有1GB独立显存，性能表现相当出色。作为一款实用的学生全能本，它还有着出色的性价比，目前这款....",
"emailed" : False,
"forwarded" : False,
"english" : False
}  , {
"index" : 18,
"articleIndex" : "40600",
"favor" :  False ,
     "read" : False,    
"title" : "大屏商务本 ThinkPad T530价格6799元",
"titleTip" : "大屏商务本 ThinkPad T530价格6799元",
"titleSummary" : "大屏商务本 ThinkPad T530价格6799元",
"descSummary" : "2013年10月15日消息，编辑在市场了解到，ThinkPad T530(2359...",
"url" : "http:\/\/go.rss.sina.com.cn\/redirect.php?url=http:\/\/tech.sina.com.cn\/n\/2013-10-15\/05598816220.shtml",
"pubDate" : "2013年10月15日 (2周前)",
"enterDate" : "384197:29:43",
"channelId" : "545305302836504684",
"channelName" : "笔记本新闻-新浪科技",
"channelNameSummary" : "笔记本新闻-新浪科技",
"channelUrl" : "http:\/\/tech.sina.com.cn\/notebook\/",
"author" : "WWW.SINA.COM.CN",
"tags" : [],
"desc" : "2013年10月15日消息，编辑在市场了解到，ThinkPad T530(23591L9)是经典系列大屏商务本，搭载有酷睿i5处理器，4GB内存，1TB硬盘，NVIDIA Optimus NVS 5400M独立显卡，15.6英寸显示屏。预装有专业版Win8操作系统。目前经销商处含税报价为6799元。 促销信息：赠送原装包，....",
"emailed" : False,
"forwarded" : False,
"english" : False
}  , {
"index" : 19,
"articleIndex" : "40595",
"favor" :  False ,
     "read" : False,    
"title" : "A5处理器 苹果iPad mini价格1950元",
"titleTip" : "A5处理器 苹果iPad mini价格1950元",
"titleSummary" : "A5处理器 苹果iPad mini价格1950元",
"descSummary" : "苹果iPad mini是一款外观精致的平板电脑，采用了更加轻薄便携的7....",
"url" : "http:\/\/go.rss.sina.com.cn\/redirect.php?url=http:\/\/tech.sina.com.cn\/n\/pad\/2013-10-15\/05318816153.shtml",
"pubDate" : "2013年10月15日 (2周前)",
"enterDate" : "384197:31:48",
"channelId" : "545305302836504684",
"channelName" : "笔记本新闻-新浪科技",
"channelNameSummary" : "笔记本新闻-新浪科技",
"channelUrl" : "http:\/\/tech.sina.com.cn\/notebook\/",
"author" : "WWW.SINA.COM.CN",
"tags" : [],
"desc" : "苹果iPad mini是一款外观精致的平板电脑，采用了更加轻薄便携的7.9英寸屏幕，双核A5处理器性能不弱，丰富的应用也十分值得尝试。目前，该平板(16GB\/WIFI版)在商家京都易购手机给出了冰点售价，也是在iPad mini价格历史中首次跌破2000元大关，目前仅售1950元，希望不相等iPad m....",
"emailed" : False,
"forwarded" : False,
"english" : False
} ]
}
