{
"mode" : {"viewTitle" : 1,   "viewNew" : 0,  "pageIndex" : 1 },
 "channel" : {"id" : "6583243195228426426", "booked" : False, "subNumber" : 1, "name" : "文史-新浪博客", "url" : "http:\/\/blog.sina.com.cn\/lm\/history\/index.html", "feed" : "http:\/\/rss.sina.com.cn\/blog\/index\/cul.xml", "author" : "东湖少主v,侯虹斌,冯学荣,刘典,刘黎平...", "desc" : "文化博客列表", "imageUrl" : "http:\/\/www.sinaimg.cn\/blog\/main\/index2010\/blog_logo.png", "postPerWeek" : "0", "lastCrawTime" : "17:09:35", "crawDateTime" : "15:54:20", "lastHttpCode" : "304"}, "page" : {
"startIndex" : 0,
"totalCount" : 5000,
"pageIndex" : 1,
"lastPage" : 250,
"pageSize" : 20,
"english" :  False },
 "unreadNum" : 0, "shotIndex" : -1,
"articles" : [
{
"index" : 0,
"articleIndex" : "13493",
"favor" :  False ,
     "read" : False,    
"title" : "名将尉迟恭当众殴打唐太宗弟弟",
"titleTip" : "名将尉迟恭当众殴打唐太宗弟弟",
"titleSummary" : "名将尉迟恭当众殴打唐太宗弟弟",
"descSummary" : "九月，己酉，幸庆善宫，上（唐太宗，古代称皇帝为上）生时故宅也，因...",
"url" : "http:\/\/go.rss.sina.com.cn\/redirect.php?url=http:\/\/blog.sina.com.cn\/s\/blog_6a23a4c20101gitb.html",
"pubDate" : "10:07:54",
"enterDate" : "384200:34:07",
"channelId" : "6583243195228426426",
"channelName" : "文史-新浪博客",
"channelNameSummary" : "文史-新浪博客",
"channelUrl" : "http:\/\/blog.sina.com.cn\/lm\/history\/index.html",
"author" : "刘黎平",
"tags" : [],
"desc" : "九月，己酉，幸庆善宫，上（唐太宗，古代称皇帝为上）生时故宅也，因与贵人宴，赋。同州刺史尉迟敬德预宴，有班在其上者，敬德怒曰：\u201C汝何功，坐我上！\u201D任城王道宗次其下，谕解之。敬德拳殴道宗，目几眇。上不怿而罢，谓敬德曰：\u201C朕见汉高祖诛灭功臣，意常尤之，故欲与卿等共保富贵，令子孙不绝。然卿居官数犯法，...",
"emailed" : False,
"forwarded" : False,
"english" : False
}  , {
"index" : 1,
"articleIndex" : "13494",
"favor" :  False ,
     "read" : False,    
"title" : "新中国在国际比赛中射进第一球的是谁",
"titleTip" : "新中国在国际比赛中射进第一球的是谁",
"titleSummary" : "新中国在国际比赛中射进第一球的是谁",
"descSummary" : "（希望有李宏揆先生生前照片的朋友能提供一张） 北京的球迷在...",
"url" : "http:\/\/go.rss.sina.com.cn\/redirect.php?url=http:\/\/blog.sina.com.cn\/s\/blog_4eddf60c0102e11i.html",
"pubDate" : "昨天23:31:58",
"enterDate" : "384186:42:32",
"channelId" : "6583243195228426426",
"channelName" : "文史-新浪博客",
"channelNameSummary" : "文史-新浪博客",
"channelUrl" : "http:\/\/blog.sina.com.cn\/lm\/history\/index.html",
"author" : "金汕",
"tags" : [],
"desc" : "（希望有李宏揆先生生前照片的朋友能提供一张） 北京的球迷在不同年龄段有不同的喜爱方式，上点年纪的也许少了些狂热却多了些思考与责任感。现在30多岁的人找......&gt;&gt;点击查看新浪博客原文青春就应该这样绽放游戏测试：三国时期谁是你最好的兄弟！！你不得不信的星座秘密",
"emailed" : False,
"forwarded" : False,
"english" : False
}  , {
"index" : 2,
"articleIndex" : "13492",
"favor" :  False ,
     "read" : False,    
"title" : "唐伯虎热衷于纵酒狎妓娱乐活动",
"titleTip" : "唐伯虎热衷于纵酒狎妓娱乐活动",
"titleSummary" : "唐伯虎热衷于纵酒狎妓娱乐活动",
"descSummary" : "唐寅是一个被后人高度扭曲的人物。民间传说中他和朋友祝枝山的\u201C捉狭...",
"url" : "http:\/\/go.rss.sina.com.cn\/redirect.php?url=http:\/\/blog.sina.com.cn\/s\/blog_e4ebc4740101cqs7.html",
"pubDate" : "昨天14:16:42",
"enterDate" : "384180:42:55",
"channelId" : "6583243195228426426",
"channelName" : "文史-新浪博客",
"channelNameSummary" : "文史-新浪博客",
"channelUrl" : "http:\/\/blog.sina.com.cn\/lm\/history\/index.html",
"author" : "李舟楫",
"tags" : [],
"desc" : "唐寅是一个被后人高度扭曲的人物。民间传说中他和朋友祝枝山的\u201C捉狭鬼\u201D形像，被港片拿来凑成一对明版的古惑仔，成为搞笑片的经典人物。制片方由此大赚票房，也使唐祝两人，家喻户晓。如此结果，真不知幸也不幸也。 与此相反，美术史界则不不遗余力，将唐寅塑造成为穷困潦倒，不拘礼法的反封建斗士。在山水画成就上，着...",
"emailed" : False,
"forwarded" : False,
"english" : False
}  , {
"index" : 3,
"articleIndex" : "13491",
"favor" :  False ,
     "read" : False,    
"title" : "1883年美国女子北京旅行日记(图)",
"titleTip" : "1883年美国女子北京旅行日记(图)",
"titleSummary" : "1883年美国女子北京旅行日记(图)",
"descSummary" : "1883年9月21日，美国旅行家伊撒博拉?斯图尔特?加德纳和她的丈夫抵达...",
"url" : "http:\/\/go.rss.sina.com.cn\/redirect.php?url=http:\/\/blog.sina.com.cn\/s\/blog_4c18d5730101lf1f.html",
"pubDate" : "昨天10:17:00",
"enterDate" : "384176:43:13",
"channelId" : "6583243195228426426",
"channelName" : "文史-新浪博客",
"channelNameSummary" : "文史-新浪博客",
"channelUrl" : "http:\/\/blog.sina.com.cn\/lm\/history\/index.html",
"author" : "黄加佳",
"tags" : [],
"desc" : "1883年9月21日，美国旅行家伊撒博拉?斯图尔特?加德纳和她的丈夫抵达北京。这位家境殷实的美国女子，为了排遣失子之痛，踏上了环球旅行之路。没想到，从此她爱上了旅行。1883年，在游历了大半个地球后，加德纳夫妇来到了中国。他们在北京游览了19天，其间他们依照1876年版的《北京旅行指南》游览了北京及周...",
"emailed" : False,
"forwarded" : False,
"english" : False
}  , {
"index" : 4,
"articleIndex" : "13496",
"favor" :  False ,
     "read" : False,    
"title" : "清王朝灭亡是死于\u201C新政\u201D吗？",
"titleTip" : "清王朝灭亡是死于\u201C新政\u201D吗？",
"titleSummary" : "清王朝灭亡是死于\u201C新政\u201D吗？",
"descSummary" : "清王朝是死于\u201C新政\u201D吗？在中国，研究清室兴衰的著述汗牛充栋，对晚...",
"url" : "http:\/\/go.rss.sina.com.cn\/redirect.php?url=http:\/\/blog.sina.com.cn\/s\/blog_485dcc670102e168.html",
"pubDate" : "昨天08:43:40",
"enterDate" : "384170:08:49",
"channelId" : "6583243195228426426",
"channelName" : "文史-新浪博客",
"channelNameSummary" : "文史-新浪博客",
"channelUrl" : "http:\/\/blog.sina.com.cn\/lm\/history\/index.html",
"author" : "程万军",
"tags" : [],
"desc" : "清王朝是死于\u201C新政\u201D吗？ 在中国，研究清室兴衰的著述汗牛充栋，对晚清走向灭亡的分析林林总总，尤其对\u201C压倒清王朝最后一根稻草\u201D的认定，更是五花八门，有\u201C保路\u201D说，\u201C商会\u201D说，\u201C新军\u201D说，其中比较突出的一种甚至观点认为：清室死于\u201C新政\u201D。 这不由令我想起近年畅销书《旧制度与大革命》，作者托克维尔有句很...",
"emailed" : False,
"forwarded" : False,
"english" : False
}  , {
"index" : 5,
"articleIndex" : "13488",
"favor" :  False ,
     "read" : False,    
"title" : "刘邦逃亡时好几次把儿女踹下马车",
"titleTip" : "刘邦逃亡时好几次把儿女踹下马车",
"titleSummary" : "刘邦逃亡时好几次把儿女踹下马车",
"descSummary" : "孝惠帝刘盈，是刘邦和吕后生的儿子。他性格柔顺，为人仁弱，在位仅...",
"url" : "http:\/\/go.rss.sina.com.cn\/redirect.php?url=http:\/\/blog.sina.com.cn\/s\/blog_6f9170c40101eh9q.html",
"pubDate" : "昨天06:48:55",
"enterDate" : "384196:19:49",
"channelId" : "6583243195228426426",
"channelName" : "文史-新浪博客",
"channelNameSummary" : "文史-新浪博客",
"channelUrl" : "http:\/\/blog.sina.com.cn\/lm\/history\/index.html",
"author" : "荷塘月色",
"tags" : [],
"desc" : "孝惠帝刘盈，是刘邦和吕后生的儿子。他性格柔顺，为人仁弱，在位仅有七年的时间，就英年早逝了。但是，在其短暂的一生中，始终有一个人令他难以忘怀。那么，这个人究竟是谁呢？又是什么原因给他留下如此深刻的印象呢？ 此人正是西汉王朝的开国功臣之一，夏侯婴。在刘盈的心目中，夏侯婴是他最亲近的人，如同其再生父母。...",
"emailed" : False,
"forwarded" : False,
"english" : False
}  , {
"index" : 6,
"articleIndex" : "13485",
"favor" :  False ,
     "read" : False,    
"title" : "中国古代职业杀手是怎么练成的",
"titleTip" : "中国古代职业杀手是怎么练成的",
"titleSummary" : "中国古代职业杀手是怎么练成的",
"descSummary" : "杀手自古就有，别以为古代杀手是个武林高手，伸筋，压腿，蹲马步，冲...",
"url" : "http:\/\/go.rss.sina.com.cn\/redirect.php?url=http:\/\/blog.sina.com.cn\/s\/blog_61b4201e0102ehbw.html",
"pubDate" : "前天04:37:30",
"enterDate" : "384197:09:09",
"channelId" : "6583243195228426426",
"channelName" : "文史-新浪博客",
"channelNameSummary" : "文史-新浪博客",
"channelUrl" : "http:\/\/blog.sina.com.cn\/lm\/history\/index.html",
"author" : "宁宁找乐",
"tags" : [],
"desc" : "杀手自古就有，别以为古代杀手是个武林高手，伸筋，压腿，蹲马步，冲拳、踢腿、翻跟头，基本功扎实；矛锤弓弩铳，鞭锏剑链挝，斧钺并戈戟，牌棒与枪叉十八般武艺样样精通，如果真练成这样，那就不是杀手，可能是八十万禁军教头。 \u201C风潇潇兮易水寒，壮士一去兮不复还。\u201D荆柯无疑是历史上知名度最高的杀手，世代为...",
"emailed" : False,
"forwarded" : False,
"english" : False
}  , {
"index" : 7,
"articleIndex" : "13484",
"favor" :  False ,
     "read" : False,    
"title" : "宋美龄如何做了曾国藩外孙女伴娘(图)",
"titleTip" : "宋美龄如何做了曾国藩外孙女伴娘(图)",
"titleSummary" : "宋美龄如何做了曾国藩外孙女伴娘(图)",
"descSummary" : "曾国藩漂亮外孙女的叛逆人生 她是曾国藩的外孙女，却从不遵循家...",
"url" : "http:\/\/go.rss.sina.com.cn\/redirect.php?url=http:\/\/blog.sina.com.cn\/s\/blog_4ac5b19f0102e67q.html",
"pubDate" : "前天01:07:36",
"enterDate" : "384193:39:15",
"channelId" : "6583243195228426426",
"channelName" : "文史-新浪博客",
"channelNameSummary" : "文史-新浪博客",
"channelUrl" : "http:\/\/blog.sina.com.cn\/lm\/history\/index.html",
"author" : "王南方",
"tags" : [],
"desc" : "曾国藩漂亮外孙女的叛逆人生 她是曾国藩的外孙女，却从不遵循家训；他是上海道台聂缉?的幼女，结婚时宋美龄为她作傧相；她是时髦的洋派人物，曾孤身追星追到好莱坞；她是骄横的大小姐，\u201C文革\u201D中以嚎啕大哭保护家人；她是上海名媛中\u201C扎眼\u201D的刺头，朋友落难时，她挺身相助；她就是聂其壁。 10年前，作家宋...",
"emailed" : False,
"forwarded" : False,
"english" : False
}  , {
"index" : 8,
"articleIndex" : "13487",
"favor" :  False ,
     "read" : False,    
"title" : "迷信皇帝荒唐禁令：杀狗有罪养狗有赏",
"titleTip" : "迷信皇帝荒唐禁令：杀狗有罪养狗有赏",
"titleSummary" : "迷信皇帝荒唐禁令：杀狗有罪养狗有赏",
"descSummary" : "宋徽宗\u201C从谏如流\u201D 文\/晏建怀 宋徽宗善于\u201C纳谏\u201D，堪称\u201C从...",
"url" : "http:\/\/go.rss.sina.com.cn\/redirect.php?url=http:\/\/blog.sina.com.cn\/s\/blog_48b317f80101kiez.html",
"pubDate" : "前天22:21:59",
"enterDate" : "384187:52:53",
"channelId" : "6583243195228426426",
"channelName" : "文史-新浪博客",
"channelNameSummary" : "文史-新浪博客",
"channelUrl" : "http:\/\/blog.sina.com.cn\/lm\/history\/index.html",
"author" : "晏建怀",
"tags" : [],
"desc" : "宋徽宗\u201C从谏如流\u201D 文\/晏建怀 宋徽宗善于\u201C纳谏\u201D，堪称\u201C从谏如流\u201D。不过，他纳的既不是保家卫国之谏，也不是国计民生之谏，而是谶纬学和风水术。 据宋代朱弁《曲洧旧闻》记载，崇宁初年(1102年)，中书舍人范致虚看到京城以屠狗为业者甚众，觉得事关重大，该提个建议。他向宋徽宗上书说：\u201C十二宫神（生肖），狗居戌位...",
"emailed" : False,
"forwarded" : False,
"english" : False
}  , {
"index" : 9,
"articleIndex" : "13490",
"favor" :  False ,
     "read" : False,    
"title" : "担任军队主帅冲锋陷阵的公主女汉子",
"titleTip" : "担任军队主帅冲锋陷阵的公主女汉子",
"titleSummary" : "担任军队主帅冲锋陷阵的公主女汉子",
"descSummary" : "在我国古代，不乏有驰骋沙场的巾帼英雄，例如;商高帝武丁王后妇...",
"url" : "http:\/\/go.rss.sina.com.cn\/redirect.php?url=http:\/\/blog.sina.com.cn\/s\/blog_50f789140101adna.html",
"pubDate" : "前天20:13:35",
"enterDate" : "384179:28:04",
"channelId" : "6583243195228426426",
"channelName" : "文史-新浪博客",
"channelNameSummary" : "文史-新浪博客",
"channelUrl" : "http:\/\/blog.sina.com.cn\/lm\/history\/index.html",
"author" : "老猴随笔",
"tags" : [],
"desc" : "在我国古代，不乏有驰骋沙场的巾帼英雄，例如;商高帝武丁王后妇好，北魏替父从军的花木兰，替子报仇的西汉未年中国首位农民起义反王莽女领袖吕母，反对割裂分治，维护祖国统一的岭南反莽少数民族女首领冼夫人（南凉太守夫人洗英），宋朝著名抗金女英雄、抗金名将韩世忠妻子梁红玉，还有北宋杨门女将穆桂英，百岁挂帅的佘太...",
"emailed" : False,
"forwarded" : False,
"english" : False
}  , {
"index" : 10,
"articleIndex" : "13495",
"favor" :  False ,
     "read" : False,    
"title" : "周总理最爱谁家的毛笔？(图)",
"titleTip" : "周总理最爱谁家的毛笔？(图)",
"titleSummary" : "周总理最爱谁家的毛笔？(图)",
"descSummary" : "传统文化里面，\u201C笔墨纸砚\u201D这文房四宝，笔排在首位。琉璃厂文化街上唯一...",
"url" : "http:\/\/go.rss.sina.com.cn\/redirect.php?url=http:\/\/blog.sina.com.cn\/s\/blog_4a3240a60102e90p.html",
"pubDate" : "前天19:54:43",
"enterDate" : "384157:19:52",
"channelId" : "6583243195228426426",
"channelName" : "文史-新浪博客",
"channelNameSummary" : "文史-新浪博客",
"channelUrl" : "http:\/\/blog.sina.com.cn\/lm\/history\/index.html",
"author" : "杜军119",
"tags" : [],
"desc" : "传统文化里面，\u201C笔墨纸砚\u201D这文房四宝，笔排在首位。琉璃厂文化街上唯一一家以\u201C人名\u201D作为\u201C店名\u201D的老字号，就是这家专门制作毛笔的\u201C戴月轩\u201D。戴月轩笔店创建于1916年，店主戴斌，字月轩，浙江湖州人。戴斌幼年来京，在琉璃厂贺莲青湖笔店当学徒，他学艺刻苦，短短几年便掌握了制笔的诀窍，还未出师便小有名气。不久...",
"emailed" : False,
"forwarded" : False,
"english" : False
}  , {
"index" : 11,
"articleIndex" : "13483",
"favor" :  False ,
     "read" : False,    
"title" : "十恶不赦究竟是哪\u201C十恶\u201D",
"titleTip" : "十恶不赦究竟是哪\u201C十恶\u201D",
"titleSummary" : "十恶不赦究竟是哪\u201C十恶\u201D",
"descSummary" : "我们都知道，中国古代的社会，其实就以一个人情的社会，一个人犯了什么罪...",
"url" : "http:\/\/go.rss.sina.com.cn\/redirect.php?url=http:\/\/blog.sina.com.cn\/s\/blog_51fc91520101i3sn.html",
"pubDate" : "前天19:21:29",
"enterDate" : "384198:55:15",
"channelId" : "6583243195228426426",
"channelName" : "文史-新浪博客",
"channelNameSummary" : "文史-新浪博客",
"channelUrl" : "http:\/\/blog.sina.com.cn\/lm\/history\/index.html",
"author" : "刘典",
"tags" : [],
"desc" : "我们都知道，中国古代的社会，其实就以一个人情的社会，一个人犯了什么罪，有许多种办法干涉司法程序的审判，比如请皇帝下个诏令啦、上书喊冤不合情理啦、法官于心不忍高抬贵手啦，甚至法律明文规定，可以按官的品级来抵罪，或者用钱抵罪，诸如此类，不胜枚举。 但就是这么多的减刑手段，却是有十类人是什么样的办法都不适用...",
"emailed" : False,
"forwarded" : False,
"english" : False
}  , {
"index" : 12,
"articleIndex" : "13482",
"favor" :  False ,
     "read" : False,    
"title" : "1982年女司机天安门广场撞死5人血案",
"titleTip" : "1982年女司机天安门广场撞死5人血案",
"titleSummary" : "1982年女司机天安门广场撞死5人血案",
"descSummary" : "1982：姚锦云制造的天安门广场血案 也许正因为天安门广场的神圣...",
"url" : "http:\/\/go.rss.sina.com.cn\/redirect.php?url=http:\/\/blog.sina.com.cn\/s\/blog_4ac981db0102f6df.html",
"pubDate" : "前天13:30:32",
"enterDate" : "384199:07:05",
"channelId" : "6583243195228426426",
"channelName" : "文史-新浪博客",
"channelNameSummary" : "文史-新浪博客",
"channelUrl" : "http:\/\/blog.sina.com.cn\/lm\/history\/index.html",
"author" : "老秦博客",
"tags" : [],
"desc" : "1982：姚锦云制造的天安门广场血案 也许正因为天安门广场的神圣地位，一些想制造影响的人，也把闹事地点选择到这里。20多年前，23岁的北京出租车司机姚锦云，因 为与单位领导的矛盾一时没得以解决，驾车闯入天安门广场，在如织的人群里轧出一条血路，最后冲向天安门城楼下的金水桥，5人被当场撞死，19人被撞伤。当 天，...",
"emailed" : False,
"forwarded" : False,
"english" : False
}  , {
"index" : 13,
"articleIndex" : "13489",
"favor" :  False ,
     "read" : False,    
"title" : "朝鲜绝色美女逼明朝皇帝后宫杀人",
"titleTip" : "朝鲜绝色美女逼明朝皇帝后宫杀人",
"titleSummary" : "朝鲜绝色美女逼明朝皇帝后宫杀人",
"descSummary" : "朝鲜半岛，很早就是中国的老邻居。当附属国也好，依附中国帝王也罢...",
"url" : "http:\/\/go.rss.sina.com.cn\/redirect.php?url=http:\/\/blog.sina.com.cn\/s\/blog_48a8f1630102ebxb.html",
"pubDate" : "2013年10月27日 (3天前)",
"enterDate" : "384157:59:13",
"channelId" : "6583243195228426426",
"channelName" : "文史-新浪博客",
"channelNameSummary" : "文史-新浪博客",
"channelUrl" : "http:\/\/blog.sina.com.cn\/lm\/history\/index.html",
"author" : "张继合",
"tags" : [],
"desc" : "朝鲜半岛，很早就是中国的老邻居。当附属国也好，依附中国帝王也罢，谁也搅乱不了朝鲜人勤劳、善良的本性，更窜改不了当地的丰盛特产。很有趣，赶到朱元璋登基坐殿之后，朝鲜女性美丽动人的姿态，居然出现在明朝皇帝身边。谁能料想，朝鲜一带向皇室进贡绝色美女呢？（下图：明朝的永乐皇帝??朱棣。） 明成祖朱棣，称得起...",
"emailed" : False,
"forwarded" : False,
"english" : False
}  , {
"index" : 14,
"articleIndex" : "13481",
"favor" :  False ,
     "read" : False,    
"title" : "南宋站街妓女的辣广告：八百钱任你玩",
"titleTip" : "南宋站街妓女的辣广告：八百钱任你玩",
"titleSummary" : "南宋站街妓女的辣广告：八百钱任你玩",
"descSummary" : "南宋站街女的辣广告 文\/赵炎 妓女需不需要做广告？当然要做了...",
"url" : "http:\/\/go.rss.sina.com.cn\/redirect.php?url=http:\/\/blog.sina.com.cn\/s\/blog_605827cf0102ed2f.html",
"pubDate" : "2013年10月27日 (3天前)",
"enterDate" : "384175:12:15",
"channelId" : "6583243195228426426",
"channelName" : "文史-新浪博客",
"channelNameSummary" : "文史-新浪博客",
"channelUrl" : "http:\/\/blog.sina.com.cn\/lm\/history\/index.html",
"author" : "赵炎",
"tags" : [],
"desc" : "南宋站街女的辣广告 文\/赵炎 妓女需不需要做广告？当然要做了。天上又不掉银子，钱在客人的荷包里，不做广告怎么行？好酒不怕巷子深，皇帝女儿不愁嫁，等等，那都是忽悠人的，顾客数日不上门，门庭冷落车马稀，任谁都会急眼。 南宋的妓女，品类比较杂，贵贱各不同。 皇帝宫廷里的娱乐性妓女，叫宫妓，官府出资购买的...",
"emailed" : False,
"forwarded" : False,
"english" : False
}  , {
"index" : 15,
"articleIndex" : "13480",
"favor" :  False ,
     "read" : False,    
"title" : "冯学荣：孙中山招兵买马出手大方",
"titleTip" : "冯学荣：孙中山招兵买马出手大方",
"titleSummary" : "冯学荣：孙中山招兵买马出手大方",
"descSummary" : "《隐动力》之：出手大方的孙中山 冯学荣 \u201C中国近代史发展到节骨眼...",
"url" : "http:\/\/go.rss.sina.com.cn\/redirect.php?url=http:\/\/blog.sina.com.cn\/s\/blog_4f0523780101q61h.html",
"pubDate" : "2013年10月26日 (4天前)",
"enterDate" : "384150:02:47",
"channelId" : "6583243195228426426",
"channelName" : "文史-新浪博客",
"channelNameSummary" : "文史-新浪博客",
"channelUrl" : "http:\/\/blog.sina.com.cn\/lm\/history\/index.html",
"author" : "冯学荣",
"tags" : [],
"desc" : "《隐动力》之：出手大方的孙中山 冯学荣 \u201C中国近代史发展到节骨眼的时候，发挥关键作用的，往往不是伟光正的主义，而是赤裸裸的金钱。\u201D － 《隐动力：中国历史中的金钱游戏》连载作者 冯学荣 自序 在清末民初时期，中国军队实行的不是\u201C征兵制\u201D，而是\u201C募兵制\u201D。\u201C募兵制\u201D有这样的一个特点：老百...",
"emailed" : False,
"forwarded" : False,
"english" : False
}  , {
"index" : 16,
"articleIndex" : "13479",
"favor" :  False ,
     "read" : False,    
"title" : "古人旅游时怎样炫耀上流身份",
"titleTip" : "古人旅游时怎样炫耀上流身份",
"titleSummary" : "古人旅游时怎样炫耀上流身份",
"descSummary" : "(台北故宫博物院所藏传明代的《卢仝烹茶图》，代表了明代文人的精致生...",
"url" : "http:\/\/go.rss.sina.com.cn\/redirect.php?url=http:\/\/blog.sina.com.cn\/s\/blog_62de07120101pitp.html",
"pubDate" : "2013年10月25日 (5天前)",
"enterDate" : "384132:48:35",
"channelId" : "6583243195228426426",
"channelName" : "文史-新浪博客",
"channelNameSummary" : "文史-新浪博客",
"channelUrl" : "http:\/\/blog.sina.com.cn\/lm\/history\/index.html",
"author" : "侯虹斌",
"tags" : [],
"desc" : "(台北故宫博物院所藏传明代的《卢仝烹茶图》，代表了明代文人的精致生活。) 古人是怎么旅游的 明代旅游活动从精英阶层的宦游与士游，普及到大众旅游。别的不提，单是文人旅游，就发展出一套专业的器具。这些旅游器具，说重要，也不重要??实用价值不见得多高，但这正是文化精英们着力于与引车卖浆者区分等级的重要工具。自...",
"emailed" : False,
"forwarded" : False,
"english" : False
}  , {
"index" : 17,
"articleIndex" : "13478",
"favor" :  False ,
     "read" : False,    
"title" : "宋太祖为何残杀救命恩人？",
"titleTip" : "宋太祖为何残杀救命恩人？",
"titleSummary" : "宋太祖为何残杀救命恩人？",
"descSummary" : "宋太祖冤杀张琼 《宋史.太祖本纪》记载了这样一件史实：宋太祖乾德元年八...",
"url" : "http:\/\/go.rss.sina.com.cn\/redirect.php?url=http:\/\/blog.sina.com.cn\/s\/blog_474c69a80101ej7r.html",
"pubDate" : "2013年10月24日 (6天前)",
"enterDate" : "384114:35:08",
"channelId" : "6583243195228426426",
"channelName" : "文史-新浪博客",
"channelNameSummary" : "文史-新浪博客",
"channelUrl" : "http:\/\/blog.sina.com.cn\/lm\/history\/index.html",
"author" : "黄雀飞飞",
"tags" : [],
"desc" : "宋太祖冤杀张琼 《宋史.太祖本纪》记载了这样一件史实：宋太祖乾德元年八月壬午，殿前都虞候张琼以陵侮军校史?、石汉卿等，为所诬谮，下吏，琼自杀。说的是殿前都虞候张琼欺辱军校史?、石汉卿等人，被他们联手诬告。张琼被送交有关部门审查，审查期间自杀身亡。 对这件事，《宋史》之外，南宋李焘《续资治通鉴长编》以及...",
"emailed" : False,
"forwarded" : False,
"english" : False
}  , {
"index" : 18,
"articleIndex" : "13477",
"favor" :  False ,
     "read" : False,    
"title" : "王羲之儿子被公主抢亲后的悲惨人生",
"titleTip" : "王羲之儿子被公主抢亲后的悲惨人生",
"titleSummary" : "王羲之儿子被公主抢亲后的悲惨人生",
"descSummary" : "王献之是书圣王羲之最小的儿子，以行书和草书闻名后世，与父亲齐...",
"url" : "http:\/\/go.rss.sina.com.cn\/redirect.php?url=http:\/\/blog.sina.com.cn\/s\/blog_5ecf80060102ebg3.html",
"pubDate" : "2013年10月24日 (6天前)",
"enterDate" : "384104:34:08",
"channelId" : "6583243195228426426",
"channelName" : "文史-新浪博客",
"channelNameSummary" : "文史-新浪博客",
"channelUrl" : "http:\/\/blog.sina.com.cn\/lm\/history\/index.html",
"author" : "紫衣飘飘",
"tags" : [],
"desc" : "王献之是书圣王羲之最小的儿子，以行书和草书闻名后世，与父亲齐名，后人将他们并称为\u201C二王\u201D。 他才华横溢，洒脱不羁，风流俊雅为一时之冠。并且相貌堂堂又重视风仪修饰，有着世家子弟的精致的生活态度。这样的一个人，被新安公主暗恋也就不奇怪。 新安公主司马道福是晋简文帝的女儿，她钟情王献之久矣。可惜她已经嫁...",
"emailed" : False,
"forwarded" : False,
"english" : False
}  , {
"index" : 19,
"articleIndex" : "13486",
"favor" :  False ,
     "read" : False,    
"title" : "最狠苦肉计：矮小刺客建议杀自己全家",
"titleTip" : "最狠苦肉计：矮小刺客建议杀自己全家",
"titleSummary" : "最狠苦肉计：矮小刺客建议杀自己全家",
"descSummary" : "42.历史上一心想出名的矮小刺客 吴王阖闾二年，伍子胥和伯?两...",
"url" : "http:\/\/go.rss.sina.com.cn\/redirect.php?url=http:\/\/blog.sina.com.cn\/s\/blog_51c7cdcd0102e5su.html",
"pubDate" : "2013年10月21日 (1周前)",
"enterDate" : "383999:12:17",
"channelId" : "6583243195228426426",
"channelName" : "文史-新浪博客",
"channelNameSummary" : "文史-新浪博客",
"channelUrl" : "http:\/\/blog.sina.com.cn\/lm\/history\/index.html",
"author" : "吴闲云",
"tags" : [],
"desc" : "42.历史上一心想出名的矮小刺客 吴王阖闾二年，伍子胥和伯?两人向吴王请兵伐楚。 吴王问：\u201C二位，你们想报仇吗？\u201D 二人都说：\u201C想。\u201D \u201C有你们在，楚王一定睡不好觉。\u201D \u201C大王怎么知道？\u201D \u201C因为有庆忌在，寡人睡不好。\u201D 伍子胥和伯?相互对视了一眼，知道吴王阖闾依然还...",
"emailed" : False,
"forwarded" : False,
"english" : False
} ]
}
