{
"mode" : {"viewTitle" : 1,   "viewNew" : 0,  "pageIndex" : 2 },
 "channel" : {"id" : "6583243195228426426", "booked" : False, "subNumber" : 1, "name" : "文史-新浪博客", "url" : "http:\/\/blog.sina.com.cn\/lm\/history\/index.html", "feed" : "http:\/\/rss.sina.com.cn\/blog\/index\/cul.xml", "author" : "东湖少主v,侯虹斌,冯学荣,刘典,刘黎平...", "desc" : "文化博客列表", "imageUrl" : "http:\/\/www.sinaimg.cn\/blog\/main\/index2010\/blog_logo.png", "postPerWeek" : "0", "lastCrawTime" : "17:09:35", "crawDateTime" : "15:54:20", "lastHttpCode" : "304"}, "page" : {
"startIndex" : 20,
"totalCount" : 5000,
"pageIndex" : 2,
"lastPage" : 250,
"pageSize" : 20,
"english" :  False },
 "unreadNum" : 0, "shotIndex" : -1,
"articles" : [
{
"index" : 0,
"articleIndex" : "13476",
"favor" :  False ,
     "read" : False,    
"title" : "妙龄孙尚香钟情善解人\u201C衣\u201D刘大叔",
"titleTip" : "妙龄孙尚香钟情善解人\u201C衣\u201D刘大叔",
"titleSummary" : "妙龄孙尚香钟情善解人\u201C衣\u201D刘大叔",
"descSummary" : "赤壁战役之后，刘备刘大叔的激情岁月就开始了。世上的事情就是这...",
"url" : "http:\/\/go.rss.sina.com.cn\/redirect.php?url=http:\/\/blog.sina.com.cn\/s\/blog_61b2aaad0102e1on.html",
"pubDate" : "前天07:04:53",
"enterDate" : "384199:42:57",
"channelId" : "6583243195228426426",
"channelName" : "文史-新浪博客",
"channelNameSummary" : "文史-新浪博客",
"channelUrl" : "http:\/\/blog.sina.com.cn\/lm\/history\/index.html",
"author" : "东湖少主v",
"tags" : [],
"desc" : "赤壁战役之后，刘备刘大叔的激情岁月就开始了。 世上的事情就是这样，人要是倒霉了，喝口凉水都塞牙；人要是顺风顺水了，什么好事都会找上门，挡都挡不住。自从成功占据荆州之后，刘备是四处用兵，势力范围不断扩大。眼见大片大片的土地落入刘备之手，孙权和周瑜急得就像热锅上的蚂蚁，是再也坐不住了。为牵制刘备，要回荆...",
"emailed" : False,
"forwarded" : False,
"english" : False
}  , {
"index" : 1,
"articleIndex" : "13475",
"favor" :  False ,
     "read" : False,    
"title" : "当年慈禧葬礼规模庞大的现场(图)",
"titleTip" : "当年慈禧葬礼规模庞大的现场(图)",
"titleSummary" : "当年慈禧葬礼规模庞大的现场(图)",
"descSummary" : "惊现慈禧太后葬礼的真实现场照图集详情： 1908年11月15日，慈禧太后...",
"url" : "http:\/\/go.rss.sina.com.cn\/redirect.php?url=http:\/\/blog.sina.com.cn\/s\/blog_4ac5b19f0102e66t.html",
"pubDate" : "前天06:53:10",
"enterDate" : "384199:31:14",
"channelId" : "6583243195228426426",
"channelName" : "文史-新浪博客",
"channelNameSummary" : "文史-新浪博客",
"channelUrl" : "http:\/\/blog.sina.com.cn\/lm\/history\/index.html",
"author" : "王南方",
"tags" : [],
"desc" : "惊现慈禧太后葬礼的真实现场照图集详情： 1908年11月15日，慈禧太后在北京病逝。享年七十四岁。事隔百年，这一组老照片带我们回头看当年的国葬场面：纸将纸兵，纸轿纸马，大小如真，不细看，还真分辨不出。 有一真人在此，就能发现假人有多高大了。 青春就应该这样绽放游戏测试：三...",
"emailed" : False,
"forwarded" : False,
"english" : False
}  , {
"index" : 2,
"articleIndex" : "13474",
"favor" :  False ,
     "read" : False,    
"title" : "荒唐的帝王大婚令人哭笑不得",
"titleTip" : "荒唐的帝王大婚令人哭笑不得",
"titleSummary" : "荒唐的帝王大婚令人哭笑不得",
"descSummary" : "在很多人的心中，结婚是人生的一件大事，不少青年男女从恋爱到结婚，过...",
"url" : "http:\/\/go.rss.sina.com.cn\/redirect.php?url=http:\/\/blog.sina.com.cn\/s\/blog_693651ae0102e4w7.html",
"pubDate" : "2013年10月27日 (3天前)",
"enterDate" : "384199:41:10",
"channelId" : "6583243195228426426",
"channelName" : "文史-新浪博客",
"channelNameSummary" : "文史-新浪博客",
"channelUrl" : "http:\/\/blog.sina.com.cn\/lm\/history\/index.html",
"author" : "小浪3",
"tags" : [],
"desc" : "在很多人的心中，结婚是人生的一件大事，不少青年男女从恋爱到结婚，过上甜蜜幸福的婚姻生活，一对恩爱夫妻是多么的令人羡慕啊。然而，假如婚姻带上政治色彩，那就充满着无奈和悔恨。封建帝王，多少美貌女子期望着能和皇帝结婚生子，那可是万分荣贵的事。假如生了龙子便可成为皇太后，享受一生享受不完的地位权势和富有...",
"emailed" : False,
"forwarded" : False,
"english" : False
}  , {
"index" : 3,
"articleIndex" : "13473",
"favor" :  False ,
     "read" : False,    
"title" : "金瓶梅中的贵妇为何与土豪西门庆上床",
"titleTip" : "金瓶梅中的贵妇为何与土豪西门庆上床",
"titleSummary" : "金瓶梅中的贵妇为何与土豪西门庆上床",
"descSummary" : "西门庆是个土豪，尽管身边有很多女人，可从来没有沾染有钱人家...",
"url" : "http:\/\/go.rss.sina.com.cn\/redirect.php?url=http:\/\/blog.sina.com.cn\/s\/blog_635c86d50102ea2d.html",
"pubDate" : "2013年10月27日 (3天前)",
"enterDate" : "384198:17:36",
"channelId" : "6583243195228426426",
"channelName" : "文史-新浪博客",
"channelNameSummary" : "文史-新浪博客",
"channelUrl" : "http:\/\/blog.sina.com.cn\/lm\/history\/index.html",
"author" : "李治亚",
"tags" : [],
"desc" : "西门庆是个土豪，尽管身边有很多女人，可从来没有沾染有钱人家娘子的风月。此时自己得意的妓女李桂姐又被一个叫什么王三官儿的人包占，自己心里老大的不高兴。正在气愤的时候，恰好有人前来禀报，说王三官儿的母亲林太太其实是弄风月的好手，而且年龄不大，又是贵族家的妇人，应该别有一番风味。西门庆大喜，于是想着如...",
"emailed" : False,
"forwarded" : False,
"english" : False
}  , {
"index" : 4,
"articleIndex" : "13472",
"favor" :  False ,
     "read" : False,    
"title" : "花花公子汉武帝最昂贵的一次艳遇",
"titleTip" : "花花公子汉武帝最昂贵的一次艳遇",
"titleSummary" : "花花公子汉武帝最昂贵的一次艳遇",
"descSummary" : "节选自《三天读懂中国五千年历史悬案》，中国法制出版社 题记：汉...",
"url" : "http:\/\/go.rss.sina.com.cn\/redirect.php?url=http:\/\/blog.sina.com.cn\/s\/blog_4b99db850102e543.html",
"pubDate" : "2013年10月26日 (4天前)",
"enterDate" : "384187:21:04",
"channelId" : "6583243195228426426",
"channelName" : "文史-新浪博客",
"channelNameSummary" : "文史-新浪博客",
"channelUrl" : "http:\/\/blog.sina.com.cn\/lm\/history\/index.html",
"author" : "文裁缝",
"tags" : [],
"desc" : "节选自《三天读懂中国五千年历史悬案》，中国法制出版社 题记：汉武帝这样一位雄才大略的皇帝，在感情上却是纯粹的花花公子，他甚至为了一个女人，付出了10万汉朝将士的生命。 汉武帝，名刘彻。是西汉的第五位皇帝，是具有雄才大略的一代雄主。他在政治、经济、文化、军事等方面均有建树，功不可没，因其...",
"emailed" : False,
"forwarded" : False,
"english" : False
}  , {
"index" : 5,
"articleIndex" : "13471",
"favor" :  False ,
     "read" : False,    
"title" : "古人\u201C吃醋\u201D引发的严重后果",
"titleTip" : "古人\u201C吃醋\u201D引发的严重后果",
"titleSummary" : "古人\u201C吃醋\u201D引发的严重后果",
"descSummary" : "古龙有句妙语：\u201C世界上不吃饭的女人或许会有几个，而不吃醋的女人却没...",
"url" : "http:\/\/go.rss.sina.com.cn\/redirect.php?url=http:\/\/blog.sina.com.cn\/s\/blog_48d1c5ff0102e379.html",
"pubDate" : "2013年10月26日 (4天前)",
"enterDate" : "384199:22:59",
"channelId" : "6583243195228426426",
"channelName" : "文史-新浪博客",
"channelNameSummary" : "文史-新浪博客",
"channelUrl" : "http:\/\/blog.sina.com.cn\/lm\/history\/index.html",
"author" : "刘继兴",
"tags" : [],
"desc" : "古龙有句妙语：\u201C世界上不吃饭的女人或许会有几个，而不吃醋的女人却没有一个。\u201D诚哉斯言！遍览史籍，\u201C吃醋\u201D的女人可谓比比皆是。一些女人因\u201C吃醋\u201D而引发了极其严重的后果，甚至在某种程度上改变了历史的走向。 公元前200年（汉高祖七年）,匈奴冒顿单于挥师南下，率领四十万人马进入雁门关，攻下太原郡，长驱直入，...",
"emailed" : False,
"forwarded" : False,
"english" : False
}  , {
"index" : 6,
"articleIndex" : "13470",
"favor" :  False ,
     "read" : False,    
"title" : "许世友的长孙女现在担任什么要职",
"titleTip" : "许世友的长孙女现在担任什么要职",
"titleSummary" : "许世友的长孙女现在担任什么要职",
"descSummary" : "许世友的长孙女现在担任什么职务？特别提示：随着许世友上将长子许...",
"url" : "http:\/\/go.rss.sina.com.cn\/redirect.php?url=http:\/\/blog.sina.com.cn\/s\/blog_4ac5b19f0102e66a.html",
"pubDate" : "2013年10月26日 (4天前)",
"enterDate" : "384197:58:11",
"channelId" : "6583243195228426426",
"channelName" : "文史-新浪博客",
"channelNameSummary" : "文史-新浪博客",
"channelUrl" : "http:\/\/blog.sina.com.cn\/lm\/history\/index.html",
"author" : "王南方",
"tags" : [],
"desc" : "许世友的长孙女现在担任什么职务？ 特别提示：随着许世友上将长子许光，今年1月6日2时44分突发心肌梗死去世。其子女公之如众，许光系许世友元配朱锡明所生。他1929年5月15日出生于湖北麻城县乘马岗乡许家洼（今河南新县田铺乡河铺大队），1949年初辗转找到父亲许世友，1950年2月入伍到北海舰队，先后在华东军政大学山东...",
"emailed" : False,
"forwarded" : False,
"english" : False
}  , {
"index" : 7,
"articleIndex" : "13469",
"favor" :  False ,
     "read" : False,    
"title" : "毛泽东张自忠为何都曾枪决强奸犯爱将",
"titleTip" : "毛泽东张自忠为何都曾枪决强奸犯爱将",
"titleSummary" : "毛泽东张自忠为何都曾枪决强奸犯爱将",
"descSummary" : "上篇毛泽东挥泪枪毙奸杀女大学生的爱将 毛泽东\u201C挥泪斩马谡\u201D...",
"url" : "http:\/\/go.rss.sina.com.cn\/redirect.php?url=http:\/\/blog.sina.com.cn\/s\/blog_4b7e9d060102euet.html",
"pubDate" : "2013年10月26日 (4天前)",
"enterDate" : "384197:26:32",
"channelId" : "6583243195228426426",
"channelName" : "文史-新浪博客",
"channelNameSummary" : "文史-新浪博客",
"channelUrl" : "http:\/\/blog.sina.com.cn\/lm\/history\/index.html",
"author" : "李子迟",
"tags" : [],
"desc" : "上篇毛泽东挥泪枪毙奸杀女大学生的爱将 毛泽东\u201C挥泪斩马谡\u201D，一生中先后有过多次。如建国后\u201C高岗饶漱石篡权案\u201D、\u201C刘青山张子善贪污案\u201D等。但其中最经典的一次，大概还是早年在延安时的\u201C黄克功桃色事件\u201D。 当年从延安时代过来的人，没有人不知道\u201C黄克功事件\u201D的。黄克功（请不要误会他是黄克诚大将的兄弟，其实他与...",
"emailed" : False,
"forwarded" : False,
"english" : False
}  , {
"index" : 8,
"articleIndex" : "13468",
"favor" :  False ,
     "read" : False,    
"title" : "萨苏：中日渔业冲突里的军事秘闻(图)",
"titleTip" : "萨苏：中日渔业冲突里的军事秘闻(图)",
"titleSummary" : "萨苏：中日渔业冲突里的军事秘闻(图)",
"descSummary" : "谈东海中日渔业冲突写到黑潮。黑潮是一道中国海上奇特的风景线，...",
"url" : "http:\/\/go.rss.sina.com.cn\/redirect.php?url=http:\/\/blog.sina.com.cn\/s\/blog_476745f60102ebx6.html",
"pubDate" : "2013年10月26日 (5天前)",
"enterDate" : "384190:32:46",
"channelId" : "6583243195228426426",
"channelName" : "文史-新浪博客",
"channelNameSummary" : "文史-新浪博客",
"channelUrl" : "http:\/\/blog.sina.com.cn\/lm\/history\/index.html",
"author" : "萨苏",
"tags" : [],
"desc" : "谈东海中日渔业冲突写到黑潮。黑潮是一道中国海上奇特的风景线，被称为\u201C海中之河\u201D。这道中流速度每秒一米的汹涌潮流让日本古代渔民望而生畏，难以顶着它到钓鱼......&gt;&gt;点击查看新浪博客原文青春就应该这样绽放游戏测试：三国时期谁是你最好的兄弟！！你不得不信的星座秘密",
"emailed" : False,
"forwarded" : False,
"english" : False
}  , {
"index" : 9,
"articleIndex" : "13467",
"favor" :  False ,
     "read" : False,    
"title" : "滞韩志愿军英烈遗骸回家",
"titleTip" : "滞韩志愿军英烈遗骸回家",
"titleSummary" : "滞韩志愿军英烈遗骸回家",
"descSummary" : "从2008年3月至6月末，韩国在庆尚南道咸安和京畿道加平等15个地区挖掘出了...",
"url" : "http:\/\/go.rss.sina.com.cn\/redirect.php?url=http:\/\/blog.sina.com.cn\/s\/blog_549c1d970101fm0y.html",
"pubDate" : "2013年10月25日 (5天前)",
"enterDate" : "384199:13:57",
"channelId" : "6583243195228426426",
"channelName" : "文史-新浪博客",
"channelNameSummary" : "文史-新浪博客",
"channelUrl" : "http:\/\/blog.sina.com.cn\/lm\/history\/index.html",
"author" : "罗援",
"tags" : [],
"desc" : "从2008年3月至6月末，韩国在庆尚南道咸安和京畿道加平等15个地区挖掘出了519具遗体。韩国首尔显忠院6月27日为被确认的403具韩国军队战殁者遗体举行了联合供奉仪式，其余47具朝鲜军队战殁者遗骸、69具中国志愿军战殁者遗骸，则被安葬在坡州的\u201C敌军墓地\u201D。 大前天，我随中国战略文化促进会代表团到韩国进行了2天学术访问...",
"emailed" : False,
"forwarded" : False,
"english" : False
}  , {
"index" : 10,
"articleIndex" : "13461",
"favor" :  False ,
     "read" : False,    
"title" : "华夏始祖伏羲和女娲的母亲是谁(图)",
"titleTip" : "华夏始祖伏羲和女娲的母亲是谁(图)",
"titleSummary" : "华夏始祖伏羲和女娲的母亲是谁(图)",
"descSummary" : "2013年10月14日，农历九月初十，大秦岭寻访的最后一天，我们将抵...",
"url" : "http:\/\/go.rss.sina.com.cn\/redirect.php?url=http:\/\/blog.sina.com.cn\/s\/blog_59b7078f0102e4sd.html",
"pubDate" : "2013年10月25日 (5天前)",
"enterDate" : "384199:44:00",
"channelId" : "6583243195228426426",
"channelName" : "文史-新浪博客",
"channelNameSummary" : "文史-新浪博客",
"channelUrl" : "http:\/\/blog.sina.com.cn\/lm\/history\/index.html",
"author" : "贾云峰",
"tags" : [],
"desc" : "2013年10月14日，农历九月初十，大秦岭寻访的最后一天，我们将抵达为期两个月大秦岭寻访之旅的终点??蓝田。 在前一天，我们征服了秦岭主峰太白之巅，中国南北分水岭赐予我们的高反考验，还在生理和心理隐隐作祟，但也阻挡不了我们稍作休整，就重新上路的激情。 我们迎来了今年的第一场秋雨，已是彻骨的冰冷。...",
"emailed" : False,
"forwarded" : False,
"english" : False
}  , {
"index" : 11,
"articleIndex" : "13460",
"favor" :  False ,
     "read" : False,    
"title" : "史上最荒淫的父子当属曹操一家子",
"titleTip" : "史上最荒淫的父子当属曹操一家子",
"titleSummary" : "史上最荒淫的父子当属曹操一家子",
"descSummary" : "曹操曹丕与姑妈乱伦曹植与嫂子相好 中国历史上著名的\u201C三曹\u201D（即...",
"url" : "http:\/\/go.rss.sina.com.cn\/redirect.php?url=http:\/\/blog.sina.com.cn\/s\/blog_4b7e9d060102euei.html",
"pubDate" : "2013年10月25日 (5天前)",
"enterDate" : "384198:40:48",
"channelId" : "6583243195228426426",
"channelName" : "文史-新浪博客",
"channelNameSummary" : "文史-新浪博客",
"channelUrl" : "http:\/\/blog.sina.com.cn\/lm\/history\/index.html",
"author" : "李子迟",
"tags" : [],
"desc" : "曹操曹丕与姑妈乱伦曹植与嫂子相好 中国历史上著名的\u201C三曹\u201D（即曹操与曹丕、曹植父子仨），是永远也说不完的话题。 大哥曹丕即后来魏国的建立者魏文帝是也；他追认他的父亲、一代枭雄曹操为魏武帝；而他的弟弟曹植则是陈思王。父子仨，两帝一王，皆文才盖世、千古流芳，曹植更是文采飞扬、才华横溢；曹操、曹丕则文武双全...",
"emailed" : False,
"forwarded" : False,
"english" : False
}  , {
"index" : 12,
"articleIndex" : "13462",
"favor" :  False ,
     "read" : False,    
"title" : "蒋介石爱算命：请和尚为自己找龙穴",
"titleTip" : "蒋介石爱算命：请和尚为自己找龙穴",
"titleSummary" : "蒋介石爱算命：请和尚为自己找龙穴",
"descSummary" : "王树恩 蒋介石一生不仅信基督教、佛教，而且迷信风水、占卜之术...",
"url" : "http:\/\/go.rss.sina.com.cn\/redirect.php?url=http:\/\/blog.sina.com.cn\/s\/blog_4e9997ac0101p40y.html",
"pubDate" : "2013年10月25日 (5天前)",
"enterDate" : "384197:34:15",
"channelId" : "6583243195228426426",
"channelName" : "文史-新浪博客",
"channelNameSummary" : "文史-新浪博客",
"channelUrl" : "http:\/\/blog.sina.com.cn\/lm\/history\/index.html",
"author" : "百家讲坛",
"tags" : [],
"desc" : "王树恩 蒋介石一生不仅信基督教、佛教，而且迷信风水、占卜之术，经常找人算命。 1946年5月1日，蒋介石正式发布还都令，宣布5月5 日\u201C凯旋南京\u201D。以抗战英雄之态还都南京后，蒋介石就开始着意选择自己的墓地了。他从家乡秘密请来了雪窦寺长老太虚，说明了自己的意图。 太虚听了蒋介石的想法，便在中山陵与明孝陵之间为其...",
"emailed" : False,
"forwarded" : False,
"english" : False
}  , {
"index" : 13,
"articleIndex" : "13463",
"favor" :  False ,
     "read" : False,    
"title" : "宋太祖传位时\u201C斧声烛影\u201D历史迷案",
"titleTip" : "宋太祖传位时\u201C斧声烛影\u201D历史迷案",
"titleSummary" : "宋太祖传位时\u201C斧声烛影\u201D历史迷案",
"descSummary" : "赵德昭从大殿里退出来，面色死灰，失魂落魄。等在外面的随从们赶...",
"url" : "http:\/\/go.rss.sina.com.cn\/redirect.php?url=http:\/\/blog.sina.com.cn\/s\/blog_3fc1cf6d0101na3e.html",
"pubDate" : "2013年10月25日 (5天前)",
"enterDate" : "384196:03:50",
"channelId" : "6583243195228426426",
"channelName" : "文史-新浪博客",
"channelNameSummary" : "文史-新浪博客",
"channelUrl" : "http:\/\/blog.sina.com.cn\/lm\/history\/index.html",
"author" : "于左",
"tags" : [],
"desc" : "赵德昭从大殿里退出来，面色死灰，失魂落魄。等在外面的随从们赶快迎上来，赵德昭声音嘶哑地问：\u201C你们哪个带着刀？\u201D 随从们回答说：\u201C这里是皇宫，不敢带刀。\u201D 赵德昭转身走向宫外，他走得很急，步子踉跄。随从们不知道出了什么事，慌忙追上去，看见赵德昭走出宫门，走进路边的一处茶果铺。茶果铺的主人从赵德昭的服饰...",
"emailed" : False,
"forwarded" : False,
"english" : False
}  , {
"index" : 14,
"articleIndex" : "13459",
"favor" :  False ,
     "read" : False,    
"title" : "萧何自毁清誉是君主时代臣子的悲哀",
"titleTip" : "萧何自毁清誉是君主时代臣子的悲哀",
"titleSummary" : "萧何自毁清誉是君主时代臣子的悲哀",
"descSummary" : "萧何自毁清誉是君主时代臣子的悲哀 萧何是汉初三杰之一。刘邦曾...",
"url" : "http:\/\/go.rss.sina.com.cn\/redirect.php?url=http:\/\/blog.sina.com.cn\/s\/blog_7e84ef460101mfyc.html",
"pubDate" : "2013年10月25日 (5天前)",
"enterDate" : "384196:56:41",
"channelId" : "6583243195228426426",
"channelName" : "文史-新浪博客",
"channelNameSummary" : "文史-新浪博客",
"channelUrl" : "http:\/\/blog.sina.com.cn\/lm\/history\/index.html",
"author" : "长空星照",
"tags" : [],
"desc" : "萧何自毁清誉是君主时代臣子的悲哀 萧何是汉初三杰之一。刘邦曾经评价说：\u201C运筹帷幄之中，决胜于千里之外，我比不上子房；镇守国家，安抚百姓，供给粮饷，保证运粮道路不被阻断，我比不上萧何；统帅百万大军，战必胜，攻必取，我比不上韩信。\u201D再深入分析一下，张良在汉朝建国后已经不管事，韩信在被贬为淮阴侯以后基本处...",
"emailed" : False,
"forwarded" : False,
"english" : False
}  , {
"index" : 15,
"articleIndex" : "13466",
"favor" :  False ,
     "read" : False,    
"title" : "唐朝高僧与公主偷情被判处腰斩",
"titleTip" : "唐朝高僧与公主偷情被判处腰斩",
"titleSummary" : "唐朝高僧与公主偷情被判处腰斩",
"descSummary" : "因偷情唐朝高僧招至飞来横祸 煌煌大唐是一个很有意思的朝代，她不仅...",
"url" : "http:\/\/go.rss.sina.com.cn\/redirect.php?url=http:\/\/blog.sina.com.cn\/s\/blog_4c45664e0102es88.html",
"pubDate" : "2013年10月25日 (5天前)",
"enterDate" : "384189:53:41",
"channelId" : "6583243195228426426",
"channelName" : "文史-新浪博客",
"channelNameSummary" : "文史-新浪博客",
"channelUrl" : "http:\/\/blog.sina.com.cn\/lm\/history\/index.html",
"author" : "萧家老大",
"tags" : [],
"desc" : "因偷情唐朝高僧招至飞来横祸 煌煌大唐是一个很有意思的朝代，她不仅国力异常强大，人民异常富裕，而且思想十分自由，对外十分开放；开放得甚至连上至王公帝胄，达官贵人，下至书生学者，商贾贩夫，都不以男女偷情为耻了；你看，就连应该恪守清规戒律的和尚道士，也有不少人也加入了男女偷情的行列，因此，也有人将唐...",
"emailed" : False,
"forwarded" : False,
"english" : False
}  , {
"index" : 16,
"articleIndex" : "13458",
"favor" :  False ,
     "read" : False,    
"title" : "红二代回忆薄熙来前岳父李雪峰",
"titleTip" : "红二代回忆薄熙来前岳父李雪峰",
"titleSummary" : "红二代回忆薄熙来前岳父李雪峰",
"descSummary" : "纪坡民：回忆李雪峰和我父亲的一段往事 李小林约我为纪念她父亲李雪...",
"url" : "http:\/\/go.rss.sina.com.cn\/redirect.php?url=http:\/\/blog.sina.com.cn\/s\/blog_489e745e0102efk7.html",
"pubDate" : "2013年10月24日 (6天前)",
"enterDate" : "384193:30:51",
"channelId" : "6583243195228426426",
"channelName" : "文史-新浪博客",
"channelNameSummary" : "文史-新浪博客",
"channelUrl" : "http:\/\/blog.sina.com.cn\/lm\/history\/index.html",
"author" : "古马",
"tags" : [],
"desc" : "纪坡民：回忆李雪峰和我父亲的一段往事 李小林约我为纪念她父亲李雪峰(薄熙来的前岳父）写点东西，这使我有点为难。小林的意思，自然是写李雪峰和我父亲纪登奎之间的往事。可是对我父亲过去工作上的事，我知道得很少，对李雪峰和我父亲之间曾经有过什么工作关系和交往，也了解不多。只是从1988年起，我才去看望过李...",
"emailed" : False,
"forwarded" : False,
"english" : False
}  , {
"index" : 17,
"articleIndex" : "13457",
"favor" :  False ,
     "read" : False,    
"title" : "毛泽东一生不忘的童年初恋(图)",
"titleTip" : "毛泽东一生不忘的童年初恋(图)",
"titleSummary" : "毛泽东一生不忘的童年初恋(图)",
"descSummary" : "（年轻毛泽东） 初恋是人生最难忘的记忆，在夜阑人等时，你会不经意地...",
"url" : "http:\/\/go.rss.sina.com.cn\/redirect.php?url=http:\/\/blog.sina.com.cn\/s\/blog_b38c044d0101h97d.html",
"pubDate" : "2013年10月24日 (6天前)",
"enterDate" : "384194:53:52",
"channelId" : "6583243195228426426",
"channelName" : "文史-新浪博客",
"channelNameSummary" : "文史-新浪博客",
"channelUrl" : "http:\/\/blog.sina.com.cn\/lm\/history\/index.html",
"author" : "宁宁",
"tags" : [],
"desc" : "（年轻毛泽东） 初恋是人生最难忘的记忆，在夜阑人等时，你会不经意地想起他（她）；在午夜梦回时，他（她）会悄然出现在梦里；在幸福时你会想他（她），在痛苦时你也会想起他（她），不管是男人女人，伟人与凡人，初恋在人生里都是同样的印记。 一件沉默已久的往事 她是第一个走进毛泽东生命的女人，我们已无...",
"emailed" : False,
"forwarded" : False,
"english" : False
}  , {
"index" : 18,
"articleIndex" : "13464",
"favor" :  False ,
     "read" : False,    
"title" : "三国\u201C大牌\u201D家庭主妇让司马懿哭鼻子",
"titleTip" : "三国\u201C大牌\u201D家庭主妇让司马懿哭鼻子",
"titleSummary" : "三国\u201C大牌\u201D家庭主妇让司马懿哭鼻子",
"descSummary" : "文：白马晋一 中国人素来讲究面子。面子照顾好了，做事自然有...",
"url" : "http:\/\/go.rss.sina.com.cn\/redirect.php?url=http:\/\/blog.sina.com.cn\/s\/blog_4b3044910102en87.html",
"pubDate" : "2013年10月23日 (1周前)",
"enterDate" : "384157:19:45",
"channelId" : "6583243195228426426",
"channelName" : "文史-新浪博客",
"channelNameSummary" : "文史-新浪博客",
"channelUrl" : "http:\/\/blog.sina.com.cn\/lm\/history\/index.html",
"author" : "白马晋一",
"tags" : [],
"desc" : "文：白马晋一 中国人素来讲究面子。面子照顾好了，做事自然有了余地，倘若一个疏忽，驳了面子，芥蒂恐怕就此缠绕。譬如我们著名的 孔明先生，本怀匡民济世之心，却非要摆个面子，躲在深山里清高一把，直到刘备这个贴牌皇叔放下了面子，三顾茅庐，方才欣然出山。当然，在神奇的三国时代，面子绝不仅是用来升官发达的，有的...",
"emailed" : False,
"forwarded" : False,
"english" : False
}  , {
"index" : 19,
"articleIndex" : "13465",
"favor" :  False ,
     "read" : False,    
"title" : "古代\u201C破格\u201D提拔干部的荒唐事",
"titleTip" : "古代\u201C破格\u201D提拔干部的荒唐事",
"titleSummary" : "古代\u201C破格\u201D提拔干部的荒唐事",
"descSummary" : "唐代，斗鸡斗得好，斗鸡诗写得好，都可能得到提拔。图为张大千《唐明...",
"url" : "http:\/\/go.rss.sina.com.cn\/redirect.php?url=http:\/\/blog.sina.com.cn\/s\/blog_6b30d6d80101qxnv.html",
"pubDate" : "2013年10月23日 (1周前)",
"enterDate" : "384150:18:22",
"channelId" : "6583243195228426426",
"channelName" : "文史-新浪博客",
"channelNameSummary" : "文史-新浪博客",
"channelUrl" : "http:\/\/blog.sina.com.cn\/lm\/history\/index.html",
"author" : "文史小语",
"tags" : [],
"desc" : "唐代，斗鸡斗得好，斗鸡诗写得好，都可能得到提拔。图为张大千《唐明皇斗鸡图》 □刘继兴 古代皇恩浩荡，官场荒唐事多，\u201C破格\u201D提干之事常常发生。这种\u201C破格\u201D，常演变成\u201C出格\u201D； 会哭丧者、有斗鸡\u201C专长\u201D者、善于阿谀者，皆有可能成为\u201C火箭干部\u201D。历朝历代，概莫能外。 壹 哭丧哭...",
"emailed" : False,
"forwarded" : False,
"english" : False
} ]
}
