{
"mode" : {"viewTitle" : 1,   "viewNew" : 0,  "pageIndex" : 1 },
 "channel" : {"id" : "-7731564487447072868", "booked" : False, "subNumber" : 1, "name" : "体育-新浪博客", "url" : "http:\/\/blog.sina.com.cn\/lm\/sports\/index.html", "feed" : "http:\/\/rss.sina.com.cn\/blog\/sports\/ty.xml", "author" : "WWW.SINA.COM.CN", "desc" : "体育博客列表", "imageUrl" : "http:\/\/www.sinaimg.cn\/blog\/main\/index2010\/blog_logo.png", "postPerWeek" : "0", "lastCrawTime" : "16:50:15", "crawDateTime" : "15:50:05", "lastHttpCode" : "200"}, "page" : {
"startIndex" : 0,
"totalCount" : 5000,
"pageIndex" : 1,
"lastPage" : 250,
"pageSize" : 20,
"english" :  False },
 "unreadNum" : 0, "shotIndex" : -1,
"articles" : [
{
"index" : 0,
"articleIndex" : "8171",
"favor" :  False ,
     "read" : False,    
"title" : "一滴：穆里尼奥既是球迷也是父亲",
"titleTip" : "一滴：穆里尼奥既是球迷也是父亲",
"titleSummary" : "一滴：穆里尼奥既是球迷也是父亲",
"descSummary" : "",
"url" : "http:\/\/go.rss.sina.com.cn\/redirect.php?url=http:\/\/blog.sina.com.cn\/s\/blog_68c8d84b0101nrzs.html",
"pubDate" : "15:18:49",
"enterDate" : "384200:48:22",
"channelId" : "-7731564487447072868",
"channelName" : "体育-新浪博客",
"channelNameSummary" : "体育-新浪博客",
"channelUrl" : "http:\/\/blog.sina.com.cn\/lm\/sports\/index.html",
"author" : "WWW.SINA.COM.CN",
"tags" : [],
"desc" : "",
"emailed" : False,
"forwarded" : False,
"english" : False
}  , {
"index" : 1,
"articleIndex" : "8170",
"favor" :  False ,
     "read" : False,    
"title" : "纪金：湖人无愧为\u201C豪门\u201D 最尴尬的该是霍华德",
"titleTip" : "纪金：湖人无愧为\u201C豪门\u201D 最尴尬的该是霍华德",
"titleSummary" : "纪金：湖人无愧为\u201C豪门\u201D 最尴尬的该是霍华德",
"descSummary" : "",
"url" : "http:\/\/go.rss.sina.com.cn\/redirect.php?url=http:\/\/blog.sina.com.cn\/s\/blog_47466e260102e87b.html",
"pubDate" : "15:14:03",
"enterDate" : "384200:43:36",
"channelId" : "-7731564487447072868",
"channelName" : "体育-新浪博客",
"channelNameSummary" : "体育-新浪博客",
"channelUrl" : "http:\/\/blog.sina.com.cn\/lm\/sports\/index.html",
"author" : "WWW.SINA.COM.CN",
"tags" : [],
"desc" : "",
"emailed" : False,
"forwarded" : False,
"english" : False
}  , {
"index" : 2,
"articleIndex" : "8169",
"favor" :  False ,
     "read" : False,    
"title" : "小脑袋：暴走替补致敬科比 谁说湖人是软柿子？",
"titleTip" : "小脑袋：暴走替补致敬科比 谁说湖人是软柿子？",
"titleSummary" : "小脑袋：暴走替补致敬科比 谁说湖人是软柿子？",
"descSummary" : "",
"url" : "http:\/\/go.rss.sina.com.cn\/redirect.php?url=http:\/\/blog.sina.com.cn\/s\/blog_3efef9e70102e5cy.html",
"pubDate" : "14:34:33",
"enterDate" : "384200:04:06",
"channelId" : "-7731564487447072868",
"channelName" : "体育-新浪博客",
"channelNameSummary" : "体育-新浪博客",
"channelUrl" : "http:\/\/blog.sina.com.cn\/lm\/sports\/index.html",
"author" : "WWW.SINA.COM.CN",
"tags" : [],
"desc" : "",
"emailed" : False,
"forwarded" : False,
"english" : False
}  , {
"index" : 3,
"articleIndex" : "8168",
"favor" :  False ,
     "read" : False,    
"title" : "死心：热火总冠军戒指刻\u201C牺牲\u201D是不祥",
"titleTip" : "死心：热火总冠军戒指刻\u201C牺牲\u201D是不祥",
"titleSummary" : "死心：热火总冠军戒指刻\u201C牺牲\u201D是不祥",
"descSummary" : "",
"url" : "http:\/\/go.rss.sina.com.cn\/redirect.php?url=http:\/\/blog.sina.com.cn\/s\/blog_a2a713c40101hdu7.html",
"pubDate" : "14:30:42",
"enterDate" : "384200:00:15",
"channelId" : "-7731564487447072868",
"channelName" : "体育-新浪博客",
"channelNameSummary" : "体育-新浪博客",
"channelUrl" : "http:\/\/blog.sina.com.cn\/lm\/sports\/index.html",
"author" : "WWW.SINA.COM.CN",
"tags" : [],
"desc" : "",
"emailed" : False,
"forwarded" : False,
"english" : False
}  , {
"index" : 4,
"articleIndex" : "8167",
"favor" :  False ,
     "read" : False,    
"title" : "搜达：上港送恒大本赛季第二场败仗？",
"titleTip" : "搜达：上港送恒大本赛季第二场败仗？",
"titleSummary" : "搜达：上港送恒大本赛季第二场败仗？",
"descSummary" : "",
"url" : "http:\/\/go.rss.sina.com.cn\/redirect.php?url=http:\/\/blog.sina.com.cn\/s\/blog_4ffbcf0a0102e771.html",
"pubDate" : "14:10:15",
"enterDate" : "384199:39:48",
"channelId" : "-7731564487447072868",
"channelName" : "体育-新浪博客",
"channelNameSummary" : "体育-新浪博客",
"channelUrl" : "http:\/\/blog.sina.com.cn\/lm\/sports\/index.html",
"author" : "WWW.SINA.COM.CN",
"tags" : [],
"desc" : "",
"emailed" : False,
"forwarded" : False,
"english" : False
}  , {
"index" : 5,
"articleIndex" : "8166",
"favor" :  False ,
     "read" : False,    
"title" : "搜达：中能舜天保级决战一触即发",
"titleTip" : "搜达：中能舜天保级决战一触即发",
"titleSummary" : "搜达：中能舜天保级决战一触即发",
"descSummary" : "",
"url" : "http:\/\/go.rss.sina.com.cn\/redirect.php?url=http:\/\/blog.sina.com.cn\/s\/blog_4ffbcf0a0102e772.html",
"pubDate" : "14:05:47",
"enterDate" : "384199:35:20",
"channelId" : "-7731564487447072868",
"channelName" : "体育-新浪博客",
"channelNameSummary" : "体育-新浪博客",
"channelUrl" : "http:\/\/blog.sina.com.cn\/lm\/sports\/index.html",
"author" : "WWW.SINA.COM.CN",
"tags" : [],
"desc" : "",
"emailed" : False,
"forwarded" : False,
"english" : False
}  , {
"index" : 6,
"articleIndex" : "8165",
"favor" :  False ,
     "read" : False,    
"title" : "杨旺：举国体制外的斯诺克神童",
"titleTip" : "杨旺：举国体制外的斯诺克神童",
"titleSummary" : "杨旺：举国体制外的斯诺克神童",
"descSummary" : "",
"url" : "http:\/\/go.rss.sina.com.cn\/redirect.php?url=http:\/\/blog.sina.com.cn\/s\/blog_448d39930102e3pf.html",
"pubDate" : "12:28:27",
"enterDate" : "384200:58:35",
"channelId" : "-7731564487447072868",
"channelName" : "体育-新浪博客",
"channelNameSummary" : "体育-新浪博客",
"channelUrl" : "http:\/\/blog.sina.com.cn\/lm\/sports\/index.html",
"author" : "WWW.SINA.COM.CN",
"tags" : [],
"desc" : "",
"emailed" : False,
"forwarded" : False,
"english" : False
}  , {
"index" : 7,
"articleIndex" : "8164",
"favor" :  False ,
     "read" : False,    
"title" : "神龙：热火表演无懈可击 战术素养值得公牛学习",
"titleTip" : "神龙：热火表演无懈可击 战术素养值得公牛学习",
"titleSummary" : "神龙：热火表演无懈可击 战术素养值得公牛学习",
"descSummary" : "",
"url" : "http:\/\/go.rss.sina.com.cn\/redirect.php?url=http:\/\/blog.sina.com.cn\/s\/blog_9233ea120101pve8.html",
"pubDate" : "12:06:44",
"enterDate" : "384200:36:52",
"channelId" : "-7731564487447072868",
"channelName" : "体育-新浪博客",
"channelNameSummary" : "体育-新浪博客",
"channelUrl" : "http:\/\/blog.sina.com.cn\/lm\/sports\/index.html",
"author" : "WWW.SINA.COM.CN",
"tags" : [],
"desc" : "",
"emailed" : False,
"forwarded" : False,
"english" : False
}  , {
"index" : 8,
"articleIndex" : "8163",
"favor" :  False ,
     "read" : False,    
"title" : "零度：万圣节巴萨讲鬼故事 门将成梅西鬼门关",
"titleTip" : "零度：万圣节巴萨讲鬼故事 门将成梅西鬼门关",
"titleSummary" : "零度：万圣节巴萨讲鬼故事 门将成梅西鬼门关",
"descSummary" : "",
"url" : "http:\/\/go.rss.sina.com.cn\/redirect.php?url=http:\/\/blog.sina.com.cn\/s\/blog_b3f7468a0101ojkq.html",
"pubDate" : "11:48:53",
"enterDate" : "384197:18:26",
"channelId" : "-7731564487447072868",
"channelName" : "体育-新浪博客",
"channelNameSummary" : "体育-新浪博客",
"channelUrl" : "http:\/\/blog.sina.com.cn\/lm\/sports\/index.html",
"author" : "WWW.SINA.COM.CN",
"tags" : [],
"desc" : "",
"emailed" : False,
"forwarded" : False,
"english" : False
}  , {
"index" : 9,
"articleIndex" : "8162",
"favor" :  False ,
     "read" : False,    
"title" : "棋哥：恒大警惕小河沟里翻船",
"titleTip" : "棋哥：恒大警惕小河沟里翻船",
"titleSummary" : "棋哥：恒大警惕小河沟里翻船",
"descSummary" : "",
"url" : "http:\/\/go.rss.sina.com.cn\/redirect.php?url=http:\/\/blog.sina.com.cn\/s\/blog_486682450101difq.html",
"pubDate" : "11:02:51",
"enterDate" : "384200:33:13",
"channelId" : "-7731564487447072868",
"channelName" : "体育-新浪博客",
"channelNameSummary" : "体育-新浪博客",
"channelUrl" : "http:\/\/blog.sina.com.cn\/lm\/sports\/index.html",
"author" : "WWW.SINA.COM.CN",
"tags" : [],
"desc" : "",
"emailed" : False,
"forwarded" : False,
"english" : False
}  , {
"index" : 10,
"articleIndex" : "8161",
"favor" :  False ,
     "read" : False,    
"title" : "柳号：娜姐赛季有5大收获 未胜小威也升排名",
"titleTip" : "柳号：娜姐赛季有5大收获 未胜小威也升排名",
"titleSummary" : "柳号：娜姐赛季有5大收获 未胜小威也升排名",
"descSummary" : "",
"url" : "http:\/\/go.rss.sina.com.cn\/redirect.php?url=http:\/\/blog.sina.com.cn\/s\/blog_683c082b0102el7f.html",
"pubDate" : "10:41:06",
"enterDate" : "384200:11:28",
"channelId" : "-7731564487447072868",
"channelName" : "体育-新浪博客",
"channelNameSummary" : "体育-新浪博客",
"channelUrl" : "http:\/\/blog.sina.com.cn\/lm\/sports\/index.html",
"author" : "WWW.SINA.COM.CN",
"tags" : [],
"desc" : "",
"emailed" : False,
"forwarded" : False,
"english" : False
}  , {
"index" : 11,
"articleIndex" : "8160",
"favor" :  False ,
     "read" : False,    
"title" : "韩悦天：97年小将有望爆冷傅家俊",
"titleTip" : "韩悦天：97年小将有望爆冷傅家俊",
"titleSummary" : "韩悦天：97年小将有望爆冷傅家俊",
"descSummary" : "",
"url" : "http:\/\/go.rss.sina.com.cn\/redirect.php?url=http:\/\/blog.sina.com.cn\/s\/blog_4b3aa0230102eb6c.html",
"pubDate" : "10:34:22",
"enterDate" : "384201:04:55",
"channelId" : "-7731564487447072868",
"channelName" : "体育-新浪博客",
"channelNameSummary" : "体育-新浪博客",
"channelUrl" : "http:\/\/blog.sina.com.cn\/lm\/sports\/index.html",
"author" : "WWW.SINA.COM.CN",
"tags" : [],
"desc" : "",
"emailed" : False,
"forwarded" : False,
"english" : False
}  , {
"index" : 12,
"articleIndex" : "8159",
"favor" :  False ,
     "read" : False,    
"title" : "大佬鸣：恒大已成球迷心中的旗帜性标杆",
"titleTip" : "大佬鸣：恒大已成球迷心中的旗帜性标杆",
"titleSummary" : "大佬鸣：恒大已成球迷心中的旗帜性标杆",
"descSummary" : "",
"url" : "http:\/\/go.rss.sina.com.cn\/redirect.php?url=http:\/\/blog.sina.com.cn\/s\/blog_51ef9d460102ez23.html",
"pubDate" : "10:31:55",
"enterDate" : "384201:02:28",
"channelId" : "-7731564487447072868",
"channelName" : "体育-新浪博客",
"channelNameSummary" : "体育-新浪博客",
"channelUrl" : "http:\/\/blog.sina.com.cn\/lm\/sports\/index.html",
"author" : "WWW.SINA.COM.CN",
"tags" : [],
"desc" : "",
"emailed" : False,
"forwarded" : False,
"english" : False
}  , {
"index" : 13,
"articleIndex" : "8158",
"favor" :  False ,
     "read" : False,    
"title" : "云儿：神塔发力令阿森纳拜服 切尔西双将获肯定",
"titleTip" : "云儿：神塔发力令阿森纳拜服 切尔西双将获肯定",
"titleSummary" : "云儿：神塔发力令阿森纳拜服 切尔西双将获肯定",
"descSummary" : "",
"url" : "http:\/\/go.rss.sina.com.cn\/redirect.php?url=http:\/\/blog.sina.com.cn\/s\/blog_536585320102ed0u.html",
"pubDate" : "10:19:21",
"enterDate" : "384200:49:54",
"channelId" : "-7731564487447072868",
"channelName" : "体育-新浪博客",
"channelNameSummary" : "体育-新浪博客",
"channelUrl" : "http:\/\/blog.sina.com.cn\/lm\/sports\/index.html",
"author" : "WWW.SINA.COM.CN",
"tags" : [],
"desc" : "",
"emailed" : False,
"forwarded" : False,
"english" : False
}  , {
"index" : 14,
"articleIndex" : "8157",
"favor" :  False ,
     "read" : False,    
"title" : "他乡：京鲁之战6大看点 安蒂奇会被喊下课吗？",
"titleTip" : "他乡：京鲁之战6大看点 安蒂奇会被喊下课吗？",
"titleSummary" : "他乡：京鲁之战6大看点 安蒂奇会被喊下课吗？",
"descSummary" : "",
"url" : "http:\/\/go.rss.sina.com.cn\/redirect.php?url=http:\/\/blog.sina.com.cn\/s\/blog_48d33f2e0102ea1p.html",
"pubDate" : "10:14:30",
"enterDate" : "384200:45:03",
"channelId" : "-7731564487447072868",
"channelName" : "体育-新浪博客",
"channelNameSummary" : "体育-新浪博客",
"channelUrl" : "http:\/\/blog.sina.com.cn\/lm\/sports\/index.html",
"author" : "WWW.SINA.COM.CN",
"tags" : [],
"desc" : "",
"emailed" : False,
"forwarded" : False,
"english" : False
}  , {
"index" : 15,
"articleIndex" : "8156",
"favor" :  False ,
     "read" : False,    
"title" : "浪崽：新赛季是豪门最后疯狂 看新贵蜂拥四起",
"titleTip" : "浪崽：新赛季是豪门最后疯狂 看新贵蜂拥四起",
"titleSummary" : "浪崽：新赛季是豪门最后疯狂 看新贵蜂拥四起",
"descSummary" : "",
"url" : "http:\/\/go.rss.sina.com.cn\/redirect.php?url=http:\/\/blog.sina.com.cn\/s\/blog_c2764b580101b0ue.html",
"pubDate" : "09:46:19",
"enterDate" : "384200:16:52",
"channelId" : "-7731564487447072868",
"channelName" : "体育-新浪博客",
"channelNameSummary" : "体育-新浪博客",
"channelUrl" : "http:\/\/blog.sina.com.cn\/lm\/sports\/index.html",
"author" : "WWW.SINA.COM.CN",
"tags" : [],
"desc" : "",
"emailed" : False,
"forwarded" : False,
"english" : False
}  , {
"index" : 16,
"articleIndex" : "8155",
"favor" :  False ,
     "read" : False,    
"title" : "陈舜：新赛季4大猜想 詹皇卫冕悬火箭无冠军命",
"titleTip" : "陈舜：新赛季4大猜想 詹皇卫冕悬火箭无冠军命",
"titleSummary" : "陈舜：新赛季4大猜想 詹皇卫冕悬火箭无冠军命",
"descSummary" : "",
"url" : "http:\/\/go.rss.sina.com.cn\/redirect.php?url=http:\/\/blog.sina.com.cn\/s\/blog_659574d30101gxbd.html",
"pubDate" : "09:31:31",
"enterDate" : "384200:02:04",
"channelId" : "-7731564487447072868",
"channelName" : "体育-新浪博客",
"channelNameSummary" : "体育-新浪博客",
"channelUrl" : "http:\/\/blog.sina.com.cn\/lm\/sports\/index.html",
"author" : "WWW.SINA.COM.CN",
"tags" : [],
"desc" : "",
"emailed" : False,
"forwarded" : False,
"english" : False
}  , {
"index" : 17,
"articleIndex" : "8154",
"favor" :  False ,
     "read" : False,    
"title" : "韩悦天：梁文博如何战胜奥沙利文",
"titleTip" : "韩悦天：梁文博如何战胜奥沙利文",
"titleSummary" : "韩悦天：梁文博如何战胜奥沙利文",
"descSummary" : "",
"url" : "http:\/\/go.rss.sina.com.cn\/redirect.php?url=http:\/\/blog.sina.com.cn\/s\/blog_4b3aa0230102eb67.html",
"pubDate" : "09:30:01",
"enterDate" : "384200:00:34",
"channelId" : "-7731564487447072868",
"channelName" : "体育-新浪博客",
"channelNameSummary" : "体育-新浪博客",
"channelUrl" : "http:\/\/blog.sina.com.cn\/lm\/sports\/index.html",
"author" : "WWW.SINA.COM.CN",
"tags" : [],
"desc" : "",
"emailed" : False,
"forwarded" : False,
"english" : False
}  , {
"index" : 18,
"articleIndex" : "8153",
"favor" :  False ,
     "read" : False,    
"title" : "无眠：新宿敌相见分外眼红 公牛揭幕战难撼热火",
"titleTip" : "无眠：新宿敌相见分外眼红 公牛揭幕战难撼热火",
"titleSummary" : "无眠：新宿敌相见分外眼红 公牛揭幕战难撼热火",
"descSummary" : "",
"url" : "http:\/\/go.rss.sina.com.cn\/redirect.php?url=http:\/\/blog.sina.com.cn\/s\/blog_d83da88e0101dvuy.html",
"pubDate" : "09:27:26",
"enterDate" : "384199:57:59",
"channelId" : "-7731564487447072868",
"channelName" : "体育-新浪博客",
"channelNameSummary" : "体育-新浪博客",
"channelUrl" : "http:\/\/blog.sina.com.cn\/lm\/sports\/index.html",
"author" : "WWW.SINA.COM.CN",
"tags" : [],
"desc" : "",
"emailed" : False,
"forwarded" : False,
"english" : False
}  , {
"index" : 19,
"articleIndex" : "8152",
"favor" :  False ,
     "read" : False,    
"title" : "金汕：谁是新中国在国际赛的第一进球人？",
"titleTip" : "金汕：谁是新中国在国际赛的第一进球人？",
"titleSummary" : "金汕：谁是新中国在国际赛的第一进球人？",
"descSummary" : "",
"url" : "http:\/\/go.rss.sina.com.cn\/redirect.php?url=http:\/\/blog.sina.com.cn\/s\/blog_4eddf60c0102e11i.html",
"pubDate" : "09:12:46",
"enterDate" : "384199:43:19",
"channelId" : "-7731564487447072868",
"channelName" : "体育-新浪博客",
"channelNameSummary" : "体育-新浪博客",
"channelUrl" : "http:\/\/blog.sina.com.cn\/lm\/sports\/index.html",
"author" : "WWW.SINA.COM.CN",
"tags" : [],
"desc" : "",
"emailed" : False,
"forwarded" : False,
"english" : False
} ]
}
