{
"mode" : {"viewTitle" : 1,   "viewNew" : 0,  "pageIndex" : 2 },
 "channel" : {"id" : "-7731564487447072868", "booked" : False, "subNumber" : 1, "name" : "体育-新浪博客", "url" : "http:\/\/blog.sina.com.cn\/lm\/sports\/index.html", "feed" : "http:\/\/rss.sina.com.cn\/blog\/sports\/ty.xml", "author" : "WWW.SINA.COM.CN", "desc" : "体育博客列表", "imageUrl" : "http:\/\/www.sinaimg.cn\/blog\/main\/index2010\/blog_logo.png", "postPerWeek" : "0", "lastCrawTime" : "16:50:15", "crawDateTime" : "15:50:05", "lastHttpCode" : "200"}, "page" : {
"startIndex" : 20,
"totalCount" : 5000,
"pageIndex" : 2,
"lastPage" : 250,
"pageSize" : 20,
"english" :  False },
 "unreadNum" : 0, "shotIndex" : -1,
"articles" : [
{
"index" : 0,
"articleIndex" : "8151",
"favor" :  False ,
     "read" : False,    
"title" : "脑袋：湖人有望进军季后赛 质疑激励科比去战斗",
"titleTip" : "脑袋：湖人有望进军季后赛 质疑激励科比去战斗",
"titleSummary" : "脑袋：湖人有望进军季后赛 质疑激励科比去战斗",
"descSummary" : "",
"url" : "http:\/\/go.rss.sina.com.cn\/redirect.php?url=http:\/\/blog.sina.com.cn\/s\/blog_3efef9e70102e5cw.html",
"pubDate" : "昨天17:28:07",
"enterDate" : "384201:01:50",
"channelId" : "-7731564487447072868",
"channelName" : "体育-新浪博客",
"channelNameSummary" : "体育-新浪博客",
"channelUrl" : "http:\/\/blog.sina.com.cn\/lm\/sports\/index.html",
"author" : "WWW.SINA.COM.CN",
"tags" : [],
"desc" : "",
"emailed" : False,
"forwarded" : False,
"english" : False
}  , {
"index" : 1,
"articleIndex" : "8150",
"favor" :  False ,
     "read" : False,    
"title" : "Thule：科比会为湖人转型 湖人未来值得期待",
"titleTip" : "Thule：科比会为湖人转型 湖人未来值得期待",
"titleSummary" : "Thule：科比会为湖人转型 湖人未来值得期待",
"descSummary" : "",
"url" : "http:\/\/go.rss.sina.com.cn\/redirect.php?url=http:\/\/blog.sina.com.cn\/s\/blog_4cdded000102ehn1.html",
"pubDate" : "昨天17:22:50",
"enterDate" : "384200:56:33",
"channelId" : "-7731564487447072868",
"channelName" : "体育-新浪博客",
"channelNameSummary" : "体育-新浪博客",
"channelUrl" : "http:\/\/blog.sina.com.cn\/lm\/sports\/index.html",
"author" : "WWW.SINA.COM.CN",
"tags" : [],
"desc" : "",
"emailed" : False,
"forwarded" : False,
"english" : False
}  , {
"index" : 2,
"articleIndex" : "8149",
"favor" :  False ,
     "read" : False,    
"title" : "吴俊豪：国安客战优势被夸大 战鲁能平局概率大",
"titleTip" : "吴俊豪：国安客战优势被夸大 战鲁能平局概率大",
"titleSummary" : "吴俊豪：国安客战优势被夸大 战鲁能平局概率大",
"descSummary" : "",
"url" : "http:\/\/go.rss.sina.com.cn\/redirect.php?url=http:\/\/blog.sina.com.cn\/s\/blog_4a58c8120101axn8.html",
"pubDate" : "昨天16:40:08",
"enterDate" : "384200:13:51",
"channelId" : "-7731564487447072868",
"channelName" : "体育-新浪博客",
"channelNameSummary" : "体育-新浪博客",
"channelUrl" : "http:\/\/blog.sina.com.cn\/lm\/sports\/index.html",
"author" : "WWW.SINA.COM.CN",
"tags" : [],
"desc" : "",
"emailed" : False,
"forwarded" : False,
"english" : False
}  , {
"index" : 3,
"articleIndex" : "8148",
"favor" :  False ,
     "read" : False,    
"title" : "杨旺：爱上特鲁姆普的中国女孩",
"titleTip" : "杨旺：爱上特鲁姆普的中国女孩",
"titleSummary" : "杨旺：爱上特鲁姆普的中国女孩",
"descSummary" : "",
"url" : "http:\/\/go.rss.sina.com.cn\/redirect.php?url=http:\/\/blog.sina.com.cn\/s\/blog_448d39930102e3p6.html",
"pubDate" : "昨天15:32:27",
"enterDate" : "384200:51:30",
"channelId" : "-7731564487447072868",
"channelName" : "体育-新浪博客",
"channelNameSummary" : "体育-新浪博客",
"channelUrl" : "http:\/\/blog.sina.com.cn\/lm\/sports\/index.html",
"author" : "WWW.SINA.COM.CN",
"tags" : [],
"desc" : "",
"emailed" : False,
"forwarded" : False,
"english" : False
}  , {
"index" : 4,
"articleIndex" : "8147",
"favor" :  False ,
     "read" : False,    
"title" : "柳号：健康的罗斯无法阻挡 詹姆斯准备好了吗？",
"titleTip" : "柳号：健康的罗斯无法阻挡 詹姆斯准备好了吗？",
"titleSummary" : "柳号：健康的罗斯无法阻挡 詹姆斯准备好了吗？",
"descSummary" : "",
"url" : "http:\/\/go.rss.sina.com.cn\/redirect.php?url=http:\/\/blog.sina.com.cn\/s\/blog_683c082b0102el9j.html",
"pubDate" : "昨天15:21:24",
"enterDate" : "384200:40:27",
"channelId" : "-7731564487447072868",
"channelName" : "体育-新浪博客",
"channelNameSummary" : "体育-新浪博客",
"channelUrl" : "http:\/\/blog.sina.com.cn\/lm\/sports\/index.html",
"author" : "WWW.SINA.COM.CN",
"tags" : [],
"desc" : "",
"emailed" : False,
"forwarded" : False,
"english" : False
}  , {
"index" : 5,
"articleIndex" : "8146",
"favor" :  False ,
     "read" : False,    
"title" : "柳号：内马尔将贝尔压在身下 风头超梅西（图）",
"titleTip" : "柳号：内马尔将贝尔压在身下 风头超梅西（图）",
"titleSummary" : "柳号：内马尔将贝尔压在身下 风头超梅西（图）",
"descSummary" : "",
"url" : "http:\/\/go.rss.sina.com.cn\/redirect.php?url=http:\/\/blog.sina.com.cn\/s\/blog_683c082b0102el93.html",
"pubDate" : "昨天14:50:46",
"enterDate" : "384200:09:49",
"channelId" : "-7731564487447072868",
"channelName" : "体育-新浪博客",
"channelNameSummary" : "体育-新浪博客",
"channelUrl" : "http:\/\/blog.sina.com.cn\/lm\/sports\/index.html",
"author" : "WWW.SINA.COM.CN",
"tags" : [],
"desc" : "",
"emailed" : False,
"forwarded" : False,
"english" : False
}  , {
"index" : 6,
"articleIndex" : "8145",
"favor" :  False ,
     "read" : False,    
"title" : "麦地：NBA揭幕三英战吕布 罗斯难挡热火开门红",
"titleTip" : "麦地：NBA揭幕三英战吕布 罗斯难挡热火开门红",
"titleSummary" : "麦地：NBA揭幕三英战吕布 罗斯难挡热火开门红",
"descSummary" : "",
"url" : "http:\/\/go.rss.sina.com.cn\/redirect.php?url=http:\/\/blog.sina.com.cn\/s\/blog_4bdf86660102e3g5.html",
"pubDate" : "昨天14:44:43",
"enterDate" : "384200:03:46",
"channelId" : "-7731564487447072868",
"channelName" : "体育-新浪博客",
"channelNameSummary" : "体育-新浪博客",
"channelUrl" : "http:\/\/blog.sina.com.cn\/lm\/sports\/index.html",
"author" : "WWW.SINA.COM.CN",
"tags" : [],
"desc" : "",
"emailed" : False,
"forwarded" : False,
"english" : False
}  , {
"index" : 7,
"articleIndex" : "8144",
"favor" :  False ,
     "read" : False,    
"title" : "纪金：杜兰特效仿詹姆斯 或出走联手哈登霍华德",
"titleTip" : "纪金：杜兰特效仿詹姆斯 或出走联手哈登霍华德",
"titleSummary" : "纪金：杜兰特效仿詹姆斯 或出走联手哈登霍华德",
"descSummary" : "",
"url" : "http:\/\/go.rss.sina.com.cn\/redirect.php?url=http:\/\/blog.sina.com.cn\/s\/blog_47466e260102e86n.html",
"pubDate" : "昨天14:38:39",
"enterDate" : "384199:57:42",
"channelId" : "-7731564487447072868",
"channelName" : "体育-新浪博客",
"channelNameSummary" : "体育-新浪博客",
"channelUrl" : "http:\/\/blog.sina.com.cn\/lm\/sports\/index.html",
"author" : "WWW.SINA.COM.CN",
"tags" : [],
"desc" : "",
"emailed" : False,
"forwarded" : False,
"english" : False
}  , {
"index" : 8,
"articleIndex" : "8143",
"favor" :  False ,
     "read" : False,    
"title" : "杨毅：谁是新赛季最闪亮新秀？",
"titleTip" : "杨毅：谁是新赛季最闪亮新秀？",
"titleSummary" : "杨毅：谁是新赛季最闪亮新秀？",
"descSummary" : "",
"url" : "http:\/\/go.rss.sina.com.cn\/redirect.php?url=http:\/\/blog.sina.com.cn\/s\/blog_44bec1440102edt6.html",
"pubDate" : "昨天13:53:37",
"enterDate" : "384199:12:40",
"channelId" : "-7731564487447072868",
"channelName" : "体育-新浪博客",
"channelNameSummary" : "体育-新浪博客",
"channelUrl" : "http:\/\/blog.sina.com.cn\/lm\/sports\/index.html",
"author" : "WWW.SINA.COM.CN",
"tags" : [],
"desc" : "",
"emailed" : False,
"forwarded" : False,
"english" : False
}  , {
"index" : 9,
"articleIndex" : "8142",
"favor" :  False ,
     "read" : False,    
"title" : "弹指：许家印霸气示威 恒大登顶钱和太太很关键",
"titleTip" : "弹指：许家印霸气示威 恒大登顶钱和太太很关键",
"titleSummary" : "弹指：许家印霸气示威 恒大登顶钱和太太很关键",
"descSummary" : "",
"url" : "http:\/\/go.rss.sina.com.cn\/redirect.php?url=http:\/\/blog.sina.com.cn\/s\/blog_4bc409c00102e87a.html",
"pubDate" : "昨天12:10:34",
"enterDate" : "384200:30:12",
"channelId" : "-7731564487447072868",
"channelName" : "体育-新浪博客",
"channelNameSummary" : "体育-新浪博客",
"channelUrl" : "http:\/\/blog.sina.com.cn\/lm\/sports\/index.html",
"author" : "WWW.SINA.COM.CN",
"tags" : [],
"desc" : "",
"emailed" : False,
"forwarded" : False,
"english" : False
}  , {
"index" : 10,
"articleIndex" : "8141",
"favor" :  False ,
     "read" : False,    
"title" : "大佬鸣：恒大备战首尔细节曝光 对手卑鄙需提防",
"titleTip" : "大佬鸣：恒大备战首尔细节曝光 对手卑鄙需提防",
"titleSummary" : "大佬鸣：恒大备战首尔细节曝光 对手卑鄙需提防",
"descSummary" : "",
"url" : "http:\/\/go.rss.sina.com.cn\/redirect.php?url=http:\/\/blog.sina.com.cn\/s\/blog_51ef9d460102eyzz.html",
"pubDate" : "昨天12:05:20",
"enterDate" : "384200:24:58",
"channelId" : "-7731564487447072868",
"channelName" : "体育-新浪博客",
"channelNameSummary" : "体育-新浪博客",
"channelUrl" : "http:\/\/blog.sina.com.cn\/lm\/sports\/index.html",
"author" : "WWW.SINA.COM.CN",
"tags" : [],
"desc" : "",
"emailed" : False,
"forwarded" : False,
"english" : False
}  , {
"index" : 11,
"articleIndex" : "8140",
"favor" :  False ,
     "read" : False,    
"title" : "棋哥：用儿时\u201C弹球\u201D基础打高尔夫",
"titleTip" : "棋哥：用儿时\u201C弹球\u201D基础打高尔夫",
"titleSummary" : "棋哥：用儿时\u201C弹球\u201D基础打高尔夫",
"descSummary" : "",
"url" : "http:\/\/go.rss.sina.com.cn\/redirect.php?url=http:\/\/blog.sina.com.cn\/s\/blog_486682450101dhp4.html",
"pubDate" : "昨天11:57:34",
"enterDate" : "384200:17:12",
"channelId" : "-7731564487447072868",
"channelName" : "体育-新浪博客",
"channelNameSummary" : "体育-新浪博客",
"channelUrl" : "http:\/\/blog.sina.com.cn\/lm\/sports\/index.html",
"author" : "WWW.SINA.COM.CN",
"tags" : [],
"desc" : "",
"emailed" : False,
"forwarded" : False,
"english" : False
}  , {
"index" : 12,
"articleIndex" : "8139",
"favor" :  False ,
     "read" : False,    
"title" : "云儿：魔鬼赛程温格如何应对 蓝军板凳上演逆袭",
"titleTip" : "云儿：魔鬼赛程温格如何应对 蓝军板凳上演逆袭",
"titleSummary" : "云儿：魔鬼赛程温格如何应对 蓝军板凳上演逆袭",
"descSummary" : "",
"url" : "http:\/\/go.rss.sina.com.cn\/redirect.php?url=http:\/\/blog.sina.com.cn\/s\/blog_536585320102ed06.html",
"pubDate" : "昨天11:56:57",
"enterDate" : "384200:16:35",
"channelId" : "-7731564487447072868",
"channelName" : "体育-新浪博客",
"channelNameSummary" : "体育-新浪博客",
"channelUrl" : "http:\/\/blog.sina.com.cn\/lm\/sports\/index.html",
"author" : "WWW.SINA.COM.CN",
"tags" : [],
"desc" : "",
"emailed" : False,
"forwarded" : False,
"english" : False
}  , {
"index" : 13,
"articleIndex" : "8138",
"favor" :  False ,
     "read" : False,    
"title" : "桐城：十强赛取消是好事？ 国足离世界杯很遥远",
"titleTip" : "桐城：十强赛取消是好事？ 国足离世界杯很遥远",
"titleSummary" : "桐城：十强赛取消是好事？ 国足离世界杯很遥远",
"descSummary" : "",
"url" : "http:\/\/go.rss.sina.com.cn\/redirect.php?url=http:\/\/blog.sina.com.cn\/s\/blog_45e374fa0102e24o.html",
"pubDate" : "昨天11:52:33",
"enterDate" : "384200:12:11",
"channelId" : "-7731564487447072868",
"channelName" : "体育-新浪博客",
"channelNameSummary" : "体育-新浪博客",
"channelUrl" : "http:\/\/blog.sina.com.cn\/lm\/sports\/index.html",
"author" : "WWW.SINA.COM.CN",
"tags" : [],
"desc" : "",
"emailed" : False,
"forwarded" : False,
"english" : False
}  , {
"index" : 14,
"articleIndex" : "8137",
"favor" :  False ,
     "read" : False,    
"title" : "奎哥：魔兽离开对湖人是好事 此人决定湖人战绩",
"titleTip" : "奎哥：魔兽离开对湖人是好事 此人决定湖人战绩",
"titleSummary" : "奎哥：魔兽离开对湖人是好事 此人决定湖人战绩",
"descSummary" : "",
"url" : "http:\/\/go.rss.sina.com.cn\/redirect.php?url=http:\/\/blog.sina.com.cn\/s\/blog_7e892c0b0101oqhj.html",
"pubDate" : "昨天11:47:39",
"enterDate" : "384200:07:17",
"channelId" : "-7731564487447072868",
"channelName" : "体育-新浪博客",
"channelNameSummary" : "体育-新浪博客",
"channelUrl" : "http:\/\/blog.sina.com.cn\/lm\/sports\/index.html",
"author" : "WWW.SINA.COM.CN",
"tags" : [],
"desc" : "",
"emailed" : False,
"forwarded" : False,
"english" : False
}  , {
"index" : 15,
"articleIndex" : "8136",
"favor" :  False ,
     "read" : False,    
"title" : "AC米兰新前腰的弱点究竟在哪",
"titleTip" : "AC米兰新前腰的弱点究竟在哪",
"titleSummary" : "AC米兰新前腰的弱点究竟在哪",
"descSummary" : "",
"url" : "http:\/\/go.rss.sina.com.cn\/redirect.php?url=http:\/\/blog.sina.com.cn\/s\/blog_61e6c79c0101fjkv.html",
"pubDate" : "昨天10:05:23",
"enterDate" : "384200:25:21",
"channelId" : "-7731564487447072868",
"channelName" : "体育-新浪博客",
"channelNameSummary" : "体育-新浪博客",
"channelUrl" : "http:\/\/blog.sina.com.cn\/lm\/sports\/index.html",
"author" : "WWW.SINA.COM.CN",
"tags" : [],
"desc" : "",
"emailed" : False,
"forwarded" : False,
"english" : False
}  , {
"index" : 16,
"articleIndex" : "8135",
"favor" :  False ,
     "read" : False,    
"title" : "陈志飞：侯逸凡提前卫冕女冠 王皓的赢棋浪费了",
"titleTip" : "陈志飞：侯逸凡提前卫冕女冠 王皓的赢棋浪费了",
"titleSummary" : "陈志飞：侯逸凡提前卫冕女冠 王皓的赢棋浪费了",
"descSummary" : "",
"url" : "http:\/\/go.rss.sina.com.cn\/redirect.php?url=http:\/\/blog.sina.com.cn\/s\/blog_bbaaed460101esiw.html",
"pubDate" : "昨天09:50:16",
"enterDate" : "384200:10:14",
"channelId" : "-7731564487447072868",
"channelName" : "体育-新浪博客",
"channelNameSummary" : "体育-新浪博客",
"channelUrl" : "http:\/\/blog.sina.com.cn\/lm\/sports\/index.html",
"author" : "WWW.SINA.COM.CN",
"tags" : [],
"desc" : "",
"emailed" : False,
"forwarded" : False,
"english" : False
}  , {
"index" : 17,
"articleIndex" : "8134",
"favor" :  False ,
     "read" : False,    
"title" : "韩悦天：毁掉特鲁姆普谁真正受益？",
"titleTip" : "韩悦天：毁掉特鲁姆普谁真正受益？",
"titleSummary" : "韩悦天：毁掉特鲁姆普谁真正受益？",
"descSummary" : "",
"url" : "http:\/\/go.rss.sina.com.cn\/redirect.php?url=http:\/\/blog.sina.com.cn\/s\/blog_4b3aa0230102eb4k.html",
"pubDate" : "昨天09:45:52",
"enterDate" : "384200:05:50",
"channelId" : "-7731564487447072868",
"channelName" : "体育-新浪博客",
"channelNameSummary" : "体育-新浪博客",
"channelUrl" : "http:\/\/blog.sina.com.cn\/lm\/sports\/index.html",
"author" : "WWW.SINA.COM.CN",
"tags" : [],
"desc" : "",
"emailed" : False,
"forwarded" : False,
"english" : False
}  , {
"index" : 18,
"articleIndex" : "8133",
"favor" :  False ,
     "read" : False,    
"title" : "郭奋飞：杀回中超的建业需要世界名帅",
"titleTip" : "郭奋飞：杀回中超的建业需要世界名帅",
"titleSummary" : "郭奋飞：杀回中超的建业需要世界名帅",
"descSummary" : "",
"url" : "http:\/\/go.rss.sina.com.cn\/redirect.php?url=http:\/\/blog.sina.com.cn\/s\/blog_541326620102e5vn.html",
"pubDate" : "昨天09:34:43",
"enterDate" : "384199:54:41",
"channelId" : "-7731564487447072868",
"channelName" : "体育-新浪博客",
"channelNameSummary" : "体育-新浪博客",
"channelUrl" : "http:\/\/blog.sina.com.cn\/lm\/sports\/index.html",
"author" : "WWW.SINA.COM.CN",
"tags" : [],
"desc" : "",
"emailed" : False,
"forwarded" : False,
"english" : False
}  , {
"index" : 19,
"articleIndex" : "8132",
"favor" :  False ,
     "read" : False,    
"title" : "木偶人：恒大夺亚冠非探囊取物 结果比过程重要",
"titleTip" : "木偶人：恒大夺亚冠非探囊取物 结果比过程重要",
"titleSummary" : "木偶人：恒大夺亚冠非探囊取物 结果比过程重要",
"descSummary" : "",
"url" : "http:\/\/go.rss.sina.com.cn\/redirect.php?url=http:\/\/blog.sina.com.cn\/s\/blog_40e9235c0101nms1.html",
"pubDate" : "前天17:38:44",
"enterDate" : "384201:01:37",
"channelId" : "-7731564487447072868",
"channelName" : "体育-新浪博客",
"channelNameSummary" : "体育-新浪博客",
"channelUrl" : "http:\/\/blog.sina.com.cn\/lm\/sports\/index.html",
"author" : "WWW.SINA.COM.CN",
"tags" : [],
"desc" : "",
"emailed" : False,
"forwarded" : False,
"english" : False
} ]
}
