{
"mode" : {"viewTitle" : 1,   "viewNew" : 0,  "pageIndex" : 1 },
 "channel" : {"id" : "-469237259900734335", "booked" : False, "subNumber" : 1, "name" : "科普要闻-新浪科技", "url" : "http:\/\/tech.sina.com.cn\/old2013\/discovery\/index.shtml", "feed" : "http:\/\/rss.sina.com.cn\/tech\/discovery\/discovery.xml", "author" : "WWW.SINA.COM.CN", "desc" : "科普要闻列表", "imageUrl" : "http:\/\/www.sinaimg.cn\/home\/deco\/2009\/0330\/logo_home_tech_news.gif", "postPerWeek" : "0", "lastCrawTime" : "16:55:05", "crawDateTime" : "16:55:05", "lastHttpCode" : "200"}, "page" : {
"startIndex" : 0,
"totalCount" : 5000,
"pageIndex" : 1,
"lastPage" : 250,
"pageSize" : 20,
"english" :  False },
 "unreadNum" : 0, "shotIndex" : -1,
"articles" : [
{
"index" : 0,
"articleIndex" : "12861",
"favor" :  False ,
     "read" : False,    
"title" : "最后的鸣唱：地中海沿岸每年猎鸟亿万",
"titleTip" : "最后的鸣唱：地中海沿岸每年猎鸟亿万",
"titleSummary" : "最后的鸣唱：地中海沿岸每年猎鸟亿万",
"descSummary" : "整个地中海沿岸，人们为了食用、牟利或消遣取乐，每年猎杀亿万...",
"url" : "http:\/\/go.rss.sina.com.cn\/redirect.php?url=http:\/\/slide.geo.sina.com.cn\/slide_29_16805_26478.html",
"pubDate" : "13:36:14",
"enterDate" : "384201:00:44",
"channelId" : "-469237259900734335",
"channelName" : "科普要闻-新浪科技",
"channelNameSummary" : "科普要闻-新浪科技",
"channelUrl" : "http:\/\/tech.sina.com.cn\/old2013\/discovery\/index.shtml",
"author" : "WWW.SINA.COM.CN",
"tags" : [],
"desc" : "整个地中海沿岸，人们为了食用、牟利或消遣取乐，每年猎杀亿万只鸣禽和大型迁徙鸟类。这种杀戮行为基本上不对鸟的种类进行区分，不论濒危与否都滥杀一气，给繁殖栖息地已经遭毁或破碎的种群带来重创。",
"emailed" : False,
"forwarded" : False,
"english" : False
}  , {
"index" : 1,
"articleIndex" : "12860",
"favor" :  False ,
     "read" : False,    
"title" : "地球上15条壮美河流：彩虹河似自天堂而落",
"titleTip" : "地球上15条壮美河流：彩虹河似自天堂而落",
"titleSummary" : "地球上15条壮美河流：彩虹河似自天堂而落",
"descSummary" : "CNN以风景、野生生物、文化、探险、活动选择等五项为标...",
"url" : "http:\/\/go.rss.sina.com.cn\/redirect.php?url=http:\/\/slide.tech.sina.com.cn\/d\/slide_5_453_37575.html",
"pubDate" : "13:34:04",
"enterDate" : "384200:58:34",
"channelId" : "-469237259900734335",
"channelName" : "科普要闻-新浪科技",
"channelNameSummary" : "科普要闻-新浪科技",
"channelUrl" : "http:\/\/tech.sina.com.cn\/old2013\/discovery\/index.shtml",
"author" : "WWW.SINA.COM.CN",
"tags" : [],
"desc" : "CNN以风景、野生生物、文化、探险、活动选择等五项为标准，精选了全球15大河流。",
"emailed" : False,
"forwarded" : False,
"english" : False
}  , {
"index" : 2,
"articleIndex" : "12859",
"favor" :  False ,
     "read" : False,    
"title" : "美鳄鱼养殖业全纪录：州年产量高达17万只",
"titleTip" : "美鳄鱼养殖业全纪录：州年产量高达17万只",
"titleSummary" : "美鳄鱼养殖业全纪录：州年产量高达17万只",
"descSummary" : "【环球网综合报道】据英国《每日邮报》10月27日报道，作...",
"url" : "http:\/\/go.rss.sina.com.cn\/redirect.php?url=http:\/\/slide.tech.sina.com.cn\/d\/slide_5_453_37578.html",
"pubDate" : "13:29:46",
"enterDate" : "384200:54:16",
"channelId" : "-469237259900734335",
"channelName" : "科普要闻-新浪科技",
"channelNameSummary" : "科普要闻-新浪科技",
"channelUrl" : "http:\/\/tech.sina.com.cn\/old2013\/discovery\/index.shtml",
"author" : "WWW.SINA.COM.CN",
"tags" : [],
"desc" : "【环球网综合报道】据英国《每日邮报》10月27日报道，作为北美洲体积最庞大的爬行动物，短吻鳄是一种可再生资源，当地人养殖短吻鳄的历史已有200余年。仅在路易斯安那州，短吻鳄养殖的年产量就高达14万至17万只，总价值超过1200万美元(约合人民币7299万元)。",
"emailed" : False,
"forwarded" : False,
"english" : False
}  , {
"index" : 3,
"articleIndex" : "12858",
"favor" :  False ,
     "read" : False,    
"title" : "美摄影师揭秘神秘深海生物生活：凸显环境问题",
"titleTip" : "美摄影师揭秘神秘深海生物生活：凸显环境问题",
"titleSummary" : "美摄影师揭秘神秘深海生物生活：凸显环境问题",
"descSummary" : "美国摄影师布莱恩-斯科利已经通过他的作品，向我们展...",
"url" : "http:\/\/go.rss.sina.com.cn\/redirect.php?url=http:\/\/slide.tech.sina.com.cn\/d\/slide_5_453_37571.html",
"pubDate" : "13:21:00",
"enterDate" : "384200:45:30",
"channelId" : "-469237259900734335",
"channelName" : "科普要闻-新浪科技",
"channelNameSummary" : "科普要闻-新浪科技",
"channelUrl" : "http:\/\/tech.sina.com.cn\/old2013\/discovery\/index.shtml",
"author" : "WWW.SINA.COM.CN",
"tags" : [],
"desc" : "美国摄影师布莱恩-斯科利已经通过他的作品，向我们展示了海洋深处正面临严峻生存考验的一些动物的华美画面。",
"emailed" : False,
"forwarded" : False,
"english" : False
}  , {
"index" : 4,
"articleIndex" : "12857",
"favor" :  False ,
     "read" : False,    
"title" : "法推出最快四轮摩托车时速240公里",
"titleTip" : "法推出最快四轮摩托车时速240公里",
"titleSummary" : "法推出最快四轮摩托车时速240公里",
"descSummary" : "【环球网综合报道】据英国《每日邮报》10月27日报道，法国机械工...",
"url" : "http:\/\/go.rss.sina.com.cn\/redirect.php?url=http:\/\/slide.tech.sina.com.cn\/d\/slide_5_453_37572.html",
"pubDate" : "13:12:21",
"enterDate" : "384201:06:56",
"channelId" : "-469237259900734335",
"channelName" : "科普要闻-新浪科技",
"channelNameSummary" : "科普要闻-新浪科技",
"channelUrl" : "http:\/\/tech.sina.com.cn\/old2013\/discovery\/index.shtml",
"author" : "WWW.SINA.COM.CN",
"tags" : [],
"desc" : "【环球网综合报道】据英国《每日邮报》10月27日报道，法国机械工程师已经设计出最新一款高性能四轮摩托车，其外观酷似蝙蝠侠战车，并搭载法拉利引擎，最高时速达150英里(约240公里\/小时)。",
"emailed" : False,
"forwarded" : False,
"english" : False
}  , {
"index" : 5,
"articleIndex" : "12856",
"favor" :  False ,
     "read" : False,    
"title" : "动物王国野性之旅：壮美草原上的血腥杀戮",
"titleTip" : "动物王国野性之旅：壮美草原上的血腥杀戮",
"titleSummary" : "动物王国野性之旅：壮美草原上的血腥杀戮",
"descSummary" : "这一组令人惊叹的图片，向我们展示了动物王国的野性一面。...",
"url" : "http:\/\/go.rss.sina.com.cn\/redirect.php?url=http:\/\/slide.tech.sina.com.cn\/d\/slide_5_453_37573.html",
"pubDate" : "13:06:17",
"enterDate" : "384201:00:52",
"channelId" : "-469237259900734335",
"channelName" : "科普要闻-新浪科技",
"channelNameSummary" : "科普要闻-新浪科技",
"channelUrl" : "http:\/\/tech.sina.com.cn\/old2013\/discovery\/index.shtml",
"author" : "WWW.SINA.COM.CN",
"tags" : [],
"desc" : "这一组令人惊叹的图片，向我们展示了动物王国的野性一面。透过自然摄影师大卫・劳埃德（David Lloyd）的镜头，我们不仅感受到了马赛马拉大草原的壮美景色，也看到了动物界中弱肉强食的血腥。 &#160;",
"emailed" : False,
"forwarded" : False,
"english" : False
}  , {
"index" : 6,
"articleIndex" : "12855",
"favor" :  False ,
     "read" : False,    
"title" : "野生东北虎路遇村民被吓跑 蹿逃时挠碎指甲(图)",
"titleTip" : "野生东北虎路遇村民被吓跑 蹿逃时挠碎指甲(图)",
"titleSummary" : "野生东北虎路遇村民被吓跑 蹿逃时挠碎指甲(图)",
"descSummary" : "《按完快门 转身就跑》续 \u201C我被老虎吓蒙，老虎让我吓跑...",
"url" : "http:\/\/go.rss.sina.com.cn\/redirect.php?url=http:\/\/tech.sina.com.cn\/d\/2013-10-30\/10538867615.shtml",
"pubDate" : "10:53:58",
"enterDate" : "384200:48:57",
"channelId" : "-469237259900734335",
"channelName" : "科普要闻-新浪科技",
"channelNameSummary" : "科普要闻-新浪科技",
"channelUrl" : "http:\/\/tech.sina.com.cn\/old2013\/discovery\/index.shtml",
"author" : "WWW.SINA.COM.CN",
"tags" : [],
"desc" : "《按完快门 转身就跑》续 \u201C我被老虎吓蒙，老虎让我吓跑\u201D 珲春农民昨讲述不久前与东北虎\u201C狭路相逢\u201D的故事：人虎相遇，人慌掉进沟，虎慌也蹦进沟，老虎蹬蹿留下碎指甲后逃走 新闻回放：10月26日，珲春摄影师王金生在珲春市哈达门乡马滴达村拍到东北虎....",
"emailed" : False,
"forwarded" : False,
"english" : False
}  , {
"index" : 7,
"articleIndex" : "12854",
"favor" :  False ,
     "read" : False,    
"title" : "未来卧室构想：智能床可自动清洁监测健康",
"titleTip" : "未来卧室构想：智能床可自动清洁监测健康",
"titleSummary" : "未来卧室构想：智能床可自动清洁监测健康",
"descSummary" : "伦敦设计师梅利莎-斯特里设计的未来卧室。卧室内的智能床...",
"url" : "http:\/\/go.rss.sina.com.cn\/redirect.php?url=http:\/\/tech.sina.com.cn\/d\/2013-10-30\/10308867541.shtml",
"pubDate" : "10:30:48",
"enterDate" : "384200:25:47",
"channelId" : "-469237259900734335",
"channelName" : "科普要闻-新浪科技",
"channelNameSummary" : "科普要闻-新浪科技",
"channelUrl" : "http:\/\/tech.sina.com.cn\/old2013\/discovery\/index.shtml",
"author" : "WWW.SINA.COM.CN",
"tags" : [],
"desc" : "伦敦设计师梅利莎-斯特里设计的未来卧室。卧室内的智能床能够监视主人的健康状况，床垫可以自行清洁，床单采用的材料可以在主人睡觉时根据其体温自行调节温度。此外，未来卧室还为用户准备了一个全息同伴，采用达西先生等名人形象，为用户讲睡前故事，帮助他们进入梦乡 ....",
"emailed" : False,
"forwarded" : False,
"english" : False
}  , {
"index" : 8,
"articleIndex" : "12853",
"favor" :  False ,
     "read" : False,    
"title" : "恐龙为何拥有庞大身躯之谜：关节柔韧是关键",
"titleTip" : "恐龙为何拥有庞大身躯之谜：关节柔韧是关键",
"titleSummary" : "恐龙为何拥有庞大身躯之谜：关节柔韧是关键",
"descSummary" : "柏林博物馆的腕龙骨骼化石。美国科学家经研究发现恐龙之...",
"url" : "http:\/\/go.rss.sina.com.cn\/redirect.php?url=http:\/\/tech.sina.com.cn\/d\/2013-10-30\/10248867521.shtml",
"pubDate" : "10:24:07",
"enterDate" : "384200:49:12",
"channelId" : "-469237259900734335",
"channelName" : "科普要闻-新浪科技",
"channelNameSummary" : "科普要闻-新浪科技",
"channelUrl" : "http:\/\/tech.sina.com.cn\/old2013\/discovery\/index.shtml",
"author" : "WWW.SINA.COM.CN",
"tags" : [],
"desc" : "柏林博物馆的腕龙骨骼化石。美国科学家经研究发现恐龙之所以能够拥有庞大的身躯要归功于它们的关节。恐龙的关节比现代陆地哺乳动物更柔韧，能够承受更大的压力 柏林博物馆的腕龙骨骼化石。美国科学家经研究发现恐龙之所以能够拥有庞大的身躯要归功于它们的关节。恐龙的....",
"emailed" : False,
"forwarded" : False,
"english" : False
}  , {
"index" : 9,
"articleIndex" : "12852",
"favor" :  False ,
     "read" : False,    
"title" : "陨石研究显示火星大气或被封存于岩石中",
"titleTip" : "陨石研究显示火星大气或被封存于岩石中",
"titleSummary" : "陨石研究显示火星大气或被封存于岩石中",
"descSummary" : "这是拉法耶特陨石切片的伪彩色图像，叠加了X射线图像下的硅...",
"url" : "http:\/\/go.rss.sina.com.cn\/redirect.php?url=http:\/\/tech.sina.com.cn\/d\/2013-10-30\/10178867432.shtml",
"pubDate" : "10:17:13",
"enterDate" : "384201:12:24",
"channelId" : "-469237259900734335",
"channelName" : "科普要闻-新浪科技",
"channelNameSummary" : "科普要闻-新浪科技",
"channelUrl" : "http:\/\/tech.sina.com.cn\/old2013\/discovery\/index.shtml",
"author" : "WWW.SINA.COM.CN",
"tags" : [],
"desc" : "这是拉法耶特陨石切片的伪彩色图像，叠加了X射线图像下的硅(绿色)，铁(红色)以及钙(蓝色)。碳酸盐(橘色)替换了橄榄石(蓝色)，它们两者都被粘土裂隙(绿色)包围。图像宽度124微米 新浪科技讯 北京时间10月29日消息，据美国太空网报道，一项最新的研究表明，火星的大气可....",
"emailed" : False,
"forwarded" : False,
"english" : False
}  , {
"index" : 10,
"articleIndex" : "12851",
"favor" :  False ,
     "read" : False,    
"title" : "科学家称获得可预测金融危机数学方程",
"titleTip" : "科学家称获得可预测金融危机数学方程",
"titleSummary" : "科学家称获得可预测金融危机数学方程",
"descSummary" : "神经科学家得出了一个据称能预测金融危机--如2008年引发银行倒...",
"url" : "http:\/\/go.rss.sina.com.cn\/redirect.php?url=http:\/\/tech.sina.com.cn\/d\/2013-10-30\/10158867426.shtml",
"pubDate" : "10:15:15",
"enterDate" : "384201:10:26",
"channelId" : "-469237259900734335",
"channelName" : "科普要闻-新浪科技",
"channelNameSummary" : "科普要闻-新浪科技",
"channelUrl" : "http:\/\/tech.sina.com.cn\/old2013\/discovery\/index.shtml",
"author" : "WWW.SINA.COM.CN",
"tags" : [],
"desc" : "神经科学家得出了一个据称能预测金融危机\u2015\u2015如2008年引发银行倒闭的那次\u2015\u2015的数学方程 新浪科技讯 北京时间10月30日消息，近日一项研究称，科学家获得了一个可以帮助预测复杂灾难事件的数学方程。所谓的灾难事件，既包括经济系统里面的金融危机，也包括大脑内部发生的癫....",
"emailed" : False,
"forwarded" : False,
"english" : False
}  , {
"index" : 11,
"articleIndex" : "12850",
"favor" :  False ,
     "read" : False,    
"title" : "美国预定11月发射火星大气探测器",
"titleTip" : "美国预定11月发射火星大气探测器",
"titleSummary" : "美国预定11月发射火星大气探测器",
"descSummary" : "新华网华盛顿10月28日电(记者林小春)美国航天局28日宣布，将于11月...",
"url" : "http:\/\/go.rss.sina.com.cn\/redirect.php?url=http:\/\/tech.sina.com.cn\/d\/2013-10-29\/15148863891.shtml",
"pubDate" : "昨天15:14:30",
"enterDate" : "384201:14:21",
"channelId" : "-469237259900734335",
"channelName" : "科普要闻-新浪科技",
"channelNameSummary" : "科普要闻-新浪科技",
"channelUrl" : "http:\/\/tech.sina.com.cn\/old2013\/discovery\/index.shtml",
"author" : "WWW.SINA.COM.CN",
"tags" : [],
"desc" : "新华网华盛顿10月28日电(记者林小春)美国航天局28日宣布，将于11月18日发射一个火星探测器，它将以\u201C前所未有的精度\u201D研究火星的上层大气，也将是美国发射的首个专门执行这一使命的探测器。 美国航天局当天发布消息说，重约2.45吨的\u201C火星大气与挥发演化(MAVEN)\u201D探测....",
"emailed" : False,
"forwarded" : False,
"english" : False
}  , {
"index" : 12,
"articleIndex" : "12849",
"favor" :  False ,
     "read" : False,    
"title" : "新研究称干旱是铜器时代文明崩溃主因",
"titleTip" : "新研究称干旱是铜器时代文明崩溃主因",
"titleSummary" : "新研究称干旱是铜器时代文明崩溃主因",
"descSummary" : "是什么原因导致了3200年前，地中海东岸多个繁荣文明的崩溃？...",
"url" : "http:\/\/go.rss.sina.com.cn\/redirect.php?url=http:\/\/tech.sina.com.cn\/geo\/history\/news\/2013-10-29\/09421606.shtml",
"pubDate" : "昨天14:25:59",
"enterDate" : "384200:55:55",
"channelId" : "-469237259900734335",
"channelName" : "科普要闻-新浪科技",
"channelNameSummary" : "科普要闻-新浪科技",
"channelUrl" : "http:\/\/tech.sina.com.cn\/old2013\/discovery\/index.shtml",
"author" : "WWW.SINA.COM.CN",
"tags" : [],
"desc" : "是什么原因导致了3200年前，地中海东岸多个繁荣文明的崩溃？数十年来，历史学家和考古学家一直对这一问题困扰不已。近日，通过对加利利海海底沉积物中孢粉颗粒化石的研究，或许能为这一有趣的历史问题提供答案。",
"emailed" : False,
"forwarded" : False,
"english" : False
}  , {
"index" : 13,
"articleIndex" : "12848",
"favor" :  False ,
     "read" : False,    
"title" : "科学家设计微型背包记录蜻蜓神经活动",
"titleTip" : "科学家设计微型背包记录蜻蜓神经活动",
"titleSummary" : "科学家设计微型背包记录蜻蜓神经活动",
"descSummary" : "以往的蜻蜓背包都太过沉重；而且，尽管蜻蜓在被针刺的情况下仍...",
"url" : "http:\/\/go.rss.sina.com.cn\/redirect.php?url=http:\/\/tech.sina.com.cn\/geo\/science\/news\/2013-10-29\/09361605.shtml",
"pubDate" : "昨天14:23:57",
"enterDate" : "384200:53:53",
"channelId" : "-469237259900734335",
"channelName" : "科普要闻-新浪科技",
"channelNameSummary" : "科普要闻-新浪科技",
"channelUrl" : "http:\/\/tech.sina.com.cn\/old2013\/discovery\/index.shtml",
"author" : "WWW.SINA.COM.CN",
"tags" : [],
"desc" : "以往的蜻蜓背包都太过沉重；而且，尽管蜻蜓在被针刺的情况下仍能飞行，但它们会停止觅食，并很快饿死。",
"emailed" : False,
"forwarded" : False,
"english" : False
}  , {
"index" : 14,
"articleIndex" : "12847",
"favor" :  False ,
     "read" : False,    
"title" : "最不为人知的间歇泉：试验意外造就别样美景",
"titleTip" : "最不为人知的间歇泉：试验意外造就别样美景",
"titleSummary" : "最不为人知的间歇泉：试验意外造就别样美景",
"descSummary" : "提到间歇泉，很多人就会想起美国黄石公园里面著名的\u201C老...",
"url" : "http:\/\/go.rss.sina.com.cn\/redirect.php?url=http:\/\/slide.tech.sina.com.cn\/d\/slide_5_453_37476.html",
"pubDate" : "昨天12:02:21",
"enterDate" : "384200:32:35",
"channelId" : "-469237259900734335",
"channelName" : "科普要闻-新浪科技",
"channelNameSummary" : "科普要闻-新浪科技",
"channelUrl" : "http:\/\/tech.sina.com.cn\/old2013\/discovery\/index.shtml",
"author" : "WWW.SINA.COM.CN",
"tags" : [],
"desc" : "提到间歇泉，很多人就会想起美国黄石公园里面著名的\u201C老忠实\u201D泉。当然，\u201C老忠实\u201D泉并不是世界上唯一的间歇泉。在世界的其他地方，也有一些同样奇特迷人的间歇泉，但由于地处偏僻，很少为人所知。",
"emailed" : False,
"forwarded" : False,
"english" : False
}  , {
"index" : 15,
"articleIndex" : "12846",
"favor" :  False ,
     "read" : False,    
"title" : "美农民发现7000万年前恐龙化石一夜暴富",
"titleTip" : "美农民发现7000万年前恐龙化石一夜暴富",
"titleSummary" : "美农民发现7000万年前恐龙化石一夜暴富",
"descSummary" : "在美国蒙大拿州地狱溪的一个农场，一名农民发现两头生活在7...",
"url" : "http:\/\/go.rss.sina.com.cn\/redirect.php?url=http:\/\/slide.tech.sina.com.cn\/d\/slide_5_453_37483.html",
"pubDate" : "昨天11:59:07",
"enterDate" : "384200:59:27",
"channelId" : "-469237259900734335",
"channelName" : "科普要闻-新浪科技",
"channelNameSummary" : "科普要闻-新浪科技",
"channelUrl" : "http:\/\/tech.sina.com.cn\/old2013\/discovery\/index.shtml",
"author" : "WWW.SINA.COM.CN",
"tags" : [],
"desc" : "在美国蒙大拿州地狱溪的一个农场，一名农民发现两头生活在7000万年前的骨骼化石\u2015\u2015暴龙化石和三角龙化石。这些恐龙化石将进行拍卖，发现者也将因此在一夜间变成百万富翁。",
"emailed" : False,
"forwarded" : False,
"english" : False
}  , {
"index" : 16,
"articleIndex" : "12845",
"favor" :  False ,
     "read" : False,    
"title" : "自然界天才建筑师：各色精巧鸟巢大盘点",
"titleTip" : "自然界天才建筑师：各色精巧鸟巢大盘点",
"titleSummary" : "自然界天才建筑师：各色精巧鸟巢大盘点",
"descSummary" : "以下很多鸟巢是在1950年之前收集的，其中一些已经历经100多...",
"url" : "http:\/\/go.rss.sina.com.cn\/redirect.php?url=http:\/\/slide.tech.sina.com.cn\/d\/slide_5_453_37478.html",
"pubDate" : "昨天11:56:42",
"enterDate" : "384200:57:02",
"channelId" : "-469237259900734335",
"channelName" : "科普要闻-新浪科技",
"channelNameSummary" : "科普要闻-新浪科技",
"channelUrl" : "http:\/\/tech.sina.com.cn\/old2013\/discovery\/index.shtml",
"author" : "WWW.SINA.COM.CN",
"tags" : [],
"desc" : "以下很多鸟巢是在1950年之前收集的，其中一些已经历经100多年。",
"emailed" : False,
"forwarded" : False,
"english" : False
}  , {
"index" : 17,
"articleIndex" : "12844",
"favor" :  False ,
     "read" : False,    
"title" : "比利时建筑师设计蛋型住宅：20平米设备齐全",
"titleTip" : "比利时建筑师设计蛋型住宅：20平米设备齐全",
"titleSummary" : "比利时建筑师设计蛋型住宅：20平米设备齐全",
"descSummary" : "它看起来可能有点像一辆新颖独特的固定式旅行拖车，但比...",
"url" : "http:\/\/go.rss.sina.com.cn\/redirect.php?url=http:\/\/slide.tech.sina.com.cn\/d\/slide_5_453_37477.html",
"pubDate" : "昨天11:54:29",
"enterDate" : "384200:54:49",
"channelId" : "-469237259900734335",
"channelName" : "科普要闻-新浪科技",
"channelNameSummary" : "科普要闻-新浪科技",
"channelUrl" : "http:\/\/tech.sina.com.cn\/old2013\/discovery\/index.shtml",
"author" : "WWW.SINA.COM.CN",
"tags" : [],
"desc" : "它看起来可能有点像一辆新颖独特的固定式旅行拖车，但比利时建筑师已经设法把常规住宅的主要成分塞进这样一个巨大的蛋里。",
"emailed" : False,
"forwarded" : False,
"english" : False
}  , {
"index" : 18,
"articleIndex" : "12843",
"favor" :  False ,
     "read" : False,    
"title" : "两万涉禽齐聚英国保护区形成幻境画面",
"titleTip" : "两万涉禽齐聚英国保护区形成幻境画面",
"titleSummary" : "两万涉禽齐聚英国保护区形成幻境画面",
"descSummary" : "数千只水鸟聚集在英国皇家鸟类保护协会的斯内蒂瑟姆野生生物保...",
"url" : "http:\/\/go.rss.sina.com.cn\/redirect.php?url=http:\/\/slide.tech.sina.com.cn\/d\/slide_5_453_37474.html",
"pubDate" : "昨天11:52:14",
"enterDate" : "384200:52:34",
"channelId" : "-469237259900734335",
"channelName" : "科普要闻-新浪科技",
"channelNameSummary" : "科普要闻-新浪科技",
"channelUrl" : "http:\/\/tech.sina.com.cn\/old2013\/discovery\/index.shtml",
"author" : "WWW.SINA.COM.CN",
"tags" : [],
"desc" : "数千只水鸟聚集在英国皇家鸟类保护协会的斯内蒂瑟姆野生生物保护区，看起来像是一个引人注目的幻境。一眼望去，鸟儿拥挤在一起组成的庞大鸟群形成令人惊叹的波纹状图案。这些被称之为\u201C斯内蒂瑟姆奇观\u201D的惊人画面，被野生生物摄影师汤姆-梅森用相机记录下来。",
"emailed" : False,
"forwarded" : False,
"english" : False
}  , {
"index" : 19,
"articleIndex" : "12842",
"favor" :  False ,
     "read" : False,    
"title" : "动物精妙隐身术：与周边环境完美融合",
"titleTip" : "动物精妙隐身术：与周边环境完美融合",
"titleSummary" : "动物精妙隐身术：与周边环境完美融合",
"descSummary" : "【环球网综合报道】伪装，是动物在残酷的自然界生存下来的重要...",
"url" : "http:\/\/go.rss.sina.com.cn\/redirect.php?url=http:\/\/slide.tech.sina.com.cn\/d\/slide_5_453_37475.html",
"pubDate" : "昨天11:50:26",
"enterDate" : "384200:50:46",
"channelId" : "-469237259900734335",
"channelName" : "科普要闻-新浪科技",
"channelNameSummary" : "科普要闻-新浪科技",
"channelUrl" : "http:\/\/tech.sina.com.cn\/old2013\/discovery\/index.shtml",
"author" : "WWW.SINA.COM.CN",
"tags" : [],
"desc" : "【环球网综合报道】伪装，是动物在残酷的自然界生存下来的重要规则之一，完美的伪装、隐藏自己才能避免成为盘中餐。下面这组图来自著名的自然摄影大师阿尔特・沃尔夫(Art Wolfe)一个惊人的项目\u201C消失的行为\u201D，让我们跟随沃尔夫的镜头来看看这些动物的\u201C捉迷藏\u201D吧。",
"emailed" : False,
"forwarded" : False,
"english" : False
} ]
}
