{
"mode" : {"viewTitle" : 1,   "viewNew" : 0,  "pageIndex" : 2 },
 "channel" : {"id" : "-469237259900734335", "booked" : False, "subNumber" : 1, "name" : "科普要闻-新浪科技", "url" : "http:\/\/tech.sina.com.cn\/old2013\/discovery\/index.shtml", "feed" : "http:\/\/rss.sina.com.cn\/tech\/discovery\/discovery.xml", "author" : "WWW.SINA.COM.CN", "desc" : "科普要闻列表", "imageUrl" : "http:\/\/www.sinaimg.cn\/home\/deco\/2009\/0330\/logo_home_tech_news.gif", "postPerWeek" : "0", "lastCrawTime" : "16:55:05", "crawDateTime" : "16:55:05", "lastHttpCode" : "200"}, "page" : {
"startIndex" : 20,
"totalCount" : 5000,
"pageIndex" : 2,
"lastPage" : 250,
"pageSize" : 20,
"english" :  False },
 "unreadNum" : 0, "shotIndex" : -1,
"articles" : [
{
"index" : 0,
"articleIndex" : "12841",
"favor" :  False ,
     "read" : False,    
"title" : "卡西尼飞船拍到土卫六北极湖泊和海洋全貌",
"titleTip" : "卡西尼飞船拍到土卫六北极湖泊和海洋全貌",
"titleSummary" : "卡西尼飞船拍到土卫六北极湖泊和海洋全貌",
"descSummary" : "张假彩色图像由美国宇航局卡西尼飞船拍摄，展示土星最大的...",
"url" : "http:\/\/go.rss.sina.com.cn\/redirect.php?url=http:\/\/tech.sina.com.cn\/d\/2013-10-29\/10078863189.shtml",
"pubDate" : "昨天10:07:12",
"enterDate" : "384201:07:53",
"channelId" : "-469237259900734335",
"channelName" : "科普要闻-新浪科技",
"channelNameSummary" : "科普要闻-新浪科技",
"channelUrl" : "http:\/\/tech.sina.com.cn\/old2013\/discovery\/index.shtml",
"author" : "WWW.SINA.COM.CN",
"tags" : [],
"desc" : "张假彩色图像由美国宇航局卡西尼飞船拍摄，展示土星最大的卫星土卫六上的大量湖泊群及其周围区域的不同物质组成 新浪科技讯 北京时间10月29日消息，据美国宇航局网站报道，正在土星轨道运行的卡西尼飞船又有了新发现\u2015\u2015由于近期太阳的角度适中，土卫六北极地区被阳光....",
"emailed" : False,
"forwarded" : False,
"english" : False
}  , {
"index" : 1,
"articleIndex" : "12840",
"favor" :  False ,
     "read" : False,    
"title" : "今年南极臭氧层空洞达数十年来最小",
"titleTip" : "今年南极臭氧层空洞达数十年来最小",
"titleSummary" : "今年南极臭氧层空洞达数十年来最小",
"descSummary" : "在2013年9月16日，南极洲上空的臭氧层空洞面积达到今年的单日最...",
"url" : "http:\/\/go.rss.sina.com.cn\/redirect.php?url=http:\/\/tech.sina.com.cn\/d\/2013-10-29\/09578863137.shtml",
"pubDate" : "昨天09:57:25",
"enterDate" : "384200:58:06",
"channelId" : "-469237259900734335",
"channelName" : "科普要闻-新浪科技",
"channelNameSummary" : "科普要闻-新浪科技",
"channelUrl" : "http:\/\/tech.sina.com.cn\/old2013\/discovery\/index.shtml",
"author" : "WWW.SINA.COM.CN",
"tags" : [],
"desc" : "在2013年9月16日，南极洲上空的臭氧层空洞面积达到今年的单日最大面积。图像中紫色和蓝色区域显示的便是臭氧含量在220多布森单位以下的区域。多布森单位(DU)是描述大气臭氧含量的单位 新浪科技讯 北京时间10月29日消息，据美国宇航局网站报道，几乎每年在南极上空都会....",
"emailed" : False,
"forwarded" : False,
"english" : False
}  , {
"index" : 2,
"articleIndex" : "12839",
"favor" :  False ,
     "read" : False,    
"title" : "走进中国科大火灾科学实验室：火旋风模拟",
"titleTip" : "走进中国科大火灾科学实验室：火旋风模拟",
"titleSummary" : "走进中国科大火灾科学实验室：火旋风模拟",
"descSummary" : "中国科学技术大学火灾科学国家重点实验室的\u201C火旋风\u201D模拟...",
"url" : "http:\/\/go.rss.sina.com.cn\/redirect.php?url=http:\/\/slide.tech.sina.com.cn\/d\/slide_5_453_37307.html",
"pubDate" : "前天15:17:51",
"enterDate" : "384201:08:02",
"channelId" : "-469237259900734335",
"channelName" : "科普要闻-新浪科技",
"channelNameSummary" : "科普要闻-新浪科技",
"channelUrl" : "http:\/\/tech.sina.com.cn\/old2013\/discovery\/index.shtml",
"author" : "WWW.SINA.COM.CN",
"tags" : [],
"desc" : "中国科学技术大学火灾科学国家重点实验室的\u201C火旋风\u201D模拟实验演示，火焰窜至约3层楼高。实验室以受限空间建筑火灾为中心，探索火灾的发生、发展规律；烟气的输运规律；紧急条件下建筑物（群）内人员的疏散规律等，为建筑火灾性能化设计方法提供科学依据。",
"emailed" : False,
"forwarded" : False,
"english" : False
}  , {
"index" : 3,
"articleIndex" : "12838",
"favor" :  False ,
     "read" : False,    
"title" : "天文学家发现迄今最遥远星系：距离131亿光年",
"titleTip" : "天文学家发现迄今最遥远星系：距离131亿光年",
"titleSummary" : "天文学家发现迄今最遥远星系：距离131亿光年",
"descSummary" : "这个星系编号z8_GND_5296，是科学家们利用哈勃空间望...",
"url" : "http:\/\/go.rss.sina.com.cn\/redirect.php?url=http:\/\/tech.sina.com.cn\/geo\/space\/news\/2013-10-28\/09161604.shtml",
"pubDate" : "前天12:09:35",
"enterDate" : "384201:00:18",
"channelId" : "-469237259900734335",
"channelName" : "科普要闻-新浪科技",
"channelNameSummary" : "科普要闻-新浪科技",
"channelUrl" : "http:\/\/tech.sina.com.cn\/old2013\/discovery\/index.shtml",
"author" : "WWW.SINA.COM.CN",
"tags" : [],
"desc" : "这个星系编号z8_GND_5296，是科学家们利用哈勃空间望远镜并配合地面上最强大的，位于夏威夷莫纳克亚山顶，口径达10米的凯克望远镜共同发现的。",
"emailed" : False,
"forwarded" : False,
"english" : False
}  , {
"index" : 4,
"articleIndex" : "12837",
"favor" :  False ,
     "read" : False,    
"title" : "雪人真实身份仍存疑：熊类或只是品种之一",
"titleTip" : "雪人真实身份仍存疑：熊类或只是品种之一",
"titleSummary" : "雪人真实身份仍存疑：熊类或只是品种之一",
"descSummary" : "近日，一位英国科学家对被认为是雪人毛发的样品进行了分析...",
"url" : "http:\/\/go.rss.sina.com.cn\/redirect.php?url=http:\/\/tech.sina.com.cn\/geo\/history\/news\/2013-10-28\/09141603.shtml",
"pubDate" : "前天12:08:30",
"enterDate" : "384200:59:13",
"channelId" : "-469237259900734335",
"channelName" : "科普要闻-新浪科技",
"channelNameSummary" : "科普要闻-新浪科技",
"channelUrl" : "http:\/\/tech.sina.com.cn\/old2013\/discovery\/index.shtml",
"author" : "WWW.SINA.COM.CN",
"tags" : [],
"desc" : "近日，一位英国科学家对被认为是雪人毛发的样品进行了分析，结果发现其与一种古代北极熊关系密切。这位科学家称，这种北极熊有可能活到了现代。",
"emailed" : False,
"forwarded" : False,
"english" : False
}  , {
"index" : 5,
"articleIndex" : "12836",
"favor" :  False ,
     "read" : False,    
"title" : "盘点全球惊悚景点：燃烧地穴如地狱之门",
"titleTip" : "盘点全球惊悚景点：燃烧地穴如地狱之门",
"titleSummary" : "盘点全球惊悚景点：燃烧地穴如地狱之门",
"descSummary" : "世界之大，无奇不有。\u201C地狱之门\u201D、\u201C尸体博物馆\u201D、\u201C娃娃...",
"url" : "http:\/\/go.rss.sina.com.cn\/redirect.php?url=http:\/\/slide.tech.sina.com.cn\/d\/slide_5_453_37407.html",
"pubDate" : "前天11:36:17",
"enterDate" : "384200:57:07",
"channelId" : "-469237259900734335",
"channelName" : "科普要闻-新浪科技",
"channelNameSummary" : "科普要闻-新浪科技",
"channelUrl" : "http:\/\/tech.sina.com.cn\/old2013\/discovery\/index.shtml",
"author" : "WWW.SINA.COM.CN",
"tags" : [],
"desc" : "世界之大，无奇不有。\u201C地狱之门\u201D、\u201C尸体博物馆\u201D、\u201C娃娃岛\u201D，听到这些名字，总会让人不寒而栗，然而这些地方是真实存在的。美国知名网站\u201Cbuzzfeed\u201D近日刊登了一组图，揭秘这些令人不安的景点。",
"emailed" : False,
"forwarded" : False,
"english" : False
}  , {
"index" : 6,
"articleIndex" : "12835",
"favor" :  False ,
     "read" : False,    
"title" : "澳摄影师捕捉鸽子狮口逃生惊险瞬间",
"titleTip" : "澳摄影师捕捉鸽子狮口逃生惊险瞬间",
"titleSummary" : "澳摄影师捕捉鸽子狮口逃生惊险瞬间",
"descSummary" : "据国外媒体25日报道，这只鸽子在\u201C爱抚它认为的大傻猫\u201D时，获...",
"url" : "http:\/\/go.rss.sina.com.cn\/redirect.php?url=http:\/\/slide.tech.sina.com.cn\/d\/slide_5_453_37405.html",
"pubDate" : "前天11:30:55",
"enterDate" : "384200:51:45",
"channelId" : "-469237259900734335",
"channelName" : "科普要闻-新浪科技",
"channelNameSummary" : "科普要闻-新浪科技",
"channelUrl" : "http:\/\/tech.sina.com.cn\/old2013\/discovery\/index.shtml",
"author" : "WWW.SINA.COM.CN",
"tags" : [],
"desc" : "据国外媒体25日报道，这只鸽子在\u201C爱抚它认为的大傻猫\u201D时，获得意想不到的结果。这只径直飞向澳大利亚阿德莱德动物园狮笼的鸽子，竟十分幸运地从饥肠辘辘的狮子口中成功逃脱。",
"emailed" : False,
"forwarded" : False,
"english" : False
}  , {
"index" : 7,
"articleIndex" : "12834",
"favor" :  False ,
     "read" : False,    
"title" : "9大奇特科学发现：平行宇宙可能存在",
"titleTip" : "9大奇特科学发现：平行宇宙可能存在",
"titleSummary" : "9大奇特科学发现：平行宇宙可能存在",
"descSummary" : "根据加州大学圣塔芭芭拉分校量子物理学家的研究显示，平行宇宙很...",
"url" : "http:\/\/go.rss.sina.com.cn\/redirect.php?url=http:\/\/slide.tech.sina.com.cn\/d\/slide_5_453_37408.html",
"pubDate" : "前天11:26:36",
"enterDate" : "384201:17:32",
"channelId" : "-469237259900734335",
"channelName" : "科普要闻-新浪科技",
"channelNameSummary" : "科普要闻-新浪科技",
"channelUrl" : "http:\/\/tech.sina.com.cn\/old2013\/discovery\/index.shtml",
"author" : "WWW.SINA.COM.CN",
"tags" : [],
"desc" : "根据加州大学圣塔芭芭拉分校量子物理学家的研究显示，平行宇宙很可能是存在的。他们观察到一块微小的物体可以同时保持静止和振动的状态，这意味着其他东西，甚至是两个宇宙也可能同时存在。",
"emailed" : False,
"forwarded" : False,
"english" : False
}  , {
"index" : 8,
"articleIndex" : "12833",
"favor" :  False ,
     "read" : False,    
"title" : "秘鲁蝴蝶环绕乌龟饮泪成唯美画面",
"titleTip" : "秘鲁蝴蝶环绕乌龟饮泪成唯美画面",
"titleSummary" : "秘鲁蝴蝶环绕乌龟饮泪成唯美画面",
"descSummary" : "【环球网综合报道】据英国《每日邮报》报道，美国科罗拉多州一名叫...",
"url" : "http:\/\/go.rss.sina.com.cn\/redirect.php?url=http:\/\/slide.tech.sina.com.cn\/d\/slide_5_453_37404.html",
"pubDate" : "前天11:23:58",
"enterDate" : "384201:14:54",
"channelId" : "-469237259900734335",
"channelName" : "科普要闻-新浪科技",
"channelNameSummary" : "科普要闻-新浪科技",
"channelUrl" : "http:\/\/tech.sina.com.cn\/old2013\/discovery\/index.shtml",
"author" : "WWW.SINA.COM.CN",
"tags" : [],
"desc" : "【环球网综合报道】据英国《每日邮报》报道，美国科罗拉多州一名叫杰夫\u2022克莱默(Jeff Cremer)的旅行摄影师和莱斯大学生物学家菲尔\u2022托雷斯(Phil Torres)，近日在秘鲁坦波帕塔拍到一大群色彩鲜艳的蝴蝶飞舞环绕在乌龟头部，试图汲取乌龟泪水的唯美画面。",
"emailed" : False,
"forwarded" : False,
"english" : False
}  , {
"index" : 9,
"articleIndex" : "12832",
"favor" :  False ,
     "read" : False,    
"title" : "英设计师构建未来水下社区：8个球形群落",
"titleTip" : "英设计师构建未来水下社区：8个球形群落",
"titleSummary" : "英设计师构建未来水下社区：8个球形群落",
"descSummary" : "据英国《每日邮报》10月26日报道，近日，对水下居住一直满...",
"url" : "http:\/\/go.rss.sina.com.cn\/redirect.php?url=http:\/\/slide.tech.sina.com.cn\/d\/slide_5_453_37406.html",
"pubDate" : "前天11:20:23",
"enterDate" : "384201:11:19",
"channelId" : "-469237259900734335",
"channelName" : "科普要闻-新浪科技",
"channelNameSummary" : "科普要闻-新浪科技",
"channelUrl" : "http:\/\/tech.sina.com.cn\/old2013\/discovery\/index.shtml",
"author" : "WWW.SINA.COM.CN",
"tags" : [],
"desc" : "据英国《每日邮报》10月26日报道，近日，对水下居住一直满怀热情的英国设计师菲尔\u2022波利(Phil Pauley)公布了一组名为\u201CSub-biospere 2\u201D的未来水下社区构思图，让人们提前一睹未来在水下生活的情形。",
"emailed" : False,
"forwarded" : False,
"english" : False
}  , {
"index" : 10,
"articleIndex" : "12831",
"favor" :  False ,
     "read" : False,    
"title" : "大型射电望远镜阵列揭示宇宙最冷之处真相",
"titleTip" : "大型射电望远镜阵列揭示宇宙最冷之处真相",
"titleSummary" : "大型射电望远镜阵列揭示宇宙最冷之处真相",
"descSummary" : "回力棒星云被称为是\u201C宇宙中最冷之处\u201D，其真实形状于近日...",
"url" : "http:\/\/go.rss.sina.com.cn\/redirect.php?url=http:\/\/tech.sina.com.cn\/d\/2013-10-28\/11008859466.shtml",
"pubDate" : "前天11:00:19",
"enterDate" : "384200:51:15",
"channelId" : "-469237259900734335",
"channelName" : "科普要闻-新浪科技",
"channelNameSummary" : "科普要闻-新浪科技",
"channelUrl" : "http:\/\/tech.sina.com.cn\/old2013\/discovery\/index.shtml",
"author" : "WWW.SINA.COM.CN",
"tags" : [],
"desc" : "回力棒星云被称为是\u201C宇宙中最冷之处\u201D，其真实形状于近日被阿塔卡玛大型毫米波天线阵(ALMA)所揭示。背景中的蓝色结构由哈勃太空望远镜以可见光模式拍摄，呈经典的双叶形结构，中心区域十分狭窄。ALMA所具有的高分辨率能观测到低温的气体分子，揭示出回力棒星云拉长的形状，在....",
"emailed" : False,
"forwarded" : False,
"english" : False
}  , {
"index" : 11,
"articleIndex" : "12830",
"favor" :  False ,
     "read" : False,    
"title" : "新技术有望暂停死亡过程实现复苏",
"titleTip" : "新技术有望暂停死亡过程实现复苏",
"titleSummary" : "新技术有望暂停死亡过程实现复苏",
"descSummary" : "新技术是否能为重症患者带来新的曙光？新浪科技讯 北京时间10月28...",
"url" : "http:\/\/go.rss.sina.com.cn\/redirect.php?url=http:\/\/tech.sina.com.cn\/d\/2013-10-28\/09438859120.shtml",
"pubDate" : "前天09:43:11",
"enterDate" : "384201:04:22",
"channelId" : "-469237259900734335",
"channelName" : "科普要闻-新浪科技",
"channelNameSummary" : "科普要闻-新浪科技",
"channelUrl" : "http:\/\/tech.sina.com.cn\/old2013\/discovery\/index.shtml",
"author" : "WWW.SINA.COM.CN",
"tags" : [],
"desc" : "新技术是否能为重症患者带来新的曙光？ 新浪科技讯 北京时间10月28日消息 生与死的界限可能没有我们曾经想象的那么分明。现在，医学专家称，生命复苏领域的科学发展已经可以使人在心脏停止跳动数小时之后\u201C复活\u201D过来\u2015\u2015即使他们已经被宣布死亡。\u201C从历史上，当一个人的心....",
"emailed" : False,
"forwarded" : False,
"english" : False
}  , {
"index" : 12,
"articleIndex" : "12829",
"favor" :  False ,
     "read" : False,    
"title" : "美演示迄今最快行星际激光通讯：每秒达622M",
"titleTip" : "美演示迄今最快行星际激光通讯：每秒达622M",
"titleSummary" : "美演示迄今最快行星际激光通讯：每秒达622M",
"descSummary" : "艺术示意图：正在轨道运行的美国宇航局\u201C月球大气与尘埃...",
"url" : "http:\/\/go.rss.sina.com.cn\/redirect.php?url=http:\/\/tech.sina.com.cn\/d\/2013-10-28\/09328859081.shtml",
"pubDate" : "前天09:32:40",
"enterDate" : "384200:53:51",
"channelId" : "-469237259900734335",
"channelName" : "科普要闻-新浪科技",
"channelNameSummary" : "科普要闻-新浪科技",
"channelUrl" : "http:\/\/tech.sina.com.cn\/old2013\/discovery\/index.shtml",
"author" : "WWW.SINA.COM.CN",
"tags" : [],
"desc" : "艺术示意图：正在轨道运行的美国宇航局\u201C月球大气与尘埃环境探测器\u201D(LADEE) 新浪科技讯 北京时间10月27日消息，据美国宇航局网站报道，由美国宇航局埃姆斯研究中心负责主管的\u201C月球大气与尘埃环境探测器\u201D(LADEE)上搭载了一台空间激光通信实验载荷，名为\u201C月球激光通讯演....",
"emailed" : False,
"forwarded" : False,
"english" : False
}  , {
"index" : 13,
"articleIndex" : "12828",
"favor" :  False ,
     "read" : False,    
"title" : "农业部：转基因大米动物试验旨在科研",
"titleTip" : "农业部：转基因大米动物试验旨在科研",
"titleSummary" : "农业部：转基因大米动物试验旨在科研",
"descSummary" : "农业部转基因专项管理办公室证实，2012年时，委托中国食品药...",
"url" : "http:\/\/go.rss.sina.com.cn\/redirect.php?url=http:\/\/tech.sina.com.cn\/d\/2013-10-26\/12158855275.shtml",
"pubDate" : "2013年10月26日 (4天前)",
"enterDate" : "384201:04:56",
"channelId" : "-469237259900734335",
"channelName" : "科普要闻-新浪科技",
"channelNameSummary" : "科普要闻-新浪科技",
"channelUrl" : "http:\/\/tech.sina.com.cn\/old2013\/discovery\/index.shtml",
"author" : "WWW.SINA.COM.CN",
"tags" : [],
"desc" : "农业部转基因专项管理办公室证实，2012年时，委托中国食品药品鉴定研究院和中国农业大学以转基因水稻为研究对象，选取了猕猴、小型猪等动物进行系统的代谢免疫，生殖、发育评价研究，对此次开展转基因动物实验的目的，农业部转基因专项管理办公室表示，只是为了在科研层面提供....",
"emailed" : False,
"forwarded" : False,
"english" : False
}  , {
"index" : 14,
"articleIndex" : "12827",
"favor" :  False ,
     "read" : False,    
"title" : "河南洛阳发掘疑似北魏帝陵 出土东罗马帝国金币",
"titleTip" : "河南洛阳发掘疑似北魏帝陵 出土东罗马帝国金币",
"titleSummary" : "河南洛阳发掘疑似北魏帝陵 出土东罗马帝国金币",
"descSummary" : "新华网郑州10月26日电(记者桂娟 方栋) 洛阳市文物考古...",
"url" : "http:\/\/go.rss.sina.com.cn\/redirect.php?url=http:\/\/tech.sina.com.cn\/d\/2013-10-26\/11458855269.shtml",
"pubDate" : "2013年10月26日 (4天前)",
"enterDate" : "384200:35:04",
"channelId" : "-469237259900734335",
"channelName" : "科普要闻-新浪科技",
"channelNameSummary" : "科普要闻-新浪科技",
"channelUrl" : "http:\/\/tech.sina.com.cn\/old2013\/discovery\/index.shtml",
"author" : "WWW.SINA.COM.CN",
"tags" : [],
"desc" : "新华网郑州10月26日电(记者桂娟 方栋) 洛阳市文物考古研究院日前完成了衡山路北魏大墓的抢救性考古发掘工作，根据墓葬形制和规模，推断这座大墓为帝陵级别，并初步推测其墓主人为北魏节闵帝元恭。 这座大墓是2012年修路时发现的，它位于洛阳市涧西区红山乡张岭村东南，....",
"emailed" : False,
"forwarded" : False,
"english" : False
}  , {
"index" : 15,
"articleIndex" : "12826",
"favor" :  False ,
     "read" : False,    
"title" : "世界各地超现实魔幻风景：大棱镜温泉色彩斑斓",
"titleTip" : "世界各地超现实魔幻风景：大棱镜温泉色彩斑斓",
"titleSummary" : "世界各地超现实魔幻风景：大棱镜温泉色彩斑斓",
"descSummary" : "",
"url" : "http:\/\/go.rss.sina.com.cn\/redirect.php?url=http:\/\/slide.tech.sina.com.cn\/d\/slide_5_453_37314.html",
"pubDate" : "2013年10月25日 (5天前)",
"enterDate" : "384182:30:47",
"channelId" : "-469237259900734335",
"channelName" : "科普要闻-新浪科技",
"channelNameSummary" : "科普要闻-新浪科技",
"channelUrl" : "http:\/\/tech.sina.com.cn\/old2013\/discovery\/index.shtml",
"author" : "WWW.SINA.COM.CN",
"tags" : [],
"desc" : "",
"emailed" : False,
"forwarded" : False,
"english" : False
}  , {
"index" : 16,
"articleIndex" : "12825",
"favor" :  False ,
     "read" : False,    
"title" : "法国推出发光机器宠物：抚摸可对人类做出反应",
"titleTip" : "法国推出发光机器宠物：抚摸可对人类做出反应",
"titleSummary" : "法国推出发光机器宠物：抚摸可对人类做出反应",
"descSummary" : "",
"url" : "http:\/\/go.rss.sina.com.cn\/redirect.php?url=http:\/\/slide.tech.sina.com.cn\/d\/slide_5_453_37317.html",
"pubDate" : "2013年10月25日 (5天前)",
"enterDate" : "384182:27:15",
"channelId" : "-469237259900734335",
"channelName" : "科普要闻-新浪科技",
"channelNameSummary" : "科普要闻-新浪科技",
"channelUrl" : "http:\/\/tech.sina.com.cn\/old2013\/discovery\/index.shtml",
"author" : "WWW.SINA.COM.CN",
"tags" : [],
"desc" : "",
"emailed" : False,
"forwarded" : False,
"english" : False
}  , {
"index" : 17,
"articleIndex" : "12824",
"favor" :  False ,
     "read" : False,    
"title" : "系外行星发现数量超1000颗：寻找地球2.0",
"titleTip" : "系外行星发现数量超1000颗：寻找地球2.0",
"titleSummary" : "系外行星发现数量超1000颗：寻找地球2.0",
"descSummary" : "",
"url" : "http:\/\/go.rss.sina.com.cn\/redirect.php?url=http:\/\/tech.sina.com.cn\/geo\/space\/news\/2013-10-25\/10301601.shtml",
"pubDate" : "2013年10月25日 (5天前)",
"enterDate" : "384201:14:41",
"channelId" : "-469237259900734335",
"channelName" : "科普要闻-新浪科技",
"channelNameSummary" : "科普要闻-新浪科技",
"channelUrl" : "http:\/\/tech.sina.com.cn\/old2013\/discovery\/index.shtml",
"author" : "WWW.SINA.COM.CN",
"tags" : [],
"desc" : "",
"emailed" : False,
"forwarded" : False,
"english" : False
}  , {
"index" : 18,
"articleIndex" : "12823",
"favor" :  False ,
     "read" : False,    
"title" : "俄罗斯计划建造海上核电站 帮助开发北极油气",
"titleTip" : "俄罗斯计划建造海上核电站 帮助开发北极油气",
"titleSummary" : "俄罗斯计划建造海上核电站 帮助开发北极油气",
"descSummary" : "",
"url" : "http:\/\/go.rss.sina.com.cn\/redirect.php?url=http:\/\/tech.sina.com.cn\/geo\/science\/news\/2013-10-25\/10341602.shtml",
"pubDate" : "2013年10月25日 (5天前)",
"enterDate" : "384201:09:12",
"channelId" : "-469237259900734335",
"channelName" : "科普要闻-新浪科技",
"channelNameSummary" : "科普要闻-新浪科技",
"channelUrl" : "http:\/\/tech.sina.com.cn\/old2013\/discovery\/index.shtml",
"author" : "WWW.SINA.COM.CN",
"tags" : [],
"desc" : "",
"emailed" : False,
"forwarded" : False,
"english" : False
}  , {
"index" : 19,
"articleIndex" : "12822",
"favor" :  False ,
     "read" : False,    
"title" : "南极海豹穿裹羽毛企鹅群里打滚撒娇",
"titleTip" : "南极海豹穿裹羽毛企鹅群里打滚撒娇",
"titleSummary" : "南极海豹穿裹羽毛企鹅群里打滚撒娇",
"descSummary" : "",
"url" : "http:\/\/go.rss.sina.com.cn\/redirect.php?url=http:\/\/slide.tech.sina.com.cn\/d\/slide_5_453_37316.html",
"pubDate" : "2013年10月25日 (5天前)",
"enterDate" : "384201:06:20",
"channelId" : "-469237259900734335",
"channelName" : "科普要闻-新浪科技",
"channelNameSummary" : "科普要闻-新浪科技",
"channelUrl" : "http:\/\/tech.sina.com.cn\/old2013\/discovery\/index.shtml",
"author" : "WWW.SINA.COM.CN",
"tags" : [],
"desc" : "",
"emailed" : False,
"forwarded" : False,
"english" : False
} ]
}
