{
"mode" : {"viewTitle" : 1,   "viewNew" : 0,  "pageIndex" : 1 },
 "channel" : {"id" : "-5085690922994945571", "booked" : False, "subNumber" : 1, "name" : "国际足坛精彩图片-新浪体育", "url" : "http:\/\/sports.sina.com.cn\/global\/index.shtml", "feed" : "http:\/\/rss.sina.com.cn\/sports\/global\/photo.xml", "author" : "WWW.SINA.COM.CN", "desc" : "国际足坛精彩图片-新浪体育", "imageUrl" : "http:\/\/www.sinaimg.cn\/ty\/deco\/2010\/0601\/logo_home_sports_nonike2.gif", "postPerWeek" : "0", "lastCrawTime" : "17:16:26", "crawDateTime" : "17:16:26", "lastHttpCode" : "200"}, "page" : {
"startIndex" : 0,
"totalCount" : 5000,
"pageIndex" : 1,
"lastPage" : 250,
"pageSize" : 20,
"english" :  False },
 "unreadNum" : 0, "shotIndex" : -1,
"articles" : [
{
"index" : 0,
"articleIndex" : "110697",
"favor" :  False ,
     "read" : False,    
"title" : "图文-[西甲]塞尔塔0-3巴萨 小法破门后与队友庆祝",
"titleTip" : "图文-[西甲]塞尔塔0-3巴萨 小法破门后与队友庆祝",
"titleSummary" : "图文-[西甲]塞尔塔0-3巴萨 小法破门后与队友庆祝",
"descSummary" : "",
"url" : "http:\/\/go.rss.sina.com.cn\/redirect.php?url=http:\/\/slide.sports.sina.com.cn\/g_laliga\/slide_2_730_55440.html?img=1105560",
"pubDate" : "07:03:21",
"enterDate" : "384201:08:41",
"channelId" : "-5085690922994945571",
"channelName" : "国际足坛精彩图片-新浪体育",
"channelNameSummary" : "国际足坛精彩图片-新...",
"channelUrl" : "http:\/\/sports.sina.com.cn\/global\/index.shtml",
"author" : "WWW.SINA.COM.CN",
"tags" : [],
"desc" : "",
"emailed" : False,
"forwarded" : False,
"english" : False
}  , {
"index" : 1,
"articleIndex" : "110690",
"favor" :  False ,
     "read" : False,    
"title" : "图文-[西甲]塞尔塔0-3巴萨 桑切斯破门后庆祝",
"titleTip" : "图文-[西甲]塞尔塔0-3巴萨 桑切斯破门后庆祝",
"titleSummary" : "图文-[西甲]塞尔塔0-3巴萨 桑切斯破门后庆祝",
"descSummary" : "",
"url" : "http:\/\/go.rss.sina.com.cn\/redirect.php?url=http:\/\/slide.sports.sina.com.cn\/g_laliga\/slide_2_730_55440.html?img=1105557",
"pubDate" : "06:50:45",
"enterDate" : "384200:56:05",
"channelId" : "-5085690922994945571",
"channelName" : "国际足坛精彩图片-新浪体育",
"channelNameSummary" : "国际足坛精彩图片-新...",
"channelUrl" : "http:\/\/sports.sina.com.cn\/global\/index.shtml",
"author" : "WWW.SINA.COM.CN",
"tags" : [],
"desc" : "",
"emailed" : False,
"forwarded" : False,
"english" : False
}  , {
"index" : 2,
"articleIndex" : "110691",
"favor" :  False ,
     "read" : False,    
"title" : "图文-[西甲]塞尔塔0-3巴萨 梅西陷入包围圈",
"titleTip" : "图文-[西甲]塞尔塔0-3巴萨 梅西陷入包围圈",
"titleSummary" : "图文-[西甲]塞尔塔0-3巴萨 梅西陷入包围圈",
"descSummary" : "",
"url" : "http:\/\/go.rss.sina.com.cn\/redirect.php?url=http:\/\/slide.sports.sina.com.cn\/g_laliga\/slide_2_730_55440.html?img=1105554",
"pubDate" : "06:50:45",
"enterDate" : "384200:56:05",
"channelId" : "-5085690922994945571",
"channelName" : "国际足坛精彩图片-新浪体育",
"channelNameSummary" : "国际足坛精彩图片-新...",
"channelUrl" : "http:\/\/sports.sina.com.cn\/global\/index.shtml",
"author" : "WWW.SINA.COM.CN",
"tags" : [],
"desc" : "",
"emailed" : False,
"forwarded" : False,
"english" : False
}  , {
"index" : 3,
"articleIndex" : "110692",
"favor" :  False ,
     "read" : False,    
"title" : "图文-[西甲]塞尔塔0-3巴萨 佩德罗失良机",
"titleTip" : "图文-[西甲]塞尔塔0-3巴萨 佩德罗失良机",
"titleSummary" : "图文-[西甲]塞尔塔0-3巴萨 佩德罗失良机",
"descSummary" : "",
"url" : "http:\/\/go.rss.sina.com.cn\/redirect.php?url=http:\/\/slide.sports.sina.com.cn\/g_laliga\/slide_2_730_55440.html?img=1105555",
"pubDate" : "06:50:45",
"enterDate" : "384200:56:05",
"channelId" : "-5085690922994945571",
"channelName" : "国际足坛精彩图片-新浪体育",
"channelNameSummary" : "国际足坛精彩图片-新...",
"channelUrl" : "http:\/\/sports.sina.com.cn\/global\/index.shtml",
"author" : "WWW.SINA.COM.CN",
"tags" : [],
"desc" : "",
"emailed" : False,
"forwarded" : False,
"english" : False
}  , {
"index" : 4,
"articleIndex" : "110693",
"favor" :  False ,
     "read" : False,    
"title" : "图文-[西甲]塞尔塔0-3巴萨 普约尔在比赛中",
"titleTip" : "图文-[西甲]塞尔塔0-3巴萨 普约尔在比赛中",
"titleSummary" : "图文-[西甲]塞尔塔0-3巴萨 普约尔在比赛中",
"descSummary" : "",
"url" : "http:\/\/go.rss.sina.com.cn\/redirect.php?url=http:\/\/slide.sports.sina.com.cn\/g_laliga\/slide_2_730_55440.html?img=1105556",
"pubDate" : "06:50:45",
"enterDate" : "384200:56:05",
"channelId" : "-5085690922994945571",
"channelName" : "国际足坛精彩图片-新浪体育",
"channelNameSummary" : "国际足坛精彩图片-新...",
"channelUrl" : "http:\/\/sports.sina.com.cn\/global\/index.shtml",
"author" : "WWW.SINA.COM.CN",
"tags" : [],
"desc" : "",
"emailed" : False,
"forwarded" : False,
"english" : False
}  , {
"index" : 5,
"articleIndex" : "110694",
"favor" :  False ,
     "read" : False,    
"title" : "图文-[西甲]塞尔塔0-3巴萨 小法造乌龙后庆祝",
"titleTip" : "图文-[西甲]塞尔塔0-3巴萨 小法造乌龙后庆祝",
"titleSummary" : "图文-[西甲]塞尔塔0-3巴萨 小法造乌龙后庆祝",
"descSummary" : "",
"url" : "http:\/\/go.rss.sina.com.cn\/redirect.php?url=http:\/\/slide.sports.sina.com.cn\/g_laliga\/slide_2_730_55440.html?img=1105558",
"pubDate" : "06:50:45",
"enterDate" : "384200:56:05",
"channelId" : "-5085690922994945571",
"channelName" : "国际足坛精彩图片-新浪体育",
"channelNameSummary" : "国际足坛精彩图片-新...",
"channelUrl" : "http:\/\/sports.sina.com.cn\/global\/index.shtml",
"author" : "WWW.SINA.COM.CN",
"tags" : [],
"desc" : "",
"emailed" : False,
"forwarded" : False,
"english" : False
}  , {
"index" : 6,
"articleIndex" : "110695",
"favor" :  False ,
     "read" : False,    
"title" : "图文-[西甲]塞尔塔0-3巴萨 小法射门",
"titleTip" : "图文-[西甲]塞尔塔0-3巴萨 小法射门",
"titleSummary" : "图文-[西甲]塞尔塔0-3巴萨 小法射门",
"descSummary" : "",
"url" : "http:\/\/go.rss.sina.com.cn\/redirect.php?url=http:\/\/slide.sports.sina.com.cn\/g_laliga\/slide_2_730_55440.html?img=1105559",
"pubDate" : "06:50:45",
"enterDate" : "384200:56:05",
"channelId" : "-5085690922994945571",
"channelName" : "国际足坛精彩图片-新浪体育",
"channelNameSummary" : "国际足坛精彩图片-新...",
"channelUrl" : "http:\/\/sports.sina.com.cn\/global\/index.shtml",
"author" : "WWW.SINA.COM.CN",
"tags" : [],
"desc" : "",
"emailed" : False,
"forwarded" : False,
"english" : False
}  , {
"index" : 7,
"articleIndex" : "110696",
"favor" :  False ,
     "read" : False,    
"title" : "图文-[西甲]塞尔塔0-3巴萨 梅西突破",
"titleTip" : "图文-[西甲]塞尔塔0-3巴萨 梅西突破",
"titleSummary" : "图文-[西甲]塞尔塔0-3巴萨 梅西突破",
"descSummary" : "",
"url" : "http:\/\/go.rss.sina.com.cn\/redirect.php?url=http:\/\/slide.sports.sina.com.cn\/g_laliga\/slide_2_730_55440.html?img=1105553",
"pubDate" : "06:50:45",
"enterDate" : "384200:56:05",
"channelId" : "-5085690922994945571",
"channelName" : "国际足坛精彩图片-新浪体育",
"channelNameSummary" : "国际足坛精彩图片-新...",
"channelUrl" : "http:\/\/sports.sina.com.cn\/global\/index.shtml",
"author" : "WWW.SINA.COM.CN",
"tags" : [],
"desc" : "",
"emailed" : False,
"forwarded" : False,
"english" : False
}  , {
"index" : 8,
"articleIndex" : "110686",
"favor" :  False ,
     "read" : False,    
"title" : "图文-[西甲]塞尔塔0-3巴萨 梅西在比赛中",
"titleTip" : "图文-[西甲]塞尔塔0-3巴萨 梅西在比赛中",
"titleSummary" : "图文-[西甲]塞尔塔0-3巴萨 梅西在比赛中",
"descSummary" : "",
"url" : "http:\/\/go.rss.sina.com.cn\/redirect.php?url=http:\/\/slide.sports.sina.com.cn\/g_laliga\/slide_2_730_55440.html?img=1105533",
"pubDate" : "06:50:44",
"enterDate" : "384200:56:04",
"channelId" : "-5085690922994945571",
"channelName" : "国际足坛精彩图片-新浪体育",
"channelNameSummary" : "国际足坛精彩图片-新...",
"channelUrl" : "http:\/\/sports.sina.com.cn\/global\/index.shtml",
"author" : "WWW.SINA.COM.CN",
"tags" : [],
"desc" : "",
"emailed" : False,
"forwarded" : False,
"english" : False
}  , {
"index" : 9,
"articleIndex" : "110687",
"favor" :  False ,
     "read" : False,    
"title" : "图文-[西甲]塞尔塔0-3巴萨 桑切斯首开纪录",
"titleTip" : "图文-[西甲]塞尔塔0-3巴萨 桑切斯首开纪录",
"titleSummary" : "图文-[西甲]塞尔塔0-3巴萨 桑切斯首开纪录",
"descSummary" : "",
"url" : "http:\/\/go.rss.sina.com.cn\/redirect.php?url=http:\/\/slide.sports.sina.com.cn\/g_laliga\/slide_2_730_55440.html?img=1105540",
"pubDate" : "06:50:44",
"enterDate" : "384200:56:04",
"channelId" : "-5085690922994945571",
"channelName" : "国际足坛精彩图片-新浪体育",
"channelNameSummary" : "国际足坛精彩图片-新...",
"channelUrl" : "http:\/\/sports.sina.com.cn\/global\/index.shtml",
"author" : "WWW.SINA.COM.CN",
"tags" : [],
"desc" : "",
"emailed" : False,
"forwarded" : False,
"english" : False
}  , {
"index" : 10,
"articleIndex" : "110688",
"favor" :  False ,
     "read" : False,    
"title" : "图文-[西甲]塞尔塔0-3巴萨 阿尔维斯神姿势",
"titleTip" : "图文-[西甲]塞尔塔0-3巴萨 阿尔维斯神姿势",
"titleSummary" : "图文-[西甲]塞尔塔0-3巴萨 阿尔维斯神姿势",
"descSummary" : "",
"url" : "http:\/\/go.rss.sina.com.cn\/redirect.php?url=http:\/\/slide.sports.sina.com.cn\/g_laliga\/slide_2_730_55440.html?img=1105551",
"pubDate" : "06:50:44",
"enterDate" : "384198:25:39",
"channelId" : "-5085690922994945571",
"channelName" : "国际足坛精彩图片-新浪体育",
"channelNameSummary" : "国际足坛精彩图片-新...",
"channelUrl" : "http:\/\/sports.sina.com.cn\/global\/index.shtml",
"author" : "WWW.SINA.COM.CN",
"tags" : [],
"desc" : "",
"emailed" : False,
"forwarded" : False,
"english" : False
}  , {
"index" : 11,
"articleIndex" : "110689",
"favor" :  False ,
     "read" : False,    
"title" : "图文-[西甲]塞尔塔0-3巴萨 马蒂诺场边指挥",
"titleTip" : "图文-[西甲]塞尔塔0-3巴萨 马蒂诺场边指挥",
"titleSummary" : "图文-[西甲]塞尔塔0-3巴萨 马蒂诺场边指挥",
"descSummary" : "",
"url" : "http:\/\/go.rss.sina.com.cn\/redirect.php?url=http:\/\/slide.sports.sina.com.cn\/g_laliga\/slide_2_730_55440.html?img=1105552",
"pubDate" : "06:50:44",
"enterDate" : "384200:56:04",
"channelId" : "-5085690922994945571",
"channelName" : "国际足坛精彩图片-新浪体育",
"channelNameSummary" : "国际足坛精彩图片-新...",
"channelUrl" : "http:\/\/sports.sina.com.cn\/global\/index.shtml",
"author" : "WWW.SINA.COM.CN",
"tags" : [],
"desc" : "",
"emailed" : False,
"forwarded" : False,
"english" : False
}  , {
"index" : 12,
"articleIndex" : "110685",
"favor" :  False ,
     "read" : False,    
"title" : "图文-[联赛杯]曼联4-0诺维奇 莫耶斯接受吉祥物祝福",
"titleTip" : "图文-[联赛杯]曼联4-0诺维奇 莫耶斯接受吉祥物祝福",
"titleSummary" : "图文-[联赛杯]曼联4-0诺维奇 莫耶斯接受吉祥物祝福",
"descSummary" : "",
"url" : "http:\/\/go.rss.sina.com.cn\/redirect.php?url=http:\/\/slide.sports.sina.com.cn\/g_pl\/slide_2_730_55438.html?img=1105493",
"pubDate" : "05:50:54",
"enterDate" : "384200:26:19",
"channelId" : "-5085690922994945571",
"channelName" : "国际足坛精彩图片-新浪体育",
"channelNameSummary" : "国际足坛精彩图片-新...",
"channelUrl" : "http:\/\/sports.sina.com.cn\/global\/index.shtml",
"author" : "WWW.SINA.COM.CN",
"tags" : [],
"desc" : "",
"emailed" : False,
"forwarded" : False,
"english" : False
}  , {
"index" : 13,
"articleIndex" : "110681",
"favor" :  False ,
     "read" : False,    
"title" : "图文-[意甲]亚特兰大1-1国米 阿尔瓦雷斯破门近景",
"titleTip" : "图文-[意甲]亚特兰大1-1国米 阿尔瓦雷斯破门近景",
"titleSummary" : "图文-[意甲]亚特兰大1-1国米 阿尔瓦雷斯破门近景",
"descSummary" : "",
"url" : "http:\/\/go.rss.sina.com.cn\/redirect.php?url=http:\/\/slide.sports.sina.com.cn\/g_seriea\/slide_2_730_55439.html?img=1105534",
"pubDate" : "05:43:48",
"enterDate" : "384200:19:13",
"channelId" : "-5085690922994945571",
"channelName" : "国际足坛精彩图片-新浪体育",
"channelNameSummary" : "国际足坛精彩图片-新...",
"channelUrl" : "http:\/\/sports.sina.com.cn\/global\/index.shtml",
"author" : "WWW.SINA.COM.CN",
"tags" : [],
"desc" : "",
"emailed" : False,
"forwarded" : False,
"english" : False
}  , {
"index" : 14,
"articleIndex" : "110682",
"favor" :  False ,
     "read" : False,    
"title" : "图文-[意甲]亚特兰大1-1国米 小胡安",
"titleTip" : "图文-[意甲]亚特兰大1-1国米 小胡安",
"titleSummary" : "图文-[意甲]亚特兰大1-1国米 小胡安",
"descSummary" : "",
"url" : "http:\/\/go.rss.sina.com.cn\/redirect.php?url=http:\/\/slide.sports.sina.com.cn\/g_seriea\/slide_2_730_55439.html?img=1105525",
"pubDate" : "05:43:48",
"enterDate" : "384200:19:13",
"channelId" : "-5085690922994945571",
"channelName" : "国际足坛精彩图片-新浪体育",
"channelNameSummary" : "国际足坛精彩图片-新...",
"channelUrl" : "http:\/\/sports.sina.com.cn\/global\/index.shtml",
"author" : "WWW.SINA.COM.CN",
"tags" : [],
"desc" : "",
"emailed" : False,
"forwarded" : False,
"english" : False
}  , {
"index" : 15,
"articleIndex" : "110683",
"favor" :  False ,
     "read" : False,    
"title" : "图文-[意甲]亚特兰大1-1国米 瓜林在比赛中",
"titleTip" : "图文-[意甲]亚特兰大1-1国米 瓜林在比赛中",
"titleSummary" : "图文-[意甲]亚特兰大1-1国米 瓜林在比赛中",
"descSummary" : "",
"url" : "http:\/\/go.rss.sina.com.cn\/redirect.php?url=http:\/\/slide.sports.sina.com.cn\/g_seriea\/slide_2_730_55439.html?img=1105517",
"pubDate" : "05:43:48",
"enterDate" : "384200:19:13",
"channelId" : "-5085690922994945571",
"channelName" : "国际足坛精彩图片-新浪体育",
"channelNameSummary" : "国际足坛精彩图片-新...",
"channelUrl" : "http:\/\/sports.sina.com.cn\/global\/index.shtml",
"author" : "WWW.SINA.COM.CN",
"tags" : [],
"desc" : "",
"emailed" : False,
"forwarded" : False,
"english" : False
}  , {
"index" : 16,
"articleIndex" : "110684",
"favor" :  False ,
     "read" : False,    
"title" : "图文-[意甲]亚特兰大1-1国米 长友佑都突破",
"titleTip" : "图文-[意甲]亚特兰大1-1国米 长友佑都突破",
"titleSummary" : "图文-[意甲]亚特兰大1-1国米 长友佑都突破",
"descSummary" : "",
"url" : "http:\/\/go.rss.sina.com.cn\/redirect.php?url=http:\/\/slide.sports.sina.com.cn\/g_seriea\/slide_2_730_55439.html?img=1105516",
"pubDate" : "05:43:48",
"enterDate" : "384200:19:13",
"channelId" : "-5085690922994945571",
"channelName" : "国际足坛精彩图片-新浪体育",
"channelNameSummary" : "国际足坛精彩图片-新...",
"channelUrl" : "http:\/\/sports.sina.com.cn\/global\/index.shtml",
"author" : "WWW.SINA.COM.CN",
"tags" : [],
"desc" : "",
"emailed" : False,
"forwarded" : False,
"english" : False
}  , {
"index" : 17,
"articleIndex" : "110678",
"favor" :  False ,
     "read" : False,    
"title" : "图文-[意甲]亚特兰大1-1国米 阿尔瓦雷斯破门瞬间",
"titleTip" : "图文-[意甲]亚特兰大1-1国米 阿尔瓦雷斯破门瞬间",
"titleSummary" : "图文-[意甲]亚特兰大1-1国米 阿尔瓦雷斯破门瞬间",
"descSummary" : "",
"url" : "http:\/\/go.rss.sina.com.cn\/redirect.php?url=http:\/\/slide.sports.sina.com.cn\/g_seriea\/slide_2_730_55439.html?img=1105501",
"pubDate" : "05:43:47",
"enterDate" : "384200:19:12",
"channelId" : "-5085690922994945571",
"channelName" : "国际足坛精彩图片-新浪体育",
"channelNameSummary" : "国际足坛精彩图片-新...",
"channelUrl" : "http:\/\/sports.sina.com.cn\/global\/index.shtml",
"author" : "WWW.SINA.COM.CN",
"tags" : [],
"desc" : "",
"emailed" : False,
"forwarded" : False,
"english" : False
}  , {
"index" : 18,
"articleIndex" : "110679",
"favor" :  False ,
     "read" : False,    
"title" : "图文-[意甲]亚特兰大1-1国米 前米兰后卫耶佩斯解围",
"titleTip" : "图文-[意甲]亚特兰大1-1国米 前米兰后卫耶佩斯解围",
"titleSummary" : "图文-[意甲]亚特兰大1-1国米 前米兰后卫耶佩斯解围",
"descSummary" : "",
"url" : "http:\/\/go.rss.sina.com.cn\/redirect.php?url=http:\/\/slide.sports.sina.com.cn\/g_seriea\/slide_2_730_55439.html?img=1105500",
"pubDate" : "05:43:47",
"enterDate" : "384200:19:12",
"channelId" : "-5085690922994945571",
"channelName" : "国际足坛精彩图片-新浪体育",
"channelNameSummary" : "国际足坛精彩图片-新...",
"channelUrl" : "http:\/\/sports.sina.com.cn\/global\/index.shtml",
"author" : "WWW.SINA.COM.CN",
"tags" : [],
"desc" : "",
"emailed" : False,
"forwarded" : False,
"english" : False
}  , {
"index" : 19,
"articleIndex" : "110680",
"favor" :  False ,
     "read" : False,    
"title" : "图文-[意甲]亚特兰大1-1国米 马扎里直跺脚",
"titleTip" : "图文-[意甲]亚特兰大1-1国米 马扎里直跺脚",
"titleSummary" : "图文-[意甲]亚特兰大1-1国米 马扎里直跺脚",
"descSummary" : "",
"url" : "http:\/\/go.rss.sina.com.cn\/redirect.php?url=http:\/\/slide.sports.sina.com.cn\/g_seriea\/slide_2_730_55439.html?img=1105486",
"pubDate" : "05:43:47",
"enterDate" : "384200:19:12",
"channelId" : "-5085690922994945571",
"channelName" : "国际足坛精彩图片-新浪体育",
"channelNameSummary" : "国际足坛精彩图片-新...",
"channelUrl" : "http:\/\/sports.sina.com.cn\/global\/index.shtml",
"author" : "WWW.SINA.COM.CN",
"tags" : [],
"desc" : "",
"emailed" : False,
"forwarded" : False,
"english" : False
} ]
}
