{
"mode" : {"viewTitle" : 1,   "viewNew" : 0,  "pageIndex" : 2 },
 "channel" : {"id" : "-5085690922994945571", "booked" : False, "subNumber" : 1, "name" : "国际足坛精彩图片-新浪体育", "url" : "http:\/\/sports.sina.com.cn\/global\/index.shtml", "feed" : "http:\/\/rss.sina.com.cn\/sports\/global\/photo.xml", "author" : "WWW.SINA.COM.CN", "desc" : "国际足坛精彩图片-新浪体育", "imageUrl" : "http:\/\/www.sinaimg.cn\/ty\/deco\/2010\/0601\/logo_home_sports_nonike2.gif", "postPerWeek" : "0", "lastCrawTime" : "17:16:26", "crawDateTime" : "17:16:26", "lastHttpCode" : "200"}, "page" : {
"startIndex" : 20,
"totalCount" : 5000,
"pageIndex" : 2,
"lastPage" : 250,
"pageSize" : 20,
"english" :  False },
 "unreadNum" : 0, "shotIndex" : -1,
"articles" : [
{
"index" : 0,
"articleIndex" : "110673",
"favor" :  False ,
     "read" : False,    
"title" : "图文-英联赛杯第4轮29日集锦 小舒梅切尔庆贺胜利",
"titleTip" : "图文-英联赛杯第4轮29日集锦 小舒梅切尔庆贺胜利",
"titleSummary" : "图文-英联赛杯第4轮29日集锦 小舒梅切尔庆贺胜利",
"descSummary" : "",
"url" : "http:\/\/go.rss.sina.com.cn\/redirect.php?url=http:\/\/slide.sports.sina.com.cn\/g_pl\/slide_2_730_55441.html?img=1105536",
"pubDate" : "06:10:20",
"enterDate" : "384201:15:49",
"channelId" : "-5085690922994945571",
"channelName" : "国际足坛精彩图片-新浪体育",
"channelNameSummary" : "国际足坛精彩图片-新...",
"channelUrl" : "http:\/\/sports.sina.com.cn\/global\/index.shtml",
"author" : "WWW.SINA.COM.CN",
"tags" : [],
"desc" : "",
"emailed" : False,
"forwarded" : False,
"english" : False
}  , {
"index" : 1,
"articleIndex" : "110674",
"favor" :  False ,
     "read" : False,    
"title" : "图文-英联赛杯第4轮29日集锦 卡拉古尼斯谢场",
"titleTip" : "图文-英联赛杯第4轮29日集锦 卡拉古尼斯谢场",
"titleSummary" : "图文-英联赛杯第4轮29日集锦 卡拉古尼斯谢场",
"descSummary" : "",
"url" : "http:\/\/go.rss.sina.com.cn\/redirect.php?url=http:\/\/slide.sports.sina.com.cn\/g_pl\/slide_2_730_55441.html?img=1105537",
"pubDate" : "06:10:20",
"enterDate" : "384201:15:49",
"channelId" : "-5085690922994945571",
"channelName" : "国际足坛精彩图片-新浪体育",
"channelNameSummary" : "国际足坛精彩图片-新...",
"channelUrl" : "http:\/\/sports.sina.com.cn\/global\/index.shtml",
"author" : "WWW.SINA.COM.CN",
"tags" : [],
"desc" : "",
"emailed" : False,
"forwarded" : False,
"english" : False
}  , {
"index" : 2,
"articleIndex" : "110675",
"favor" :  False ,
     "read" : False,    
"title" : "图文-英联赛杯第4轮29日集锦 小舒梅切尔激动不已",
"titleTip" : "图文-英联赛杯第4轮29日集锦 小舒梅切尔激动不已",
"titleSummary" : "图文-英联赛杯第4轮29日集锦 小舒梅切尔激动不已",
"descSummary" : "",
"url" : "http:\/\/go.rss.sina.com.cn\/redirect.php?url=http:\/\/slide.sports.sina.com.cn\/g_pl\/slide_2_730_55441.html?img=1105538",
"pubDate" : "06:10:20",
"enterDate" : "384201:15:49",
"channelId" : "-5085690922994945571",
"channelName" : "国际足坛精彩图片-新浪体育",
"channelNameSummary" : "国际足坛精彩图片-新...",
"channelUrl" : "http:\/\/sports.sina.com.cn\/global\/index.shtml",
"author" : "WWW.SINA.COM.CN",
"tags" : [],
"desc" : "",
"emailed" : False,
"forwarded" : False,
"english" : False
}  , {
"index" : 3,
"articleIndex" : "110668",
"favor" :  False ,
     "read" : False,    
"title" : "图文-英联赛杯第4轮29日集锦 西汉姆主帅阿勒代斯",
"titleTip" : "图文-英联赛杯第4轮29日集锦 西汉姆主帅阿勒代斯",
"titleSummary" : "图文-英联赛杯第4轮29日集锦 西汉姆主帅阿勒代斯",
"descSummary" : "",
"url" : "http:\/\/go.rss.sina.com.cn\/redirect.php?url=http:\/\/slide.sports.sina.com.cn\/g_pl\/slide_2_730_55441.html?img=1105506",
"pubDate" : "06:10:19",
"enterDate" : "384201:15:48",
"channelId" : "-5085690922994945571",
"channelName" : "国际足坛精彩图片-新浪体育",
"channelNameSummary" : "国际足坛精彩图片-新...",
"channelUrl" : "http:\/\/sports.sina.com.cn\/global\/index.shtml",
"author" : "WWW.SINA.COM.CN",
"tags" : [],
"desc" : "",
"emailed" : False,
"forwarded" : False,
"english" : False
}  , {
"index" : 4,
"articleIndex" : "110669",
"favor" :  False ,
     "read" : False,    
"title" : "图文-英联赛杯第4轮29日集锦 克里斯-伍德攻入第2球",
"titleTip" : "图文-英联赛杯第4轮29日集锦 克里斯-伍德攻入第2球",
"titleSummary" : "图文-英联赛杯第4轮29日集锦 克里斯-伍德攻入第2球",
"descSummary" : "",
"url" : "http:\/\/go.rss.sina.com.cn\/redirect.php?url=http:\/\/slide.sports.sina.com.cn\/g_pl\/slide_2_730_55441.html?img=1105513",
"pubDate" : "06:10:19",
"enterDate" : "384201:15:48",
"channelId" : "-5085690922994945571",
"channelName" : "国际足坛精彩图片-新浪体育",
"channelNameSummary" : "国际足坛精彩图片-新...",
"channelUrl" : "http:\/\/sports.sina.com.cn\/global\/index.shtml",
"author" : "WWW.SINA.COM.CN",
"tags" : [],
"desc" : "",
"emailed" : False,
"forwarded" : False,
"english" : False
}  , {
"index" : 5,
"articleIndex" : "110670",
"favor" :  False ,
     "read" : False,    
"title" : "图文-英联赛杯第4轮29日集锦 罗达勒加再入一球",
"titleTip" : "图文-英联赛杯第4轮29日集锦 罗达勒加再入一球",
"titleSummary" : "图文-英联赛杯第4轮29日集锦 罗达勒加再入一球",
"descSummary" : "",
"url" : "http:\/\/go.rss.sina.com.cn\/redirect.php?url=http:\/\/slide.sports.sina.com.cn\/g_pl\/slide_2_730_55441.html?img=1105523",
"pubDate" : "06:10:19",
"enterDate" : "384201:15:48",
"channelId" : "-5085690922994945571",
"channelName" : "国际足坛精彩图片-新浪体育",
"channelNameSummary" : "国际足坛精彩图片-新...",
"channelUrl" : "http:\/\/sports.sina.com.cn\/global\/index.shtml",
"author" : "WWW.SINA.COM.CN",
"tags" : [],
"desc" : "",
"emailed" : False,
"forwarded" : False,
"english" : False
}  , {
"index" : 6,
"articleIndex" : "110671",
"favor" :  False ,
     "read" : False,    
"title" : "图文-英联赛杯第4轮29日集锦 克劳奇称霸空中",
"titleTip" : "图文-英联赛杯第4轮29日集锦 克劳奇称霸空中",
"titleSummary" : "图文-英联赛杯第4轮29日集锦 克劳奇称霸空中",
"descSummary" : "",
"url" : "http:\/\/go.rss.sina.com.cn\/redirect.php?url=http:\/\/slide.sports.sina.com.cn\/g_pl\/slide_2_730_55441.html?img=1105524",
"pubDate" : "06:10:19",
"enterDate" : "384201:15:48",
"channelId" : "-5085690922994945571",
"channelName" : "国际足坛精彩图片-新浪体育",
"channelNameSummary" : "国际足坛精彩图片-新...",
"channelUrl" : "http:\/\/sports.sina.com.cn\/global\/index.shtml",
"author" : "WWW.SINA.COM.CN",
"tags" : [],
"desc" : "",
"emailed" : False,
"forwarded" : False,
"english" : False
}  , {
"index" : 7,
"articleIndex" : "110672",
"favor" :  False ,
     "read" : False,    
"title" : "图文-英联赛杯第4轮29日集锦 西汉姆两破门功臣",
"titleTip" : "图文-英联赛杯第4轮29日集锦 西汉姆两破门功臣",
"titleSummary" : "图文-英联赛杯第4轮29日集锦 西汉姆两破门功臣",
"descSummary" : "",
"url" : "http:\/\/go.rss.sina.com.cn\/redirect.php?url=http:\/\/slide.sports.sina.com.cn\/g_pl\/slide_2_730_55441.html?img=1105535",
"pubDate" : "06:10:19",
"enterDate" : "384201:15:48",
"channelId" : "-5085690922994945571",
"channelName" : "国际足坛精彩图片-新浪体育",
"channelNameSummary" : "国际足坛精彩图片-新...",
"channelUrl" : "http:\/\/sports.sina.com.cn\/global\/index.shtml",
"author" : "WWW.SINA.COM.CN",
"tags" : [],
"desc" : "",
"emailed" : False,
"forwarded" : False,
"english" : False
}  , {
"index" : 8,
"articleIndex" : "110664",
"favor" :  False ,
     "read" : False,    
"title" : "图文-[联赛杯]曼联4-0诺维奇 林德加德镇守城门",
"titleTip" : "图文-[联赛杯]曼联4-0诺维奇 林德加德镇守城门",
"titleSummary" : "图文-[联赛杯]曼联4-0诺维奇 林德加德镇守城门",
"descSummary" : "",
"url" : "http:\/\/go.rss.sina.com.cn\/redirect.php?url=http:\/\/slide.sports.sina.com.cn\/g_pl\/slide_2_730_55438.html?img=1105526",
"pubDate" : "05:50:56",
"enterDate" : "384200:56:25",
"channelId" : "-5085690922994945571",
"channelName" : "国际足坛精彩图片-新浪体育",
"channelNameSummary" : "国际足坛精彩图片-新...",
"channelUrl" : "http:\/\/sports.sina.com.cn\/global\/index.shtml",
"author" : "WWW.SINA.COM.CN",
"tags" : [],
"desc" : "",
"emailed" : False,
"forwarded" : False,
"english" : False
}  , {
"index" : 9,
"articleIndex" : "110665",
"favor" :  False ,
     "read" : False,    
"title" : "图文-[联赛杯]曼联4-0诺维奇 斯诺德格拉斯重伤下场",
"titleTip" : "图文-[联赛杯]曼联4-0诺维奇 斯诺德格拉斯重伤下场",
"titleSummary" : "图文-[联赛杯]曼联4-0诺维奇 斯诺德格拉斯重伤下场",
"descSummary" : "",
"url" : "http:\/\/go.rss.sina.com.cn\/redirect.php?url=http:\/\/slide.sports.sina.com.cn\/g_pl\/slide_2_730_55438.html?img=1105527",
"pubDate" : "05:50:56",
"enterDate" : "384200:56:25",
"channelId" : "-5085690922994945571",
"channelName" : "国际足坛精彩图片-新浪体育",
"channelNameSummary" : "国际足坛精彩图片-新...",
"channelUrl" : "http:\/\/sports.sina.com.cn\/global\/index.shtml",
"author" : "WWW.SINA.COM.CN",
"tags" : [],
"desc" : "",
"emailed" : False,
"forwarded" : False,
"english" : False
}  , {
"index" : 10,
"articleIndex" : "110666",
"favor" :  False ,
     "read" : False,    
"title" : "图文-[联赛杯]曼联4-0诺维奇 贾努扎伊射门",
"titleTip" : "图文-[联赛杯]曼联4-0诺维奇 贾努扎伊射门",
"titleSummary" : "图文-[联赛杯]曼联4-0诺维奇 贾努扎伊射门",
"descSummary" : "",
"url" : "http:\/\/go.rss.sina.com.cn\/redirect.php?url=http:\/\/slide.sports.sina.com.cn\/g_pl\/slide_2_730_55438.html?img=1105528",
"pubDate" : "05:50:56",
"enterDate" : "384200:56:25",
"channelId" : "-5085690922994945571",
"channelName" : "国际足坛精彩图片-新浪体育",
"channelNameSummary" : "国际足坛精彩图片-新...",
"channelUrl" : "http:\/\/sports.sina.com.cn\/global\/index.shtml",
"author" : "WWW.SINA.COM.CN",
"tags" : [],
"desc" : "",
"emailed" : False,
"forwarded" : False,
"english" : False
}  , {
"index" : 11,
"articleIndex" : "110667",
"favor" :  False ,
     "read" : False,    
"title" : "图文-[联赛杯]曼联4-0诺维奇 小豌豆头槌争顶",
"titleTip" : "图文-[联赛杯]曼联4-0诺维奇 小豌豆头槌争顶",
"titleSummary" : "图文-[联赛杯]曼联4-0诺维奇 小豌豆头槌争顶",
"descSummary" : "",
"url" : "http:\/\/go.rss.sina.com.cn\/redirect.php?url=http:\/\/slide.sports.sina.com.cn\/g_pl\/slide_2_730_55438.html?img=1105520",
"pubDate" : "05:50:56",
"enterDate" : "384200:56:25",
"channelId" : "-5085690922994945571",
"channelName" : "国际足坛精彩图片-新浪体育",
"channelNameSummary" : "国际足坛精彩图片-新...",
"channelUrl" : "http:\/\/sports.sina.com.cn\/global\/index.shtml",
"author" : "WWW.SINA.COM.CN",
"tags" : [],
"desc" : "",
"emailed" : False,
"forwarded" : False,
"english" : False
}  , {
"index" : 12,
"articleIndex" : "110662",
"favor" :  False ,
     "read" : False,    
"title" : "图文-[联赛杯]曼联4-0诺维奇 小豌豆再次起飞",
"titleTip" : "图文-[联赛杯]曼联4-0诺维奇 小豌豆再次起飞",
"titleSummary" : "图文-[联赛杯]曼联4-0诺维奇 小豌豆再次起飞",
"descSummary" : "",
"url" : "http:\/\/go.rss.sina.com.cn\/redirect.php?url=http:\/\/slide.sports.sina.com.cn\/g_pl\/slide_2_730_55438.html?img=1105519",
"pubDate" : "05:50:55",
"enterDate" : "384200:56:24",
"channelId" : "-5085690922994945571",
"channelName" : "国际足坛精彩图片-新浪体育",
"channelNameSummary" : "国际足坛精彩图片-新...",
"channelUrl" : "http:\/\/sports.sina.com.cn\/global\/index.shtml",
"author" : "WWW.SINA.COM.CN",
"tags" : [],
"desc" : "",
"emailed" : False,
"forwarded" : False,
"english" : False
}  , {
"index" : 13,
"articleIndex" : "110663",
"favor" :  False ,
     "read" : False,    
"title" : "图文-[联赛杯]曼联4-0诺维奇 巴特纳被放翻",
"titleTip" : "图文-[联赛杯]曼联4-0诺维奇 巴特纳被放翻",
"titleSummary" : "图文-[联赛杯]曼联4-0诺维奇 巴特纳被放翻",
"descSummary" : "",
"url" : "http:\/\/go.rss.sina.com.cn\/redirect.php?url=http:\/\/slide.sports.sina.com.cn\/g_pl\/slide_2_730_55438.html?img=1105510",
"pubDate" : "05:50:55",
"enterDate" : "384200:56:24",
"channelId" : "-5085690922994945571",
"channelName" : "国际足坛精彩图片-新浪体育",
"channelNameSummary" : "国际足坛精彩图片-新...",
"channelUrl" : "http:\/\/sports.sina.com.cn\/global\/index.shtml",
"author" : "WWW.SINA.COM.CN",
"tags" : [],
"desc" : "",
"emailed" : False,
"forwarded" : False,
"english" : False
}  , {
"index" : 14,
"articleIndex" : "110658",
"favor" :  False ,
     "read" : False,    
"title" : "图文-[联赛杯]曼联4-0诺维奇 小豌豆指天庆祝",
"titleTip" : "图文-[联赛杯]曼联4-0诺维奇 小豌豆指天庆祝",
"titleSummary" : "图文-[联赛杯]曼联4-0诺维奇 小豌豆指天庆祝",
"descSummary" : "",
"url" : "http:\/\/go.rss.sina.com.cn\/redirect.php?url=http:\/\/slide.sports.sina.com.cn\/g_pl\/slide_2_730_55438.html?img=1105489",
"pubDate" : "05:50:54",
"enterDate" : "384200:56:23",
"channelId" : "-5085690922994945571",
"channelName" : "国际足坛精彩图片-新浪体育",
"channelNameSummary" : "国际足坛精彩图片-新...",
"channelUrl" : "http:\/\/sports.sina.com.cn\/global\/index.shtml",
"author" : "WWW.SINA.COM.CN",
"tags" : [],
"desc" : "",
"emailed" : False,
"forwarded" : False,
"english" : False
}  , {
"index" : 15,
"articleIndex" : "110659",
"favor" :  False ,
     "read" : False,    
"title" : "图文-[联赛杯]曼联4-0诺维奇 菲尔-琼斯争顶",
"titleTip" : "图文-[联赛杯]曼联4-0诺维奇 菲尔-琼斯争顶",
"titleSummary" : "图文-[联赛杯]曼联4-0诺维奇 菲尔-琼斯争顶",
"descSummary" : "",
"url" : "http:\/\/go.rss.sina.com.cn\/redirect.php?url=http:\/\/slide.sports.sina.com.cn\/g_pl\/slide_2_730_55438.html?img=1105490",
"pubDate" : "05:50:54",
"enterDate" : "384200:56:23",
"channelId" : "-5085690922994945571",
"channelName" : "国际足坛精彩图片-新浪体育",
"channelNameSummary" : "国际足坛精彩图片-新...",
"channelUrl" : "http:\/\/sports.sina.com.cn\/global\/index.shtml",
"author" : "WWW.SINA.COM.CN",
"tags" : [],
"desc" : "",
"emailed" : False,
"forwarded" : False,
"english" : False
}  , {
"index" : 16,
"articleIndex" : "110660",
"favor" :  False ,
     "read" : False,    
"title" : "图文-[联赛杯]曼联4-0诺维奇 小豌豆点射破门瞬间",
"titleTip" : "图文-[联赛杯]曼联4-0诺维奇 小豌豆点射破门瞬间",
"titleSummary" : "图文-[联赛杯]曼联4-0诺维奇 小豌豆点射破门瞬间",
"descSummary" : "",
"url" : "http:\/\/go.rss.sina.com.cn\/redirect.php?url=http:\/\/slide.sports.sina.com.cn\/g_pl\/slide_2_730_55438.html?img=1105491",
"pubDate" : "05:50:54",
"enterDate" : "384200:56:23",
"channelId" : "-5085690922994945571",
"channelName" : "国际足坛精彩图片-新浪体育",
"channelNameSummary" : "国际足坛精彩图片-新...",
"channelUrl" : "http:\/\/sports.sina.com.cn\/global\/index.shtml",
"author" : "WWW.SINA.COM.CN",
"tags" : [],
"desc" : "",
"emailed" : False,
"forwarded" : False,
"english" : False
}  , {
"index" : 17,
"articleIndex" : "110661",
"favor" :  False ,
     "read" : False,    
"title" : "图文-[联赛杯]曼联4-0诺维奇 看台上的鲁尼",
"titleTip" : "图文-[联赛杯]曼联4-0诺维奇 看台上的鲁尼",
"titleSummary" : "图文-[联赛杯]曼联4-0诺维奇 看台上的鲁尼",
"descSummary" : "",
"url" : "http:\/\/go.rss.sina.com.cn\/redirect.php?url=http:\/\/slide.sports.sina.com.cn\/g_pl\/slide_2_730_55438.html?img=1105492",
"pubDate" : "05:50:54",
"enterDate" : "384200:56:23",
"channelId" : "-5085690922994945571",
"channelName" : "国际足坛精彩图片-新浪体育",
"channelNameSummary" : "国际足坛精彩图片-新...",
"channelUrl" : "http:\/\/sports.sina.com.cn\/global\/index.shtml",
"author" : "WWW.SINA.COM.CN",
"tags" : [],
"desc" : "",
"emailed" : False,
"forwarded" : False,
"english" : False
}  , {
"index" : 18,
"articleIndex" : "110677",
"favor" :  False ,
     "read" : False,    
"title" : "图文-[意甲]亚特兰大1-1国米 利瓦贾停球",
"titleTip" : "图文-[意甲]亚特兰大1-1国米 利瓦贾停球",
"titleSummary" : "图文-[意甲]亚特兰大1-1国米 利瓦贾停球",
"descSummary" : "",
"url" : "http:\/\/go.rss.sina.com.cn\/redirect.php?url=http:\/\/slide.sports.sina.com.cn\/g_seriea\/slide_2_730_55439.html?img=1105485",
"pubDate" : "05:43:47",
"enterDate" : "384200:19:12",
"channelId" : "-5085690922994945571",
"channelName" : "国际足坛精彩图片-新浪体育",
"channelNameSummary" : "国际足坛精彩图片-新...",
"channelUrl" : "http:\/\/sports.sina.com.cn\/global\/index.shtml",
"author" : "WWW.SINA.COM.CN",
"tags" : [],
"desc" : "",
"emailed" : False,
"forwarded" : False,
"english" : False
}  , {
"index" : 19,
"articleIndex" : "110676",
"favor" :  False ,
     "read" : False,    
"title" : "图文-[联赛杯]曼联4-0诺维奇 替补席上弗莱彻",
"titleTip" : "图文-[联赛杯]曼联4-0诺维奇 替补席上弗莱彻",
"titleSummary" : "图文-[联赛杯]曼联4-0诺维奇 替补席上弗莱彻",
"descSummary" : "",
"url" : "http:\/\/go.rss.sina.com.cn\/redirect.php?url=http:\/\/slide.sports.sina.com.cn\/g_pl\/slide_2_730_55438.html?img=1105494",
"pubDate" : "昨天05:17:36",
"enterDate" : "384199:53:01",
"channelId" : "-5085690922994945571",
"channelName" : "国际足坛精彩图片-新浪体育",
"channelNameSummary" : "国际足坛精彩图片-新...",
"channelUrl" : "http:\/\/sports.sina.com.cn\/global\/index.shtml",
"author" : "WWW.SINA.COM.CN",
"tags" : [],
"desc" : "",
"emailed" : False,
"forwarded" : False,
"english" : False
} ]
}
