{
"mode" : {"viewTitle" : 1,   "viewNew" : 0,  "pageIndex" : 1 },
 "channel" : {"id" : "-411210011645084630", "booked" : False, "subNumber" : 1183, "name" : "篮球焦点新闻-新浪体育", "url" : "http:\/\/sports.sina.com.cn\/basketball\/index.shtml", "feed" : "http:\/\/rss.sina.com.cn\/sports\/basketball\/focus.xml", "author" : "WWW.SINA.COM.CN", "desc" : "篮球-焦点新闻", "imageUrl" : "", "postPerWeek" : "292", "lastCrawTime" : "17:05:10", "crawDateTime" : "17:05:10", "lastHttpCode" : "200"}, "page" : {
"startIndex" : 0,
"totalCount" : 5000,
"pageIndex" : 1,
"lastPage" : 250,
"pageSize" : 20,
"english" :  False },
 "unreadNum" : 0, "shotIndex" : -1,
"articles" : [
{
"index" : 0,
"articleIndex" : "17305",
"favor" :  False ,
     "read" : False,    
"title" : "预告-31日10:30视频播湖人vs勇士 紫金军迎背靠背",
"titleTip" : "预告-31日10:30视频播湖人vs勇士 紫金军迎背靠背",
"titleSummary" : "预告-31日10:30视频播湖人vs勇士 紫金军迎背靠背",
"descSummary" : "北京时间10月31日10:30，新浪体育将为您视频直播洛...",
"url" : "http:\/\/go.rss.sina.com.cn\/redirect.php?url=http:\/\/sports.sina.com.cn\/nba\/2013-10-30\/16236858695.shtml",
"pubDate" : "16:23:54",
"enterDate" : "384201:08:57",
"channelId" : "-411210011645084630",
"channelName" : "篮球焦点新闻-新浪体育",
"channelNameSummary" : "篮球焦点新闻-新浪体...",
"channelUrl" : "http:\/\/sports.sina.com.cn\/basketball\/index.shtml",
"author" : "WWW.SINA.COM.CN",
"tags" : [],
"desc" : "北京时间10月31日10:30，新浪体育将为您视频直播洛杉矶湖人[微博]客场大战金州勇士的比赛。 刚刚结束揭幕战的湖人，与快船[微博]上演了一场精彩的对决。借助于替补神将们的惊艳表现，缺少了绝对核心科比[微博]-布莱恩特的湖人赢得了这场看似\u201C意外\u201D的胜利。揭幕战力克....",
"emailed" : False,
"forwarded" : False,
"english" : False
}  , {
"index" : 1,
"articleIndex" : "17304",
"favor" :  False ,
     "read" : False,    
"title" : "湖人vs勇士前瞻:萌神别小瞧紫金 背靠背湖人还得拼",
"titleTip" : "湖人vs勇士前瞻:萌神别小瞧紫金 背靠背湖人还得拼",
"titleSummary" : "湖人vs勇士前瞻:萌神别小瞧紫金 背靠背湖人还得拼",
"descSummary" : "北京时间10月30日，洛杉矶湖人[微博]用胜利开启新赛...",
"url" : "http:\/\/go.rss.sina.com.cn\/redirect.php?url=http:\/\/sports.sina.com.cn\/nba\/2013-10-30\/16026858686.shtml",
"pubDate" : "16:02:24",
"enterDate" : "384200:47:27",
"channelId" : "-411210011645084630",
"channelName" : "篮球焦点新闻-新浪体育",
"channelNameSummary" : "篮球焦点新闻-新浪体...",
"channelUrl" : "http:\/\/sports.sina.com.cn\/basketball\/index.shtml",
"author" : "WWW.SINA.COM.CN",
"tags" : [],
"desc" : "北京时间10月30日，洛杉矶湖人[微博]用胜利开启新赛季，明天他们将做客挑战金州勇士，替补阵容的发挥将在很大程度上影响湖人的做客前景，他们的防守将经受库里[微博][微博]、汤普森等人的考验，勇士自然希望在家门口擒下湖人赢得赛季头彩。 现在这支湖人能够在揭幕战中....",
"emailed" : False,
"forwarded" : False,
"english" : False
}  , {
"index" : 2,
"articleIndex" : "17303",
"favor" :  False ,
     "read" : False,    
"title" : "美国专家持续看低王哲林 选秀排名3次下滑至81位",
"titleTip" : "美国专家持续看低王哲林 选秀排名3次下滑至81位",
"titleSummary" : "美国专家持续看低王哲林 选秀排名3次下滑至81位",
"descSummary" : "北京时间10月30日消息，美国权威选秀网站《Draft Exp...",
"url" : "http:\/\/go.rss.sina.com.cn\/redirect.php?url=http:\/\/sports.sina.com.cn\/cba\/2013-10-30\/15416858658.shtml",
"pubDate" : "15:41:42",
"enterDate" : "384200:56:50",
"channelId" : "-411210011645084630",
"channelName" : "篮球焦点新闻-新浪体育",
"channelNameSummary" : "篮球焦点新闻-新浪体...",
"channelUrl" : "http:\/\/sports.sina.com.cn\/basketball\/index.shtml",
"author" : "WWW.SINA.COM.CN",
"tags" : [],
"desc" : "北京时间10月30日消息，美国权威选秀网站《Draft Express》更新了全球百强新秀\u201CTop 100 \u201D名单，来自福建队的中锋王哲林[微博]继续出现在这份榜单当中，不过他的排名相比之前有所下滑，在所有球员中排第81位，而在国际球员排名中则是第17位。 虽然依旧是全亚洲唯一一....",
"emailed" : False,
"forwarded" : False,
"english" : False
}  , {
"index" : 3,
"articleIndex" : "17302",
"favor" :  False ,
     "read" : False,    
"title" : "22+6湖人功臣先谢紫金死忠 科比:愿为球队改变打法",
"titleTip" : "22+6湖人功臣先谢紫金死忠 科比:愿为球队改变打法",
"titleSummary" : "22+6湖人功臣先谢紫金死忠 科比:愿为球队改变打法",
"descSummary" : "北京时间10月30日，洛杉矶湖人[微博]用德比战的胜利...",
"url" : "http:\/\/go.rss.sina.com.cn\/redirect.php?url=http:\/\/sports.sina.com.cn\/nba\/2013-10-30\/15096858643.shtml",
"pubDate" : "15:09:44",
"enterDate" : "384200:54:57",
"channelId" : "-411210011645084630",
"channelName" : "篮球焦点新闻-新浪体育",
"channelNameSummary" : "篮球焦点新闻-新浪体...",
"channelUrl" : "http:\/\/sports.sina.com.cn\/basketball\/index.shtml",
"author" : "WWW.SINA.COM.CN",
"tags" : [],
"desc" : "北京时间10月30日，洛杉矶湖人[微博]用德比战的胜利拿到赛季开门红，主帅麦克-德安东尼很满意球队的化学变化，赢球功臣之一的泽维尔-亨利则感谢了球迷们对自己的支持。 虽然没有了霍华德，科比[微博]也休战，但湖人却在场上打得更为团结，尤其是替补阵容打出了鲜有的活....",
"emailed" : False,
"forwarded" : False,
"english" : False
}  , {
"index" : 4,
"articleIndex" : "17301",
"favor" :  False ,
     "read" : False,    
"title" : "里弗斯:湖人像打总决赛 格里芬:没科比也不是烂队",
"titleTip" : "里弗斯:湖人像打总决赛 格里芬:没科比也不是烂队",
"titleSummary" : "里弗斯:湖人像打总决赛 格里芬:没科比也不是烂队",
"descSummary" : "北京时间10月30日(洛杉矶时间10月29日)，NBA新赛季大...",
"url" : "http:\/\/go.rss.sina.com.cn\/redirect.php?url=http:\/\/sports.sina.com.cn\/nba\/2013-10-30\/14586858591.shtml",
"pubDate" : "14:58:08",
"enterDate" : "384201:13:26",
"channelId" : "-411210011645084630",
"channelName" : "篮球焦点新闻-新浪体育",
"channelNameSummary" : "篮球焦点新闻-新浪体...",
"channelUrl" : "http:\/\/sports.sina.com.cn\/basketball\/index.shtml",
"author" : "WWW.SINA.COM.CN",
"tags" : [],
"desc" : "北京时间10月30日(洛杉矶时间10月29日)，NBA新赛季大幕揭开，饱受轻视的湖人主场116-103击败快船迎来开门红。湖人证明即使没有科比-布莱恩特，他们也不会放弃战斗。 \u201C我们就是没准备好这场比赛，我不知道我们是不是有些自满了，过去两个月，我们听到了太多快船会如何....",
"emailed" : False,
"forwarded" : False,
"english" : False
}  , {
"index" : 5,
"articleIndex" : "17300",
"favor" :  False ,
     "read" : False,    
"title" : "1战超上赛季!湖人甩掉0-4之耻 ESPN首日两遭打脸",
"titleTip" : "1战超上赛季!湖人甩掉0-4之耻 ESPN首日两遭打脸",
"titleSummary" : "1战超上赛季!湖人甩掉0-4之耻 ESPN首日两遭打脸",
"descSummary" : "北京时间10月30日，NBA首个常规赛比赛日就充满激...",
"url" : "http:\/\/go.rss.sina.com.cn\/redirect.php?url=http:\/\/sports.sina.com.cn\/nba\/2013-10-30\/14276858487.shtml",
"pubDate" : "14:27:21",
"enterDate" : "384201:12:44",
"channelId" : "-411210011645084630",
"channelName" : "篮球焦点新闻-新浪体育",
"channelNameSummary" : "篮球焦点新闻-新浪体...",
"channelUrl" : "http:\/\/sports.sina.com.cn\/basketball\/index.shtml",
"author" : "WWW.SINA.COM.CN",
"tags" : [],
"desc" : "北京时间10月30日，NBA首个常规赛比赛日就充满激情，在热火[微博]没怎么费力就拿下号称东部最强对手的公牛之后，湖人[微博]结结实实上演了一场逆袭，他们在极不被看好的情况下以13分优势击败西部热门快船[微博]，让这个赛季从一开始就充满了\u201C寒意\u201D。 霍华德出走，科....",
"emailed" : False,
"forwarded" : False,
"english" : False
}  , {
"index" : 6,
"articleIndex" : "17299",
"favor" :  False ,
     "read" : False,    
"title" : "篮协出台女篮球员转会价格 国手5万普通球员仅2万",
"titleTip" : "篮协出台女篮球员转会价格 国手5万普通球员仅2万",
"titleSummary" : "篮协出台女篮球员转会价格 国手5万普通球员仅2万",
"descSummary" : "日前，中国篮协下发了一份《关于2013-2014 中国女子...",
"url" : "http:\/\/go.rss.sina.com.cn\/redirect.php?url=http:\/\/sports.sina.com.cn\/cba\/2013-10-30\/14256858485.shtml",
"pubDate" : "14:25:58",
"enterDate" : "384201:11:21",
"channelId" : "-411210011645084630",
"channelName" : "篮球焦点新闻-新浪体育",
"channelNameSummary" : "篮球焦点新闻-新浪体...",
"channelUrl" : "http:\/\/sports.sina.com.cn\/basketball\/index.shtml",
"author" : "WWW.SINA.COM.CN",
"tags" : [],
"desc" : "日前，中国篮协下发了一份《关于2013-2014&#160;中国女子篮球甲级联赛运动员短期交流有关事宜的通知》，在通知中有一项关于球员转会费的细则。在这项细则中规定了一名女篮国手的转会费是5万元人民币。在市场化、职业化的今天，这样的价格还是让人有些意外。 通知中说明....",
"emailed" : False,
"forwarded" : False,
"english" : False
}  , {
"index" : 7,
"articleIndex" : "17298",
"favor" :  False ,
     "read" : False,    
"title" : "湖人大胜别忘了禁区那根轴 15+13+4最常规武器是他",
"titleTip" : "湖人大胜别忘了禁区那根轴 15+13+4最常规武器是他",
"titleSummary" : "湖人大胜别忘了禁区那根轴 15+13+4最常规武器是他",
"descSummary" : "北京时间10月30日，科比[微博]-布莱恩特伤势未愈...",
"url" : "http:\/\/go.rss.sina.com.cn\/redirect.php?url=http:\/\/sports.sina.com.cn\/nba\/2013-10-30\/14156858475.shtml",
"pubDate" : "14:15:14",
"enterDate" : "384201:00:37",
"channelId" : "-411210011645084630",
"channelName" : "篮球焦点新闻-新浪体育",
"channelNameSummary" : "篮球焦点新闻-新浪体...",
"channelUrl" : "http:\/\/sports.sina.com.cn\/basketball\/index.shtml",
"author" : "WWW.SINA.COM.CN",
"tags" : [],
"desc" : "北京时间10月30日，科比[微博]-布莱恩特伤势未愈休战，史蒂夫-纳什[微博]的身体也没有完全恢复，洛杉矶湖人[微博]的领袖重担落在了保罗-加索尔身上。西班牙人没有让人们失望，正是他用开场的不俗表现为球队打好开局，他用两双充分展现了自我价值。 在不到25分钟的时间....",
"emailed" : False,
"forwarded" : False,
"english" : False
}  , {
"index" : 8,
"articleIndex" : "17297",
"favor" :  False ,
     "read" : False,    
"title" : "CUBA锋霸的故事:30+20已经过去 他的未来并非CBA",
"titleTip" : "CUBA锋霸的故事:30+20已经过去 他的未来并非CBA",
"titleSummary" : "CUBA锋霸的故事:30+20已经过去 他的未来并非CBA",
"descSummary" : "\u201C下面入场的是北京大学的12号，程--驰--！\u201D伴随...",
"url" : "http:\/\/go.rss.sina.com.cn\/redirect.php?url=http:\/\/sports.sina.com.cn\/cba\/2013-10-30\/14146858474.shtml",
"pubDate" : "14:14:22",
"enterDate" : "384200:59:45",
"channelId" : "-411210011645084630",
"channelName" : "篮球焦点新闻-新浪体育",
"channelNameSummary" : "篮球焦点新闻-新浪体...",
"channelUrl" : "http:\/\/sports.sina.com.cn\/basketball\/index.shtml",
"author" : "WWW.SINA.COM.CN",
"tags" : [],
"desc" : "\u201C下面入场的是北京大学的12号，程\u2015\u2015驰\u2015\u2015！\u201D伴随着现场主持人刘芳宇[微博]标志性的嗓音，首都师范大学体育馆内立刻响起了振聋发聩的呐喊和欢呼声，其受欢迎的程度甚至超过了任何一名身穿白色球衣，本场揭幕战主队清华大学队的队员，就连场馆外负责维持秩序的安保人员，在....",
"emailed" : False,
"forwarded" : False,
"english" : False
}  , {
"index" : 9,
"articleIndex" : "17296",
"favor" :  False ,
     "read" : False,    
"title" : "LA飘起3分雨!湖人新杀招逆袭 这才是德安东尼最爱",
"titleTip" : "LA飘起3分雨!湖人新杀招逆袭 这才是德安东尼最爱",
"titleSummary" : "LA飘起3分雨!湖人新杀招逆袭 这才是德安东尼最爱",
"descSummary" : "北京时间10月30日，新赛季NBA揭幕日，湖人[微博]主...",
"url" : "http:\/\/go.rss.sina.com.cn\/redirect.php?url=http:\/\/sports.sina.com.cn\/nba\/2013-10-30\/14076858467.shtml",
"pubDate" : "14:07:06",
"enterDate" : "384200:52:29",
"channelId" : "-411210011645084630",
"channelName" : "篮球焦点新闻-新浪体育",
"channelNameSummary" : "篮球焦点新闻-新浪体...",
"channelUrl" : "http:\/\/sports.sina.com.cn\/basketball\/index.shtml",
"author" : "WWW.SINA.COM.CN",
"tags" : [],
"desc" : "北京时间10月30日，新赛季NBA揭幕日，湖人[微博]主场116-103战胜快船[微博]，拿下洛城德比，同时也为新赛季开了个好头。湖人替补全场爆红，新援泽维尔-亨利拿下全场最高的22分。当然说到取胜法宝，除了替补阵容的给力之外，全队29投14中的三分球，也成为浇灭快船的另一大利器....",
"emailed" : False,
"forwarded" : False,
"english" : False
}  , {
"index" : 10,
"articleIndex" : "17295",
"favor" :  False ,
     "read" : False,    
"title" : "洛城疯狂夜湖人第1板匪 大帝!22+6+2穿紫金的哈登",
"titleTip" : "洛城疯狂夜湖人第1板匪 大帝!22+6+2穿紫金的哈登",
"titleSummary" : "洛城疯狂夜湖人第1板匪 大帝!22+6+2穿紫金的哈登",
"descSummary" : "北京时间10月30日，洛杉矶湖人[微博]意外赢得赛季开...",
"url" : "http:\/\/go.rss.sina.com.cn\/redirect.php?url=http:\/\/sports.sina.com.cn\/nba\/2013-10-30\/14006858462.shtml",
"pubDate" : "14:00:45",
"enterDate" : "384200:46:08",
"channelId" : "-411210011645084630",
"channelName" : "篮球焦点新闻-新浪体育",
"channelNameSummary" : "篮球焦点新闻-新浪体...",
"channelUrl" : "http:\/\/sports.sina.com.cn\/basketball\/index.shtml",
"author" : "WWW.SINA.COM.CN",
"tags" : [],
"desc" : "北京时间10月30日，洛杉矶湖人[微博]意外赢得赛季开门红，他们的替补阵容在这场洛城德比战中让人大吃一惊，而替补的领军人物莫过于哈维-亨利。这位拿到训练营邀请合同加盟湖人的球员用生涯得分新高带领球队获胜，他堪称\u201C穷人版的哈登\u201D。 \u201C亨利大帝\u201D在本场揭幕战中....",
"emailed" : False,
"forwarded" : False,
"english" : False
}  , {
"index" : 11,
"articleIndex" : "17294",
"favor" :  False ,
     "read" : False,    
"title" : "湖人板凳旋风!末节41分爆保罗 20年最差首发?不怕!",
"titleTip" : "湖人板凳旋风!末节41分爆保罗 20年最差首发?不怕!",
"titleSummary" : "湖人板凳旋风!末节41分爆保罗 20年最差首发?不怕!",
"descSummary" : "北京时间10月30日，NBA新赛季常规赛拉开大幕，首...",
"url" : "http:\/\/go.rss.sina.com.cn\/redirect.php?url=http:\/\/sports.sina.com.cn\/nba\/2013-10-30\/13576858460.shtml",
"pubDate" : "13:57:21",
"enterDate" : "384201:12:48",
"channelId" : "-411210011645084630",
"channelName" : "篮球焦点新闻-新浪体育",
"channelNameSummary" : "篮球焦点新闻-新浪体...",
"channelUrl" : "http:\/\/sports.sina.com.cn\/basketball\/index.shtml",
"author" : "WWW.SINA.COM.CN",
"tags" : [],
"desc" : "北京时间10月30日，NBA新赛季常规赛拉开大幕，首个比赛日就有\u201C冷门\u201D爆出，缺少当家球星科比[微博]-布莱恩特的湖人[微博]，在洛城德比中以13分的优势大胜快船[微博]。在一片看衰的声音中，紫金军用这样一种方式开始新赛季的征程，着实出人意料。 过去很长一段时间，湖....",
"emailed" : False,
"forwarded" : False,
"english" : False
}  , {
"index" : 12,
"articleIndex" : "17293",
"favor" :  False ,
     "read" : False,    
"title" : "5胜0负!没科比的湖人惹不起 大冷啊西部12灭第2",
"titleTip" : "5胜0负!没科比的湖人惹不起 大冷啊西部12灭第2",
"titleSummary" : "5胜0负!没科比的湖人惹不起 大冷啊西部12灭第2",
"descSummary" : "北京时间10月30日，几乎所有人都不看好洛杉矶湖人[微...",
"url" : "http:\/\/go.rss.sina.com.cn\/redirect.php?url=http:\/\/sports.sina.com.cn\/nba\/2013-10-30\/13366858455.shtml",
"pubDate" : "13:36:58",
"enterDate" : "384200:52:25",
"channelId" : "-411210011645084630",
"channelName" : "篮球焦点新闻-新浪体育",
"channelNameSummary" : "篮球焦点新闻-新浪体...",
"channelUrl" : "http:\/\/sports.sina.com.cn\/basketball\/index.shtml",
"author" : "WWW.SINA.COM.CN",
"tags" : [],
"desc" : "北京时间10月30日，几乎所有人都不看好洛杉矶湖人[微博]本赛季的前景，甚至人们都在猜测他们会以几连败开季。可是在揭幕战中，没有科比[微博]的湖人却让所有人大吃一惊，依靠替补阵容和三分球的神勇表现，湖人成功掀翻快船[微博]拿到赛季开门红。在科比缺阵的情况下，湖人在赛....",
"emailed" : False,
"forwarded" : False,
"english" : False
}  , {
"index" : 13,
"articleIndex" : "17292",
"favor" :  False ,
     "read" : False,    
"title" : "替补76分湖人14记三分砸沉快船 保罗两双难救主",
"titleTip" : "替补76分湖人14记三分砸沉快船 保罗两双难救主",
"titleSummary" : "替补76分湖人14记三分砸沉快船 保罗两双难救主",
"descSummary" : "北京时间10月30日，NBA2013-14赛季正式拉开大幕，在...",
"url" : "http:\/\/go.rss.sina.com.cn\/redirect.php?url=http:\/\/sports.sina.com.cn\/nba\/2013-10-30\/13156858405.shtml",
"pubDate" : "13:15:55",
"enterDate" : "384201:01:27",
"channelId" : "-411210011645084630",
"channelName" : "篮球焦点新闻-新浪体育",
"channelNameSummary" : "篮球焦点新闻-新浪体...",
"channelUrl" : "http:\/\/sports.sina.com.cn\/basketball\/index.shtml",
"author" : "WWW.SINA.COM.CN",
"tags" : [],
"desc" : "北京时间10月30日，NBA2013-14赛季正式拉开大幕，在第一天的比赛中，洛杉矶德比压阵，湖人[微博]最后一节发力，以116-103击败了快船[微博]。 湖人最后一节以41-24大胜，一举翻盘。保罗-加索尔拿下15分13个篮板，尼克-杨13分，史蒂夫-纳什[微博]3分5次助攻。替补出场的....",
"emailed" : False,
"forwarded" : False,
"english" : False
}  , {
"index" : 14,
"articleIndex" : "17291",
"favor" :  False ,
     "read" : False,    
"title" : "火箭VS山猫前瞻：休城揭幕书豪替补 双塔继续试验",
"titleTip" : "火箭VS山猫前瞻：休城揭幕书豪替补 双塔继续试验",
"titleSummary" : "火箭VS山猫前瞻：休城揭幕书豪替补 双塔继续试验",
"descSummary" : "北京时间10月30日，2013-14赛季正式拉开帷幕，明天...",
"url" : "http:\/\/go.rss.sina.com.cn\/redirect.php?url=http:\/\/sports.sina.com.cn\/nba\/2013-10-30\/12276858363.shtml",
"pubDate" : "12:27:54",
"enterDate" : "384201:13:37",
"channelId" : "-411210011645084630",
"channelName" : "篮球焦点新闻-新浪体育",
"channelNameSummary" : "篮球焦点新闻-新浪体...",
"channelUrl" : "http:\/\/sports.sina.com.cn\/basketball\/index.shtml",
"author" : "WWW.SINA.COM.CN",
"tags" : [],
"desc" : "北京时间10月30日，2013-14赛季正式拉开帷幕，明天休斯顿火箭将迎来揭幕战，坐镇主场对阵夏洛特山猫。火箭方面将继续排出双塔，帕特里克-贝弗利将取代林书豪[微博]首发，而山猫方面则损兵折将。火箭能否取得开门红？ 在今夏招兵买马后，火箭已被看做是西区冠军的热门之....",
"emailed" : False,
"forwarded" : False,
"english" : False
}  , {
"index" : 15,
"articleIndex" : "17290",
"favor" :  False ,
     "read" : False,    
"title" : "詹皇:首秀一切完美 公牛记者:谁说热火无法3连冠?",
"titleTip" : "詹皇:首秀一切完美 公牛记者:谁说热火无法3连冠?",
"titleSummary" : "詹皇:首秀一切完美 公牛记者:谁说热火无法3连冠?",
"descSummary" : "北京时间10月30日(迈阿密时间29日)，新赛季揭幕战，热...",
"url" : "http:\/\/go.rss.sina.com.cn\/redirect.php?url=http:\/\/sports.sina.com.cn\/nba\/2013-10-30\/12276858362.shtml",
"pubDate" : "12:27:05",
"enterDate" : "384201:12:48",
"channelId" : "-411210011645084630",
"channelName" : "篮球焦点新闻-新浪体育",
"channelNameSummary" : "篮球焦点新闻-新浪体...",
"channelUrl" : "http:\/\/sports.sina.com.cn\/basketball\/index.shtml",
"author" : "WWW.SINA.COM.CN",
"tags" : [],
"desc" : "北京时间10月30日(迈阿密时间29日)，新赛季揭幕战，热火[微博]在主场如偿所愿，107比95击败老对手公牛，连续第二年捍卫了领戒荣誉夜。 \u201C能以这样的结果(赢球)开始一个新赛季的征程，感觉非常棒，\u201D克里斯-波什[微博]赛后说，他今天11投6中贡献了16分和6个篮板。 ....",
"emailed" : False,
"forwarded" : False,
"english" : False
}  , {
"index" : 16,
"articleIndex" : "17289",
"favor" :  False ,
     "read" : False,    
"title" : "广东：大外本想签迪奥古但没成 双援受尤纳斯认可",
"titleTip" : "广东：大外本想签迪奥古但没成 双援受尤纳斯认可",
"titleSummary" : "广东：大外本想签迪奥古但没成 双援受尤纳斯认可",
"descSummary" : "今天，广东队方面已经确认球队双外援人选，小外援是...",
"url" : "http:\/\/go.rss.sina.com.cn\/redirect.php?url=http:\/\/sports.sina.com.cn\/cba\/2013-10-30\/12136858336.shtml",
"pubDate" : "12:13:58",
"enterDate" : "384200:59:41",
"channelId" : "-411210011645084630",
"channelName" : "篮球焦点新闻-新浪体育",
"channelNameSummary" : "篮球焦点新闻-新浪体...",
"channelUrl" : "http:\/\/sports.sina.com.cn\/basketball\/index.shtml",
"author" : "WWW.SINA.COM.CN",
"tags" : [],
"desc" : "今天，广东队方面已经确认球队双外援人选，小外援是卡里夫-怀艾特(身高1米93)大外援是辽宁旧将约什-鲍威尔(身高2米06)。 据总经理刘宏疆[微博]介绍，尽管小外援怀艾特没有CBA[微博]经历，但他还是得到了尤纳斯的认可。而大外援鲍威尔和上赛季的迪奥古原本就是双选，因....",
"emailed" : False,
"forwarded" : False,
"english" : False
}  , {
"index" : 17,
"articleIndex" : "17288",
"favor" :  False ,
     "read" : False,    
"title" : "罗斯：膝盖没问题无需担心 投篮差主要因热火包夹",
"titleTip" : "罗斯：膝盖没问题无需担心 投篮差主要因热火包夹",
"titleSummary" : "罗斯：膝盖没问题无需担心 投篮差主要因热火包夹",
"descSummary" : "北京时间10月30日(迈阿密时间29日)，德里克-罗斯[微...",
"url" : "http:\/\/go.rss.sina.com.cn\/redirect.php?url=http:\/\/sports.sina.com.cn\/nba\/2013-10-30\/12036858329.shtml",
"pubDate" : "12:03:26",
"enterDate" : "384200:49:09",
"channelId" : "-411210011645084630",
"channelName" : "篮球焦点新闻-新浪体育",
"channelNameSummary" : "篮球焦点新闻-新浪体...",
"channelUrl" : "http:\/\/sports.sina.com.cn\/basketball\/index.shtml",
"author" : "WWW.SINA.COM.CN",
"tags" : [],
"desc" : "北京时间10月30日(迈阿密时间29日)，德里克-罗斯[微博]没能将季后赛的火热状态带到热火[微博]的地盘上来，在老冤家面前，他的公牛95比107不敌卫冕冠军，无缘开门红。 为了这场揭幕战，罗斯可谓做足了准备，他今天赛前甚至罕见地热身了将近一个小时，最先到达球场，最后....",
"emailed" : False,
"forwarded" : False,
"english" : False
}  , {
"index" : 18,
"articleIndex" : "17287",
"favor" :  False ,
     "read" : False,    
"title" : "湖人新援迎cp3战斧劈扣 格里芬2连斩快船半场领先",
"titleTip" : "湖人新援迎cp3战斧劈扣 格里芬2连斩快船半场领先",
"titleSummary" : "湖人新援迎cp3战斧劈扣 格里芬2连斩快船半场领先",
"descSummary" : "北京时间10月30日，NBA新赛季迎来揭幕日，在热火...",
"url" : "http:\/\/go.rss.sina.com.cn\/redirect.php?url=http:\/\/sports.sina.com.cn\/nba\/2013-10-30\/12006858325.shtml",
"pubDate" : "12:00:17",
"enterDate" : "384200:46:00",
"channelId" : "-411210011645084630",
"channelName" : "篮球焦点新闻-新浪体育",
"channelNameSummary" : "篮球焦点新闻-新浪体...",
"channelUrl" : "http:\/\/sports.sina.com.cn\/basketball\/index.shtml",
"author" : "WWW.SINA.COM.CN",
"tags" : [],
"desc" : "北京时间10月30日，NBA新赛季迎来揭幕日，在热火[微博]与公牛的开胃大餐之后，洛城德比的上演将继续为今天的揭幕日加码。早已在赛季前被各大媒体看衰的湖人[微博]，在没有科比[微博]的情况下，能否阻击保罗领衔志在冲冠的快船[微博]？让我们拭目以待。 比赛开始，加索....",
"emailed" : False,
"forwarded" : False,
"english" : False
}  , {
"index" : 19,
"articleIndex" : "17286",
"favor" :  False ,
     "read" : False,    
"title" : "18记大帽!步行者主场盖疯了 如此火锅盛宴5年未见",
"titleTip" : "18记大帽!步行者主场盖疯了 如此火锅盛宴5年未见",
"titleSummary" : "18记大帽!步行者主场盖疯了 如此火锅盛宴5年未见",
"descSummary" : "北京时间10月30日，据ESPN报道，步行者队在常规赛...",
"url" : "http:\/\/go.rss.sina.com.cn\/redirect.php?url=http:\/\/sports.sina.com.cn\/nba\/2013-10-30\/11376858296.shtml",
"pubDate" : "11:37:34",
"enterDate" : "384200:53:22",
"channelId" : "-411210011645084630",
"channelName" : "篮球焦点新闻-新浪体育",
"channelNameSummary" : "篮球焦点新闻-新浪体...",
"channelUrl" : "http:\/\/sports.sina.com.cn\/basketball\/index.shtml",
"author" : "WWW.SINA.COM.CN",
"tags" : [],
"desc" : "北京时间10月30日，据ESPN报道，步行者队在常规赛揭幕战中以97-87击败了年轻的奥兰多魔术队，并且打破了多项球队纪录。步行者当家中锋罗伊-希伯特此役功不可没，全场砍下8分、16个篮板和7次封盖。 本场比赛，希伯特在首节便抢下12个篮板，这是他职业生涯至今第一次在单....",
"emailed" : False,
"forwarded" : False,
"english" : False
} ]
}
