{
"mode" : {"viewTitle" : 1,   "viewNew" : 0,  "pageIndex" : 2 },
 "channel" : {"id" : "-411210011645084630", "booked" : False, "subNumber" : 1183, "name" : "篮球焦点新闻-新浪体育", "url" : "http:\/\/sports.sina.com.cn\/basketball\/index.shtml", "feed" : "http:\/\/rss.sina.com.cn\/sports\/basketball\/focus.xml", "author" : "WWW.SINA.COM.CN", "desc" : "篮球-焦点新闻", "imageUrl" : "", "postPerWeek" : "292", "lastCrawTime" : "17:05:10", "crawDateTime" : "17:05:10", "lastHttpCode" : "200"}, "page" : {
"startIndex" : 20,
"totalCount" : 5000,
"pageIndex" : 2,
"lastPage" : 250,
"pageSize" : 20,
"english" :  False },
 "unreadNum" : 0, "shotIndex" : -1,
"articles" : [
{
"index" : 0,
"articleIndex" : "17285",
"favor" :  False ,
     "read" : False,    
"title" : "罗斯复出奥巴马发推欢迎 15中4?有爆发力他就不怕",
"titleTip" : "罗斯复出奥巴马发推欢迎 15中4?有爆发力他就不怕",
"titleSummary" : "罗斯复出奥巴马发推欢迎 15中4?有爆发力他就不怕",
"descSummary" : "今天，NBA2013-14赛季常规赛迎来揭幕战，芝加哥公...",
"url" : "http:\/\/go.rss.sina.com.cn\/redirect.php?url=http:\/\/sports.sina.com.cn\/nba\/2013-10-30\/11036858213.shtml",
"pubDate" : "11:03:43",
"enterDate" : "384200:49:36",
"channelId" : "-411210011645084630",
"channelName" : "篮球焦点新闻-新浪体育",
"channelNameSummary" : "篮球焦点新闻-新浪体...",
"channelUrl" : "http:\/\/sports.sina.com.cn\/basketball\/index.shtml",
"author" : "WWW.SINA.COM.CN",
"tags" : [],
"desc" : "今天，NBA2013-14赛季常规赛迎来揭幕战，芝加哥公牛在客场以95-107不敌刚刚领到总冠军戒指的迈阿密热火[微博]。公牛领袖德里克-罗斯[微博]复出，他出战34分钟，15投4中得到12分1篮板4助攻5失误。 罗斯无疑是NBA最顶级的巨星之一，因伤休战18个月后，他终于重回赛场。在....",
"emailed" : False,
"forwarded" : False,
"english" : False
}  , {
"index" : 1,
"articleIndex" : "17283",
"favor" :  False ,
     "read" : False,    
"title" : "众球员喜迎2013-14赛季开启 詹姆斯：我太激动了",
"titleTip" : "众球员喜迎2013-14赛季开启 詹姆斯：我太激动了",
"titleSummary" : "众球员喜迎2013-14赛季开启 詹姆斯：我太激动了",
"descSummary" : "北京时间10月30日，2013-14赛季已经正式拉开帷幕，众...",
"url" : "http:\/\/go.rss.sina.com.cn\/redirect.php?url=http:\/\/sports.sina.com.cn\/nba\/2013-10-30\/10596858202.shtml",
"pubDate" : "10:59:12",
"enterDate" : "384201:15:10",
"channelId" : "-411210011645084630",
"channelName" : "篮球焦点新闻-新浪体育",
"channelNameSummary" : "篮球焦点新闻-新浪体...",
"channelUrl" : "http:\/\/sports.sina.com.cn\/basketball\/index.shtml",
"author" : "WWW.SINA.COM.CN",
"tags" : [],
"desc" : "北京时间10月30日，2013-14赛季已经正式拉开帷幕，众多NBA球员都纷纷在推特上表达了对新赛季的祝愿和期望。 勒布朗-詹姆斯：哇哦！多棒的一天！NBA赛季回来了，我真的太激动了！让我们加油吧！#热火[微博]国度#力争成为伟大 克里斯-保罗[微博]：今天和我的朋友....",
"emailed" : False,
"forwarded" : False,
"english" : False
}  , {
"index" : 2,
"articleIndex" : "17284",
"favor" :  False ,
     "read" : False,    
"title" : "詹皇仅17+6+8有劲没地使 本想挑罗斯怎料一拳已KO",
"titleTip" : "詹皇仅17+6+8有劲没地使 本想挑罗斯怎料一拳已KO",
"titleSummary" : "詹皇仅17+6+8有劲没地使 本想挑罗斯怎料一拳已KO",
"descSummary" : "在2013-14赛季揭幕战的比赛里，迈阿密热火[微博]...",
"url" : "http:\/\/go.rss.sina.com.cn\/redirect.php?url=http:\/\/sports.sina.com.cn\/nba\/2013-10-30\/10576858197.shtml",
"pubDate" : "10:57:27",
"enterDate" : "384200:43:20",
"channelId" : "-411210011645084630",
"channelName" : "篮球焦点新闻-新浪体育",
"channelNameSummary" : "篮球焦点新闻-新浪体...",
"channelUrl" : "http:\/\/sports.sina.com.cn\/basketball\/index.shtml",
"author" : "WWW.SINA.COM.CN",
"tags" : [],
"desc" : "在2013-14赛季揭幕战的比赛里，迈阿密热火[微博]主场107-95轻松击败芝加哥公牛。由于球队整体表现出色，勒布朗-詹姆斯仅仅在第二节爆发了一下就率队甩开了对手，让后面的比赛波澜不惊。最终他11投5中贡献17分6个篮板8次助攻。 在连续三年闯进总决赛两度捧杯之后，现在....",
"emailed" : False,
"forwarded" : False,
"english" : False
}  , {
"index" : 3,
"articleIndex" : "17282",
"favor" :  False ,
     "read" : False,    
"title" : "广东内线外援确定：2米06辽宁旧将 CBA场均16+8",
"titleTip" : "广东内线外援确定：2米06辽宁旧将 CBA场均16+8",
"titleSummary" : "广东内线外援确定：2米06辽宁旧将 CBA场均16+8",
"descSummary" : "北京时间10月30日，据悉广东队内线外援的人选已经...",
"url" : "http:\/\/go.rss.sina.com.cn\/redirect.php?url=http:\/\/sports.sina.com.cn\/cba\/2013-10-30\/10186858116.shtml",
"pubDate" : "10:18:32",
"enterDate" : "384201:04:35",
"channelId" : "-411210011645084630",
"channelName" : "篮球焦点新闻-新浪体育",
"channelNameSummary" : "篮球焦点新闻-新浪体...",
"channelUrl" : "http:\/\/sports.sina.com.cn\/basketball\/index.shtml",
"author" : "WWW.SINA.COM.CN",
"tags" : [],
"desc" : "北京时间10月30日，据悉广东队内线外援的人选已经确定，是身高2米06曾在辽宁队效力过的约什-鲍威尔，2011-2012他在辽宁队场均能贡献16.6分和8.3个篮板。就在昨天美国媒体《RealGM》爆料广东小外援为卡里夫-怀艾特，如果消息属实，那么广东两个外援就已经全部确定。 约....",
"emailed" : False,
"forwarded" : False,
"english" : False
}  , {
"index" : 4,
"articleIndex" : "17281",
"favor" :  False ,
     "read" : False,    
"title" : "乔治投中新赛季首球献24分 步行者揭幕战轻取魔术",
"titleTip" : "乔治投中新赛季首球献24分 步行者揭幕战轻取魔术",
"titleSummary" : "乔治投中新赛季首球献24分 步行者揭幕战轻取魔术",
"descSummary" : "北京时间10月30日，NBA2013-14赛季常规赛开打，步...",
"url" : "http:\/\/go.rss.sina.com.cn\/redirect.php?url=http:\/\/sports.sina.com.cn\/nba\/2013-10-30\/09406857989.shtml",
"pubDate" : "09:40:21",
"enterDate" : "384200:56:29",
"channelId" : "-411210011645084630",
"channelName" : "篮球焦点新闻-新浪体育",
"channelNameSummary" : "篮球焦点新闻-新浪体...",
"channelUrl" : "http:\/\/sports.sina.com.cn\/basketball\/index.shtml",
"author" : "WWW.SINA.COM.CN",
"tags" : [],
"desc" : "北京时间10月30日，NBA2013-14赛季常规赛开打，步行者打响第一炮，在主场以97-87击败了魔术。 步行者大将丹尼-格兰杰缺阵，新赛季的前一两周都不能上。保罗-乔治投中了新赛季的第一球，全场贡献24分、6个篮板和5次助攻，兰斯-斯蒂芬森19分、7个篮板和5次助攻，大卫-韦....",
"emailed" : False,
"forwarded" : False,
"english" : False
}  , {
"index" : 5,
"articleIndex" : "17280",
"favor" :  False ,
     "read" : False,    
"title" : "ESPN专家团预测冠军：热火大热 火箭压马刺赢分区",
"titleTip" : "ESPN专家团预测冠军：热火大热 火箭压马刺赢分区",
"titleSummary" : "ESPN专家团预测冠军：热火大热 火箭压马刺赢分区",
"descSummary" : "北京时间10月30日，据ESPN报道，NBA新赛季在...",
"url" : "http:\/\/go.rss.sina.com.cn\/redirect.php?url=http:\/\/sports.sina.com.cn\/nba\/2013-10-30\/09236857923.shtml",
"pubDate" : "09:23:34",
"enterDate" : "384201:09:47",
"channelId" : "-411210011645084630",
"channelName" : "篮球焦点新闻-新浪体育",
"channelNameSummary" : "篮球焦点新闻-新浪体...",
"channelUrl" : "http:\/\/sports.sina.com.cn\/basketball\/index.shtml",
"author" : "WWW.SINA.COM.CN",
"tags" : [],
"desc" : "北京时间10月30日，据ESPN报道，NBA新赛季在今天迎来揭幕战，ESPN也在继集中28名专家票选常规赛各大奖项后，再度票选出新赛季总冠军及各赛区冠军。卫冕冠军迈阿密热火[微博]以22票的绝度优势再度被视为新赛季总冠军的唯一热门。而火箭在西南区最被看好。 本次票选的投....",
"emailed" : False,
"forwarded" : False,
"english" : False
}  , {
"index" : 6,
"articleIndex" : "17279",
"favor" :  False ,
     "read" : False,    
"title" : "罗斯惊艳一瞬难挡烈焰 后发制人热火半场领先21分",
"titleTip" : "罗斯惊艳一瞬难挡烈焰 后发制人热火半场领先21分",
"titleSummary" : "罗斯惊艳一瞬难挡烈焰 后发制人热火半场领先21分",
"descSummary" : "北京时间10月30日消息，今天NBA2013-2014赛季的大...",
"url" : "http:\/\/go.rss.sina.com.cn\/redirect.php?url=http:\/\/sports.sina.com.cn\/nba\/2013-10-30\/09186857920.shtml",
"pubDate" : "09:18:27",
"enterDate" : "384201:04:40",
"channelId" : "-411210011645084630",
"channelName" : "篮球焦点新闻-新浪体育",
"channelNameSummary" : "篮球焦点新闻-新浪体...",
"channelUrl" : "http:\/\/sports.sina.com.cn\/basketball\/index.shtml",
"author" : "WWW.SINA.COM.CN",
"tags" : [],
"desc" : "北京时间10月30日消息，今天NBA2013-2014赛季的大幕正式拉开。上赛季总冠军迈阿密热火[微博]在主场领取了总冠军戒指，升起了冠军旗帜之后，迎来了新赛季的第一个对手\u2015\u2015芝加哥公牛。 这是一场备受瞩目的对决，无论是球员还是球迷，对于比赛的渴望经过整个夏天的发酵，....",
"emailed" : False,
"forwarded" : False,
"english" : False
}  , {
"index" : 7,
"articleIndex" : "17278",
"favor" :  False ,
     "read" : False,    
"title" : "威少预计两周内正式复出 体型恢复已开始随队训练",
"titleTip" : "威少预计两周内正式复出 体型恢复已开始随队训练",
"titleSummary" : "威少预计两周内正式复出 体型恢复已开始随队训练",
"descSummary" : "北京时间10月30日，据雅虎体育报道，不久前接受膝...",
"url" : "http:\/\/go.rss.sina.com.cn\/redirect.php?url=http:\/\/sports.sina.com.cn\/nba\/2013-10-30\/09156857907.shtml",
"pubDate" : "09:15:42",
"enterDate" : "384201:01:55",
"channelId" : "-411210011645084630",
"channelName" : "篮球焦点新闻-新浪体育",
"channelNameSummary" : "篮球焦点新闻-新浪体...",
"channelUrl" : "http:\/\/sports.sina.com.cn\/basketball\/index.shtml",
"author" : "WWW.SINA.COM.CN",
"tags" : [],
"desc" : "北京时间10月30日，据雅虎体育报道，不久前接受膝盖手术的雷霆队当家控卫拉塞尔-威斯布鲁克[微博]恢复情况良好，他预计将于未来的两周内正式复出。 威少最初是在上赛季季后赛首轮与火箭队的系列赛中不幸受伤的，并且在随后就接受了膝盖修复手术。 但是由于伤情....",
"emailed" : False,
"forwarded" : False,
"english" : False
}  , {
"index" : 8,
"articleIndex" : "17277",
"favor" :  False ,
     "read" : False,    
"title" : "热火冠军戒指刻中文 \u201C牺牲\u201D!这是迈阿密精神(图)",
"titleTip" : "热火冠军戒指刻中文 \u201C牺牲\u201D!这是迈阿密精神(图)",
"titleSummary" : "热火冠军戒指刻中文 \u201C牺牲\u201D!这是迈阿密精神(图)",
"descSummary" : "北京时间10月30日 2013-14赛季NBA常规赛在今天拉...",
"url" : "http:\/\/go.rss.sina.com.cn\/redirect.php?url=http:\/\/sports.sina.com.cn\/nba\/2013-10-30\/09146857903.shtml",
"pubDate" : "09:14:22",
"enterDate" : "384201:00:35",
"channelId" : "-411210011645084630",
"channelName" : "篮球焦点新闻-新浪体育",
"channelNameSummary" : "篮球焦点新闻-新浪体...",
"channelUrl" : "http:\/\/sports.sina.com.cn\/basketball\/index.shtml",
"author" : "WWW.SINA.COM.CN",
"tags" : [],
"desc" : "北京时间10月30日 2013-14赛季NBA常规赛在今天拉开大幕。作为上赛季总冠军得主，迈阿密热火[微博]队在主场对公牛比赛之前领取了自己的新戒指。而这次比较令人意外的是，热火在总冠军戒指上镌刻了中文书写的\u201C牺牲\u201D两个字。 众所周知，自三巨头2010年加盟热火聚义以来....",
"emailed" : False,
"forwarded" : False,
"english" : False
}  , {
"index" : 9,
"articleIndex" : "17276",
"favor" :  False ,
     "read" : False,    
"title" : "科比：质疑让我更有动力 这帮人6年前就说我完了",
"titleTip" : "科比：质疑让我更有动力 这帮人6年前就说我完了",
"titleSummary" : "科比：质疑让我更有动力 这帮人6年前就说我完了",
"descSummary" : "北京时间10月30日，洛杉矶湖人[微博]队今天正式迎来了...",
"url" : "http:\/\/go.rss.sina.com.cn\/redirect.php?url=http:\/\/sports.sina.com.cn\/nba\/2013-10-30\/09016857858.shtml",
"pubDate" : "09:01:11",
"enterDate" : "384200:47:24",
"channelId" : "-411210011645084630",
"channelName" : "篮球焦点新闻-新浪体育",
"channelNameSummary" : "篮球焦点新闻-新浪体...",
"channelUrl" : "http:\/\/sports.sina.com.cn\/basketball\/index.shtml",
"author" : "WWW.SINA.COM.CN",
"tags" : [],
"desc" : "北京时间10月30日，洛杉矶湖人[微博]队今天正式迎来了新赛季的揭幕战，但是他们的当家球星科比[微博]-布莱恩特却无法出场比赛。尽管他自己也不知道何时才能复出，但是在接受雅虎体育著名记者马克-J。斯皮尔斯[微博]的专访时，科比明确表示如果不能够恢复到特别高的水准，他不....",
"emailed" : False,
"forwarded" : False,
"english" : False
}  , {
"index" : 10,
"articleIndex" : "17275",
"favor" :  False ,
     "read" : False,    
"title" : "湖人首发名单出炉：双控卫外线 内线搭档出乎意料",
"titleTip" : "湖人首发名单出炉：双控卫外线 内线搭档出乎意料",
"titleSummary" : "湖人首发名单出炉：双控卫外线 内线搭档出乎意料",
"descSummary" : "北京时间10月30日，10:30湖人[微博]将与快船[微博]开...",
"url" : "http:\/\/go.rss.sina.com.cn\/redirect.php?url=http:\/\/sports.sina.com.cn\/nba\/2013-10-30\/08156857696.shtml",
"pubDate" : "08:15:48",
"enterDate" : "384201:02:11",
"channelId" : "-411210011645084630",
"channelName" : "篮球焦点新闻-新浪体育",
"channelNameSummary" : "篮球焦点新闻-新浪体...",
"channelUrl" : "http:\/\/sports.sina.com.cn\/basketball\/index.shtml",
"author" : "WWW.SINA.COM.CN",
"tags" : [],
"desc" : "北京时间10月30日，10:30湖人[微博]将与快船[微博]开战。湖人已不再是洛杉矶地区的老大，一直被他们压着的快船已全面崛起。两队相遇，缺少科比[微博]-布莱恩特的湖人要为面子和荣誉而战，克里斯-保罗[微博]带领的快船要巩固他们上赛季对湖人建立起的优势。赛前湖人先发阵容已....",
"emailed" : False,
"forwarded" : False,
"english" : False
}  , {
"index" : 11,
"articleIndex" : "17274",
"favor" :  False ,
     "read" : False,    
"title" : "热火全队领取2013总冠军戒指 三巨头经典合影(图)",
"titleTip" : "热火全队领取2013总冠军戒指 三巨头经典合影(图)",
"titleSummary" : "热火全队领取2013总冠军戒指 三巨头经典合影(图)",
"descSummary" : "NBA常规赛揭幕战，迈阿密热火[微博]在主场迎战芝加...",
"url" : "http:\/\/go.rss.sina.com.cn\/redirect.php?url=http:\/\/sports.sina.com.cn\/nba\/2013-10-30\/07566857673.shtml",
"pubDate" : "07:56:49",
"enterDate" : "384201:13:17",
"channelId" : "-411210011645084630",
"channelName" : "篮球焦点新闻-新浪体育",
"channelNameSummary" : "篮球焦点新闻-新浪体...",
"channelUrl" : "http:\/\/sports.sina.com.cn\/basketball\/index.shtml",
"author" : "WWW.SINA.COM.CN",
"tags" : [],
"desc" : "NBA常规赛揭幕战，迈阿密热火[微博]在主场迎战芝加哥公牛，赛前，热火主场举办了盛大的NBA总冠军戒指颁发仪式。 热火的总冠军戒指颁发仪式可谓奢华异常。首先，热火主场关闭所有大灯，只有现场数万球迷手中的荧光棒闪烁，营造出星星点灯的奢华气场。随后，伴随着低沉而....",
"emailed" : False,
"forwarded" : False,
"english" : False
}  , {
"index" : 12,
"articleIndex" : "17273",
"favor" :  False ,
     "read" : False,    
"title" : "热火揭幕战首发：三巨头整装待发 哈队小查辅佐",
"titleTip" : "热火揭幕战首发：三巨头整装待发 哈队小查辅佐",
"titleSummary" : "热火揭幕战首发：三巨头整装待发 哈队小查辅佐",
"descSummary" : "2013-14赛季的NBA大幕马上就将正式拉起，在卫冕冠军...",
"url" : "http:\/\/go.rss.sina.com.cn\/redirect.php?url=http:\/\/sports.sina.com.cn\/nba\/2013-10-30\/07036857648.shtml",
"pubDate" : "07:03:39",
"enterDate" : "384200:50:12",
"channelId" : "-411210011645084630",
"channelName" : "篮球焦点新闻-新浪体育",
"channelNameSummary" : "篮球焦点新闻-新浪体...",
"channelUrl" : "http:\/\/sports.sina.com.cn\/basketball\/index.shtml",
"author" : "WWW.SINA.COM.CN",
"tags" : [],
"desc" : "2013-14赛季的NBA大幕马上就将正式拉起，在卫冕冠军迈阿密热火力图继续改写辉煌纪录的同时，德里克-罗斯和他的芝加哥公牛也希望能结束热火对东区的统治。在揭幕战的比赛中，两支球队将狭路相逢，争个高下。 热火首发：詹姆斯、波什、韦德、哈斯勒姆、查尔默斯",
"emailed" : False,
"forwarded" : False,
"english" : False
}  , {
"index" : 13,
"articleIndex" : "17272",
"favor" :  False ,
     "read" : False,    
"title" : "媒曝江苏答应韩硕留守八一 新球票含芯片难倒黄牛",
"titleTip" : "媒曝江苏答应韩硕留守八一 新球票含芯片难倒黄牛",
"titleSummary" : "媒曝江苏答应韩硕留守八一 新球票含芯片难倒黄牛",
"descSummary" : "昨日，2013-2014CBA[微博]宁波赛区新闻通气会召开...",
"url" : "http:\/\/go.rss.sina.com.cn\/redirect.php?url=http:\/\/sports.sina.com.cn\/cba\/2013-10-30\/06346857608.shtml",
"pubDate" : "06:34:18",
"enterDate" : "384200:50:56",
"channelId" : "-411210011645084630",
"channelName" : "篮球焦点新闻-新浪体育",
"channelNameSummary" : "篮球焦点新闻-新浪体...",
"channelUrl" : "http:\/\/sports.sina.com.cn\/basketball\/index.shtml",
"author" : "WWW.SINA.COM.CN",
"tags" : [],
"desc" : "昨日，2013-2014CBA[微博]宁波赛区新闻通气会召开。会上八一富邦[微博]俱乐部总经理徐积为[微博]就本赛季球队阵容、赛季目标，以及门票等事宜一一作了介绍。&#160;&#160;&#160;&#160; ［揭幕战］ 八一主场对阵吉林 季前赛，韩硕[微博]在八一双鹿打得风生....",
"emailed" : False,
"forwarded" : False,
"english" : False
}  , {
"index" : 14,
"articleIndex" : "17271",
"favor" :  False ,
     "read" : False,    
"title" : "德隆确定将出战明日揭幕战 直面超新星PG谁更强？",
"titleTip" : "德隆确定将出战明日揭幕战 直面超新星PG谁更强？",
"titleSummary" : "德隆确定将出战明日揭幕战 直面超新星PG谁更强？",
"descSummary" : "北京时间10月30日，根据ESPN的报道，布鲁克林篮网...",
"url" : "http:\/\/go.rss.sina.com.cn\/redirect.php?url=http:\/\/sports.sina.com.cn\/nba\/2013-10-30\/05496857560.shtml",
"pubDate" : "05:49:53",
"enterDate" : "384201:06:41",
"channelId" : "-411210011645084630",
"channelName" : "篮球焦点新闻-新浪体育",
"channelNameSummary" : "篮球焦点新闻-新浪体...",
"channelUrl" : "http:\/\/sports.sina.com.cn\/basketball\/index.shtml",
"author" : "WWW.SINA.COM.CN",
"tags" : [],
"desc" : "北京时间10月30日，根据ESPN的报道，布鲁克林篮网队控卫德隆-威廉姆斯，确定可以出战明天与骑士的揭幕战。 此前由于脚踝伤势的困扰，德隆错过了篮网大部分的训练营和季前赛，直到上一场与热火[微博]的季前赛，他才上演了自己新赛季的首秀，在10分钟内砍下11分，表现出....",
"emailed" : False,
"forwarded" : False,
"english" : False
}  , {
"index" : 15,
"articleIndex" : "17270",
"favor" :  False ,
     "read" : False,    
"title" : "甜瓜无视巴克利批评 称计划帮尼克斯招募自由球员",
"titleTip" : "甜瓜无视巴克利批评 称计划帮尼克斯招募自由球员",
"titleSummary" : "甜瓜无视巴克利批评 称计划帮尼克斯招募自由球员",
"descSummary" : "北京时间10月30日，据《纽约邮报》报道，尼克斯当...",
"url" : "http:\/\/go.rss.sina.com.cn\/redirect.php?url=http:\/\/sports.sina.com.cn\/nba\/2013-10-30\/05416857548.shtml",
"pubDate" : "05:41:22",
"enterDate" : "384200:58:10",
"channelId" : "-411210011645084630",
"channelName" : "篮球焦点新闻-新浪体育",
"channelNameSummary" : "篮球焦点新闻-新浪体...",
"channelUrl" : "http:\/\/sports.sina.com.cn\/basketball\/index.shtml",
"author" : "WWW.SINA.COM.CN",
"tags" : [],
"desc" : "北京时间10月30日，据《纽约邮报》报道，尼克斯当家球星卡梅罗-安东尼[微博]不久前公开谈论明年的自由球员市场，结果在舆论中引起热议。昨天，担任TNT评论员的查尔斯-巴克利就在《NBA内幕》这档节目中毫不客气地批评了安东尼的做法。对此，甜瓜今天当众表态，称自己正计划招募....",
"emailed" : False,
"forwarded" : False,
"english" : False
}  , {
"index" : 16,
"articleIndex" : "17269",
"favor" :  False ,
     "read" : False,    
"title" : "小牛总经理上任3月即离职 此前曾供职火箭管理层",
"titleTip" : "小牛总经理上任3月即离职 此前曾供职火箭管理层",
"titleSummary" : "小牛总经理上任3月即离职 此前曾供职火箭管理层",
"descSummary" : "北京时间10月30日，根据ESPN的报道，小牛队今天官方...",
"url" : "http:\/\/go.rss.sina.com.cn\/redirect.php?url=http:\/\/sports.sina.com.cn\/nba\/2013-10-30\/05116857521.shtml",
"pubDate" : "昨天05:11:52",
"enterDate" : "384200:58:45",
"channelId" : "-411210011645084630",
"channelName" : "篮球焦点新闻-新浪体育",
"channelNameSummary" : "篮球焦点新闻-新浪体...",
"channelUrl" : "http:\/\/sports.sina.com.cn\/basketball\/index.shtml",
"author" : "WWW.SINA.COM.CN",
"tags" : [],
"desc" : "北京时间10月30日，根据ESPN的报道，小牛队今天官方宣布球队总经理吉尔森-罗萨斯已经离职。 小牛队明天就将迎来与老鹰的揭幕战，考虑到罗萨斯上任的时间，这次人事变动就更显得突然，罗萨斯仅仅来到小牛3个多月，他此前一直在火箭管理层任职。 小牛队雇用罗萨斯....",
"emailed" : False,
"forwarded" : False,
"english" : False
}  , {
"index" : 17,
"articleIndex" : "17268",
"favor" :  False ,
     "read" : False,    
"title" : "德帅：和科比合作像驾驭赛马 我们有希望进季后赛",
"titleTip" : "德帅：和科比合作像驾驭赛马 我们有希望进季后赛",
"titleSummary" : "德帅：和科比合作像驾驭赛马 我们有希望进季后赛",
"descSummary" : "北京时间10月30日，洛杉矶湖人[微博]队主帅迈克-德...",
"url" : "http:\/\/go.rss.sina.com.cn\/redirect.php?url=http:\/\/sports.sina.com.cn\/nba\/2013-10-30\/04536857509.shtml",
"pubDate" : "昨天04:53:39",
"enterDate" : "384200:40:32",
"channelId" : "-411210011645084630",
"channelName" : "篮球焦点新闻-新浪体育",
"channelNameSummary" : "篮球焦点新闻-新浪体...",
"channelUrl" : "http:\/\/sports.sina.com.cn\/basketball\/index.shtml",
"author" : "WWW.SINA.COM.CN",
"tags" : [],
"desc" : "北京时间10月30日，洛杉矶湖人[微博]队主帅迈克-德安东尼在近日接受ESPN的电台采访时主要谈论了他对科比[微博]的看法以及双方这一年来的合作。与此同时，他也承认对于目前这支湖人队而言，打进季后赛是一项非常艰巨的任务。 一直以来，科比总是会被拿来与那些NBA历史上....",
"emailed" : False,
"forwarded" : False,
"english" : False
}  , {
"index" : 18,
"articleIndex" : "17267",
"favor" :  False ,
     "read" : False,    
"title" : "赌城博彩公司开盘：76人太阳垫底 湖人难赢35场",
"titleTip" : "赌城博彩公司开盘：76人太阳垫底 湖人难赢35场",
"titleSummary" : "赌城博彩公司开盘：76人太阳垫底 湖人难赢35场",
"descSummary" : "北京时间10月30日，据美联社报道，费城76人队下定决...",
"url" : "http:\/\/go.rss.sina.com.cn\/redirect.php?url=http:\/\/sports.sina.com.cn\/nba\/2013-10-30\/04146857436.shtml",
"pubDate" : "昨天04:14:08",
"enterDate" : "384201:01:11",
"channelId" : "-411210011645084630",
"channelName" : "篮球焦点新闻-新浪体育",
"channelNameSummary" : "篮球焦点新闻-新浪体...",
"channelUrl" : "http:\/\/sports.sina.com.cn\/basketball\/index.shtml",
"author" : "WWW.SINA.COM.CN",
"tags" : [],
"desc" : "北京时间10月30日，据美联社报道，费城76人队下定决心在新赛季摆烂早已不是什么秘密，而根据赌城拉斯维加斯的博彩公司最新开出的新赛季常规赛胜场数的赔率，76人无可争议地排名最低，胜场数仅为16.5场。 据资深的赔率制定者杰夫-谢尔曼回忆，16.5场应该是过去10年来拉....",
"emailed" : False,
"forwarded" : False,
"english" : False
}  , {
"index" : 19,
"articleIndex" : "17266",
"favor" :  False ,
     "read" : False,    
"title" : "宫鲁鸣回应体测质疑：没弄虚作假 篮协出力不讨好",
"titleTip" : "宫鲁鸣回应体测质疑：没弄虚作假 篮协出力不讨好",
"titleSummary" : "宫鲁鸣回应体测质疑：没弄虚作假 篮协出力不讨好",
"descSummary" : "围绕体测争议总是不断，昨天，篮管中心运动管理部部...",
"url" : "http:\/\/go.rss.sina.com.cn\/redirect.php?url=http:\/\/sports.sina.com.cn\/cba\/2013-10-30\/02476857379.shtml",
"pubDate" : "昨天02:47:00",
"enterDate" : "384200:34:13",
"channelId" : "-411210011645084630",
"channelName" : "篮球焦点新闻-新浪体育",
"channelNameSummary" : "篮球焦点新闻-新浪体...",
"channelUrl" : "http:\/\/sports.sina.com.cn\/basketball\/index.shtml",
"author" : "WWW.SINA.COM.CN",
"tags" : [],
"desc" : "围绕体测争议总是不断，昨天，篮管中心运动管理部部长、主抓体测工作的宫鲁鸣接受本报独家专访时对疑问一一作出解读。 质疑一：补测为何全程封闭？ 某专业媒体质疑，在正式体测时，把央视拉来进行报道，但却在最后的补测环节中全程封闭，篮协所要达到的，难道只....",
"emailed" : False,
"forwarded" : False,
"english" : False
} ]
}
