{
"mode" : {"viewTitle" : 1,   "viewNew" : 0,  "pageIndex" : 1 },
 "channel" : {"id" : "5346628395947776664", "booked" : False, "subNumber" : 1, "name" : "独家-新浪博客", "url" : "http:\/\/blog.sina.com.cn\/", "feed" : "http:\/\/rss.sina.com.cn\/blog\/index\/exc.xml", "author" : "京虎子,公方彬,刘丽朵,单之蔷,周鸿t,天涯海角客...", "desc" : "独家博客列表", "imageUrl" : "http:\/\/www.sinaimg.cn\/blog\/main\/index2010\/blog_logo.png", "postPerWeek" : "0", "lastCrawTime" : "2013年10月13日 (2周前)", "crawDateTime" : "2013年10月13日 (2周前)", "lastHttpCode" : "200"}, "page" : {
"startIndex" : 0,
"totalCount" : 5000,
"pageIndex" : 1,
"lastPage" : 250,
"pageSize" : 20,
"english" :  False },
 "unreadNum" : 0, "shotIndex" : -1,
"articles" : [
{
"index" : 0,
"articleIndex" : "10626",
"favor" :  False ,
     "read" : False,    
"title" : "怎样和外国人解释我们在\u201C韬光养晦\u201D",
"titleTip" : "怎样和外国人解释我们在\u201C韬光养晦\u201D",
"titleSummary" : "怎样和外国人解释我们在\u201C韬光养晦\u201D",
"descSummary" : "话说李总理在文?会见美国国务卿克里，按照老套路说了这么一句...",
"url" : "http:\/\/go.rss.sina.com.cn\/redirect.php?url=http:\/\/blog.sina.com.cn\/s\/blog_48670cb20102eviu.html",
"pubDate" : "2013年10月12日 (2周前)",
"enterDate" : "384198:54:23",
"channelId" : "5346628395947776664",
"channelName" : "独家-新浪博客",
"channelNameSummary" : "独家-新浪博客",
"channelUrl" : "http:\/\/blog.sina.com.cn\/",
"author" : "翟华博客",
"tags" : [],
"desc" : "话说李总理在文?会见美国国务卿克里，按照老套路说了这么一句很中式的官话：\u201C中国是世界上最大的发展中国家（Chinaisthelargestdevel......&gt;&gt;点击查看新浪博客原文青春就应该这样绽放游戏测试：三国时期谁是你最好的兄弟！！你不得不信的星座秘密",
"emailed" : False,
"forwarded" : False,
"english" : False
}  , {
"index" : 1,
"articleIndex" : "10627",
"favor" :  False ,
     "read" : False,    
"title" : "琢磨先生脱口秀：爆笑教育部新规",
"titleTip" : "琢磨先生脱口秀：爆笑教育部新规",
"titleSummary" : "琢磨先生脱口秀：爆笑教育部新规",
"descSummary" : "今天咱们聊聊教育这个话题。咱们从幼儿园一路说到大学毕业，我们不...",
"url" : "http:\/\/go.rss.sina.com.cn\/redirect.php?url=http:\/\/blog.sina.com.cn\/s\/blog_634392670101fzb8.html",
"pubDate" : "2013年10月12日 (2周前)",
"enterDate" : "384186:56:45",
"channelId" : "5346628395947776664",
"channelName" : "独家-新浪博客",
"channelNameSummary" : "独家-新浪博客",
"channelUrl" : "http:\/\/blog.sina.com.cn\/",
"author" : "琢磨先生",
"tags" : [],
"desc" : "今天咱们聊聊教育这个话题。咱们从幼儿园一路说到大学毕业，我们不谈研究生博士这个阶段，因为我觉得这两个学历不属于教育话题，应该是属于婚姻的话题。 幼儿园最让人讨厌的一句话就是：不要让孩子输在起跑线上。如果你不是刘翔的父母，你真的没必要太在意这句话。刘翔的父母现在估计也有些后悔，起跑线并不是最重要的，中...",
"emailed" : False,
"forwarded" : False,
"english" : False
}  , {
"index" : 2,
"articleIndex" : "10621",
"favor" :  False ,
     "read" : False,    
"title" : "闾丘露薇：香港大学选校长风波",
"titleTip" : "闾丘露薇：香港大学选校长风波",
"titleSummary" : "闾丘露薇：香港大学选校长风波",
"descSummary" : "华商报专栏  香港大学最终选择了一名英国人马斐森出任校长，这是港大...",
"url" : "http:\/\/go.rss.sina.com.cn\/redirect.php?url=http:\/\/blog.sina.com.cn\/s\/blog_46e9d5da0102e6r5.html",
"pubDate" : "2013年10月12日 (2周前)",
"enterDate" : "384199:59:01",
"channelId" : "5346628395947776664",
"channelName" : "独家-新浪博客",
"channelNameSummary" : "独家-新浪博客",
"channelUrl" : "http:\/\/blog.sina.com.cn\/",
"author" : "闾丘露薇",
"tags" : [],
"desc" : "华商报专栏 ----------------- 香港大学最终选择了一名英国人马斐森出任校长，这是港大四十一年来第一次由非华裔人士担任校长。几名港大教授表示不满，理由是对......&gt;&gt;点击查看新浪博客原文青春就应该这样绽放游戏测试：三国时期谁是你最好的兄弟！！你不得不信的星座秘密",
"emailed" : False,
"forwarded" : False,
"english" : False
}  , {
"index" : 3,
"articleIndex" : "10625",
"favor" :  False ,
     "read" : False,    
"title" : "公方彬：反腐难以突破的深层原因",
"titleTip" : "公方彬：反腐难以突破的深层原因",
"titleSummary" : "公方彬：反腐难以突破的深层原因",
"descSummary" : "再谈反腐路径和方法 当媒体将张曙光参选院士行贿数千万元的事件披...",
"url" : "http:\/\/go.rss.sina.com.cn\/redirect.php?url=http:\/\/blog.sina.com.cn\/s\/blog_b27eeb8f0101gasm.html",
"pubDate" : "2013年10月12日 (2周前)",
"enterDate" : "384197:09:55",
"channelId" : "5346628395947776664",
"channelName" : "独家-新浪博客",
"channelNameSummary" : "独家-新浪博客",
"channelUrl" : "http:\/\/blog.sina.com.cn\/",
"author" : "公方彬",
"tags" : [],
"desc" : "再谈反腐路径和方法 当媒体将张曙光参选院士行贿数千万元的事件披露出来，也就意味着中国再无净土。这看似可怕，且让人沮丧，但以辩证思维看待问题，未必不是反腐拐点的到来，因为其中有一个物极必反的原理存在。 今天，要不要反腐，已经不成其为问题，因为中央一再明示反腐决心，人民群众更有强烈的反腐愿望和热情。但如...",
"emailed" : False,
"forwarded" : False,
"english" : False
}  , {
"index" : 4,
"articleIndex" : "10617",
"favor" :  False ,
     "read" : False,    
"title" : "余姚实拍：街面水位从膝盖降至脚脖",
"titleTip" : "余姚实拍：街面水位从膝盖降至脚脖",
"titleSummary" : "余姚实拍：街面水位从膝盖降至脚脖",
"descSummary" : "聚焦浙江余姚百年一遇特大水灾（2013年10月11日下午拍摄） 拍摄...",
"url" : "http:\/\/go.rss.sina.com.cn\/redirect.php?url=http:\/\/blog.sina.com.cn\/s\/blog_496707200101auir.html",
"pubDate" : "2013年10月12日 (2周前)",
"enterDate" : "384196:25:00",
"channelId" : "5346628395947776664",
"channelName" : "独家-新浪博客",
"channelNameSummary" : "独家-新浪博客",
"channelUrl" : "http:\/\/blog.sina.com.cn\/",
"author" : "钟建红",
"tags" : [],
"desc" : "聚焦浙江余姚百年一遇特大水灾（2013年10月11日下午拍摄） 拍摄时间：10月12日10:00?11:10 图片说明：一路上，我看到舟山、绍兴、杭州、宁波等地赶来的相关单位为余姚市水灾的减灾工作辛勤地工作，向这些最可爱的人致敬！！！在网络上，看到全国各地网友声援余姚灾区、牵挂余姚灾情，对此十分感动。特别是全省各地兄弟县...",
"emailed" : False,
"forwarded" : False,
"english" : False
}  , {
"index" : 5,
"articleIndex" : "10620",
"favor" :  False ,
     "read" : False,    
"title" : "心理学家：选秀学员造型首选狐狸精",
"titleTip" : "心理学家：选秀学员造型首选狐狸精",
"titleSummary" : "心理学家：选秀学员造型首选狐狸精",
"descSummary" : "一个父亲看完《中国好声音》给儿子的一封信 儿子： 你问老爸为什...",
"url" : "http:\/\/go.rss.sina.com.cn\/redirect.php?url=http:\/\/blog.sina.com.cn\/s\/blog_49187b200101royr.html",
"pubDate" : "2013年10月12日 (2周前)",
"enterDate" : "384193:54:25",
"channelId" : "5346628395947776664",
"channelName" : "独家-新浪博客",
"channelNameSummary" : "独家-新浪博客",
"channelUrl" : "http:\/\/blog.sina.com.cn\/",
"author" : "张结海",
"tags" : [],
"desc" : "一个父亲看完《中国好声音》给儿子的一封信 儿子： 你问老爸为什么看好声音总是蜻蜓点水？原因很简单，我不是为了听歌（我也听不懂）；大概是职业病吧，我是试图用心理学分析点什么。以下是我的发现，说给你们听听： 狐狸精法则 好声音迄今为止最大的赢家学员是谁？当然是吴莫愁。那么吴莫愁成功的原因...",
"emailed" : False,
"forwarded" : False,
"english" : False
}  , {
"index" : 6,
"articleIndex" : "10624",
"favor" :  False ,
     "read" : False,    
"title" : "印度看性：女方嫁妆少婚后可能受虐待",
"titleTip" : "印度看性：女方嫁妆少婚后可能受虐待",
"titleSummary" : "印度看性：女方嫁妆少婚后可能受虐待",
"descSummary" : "印度看性之2 ：性的多元存在 方刚 文\/图 从传统中走出的印度，...",
"url" : "http:\/\/go.rss.sina.com.cn\/redirect.php?url=http:\/\/blog.sina.com.cn\/s\/blog_467a5c960102e6db.html",
"pubDate" : "2013年10月12日 (2周前)",
"enterDate" : "384190:43:22",
"channelId" : "5346628395947776664",
"channelName" : "独家-新浪博客",
"channelNameSummary" : "独家-新浪博客",
"channelUrl" : "http:\/\/blog.sina.com.cn\/",
"author" : "方刚",
"tags" : [],
"desc" : "印度看性之2 ：性的多元存在 方刚 文\/图 从传统中走出的印度，在性与亲密关系的领域，同样带着传统的痕迹，也展现着面向当今世界的新姿态。 在恋爱和婚姻......&gt;&gt;点击查看新浪博客原文青春就应该这样绽放游戏测试：三国时期谁是你最好的兄弟！！你不得不信的星座秘密",
"emailed" : False,
"forwarded" : False,
"english" : False
}  , {
"index" : 7,
"articleIndex" : "10619",
"favor" :  False ,
     "read" : False,    
"title" : "央视问民有多爱国不如问官有多爱民",
"titleTip" : "央视问民有多爱国不如问官有多爱民",
"titleSummary" : "央视问民有多爱国不如问官有多爱民",
"descSummary" : "央视问民有多爱国不如问官有多爱民？央视记者满大街找中国人的幸...",
"url" : "http:\/\/go.rss.sina.com.cn\/redirect.php?url=http:\/\/blog.sina.com.cn\/s\/blog_3eac66f90102e900.html",
"pubDate" : "2013年10月12日 (2周前)",
"enterDate" : "384192:37:09",
"channelId" : "5346628395947776664",
"channelName" : "独家-新浪博客",
"channelNameSummary" : "独家-新浪博客",
"channelUrl" : "http:\/\/blog.sina.com.cn\/",
"author" : "天涯海角客",
"tags" : [],
"desc" : "央视问民有多爱国不如问官有多爱民？ 央视记者满大街找中国人的幸福，找爱国的中国人，逢人便问\u201C你幸福吗？\u201D\u201C你爱国吗？\u201D然而，国民幸福不幸福，爱不爱国不是问出来，而是从现实中实践出来，我说我幸福，但看到那些上访被精神病，被关押，有理无处说的人来说，你说他们会感到幸...",
"emailed" : False,
"forwarded" : False,
"english" : False
}  , {
"index" : 8,
"articleIndex" : "10615",
"favor" :  False ,
     "read" : False,    
"title" : "放假建议：应该增加三伏假取消五一",
"titleTip" : "放假建议：应该增加三伏假取消五一",
"titleSummary" : "放假建议：应该增加三伏假取消五一",
"descSummary" : "今年的十一，全国的一些景点被挤得一塌糊涂，九寨沟等地方甚至出...",
"url" : "http:\/\/go.rss.sina.com.cn\/redirect.php?url=http:\/\/blog.sina.com.cn\/s\/blog_6cb9c9250101c08u.html",
"pubDate" : "2013年10月12日 (2周前)",
"enterDate" : "384199:13:23",
"channelId" : "5346628395947776664",
"channelName" : "独家-新浪博客",
"channelNameSummary" : "独家-新浪博客",
"channelUrl" : "http:\/\/blog.sina.com.cn\/",
"author" : "李龙吟",
"tags" : [],
"desc" : "今年的十一，全国的一些景点被挤得一塌糊涂，九寨沟等地方甚至出现了游客和景区管理方的冲突。于是，有关方面出来搞民调，而且民调的结果好象是老百姓对放长假不满。如果取消了长假，这是可民意。 我敢说，没有老百姓会同意取消放假，连雷锋都会利用假期去拾粪，可见雷锋也是愿意放假的。因此，用民众对长假拥堵的不满来说...",
"emailed" : False,
"forwarded" : False,
"english" : False
}  , {
"index" : 9,
"articleIndex" : "10618",
"favor" :  False ,
     "read" : False,    
"title" : "美国每年20万人因空气污染过早死亡",
"titleTip" : "美国每年20万人因空气污染过早死亡",
"titleSummary" : "美国每年20万人因空气污染过早死亡",
"descSummary" : "今年八月，麻省理工学院航空和环境实验室公布了一项研究结果，根...",
"url" : "http:\/\/go.rss.sina.com.cn\/redirect.php?url=http:\/\/blog.sina.com.cn\/s\/blog_4bd08c4501019vqu.html",
"pubDate" : "2013年10月12日 (2周前)",
"enterDate" : "384190:54:44",
"channelId" : "5346628395947776664",
"channelName" : "独家-新浪博客",
"channelNameSummary" : "独家-新浪博客",
"channelUrl" : "http:\/\/blog.sina.com.cn\/",
"author" : "京虎子",
"tags" : [],
"desc" : "今年八月，麻省理工学院航空和环境实验室公布了一项研究结果，根据他们对废气排放的研究发现，全美每年死于空气污染的达20万人。在诸多污染源中，汽车尾气占首位，为53000人，其次是发电，52000人。 按州统计，加州最糟，每年21000人因为空气污染而早逝。对全美5965个城市的废气进行分析，发现巴尔的摩最糟，每年每10万人...",
"emailed" : False,
"forwarded" : False,
"english" : False
}  , {
"index" : 10,
"articleIndex" : "10614",
"favor" :  False ,
     "read" : False,    
"title" : "知情人：状元刘丁宁为何弃港大复读",
"titleTip" : "知情人：状元刘丁宁为何弃港大复读",
"titleSummary" : "知情人：状元刘丁宁为何弃港大复读",
"descSummary" : "因为我在2013年8月23日曾经发表过一则跟刘丁宁有关的微博，被无...",
"url" : "http:\/\/go.rss.sina.com.cn\/redirect.php?url=http:\/\/blog.sina.com.cn\/s\/blog_66392de50102egnr.html",
"pubDate" : "2013年10月12日 (2周前)",
"enterDate" : "384191:33:16",
"channelId" : "5346628395947776664",
"channelName" : "独家-新浪博客",
"channelNameSummary" : "独家-新浪博客",
"channelUrl" : "http:\/\/blog.sina.com.cn\/",
"author" : "刘丽朵",
"tags" : [],
"desc" : "因为我在2013年8月23日曾经发表过一则跟刘丁宁有关的微博，被无所不能的记者们翻到了，从10日晚上开始，陆续有媒体同我联系，想询问我对于刘丁宁从港大退学回本溪复读一事的看法。10日晚，我对采访的媒体说，希望他们不要报道此事，以免影响孩子平静学习的心情。然而11日早上，发现新闻已经铺天盖地了，而且自己的那则微博...",
"emailed" : False,
"forwarded" : False,
"english" : False
}  , {
"index" : 11,
"articleIndex" : "10613",
"favor" :  False ,
     "read" : False,    
"title" : "美国人眼中的新疆是什么样(图)",
"titleTip" : "美国人眼中的新疆是什么样(图)",
"titleSummary" : "美国人眼中的新疆是什么样(图)",
"descSummary" : "美国人眼中的新疆是什么样？撰文\/单之蔷 强烈的侧光勾勒出画面中人物的...",
"url" : "http:\/\/go.rss.sina.com.cn\/redirect.php?url=http:\/\/blog.sina.com.cn\/s\/blog_48bb0d010102e93u.html",
"pubDate" : "2013年10月11日 (2周前)",
"enterDate" : "384184:59:47",
"channelId" : "5346628395947776664",
"channelName" : "独家-新浪博客",
"channelNameSummary" : "独家-新浪博客",
"channelUrl" : "http:\/\/blog.sina.com.cn\/",
"author" : "单之蔷",
"tags" : [],
"desc" : "美国人眼中的新疆是什么样？ 撰文\/单之蔷 强烈的侧光勾勒出画面中人物的的面部轮廓，长长的睫毛和鬓角的发丝纤毫毕现，如果不是她头戴美丽的\u201C库勒塔\u201D帽，我们很难辨别其身份。这是一位塔吉克族姑娘，照片拍摄于帕米尔高原一条叫做札莱甫相的河谷，摄影师刘湘晨十多年来一直在记录生活在那里的塔吉克人。美国国家地理在19...",
"emailed" : False,
"forwarded" : False,
"english" : False
}  , {
"index" : 12,
"articleIndex" : "10616",
"favor" :  False ,
     "read" : False,    
"title" : "方舟子：诺贝尔为什么没有设数学奖",
"titleTip" : "方舟子：诺贝尔为什么没有设数学奖",
"titleSummary" : "方舟子：诺贝尔为什么没有设数学奖",
"descSummary" : "（2013年10月11日腾讯微博微访谈） 飞得更高小盆友 : #方舟子程...",
"url" : "http:\/\/go.rss.sina.com.cn\/redirect.php?url=http:\/\/blog.sina.com.cn\/s\/blog_474068790102eaks.html",
"pubDate" : "2013年10月11日 (2周前)",
"enterDate" : "384180:48:41",
"channelId" : "5346628395947776664",
"channelName" : "独家-新浪博客",
"channelNameSummary" : "独家-新浪博客",
"channelUrl" : "http:\/\/blog.sina.com.cn\/",
"author" : "方舟子",
"tags" : [],
"desc" : "（2013年10月11日腾讯微博微访谈） 飞得更高小盆友 : #方舟子程鹗聊诺贝尔奖#方先生：请问韩寒、 郭敬明有可能获诺贝尔文学奖吗？ 方舟子 : 他们有可能获得搞......&gt;&gt;点击查看新浪博客原文青春就应该这样绽放游戏测试：三国时期谁是你最好的兄弟！！你不得不信的星座秘密",
"emailed" : False,
"forwarded" : False,
"english" : False
}  , {
"index" : 13,
"articleIndex" : "10623",
"favor" :  False ,
     "read" : False,    
"title" : "谢百三教授：旗帜鲜明地反对遗产税",
"titleTip" : "谢百三教授：旗帜鲜明地反对遗产税",
"titleSummary" : "谢百三教授：旗帜鲜明地反对遗产税",
"descSummary" : "旗帜鲜明地反对遗产税 ----兼谈本周股市 复旦大学金融与资本市场研...",
"url" : "http:\/\/go.rss.sina.com.cn\/redirect.php?url=http:\/\/blog.sina.com.cn\/s\/blog_46facb4d0102e9ww.html",
"pubDate" : "2013年10月11日 (2周前)",
"enterDate" : "384172:30:33",
"channelId" : "5346628395947776664",
"channelName" : "独家-新浪博客",
"channelNameSummary" : "独家-新浪博客",
"channelUrl" : "http:\/\/blog.sina.com.cn\/",
"author" : "谢百三",
"tags" : [],
"desc" : "旗帜鲜明地反对遗产税 ----兼谈本周股市 复旦大学金融与资本市场研究中心主任 谢百三教授 遗产税一夜之间风传一夜之间消失： 中国的......&gt;&gt;点击查看新浪博客原文青春就应该这样绽放游戏测试：三国时期谁是你最好的兄弟！！你不得不信的星座秘密",
"emailed" : False,
"forwarded" : False,
"english" : False
}  , {
"index" : 14,
"articleIndex" : "10612",
"favor" :  False ,
     "read" : False,    
"title" : "石述思：我们该向日本学什么？",
"titleTip" : "石述思：我们该向日本学什么？",
"titleSummary" : "石述思：我们该向日本学什么？",
"descSummary" : "我先后去过多次日本，最近一次是2013年3月，最重要的活动是与日本百...",
"url" : "http:\/\/go.rss.sina.com.cn\/redirect.php?url=http:\/\/blog.sina.com.cn\/s\/blog_4fcb878a0102fnhc.html",
"pubDate" : "2013年10月11日 (2周前)",
"enterDate" : "384196:47:05",
"channelId" : "5346628395947776664",
"channelName" : "独家-新浪博客",
"channelNameSummary" : "独家-新浪博客",
"channelUrl" : "http:\/\/blog.sina.com.cn\/",
"author" : "石述思",
"tags" : [],
"desc" : "我先后去过多次日本，最近一次是2013年3月，最重要的活动是与日本百名博友对话。由于钓鱼岛纷争日益炽烈，这次出访显得比往日特别。到达那......&gt;&gt;点击查看新浪博客原文青春就应该这样绽放游戏测试：三国时期谁是你最好的兄弟！！你不得不信的星座秘密",
"emailed" : False,
"forwarded" : False,
"english" : False
}  , {
"index" : 15,
"articleIndex" : "10609",
"favor" :  False ,
     "read" : False,    
"title" : "周鸿t：为什么投资人都很严厉",
"titleTip" : "周鸿t：为什么投资人都很严厉",
"titleSummary" : "周鸿t：为什么投资人都很严厉",
"descSummary" : "融资是创业的关键一步。很多年轻的创业者和朋友说豪言壮语时，像竹筒倒...",
"url" : "http:\/\/go.rss.sina.com.cn\/redirect.php?url=http:\/\/blog.sina.com.cn\/s\/blog_49f9228d0101eoeo.html",
"pubDate" : "2013年10月11日 (2周前)",
"enterDate" : "384200:19:17",
"channelId" : "5346628395947776664",
"channelName" : "独家-新浪博客",
"channelNameSummary" : "独家-新浪博客",
"channelUrl" : "http:\/\/blog.sina.com.cn\/",
"author" : "周鸿t",
"tags" : [],
"desc" : "融资是创业的关键一步。很多年轻的创业者和朋友说豪言壮语时，像竹筒倒豆子一样干脆利索。但当面对咄咄逼人的投资人时，却又变成了茶壶里煮饺子??有嘴道(倒)不出，免不了会经历几次融资失败。有的人会因此灰心沮丧。我创业也经历过这样的阶段，所以以一个过来人的身份给大家一些忠告：要有平常心态，\u201C宝剑锋从磨砺出\u201D，要...",
"emailed" : False,
"forwarded" : False,
"english" : False
}  , {
"index" : 16,
"articleIndex" : "10610",
"favor" :  False ,
     "read" : False,    
"title" : "冒死卧底一年揭秘神秘杀马特家族(图)",
"titleTip" : "冒死卧底一年揭秘神秘杀马特家族(图)",
"titleSummary" : "冒死卧底一年揭秘神秘杀马特家族(图)",
"descSummary" : "前言 （本帖原创作者天涯ID：蓝色的风车。新浪微薄ID：邪猫Y。原...",
"url" : "http:\/\/go.rss.sina.com.cn\/redirect.php?url=http:\/\/blog.sina.com.cn\/s\/blog_64d983700101mda2.html",
"pubDate" : "2013年10月11日 (2周前)",
"enterDate" : "384191:19:05",
"channelId" : "5346628395947776664",
"channelName" : "独家-新浪博客",
"channelNameSummary" : "独家-新浪博客",
"channelUrl" : "http:\/\/blog.sina.com.cn\/",
"author" : "邪猫Y",
"tags" : [],
"desc" : "前言 （本帖原创作者天涯ID：蓝色的风车。新浪微薄ID：邪猫Y。原帖在天涯连载，在这里作者的问答、杀家的日志等内容，都按章节编号，而且改了一些错字和笔误，更加方便大家的阅读。由于帖子太长，长微博也有字数限制，我打算整理成几个长微博来发，先发前十章。） 说起杀马特这个群体，相信你印象最深的就是他们那夸张艳...",
"emailed" : False,
"forwarded" : False,
"english" : False
}  , {
"index" : 17,
"articleIndex" : "10608",
"favor" :  False ,
     "read" : False,    
"title" : "利比亚博主：总理被绑架出门很危险",
"titleTip" : "利比亚博主：总理被绑架出门很危险",
"titleSummary" : "利比亚博主：总理被绑架出门很危险",
"descSummary" : "好消息！刚收到林先生电话，说总理被释放了。具体的情形，电话信...",
"url" : "http:\/\/go.rss.sina.com.cn\/redirect.php?url=http:\/\/blog.sina.com.cn\/s\/blog_4a0326d40102ep41.html",
"pubDate" : "2013年10月10日 (2周前)",
"enterDate" : "384178:36:08",
"channelId" : "5346628395947776664",
"channelName" : "独家-新浪博客",
"channelNameSummary" : "独家-新浪博客",
"channelUrl" : "http:\/\/blog.sina.com.cn\/",
"author" : "木容",
"tags" : [],
"desc" : "好消息！刚收到林先生电话，说总理被释放了。具体的情形，电话信号太糟糕，听不清。可无论如何，这应该是一个利好消息吧！下面写的，还是总理没有被释放之前的事情。有兴趣的同志们还是可以看看的。 早上，麦基迪阴沉着脸进了办公室，对我们说，利比亚的总理今天早上被穆斯林兄弟会绑架了！ 虽说最近这些日子，绑架案频发...",
"emailed" : False,
"forwarded" : False,
"english" : False
}  , {
"index" : 18,
"articleIndex" : "10611",
"favor" :  False ,
     "read" : False,    
"title" : "美国人为什么不热衷于学外语",
"titleTip" : "美国人为什么不热衷于学外语",
"titleSummary" : "美国人为什么不热衷于学外语",
"descSummary" : "美国人学外语吗？ 姚鸿恩 美国人都知道这段有名的调侃：\u201C如果你会说三...",
"url" : "http:\/\/go.rss.sina.com.cn\/redirect.php?url=http:\/\/blog.sina.com.cn\/s\/blog_5f64d98d0102edee.html",
"pubDate" : "2013年10月10日 (2周前)",
"enterDate" : "384174:17:28",
"channelId" : "5346628395947776664",
"channelName" : "独家-新浪博客",
"channelNameSummary" : "独家-新浪博客",
"channelUrl" : "http:\/\/blog.sina.com.cn\/",
"author" : "姚鸿恩",
"tags" : [],
"desc" : "美国人学外语吗？ 姚鸿恩 美国人都知道这段有名的调侃：\u201C如果你会说三种语言，那你是三语人才；如果你会说两种语言，那你是双语人才；如果你只会说一种语言，那你就是美国人。\u201D （If you can speak three languages, you are trilingual. If you can speak two languages, you are bilingual. If you can speak only on...",
"emailed" : False,
"forwarded" : False,
"english" : False
}  , {
"index" : 19,
"articleIndex" : "10622",
"favor" :  False ,
     "read" : False,    
"title" : "花总：最难忘记的一次独食经历",
"titleTip" : "花总：最难忘记的一次独食经历",
"titleSummary" : "花总：最难忘记的一次独食经历",
"descSummary" : "三十之前，我好交际，几乎没有一顿饭是自己吃的。三十以后，除了必须...",
"url" : "http:\/\/go.rss.sina.com.cn\/redirect.php?url=http:\/\/blog.sina.com.cn\/s\/blog_8d79b6b10101njy8.html",
"pubDate" : "2013年10月5日 (3周前)",
"enterDate" : "384035:34:01",
"channelId" : "5346628395947776664",
"channelName" : "独家-新浪博客",
"channelNameSummary" : "独家-新浪博客",
"channelUrl" : "http:\/\/blog.sina.com.cn\/",
"author" : "花总",
"tags" : [],
"desc" : "三十之前，我好交际，几乎没有一顿饭是自己吃的。三十以后，除了必须的应酬，我越来越少参与饭局。一人在外，独食渐成常态。 好吃的秉性却依然未改，或循各色人等的推荐，或学神农尝百草的田野作风，一家家吃过去，再一家家吃回来。等到四季菜单都尝遍了，便又过了一年。 传统中餐厅，但凡不是苍蝇馆子，很少有落单的食客...",
"emailed" : False,
"forwarded" : False,
"english" : False
} ]
}
