{
"mode" : {"viewTitle" : 1,   "viewNew" : 0,  "pageIndex" : 2 },
 "channel" : {"id" : "5346628395947776664", "booked" : False, "subNumber" : 1, "name" : "独家-新浪博客", "url" : "http:\/\/blog.sina.com.cn\/", "feed" : "http:\/\/rss.sina.com.cn\/blog\/index\/exc.xml", "author" : "京虎子,公方彬,刘丽朵,单之蔷,周鸿t,天涯海角客...", "desc" : "独家博客列表", "imageUrl" : "http:\/\/www.sinaimg.cn\/blog\/main\/index2010\/blog_logo.png", "postPerWeek" : "0", "lastCrawTime" : "2013年10月13日 (2周前)", "crawDateTime" : "2013年10月13日 (2周前)", "lastHttpCode" : "200"}, "page" : {
"startIndex" : 20,
"totalCount" : 5000,
"pageIndex" : 2,
"lastPage" : 250,
"pageSize" : 20,
"english" :  False },
 "unreadNum" : 0, "shotIndex" : -1,
"articles" : [
{
"index" : 0,
"articleIndex" : "10607",
"favor" :  False ,
     "read" : False,    
"title" : "王干：村上春树为什么得不到诺奖",
"titleTip" : "王干：村上春树为什么得不到诺奖",
"titleSummary" : "王干：村上春树为什么得不到诺奖",
"descSummary" : "村上春树不得奖，是对诺奖的最好维护 王干 记得四五年前，也是诺贝...",
"url" : "http:\/\/go.rss.sina.com.cn\/redirect.php?url=http:\/\/blog.sina.com.cn\/s\/blog_47458e650101gnmf.html",
"pubDate" : "2013年10月11日 (2周前)",
"enterDate" : "384200:05:12",
"channelId" : "5346628395947776664",
"channelName" : "独家-新浪博客",
"channelNameSummary" : "独家-新浪博客",
"channelUrl" : "http:\/\/blog.sina.com.cn\/",
"author" : "王干",
"tags" : [],
"desc" : "村上春树不得奖，是对诺奖的最好维护 王干 记得四五年前，也是诺贝尔文学奖的前夜，有记者问我，让我预测诺贝尔文学奖的得主，我说，谁得我猜不到，但我知道村上春树肯定得不到，她很吃惊，为什么？今年村上春树的呼声很高的。我说，诺贝尔文学奖的得主，一般是在得奖之后畅销的，很少畅销以后得奖的。 今年，有...",
"emailed" : False,
"forwarded" : False,
"english" : False
}  , {
"index" : 1,
"articleIndex" : "10605",
"favor" :  False ,
     "read" : False,    
"title" : "韩松落：门罗小说《逃离》魅力何在",
"titleTip" : "韩松落：门罗小说《逃离》魅力何在",
"titleSummary" : "韩松落：门罗小说《逃离》魅力何在",
"descSummary" : "爱丽丝?门罗的《逃离》 韩松落 想当然地觉得《逃离》是一本长篇...",
"url" : "http:\/\/go.rss.sina.com.cn\/redirect.php?url=http:\/\/blog.sina.com.cn\/s\/blog_44b0d9f50101ozdk.html",
"pubDate" : "2013年10月11日 (2周前)",
"enterDate" : "384198:48:14",
"channelId" : "5346628395947776664",
"channelName" : "独家-新浪博客",
"channelNameSummary" : "独家-新浪博客",
"channelUrl" : "http:\/\/blog.sina.com.cn\/",
"author" : "韩松落",
"tags" : [],
"desc" : "爱丽丝?门罗的《逃离》 韩松落 想当然地觉得《逃离》是一本长篇小说，因为中短篇小说集在国内难获出版，更不被普遍患有长篇小说......&gt;&gt;点击查看新浪博客原文青春就应该这样绽放游戏测试：三国时期谁是你最好的兄弟！！你不得不信的星座秘密",
"emailed" : False,
"forwarded" : False,
"english" : False
}  , {
"index" : 2,
"articleIndex" : "10606",
"favor" :  False ,
     "read" : False,    
"title" : "余姚水灾现场最新照：马路如汪洋(图)",
"titleTip" : "余姚水灾现场最新照：马路如汪洋(图)",
"titleSummary" : "余姚水灾现场最新照：马路如汪洋(图)",
"descSummary" : "来自余姚的报道 肖介汉 近日，台风\u201C菲特\u201D给宁波带来了巨大灾难...",
"url" : "http:\/\/go.rss.sina.com.cn\/redirect.php?url=http:\/\/blog.sina.com.cn\/s\/blog_525289e30101hnv3.html",
"pubDate" : "2013年10月11日 (2周前)",
"enterDate" : "384190:14:29",
"channelId" : "5346628395947776664",
"channelName" : "独家-新浪博客",
"channelNameSummary" : "独家-新浪博客",
"channelUrl" : "http:\/\/blog.sina.com.cn\/",
"author" : "飘逸若仙",
"tags" : [],
"desc" : "来自余姚的报道 肖介汉 近日，台风\u201C菲特\u201D给宁波带来了巨大灾难，宁波所辖的余姚市更遭重创。据报道，余姚城区有70%以上地区受淹，交通基本瘫痪。水淹地区不仅停水停电，甚至面临断粮困境，严重的灾情牵动着社会各界的心。 今天上午，我儿陪同儿媳赶往余姚探望仍被困在\u201C水城\u201D中的父母，所见情形与记者报道的...",
"emailed" : False,
"forwarded" : False,
"english" : False
}  , {
"index" : 3,
"articleIndex" : "10604",
"favor" :  False ,
     "read" : False,    
"title" : "教授：诺奖得主门罗早年在厨房写作",
"titleTip" : "教授：诺奖得主门罗早年在厨房写作",
"titleSummary" : "教授：诺奖得主门罗早年在厨房写作",
"descSummary" : "门罗：宝刀不老，炉火纯青 陈晓明 2013年，诺贝尔文学奖授给了已...",
"url" : "http:\/\/go.rss.sina.com.cn\/redirect.php?url=http:\/\/blog.sina.com.cn\/s\/blog_473fffb40101al83.html",
"pubDate" : "2013年10月10日 (2周前)",
"enterDate" : "384189:32:40",
"channelId" : "5346628395947776664",
"channelName" : "独家-新浪博客",
"channelNameSummary" : "独家-新浪博客",
"channelUrl" : "http:\/\/blog.sina.com.cn\/",
"author" : "陈晓明",
"tags" : [],
"desc" : "门罗：宝刀不老，炉火纯青 陈晓明 2013年，诺贝尔文学奖授给了已经82岁高龄的加拿大籍作家爱丽丝\u2022门罗(Alice Munro)，这让一直偏爱以\u201C政治\u201D来说道诺贝尔文学奖的人们，颇有些失望。爱丽丝?门罗可谓是比较纯粹的小说家，虽然她出名的年份是1968年，那一年她37岁，也参加拿大女权主义运动，出版短篇小说集《快乐...",
"emailed" : False,
"forwarded" : False,
"english" : False
}  , {
"index" : 4,
"articleIndex" : "10602",
"favor" :  False ,
     "read" : False,    
"title" : "门罗获诺贝尔文学奖让人意外吗？",
"titleTip" : "门罗获诺贝尔文学奖让人意外吗？",
"titleSummary" : "门罗获诺贝尔文学奖让人意外吗？",
"descSummary" : "爱丽丝-门罗 加拿大女作家门罗获2013年诺贝尔文学奖让人意外吗？洪...",
"url" : "http:\/\/go.rss.sina.com.cn\/redirect.php?url=http:\/\/blog.sina.com.cn\/s\/blog_4a62bfcf0102epqv.html",
"pubDate" : "2013年10月10日 (2周前)",
"enterDate" : "384199:57:01",
"channelId" : "5346628395947776664",
"channelName" : "独家-新浪博客",
"channelNameSummary" : "独家-新浪博客",
"channelUrl" : "http:\/\/blog.sina.com.cn\/",
"author" : "洪烛",
"tags" : [],
"desc" : "爱丽丝-门罗 加拿大女作家门罗获2013年诺贝尔文学奖让人意外吗？ ??洪烛答华夏时报文化生活版主编吴小曼问 吴小曼：洪烛，你好，你觉得门罗获诺贝尔文学奖意外吗？她多是短篇小说，你看过她写的小说吗？ 洪烛：不意外。因为我觉得真正的诺奖就该爆冷门。且不该只颁给宏篇巨制。应该让文学中的十八般兵器都有份。加拿大作家...",
"emailed" : False,
"forwarded" : False,
"english" : False
}  , {
"index" : 5,
"articleIndex" : "10601",
"favor" :  False ,
     "read" : False,    
"title" : "门罗凭啥爆冷获得诺贝尔文学奖？",
"titleTip" : "门罗凭啥爆冷获得诺贝尔文学奖？",
"titleSummary" : "门罗凭啥爆冷获得诺贝尔文学奖？",
"descSummary" : "爱丽丝?门罗凭什么？诺贝尔文学奖再爆黑马 加拿大女作家爱丽丝?门...",
"url" : "http:\/\/go.rss.sina.com.cn\/redirect.php?url=http:\/\/blog.sina.com.cn\/s\/blog_4b812ace0102efb9.html",
"pubDate" : "2013年10月10日 (2周前)",
"enterDate" : "384199:41:26",
"channelId" : "5346628395947776664",
"channelName" : "独家-新浪博客",
"channelNameSummary" : "独家-新浪博客",
"channelUrl" : "http:\/\/blog.sina.com.cn\/",
"author" : "陈启文",
"tags" : [],
"desc" : "爱丽丝?门罗凭什么？ 诺贝尔文学奖再爆黑马 加拿大女作家爱丽丝?门罗 获2013年诺贝尔文学奖 关于2013年诺贝尔文学奖的博弈、赌押与无尽的猜想在10月10日19时以爆炸性的方式走到了尽头，又一个诺贝尔文学奖得主以黑马的方式登台亮相，??瑞典文学院宣布了这一惊爆全世界眼球的结果，将2013年诺贝尔文学奖授予加拿大女作家...",
"emailed" : False,
"forwarded" : False,
"english" : False
}  , {
"index" : 6,
"articleIndex" : "10600",
"favor" :  False ,
     "read" : False,    
"title" : "诺贝尔文学奖获得者爱丽丝・门罗简介",
"titleTip" : "诺贝尔文学奖获得者爱丽丝・门罗简介",
"titleSummary" : "诺贝尔文学奖获得者爱丽丝・门罗简介",
"descSummary" : "谢谢爱丽丝?门罗，给我们带来了2013年的文学圣诞！中新网10月...",
"url" : "http:\/\/go.rss.sina.com.cn\/redirect.php?url=http:\/\/blog.sina.com.cn\/s\/blog_722919460102ecfb.html",
"pubDate" : "2013年10月10日 (2周前)",
"enterDate" : "384198:53:44",
"channelId" : "5346628395947776664",
"channelName" : "独家-新浪博客",
"channelNameSummary" : "独家-新浪博客",
"channelUrl" : "http:\/\/blog.sina.com.cn\/",
"author" : "盛京关捷",
"tags" : [],
"desc" : "谢谢爱丽丝?门罗，给我们带来了2013年的文学圣诞！ 中新网10月10日电 2013年诺贝尔文学奖于瑞典当地时间10月10日下午1时(北京时间10月10日晚7时)揭晓，加拿大作家爱丽丝?门罗（Alice Munro）获此殊荣。 门罗出生在渥太华，大部分时间都在这个安静的城市度过。她的小说写的也都是这个城市郊区小镇中上演的平民中的爱...",
"emailed" : False,
"forwarded" : False,
"english" : False
}  , {
"index" : 7,
"articleIndex" : "10603",
"favor" :  False ,
     "read" : False,    
"title" : "王旭明：爱国话题好但不宜街头采访",
"titleTip" : "王旭明：爱国话题好但不宜街头采访",
"titleSummary" : "王旭明：爱国话题好但不宜街头采访",
"descSummary" : "爱国话题好但不宜街头采访 王旭明 继去年街访百姓\u201C你幸福吗？\u201D...",
"url" : "http:\/\/go.rss.sina.com.cn\/redirect.php?url=http:\/\/blog.sina.com.cn\/s\/blog_53402f740102ehf1.html",
"pubDate" : "2013年10月10日 (2周前)",
"enterDate" : "384186:38:23",
"channelId" : "5346628395947776664",
"channelName" : "独家-新浪博客",
"channelNameSummary" : "独家-新浪博客",
"channelUrl" : "http:\/\/blog.sina.com.cn\/",
"author" : "王旭明",
"tags" : [],
"desc" : "爱国话题好但不宜街头采访 王旭明 继去年街访百姓\u201C你幸福吗？\u201D、今年两会期间询问\u201C你的梦想\u201D之后，刚刚过去的国庆长假，中央电视台又推出街访\u201C你爱国吗？爱国让你想到什么？\u201D系列报道。主题当然不错，问题是记者过于简单的采访方式和粗糙的问答互动，不仅没有使\u201C爱国\u201D这一严肃崇高的话题更深化和更广泛认同，...",
"emailed" : False,
"forwarded" : False,
"english" : False
}  , {
"index" : 8,
"articleIndex" : "10598",
"favor" :  False ,
     "read" : False,    
"title" : "琢磨先生脱口秀：爆笑解说五福临门",
"titleTip" : "琢磨先生脱口秀：爆笑解说五福临门",
"titleSummary" : "琢磨先生脱口秀：爆笑解说五福临门",
"descSummary" : "我们常说一个词：五福临门。你们知道是哪五福吗？家乐福？周大福...",
"url" : "http:\/\/go.rss.sina.com.cn\/redirect.php?url=http:\/\/blog.sina.com.cn\/s\/blog_634392670101fxoy.html",
"pubDate" : "2013年10月10日 (2周前)",
"enterDate" : "384194:10:08",
"channelId" : "5346628395947776664",
"channelName" : "独家-新浪博客",
"channelNameSummary" : "独家-新浪博客",
"channelUrl" : "http:\/\/blog.sina.com.cn\/",
"author" : "琢磨先生",
"tags" : [],
"desc" : "我们常说一个词：五福临门。你们知道是哪五福吗？家乐福？周大福？你们为何要放弃治疗？五福临门出自《书经 洪范》，指的是：长寿、富贵、康宁、好德、善终。我们分别来说道说道。 长寿就是活得久，大家知道平均寿命最长的国家是哪个吧？女人最长寿的国家是日本，2012年日本女人的平均寿命是86.41岁，日本男人的平均寿命没...",
"emailed" : False,
"forwarded" : False,
"english" : False
}  , {
"index" : 9,
"articleIndex" : "10595",
"favor" :  False ,
     "read" : False,    
"title" : "好澹阂煤驮按蠡蒲挤牌低头(组图)",
"titleTip" : "好澹阂煤驮按蠡蒲挤牌低头(组图)",
"titleSummary" : "好澹阂煤驮按蠡蒲挤牌低头(组图)",
"descSummary" : "大黄鸭启动应急预案 为预防大风造成损伤，颐和园大黄鸭紧急启动防风...",
"url" : "http:\/\/go.rss.sina.com.cn\/redirect.php?url=http:\/\/blog.sina.com.cn\/s\/blog_8f6090390101cosz.html",
"pubDate" : "2013年10月10日 (2周前)",
"enterDate" : "384197:31:46",
"channelId" : "5346628395947776664",
"channelName" : "独家-新浪博客",
"channelNameSummary" : "独家-新浪博客",
"channelUrl" : "http:\/\/blog.sina.com.cn\/",
"author" : "颐和园",
"tags" : [],
"desc" : "大黄鸭启动应急预案 为预防大风造成损伤，颐和园大黄鸭紧急启动防风预案，采用人工放气措施，平稳度过大风天气。 10月10日天气预报北京今日有5、6级大风。颐和园大黄鸭展示水域紧邻八方亭，因特殊的地理位置，西面是燕山余脉，外加四围的水域空旷，瞬间风速可达8级。 颐和园大黄鸭体量巨大，高18米，长度21米，高度相...",
"emailed" : False,
"forwarded" : False,
"english" : False
}  , {
"index" : 10,
"articleIndex" : "10591",
"favor" :  False ,
     "read" : False,    
"title" : "马未都：塑料澡盆勾起我儿时回忆",
"titleTip" : "马未都：塑料澡盆勾起我儿时回忆",
"titleSummary" : "马未都：塑料澡盆勾起我儿时回忆",
"descSummary" : "老婆买回一个塑料澡盆，黄色，椭圆的，里面画着一个卡通小熊。我本...",
"url" : "http:\/\/go.rss.sina.com.cn\/redirect.php?url=http:\/\/blog.sina.com.cn\/s\/blog_5054769e0102ebti.html",
"pubDate" : "2013年10月10日 (2周前)",
"enterDate" : "384199:28:12",
"channelId" : "5346628395947776664",
"channelName" : "独家-新浪博客",
"channelNameSummary" : "独家-新浪博客",
"channelUrl" : "http:\/\/blog.sina.com.cn\/",
"author" : "马未都",
"tags" : [],
"desc" : "老婆买回一个塑料澡盆，黄色，椭圆的，里面画着一个卡通小熊。我本以为她是要给猫猫们洗澡用，可她说淋浴时攒水泡脚，一举两得。 &gt;&gt;点击查看新浪博客原文青春就应该这样绽放游戏测试：三国时期谁是你最好的兄弟！！你不得不信的星座秘密",
"emailed" : False,
"forwarded" : False,
"english" : False
}  , {
"index" : 11,
"articleIndex" : "10594",
"favor" :  False ,
     "read" : False,    
"title" : "川大教授邓翔：今晚谁能获诺文学奖",
"titleTip" : "川大教授邓翔：今晚谁能获诺文学奖",
"titleSummary" : "川大教授邓翔：今晚谁能获诺文学奖",
"descSummary" : "今晚诺贝尔文学奖将会揭晓，过几天经济学奖也将揭晓。文学奖是最...",
"url" : "http:\/\/go.rss.sina.com.cn\/redirect.php?url=http:\/\/blog.sina.com.cn\/s\/blog_4a95bfb40101bqee.html",
"pubDate" : "2013年10月10日 (2周前)",
"enterDate" : "384195:05:36",
"channelId" : "5346628395947776664",
"channelName" : "独家-新浪博客",
"channelNameSummary" : "独家-新浪博客",
"channelUrl" : "http:\/\/blog.sina.com.cn\/",
"author" : "邓翔",
"tags" : [],
"desc" : "今晚诺贝尔文学奖将会揭晓，过几天经济学奖也将揭晓。 文学奖是最难预测的奖项，也是争议最大的，因为谁都不知道瑞典皇家委员会的老头们心中的最爱。实际上与许多从未获奖，但已不朽的作家相比，获奖者仅仅是挣得的是书的畅销和名人堂的门票。从目前来看，村上春树是最热门的人选，近5年来，他一直最热门的人选。我看过他...",
"emailed" : False,
"forwarded" : False,
"english" : False
}  , {
"index" : 12,
"articleIndex" : "10593",
"favor" :  False ,
     "read" : False,    
"title" : "美军航母飞行员训练过程大揭秘(图)",
"titleTip" : "美军航母飞行员训练过程大揭秘(图)",
"titleSummary" : "美军航母飞行员训练过程大揭秘(图)",
"descSummary" : "拉莫海军基地在木沟点海军基地北边开车四、五个小时的地方，离海很...",
"url" : "http:\/\/go.rss.sina.com.cn\/redirect.php?url=http:\/\/blog.sina.com.cn\/s\/blog_5dea9fba0101bcq4.html",
"pubDate" : "2013年10月10日 (2周前)",
"enterDate" : "384194:21:02",
"channelId" : "5346628395947776664",
"channelName" : "独家-新浪博客",
"channelNameSummary" : "独家-新浪博客",
"channelUrl" : "http:\/\/blog.sina.com.cn\/",
"author" : "海攀",
"tags" : [],
"desc" : "拉莫海军基地在木沟点海军基地北边开车四、五个小时的地方，离海很远，比较靠近山区，很偏僻，但还是在平原上。这个基地相当大，是美国西海岸所有F-18飞机的家，所有海军的F-18飞行队都驻扎在这个海军基地。 一般F-18飞行队都是要上航空母舰的，所以都算海上工作，但是我去的这个飞行队，属于一个学习驾驶F-18的学校，是专...",
"emailed" : False,
"forwarded" : False,
"english" : False
}  , {
"index" : 13,
"articleIndex" : "10590",
"favor" :  False ,
     "read" : False,    
"title" : "余姚一线报道：超市抢空白菜10元一斤",
"titleTip" : "余姚一线报道：超市抢空白菜10元一斤",
"titleSummary" : "余姚一线报道：超市抢空白菜10元一斤",
"descSummary" : "亲历余姚水灾 一座最幸福城市的迷茫和焦虑 一场意料之外的暴雨...",
"url" : "http:\/\/go.rss.sina.com.cn\/redirect.php?url=http:\/\/blog.sina.com.cn\/s\/blog_62d2d77e0101fq0t.html",
"pubDate" : "2013年10月10日 (3周前)",
"enterDate" : "384192:22:23",
"channelId" : "5346628395947776664",
"channelName" : "独家-新浪博客",
"channelNameSummary" : "独家-新浪博客",
"channelUrl" : "http:\/\/blog.sina.com.cn\/",
"author" : "yiliang314",
"tags" : [],
"desc" : "亲历余姚水灾 一座最幸福城市的迷茫和焦虑 一场意料之外的暴雨，让一座最具幸福感的县城陷入迷茫和焦虑。 位于浙江东部的余姚市属于亚热带季风性湿润气候，台风对这座城市而言并不陌生，在过去的几十年，每年夏季都会有数号台风波及此地。由于离海岸线尚存一定距离，市内有姚江、最良江等三条水系贯穿其中用于调节水位，...",
"emailed" : False,
"forwarded" : False,
"english" : False
}  , {
"index" : 14,
"articleIndex" : "10597",
"favor" :  False ,
     "read" : False,    
"title" : "中国军民打死的最高级别日本鬼子是谁",
"titleTip" : "中国军民打死的最高级别日本鬼子是谁",
"titleSummary" : "中国军民打死的最高级别日本鬼子是谁",
"descSummary" : "中国军民打死日本鬼子最高级将领在广东中山 2013年10\/10 抗日...",
"url" : "http:\/\/go.rss.sina.com.cn\/redirect.php?url=http:\/\/blog.sina.com.cn\/s\/blog_470071c90102e18e.html",
"pubDate" : "2013年10月10日 (3周前)",
"enterDate" : "384181:59:41",
"channelId" : "5346628395947776664",
"channelName" : "独家-新浪博客",
"channelNameSummary" : "独家-新浪博客",
"channelUrl" : "http:\/\/blog.sina.com.cn\/",
"author" : "马鼎盛",
"tags" : [],
"desc" : "中国军民打死日本鬼子最高级将领在广东中山 2013年10\/10 抗日战争胜利纪念日，我在广东中山讲课，看到中国大陆和香港的观众、听众，甚至市民都非常关心......&gt;&gt;点击查看新浪博客原文青春就应该这样绽放游戏测试：三国时期谁是你最好的兄弟！！你不得不信的星座秘密",
"emailed" : False,
"forwarded" : False,
"english" : False
}  , {
"index" : 15,
"articleIndex" : "10592",
"favor" :  False ,
     "read" : False,    
"title" : "比人还懂礼貌的日本奈良小鹿(图)",
"titleTip" : "比人还懂礼貌的日本奈良小鹿(图)",
"titleSummary" : "比人还懂礼貌的日本奈良小鹿(图)",
"descSummary" : "日本古都奈良县，有很多名胜古迹，如唐朝和尚鉴真建立起来的 唐招提...",
"url" : "http:\/\/go.rss.sina.com.cn\/redirect.php?url=http:\/\/blog.sina.com.cn\/s\/blog_56691f5b0101adpo.html",
"pubDate" : "2013年10月9日 (3周前)",
"enterDate" : "384184:37:14",
"channelId" : "5346628395947776664",
"channelName" : "独家-新浪博客",
"channelNameSummary" : "独家-新浪博客",
"channelUrl" : "http:\/\/blog.sina.com.cn\/",
"author" : "旅猿",
"tags" : [],
"desc" : "日本古都奈良县，有很多名胜古迹，如唐朝和尚鉴真建立起来的 唐招提寺，有世界遗产 东大寺等。 本博的主题决定不会介绍这些风光古迹，而是那些稍小的事情。所以今天的主角是日本奈良县的小鹿。 为什么要介绍这些小鹿呢？因为她们比我们有些人还要懂礼貌 。 不信？ 看这个视频先。 上面视频中，一人与小鹿鞠躬，小鹿居然也...",
"emailed" : False,
"forwarded" : False,
"english" : False
}  , {
"index" : 16,
"articleIndex" : "10596",
"favor" :  False ,
     "read" : False,    
"title" : "记者：曝光李天一案那些被屏蔽的消息",
"titleTip" : "记者：曝光李天一案那些被屏蔽的消息",
"titleSummary" : "记者：曝光李天一案那些被屏蔽的消息",
"descSummary" : "李某某案中的媒体责任 柴会群 李某某案今天再报新料，其一审代...",
"url" : "http:\/\/go.rss.sina.com.cn\/redirect.php?url=http:\/\/blog.sina.com.cn\/s\/blog_49b3cb2c0101nmsk.html",
"pubDate" : "2013年10月9日 (3周前)",
"enterDate" : "384178:30:35",
"channelId" : "5346628395947776664",
"channelName" : "独家-新浪博客",
"channelNameSummary" : "独家-新浪博客",
"channelUrl" : "http:\/\/blog.sina.com.cn\/",
"author" : "柴会群",
"tags" : [],
"desc" : "李某某案中的媒体责任 柴会群 李某某案今天再报新料，其一审代理律师陈枢发表声明，表示将不再代理此案二审。陈在声明中委婉质疑了一审判决，称由于我国网络和自媒体的极度发达，本案辩护从庭上发展到庭外，既出乎他的预料，也绝非共所乐见。\u201C趋势的形成不是偶然的，一旦形成，绝非一人或数人所能左右或扭转。\u201D最终导致...",
"emailed" : False,
"forwarded" : False,
"english" : False
}  , {
"index" : 17,
"articleIndex" : "10588",
"favor" :  False ,
     "read" : False,    
"title" : "乔良：美国人通过发行美元控制全世界",
"titleTip" : "乔良：美国人通过发行美元控制全世界",
"titleSummary" : "乔良：美国人通过发行美元控制全世界",
"descSummary" : "美国为何热衷海外战争 受访人：国防大学教授 乔良 采访人：《国...",
"url" : "http:\/\/go.rss.sina.com.cn\/redirect.php?url=http:\/\/blog.sina.com.cn\/s\/blog_5d98f6740102e6ih.html",
"pubDate" : "2013年10月9日 (3周前)",
"enterDate" : "384188:09:12",
"channelId" : "5346628395947776664",
"channelName" : "独家-新浪博客",
"channelNameSummary" : "独家-新浪博客",
"channelUrl" : "http:\/\/blog.sina.com.cn\/",
"author" : "乔良",
"tags" : [],
"desc" : "美国为何热衷海外战争 受访人：国防大学教授 乔良 采访人：《国际先驱导报》记者 梁辉 《国际先驱导报》（以下简称导报）：美国总统奥巴马突然踩住战争刹车，您认为这跟奥巴马本人的个性色彩有关？毕竟他是诺贝尔和平奖获得者。 乔良：跟其前任小布什相比，美国现任总统奥巴马...",
"emailed" : False,
"forwarded" : False,
"english" : False
}  , {
"index" : 18,
"articleIndex" : "10589",
"favor" :  False ,
     "read" : False,    
"title" : "杭州博主：塘栖马路上船来船往(图)",
"titleTip" : "杭州博主：塘栖马路上船来船往(图)",
"titleSummary" : "杭州博主：塘栖马路上船来船往(图)",
"descSummary" : "塘栖又大面积积水 受台风\u201C菲特\u201D影响，10月6--7日连日连夜大雨暴...",
"url" : "http:\/\/go.rss.sina.com.cn\/redirect.php?url=http:\/\/blog.sina.com.cn\/s\/blog_60acb3fb0101lbyy.html",
"pubDate" : "2013年10月9日 (3周前)",
"enterDate" : "384185:50:29",
"channelId" : "5346628395947776664",
"channelName" : "独家-新浪博客",
"channelNameSummary" : "独家-新浪博客",
"channelUrl" : "http:\/\/blog.sina.com.cn\/",
"author" : "柯可",
"tags" : [],
"desc" : "塘栖又大面积积水 受台风\u201C菲特\u201D影响，10月6--7日连日连夜大雨暴雨，降雨量历史罕见，河水顷刻涨了。好些小区、街道大面积积水，措手不及的居民被困在楼上，生活上带来极大的不便。以往黄梅天连续下大雨，街路相对比较低的地段积水，水至小腿，我们叫\u201C满大水\u201D，小孩子乘机去趟水嬉水，不过一般积水不久便会退去，这次...",
"emailed" : False,
"forwarded" : False,
"english" : False
}  , {
"index" : 19,
"articleIndex" : "10599",
"favor" :  False ,
     "read" : False,    
"title" : "说到爱国你会想起什么",
"titleTip" : "说到爱国你会想起什么",
"titleSummary" : "说到爱国你会想起什么",
"descSummary" : "《追梦赤子心》??祝祖国，生日快乐！文：周小平同志 看到央视在国庆节采访路...",
"url" : "http:\/\/go.rss.sina.com.cn\/redirect.php?url=http:\/\/blog.sina.com.cn\/s\/blog_48a082b70101c89n.html",
"pubDate" : "2013年10月1日 (4周前)",
"enterDate" : "383973:09:55",
"channelId" : "5346628395947776664",
"channelName" : "独家-新浪博客",
"channelNameSummary" : "独家-新浪博客",
"channelUrl" : "http:\/\/blog.sina.com.cn\/",
"author" : "周小平",
"tags" : [],
"desc" : "《追梦赤子心》??祝祖国，生日快乐！ 文：周小平同志 看到央视在国庆节采访路人提到\u201C说到爱国你会想起什么？\u201D这个问题，一时让我有些错愕。每个人想起的事情大约都不一样，但对我来说，能想起的事情实在太多太多。 在我小的时候，中国是孱弱的。那时候不但有像英、法、德、日、美、等老牌发达国家凌驾在我们的头上，...",
"emailed" : False,
"forwarded" : False,
"english" : False
} ]
}
