{
"mode" : {"viewTitle" : 1,   "viewNew" : 0,  "pageIndex" : 1 },
 "channel" : {"id" : "-4097969305018802441", "booked" : False, "subNumber" : 37, "name" : "焦点新闻-新浪女性", "url" : "http:\/\/eladies.sina.com.cn", "feed" : "http:\/\/rss.sina.com.cn\/news\/allnews\/eladies.xml", "author" : "SINA.com", "desc" : "女性焦点新闻", "imageUrl" : "http:\/\/www.sinaimg.cn\/home\/deco\/2009\/0330\/logo_home.gif", "postPerWeek" : "0", "lastCrawTime" : "2013年10月15日 (2周前)", "crawDateTime" : "2013年10月15日 (2周前)", "lastHttpCode" : "200"}, "page" : {
"startIndex" : 0,
"totalCount" : 5000,
"pageIndex" : 1,
"lastPage" : 250,
"pageSize" : 20,
"english" :  False },
 "unreadNum" : 0, "shotIndex" : -1,
"articles" : [
{
"index" : 0,
"articleIndex" : "156788",
"favor" :  False ,
     "read" : False,    
"title" : "科学家称吃鼻屎可能有助于增强人体免疫力",
"titleTip" : "科学家称吃鼻屎可能有助于增强人体免疫力",
"titleSummary" : "科学家称吃鼻屎可能有助于增强人体免疫力",
"descSummary" : "导语：据\u201C中央社\u201D报道，加拿大萨斯克其万大学(Universit...",
"url" : "http:\/\/go.rss.sina.com.cn\/redirect.php?url=http:\/\/eladies.sina.com.cn\/news\/2013\/1015\/15231234900.shtml",
"pubDate" : "2013年10月15日 (2周前)",
"enterDate" : "384200:53:58",
"channelId" : "-4097969305018802441",
"channelName" : "焦点新闻-新浪女性",
"channelNameSummary" : "焦点新闻-新浪女性",
"channelUrl" : "http:\/\/eladies.sina.com.cn",
"author" : "SINA.com",
"tags" : [],
"desc" : "导语：据\u201C中央社\u201D报道，加拿大萨斯克其万大学(University of Saskatchewan)生物化学副教授纳柏(Scott Napper)说，最令人讨厌的坏习惯，挖出并吃掉鼻屎，可能对健康有益。 加拿大电视公司(CTV)报导，纳柏指出，几乎大部分的小孩都有股冲动，想要尝尝从鼻子挖出来的东....",
"emailed" : False,
"forwarded" : False,
"english" : False
}  , {
"index" : 1,
"articleIndex" : "156787",
"favor" :  False ,
     "read" : False,    
"title" : "印度男子强奸受伤母牛被拘 母牛因伤死亡",
"titleTip" : "印度男子强奸受伤母牛被拘 母牛因伤死亡",
"titleSummary" : "印度男子强奸受伤母牛被拘 母牛因伤死亡",
"descSummary" : "导语：据美国新闻网站\u201Cyourjewishnews.com\u201D 10月14日报道...",
"url" : "http:\/\/go.rss.sina.com.cn\/redirect.php?url=http:\/\/eladies.sina.com.cn\/news\/2013\/1015\/15211234899.shtml",
"pubDate" : "2013年10月15日 (2周前)",
"enterDate" : "384200:52:31",
"channelId" : "-4097969305018802441",
"channelName" : "焦点新闻-新浪女性",
"channelNameSummary" : "焦点新闻-新浪女性",
"channelUrl" : "http:\/\/eladies.sina.com.cn",
"author" : "SINA.com",
"tags" : [],
"desc" : "导语：据美国新闻网站\u201Cyourjewishnews.com\u201D 10月14日报道，印度55岁的男子穆图在该国南部泰米尔纳德邦的一个火车站旁边强奸了一头受伤的母牛。目前，该名男子已认罪，并因非正常性犯罪行为被警方拘留。 强奸母牛的印度男子穆图 据印度警方称，印度非政府组织蓝十....",
"emailed" : False,
"forwarded" : False,
"english" : False
}  , {
"index" : 2,
"articleIndex" : "156786",
"favor" :  False ,
     "read" : False,    
"title" : "街头上演2新娘争1男闹剧 新郎仅穿内裤",
"titleTip" : "街头上演2新娘争1男闹剧 新郎仅穿内裤",
"titleSummary" : "街头上演2新娘争1男闹剧 新郎仅穿内裤",
"descSummary" : "导语：据台湾东森新闻云网站消息，智利有一段视频描述\u201C2名新...",
"url" : "http:\/\/go.rss.sina.com.cn\/redirect.php?url=http:\/\/eladies.sina.com.cn\/news\/2013\/1015\/15191234898.shtml",
"pubDate" : "2013年10月15日 (2周前)",
"enterDate" : "384200:50:30",
"channelId" : "-4097969305018802441",
"channelName" : "焦点新闻-新浪女性",
"channelNameSummary" : "焦点新闻-新浪女性",
"channelUrl" : "http:\/\/eladies.sina.com.cn",
"author" : "SINA.com",
"tags" : [],
"desc" : "导语：据台湾东森新闻云网站消息，智利有一段视频描述\u201C2名新娘同一时间嫁给1男子\u201D，只见穿婚纱的2名女子在街上互殴，其中一名的礼服还掉了下来，而疑似\u201C祸根\u201D的新郎仅穿着一条内裤，场面非常混乱。 图片来自台湾东森新闻云网站",
"emailed" : False,
"forwarded" : False,
"english" : False
}  , {
"index" : 3,
"articleIndex" : "156785",
"favor" :  False ,
     "read" : False,    
"title" : "最美女胖子两月狂甩60斤 网友吐槽一脸苦相",
"titleTip" : "最美女胖子两月狂甩60斤 网友吐槽一脸苦相",
"titleSummary" : "最美女胖子两月狂甩60斤 网友吐槽一脸苦相",
"descSummary" : "导语：10月11日，某热门健身微博发出一条名为\u201C210斤最美...",
"url" : "http:\/\/go.rss.sina.com.cn\/redirect.php?url=http:\/\/eladies.sina.com.cn\/news\/2013\/1015\/15171234897.shtml",
"pubDate" : "2013年10月15日 (2周前)",
"enterDate" : "384200:48:07",
"channelId" : "-4097969305018802441",
"channelName" : "焦点新闻-新浪女性",
"channelNameSummary" : "焦点新闻-新浪女性",
"channelUrl" : "http:\/\/eladies.sina.com.cn",
"author" : "SINA.com",
"tags" : [],
"desc" : "导语：10月11日，某热门健身微博发出一条名为\u201C210斤最美女胖子两个月成功甩肉60斤\u201D的帖 子，内容为及伟佳在健身房内示范8组减腹健身操，动作标准规范，架势十足。视频中的及伟佳摘下了标志性的黑框眼镜，\u201C长发及腰\u201D的造型也改成利落马尾，身着运动背心和黑色短裤的她较之....",
"emailed" : False,
"forwarded" : False,
"english" : False
}  , {
"index" : 4,
"articleIndex" : "156784",
"favor" :  False ,
     "read" : False,    
"title" : "杜汶泽肉贴L奶AV女优 称难控制生理反应",
"titleTip" : "杜汶泽肉贴L奶AV女优 称难控制生理反应",
"titleSummary" : "杜汶泽肉贴L奶AV女优 称难控制生理反应",
"descSummary" : "导语：据台湾媒体报道，港星杜汶泽近来为三级片《3D豪情》...",
"url" : "http:\/\/go.rss.sina.com.cn\/redirect.php?url=http:\/\/eladies.sina.com.cn\/news\/2013\/1015\/15071234894.shtml",
"pubDate" : "2013年10月15日 (2周前)",
"enterDate" : "384201:08:21",
"channelId" : "-4097969305018802441",
"channelName" : "焦点新闻-新浪女性",
"channelNameSummary" : "焦点新闻-新浪女性",
"channelUrl" : "http:\/\/eladies.sina.com.cn",
"author" : "SINA.com",
"tags" : [],
"desc" : "导语：据台湾媒体报道，港星杜汶泽近来为三级片《3D豪情》发狠甩肉，从大肚男变成肌肉男。昨电影在东京开镜，杜汶泽扮演AV男优，首日大战35岁、拥有L罩杯的AV女优冲田杏梨，他在车厢被巨乳压胸，对方还抓他的手摸奶，试图色诱，尺度颇大。 分食香蕉 合影 新片尺度颇....",
"emailed" : False,
"forwarded" : False,
"english" : False
}  , {
"index" : 5,
"articleIndex" : "156783",
"favor" :  False ,
     "read" : False,    
"title" : "47岁陈雅伦恋39岁富少李思捷 人工受孕",
"titleTip" : "47岁陈雅伦恋39岁富少李思捷 人工受孕",
"titleSummary" : "47岁陈雅伦恋39岁富少李思捷 人工受孕",
"descSummary" : "导语：据香港媒体报道，39岁李思捷与47岁陈雅伦(Ellen)姐弟情由...",
"url" : "http:\/\/go.rss.sina.com.cn\/redirect.php?url=http:\/\/eladies.sina.com.cn\/news\/2013\/1015\/14581234893.shtml",
"pubDate" : "2013年10月15日 (2周前)",
"enterDate" : "384200:58:38",
"channelId" : "-4097969305018802441",
"channelName" : "焦点新闻-新浪女性",
"channelNameSummary" : "焦点新闻-新浪女性",
"channelUrl" : "http:\/\/eladies.sina.com.cn",
"author" : "SINA.com",
"tags" : [],
"desc" : "导语：据香港媒体报道，39岁李思捷与47岁陈雅伦(Ellen)姐弟情由玩玩变认真，原女友春卷惨被踢走。最近更是曝出陈雅伦人工受孕寻求为李家生下儿子的消息。23岁春卷输得起，但47岁伦姨却要分秒必争，为免花心王随时出走，到时孩子又还没生下来，故必须赶紧在最后限期前生宝宝自....",
"emailed" : False,
"forwarded" : False,
"english" : False
}  , {
"index" : 6,
"articleIndex" : "156782",
"favor" :  False ,
     "read" : False,    
"title" : "藏族大妈撞脸毕福剑 毕姥姥惊呆毕姥爷",
"titleTip" : "藏族大妈撞脸毕福剑 毕姥姥惊呆毕姥爷",
"titleSummary" : "藏族大妈撞脸毕福剑 毕姥姥惊呆毕姥爷",
"descSummary" : "导语：今日(11月15日)，央视名嘴韩乔生微博称日前央视星光大道...",
"url" : "http:\/\/go.rss.sina.com.cn\/redirect.php?url=http:\/\/eladies.sina.com.cn\/news\/2013\/1015\/14521234892.shtml",
"pubDate" : "2013年10月15日 (2周前)",
"enterDate" : "384200:52:40",
"channelId" : "-4097969305018802441",
"channelName" : "焦点新闻-新浪女性",
"channelNameSummary" : "焦点新闻-新浪女性",
"channelUrl" : "http:\/\/eladies.sina.com.cn",
"author" : "SINA.com",
"tags" : [],
"desc" : "导语：今日(11月15日)，央视名嘴韩乔生微博称日前央视星光大道节目组接到网友发来的一张照片，称在西藏旅游途中遇到一位藏族大妈，模样儿酷似毕姥爷。而遭遇\u201C毕姥姥\u201D撞脸的毕福剑看到照片后也连声惊呼到＂太像啦！太像啦！＂(新娱) 藏族大妈撞脸毕福剑 毕姥爷也惊呆了",
"emailed" : False,
"forwarded" : False,
"english" : False
}  , {
"index" : 7,
"articleIndex" : "156781",
"favor" :  False ,
     "read" : False,    
"title" : "姚晨素颜凝视儿子显母爱 称\u201C不敢太爱你\u201D",
"titleTip" : "姚晨素颜凝视儿子显母爱 称\u201C不敢太爱你\u201D",
"titleSummary" : "姚晨素颜凝视儿子显母爱 称\u201C不敢太爱你\u201D",
"descSummary" : "导语：今年7月15日，姚晨[微博]诞下一子并取名\u201C小土豆\u201D...",
"url" : "http:\/\/go.rss.sina.com.cn\/redirect.php?url=http:\/\/eladies.sina.com.cn\/news\/2013\/1015\/11141234878.shtml",
"pubDate" : "2013年10月15日 (2周前)",
"enterDate" : "384201:15:45",
"channelId" : "-4097969305018802441",
"channelName" : "焦点新闻-新浪女性",
"channelNameSummary" : "焦点新闻-新浪女性",
"channelUrl" : "http:\/\/eladies.sina.com.cn",
"author" : "SINA.com",
"tags" : [],
"desc" : "导语：今年7月15日，姚晨[微博]诞下一子并取名\u201C小土豆\u201D，小家伙随之也成为大家关注的对象。而姚晨也很大方，经常晒小家伙照片与大家分享。10月14日，姚晨通过 微博再次晒怀抱儿子的照片，并一连发出四 个\u201C不敢太爱\u201D的话语，母爱溢于言表。照片中，姚晨在阳光下抱着儿子，....",
"emailed" : False,
"forwarded" : False,
"english" : False
}  , {
"index" : 8,
"articleIndex" : "156780",
"favor" :  False ,
     "read" : False,    
"title" : "吴佩慈孕胀D奶 自比母猪要5年生3胎",
"titleTip" : "吴佩慈孕胀D奶 自比母猪要5年生3胎",
"titleSummary" : "吴佩慈孕胀D奶 自比母猪要5年生3胎",
"descSummary" : "导语：据台湾媒体报道，35岁吴佩慈[微博]怀女胎5个多月，前天出...",
"url" : "http:\/\/go.rss.sina.com.cn\/redirect.php?url=http:\/\/eladies.sina.com.cn\/news\/2013\/1015\/11011234876.shtml",
"pubDate" : "2013年10月15日 (2周前)",
"enterDate" : "384201:02:26",
"channelId" : "-4097969305018802441",
"channelName" : "焦点新闻-新浪女性",
"channelNameSummary" : "焦点新闻-新浪女性",
"channelUrl" : "http:\/\/eladies.sina.com.cn",
"author" : "SINA.com",
"tags" : [],
"desc" : "导语：据台湾媒体报道，35岁吴佩慈[微博]怀女胎5个多月，前天出席活动穿高跟鞋上阵，她昨解释：\u201C我爱漂亮，但顶多站半小时，一下台就换球鞋。\u201D她胖了4公斤、胸围也胀到D奶。她期盼第2胎是儿子，笑说：\u201C未来我会在5年内生3孩，将过母猪的人生，会一直生。\u201D 吴佩慈 ....",
"emailed" : False,
"forwarded" : False,
"english" : False
}  , {
"index" : 9,
"articleIndex" : "156779",
"favor" :  False ,
     "read" : False,    
"title" : "俄罗斯25岁女歌手整形13次：无法抗拒",
"titleTip" : "俄罗斯25岁女歌手整形13次：无法抗拒",
"titleSummary" : "俄罗斯25岁女歌手整形13次：无法抗拒",
"descSummary" : "导语：据环球网综合报道 据美国新闻网站\u201Codditycentral\u201D10月...",
"url" : "http:\/\/go.rss.sina.com.cn\/redirect.php?url=http:\/\/eladies.sina.com.cn\/news\/2013\/1015\/10561234875.shtml",
"pubDate" : "2013年10月15日 (2周前)",
"enterDate" : "384200:57:48",
"channelId" : "-4097969305018802441",
"channelName" : "焦点新闻-新浪女性",
"channelNameSummary" : "焦点新闻-新浪女性",
"channelUrl" : "http:\/\/eladies.sina.com.cn",
"author" : "SINA.com",
"tags" : [],
"desc" : "导语：据环球网综合报道 据美国新闻网站\u201Codditycentral\u201D10月10日报道，俄罗斯一名现年25岁的女歌手已整形13次，相貌完全改变。 俄罗斯25岁女歌手整形13次 俄罗斯25岁女歌手正面 俄罗斯25岁女歌手练歌 阿廖娜-皮思肯是俄罗斯最受争议的艺人之一。这位年仅25....",
"emailed" : False,
"forwarded" : False,
"english" : False
}  , {
"index" : 10,
"articleIndex" : "156778",
"favor" :  False ,
     "read" : False,    
"title" : "小S陷炒股风波 《康熙》流失4万观众",
"titleTip" : "小S陷炒股风波 《康熙》流失4万观众",
"titleSummary" : "小S陷炒股风波 《康熙》流失4万观众",
"descSummary" : "导语：据台湾媒体报道，小S[微博](徐熙娣)卷入胖达人炒股风波，她...",
"url" : "http:\/\/go.rss.sina.com.cn\/redirect.php?url=http:\/\/eladies.sina.com.cn\/news\/2013\/1015\/10521234874.shtml",
"pubDate" : "2013年10月15日 (2周前)",
"enterDate" : "384200:54:04",
"channelId" : "-4097969305018802441",
"channelName" : "焦点新闻-新浪女性",
"channelNameSummary" : "焦点新闻-新浪女性",
"channelUrl" : "http:\/\/eladies.sina.com.cn",
"author" : "SINA.com",
"tags" : [],
"desc" : "导语：据台湾媒体报道，小S[微博](徐熙娣)卷入胖达人炒股风波，她11日接受检方传唤作证，主持的《康熙来了》首当其冲，7日至11日的收视迅速下滑至平均0.5，比以往少4万4256人收看，惨的是她姊夫汪小菲12日在微博发文想挺她，却因前后2次标示她不同身高而被网友酸\u201C提她身高干....",
"emailed" : False,
"forwarded" : False,
"english" : False
}  , {
"index" : 11,
"articleIndex" : "156777",
"favor" :  False ,
     "read" : False,    
"title" : "男子聚会揭露妻买A货包 妻子喝酒掀衣喂奶",
"titleTip" : "男子聚会揭露妻买A货包 妻子喝酒掀衣喂奶",
"titleSummary" : "男子聚会揭露妻买A货包 妻子喝酒掀衣喂奶",
"descSummary" : "导语：大学毕业后，张明和王美奉子成婚。在十一同学聚会时...",
"url" : "http:\/\/go.rss.sina.com.cn\/redirect.php?url=http:\/\/eladies.sina.com.cn\/qg\/2013\/1015\/10471234873.shtml",
"pubDate" : "2013年10月15日 (2周前)",
"enterDate" : "384200:48:51",
"channelId" : "-4097969305018802441",
"channelName" : "焦点新闻-新浪女性",
"channelNameSummary" : "焦点新闻-新浪女性",
"channelUrl" : "http:\/\/eladies.sina.com.cn",
"author" : "SINA.com",
"tags" : [],
"desc" : "导语：大学毕业后，张明和王美奉子成婚。在十一同学聚会时，丈夫拆穿了媳妇买名牌A货包，而妻子用喝酒喂奶的方式报复\u2026\u2026两个人针锋相对，险些离婚。 结婚仅8个月差点离婚 张明和王美的老家都在外地，两个人大学时相识，从大二开始交往。毕业大概半年左右，两个....",
"emailed" : False,
"forwarded" : False,
"english" : False
}  , {
"index" : 12,
"articleIndex" : "156776",
"favor" :  False ,
     "read" : False,    
"title" : "周渝民被问大S怀孕显尴尬：若真的会恭喜她",
"titleTip" : "周渝民被问大S怀孕显尴尬：若真的会恭喜她",
"titleSummary" : "周渝民被问大S怀孕显尴尬：若真的会恭喜她",
"descSummary" : "导语：据香港媒体报道，杨千米蛱(10月14日)同古天乐及周渝...",
"url" : "http:\/\/go.rss.sina.com.cn\/redirect.php?url=http:\/\/eladies.sina.com.cn\/news\/2013\/1015\/10461234872.shtml",
"pubDate" : "2013年10月15日 (2周前)",
"enterDate" : "384200:47:59",
"channelId" : "-4097969305018802441",
"channelName" : "焦点新闻-新浪女性",
"channelNameSummary" : "焦点新闻-新浪女性",
"channelUrl" : "http:\/\/eladies.sina.com.cn",
"author" : "SINA.com",
"tags" : [],
"desc" : "导语：据香港媒体报道，杨千米蛱(10月14日)同古天乐及周渝民前往上水豪宅为新片《单身男女II》开工，剧组特别为本月21日43岁生日的古天乐提前庆祝。在片中演女富豪的杨千猛嘎叮她与古天乐有正常情侣的亲热戏，问要不要事先向老公丁子高备案？她表示：\u201C没有！老公给我工作....",
"emailed" : False,
"forwarded" : False,
"english" : False
}  , {
"index" : 13,
"articleIndex" : "156775",
"favor" :  False ,
     "read" : False,    
"title" : "网曝男女演员片酬表 李连杰6千万居首",
"titleTip" : "网曝男女演员片酬表 李连杰6千万居首",
"titleSummary" : "网曝男女演员片酬表 李连杰6千万居首",
"descSummary" : "导语：要说这国内行业工资增长最快的就要属演员了，尤其是那些一...",
"url" : "http:\/\/go.rss.sina.com.cn\/redirect.php?url=http:\/\/eladies.sina.com.cn\/news\/2013\/1015\/10401234871.shtml",
"pubDate" : "2013年10月15日 (2周前)",
"enterDate" : "384201:12:20",
"channelId" : "-4097969305018802441",
"channelName" : "焦点新闻-新浪女性",
"channelNameSummary" : "焦点新闻-新浪女性",
"channelUrl" : "http:\/\/eladies.sina.com.cn",
"author" : "SINA.com",
"tags" : [],
"desc" : "导语：要说这国内行业工资增长最快的就要属演员了，尤其是那些一线大腕们，混得好的这工资动辄就翻上个一倍两倍的，有的甚至更多，年薪都以千万计算，真是羡煞其他 各行各业辛苦打拼的人们。10月14日，微博网友\u201C烂片通缉令\u201D曝光国内大腕明星的片酬，李连杰[微博]以单片6千万....",
"emailed" : False,
"forwarded" : False,
"english" : False
}  , {
"index" : 14,
"articleIndex" : "156774",
"favor" :  False ,
     "read" : False,    
"title" : "中国大学十大\u201C校花\u201D名模",
"titleTip" : "中国大学十大\u201C校花\u201D名模",
"titleSummary" : "中国大学十大\u201C校花\u201D名模",
"descSummary" : "",
"url" : "http:\/\/go.rss.sina.com.cn\/redirect.php?url=http:\/\/blog.sina.com.cn\/s\/blog_51138ba00101piu6.html?tj=lady",
"pubDate" : "2013年10月15日 (2周前)",
"enterDate" : "384201:11:06",
"channelId" : "-4097969305018802441",
"channelName" : "焦点新闻-新浪女性",
"channelNameSummary" : "焦点新闻-新浪女性",
"channelUrl" : "http:\/\/eladies.sina.com.cn",
"author" : "SINA.com",
"tags" : [],
"desc" : "",
"emailed" : False,
"forwarded" : False,
"english" : False
}  , {
"index" : 15,
"articleIndex" : "156773",
"favor" :  False ,
     "read" : False,    
"title" : "西欧美女刺青野味十足(图)",
"titleTip" : "西欧美女刺青野味十足(图)",
"titleSummary" : "西欧美女刺青野味十足(图)",
"descSummary" : "",
"url" : "http:\/\/go.rss.sina.com.cn\/redirect.php?url=http:\/\/blog.sina.com.cn\/s\/blog_d9da5b0f0101az0v.html?tj=lady",
"pubDate" : "2013年10月15日 (2周前)",
"enterDate" : "384201:09:42",
"channelId" : "-4097969305018802441",
"channelName" : "焦点新闻-新浪女性",
"channelNameSummary" : "焦点新闻-新浪女性",
"channelUrl" : "http:\/\/eladies.sina.com.cn",
"author" : "SINA.com",
"tags" : [],
"desc" : "",
"emailed" : False,
"forwarded" : False,
"english" : False
}  , {
"index" : 16,
"articleIndex" : "156772",
"favor" :  False ,
     "read" : False,    
"title" : "乌克兰女孩嫁入河南 丈夫死后赡养公婆",
"titleTip" : "乌克兰女孩嫁入河南 丈夫死后赡养公婆",
"titleSummary" : "乌克兰女孩嫁入河南 丈夫死后赡养公婆",
"descSummary" : "导语：一场历时5个月的\u201C最美新乡人\u201D评选，于国庆节前揭晓。...",
"url" : "http:\/\/go.rss.sina.com.cn\/redirect.php?url=http:\/\/eladies.sina.com.cn\/qg\/2013\/1015\/10371234868.shtml",
"pubDate" : "2013年10月15日 (2周前)",
"enterDate" : "384201:08:23",
"channelId" : "-4097969305018802441",
"channelName" : "焦点新闻-新浪女性",
"channelNameSummary" : "焦点新闻-新浪女性",
"channelUrl" : "http:\/\/eladies.sina.com.cn",
"author" : "SINA.com",
"tags" : [],
"desc" : "导语：一场历时5个月的\u201C最美新乡人\u201D评选，于国庆节前揭晓。与以往各类评选不同的是，此次评选不仅当选的20位\u201C最美\u201D多为\u201C草根\u201D，而且在评选过程中，群众自始至终都在担当主角。 乌克兰女孩嫁入河南 丈夫死后赡养公婆 本报记者李虎成 本报通讯员 王高....",
"emailed" : False,
"forwarded" : False,
"english" : False
}  , {
"index" : 17,
"articleIndex" : "156771",
"favor" :  False ,
     "read" : False,    
"title" : "李小冉证清白 指被打记者系主办方安排",
"titleTip" : "李小冉证清白 指被打记者系主办方安排",
"titleSummary" : "李小冉证清白 指被打记者系主办方安排",
"descSummary" : "导语：10月13日，有成都媒体记者通过新浪微博爆料称，李小冉...",
"url" : "http:\/\/go.rss.sina.com.cn\/redirect.php?url=http:\/\/eladies.sina.com.cn\/news\/2013\/1015\/10351234867.shtml",
"pubDate" : "2013年10月15日 (2周前)",
"enterDate" : "384201:07:10",
"channelId" : "-4097969305018802441",
"channelName" : "焦点新闻-新浪女性",
"channelNameSummary" : "焦点新闻-新浪女性",
"channelUrl" : "http:\/\/eladies.sina.com.cn",
"author" : "SINA.com",
"tags" : [],
"desc" : "导语：10月13日，有成都媒体记者通过新浪微博爆料称，李小冉在成都出席某品牌代言活动时，有记者询问流产一事，却突然被主办方人员粗暴打断，并把记者推搡到门外，随后竟还扇了她一耳光。10月14日，有网友通过微博还原事情真相，\u201C掌掴记者\u201D疑似为主办方故意安排，李小冉转发....",
"emailed" : False,
"forwarded" : False,
"english" : False
}  , {
"index" : 18,
"articleIndex" : "156770",
"favor" :  False ,
     "read" : False,    
"title" : "老公出轨后向我炫耀性高潮",
"titleTip" : "老公出轨后向我炫耀性高潮",
"titleSummary" : "老公出轨后向我炫耀性高潮",
"descSummary" : "",
"url" : "http:\/\/go.rss.sina.com.cn\/redirect.php?url=http:\/\/blog.sina.com.cn\/s\/blog_4dfafa5c0102exjl.html?tj=lady",
"pubDate" : "2013年10月15日 (2周前)",
"enterDate" : "384201:03:54",
"channelId" : "-4097969305018802441",
"channelName" : "焦点新闻-新浪女性",
"channelNameSummary" : "焦点新闻-新浪女性",
"channelUrl" : "http:\/\/eladies.sina.com.cn",
"author" : "SINA.com",
"tags" : [],
"desc" : "",
"emailed" : False,
"forwarded" : False,
"english" : False
}  , {
"index" : 19,
"articleIndex" : "156769",
"favor" :  False ,
     "read" : False,    
"title" : "彭丽媛素颜现身恩师追悼会(图)",
"titleTip" : "彭丽媛素颜现身恩师追悼会(图)",
"titleSummary" : "彭丽媛素颜现身恩师追悼会(图)",
"descSummary" : "导语：10月12日，彭丽媛恩师王音璇病逝。\u201C男中音安科\u201D在微博透露，...",
"url" : "http:\/\/go.rss.sina.com.cn\/redirect.php?url=http:\/\/eladies.sina.com.cn\/news\/2013\/1015\/10321234865.shtml",
"pubDate" : "2013年10月15日 (2周前)",
"enterDate" : "384201:03:40",
"channelId" : "-4097969305018802441",
"channelName" : "焦点新闻-新浪女性",
"channelNameSummary" : "焦点新闻-新浪女性",
"channelUrl" : "http:\/\/eladies.sina.com.cn",
"author" : "SINA.com",
"tags" : [],
"desc" : "导语：10月12日，彭丽媛恩师王音璇病逝。\u201C男中音安科\u201D在微博透露，10月14日在王音璇老师的追悼会上，突遇彭丽媛一脸素颜现身，让在场的人员惊讶的目瞪口呆，谢谢师姐为大家做出的榜样。微博中还曝光彭丽媛在追悼会现场的照片以及和恩师给彭丽媛上声乐课时的旧照，看上去既亲....",
"emailed" : False,
"forwarded" : False,
"english" : False
} ]
}
