{
"mode" : {"viewTitle" : 1,   "viewNew" : 0,  "pageIndex" : 2 },
 "channel" : {"id" : "-4097969305018802441", "booked" : False, "subNumber" : 37, "name" : "焦点新闻-新浪女性", "url" : "http:\/\/eladies.sina.com.cn", "feed" : "http:\/\/rss.sina.com.cn\/news\/allnews\/eladies.xml", "author" : "SINA.com", "desc" : "女性焦点新闻", "imageUrl" : "http:\/\/www.sinaimg.cn\/home\/deco\/2009\/0330\/logo_home.gif", "postPerWeek" : "0", "lastCrawTime" : "2013年10月15日 (2周前)", "crawDateTime" : "2013年10月15日 (2周前)", "lastHttpCode" : "200"}, "page" : {
"startIndex" : 20,
"totalCount" : 5000,
"pageIndex" : 2,
"lastPage" : 250,
"pageSize" : 20,
"english" :  False },
 "unreadNum" : 0, "shotIndex" : -1,
"articles" : [
{
"index" : 0,
"articleIndex" : "156768",
"favor" :  False ,
     "read" : False,    
"title" : "刘晓庆为何越老越装嫩？",
"titleTip" : "刘晓庆为何越老越装嫩？",
"titleSummary" : "刘晓庆为何越老越装嫩？",
"descSummary" : "",
"url" : "http:\/\/go.rss.sina.com.cn\/redirect.php?url=http:\/\/blog.sina.com.cn\/s\/blog_573c3a4d0101h0u0.html?tj=lady",
"pubDate" : "2013年10月15日 (2周前)",
"enterDate" : "384201:03:13",
"channelId" : "-4097969305018802441",
"channelName" : "焦点新闻-新浪女性",
"channelNameSummary" : "焦点新闻-新浪女性",
"channelUrl" : "http:\/\/eladies.sina.com.cn",
"author" : "SINA.com",
"tags" : [],
"desc" : "",
"emailed" : False,
"forwarded" : False,
"english" : False
}  , {
"index" : 1,
"articleIndex" : "156767",
"favor" :  False ,
     "read" : False,    
"title" : "妻子行房太频繁不从就翻脸",
"titleTip" : "妻子行房太频繁不从就翻脸",
"titleSummary" : "妻子行房太频繁不从就翻脸",
"descSummary" : "",
"url" : "http:\/\/go.rss.sina.com.cn\/redirect.php?url=http:\/\/blog.sina.com.cn\/s\/blog_4d08765e0102een4.html?tj=lady",
"pubDate" : "2013年10月15日 (2周前)",
"enterDate" : "384201:02:29",
"channelId" : "-4097969305018802441",
"channelName" : "焦点新闻-新浪女性",
"channelNameSummary" : "焦点新闻-新浪女性",
"channelUrl" : "http:\/\/eladies.sina.com.cn",
"author" : "SINA.com",
"tags" : [],
"desc" : "",
"emailed" : False,
"forwarded" : False,
"english" : False
}  , {
"index" : 2,
"articleIndex" : "156766",
"favor" :  False ,
     "read" : False,    
"title" : "韩国综艺美女追求不同 整容成漫画式肉脸",
"titleTip" : "韩国综艺美女追求不同 整容成漫画式肉脸",
"titleSummary" : "韩国综艺美女追求不同 整容成漫画式肉脸",
"descSummary" : "导语：P就P成\u201C蛇精脸\u201D，整容就要\u201C锥子脸\u201D，正当这种\u201C...",
"url" : "http:\/\/go.rss.sina.com.cn\/redirect.php?url=http:\/\/eladies.sina.com.cn\/news\/2013\/1015\/10291234861.shtml",
"pubDate" : "2013年10月15日 (2周前)",
"enterDate" : "384201:01:13",
"channelId" : "-4097969305018802441",
"channelName" : "焦点新闻-新浪女性",
"channelNameSummary" : "焦点新闻-新浪女性",
"channelUrl" : "http:\/\/eladies.sina.com.cn",
"author" : "SINA.com",
"tags" : [],
"desc" : "导语：P就P成\u201C蛇精脸\u201D，整容就要\u201C锥子脸\u201D，正当这种\u201C诡异\u201D审美快速流行时，走在整容前沿的韩国美女却惊爆\u201C漫画脸\u201D，将自己整成了画中人。 整容后的朴有亚像画中走出的人物 朴有亚 整容后的朴有亚像画中的人物 近日，出现在韩国综艺节目中的韩国女生....",
"emailed" : False,
"forwarded" : False,
"english" : False
}  , {
"index" : 3,
"articleIndex" : "156765",
"favor" :  False ,
     "read" : False,    
"title" : "男子与小三分手 伙同妻子追讨百万财产",
"titleTip" : "男子与小三分手 伙同妻子追讨百万财产",
"titleSummary" : "男子与小三分手 伙同妻子追讨百万财产",
"descSummary" : "导语：已婚的张姓香港男子在内地工作期间爱上了年轻靓丽的下属...",
"url" : "http:\/\/go.rss.sina.com.cn\/redirect.php?url=http:\/\/eladies.sina.com.cn\/qg\/2013\/1015\/10291234860.shtml",
"pubDate" : "2013年10月15日 (2周前)",
"enterDate" : "384201:00:41",
"channelId" : "-4097969305018802441",
"channelName" : "焦点新闻-新浪女性",
"channelNameSummary" : "焦点新闻-新浪女性",
"channelUrl" : "http:\/\/eladies.sina.com.cn",
"author" : "SINA.com",
"tags" : [],
"desc" : "导语：已婚的张姓香港男子在内地工作期间爱上了年轻靓丽的下属夏某，并花逾百万为女友购房、买车。两人甜蜜相处5年后感情破裂，张男联合妻子以财产属于夫妻共同所有，赠予行为要得到夫妇俩的同意才有效为由，要求法庭颁令内地女友归还全部财产。法院认为财产属于张某夫妇共同....",
"emailed" : False,
"forwarded" : False,
"english" : False
}  , {
"index" : 4,
"articleIndex" : "156764",
"favor" :  False ,
     "read" : False,    
"title" : "大S自曝有孕后首现身 衣着宽松买育儿书",
"titleTip" : "大S自曝有孕后首现身 衣着宽松买育儿书",
"titleSummary" : "大S自曝有孕后首现身 衣着宽松买育儿书",
"descSummary" : "导语：北京时间10月14日据台湾媒体报道，大S[微博]日前传出...",
"url" : "http:\/\/go.rss.sina.com.cn\/redirect.php?url=http:\/\/eladies.sina.com.cn\/news\/2013\/1015\/07171234839.shtml",
"pubDate" : "2013年10月14日 (2周前)",
"enterDate" : "384187:22:17",
"channelId" : "-4097969305018802441",
"channelName" : "焦点新闻-新浪女性",
"channelNameSummary" : "焦点新闻-新浪女性",
"channelUrl" : "http:\/\/eladies.sina.com.cn",
"author" : "SINA.com",
"tags" : [],
"desc" : "导语：北京时间10月14日据台湾媒体报道，大S[微博]日前传出怀孕1个多月消息，14日下午4点多有台湾媒体记者直击她与老公汪小菲现身书店，两人除了翻阅风水书，购物篮中有本怀孕育儿全书及希腊游记。大S穿着一件白色宽松衬衫，外观看不出有孕，不过她脚踩平底鞋，似乎十分注意安....",
"emailed" : False,
"forwarded" : False,
"english" : False
}  , {
"index" : 5,
"articleIndex" : "156763",
"favor" :  False ,
     "read" : False,    
"title" : "吴尊自曝二胎儿子平安降生 体重3.3公斤",
"titleTip" : "吴尊自曝二胎儿子平安降生 体重3.3公斤",
"titleSummary" : "吴尊自曝二胎儿子平安降生 体重3.3公斤",
"descSummary" : "导语：近日，吴尊公开承认自己已经结婚多年，不仅已经有了一个...",
"url" : "http:\/\/go.rss.sina.com.cn\/redirect.php?url=http:\/\/eladies.sina.com.cn\/news\/2013\/1015\/07171234838.shtml",
"pubDate" : "2013年10月14日 (2周前)",
"enterDate" : "384187:17:49",
"channelId" : "-4097969305018802441",
"channelName" : "焦点新闻-新浪女性",
"channelNameSummary" : "焦点新闻-新浪女性",
"channelUrl" : "http:\/\/eladies.sina.com.cn",
"author" : "SINA.com",
"tags" : [],
"desc" : "导语：近日，吴尊公开承认自己已经结婚多年，不仅已经有了一个两岁的女儿，妻子还怀了二胎。今日凌晨，吴尊发布消息称儿子小尊已经平安降生，重3.3公斤。为了防止一些算命先生预测孩子的未来，所以具体出生日期保密。 吴尊文莱生日时的蛋糕 吴尊 \u201C小尊来到这个....",
"emailed" : False,
"forwarded" : False,
"english" : False
}  , {
"index" : 6,
"articleIndex" : "156762",
"favor" :  False ,
     "read" : False,    
"title" : "汪小菲挺小S闹尴尬 十分钟为其增高2厘米",
"titleTip" : "汪小菲挺小S闹尴尬 十分钟为其增高2厘米",
"titleSummary" : "汪小菲挺小S闹尴尬 十分钟为其增高2厘米",
"descSummary" : "导语：据广州日报报道，汪小菲微博上为小S[微博]挺身而出，...",
"url" : "http:\/\/go.rss.sina.com.cn\/redirect.php?url=http:\/\/eladies.sina.com.cn\/news\/2013\/1015\/07171234837.shtml",
"pubDate" : "2013年10月14日 (2周前)",
"enterDate" : "384187:10:49",
"channelId" : "-4097969305018802441",
"channelName" : "焦点新闻-新浪女性",
"channelNameSummary" : "焦点新闻-新浪女性",
"channelUrl" : "http:\/\/eladies.sina.com.cn",
"author" : "SINA.com",
"tags" : [],
"desc" : "导语：据广州日报报道，汪小菲微博上为小S[微博]挺身而出，仗义执言的行为赢得不少围观者称赞。只不过乐极生悲，有网友截图显示，汪小菲曾发过一条一模一样的微博，结尾处却写着\u201C1米59的姑娘，扛住了。\u201D十分钟后这条微博被删除，重新换上\u201C161的姑娘\u201D，把一段温馨问候弄得....",
"emailed" : False,
"forwarded" : False,
"english" : False
}  , {
"index" : 7,
"articleIndex" : "156761",
"favor" :  False ,
     "read" : False,    
"title" : "知情人士证李小冉确已流产 正在休养中",
"titleTip" : "知情人士证李小冉确已流产 正在休养中",
"titleSummary" : "知情人士证李小冉确已流产 正在休养中",
"descSummary" : "导语：近日，有网友看到李小冉赴医院产检，表情悲痛有哭过的神...",
"url" : "http:\/\/go.rss.sina.com.cn\/redirect.php?url=http:\/\/eladies.sina.com.cn\/news\/2013\/1015\/07171234834.shtml",
"pubDate" : "2013年10月14日 (2周前)",
"enterDate" : "384187:03:36",
"channelId" : "-4097969305018802441",
"channelName" : "焦点新闻-新浪女性",
"channelNameSummary" : "焦点新闻-新浪女性",
"channelUrl" : "http:\/\/eladies.sina.com.cn",
"author" : "SINA.com",
"tags" : [],
"desc" : "导语：近日，有网友看到李小冉赴医院产检，表情悲痛有哭过的神情，疑似流产。10月13日，李小冉出席活动时，提及此事的记者竟遭到主办方粗暴打断，并拉到角落掌掴。14日，记者从知情人士处获知，李小冉确实已经流产，目前正在家中休养。 李小冉出席活动，有记者问及其流产事....",
"emailed" : False,
"forwarded" : False,
"english" : False
}  , {
"index" : 8,
"articleIndex" : "156760",
"favor" :  False ,
     "read" : False,    
"title" : "林峰吴千语情侣装逛街亲热 当众互摸调情",
"titleTip" : "林峰吴千语情侣装逛街亲热 当众互摸调情",
"titleSummary" : "林峰吴千语情侣装逛街亲热 当众互摸调情",
"descSummary" : "导语：据香港媒体HKChannel微博，日前，林峰与吴千语二人...",
"url" : "http:\/\/go.rss.sina.com.cn\/redirect.php?url=http:\/\/eladies.sina.com.cn\/news\/2013\/1015\/07171234832.shtml",
"pubDate" : "2013年10月14日 (2周前)",
"enterDate" : "384186:54:49",
"channelId" : "-4097969305018802441",
"channelName" : "焦点新闻-新浪女性",
"channelNameSummary" : "焦点新闻-新浪女性",
"channelUrl" : "http:\/\/eladies.sina.com.cn",
"author" : "SINA.com",
"tags" : [],
"desc" : "导语：据香港媒体HKChannel微博，日前，林峰与吴千语二人逛街，被拍到一路打情骂俏旁若无人。 林峰吴千语亲昵购物 林峰亲热摸千语BB头 购物后两人到停车场取车 当天下午4点钟左右，林峰开着他那部过百万的玛莎拉蒂跑车，带女友去金钟逛街。林峰把车开到金钟停....",
"emailed" : False,
"forwarded" : False,
"english" : False
}  , {
"index" : 9,
"articleIndex" : "156759",
"favor" :  False ,
     "read" : False,    
"title" : "小S被轰退出主持界 电视台：她会撑过去",
"titleTip" : "小S被轰退出主持界 电视台：她会撑过去",
"titleSummary" : "小S被轰退出主持界 电视台：她会撑过去",
"descSummary" : "导语：据台湾媒体报道，小S[微博]因涉\u201C胖达人\u201D代言不实与...",
"url" : "http:\/\/go.rss.sina.com.cn\/redirect.php?url=http:\/\/eladies.sina.com.cn\/news\/2013\/1015\/07171234830.shtml",
"pubDate" : "2013年10月14日 (2周前)",
"enterDate" : "384186:32:43",
"channelId" : "-4097969305018802441",
"channelName" : "焦点新闻-新浪女性",
"channelNameSummary" : "焦点新闻-新浪女性",
"channelUrl" : "http:\/\/eladies.sina.com.cn",
"author" : "SINA.com",
"tags" : [],
"desc" : "导语：据台湾媒体报道，小S[微博]因涉\u201C胖达人\u201D代言不实与炒股两案遭检调传讯，台湾名嘴周玉蔻日前在TVBS《2100全民开讲》狠批小S不配当公众人物，应离开主持岗位，小S目前只主持中天《康熙来了》，中天13日则表示\u201C相信小S会撑过去\u201D。 小S因胖达人涉及诈欺和内线交易案....",
"emailed" : False,
"forwarded" : False,
"english" : False
}  , {
"index" : 10,
"articleIndex" : "156758",
"favor" :  False ,
     "read" : False,    
"title" : "叶熙祺暧昧录音情挑王力宏 遭粉丝炮轰",
"titleTip" : "叶熙祺暧昧录音情挑王力宏 遭粉丝炮轰",
"titleSummary" : "叶熙祺暧昧录音情挑王力宏 遭粉丝炮轰",
"descSummary" : "导语：据香港媒体报道，\u201C新城嫂\u201D叶熙祺近日趁与郭富城传绯闻...",
"url" : "http:\/\/go.rss.sina.com.cn\/redirect.php?url=http:\/\/eladies.sina.com.cn\/news\/2013\/1015\/07171234828.shtml",
"pubDate" : "2013年10月14日 (2周前)",
"enterDate" : "384186:28:02",
"channelId" : "-4097969305018802441",
"channelName" : "焦点新闻-新浪女性",
"channelNameSummary" : "焦点新闻-新浪女性",
"channelUrl" : "http:\/\/eladies.sina.com.cn",
"author" : "SINA.com",
"tags" : [],
"desc" : "导语：据香港媒体报道，\u201C新城嫂\u201D叶熙祺近日趁与郭富城传绯闻，水涨船高，知名度和工作量提升，有传城城不满叶熙祺经常\u201C放料\u201D而疏远她。叶熙祺多次单方面否认与城城的关系疏离，但原来她早已觅到\u201C新目标\u201D。 叶熙祺上载与王力宏的合照，并附上两段录音，被男方粉丝炮轰....",
"emailed" : False,
"forwarded" : False,
"english" : False
}  , {
"index" : 11,
"articleIndex" : "156757",
"favor" :  False ,
     "read" : False,    
"title" : "林更新深夜甜蜜拥周冬雨 甩富二代女友",
"titleTip" : "林更新深夜甜蜜拥周冬雨 甩富二代女友",
"titleSummary" : "林更新深夜甜蜜拥周冬雨 甩富二代女友",
"descSummary" : "导语：周冬雨走红后何时会谈一场像\u201C山楂树\u201D那样缠绵悱恻的恋...",
"url" : "http:\/\/go.rss.sina.com.cn\/redirect.php?url=http:\/\/eladies.sina.com.cn\/news\/2013\/1015\/07171234826.shtml",
"pubDate" : "2013年10月14日 (2周前)",
"enterDate" : "384183:52:32",
"channelId" : "-4097969305018802441",
"channelName" : "焦点新闻-新浪女性",
"channelNameSummary" : "焦点新闻-新浪女性",
"channelUrl" : "http:\/\/eladies.sina.com.cn",
"author" : "SINA.com",
"tags" : [],
"desc" : "导语：周冬雨走红后何时会谈一场像\u201C山楂树\u201D那样缠绵悱恻的恋爱，成了这位年龄最小的\u201C谋女郎\u201D绕不开的话题，而周冬雨也曾放言\u201C渴望爱情\u201D，现在她终于被\u201C丘比特\u201D的神箭射中了。8月底周冬雨和新晋小生林更新主演的根据同名歌曲改编的电影《同桌的你》在纽约杀青，在片中....",
"emailed" : False,
"forwarded" : False,
"english" : False
}  , {
"index" : 12,
"articleIndex" : "156755",
"favor" :  False ,
     "read" : False,    
"title" : "越南版小龙女曝光 网友：长得像条龙",
"titleTip" : "越南版小龙女曝光 网友：长得像条龙",
"titleSummary" : "越南版小龙女曝光 网友：长得像条龙",
"descSummary" : "导语：自从陈妍希[微博]版小龙女曝光后，网友吐槽如潮，连导演王...",
"url" : "http:\/\/go.rss.sina.com.cn\/redirect.php?url=http:\/\/eladies.sina.com.cn\/news\/2013\/1014\/16321234825.shtml",
"pubDate" : "2013年10月14日 (2周前)",
"enterDate" : "384201:06:29",
"channelId" : "-4097969305018802441",
"channelName" : "焦点新闻-新浪女性",
"channelNameSummary" : "焦点新闻-新浪女性",
"channelUrl" : "http:\/\/eladies.sina.com.cn",
"author" : "SINA.com",
"tags" : [],
"desc" : "导语：自从陈妍希[微博]版小龙女曝光后，网友吐槽如潮，连导演王晶都毒舌地评论：\u201C这么胖的小龙女？\u201D\u201C如果我是杨过，我会娶郭芙，找陆无双当小三，然后请小龙女替我带孩子。\u201D但近日有网友贴出了越南版《神雕侠侣》中的小龙女，其造型立刻让陈妍希重回女神宝座。 越南....",
"emailed" : False,
"forwarded" : False,
"english" : False
}  , {
"index" : 13,
"articleIndex" : "156756",
"favor" :  False ,
     "read" : False,    
"title" : "丈母娘择婿十大标准 物质究竟放在第几位",
"titleTip" : "丈母娘择婿十大标准 物质究竟放在第几位",
"titleSummary" : "丈母娘择婿十大标准 物质究竟放在第几位",
"descSummary" : "导语：近年来，随着经济的增长，物价飞涨，房价猛增，就连男...",
"url" : "http:\/\/go.rss.sina.com.cn\/redirect.php?url=http:\/\/eladies.sina.com.cn\/qg\/2013\/1015\/07221234824.shtml",
"pubDate" : "2013年10月14日 (2周前)",
"enterDate" : "384184:59:11",
"channelId" : "-4097969305018802441",
"channelName" : "焦点新闻-新浪女性",
"channelNameSummary" : "焦点新闻-新浪女性",
"channelUrl" : "http:\/\/eladies.sina.com.cn",
"author" : "SINA.com",
"tags" : [],
"desc" : "导语：近年来，随着经济的增长，物价飞涨，房价猛增，就连男人的结婚难度指数也是一路攀升。过了女友那关，还要过丈母娘这一关。近日更是出了丈母娘的择婿标准这一出，网友们纷纷吐槽：\u201C在这个\u201C男追女、隔个妈\u201D的年代，是要逼死人的节奏啊！丈母娘是座山，你敢翻吗？ 网....",
"emailed" : False,
"forwarded" : False,
"english" : False
}  , {
"index" : 14,
"articleIndex" : "156754",
"favor" :  False ,
     "read" : False,    
"title" : "传罗志祥上海密会李毓芬 被质疑炒新闻",
"titleTip" : "传罗志祥上海密会李毓芬 被质疑炒新闻",
"titleSummary" : "传罗志祥上海密会李毓芬 被质疑炒新闻",
"descSummary" : "导语：据台湾《苹果日报》消息，罗志祥[微博](小猪)与李毓芬[微...",
"url" : "http:\/\/go.rss.sina.com.cn\/redirect.php?url=http:\/\/eladies.sina.com.cn\/news\/2013\/1014\/15101234823.shtml",
"pubDate" : "2013年10月14日 (2周前)",
"enterDate" : "384201:14:53",
"channelId" : "-4097969305018802441",
"channelName" : "焦点新闻-新浪女性",
"channelNameSummary" : "焦点新闻-新浪女性",
"channelUrl" : "http:\/\/eladies.sina.com.cn",
"author" : "SINA.com",
"tags" : [],
"desc" : "导语：据台湾《苹果日报》消息，罗志祥[微博](小猪)与李毓芬[微博]今年初传旧情复燃后，已接连3次被曝同游韩国、上海送包传闻与穿情侣装，几乎只要2人出现在同城市，总有不具名爆料者会提前告知媒体，昨罗志祥又被曝趁到上海工作，密会正在该地拍戏的李毓芬，2人照惯例否认，....",
"emailed" : False,
"forwarded" : False,
"english" : False
}  , {
"index" : 15,
"articleIndex" : "156753",
"favor" :  False ,
     "read" : False,    
"title" : "妈妈嫌准儿媳太瘦不健康 劝儿子分手",
"titleTip" : "妈妈嫌准儿媳太瘦不健康 劝儿子分手",
"titleSummary" : "妈妈嫌准儿媳太瘦不健康 劝儿子分手",
"descSummary" : "导语：写字楼里的女白领都以骨感为美，24岁的刘小姐却因为太瘦...",
"url" : "http:\/\/go.rss.sina.com.cn\/redirect.php?url=http:\/\/eladies.sina.com.cn\/news\/2013\/1014\/14471234822.shtml",
"pubDate" : "2013年10月14日 (2周前)",
"enterDate" : "384200:52:25",
"channelId" : "-4097969305018802441",
"channelName" : "焦点新闻-新浪女性",
"channelNameSummary" : "焦点新闻-新浪女性",
"channelUrl" : "http:\/\/eladies.sina.com.cn",
"author" : "SINA.com",
"tags" : [],
"desc" : "导语：写字楼里的女白领都以骨感为美，24岁的刘小姐却因为太瘦而使自己的恋情遭受危机。 刘小姐身材苗条，穿衣时髦，在单位颇受欢迎。她今年认识男友朱先生后，两人感情也很不错。不久前，家住江夏的朱先生带刘小姐回家吃饭。朱先生的母亲得知刘小姐身高1.68米体重才45....",
"emailed" : False,
"forwarded" : False,
"english" : False
}  , {
"index" : 16,
"articleIndex" : "156752",
"favor" :  False ,
     "read" : False,    
"title" : "英国威廉王子为儿子选定婴儿房 被传曾闹鬼",
"titleTip" : "英国威廉王子为儿子选定婴儿房 被传曾闹鬼",
"titleSummary" : "英国威廉王子为儿子选定婴儿房 被传曾闹鬼",
"descSummary" : "导语：据\u201C中央社\u201D13日报道，英国王子威廉与妻子凯特为...",
"url" : "http:\/\/go.rss.sina.com.cn\/redirect.php?url=http:\/\/eladies.sina.com.cn\/news\/2013\/1014\/13521234821.shtml",
"pubDate" : "2013年10月14日 (2周前)",
"enterDate" : "384200:58:11",
"channelId" : "-4097969305018802441",
"channelName" : "焦点新闻-新浪女性",
"channelNameSummary" : "焦点新闻-新浪女性",
"channelUrl" : "http:\/\/eladies.sina.com.cn",
"author" : "SINA.com",
"tags" : [],
"desc" : "导语：据\u201C中央社\u201D13日报道，英国王子威廉与妻子凯特为爱子乔治在肯辛顿宫(Kensington Palace)选定婴儿房，有消息人士指出，该婴儿房曾闹过鬼。 英国王子威廉一家资料图 熟知王室秘辛的作家莫顿(Andrew Morton)爆料说，英国王位第三顺位继承人乔治小王子的这个房间....",
"emailed" : False,
"forwarded" : False,
"english" : False
}  , {
"index" : 17,
"articleIndex" : "156751",
"favor" :  False ,
     "read" : False,    
"title" : "美国女子和男室友吵架 将其睾丸捏出血(图)",
"titleTip" : "美国女子和男室友吵架 将其睾丸捏出血(图)",
"titleSummary" : "美国女子和男室友吵架 将其睾丸捏出血(图)",
"descSummary" : "导语：据台湾今日新闻网消息，美国南卡罗来纳州斯帕坦堡县女...",
"url" : "http:\/\/go.rss.sina.com.cn\/redirect.php?url=http:\/\/eladies.sina.com.cn\/news\/2013\/1014\/13511234820.shtml",
"pubDate" : "2013年10月14日 (2周前)",
"enterDate" : "384200:57:09",
"channelId" : "-4097969305018802441",
"channelName" : "焦点新闻-新浪女性",
"channelNameSummary" : "焦点新闻-新浪女性",
"channelUrl" : "http:\/\/eladies.sina.com.cn",
"author" : "SINA.com",
"tags" : [],
"desc" : "导语：据台湾今日新闻网消息，美国南卡罗来纳州斯帕坦堡县女子詹妮弗・辛格尔特里在与她的一名男性室友发生纷争时，痛下\u201C杀手\u201D，将对方的睾丸用力捏至出血。 美国《赫芬顿邮报》报道称，辛格尔特里外出回到宿舍后，发现她的室友桑尼酒后将自己的私人物品扔到了屋外。....",
"emailed" : False,
"forwarded" : False,
"english" : False
}  , {
"index" : 18,
"articleIndex" : "156750",
"favor" :  False ,
     "read" : False,    
"title" : "李孝利夫妇欧洲蜜月照曝光如恋爱情侣(图)",
"titleTip" : "李孝利夫妇欧洲蜜月照曝光如恋爱情侣(图)",
"titleSummary" : "李孝利夫妇欧洲蜜月照曝光如恋爱情侣(图)",
"descSummary" : "导语：韩国歌手李尚顺近日在网上发布了自己和妻子李孝利在欧...",
"url" : "http:\/\/go.rss.sina.com.cn\/redirect.php?url=http:\/\/eladies.sina.com.cn\/news\/2013\/1014\/11401234818.shtml",
"pubDate" : "2013年10月14日 (2周前)",
"enterDate" : "384200:47:00",
"channelId" : "-4097969305018802441",
"channelName" : "焦点新闻-新浪女性",
"channelNameSummary" : "焦点新闻-新浪女性",
"channelUrl" : "http:\/\/eladies.sina.com.cn",
"author" : "SINA.com",
"tags" : [],
"desc" : "导语：韩国歌手李尚顺近日在网上发布了自己和妻子李孝利在欧洲蜜月旅行途中拍摄的照片。照片中两人秋装打扮，在具有欧洲风情的小镇上惬意地骑行，宛若一对恋爱中的情侣般温馨。李尚顺与李孝利9月1日在济州岛举行了婚礼，目前两人正在欧洲度蜜月。金Z敏\/文 版权所有Mydaily禁....",
"emailed" : False,
"forwarded" : False,
"english" : False
}  , {
"index" : 19,
"articleIndex" : "156749",
"favor" :  False ,
     "read" : False,    
"title" : "街拍：穿\u201C抹胸\u201D的重庆妞",
"titleTip" : "街拍：穿\u201C抹胸\u201D的重庆妞",
"titleSummary" : "街拍：穿\u201C抹胸\u201D的重庆妞",
"descSummary" : "",
"url" : "http:\/\/go.rss.sina.com.cn\/redirect.php?url=http:\/\/blog.sina.com.cn\/s\/blog_986487aa0101caxn.html?tj=lady",
"pubDate" : "2013年10月14日 (2周前)",
"enterDate" : "384201:08:17",
"channelId" : "-4097969305018802441",
"channelName" : "焦点新闻-新浪女性",
"channelNameSummary" : "焦点新闻-新浪女性",
"channelUrl" : "http:\/\/eladies.sina.com.cn",
"author" : "SINA.com",
"tags" : [],
"desc" : "",
"emailed" : False,
"forwarded" : False,
"english" : False
} ]
}
