{
"mode" : {"viewTitle" : 1,   "viewNew" : 0,  "pageIndex" : 1 },
 "channel" : {"id" : "-4689072495156889774", "booked" : False, "subNumber" : 152, "name" : "互联网新闻-新浪科技", "url" : "http:\/\/tech.sina.com.cn\/internet\/", "feed" : "http:\/\/rss.sina.com.cn\/tech\/internet\/home28.xml", "author" : "WWW.SINA.COM.CN", "desc" : "互联网新闻", "imageUrl" : "http:\/\/www.sinaimg.cn\/home\/deco\/2009\/0330\/logo_home_tech_news.gif", "postPerWeek" : "0", "lastCrawTime" : "2013年10月16日 (2周前)", "crawDateTime" : "2013年10月16日 (2周前)", "lastHttpCode" : "200"}, "page" : {
"startIndex" : 0,
"totalCount" : 5000,
"pageIndex" : 1,
"lastPage" : 250,
"pageSize" : 20,
"english" :  False },
 "unreadNum" : 0, "shotIndex" : -1,
"articles" : [
{
"index" : 0,
"articleIndex" : "151852",
"favor" :  False ,
     "read" : False,    
"title" : "Twitter的创办兼内斗史",
"titleTip" : "Twitter的创办兼内斗史",
"titleSummary" : "Twitter的创办兼内斗史",
"descSummary" : "2013 年 10 月，Evan Williams, Biz Stone和Jack Dorsey在一场Twitter大会上 Twit...",
"url" : "http:\/\/go.rss.sina.com.cn\/redirect.php?url=http:\/\/tech.sina.com.cn\/i\/2013-10-16\/10458821807.shtml",
"pubDate" : "2013年10月16日 (2周前)",
"enterDate" : "384201:13:18",
"channelId" : "-4689072495156889774",
"channelName" : "互联网新闻-新浪科技",
"channelNameSummary" : "互联网新闻-新浪科技",
"channelUrl" : "http:\/\/tech.sina.com.cn\/internet\/",
"author" : "WWW.SINA.COM.CN",
"tags" : [],
"desc" : "2013 年 10 月，Evan Williams, Biz Stone和Jack Dorsey在一场Twitter大会上 Twitter的光鲜背后可能并非你想象的那样。Twitter有四位创始人，分别是Jack Dorsey, Noah Glass, Evan Williams和Biz Stone。其中Dorsey和Williams曾经担任过CEO，但依次退出；而同样作为创始人....",
"emailed" : False,
"forwarded" : False,
"english" : False
}  , {
"index" : 1,
"articleIndex" : "151851",
"favor" :  False ,
     "read" : False,    
"title" : "众安在线到天弘基金：阿里金融野心还是无奈",
"titleTip" : "众安在线到天弘基金：阿里金融野心还是无奈",
"titleSummary" : "众安在线到天弘基金：阿里金融野心还是无奈",
"descSummary" : "阿里金融最近可谓\u201C喜事连连\u201D，上周11.8亿控股天弘基金...",
"url" : "http:\/\/go.rss.sina.com.cn\/redirect.php?url=http:\/\/tech.sina.com.cn\/zl\/post\/detail\/i\/2013-10-16\/pid_8435912.htm",
"pubDate" : "2013年10月16日 (2周前)",
"enterDate" : "384201:11:42",
"channelId" : "-4689072495156889774",
"channelName" : "互联网新闻-新浪科技",
"channelNameSummary" : "互联网新闻-新浪科技",
"channelUrl" : "http:\/\/tech.sina.com.cn\/internet\/",
"author" : "WWW.SINA.COM.CN",
"tags" : [],
"desc" : "阿里金融最近可谓\u201C喜事连连\u201D，上周11.8亿控股天弘基金，这周，三马卖保险也终于落地了，据上证报的消息，阿里牵头的众安财险已经正式获批开业，总部在上海黄浦区，注册资本金10亿。 阿里金融有野心，这是肯定的，或者用阿里比较喜欢的说法，这叫有梦想。阿里想要变革的，不仅....",
"emailed" : False,
"forwarded" : False,
"english" : False
}  , {
"index" : 2,
"articleIndex" : "151850",
"favor" :  False ,
     "read" : False,    
"title" : "众安在线完成工商登记 为国内首家互联网险企",
"titleTip" : "众安在线完成工商登记 为国内首家互联网险企",
"titleSummary" : "众安在线完成工商登记 为国内首家互联网险企",
"descSummary" : "昨天，记者从上海市工商行政管理局证实，由阿里巴巴的马...",
"url" : "http:\/\/go.rss.sina.com.cn\/redirect.php?url=http:\/\/tech.sina.com.cn\/i\/2013-10-16\/10408821793.shtml",
"pubDate" : "2013年10月16日 (2周前)",
"enterDate" : "384201:08:25",
"channelId" : "-4689072495156889774",
"channelName" : "互联网新闻-新浪科技",
"channelNameSummary" : "互联网新闻-新浪科技",
"channelUrl" : "http:\/\/tech.sina.com.cn\/internet\/",
"author" : "WWW.SINA.COM.CN",
"tags" : [],
"desc" : "昨天，记者从上海市工商行政管理局证实，由阿里巴巴的马云、中国平安的马明哲、腾讯的马化腾联手设立的众安在线财产保险公司，已于10月9日完成工商登记，国内首家互联网保险公司终于浮出水面。 注册资本10亿元 据上海工商局信息显示，\u201C众安在线\u201D的企业状态显....",
"emailed" : False,
"forwarded" : False,
"english" : False
}  , {
"index" : 3,
"articleIndex" : "151849",
"favor" :  False ,
     "read" : False,    
"title" : "有利网\u201C团购\u201D战法：薄利多销的P2P",
"titleTip" : "有利网\u201C团购\u201D战法：薄利多销的P2P",
"titleSummary" : "有利网\u201C团购\u201D战法：薄利多销的P2P",
"descSummary" : "作者：沈旭文 走进有利网位于中关村金融大厦的办公室，略显规则...",
"url" : "http:\/\/go.rss.sina.com.cn\/redirect.php?url=http:\/\/tech.sina.com.cn\/i\/2013-10-16\/10368821777.shtml",
"pubDate" : "2013年10月16日 (2周前)",
"enterDate" : "384201:04:43",
"channelId" : "-4689072495156889774",
"channelName" : "互联网新闻-新浪科技",
"channelNameSummary" : "互联网新闻-新浪科技",
"channelUrl" : "http:\/\/tech.sina.com.cn\/internet\/",
"author" : "WWW.SINA.COM.CN",
"tags" : [],
"desc" : "作者：沈旭文 走进有利网位于中关村金融大厦的办公室，略显规则方正的工位摆设，实在有别于人们对互联网创业企业不拘一格的惯有印象。不过创办未足一年，单月交易量即达7000万元，进入P2P网络贷款行业前三，有利网如此的发展速度着实超越行业常 规。 作为投行出....",
"emailed" : False,
"forwarded" : False,
"english" : False
}  , {
"index" : 4,
"articleIndex" : "151847",
"favor" :  False ,
     "read" : False,    
"title" : "网络交易平台如何担责引议 经营者应实名认证",
"titleTip" : "网络交易平台如何担责引议 经营者应实名认证",
"titleSummary" : "网络交易平台如何担责引议 经营者应实名认证",
"descSummary" : "本报记者陈丽平 前不久在京举行的十二届全国人大常委会...",
"url" : "http:\/\/go.rss.sina.com.cn\/redirect.php?url=http:\/\/tech.sina.com.cn\/i\/2013-10-16\/10178821630.shtml",
"pubDate" : "2013年10月16日 (2周前)",
"enterDate" : "384201:15:32",
"channelId" : "-4689072495156889774",
"channelName" : "互联网新闻-新浪科技",
"channelNameSummary" : "互联网新闻-新浪科技",
"channelUrl" : "http:\/\/tech.sina.com.cn\/internet\/",
"author" : "WWW.SINA.COM.CN",
"tags" : [],
"desc" : "□本报记者陈丽平&#160;&#160;&#160; 前不久在京举行的十二届全国人大常委会第四次会议再次审议了消费者权益保护法修正案草案。&#160;&#160;&#160; 草案第四十三条规定，消费者在展销会、租赁柜台或者通过网络交易平台等购买商品或者接受服务，其合法权益受到损害的，可以向销....",
"emailed" : False,
"forwarded" : False,
"english" : False
}  , {
"index" : 5,
"articleIndex" : "151846",
"favor" :  False ,
     "read" : False,    
"title" : "多款打车软件\u201C烧钱\u201D抢市场",
"titleTip" : "多款打车软件\u201C烧钱\u201D抢市场",
"titleSummary" : "多款打车软件\u201C烧钱\u201D抢市场",
"descSummary" : "导读：近日，一款名为\u201C快的\u201D的打车软件受到诸多出租车司机的青睐。...",
"url" : "http:\/\/go.rss.sina.com.cn\/redirect.php?url=http:\/\/tech.sina.com.cn\/i\/2013-10-16\/10148821626.shtml",
"pubDate" : "2013年10月16日 (2周前)",
"enterDate" : "384201:12:52",
"channelId" : "-4689072495156889774",
"channelName" : "互联网新闻-新浪科技",
"channelNameSummary" : "互联网新闻-新浪科技",
"channelUrl" : "http:\/\/tech.sina.com.cn\/internet\/",
"author" : "WWW.SINA.COM.CN",
"tags" : [],
"desc" : "导读：近日，一款名为\u201C快的\u201D的打车软件受到诸多出租车司机的青睐。虽然不是官方认证的电召软件，但是运营商通过\u201C重金\u201D奖励吸引了不少司机，甚至带动了整个打车软件行业走向了\u201C烧钱\u201D阶段。北京青年报记者调查发现，为了争夺市场，多款打车软件对电召接单司机进行奖励，通....",
"emailed" : False,
"forwarded" : False,
"english" : False
}  , {
"index" : 6,
"articleIndex" : "151845",
"favor" :  False ,
     "read" : False,    
"title" : "双十一：天猫3万实体店参与 京东腾讯不积极",
"titleTip" : "双十一：天猫3万实体店参与 京东腾讯不积极",
"titleSummary" : "双十一：天猫3万实体店参与 京东腾讯不积极",
"descSummary" : "今年双11，你可到实体店光明正大地抄货号！昨日，天猫宣...",
"url" : "http:\/\/go.rss.sina.com.cn\/redirect.php?url=http:\/\/tech.sina.com.cn\/i\/2013-10-16\/10148821625.shtml",
"pubDate" : "2013年10月16日 (2周前)",
"enterDate" : "384201:12:13",
"channelId" : "-4689072495156889774",
"channelName" : "互联网新闻-新浪科技",
"channelNameSummary" : "互联网新闻-新浪科技",
"channelUrl" : "http:\/\/tech.sina.com.cn\/internet\/",
"author" : "WWW.SINA.COM.CN",
"tags" : [],
"desc" : "今年双11，你可到实体店光明正大地抄货号！昨日，天猫宣布启动2013双11狂欢购物节，线上线下打通，消费者可到3万家参加双11活动的实体店试穿试戴和抄货号，售货员不仅不会给你白眼，还会额外赠送一张网购优惠券，让你享受双重优惠。\u201C这样一来就可以享受到五折甚至更低的价格....",
"emailed" : False,
"forwarded" : False,
"english" : False
}  , {
"index" : 7,
"articleIndex" : "151844",
"favor" :  False ,
     "read" : False,    
"title" : "深交所：互联网金融需要足够空间",
"titleTip" : "深交所：互联网金融需要足够空间",
"titleSummary" : "深交所：互联网金融需要足够空间",
"descSummary" : "深圳晚报讯 (记者 吕一冰)深交所总经理宋丽萍日前表示，从今后发展...",
"url" : "http:\/\/go.rss.sina.com.cn\/redirect.php?url=http:\/\/tech.sina.com.cn\/i\/2013-10-16\/10058821584.shtml",
"pubDate" : "2013年10月16日 (2周前)",
"enterDate" : "384201:03:59",
"channelId" : "-4689072495156889774",
"channelName" : "互联网新闻-新浪科技",
"channelNameSummary" : "互联网新闻-新浪科技",
"channelUrl" : "http:\/\/tech.sina.com.cn\/internet\/",
"author" : "WWW.SINA.COM.CN",
"tags" : [],
"desc" : "深圳晚报讯 (记者 吕一冰)深交所总经理宋丽萍日前表示，从今后发展趋势看，互联网金融能走到哪一步，仍然需要靠实践来回答，应该是为它的发展提供足够的空间。她表示，包括《证券法》的修订，也有必要考虑到\u201C众筹\u201D等互联网金融模式的特点。 据介绍，深交所在积极观察....",
"emailed" : False,
"forwarded" : False,
"english" : False
}  , {
"index" : 8,
"articleIndex" : "151843",
"favor" :  False ,
     "read" : False,    
"title" : "公安机关破获特大网络贩枪案",
"titleTip" : "公安机关破获特大网络贩枪案",
"titleSummary" : "公安机关破获特大网络贩枪案",
"descSummary" : "本报记者 张 洋 各类枪支325支、子弹3.2万余发、8900余件枪支配件和一...",
"url" : "http:\/\/go.rss.sina.com.cn\/redirect.php?url=http:\/\/tech.sina.com.cn\/i\/2013-10-16\/10048821582.shtml",
"pubDate" : "2013年10月16日 (2周前)",
"enterDate" : "384201:02:39",
"channelId" : "-4689072495156889774",
"channelName" : "互联网新闻-新浪科技",
"channelNameSummary" : "互联网新闻-新浪科技",
"channelUrl" : "http:\/\/tech.sina.com.cn\/internet\/",
"author" : "WWW.SINA.COM.CN",
"tags" : [],
"desc" : "本报记者 张 洋 各类枪支325支、子弹3.2万余发、8900余件枪支配件和一批生产加工工具\u2026\u2026日前，公安部组织破获了\u201C4・10\u201D特大网络贩枪案。 据了解，本案中，网络贩枪的销售网络涉及全国29个省区市、涉案嫌疑人多达408名。 \u201C4・10\u201D特大网络贩枪案的告....",
"emailed" : False,
"forwarded" : False,
"english" : False
}  , {
"index" : 9,
"articleIndex" : "151842",
"favor" :  False ,
     "read" : False,    
"title" : "支付宝钱包10月底将上线新版 推公众账号服务",
"titleTip" : "支付宝钱包10月底将上线新版 推公众账号服务",
"titleSummary" : "支付宝钱包10月底将上线新版 推公众账号服务",
"descSummary" : "新浪科技讯 北京时间10月16日上午消息，在今天举办的\u201C...",
"url" : "http:\/\/go.rss.sina.com.cn\/redirect.php?url=http:\/\/tech.sina.com.cn\/i\/2013-10-16\/09598821568.shtml",
"pubDate" : "2013年10月16日 (2周前)",
"enterDate" : "384200:57:52",
"channelId" : "-4689072495156889774",
"channelName" : "互联网新闻-新浪科技",
"channelNameSummary" : "互联网新闻-新浪科技",
"channelUrl" : "http:\/\/tech.sina.com.cn\/internet\/",
"author" : "WWW.SINA.COM.CN",
"tags" : [],
"desc" : "新浪科技讯 北京时间10月16日上午消息，在今天举办的\u201C支付宝分享日\u201D上，支付宝钱包发布了7.6新版本。据介绍，新版本将正式上线公众账号服务，面向银行、电信运营商等企业开放。用户只需要在支付宝上添加需要的公众账号，就可直接查阅银行卡余额、变更手机套餐等。 支....",
"emailed" : False,
"forwarded" : False,
"english" : False
}  , {
"index" : 10,
"articleIndex" : "151841",
"favor" :  False ,
     "read" : False,    
"title" : "机构力捧生物制药股 酷6疯涨CEO否认传闻",
"titleTip" : "机构力捧生物制药股 酷6疯涨CEO否认传闻",
"titleSummary" : "机构力捧生物制药股 酷6疯涨CEO否认传闻",
"descSummary" : "本报记者 吴 珊 由于市场对美国民主、共和两党达成财政协议...",
"url" : "http:\/\/go.rss.sina.com.cn\/redirect.php?url=http:\/\/tech.sina.com.cn\/i\/2013-10-16\/09548821559.shtml",
"pubDate" : "2013年10月16日 (2周前)",
"enterDate" : "384200:52:51",
"channelId" : "-4689072495156889774",
"channelName" : "互联网新闻-新浪科技",
"channelNameSummary" : "互联网新闻-新浪科技",
"channelUrl" : "http:\/\/tech.sina.com.cn\/internet\/",
"author" : "WWW.SINA.COM.CN",
"tags" : [],
"desc" : "本报记者 吴 珊 由于市场对美国民主、共和两党达成财政协议仍持乐观态度，美国股市周一连续第四个交易日上涨。 截至周一收盘，道琼斯工业平均指数报15301.26点，上涨64.15点，涨幅为0.42%；纳斯达克综合指数报3815.27点，上涨23.40点，涨幅为0.62%；标准普尔500....",
"emailed" : False,
"forwarded" : False,
"english" : False
}  , {
"index" : 11,
"articleIndex" : "151848",
"favor" :  False ,
     "read" : False,    
"title" : "传谷歌智能手表即将完工：与新版安卓同时发布",
"titleTip" : "传谷歌智能手表即将完工：与新版安卓同时发布",
"titleSummary" : "传谷歌智能手表即将完工：与新版安卓同时发布",
"descSummary" : "新浪科技讯 北京时间10月16日早间消息，据美国科技博...",
"url" : "http:\/\/go.rss.sina.com.cn\/redirect.php?url=http:\/\/tech.sina.com.cn\/i\/2013-10-16\/09498821540.shtml",
"pubDate" : "2013年10月16日 (2周前)",
"enterDate" : "384200:17:11",
"channelId" : "-4689072495156889774",
"channelName" : "互联网新闻-新浪科技",
"channelNameSummary" : "互联网新闻-新浪科技",
"channelUrl" : "http:\/\/tech.sina.com.cn\/internet\/",
"author" : "WWW.SINA.COM.CN",
"tags" : [],
"desc" : "新浪科技讯 北京时间10月16日早间消息，据美国科技博客9to5Google报道，知情人士透露，谷歌的智能手表产品即将完成，并有可能与Android 4.4\u201C奇巧\u201D(KitKat)系统一同发布。虽然细节仍然不够明确，但Google Now似乎将成为这款产品的核心。 谷歌可能会将众多谷歌眼镜的功....",
"emailed" : False,
"forwarded" : False,
"english" : False
}  , {
"index" : 12,
"articleIndex" : "151840",
"favor" :  False ,
     "read" : False,    
"title" : "欢聚时代借力WCG布局大型赛事直播",
"titleTip" : "欢聚时代借力WCG布局大型赛事直播",
"titleSummary" : "欢聚时代借力WCG布局大型赛事直播",
"descSummary" : "本报讯 日前，欢聚时代旗下YY平台与世界顶级电竞赛事WCG2013...",
"url" : "http:\/\/go.rss.sina.com.cn\/redirect.php?url=http:\/\/tech.sina.com.cn\/i\/2013-10-16\/09408821500.shtml",
"pubDate" : "2013年10月16日 (2周前)",
"enterDate" : "384200:38:29",
"channelId" : "-4689072495156889774",
"channelName" : "互联网新闻-新浪科技",
"channelNameSummary" : "互联网新闻-新浪科技",
"channelUrl" : "http:\/\/tech.sina.com.cn\/internet\/",
"author" : "WWW.SINA.COM.CN",
"tags" : [],
"desc" : "本报讯 日前，欢聚时代旗下YY平台与世界顶级电竞赛事WCG2013(世界电子竞技大赛)达成合作，全程直播WCG2013的中国区和世界总决赛，将YY平台再次拓展至对重大赛事和活动的直播。数据显示，为期三天的WCG2013中国区总决赛期间，通过YY游戏直播围观WCG赛事进程的电竞粉丝，创造了....",
"emailed" : False,
"forwarded" : False,
"english" : False
}  , {
"index" : 13,
"articleIndex" : "151839",
"favor" :  False ,
     "read" : False,    
"title" : "瑞星发布国内首款虚拟化安全产品",
"titleTip" : "瑞星发布国内首款虚拟化安全产品",
"titleSummary" : "瑞星发布国内首款虚拟化安全产品",
"descSummary" : "本报讯 10月15日，瑞星公司隆重推出重量级企业信息安全产品--瑞星...",
"url" : "http:\/\/go.rss.sina.com.cn\/redirect.php?url=http:\/\/tech.sina.com.cn\/i\/2013-10-16\/09398821486.shtml",
"pubDate" : "2013年10月16日 (2周前)",
"enterDate" : "384200:37:40",
"channelId" : "-4689072495156889774",
"channelName" : "互联网新闻-新浪科技",
"channelNameSummary" : "互联网新闻-新浪科技",
"channelUrl" : "http:\/\/tech.sina.com.cn\/internet\/",
"author" : "WWW.SINA.COM.CN",
"tags" : [],
"desc" : "本报讯 10月15日，瑞星公司隆重推出重量级企业信息安全产品\u2015\u2015瑞星虚拟化系统安全软件，该款产品的问世为整个行业带来了巨大的震动，其填补了国内信息安全市场的空白，是国内问鼎虚拟化信息安全技术巅峰的产品。瑞星相关负责人表示，该安全软件是国内首个自主研发的虚拟化系....",
"emailed" : False,
"forwarded" : False,
"english" : False
}  , {
"index" : 14,
"articleIndex" : "151838",
"favor" :  False ,
     "read" : False,    
"title" : "凡客被曝拖欠李宁近千万元货款",
"titleTip" : "凡客被曝拖欠李宁近千万元货款",
"titleSummary" : "凡客被曝拖欠李宁近千万元货款",
"descSummary" : "本报记者 贺 骏 曾经是电商明星和上市热点的凡客诚品，正在快速地褪去...",
"url" : "http:\/\/go.rss.sina.com.cn\/redirect.php?url=http:\/\/tech.sina.com.cn\/i\/2013-10-16\/09368821474.shtml",
"pubDate" : "2013年10月16日 (2周前)",
"enterDate" : "384200:34:39",
"channelId" : "-4689072495156889774",
"channelName" : "互联网新闻-新浪科技",
"channelNameSummary" : "互联网新闻-新浪科技",
"channelUrl" : "http:\/\/tech.sina.com.cn\/internet\/",
"author" : "WWW.SINA.COM.CN",
"tags" : [],
"desc" : "本报记者 贺 骏 曾经是电商明星和上市热点的凡客诚品，正在快速地褪去虚幻的光环，陷入对未来的迷茫。这个迷茫，并非来自竞争对手的干扰，而是对方向的迟疑和摇摆。就像凡客频繁变换办公地点一样，凡客的战略也在不断地调整，其结果就是向各个方向都\u201C烧钱\u201D无数，但是....",
"emailed" : False,
"forwarded" : False,
"english" : False
}  , {
"index" : 15,
"articleIndex" : "151837",
"favor" :  False ,
     "read" : False,    
"title" : "小米电视昨日开卖遭疯抢 或面临版权隐忧",
"titleTip" : "小米电视昨日开卖遭疯抢 或面临版权隐忧",
"titleSummary" : "小米电视昨日开卖遭疯抢 或面临版权隐忧",
"descSummary" : "本报记者 贺 骏 就在小米盒子陷入侵权诉讼之际，10月15日中...",
"url" : "http:\/\/go.rss.sina.com.cn\/redirect.php?url=http:\/\/tech.sina.com.cn\/i\/2013-10-16\/09358821470.shtml",
"pubDate" : "2013年10月16日 (2周前)",
"enterDate" : "384200:33:50",
"channelId" : "-4689072495156889774",
"channelName" : "互联网新闻-新浪科技",
"channelNameSummary" : "互联网新闻-新浪科技",
"channelUrl" : "http:\/\/tech.sina.com.cn\/internet\/",
"author" : "WWW.SINA.COM.CN",
"tags" : [],
"desc" : "本报记者 贺 骏 就在小米盒子陷入侵权诉讼之际，10月15日中午12点，备受瞩目的小米电视和小米手机3正式公开发售，首批3000台小米电视只用了1分58秒的时间就被一抢而空，而10万台小米手机3在1分26秒内售罄。 \u201C需要注意的是，小米电视和小米盒子的播出内容是完全....",
"emailed" : False,
"forwarded" : False,
"english" : False
}  , {
"index" : 16,
"articleIndex" : "151836",
"favor" :  False ,
     "read" : False,    
"title" : "OTO模式成商业新热点 目前尚未达到成熟和可控",
"titleTip" : "OTO模式成商业新热点 目前尚未达到成熟和可控",
"titleSummary" : "OTO模式成商业新热点 目前尚未达到成熟和可控",
"descSummary" : "本报记者 夏 芳 如果说电商的迅猛发展对传统行业的销售...",
"url" : "http:\/\/go.rss.sina.com.cn\/redirect.php?url=http:\/\/tech.sina.com.cn\/i\/2013-10-16\/09328821461.shtml",
"pubDate" : "2013年10月16日 (2周前)",
"enterDate" : "384200:31:00",
"channelId" : "-4689072495156889774",
"channelName" : "互联网新闻-新浪科技",
"channelNameSummary" : "互联网新闻-新浪科技",
"channelUrl" : "http:\/\/tech.sina.com.cn\/internet\/",
"author" : "WWW.SINA.COM.CN",
"tags" : [],
"desc" : "本报记者 夏 芳 如果说电商的迅猛发展对传统行业的销售渠道带来冲击的话，那么OTO商业模式为企业找到了新的商机。因为，OTO商业模式不仅让企业可以零距离的与消费者接触，掌握产品的用户群外，也为企业节省了不少的费用，企业不再跑遍城市的每个角落去建专卖店，寥寥几....",
"emailed" : False,
"forwarded" : False,
"english" : False
}  , {
"index" : 17,
"articleIndex" : "151835",
"favor" :  False ,
     "read" : False,    
"title" : "本来生活网另类推广模式：线上故事线下促销",
"titleTip" : "本来生活网另类推广模式：线上故事线下促销",
"titleSummary" : "本来生活网另类推广模式：线上故事线下促销",
"descSummary" : "本报记者 桂小笋 就像许多会讲故事的产品最终成了热销货...",
"url" : "http:\/\/go.rss.sina.com.cn\/redirect.php?url=http:\/\/tech.sina.com.cn\/i\/2013-10-16\/09318821450.shtml",
"pubDate" : "2013年10月16日 (2周前)",
"enterDate" : "384200:29:44",
"channelId" : "-4689072495156889774",
"channelName" : "互联网新闻-新浪科技",
"channelNameSummary" : "互联网新闻-新浪科技",
"channelUrl" : "http:\/\/tech.sina.com.cn\/internet\/",
"author" : "WWW.SINA.COM.CN",
"tags" : [],
"desc" : "本报记者 桂小笋 就像许多会讲故事的产品最终成了热销货一样，本来生活网用一个励志的故事让自己声名鹊起。如果要在2012年寻找出一个电商经典产品营销案例，\u201C褚橙\u201D当之无愧。 这颗小小的橙子，曾在2012年冬天掀起一股励志风，让沉寂多年的时健，重归大众面....",
"emailed" : False,
"forwarded" : False,
"english" : False
}  , {
"index" : 18,
"articleIndex" : "151834",
"favor" :  False ,
     "read" : False,    
"title" : "OTO商业模式 传统产业拓展电商的登天梯",
"titleTip" : "OTO商业模式 传统产业拓展电商的登天梯",
"titleSummary" : "OTO商业模式 传统产业拓展电商的登天梯",
"descSummary" : "袁 元 对于如今居住在城市的国人来说，上网购物已经成为非常...",
"url" : "http:\/\/go.rss.sina.com.cn\/redirect.php?url=http:\/\/tech.sina.com.cn\/i\/2013-10-16\/09298821422.shtml",
"pubDate" : "2013年10月16日 (2周前)",
"enterDate" : "384200:27:53",
"channelId" : "-4689072495156889774",
"channelName" : "互联网新闻-新浪科技",
"channelNameSummary" : "互联网新闻-新浪科技",
"channelUrl" : "http:\/\/tech.sina.com.cn\/internet\/",
"author" : "WWW.SINA.COM.CN",
"tags" : [],
"desc" : "袁 元 对于如今居住在城市的国人来说，上网购物已经成为非常普通不过的一件事情。正是由于上网购物的国人增多，国内电子商务产业得到了迅猛的发展，国人的衣食住行都可以通过上网购买的方式实现，这也使得电商成为如今吸纳精英人才创业的主战场。 国内电商行业....",
"emailed" : False,
"forwarded" : False,
"english" : False
}  , {
"index" : 19,
"articleIndex" : "151833",
"favor" :  False ,
     "read" : False,    
"title" : "证监会微博\u201C涨粉\u201D堪比明星",
"titleTip" : "证监会微博\u201C涨粉\u201D堪比明星",
"titleSummary" : "证监会微博\u201C涨粉\u201D堪比明星",
"descSummary" : "本报记者 朱宝琛 \u201C证监会官方微博今日正式开通啦！欢迎大家关注！\u201D \u201C...",
"url" : "http:\/\/go.rss.sina.com.cn\/redirect.php?url=http:\/\/tech.sina.com.cn\/i\/2013-10-16\/09268821418.shtml",
"pubDate" : "2013年10月16日 (2周前)",
"enterDate" : "384200:24:26",
"channelId" : "-4689072495156889774",
"channelName" : "互联网新闻-新浪科技",
"channelNameSummary" : "互联网新闻-新浪科技",
"channelUrl" : "http:\/\/tech.sina.com.cn\/internet\/",
"author" : "WWW.SINA.COM.CN",
"tags" : [],
"desc" : "本报记者 朱宝琛 \u201C证监会官方微博今日正式开通啦！欢迎大家关注！\u201D \u201C证监会官方微博\u2015\u2015\u2018证监会发布\u2019今日同时在人民网、新华网、新浪网和腾讯网正式开通并进入试运行，欢迎大家关注！ \u201D \u201C中国证监会作为证券期货市场监管部门，致力于维护市场公开....",
"emailed" : False,
"forwarded" : False,
"english" : False
} ]
}
