{
"mode" : {"viewTitle" : 1,   "viewNew" : 0,  "pageIndex" : 2 },
 "channel" : {"id" : "-4689072495156889774", "booked" : False, "subNumber" : 152, "name" : "互联网新闻-新浪科技", "url" : "http:\/\/tech.sina.com.cn\/internet\/", "feed" : "http:\/\/rss.sina.com.cn\/tech\/internet\/home28.xml", "author" : "WWW.SINA.COM.CN", "desc" : "互联网新闻", "imageUrl" : "http:\/\/www.sinaimg.cn\/home\/deco\/2009\/0330\/logo_home_tech_news.gif", "postPerWeek" : "0", "lastCrawTime" : "2013年10月16日 (2周前)", "crawDateTime" : "2013年10月16日 (2周前)", "lastHttpCode" : "200"}, "page" : {
"startIndex" : 20,
"totalCount" : 5000,
"pageIndex" : 2,
"lastPage" : 250,
"pageSize" : 20,
"english" :  False },
 "unreadNum" : 0, "shotIndex" : -1,
"articles" : [
{
"index" : 0,
"articleIndex" : "151832",
"favor" :  False ,
     "read" : False,    
"title" : "传即时通讯服务Line将启动上市：估值280亿美元",
"titleTip" : "传即时通讯服务Line将启动上市：估值280亿美元",
"titleSummary" : "传即时通讯服务Line将启动上市：估值280亿美元",
"descSummary" : "新浪科技讯 北京时间10月16日上午消息，据韩国新闻网...",
"url" : "http:\/\/go.rss.sina.com.cn\/redirect.php?url=http:\/\/tech.sina.com.cn\/i\/2013-10-16\/09358821471.shtml",
"pubDate" : "2013年10月16日 (2周前)",
"enterDate" : "384201:03:58",
"channelId" : "-4689072495156889774",
"channelName" : "互联网新闻-新浪科技",
"channelNameSummary" : "互联网新闻-新浪科技",
"channelUrl" : "http:\/\/tech.sina.com.cn\/internet\/",
"author" : "WWW.SINA.COM.CN",
"tags" : [],
"desc" : "新浪科技讯 北京时间10月16日上午消息，据韩国新闻网站MT报道，移动即时通讯服务Line计划在东京股票交易所或纳斯达克IPO(首次公开招股)，估值可能达到280亿美元。 今年8月有报道称，Line计划等到年底注册用户达到3亿时再IPO。该服务目前的注册用户已经超过2.3亿。 ....",
"emailed" : False,
"forwarded" : False,
"english" : False
}  , {
"index" : 1,
"articleIndex" : "151831",
"favor" :  False ,
     "read" : False,    
"title" : "雅虎财报电话会议摘要：一切以移动为核心",
"titleTip" : "雅虎财报电话会议摘要：一切以移动为核心",
"titleSummary" : "雅虎财报电话会议摘要：一切以移动为核心",
"descSummary" : "新浪科技讯 北京时间10月16日上午消息，雅虎周二发布截至...",
"url" : "http:\/\/go.rss.sina.com.cn\/redirect.php?url=http:\/\/tech.sina.com.cn\/i\/2013-10-16\/09308821425.shtml",
"pubDate" : "2013年10月16日 (2周前)",
"enterDate" : "384200:58:21",
"channelId" : "-4689072495156889774",
"channelName" : "互联网新闻-新浪科技",
"channelNameSummary" : "互联网新闻-新浪科技",
"channelUrl" : "http:\/\/tech.sina.com.cn\/internet\/",
"author" : "WWW.SINA.COM.CN",
"tags" : [],
"desc" : "新浪科技讯 北京时间10月16日上午消息，雅虎周二发布截至2013年9月30日的2013财年第三季度财报。上一财季，雅虎营收为10.81亿美元，同比下滑1%；运营利润为9300万美元，同比下滑39%；净利润为2.97亿美元，同比下滑91%。 财报发布后，雅虎CEO玛丽莎\u2022梅耶尔(Mariss....",
"emailed" : False,
"forwarded" : False,
"english" : False
}  , {
"index" : 2,
"articleIndex" : "151830",
"favor" :  False ,
     "read" : False,    
"title" : "小米电视舵手王川：创新和保守之间",
"titleTip" : "小米电视舵手王川：创新和保守之间",
"titleSummary" : "小米电视舵手王川：创新和保守之间",
"descSummary" : "小米联合创始人 小米电视负责人王川 导语：推出一款电视产品需要...",
"url" : "http:\/\/go.rss.sina.com.cn\/redirect.php?url=http:\/\/tech.sina.com.cn\/i\/2013-10-16\/09248821405.shtml",
"pubDate" : "2013年10月16日 (2周前)",
"enterDate" : "384200:53:00",
"channelId" : "-4689072495156889774",
"channelName" : "互联网新闻-新浪科技",
"channelNameSummary" : "互联网新闻-新浪科技",
"channelUrl" : "http:\/\/tech.sina.com.cn\/internet\/",
"author" : "WWW.SINA.COM.CN",
"tags" : [],
"desc" : "小米联合创始人 小米电视负责人王川 导语：推出一款电视产品需要多久？传统企业只要三个月，而小米至少花了一年的时间。这还只计算了硬件设计与生产的部分，如果算上软件层面的设计与验证，整个周期还要加倍。而在这个从无到有的过程中，王川始终扮演着舵手般的角色。他性....",
"emailed" : False,
"forwarded" : False,
"english" : False
}  , {
"index" : 3,
"articleIndex" : "151829",
"favor" :  False ,
     "read" : False,    
"title" : "Facebook推新型广告服务：精确定位移动用户",
"titleTip" : "Facebook推新型广告服务：精确定位移动用户",
"titleSummary" : "Facebook推新型广告服务：精确定位移动用户",
"descSummary" : "新浪科技讯 北京时间10月16日早间消息，Facebook周二宣...",
"url" : "http:\/\/go.rss.sina.com.cn\/redirect.php?url=http:\/\/tech.sina.com.cn\/i\/2013-10-16\/08488821307.shtml",
"pubDate" : "2013年10月16日 (2周前)",
"enterDate" : "384200:46:19",
"channelId" : "-4689072495156889774",
"channelName" : "互联网新闻-新浪科技",
"channelNameSummary" : "互联网新闻-新浪科技",
"channelUrl" : "http:\/\/tech.sina.com.cn\/internet\/",
"author" : "WWW.SINA.COM.CN",
"tags" : [],
"desc" : "新浪科技讯 北京时间10月16日早间消息，Facebook周二宣布推出一项新的订制受众功能，帮助广告主和营销者瞄准此前曾访问过其网站或移动应用的消费者。这一新工具将\u201C很快\u201D被提供给数量有限的测试合作伙伴，并将在未来几个月中在全球正式发布。 Facebook从去年秋季开始....",
"emailed" : False,
"forwarded" : False,
"english" : False
}  , {
"index" : 4,
"articleIndex" : "151825",
"favor" :  False ,
     "read" : False,    
"title" : "Twitter第三季度亏损6460万美元创历史最高",
"titleTip" : "Twitter第三季度亏损6460万美元创历史最高",
"titleSummary" : "Twitter第三季度亏损6460万美元创历史最高",
"descSummary" : "新浪科技讯 北京时间10月16日早间消息，Twitter周二向监管...",
"url" : "http:\/\/go.rss.sina.com.cn\/redirect.php?url=http:\/\/tech.sina.com.cn\/i\/2013-10-16\/07578820826.shtml",
"pubDate" : "2013年10月16日 (2周前)",
"enterDate" : "384200:56:05",
"channelId" : "-4689072495156889774",
"channelName" : "互联网新闻-新浪科技",
"channelNameSummary" : "互联网新闻-新浪科技",
"channelUrl" : "http:\/\/tech.sina.com.cn\/internet\/",
"author" : "WWW.SINA.COM.CN",
"tags" : [],
"desc" : "新浪科技讯 北京时间10月16日早间消息，Twitter周二向监管部门提交了更新的S-1招股书，公布了第三季度业绩。第三季度，Twitter创下有史以来最大的季度亏损。 在截至9月底的这一季度中，Twitter净亏损为6460万美元，接近去年同期的3倍。不过，Twitter的营收同时也增长至....",
"emailed" : False,
"forwarded" : False,
"english" : False
}  , {
"index" : 5,
"articleIndex" : "151827",
"favor" :  False ,
     "read" : False,    
"title" : "省纪委官网升级开通每月发布反腐情况",
"titleTip" : "省纪委官网升级开通每月发布反腐情况",
"titleSummary" : "省纪委官网升级开通每月发布反腐情况",
"descSummary" : "本报讯(记者汤南 通讯员粤纪宣)10月8日，广东省纪委省监察厅举...",
"url" : "http:\/\/go.rss.sina.com.cn\/redirect.php?url=http:\/\/tech.sina.com.cn\/i\/2013-10-16\/07108820529.shtml",
"pubDate" : "2013年10月16日 (2周前)",
"enterDate" : "384199:38:34",
"channelId" : "-4689072495156889774",
"channelName" : "互联网新闻-新浪科技",
"channelNameSummary" : "互联网新闻-新浪科技",
"channelUrl" : "http:\/\/tech.sina.com.cn\/internet\/",
"author" : "WWW.SINA.COM.CN",
"tags" : [],
"desc" : "本报讯(记者汤南 通讯员粤纪宣)10月8日，广东省纪委省监察厅举行\u201C南粤清风网\u201D暨\u201C广东纪检监察网\u201D升级开通仪式。省委常委、省纪委书记黄先耀出席升级开通仪式并宣布\u201C南粤清风网\u201D正式开通。据了解，作为广东省纪委监察厅唯一的综合性政务门户网站，\u201C南粤清风网\u201D从本月起....",
"emailed" : False,
"forwarded" : False,
"english" : False
}  , {
"index" : 6,
"articleIndex" : "151828",
"favor" :  False ,
     "read" : False,    
"title" : "推进网上\u201C三纪\u201D教育评估",
"titleTip" : "推进网上\u201C三纪\u201D教育评估",
"titleSummary" : "推进网上\u201C三纪\u201D教育评估",
"descSummary" : "广汽集团： 加强作风建设 整治庸懒散奢 本报讯 (记者任朝亮)根据市纪委《关...",
"url" : "http:\/\/go.rss.sina.com.cn\/redirect.php?url=http:\/\/tech.sina.com.cn\/i\/2013-10-16\/07108820516.shtml",
"pubDate" : "2013年10月16日 (2周前)",
"enterDate" : "384199:38:34",
"channelId" : "-4689072495156889774",
"channelName" : "互联网新闻-新浪科技",
"channelNameSummary" : "互联网新闻-新浪科技",
"channelUrl" : "http:\/\/tech.sina.com.cn\/internet\/",
"author" : "WWW.SINA.COM.CN",
"tags" : [],
"desc" : "广汽集团： 加强作风建设 整治庸懒散奢 本报讯 (记者任朝亮)根据市纪委《关于加强领导干部党纪政纪法纪教育培训的通知》要求，广汽工业集团开设了\u201C网上三纪班\u201D，利用\u201C廉洁教育及评估系统\u201D在各级领导干部中深入开展\u201C党纪政纪法纪\u201D教育，并对每位领导干部的....",
"emailed" : False,
"forwarded" : False,
"english" : False
}  , {
"index" : 7,
"articleIndex" : "151826",
"favor" :  False ,
     "read" : False,    
"title" : "网络借贷 靠谱吗？",
"titleTip" : "网络借贷 靠谱吗？",
"titleSummary" : "网络借贷 靠谱吗？",
"descSummary" : "门槛低风险大 亟需加强监管 网络金融业正如火如荼。《国务院关于鼓励和引导民间投...",
"url" : "http:\/\/go.rss.sina.com.cn\/redirect.php?url=http:\/\/tech.sina.com.cn\/i\/2013-10-16\/07108820482.shtml",
"pubDate" : "2013年10月16日 (2周前)",
"enterDate" : "384199:38:33",
"channelId" : "-4689072495156889774",
"channelName" : "互联网新闻-新浪科技",
"channelNameSummary" : "互联网新闻-新浪科技",
"channelUrl" : "http:\/\/tech.sina.com.cn\/internet\/",
"author" : "WWW.SINA.COM.CN",
"tags" : [],
"desc" : "门槛低风险大 亟需加强监管 网络金融业正如火如荼。《国务院关于鼓励和引导民间投资健康发展的若干意见》(新36条)出台后，民间资本蜂拥进入金融领域，日前，支付宝也宣布出资11.8亿元控股天弘基金，\u201C不知如何理财\u201D的用户跃跃欲试，觉得多了一个\u201C高回报\u201D的好选择。....",
"emailed" : False,
"forwarded" : False,
"english" : False
}  , {
"index" : 8,
"articleIndex" : "151824",
"favor" :  False ,
     "read" : False,    
"title" : "新节奏体感技术入驻体验式电商购物综合体",
"titleTip" : "新节奏体感技术入驻体验式电商购物综合体",
"titleSummary" : "新节奏体感技术入驻体验式电商购物综合体",
"descSummary" : "南都讯 记者谢睿 日前，体验式电商综合体徐州圣罗兰广场开...",
"url" : "http:\/\/go.rss.sina.com.cn\/redirect.php?url=http:\/\/tech.sina.com.cn\/i\/2013-10-16\/06528820265.shtml",
"pubDate" : "2013年10月16日 (2周前)",
"enterDate" : "384200:50:46",
"channelId" : "-4689072495156889774",
"channelName" : "互联网新闻-新浪科技",
"channelNameSummary" : "互联网新闻-新浪科技",
"channelUrl" : "http:\/\/tech.sina.com.cn\/internet\/",
"author" : "WWW.SINA.COM.CN",
"tags" : [],
"desc" : "南都讯 记者谢睿 日前，体验式电商综合体徐州圣罗兰广场开幕，在开幕盛典中，影视明星黄圣依通过\u201C3D体感形象搭配系统\u201D试穿裙子、包包、鞋子等服饰，向现场观众演绎未来体验式电商消费场景。据设备提供方广东新节奏智能科技公司总经理陈勇杰介绍，\u201C3D体感形象搭配系统\u201D具备....",
"emailed" : False,
"forwarded" : False,
"english" : False
}  , {
"index" : 9,
"articleIndex" : "151823",
"favor" :  False ,
     "read" : False,    
"title" : "乐视、小米同台PK 主流尺寸电视遭遇\u201C腰斩价\u201D",
"titleTip" : "乐视、小米同台PK 主流尺寸电视遭遇\u201C腰斩价\u201D",
"titleSummary" : "乐视、小米同台PK 主流尺寸电视遭遇\u201C腰斩价\u201D",
"descSummary" : "10月15日，乐视S 50 3D工程纪念版开销，售价仅2299元...",
"url" : "http:\/\/go.rss.sina.com.cn\/redirect.php?url=http:\/\/tech.sina.com.cn\/i\/2013-10-16\/06508820262.shtml",
"pubDate" : "2013年10月16日 (2周前)",
"enterDate" : "384200:48:43",
"channelId" : "-4689072495156889774",
"channelName" : "互联网新闻-新浪科技",
"channelNameSummary" : "互联网新闻-新浪科技",
"channelUrl" : "http:\/\/tech.sina.com.cn\/internet\/",
"author" : "WWW.SINA.COM.CN",
"tags" : [],
"desc" : "10月15日，乐视S 50 3D工程纪念版开销，售价仅2299元+490元。巧合的是，小米电视首批3000台同时开始放货，售价2999元，两家熟悉互联网的玩家，开始在智能电视领域同台P K。 而在本月10日，乐视T V在京正式发布50英寸超级电视S 50，定价2499元。这一价格仅是同尺寸智能....",
"emailed" : False,
"forwarded" : False,
"english" : False
}  , {
"index" : 10,
"articleIndex" : "151822",
"favor" :  False ,
     "read" : False,    
"title" : "3C品类需求反弹采购量增长10%",
"titleTip" : "3C品类需求反弹采购量增长10%",
"titleSummary" : "3C品类需求反弹采购量增长10%",
"descSummary" : "号称亚洲最大规模电子展---环球资源展日前在香港开幕。南都记者获悉，...",
"url" : "http:\/\/go.rss.sina.com.cn\/redirect.php?url=http:\/\/tech.sina.com.cn\/i\/2013-10-16\/06488820256.shtml",
"pubDate" : "2013年10月16日 (2周前)",
"enterDate" : "384200:47:13",
"channelId" : "-4689072495156889774",
"channelName" : "互联网新闻-新浪科技",
"channelNameSummary" : "互联网新闻-新浪科技",
"channelUrl" : "http:\/\/tech.sina.com.cn\/internet\/",
"author" : "WWW.SINA.COM.CN",
"tags" : [],
"desc" : "号称亚洲最大规模电子展\u2015\u2015\u2015环球资源展日前在香港开幕。南都记者获悉，平板电脑、移动电源、手机配件等产品需求旺盛，安防产品则成为\u201C新兴势力\u201D。有澳大利亚买家向记者表示，今年采购情况好于去年同期，采购量增长10%；有日本买家则加大安防产品购买，但认为国内安防设备....",
"emailed" : False,
"forwarded" : False,
"english" : False
}  , {
"index" : 11,
"articleIndex" : "151818",
"favor" :  False ,
     "read" : False,    
"title" : "金鹰货币基金担保 免预存款送手机",
"titleTip" : "金鹰货币基金担保 免预存款送手机",
"titleSummary" : "金鹰货币基金担保 免预存款送手机",
"descSummary" : "当前，各大基金公司都在联合银行、互联网销售平台等机构开发货币基...",
"url" : "http:\/\/go.rss.sina.com.cn\/redirect.php?url=http:\/\/tech.sina.com.cn\/i\/2013-10-16\/06468820254.shtml",
"pubDate" : "2013年10月16日 (2周前)",
"enterDate" : "384201:15:16",
"channelId" : "-4689072495156889774",
"channelName" : "互联网新闻-新浪科技",
"channelNameSummary" : "互联网新闻-新浪科技",
"channelUrl" : "http:\/\/tech.sina.com.cn\/internet\/",
"author" : "WWW.SINA.COM.CN",
"tags" : [],
"desc" : "当前，各大基金公司都在联合银行、互联网销售平台等机构开发货币基金的余额理财功能，如与消费结合的余额宝、与信用卡结合的智能现金宝。现在随着金鹰基金和联通公司推出了一项\u201C送手机\u201D的计划，货币基金的功能实现了另一个角度的挖掘\u2015\u2015\u2015 理财功能和信用担保功能的统一。....",
"emailed" : False,
"forwarded" : False,
"english" : False
}  , {
"index" : 12,
"articleIndex" : "151817",
"favor" :  False ,
     "read" : False,    
"title" : "P2P网贷再曝兑付难：天力贷成立半年陷危机",
"titleTip" : "P2P网贷再曝兑付难：天力贷成立半年陷危机",
"titleSummary" : "P2P网贷再曝兑付难：天力贷成立半年陷危机",
"descSummary" : "张月光 继网赢天下兑付难事件后，近期P2P行业又曝出另一...",
"url" : "http:\/\/go.rss.sina.com.cn\/redirect.php?url=http:\/\/tech.sina.com.cn\/i\/2013-10-16\/03028819989.shtml",
"pubDate" : "2013年10月16日 (2周前)",
"enterDate" : "384196:30:50",
"channelId" : "-4689072495156889774",
"channelName" : "互联网新闻-新浪科技",
"channelNameSummary" : "互联网新闻-新浪科技",
"channelUrl" : "http:\/\/tech.sina.com.cn\/internet\/",
"author" : "WWW.SINA.COM.CN",
"tags" : [],
"desc" : "张月光 继网赢天下兑付难事件后，近期P2P行业又曝出另一起更耐人寻味的连锁兑付逾期事件。 9月，湖北省孝感市天力投资有限公司(下称\u201C天力投资\u201D)名下P2P网贷平台\u201C天力贷\u201D出现兑付危机。该网站成立于今年3月14日，首支投标项目发布于4月25日，至今尚不足6个月....",
"emailed" : False,
"forwarded" : False,
"english" : False
}  , {
"index" : 13,
"articleIndex" : "151816",
"favor" :  False ,
     "read" : False,    
"title" : "应该形成合理、透明的科研人员薪酬体系",
"titleTip" : "应该形成合理、透明的科研人员薪酬体系",
"titleSummary" : "应该形成合理、透明的科研人员薪酬体系",
"descSummary" : "张立伟 近日，科技部部长万钢对科研经费\u201C恶性问题\u201D连说两...",
"url" : "http:\/\/go.rss.sina.com.cn\/redirect.php?url=http:\/\/tech.sina.com.cn\/i\/2013-10-16\/02568819986.shtml",
"pubDate" : "2013年10月16日 (2周前)",
"enterDate" : "384197:25:06",
"channelId" : "-4689072495156889774",
"channelName" : "互联网新闻-新浪科技",
"channelNameSummary" : "互联网新闻-新浪科技",
"channelUrl" : "http:\/\/tech.sina.com.cn\/internet\/",
"author" : "WWW.SINA.COM.CN",
"tags" : [],
"desc" : "张立伟 近日，科技部部长万钢对科研经费\u201C恶性问题\u201D连说两个\u201C愤怒\u201D，并表示\u201C痛心\u201D和\u201C错愕\u201D。此前，有官员曾称全国科研经费大概只有40%真正用于科技研发，其余的60%都用于开会、出差等。 中国经济正处于转型期，若想继续维持增长必须解决两个问题，一是进....",
"emailed" : False,
"forwarded" : False,
"english" : False
}  , {
"index" : 14,
"articleIndex" : "151815",
"favor" :  False ,
     "read" : False,    
"title" : "国务院办公厅：加强政府信息公开",
"titleTip" : "国务院办公厅：加强政府信息公开",
"titleSummary" : "国务院办公厅：加强政府信息公开",
"descSummary" : "王尔德 政府信息公开是本届政府落实转变政风、建立廉洁高效政府的...",
"url" : "http:\/\/go.rss.sina.com.cn\/redirect.php?url=http:\/\/tech.sina.com.cn\/i\/2013-10-16\/02558819985.shtml",
"pubDate" : "2013年10月16日 (2周前)",
"enterDate" : "384197:24:10",
"channelId" : "-4689072495156889774",
"channelName" : "互联网新闻-新浪科技",
"channelNameSummary" : "互联网新闻-新浪科技",
"channelUrl" : "http:\/\/tech.sina.com.cn\/internet\/",
"author" : "WWW.SINA.COM.CN",
"tags" : [],
"desc" : "王尔德 政府信息公开是本届政府落实转变政风、建立廉洁高效政府的抓手之一。 10月15日，国务院办公厅发布《关于进一步加强政府信息公开回应社会关切提升政府公信力的意见》(以下简称《意见》)，提出加强建设三大信息发布平台，并完善主动发布机制。 其中....",
"emailed" : False,
"forwarded" : False,
"english" : False
}  , {
"index" : 15,
"articleIndex" : "151814",
"favor" :  False ,
     "read" : False,    
"title" : "天猫今年\u201C双11\u201D派送6亿大红包",
"titleTip" : "天猫今年\u201C双11\u201D派送6亿大红包",
"titleSummary" : "天猫今年\u201C双11\u201D派送6亿大红包",
"descSummary" : "京华时报讯(记者李斌)昨天，天猫宣布2013年双11购物狂欢节启动。今年...",
"url" : "http:\/\/go.rss.sina.com.cn\/redirect.php?url=http:\/\/tech.sina.com.cn\/i\/2013-10-16\/02508819983.shtml",
"pubDate" : "2013年10月16日 (2周前)",
"enterDate" : "384197:18:48",
"channelId" : "-4689072495156889774",
"channelName" : "互联网新闻-新浪科技",
"channelNameSummary" : "互联网新闻-新浪科技",
"channelUrl" : "http:\/\/tech.sina.com.cn\/internet\/",
"author" : "WWW.SINA.COM.CN",
"tags" : [],
"desc" : "京华时报讯(记者李斌)昨天，天猫宣布2013年双11购物狂欢节启动。今年天猫双11将打破线上线下商业界线，整合覆盖全国1000多市县的3万家线下门店，通过天猫无线客户端与线上全面打通，为消费者打造线上线下共同狂欢。 天猫方面表示，除传统双11当天全场商品5折外，今年还....",
"emailed" : False,
"forwarded" : False,
"english" : False
}  , {
"index" : 16,
"articleIndex" : "151813",
"favor" :  False ,
     "read" : False,    
"title" : "澳门官员财产将网上可查",
"titleTip" : "澳门官员财产将网上可查",
"titleSummary" : "澳门官员财产将网上可查",
"descSummary" : "据《南方都市报》报道19日起，市民可在澳门终审法院网站查询公职领导的财...",
"url" : "http:\/\/go.rss.sina.com.cn\/redirect.php?url=http:\/\/tech.sina.com.cn\/i\/2013-10-16\/02508819969.shtml",
"pubDate" : "2013年10月16日 (2周前)",
"enterDate" : "384197:18:46",
"channelId" : "-4689072495156889774",
"channelName" : "互联网新闻-新浪科技",
"channelNameSummary" : "互联网新闻-新浪科技",
"channelUrl" : "http:\/\/tech.sina.com.cn\/internet\/",
"author" : "WWW.SINA.COM.CN",
"tags" : [],
"desc" : "据《南方都市报》报道19日起，市民可在澳门终审法院网站查询公职领导的财产，澳门终审法院14日第2次\u201C喊\u201D领导们交表。 复制不得超善意目的 澳门将原有的财产申报法律修改至公开，于今年4月份生效。所有副局级以上的行政官员，所有司法官员、立法议员、行政会成....",
"emailed" : False,
"forwarded" : False,
"english" : False
}  , {
"index" : 17,
"articleIndex" : "151821",
"favor" :  False ,
     "read" : False,    
"title" : "快递单子泄密 个人信息裸奔",
"titleTip" : "快递单子泄密 个人信息裸奔",
"titleSummary" : "快递单子泄密 个人信息裸奔",
"descSummary" : "在享受快递服务时，你是否会想到，亲手填写在快递单上的个人信息有可能成...",
"url" : "http:\/\/go.rss.sina.com.cn\/redirect.php?url=http:\/\/tech.sina.com.cn\/i\/2013-10-16\/01308819216.shtml",
"pubDate" : "2013年10月16日 (2周前)",
"enterDate" : "384195:29:30",
"channelId" : "-4689072495156889774",
"channelName" : "互联网新闻-新浪科技",
"channelNameSummary" : "互联网新闻-新浪科技",
"channelUrl" : "http:\/\/tech.sina.com.cn\/internet\/",
"author" : "WWW.SINA.COM.CN",
"tags" : [],
"desc" : "在享受快递服务时，你是否会想到，亲手填写在快递单上的个人信息有可能成为不法分子的敛财工具。记者近日调查发现，多家快递公司的大量快递单信息正在被明码标价公开出售，每条低至4角到1元，为冒领快件、甚至入室抢劫等刑事犯罪活动打开方便之门。 调查 5角钱买一条快....",
"emailed" : False,
"forwarded" : False,
"english" : False
}  , {
"index" : 18,
"articleIndex" : "151820",
"favor" :  False ,
     "read" : False,    
"title" : "当当开启电商\u201C双11\u201D应战模式",
"titleTip" : "当当开启电商\u201C双11\u201D应战模式",
"titleSummary" : "当当开启电商\u201C双11\u201D应战模式",
"descSummary" : "国庆假期刚过，距离\u201C双十一\u201D的电商大战还有一个月时间，当当网就早...",
"url" : "http:\/\/go.rss.sina.com.cn\/redirect.php?url=http:\/\/tech.sina.com.cn\/i\/2013-10-16\/01308819173.shtml",
"pubDate" : "2013年10月16日 (2周前)",
"enterDate" : "384195:29:27",
"channelId" : "-4689072495156889774",
"channelName" : "互联网新闻-新浪科技",
"channelNameSummary" : "互联网新闻-新浪科技",
"channelUrl" : "http:\/\/tech.sina.com.cn\/internet\/",
"author" : "WWW.SINA.COM.CN",
"tags" : [],
"desc" : "国庆假期刚过，距离\u201C双十一\u201D的电商大战还有一个月时间，当当网就早早进入\u201C店庆月+双十一\u201D的应战状态，并打响促销第一枪。这意味着，下半年电商促销高峰，主流B2C电商势必将展开猛烈的\u201C价格战\u201D攻势。 据悉，当当网围绕\u201C双十一\u201D展开的促销将持续整整一个月，下半....",
"emailed" : False,
"forwarded" : False,
"english" : False
}  , {
"index" : 19,
"articleIndex" : "151819",
"favor" :  False ,
     "read" : False,    
"title" : "交通委拟推网站叫车",
"titleTip" : "交通委拟推网站叫车",
"titleSummary" : "交通委拟推网站叫车",
"descSummary" : "晨报讯(记者 陈琳)市交通委昨天表示，本市实施的出租汽车一揽子综合政策已取得阶...",
"url" : "http:\/\/go.rss.sina.com.cn\/redirect.php?url=http:\/\/tech.sina.com.cn\/i\/2013-10-16\/01308819149.shtml",
"pubDate" : "2013年10月16日 (2周前)",
"enterDate" : "384195:29:25",
"channelId" : "-4689072495156889774",
"channelName" : "互联网新闻-新浪科技",
"channelNameSummary" : "互联网新闻-新浪科技",
"channelUrl" : "http:\/\/tech.sina.com.cn\/internet\/",
"author" : "WWW.SINA.COM.CN",
"tags" : [],
"desc" : "晨报讯(记者 陈琳)市交通委昨天表示，本市实施的出租汽车一揽子综合政策已取得阶段性进展\u2015\u2015司机收入和出车积极性均有所提高，市民打车难问题也较治理前有所好转。据悉，市交通委正在研究开通网站叫车功能，让乘客打车多一种选择。 10月13日，出租汽车行业\u201C新国标\u201D....",
"emailed" : False,
"forwarded" : False,
"english" : False
} ]
}
