{
"mode" : {"viewTitle" : 1,   "viewNew" : 0,  "pageIndex" : 1 },
 "channel" : {"id" : "8091491159968174490", "booked" : False, "subNumber" : 1, "name" : "出国留学-新浪教育", "url" : "http:\/\/edu.sina.com.cn\/rss\/index.html", "feed" : "http:\/\/rss.sina.com.cn\/edu\/abroad5.xml", "author" : "WWW.SINA.COM.CN", "desc" : "文化教育-出国留学", "imageUrl" : "http:\/\/www.sinaimg.cn\/home\/deco\/2009\/0330\/logo_home_edu.gif", "postPerWeek" : "0", "lastCrawTime" : "17:15:50", "crawDateTime" : "17:15:50", "lastHttpCode" : "200"}, "page" : {
"startIndex" : 0,
"totalCount" : 5000,
"pageIndex" : 1,
"lastPage" : 250,
"pageSize" : 20,
"english" :  False },
 "unreadNum" : 0, "shotIndex" : -1,
"articles" : [
{
"index" : 0,
"articleIndex" : "27270",
"favor" :  False ,
     "read" : False,    
"title" : "美研究称移民有助美国改善经济减少美赤字",
"titleTip" : "美研究称移民有助美国改善经济减少美赤字",
"titleSummary" : "美研究称移民有助美国改善经济减少美赤字",
"descSummary" : "",
"url" : "http:\/\/go.rss.sina.com.cn\/redirect.php?url=http:\/\/edu.sina.com.cn\/a\/2013-10-30\/1530235438.shtml",
"pubDate" : "15:30:58",
"enterDate" : "384201:05:23",
"channelId" : "8091491159968174490",
"channelName" : "出国留学-新浪教育",
"channelNameSummary" : "出国留学-新浪教育",
"channelUrl" : "http:\/\/edu.sina.com.cn\/rss\/index.html",
"author" : "WWW.SINA.COM.CN",
"tags" : [],
"desc" : "",
"emailed" : False,
"forwarded" : False,
"english" : False
}  , {
"index" : 1,
"articleIndex" : "27275",
"favor" :  False ,
     "read" : False,    
"title" : "组图：网友为见韩国军校甜美女神甘愿当兵",
"titleTip" : "组图：网友为见韩国军校甜美女神甘愿当兵",
"titleSummary" : "组图：网友为见韩国军校甜美女神甘愿当兵",
"descSummary" : "",
"url" : "http:\/\/go.rss.sina.com.cn\/redirect.php?url=http:\/\/edu.sina.com.cn\/a\/2013-10-30\/1525235437.shtml",
"pubDate" : "15:25:55",
"enterDate" : "384200:30:15",
"channelId" : "8091491159968174490",
"channelName" : "出国留学-新浪教育",
"channelNameSummary" : "出国留学-新浪教育",
"channelUrl" : "http:\/\/edu.sina.com.cn\/rss\/index.html",
"author" : "WWW.SINA.COM.CN",
"tags" : [],
"desc" : "",
"emailed" : False,
"forwarded" : False,
"english" : False
}  , {
"index" : 2,
"articleIndex" : "27274",
"favor" :  False ,
     "read" : False,    
"title" : "超7成留学生回国就业 海外工作只是传说？",
"titleTip" : "超7成留学生回国就业 海外工作只是传说？",
"titleSummary" : "超7成留学生回国就业 海外工作只是传说？",
"descSummary" : "",
"url" : "http:\/\/go.rss.sina.com.cn\/redirect.php?url=http:\/\/edu.sina.com.cn\/a\/2013-10-30\/1511235436.shtml",
"pubDate" : "15:11:57",
"enterDate" : "384200:16:17",
"channelId" : "8091491159968174490",
"channelName" : "出国留学-新浪教育",
"channelNameSummary" : "出国留学-新浪教育",
"channelUrl" : "http:\/\/edu.sina.com.cn\/rss\/index.html",
"author" : "WWW.SINA.COM.CN",
"tags" : [],
"desc" : "",
"emailed" : False,
"forwarded" : False,
"english" : False
}  , {
"index" : 3,
"articleIndex" : "27269",
"favor" :  False ,
     "read" : False,    
"title" : "加拿大公布明年移民额度 被动移民变主动",
"titleTip" : "加拿大公布明年移民额度 被动移民变主动",
"titleSummary" : "加拿大公布明年移民额度 被动移民变主动",
"descSummary" : "",
"url" : "http:\/\/go.rss.sina.com.cn\/redirect.php?url=http:\/\/edu.sina.com.cn\/a\/2013-10-30\/1509235435.shtml",
"pubDate" : "15:09:52",
"enterDate" : "384201:14:22",
"channelId" : "8091491159968174490",
"channelName" : "出国留学-新浪教育",
"channelNameSummary" : "出国留学-新浪教育",
"channelUrl" : "http:\/\/edu.sina.com.cn\/rss\/index.html",
"author" : "WWW.SINA.COM.CN",
"tags" : [],
"desc" : "",
"emailed" : False,
"forwarded" : False,
"english" : False
}  , {
"index" : 4,
"articleIndex" : "27273",
"favor" :  False ,
     "read" : False,    
"title" : "留学申请靠机构还是靠自己？(图)",
"titleTip" : "留学申请靠机构还是靠自己？(图)",
"titleSummary" : "留学申请靠机构还是靠自己？(图)",
"descSummary" : "",
"url" : "http:\/\/go.rss.sina.com.cn\/redirect.php?url=http:\/\/edu.sina.com.cn\/a\/2013-10-30\/1508235434.shtml",
"pubDate" : "15:08:00",
"enterDate" : "384200:12:20",
"channelId" : "8091491159968174490",
"channelName" : "出国留学-新浪教育",
"channelNameSummary" : "出国留学-新浪教育",
"channelUrl" : "http:\/\/edu.sina.com.cn\/rss\/index.html",
"author" : "WWW.SINA.COM.CN",
"tags" : [],
"desc" : "",
"emailed" : False,
"forwarded" : False,
"english" : False
}  , {
"index" : 5,
"articleIndex" : "27272",
"favor" :  False ,
     "read" : False,    
"title" : "加公布2014年新移民配额 创加国历史新高",
"titleTip" : "加公布2014年新移民配额 创加国历史新高",
"titleSummary" : "加公布2014年新移民配额 创加国历史新高",
"descSummary" : "",
"url" : "http:\/\/go.rss.sina.com.cn\/redirect.php?url=http:\/\/edu.sina.com.cn\/a\/2013-10-30\/1453235432.shtml",
"pubDate" : "14:53:50",
"enterDate" : "384199:58:10",
"channelId" : "8091491159968174490",
"channelName" : "出国留学-新浪教育",
"channelNameSummary" : "出国留学-新浪教育",
"channelUrl" : "http:\/\/edu.sina.com.cn\/rss\/index.html",
"author" : "WWW.SINA.COM.CN",
"tags" : [],
"desc" : "",
"emailed" : False,
"forwarded" : False,
"english" : False
}  , {
"index" : 6,
"articleIndex" : "27268",
"favor" :  False ,
     "read" : False,    
"title" : "600余所海外院校云集北京 线下线上揽生源",
"titleTip" : "600余所海外院校云集北京 线下线上揽生源",
"titleSummary" : "600余所海外院校云集北京 线下线上揽生源",
"descSummary" : "",
"url" : "http:\/\/go.rss.sina.com.cn\/redirect.php?url=http:\/\/edu.sina.com.cn\/a\/2013-10-30\/1453235431.shtml",
"pubDate" : "14:53:24",
"enterDate" : "384200:57:54",
"channelId" : "8091491159968174490",
"channelName" : "出国留学-新浪教育",
"channelNameSummary" : "出国留学-新浪教育",
"channelUrl" : "http:\/\/edu.sina.com.cn\/rss\/index.html",
"author" : "WWW.SINA.COM.CN",
"tags" : [],
"desc" : "",
"emailed" : False,
"forwarded" : False,
"english" : False
}  , {
"index" : 7,
"articleIndex" : "27271",
"favor" :  False ,
     "read" : False,    
"title" : "韩校园拜金男女消费：零花钱达43万韩元",
"titleTip" : "韩校园拜金男女消费：零花钱达43万韩元",
"titleSummary" : "韩校园拜金男女消费：零花钱达43万韩元",
"descSummary" : "",
"url" : "http:\/\/go.rss.sina.com.cn\/redirect.php?url=http:\/\/edu.sina.com.cn\/a\/2013-10-30\/1452235430.shtml",
"pubDate" : "14:52:33",
"enterDate" : "384199:56:53",
"channelId" : "8091491159968174490",
"channelName" : "出国留学-新浪教育",
"channelNameSummary" : "出国留学-新浪教育",
"channelUrl" : "http:\/\/edu.sina.com.cn\/rss\/index.html",
"author" : "WWW.SINA.COM.CN",
"tags" : [],
"desc" : "",
"emailed" : False,
"forwarded" : False,
"english" : False
}  , {
"index" : 8,
"articleIndex" : "27267",
"favor" :  False ,
     "read" : False,    
"title" : "华裔医学博士竞逐澳洲2014钢管舞小姐称号",
"titleTip" : "华裔医学博士竞逐澳洲2014钢管舞小姐称号",
"titleSummary" : "华裔医学博士竞逐澳洲2014钢管舞小姐称号",
"descSummary" : "",
"url" : "http:\/\/go.rss.sina.com.cn\/redirect.php?url=http:\/\/edu.sina.com.cn\/a\/2013-10-30\/1430235429.shtml",
"pubDate" : "14:30:06",
"enterDate" : "384200:34:36",
"channelId" : "8091491159968174490",
"channelName" : "出国留学-新浪教育",
"channelNameSummary" : "出国留学-新浪教育",
"channelUrl" : "http:\/\/edu.sina.com.cn\/rss\/index.html",
"author" : "WWW.SINA.COM.CN",
"tags" : [],
"desc" : "",
"emailed" : False,
"forwarded" : False,
"english" : False
}  , {
"index" : 9,
"articleIndex" : "27266",
"favor" :  False ,
     "read" : False,    
"title" : "日本公主学习成绩优异有望进东京大学",
"titleTip" : "日本公主学习成绩优异有望进东京大学",
"titleSummary" : "日本公主学习成绩优异有望进东京大学",
"descSummary" : "",
"url" : "http:\/\/go.rss.sina.com.cn\/redirect.php?url=http:\/\/edu.sina.com.cn\/a\/2013-10-30\/1418235428.shtml",
"pubDate" : "14:18:04",
"enterDate" : "384200:52:39",
"channelId" : "8091491159968174490",
"channelName" : "出国留学-新浪教育",
"channelNameSummary" : "出国留学-新浪教育",
"channelUrl" : "http:\/\/edu.sina.com.cn\/rss\/index.html",
"author" : "WWW.SINA.COM.CN",
"tags" : [],
"desc" : "",
"emailed" : False,
"forwarded" : False,
"english" : False
}  , {
"index" : 10,
"articleIndex" : "27265",
"favor" :  False ,
     "read" : False,    
"title" : "悉尼男子忧6岁儿未来买不起房 送411万豪宅",
"titleTip" : "悉尼男子忧6岁儿未来买不起房 送411万豪宅",
"titleSummary" : "悉尼男子忧6岁儿未来买不起房 送411万豪宅",
"descSummary" : "",
"url" : "http:\/\/go.rss.sina.com.cn\/redirect.php?url=http:\/\/edu.sina.com.cn\/a\/2013-10-30\/1146235427.shtml",
"pubDate" : "11:46:08",
"enterDate" : "384200:51:08",
"channelId" : "8091491159968174490",
"channelName" : "出国留学-新浪教育",
"channelNameSummary" : "出国留学-新浪教育",
"channelUrl" : "http:\/\/edu.sina.com.cn\/rss\/index.html",
"author" : "WWW.SINA.COM.CN",
"tags" : [],
"desc" : "",
"emailed" : False,
"forwarded" : False,
"english" : False
}  , {
"index" : 11,
"articleIndex" : "27262",
"favor" :  False ,
     "read" : False,    
"title" : "中高考英语改革方案或将推动学生提前留学",
"titleTip" : "中高考英语改革方案或将推动学生提前留学",
"titleSummary" : "中高考英语改革方案或将推动学生提前留学",
"descSummary" : "",
"url" : "http:\/\/go.rss.sina.com.cn\/redirect.php?url=http:\/\/edu.sina.com.cn\/a\/2013-10-30\/1125235426.shtml",
"pubDate" : "11:25:58",
"enterDate" : "384201:01:03",
"channelId" : "8091491159968174490",
"channelName" : "出国留学-新浪教育",
"channelNameSummary" : "出国留学-新浪教育",
"channelUrl" : "http:\/\/edu.sina.com.cn\/rss\/index.html",
"author" : "WWW.SINA.COM.CN",
"tags" : [],
"desc" : "",
"emailed" : False,
"forwarded" : False,
"english" : False
}  , {
"index" : 12,
"articleIndex" : "27261",
"favor" :  False ,
     "read" : False,    
"title" : "英国税收缺口达350亿英镑 拟向留学生征税",
"titleTip" : "英国税收缺口达350亿英镑 拟向留学生征税",
"titleSummary" : "英国税收缺口达350亿英镑 拟向留学生征税",
"descSummary" : "",
"url" : "http:\/\/go.rss.sina.com.cn\/redirect.php?url=http:\/\/edu.sina.com.cn\/a\/2013-10-30\/1122235425.shtml",
"pubDate" : "11:22:20",
"enterDate" : "384200:57:25",
"channelId" : "8091491159968174490",
"channelName" : "出国留学-新浪教育",
"channelNameSummary" : "出国留学-新浪教育",
"channelUrl" : "http:\/\/edu.sina.com.cn\/rss\/index.html",
"author" : "WWW.SINA.COM.CN",
"tags" : [],
"desc" : "",
"emailed" : False,
"forwarded" : False,
"english" : False
}  , {
"index" : 13,
"articleIndex" : "27260",
"favor" :  False ,
     "read" : False,    
"title" : "奥巴马：中印正在努力 将在教育上超越美国",
"titleTip" : "奥巴马：中印正在努力 将在教育上超越美国",
"titleSummary" : "奥巴马：中印正在努力 将在教育上超越美国",
"descSummary" : "",
"url" : "http:\/\/go.rss.sina.com.cn\/redirect.php?url=http:\/\/edu.sina.com.cn\/a\/2013-10-30\/1117235424.shtml",
"pubDate" : "11:17:59",
"enterDate" : "384200:53:04",
"channelId" : "8091491159968174490",
"channelName" : "出国留学-新浪教育",
"channelNameSummary" : "出国留学-新浪教育",
"channelUrl" : "http:\/\/edu.sina.com.cn\/rss\/index.html",
"author" : "WWW.SINA.COM.CN",
"tags" : [],
"desc" : "",
"emailed" : False,
"forwarded" : False,
"english" : False
}  , {
"index" : 14,
"articleIndex" : "27264",
"favor" :  False ,
     "read" : False,    
"title" : "澳华裔女博士跳钢管舞解压 将角逐全国大赛",
"titleTip" : "澳华裔女博士跳钢管舞解压 将角逐全国大赛",
"titleSummary" : "澳华裔女博士跳钢管舞解压 将角逐全国大赛",
"descSummary" : "",
"url" : "http:\/\/go.rss.sina.com.cn\/redirect.php?url=http:\/\/edu.sina.com.cn\/a\/2013-10-30\/1101235423.shtml",
"pubDate" : "11:01:33",
"enterDate" : "384200:06:33",
"channelId" : "8091491159968174490",
"channelName" : "出国留学-新浪教育",
"channelNameSummary" : "出国留学-新浪教育",
"channelUrl" : "http:\/\/edu.sina.com.cn\/rss\/index.html",
"author" : "WWW.SINA.COM.CN",
"tags" : [],
"desc" : "",
"emailed" : False,
"forwarded" : False,
"english" : False
}  , {
"index" : 15,
"articleIndex" : "27263",
"favor" :  False ,
     "read" : False,    
"title" : "美常春藤名校招生官驳\u201C25%退学率\u201D一说",
"titleTip" : "美常春藤名校招生官驳\u201C25%退学率\u201D一说",
"titleSummary" : "美常春藤名校招生官驳\u201C25%退学率\u201D一说",
"descSummary" : "",
"url" : "http:\/\/go.rss.sina.com.cn\/redirect.php?url=http:\/\/edu.sina.com.cn\/a\/2013-10-30\/1047235422.shtml",
"pubDate" : "10:47:05",
"enterDate" : "384199:52:05",
"channelId" : "8091491159968174490",
"channelName" : "出国留学-新浪教育",
"channelNameSummary" : "出国留学-新浪教育",
"channelUrl" : "http:\/\/edu.sina.com.cn\/rss\/index.html",
"author" : "WWW.SINA.COM.CN",
"tags" : [],
"desc" : "",
"emailed" : False,
"forwarded" : False,
"english" : False
}  , {
"index" : 16,
"articleIndex" : "27259",
"favor" :  False ,
     "read" : False,    
"title" : "盘点国外高考：重视母语与补考机会",
"titleTip" : "盘点国外高考：重视母语与补考机会",
"titleSummary" : "盘点国外高考：重视母语与补考机会",
"descSummary" : "",
"url" : "http:\/\/go.rss.sina.com.cn\/redirect.php?url=http:\/\/edu.sina.com.cn\/a\/2013-10-30\/1021235419.shtml",
"pubDate" : "10:21:00",
"enterDate" : "384200:26:10",
"channelId" : "8091491159968174490",
"channelName" : "出国留学-新浪教育",
"channelNameSummary" : "出国留学-新浪教育",
"channelUrl" : "http:\/\/edu.sina.com.cn\/rss\/index.html",
"author" : "WWW.SINA.COM.CN",
"tags" : [],
"desc" : "",
"emailed" : False,
"forwarded" : False,
"english" : False
}  , {
"index" : 17,
"articleIndex" : "27258",
"favor" :  False ,
     "read" : False,    
"title" : "英媒盘点最雷人病假理由：球队输球居榜首",
"titleTip" : "英媒盘点最雷人病假理由：球队输球居榜首",
"titleSummary" : "英媒盘点最雷人病假理由：球队输球居榜首",
"descSummary" : "",
"url" : "http:\/\/go.rss.sina.com.cn\/redirect.php?url=http:\/\/edu.sina.com.cn\/a\/2013-10-30\/0834235411.shtml",
"pubDate" : "08:34:19",
"enterDate" : "384200:39:49",
"channelId" : "8091491159968174490",
"channelName" : "出国留学-新浪教育",
"channelNameSummary" : "出国留学-新浪教育",
"channelUrl" : "http:\/\/edu.sina.com.cn\/rss\/index.html",
"author" : "WWW.SINA.COM.CN",
"tags" : [],
"desc" : "",
"emailed" : False,
"forwarded" : False,
"english" : False
}  , {
"index" : 18,
"articleIndex" : "27257",
"favor" :  False ,
     "read" : False,    
"title" : "英女子不愿找工作靠生育9名子女领福利生活",
"titleTip" : "英女子不愿找工作靠生育9名子女领福利生活",
"titleSummary" : "英女子不愿找工作靠生育9名子女领福利生活",
"descSummary" : "",
"url" : "http:\/\/go.rss.sina.com.cn\/redirect.php?url=http:\/\/edu.sina.com.cn\/a\/2013-10-30\/0829235410.shtml",
"pubDate" : "08:29:47",
"enterDate" : "384201:05:22",
"channelId" : "8091491159968174490",
"channelName" : "出国留学-新浪教育",
"channelNameSummary" : "出国留学-新浪教育",
"channelUrl" : "http:\/\/edu.sina.com.cn\/rss\/index.html",
"author" : "WWW.SINA.COM.CN",
"tags" : [],
"desc" : "",
"emailed" : False,
"forwarded" : False,
"english" : False
}  , {
"index" : 19,
"articleIndex" : "27256",
"favor" :  False ,
     "read" : False,    
"title" : "美亚裔迎光棍节办\u201C脱光派对\u201D吸引单身老外",
"titleTip" : "美亚裔迎光棍节办\u201C脱光派对\u201D吸引单身老外",
"titleSummary" : "美亚裔迎光棍节办\u201C脱光派对\u201D吸引单身老外",
"descSummary" : "",
"url" : "http:\/\/go.rss.sina.com.cn\/redirect.php?url=http:\/\/edu.sina.com.cn\/a\/2013-10-30\/0824235409.shtml",
"pubDate" : "08:24:24",
"enterDate" : "384200:59:59",
"channelId" : "8091491159968174490",
"channelName" : "出国留学-新浪教育",
"channelNameSummary" : "出国留学-新浪教育",
"channelUrl" : "http:\/\/edu.sina.com.cn\/rss\/index.html",
"author" : "WWW.SINA.COM.CN",
"tags" : [],
"desc" : "",
"emailed" : False,
"forwarded" : False,
"english" : False
} ]
}
