{
"mode" : {"viewTitle" : 1,   "viewNew" : 0,  "pageIndex" : 2 },
 "channel" : {"id" : "8091491159968174490", "booked" : False, "subNumber" : 1, "name" : "出国留学-新浪教育", "url" : "http:\/\/edu.sina.com.cn\/rss\/index.html", "feed" : "http:\/\/rss.sina.com.cn\/edu\/abroad5.xml", "author" : "WWW.SINA.COM.CN", "desc" : "文化教育-出国留学", "imageUrl" : "http:\/\/www.sinaimg.cn\/home\/deco\/2009\/0330\/logo_home_edu.gif", "postPerWeek" : "0", "lastCrawTime" : "17:15:50", "crawDateTime" : "17:15:50", "lastHttpCode" : "200"}, "page" : {
"startIndex" : 20,
"totalCount" : 5000,
"pageIndex" : 2,
"lastPage" : 250,
"pageSize" : 20,
"english" :  False },
 "unreadNum" : 0, "shotIndex" : -1,
"articles" : [
{
"index" : 0,
"articleIndex" : "27255",
"favor" :  False ,
     "read" : False,    
"title" : "纽约华裔灭门案警示 新移民心理压力不容忽视",
"titleTip" : "纽约华裔灭门案警示 新移民心理压力不容忽视",
"titleSummary" : "纽约华裔灭门案警示 新移民心理压力不容忽视",
"descSummary" : "",
"url" : "http:\/\/go.rss.sina.com.cn\/redirect.php?url=http:\/\/edu.sina.com.cn\/a\/2013-10-30\/0743235405.shtml",
"pubDate" : "07:43:00",
"enterDate" : "384200:48:40",
"channelId" : "8091491159968174490",
"channelName" : "出国留学-新浪教育",
"channelNameSummary" : "出国留学-新浪教育",
"channelUrl" : "http:\/\/edu.sina.com.cn\/rss\/index.html",
"author" : "WWW.SINA.COM.CN",
"tags" : [],
"desc" : "",
"emailed" : False,
"forwarded" : False,
"english" : False
}  , {
"index" : 1,
"articleIndex" : "27253",
"favor" :  False ,
     "read" : False,    
"title" : "美国TOP50商学院之申请流程",
"titleTip" : "美国TOP50商学院之申请流程",
"titleSummary" : "美国TOP50商学院之申请流程",
"descSummary" : "",
"url" : "http:\/\/go.rss.sina.com.cn\/redirect.php?url=http:\/\/blog.sina.com.cn\/s\/blog_bf837ee30101ewnp.html",
"pubDate" : "昨天18:12:35",
"enterDate" : "384200:50:30",
"channelId" : "8091491159968174490",
"channelName" : "出国留学-新浪教育",
"channelNameSummary" : "出国留学-新浪教育",
"channelUrl" : "http:\/\/edu.sina.com.cn\/rss\/index.html",
"author" : "WWW.SINA.COM.CN",
"tags" : [],
"desc" : "",
"emailed" : False,
"forwarded" : False,
"english" : False
}  , {
"index" : 2,
"articleIndex" : "27252",
"favor" :  False ,
     "read" : False,    
"title" : "英国舞蹈硕士专业申请全解析",
"titleTip" : "英国舞蹈硕士专业申请全解析",
"titleSummary" : "英国舞蹈硕士专业申请全解析",
"descSummary" : "",
"url" : "http:\/\/go.rss.sina.com.cn\/redirect.php?url=http:\/\/blog.sina.com.cn\/s\/blog_5798ec110101fmn1.html",
"pubDate" : "昨天18:09:30",
"enterDate" : "384200:47:25",
"channelId" : "8091491159968174490",
"channelName" : "出国留学-新浪教育",
"channelNameSummary" : "出国留学-新浪教育",
"channelUrl" : "http:\/\/edu.sina.com.cn\/rss\/index.html",
"author" : "WWW.SINA.COM.CN",
"tags" : [],
"desc" : "",
"emailed" : False,
"forwarded" : False,
"english" : False
}  , {
"index" : 3,
"articleIndex" : "27254",
"favor" :  False ,
     "read" : False,    
"title" : "组图：台湾女生校服尺度超日本",
"titleTip" : "组图：台湾女生校服尺度超日本",
"titleSummary" : "组图：台湾女生校服尺度超日本",
"descSummary" : "",
"url" : "http:\/\/go.rss.sina.com.cn\/redirect.php?url=http:\/\/edu.sina.com.cn\/a\/2013-10-29\/1807235394.shtml",
"pubDate" : "昨天18:07:38",
"enterDate" : "384187:43:23",
"channelId" : "8091491159968174490",
"channelName" : "出国留学-新浪教育",
"channelNameSummary" : "出国留学-新浪教育",
"channelUrl" : "http:\/\/edu.sina.com.cn\/rss\/index.html",
"author" : "WWW.SINA.COM.CN",
"tags" : [],
"desc" : "",
"emailed" : False,
"forwarded" : False,
"english" : False
}  , {
"index" : 4,
"articleIndex" : "27251",
"favor" :  False ,
     "read" : False,    
"title" : "赴澳读中学需要考虑的四因素",
"titleTip" : "赴澳读中学需要考虑的四因素",
"titleSummary" : "赴澳读中学需要考虑的四因素",
"descSummary" : "",
"url" : "http:\/\/go.rss.sina.com.cn\/redirect.php?url=http:\/\/blog.sina.com.cn\/s\/blog_4ea3e3a50102ed5o.html",
"pubDate" : "昨天18:03:01",
"enterDate" : "384201:11:01",
"channelId" : "8091491159968174490",
"channelName" : "出国留学-新浪教育",
"channelNameSummary" : "出国留学-新浪教育",
"channelUrl" : "http:\/\/edu.sina.com.cn\/rss\/index.html",
"author" : "WWW.SINA.COM.CN",
"tags" : [],
"desc" : "",
"emailed" : False,
"forwarded" : False,
"english" : False
}  , {
"index" : 5,
"articleIndex" : "27250",
"favor" :  False ,
     "read" : False,    
"title" : "2014留学申请语言考试新变化",
"titleTip" : "2014留学申请语言考试新变化",
"titleSummary" : "2014留学申请语言考试新变化",
"descSummary" : "",
"url" : "http:\/\/go.rss.sina.com.cn\/redirect.php?url=http:\/\/blog.sina.com.cn\/s\/blog_4ea3e3a50102ed5m.html",
"pubDate" : "昨天18:01:20",
"enterDate" : "384201:09:20",
"channelId" : "8091491159968174490",
"channelName" : "出国留学-新浪教育",
"channelNameSummary" : "出国留学-新浪教育",
"channelUrl" : "http:\/\/edu.sina.com.cn\/rss\/index.html",
"author" : "WWW.SINA.COM.CN",
"tags" : [],
"desc" : "",
"emailed" : False,
"forwarded" : False,
"english" : False
}  , {
"index" : 6,
"articleIndex" : "27249",
"favor" :  False ,
     "read" : False,    
"title" : "为什么去法国攻读理工科？",
"titleTip" : "为什么去法国攻读理工科？",
"titleSummary" : "为什么去法国攻读理工科？",
"descSummary" : "",
"url" : "http:\/\/go.rss.sina.com.cn\/redirect.php?url=http:\/\/blog.sina.com.cn\/s\/blog_6a25e5bf0101dy8v.html",
"pubDate" : "昨天17:41:55",
"enterDate" : "384200:49:55",
"channelId" : "8091491159968174490",
"channelName" : "出国留学-新浪教育",
"channelNameSummary" : "出国留学-新浪教育",
"channelUrl" : "http:\/\/edu.sina.com.cn\/rss\/index.html",
"author" : "WWW.SINA.COM.CN",
"tags" : [],
"desc" : "",
"emailed" : False,
"forwarded" : False,
"english" : False
}  , {
"index" : 7,
"articleIndex" : "27248",
"favor" :  False ,
     "read" : False,    
"title" : "美专家：受教育程度越高越易于维持婚姻长久",
"titleTip" : "美专家：受教育程度越高越易于维持婚姻长久",
"titleSummary" : "美专家：受教育程度越高越易于维持婚姻长久",
"descSummary" : "",
"url" : "http:\/\/go.rss.sina.com.cn\/redirect.php?url=http:\/\/edu.sina.com.cn\/a\/2013-10-29\/1725235390.shtml",
"pubDate" : "昨天17:25:57",
"enterDate" : "384201:04:02",
"channelId" : "8091491159968174490",
"channelName" : "出国留学-新浪教育",
"channelNameSummary" : "出国留学-新浪教育",
"channelUrl" : "http:\/\/edu.sina.com.cn\/rss\/index.html",
"author" : "WWW.SINA.COM.CN",
"tags" : [],
"desc" : "",
"emailed" : False,
"forwarded" : False,
"english" : False
}  , {
"index" : 8,
"articleIndex" : "27247",
"favor" :  False ,
     "read" : False,    
"title" : "香港研究型硕士申请需三利器",
"titleTip" : "香港研究型硕士申请需三利器",
"titleSummary" : "香港研究型硕士申请需三利器",
"descSummary" : "",
"url" : "http:\/\/go.rss.sina.com.cn\/redirect.php?url=http:\/\/blog.sina.com.cn\/s\/blog_b4406f2b0101e7fd.html",
"pubDate" : "昨天17:19:14",
"enterDate" : "384200:57:19",
"channelId" : "8091491159968174490",
"channelName" : "出国留学-新浪教育",
"channelNameSummary" : "出国留学-新浪教育",
"channelUrl" : "http:\/\/edu.sina.com.cn\/rss\/index.html",
"author" : "WWW.SINA.COM.CN",
"tags" : [],
"desc" : "",
"emailed" : False,
"forwarded" : False,
"english" : False
}  , {
"index" : 9,
"articleIndex" : "27246",
"favor" :  False ,
     "read" : False,    
"title" : "简析美国法学院就业走向",
"titleTip" : "简析美国法学院就业走向",
"titleSummary" : "简析美国法学院就业走向",
"descSummary" : "",
"url" : "http:\/\/go.rss.sina.com.cn\/redirect.php?url=http:\/\/blog.sina.com.cn\/s\/blog_b4406f2b0101e7ba.html",
"pubDate" : "昨天17:16:30",
"enterDate" : "384200:54:35",
"channelId" : "8091491159968174490",
"channelName" : "出国留学-新浪教育",
"channelNameSummary" : "出国留学-新浪教育",
"channelUrl" : "http:\/\/edu.sina.com.cn\/rss\/index.html",
"author" : "WWW.SINA.COM.CN",
"tags" : [],
"desc" : "",
"emailed" : False,
"forwarded" : False,
"english" : False
}  , {
"index" : 10,
"articleIndex" : "27245",
"favor" :  False ,
     "read" : False,    
"title" : "留学专家浅谈德国大学奖学金",
"titleTip" : "留学专家浅谈德国大学奖学金",
"titleSummary" : "留学专家浅谈德国大学奖学金",
"descSummary" : "",
"url" : "http:\/\/go.rss.sina.com.cn\/redirect.php?url=http:\/\/blog.sina.com.cn\/s\/blog_b4406f2b0101e7f9.html",
"pubDate" : "昨天17:15:17",
"enterDate" : "384200:53:22",
"channelId" : "8091491159968174490",
"channelName" : "出国留学-新浪教育",
"channelNameSummary" : "出国留学-新浪教育",
"channelUrl" : "http:\/\/edu.sina.com.cn\/rss\/index.html",
"author" : "WWW.SINA.COM.CN",
"tags" : [],
"desc" : "",
"emailed" : False,
"forwarded" : False,
"english" : False
}  , {
"index" : 11,
"articleIndex" : "27244",
"favor" :  False ,
     "read" : False,    
"title" : "低GPA成功入读美国加州大学",
"titleTip" : "低GPA成功入读美国加州大学",
"titleSummary" : "低GPA成功入读美国加州大学",
"descSummary" : "",
"url" : "http:\/\/go.rss.sina.com.cn\/redirect.php?url=http:\/\/blog.sina.com.cn\/s\/blog_b4406f2b0101e7be.html",
"pubDate" : "昨天17:12:44",
"enterDate" : "384200:50:49",
"channelId" : "8091491159968174490",
"channelName" : "出国留学-新浪教育",
"channelNameSummary" : "出国留学-新浪教育",
"channelUrl" : "http:\/\/edu.sina.com.cn\/rss\/index.html",
"author" : "WWW.SINA.COM.CN",
"tags" : [],
"desc" : "",
"emailed" : False,
"forwarded" : False,
"english" : False
}  , {
"index" : 12,
"articleIndex" : "27243",
"favor" :  False ,
     "read" : False,    
"title" : "澳布里斯班严打\u201C过度群租\u201D营造留学好环境",
"titleTip" : "澳布里斯班严打\u201C过度群租\u201D营造留学好环境",
"titleSummary" : "澳布里斯班严打\u201C过度群租\u201D营造留学好环境",
"descSummary" : "",
"url" : "http:\/\/go.rss.sina.com.cn\/redirect.php?url=http:\/\/edu.sina.com.cn\/a\/2013-10-29\/1652235385.shtml",
"pubDate" : "昨天16:52:10",
"enterDate" : "384201:00:20",
"channelId" : "8091491159968174490",
"channelName" : "出国留学-新浪教育",
"channelNameSummary" : "出国留学-新浪教育",
"channelUrl" : "http:\/\/edu.sina.com.cn\/rss\/index.html",
"author" : "WWW.SINA.COM.CN",
"tags" : [],
"desc" : "",
"emailed" : False,
"forwarded" : False,
"english" : False
}  , {
"index" : 13,
"articleIndex" : "27242",
"favor" :  False ,
     "read" : False,    
"title" : "美大学面试\u201C突围\u201D三利器：口语个性仪表",
"titleTip" : "美大学面试\u201C突围\u201D三利器：口语个性仪表",
"titleSummary" : "美大学面试\u201C突围\u201D三利器：口语个性仪表",
"descSummary" : "",
"url" : "http:\/\/go.rss.sina.com.cn\/redirect.php?url=http:\/\/edu.sina.com.cn\/a\/2013-10-29\/1611235382.shtml",
"pubDate" : "昨天16:11:00",
"enterDate" : "384200:49:15",
"channelId" : "8091491159968174490",
"channelName" : "出国留学-新浪教育",
"channelNameSummary" : "出国留学-新浪教育",
"channelUrl" : "http:\/\/edu.sina.com.cn\/rss\/index.html",
"author" : "WWW.SINA.COM.CN",
"tags" : [],
"desc" : "",
"emailed" : False,
"forwarded" : False,
"english" : False
}  , {
"index" : 14,
"articleIndex" : "27240",
"favor" :  False ,
     "read" : False,    
"title" : "津巴布韦男子蝉联最丑先生 自称丑与生俱来",
"titleTip" : "津巴布韦男子蝉联最丑先生 自称丑与生俱来",
"titleSummary" : "津巴布韦男子蝉联最丑先生 自称丑与生俱来",
"descSummary" : "",
"url" : "http:\/\/go.rss.sina.com.cn\/redirect.php?url=http:\/\/edu.sina.com.cn\/a\/2013-10-29\/1536235381.shtml",
"pubDate" : "昨天15:36:42",
"enterDate" : "384201:15:07",
"channelId" : "8091491159968174490",
"channelName" : "出国留学-新浪教育",
"channelNameSummary" : "出国留学-新浪教育",
"channelUrl" : "http:\/\/edu.sina.com.cn\/rss\/index.html",
"author" : "WWW.SINA.COM.CN",
"tags" : [],
"desc" : "",
"emailed" : False,
"forwarded" : False,
"english" : False
}  , {
"index" : 15,
"articleIndex" : "27239",
"favor" :  False ,
     "read" : False,    
"title" : "加创业移民计划生效 无须文凭7.5万加元起投",
"titleTip" : "加创业移民计划生效 无须文凭7.5万加元起投",
"titleSummary" : "加创业移民计划生效 无须文凭7.5万加元起投",
"descSummary" : "",
"url" : "http:\/\/go.rss.sina.com.cn\/redirect.php?url=http:\/\/edu.sina.com.cn\/a\/2013-10-29\/1532235380.shtml",
"pubDate" : "昨天15:32:17",
"enterDate" : "384201:10:42",
"channelId" : "8091491159968174490",
"channelName" : "出国留学-新浪教育",
"channelNameSummary" : "出国留学-新浪教育",
"channelUrl" : "http:\/\/edu.sina.com.cn\/rss\/index.html",
"author" : "WWW.SINA.COM.CN",
"tags" : [],
"desc" : "",
"emailed" : False,
"forwarded" : False,
"english" : False
}  , {
"index" : 16,
"articleIndex" : "27238",
"favor" :  False ,
     "read" : False,    
"title" : "留加学生求职倾向华人公司 不谙沟通难融社会",
"titleTip" : "留加学生求职倾向华人公司 不谙沟通难融社会",
"titleSummary" : "留加学生求职倾向华人公司 不谙沟通难融社会",
"descSummary" : "",
"url" : "http:\/\/go.rss.sina.com.cn\/redirect.php?url=http:\/\/edu.sina.com.cn\/a\/2013-10-29\/1529235379.shtml",
"pubDate" : "昨天15:29:47",
"enterDate" : "384201:08:12",
"channelId" : "8091491159968174490",
"channelName" : "出国留学-新浪教育",
"channelNameSummary" : "出国留学-新浪教育",
"channelUrl" : "http:\/\/edu.sina.com.cn\/rss\/index.html",
"author" : "WWW.SINA.COM.CN",
"tags" : [],
"desc" : "",
"emailed" : False,
"forwarded" : False,
"english" : False
}  , {
"index" : 17,
"articleIndex" : "27241",
"favor" :  False ,
     "read" : False,    
"title" : "英寄宿中学校长：学生在英国就像一场冒险",
"titleTip" : "英寄宿中学校长：学生在英国就像一场冒险",
"titleSummary" : "英寄宿中学校长：学生在英国就像一场冒险",
"descSummary" : "",
"url" : "http:\/\/go.rss.sina.com.cn\/redirect.php?url=http:\/\/edu.sina.com.cn\/a\/2013-10-29\/1435235375.shtml",
"pubDate" : "昨天14:35:31",
"enterDate" : "384199:13:46",
"channelId" : "8091491159968174490",
"channelName" : "出国留学-新浪教育",
"channelNameSummary" : "出国留学-新浪教育",
"channelUrl" : "http:\/\/edu.sina.com.cn\/rss\/index.html",
"author" : "WWW.SINA.COM.CN",
"tags" : [],
"desc" : "",
"emailed" : False,
"forwarded" : False,
"english" : False
}  , {
"index" : 18,
"articleIndex" : "27237",
"favor" :  False ,
     "read" : False,    
"title" : "俄罗斯男子\u201C拍卖初夜\u201D中标者竟是男性(图)",
"titleTip" : "俄罗斯男子\u201C拍卖初夜\u201D中标者竟是男性(图)",
"titleSummary" : "俄罗斯男子\u201C拍卖初夜\u201D中标者竟是男性(图)",
"descSummary" : "",
"url" : "http:\/\/go.rss.sina.com.cn\/redirect.php?url=http:\/\/edu.sina.com.cn\/a\/2013-10-29\/1155235367.shtml",
"pubDate" : "昨天11:55:16",
"enterDate" : "384201:04:16",
"channelId" : "8091491159968174490",
"channelName" : "出国留学-新浪教育",
"channelNameSummary" : "出国留学-新浪教育",
"channelUrl" : "http:\/\/edu.sina.com.cn\/rss\/index.html",
"author" : "WWW.SINA.COM.CN",
"tags" : [],
"desc" : "",
"emailed" : False,
"forwarded" : False,
"english" : False
}  , {
"index" : 19,
"articleIndex" : "27236",
"favor" :  False ,
     "read" : False,    
"title" : "英海军借\u201C小甜甜\u201D歌曲\u201C吓退\u201D索马里海盗",
"titleTip" : "英海军借\u201C小甜甜\u201D歌曲\u201C吓退\u201D索马里海盗",
"titleSummary" : "英海军借\u201C小甜甜\u201D歌曲\u201C吓退\u201D索马里海盗",
"descSummary" : "",
"url" : "http:\/\/go.rss.sina.com.cn\/redirect.php?url=http:\/\/edu.sina.com.cn\/a\/2013-10-29\/1147235365.shtml",
"pubDate" : "昨天11:47:58",
"enterDate" : "384200:56:58",
"channelId" : "8091491159968174490",
"channelName" : "出国留学-新浪教育",
"channelNameSummary" : "出国留学-新浪教育",
"channelUrl" : "http:\/\/edu.sina.com.cn\/rss\/index.html",
"author" : "WWW.SINA.COM.CN",
"tags" : [],
"desc" : "",
"emailed" : False,
"forwarded" : False,
"english" : False
} ]
}
