{
"mode" : {"viewTitle" : 1,   "viewNew" : 0,  "pageIndex" : 1 },
 "channel" : {"id" : "-2948827425367615777", "booked" : False, "subNumber" : 1, "name" : "最新连载-新浪读书", "url" : "http:\/\/vip.book.sina.com.cn\/pub\/?cd=serial", "feed" : "http:\/\/rss.sina.com.cn\/book\/new_book.xml", "author" : "WWW.SINA.COM.CN", "desc" : "最新连载", "imageUrl" : "http:\/\/www.sinaimg.cn\/book\/deco\/2010\/0826\/logo_v3.gif", "postPerWeek" : "0", "lastCrawTime" : "17:16:25", "crawDateTime" : "昨天00:12:20", "lastHttpCode" : "304"}, "page" : {
"startIndex" : 0,
"totalCount" : 5000,
"pageIndex" : 1,
"lastPage" : 250,
"pageSize" : 20,
"english" :  False },
 "unreadNum" : 0, "shotIndex" : -1,
"articles" : [
{
"index" : 0,
"articleIndex" : "28601",
"favor" :  False ,
     "read" : False,    
"title" : "左宗棠",
"titleTip" : "左宗棠",
"titleSummary" : "左宗棠",
"descSummary" : "本书以左宗棠生平经历的大事为主线，以陶澍、胡林翼、林则徐、曾国藩、郭嵩焘、王]运、胡雪...",
"url" : "http:\/\/go.rss.sina.com.cn\/redirect.php?url=http:\/\/vip.book.sina.com.cn\/book\/index_250495.html",
"pubDate" : "昨天00:12:20",
"enterDate" : "384201:18:49",
"channelId" : "-2948827425367615777",
"channelName" : "最新连载-新浪读书",
"channelNameSummary" : "最新连载-新浪读书",
"channelUrl" : "http:\/\/vip.book.sina.com.cn\/pub\/?cd=serial",
"author" : "WWW.SINA.COM.CN",
"tags" : [],
"desc" : "本书以左宗棠生平经历的大事为主线，以陶澍、胡林翼、林则徐、曾国藩、郭嵩焘、王]运、胡雪岩、李鸿章、慈禧等人与左宗棠的关系为辅线，用生动可感的故事，客观写实左宗棠曲折传奇人生，以当代鲜活的视角，入木三分地剖析左宗棠独具个性的政治韬略智慧，细致晒出\u201C三千年未有之大....",
"emailed" : False,
"forwarded" : False,
"english" : False
}  , {
"index" : 1,
"articleIndex" : "28602",
"favor" :  False ,
     "read" : False,    
"title" : "推手",
"titleTip" : "推手",
"titleSummary" : "推手",
"descSummary" : "品牌就是符号，口碑营销就是硬道理。捷锐营销策划公司的策划总监李峰，是一个策划圈的知名人物...",
"url" : "http:\/\/go.rss.sina.com.cn\/redirect.php?url=http:\/\/vip.book.sina.com.cn\/book\/index_250492.html",
"pubDate" : "昨天00:12:20",
"enterDate" : "384201:18:49",
"channelId" : "-2948827425367615777",
"channelName" : "最新连载-新浪读书",
"channelNameSummary" : "最新连载-新浪读书",
"channelUrl" : "http:\/\/vip.book.sina.com.cn\/pub\/?cd=serial",
"author" : "WWW.SINA.COM.CN",
"tags" : [],
"desc" : "品牌就是符号，口碑营销就是硬道理。捷锐营销策划公司的策划总监李峰，是一个策划圈的知名人物，成功策划了很多品牌，由于他手法怪异多变，被业界称为\u201C策划怪才\u201D。当李峰决定大展雄风，主持策划著名的风韵服饰公司旗下的新品\u2015\u2015雅美保暖内衣，意外发现竞争对手\u201C绒朵儿\u201D实力强....",
"emailed" : False,
"forwarded" : False,
"english" : False
}  , {
"index" : 2,
"articleIndex" : "28603",
"favor" :  False ,
     "read" : False,    
"title" : "春天华尔兹",
"titleTip" : "春天华尔兹",
"titleSummary" : "春天华尔兹",
"descSummary" : "从小被人贩子拐卖到A城的小男孩被欧阳家收养，从此进入欧阳婕的生活。十年之后，成为灌...",
"url" : "http:\/\/go.rss.sina.com.cn\/redirect.php?url=http:\/\/vip.book.sina.com.cn\/book\/index_250487.html",
"pubDate" : "昨天00:12:20",
"enterDate" : "384201:18:49",
"channelId" : "-2948827425367615777",
"channelName" : "最新连载-新浪读书",
"channelNameSummary" : "最新连载-新浪读书",
"channelUrl" : "http:\/\/vip.book.sina.com.cn\/pub\/?cd=serial",
"author" : "WWW.SINA.COM.CN",
"tags" : [],
"desc" : "从小被人贩子拐卖到A城的小男孩被欧阳家收养，从此进入欧阳婕的生活。十年之后，成为灌篮高手的欧阳傲拒绝几家体育名校的邀请，以优异成绩考进欧阳婕所在的二流中学。欧阳婕在开学日看到一身黑衣像暴走族般骑机车冲进校园的另类美术老师童天南，从此留意上他，而童天南也忍不住关....",
"emailed" : False,
"forwarded" : False,
"english" : False
}  , {
"index" : 3,
"articleIndex" : "28604",
"favor" :  False ,
     "read" : False,    
"title" : "日本八路",
"titleTip" : "日本八路",
"titleSummary" : "日本八路",
"descSummary" : "抗日战争时期，有个鲜为人知的群体：被俘日军经反战教育后纷纷觉醒、倒戈，竟有数千人参加...",
"url" : "http:\/\/go.rss.sina.com.cn\/redirect.php?url=http:\/\/vip.book.sina.com.cn\/book\/index_250483.html",
"pubDate" : "昨天00:12:20",
"enterDate" : "384201:18:49",
"channelId" : "-2948827425367615777",
"channelName" : "最新连载-新浪读书",
"channelNameSummary" : "最新连载-新浪读书",
"channelUrl" : "http:\/\/vip.book.sina.com.cn\/pub\/?cd=serial",
"author" : "WWW.SINA.COM.CN",
"tags" : [],
"desc" : "抗日战争时期，有个鲜为人知的群体：被俘日军经反战教育后纷纷觉醒、倒戈，竟有数千人参加了八路军。成立了近百个\u201C在华日人反战同盟\u201D，毅然加入了中国人民抗日战争的行列。掉转枪口对日本法西斯反戈一击。这是人类战争史上绝无仅有的惊世奇观。也是抗日战争的一部壮丽史诗！他们....",
"emailed" : False,
"forwarded" : False,
"english" : False
}  , {
"index" : 4,
"articleIndex" : "28605",
"favor" :  False ,
     "read" : False,    
"title" : "特工狂少",
"titleTip" : "特工狂少",
"titleSummary" : "特工狂少",
"descSummary" : "大龄特工意外牺牲，重生到一个高中生身上！从此，文弱少年化身强者！猎美称雄！纵横都市！",
"url" : "http:\/\/go.rss.sina.com.cn\/redirect.php?url=http:\/\/vip.book.sina.com.cn\/book\/index_250476.html",
"pubDate" : "昨天00:12:20",
"enterDate" : "384201:18:49",
"channelId" : "-2948827425367615777",
"channelName" : "最新连载-新浪读书",
"channelNameSummary" : "最新连载-新浪读书",
"channelUrl" : "http:\/\/vip.book.sina.com.cn\/pub\/?cd=serial",
"author" : "WWW.SINA.COM.CN",
"tags" : [],
"desc" : "大龄特工意外牺牲，重生到一个高中生身上！从此，文弱少年化身强者！猎美称雄！纵横都市！",
"emailed" : False,
"forwarded" : False,
"english" : False
}  , {
"index" : 5,
"articleIndex" : "28606",
"favor" :  False ,
     "read" : False,    
"title" : "灵玉公主",
"titleTip" : "灵玉公主",
"titleSummary" : "灵玉公主",
"descSummary" : "亡国公主爱恨情仇",
"url" : "http:\/\/go.rss.sina.com.cn\/redirect.php?url=http:\/\/vip.book.sina.com.cn\/book\/index_250456.html",
"pubDate" : "昨天00:12:20",
"enterDate" : "384201:18:49",
"channelId" : "-2948827425367615777",
"channelName" : "最新连载-新浪读书",
"channelNameSummary" : "最新连载-新浪读书",
"channelUrl" : "http:\/\/vip.book.sina.com.cn\/pub\/?cd=serial",
"author" : "WWW.SINA.COM.CN",
"tags" : [],
"desc" : "亡国公主爱恨情仇",
"emailed" : False,
"forwarded" : False,
"english" : False
}  , {
"index" : 6,
"articleIndex" : "28607",
"favor" :  False ,
     "read" : False,    
"title" : "我与韩国女间谍的故事",
"titleTip" : "我与韩国女间谍的故事",
"titleSummary" : "我与韩国女间谍的故事",
"descSummary" : "貌美如花、富有却伪装成来自农村的小商场员工；相貌英俊无比、名牌大学研究生...",
"url" : "http:\/\/go.rss.sina.com.cn\/redirect.php?url=http:\/\/vip.book.sina.com.cn\/book\/index_250447.html",
"pubDate" : "昨天00:12:20",
"enterDate" : "384201:18:49",
"channelId" : "-2948827425367615777",
"channelName" : "最新连载-新浪读书",
"channelNameSummary" : "最新连载-新浪读书",
"channelUrl" : "http:\/\/vip.book.sina.com.cn\/pub\/?cd=serial",
"author" : "WWW.SINA.COM.CN",
"tags" : [],
"desc" : "貌美如花、富有却伪装成来自农村的小商场员工；相貌英俊无比、名牌大学研究生毕业却选择当空调装修工；帅气高大、身手不凡却伪装成酒店的普通保安......他们究竟隐藏着什么不为人所知的目的？痴情的男女、阴险的恶魔、凄美的爱情、尘封的秘密。",
"emailed" : False,
"forwarded" : False,
"english" : False
}  , {
"index" : 7,
"articleIndex" : "28608",
"favor" :  False ,
     "read" : False,    
"title" : "史仙",
"titleTip" : "史仙",
"titleSummary" : "史仙",
"descSummary" : "从一位不知名的天不怕地不怕的\u201C飞天蜈蚣\u201D,究竟是怎么样的莫名其妙踏上修仙路。本书以开新立...",
"url" : "http:\/\/go.rss.sina.com.cn\/redirect.php?url=http:\/\/vip.book.sina.com.cn\/book\/index_250437.html",
"pubDate" : "昨天00:12:20",
"enterDate" : "384201:18:49",
"channelId" : "-2948827425367615777",
"channelName" : "最新连载-新浪读书",
"channelNameSummary" : "最新连载-新浪读书",
"channelUrl" : "http:\/\/vip.book.sina.com.cn\/pub\/?cd=serial",
"author" : "WWW.SINA.COM.CN",
"tags" : [],
"desc" : "从一位不知名的天不怕地不怕的\u201C飞天蜈蚣\u201D,究竟是怎么样的莫名其妙踏上修仙路。本书以开新立异的方式呈现给各位道友以历史变迁、历史事件为呈现给道友们,道友们可以通过本书、一边修仙、一边学习中国历史。历史不好的看完本书，中国历史应该也会学到很好.一起拭目以待。",
"emailed" : False,
"forwarded" : False,
"english" : False
}  , {
"index" : 8,
"articleIndex" : "28609",
"favor" :  False ,
     "read" : False,    
"title" : "霸爱小娇妻",
"titleTip" : "霸爱小娇妻",
"titleSummary" : "霸爱小娇妻",
"descSummary" : "莫名其妙被人看中，当成礼物送给那个神秘男人，不羁的她第一次见面就给了他一刀。这样打...",
"url" : "http:\/\/go.rss.sina.com.cn\/redirect.php?url=http:\/\/vip.book.sina.com.cn\/book\/index_250436.html",
"pubDate" : "昨天00:12:20",
"enterDate" : "384201:18:49",
"channelId" : "-2948827425367615777",
"channelName" : "最新连载-新浪读书",
"channelNameSummary" : "最新连载-新浪读书",
"channelUrl" : "http:\/\/vip.book.sina.com.cn\/pub\/?cd=serial",
"author" : "WWW.SINA.COM.CN",
"tags" : [],
"desc" : "莫名其妙被人看中，当成礼物送给那个神秘男人，不羁的她第一次见面就给了他一刀。这样打招呼的方式还真是少见。他却并不生气，反而跟她来玩了一场游戏。他以为自己是个渔夫，可以慢条斯理地处理网中的小鱼，只是在什么时候，这网也网住了他自己？她知道自己的身份，见好就收是最好....",
"emailed" : False,
"forwarded" : False,
"english" : False
}  , {
"index" : 9,
"articleIndex" : "28610",
"favor" :  False ,
     "read" : False,    
"title" : "绝情蛊",
"titleTip" : "绝情蛊",
"titleSummary" : "绝情蛊",
"descSummary" : "君王再多的宠爱，又岂能换回那曾经沧海桑田？望着君王那似曾相识的笑颜，她的心口慢慢地疼痛...",
"url" : "http:\/\/go.rss.sina.com.cn\/redirect.php?url=http:\/\/vip.book.sina.com.cn\/book\/index_250431.html",
"pubDate" : "昨天00:12:20",
"enterDate" : "384201:18:49",
"channelId" : "-2948827425367615777",
"channelName" : "最新连载-新浪读书",
"channelNameSummary" : "最新连载-新浪读书",
"channelUrl" : "http:\/\/vip.book.sina.com.cn\/pub\/?cd=serial",
"author" : "WWW.SINA.COM.CN",
"tags" : [],
"desc" : "君王再多的宠爱，又岂能换回那曾经沧海桑田？望着君王那似曾相识的笑颜，她的心口慢慢地疼痛起来：世间蛊毒千万种，却不知哪种蛊才能解情殇之毒......",
"emailed" : False,
"forwarded" : False,
"english" : False
}  , {
"index" : 10,
"articleIndex" : "28611",
"favor" :  False ,
     "read" : False,    
"title" : "落花时节纷纷雨",
"titleTip" : "落花时节纷纷雨",
"titleSummary" : "落花时节纷纷雨",
"descSummary" : "如果不是遇到李小白，也许我从来都不会想像，我的爱也可以这么伟大。如果这世间还有...",
"url" : "http:\/\/go.rss.sina.com.cn\/redirect.php?url=http:\/\/vip.book.sina.com.cn\/book\/index_250409.html",
"pubDate" : "昨天00:12:20",
"enterDate" : "384201:18:49",
"channelId" : "-2948827425367615777",
"channelName" : "最新连载-新浪读书",
"channelNameSummary" : "最新连载-新浪读书",
"channelUrl" : "http:\/\/vip.book.sina.com.cn\/pub\/?cd=serial",
"author" : "WWW.SINA.COM.CN",
"tags" : [],
"desc" : "如果不是遇到李小白，也许我从来都不会想像，我的爱也可以这么伟大。如果这世间还有另外一个世界可以前往，那么，让我安息，静静地陪伴你。",
"emailed" : False,
"forwarded" : False,
"english" : False
}  , {
"index" : 11,
"articleIndex" : "28600",
"favor" :  False ,
     "read" : False,    
"title" : "《一夜恩情》",
"titleTip" : "《一夜恩情》",
"titleSummary" : "《一夜恩情》",
"descSummary" : "小说讲述的是被人包养的情妇小红和农村青年潘林的爱情悲剧故事。小说情节安排先由小说...",
"url" : "http:\/\/go.rss.sina.com.cn\/redirect.php?url=http:\/\/vip.book.sina.com.cn\/book\/index_250472.html",
"pubDate" : "昨天00:09:50",
"enterDate" : "384201:16:19",
"channelId" : "-2948827425367615777",
"channelName" : "最新连载-新浪读书",
"channelNameSummary" : "最新连载-新浪读书",
"channelUrl" : "http:\/\/vip.book.sina.com.cn\/pub\/?cd=serial",
"author" : "WWW.SINA.COM.CN",
"tags" : [],
"desc" : "小说讲述的是被人包养的情妇小红和农村青年潘林的爱情悲剧故事。小说情节安排先由小说叙述者以潘林因外遇发生婚变而设下一个巨大的疑团，再引由潘林父亲，潘林，小红的叙述如抽丝剥茧般的去释疑，直到最后事件才露出本来面目，但此时潘林已不幸离世，和小红已是阴阳相隔。在释疑中....",
"emailed" : False,
"forwarded" : False,
"english" : False
}  , {
"index" : 12,
"articleIndex" : "28599",
"favor" :  False ,
     "read" : False,    
"title" : "明朝秘史",
"titleTip" : "明朝秘史",
"titleSummary" : "明朝秘史",
"descSummary" : "这本书主要讲述的是从洪武元年（1368）正月开国，到崇祯十七年（1644）正月灭亡，存在了...",
"url" : "http:\/\/go.rss.sina.com.cn\/redirect.php?url=http:\/\/vip.book.sina.com.cn\/book\/index_250471.html",
"pubDate" : "昨天00:02:45",
"enterDate" : "384201:09:14",
"channelId" : "-2948827425367615777",
"channelName" : "最新连载-新浪读书",
"channelNameSummary" : "最新连载-新浪读书",
"channelUrl" : "http:\/\/vip.book.sina.com.cn\/pub\/?cd=serial",
"author" : "WWW.SINA.COM.CN",
"tags" : [],
"desc" : "这本书主要讲述的是从洪武元年（1368）正月开国，到崇祯十七年（1644）正月灭亡，存在了276年，共经历了16个帝皇。明朝前期，经过朱元璋，朱棣父子多次在政治上改革，使得明朝逐渐强大起来，之后有\u201C仁宣之治\u201D，\u201C弘治中兴\u201D，这可算得上明朝有作为的改革。历史的车轮谁也挡不住....",
"emailed" : False,
"forwarded" : False,
"english" : False
}  , {
"index" : 13,
"articleIndex" : "28598",
"favor" :  False ,
     "read" : False,    
"title" : "错爱之梧桐秋色还寂寞",
"titleTip" : "错爱之梧桐秋色还寂寞",
"titleSummary" : "错爱之梧桐秋色还寂寞",
"descSummary" : "身为官家小姐，她几乎对九皇子是一见倾心，而后愈发不可收拾。他是她的天，她...",
"url" : "http:\/\/go.rss.sina.com.cn\/redirect.php?url=http:\/\/vip.book.sina.com.cn\/book\/index_250452.html",
"pubDate" : "昨天23:34:19",
"enterDate" : "384200:40:48",
"channelId" : "-2948827425367615777",
"channelName" : "最新连载-新浪读书",
"channelNameSummary" : "最新连载-新浪读书",
"channelUrl" : "http:\/\/vip.book.sina.com.cn\/pub\/?cd=serial",
"author" : "WWW.SINA.COM.CN",
"tags" : [],
"desc" : "身为官家小姐，她几乎对九皇子是一见倾心，而后愈发不可收拾。他是她的天，她的地，一场玫瑰花礼彻彻底底的俘获了她的心。他说：\u201C牧牧，你是我的。\u201D她便以为他们可以相伴一生一世。身为杀手的他给了她无微不至的呵护和爱情，温暖了她凉薄而又阴霾的内心。他说：\u201C我知道你最爱的....",
"emailed" : False,
"forwarded" : False,
"english" : False
}  , {
"index" : 14,
"articleIndex" : "28597",
"favor" :  False ,
     "read" : False,    
"title" : "深海水妖",
"titleTip" : "深海水妖",
"titleSummary" : "深海水妖",
"descSummary" : "某一天，苏丰收到情敌周胜一的求救短信：\u201C救救我，水妖在门外\u2026\u2026\u201D赶到现场时，周胜一已...",
"url" : "http:\/\/go.rss.sina.com.cn\/redirect.php?url=http:\/\/vip.book.sina.com.cn\/book\/index_250478.html",
"pubDate" : "昨天23:19:10",
"enterDate" : "384200:25:39",
"channelId" : "-2948827425367615777",
"channelName" : "最新连载-新浪读书",
"channelNameSummary" : "最新连载-新浪读书",
"channelUrl" : "http:\/\/vip.book.sina.com.cn\/pub\/?cd=serial",
"author" : "WWW.SINA.COM.CN",
"tags" : [],
"desc" : "某一天，苏丰收到情敌周胜一的求救短信：\u201C救救我，水妖在门外\u2026\u2026\u201D赶到现场时，周胜一已经死亡。这时候，手机弹出早已香消玉殒的恋人珞花的短信：\u201C我是水妖\u2026\u2026\u201D这是一场残暴的报复，这是一场预谋的屠戮！美女警官叶竞介入调查，一个个诡异的\u201C灵异证据\u201D却纷纷指向苏丰，苏丰....",
"emailed" : False,
"forwarded" : False,
"english" : False
}  , {
"index" : 15,
"articleIndex" : "28596",
"favor" :  False ,
     "read" : False,    
"title" : "三河梦",
"titleTip" : "三河梦",
"titleSummary" : "三河梦",
"descSummary" : "君芳因家庭困难被迫辍学流落三河市跪地乞讨，遭遇人贩子绑架，严一虎奋力相救。严一虎慷慨捐...",
"url" : "http:\/\/go.rss.sina.com.cn\/redirect.php?url=http:\/\/vip.book.sina.com.cn\/book\/index_250445.html",
"pubDate" : "昨天23:09:22",
"enterDate" : "384200:15:51",
"channelId" : "-2948827425367615777",
"channelName" : "最新连载-新浪读书",
"channelNameSummary" : "最新连载-新浪读书",
"channelUrl" : "http:\/\/vip.book.sina.com.cn\/pub\/?cd=serial",
"author" : "WWW.SINA.COM.CN",
"tags" : [],
"desc" : "君芳因家庭困难被迫辍学流落三河市跪地乞讨，遭遇人贩子绑架，严一虎奋力相救。严一虎慷慨捐资治好了她爸爸的腿伤，一家人脱离疾病贫困的折磨。在长期共同生活中君芳对严一虎的感情逐步升华。恩情、亲情、爱情交织在一起折磨着她的心灵，最终情不自禁地坠入爱河。两颗炙热的心经受....",
"emailed" : False,
"forwarded" : False,
"english" : False
}  , {
"index" : 16,
"articleIndex" : "28595",
"favor" :  False ,
     "read" : False,    
"title" : "江湖",
"titleTip" : "江湖",
"titleSummary" : "江湖",
"descSummary" : "如果你玩过网游,你一定懂得什么叫&quot;沉迷&quot;,如果你玩过大话,你一定懂得什么叫做&quot;炼化&quot;,如果你是个老...",
"url" : "http:\/\/go.rss.sina.com.cn\/redirect.php?url=http:\/\/vip.book.sina.com.cn\/book\/index_250435.html",
"pubDate" : "昨天22:26:00",
"enterDate" : "384199:32:29",
"channelId" : "-2948827425367615777",
"channelName" : "最新连载-新浪读书",
"channelNameSummary" : "最新连载-新浪读书",
"channelUrl" : "http:\/\/vip.book.sina.com.cn\/pub\/?cd=serial",
"author" : "WWW.SINA.COM.CN",
"tags" : [],
"desc" : "如果你玩过网游,你一定懂得什么叫\"沉迷\",如果你玩过大话,你一定懂得什么叫做\"炼化\",如果你是个老玩家,你一定有段难忘的江湖记忆,是什么让你不能忘记?其实江湖就是兄弟情谊!!",
"emailed" : False,
"forwarded" : False,
"english" : False
}  , {
"index" : 17,
"articleIndex" : "28594",
"favor" :  False ,
     "read" : False,    
"title" : "我的江湖 谁的天下",
"titleTip" : "我的江湖 谁的天下",
"titleSummary" : "我的江湖 谁的天下",
"descSummary" : "雪血谷是一个终年奇寒与世隔绝的神秘地方，这里住着一群神秘的身穿白衣的人。杨不...",
"url" : "http:\/\/go.rss.sina.com.cn\/redirect.php?url=http:\/\/vip.book.sina.com.cn\/book\/index_250474.html",
"pubDate" : "昨天22:22:07",
"enterDate" : "384199:28:36",
"channelId" : "-2948827425367615777",
"channelName" : "最新连载-新浪读书",
"channelNameSummary" : "最新连载-新浪读书",
"channelUrl" : "http:\/\/vip.book.sina.com.cn\/pub\/?cd=serial",
"author" : "WWW.SINA.COM.CN",
"tags" : [],
"desc" : "雪血谷是一个终年奇寒与世隔绝的神秘地方，这里住着一群神秘的身穿白衣的人。杨不弃和宇文忘分别是隋朝和北周皇帝的后裔，身怀绝世武功，身负绝密使命。世外仙姝一样的独孤无那，差一点改写了大唐历史。此时正值南诏叛乱和安史之乱\u2026\u2026热血江湖，恩怨难了，飘摇天下，爱恨相续\u2026\u2026....",
"emailed" : False,
"forwarded" : False,
"english" : False
}  , {
"index" : 18,
"articleIndex" : "28593",
"favor" :  False ,
     "read" : False,    
"title" : "盛女追爱记：三女樱桃恋",
"titleTip" : "盛女追爱记：三女樱桃恋",
"titleSummary" : "盛女追爱记：三女樱桃恋",
"descSummary" : "艾氏红樱桃茶业集团是家族企业，规模庞大而复杂。三个总裁同时经营的格局，...",
"url" : "http:\/\/go.rss.sina.com.cn\/redirect.php?url=http:\/\/vip.book.sina.com.cn\/book\/index_250424.html",
"pubDate" : "昨天22:08:41",
"enterDate" : "384199:15:10",
"channelId" : "-2948827425367615777",
"channelName" : "最新连载-新浪读书",
"channelNameSummary" : "最新连载-新浪读书",
"channelUrl" : "http:\/\/vip.book.sina.com.cn\/pub\/?cd=serial",
"author" : "WWW.SINA.COM.CN",
"tags" : [],
"desc" : "艾氏红樱桃茶业集团是家族企业，规模庞大而复杂。三个总裁同时经营的格局，一直是私营企业界感到不可思议的事。艾寄语是艾氏茶业的顶梁柱，艾寄扬是擎天柱，艾寄琛则是中流砥柱。艾寄语与亚洲小姐罗烟霞、艾寄扬与音乐女神顾羽羽、艾寄琛与不笑酷男欧阳心沥，三兄妹的三种恋情，在....",
"emailed" : False,
"forwarded" : False,
"english" : False
}  , {
"index" : 19,
"articleIndex" : "28592",
"favor" :  False ,
     "read" : False,    
"title" : "芳草萋萋",
"titleTip" : "芳草萋萋",
"titleSummary" : "芳草萋萋",
"descSummary" : "通过村官韩秀草找回刘家j的农民工夫妻，刘兴旺和灵芝，配合村长--二舅刘惠民，就地取材，办...",
"url" : "http:\/\/go.rss.sina.com.cn\/redirect.php?url=http:\/\/vip.book.sina.com.cn\/book\/index_250419.html",
"pubDate" : "昨天22:04:10",
"enterDate" : "384199:10:39",
"channelId" : "-2948827425367615777",
"channelName" : "最新连载-新浪读书",
"channelNameSummary" : "最新连载-新浪读书",
"channelUrl" : "http:\/\/vip.book.sina.com.cn\/pub\/?cd=serial",
"author" : "WWW.SINA.COM.CN",
"tags" : [],
"desc" : "通过村官韩秀草找回刘家j的农民工夫妻，刘兴旺和灵芝，配合村长\u2015\u2015二舅刘惠民，就地取材，办敬老院。刘家j在困惑中摆脱贫困。",
"emailed" : False,
"forwarded" : False,
"english" : False
} ]
}
