{
"mode" : {"viewTitle" : 1,   "viewNew" : 0,  "pageIndex" : 2 },
 "channel" : {"id" : "-2948827425367615777", "booked" : False, "subNumber" : 1, "name" : "最新连载-新浪读书", "url" : "http:\/\/vip.book.sina.com.cn\/pub\/?cd=serial", "feed" : "http:\/\/rss.sina.com.cn\/book\/new_book.xml", "author" : "WWW.SINA.COM.CN", "desc" : "最新连载", "imageUrl" : "http:\/\/www.sinaimg.cn\/book\/deco\/2010\/0826\/logo_v3.gif", "postPerWeek" : "0", "lastCrawTime" : "17:16:25", "crawDateTime" : "昨天00:12:20", "lastHttpCode" : "304"}, "page" : {
"startIndex" : 20,
"totalCount" : 5000,
"pageIndex" : 2,
"lastPage" : 250,
"pageSize" : 20,
"english" :  False },
 "unreadNum" : 0, "shotIndex" : -1,
"articles" : [
{
"index" : 0,
"articleIndex" : "28591",
"favor" :  False ,
     "read" : False,    
"title" : "独守空房（一）：黑色彩楼",
"titleTip" : "独守空房（一）：黑色彩楼",
"titleSummary" : "独守空房（一）：黑色彩楼",
"descSummary" : "木涟漪怀孕七个月的时候，丈夫范至林逼她做了引产手术。木涟漪生下死胎不...",
"url" : "http:\/\/go.rss.sina.com.cn\/redirect.php?url=http:\/\/vip.book.sina.com.cn\/book\/index_250418.html",
"pubDate" : "昨天22:00:37",
"enterDate" : "384199:07:07",
"channelId" : "-2948827425367615777",
"channelName" : "最新连载-新浪读书",
"channelNameSummary" : "最新连载-新浪读书",
"channelUrl" : "http:\/\/vip.book.sina.com.cn\/pub\/?cd=serial",
"author" : "WWW.SINA.COM.CN",
"tags" : [],
"desc" : "木涟漪怀孕七个月的时候，丈夫范至林逼她做了引产手术。木涟漪生下死胎不久，范至林葬身车轮。范至林将彩楼留给了木连椅，却设置了一连串的苛刻条件。同时，范至林遗言好朋友唐子恒、姨姐木冰霜分别保护木涟漪继承彩楼。彩楼是一座女性用品综合商场，主要管理者龙菁菁和龙欣欣都是....",
"emailed" : False,
"forwarded" : False,
"english" : False
}  , {
"index" : 1,
"articleIndex" : "28590",
"favor" :  False ,
     "read" : False,    
"title" : "四海镖师",
"titleTip" : "四海镖师",
"titleSummary" : "四海镖师",
"descSummary" : "一百年前，统治华夏大地的日月帝国内部出现矛盾，分裂成多个诸侯国。诸侯国中南越国在二十...",
"url" : "http:\/\/go.rss.sina.com.cn\/redirect.php?url=http:\/\/vip.book.sina.com.cn\/book\/index_250408.html",
"pubDate" : "昨天21:56:15",
"enterDate" : "384199:02:45",
"channelId" : "-2948827425367615777",
"channelName" : "最新连载-新浪读书",
"channelNameSummary" : "最新连载-新浪读书",
"channelUrl" : "http:\/\/vip.book.sina.com.cn\/pub\/?cd=serial",
"author" : "WWW.SINA.COM.CN",
"tags" : [],
"desc" : "一百年前，统治华夏大地的日月帝国内部出现矛盾，分裂成多个诸侯国。诸侯国中南越国在二十年前爆发革命，实行君主立宪制。新政权大力扶持国内手工业的发展，并积极通商互市，使南越国一跃成为了诸侯国中最为强大的国家。而位于南越与吴国边境的中枢镇，因为靠近海港、河流、古道通....",
"emailed" : False,
"forwarded" : False,
"english" : False
}  , {
"index" : 2,
"articleIndex" : "28589",
"favor" :  False ,
     "read" : False,    
"title" : "人皮面具",
"titleTip" : "人皮面具",
"titleSummary" : "人皮面具",
"descSummary" : "所有人都想履行诺言，所有人都在寻找唐绣。等来的竟是唐绣命丧美国的噩耗。当唐绣的影子屡...",
"url" : "http:\/\/go.rss.sina.com.cn\/redirect.php?url=http:\/\/vip.book.sina.com.cn\/book\/index_250460.html",
"pubDate" : "昨天19:33:41",
"enterDate" : "384196:40:11",
"channelId" : "-2948827425367615777",
"channelName" : "最新连载-新浪读书",
"channelNameSummary" : "最新连载-新浪读书",
"channelUrl" : "http:\/\/vip.book.sina.com.cn\/pub\/?cd=serial",
"author" : "WWW.SINA.COM.CN",
"tags" : [],
"desc" : "所有人都想履行诺言，所有人都在寻找唐绣。等来的竟是唐绣命丧美国的噩耗。当唐绣的影子屡屡惊现肖家大宅，众人开始恐慌、开始失助，这是冤魂不散，还是蓄意为之？阴暗的角落里那些亡灵正在展露笑颜。千万别走进肖家大宅，千万别招惹那些亡灵！可这个警告已经太迟了，肖家历任舞蹈....",
"emailed" : False,
"forwarded" : False,
"english" : False
}  , {
"index" : 3,
"articleIndex" : "28588",
"favor" :  False ,
     "read" : False,    
"title" : "小小Amelie",
"titleTip" : "小小Amelie",
"titleSummary" : "小小Amelie",
"descSummary" : "在这快节奏的村子里，依然喜欢慵懒地漫步，不匆不急，只是为了邂逅那份因忙碌而错过的唯...",
"url" : "http:\/\/go.rss.sina.com.cn\/redirect.php?url=http:\/\/vip.book.sina.com.cn\/book\/index_250422.html",
"pubDate" : "昨天18:34:47",
"enterDate" : "384195:41:17",
"channelId" : "-2948827425367615777",
"channelName" : "最新连载-新浪读书",
"channelNameSummary" : "最新连载-新浪读书",
"channelUrl" : "http:\/\/vip.book.sina.com.cn\/pub\/?cd=serial",
"author" : "WWW.SINA.COM.CN",
"tags" : [],
"desc" : "在这快节奏的村子里，依然喜欢慵懒地漫步，不匆不急，只是为了邂逅那份因忙碌而错过的唯美，用一颗敏感的心，记录下淳淳的生活。",
"emailed" : False,
"forwarded" : False,
"english" : False
}  , {
"index" : 4,
"articleIndex" : "28587",
"favor" :  False ,
     "read" : False,    
"title" : "身世浮沉",
"titleTip" : "身世浮沉",
"titleSummary" : "身世浮沉",
"descSummary" : "你人生的斗志或许因此而激起。",
"url" : "http:\/\/go.rss.sina.com.cn\/redirect.php?url=http:\/\/vip.book.sina.com.cn\/book\/index_250433.html",
"pubDate" : "昨天18:28:51",
"enterDate" : "384195:35:21",
"channelId" : "-2948827425367615777",
"channelName" : "最新连载-新浪读书",
"channelNameSummary" : "最新连载-新浪读书",
"channelUrl" : "http:\/\/vip.book.sina.com.cn\/pub\/?cd=serial",
"author" : "WWW.SINA.COM.CN",
"tags" : [],
"desc" : "你人生的斗志或许因此而激起。",
"emailed" : False,
"forwarded" : False,
"english" : False
}  , {
"index" : 5,
"articleIndex" : "28586",
"favor" :  False ,
     "read" : False,    
"title" : "那就\u201C等风来\u201D吧！",
"titleTip" : "那就\u201C等风来\u201D吧！",
"titleSummary" : "那就\u201C等风来\u201D吧！",
"descSummary" : "一个北漂女潘康睦紊",
"url" : "http:\/\/go.rss.sina.com.cn\/redirect.php?url=http:\/\/vip.book.sina.com.cn\/book\/index_250421.html",
"pubDate" : "昨天18:23:48",
"enterDate" : "384195:30:18",
"channelId" : "-2948827425367615777",
"channelName" : "最新连载-新浪读书",
"channelNameSummary" : "最新连载-新浪读书",
"channelUrl" : "http:\/\/vip.book.sina.com.cn\/pub\/?cd=serial",
"author" : "WWW.SINA.COM.CN",
"tags" : [],
"desc" : "一个北漂女潘康睦紊",
"emailed" : False,
"forwarded" : False,
"english" : False
}  , {
"index" : 6,
"articleIndex" : "28585",
"favor" :  False ,
     "read" : False,    
"title" : "采煤专业实习报告",
"titleTip" : "采煤专业实习报告",
"titleSummary" : "采煤专业实习报告",
"descSummary" : "采煤专业实习报告",
"url" : "http:\/\/go.rss.sina.com.cn\/redirect.php?url=http:\/\/vip.book.sina.com.cn\/book\/index_250450.html",
"pubDate" : "昨天18:19:54",
"enterDate" : "384195:26:24",
"channelId" : "-2948827425367615777",
"channelName" : "最新连载-新浪读书",
"channelNameSummary" : "最新连载-新浪读书",
"channelUrl" : "http:\/\/vip.book.sina.com.cn\/pub\/?cd=serial",
"author" : "WWW.SINA.COM.CN",
"tags" : [],
"desc" : "采煤专业实习报告",
"emailed" : False,
"forwarded" : False,
"english" : False
}  , {
"index" : 7,
"articleIndex" : "28584",
"favor" :  False ,
     "read" : False,    
"title" : "幸福在身边:拥抱幸福并不难",
"titleTip" : "幸福在身边:拥抱幸福并不难",
"titleSummary" : "幸福在身边:拥抱幸福并不难",
"descSummary" : "幸福，其实是每个人的终极理想，人们对爱情，事业，亲情，友情的追求其实...",
"url" : "http:\/\/go.rss.sina.com.cn\/redirect.php?url=http:\/\/vip.book.sina.com.cn\/book\/index_250414.html",
"pubDate" : "昨天18:08:59",
"enterDate" : "384195:15:29",
"channelId" : "-2948827425367615777",
"channelName" : "最新连载-新浪读书",
"channelNameSummary" : "最新连载-新浪读书",
"channelUrl" : "http:\/\/vip.book.sina.com.cn\/pub\/?cd=serial",
"author" : "WWW.SINA.COM.CN",
"tags" : [],
"desc" : "幸福，其实是每个人的终极理想，人们对爱情，事业，亲情，友情的追求其实都是想要过得幸福。可是，现实复杂的压力，让幸福越来越遥远。人们往往迷失在都市的总总繁华与诱惑中，自叹自哀，却忘记其实幸福可以很简单的就在身边。这本书引领我们一起去拥抱最真实的幸福，果上随缘，切....",
"emailed" : False,
"forwarded" : False,
"english" : False
}  , {
"index" : 8,
"articleIndex" : "28583",
"favor" :  False ,
     "read" : False,    
"title" : "日本遗孤",
"titleTip" : "日本遗孤",
"titleSummary" : "日本遗孤",
"descSummary" : "刘国强所著的《日本遗孤》讲述了这样一群人的故事：他们既不是中国人，也不是日本人；他们...",
"url" : "http:\/\/go.rss.sina.com.cn\/redirect.php?url=http:\/\/vip.book.sina.com.cn\/book\/index_250441.html",
"pubDate" : "昨天17:44:25",
"enterDate" : "384194:50:55",
"channelId" : "-2948827425367615777",
"channelName" : "最新连载-新浪读书",
"channelNameSummary" : "最新连载-新浪读书",
"channelUrl" : "http:\/\/vip.book.sina.com.cn\/pub\/?cd=serial",
"author" : "WWW.SINA.COM.CN",
"tags" : [],
"desc" : "刘国强所著的《日本遗孤》讲述了这样一群人的故事：他们既不是中国人，也不是日本人；他们既是中国人，也是日本人。他们处在历史的夹缝中，他们成为了一段被人们遗弃的历史。本书讲述：战争和侵略领他们成为漂泊异乡的孤儿，而人道主义和大爱之心却使他们拥有了一位位超越血脉、国....",
"emailed" : False,
"forwarded" : False,
"english" : False
}  , {
"index" : 9,
"articleIndex" : "28582",
"favor" :  False ,
     "read" : False,    
"title" : "你若安好",
"titleTip" : "你若安好",
"titleSummary" : "你若安好",
"descSummary" : "这是一本中篇小说集，讲述我们都曾经历的年轻时光，感怀青春的心事还没了却，人生就已经晃...",
"url" : "http:\/\/go.rss.sina.com.cn\/redirect.php?url=http:\/\/vip.book.sina.com.cn\/book\/index_250440.html",
"pubDate" : "昨天17:44:12",
"enterDate" : "384194:50:42",
"channelId" : "-2948827425367615777",
"channelName" : "最新连载-新浪读书",
"channelNameSummary" : "最新连载-新浪读书",
"channelUrl" : "http:\/\/vip.book.sina.com.cn\/pub\/?cd=serial",
"author" : "WWW.SINA.COM.CN",
"tags" : [],
"desc" : "这是一本中篇小说集，讲述我们都曾经历的年轻时光，感怀青春的心事还没了却，人生就已经晃过了最美好的年华，接踵而来的盛夏虽然繁华热闹，但多少都是掺杂着烦躁、不安，因此令我们格外怀念渐行渐远的青春岁月。书中每一个故事独立成篇，看似分离，却又彼此有所牵连，让读者很容易....",
"emailed" : False,
"forwarded" : False,
"english" : False
}  , {
"index" : 10,
"articleIndex" : "28572",
"favor" :  False ,
     "read" : False,    
"title" : "狐子精",
"titleTip" : "狐子精",
"titleSummary" : "狐子精",
"descSummary" : "医疗纠纷、妖狐作祟的事件频频出现，返回老家奔丧的庄海洋不知不觉间陷入了前所未有的恐惧。...",
"url" : "http:\/\/go.rss.sina.com.cn\/redirect.php?url=http:\/\/vip.book.sina.com.cn\/book\/index_250398.html",
"pubDate" : "前天00:06:00",
"enterDate" : "384201:18:50",
"channelId" : "-2948827425367615777",
"channelName" : "最新连载-新浪读书",
"channelNameSummary" : "最新连载-新浪读书",
"channelUrl" : "http:\/\/vip.book.sina.com.cn\/pub\/?cd=serial",
"author" : "WWW.SINA.COM.CN",
"tags" : [],
"desc" : "医疗纠纷、妖狐作祟的事件频频出现，返回老家奔丧的庄海洋不知不觉间陷入了前所未有的恐惧。小木的冤魂若隐若现，时时刻刻纠缠着庄海洋，令他愈加惶恐。所有的离奇事件，其源头竟然是那张受世人诅咒的狐子皮。庄氏家族到底藏匿着怎样的秘密？到底与妖狐签订了怎样的协议？为什么这....",
"emailed" : False,
"forwarded" : False,
"english" : False
}  , {
"index" : 11,
"articleIndex" : "28573",
"favor" :  False ,
     "read" : False,    
"title" : "古董新娘",
"titleTip" : "古董新娘",
"titleSummary" : "古董新娘",
"descSummary" : "一部《晚清异闻录》的横空出现，致使历史悠久的广播大学陷入全面恐慌。杀人的古书、鬼新娘...",
"url" : "http:\/\/go.rss.sina.com.cn\/redirect.php?url=http:\/\/vip.book.sina.com.cn\/book\/index_250393.html",
"pubDate" : "前天00:06:00",
"enterDate" : "384201:18:50",
"channelId" : "-2948827425367615777",
"channelName" : "最新连载-新浪读书",
"channelNameSummary" : "最新连载-新浪读书",
"channelUrl" : "http:\/\/vip.book.sina.com.cn\/pub\/?cd=serial",
"author" : "WWW.SINA.COM.CN",
"tags" : [],
"desc" : "一部《晚清异闻录》的横空出现，致使历史悠久的广播大学陷入全面恐慌。杀人的古书、鬼新娘的传说、玉覆面的诅咒，种种惊悚事件席卷而来。顾玲珑拨开重重迷雾，一心找出真相，他必须抢在诅咒启动前拯救他的学生，但一切远远超出他的想象。每个遇害者的脸上戴着玉覆面，身着宛如孝服....",
"emailed" : False,
"forwarded" : False,
"english" : False
}  , {
"index" : 12,
"articleIndex" : "28574",
"favor" :  False ,
     "read" : False,    
"title" : "恶魔的宠溺甜心",
"titleTip" : "恶魔的宠溺甜心",
"titleSummary" : "恶魔的宠溺甜心",
"descSummary" : "7岁那年，黎落住进了宫亦辰的家。也就在那一年，可爱带些幼稚的黎落认识了比她大3...",
"url" : "http:\/\/go.rss.sina.com.cn\/redirect.php?url=http:\/\/vip.book.sina.com.cn\/book\/index_250390.html",
"pubDate" : "前天00:06:00",
"enterDate" : "384201:18:50",
"channelId" : "-2948827425367615777",
"channelName" : "最新连载-新浪读书",
"channelNameSummary" : "最新连载-新浪读书",
"channelUrl" : "http:\/\/vip.book.sina.com.cn\/pub\/?cd=serial",
"author" : "WWW.SINA.COM.CN",
"tags" : [],
"desc" : "7岁那年，黎落住进了宫亦辰的家。也就在那一年，可爱带些幼稚的黎落认识了比她大3岁的宫亦辰。一向冷酷的宫亦辰，在遇到整天只会给他惹事的黎落后，命运的齿轮开始慢慢的转动了起来。单纯爱惹事的黎落，总让宫亦辰帮她收拾烂摊子。也因她的单纯，一直没发现宫亦辰对她的心；直到某....",
"emailed" : False,
"forwarded" : False,
"english" : False
}  , {
"index" : 13,
"articleIndex" : "28575",
"favor" :  False ,
     "read" : False,    
"title" : "咱家娘子最可口",
"titleTip" : "咱家娘子最可口",
"titleSummary" : "咱家娘子最可口",
"descSummary" : "半夜起床上会WC，不小心睡在客厅里，靠，睁开双眼，连人带魂的穿越到架空某个朝代...",
"url" : "http:\/\/go.rss.sina.com.cn\/redirect.php?url=http:\/\/vip.book.sina.com.cn\/book\/index_250384.html",
"pubDate" : "前天00:06:00",
"enterDate" : "384201:18:50",
"channelId" : "-2948827425367615777",
"channelName" : "最新连载-新浪读书",
"channelNameSummary" : "最新连载-新浪读书",
"channelUrl" : "http:\/\/vip.book.sina.com.cn\/pub\/?cd=serial",
"author" : "WWW.SINA.COM.CN",
"tags" : [],
"desc" : "半夜起床上会WC，不小心睡在客厅里，靠，睁开双眼，连人带魂的穿越到架空某个朝代某个国家，成为了弃妃 恭喜王爷，王妃喜得贵子 打掉 如同晴天霹雳，夏若莜又是哭又是闹的 莜儿，若是孩子生不出来，你有什么万一，我该怎么办 凤眼都是宠溺和心痛 安云凤羞辱他的....",
"emailed" : False,
"forwarded" : False,
"english" : False
}  , {
"index" : 14,
"articleIndex" : "28576",
"favor" :  False ,
     "read" : False,    
"title" : "你的城池我的国",
"titleTip" : "你的城池我的国",
"titleSummary" : "你的城池我的国",
"descSummary" : "【青春三部曲之一】这一年秋天，高考落败的林离带着失落与迷茫来到春城某技校，开始...",
"url" : "http:\/\/go.rss.sina.com.cn\/redirect.php?url=http:\/\/vip.book.sina.com.cn\/book\/index_250381.html",
"pubDate" : "前天00:06:00",
"enterDate" : "384201:18:50",
"channelId" : "-2948827425367615777",
"channelName" : "最新连载-新浪读书",
"channelNameSummary" : "最新连载-新浪读书",
"channelUrl" : "http:\/\/vip.book.sina.com.cn\/pub\/?cd=serial",
"author" : "WWW.SINA.COM.CN",
"tags" : [],
"desc" : "【青春三部曲之一】这一年秋天，高考落败的林离带着失落与迷茫来到春城某技校，开始了技校生活。在这里他认识了与他同样高考落榜的大鸟，由此惺惺相惜，迅速成为朋友。并且开始了他混乱迷茫的技校生活。一次意外的邂逅，林离邂逅了某艺术学院的女孩米月，从此，他开始了一场追逐与....",
"emailed" : False,
"forwarded" : False,
"english" : False
}  , {
"index" : 15,
"articleIndex" : "28577",
"favor" :  False ,
     "read" : False,    
"title" : "癫梦",
"titleTip" : "癫梦",
"titleSummary" : "癫梦",
"descSummary" : "因为一场难以启齿的意外，土喜成为了一个被梦魇纠缠的人。到底是人生如梦还是梦如人生？这是个...",
"url" : "http:\/\/go.rss.sina.com.cn\/redirect.php?url=http:\/\/vip.book.sina.com.cn\/book\/index_250379.html",
"pubDate" : "前天00:06:00",
"enterDate" : "384201:18:50",
"channelId" : "-2948827425367615777",
"channelName" : "最新连载-新浪读书",
"channelNameSummary" : "最新连载-新浪读书",
"channelUrl" : "http:\/\/vip.book.sina.com.cn\/pub\/?cd=serial",
"author" : "WWW.SINA.COM.CN",
"tags" : [],
"desc" : "因为一场难以启齿的意外，土喜成为了一个被梦魇纠缠的人。到底是人生如梦还是梦如人生？这是个问题\u2026\u2026",
"emailed" : False,
"forwarded" : False,
"english" : False
}  , {
"index" : 16,
"articleIndex" : "28578",
"favor" :  False ,
     "read" : False,    
"title" : "爱要有你才完美",
"titleTip" : "爱要有你才完美",
"titleSummary" : "爱要有你才完美",
"descSummary" : "在老师与父母面前，她是天真无邪乖乖女，而在同学外人面前她是顽皮喜欢欺负男生的调...",
"url" : "http:\/\/go.rss.sina.com.cn\/redirect.php?url=http:\/\/vip.book.sina.com.cn\/book\/index_250369.html",
"pubDate" : "前天00:06:00",
"enterDate" : "384201:18:50",
"channelId" : "-2948827425367615777",
"channelName" : "最新连载-新浪读书",
"channelNameSummary" : "最新连载-新浪读书",
"channelUrl" : "http:\/\/vip.book.sina.com.cn\/pub\/?cd=serial",
"author" : "WWW.SINA.COM.CN",
"tags" : [],
"desc" : "在老师与父母面前，她是天真无邪乖乖女，而在同学外人面前她是顽皮喜欢欺负男生的调皮鬼；他是大她七岁的父辈们好友的儿子，外表温润如玉不爱多说话，实则腹黑又无赖还喜欢黏人。因为两家父母的深交，自打她出生的那一刻起，就被自己爸妈卖给了宁家做儿媳。他与她第一次见面那年，....",
"emailed" : False,
"forwarded" : False,
"english" : False
}  , {
"index" : 17,
"articleIndex" : "28579",
"favor" :  False ,
     "read" : False,    
"title" : "望乡",
"titleTip" : "望乡",
"titleSummary" : "望乡",
"descSummary" : "思乡",
"url" : "http:\/\/go.rss.sina.com.cn\/redirect.php?url=http:\/\/vip.book.sina.com.cn\/book\/index_250351.html",
"pubDate" : "前天00:06:00",
"enterDate" : "384201:18:50",
"channelId" : "-2948827425367615777",
"channelName" : "最新连载-新浪读书",
"channelNameSummary" : "最新连载-新浪读书",
"channelUrl" : "http:\/\/vip.book.sina.com.cn\/pub\/?cd=serial",
"author" : "WWW.SINA.COM.CN",
"tags" : [],
"desc" : "思乡",
"emailed" : False,
"forwarded" : False,
"english" : False
}  , {
"index" : 18,
"articleIndex" : "28580",
"favor" :  False ,
     "read" : False,    
"title" : "左眼闭起，右眼悲伤",
"titleTip" : "左眼闭起，右眼悲伤",
"titleSummary" : "左眼闭起，右眼悲伤",
"descSummary" : "年少轻狂的90一代，曾经的梦想在哪里，或是我们真的有过梦想吗，还是一切都是...",
"url" : "http:\/\/go.rss.sina.com.cn\/redirect.php?url=http:\/\/vip.book.sina.com.cn\/book\/index_250313.html",
"pubDate" : "前天00:06:00",
"enterDate" : "384201:18:50",
"channelId" : "-2948827425367615777",
"channelName" : "最新连载-新浪读书",
"channelNameSummary" : "最新连载-新浪读书",
"channelUrl" : "http:\/\/vip.book.sina.com.cn\/pub\/?cd=serial",
"author" : "WWW.SINA.COM.CN",
"tags" : [],
"desc" : "年少轻狂的90一代，曾经的梦想在哪里，或是我们真的有过梦想吗，还是一切都是想象罢了我们生活在这个纠结的年代注定要面对这错综复杂的社会，有时我们胆怯的想逃避，因为我们面对社会我们真的累了，书中主人公章孑出生90年代，他的生活是90一代写照的一部分，他的喜怒哀乐，也许就....",
"emailed" : False,
"forwarded" : False,
"english" : False
}  , {
"index" : 19,
"articleIndex" : "28581",
"favor" :  False ,
     "read" : False,    
"title" : "西游降魔篇",
"titleTip" : "西游降魔篇",
"titleSummary" : "西游降魔篇",
"descSummary" : "嗯，这是一个西游的故事，与降魔无关，一个来来去去，玩了十年的游戏，从一个学生，到一...",
"url" : "http:\/\/go.rss.sina.com.cn\/redirect.php?url=http:\/\/vip.book.sina.com.cn\/book\/index_250303.html",
"pubDate" : "前天00:06:00",
"enterDate" : "384201:18:50",
"channelId" : "-2948827425367615777",
"channelName" : "最新连载-新浪读书",
"channelNameSummary" : "最新连载-新浪读书",
"channelUrl" : "http:\/\/vip.book.sina.com.cn\/pub\/?cd=serial",
"author" : "WWW.SINA.COM.CN",
"tags" : [],
"desc" : "嗯，这是一个西游的故事，与降魔无关，一个来来去去，玩了十年的游戏，从一个学生，到一个中年大叔，那一段刻骨铭心的岁月，那份激情，那些恩怨，那几多儿女情牵，那种种值得铭记的美好回忆。希望大家喜欢！",
"emailed" : False,
"forwarded" : False,
"english" : False
} ]
}
