{
"mode" : {"viewTitle" : 1,   "viewNew" : 0,  "pageIndex" : 1 },
 "channel" : {"id" : "7228777820705965081", "booked" : False, "subNumber" : 1, "name" : "汽车轮胎-新浪汽车", "url" : "http:\/\/auto.sina.com.cn\/tire\/index.shtml", "feed" : "http:\/\/rss.sina.com.cn\/auto\/tire\/index.xml", "author" : "WWW.SINA.COM.CN", "desc" : "汽车轮胎-要闻列表", "imageUrl" : "http:\/\/www.sinaimg.cn\/dy\/auto\/index\/topbar_03.gif", "postPerWeek" : "0", "lastCrawTime" : "2013年10月17日 (2周前)", "crawDateTime" : "2013年3月18日", "lastHttpCode" : "304"}, "page" : {
"startIndex" : 0,
"totalCount" : 227,
"pageIndex" : 1,
"lastPage" : 12,
"pageSize" : 20,
"english" :  False },
 "unreadNum" : 0, "shotIndex" : -1,
"articles" : [
{
"index" : 0,
"articleIndex" : "226",
"favor" :  False ,
     "read" : False,    
"title" : "倍耐力公司和CDTi公司组建合资企业",
"titleTip" : "倍耐力公司和CDTi公司组建合资企业",
"titleSummary" : "倍耐力公司和CDTi公司组建合资企业",
"descSummary" : "",
"url" : "http:\/\/go.rss.sina.com.cn\/redirect.php?url=http:\/\/auto.sina.com.cn\/service\/2013-03-11\/09561119113.shtml",
"pubDate" : "2013年3月11日",
"enterDate" : "384200:53:04",
"channelId" : "7228777820705965081",
"channelName" : "汽车轮胎-新浪汽车",
"channelNameSummary" : "汽车轮胎-新浪汽车",
"channelUrl" : "http:\/\/auto.sina.com.cn\/tire\/index.shtml",
"author" : "WWW.SINA.COM.CN",
"tags" : [],
"desc" : "",
"emailed" : False,
"forwarded" : False,
"english" : False
}  , {
"index" : 1,
"articleIndex" : "225",
"favor" :  False ,
     "read" : False,    
"title" : "固铂轮发布2012年第4季度财报及全年财报",
"titleTip" : "固铂轮发布2012年第4季度财报及全年财报",
"titleSummary" : "固铂轮发布2012年第4季度财报及全年财报",
"descSummary" : "",
"url" : "http:\/\/go.rss.sina.com.cn\/redirect.php?url=http:\/\/auto.sina.com.cn\/service\/2013-02-28\/17021113455.shtml",
"pubDate" : "2013年2月28日",
"enterDate" : "384200:54:37",
"channelId" : "7228777820705965081",
"channelName" : "汽车轮胎-新浪汽车",
"channelNameSummary" : "汽车轮胎-新浪汽车",
"channelUrl" : "http:\/\/auto.sina.com.cn\/tire\/index.shtml",
"author" : "WWW.SINA.COM.CN",
"tags" : [],
"desc" : "",
"emailed" : False,
"forwarded" : False,
"english" : False
}  , {
"index" : 2,
"articleIndex" : "224",
"favor" :  False ,
     "read" : False,    
"title" : "米其林推出全新X-ICE NORTH2迎战WRC",
"titleTip" : "米其林推出全新X-ICE NORTH2迎战WRC",
"titleSummary" : "米其林推出全新X-ICE NORTH2迎战WRC",
"descSummary" : "",
"url" : "http:\/\/go.rss.sina.com.cn\/redirect.php?url=http:\/\/auto.sina.com.cn\/service\/2013-02-25\/10041110886.shtml",
"pubDate" : "2013年2月25日",
"enterDate" : "384200:46:16",
"channelId" : "7228777820705965081",
"channelName" : "汽车轮胎-新浪汽车",
"channelNameSummary" : "汽车轮胎-新浪汽车",
"channelUrl" : "http:\/\/auto.sina.com.cn\/tire\/index.shtml",
"author" : "WWW.SINA.COM.CN",
"tags" : [],
"desc" : "",
"emailed" : False,
"forwarded" : False,
"english" : False
}  , {
"index" : 3,
"articleIndex" : "223",
"favor" :  False ,
     "read" : False,    
"title" : "节后维修保养车增多 交通事故车大幅降低",
"titleTip" : "节后维修保养车增多 交通事故车大幅降低",
"titleSummary" : "节后维修保养车增多 交通事故车大幅降低",
"descSummary" : "",
"url" : "http:\/\/go.rss.sina.com.cn\/redirect.php?url=http:\/\/auto.sina.com.cn\/service\/2013-02-20\/08171107949.shtml",
"pubDate" : "2013年2月20日",
"enterDate" : "384200:18:50",
"channelId" : "7228777820705965081",
"channelName" : "汽车轮胎-新浪汽车",
"channelNameSummary" : "汽车轮胎-新浪汽车",
"channelUrl" : "http:\/\/auto.sina.com.cn\/tire\/index.shtml",
"author" : "WWW.SINA.COM.CN",
"tags" : [],
"desc" : "",
"emailed" : False,
"forwarded" : False,
"english" : False
}  , {
"index" : 4,
"articleIndex" : "222",
"favor" :  False ,
     "read" : False,    
"title" : "高速爆胎 节后迎来第一波维修保养潮",
"titleTip" : "高速爆胎 节后迎来第一波维修保养潮",
"titleSummary" : "高速爆胎 节后迎来第一波维修保养潮",
"descSummary" : "",
"url" : "http:\/\/go.rss.sina.com.cn\/redirect.php?url=http:\/\/auto.sina.com.cn\/service\/2013-02-20\/08001107928.shtml",
"pubDate" : "2013年2月20日",
"enterDate" : "384201:02:16",
"channelId" : "7228777820705965081",
"channelName" : "汽车轮胎-新浪汽车",
"channelNameSummary" : "汽车轮胎-新浪汽车",
"channelUrl" : "http:\/\/auto.sina.com.cn\/tire\/index.shtml",
"author" : "WWW.SINA.COM.CN",
"tags" : [],
"desc" : "",
"emailed" : False,
"forwarded" : False,
"english" : False
}  , {
"index" : 5,
"articleIndex" : "221",
"favor" :  False ,
     "read" : False,    
"title" : "米其林沈阳新工厂投产 开启新里程",
"titleTip" : "米其林沈阳新工厂投产 开启新里程",
"titleSummary" : "米其林沈阳新工厂投产 开启新里程",
"descSummary" : "",
"url" : "http:\/\/go.rss.sina.com.cn\/redirect.php?url=http:\/\/auto.sina.com.cn\/service\/2013-02-20\/07501107918.shtml",
"pubDate" : "2013年2月20日",
"enterDate" : "384200:52:05",
"channelId" : "7228777820705965081",
"channelName" : "汽车轮胎-新浪汽车",
"channelNameSummary" : "汽车轮胎-新浪汽车",
"channelUrl" : "http:\/\/auto.sina.com.cn\/tire\/index.shtml",
"author" : "WWW.SINA.COM.CN",
"tags" : [],
"desc" : "",
"emailed" : False,
"forwarded" : False,
"english" : False
}  , {
"index" : 6,
"articleIndex" : "220",
"favor" :  False ,
     "read" : False,    
"title" : "固特异2012年全年营收创历史新高",
"titleTip" : "固特异2012年全年营收创历史新高",
"titleSummary" : "固特异2012年全年营收创历史新高",
"descSummary" : "",
"url" : "http:\/\/go.rss.sina.com.cn\/redirect.php?url=http:\/\/auto.sina.com.cn\/service\/2013-02-19\/10111107365.shtml",
"pubDate" : "2013年2月19日",
"enterDate" : "384200:19:18",
"channelId" : "7228777820705965081",
"channelName" : "汽车轮胎-新浪汽车",
"channelNameSummary" : "汽车轮胎-新浪汽车",
"channelUrl" : "http:\/\/auto.sina.com.cn\/tire\/index.shtml",
"author" : "WWW.SINA.COM.CN",
"tags" : [],
"desc" : "",
"emailed" : False,
"forwarded" : False,
"english" : False
}  , {
"index" : 7,
"articleIndex" : "219",
"favor" :  False ,
     "read" : False,    
"title" : "《米其林最佳超值餐厅指南 2013》发布",
"titleTip" : "《米其林最佳超值餐厅指南 2013》发布",
"titleSummary" : "《米其林最佳超值餐厅指南 2013》发布",
"descSummary" : "",
"url" : "http:\/\/go.rss.sina.com.cn\/redirect.php?url=http:\/\/auto.sina.com.cn\/service\/2013-02-06\/16171103624.shtml",
"pubDate" : "2013年2月6日",
"enterDate" : "384200:19:29",
"channelId" : "7228777820705965081",
"channelName" : "汽车轮胎-新浪汽车",
"channelNameSummary" : "汽车轮胎-新浪汽车",
"channelUrl" : "http:\/\/auto.sina.com.cn\/tire\/index.shtml",
"author" : "WWW.SINA.COM.CN",
"tags" : [],
"desc" : "",
"emailed" : False,
"forwarded" : False,
"english" : False
}  , {
"index" : 8,
"articleIndex" : "218",
"favor" :  False ,
     "read" : False,    
"title" : "普利司通诉广州宝力轮胎商标侵权案胜诉",
"titleTip" : "普利司通诉广州宝力轮胎商标侵权案胜诉",
"titleSummary" : "普利司通诉广州宝力轮胎商标侵权案胜诉",
"descSummary" : "",
"url" : "http:\/\/go.rss.sina.com.cn\/redirect.php?url=http:\/\/auto.sina.com.cn\/service\/2013-02-05\/09051102519.shtml",
"pubDate" : "2013年2月5日",
"enterDate" : "384201:00:05",
"channelId" : "7228777820705965081",
"channelName" : "汽车轮胎-新浪汽车",
"channelNameSummary" : "汽车轮胎-新浪汽车",
"channelUrl" : "http:\/\/auto.sina.com.cn\/tire\/index.shtml",
"author" : "WWW.SINA.COM.CN",
"tags" : [],
"desc" : "",
"emailed" : False,
"forwarded" : False,
"english" : False
}  , {
"index" : 9,
"articleIndex" : "217",
"favor" :  False ,
     "read" : False,    
"title" : "韩泰轮胎重庆工厂一期正式投产",
"titleTip" : "韩泰轮胎重庆工厂一期正式投产",
"titleSummary" : "韩泰轮胎重庆工厂一期正式投产",
"descSummary" : "",
"url" : "http:\/\/go.rss.sina.com.cn\/redirect.php?url=http:\/\/auto.sina.com.cn\/service\/2013-01-30\/09001099578.shtml",
"pubDate" : "2013年1月30日",
"enterDate" : "384201:07:53",
"channelId" : "7228777820705965081",
"channelName" : "汽车轮胎-新浪汽车",
"channelNameSummary" : "汽车轮胎-新浪汽车",
"channelUrl" : "http:\/\/auto.sina.com.cn\/tire\/index.shtml",
"author" : "WWW.SINA.COM.CN",
"tags" : [],
"desc" : "",
"emailed" : False,
"forwarded" : False,
"english" : False
}  , {
"index" : 10,
"articleIndex" : "216",
"favor" :  False ,
     "read" : False,    
"title" : "加速中国市场布局 马牌百世德旗舰店开业",
"titleTip" : "加速中国市场布局 马牌百世德旗舰店开业",
"titleSummary" : "加速中国市场布局 马牌百世德旗舰店开业",
"descSummary" : "",
"url" : "http:\/\/go.rss.sina.com.cn\/redirect.php?url=http:\/\/auto.sina.com.cn\/service\/2013-01-25\/11001097359.shtml",
"pubDate" : "2013年1月25日",
"enterDate" : "384200:39:27",
"channelId" : "7228777820705965081",
"channelName" : "汽车轮胎-新浪汽车",
"channelNameSummary" : "汽车轮胎-新浪汽车",
"channelUrl" : "http:\/\/auto.sina.com.cn\/tire\/index.shtml",
"author" : "WWW.SINA.COM.CN",
"tags" : [],
"desc" : "",
"emailed" : False,
"forwarded" : False,
"english" : False
}  , {
"index" : 11,
"articleIndex" : "215",
"favor" :  False ,
     "read" : False,    
"title" : "佳通轮胎荣获多项优秀供应商奖",
"titleTip" : "佳通轮胎荣获多项优秀供应商奖",
"titleSummary" : "佳通轮胎荣获多项优秀供应商奖",
"descSummary" : "",
"url" : "http:\/\/go.rss.sina.com.cn\/redirect.php?url=http:\/\/auto.sina.com.cn\/service\/2013-01-23\/13301095655.shtml",
"pubDate" : "2013年1月23日",
"enterDate" : "384199:21:08",
"channelId" : "7228777820705965081",
"channelName" : "汽车轮胎-新浪汽车",
"channelNameSummary" : "汽车轮胎-新浪汽车",
"channelUrl" : "http:\/\/auto.sina.com.cn\/tire\/index.shtml",
"author" : "WWW.SINA.COM.CN",
"tags" : [],
"desc" : "",
"emailed" : False,
"forwarded" : False,
"english" : False
}  , {
"index" : 12,
"articleIndex" : "214",
"favor" :  False ,
     "read" : False,    
"title" : "跑马圈地 轮胎行业上演渠道竞赛",
"titleTip" : "跑马圈地 轮胎行业上演渠道竞赛",
"titleSummary" : "跑马圈地 轮胎行业上演渠道竞赛",
"descSummary" : "",
"url" : "http:\/\/go.rss.sina.com.cn\/redirect.php?url=http:\/\/auto.sina.com.cn\/service\/2013-01-08\/18111087003.shtml",
"pubDate" : "2013年1月8日",
"enterDate" : "384167:15:27",
"channelId" : "7228777820705965081",
"channelName" : "汽车轮胎-新浪汽车",
"channelNameSummary" : "汽车轮胎-新浪汽车",
"channelUrl" : "http:\/\/auto.sina.com.cn\/tire\/index.shtml",
"author" : "WWW.SINA.COM.CN",
"tags" : [],
"desc" : "",
"emailed" : False,
"forwarded" : False,
"english" : False
}  , {
"index" : 13,
"articleIndex" : "213",
"favor" :  False ,
     "read" : False,    
"title" : "易引发事故 带伤轮胎千万别再使用",
"titleTip" : "易引发事故 带伤轮胎千万别再使用",
"titleSummary" : "易引发事故 带伤轮胎千万别再使用",
"descSummary" : "",
"url" : "http:\/\/go.rss.sina.com.cn\/redirect.php?url=http:\/\/auto.sina.com.cn\/service\/2013-01-08\/09391086796.shtml",
"pubDate" : "2013年1月8日",
"enterDate" : "384158:44:08",
"channelId" : "7228777820705965081",
"channelName" : "汽车轮胎-新浪汽车",
"channelNameSummary" : "汽车轮胎-新浪汽车",
"channelUrl" : "http:\/\/auto.sina.com.cn\/tire\/index.shtml",
"author" : "WWW.SINA.COM.CN",
"tags" : [],
"desc" : "",
"emailed" : False,
"forwarded" : False,
"english" : False
}  , {
"index" : 14,
"articleIndex" : "212",
"favor" :  False ,
     "read" : False,    
"title" : "革命性创新 纪念米其林子午线轮胎问世",
"titleTip" : "革命性创新 纪念米其林子午线轮胎问世",
"titleSummary" : "革命性创新 纪念米其林子午线轮胎问世",
"descSummary" : "",
"url" : "http:\/\/go.rss.sina.com.cn\/redirect.php?url=http:\/\/auto.sina.com.cn\/service\/2012-12-24\/14301082439.shtml",
"pubDate" : "2012年12月24日",
"enterDate" : "384200:34:50",
"channelId" : "7228777820705965081",
"channelName" : "汽车轮胎-新浪汽车",
"channelNameSummary" : "汽车轮胎-新浪汽车",
"channelUrl" : "http:\/\/auto.sina.com.cn\/tire\/index.shtml",
"author" : "WWW.SINA.COM.CN",
"tags" : [],
"desc" : "",
"emailed" : False,
"forwarded" : False,
"english" : False
}  , {
"index" : 15,
"articleIndex" : "211",
"favor" :  False ,
     "read" : False,    
"title" : "朝阳轮胎漂移车队出师天马 一\u201C论\u201D高下",
"titleTip" : "朝阳轮胎漂移车队出师天马 一\u201C论\u201D高下",
"titleSummary" : "朝阳轮胎漂移车队出师天马 一\u201C论\u201D高下",
"descSummary" : "",
"url" : "http:\/\/go.rss.sina.com.cn\/redirect.php?url=http:\/\/auto.sina.com.cn\/service\/2012-12-14\/15511079060.shtml",
"pubDate" : "2012年12月14日",
"enterDate" : "384199:50:32",
"channelId" : "7228777820705965081",
"channelName" : "汽车轮胎-新浪汽车",
"channelNameSummary" : "汽车轮胎-新浪汽车",
"channelUrl" : "http:\/\/auto.sina.com.cn\/tire\/index.shtml",
"author" : "WWW.SINA.COM.CN",
"tags" : [],
"desc" : "",
"emailed" : False,
"forwarded" : False,
"english" : False
}  , {
"index" : 16,
"articleIndex" : "210",
"favor" :  False ,
     "read" : False,    
"title" : "普利司通被授予中国社会责任质量典范奖",
"titleTip" : "普利司通被授予中国社会责任质量典范奖",
"titleSummary" : "普利司通被授予中国社会责任质量典范奖",
"descSummary" : "",
"url" : "http:\/\/go.rss.sina.com.cn\/redirect.php?url=http:\/\/auto.sina.com.cn\/service\/2012-12-13\/16301078465.shtml",
"pubDate" : "2012年12月13日",
"enterDate" : "384200:34:17",
"channelId" : "7228777820705965081",
"channelName" : "汽车轮胎-新浪汽车",
"channelNameSummary" : "汽车轮胎-新浪汽车",
"channelUrl" : "http:\/\/auto.sina.com.cn\/tire\/index.shtml",
"author" : "WWW.SINA.COM.CN",
"tags" : [],
"desc" : "",
"emailed" : False,
"forwarded" : False,
"english" : False
}  , {
"index" : 17,
"articleIndex" : "209",
"favor" :  False ,
     "read" : False,    
"title" : "普利司通商用车轮胎新品\u201C双重出击\u201D",
"titleTip" : "普利司通商用车轮胎新品\u201C双重出击\u201D",
"titleSummary" : "普利司通商用车轮胎新品\u201C双重出击\u201D",
"descSummary" : "",
"url" : "http:\/\/go.rss.sina.com.cn\/redirect.php?url=http:\/\/auto.sina.com.cn\/service\/2012-12-04\/14361073997.shtml",
"pubDate" : "2012年12月4日",
"enterDate" : "384200:35:21",
"channelId" : "7228777820705965081",
"channelName" : "汽车轮胎-新浪汽车",
"channelNameSummary" : "汽车轮胎-新浪汽车",
"channelUrl" : "http:\/\/auto.sina.com.cn\/tire\/index.shtml",
"author" : "WWW.SINA.COM.CN",
"tags" : [],
"desc" : "",
"emailed" : False,
"forwarded" : False,
"english" : False
}  , {
"index" : 18,
"articleIndex" : "208",
"favor" :  False ,
     "read" : False,    
"title" : "米其林第三代冬季胎X-ICE登陆中国市场",
"titleTip" : "米其林第三代冬季胎X-ICE登陆中国市场",
"titleSummary" : "米其林第三代冬季胎X-ICE登陆中国市场",
"descSummary" : "",
"url" : "http:\/\/go.rss.sina.com.cn\/redirect.php?url=http:\/\/auto.sina.com.cn\/service\/2012-11-28\/08281070434.shtml",
"pubDate" : "2012年11月28日",
"enterDate" : "384200:12:41",
"channelId" : "7228777820705965081",
"channelName" : "汽车轮胎-新浪汽车",
"channelNameSummary" : "汽车轮胎-新浪汽车",
"channelUrl" : "http:\/\/auto.sina.com.cn\/tire\/index.shtml",
"author" : "WWW.SINA.COM.CN",
"tags" : [],
"desc" : "",
"emailed" : False,
"forwarded" : False,
"english" : False
}  , {
"index" : 19,
"articleIndex" : "207",
"favor" :  False ,
     "read" : False,    
"title" : "佳通轮胎三款新产品亮相2012广州车展",
"titleTip" : "佳通轮胎三款新产品亮相2012广州车展",
"titleSummary" : "佳通轮胎三款新产品亮相2012广州车展",
"descSummary" : "",
"url" : "http:\/\/go.rss.sina.com.cn\/redirect.php?url=http:\/\/auto.sina.com.cn\/service\/2012-11-22\/09521067125.shtml",
"pubDate" : "2012年11月22日",
"enterDate" : "384200:49:02",
"channelId" : "7228777820705965081",
"channelName" : "汽车轮胎-新浪汽车",
"channelNameSummary" : "汽车轮胎-新浪汽车",
"channelUrl" : "http:\/\/auto.sina.com.cn\/tire\/index.shtml",
"author" : "WWW.SINA.COM.CN",
"tags" : [],
"desc" : "",
"emailed" : False,
"forwarded" : False,
"english" : False
} ]
}
