{
"mode" : {"viewTitle" : 1,   "viewNew" : 0,  "pageIndex" : 2 },
 "channel" : {"id" : "7228777820705965081", "booked" : False, "subNumber" : 1, "name" : "汽车轮胎-新浪汽车", "url" : "http:\/\/auto.sina.com.cn\/tire\/index.shtml", "feed" : "http:\/\/rss.sina.com.cn\/auto\/tire\/index.xml", "author" : "WWW.SINA.COM.CN", "desc" : "汽车轮胎-要闻列表", "imageUrl" : "http:\/\/www.sinaimg.cn\/dy\/auto\/index\/topbar_03.gif", "postPerWeek" : "0", "lastCrawTime" : "2013年10月17日 (2周前)", "crawDateTime" : "2013年3月18日", "lastHttpCode" : "304"}, "page" : {
"startIndex" : 20,
"totalCount" : 227,
"pageIndex" : 2,
"lastPage" : 12,
"pageSize" : 20,
"english" :  False },
 "unreadNum" : 0, "shotIndex" : -1,
"articles" : [
{
"index" : 0,
"articleIndex" : "206",
"favor" :  False ,
     "read" : False,    
"title" : "米其林发布16英寸加强型轻卡轮胎产品",
"titleTip" : "米其林发布16英寸加强型轻卡轮胎产品",
"titleSummary" : "米其林发布16英寸加强型轻卡轮胎产品",
"descSummary" : "",
"url" : "http:\/\/go.rss.sina.com.cn\/redirect.php?url=http:\/\/auto.sina.com.cn\/service\/2012-11-21\/14511066536.shtml",
"pubDate" : "2012年11月21日",
"enterDate" : "384200:51:50",
"channelId" : "7228777820705965081",
"channelName" : "汽车轮胎-新浪汽车",
"channelNameSummary" : "汽车轮胎-新浪汽车",
"channelUrl" : "http:\/\/auto.sina.com.cn\/tire\/index.shtml",
"author" : "WWW.SINA.COM.CN",
"tags" : [],
"desc" : "",
"emailed" : False,
"forwarded" : False,
"english" : False
}  , {
"index" : 1,
"articleIndex" : "205",
"favor" :  False ,
     "read" : False,    
"title" : "韩泰轮胎推出全新翻斗车专用轮胎DM83",
"titleTip" : "韩泰轮胎推出全新翻斗车专用轮胎DM83",
"titleSummary" : "韩泰轮胎推出全新翻斗车专用轮胎DM83",
"descSummary" : "",
"url" : "http:\/\/go.rss.sina.com.cn\/redirect.php?url=http:\/\/auto.sina.com.cn\/service\/2012-11-16\/15441064291.shtml",
"pubDate" : "2012年11月16日",
"enterDate" : "384199:38:43",
"channelId" : "7228777820705965081",
"channelName" : "汽车轮胎-新浪汽车",
"channelNameSummary" : "汽车轮胎-新浪汽车",
"channelUrl" : "http:\/\/auto.sina.com.cn\/tire\/index.shtml",
"author" : "WWW.SINA.COM.CN",
"tags" : [],
"desc" : "",
"emailed" : False,
"forwarded" : False,
"english" : False
}  , {
"index" : 2,
"articleIndex" : "204",
"favor" :  False ,
     "read" : False,    
"title" : "固特异中国推出UltraGrip系列冬季胎",
"titleTip" : "固特异中国推出UltraGrip系列冬季胎",
"titleSummary" : "固特异中国推出UltraGrip系列冬季胎",
"descSummary" : "",
"url" : "http:\/\/go.rss.sina.com.cn\/redirect.php?url=http:\/\/auto.sina.com.cn\/service\/2012-11-16\/11161064209.shtml",
"pubDate" : "2012年11月16日",
"enterDate" : "384200:12:28",
"channelId" : "7228777820705965081",
"channelName" : "汽车轮胎-新浪汽车",
"channelNameSummary" : "汽车轮胎-新浪汽车",
"channelUrl" : "http:\/\/auto.sina.com.cn\/tire\/index.shtml",
"author" : "WWW.SINA.COM.CN",
"tags" : [],
"desc" : "",
"emailed" : False,
"forwarded" : False,
"english" : False
}  , {
"index" : 3,
"articleIndex" : "203",
"favor" :  False ,
     "read" : False,    
"title" : "驶向绿色未来 100万条绿歌伴轮胎引领环保之路",
"titleTip" : "驶向绿色未来 100万条绿歌伴轮胎引领环保之路",
"titleSummary" : "驶向绿色未来 100万条绿歌伴轮胎引领环保之路",
"descSummary" : "",
"url" : "http:\/\/go.rss.sina.com.cn\/redirect.php?url=http:\/\/auto.sina.com.cn\/service\/2012-11-16\/10031064152.shtml",
"pubDate" : "2012年11月16日",
"enterDate" : "384201:00:38",
"channelId" : "7228777820705965081",
"channelName" : "汽车轮胎-新浪汽车",
"channelNameSummary" : "汽车轮胎-新浪汽车",
"channelUrl" : "http:\/\/auto.sina.com.cn\/tire\/index.shtml",
"author" : "WWW.SINA.COM.CN",
"tags" : [],
"desc" : "",
"emailed" : False,
"forwarded" : False,
"english" : False
}  , {
"index" : 4,
"articleIndex" : "202",
"favor" :  False ,
     "read" : False,    
"title" : "助力佳通轮胎横扫CCR四冠军(图)",
"titleTip" : "助力佳通轮胎横扫CCR四冠军(图)",
"titleSummary" : "助力佳通轮胎横扫CCR四冠军(图)",
"descSummary" : "",
"url" : "http:\/\/go.rss.sina.com.cn\/redirect.php?url=http:\/\/auto.sina.com.cn\/service\/2012-11-14\/14561062881.shtml",
"pubDate" : "2012年11月14日",
"enterDate" : "384188:03:21",
"channelId" : "7228777820705965081",
"channelName" : "汽车轮胎-新浪汽车",
"channelNameSummary" : "汽车轮胎-新浪汽车",
"channelUrl" : "http:\/\/auto.sina.com.cn\/tire\/index.shtml",
"author" : "WWW.SINA.COM.CN",
"tags" : [],
"desc" : "",
"emailed" : False,
"forwarded" : False,
"english" : False
}  , {
"index" : 5,
"articleIndex" : "201",
"favor" :  False ,
     "read" : False,    
"title" : "固特异胎压自控技术荣膺2012年最佳发明",
"titleTip" : "固特异胎压自控技术荣膺2012年最佳发明",
"titleSummary" : "固特异胎压自控技术荣膺2012年最佳发明",
"descSummary" : "",
"url" : "http:\/\/go.rss.sina.com.cn\/redirect.php?url=http:\/\/auto.sina.com.cn\/service\/2012-11-13\/17081062182.shtml",
"pubDate" : "2012年11月13日",
"enterDate" : "384166:15:19",
"channelId" : "7228777820705965081",
"channelName" : "汽车轮胎-新浪汽车",
"channelNameSummary" : "汽车轮胎-新浪汽车",
"channelUrl" : "http:\/\/auto.sina.com.cn\/tire\/index.shtml",
"author" : "WWW.SINA.COM.CN",
"tags" : [],
"desc" : "",
"emailed" : False,
"forwarded" : False,
"english" : False
}  , {
"index" : 6,
"articleIndex" : "200",
"favor" :  False ,
     "read" : False,    
"title" : "BMCS 全时轮胎爆胎预防保护",
"titleTip" : "BMCS 全时轮胎爆胎预防保护",
"titleSummary" : "BMCS 全时轮胎爆胎预防保护",
"descSummary" : "",
"url" : "http:\/\/go.rss.sina.com.cn\/redirect.php?url=http:\/\/auto.sina.com.cn\/service\/2012-11-13\/09221061946.shtml",
"pubDate" : "2012年11月13日",
"enterDate" : "384158:30:10",
"channelId" : "7228777820705965081",
"channelName" : "汽车轮胎-新浪汽车",
"channelNameSummary" : "汽车轮胎-新浪汽车",
"channelUrl" : "http:\/\/auto.sina.com.cn\/tire\/index.shtml",
"author" : "WWW.SINA.COM.CN",
"tags" : [],
"desc" : "",
"emailed" : False,
"forwarded" : False,
"english" : False
}  , {
"index" : 7,
"articleIndex" : "199",
"favor" :  False ,
     "read" : False,    
"title" : "韩泰轮胎为高端车型推出冬季轮胎",
"titleTip" : "韩泰轮胎为高端车型推出冬季轮胎",
"titleSummary" : "韩泰轮胎为高端车型推出冬季轮胎",
"descSummary" : "",
"url" : "http:\/\/go.rss.sina.com.cn\/redirect.php?url=http:\/\/auto.sina.com.cn\/service\/2012-11-08\/07511059501.shtml",
"pubDate" : "2012年11月8日",
"enterDate" : "384200:51:43",
"channelId" : "7228777820705965081",
"channelName" : "汽车轮胎-新浪汽车",
"channelNameSummary" : "汽车轮胎-新浪汽车",
"channelUrl" : "http:\/\/auto.sina.com.cn\/tire\/index.shtml",
"author" : "WWW.SINA.COM.CN",
"tags" : [],
"desc" : "",
"emailed" : False,
"forwarded" : False,
"english" : False
}  , {
"index" : 8,
"articleIndex" : "198",
"favor" :  False ,
     "read" : False,    
"title" : "固特异北美轮胎业务同比增长67%",
"titleTip" : "固特异北美轮胎业务同比增长67%",
"titleSummary" : "固特异北美轮胎业务同比增长67%",
"descSummary" : "",
"url" : "http:\/\/go.rss.sina.com.cn\/redirect.php?url=http:\/\/auto.sina.com.cn\/service\/2012-10-29\/15061053889.shtml",
"pubDate" : "2012年10月29日",
"enterDate" : "384201:11:07",
"channelId" : "7228777820705965081",
"channelName" : "汽车轮胎-新浪汽车",
"channelNameSummary" : "汽车轮胎-新浪汽车",
"channelUrl" : "http:\/\/auto.sina.com.cn\/tire\/index.shtml",
"author" : "WWW.SINA.COM.CN",
"tags" : [],
"desc" : "",
"emailed" : False,
"forwarded" : False,
"english" : False
}  , {
"index" : 9,
"articleIndex" : "197",
"favor" :  False ,
     "read" : False,    
"title" : "米其林在中国推出第三代冬季轮胎",
"titleTip" : "米其林在中国推出第三代冬季轮胎",
"titleSummary" : "米其林在中国推出第三代冬季轮胎",
"descSummary" : "",
"url" : "http:\/\/go.rss.sina.com.cn\/redirect.php?url=http:\/\/auto.sina.com.cn\/service\/2012-10-29\/14061053867.shtml",
"pubDate" : "2012年10月29日",
"enterDate" : "384200:11:27",
"channelId" : "7228777820705965081",
"channelName" : "汽车轮胎-新浪汽车",
"channelNameSummary" : "汽车轮胎-新浪汽车",
"channelUrl" : "http:\/\/auto.sina.com.cn\/tire\/index.shtml",
"author" : "WWW.SINA.COM.CN",
"tags" : [],
"desc" : "",
"emailed" : False,
"forwarded" : False,
"english" : False
}  , {
"index" : 10,
"articleIndex" : "196",
"favor" :  False ,
     "read" : False,    
"title" : "米其林卡客车全国轮胎修补大赛圆满落幕",
"titleTip" : "米其林卡客车全国轮胎修补大赛圆满落幕",
"titleSummary" : "米其林卡客车全国轮胎修补大赛圆满落幕",
"descSummary" : "",
"url" : "http:\/\/go.rss.sina.com.cn\/redirect.php?url=http:\/\/auto.sina.com.cn\/service\/2012-10-26\/10011052803.shtml",
"pubDate" : "2012年10月26日",
"enterDate" : "384200:59:25",
"channelId" : "7228777820705965081",
"channelName" : "汽车轮胎-新浪汽车",
"channelNameSummary" : "汽车轮胎-新浪汽车",
"channelUrl" : "http:\/\/auto.sina.com.cn\/tire\/index.shtml",
"author" : "WWW.SINA.COM.CN",
"tags" : [],
"desc" : "",
"emailed" : False,
"forwarded" : False,
"english" : False
}  , {
"index" : 11,
"articleIndex" : "195",
"favor" :  False ,
     "read" : False,    
"title" : "韩泰轮胎欧洲技术研发中心扩建项目完工",
"titleTip" : "韩泰轮胎欧洲技术研发中心扩建项目完工",
"titleSummary" : "韩泰轮胎欧洲技术研发中心扩建项目完工",
"descSummary" : "",
"url" : "http:\/\/go.rss.sina.com.cn\/redirect.php?url=http:\/\/auto.sina.com.cn\/service\/2012-10-25\/16321052315.shtml",
"pubDate" : "2012年10月25日",
"enterDate" : "384200:33:46",
"channelId" : "7228777820705965081",
"channelName" : "汽车轮胎-新浪汽车",
"channelNameSummary" : "汽车轮胎-新浪汽车",
"channelUrl" : "http:\/\/auto.sina.com.cn\/tire\/index.shtml",
"author" : "WWW.SINA.COM.CN",
"tags" : [],
"desc" : "",
"emailed" : False,
"forwarded" : False,
"english" : False
}  , {
"index" : 12,
"articleIndex" : "194",
"favor" :  False ,
     "read" : False,    
"title" : "固特异启动轮胎本土化生产 新200系列上市",
"titleTip" : "固特异启动轮胎本土化生产 新200系列上市",
"titleSummary" : "固特异启动轮胎本土化生产 新200系列上市",
"descSummary" : "",
"url" : "http:\/\/go.rss.sina.com.cn\/redirect.php?url=http:\/\/auto.sina.com.cn\/service\/2012-10-19\/13291049252.shtml",
"pubDate" : "2012年10月19日",
"enterDate" : "384199:31:37",
"channelId" : "7228777820705965081",
"channelName" : "汽车轮胎-新浪汽车",
"channelNameSummary" : "汽车轮胎-新浪汽车",
"channelUrl" : "http:\/\/auto.sina.com.cn\/tire\/index.shtml",
"author" : "WWW.SINA.COM.CN",
"tags" : [],
"desc" : "",
"emailed" : False,
"forwarded" : False,
"english" : False
}  , {
"index" : 13,
"articleIndex" : "193",
"favor" :  False ,
     "read" : False,    
"title" : "普利司通力推\"绿歌伴\"商用车新品R102",
"titleTip" : "普利司通力推\"绿歌伴\"商用车新品R102",
"titleSummary" : "普利司通力推\"绿歌伴\"商用车新品R102",
"descSummary" : "",
"url" : "http:\/\/go.rss.sina.com.cn\/redirect.php?url=http:\/\/auto.sina.com.cn\/service\/2012-10-16\/14061047131.shtml",
"pubDate" : "2012年10月16日",
"enterDate" : "384200:10:02",
"channelId" : "7228777820705965081",
"channelName" : "汽车轮胎-新浪汽车",
"channelNameSummary" : "汽车轮胎-新浪汽车",
"channelUrl" : "http:\/\/auto.sina.com.cn\/tire\/index.shtml",
"author" : "WWW.SINA.COM.CN",
"tags" : [],
"desc" : "",
"emailed" : False,
"forwarded" : False,
"english" : False
}  , {
"index" : 14,
"articleIndex" : "192",
"favor" :  False ,
     "read" : False,    
"title" : "米其林巴黎车展首展三款新品完全性能",
"titleTip" : "米其林巴黎车展首展三款新品完全性能",
"titleSummary" : "米其林巴黎车展首展三款新品完全性能",
"descSummary" : "",
"url" : "http:\/\/go.rss.sina.com.cn\/redirect.php?url=http:\/\/auto.sina.com.cn\/service\/2012-10-09\/14331043446.shtml",
"pubDate" : "2012年10月9日",
"enterDate" : "384163:39:43",
"channelId" : "7228777820705965081",
"channelName" : "汽车轮胎-新浪汽车",
"channelNameSummary" : "汽车轮胎-新浪汽车",
"channelUrl" : "http:\/\/auto.sina.com.cn\/tire\/index.shtml",
"author" : "WWW.SINA.COM.CN",
"tags" : [],
"desc" : "",
"emailed" : False,
"forwarded" : False,
"english" : False
}  , {
"index" : 15,
"articleIndex" : "191",
"favor" :  False ,
     "read" : False,    
"title" : "韩泰轮胎荣获通用汽车供应商杰出质量奖",
"titleTip" : "韩泰轮胎荣获通用汽车供应商杰出质量奖",
"titleSummary" : "韩泰轮胎荣获通用汽车供应商杰出质量奖",
"descSummary" : "",
"url" : "http:\/\/go.rss.sina.com.cn\/redirect.php?url=http:\/\/auto.sina.com.cn\/service\/2012-10-09\/10311043351.shtml",
"pubDate" : "2012年10月9日",
"enterDate" : "384159:37:31",
"channelId" : "7228777820705965081",
"channelName" : "汽车轮胎-新浪汽车",
"channelNameSummary" : "汽车轮胎-新浪汽车",
"channelUrl" : "http:\/\/auto.sina.com.cn\/tire\/index.shtml",
"author" : "WWW.SINA.COM.CN",
"tags" : [],
"desc" : "",
"emailed" : False,
"forwarded" : False,
"english" : False
}  , {
"index" : 16,
"articleIndex" : "190",
"favor" :  False ,
     "read" : False,    
"title" : "固特异胎压自控技术亮相汉诺威商用车展",
"titleTip" : "固特异胎压自控技术亮相汉诺威商用车展",
"titleSummary" : "固特异胎压自控技术亮相汉诺威商用车展",
"descSummary" : "",
"url" : "http:\/\/go.rss.sina.com.cn\/redirect.php?url=http:\/\/auto.sina.com.cn\/service\/2012-09-25\/17031038248.shtml",
"pubDate" : "2012年9月25日",
"enterDate" : "384201:06:14",
"channelId" : "7228777820705965081",
"channelName" : "汽车轮胎-新浪汽车",
"channelNameSummary" : "汽车轮胎-新浪汽车",
"channelUrl" : "http:\/\/auto.sina.com.cn\/tire\/index.shtml",
"author" : "WWW.SINA.COM.CN",
"tags" : [],
"desc" : "",
"emailed" : False,
"forwarded" : False,
"english" : False
}  , {
"index" : 17,
"articleIndex" : "189",
"favor" :  False ,
     "read" : False,    
"title" : "韩泰UHP轮胎为新林肯MKZ提供配套",
"titleTip" : "韩泰UHP轮胎为新林肯MKZ提供配套",
"titleSummary" : "韩泰UHP轮胎为新林肯MKZ提供配套",
"descSummary" : "",
"url" : "http:\/\/go.rss.sina.com.cn\/redirect.php?url=http:\/\/auto.sina.com.cn\/service\/2012-09-19\/17251035172.shtml",
"pubDate" : "2012年9月19日",
"enterDate" : "384198:23:26",
"channelId" : "7228777820705965081",
"channelName" : "汽车轮胎-新浪汽车",
"channelNameSummary" : "汽车轮胎-新浪汽车",
"channelUrl" : "http:\/\/auto.sina.com.cn\/tire\/index.shtml",
"author" : "WWW.SINA.COM.CN",
"tags" : [],
"desc" : "",
"emailed" : False,
"forwarded" : False,
"english" : False
}  , {
"index" : 18,
"articleIndex" : "188",
"favor" :  False ,
     "read" : False,    
"title" : "固铂STMAXX轮胎出击2012中国环塔拉力赛",
"titleTip" : "固铂STMAXX轮胎出击2012中国环塔拉力赛",
"titleSummary" : "固铂STMAXX轮胎出击2012中国环塔拉力赛",
"descSummary" : "",
"url" : "http:\/\/go.rss.sina.com.cn\/redirect.php?url=http:\/\/auto.sina.com.cn\/service\/2012-09-14\/11371032798.shtml",
"pubDate" : "2012年9月14日",
"enterDate" : "384200:43:14",
"channelId" : "7228777820705965081",
"channelName" : "汽车轮胎-新浪汽车",
"channelNameSummary" : "汽车轮胎-新浪汽车",
"channelUrl" : "http:\/\/auto.sina.com.cn\/tire\/index.shtml",
"author" : "WWW.SINA.COM.CN",
"tags" : [],
"desc" : "",
"emailed" : False,
"forwarded" : False,
"english" : False
}  , {
"index" : 19,
"articleIndex" : "187",
"favor" :  False ,
     "read" : False,    
"title" : "米其林发布中国车主环保行为调查报告",
"titleTip" : "米其林发布中国车主环保行为调查报告",
"titleSummary" : "米其林发布中国车主环保行为调查报告",
"descSummary" : "",
"url" : "http:\/\/go.rss.sina.com.cn\/redirect.php?url=http:\/\/auto.sina.com.cn\/service\/2012-09-13\/11171032066.shtml",
"pubDate" : "2012年9月13日",
"enterDate" : "384200:13:50",
"channelId" : "7228777820705965081",
"channelName" : "汽车轮胎-新浪汽车",
"channelNameSummary" : "汽车轮胎-新浪汽车",
"channelUrl" : "http:\/\/auto.sina.com.cn\/tire\/index.shtml",
"author" : "WWW.SINA.COM.CN",
"tags" : [],
"desc" : "",
"emailed" : False,
"forwarded" : False,
"english" : False
} ]
}
