{
"mode" : {"viewTitle" : 1,   "viewNew" : 0,  "pageIndex" : 1 },
 "channel" : {"id" : "4732226402129990437", "booked" : False, "subNumber" : 1, "name" : "手机资讯-新浪科技", "url" : "http:\/\/mobile.sina.com.cn\/", "feed" : "http:\/\/rss.sina.com.cn\/tech\/mobile\/mobile_6.xml", "author" : "WWW.SINA.COM.CN", "desc" : "手机资讯", "imageUrl" : "http:\/\/www.sinaimg.cn\/home\/deco\/2009\/0330\/logo_home_tech_news.gif", "postPerWeek" : "0", "lastCrawTime" : "16:51:15", "crawDateTime" : "16:51:15", "lastHttpCode" : "200"}, "page" : {
"startIndex" : 0,
"totalCount" : 5000,
"pageIndex" : 1,
"lastPage" : 250,
"pageSize" : 20,
"english" :  False },
 "unreadNum" : 0, "shotIndex" : -1,
"articles" : [
{
"index" : 0,
"articleIndex" : "31872",
"favor" :  False ,
     "read" : False,    
"title" : "1.9GHz四核4G网络 三星N7108D真机评测",
"titleTip" : "1.9GHz四核4G网络 三星N7108D真机评测",
"titleSummary" : "1.9GHz四核4G网络 三星N7108D真机评测",
"descSummary" : "文\/万宇 如今，人们对于网络的依赖程度就像当初对电灯和电视...",
"url" : "http:\/\/go.rss.sina.com.cn\/redirect.php?url=http:\/\/tech.sina.com.cn\/mobile\/n\/2013-10-30\/11298867695.shtml",
"pubDate" : "11:29:13",
"enterDate" : "384200:57:49",
"channelId" : "4732226402129990437",
"channelName" : "手机资讯-新浪科技",
"channelNameSummary" : "手机资讯-新浪科技",
"channelUrl" : "http:\/\/mobile.sina.com.cn\/",
"author" : "WWW.SINA.COM.CN",
"tags" : [],
"desc" : "文\/万宇 如今，人们对于网络的依赖程度就像当初对电灯和电视一样高，甚至有过之而无不及。尤其是智能手机普及之后，大家都习惯于通过移动网络浏览信息、交友沟通，随之而来的则是对网速要求的提高。从去年开始，国内升级4G网络的消息越来越多，而各大手机厂商的反应更....",
"emailed" : False,
"forwarded" : False,
"english" : False
}  , {
"index" : 1,
"articleIndex" : "31871",
"favor" :  False ,
     "read" : False,    
"title" : "苹果公司因电池生产缺陷召回部分iPhone 5s",
"titleTip" : "苹果公司因电池生产缺陷召回部分iPhone 5s",
"titleSummary" : "苹果公司因电池生产缺陷召回部分iPhone 5s",
"descSummary" : "部分iPhone 5s因电池缺陷召回 新浪科技讯 北京时间10月30...",
"url" : "http:\/\/go.rss.sina.com.cn\/redirect.php?url=http:\/\/tech.sina.com.cn\/mobile\/n\/apple\/2013-10-30\/11218867690.shtml",
"pubDate" : "11:21:09",
"enterDate" : "384200:49:45",
"channelId" : "4732226402129990437",
"channelName" : "手机资讯-新浪科技",
"channelNameSummary" : "手机资讯-新浪科技",
"channelUrl" : "http:\/\/mobile.sina.com.cn\/",
"author" : "WWW.SINA.COM.CN",
"tags" : [],
"desc" : "部分iPhone 5s因电池缺陷召回 新浪科技讯 北京时间10月30日上午消息，虽然外界认为iPhone 5s的电池续航时间将较之前的产品大幅提升，但苹果公司却表示，有一小部分新机型因为生产制造缺陷导致电量流失过快，因此决定为受影响的用户更换新机。 苹果日前在美国《纽约....",
"emailed" : False,
"forwarded" : False,
"english" : False
}  , {
"index" : 2,
"articleIndex" : "31870",
"favor" :  False ,
     "read" : False,    
"title" : "三星曲面屏手机Galaxy Round真机上手",
"titleTip" : "三星曲面屏手机Galaxy Round真机上手",
"titleSummary" : "三星曲面屏手机Galaxy Round真机上手",
"descSummary" : "",
"url" : "http:\/\/go.rss.sina.com.cn\/redirect.php?url=http:\/\/slide.tech.sina.com.cn\/mobile\/slide_5_22298_37586.html",
"pubDate" : "11:19:38",
"enterDate" : "384200:48:14",
"channelId" : "4732226402129990437",
"channelName" : "手机资讯-新浪科技",
"channelNameSummary" : "手机资讯-新浪科技",
"channelUrl" : "http:\/\/mobile.sina.com.cn\/",
"author" : "WWW.SINA.COM.CN",
"tags" : [],
"desc" : "",
"emailed" : False,
"forwarded" : False,
"english" : False
}  , {
"index" : 3,
"articleIndex" : "31869",
"favor" :  False ,
     "read" : False,    
"title" : "喜大普奔 iPad Air全球媒体评测精选",
"titleTip" : "喜大普奔 iPad Air全球媒体评测精选",
"titleSummary" : "喜大普奔 iPad Air全球媒体评测精选",
"descSummary" : "新浪手机讯 10月30日上午消息，iPad Air上市日期临近，全球媒体也纷...",
"url" : "http:\/\/go.rss.sina.com.cn\/redirect.php?url=http:\/\/tech.sina.com.cn\/mobile\/n\/apple\/2013-10-30\/10338867547.shtml",
"pubDate" : "10:33:53",
"enterDate" : "384201:02:39",
"channelId" : "4732226402129990437",
"channelName" : "手机资讯-新浪科技",
"channelNameSummary" : "手机资讯-新浪科技",
"channelUrl" : "http:\/\/mobile.sina.com.cn\/",
"author" : "WWW.SINA.COM.CN",
"tags" : [],
"desc" : "新浪手机讯 10月30日上午消息，iPad Air上市日期临近，全球媒体也纷纷放出这款产品测评测。整体来说，大家对它的评价都很高，更轻更薄性能更好的新一代iPad给人留下了良好印象。舆论整体呈现一片欢乐和谐景象。 The Loop 很难描述将iPad Air拿在手里的感觉有多....",
"emailed" : False,
"forwarded" : False,
"english" : False
}  , {
"index" : 4,
"articleIndex" : "31868",
"favor" :  False ,
     "read" : False,    
"title" : "轻薄强大 苹果iPad Air评测",
"titleTip" : "轻薄强大 苹果iPad Air评测",
"titleSummary" : "轻薄强大 苹果iPad Air评测",
"descSummary" : "新浪科技讯 当地时间10月22日，苹果公司在美国旧金山发布了iPad Air和配备R...",
"url" : "http:\/\/go.rss.sina.com.cn\/redirect.php?url=http:\/\/tech.sina.com.cn\/mobile\/n\/apple\/2013-10-30\/09008867209.shtml",
"pubDate" : "09:00:43",
"enterDate" : "384200:59:44",
"channelId" : "4732226402129990437",
"channelName" : "手机资讯-新浪科技",
"channelNameSummary" : "手机资讯-新浪科技",
"channelUrl" : "http:\/\/mobile.sina.com.cn\/",
"author" : "WWW.SINA.COM.CN",
"tags" : [],
"desc" : "新浪科技讯 当地时间10月22日，苹果公司在美国旧金山发布了iPad Air和配备Retina显示屏的iPad mini，并宣布iPad Air于11月1日先于新款iPad&#160;mini在全球首批上市，中国也在内。新浪科技在提前拿到了iPad Air的评测样机，请看它的实际表现。 新的iPad Air外观借鉴了iP....",
"emailed" : False,
"forwarded" : False,
"english" : False
}  , {
"index" : 5,
"articleIndex" : "31867",
"favor" :  False ,
     "read" : False,    
"title" : "摩托罗拉开发模块化DIY手机：可以自由组装",
"titleTip" : "摩托罗拉开发模块化DIY手机：可以自由组装",
"titleSummary" : "摩托罗拉开发模块化DIY手机：可以自由组装",
"descSummary" : "摩托罗拉开发模块化DIY手机 新浪科技讯 北京时间10月30日...",
"url" : "http:\/\/go.rss.sina.com.cn\/redirect.php?url=http:\/\/tech.sina.com.cn\/mobile\/n\/2013-10-30\/08578867201.shtml",
"pubDate" : "08:57:30",
"enterDate" : "384200:56:31",
"channelId" : "4732226402129990437",
"channelName" : "手机资讯-新浪科技",
"channelNameSummary" : "手机资讯-新浪科技",
"channelUrl" : "http:\/\/mobile.sina.com.cn\/",
"author" : "WWW.SINA.COM.CN",
"tags" : [],
"desc" : "摩托罗拉开发模块化DIY手机 新浪科技讯 北京时间10月30日上午消息，谷歌旗下摩托罗拉移动本周表示，该公司已经启动了\u201CAra项目\u201D，希望创造一套免费、开放的标准化平台，让用户可以自由选择自己想要的手机配件，然后组装起来。 这个项目的目标是制作一套手机框架，....",
"emailed" : False,
"forwarded" : False,
"english" : False
}  , {
"index" : 6,
"articleIndex" : "31866",
"favor" :  False ,
     "read" : False,    
"title" : "传谷歌将推智能手表 与Android 4.4同期发布",
"titleTip" : "传谷歌将推智能手表 与Android 4.4同期发布",
"titleSummary" : "传谷歌将推智能手表 与Android 4.4同期发布",
"descSummary" : "谷歌将推智能手表 新浪手机讯 北京时间10月30日上午消息，...",
"url" : "http:\/\/go.rss.sina.com.cn\/redirect.php?url=http:\/\/tech.sina.com.cn\/mobile\/n\/2013-10-30\/08478867179.shtml",
"pubDate" : "08:47:11",
"enterDate" : "384201:16:17",
"channelId" : "4732226402129990437",
"channelName" : "手机资讯-新浪科技",
"channelNameSummary" : "手机资讯-新浪科技",
"channelUrl" : "http:\/\/mobile.sina.com.cn\/",
"author" : "WWW.SINA.COM.CN",
"tags" : [],
"desc" : "谷歌将推智能手表 新浪手机讯 北京时间10月30日上午消息，《华尔街日报》周二援引知情人士的消息称，谷歌智能手表已经处于后期开发阶段，目前谷歌正与亚洲供应商商讨量产事宜。 该知情人士称，谷歌智能手表将采用Android平台，整合Google Now，可与智能手机等设备进....",
"emailed" : False,
"forwarded" : False,
"english" : False
}  , {
"index" : 7,
"articleIndex" : "31865",
"favor" :  False ,
     "read" : False,    
"title" : "从研发到上市 揭秘手机诞生过程",
"titleTip" : "从研发到上市 揭秘手机诞生过程",
"titleSummary" : "从研发到上市 揭秘手机诞生过程",
"descSummary" : "手机已经成为每个人每天离不开的物件，但它是怎么来的，制造生产的过...",
"url" : "http:\/\/go.rss.sina.com.cn\/redirect.php?url=http:\/\/tech.sina.com.cn\/mobile\/n\/2013-10-30\/08398867158.shtml",
"pubDate" : "08:39:50",
"enterDate" : "384201:08:56",
"channelId" : "4732226402129990437",
"channelName" : "手机资讯-新浪科技",
"channelNameSummary" : "手机资讯-新浪科技",
"channelUrl" : "http:\/\/mobile.sina.com.cn\/",
"author" : "WWW.SINA.COM.CN",
"tags" : [],
"desc" : "手机已经成为每个人每天离不开的物件，但它是怎么来的，制造生产的过程又是什么样的情形，却离我们如此遥远。因为手机行业研发制造过程的要求严格保密，这个话题也鲜有报道。 近日，新浪手机联系到了国产手机厂商酷派，走进了他们的设计研发中心采访多位相关人士，观察一部手....",
"emailed" : False,
"forwarded" : False,
"english" : False
}  , {
"index" : 8,
"articleIndex" : "31864",
"favor" :  False ,
     "read" : False,    
"title" : "速度决定一切 手机自带闪存对比U盘测试",
"titleTip" : "速度决定一切 手机自带闪存对比U盘测试",
"titleSummary" : "速度决定一切 手机自带闪存对比U盘测试",
"descSummary" : "说到手机闪存，相信大家都会关注容量的大小，很少有用户会去...",
"url" : "http:\/\/go.rss.sina.com.cn\/redirect.php?url=http:\/\/tech.sina.com.cn\/mobile\/n\/2013-10-30\/08348867143.shtml",
"pubDate" : "08:34:40",
"enterDate" : "384201:03:46",
"channelId" : "4732226402129990437",
"channelName" : "手机资讯-新浪科技",
"channelNameSummary" : "手机资讯-新浪科技",
"channelUrl" : "http:\/\/mobile.sina.com.cn\/",
"author" : "WWW.SINA.COM.CN",
"tags" : [],
"desc" : "说到手机闪存，相信大家都会关注容量的大小，很少有用户会去关注它的读写速度。而市面上绝大部分手机也都不会进行详细标注，只是粗略的对闪存的容量进行标注，并以容量大小划分产品线。如我们常见的8GB版、16GB版、32GB乃至64GB等等。而目前已知的手机容量最大为128GB。然而，....",
"emailed" : False,
"forwarded" : False,
"english" : False
}  , {
"index" : 9,
"articleIndex" : "31863",
"favor" :  False ,
     "read" : False,    
"title" : "摩托罗拉将出模块化手机 所有硬件均可更换",
"titleTip" : "摩托罗拉将出模块化手机 所有硬件均可更换",
"titleSummary" : "摩托罗拉将出模块化手机 所有硬件均可更换",
"descSummary" : "近日，摩托宣布了一个名为\u201CProject Ara\u201D的计划，有些类...",
"url" : "http:\/\/go.rss.sina.com.cn\/redirect.php?url=http:\/\/tech.sina.com.cn\/mobile\/n\/2013-10-30\/08258867125.shtml",
"pubDate" : "08:25:26",
"enterDate" : "384200:54:32",
"channelId" : "4732226402129990437",
"channelName" : "手机资讯-新浪科技",
"channelNameSummary" : "手机资讯-新浪科技",
"channelUrl" : "http:\/\/mobile.sina.com.cn\/",
"author" : "WWW.SINA.COM.CN",
"tags" : [],
"desc" : "近日，摩托宣布了一个名为\u201CProject Ara\u201D的计划，有些类似之前的Phonebloks，将手机分为很多模块，而这些模块可以随时自由更换，官方称\u201C包括新的应用处理器、新的屏幕或者键盘、第二块电池、脉搏血氧仪，或者其它什么还没有想到的！\u201D 举个例子：嫌手机的摄像头....",
"emailed" : False,
"forwarded" : False,
"english" : False
}  , {
"index" : 10,
"articleIndex" : "31862",
"favor" :  False ,
     "read" : False,    
"title" : "为升级做好准备 支持4G网络手机导购",
"titleTip" : "为升级做好准备 支持4G网络手机导购",
"titleSummary" : "为升级做好准备 支持4G网络手机导购",
"descSummary" : "随着中国移动在全国各地不断开启体验，4G的商用化已经如同箭在...",
"url" : "http:\/\/go.rss.sina.com.cn\/redirect.php?url=http:\/\/tech.sina.com.cn\/mobile\/n\/2013-10-30\/08068867070.shtml",
"pubDate" : "08:06:28",
"enterDate" : "384201:05:39",
"channelId" : "4732226402129990437",
"channelName" : "手机资讯-新浪科技",
"channelNameSummary" : "手机资讯-新浪科技",
"channelUrl" : "http:\/\/mobile.sina.com.cn\/",
"author" : "WWW.SINA.COM.CN",
"tags" : [],
"desc" : "随着中国移动在全国各地不断开启体验，4G的商用化已经如同箭在弦上。目前移动所采用的4G制式为TD-LTE，而国际上普遍采用的则为FDD-LTE，如果想在近期购买手机而在将来不换机就能体验4G网络，那么能支持这两类制式的产品才是你的选择。下面我们就给大家推荐几款支持4G网络的手....",
"emailed" : False,
"forwarded" : False,
"english" : False
}  , {
"index" : 11,
"articleIndex" : "31861",
"favor" :  False ,
     "read" : False,    
"title" : "30日行情:移动版3GB内存安卓旗舰售4350元",
"titleTip" : "30日行情:移动版3GB内存安卓旗舰售4350元",
"titleSummary" : "30日行情:移动版3GB内存安卓旗舰售4350元",
"descSummary" : "与早前发布的S4相同的是，Note3在功能上也有它的过人之处...",
"url" : "http:\/\/go.rss.sina.com.cn\/redirect.php?url=http:\/\/tech.sina.com.cn\/mobile\/n\/2013-10-30\/08038867062.shtml",
"pubDate" : "08:03:01",
"enterDate" : "384201:02:12",
"channelId" : "4732226402129990437",
"channelName" : "手机资讯-新浪科技",
"channelNameSummary" : "手机资讯-新浪科技",
"channelUrl" : "http:\/\/mobile.sina.com.cn\/",
"author" : "WWW.SINA.COM.CN",
"tags" : [],
"desc" : "与早前发布的S4相同的是，Note3在功能上也有它的过人之处，该机是目前市面上首款配备3GB运存的产品，并且在Note3上配备的S-PEN 功能更加强大。目前，该机(正品行货)在经销商处售价为4350元。现在购机还可获赠高额话费返还，另外商家还承诺四环内免费送货和上门刷卡 服务，详情....",
"emailed" : False,
"forwarded" : False,
"english" : False
}  , {
"index" : 12,
"articleIndex" : "31860",
"favor" :  False ,
     "read" : False,    
"title" : "何必苦等双十一 近期降幅较大手机盘点",
"titleTip" : "何必苦等双十一 近期降幅较大手机盘点",
"titleSummary" : "何必苦等双十一 近期降幅较大手机盘点",
"descSummary" : "\u201C双十一\u201D即每年的11月11日，这一天除了是\u201C光棍节\u201D之外，...",
"url" : "http:\/\/go.rss.sina.com.cn\/redirect.php?url=http:\/\/tech.sina.com.cn\/mobile\/n\/2013-10-30\/07578867028.shtml",
"pubDate" : "07:57:36",
"enterDate" : "384200:56:47",
"channelId" : "4732226402129990437",
"channelName" : "手机资讯-新浪科技",
"channelNameSummary" : "手机资讯-新浪科技",
"channelUrl" : "http:\/\/mobile.sina.com.cn\/",
"author" : "WWW.SINA.COM.CN",
"tags" : [],
"desc" : "\u201C双十一\u201D即每年的11月11日，这一天除了是\u201C光棍节\u201D之外，各大电商网站也会在当天进行大规模的促销活动。手机作为电子产品遵循一个普遍的规律，那就是随着产能的不断攀升其生产成本也在持续降低。而具体到我们消费者来说，就是一款产品上市一段时间后在价格上就会有所下降。....",
"emailed" : False,
"forwarded" : False,
"english" : False
}  , {
"index" : 13,
"articleIndex" : "31859",
"favor" :  False ,
     "read" : False,    
"title" : "iPad Air国内开售：8点起在线预约自取",
"titleTip" : "iPad Air国内开售：8点起在线预约自取",
"titleSummary" : "iPad Air国内开售：8点起在线预约自取",
"descSummary" : "新浪手机讯 10月30日上午消息，今早8点起，中国用户可在苹果公...",
"url" : "http:\/\/go.rss.sina.com.cn\/redirect.php?url=http:\/\/tech.sina.com.cn\/mobile\/n\/apple\/2013-10-30\/07558867027.shtml",
"pubDate" : "07:55:39",
"enterDate" : "384200:54:50",
"channelId" : "4732226402129990437",
"channelName" : "手机资讯-新浪科技",
"channelNameSummary" : "手机资讯-新浪科技",
"channelUrl" : "http:\/\/mobile.sina.com.cn\/",
"author" : "WWW.SINA.COM.CN",
"tags" : [],
"desc" : "新浪手机讯 10月30日上午消息，今早8点起，中国用户可在苹果公司官网预约iPad Air，11月1日8点前往当地苹果零售商店自取。 中国内地成为iPad Air首批发售国家之一，国内用户目前可以通过多种方式购买：最快的方式是用户通过苹果在线商店进行预约，成功之后于次日前往苹....",
"emailed" : False,
"forwarded" : False,
"english" : False
}  , {
"index" : 14,
"articleIndex" : "31858",
"favor" :  False ,
     "read" : False,    
"title" : "简单流畅切换APP 安卓应用切换技巧",
"titleTip" : "简单流畅切换APP 安卓应用切换技巧",
"titleSummary" : "简单流畅切换APP 安卓应用切换技巧",
"descSummary" : "在智能手机上要切换APP的话，一般只有两种办法，一是退回主界...",
"url" : "http:\/\/go.rss.sina.com.cn\/redirect.php?url=http:\/\/tech.sina.com.cn\/mobile\/n\/2013-10-30\/07478866869.shtml",
"pubDate" : "07:47:49",
"enterDate" : "384200:47:00",
"channelId" : "4732226402129990437",
"channelName" : "手机资讯-新浪科技",
"channelNameSummary" : "手机资讯-新浪科技",
"channelUrl" : "http:\/\/mobile.sina.com.cn\/",
"author" : "WWW.SINA.COM.CN",
"tags" : [],
"desc" : "在智能手机上要切换APP的话，一般只有两种办法，一是退回主界面然后找到要切换的APP，二是长按Home键以后选择已开放的APP。这两种方法都不算十分方便，今天小编就介绍给大家一款可以让手机流畅切换APP，而且很设计美观的应用。 这款名叫《Switchr》的APP提供了两种切....",
"emailed" : False,
"forwarded" : False,
"english" : False
}  , {
"index" : 15,
"articleIndex" : "31856",
"favor" :  False ,
     "read" : False,    
"title" : "传三星Galaxy S5搭载64位处理器 内存达4GB",
"titleTip" : "传三星Galaxy S5搭载64位处理器 内存达4GB",
"titleSummary" : "传三星Galaxy S5搭载64位处理器 内存达4GB",
"descSummary" : "较早前韩国媒体曾经爆料，三星的64位猎户座处理器已经...",
"url" : "http:\/\/go.rss.sina.com.cn\/redirect.php?url=http:\/\/tech.sina.com.cn\/mobile\/n\/2013-10-30\/07448866866.shtml",
"pubDate" : "07:44:33",
"enterDate" : "384201:13:49",
"channelId" : "4732226402129990437",
"channelName" : "手机资讯-新浪科技",
"channelNameSummary" : "手机资讯-新浪科技",
"channelUrl" : "http:\/\/mobile.sina.com.cn\/",
"author" : "WWW.SINA.COM.CN",
"tags" : [],
"desc" : "较早前韩国媒体曾经爆料，三星的64位猎户座处理器已经进入到走上生产线前的最后准备阶段。近日，已经有消息确认称，新款的猎户座处理 器将采用\u201C6\u201D作为系列的开头序列号，从而与现有Exynos 5 Octa区分开来，同时也暗示新款机器将在采用完整的64位架构进行设计。 6....",
"emailed" : False,
"forwarded" : False,
"english" : False
}  , {
"index" : 16,
"articleIndex" : "31857",
"favor" :  False ,
     "read" : False,    
"title" : "小米3炒到2699 近期不宜出手智能机盘点",
"titleTip" : "小米3炒到2699 近期不宜出手智能机盘点",
"titleSummary" : "小米3炒到2699 近期不宜出手智能机盘点",
"descSummary" : "文\/宋焕丰 小米3刚刚发布那会，强大的配置低廉的价格为其积攒...",
"url" : "http:\/\/go.rss.sina.com.cn\/redirect.php?url=http:\/\/tech.sina.com.cn\/mobile\/n\/2013-10-30\/07418866843.shtml",
"pubDate" : "07:41:34",
"enterDate" : "384200:40:45",
"channelId" : "4732226402129990437",
"channelName" : "手机资讯-新浪科技",
"channelNameSummary" : "手机资讯-新浪科技",
"channelUrl" : "http:\/\/mobile.sina.com.cn\/",
"author" : "WWW.SINA.COM.CN",
"tags" : [],
"desc" : "文\/宋焕丰 小米3刚刚发布那会，强大的配置低廉的价格为其积攒了不少人气，但随后那种挤牙膏式的销售模式让不少人抓狂，各种抢不到的声音不绝于耳，如果您想从线下购买，就得加500-1000不等的价格，甚至连红米都炒到1400元，高性价比荡然无存。 然而，当下手机市....",
"emailed" : False,
"forwarded" : False,
"english" : False
}  , {
"index" : 17,
"articleIndex" : "31855",
"favor" :  False ,
     "read" : False,    
"title" : "要的就是速度 高主频四核旗舰手机推荐",
"titleTip" : "要的就是速度 高主频四核旗舰手机推荐",
"titleSummary" : "要的就是速度 高主频四核旗舰手机推荐",
"descSummary" : "文\/魏星明 导言： 随着手机市场不断得发展，人们在选购手机时...",
"url" : "http:\/\/go.rss.sina.com.cn\/redirect.php?url=http:\/\/tech.sina.com.cn\/mobile\/n\/2013-10-30\/05218866485.shtml",
"pubDate" : "05:21:31",
"enterDate" : "384200:51:06",
"channelId" : "4732226402129990437",
"channelName" : "手机资讯-新浪科技",
"channelNameSummary" : "手机资讯-新浪科技",
"channelUrl" : "http:\/\/mobile.sina.com.cn\/",
"author" : "WWW.SINA.COM.CN",
"tags" : [],
"desc" : "文\/魏星明 导言： 随着手机市场不断得发展，人们在选购手机时考虑的因素也越来越多，售价、外观、性能、质量、售后等等，其中售价和性能是消费者们最为关注的，因为说到底手机是拿来用的，只有一款性能好并且价格合适的手机才会带来更高的性价比。 如今....",
"emailed" : False,
"forwarded" : False,
"english" : False
}  , {
"index" : 18,
"articleIndex" : "31854",
"favor" :  False ,
     "read" : False,    
"title" : "机皇降900苹果反涨 10月热门机降价排行",
"titleTip" : "机皇降900苹果反涨 10月热门机降价排行",
"titleSummary" : "机皇降900苹果反涨 10月热门机降价排行",
"descSummary" : "文\/刘文 金九银十即将度过，想必大家对于这两个月上市的新机也...",
"url" : "http:\/\/go.rss.sina.com.cn\/redirect.php?url=http:\/\/tech.sina.com.cn\/mobile\/n\/2013-10-30\/05208866477.shtml",
"pubDate" : "05:20:39",
"enterDate" : "384200:50:14",
"channelId" : "4732226402129990437",
"channelName" : "手机资讯-新浪科技",
"channelNameSummary" : "手机资讯-新浪科技",
"channelUrl" : "http:\/\/mobile.sina.com.cn\/",
"author" : "WWW.SINA.COM.CN",
"tags" : [],
"desc" : "文\/刘文 金九银十即将度过，想必大家对于这两个月上市的新机也已了解的差不多，那今天我们就来点更具实战意义的盘点，借着月底来个10月热门手机降价排行，看看这些高人气的产品当前的售价究竟与月初相比差距是否够大，甚至有些是否已经达到了你的理想预期，希望对于....",
"emailed" : False,
"forwarded" : False,
"english" : False
}  , {
"index" : 19,
"articleIndex" : "31853",
"favor" :  False ,
     "read" : False,    
"title" : "Nexus5将发布 可升Android4.4机型预测",
"titleTip" : "Nexus5将发布 可升Android4.4机型预测",
"titleSummary" : "Nexus5将发布 可升Android4.4机型预测",
"descSummary" : "文\/宋焕丰 据传Nexus 5可能会在下月初发布，该机是由LG和谷歌...",
"url" : "http:\/\/go.rss.sina.com.cn\/redirect.php?url=http:\/\/tech.sina.com.cn\/mobile\/n\/2013-10-30\/05198866455.shtml",
"pubDate" : "05:19:29",
"enterDate" : "384200:49:04",
"channelId" : "4732226402129990437",
"channelName" : "手机资讯-新浪科技",
"channelNameSummary" : "手机资讯-新浪科技",
"channelUrl" : "http:\/\/mobile.sina.com.cn\/",
"author" : "WWW.SINA.COM.CN",
"tags" : [],
"desc" : "文\/宋焕丰 据传Nexus 5可能会在下月初发布，该机是由LG和谷歌再次合作推出的Android智能手机，其搭载了最新操作系统Android 4.4(其他手机厂商最高系统版本为Android 4.3)，被人们亲切的称呼为\u201C五儿子\u201D。至于Android 4.4版本有哪些新特性，只能等Nexus 5发售之后方....",
"emailed" : False,
"forwarded" : False,
"english" : False
} ]
}
