{
"mode" : {"viewTitle" : 1,   "viewNew" : 0,  "pageIndex" : 2 },
 "channel" : {"id" : "4732226402129990437", "booked" : False, "subNumber" : 1, "name" : "手机资讯-新浪科技", "url" : "http:\/\/mobile.sina.com.cn\/", "feed" : "http:\/\/rss.sina.com.cn\/tech\/mobile\/mobile_6.xml", "author" : "WWW.SINA.COM.CN", "desc" : "手机资讯", "imageUrl" : "http:\/\/www.sinaimg.cn\/home\/deco\/2009\/0330\/logo_home_tech_news.gif", "postPerWeek" : "0", "lastCrawTime" : "16:51:15", "crawDateTime" : "16:51:15", "lastHttpCode" : "200"}, "page" : {
"startIndex" : 20,
"totalCount" : 5000,
"pageIndex" : 2,
"lastPage" : 250,
"pageSize" : 20,
"english" :  False },
 "unreadNum" : 0, "shotIndex" : -1,
"articles" : [
{
"index" : 0,
"articleIndex" : "31852",
"favor" :  False ,
     "read" : False,    
"title" : "联通版红米手机将在11月5日上市",
"titleTip" : "联通版红米手机将在11月5日上市",
"titleSummary" : "联通版红米手机将在11月5日上市",
"descSummary" : "红米手机自发售以来，小米公司再次被称为手机行业中的\u201C搅屎棍\u201D。...",
"url" : "http:\/\/go.rss.sina.com.cn\/redirect.php?url=http:\/\/tech.sina.com.cn\/mobile\/n\/2013-10-29\/17168864089.shtml",
"pubDate" : "昨天17:16:24",
"enterDate" : "384200:48:01",
"channelId" : "4732226402129990437",
"channelName" : "手机资讯-新浪科技",
"channelNameSummary" : "手机资讯-新浪科技",
"channelUrl" : "http:\/\/mobile.sina.com.cn\/",
"author" : "WWW.SINA.COM.CN",
"tags" : [],
"desc" : "红米手机自发售以来，小米公司再次被称为手机行业中的\u201C搅屎棍\u201D。不是因为别的，还是因为售价，4核处理器、4.7英寸屏，移动TD双卡双待，MIUI V5操作系统，仅售799元。这已经把国内的部分山寨厂商逼上了绝路，但稍显遗憾的是，除了移动TD双卡双待，并没有联通、电信版的红米手....",
"emailed" : False,
"forwarded" : False,
"english" : False
}  , {
"index" : 1,
"articleIndex" : "31851",
"favor" :  False ,
     "read" : False,    
"title" : "99美元全新Asha平台 诺基亚Asha501图赏",
"titleTip" : "99美元全新Asha平台 诺基亚Asha501图赏",
"titleSummary" : "99美元全新Asha平台 诺基亚Asha501图赏",
"descSummary" : "3英寸屏幕小巧彩色机身 今年5月份，诺基亚在印度发布了首款...",
"url" : "http:\/\/go.rss.sina.com.cn\/redirect.php?url=http:\/\/tech.sina.com.cn\/mobile\/n\/2013-10-29\/11198863484.shtml",
"pubDate" : "昨天11:19:25",
"enterDate" : "384200:52:01",
"channelId" : "4732226402129990437",
"channelName" : "手机资讯-新浪科技",
"channelNameSummary" : "手机资讯-新浪科技",
"channelUrl" : "http:\/\/mobile.sina.com.cn\/",
"author" : "WWW.SINA.COM.CN",
"tags" : [],
"desc" : "3英寸屏幕小巧彩色机身 今年5月份，诺基亚在印度发布了首款搭载Asha新智能平台触屏机诺基亚Asha501，该机所搭载的Asha系统是由诺基亚公司2012年收购的Smarterphone公司投资研发的操作系统，它有更加出色的滑动触摸操作体验，以及Fastlane界面。诺基亚Asha501主要面向一....",
"emailed" : False,
"forwarded" : False,
"english" : False
}  , {
"index" : 2,
"articleIndex" : "31850",
"favor" :  False ,
     "read" : False,    
"title" : "加拿大运营商提前泄露Nexus 5硬件配置细节",
"titleTip" : "加拿大运营商提前泄露Nexus 5硬件配置细节",
"titleSummary" : "加拿大运营商提前泄露Nexus 5硬件配置细节",
"descSummary" : "加拿大运营商的Nexus 5注册页面 新浪手机讯 10月29日上午...",
"url" : "http:\/\/go.rss.sina.com.cn\/redirect.php?url=http:\/\/tech.sina.com.cn\/mobile\/n\/2013-10-29\/10488863414.shtml",
"pubDate" : "昨天10:48:02",
"enterDate" : "384200:50:44",
"channelId" : "4732226402129990437",
"channelName" : "手机资讯-新浪科技",
"channelNameSummary" : "手机资讯-新浪科技",
"channelUrl" : "http:\/\/mobile.sina.com.cn\/",
"author" : "WWW.SINA.COM.CN",
"tags" : [],
"desc" : "加拿大运营商的Nexus 5注册页面 新浪手机讯 10月29日上午消息，据国外科技媒体The Verge报道，谷歌很有可能在近期发布Nexus 5，加拿大运营商今天放出了一个Nexus 5的注册页面，并且列出了这款手机的详细硬件规格。 Nexus 5详细规格 谷歌很有可能在最近几天正式发....",
"emailed" : False,
"forwarded" : False,
"english" : False
}  , {
"index" : 3,
"articleIndex" : "31849",
"favor" :  False ,
     "read" : False,    
"title" : "三星Galaxy Round广告:曲面屏手感更佳",
"titleTip" : "三星Galaxy Round广告:曲面屏手感更佳",
"titleSummary" : "三星Galaxy Round广告:曲面屏手感更佳",
"descSummary" : "新浪手机讯 10月29日上午消息，三星曲面屏手机Galaxy Round近...",
"url" : "http:\/\/go.rss.sina.com.cn\/redirect.php?url=http:\/\/tech.sina.com.cn\/mobile\/n\/2013-10-29\/10068863188.shtml",
"pubDate" : "昨天10:06:34",
"enterDate" : "384201:09:26",
"channelId" : "4732226402129990437",
"channelName" : "手机资讯-新浪科技",
"channelNameSummary" : "手机资讯-新浪科技",
"channelUrl" : "http:\/\/mobile.sina.com.cn\/",
"author" : "WWW.SINA.COM.CN",
"tags" : [],
"desc" : "新浪手机讯 10月29日上午消息，三星曲面屏手机Galaxy Round近日推出首支电视广告，在不到30秒钟的视频中，通过抚摸鸡蛋、水杯、弯曲的卡片等物体来暗示曲面屏幕所带来的卓越手感。 Galaxy Round配置与Galaxy Note 3大致相仿，配备了5.7英寸1080P屏幕及3GB内存，2.3GHz....",
"emailed" : False,
"forwarded" : False,
"english" : False
}  , {
"index" : 4,
"articleIndex" : "31848",
"favor" :  False ,
     "read" : False,    
"title" : "iPad mini二代可能再遇产能瓶颈",
"titleTip" : "iPad mini二代可能再遇产能瓶颈",
"titleSummary" : "iPad mini二代可能再遇产能瓶颈",
"descSummary" : "iPad mini二代可能再遇产能瓶颈 新浪手机讯 北京时间10月29日早间消息...",
"url" : "http:\/\/go.rss.sina.com.cn\/redirect.php?url=http:\/\/tech.sina.com.cn\/mobile\/n\/apple\/2013-10-29\/08418862896.shtml",
"pubDate" : "昨天08:41:52",
"enterDate" : "384201:14:57",
"channelId" : "4732226402129990437",
"channelName" : "手机资讯-新浪科技",
"channelNameSummary" : "手机资讯-新浪科技",
"channelUrl" : "http:\/\/mobile.sina.com.cn\/",
"author" : "WWW.SINA.COM.CN",
"tags" : [],
"desc" : "iPad mini二代可能再遇产能瓶颈 新浪手机讯 北京时间10月29日早间消息，瑞银( UBS )分析师史蒂夫・米卢诺维奇(Steve Milunovich)。第二代iPad mini仍会遇到产能问题，并很可能会持续到2013年底。 在苹果公司其第四季度季度财报电话会议上，当被问及配备了Retina显示....",
"emailed" : False,
"forwarded" : False,
"english" : False
}  , {
"index" : 5,
"articleIndex" : "31847",
"favor" :  False ,
     "read" : False,    
"title" : "性价比不输小米3 八款市售超值价手机导购",
"titleTip" : "性价比不输小米3 八款市售超值价手机导购",
"titleSummary" : "性价比不输小米3 八款市售超值价手机导购",
"descSummary" : "提到性价比，不少朋友就会想到小米手机，不过每一代的小米手...",
"url" : "http:\/\/go.rss.sina.com.cn\/redirect.php?url=http:\/\/tech.sina.com.cn\/mobile\/n\/2013-10-29\/08258862839.shtml",
"pubDate" : "昨天08:25:30",
"enterDate" : "384200:58:35",
"channelId" : "4732226402129990437",
"channelName" : "手机资讯-新浪科技",
"channelNameSummary" : "手机资讯-新浪科技",
"channelUrl" : "http:\/\/mobile.sina.com.cn\/",
"author" : "WWW.SINA.COM.CN",
"tags" : [],
"desc" : "提到性价比，不少朋友就会想到小米手机，不过每一代的小米手机在发布时固然拥有极高的性价比，但缺货的情况则让不少人只能对其望而兴叹。其实除了小 米之外市场里也有不少其他的超值手机，它们在性价比并不逊色小米太多，而且购买相对比较容易，今天我们就给大家推荐一些这样....",
"emailed" : False,
"forwarded" : False,
"english" : False
}  , {
"index" : 6,
"articleIndex" : "31846",
"favor" :  False ,
     "read" : False,    
"title" : "诺基亚Lumia 800入水3个月后正常开机",
"titleTip" : "诺基亚Lumia 800入水3个月后正常开机",
"titleSummary" : "诺基亚Lumia 800入水3个月后正常开机",
"descSummary" : "其实在很早之前，诺基亚品牌的手机就以非常耐用而著称。因此我...",
"url" : "http:\/\/go.rss.sina.com.cn\/redirect.php?url=http:\/\/tech.sina.com.cn\/mobile\/n\/2013-10-29\/08148862799.shtml",
"pubDate" : "昨天08:14:15",
"enterDate" : "384200:47:20",
"channelId" : "4732226402129990437",
"channelName" : "手机资讯-新浪科技",
"channelNameSummary" : "手机资讯-新浪科技",
"channelUrl" : "http:\/\/mobile.sina.com.cn\/",
"author" : "WWW.SINA.COM.CN",
"tags" : [],
"desc" : "其实在很早之前，诺基亚品牌的手机就以非常耐用而著称。因此我们经常会看到各种暴力测试砸向诺基亚手机。不过诺基亚的产品确实没有太多具备三防功能的手机，不过近日发生的一个离奇事件着实令人震惊。 诺基亚Lumia800浸水3个月还能用(图片引自Facebook) 诺基亚L....",
"emailed" : False,
"forwarded" : False,
"english" : False
}  , {
"index" : 7,
"articleIndex" : "31845",
"favor" :  False ,
     "read" : False,    
"title" : "功能完善偏助手 三星智能手表Gear评测",
"titleTip" : "功能完善偏助手 三星智能手表Gear评测",
"titleSummary" : "功能完善偏助手 三星智能手表Gear评测",
"descSummary" : "互联网浪潮中今年讨论最热的就是可穿戴设备，媒体的报道甚至也...",
"url" : "http:\/\/go.rss.sina.com.cn\/redirect.php?url=http:\/\/tech.sina.com.cn\/mobile\/n\/2013-10-29\/08098862785.shtml",
"pubDate" : "昨天08:09:06",
"enterDate" : "384201:12:17",
"channelId" : "4732226402129990437",
"channelName" : "手机资讯-新浪科技",
"channelNameSummary" : "手机资讯-新浪科技",
"channelUrl" : "http:\/\/mobile.sina.com.cn\/",
"author" : "WWW.SINA.COM.CN",
"tags" : [],
"desc" : "互联网浪潮中今年讨论最热的就是可穿戴设备，媒体的报道甚至也有些过度。因为不论是技术还是市场，可穿戴设备刚出于起步阶段。另外，绝大多数消费者 对于可穿戴设备的接受程度还不是很高，市面上销售的大部分穿戴设备都是之前一些互联网公司和深圳厂商的解决方案为主。一些国....",
"emailed" : False,
"forwarded" : False,
"english" : False
}  , {
"index" : 8,
"articleIndex" : "31844",
"favor" :  False ,
     "read" : False,    
"title" : "还在犹豫不决吗？ 近期值得购买手机推荐",
"titleTip" : "还在犹豫不决吗？ 近期值得购买手机推荐",
"titleSummary" : "还在犹豫不决吗？ 近期值得购买手机推荐",
"descSummary" : "很多消费者在购买手机时会有选择困难症，面对众多手机产品往...",
"url" : "http:\/\/go.rss.sina.com.cn\/redirect.php?url=http:\/\/tech.sina.com.cn\/mobile\/n\/2013-10-29\/07598862752.shtml",
"pubDate" : "昨天07:59:30",
"enterDate" : "384201:02:41",
"channelId" : "4732226402129990437",
"channelName" : "手机资讯-新浪科技",
"channelNameSummary" : "手机资讯-新浪科技",
"channelUrl" : "http:\/\/mobile.sina.com.cn\/",
"author" : "WWW.SINA.COM.CN",
"tags" : [],
"desc" : "很多消费者在购买手机时会有选择困难症，面对众多手机产品往往犹豫不决。其实这主要是因为现在市场上手机品牌和型号过多，而且进入智能手机时代，传统意义上的不同手机在功能上的差距已经不明显，因为很多新功能只需要安装一个应用就可以实现。现在的智能手机越来越像电脑，消....",
"emailed" : False,
"forwarded" : False,
"english" : False
}  , {
"index" : 9,
"articleIndex" : "31843",
"favor" :  False ,
     "read" : False,    
"title" : "支持GALAXY Gear 数款三星机升安卓4.3",
"titleTip" : "支持GALAXY Gear 数款三星机升安卓4.3",
"titleSummary" : "支持GALAXY Gear 数款三星机升安卓4.3",
"descSummary" : "拥有三星GALAXY S4、三星GALAXY S3、三星GALAXY Note...",
"url" : "http:\/\/go.rss.sina.com.cn\/redirect.php?url=http:\/\/tech.sina.com.cn\/mobile\/n\/2013-10-29\/07578862640.shtml",
"pubDate" : "昨天07:57:42",
"enterDate" : "384201:00:53",
"channelId" : "4732226402129990437",
"channelName" : "手机资讯-新浪科技",
"channelNameSummary" : "手机资讯-新浪科技",
"channelUrl" : "http:\/\/mobile.sina.com.cn\/",
"author" : "WWW.SINA.COM.CN",
"tags" : [],
"desc" : "拥有三星GALAXY S4、三星GALAXY S3、三星GALAXY Note Ⅱ和三星GALAXY S4 Active的用户注意了：这几款设备即将收到三星发布的Android 4.3更新推送，感兴趣的朋友不妨关注一下。 数款三星机升安卓4.3(图片来自THE&#160;VERGE) 根据网络上曝光的日程，Verizon版三....",
"emailed" : False,
"forwarded" : False,
"english" : False
}  , {
"index" : 10,
"articleIndex" : "31842",
"favor" :  False ,
     "read" : False,    
"title" : "29日行情：5.9英寸指纹识别安卓旗舰上市",
"titleTip" : "29日行情：5.9英寸指纹识别安卓旗舰上市",
"titleSummary" : "29日行情：5.9英寸指纹识别安卓旗舰上市",
"descSummary" : "2013年10月29日，HTC One MAX (参数 论坛 软件) (欧版)在商...",
"url" : "http:\/\/go.rss.sina.com.cn\/redirect.php?url=http:\/\/tech.sina.com.cn\/mobile\/n\/2013-10-29\/07568862632.shtml",
"pubDate" : "昨天07:56:27",
"enterDate" : "384200:59:38",
"channelId" : "4732226402129990437",
"channelName" : "手机资讯-新浪科技",
"channelNameSummary" : "手机资讯-新浪科技",
"channelUrl" : "http:\/\/mobile.sina.com.cn\/",
"author" : "WWW.SINA.COM.CN",
"tags" : [],
"desc" : "2013年10月29日，HTC One MAX (参数 论坛 软件) (欧版)在商家处到货，最新报价为4599元。该机配件为：电池(内置)、充电器、数据线、说明书等。HTC&#160;One Max是一款拥有5.9英寸1080P全高清屏幕的四核智能手机。&#160; 点击图片查看HTC One Max详细资料 H....",
"emailed" : False,
"forwarded" : False,
"english" : False
}  , {
"index" : 11,
"articleIndex" : "31841",
"favor" :  False ,
     "read" : False,    
"title" : "大片就得看无码 市售高分辨率手机推荐",
"titleTip" : "大片就得看无码 市售高分辨率手机推荐",
"titleSummary" : "大片就得看无码 市售高分辨率手机推荐",
"descSummary" : "文\/陈浩 作为一名正值当年的热血青年，小编手机里收集了各色各...",
"url" : "http:\/\/go.rss.sina.com.cn\/redirect.php?url=http:\/\/tech.sina.com.cn\/mobile\/n\/2013-10-29\/07558862620.shtml",
"pubDate" : "昨天07:55:16",
"enterDate" : "384200:58:27",
"channelId" : "4732226402129990437",
"channelName" : "手机资讯-新浪科技",
"channelNameSummary" : "手机资讯-新浪科技",
"channelUrl" : "http:\/\/mobile.sina.com.cn\/",
"author" : "WWW.SINA.COM.CN",
"tags" : [],
"desc" : "文\/陈浩 作为一名正值当年的热血青年，小编手机里收集了各色各样的大片，在闲暇之余总不忘拿出来回顾一番，有助于缓解压力以及业余休闲。 手机看大片已经成为时下老中青少年的业余喜好之一，但一部好的大片也需要一款高分辨率的机型承载。还记得很多年以前小编....",
"emailed" : False,
"forwarded" : False,
"english" : False
}  , {
"index" : 12,
"articleIndex" : "31840",
"favor" :  False ,
     "read" : False,    
"title" : "重振旗鼓 传HTC欲推联发科处理器入门机",
"titleTip" : "重振旗鼓 传HTC欲推联发科处理器入门机",
"titleSummary" : "重振旗鼓 传HTC欲推联发科处理器入门机",
"descSummary" : "HTC旗下的产品涉及不同定位的多个市场，既有旗舰级别的高端...",
"url" : "http:\/\/go.rss.sina.com.cn\/redirect.php?url=http:\/\/tech.sina.com.cn\/mobile\/n\/2013-10-29\/07548862619.shtml",
"pubDate" : "昨天07:54:05",
"enterDate" : "384200:57:16",
"channelId" : "4732226402129990437",
"channelName" : "手机资讯-新浪科技",
"channelNameSummary" : "手机资讯-新浪科技",
"channelUrl" : "http:\/\/mobile.sina.com.cn\/",
"author" : "WWW.SINA.COM.CN",
"tags" : [],
"desc" : "HTC旗下的产品涉及不同定位的多个市场，既有旗舰级别的高端机型，也不乏注重性价比的中端产品或是入门级机型。现在chinapost又有 消息称，HTC正计划推出采用联发科处理器的入门级新机，而这只能是HTC为了重整旗鼓对于现有产品结构做出的改革，采用联发科处理器的HTC入门级智能....",
"emailed" : False,
"forwarded" : False,
"english" : False
}  , {
"index" : 13,
"articleIndex" : "31839",
"favor" :  False ,
     "read" : False,    
"title" : "谷歌商店再偷跑 Nexus 5于11月3日接受预定",
"titleTip" : "谷歌商店再偷跑 Nexus 5于11月3日接受预定",
"titleSummary" : "谷歌商店再偷跑 Nexus 5于11月3日接受预定",
"descSummary" : "Nexus 5以及Android 4.4已经曝光了相当长的一段时间了，无...",
"url" : "http:\/\/go.rss.sina.com.cn\/redirect.php?url=http:\/\/tech.sina.com.cn\/mobile\/n\/2013-10-29\/07518862602.shtml",
"pubDate" : "昨天07:51:07",
"enterDate" : "384200:54:18",
"channelId" : "4732226402129990437",
"channelName" : "手机资讯-新浪科技",
"channelNameSummary" : "手机资讯-新浪科技",
"channelUrl" : "http:\/\/mobile.sina.com.cn\/",
"author" : "WWW.SINA.COM.CN",
"tags" : [],
"desc" : "Nexus&#160;5以及Android&#160;4.4已经曝光了相当长的一段时间了，无论是外观、配置以及售价，都已经没有太多秘密了，但到目前为止，外媒 推测的各种时间点Nexus&#160;5依然没有如期到来，今日，谷歌商店再度偷跑，Nexus&#160;10的信息出现在了页面上，并且Nexus&#160;5以及 N....",
"emailed" : False,
"forwarded" : False,
"english" : False
}  , {
"index" : 14,
"articleIndex" : "31838",
"favor" :  False ,
     "read" : False,    
"title" : "大同小异 Funtouch OS\/Color OS系统对比",
"titleTip" : "大同小异 Funtouch OS\/Color OS系统对比",
"titleSummary" : "大同小异 Funtouch OS\/Color OS系统对比",
"descSummary" : "国内智能手机厂商在近一两年内在硬件上飞速发展，逐步缩小了...",
"url" : "http:\/\/go.rss.sina.com.cn\/redirect.php?url=http:\/\/tech.sina.com.cn\/mobile\/n\/2013-10-29\/07508862585.shtml",
"pubDate" : "昨天07:50:13",
"enterDate" : "384200:53:24",
"channelId" : "4732226402129990437",
"channelName" : "手机资讯-新浪科技",
"channelNameSummary" : "手机资讯-新浪科技",
"channelUrl" : "http:\/\/mobile.sina.com.cn\/",
"author" : "WWW.SINA.COM.CN",
"tags" : [],
"desc" : "国内智能手机厂商在近一两年内在硬件上飞速发展，逐步缩小了与国际厂商的差距，特别是某些国产品牌的旗舰手机， 硬件配置已经完全可以与洋品牌并驾齐驱。但是相应地，相对于国外品牌在系统的优化和体验上，国产品牌在系统定制上却落后于硬件配置，特别是符合国人使用习 惯的系....",
"emailed" : False,
"forwarded" : False,
"english" : False
}  , {
"index" : 15,
"articleIndex" : "31837",
"favor" :  False ,
     "read" : False,    
"title" : "最高降幅达3499 超人气手机降价排行榜",
"titleTip" : "最高降幅达3499 超人气手机降价排行榜",
"titleSummary" : "最高降幅达3499 超人气手机降价排行榜",
"descSummary" : "文\/杨辰 眼看金九银十的商业旺季已经接近尾声，手机界的各家大...",
"url" : "http:\/\/go.rss.sina.com.cn\/redirect.php?url=http:\/\/tech.sina.com.cn\/mobile\/n\/2013-10-29\/07428862568.shtml",
"pubDate" : "昨天07:42:22",
"enterDate" : "384200:45:33",
"channelId" : "4732226402129990437",
"channelName" : "手机资讯-新浪科技",
"channelNameSummary" : "手机资讯-新浪科技",
"channelUrl" : "http:\/\/mobile.sina.com.cn\/",
"author" : "WWW.SINA.COM.CN",
"tags" : [],
"desc" : "文\/杨辰 眼看金九银十的商业旺季已经接近尾声，手机界的各家大佬级厂商不约而同的在近两个月之内向市场输送了多款顶级旗舰机型，其中绝大部分都已经上市开卖。而以消费者的角度来看，这些强机必定在用户购机的备选之列。 现在如此多的购物平台让消费者也养成了....",
"emailed" : False,
"forwarded" : False,
"english" : False
}  , {
"index" : 16,
"articleIndex" : "31836",
"favor" :  False ,
     "read" : False,    
"title" : "三星Note3傲视群雄 欧洲十大人气安卓机",
"titleTip" : "三星Note3傲视群雄 欧洲十大人气安卓机",
"titleSummary" : "三星Note3傲视群雄 欧洲十大人气安卓机",
"descSummary" : "文\/杨辰 对于准备购置一部新智能手机的用户来说，在面对如此多...",
"url" : "http:\/\/go.rss.sina.com.cn\/redirect.php?url=http:\/\/tech.sina.com.cn\/mobile\/n\/2013-10-29\/05328862173.shtml",
"pubDate" : "昨天05:32:34",
"enterDate" : "384201:06:09",
"channelId" : "4732226402129990437",
"channelName" : "手机资讯-新浪科技",
"channelNameSummary" : "手机资讯-新浪科技",
"channelUrl" : "http:\/\/mobile.sina.com.cn\/",
"author" : "WWW.SINA.COM.CN",
"tags" : [],
"desc" : "文\/杨辰 对于准备购置一部新智能手机的用户来说，在面对如此多不同品牌不同外观的手机产品当中挑出一款自己中意的产品绝非易事。加上现今的主流产品几乎都配置水品相当，就是消费者在这细微的差距中间更难以抉择。 而国人在购物方面似乎总是有随大流的习惯，不....",
"emailed" : False,
"forwarded" : False,
"english" : False
}  , {
"index" : 17,
"articleIndex" : "31835",
"favor" :  False ,
     "read" : False,    
"title" : "安卓\/iOS\/WP对决 各大系统旗舰手机推荐",
"titleTip" : "安卓\/iOS\/WP对决 各大系统旗舰手机推荐",
"titleSummary" : "安卓\/iOS\/WP对决 各大系统旗舰手机推荐",
"descSummary" : "文\/Ediand 在手机系统领域，如今比较主流的有iOS、Android...",
"url" : "http:\/\/go.rss.sina.com.cn\/redirect.php?url=http:\/\/tech.sina.com.cn\/mobile\/n\/2013-10-29\/05308862164.shtml",
"pubDate" : "昨天05:30:41",
"enterDate" : "384201:04:16",
"channelId" : "4732226402129990437",
"channelName" : "手机资讯-新浪科技",
"channelNameSummary" : "手机资讯-新浪科技",
"channelUrl" : "http:\/\/mobile.sina.com.cn\/",
"author" : "WWW.SINA.COM.CN",
"tags" : [],
"desc" : "文\/Ediand 在手机系统领域，如今比较主流的有iOS、Android和Windows Phone。在这三大系统中，目前激活设备最多的是Android系统，其次为iOS系统，而Windows Phone系统则超越了黑莓成为第三大系统。Android系统相对于iOS和Windows Phone系统来讲更为开放，用户可以更自由....",
"emailed" : False,
"forwarded" : False,
"english" : False
}  , {
"index" : 18,
"articleIndex" : "31834",
"favor" :  False ,
     "read" : False,    
"title" : "5s夺魁 网购10月新品\/热销\/好评榜揭晓",
"titleTip" : "5s夺魁 网购10月新品\/热销\/好评榜揭晓",
"titleSummary" : "5s夺魁 网购10月新品\/热销\/好评榜揭晓",
"descSummary" : "文\/庞超 就在过去的日子里，一轮接一轮的新机蜂拥而至，什么N...",
"url" : "http:\/\/go.rss.sina.com.cn\/redirect.php?url=http:\/\/tech.sina.com.cn\/mobile\/n\/2013-10-29\/05298862146.shtml",
"pubDate" : "昨天05:29:34",
"enterDate" : "384201:03:09",
"channelId" : "4732226402129990437",
"channelName" : "手机资讯-新浪科技",
"channelNameSummary" : "手机资讯-新浪科技",
"channelUrl" : "http:\/\/mobile.sina.com.cn\/",
"author" : "WWW.SINA.COM.CN",
"tags" : [],
"desc" : "文\/庞超 就在过去的日子里，一轮接一轮的新机蜂拥而至，什么Note 3、iPhone 5s、小米3等，蹦的一下全部展现在用户眼前，琳琅满目，怎一个爽字了得，相信大部分用户的钱包也准备就绪，坐等出手的那一瞬间。而在即将过去的10月，作为中国B2C市场最大的3C网购专业平台，....",
"emailed" : False,
"forwarded" : False,
"english" : False
}  , {
"index" : 19,
"articleIndex" : "31833",
"favor" :  False ,
     "read" : False,    
"title" : "影音娱乐手机随身听 啪啪v3.0试用报告",
"titleTip" : "影音娱乐手机随身听 啪啪v3.0试用报告",
"titleSummary" : "影音娱乐手机随身听 啪啪v3.0试用报告",
"descSummary" : "随着移动互联网的盛兴，作为互联网发展历程中的变革性应用，社...",
"url" : "http:\/\/go.rss.sina.com.cn\/redirect.php?url=http:\/\/tech.sina.com.cn\/mobile\/n\/2013-10-28\/15458859964.shtml",
"pubDate" : "前天15:45:22",
"enterDate" : "384200:51:13",
"channelId" : "4732226402129990437",
"channelName" : "手机资讯-新浪科技",
"channelNameSummary" : "手机资讯-新浪科技",
"channelUrl" : "http:\/\/mobile.sina.com.cn\/",
"author" : "WWW.SINA.COM.CN",
"tags" : [],
"desc" : "随着移动互联网的盛兴，作为互联网发展历程中的变革性应用，社交网络改变了人们的沟通方式和信息传播渠道。越来越多的人通过手机上的社交软件，将身边的新鲜事与朋友分享。正因如此，当开发者意识到移动社交的重要性和潜力时，文字类、图片类、甚至语音类社交软件便应运而生，....",
"emailed" : False,
"forwarded" : False,
"english" : False
} ]
}
