{
"mode" : {"viewTitle" : 1,   "viewNew" : 0,  "pageIndex" : 1 },
 "channel" : {"id" : "3592205035866342693", "booked" : False, "subNumber" : 8654, "name" : "焦点新闻-新浪新闻", "url" : "http:\/\/www.sinaimg.cn\/dy\/491\/2008\/0827\/1.html", "feed" : "http:\/\/rss.sina.com.cn\/news\/society\/focus15.xml", "author" : "WWW.SINA.COM.CN", "desc" : "社会新闻-焦点新闻", "imageUrl" : "http:\/\/www.sinaimg.cn\/home\/deco\/2009\/0330\/logo_home_news.gif", "postPerWeek" : "401", "lastCrawTime" : "17:13:40", "crawDateTime" : "17:13:40", "lastHttpCode" : "200"}, "page" : {
"startIndex" : 0,
"totalCount" : 5000,
"pageIndex" : 1,
"lastPage" : 250,
"pageSize" : 20,
"english" :  False },
 "unreadNum" : 0, "shotIndex" : -1,
"articles" : [
{
"index" : 0,
"articleIndex" : "31706",
"favor" :  False ,
     "read" : False,    
"title" : "女子在公厕发现遗弃女婴后将其收养(图)",
"titleTip" : "女子在公厕发现遗弃女婴后将其收养(图)",
"titleSummary" : "女子在公厕发现遗弃女婴后将其收养(图)",
"descSummary" : "延吉女婴出生半个月被弃公厕 发现者将其收养 10月23日，一名刚...",
"url" : "http:\/\/go.rss.sina.com.cn\/redirect.php?url=http:\/\/news.sina.com.cn\/s\/p\/2013-10-30\/171028574263.shtml",
"pubDate" : "17:10:33",
"enterDate" : "384201:15:48",
"channelId" : "3592205035866342693",
"channelName" : "焦点新闻-新浪新闻",
"channelNameSummary" : "焦点新闻-新浪新闻",
"channelUrl" : "http:\/\/www.sinaimg.cn\/dy\/491\/2008\/0827\/1.html",
"author" : "WWW.SINA.COM.CN",
"tags" : [],
"desc" : "延吉女婴出生半个月被弃公厕 发现者将其收养 10月23日，一名刚刚出生半个月的女婴被父母遗弃在汪清镇大川村一公厕内。24日，该女婴被人领养。10月24日，记者在汪清县人民医院儿科医务室看到，两位女护士正精心地照顾着这名女婴，县民政局救助管理站工作人员也陪护在左....",
"emailed" : False,
"forwarded" : False,
"english" : False
}  , {
"index" : 1,
"articleIndex" : "31705",
"favor" :  False ,
     "read" : False,    
"title" : "28岁小伙颈部遭不当按摩患上脑中风",
"titleTip" : "28岁小伙颈部遭不当按摩患上脑中风",
"titleSummary" : "28岁小伙颈部遭不当按摩患上脑中风",
"descSummary" : "按摩不当 28岁小伙脑中风 年轻人脑卒中发病率上升 低油盐多运动可...",
"url" : "http:\/\/go.rss.sina.com.cn\/redirect.php?url=http:\/\/news.sina.com.cn\/s\/2013-10-30\/170828574230.shtml",
"pubDate" : "17:08:15",
"enterDate" : "384201:13:30",
"channelId" : "3592205035866342693",
"channelName" : "焦点新闻-新浪新闻",
"channelNameSummary" : "焦点新闻-新浪新闻",
"channelUrl" : "http:\/\/www.sinaimg.cn\/dy\/491\/2008\/0827\/1.html",
"author" : "WWW.SINA.COM.CN",
"tags" : [],
"desc" : "按摩不当 28岁小伙脑中风 年轻人脑卒中发病率上升 低油盐多运动可预防 商报记者 叶惠娟 重庆商报讯 昨日是世界卒中日，今年的主题是\u201C预防脑卒中，从今天开始\u201D。记者昨日从西南医院、大坪医院了解到，这两家医院目前收治的脑卒中发病患者有年轻化的趋势，约7%的脑....",
"emailed" : False,
"forwarded" : False,
"english" : False
}  , {
"index" : 2,
"articleIndex" : "31704",
"favor" :  False ,
     "read" : False,    
"title" : "小偷被突然归来女主人惊叫吓得跳下四楼",
"titleTip" : "小偷被突然归来女主人惊叫吓得跳下四楼",
"titleSummary" : "小偷被突然归来女主人惊叫吓得跳下四楼",
"descSummary" : "德惠女子被盗大喊一声 小偷受惊吓跳下四楼 核心提示：30日上...",
"url" : "http:\/\/go.rss.sina.com.cn\/redirect.php?url=http:\/\/news.sina.com.cn\/s\/2013-10-30\/170128574207.shtml",
"pubDate" : "17:01:27",
"enterDate" : "384201:06:42",
"channelId" : "3592205035866342693",
"channelName" : "焦点新闻-新浪新闻",
"channelNameSummary" : "焦点新闻-新浪新闻",
"channelUrl" : "http:\/\/www.sinaimg.cn\/dy\/491\/2008\/0827\/1.html",
"author" : "WWW.SINA.COM.CN",
"tags" : [],
"desc" : "德惠女子被盗大喊一声 小偷受惊吓跳下四楼 核心提示：30日上午，德惠市民张女士逛街回家，发现一个小偷站在自家窗外。张女士大喊一声，吓得小偷跳下四楼。随后小偷被赶来的民警送往医院，经检查股骨和跟骨骨折。目前，警方正在进一步调查当中。 30日上午，德惠....",
"emailed" : False,
"forwarded" : False,
"english" : False
}  , {
"index" : 3,
"articleIndex" : "31703",
"favor" :  False ,
     "read" : False,    
"title" : "小伙疑被女友传染性病索赔 争执中将其掐死",
"titleTip" : "小伙疑被女友传染性病索赔 争执中将其掐死",
"titleSummary" : "小伙疑被女友传染性病索赔 争执中将其掐死",
"descSummary" : "天津北方网讯：记者从河西区检察院获悉，该院今年三季度批...",
"url" : "http:\/\/go.rss.sina.com.cn\/redirect.php?url=http:\/\/news.sina.com.cn\/s\/2013-10-30\/165628574138.shtml",
"pubDate" : "16:56:00",
"enterDate" : "384201:01:15",
"channelId" : "3592205035866342693",
"channelName" : "焦点新闻-新浪新闻",
"channelNameSummary" : "焦点新闻-新浪新闻",
"channelUrl" : "http:\/\/www.sinaimg.cn\/dy\/491\/2008\/0827\/1.html",
"author" : "WWW.SINA.COM.CN",
"tags" : [],
"desc" : "天津北方网讯：记者从河西区检察院获悉，该院今年三季度批捕涉嫌故意伤害罪和故意杀人罪案件激增。这些案件多是因双方不能正确处理生活中的小矛盾，妄图使用暴力解决引起。 据了解，河西区检察院今年三季度共批捕涉嫌故意伤害罪案件24件25人，涉嫌故意杀人罪案件4件4人....",
"emailed" : False,
"forwarded" : False,
"english" : False
}  , {
"index" : 4,
"articleIndex" : "31702",
"favor" :  False ,
     "read" : False,    
"title" : "肯德基半价桶遭吐槽：半价买半桶",
"titleTip" : "肯德基半价桶遭吐槽：半价买半桶",
"titleSummary" : "肯德基半价桶遭吐槽：半价买半桶",
"descSummary" : "本报讯(记者 陈杰)肯德基近日表示，自10月28日到11月10日，推出\u201C...",
"url" : "http:\/\/go.rss.sina.com.cn\/redirect.php?url=http:\/\/news.sina.com.cn\/s\/2013-10-30\/165128574115.shtml",
"pubDate" : "16:51:55",
"enterDate" : "384200:57:10",
"channelId" : "3592205035866342693",
"channelName" : "焦点新闻-新浪新闻",
"channelNameSummary" : "焦点新闻-新浪新闻",
"channelUrl" : "http:\/\/www.sinaimg.cn\/dy\/491\/2008\/0827\/1.html",
"author" : "WWW.SINA.COM.CN",
"tags" : [],
"desc" : "本报讯(记者 陈杰)肯德基近日表示，自10月28日到11月10日，推出\u201C桶桶半价\u201D活动。然而，不少消费者在28日到店消费时却发现，\u201C桶桶半价\u201D活动中的\u201C半价桶\u201D并非原来的\u201C全家桶\u201D打半价，容量也少于原来的全家桶。 据悉，原来的全家桶内含：吮指原味鸡5块、香辣鸡翅3....",
"emailed" : False,
"forwarded" : False,
"english" : False
}  , {
"index" : 5,
"articleIndex" : "31701",
"favor" :  False ,
     "read" : False,    
"title" : "视频：男子多次抢劫强奸 称妻子生产缺钱",
"titleTip" : "视频：男子多次抢劫强奸 称妻子生产缺钱",
"titleSummary" : "视频：男子多次抢劫强奸 称妻子生产缺钱",
"descSummary" : "黑龙江网络广播电视台讯 据龙视都市频道《新闻夜航》节目报...",
"url" : "http:\/\/go.rss.sina.com.cn\/redirect.php?url=http:\/\/video.sina.com.cn\/p\/news\/s\/v\/2013-10-30\/164263084007.html",
"pubDate" : "16:42:49",
"enterDate" : "384200:48:04",
"channelId" : "3592205035866342693",
"channelName" : "焦点新闻-新浪新闻",
"channelNameSummary" : "焦点新闻-新浪新闻",
"channelUrl" : "http:\/\/www.sinaimg.cn\/dy\/491\/2008\/0827\/1.html",
"author" : "WWW.SINA.COM.CN",
"tags" : [],
"desc" : "黑龙江网络广播电视台讯 据龙视都市频道《新闻夜航》节目报道：用\u201C人间正道是沧桑\u201D来劝下面这位还差不多。从今年六月份开始，鹤岗市公安局连续接到多起报案，有人在路上遭人持刀抢劫，有人在自己在家中遭到入室抢劫，甚至还有性侵犯。按照报案人的描述，这些恶行竟然都是同....",
"emailed" : False,
"forwarded" : False,
"english" : False
}  , {
"index" : 6,
"articleIndex" : "31700",
"favor" :  False ,
     "read" : False,    
"title" : "5人开悍马等豪车打砸校园 持铁棍恐吓师生",
"titleTip" : "5人开悍马等豪车打砸校园 持铁棍恐吓师生",
"titleSummary" : "5人开悍马等豪车打砸校园 持铁棍恐吓师生",
"descSummary" : "在很多人的心目中，封闭式的校园是安全和放心的代名词。可衡...",
"url" : "http:\/\/go.rss.sina.com.cn\/redirect.php?url=http:\/\/news.sina.com.cn\/s\/2013-10-30\/162428573944.shtml",
"pubDate" : "16:24:58",
"enterDate" : "384201:00:18",
"channelId" : "3592205035866342693",
"channelName" : "焦点新闻-新浪新闻",
"channelNameSummary" : "焦点新闻-新浪新闻",
"channelUrl" : "http:\/\/www.sinaimg.cn\/dy\/491\/2008\/0827\/1.html",
"author" : "WWW.SINA.COM.CN",
"tags" : [],
"desc" : "在很多人的心目中，封闭式的校园是安全和放心的代名词。 可衡水景县有这么一伙人，开着豪车撞开学校大门，不但打砸教学设施，还恐吓师生。 昨日，记者从当地教育局了解到，初步判定这起打砸事件跟合同纠纷有关。 开豪车硬闯校园 打砸学校恐吓师生 ....",
"emailed" : False,
"forwarded" : False,
"english" : False
}  , {
"index" : 7,
"articleIndex" : "31699",
"favor" :  False ,
     "read" : False,    
"title" : "男子在博物馆办公室内被泼酸毁容",
"titleTip" : "男子在博物馆办公室内被泼酸毁容",
"titleSummary" : "男子在博物馆办公室内被泼酸毁容",
"descSummary" : "28日上午，石家庄市博物馆办公区来了一位客人，说是要找该馆一名...",
"url" : "http:\/\/go.rss.sina.com.cn\/redirect.php?url=http:\/\/news.sina.com.cn\/s\/2013-10-30\/161828573901.shtml",
"pubDate" : "16:18:27",
"enterDate" : "384200:53:47",
"channelId" : "3592205035866342693",
"channelName" : "焦点新闻-新浪新闻",
"channelNameSummary" : "焦点新闻-新浪新闻",
"channelUrl" : "http:\/\/www.sinaimg.cn\/dy\/491\/2008\/0827\/1.html",
"author" : "WWW.SINA.COM.CN",
"tags" : [],
"desc" : "28日上午，石家庄市博物馆办公区来了一位客人，说是要找该馆一名工作人员。 可他进去不到5分钟，便跑了出来。 很快，该馆办公区弥漫着一股刺鼻的酸味。一位工作人员被酸性液体烧伤了。 男子办公室内遭袭击 昨日，有读者报料称，28日石家庄市博物....",
"emailed" : False,
"forwarded" : False,
"english" : False
}  , {
"index" : 8,
"articleIndex" : "31695",
"favor" :  False ,
     "read" : False,    
"title" : "视频：实拍男子爬桥闹自杀 单腿悬空淡定抽烟",
"titleTip" : "视频：实拍男子爬桥闹自杀 单腿悬空淡定抽烟",
"titleSummary" : "视频：实拍男子爬桥闹自杀 单腿悬空淡定抽烟",
"descSummary" : "27号的下午五点钟左右，在成都市闹市区一名男子趴在高...",
"url" : "http:\/\/go.rss.sina.com.cn\/redirect.php?url=http:\/\/video.sina.com.cn\/p\/news\/s\/v\/2013-10-30\/155663083919.html",
"pubDate" : "15:56:53",
"enterDate" : "384201:02:18",
"channelId" : "3592205035866342693",
"channelName" : "焦点新闻-新浪新闻",
"channelNameSummary" : "焦点新闻-新浪新闻",
"channelUrl" : "http:\/\/www.sinaimg.cn\/dy\/491\/2008\/0827\/1.html",
"author" : "WWW.SINA.COM.CN",
"tags" : [],
"desc" : "27号的下午五点钟左右，在成都市闹市区一名男子趴在高架桥的桥沿上试图跳桥自杀，情况十分危急。",
"emailed" : False,
"forwarded" : False,
"english" : False
}  , {
"index" : 9,
"articleIndex" : "31694",
"favor" :  False ,
     "read" : False,    
"title" : "视频:实拍夫妻高速上闹矛盾女子跳车",
"titleTip" : "视频:实拍夫妻高速上闹矛盾女子跳车",
"titleSummary" : "视频:实拍夫妻高速上闹矛盾女子跳车",
"descSummary" : "近日，一对夫妻行驶在高速路上，两人闹矛盾，女子直接跳车。丈夫...",
"url" : "http:\/\/go.rss.sina.com.cn\/redirect.php?url=http:\/\/video.sina.com.cn\/p\/news\/s\/v\/2013-10-30\/154663083901.html",
"pubDate" : "15:46:10",
"enterDate" : "384200:51:35",
"channelId" : "3592205035866342693",
"channelName" : "焦点新闻-新浪新闻",
"channelNameSummary" : "焦点新闻-新浪新闻",
"channelUrl" : "http:\/\/www.sinaimg.cn\/dy\/491\/2008\/0827\/1.html",
"author" : "WWW.SINA.COM.CN",
"tags" : [],
"desc" : "近日，一对夫妻行驶在高速路上，两人闹矛盾，女子直接跳车。丈夫对交警说自己把老婆宠坏了，这次没有听她，竟然跳车了。",
"emailed" : False,
"forwarded" : False,
"english" : False
}  , {
"index" : 10,
"articleIndex" : "31693",
"favor" :  False ,
     "read" : False,    
"title" : "高清图：货车行驶途中自燃烧毁十余万现金",
"titleTip" : "高清图：货车行驶途中自燃烧毁十余万现金",
"titleSummary" : "高清图：货车行驶途中自燃烧毁十余万现金",
"descSummary" : "",
"url" : "http:\/\/go.rss.sina.com.cn\/redirect.php?url=http:\/\/slide.news.sina.com.cn\/s\/slide_1_2841_36709.html",
"pubDate" : "15:43:29",
"enterDate" : "384200:48:54",
"channelId" : "3592205035866342693",
"channelName" : "焦点新闻-新浪新闻",
"channelNameSummary" : "焦点新闻-新浪新闻",
"channelUrl" : "http:\/\/www.sinaimg.cn\/dy\/491\/2008\/0827\/1.html",
"author" : "WWW.SINA.COM.CN",
"tags" : [],
"desc" : "",
"emailed" : False,
"forwarded" : False,
"english" : False
}  , {
"index" : 11,
"articleIndex" : "31692",
"favor" :  False ,
     "read" : False,    
"title" : "身患精神病男子持刀砍父放火烧房被强制医疗",
"titleTip" : "身患精神病男子持刀砍父放火烧房被强制医疗",
"titleSummary" : "身患精神病男子持刀砍父放火烧房被强制医疗",
"descSummary" : "刀砍老父 放火烧房 男子患精神病不负刑责 检方提出强制医...",
"url" : "http:\/\/go.rss.sina.com.cn\/redirect.php?url=http:\/\/news.sina.com.cn\/s\/2013-10-30\/151028573193.shtml",
"pubDate" : "15:10:15",
"enterDate" : "384200:45:45",
"channelId" : "3592205035866342693",
"channelName" : "焦点新闻-新浪新闻",
"channelNameSummary" : "焦点新闻-新浪新闻",
"channelUrl" : "http:\/\/www.sinaimg.cn\/dy\/491\/2008\/0827\/1.html",
"author" : "WWW.SINA.COM.CN",
"tags" : [],
"desc" : "刀砍老父 放火烧房&#160; 男子患精神病不负刑责 检方提出强制医疗申请 法制晚报讯(记者 洪雪) 不仅刀砍父亲，还一把火将家里的房子点燃，被民警抓获的高某被鉴定患有精神病。房山检察院向法院提出对高某强制医疗的申请。今天上午房山法院通报，该院已受理....",
"emailed" : False,
"forwarded" : False,
"english" : False
}  , {
"index" : 12,
"articleIndex" : "31691",
"favor" :  False ,
     "read" : False,    
"title" : "夫妇两地贩烟赚差价被判刑 称以为是真烟就没事",
"titleTip" : "夫妇两地贩烟赚差价被判刑 称以为是真烟就没事",
"titleSummary" : "夫妇两地贩烟赚差价被判刑 称以为是真烟就没事",
"descSummary" : "\u201C我以为只要卖的是真烟就没事了，没想到因为赚个香烟...",
"url" : "http:\/\/go.rss.sina.com.cn\/redirect.php?url=http:\/\/news.sina.com.cn\/s\/2013-10-30\/150428573109.shtml",
"pubDate" : "15:04:15",
"enterDate" : "384200:39:45",
"channelId" : "3592205035866342693",
"channelName" : "焦点新闻-新浪新闻",
"channelNameSummary" : "焦点新闻-新浪新闻",
"channelUrl" : "http:\/\/www.sinaimg.cn\/dy\/491\/2008\/0827\/1.html",
"author" : "WWW.SINA.COM.CN",
"tags" : [],
"desc" : "\u201C我以为只要卖的是真烟就没事了，没想到因为赚个香烟的差价还要被判刑。\u201D浙江省天台人陆某甲站在新昌法院的被告席上懊悔地说道。 事情还得从去年的一次家庭聚会说起。在聚会中陆某甲从在山东经商的亲戚口中得知浙江和山东的香烟价格是不统一的，比如中华烟就是山东便....",
"emailed" : False,
"forwarded" : False,
"english" : False
}  , {
"index" : 13,
"articleIndex" : "31696",
"favor" :  False ,
     "read" : False,    
"title" : "保姆持遗嘱打官司赢得已逝老人赠房",
"titleTip" : "保姆持遗嘱打官司赢得已逝老人赠房",
"titleSummary" : "保姆持遗嘱打官司赢得已逝老人赠房",
"descSummary" : "持遗嘱打官司保姆赢得老人赠房 \u201C抽空去给你们的爸妈扫扫墓吧！...",
"url" : "http:\/\/go.rss.sina.com.cn\/redirect.php?url=http:\/\/news.sina.com.cn\/s\/2013-10-30\/145928572972.shtml",
"pubDate" : "14:59:13",
"enterDate" : "384199:34:33",
"channelId" : "3592205035866342693",
"channelName" : "焦点新闻-新浪新闻",
"channelNameSummary" : "焦点新闻-新浪新闻",
"channelUrl" : "http:\/\/www.sinaimg.cn\/dy\/491\/2008\/0827\/1.html",
"author" : "WWW.SINA.COM.CN",
"tags" : [],
"desc" : "持遗嘱打官司保姆赢得老人赠房 \u201C抽空去给你们的爸妈扫扫墓吧！\u201D在获赠郑志民老先生房产并领取到房产证后，这是保姆王春梅对老人的子女郑光、王敏说的第一句话、也是最后一句话。十年之间，王春梅早已听惯了流言蜚语，她觉得，为了这个家庭，她倾尽了自己的精力，从没....",
"emailed" : False,
"forwarded" : False,
"english" : False
}  , {
"index" : 14,
"articleIndex" : "31697",
"favor" :  False ,
     "read" : False,    
"title" : "男子醉卧女公厕被警方查出曾涉嫌强奸案",
"titleTip" : "男子醉卧女公厕被警方查出曾涉嫌强奸案",
"titleSummary" : "男子醉卧女公厕被警方查出曾涉嫌强奸案",
"descSummary" : "男子醉卧女公厕警方查出强奸案 本报讯(记者孙莹 通讯员罗强 ...",
"url" : "http:\/\/go.rss.sina.com.cn\/redirect.php?url=http:\/\/news.sina.com.cn\/s\/2013-10-30\/145928572969.shtml",
"pubDate" : "14:59:13",
"enterDate" : "384199:34:33",
"channelId" : "3592205035866342693",
"channelName" : "焦点新闻-新浪新闻",
"channelNameSummary" : "焦点新闻-新浪新闻",
"channelUrl" : "http:\/\/www.sinaimg.cn\/dy\/491\/2008\/0827\/1.html",
"author" : "WWW.SINA.COM.CN",
"tags" : [],
"desc" : "男子醉卧女公厕警方查出强奸案 本报讯(记者孙莹 通讯员罗强 张蕾) 男子郗某在公共厕所内企图强奸，后因女事主激烈反抗未遂。半年后，郗某酒后醉卧案发现场被捉。西城检察院近日以涉嫌强奸罪对郗某提起公诉。 去年9月12日凌晨，郗某从自己居住的四合院出来上厕所....",
"emailed" : False,
"forwarded" : False,
"english" : False
}  , {
"index" : 15,
"articleIndex" : "31698",
"favor" :  False ,
     "read" : False,    
"title" : "男子因房产纠纷持刀追砍外甥致其死亡",
"titleTip" : "男子因房产纠纷持刀追砍外甥致其死亡",
"titleSummary" : "男子因房产纠纷持刀追砍外甥致其死亡",
"descSummary" : "为房产追杀外甥 案犯今伏法 本报讯(通讯员涂浩) 37岁的某机务段...",
"url" : "http:\/\/go.rss.sina.com.cn\/redirect.php?url=http:\/\/news.sina.com.cn\/s\/2013-10-30\/145928572962.shtml",
"pubDate" : "14:59:13",
"enterDate" : "384199:34:33",
"channelId" : "3592205035866342693",
"channelName" : "焦点新闻-新浪新闻",
"channelNameSummary" : "焦点新闻-新浪新闻",
"channelUrl" : "http:\/\/www.sinaimg.cn\/dy\/491\/2008\/0827\/1.html",
"author" : "WWW.SINA.COM.CN",
"tags" : [],
"desc" : "为房产追杀外甥 案犯今伏法 本报讯(通讯员涂浩) 37岁的某机务段职工郭燕军因家庭房产纠纷杀害外甥。今天，遵照最高人民法院院长签发的执行死刑命令，北京二中院将郭燕军等重犯验明正身后押赴刑场执行死刑。 法院审理查明，郭燕军因家庭房产纠纷对其二姐郭某产生....",
"emailed" : False,
"forwarded" : False,
"english" : False
}  , {
"index" : 16,
"articleIndex" : "31690",
"favor" :  False ,
     "read" : False,    
"title" : "大三女生寄101封信请求校长增女厕(图)",
"titleTip" : "大三女生寄101封信请求校长增女厕(图)",
"titleSummary" : "大三女生寄101封信请求校长增女厕(图)",
"descSummary" : "28日早上，济南大学社工专业大三女生凌甜(化名)寄出了101封挂...",
"url" : "http:\/\/go.rss.sina.com.cn\/redirect.php?url=http:\/\/news.sina.com.cn\/s\/p\/2013-10-30\/144728572856.shtml",
"pubDate" : "14:47:31",
"enterDate" : "384200:23:01",
"channelId" : "3592205035866342693",
"channelName" : "焦点新闻-新浪新闻",
"channelNameSummary" : "焦点新闻-新浪新闻",
"channelUrl" : "http:\/\/www.sinaimg.cn\/dy\/491\/2008\/0827\/1.html",
"author" : "WWW.SINA.COM.CN",
"tags" : [],
"desc" : "28日早上，济南大学社工专业大三女生凌甜(化名)寄出了101封挂号信，收信人是省内101所高校校长。信的内容是同一个主题：呼吁大学校园扩建女厕至男厕2倍，以改善女大学生在校园里如厕难的问题。 此事迅速在网络上引起关注，有人质疑，如此高调，是不是炒作？ 29....",
"emailed" : False,
"forwarded" : False,
"english" : False
}  , {
"index" : 17,
"articleIndex" : "31689",
"favor" :  False ,
     "read" : False,    
"title" : "视频:实拍醉酒男地铁内闹事 扑倒暴打工作人员",
"titleTip" : "视频:实拍醉酒男地铁内闹事 扑倒暴打工作人员",
"titleSummary" : "视频:实拍醉酒男地铁内闹事 扑倒暴打工作人员",
"descSummary" : "近日，在深圳一地铁站，一名男子醉酒后，闹事打人。",
"url" : "http:\/\/go.rss.sina.com.cn\/redirect.php?url=http:\/\/video.sina.com.cn\/p\/news\/s\/v\/2013-10-30\/144163083729.html",
"pubDate" : "14:41:06",
"enterDate" : "384200:46:41",
"channelId" : "3592205035866342693",
"channelName" : "焦点新闻-新浪新闻",
"channelNameSummary" : "焦点新闻-新浪新闻",
"channelUrl" : "http:\/\/www.sinaimg.cn\/dy\/491\/2008\/0827\/1.html",
"author" : "WWW.SINA.COM.CN",
"tags" : [],
"desc" : "近日，在深圳一地铁站，一名男子醉酒后，闹事打人。",
"emailed" : False,
"forwarded" : False,
"english" : False
}  , {
"index" : 18,
"articleIndex" : "31688",
"favor" :  False ,
     "read" : False,    
"title" : "厦门一中学界定8条恋爱标准遭吐槽",
"titleTip" : "厦门一中学界定8条恋爱标准遭吐槽",
"titleSummary" : "厦门一中学界定8条恋爱标准遭吐槽",
"descSummary" : "\u201C除上课之外的课间活动\u2026\u2026只要出现一男一女在校园内的各角落、操...",
"url" : "http:\/\/go.rss.sina.com.cn\/redirect.php?url=http:\/\/news.sina.com.cn\/s\/2013-10-30\/142328572696.shtml",
"pubDate" : "14:23:43",
"enterDate" : "384200:59:23",
"channelId" : "3592205035866342693",
"channelName" : "焦点新闻-新浪新闻",
"channelNameSummary" : "焦点新闻-新浪新闻",
"channelUrl" : "http:\/\/www.sinaimg.cn\/dy\/491\/2008\/0827\/1.html",
"author" : "WWW.SINA.COM.CN",
"tags" : [],
"desc" : "\u201C除上课之外的课间活动\u2026\u2026只要出现一男一女在校园内的各角落、操场、教室及走廊两人在一起或在校园内手拉手或超过手拉手的举动均视为谈恋爱。\u201D 昨天，一份名为《厦门市翔安第一中学关于如何界定男女生谈恋爱的征求意见稿》在网上被大量转载，《意见稿》制定出8种将....",
"emailed" : False,
"forwarded" : False,
"english" : False
}  , {
"index" : 19,
"articleIndex" : "31687",
"favor" :  False ,
     "read" : False,    
"title" : "14岁女孩被罐车拖拽10米后抢救无效身亡(组图)",
"titleTip" : "14岁女孩被罐车拖拽10米后抢救无效身亡(组图)",
"titleSummary" : "14岁女孩被罐车拖拽10米后抢救无效身亡(组图)",
"descSummary" : "14岁女孩被罐车拖拽10米 抢救无效身亡在玉桥中学读初三...",
"url" : "http:\/\/go.rss.sina.com.cn\/redirect.php?url=http:\/\/news.sina.com.cn\/s\/p\/2013-10-30\/141628572630.shtml",
"pubDate" : "14:16:29",
"enterDate" : "384200:52:09",
"channelId" : "3592205035866342693",
"channelName" : "焦点新闻-新浪新闻",
"channelNameSummary" : "焦点新闻-新浪新闻",
"channelUrl" : "http:\/\/www.sinaimg.cn\/dy\/491\/2008\/0827\/1.html",
"author" : "WWW.SINA.COM.CN",
"tags" : [],
"desc" : "14岁女孩被罐车拖拽10米 抢救无效身亡在玉桥中学读初三再过13天就满15岁 昨天中午，通州区小圣庙附近，一辆水泥罐车撞倒一对骑着电动自行车的母女，并将后座的女孩拖拽近10米。 11月11日就是女孩15岁的生日，可她的生命，却只能定格在那块摔碎的手表上....",
"emailed" : False,
"forwarded" : False,
"english" : False
} ]
}
