{
"mode" : {"viewTitle" : 1,   "viewNew" : 0,  "pageIndex" : 2 },
 "channel" : {"id" : "3592205035866342693", "booked" : False, "subNumber" : 8654, "name" : "焦点新闻-新浪新闻", "url" : "http:\/\/www.sinaimg.cn\/dy\/491\/2008\/0827\/1.html", "feed" : "http:\/\/rss.sina.com.cn\/news\/society\/focus15.xml", "author" : "WWW.SINA.COM.CN", "desc" : "社会新闻-焦点新闻", "imageUrl" : "http:\/\/www.sinaimg.cn\/home\/deco\/2009\/0330\/logo_home_news.gif", "postPerWeek" : "401", "lastCrawTime" : "17:13:40", "crawDateTime" : "17:13:40", "lastHttpCode" : "200"}, "page" : {
"startIndex" : 20,
"totalCount" : 5000,
"pageIndex" : 2,
"lastPage" : 250,
"pageSize" : 20,
"english" :  False },
 "unreadNum" : 0, "shotIndex" : -1,
"articles" : [
{
"index" : 0,
"articleIndex" : "31686",
"favor" :  False ,
     "read" : False,    
"title" : "夫妻无辜被关382天 怕被女儿当成坏人称出国",
"titleTip" : "夫妻无辜被关382天 怕被女儿当成坏人称出国",
"titleSummary" : "夫妻无辜被关382天 怕被女儿当成坏人称出国",
"descSummary" : "经过两次补充侦查，法院两次延期审理后，先被控涉嫌抢劫后...",
"url" : "http:\/\/go.rss.sina.com.cn\/redirect.php?url=http:\/\/news.sina.com.cn\/s\/2013-10-30\/141128572623.shtml",
"pubDate" : "14:11:00",
"enterDate" : "384200:46:40",
"channelId" : "3592205035866342693",
"channelName" : "焦点新闻-新浪新闻",
"channelNameSummary" : "焦点新闻-新浪新闻",
"channelUrl" : "http:\/\/www.sinaimg.cn\/dy\/491\/2008\/0827\/1.html",
"author" : "WWW.SINA.COM.CN",
"tags" : [],
"desc" : "经过两次补充侦查，法院两次延期审理后，先被控涉嫌抢劫后改为寻衅滋事罪、已被羁押1年17天的龙岗KTV庆生夫妇唐海龙和张树凤，终于等来了法院的无罪判决。10月25日，两人走出了黄阁坑看守所。前日，唐海龙夫妇及家属前往侦查此案的沙湾派出所，要求取回被扣车辆等物品，并表示....",
"emailed" : False,
"forwarded" : False,
"english" : False
}  , {
"index" : 1,
"articleIndex" : "31685",
"favor" :  False ,
     "read" : False,    
"title" : "女科长被判受贿31万 自曝与行贿人是情人关系",
"titleTip" : "女科长被判受贿31万 自曝与行贿人是情人关系",
"titleSummary" : "女科长被判受贿31万 自曝与行贿人是情人关系",
"descSummary" : "楚天金报讯 金报讯(记者方历娇 实习生周薇)原武钢国贸女...",
"url" : "http:\/\/go.rss.sina.com.cn\/redirect.php?url=http:\/\/news.sina.com.cn\/s\/2013-10-30\/140228572572.shtml",
"pubDate" : "14:02:37",
"enterDate" : "384201:08:22",
"channelId" : "3592205035866342693",
"channelName" : "焦点新闻-新浪新闻",
"channelNameSummary" : "焦点新闻-新浪新闻",
"channelUrl" : "http:\/\/www.sinaimg.cn\/dy\/491\/2008\/0827\/1.html",
"author" : "WWW.SINA.COM.CN",
"tags" : [],
"desc" : "楚天金报讯 金报讯(记者方历娇 实习生周薇)原武钢国贸女经理在物资采购招标过程中，收受他人31万元。昨日此案在武汉市中院二审，女科长称与行贿人是情人关系，以为31万元是情人赠送。 2011年3月至今年2月，金某在武钢集团国际经济贸易总公司担任设备材料部、电气仪表部....",
"emailed" : False,
"forwarded" : False,
"english" : False
}  , {
"index" : 2,
"articleIndex" : "31684",
"favor" :  False ,
     "read" : False,    
"title" : "8旬老母起诉儿子要求每周探视1次 被告不服上诉",
"titleTip" : "8旬老母起诉儿子要求每周探视1次 被告不服上诉",
"titleSummary" : "8旬老母起诉儿子要求每周探视1次 被告不服上诉",
"descSummary" : "82岁的刘老太育有五女一子，可儿子李某却很少照顾母...",
"url" : "http:\/\/go.rss.sina.com.cn\/redirect.php?url=http:\/\/news.sina.com.cn\/s\/2013-10-30\/135728572548.shtml",
"pubDate" : "13:57:48",
"enterDate" : "384201:03:33",
"channelId" : "3592205035866342693",
"channelName" : "焦点新闻-新浪新闻",
"channelNameSummary" : "焦点新闻-新浪新闻",
"channelUrl" : "http:\/\/www.sinaimg.cn\/dy\/491\/2008\/0827\/1.html",
"author" : "WWW.SINA.COM.CN",
"tags" : [],
"desc" : "82岁的刘老太育有五女一子，可儿子李某却很少照顾母亲。无奈的刘老太搬去与女儿同住，谁知刘某既不支付赡养费，也几乎从不探视母亲。为此，刘老太将儿子告上法院，要求李某至少每周探望自己一次。记者昨日从龙岗法院获悉，该院横岗法庭一审判刘老太胜诉。据了解，这是自《老年....",
"emailed" : False,
"forwarded" : False,
"english" : False
}  , {
"index" : 3,
"articleIndex" : "31683",
"favor" :  False ,
     "read" : False,    
"title" : "卖论文网寄生350家学术期刊 买家多中小学老师",
"titleTip" : "卖论文网寄生350家学术期刊 买家多中小学老师",
"titleSummary" : "卖论文网寄生350家学术期刊 买家多中小学老师",
"descSummary" : "文\/本报记者沈度 图\/本报记者佘影 日前，一名高校学生向...",
"url" : "http:\/\/go.rss.sina.com.cn\/redirect.php?url=http:\/\/news.sina.com.cn\/s\/2013-10-30\/135628572543.shtml",
"pubDate" : "13:56:17",
"enterDate" : "384201:02:02",
"channelId" : "3592205035866342693",
"channelName" : "焦点新闻-新浪新闻",
"channelNameSummary" : "焦点新闻-新浪新闻",
"channelUrl" : "http:\/\/www.sinaimg.cn\/dy\/491\/2008\/0827\/1.html",
"author" : "WWW.SINA.COM.CN",
"tags" : [],
"desc" : "文\/本报记者沈度 图\/本报记者佘影 日前，一名高校学生向楚天金报报料称，他花高价买来的毕业论文，因抄袭率过高未能通过，被迫延迟毕业，对方也不愿退款。 在随后的工商执法行动中，金报记者发现，这家论文代写代发公司业务量火爆，代发刊物涉及国内350家学术期....",
"emailed" : False,
"forwarded" : False,
"english" : False
}  , {
"index" : 4,
"articleIndex" : "31682",
"favor" :  False ,
     "read" : False,    
"title" : "高清图：郑州女工坠亡 工地阻挠采访殴打民警",
"titleTip" : "高清图：郑州女工坠亡 工地阻挠采访殴打民警",
"titleSummary" : "高清图：郑州女工坠亡 工地阻挠采访殴打民警",
"descSummary" : "",
"url" : "http:\/\/go.rss.sina.com.cn\/redirect.php?url=http:\/\/slide.news.sina.com.cn\/s\/slide_1_2841_36705.html",
"pubDate" : "13:53:15",
"enterDate" : "384200:59:00",
"channelId" : "3592205035866342693",
"channelName" : "焦点新闻-新浪新闻",
"channelNameSummary" : "焦点新闻-新浪新闻",
"channelUrl" : "http:\/\/www.sinaimg.cn\/dy\/491\/2008\/0827\/1.html",
"author" : "WWW.SINA.COM.CN",
"tags" : [],
"desc" : "",
"emailed" : False,
"forwarded" : False,
"english" : False
}  , {
"index" : 5,
"articleIndex" : "31681",
"favor" :  False ,
     "read" : False,    
"title" : "武汉小学组织学生拜佛许愿 领导跪拜学生模仿",
"titleTip" : "武汉小学组织学生拜佛许愿 领导跪拜学生模仿",
"titleSummary" : "武汉小学组织学生拜佛许愿 领导跪拜学生模仿",
"descSummary" : "楚天金报讯(首席记者 周寿江)昨日，网友\u201C@踏歌行4\u201D向...",
"url" : "http:\/\/go.rss.sina.com.cn\/redirect.php?url=http:\/\/news.sina.com.cn\/s\/2013-10-30\/133828572421.shtml",
"pubDate" : "13:38:21",
"enterDate" : "384200:44:06",
"channelId" : "3592205035866342693",
"channelName" : "焦点新闻-新浪新闻",
"channelNameSummary" : "焦点新闻-新浪新闻",
"channelUrl" : "http:\/\/www.sinaimg.cn\/dy\/491\/2008\/0827\/1.html",
"author" : "WWW.SINA.COM.CN",
"tags" : [],
"desc" : "楚天金报讯(首席记者 周寿江)昨日，网友\u201C@踏歌行4\u201D向本报报料说：江岸一小学组织学生集体参观江夏某寺拜佛许愿，领导跪拜，学生模仿。当天，当事学校在受访时称，确实组织了该校400名小学生到江夏龙泉山参加实践，\u201C但因工作上的漏洞\u201D，出现了一些未料想到的情况。\u201C@踏歌....",
"emailed" : False,
"forwarded" : False,
"english" : False
}  , {
"index" : 6,
"articleIndex" : "31680",
"favor" :  False ,
     "read" : False,    
"title" : "视频:两男偷走180万珠宝 民警扮美女诱惑擒贼",
"titleTip" : "视频:两男偷走180万珠宝 民警扮美女诱惑擒贼",
"titleSummary" : "视频:两男偷走180万珠宝 民警扮美女诱惑擒贼",
"descSummary" : "近日在深圳，两名男子偷走价值180万元的珠宝，民警在破...",
"url" : "http:\/\/go.rss.sina.com.cn\/redirect.php?url=http:\/\/video.sina.com.cn\/p\/news\/s\/v\/2013-10-30\/132763083623.html",
"pubDate" : "13:27:33",
"enterDate" : "384201:03:23",
"channelId" : "3592205035866342693",
"channelName" : "焦点新闻-新浪新闻",
"channelNameSummary" : "焦点新闻-新浪新闻",
"channelUrl" : "http:\/\/www.sinaimg.cn\/dy\/491\/2008\/0827\/1.html",
"author" : "WWW.SINA.COM.CN",
"tags" : [],
"desc" : "近日在深圳，两名男子偷走价值180万元的珠宝，民警在破案中陷入僵局，无法突破。于是扮成美女，与窃贼网聊后约见，将其擒获。",
"emailed" : False,
"forwarded" : False,
"english" : False
}  , {
"index" : 7,
"articleIndex" : "31679",
"favor" :  False ,
     "read" : False,    
"title" : "视频:小三杀害富商夫妇 化妆成原配盗领巨款",
"titleTip" : "视频:小三杀害富商夫妇 化妆成原配盗领巨款",
"titleSummary" : "视频:小三杀害富商夫妇 化妆成原配盗领巨款",
"descSummary" : "台湾一女子将富商夫妇下药昏迷，随后带至树林杀死。该女子...",
"url" : "http:\/\/go.rss.sina.com.cn\/redirect.php?url=http:\/\/video.sina.com.cn\/p\/news\/s\/v\/2013-10-30\/130963083481.html",
"pubDate" : "13:09:59",
"enterDate" : "384201:15:54",
"channelId" : "3592205035866342693",
"channelName" : "焦点新闻-新浪新闻",
"channelNameSummary" : "焦点新闻-新浪新闻",
"channelUrl" : "http:\/\/www.sinaimg.cn\/dy\/491\/2008\/0827\/1.html",
"author" : "WWW.SINA.COM.CN",
"tags" : [],
"desc" : "台湾一女子将富商夫妇下药昏迷，随后带至树林杀死。该女子已被判死刑。",
"emailed" : False,
"forwarded" : False,
"english" : False
}  , {
"index" : 8,
"articleIndex" : "31678",
"favor" :  False ,
     "read" : False,    
"title" : "农民科学家蓄须30余年研究出超级杂交油菜(图)",
"titleTip" : "农民科学家蓄须30余年研究出超级杂交油菜(图)",
"titleSummary" : "农民科学家蓄须30余年研究出超级杂交油菜(图)",
"descSummary" : "听油菜花开的声音 从湖南省常德市临澧县杨桥村采访归来...",
"url" : "http:\/\/go.rss.sina.com.cn\/redirect.php?url=http:\/\/news.sina.com.cn\/s\/p\/2013-10-30\/124528572073.shtml",
"pubDate" : "12:45:40",
"enterDate" : "384200:51:35",
"channelId" : "3592205035866342693",
"channelName" : "焦点新闻-新浪新闻",
"channelNameSummary" : "焦点新闻-新浪新闻",
"channelUrl" : "http:\/\/www.sinaimg.cn\/dy\/491\/2008\/0827\/1.html",
"author" : "WWW.SINA.COM.CN",
"tags" : [],
"desc" : "听油菜花开的声音 从湖南省常德市临澧县杨桥村采访归来，那一块与众不同的油菜地时常出现在记者的梦境中。地里每一株油菜的每一个分枝上都挂着标记。这是杨桥村农民科学家沈昌健全家的\u201C圣地\u201D\u2015\u2015超级杂交油菜科研基地。 这块土地诠释着沈昌健全家人的前赴后继....",
"emailed" : False,
"forwarded" : False,
"english" : False
}  , {
"index" : 9,
"articleIndex" : "31677",
"favor" :  False ,
     "read" : False,    
"title" : "组图：4岁男童被父母扔幼儿园母亲称事不关己",
"titleTip" : "组图：4岁男童被父母扔幼儿园母亲称事不关己",
"titleSummary" : "组图：4岁男童被父母扔幼儿园母亲称事不关己",
"descSummary" : "",
"url" : "http:\/\/go.rss.sina.com.cn\/redirect.php?url=http:\/\/slide.news.sina.com.cn\/s\/slide_1_2841_36704.html",
"pubDate" : "12:29:26",
"enterDate" : "384201:05:26",
"channelId" : "3592205035866342693",
"channelName" : "焦点新闻-新浪新闻",
"channelNameSummary" : "焦点新闻-新浪新闻",
"channelUrl" : "http:\/\/www.sinaimg.cn\/dy\/491\/2008\/0827\/1.html",
"author" : "WWW.SINA.COM.CN",
"tags" : [],
"desc" : "",
"emailed" : False,
"forwarded" : False,
"english" : False
}  , {
"index" : 10,
"articleIndex" : "31676",
"favor" :  False ,
     "read" : False,    
"title" : "在校大学生强迫妇女卖淫 少女写字条求救",
"titleTip" : "在校大学生强迫妇女卖淫 少女写字条求救",
"titleSummary" : "在校大学生强迫妇女卖淫 少女写字条求救",
"descSummary" : "南方农村报讯 (通讯员谢碧娟)阿桂和阿清都只有十几岁，原本只...",
"url" : "http:\/\/go.rss.sina.com.cn\/redirect.php?url=http:\/\/news.sina.com.cn\/s\/2013-10-30\/115328571788.shtml",
"pubDate" : "11:53:27",
"enterDate" : "384200:59:32",
"channelId" : "3592205035866342693",
"channelName" : "焦点新闻-新浪新闻",
"channelNameSummary" : "焦点新闻-新浪新闻",
"channelUrl" : "http:\/\/www.sinaimg.cn\/dy\/491\/2008\/0827\/1.html",
"author" : "WWW.SINA.COM.CN",
"tags" : [],
"desc" : "南方农村报讯 (通讯员谢碧娟)阿桂和阿清都只有十几岁，原本只是答应朋友去参加生日宴会，却不料想这个朋友竟是个披着\"狼皮\"的人贩子，狠心将她们卖掉不说，还将她们推向了卖淫组织，致使她们差点沦为卖淫女。而这个卖淫组织的其中一位组织者竟然是一名在校大学生。笔者日前从....",
"emailed" : False,
"forwarded" : False,
"english" : False
}  , {
"index" : 11,
"articleIndex" : "31675",
"favor" :  False ,
     "read" : False,    
"title" : "司机开残疾人爱心车 多次载瘾君子在车上吸毒",
"titleTip" : "司机开残疾人爱心车 多次载瘾君子在车上吸毒",
"titleSummary" : "司机开残疾人爱心车 多次载瘾君子在车上吸毒",
"descSummary" : "楚天都市报讯 本报首席驻站记者卢成汉 通讯员卢贻斌 一辆...",
"url" : "http:\/\/go.rss.sina.com.cn\/redirect.php?url=http:\/\/news.sina.com.cn\/s\/2013-10-30\/113228571532.shtml",
"pubDate" : "11:32:29",
"enterDate" : "384200:38:34",
"channelId" : "3592205035866342693",
"channelName" : "焦点新闻-新浪新闻",
"channelNameSummary" : "焦点新闻-新浪新闻",
"channelUrl" : "http:\/\/www.sinaimg.cn\/dy\/491\/2008\/0827\/1.html",
"author" : "WWW.SINA.COM.CN",
"tags" : [],
"desc" : "楚天都市报讯&#160;□本报首席驻站记者卢成汉 通讯员卢贻斌 一辆标有\u201C为残疾人奉献一份爱\u201D的轿车，不仅多次运送两名瘾君子前往买毒品，还任凭他们在车上\u201C过瘾\u201D。27日，石首警方成功拦载该车，现场抓获一对吸毒人员，该车司机因贪图区区几十元的运费，将面临法律的....",
"emailed" : False,
"forwarded" : False,
"english" : False
}  , {
"index" : 12,
"articleIndex" : "31674",
"favor" :  False ,
     "read" : False,    
"title" : "嫌犯借钱后伪造130多万面额支票作抵押",
"titleTip" : "嫌犯借钱后伪造130多万面额支票作抵押",
"titleSummary" : "嫌犯借钱后伪造130多万面额支票作抵押",
"descSummary" : "南方日报讯 (记者\/罗湛贤 通讯员\/三检宣) 伪造虚假支票只为瞒天...",
"url" : "http:\/\/go.rss.sina.com.cn\/redirect.php?url=http:\/\/news.sina.com.cn\/s\/2013-10-30\/112828571507.shtml",
"pubDate" : "11:28:33",
"enterDate" : "384201:04:43",
"channelId" : "3592205035866342693",
"channelName" : "焦点新闻-新浪新闻",
"channelNameSummary" : "焦点新闻-新浪新闻",
"channelUrl" : "http:\/\/www.sinaimg.cn\/dy\/491\/2008\/0827\/1.html",
"author" : "WWW.SINA.COM.CN",
"tags" : [],
"desc" : "南方日报讯&#160;(记者\/罗湛贤 通讯员\/三检宣) 伪造虚假支票只为瞒天过海借人钱财，但最终难逃法网。日前，三水区检察院以涉嫌伪造金融票证罪批捕一名为向他人借钱，伪造虚假支票以作抵押，伪造的虚假支票总面额达130多万元的犯罪嫌疑人作出批准逮捕的决定，该案是三水自2003....",
"emailed" : False,
"forwarded" : False,
"english" : False
}  , {
"index" : 13,
"articleIndex" : "31673",
"favor" :  False ,
     "read" : False,    
"title" : "男子逃离传销魔窟 手持砖头误闯交警宿舍区",
"titleTip" : "男子逃离传销魔窟 手持砖头误闯交警宿舍区",
"titleSummary" : "男子逃离传销魔窟 手持砖头误闯交警宿舍区",
"descSummary" : "楚天都市报讯 (记者陈咏 通讯员卫冬 孙修家)前日凌晨3时许...",
"url" : "http:\/\/go.rss.sina.com.cn\/redirect.php?url=http:\/\/news.sina.com.cn\/s\/2013-10-30\/111728571343.shtml",
"pubDate" : "11:17:39",
"enterDate" : "384200:23:44",
"channelId" : "3592205035866342693",
"channelName" : "焦点新闻-新浪新闻",
"channelNameSummary" : "焦点新闻-新浪新闻",
"channelUrl" : "http:\/\/www.sinaimg.cn\/dy\/491\/2008\/0827\/1.html",
"author" : "WWW.SINA.COM.CN",
"tags" : [],
"desc" : "楚天都市报讯&#160;(记者陈咏 通讯员卫冬 孙修家)前日凌晨3时许，一名手持砖头的陌生男子突然闯入安陆市交警大队一中队宿舍区内，差点被当盗贼抓获。交警询问得知，该男青年刚从传销魔窟跳楼逃脱，误闯误撞进了该宿舍区\u201C避难\u201D。 据该男子介绍，他姓赵，是河南汝阳人....",
"emailed" : False,
"forwarded" : False,
"english" : False
}  , {
"index" : 14,
"articleIndex" : "31672",
"favor" :  False ,
     "read" : False,    
"title" : "父亲决定割肝救女 因肝小恐难手术(图)",
"titleTip" : "父亲决定割肝救女 因肝小恐难手术(图)",
"titleSummary" : "父亲决定割肝救女 因肝小恐难手术(图)",
"descSummary" : "本报记者高东起 去年，19岁的儿子罹患肝癌病逝，今年，25岁的女...",
"url" : "http:\/\/go.rss.sina.com.cn\/redirect.php?url=http:\/\/news.sina.com.cn\/s\/p\/2013-10-30\/111128571322.shtml",
"pubDate" : "11:11:26",
"enterDate" : "384200:47:36",
"channelId" : "3592205035866342693",
"channelName" : "焦点新闻-新浪新闻",
"channelNameSummary" : "焦点新闻-新浪新闻",
"channelUrl" : "http:\/\/www.sinaimg.cn\/dy\/491\/2008\/0827\/1.html",
"author" : "WWW.SINA.COM.CN",
"tags" : [],
"desc" : "□本报记者高东起 去年，19岁的儿子罹患肝癌病逝，今年，25岁的女儿又被查出患上肝癌，为了不再让病魔夺走亲人，父亲毅然决定割肝救女。尽管父女俩配型成功，但命运的天平并未就此偏向幸运的一侧\u2026\u2026 昨日下午，25岁的王勤静静地躺着武汉市同济医院新外科大楼器....",
"emailed" : False,
"forwarded" : False,
"english" : False
}  , {
"index" : 15,
"articleIndex" : "31671",
"favor" :  False ,
     "read" : False,    
"title" : "女子花30多万办免费国学班(图)",
"titleTip" : "女子花30多万办免费国学班(图)",
"titleSummary" : "女子花30多万办免费国学班(图)",
"descSummary" : "楚天都市报讯 昨日，一堂生动的《弟子规》国学课，在武昌南湖都市桃源...",
"url" : "http:\/\/go.rss.sina.com.cn\/redirect.php?url=http:\/\/news.sina.com.cn\/s\/2013-10-30\/110628571313.shtml",
"pubDate" : "11:06:30",
"enterDate" : "384200:42:40",
"channelId" : "3592205035866342693",
"channelName" : "焦点新闻-新浪新闻",
"channelNameSummary" : "焦点新闻-新浪新闻",
"channelUrl" : "http:\/\/www.sinaimg.cn\/dy\/491\/2008\/0827\/1.html",
"author" : "WWW.SINA.COM.CN",
"tags" : [],
"desc" : "楚天都市报讯 昨日，一堂生动的《弟子规》国学课，在武昌南湖都市桃源社区举行。看到孩子们踊跃举手，阐述自己对\u201C善恶\u201D的理解，\u201C忠孝堂\u201D国学班的创办者\u2015\u2015黄桂琴脸上露出欣慰的笑容。 今年54岁的黄桂琴是武汉人，初中毕业后做过工人及行政干部。上世纪90年代初，....",
"emailed" : False,
"forwarded" : False,
"english" : False
}  , {
"index" : 16,
"articleIndex" : "31670",
"favor" :  False ,
     "read" : False,    
"title" : "大三女生如厕被隔板下咸猪手捏臀 吓哭当场",
"titleTip" : "大三女生如厕被隔板下咸猪手捏臀 吓哭当场",
"titleSummary" : "大三女生如厕被隔板下咸猪手捏臀 吓哭当场",
"descSummary" : "楚天都市报讯 (记者李曼英 陈倩 周丹)在教学楼上厕所，隔板...",
"url" : "http:\/\/go.rss.sina.com.cn\/redirect.php?url=http:\/\/news.sina.com.cn\/s\/2013-10-30\/110228571290.shtml",
"pubDate" : "11:02:19",
"enterDate" : "384201:08:34",
"channelId" : "3592205035866342693",
"channelName" : "焦点新闻-新浪新闻",
"channelNameSummary" : "焦点新闻-新浪新闻",
"channelUrl" : "http:\/\/www.sinaimg.cn\/dy\/491\/2008\/0827\/1.html",
"author" : "WWW.SINA.COM.CN",
"tags" : [],
"desc" : "楚天都市报讯&#160;(记者李曼英 陈倩 周丹)在教学楼上厕所，隔板下竟伸出一只手，女大学生乐乐(化名)当场吓得尖叫，半天不敢打开厕所门。现在一想起这件事时，乐乐仍惊魂未定，禁不住流泪。 乐乐在江汉大学读大三。28日，因下午在J01教学楼有课，她吃完中饭后便早早来....",
"emailed" : False,
"forwarded" : False,
"english" : False
}  , {
"index" : 17,
"articleIndex" : "31669",
"favor" :  False ,
     "read" : False,    
"title" : "高清图：佛山征地警民对峙 9旬老人坐地抗议",
"titleTip" : "高清图：佛山征地警民对峙 9旬老人坐地抗议",
"titleSummary" : "高清图：佛山征地警民对峙 9旬老人坐地抗议",
"descSummary" : "",
"url" : "http:\/\/go.rss.sina.com.cn\/redirect.php?url=http:\/\/slide.news.sina.com.cn\/s\/slide_1_2841_36694.html",
"pubDate" : "10:57:52",
"enterDate" : "384201:04:07",
"channelId" : "3592205035866342693",
"channelName" : "焦点新闻-新浪新闻",
"channelNameSummary" : "焦点新闻-新浪新闻",
"channelUrl" : "http:\/\/www.sinaimg.cn\/dy\/491\/2008\/0827\/1.html",
"author" : "WWW.SINA.COM.CN",
"tags" : [],
"desc" : "",
"emailed" : False,
"forwarded" : False,
"english" : False
}  , {
"index" : 18,
"articleIndex" : "31668",
"favor" :  False ,
     "read" : False,    
"title" : "司机倒车撞向人群 外婆手肘着地拼命护住外孙",
"titleTip" : "司机倒车撞向人群 外婆手肘着地拼命护住外孙",
"titleSummary" : "司机倒车撞向人群 外婆手肘着地拼命护住外孙",
"descSummary" : "楚天都市报讯 (记者刘毅 萧颢) 昨日上午9时许，东湖高新...",
"url" : "http:\/\/go.rss.sina.com.cn\/redirect.php?url=http:\/\/news.sina.com.cn\/s\/2013-10-30\/105628571238.shtml",
"pubDate" : "10:56:23",
"enterDate" : "384201:02:38",
"channelId" : "3592205035866342693",
"channelName" : "焦点新闻-新浪新闻",
"channelNameSummary" : "焦点新闻-新浪新闻",
"channelUrl" : "http:\/\/www.sinaimg.cn\/dy\/491\/2008\/0827\/1.html",
"author" : "WWW.SINA.COM.CN",
"tags" : [],
"desc" : "楚天都市报讯&#160;(记者刘毅 萧颢) 昨日上午9时许，东湖高新区南湖社区外的天际路上，一辆轿车在倒车时撞向正在买菜的人群，事故中，有4人被撞伤送医。其中，一个才4个月大的婴儿也险些被殃及，幸亏外婆紧紧地将其护住。 熊女士说，昨日上午，她和丈夫及婆婆、姨妈带....",
"emailed" : False,
"forwarded" : False,
"english" : False
}  , {
"index" : 19,
"articleIndex" : "31667",
"favor" :  False ,
     "read" : False,    
"title" : "武校学生一夜翻窗盗窃5户人家",
"titleTip" : "武校学生一夜翻窗盗窃5户人家",
"titleSummary" : "武校学生一夜翻窗盗窃5户人家",
"descSummary" : "武校学生沦为\u201C蜘蛛大盗\u201D 爬楼入室行窃 来无影去无踪 却被偷来的赃物\u201C...",
"url" : "http:\/\/go.rss.sina.com.cn\/redirect.php?url=http:\/\/news.sina.com.cn\/s\/2013-10-30\/104628571155.shtml",
"pubDate" : "10:46:39",
"enterDate" : "384200:52:54",
"channelId" : "3592205035866342693",
"channelName" : "焦点新闻-新浪新闻",
"channelNameSummary" : "焦点新闻-新浪新闻",
"channelUrl" : "http:\/\/www.sinaimg.cn\/dy\/491\/2008\/0827\/1.html",
"author" : "WWW.SINA.COM.CN",
"tags" : [],
"desc" : "武校学生沦为\u201C蜘蛛大盗\u201D 爬楼入室行窃 来无影去无踪 却被偷来的赃物\u201C出卖\u201D 性格内向、个头矮小、瘦骨嶙峋，这些词语很难想象和一名攀爬盗窃\u201C高手\u201D联系起来。近日，马鞍山市公安局花山分局将涉嫌盗窃的犯罪嫌疑人彭某及其同伙一举抓获，破获系列盗窃....",
"emailed" : False,
"forwarded" : False,
"english" : False
} ]
}
