{
"mode" : {"viewTitle" : 1,   "viewNew" : 0,  "pageIndex" : 1 },
 "channel" : {"id" : "2894378604168576095", "booked" : False, "subNumber" : 54, "name" : "电影宝库-新浪娱乐", "url" : "http:\/\/ent.sina.com.cn\/2013old\/film\/index.shtml", "feed" : "http:\/\/rss.sina.com.cn\/ent\/film\/focus7.xml", "author" : "WWW.SINA.COM.CN", "desc" : "电影宝库-焦点新闻", "imageUrl" : "http:\/\/www.sinaimg.cn\/home\/deco\/2009\/0330\/logo_home_ent.gif", "postPerWeek" : "0", "lastCrawTime" : "16:52:05", "crawDateTime" : "16:52:05", "lastHttpCode" : "200"}, "page" : {
"startIndex" : 0,
"totalCount" : 5000,
"pageIndex" : 1,
"lastPage" : 250,
"pageSize" : 20,
"english" :  False },
 "unreadNum" : 0, "shotIndex" : -1,
"articles" : [
{
"index" : 0,
"articleIndex" : "41847",
"favor" :  False ,
     "read" : False,    
"title" : "申贤俊河智苑将主持第50届大钟电影颁奖礼",
"titleTip" : "申贤俊河智苑将主持第50届大钟电影颁奖礼",
"titleSummary" : "申贤俊河智苑将主持第50届大钟电影颁奖礼",
"descSummary" : "",
"url" : "http:\/\/go.rss.sina.com.cn\/redirect.php?url=http:\/\/ent.sina.com.cn\/m\/f\/k\/2013-10-30\/15494033620.shtml",
"pubDate" : "15:49:58",
"enterDate" : "384200:47:07",
"channelId" : "2894378604168576095",
"channelName" : "电影宝库-新浪娱乐",
"channelNameSummary" : "电影宝库-新浪娱乐",
"channelUrl" : "http:\/\/ent.sina.com.cn\/2013old\/film\/index.shtml",
"author" : "WWW.SINA.COM.CN",
"tags" : [],
"desc" : "",
"emailed" : False,
"forwarded" : False,
"english" : False
}  , {
"index" : 1,
"articleIndex" : "41846",
"favor" :  False ,
     "read" : False,    
"title" : "李冰冰《变4》当女汉子：择偶标准是我爸",
"titleTip" : "李冰冰《变4》当女汉子：择偶标准是我爸",
"titleSummary" : "李冰冰《变4》当女汉子：择偶标准是我爸",
"descSummary" : "",
"url" : "http:\/\/go.rss.sina.com.cn\/redirect.php?url=http:\/\/ent.sina.com.cn\/m\/f\/2013-10-30\/14584033564.shtml",
"pubDate" : "14:58:29",
"enterDate" : "384199:55:38",
"channelId" : "2894378604168576095",
"channelName" : "电影宝库-新浪娱乐",
"channelNameSummary" : "电影宝库-新浪娱乐",
"channelUrl" : "http:\/\/ent.sina.com.cn\/2013old\/film\/index.shtml",
"author" : "WWW.SINA.COM.CN",
"tags" : [],
"desc" : "",
"emailed" : False,
"forwarded" : False,
"english" : False
}  , {
"index" : 2,
"articleIndex" : "41845",
"favor" :  False ,
     "read" : False,    
"title" : "《变4》曝李冰冰戏份30分钟 不会有特供版",
"titleTip" : "《变4》曝李冰冰戏份30分钟 不会有特供版",
"titleSummary" : "《变4》曝李冰冰戏份30分钟 不会有特供版",
"descSummary" : "",
"url" : "http:\/\/go.rss.sina.com.cn\/redirect.php?url=http:\/\/ent.sina.com.cn\/m\/c\/2013-10-30\/14524033560.shtml",
"pubDate" : "14:52:42",
"enterDate" : "384199:49:51",
"channelId" : "2894378604168576095",
"channelName" : "电影宝库-新浪娱乐",
"channelNameSummary" : "电影宝库-新浪娱乐",
"channelUrl" : "http:\/\/ent.sina.com.cn\/2013old\/film\/index.shtml",
"author" : "WWW.SINA.COM.CN",
"tags" : [],
"desc" : "",
"emailed" : False,
"forwarded" : False,
"english" : False
}  , {
"index" : 3,
"articleIndex" : "41844",
"favor" :  False ,
     "read" : False,    
"title" : "《金蝉脱壳》曝拍摄地点 NASA开放取景",
"titleTip" : "《金蝉脱壳》曝拍摄地点 NASA开放取景",
"titleSummary" : "《金蝉脱壳》曝拍摄地点 NASA开放取景",
"descSummary" : "",
"url" : "http:\/\/go.rss.sina.com.cn\/redirect.php?url=http:\/\/ent.sina.com.cn\/m\/c\/2013-10-30\/14474033554.shtml",
"pubDate" : "14:47:01",
"enterDate" : "384199:44:10",
"channelId" : "2894378604168576095",
"channelName" : "电影宝库-新浪娱乐",
"channelNameSummary" : "电影宝库-新浪娱乐",
"channelUrl" : "http:\/\/ent.sina.com.cn\/2013old\/film\/index.shtml",
"author" : "WWW.SINA.COM.CN",
"tags" : [],
"desc" : "",
"emailed" : False,
"forwarded" : False,
"english" : False
}  , {
"index" : 4,
"articleIndex" : "41842",
"favor" :  False ,
     "read" : False,    
"title" : "吕良伟获《变4》导演称赞 李冰冰没耍大牌",
"titleTip" : "吕良伟获《变4》导演称赞 李冰冰没耍大牌",
"titleSummary" : "吕良伟获《变4》导演称赞 李冰冰没耍大牌",
"descSummary" : "",
"url" : "http:\/\/go.rss.sina.com.cn\/redirect.php?url=http:\/\/ent.sina.com.cn\/m\/c\/2013-10-30\/11494033451.shtml",
"pubDate" : "11:49:34",
"enterDate" : "384198:47:03",
"channelId" : "2894378604168576095",
"channelName" : "电影宝库-新浪娱乐",
"channelNameSummary" : "电影宝库-新浪娱乐",
"channelUrl" : "http:\/\/ent.sina.com.cn\/2013old\/film\/index.shtml",
"author" : "WWW.SINA.COM.CN",
"tags" : [],
"desc" : "",
"emailed" : False,
"forwarded" : False,
"english" : False
}  , {
"index" : 5,
"articleIndex" : "41843",
"favor" :  False ,
     "read" : False,    
"title" : "《制服》重口味受捧 徐若u大秀身材",
"titleTip" : "《制服》重口味受捧 徐若u大秀身材",
"titleSummary" : "《制服》重口味受捧 徐若u大秀身材",
"descSummary" : "",
"url" : "http:\/\/go.rss.sina.com.cn\/redirect.php?url=http:\/\/ent.sina.com.cn\/m\/c\/2013-10-30\/11354033426.shtml",
"pubDate" : "11:35:12",
"enterDate" : "384198:02:36",
"channelId" : "2894378604168576095",
"channelName" : "电影宝库-新浪娱乐",
"channelNameSummary" : "电影宝库-新浪娱乐",
"channelUrl" : "http:\/\/ent.sina.com.cn\/2013old\/film\/index.shtml",
"author" : "WWW.SINA.COM.CN",
"tags" : [],
"desc" : "",
"emailed" : False,
"forwarded" : False,
"english" : False
}  , {
"index" : 6,
"articleIndex" : "41840",
"favor" :  False ,
     "read" : False,    
"title" : "光棍节档成影院新宠 一日排10片不科学",
"titleTip" : "光棍节档成影院新宠 一日排10片不科学",
"titleSummary" : "光棍节档成影院新宠 一日排10片不科学",
"descSummary" : "",
"url" : "http:\/\/go.rss.sina.com.cn\/redirect.php?url=http:\/\/ent.sina.com.cn\/m\/c\/2013-10-30\/11144033389.shtml",
"pubDate" : "11:14:46",
"enterDate" : "384201:12:45",
"channelId" : "2894378604168576095",
"channelName" : "电影宝库-新浪娱乐",
"channelNameSummary" : "电影宝库-新浪娱乐",
"channelUrl" : "http:\/\/ent.sina.com.cn\/2013old\/film\/index.shtml",
"author" : "WWW.SINA.COM.CN",
"tags" : [],
"desc" : "",
"emailed" : False,
"forwarded" : False,
"english" : False
}  , {
"index" : 7,
"articleIndex" : "41841",
"favor" :  False ,
     "read" : False,    
"title" : "组图：温碧霞抹胸裙性感捧场《微交少女》",
"titleTip" : "组图：温碧霞抹胸裙性感捧场《微交少女》",
"titleSummary" : "组图：温碧霞抹胸裙性感捧场《微交少女》",
"descSummary" : "",
"url" : "http:\/\/go.rss.sina.com.cn\/redirect.php?url=http:\/\/slide.ent.sina.com.cn\/film\/slide_4_704_68394.html",
"pubDate" : "11:06:30",
"enterDate" : "384200:34:24",
"channelId" : "2894378604168576095",
"channelName" : "电影宝库-新浪娱乐",
"channelNameSummary" : "电影宝库-新浪娱乐",
"channelUrl" : "http:\/\/ent.sina.com.cn\/2013old\/film\/index.shtml",
"author" : "WWW.SINA.COM.CN",
"tags" : [],
"desc" : "",
"emailed" : False,
"forwarded" : False,
"english" : False
}  , {
"index" : 8,
"articleIndex" : "41839",
"favor" :  False ,
     "read" : False,    
"title" : "张学友无酬演出挺新导演 推刘德华任会长",
"titleTip" : "张学友无酬演出挺新导演 推刘德华任会长",
"titleSummary" : "张学友无酬演出挺新导演 推刘德华任会长",
"descSummary" : "",
"url" : "http:\/\/go.rss.sina.com.cn\/redirect.php?url=http:\/\/ent.sina.com.cn\/m\/c\/2013-10-30\/10574033341.shtml",
"pubDate" : "10:57:18",
"enterDate" : "384200:55:17",
"channelId" : "2894378604168576095",
"channelName" : "电影宝库-新浪娱乐",
"channelNameSummary" : "电影宝库-新浪娱乐",
"channelUrl" : "http:\/\/ent.sina.com.cn\/2013old\/film\/index.shtml",
"author" : "WWW.SINA.COM.CN",
"tags" : [],
"desc" : "",
"emailed" : False,
"forwarded" : False,
"english" : False
}  , {
"index" : 9,
"articleIndex" : "41838",
"favor" :  False ,
     "read" : False,    
"title" : "《扫毒》打破双雄模式 开启港片三核时代",
"titleTip" : "《扫毒》打破双雄模式 开启港片三核时代",
"titleSummary" : "《扫毒》打破双雄模式 开启港片三核时代",
"descSummary" : "",
"url" : "http:\/\/go.rss.sina.com.cn\/redirect.php?url=http:\/\/ent.sina.com.cn\/m\/c\/2013-10-30\/10474033303.shtml",
"pubDate" : "10:47:17",
"enterDate" : "384200:45:16",
"channelId" : "2894378604168576095",
"channelName" : "电影宝库-新浪娱乐",
"channelNameSummary" : "电影宝库-新浪娱乐",
"channelUrl" : "http:\/\/ent.sina.com.cn\/2013old\/film\/index.shtml",
"author" : "WWW.SINA.COM.CN",
"tags" : [],
"desc" : "",
"emailed" : False,
"forwarded" : False,
"english" : False
}  , {
"index" : 10,
"articleIndex" : "41837",
"favor" :  False ,
     "read" : False,    
"title" : "《猎仇者》曝终极预告 血腥打斗口味重",
"titleTip" : "《猎仇者》曝终极预告 血腥打斗口味重",
"titleSummary" : "《猎仇者》曝终极预告 血腥打斗口味重",
"descSummary" : "",
"url" : "http:\/\/go.rss.sina.com.cn\/redirect.php?url=http:\/\/ent.sina.com.cn\/m\/c\/2013-10-30\/10424033296.shtml",
"pubDate" : "10:42:12",
"enterDate" : "384200:40:11",
"channelId" : "2894378604168576095",
"channelName" : "电影宝库-新浪娱乐",
"channelNameSummary" : "电影宝库-新浪娱乐",
"channelUrl" : "http:\/\/ent.sina.com.cn\/2013old\/film\/index.shtml",
"author" : "WWW.SINA.COM.CN",
"tags" : [],
"desc" : "",
"emailed" : False,
"forwarded" : False,
"english" : False
}  , {
"index" : 11,
"articleIndex" : "41836",
"favor" :  False ,
     "read" : False,    
"title" : "《斯大林格勒》31日上映 曾邀周润发出演",
"titleTip" : "《斯大林格勒》31日上映 曾邀周润发出演",
"titleSummary" : "《斯大林格勒》31日上映 曾邀周润发出演",
"descSummary" : "",
"url" : "http:\/\/go.rss.sina.com.cn\/redirect.php?url=http:\/\/ent.sina.com.cn\/m\/f\/2013-10-30\/10354033279.shtml",
"pubDate" : "10:35:14",
"enterDate" : "384200:33:13",
"channelId" : "2894378604168576095",
"channelName" : "电影宝库-新浪娱乐",
"channelNameSummary" : "电影宝库-新浪娱乐",
"channelUrl" : "http:\/\/ent.sina.com.cn\/2013old\/film\/index.shtml",
"author" : "WWW.SINA.COM.CN",
"tags" : [],
"desc" : "",
"emailed" : False,
"forwarded" : False,
"english" : False
}  , {
"index" : 12,
"articleIndex" : "41835",
"favor" :  False ,
     "read" : False,    
"title" : "组图：吴千语叹没空庆生 与林峰情侣同台",
"titleTip" : "组图：吴千语叹没空庆生 与林峰情侣同台",
"titleSummary" : "组图：吴千语叹没空庆生 与林峰情侣同台",
"descSummary" : "",
"url" : "http:\/\/go.rss.sina.com.cn\/redirect.php?url=http:\/\/ent.sina.com.cn\/m\/c\/2013-10-30\/10314033273.shtml",
"pubDate" : "10:31:22",
"enterDate" : "384200:29:21",
"channelId" : "2894378604168576095",
"channelName" : "电影宝库-新浪娱乐",
"channelNameSummary" : "电影宝库-新浪娱乐",
"channelUrl" : "http:\/\/ent.sina.com.cn\/2013old\/film\/index.shtml",
"author" : "WWW.SINA.COM.CN",
"tags" : [],
"desc" : "",
"emailed" : False,
"forwarded" : False,
"english" : False
}  , {
"index" : 13,
"articleIndex" : "41834",
"favor" :  False ,
     "read" : False,    
"title" : "《地心引力》3D逼真 体验茫茫宇宙失重感",
"titleTip" : "《地心引力》3D逼真 体验茫茫宇宙失重感",
"titleSummary" : "《地心引力》3D逼真 体验茫茫宇宙失重感",
"descSummary" : "",
"url" : "http:\/\/go.rss.sina.com.cn\/redirect.php?url=http:\/\/ent.sina.com.cn\/m\/f\/2013-10-30\/10224033255.shtml",
"pubDate" : "10:22:09",
"enterDate" : "384200:50:13",
"channelId" : "2894378604168576095",
"channelName" : "电影宝库-新浪娱乐",
"channelNameSummary" : "电影宝库-新浪娱乐",
"channelUrl" : "http:\/\/ent.sina.com.cn\/2013old\/film\/index.shtml",
"author" : "WWW.SINA.COM.CN",
"tags" : [],
"desc" : "",
"emailed" : False,
"forwarded" : False,
"english" : False
}  , {
"index" : 14,
"articleIndex" : "41833",
"favor" :  False ,
     "read" : False,    
"title" : "杨采妮宣布婚讯 出席《圣诞玫瑰》宣传",
"titleTip" : "杨采妮宣布婚讯 出席《圣诞玫瑰》宣传",
"titleSummary" : "杨采妮宣布婚讯 出席《圣诞玫瑰》宣传",
"descSummary" : "",
"url" : "http:\/\/go.rss.sina.com.cn\/redirect.php?url=http:\/\/ent.sina.com.cn\/m\/c\/2013-10-30\/10064033230.shtml",
"pubDate" : "10:06:45",
"enterDate" : "384200:34:49",
"channelId" : "2894378604168576095",
"channelName" : "电影宝库-新浪娱乐",
"channelNameSummary" : "电影宝库-新浪娱乐",
"channelUrl" : "http:\/\/ent.sina.com.cn\/2013old\/film\/index.shtml",
"author" : "WWW.SINA.COM.CN",
"tags" : [],
"desc" : "",
"emailed" : False,
"forwarded" : False,
"english" : False
}  , {
"index" : 15,
"articleIndex" : "41832",
"favor" :  False ,
     "read" : False,    
"title" : "麦基欣赏《泰濉 不看好《宗师》冲奥",
"titleTip" : "麦基欣赏《泰濉 不看好《宗师》冲奥",
"titleSummary" : "麦基欣赏《泰濉 不看好《宗师》冲奥",
"descSummary" : "",
"url" : "http:\/\/go.rss.sina.com.cn\/redirect.php?url=http:\/\/ent.sina.com.cn\/m\/f\/2013-10-30\/10054033229.shtml",
"pubDate" : "10:05:29",
"enterDate" : "384200:33:33",
"channelId" : "2894378604168576095",
"channelName" : "电影宝库-新浪娱乐",
"channelNameSummary" : "电影宝库-新浪娱乐",
"channelUrl" : "http:\/\/ent.sina.com.cn\/2013old\/film\/index.shtml",
"author" : "WWW.SINA.COM.CN",
"tags" : [],
"desc" : "",
"emailed" : False,
"forwarded" : False,
"english" : False
}  , {
"index" : 16,
"articleIndex" : "41831",
"favor" :  False ,
     "read" : False,    
"title" : "《相亲狂》办发布会 韩雪遭半裸男强抱",
"titleTip" : "《相亲狂》办发布会 韩雪遭半裸男强抱",
"titleSummary" : "《相亲狂》办发布会 韩雪遭半裸男强抱",
"descSummary" : "",
"url" : "http:\/\/go.rss.sina.com.cn\/redirect.php?url=http:\/\/ent.sina.com.cn\/m\/c\/2013-10-30\/09514033202.shtml",
"pubDate" : "09:51:55",
"enterDate" : "384200:19:59",
"channelId" : "2894378604168576095",
"channelName" : "电影宝库-新浪娱乐",
"channelNameSummary" : "电影宝库-新浪娱乐",
"channelUrl" : "http:\/\/ent.sina.com.cn\/2013old\/film\/index.shtml",
"author" : "WWW.SINA.COM.CN",
"tags" : [],
"desc" : "",
"emailed" : False,
"forwarded" : False,
"english" : False
}  , {
"index" : 17,
"articleIndex" : "41830",
"favor" :  False ,
     "read" : False,    
"title" : "组图：BigBang郑宇成等助阵《同窗生》",
"titleTip" : "组图：BigBang郑宇成等助阵《同窗生》",
"titleSummary" : "组图：BigBang郑宇成等助阵《同窗生》",
"descSummary" : "",
"url" : "http:\/\/go.rss.sina.com.cn\/redirect.php?url=http:\/\/slide.ent.sina.com.cn\/film\/k\/slide_4_704_68375.html",
"pubDate" : "09:24:36",
"enterDate" : "384200:22:45",
"channelId" : "2894378604168576095",
"channelName" : "电影宝库-新浪娱乐",
"channelNameSummary" : "电影宝库-新浪娱乐",
"channelUrl" : "http:\/\/ent.sina.com.cn\/2013old\/film\/index.shtml",
"author" : "WWW.SINA.COM.CN",
"tags" : [],
"desc" : "",
"emailed" : False,
"forwarded" : False,
"english" : False
}  , {
"index" : 18,
"articleIndex" : "41829",
"favor" :  False ,
     "read" : False,    
"title" : "德普凯奇变南瓜 经典鬼怪角色助兴万圣节",
"titleTip" : "德普凯奇变南瓜 经典鬼怪角色助兴万圣节",
"titleSummary" : "德普凯奇变南瓜 经典鬼怪角色助兴万圣节",
"descSummary" : "",
"url" : "http:\/\/go.rss.sina.com.cn\/redirect.php?url=http:\/\/slide.ent.sina.com.cn\/film\/slide_4_704_68373.html",
"pubDate" : "09:11:33",
"enterDate" : "384201:09:52",
"channelId" : "2894378604168576095",
"channelName" : "电影宝库-新浪娱乐",
"channelNameSummary" : "电影宝库-新浪娱乐",
"channelUrl" : "http:\/\/ent.sina.com.cn\/2013old\/film\/index.shtml",
"author" : "WWW.SINA.COM.CN",
"tags" : [],
"desc" : "",
"emailed" : False,
"forwarded" : False,
"english" : False
}  , {
"index" : 19,
"articleIndex" : "41828",
"favor" :  False ,
     "read" : False,    
"title" : "《金蝉》史泰龙击伤阿诺 疑泄同妻之恨",
"titleTip" : "《金蝉》史泰龙击伤阿诺 疑泄同妻之恨",
"titleSummary" : "《金蝉》史泰龙击伤阿诺 疑泄同妻之恨",
"descSummary" : "",
"url" : "http:\/\/go.rss.sina.com.cn\/redirect.php?url=http:\/\/ent.sina.com.cn\/m\/f\/2013-10-30\/08224033154.shtml",
"pubDate" : "08:22:00",
"enterDate" : "384200:20:19",
"channelId" : "2894378604168576095",
"channelName" : "电影宝库-新浪娱乐",
"channelNameSummary" : "电影宝库-新浪娱乐",
"channelUrl" : "http:\/\/ent.sina.com.cn\/2013old\/film\/index.shtml",
"author" : "WWW.SINA.COM.CN",
"tags" : [],
"desc" : "",
"emailed" : False,
"forwarded" : False,
"english" : False
} ]
}
