{
"mode" : {"viewTitle" : 1,   "viewNew" : 0,  "pageIndex" : 2 },
 "channel" : {"id" : "2894378604168576095", "booked" : False, "subNumber" : 54, "name" : "电影宝库-新浪娱乐", "url" : "http:\/\/ent.sina.com.cn\/2013old\/film\/index.shtml", "feed" : "http:\/\/rss.sina.com.cn\/ent\/film\/focus7.xml", "author" : "WWW.SINA.COM.CN", "desc" : "电影宝库-焦点新闻", "imageUrl" : "http:\/\/www.sinaimg.cn\/home\/deco\/2009\/0330\/logo_home_ent.gif", "postPerWeek" : "0", "lastCrawTime" : "16:52:05", "crawDateTime" : "16:52:05", "lastHttpCode" : "200"}, "page" : {
"startIndex" : 20,
"totalCount" : 5000,
"pageIndex" : 2,
"lastPage" : 250,
"pageSize" : 20,
"english" :  False },
 "unreadNum" : 0, "shotIndex" : -1,
"articles" : [
{
"index" : 0,
"articleIndex" : "41827",
"favor" :  False ,
     "read" : False,    
"title" : "谢霆锋与高圆圆演纯爱片 拍亲热戏尴尬",
"titleTip" : "谢霆锋与高圆圆演纯爱片 拍亲热戏尴尬",
"titleSummary" : "谢霆锋与高圆圆演纯爱片 拍亲热戏尴尬",
"descSummary" : "",
"url" : "http:\/\/go.rss.sina.com.cn\/redirect.php?url=http:\/\/ent.sina.com.cn\/m\/c\/2013-10-30\/08074033149.shtml",
"pubDate" : "08:07:26",
"enterDate" : "384200:35:51",
"channelId" : "2894378604168576095",
"channelName" : "电影宝库-新浪娱乐",
"channelNameSummary" : "电影宝库-新浪娱乐",
"channelUrl" : "http:\/\/ent.sina.com.cn\/2013old\/film\/index.shtml",
"author" : "WWW.SINA.COM.CN",
"tags" : [],
"desc" : "",
"emailed" : False,
"forwarded" : False,
"english" : False
}  , {
"index" : 1,
"articleIndex" : "41826",
"favor" :  False ,
     "read" : False,    
"title" : "《变4》武隆开机 剧组自掏腰包种植被",
"titleTip" : "《变4》武隆开机 剧组自掏腰包种植被",
"titleSummary" : "《变4》武隆开机 剧组自掏腰包种植被",
"descSummary" : "",
"url" : "http:\/\/go.rss.sina.com.cn\/redirect.php?url=http:\/\/ent.sina.com.cn\/m\/f\/2013-10-30\/05004033083.shtml",
"pubDate" : "昨天05:00:04",
"enterDate" : "384197:28:29",
"channelId" : "2894378604168576095",
"channelName" : "电影宝库-新浪娱乐",
"channelNameSummary" : "电影宝库-新浪娱乐",
"channelUrl" : "http:\/\/ent.sina.com.cn\/2013old\/film\/index.shtml",
"author" : "WWW.SINA.COM.CN",
"tags" : [],
"desc" : "",
"emailed" : False,
"forwarded" : False,
"english" : False
}  , {
"index" : 2,
"articleIndex" : "41825",
"favor" :  False ,
     "read" : False,    
"title" : "汤姆-希德勒斯顿：我很想演骑马的牛仔",
"titleTip" : "汤姆-希德勒斯顿：我很想演骑马的牛仔",
"titleSummary" : "汤姆-希德勒斯顿：我很想演骑马的牛仔",
"descSummary" : "",
"url" : "http:\/\/go.rss.sina.com.cn\/redirect.php?url=http:\/\/ent.sina.com.cn\/m\/f\/2013-10-30\/02204033045.shtml",
"pubDate" : "昨天02:20:06",
"enterDate" : "384195:48:41",
"channelId" : "2894378604168576095",
"channelName" : "电影宝库-新浪娱乐",
"channelNameSummary" : "电影宝库-新浪娱乐",
"channelUrl" : "http:\/\/ent.sina.com.cn\/2013old\/film\/index.shtml",
"author" : "WWW.SINA.COM.CN",
"tags" : [],
"desc" : "",
"emailed" : False,
"forwarded" : False,
"english" : False
}  , {
"index" : 3,
"articleIndex" : "41824",
"favor" :  False ,
     "read" : False,    
"title" : "谢霆锋携高圆圆拍爱情片 否认曾邀周迅",
"titleTip" : "谢霆锋携高圆圆拍爱情片 否认曾邀周迅",
"titleSummary" : "谢霆锋携高圆圆拍爱情片 否认曾邀周迅",
"descSummary" : "",
"url" : "http:\/\/go.rss.sina.com.cn\/redirect.php?url=http:\/\/ent.sina.com.cn\/m\/c\/2013-10-30\/00204033025.shtml",
"pubDate" : "昨天00:20:41",
"enterDate" : "384193:49:16",
"channelId" : "2894378604168576095",
"channelName" : "电影宝库-新浪娱乐",
"channelNameSummary" : "电影宝库-新浪娱乐",
"channelUrl" : "http:\/\/ent.sina.com.cn\/2013old\/film\/index.shtml",
"author" : "WWW.SINA.COM.CN",
"tags" : [],
"desc" : "",
"emailed" : False,
"forwarded" : False,
"english" : False
}  , {
"index" : 4,
"articleIndex" : "41823",
"favor" :  False ,
     "read" : False,    
"title" : "《斯大林格勒》首映 任重等明星捧场助阵",
"titleTip" : "《斯大林格勒》首映 任重等明星捧场助阵",
"titleSummary" : "《斯大林格勒》首映 任重等明星捧场助阵",
"descSummary" : "",
"url" : "http:\/\/go.rss.sina.com.cn\/redirect.php?url=http:\/\/ent.sina.com.cn\/m\/f\/2013-10-29\/23364033009.shtml",
"pubDate" : "昨天23:36:32",
"enterDate" : "384193:05:07",
"channelId" : "2894378604168576095",
"channelName" : "电影宝库-新浪娱乐",
"channelNameSummary" : "电影宝库-新浪娱乐",
"channelUrl" : "http:\/\/ent.sina.com.cn\/2013old\/film\/index.shtml",
"author" : "WWW.SINA.COM.CN",
"tags" : [],
"desc" : "",
"emailed" : False,
"forwarded" : False,
"english" : False
}  , {
"index" : 5,
"articleIndex" : "41821",
"favor" :  False ,
     "read" : False,    
"title" : "《甜心巧克力》曝终极预告 林志玲告白",
"titleTip" : "《甜心巧克力》曝终极预告 林志玲告白",
"titleSummary" : "《甜心巧克力》曝终极预告 林志玲告白",
"descSummary" : "",
"url" : "http:\/\/go.rss.sina.com.cn\/redirect.php?url=http:\/\/ent.sina.com.cn\/m\/c\/2013-10-29\/22174032998.shtml",
"pubDate" : "昨天22:17:24",
"enterDate" : "384199:47:19",
"channelId" : "2894378604168576095",
"channelName" : "电影宝库-新浪娱乐",
"channelNameSummary" : "电影宝库-新浪娱乐",
"channelUrl" : "http:\/\/ent.sina.com.cn\/2013old\/film\/index.shtml",
"author" : "WWW.SINA.COM.CN",
"tags" : [],
"desc" : "",
"emailed" : False,
"forwarded" : False,
"english" : False
}  , {
"index" : 6,
"articleIndex" : "41820",
"favor" :  False ,
     "read" : False,    
"title" : "《X战警前传2》首发预告 曝范冰冰造型",
"titleTip" : "《X战警前传2》首发预告 曝范冰冰造型",
"titleSummary" : "《X战警前传2》首发预告 曝范冰冰造型",
"descSummary" : "",
"url" : "http:\/\/go.rss.sina.com.cn\/redirect.php?url=http:\/\/ent.sina.com.cn\/m\/f\/2013-10-29\/22174032997.shtml",
"pubDate" : "昨天22:17:00",
"enterDate" : "384199:46:55",
"channelId" : "2894378604168576095",
"channelName" : "电影宝库-新浪娱乐",
"channelNameSummary" : "电影宝库-新浪娱乐",
"channelUrl" : "http:\/\/ent.sina.com.cn\/2013old\/film\/index.shtml",
"author" : "WWW.SINA.COM.CN",
"tags" : [],
"desc" : "",
"emailed" : False,
"forwarded" : False,
"english" : False
}  , {
"index" : 7,
"articleIndex" : "41817",
"favor" :  False ,
     "read" : False,    
"title" : "《扫毒》刘青云演火爆警探 面临虐心抉择",
"titleTip" : "《扫毒》刘青云演火爆警探 面临虐心抉择",
"titleSummary" : "《扫毒》刘青云演火爆警探 面临虐心抉择",
"descSummary" : "",
"url" : "http:\/\/go.rss.sina.com.cn\/redirect.php?url=http:\/\/ent.sina.com.cn\/m\/c\/2013-10-29\/22044032993.shtml",
"pubDate" : "昨天22:04:09",
"enterDate" : "384201:04:19",
"channelId" : "2894378604168576095",
"channelName" : "电影宝库-新浪娱乐",
"channelNameSummary" : "电影宝库-新浪娱乐",
"channelUrl" : "http:\/\/ent.sina.com.cn\/2013old\/film\/index.shtml",
"author" : "WWW.SINA.COM.CN",
"tags" : [],
"desc" : "",
"emailed" : False,
"forwarded" : False,
"english" : False
}  , {
"index" : 8,
"articleIndex" : "41822",
"favor" :  False ,
     "read" : False,    
"title" : "重庆景区为《变4》关闭 上万游客吃闭门羹",
"titleTip" : "重庆景区为《变4》关闭 上万游客吃闭门羹",
"titleSummary" : "重庆景区为《变4》关闭 上万游客吃闭门羹",
"descSummary" : "",
"url" : "http:\/\/go.rss.sina.com.cn\/redirect.php?url=http:\/\/ent.sina.com.cn\/m\/f\/2013-10-29\/21504032992.shtml",
"pubDate" : "昨天21:50:00",
"enterDate" : "384191:18:35",
"channelId" : "2894378604168576095",
"channelName" : "电影宝库-新浪娱乐",
"channelNameSummary" : "电影宝库-新浪娱乐",
"channelUrl" : "http:\/\/ent.sina.com.cn\/2013old\/film\/index.shtml",
"author" : "WWW.SINA.COM.CN",
"tags" : [],
"desc" : "",
"emailed" : False,
"forwarded" : False,
"english" : False
}  , {
"index" : 9,
"articleIndex" : "41819",
"favor" :  False ,
     "read" : False,    
"title" : "《好声音》曝电影宣传海报 全阵容集结",
"titleTip" : "《好声音》曝电影宣传海报 全阵容集结",
"titleSummary" : "《好声音》曝电影宣传海报 全阵容集结",
"descSummary" : "",
"url" : "http:\/\/go.rss.sina.com.cn\/redirect.php?url=http:\/\/ent.sina.com.cn\/m\/c\/2013-10-29\/21364032988.shtml",
"pubDate" : "昨天21:36:59",
"enterDate" : "384199:06:54",
"channelId" : "2894378604168576095",
"channelName" : "电影宝库-新浪娱乐",
"channelNameSummary" : "电影宝库-新浪娱乐",
"channelUrl" : "http:\/\/ent.sina.com.cn\/2013old\/film\/index.shtml",
"author" : "WWW.SINA.COM.CN",
"tags" : [],
"desc" : "",
"emailed" : False,
"forwarded" : False,
"english" : False
}  , {
"index" : 10,
"articleIndex" : "41818",
"favor" :  False ,
     "read" : False,    
"title" : "十一月内地观影指南：国产新片扎堆光棍节",
"titleTip" : "十一月内地观影指南：国产新片扎堆光棍节",
"titleSummary" : "十一月内地观影指南：国产新片扎堆光棍节",
"descSummary" : "",
"url" : "http:\/\/go.rss.sina.com.cn\/redirect.php?url=http:\/\/ent.sina.com.cn\/m\/c\/2013-10-29\/21034032985.shtml",
"pubDate" : "昨天21:03:00",
"enterDate" : "384198:32:55",
"channelId" : "2894378604168576095",
"channelName" : "电影宝库-新浪娱乐",
"channelNameSummary" : "电影宝库-新浪娱乐",
"channelUrl" : "http:\/\/ent.sina.com.cn\/2013old\/film\/index.shtml",
"author" : "WWW.SINA.COM.CN",
"tags" : [],
"desc" : "",
"emailed" : False,
"forwarded" : False,
"english" : False
}  , {
"index" : 11,
"articleIndex" : "41816",
"favor" :  False ,
     "read" : False,    
"title" : "《灵异日记》曝欲望海报 上演制服诱惑",
"titleTip" : "《灵异日记》曝欲望海报 上演制服诱惑",
"titleSummary" : "《灵异日记》曝欲望海报 上演制服诱惑",
"descSummary" : "",
"url" : "http:\/\/go.rss.sina.com.cn\/redirect.php?url=http:\/\/ent.sina.com.cn\/m\/c\/2013-10-29\/20384032980.shtml",
"pubDate" : "昨天20:38:12",
"enterDate" : "384199:38:22",
"channelId" : "2894378604168576095",
"channelName" : "电影宝库-新浪娱乐",
"channelNameSummary" : "电影宝库-新浪娱乐",
"channelUrl" : "http:\/\/ent.sina.com.cn\/2013old\/film\/index.shtml",
"author" : "WWW.SINA.COM.CN",
"tags" : [],
"desc" : "",
"emailed" : False,
"forwarded" : False,
"english" : False
}  , {
"index" : 12,
"articleIndex" : "41815",
"favor" :  False ,
     "read" : False,    
"title" : "成龙再演警察故事 明年与张艺谋合作",
"titleTip" : "成龙再演警察故事 明年与张艺谋合作",
"titleSummary" : "成龙再演警察故事 明年与张艺谋合作",
"descSummary" : "",
"url" : "http:\/\/go.rss.sina.com.cn\/redirect.php?url=http:\/\/ent.sina.com.cn\/m\/c\/2013-10-29\/19454032975.shtml",
"pubDate" : "昨天19:45:36",
"enterDate" : "384198:45:46",
"channelId" : "2894378604168576095",
"channelName" : "电影宝库-新浪娱乐",
"channelNameSummary" : "电影宝库-新浪娱乐",
"channelUrl" : "http:\/\/ent.sina.com.cn\/2013old\/film\/index.shtml",
"author" : "WWW.SINA.COM.CN",
"tags" : [],
"desc" : "",
"emailed" : False,
"forwarded" : False,
"english" : False
}  , {
"index" : 13,
"articleIndex" : "41814",
"favor" :  False ,
     "read" : False,    
"title" : "徐若u新戏制服诱惑 胸口被剪弹C奶(图)",
"titleTip" : "徐若u新戏制服诱惑 胸口被剪弹C奶(图)",
"titleSummary" : "徐若u新戏制服诱惑 胸口被剪弹C奶(图)",
"descSummary" : "",
"url" : "http:\/\/go.rss.sina.com.cn\/redirect.php?url=http:\/\/ent.sina.com.cn\/m\/c\/2013-10-29\/19014032968.shtml",
"pubDate" : "昨天19:01:47",
"enterDate" : "384198:01:57",
"channelId" : "2894378604168576095",
"channelName" : "电影宝库-新浪娱乐",
"channelNameSummary" : "电影宝库-新浪娱乐",
"channelUrl" : "http:\/\/ent.sina.com.cn\/2013old\/film\/index.shtml",
"author" : "WWW.SINA.COM.CN",
"tags" : [],
"desc" : "",
"emailed" : False,
"forwarded" : False,
"english" : False
}  , {
"index" : 14,
"articleIndex" : "41813",
"favor" :  False ,
     "read" : False,    
"title" : "金马50周年 58位历届得主将携手亮相",
"titleTip" : "金马50周年 58位历届得主将携手亮相",
"titleSummary" : "金马50周年 58位历届得主将携手亮相",
"descSummary" : "",
"url" : "http:\/\/go.rss.sina.com.cn\/redirect.php?url=http:\/\/ent.sina.com.cn\/m\/c\/2013-10-29\/18484032965.shtml",
"pubDate" : "昨天18:48:43",
"enterDate" : "384197:48:53",
"channelId" : "2894378604168576095",
"channelName" : "电影宝库-新浪娱乐",
"channelNameSummary" : "电影宝库-新浪娱乐",
"channelUrl" : "http:\/\/ent.sina.com.cn\/2013old\/film\/index.shtml",
"author" : "WWW.SINA.COM.CN",
"tags" : [],
"desc" : "",
"emailed" : False,
"forwarded" : False,
"english" : False
}  , {
"index" : 15,
"articleIndex" : "41812",
"favor" :  False ,
     "read" : False,    
"title" : "《黑金杀机》票房惨败 再多明星也没用",
"titleTip" : "《黑金杀机》票房惨败 再多明星也没用",
"titleSummary" : "《黑金杀机》票房惨败 再多明星也没用",
"descSummary" : "",
"url" : "http:\/\/go.rss.sina.com.cn\/redirect.php?url=http:\/\/ent.sina.com.cn\/m\/f\/2013-10-29\/17444032934.shtml",
"pubDate" : "昨天17:44:39",
"enterDate" : "384196:44:49",
"channelId" : "2894378604168576095",
"channelName" : "电影宝库-新浪娱乐",
"channelNameSummary" : "电影宝库-新浪娱乐",
"channelUrl" : "http:\/\/ent.sina.com.cn\/2013old\/film\/index.shtml",
"author" : "WWW.SINA.COM.CN",
"tags" : [],
"desc" : "",
"emailed" : False,
"forwarded" : False,
"english" : False
}  , {
"index" : 16,
"articleIndex" : "41811",
"favor" :  False ,
     "read" : False,    
"title" : "TOP宣传《同窗生》金有贞突破挑战镂空装",
"titleTip" : "TOP宣传《同窗生》金有贞突破挑战镂空装",
"titleSummary" : "TOP宣传《同窗生》金有贞突破挑战镂空装",
"descSummary" : "",
"url" : "http:\/\/go.rss.sina.com.cn\/redirect.php?url=http:\/\/slide.ent.sina.com.cn\/film\/k\/slide_4_704_68357.html",
"pubDate" : "昨天17:43:42",
"enterDate" : "384196:43:52",
"channelId" : "2894378604168576095",
"channelName" : "电影宝库-新浪娱乐",
"channelNameSummary" : "电影宝库-新浪娱乐",
"channelUrl" : "http:\/\/ent.sina.com.cn\/2013old\/film\/index.shtml",
"author" : "WWW.SINA.COM.CN",
"tags" : [],
"desc" : "",
"emailed" : False,
"forwarded" : False,
"english" : False
}  , {
"index" : 17,
"articleIndex" : "41810",
"favor" :  False ,
     "read" : False,    
"title" : "《女敢死队》邀奥斯卡影后斯特里普出演",
"titleTip" : "《女敢死队》邀奥斯卡影后斯特里普出演",
"titleSummary" : "《女敢死队》邀奥斯卡影后斯特里普出演",
"descSummary" : "",
"url" : "http:\/\/go.rss.sina.com.cn\/redirect.php?url=http:\/\/ent.sina.com.cn\/m\/f\/2013-10-29\/17274032919.shtml",
"pubDate" : "昨天17:27:52",
"enterDate" : "384196:28:02",
"channelId" : "2894378604168576095",
"channelName" : "电影宝库-新浪娱乐",
"channelNameSummary" : "电影宝库-新浪娱乐",
"channelUrl" : "http:\/\/ent.sina.com.cn\/2013old\/film\/index.shtml",
"author" : "WWW.SINA.COM.CN",
"tags" : [],
"desc" : "",
"emailed" : False,
"forwarded" : False,
"english" : False
}  , {
"index" : 18,
"articleIndex" : "41809",
"favor" :  False ,
     "read" : False,    
"title" : "《No Breathing》曝剧照 李钟硕湿身诱惑",
"titleTip" : "《No Breathing》曝剧照 李钟硕湿身诱惑",
"titleSummary" : "《No Breathing》曝剧照 李钟硕湿身诱惑",
"descSummary" : "",
"url" : "http:\/\/go.rss.sina.com.cn\/redirect.php?url=http:\/\/ent.sina.com.cn\/m\/f\/k\/2013-10-29\/15504032838.shtml",
"pubDate" : "昨天15:50:29",
"enterDate" : "384200:51:39",
"channelId" : "2894378604168576095",
"channelName" : "电影宝库-新浪娱乐",
"channelNameSummary" : "电影宝库-新浪娱乐",
"channelUrl" : "http:\/\/ent.sina.com.cn\/2013old\/film\/index.shtml",
"author" : "WWW.SINA.COM.CN",
"tags" : [],
"desc" : "",
"emailed" : False,
"forwarded" : False,
"english" : False
}  , {
"index" : 19,
"articleIndex" : "41808",
"favor" :  False ,
     "read" : False,    
"title" : "传陈坤加盟《鬼吹灯》 回应：还在接触中",
"titleTip" : "传陈坤加盟《鬼吹灯》 回应：还在接触中",
"titleSummary" : "传陈坤加盟《鬼吹灯》 回应：还在接触中",
"descSummary" : "",
"url" : "http:\/\/go.rss.sina.com.cn\/redirect.php?url=http:\/\/ent.sina.com.cn\/m\/c\/w\/2013-10-29\/15414032828.shtml",
"pubDate" : "昨天15:41:33",
"enterDate" : "384200:42:43",
"channelId" : "2894378604168576095",
"channelName" : "电影宝库-新浪娱乐",
"channelNameSummary" : "电影宝库-新浪娱乐",
"channelUrl" : "http:\/\/ent.sina.com.cn\/2013old\/film\/index.shtml",
"author" : "WWW.SINA.COM.CN",
"tags" : [],
"desc" : "",
"emailed" : False,
"forwarded" : False,
"english" : False
} ]
}
