{
"mode" : {"viewTitle" : 1,   "viewNew" : 0,  "pageIndex" : 1 },
 "channel" : {"id" : "8456365531877240559", "booked" : False, "subNumber" : 1, "name" : "家居-新浪博客", "url" : "http:\/\/blog.sina.com.cn\/lm\/decor\/", "feed" : "http:\/\/rss.sina.com.cn\/blog\/decor\/jiaju.xml", "author" : "WWW.SINA.COM.CN", "desc" : "家居博客列表", "imageUrl" : "http:\/\/www.sinaimg.cn\/blog\/main\/index2010\/blog_logo.png", "postPerWeek" : "0", "lastCrawTime" : "17:16:30", "crawDateTime" : "15:46:11", "lastHttpCode" : "200"}, "page" : {
"startIndex" : 0,
"totalCount" : 4773,
"pageIndex" : 1,
"lastPage" : 239,
"pageSize" : 20,
"english" :  False },
 "unreadNum" : 0, "shotIndex" : -1,
"articles" : [
{
"index" : 0,
"articleIndex" : "4772",
"favor" :  False ,
     "read" : False,    
"title" : "红尘玄学论:关于钱包的风水学",
"titleTip" : "红尘玄学论:关于钱包的风水学",
"titleSummary" : "红尘玄学论:关于钱包的风水学",
"descSummary" : "",
"url" : "http:\/\/go.rss.sina.com.cn\/redirect.php?url=http:\/\/blog.sina.com.cn\/s\/blog_4bb8661c0102es68.html",
"pubDate" : "昨天15:31:41",
"enterDate" : "384198:54:04",
"channelId" : "8456365531877240559",
"channelName" : "家居-新浪博客",
"channelNameSummary" : "家居-新浪博客",
"channelUrl" : "http:\/\/blog.sina.com.cn\/lm\/decor\/",
"author" : "WWW.SINA.COM.CN",
"tags" : [],
"desc" : "",
"emailed" : False,
"forwarded" : False,
"english" : False
}  , {
"index" : 1,
"articleIndex" : "4771",
"favor" :  False ,
     "read" : False,    
"title" : "话说瓷砖施工中的泡水问题",
"titleTip" : "话说瓷砖施工中的泡水问题",
"titleSummary" : "话说瓷砖施工中的泡水问题",
"descSummary" : "",
"url" : "http:\/\/go.rss.sina.com.cn\/redirect.php?url=http:\/\/blog.sina.com.cn\/s\/blog_45c874ed0100mds5.html",
"pubDate" : "前天15:51:02",
"enterDate" : "384199:17:41",
"channelId" : "8456365531877240559",
"channelName" : "家居-新浪博客",
"channelNameSummary" : "家居-新浪博客",
"channelUrl" : "http:\/\/blog.sina.com.cn\/lm\/decor\/",
"author" : "WWW.SINA.COM.CN",
"tags" : [],
"desc" : "",
"emailed" : False,
"forwarded" : False,
"english" : False
}  , {
"index" : 2,
"articleIndex" : "4770",
"favor" :  False ,
     "read" : False,    
"title" : "鱼缸究竟摆哪最旺财？",
"titleTip" : "鱼缸究竟摆哪最旺财？",
"titleSummary" : "鱼缸究竟摆哪最旺财？",
"descSummary" : "",
"url" : "http:\/\/go.rss.sina.com.cn\/redirect.php?url=http:\/\/blog.sina.com.cn\/s\/blog_8d13bb000101eu7z.html",
"pubDate" : "2013年10月25日 (5天前)",
"enterDate" : "384194:58:56",
"channelId" : "8456365531877240559",
"channelName" : "家居-新浪博客",
"channelNameSummary" : "家居-新浪博客",
"channelUrl" : "http:\/\/blog.sina.com.cn\/lm\/decor\/",
"author" : "WWW.SINA.COM.CN",
"tags" : [],
"desc" : "",
"emailed" : False,
"forwarded" : False,
"english" : False
}  , {
"index" : 3,
"articleIndex" : "4769",
"favor" :  False ,
     "read" : False,    
"title" : "引爆大宅尊贵休闲 382O昌平园别墅爱家",
"titleTip" : "引爆大宅尊贵休闲 382O昌平园别墅爱家",
"titleSummary" : "引爆大宅尊贵休闲 382O昌平园别墅爱家",
"descSummary" : "",
"url" : "http:\/\/go.rss.sina.com.cn\/redirect.php?url=http:\/\/blog.sina.com.cn\/s\/blog_5f0b1a5a0102ee3o.html",
"pubDate" : "2013年10月22日 (1周前)",
"enterDate" : "384194:38:03",
"channelId" : "8456365531877240559",
"channelName" : "家居-新浪博客",
"channelNameSummary" : "家居-新浪博客",
"channelUrl" : "http:\/\/blog.sina.com.cn\/lm\/decor\/",
"author" : "WWW.SINA.COM.CN",
"tags" : [],
"desc" : "",
"emailed" : False,
"forwarded" : False,
"english" : False
}  , {
"index" : 4,
"articleIndex" : "4768",
"favor" :  False ,
     "read" : False,    
"title" : "火灾预警看风水",
"titleTip" : "火灾预警看风水",
"titleSummary" : "火灾预警看风水",
"descSummary" : "",
"url" : "http:\/\/go.rss.sina.com.cn\/redirect.php?url=http:\/\/blog.sina.com.cn\/s\/blog_4bb8661c0102erv8.html",
"pubDate" : "2013年10月21日 (1周前)",
"enterDate" : "384200:40:43",
"channelId" : "8456365531877240559",
"channelName" : "家居-新浪博客",
"channelNameSummary" : "家居-新浪博客",
"channelUrl" : "http:\/\/blog.sina.com.cn\/lm\/decor\/",
"author" : "WWW.SINA.COM.CN",
"tags" : [],
"desc" : "",
"emailed" : False,
"forwarded" : False,
"english" : False
}  , {
"index" : 5,
"articleIndex" : "4767",
"favor" :  False ,
     "read" : False,    
"title" : "打造雁栖半岛别墅 欧式宫廷气息样板间",
"titleTip" : "打造雁栖半岛别墅 欧式宫廷气息样板间",
"titleSummary" : "打造雁栖半岛别墅 欧式宫廷气息样板间",
"descSummary" : "",
"url" : "http:\/\/go.rss.sina.com.cn\/redirect.php?url=http:\/\/blog.sina.com.cn\/s\/blog_8a70be910101fg66.html",
"pubDate" : "2013年10月18日 (1周前)",
"enterDate" : "384200:30:42",
"channelId" : "8456365531877240559",
"channelName" : "家居-新浪博客",
"channelNameSummary" : "家居-新浪博客",
"channelUrl" : "http:\/\/blog.sina.com.cn\/lm\/decor\/",
"author" : "WWW.SINA.COM.CN",
"tags" : [],
"desc" : "",
"emailed" : False,
"forwarded" : False,
"english" : False
}  , {
"index" : 6,
"articleIndex" : "4766",
"favor" :  False ,
     "read" : False,    
"title" : "上林世家（209平米）新中式设计案例赏析",
"titleTip" : "上林世家（209平米）新中式设计案例赏析",
"titleSummary" : "上林世家（209平米）新中式设计案例赏析",
"descSummary" : "",
"url" : "http:\/\/go.rss.sina.com.cn\/redirect.php?url=http:\/\/blog.sina.com.cn\/s\/blog_5d57fde10101ameq.html",
"pubDate" : "2013年10月17日 (1周前)",
"enterDate" : "384198:11:57",
"channelId" : "8456365531877240559",
"channelName" : "家居-新浪博客",
"channelNameSummary" : "家居-新浪博客",
"channelUrl" : "http:\/\/blog.sina.com.cn\/lm\/decor\/",
"author" : "WWW.SINA.COM.CN",
"tags" : [],
"desc" : "",
"emailed" : False,
"forwarded" : False,
"english" : False
}  , {
"index" : 7,
"articleIndex" : "4765",
"favor" :  False ,
     "read" : False,    
"title" : "写给空间的情书 极美设计机构实景作品",
"titleTip" : "写给空间的情书 极美设计机构实景作品",
"titleSummary" : "写给空间的情书 极美设计机构实景作品",
"descSummary" : "",
"url" : "http:\/\/go.rss.sina.com.cn\/redirect.php?url=http:\/\/blog.sina.com.cn\/s\/blog_6320277a01017w5r.html",
"pubDate" : "2013年10月16日 (2周前)",
"enterDate" : "384199:59:14",
"channelId" : "8456365531877240559",
"channelName" : "家居-新浪博客",
"channelNameSummary" : "家居-新浪博客",
"channelUrl" : "http:\/\/blog.sina.com.cn\/lm\/decor\/",
"author" : "WWW.SINA.COM.CN",
"tags" : [],
"desc" : "",
"emailed" : False,
"forwarded" : False,
"english" : False
}  , {
"index" : 8,
"articleIndex" : "4764",
"favor" :  False ,
     "read" : False,    
"title" : "买房子一定要避开\u201C万箭穿心\u201D局",
"titleTip" : "买房子一定要避开\u201C万箭穿心\u201D局",
"titleSummary" : "买房子一定要避开\u201C万箭穿心\u201D局",
"descSummary" : "",
"url" : "http:\/\/go.rss.sina.com.cn\/redirect.php?url=http:\/\/blog.sina.com.cn\/s\/blog_565c54780101gd5w.html",
"pubDate" : "2013年10月15日 (2周前)",
"enterDate" : "384194:18:14",
"channelId" : "8456365531877240559",
"channelName" : "家居-新浪博客",
"channelNameSummary" : "家居-新浪博客",
"channelUrl" : "http:\/\/blog.sina.com.cn\/lm\/decor\/",
"author" : "WWW.SINA.COM.CN",
"tags" : [],
"desc" : "",
"emailed" : False,
"forwarded" : False,
"english" : False
}  , {
"index" : 9,
"articleIndex" : "4763",
"favor" :  False ,
     "read" : False,    
"title" : "孕前需作的9条风水准备",
"titleTip" : "孕前需作的9条风水准备",
"titleSummary" : "孕前需作的9条风水准备",
"descSummary" : "",
"url" : "http:\/\/go.rss.sina.com.cn\/redirect.php?url=http:\/\/blog.sina.com.cn\/s\/blog_8d13bb000101ekuh.html",
"pubDate" : "2013年10月14日 (2周前)",
"enterDate" : "384195:24:11",
"channelId" : "8456365531877240559",
"channelName" : "家居-新浪博客",
"channelNameSummary" : "家居-新浪博客",
"channelUrl" : "http:\/\/blog.sina.com.cn\/lm\/decor\/",
"author" : "WWW.SINA.COM.CN",
"tags" : [],
"desc" : "",
"emailed" : False,
"forwarded" : False,
"english" : False
}  , {
"index" : 10,
"articleIndex" : "4762",
"favor" :  False ,
     "read" : False,    
"title" : "肌肉厚实的手和肌肉单薄的手",
"titleTip" : "肌肉厚实的手和肌肉单薄的手",
"titleSummary" : "肌肉厚实的手和肌肉单薄的手",
"descSummary" : "",
"url" : "http:\/\/go.rss.sina.com.cn\/redirect.php?url=http:\/\/blog.sina.com.cn\/s\/blog_613bd5580101nxiu.html",
"pubDate" : "2013年10月14日 (2周前)",
"enterDate" : "384195:22:39",
"channelId" : "8456365531877240559",
"channelName" : "家居-新浪博客",
"channelNameSummary" : "家居-新浪博客",
"channelUrl" : "http:\/\/blog.sina.com.cn\/lm\/decor\/",
"author" : "WWW.SINA.COM.CN",
"tags" : [],
"desc" : "",
"emailed" : False,
"forwarded" : False,
"english" : False
}  , {
"index" : 11,
"articleIndex" : "4761",
"favor" :  False ,
     "read" : False,    
"title" : "虎牙与和平\u2015大使馆的风水局",
"titleTip" : "虎牙与和平\u2015大使馆的风水局",
"titleSummary" : "虎牙与和平\u2015大使馆的风水局",
"descSummary" : "",
"url" : "http:\/\/go.rss.sina.com.cn\/redirect.php?url=http:\/\/blog.sina.com.cn\/s\/blog_4bb8661c0102erhq.html",
"pubDate" : "2013年10月8日 (3周前)",
"enterDate" : "384194:35:18",
"channelId" : "8456365531877240559",
"channelName" : "家居-新浪博客",
"channelNameSummary" : "家居-新浪博客",
"channelUrl" : "http:\/\/blog.sina.com.cn\/lm\/decor\/",
"author" : "WWW.SINA.COM.CN",
"tags" : [],
"desc" : "",
"emailed" : False,
"forwarded" : False,
"english" : False
}  , {
"index" : 12,
"articleIndex" : "4760",
"favor" :  False ,
     "read" : False,    
"title" : "年轻夫妇打造2居现代简约二人世界",
"titleTip" : "年轻夫妇打造2居现代简约二人世界",
"titleSummary" : "年轻夫妇打造2居现代简约二人世界",
"descSummary" : "",
"url" : "http:\/\/go.rss.sina.com.cn\/redirect.php?url=http:\/\/blog.sina.com.cn\/s\/blog_7313de450101clqk.html",
"pubDate" : "2013年9月23日",
"enterDate" : "384200:45:19",
"channelId" : "8456365531877240559",
"channelName" : "家居-新浪博客",
"channelNameSummary" : "家居-新浪博客",
"channelUrl" : "http:\/\/blog.sina.com.cn\/lm\/decor\/",
"author" : "WWW.SINA.COM.CN",
"tags" : [],
"desc" : "",
"emailed" : False,
"forwarded" : False,
"english" : False
}  , {
"index" : 13,
"articleIndex" : "4759",
"favor" :  False ,
     "read" : False,    
"title" : "5.8万打造金典时尚两居室",
"titleTip" : "5.8万打造金典时尚两居室",
"titleSummary" : "5.8万打造金典时尚两居室",
"descSummary" : "",
"url" : "http:\/\/go.rss.sina.com.cn\/redirect.php?url=http:\/\/blog.sina.com.cn\/s\/blog_8bf869dd0101i5nx.html",
"pubDate" : "2013年9月16日",
"enterDate" : "384198:51:34",
"channelId" : "8456365531877240559",
"channelName" : "家居-新浪博客",
"channelNameSummary" : "家居-新浪博客",
"channelUrl" : "http:\/\/blog.sina.com.cn\/lm\/decor\/",
"author" : "WWW.SINA.COM.CN",
"tags" : [],
"desc" : "",
"emailed" : False,
"forwarded" : False,
"english" : False
}  , {
"index" : 14,
"articleIndex" : "4758",
"favor" :  False ,
     "read" : False,    
"title" : "中秋节为什么要吃月饼？",
"titleTip" : "中秋节为什么要吃月饼？",
"titleSummary" : "中秋节为什么要吃月饼？",
"descSummary" : "",
"url" : "http:\/\/go.rss.sina.com.cn\/redirect.php?url=http:\/\/blog.sina.com.cn\/s\/blog_5340045f0101alw8.html",
"pubDate" : "2013年9月16日",
"enterDate" : "384193:44:01",
"channelId" : "8456365531877240559",
"channelName" : "家居-新浪博客",
"channelNameSummary" : "家居-新浪博客",
"channelUrl" : "http:\/\/blog.sina.com.cn\/lm\/decor\/",
"author" : "WWW.SINA.COM.CN",
"tags" : [],
"desc" : "",
"emailed" : False,
"forwarded" : False,
"english" : False
}  , {
"index" : 15,
"articleIndex" : "4757",
"favor" :  False ,
     "read" : False,    
"title" : "学校爆炸案的风水启示",
"titleTip" : "学校爆炸案的风水启示",
"titleSummary" : "学校爆炸案的风水启示",
"descSummary" : "",
"url" : "http:\/\/go.rss.sina.com.cn\/redirect.php?url=http:\/\/blog.sina.com.cn\/s\/blog_4bb8661c0102er2w.html",
"pubDate" : "2013年9月16日",
"enterDate" : "384193:42:39",
"channelId" : "8456365531877240559",
"channelName" : "家居-新浪博客",
"channelNameSummary" : "家居-新浪博客",
"channelUrl" : "http:\/\/blog.sina.com.cn\/lm\/decor\/",
"author" : "WWW.SINA.COM.CN",
"tags" : [],
"desc" : "",
"emailed" : False,
"forwarded" : False,
"english" : False
}  , {
"index" : 16,
"articleIndex" : "4756",
"favor" :  False ,
     "read" : False,    
"title" : "红木林D2户型 三居室设计 优雅美式风",
"titleTip" : "红木林D2户型 三居室设计 优雅美式风",
"titleSummary" : "红木林D2户型 三居室设计 优雅美式风",
"descSummary" : "",
"url" : "http:\/\/go.rss.sina.com.cn\/redirect.php?url=http:\/\/blog.sina.com.cn\/s\/blog_62f68cce0101dot7.html",
"pubDate" : "2013年9月12日",
"enterDate" : "384200:53:07",
"channelId" : "8456365531877240559",
"channelName" : "家居-新浪博客",
"channelNameSummary" : "家居-新浪博客",
"channelUrl" : "http:\/\/blog.sina.com.cn\/lm\/decor\/",
"author" : "WWW.SINA.COM.CN",
"tags" : [],
"desc" : "",
"emailed" : False,
"forwarded" : False,
"english" : False
}  , {
"index" : 17,
"articleIndex" : "4755",
"favor" :  False ,
     "read" : False,    
"title" : "从姓名数理看一个人的健康运势",
"titleTip" : "从姓名数理看一个人的健康运势",
"titleSummary" : "从姓名数理看一个人的健康运势",
"descSummary" : "",
"url" : "http:\/\/go.rss.sina.com.cn\/redirect.php?url=http:\/\/blog.sina.com.cn\/s\/blog_4de2327b0102e1t1.html",
"pubDate" : "2013年9月12日",
"enterDate" : "384192:50:48",
"channelId" : "8456365531877240559",
"channelName" : "家居-新浪博客",
"channelNameSummary" : "家居-新浪博客",
"channelUrl" : "http:\/\/blog.sina.com.cn\/lm\/decor\/",
"author" : "WWW.SINA.COM.CN",
"tags" : [],
"desc" : "",
"emailed" : False,
"forwarded" : False,
"english" : False
}  , {
"index" : 18,
"articleIndex" : "4754",
"favor" :  False ,
     "read" : False,    
"title" : "人们为什么喜欢麒麟？",
"titleTip" : "人们为什么喜欢麒麟？",
"titleSummary" : "人们为什么喜欢麒麟？",
"descSummary" : "",
"url" : "http:\/\/go.rss.sina.com.cn\/redirect.php?url=http:\/\/blog.sina.com.cn\/s\/blog_5340045f0101aie2.html",
"pubDate" : "2013年9月12日",
"enterDate" : "384192:49:09",
"channelId" : "8456365531877240559",
"channelName" : "家居-新浪博客",
"channelNameSummary" : "家居-新浪博客",
"channelUrl" : "http:\/\/blog.sina.com.cn\/lm\/decor\/",
"author" : "WWW.SINA.COM.CN",
"tags" : [],
"desc" : "",
"emailed" : False,
"forwarded" : False,
"english" : False
}  , {
"index" : 19,
"articleIndex" : "4753",
"favor" :  False ,
     "read" : False,    
"title" : "风水命理中最常见的五大误区",
"titleTip" : "风水命理中最常见的五大误区",
"titleSummary" : "风水命理中最常见的五大误区",
"descSummary" : "",
"url" : "http:\/\/go.rss.sina.com.cn\/redirect.php?url=http:\/\/blog.sina.com.cn\/s\/blog_8d13bb000101duuc.html",
"pubDate" : "2013年9月12日",
"enterDate" : "384192:46:27",
"channelId" : "8456365531877240559",
"channelName" : "家居-新浪博客",
"channelNameSummary" : "家居-新浪博客",
"channelUrl" : "http:\/\/blog.sina.com.cn\/lm\/decor\/",
"author" : "WWW.SINA.COM.CN",
"tags" : [],
"desc" : "",
"emailed" : False,
"forwarded" : False,
"english" : False
} ]
}
