{
"mode" : {"viewTitle" : 1,   "viewNew" : 0,  "pageIndex" : 2 },
 "channel" : {"id" : "8456365531877240559", "booked" : False, "subNumber" : 1, "name" : "家居-新浪博客", "url" : "http:\/\/blog.sina.com.cn\/lm\/decor\/", "feed" : "http:\/\/rss.sina.com.cn\/blog\/decor\/jiaju.xml", "author" : "WWW.SINA.COM.CN", "desc" : "家居博客列表", "imageUrl" : "http:\/\/www.sinaimg.cn\/blog\/main\/index2010\/blog_logo.png", "postPerWeek" : "0", "lastCrawTime" : "17:16:30", "crawDateTime" : "15:46:11", "lastHttpCode" : "200"}, "page" : {
"startIndex" : 20,
"totalCount" : 4773,
"pageIndex" : 2,
"lastPage" : 239,
"pageSize" : 20,
"english" :  False },
 "unreadNum" : 0, "shotIndex" : -1,
"articles" : [
{
"index" : 0,
"articleIndex" : "4752",
"favor" :  False ,
     "read" : False,    
"title" : "经历过6次装修才装出这么好的厨房",
"titleTip" : "经历过6次装修才装出这么好的厨房",
"titleSummary" : "经历过6次装修才装出这么好的厨房",
"descSummary" : "",
"url" : "http:\/\/go.rss.sina.com.cn\/redirect.php?url=http:\/\/blog.sina.com.cn\/s\/blog_90c238b70101ppfw.html",
"pubDate" : "2013年9月10日",
"enterDate" : "384190:04:17",
"channelId" : "8456365531877240559",
"channelName" : "家居-新浪博客",
"channelNameSummary" : "家居-新浪博客",
"channelUrl" : "http:\/\/blog.sina.com.cn\/lm\/decor\/",
"author" : "WWW.SINA.COM.CN",
"tags" : [],
"desc" : "",
"emailed" : False,
"forwarded" : False,
"english" : False
}  , {
"index" : 1,
"articleIndex" : "4751",
"favor" :  False ,
     "read" : False,    
"title" : "北京朱雀门别墅设计:东南亚装修风",
"titleTip" : "北京朱雀门别墅设计:东南亚装修风",
"titleSummary" : "北京朱雀门别墅设计:东南亚装修风",
"descSummary" : "",
"url" : "http:\/\/go.rss.sina.com.cn\/redirect.php?url=http:\/\/blog.sina.com.cn\/s\/blog_4cd1251e0101ol6s.html",
"pubDate" : "2013年9月9日",
"enterDate" : "384197:28:55",
"channelId" : "8456365531877240559",
"channelName" : "家居-新浪博客",
"channelNameSummary" : "家居-新浪博客",
"channelUrl" : "http:\/\/blog.sina.com.cn\/lm\/decor\/",
"author" : "WWW.SINA.COM.CN",
"tags" : [],
"desc" : "",
"emailed" : False,
"forwarded" : False,
"english" : False
}  , {
"index" : 2,
"articleIndex" : "4750",
"favor" :  False ,
     "read" : False,    
"title" : "永定河孔雀城颂春园旗舰大堡F户型欧式风格",
"titleTip" : "永定河孔雀城颂春园旗舰大堡F户型欧式风格",
"titleSummary" : "永定河孔雀城颂春园旗舰大堡F户型欧式风格",
"descSummary" : "",
"url" : "http:\/\/go.rss.sina.com.cn\/redirect.php?url=http:\/\/blog.sina.com.cn\/s\/blog_841ae8710101bcic.html",
"pubDate" : "2013年9月9日",
"enterDate" : "384193:37:23",
"channelId" : "8456365531877240559",
"channelName" : "家居-新浪博客",
"channelNameSummary" : "家居-新浪博客",
"channelUrl" : "http:\/\/blog.sina.com.cn\/lm\/decor\/",
"author" : "WWW.SINA.COM.CN",
"tags" : [],
"desc" : "",
"emailed" : False,
"forwarded" : False,
"english" : False
}  , {
"index" : 3,
"articleIndex" : "4749",
"favor" :  False ,
     "read" : False,    
"title" : "男性气质的手和女性气质的手",
"titleTip" : "男性气质的手和女性气质的手",
"titleSummary" : "男性气质的手和女性气质的手",
"descSummary" : "",
"url" : "http:\/\/go.rss.sina.com.cn\/redirect.php?url=http:\/\/blog.sina.com.cn\/s\/blog_613bd5580101nawm.html",
"pubDate" : "2013年9月9日",
"enterDate" : "384193:30:44",
"channelId" : "8456365531877240559",
"channelName" : "家居-新浪博客",
"channelNameSummary" : "家居-新浪博客",
"channelUrl" : "http:\/\/blog.sina.com.cn\/lm\/decor\/",
"author" : "WWW.SINA.COM.CN",
"tags" : [],
"desc" : "",
"emailed" : False,
"forwarded" : False,
"english" : False
}  , {
"index" : 4,
"articleIndex" : "4748",
"favor" :  False ,
     "read" : False,    
"title" : "夫妻感情的四大保鲜法",
"titleTip" : "夫妻感情的四大保鲜法",
"titleSummary" : "夫妻感情的四大保鲜法",
"descSummary" : "",
"url" : "http:\/\/go.rss.sina.com.cn\/redirect.php?url=http:\/\/blog.sina.com.cn\/s\/blog_4de2327b0102e1s8.html",
"pubDate" : "2013年9月9日",
"enterDate" : "384193:29:11",
"channelId" : "8456365531877240559",
"channelName" : "家居-新浪博客",
"channelNameSummary" : "家居-新浪博客",
"channelUrl" : "http:\/\/blog.sina.com.cn\/lm\/decor\/",
"author" : "WWW.SINA.COM.CN",
"tags" : [],
"desc" : "",
"emailed" : False,
"forwarded" : False,
"english" : False
}  , {
"index" : 5,
"articleIndex" : "4747",
"favor" :  False ,
     "read" : False,    
"title" : "寺庙周围的风水就一定不好",
"titleTip" : "寺庙周围的风水就一定不好",
"titleSummary" : "寺庙周围的风水就一定不好",
"descSummary" : "",
"url" : "http:\/\/go.rss.sina.com.cn\/redirect.php?url=http:\/\/blog.sina.com.cn\/s\/blog_5340045f0101ah03.html",
"pubDate" : "2013年9月9日",
"enterDate" : "384193:27:41",
"channelId" : "8456365531877240559",
"channelName" : "家居-新浪博客",
"channelNameSummary" : "家居-新浪博客",
"channelUrl" : "http:\/\/blog.sina.com.cn\/lm\/decor\/",
"author" : "WWW.SINA.COM.CN",
"tags" : [],
"desc" : "",
"emailed" : False,
"forwarded" : False,
"english" : False
}  , {
"index" : 6,
"articleIndex" : "4746",
"favor" :  False ,
     "read" : False,    
"title" : "容易导致二婚的9大风水",
"titleTip" : "容易导致二婚的9大风水",
"titleSummary" : "容易导致二婚的9大风水",
"descSummary" : "",
"url" : "http:\/\/go.rss.sina.com.cn\/redirect.php?url=http:\/\/blog.sina.com.cn\/s\/blog_8d13bb000101dee0.html",
"pubDate" : "2013年9月6日",
"enterDate" : "384134:15:58",
"channelId" : "8456365531877240559",
"channelName" : "家居-新浪博客",
"channelNameSummary" : "家居-新浪博客",
"channelUrl" : "http:\/\/blog.sina.com.cn\/lm\/decor\/",
"author" : "WWW.SINA.COM.CN",
"tags" : [],
"desc" : "",
"emailed" : False,
"forwarded" : False,
"english" : False
}  , {
"index" : 7,
"articleIndex" : "4745",
"favor" :  False ,
     "read" : False,    
"title" : "白领最爱的150平简欧设计",
"titleTip" : "白领最爱的150平简欧设计",
"titleSummary" : "白领最爱的150平简欧设计",
"descSummary" : "",
"url" : "http:\/\/go.rss.sina.com.cn\/redirect.php?url=http:\/\/blog.sina.com.cn\/s\/blog_4bcd64f70101oxn9.html",
"pubDate" : "2013年9月4日",
"enterDate" : "384200:12:19",
"channelId" : "8456365531877240559",
"channelName" : "家居-新浪博客",
"channelNameSummary" : "家居-新浪博客",
"channelUrl" : "http:\/\/blog.sina.com.cn\/lm\/decor\/",
"author" : "WWW.SINA.COM.CN",
"tags" : [],
"desc" : "",
"emailed" : False,
"forwarded" : False,
"english" : False
}  , {
"index" : 8,
"articleIndex" : "4744",
"favor" :  False ,
     "read" : False,    
"title" : "180平米澳洲康都新中式混搭三居家居",
"titleTip" : "180平米澳洲康都新中式混搭三居家居",
"titleSummary" : "180平米澳洲康都新中式混搭三居家居",
"descSummary" : "",
"url" : "http:\/\/go.rss.sina.com.cn\/redirect.php?url=http:\/\/blog.sina.com.cn\/s\/blog_841ae8710101b7h0.html",
"pubDate" : "2013年9月4日",
"enterDate" : "384197:46:24",
"channelId" : "8456365531877240559",
"channelName" : "家居-新浪博客",
"channelNameSummary" : "家居-新浪博客",
"channelUrl" : "http:\/\/blog.sina.com.cn\/lm\/decor\/",
"author" : "WWW.SINA.COM.CN",
"tags" : [],
"desc" : "",
"emailed" : False,
"forwarded" : False,
"english" : False
}  , {
"index" : 9,
"articleIndex" : "4743",
"favor" :  False ,
     "read" : False,    
"title" : "小心搬家日子不当带来灾祸",
"titleTip" : "小心搬家日子不当带来灾祸",
"titleSummary" : "小心搬家日子不当带来灾祸",
"descSummary" : "",
"url" : "http:\/\/go.rss.sina.com.cn\/redirect.php?url=http:\/\/blog.sina.com.cn\/s\/blog_565c54780101fhkv.html",
"pubDate" : "2013年9月4日",
"enterDate" : "382855:43:49",
"channelId" : "8456365531877240559",
"channelName" : "家居-新浪博客",
"channelNameSummary" : "家居-新浪博客",
"channelUrl" : "http:\/\/blog.sina.com.cn\/lm\/decor\/",
"author" : "WWW.SINA.COM.CN",
"tags" : [],
"desc" : "",
"emailed" : False,
"forwarded" : False,
"english" : False
}  , {
"index" : 10,
"articleIndex" : "4742",
"favor" :  False ,
     "read" : False,    
"title" : "让你失去贵人的9种习惯",
"titleTip" : "让你失去贵人的9种习惯",
"titleSummary" : "让你失去贵人的9种习惯",
"descSummary" : "",
"url" : "http:\/\/go.rss.sina.com.cn\/redirect.php?url=http:\/\/blog.sina.com.cn\/s\/blog_8d13bb000101doir.html",
"pubDate" : "2013年9月4日",
"enterDate" : "384197:39:13",
"channelId" : "8456365531877240559",
"channelName" : "家居-新浪博客",
"channelNameSummary" : "家居-新浪博客",
"channelUrl" : "http:\/\/blog.sina.com.cn\/lm\/decor\/",
"author" : "WWW.SINA.COM.CN",
"tags" : [],
"desc" : "",
"emailed" : False,
"forwarded" : False,
"english" : False
}  , {
"index" : 11,
"articleIndex" : "4741",
"favor" :  False ,
     "read" : False,    
"title" : "会出现第三者的风水摆设",
"titleTip" : "会出现第三者的风水摆设",
"titleSummary" : "会出现第三者的风水摆设",
"descSummary" : "",
"url" : "http:\/\/go.rss.sina.com.cn\/redirect.php?url=http:\/\/blog.sina.com.cn\/s\/blog_613bd5580101n7de.html",
"pubDate" : "2013年9月4日",
"enterDate" : "384197:37:34",
"channelId" : "8456365531877240559",
"channelName" : "家居-新浪博客",
"channelNameSummary" : "家居-新浪博客",
"channelUrl" : "http:\/\/blog.sina.com.cn\/lm\/decor\/",
"author" : "WWW.SINA.COM.CN",
"tags" : [],
"desc" : "",
"emailed" : False,
"forwarded" : False,
"english" : False
}  , {
"index" : 12,
"articleIndex" : "4740",
"favor" :  False ,
     "read" : False,    
"title" : "如何使企业名更具\u201C 魅力\u201D",
"titleTip" : "如何使企业名更具\u201C 魅力\u201D",
"titleSummary" : "如何使企业名更具\u201C 魅力\u201D",
"descSummary" : "",
"url" : "http:\/\/go.rss.sina.com.cn\/redirect.php?url=http:\/\/blog.sina.com.cn\/s\/blog_4de2327b0102e1q1.html",
"pubDate" : "2013年9月4日",
"enterDate" : "384197:36:16",
"channelId" : "8456365531877240559",
"channelName" : "家居-新浪博客",
"channelNameSummary" : "家居-新浪博客",
"channelUrl" : "http:\/\/blog.sina.com.cn\/lm\/decor\/",
"author" : "WWW.SINA.COM.CN",
"tags" : [],
"desc" : "",
"emailed" : False,
"forwarded" : False,
"english" : False
}  , {
"index" : 13,
"articleIndex" : "4739",
"favor" :  False ,
     "read" : False,    
"title" : "面相帮你挑选最佳合伙人",
"titleTip" : "面相帮你挑选最佳合伙人",
"titleSummary" : "面相帮你挑选最佳合伙人",
"descSummary" : "",
"url" : "http:\/\/go.rss.sina.com.cn\/redirect.php?url=http:\/\/blog.sina.com.cn\/s\/blog_5340045f0101admx.html",
"pubDate" : "2013年9月4日",
"enterDate" : "384197:34:59",
"channelId" : "8456365531877240559",
"channelName" : "家居-新浪博客",
"channelNameSummary" : "家居-新浪博客",
"channelUrl" : "http:\/\/blog.sina.com.cn\/lm\/decor\/",
"author" : "WWW.SINA.COM.CN",
"tags" : [],
"desc" : "",
"emailed" : False,
"forwarded" : False,
"english" : False
}  , {
"index" : 14,
"articleIndex" : "4738",
"favor" :  False ,
     "read" : False,    
"title" : "食伤过旺成灾星，因谁辛苦因谁亡",
"titleTip" : "食伤过旺成灾星，因谁辛苦因谁亡",
"titleSummary" : "食伤过旺成灾星，因谁辛苦因谁亡",
"descSummary" : "",
"url" : "http:\/\/go.rss.sina.com.cn\/redirect.php?url=http:\/\/blog.sina.com.cn\/s\/blog_63d325ac0101etyj.html",
"pubDate" : "2013年9月4日",
"enterDate" : "384197:31:36",
"channelId" : "8456365531877240559",
"channelName" : "家居-新浪博客",
"channelNameSummary" : "家居-新浪博客",
"channelUrl" : "http:\/\/blog.sina.com.cn\/lm\/decor\/",
"author" : "WWW.SINA.COM.CN",
"tags" : [],
"desc" : "",
"emailed" : False,
"forwarded" : False,
"english" : False
}  , {
"index" : 15,
"articleIndex" : "4737",
"favor" :  False ,
     "read" : False,    
"title" : "远离尘嚣 打造属于自己的桃花源",
"titleTip" : "远离尘嚣 打造属于自己的桃花源",
"titleSummary" : "远离尘嚣 打造属于自己的桃花源",
"descSummary" : "",
"url" : "http:\/\/go.rss.sina.com.cn\/redirect.php?url=http:\/\/blog.sina.com.cn\/s\/blog_6320277a0100xkps.html",
"pubDate" : "2013年9月2日",
"enterDate" : "384200:02:47",
"channelId" : "8456365531877240559",
"channelName" : "家居-新浪博客",
"channelNameSummary" : "家居-新浪博客",
"channelUrl" : "http:\/\/blog.sina.com.cn\/lm\/decor\/",
"author" : "WWW.SINA.COM.CN",
"tags" : [],
"desc" : "",
"emailed" : False,
"forwarded" : False,
"english" : False
}  , {
"index" : 16,
"articleIndex" : "4736",
"favor" :  False ,
     "read" : False,    
"title" : "享受精品生活 四室二厅黑白灰",
"titleTip" : "享受精品生活 四室二厅黑白灰",
"titleSummary" : "享受精品生活 四室二厅黑白灰",
"descSummary" : "",
"url" : "http:\/\/go.rss.sina.com.cn\/redirect.php?url=http:\/\/blog.sina.com.cn\/s\/blog_62f68cce0101de14.html",
"pubDate" : "2013年8月29日",
"enterDate" : "384197:09:05",
"channelId" : "8456365531877240559",
"channelName" : "家居-新浪博客",
"channelNameSummary" : "家居-新浪博客",
"channelUrl" : "http:\/\/blog.sina.com.cn\/lm\/decor\/",
"author" : "WWW.SINA.COM.CN",
"tags" : [],
"desc" : "",
"emailed" : False,
"forwarded" : False,
"english" : False
}  , {
"index" : 17,
"articleIndex" : "4735",
"favor" :  False ,
     "read" : False,    
"title" : "走进孔雀城大堡B户型装修现场最前沿",
"titleTip" : "走进孔雀城大堡B户型装修现场最前沿",
"titleSummary" : "走进孔雀城大堡B户型装修现场最前沿",
"descSummary" : "",
"url" : "http:\/\/go.rss.sina.com.cn\/redirect.php?url=http:\/\/blog.sina.com.cn\/s\/blog_841ae8710101ayhh.html",
"pubDate" : "2013年8月27日",
"enterDate" : "384195:09:21",
"channelId" : "8456365531877240559",
"channelName" : "家居-新浪博客",
"channelNameSummary" : "家居-新浪博客",
"channelUrl" : "http:\/\/blog.sina.com.cn\/lm\/decor\/",
"author" : "WWW.SINA.COM.CN",
"tags" : [],
"desc" : "",
"emailed" : False,
"forwarded" : False,
"english" : False
}  , {
"index" : 18,
"articleIndex" : "4734",
"favor" :  False ,
     "read" : False,    
"title" : "发大财的人要注意哪些事项",
"titleTip" : "发大财的人要注意哪些事项",
"titleSummary" : "发大财的人要注意哪些事项",
"descSummary" : "",
"url" : "http:\/\/go.rss.sina.com.cn\/redirect.php?url=http:\/\/blog.sina.com.cn\/s\/blog_565c54780101fb9c.html",
"pubDate" : "2013年8月27日",
"enterDate" : "384195:05:10",
"channelId" : "8456365531877240559",
"channelName" : "家居-新浪博客",
"channelNameSummary" : "家居-新浪博客",
"channelUrl" : "http:\/\/blog.sina.com.cn\/lm\/decor\/",
"author" : "WWW.SINA.COM.CN",
"tags" : [],
"desc" : "",
"emailed" : False,
"forwarded" : False,
"english" : False
}  , {
"index" : 19,
"articleIndex" : "4733",
"favor" :  False ,
     "read" : False,    
"title" : "什么样的名字能给你的人生加分",
"titleTip" : "什么样的名字能给你的人生加分",
"titleSummary" : "什么样的名字能给你的人生加分",
"descSummary" : "",
"url" : "http:\/\/go.rss.sina.com.cn\/redirect.php?url=http:\/\/blog.sina.com.cn\/s\/blog_4de2327b0102e1mv.html",
"pubDate" : "2013年8月27日",
"enterDate" : "384195:01:45",
"channelId" : "8456365531877240559",
"channelName" : "家居-新浪博客",
"channelNameSummary" : "家居-新浪博客",
"channelUrl" : "http:\/\/blog.sina.com.cn\/lm\/decor\/",
"author" : "WWW.SINA.COM.CN",
"tags" : [],
"desc" : "",
"emailed" : False,
"forwarded" : False,
"english" : False
} ]
}
