{
"mode" : {"viewTitle" : 1,   "viewNew" : 0,  "pageIndex" : 1 },
 "channel" : {"id" : "-499086918459853613", "booked" : False, "subNumber" : 1, "name" : "电视游戏新闻-新浪游戏", "url" : "http:\/\/games.sina.com.cn\/t\/news\/dsyx\/index.shtml", "feed" : "http:\/\/rss.sina.com.cn\/games\/dsyx.xml", "author" : "WWW.SINA.COM.CN", "desc" : "新浪游戏之电视游戏新闻", "imageUrl" : "http:\/\/www.sinaimg.cn\/home\/images\/sina_logo2.gif", "postPerWeek" : "0", "lastCrawTime" : "17:17:15", "crawDateTime" : "06:29:40", "lastHttpCode" : "304"}, "page" : {
"startIndex" : 0,
"totalCount" : 5000,
"pageIndex" : 1,
"lastPage" : 250,
"pageSize" : 20,
"english" :  False },
 "unreadNum" : 0, "shotIndex" : -1,
"articles" : [
{
"index" : 0,
"articleIndex" : "19364",
"favor" :  False ,
     "read" : False,    
"title" : "《圣斗士星矢》明年夏季推出剧场版电影",
"titleTip" : "《圣斗士星矢》明年夏季推出剧场版电影",
"titleSummary" : "《圣斗士星矢》明年夏季推出剧场版电影",
"descSummary" : "据日本媒体报道，漫画家车田正美原著改编的动画《圣斗士星矢...",
"url" : "http:\/\/go.rss.sina.com.cn\/redirect.php?url=http:\/\/games.sina.com.cn\/t\/n\/2013-10-29\/1635740516.shtml",
"pubDate" : "昨天16:35:19",
"enterDate" : "384187:25:22",
"channelId" : "-499086918459853613",
"channelName" : "电视游戏新闻-新浪游戏",
"channelNameSummary" : "电视游戏新闻-新浪游...",
"channelUrl" : "http:\/\/games.sina.com.cn\/t\/news\/dsyx\/index.shtml",
"author" : "WWW.SINA.COM.CN",
"tags" : [],
"desc" : "据日本媒体报道，漫画家车田正美原著改编的动画《圣斗士星矢》时隔10年推出最新剧场版《圣斗士星矢：LEGEND of SANCTUARY》，预计明年夏季上映，而且还要参加明年的柏林和戛纳两大国际电影节。 剧场版是为庆祝车田正美作为漫画家出道40周年为特别企划的，根据原著....",
"emailed" : False,
"forwarded" : False,
"english" : False
}  , {
"index" : 1,
"articleIndex" : "19363",
"favor" :  False ,
     "read" : False,    
"title" : "索尼PS4将新增11大重磅功能 详情一览",
"titleTip" : "索尼PS4将新增11大重磅功能 详情一览",
"titleSummary" : "索尼PS4将新增11大重磅功能 详情一览",
"descSummary" : "索尼公司下一代次世代游戏主机PlayStation 4将会在11月15日正...",
"url" : "http:\/\/go.rss.sina.com.cn\/redirect.php?url=http:\/\/games.sina.com.cn\/t\/n\/2013-10-29\/1359740439.shtml",
"pubDate" : "昨天13:59:57",
"enterDate" : "384184:50:00",
"channelId" : "-499086918459853613",
"channelName" : "电视游戏新闻-新浪游戏",
"channelNameSummary" : "电视游戏新闻-新浪游...",
"channelUrl" : "http:\/\/games.sina.com.cn\/t\/news\/dsyx\/index.shtml",
"author" : "WWW.SINA.COM.CN",
"tags" : [],
"desc" : "索尼公司下一代次世代游戏主机PlayStation 4将会在11月15日正式上市。根据索尼公司表示，在11月15日消费者把PlayStation 4抱回家后就会迎来首次系统更新。 不必担心，本次更新补丁的大小只有300M左右，将会升级系统至1.50版本。本次更新将会为PlayStation 4增加许多非....",
"emailed" : False,
"forwarded" : False,
"english" : False
}  , {
"index" : 2,
"articleIndex" : "19362",
"favor" :  False ,
     "read" : False,    
"title" : "任天堂2DS最新广告 支持部分3DS游戏",
"titleTip" : "任天堂2DS最新广告 支持部分3DS游戏",
"titleSummary" : "任天堂2DS最新广告 支持部分3DS游戏",
"descSummary" : "任天堂日前放出了2DS的新电视广告，由于目前只有欧美地区有2...",
"url" : "http:\/\/go.rss.sina.com.cn\/redirect.php?url=http:\/\/games.sina.com.cn\/t\/n\/2013-10-28\/1800740251.shtml",
"pubDate" : "前天18:00:50",
"enterDate" : "384188:57:13",
"channelId" : "-499086918459853613",
"channelName" : "电视游戏新闻-新浪游戏",
"channelNameSummary" : "电视游戏新闻-新浪游...",
"channelUrl" : "http:\/\/games.sina.com.cn\/t\/news\/dsyx\/index.shtml",
"author" : "WWW.SINA.COM.CN",
"tags" : [],
"desc" : "任天堂日前放出了2DS的新电视广告，由于目前只有欧美地区有2DS发售，所以广告自然也是面向欧美地区市场。 值得注意的是，2DS并不能对应所有的3DS游戏，所以广告也特别说明了此点，不过最新的任天堂本家大作《口袋妖怪X\/Y》倒是可以对应。 宣传视频：",
"emailed" : False,
"forwarded" : False,
"english" : False
}  , {
"index" : 3,
"articleIndex" : "19361",
"favor" :  False ,
     "read" : False,    
"title" : "日本粉丝自制任天堂智能手机惊现网络",
"titleTip" : "日本粉丝自制任天堂智能手机惊现网络",
"titleSummary" : "日本粉丝自制任天堂智能手机惊现网络",
"descSummary" : "据日本通网站的报道，由任天堂粉丝制作，以任天堂红白机和超任...",
"url" : "http:\/\/go.rss.sina.com.cn\/redirect.php?url=http:\/\/games.sina.com.cn\/t\/n\/2013-10-28\/1745740250.shtml",
"pubDate" : "前天17:45:16",
"enterDate" : "384188:41:39",
"channelId" : "-499086918459853613",
"channelName" : "电视游戏新闻-新浪游戏",
"channelNameSummary" : "电视游戏新闻-新浪游...",
"channelUrl" : "http:\/\/games.sina.com.cn\/t\/news\/dsyx\/index.shtml",
"author" : "WWW.SINA.COM.CN",
"tags" : [],
"desc" : "据日本通网站的报道，由任天堂粉丝制作，以任天堂红白机和超任主机手柄为原型的5英寸大屏智能手机\u201CNintenphone\u201D照片惊现网络。 其中红白机手柄风格的\u201CNintenphone\u201D采用的是红豆色加金色，底部按钮采用黑色的配色方式，而超任版的主体则采用银灰色，底部按键则....",
"emailed" : False,
"forwarded" : False,
"english" : False
}  , {
"index" : 4,
"articleIndex" : "19360",
"favor" :  False ,
     "read" : False,    
"title" : "路易主题2DS限定版主机证实为玩家制作",
"titleTip" : "路易主题2DS限定版主机证实为玩家制作",
"titleSummary" : "路易主题2DS限定版主机证实为玩家制作",
"descSummary" : "前些天我们为大家报道了关于限定版路易主题2DS的消息，相信许...",
"url" : "http:\/\/go.rss.sina.com.cn\/redirect.php?url=http:\/\/games.sina.com.cn\/t\/n\/2013-10-28\/1723740248.shtml",
"pubDate" : "前天17:23:55",
"enterDate" : "384188:20:18",
"channelId" : "-499086918459853613",
"channelName" : "电视游戏新闻-新浪游戏",
"channelNameSummary" : "电视游戏新闻-新浪游...",
"channelUrl" : "http:\/\/games.sina.com.cn\/t\/news\/dsyx\/index.shtml",
"author" : "WWW.SINA.COM.CN",
"tags" : [],
"desc" : "前些天我们为大家报道了关于限定版路易主题2DS的消息，相信许多喜欢路易的玩家一定非常兴奋吧！能够买到这样一款主机绝对是身为Fans最开心的事了。不过，根据最新的消息证实，这个限定版主机是假的，一切只是出自玩家之手。 这款主机看起来是不是好像还真有那么回事的....",
"emailed" : False,
"forwarded" : False,
"english" : False
}  , {
"index" : 5,
"articleIndex" : "19359",
"favor" :  False ,
     "read" : False,    
"title" : "英国任天堂确认Wii主机在欧洲也已停产",
"titleTip" : "英国任天堂确认Wii主机在欧洲也已停产",
"titleSummary" : "英国任天堂确认Wii主机在欧洲也已停产",
"descSummary" : "尽管此前美国任天堂的某位代表表示Wii主机在日本停产的公告并...",
"url" : "http:\/\/go.rss.sina.com.cn\/redirect.php?url=http:\/\/games.sina.com.cn\/t\/n\/2013-10-28\/1624740238.shtml",
"pubDate" : "前天16:24:54",
"enterDate" : "384187:21:17",
"channelId" : "-499086918459853613",
"channelName" : "电视游戏新闻-新浪游戏",
"channelNameSummary" : "电视游戏新闻-新浪游...",
"channelUrl" : "http:\/\/games.sina.com.cn\/t\/news\/dsyx\/index.shtml",
"author" : "WWW.SINA.COM.CN",
"tags" : [],
"desc" : "尽管此前美国任天堂的某位代表表示Wii主机在日本停产的公告并不适用于其他地区，不过现在情况却有些变化，英国任天堂已经确认Wii在欧洲也停产了。 日前英国任天堂的一位代表在接受国外媒体MCV的采访时表示：\u201CWii在欧洲已经停止生产。\u201D \u201C不过现在仍然有多....",
"emailed" : False,
"forwarded" : False,
"english" : False
}  , {
"index" : 6,
"articleIndex" : "19358",
"favor" :  False ,
     "read" : False,    
"title" : "未来或将有更多HD重制版游戏登陆WiiU",
"titleTip" : "未来或将有更多HD重制版游戏登陆WiiU",
"titleSummary" : "未来或将有更多HD重制版游戏登陆WiiU",
"descSummary" : "在经典游戏《塞尔达传说：风之杖HD(The Legend of Zelda: The ...",
"url" : "http:\/\/go.rss.sina.com.cn\/redirect.php?url=http:\/\/games.sina.com.cn\/t\/n\/2013-10-28\/1556740223.shtml",
"pubDate" : "前天15:56:27",
"enterDate" : "384186:52:50",
"channelId" : "-499086918459853613",
"channelName" : "电视游戏新闻-新浪游戏",
"channelNameSummary" : "电视游戏新闻-新浪游...",
"channelUrl" : "http:\/\/games.sina.com.cn\/t\/news\/dsyx\/index.shtml",
"author" : "WWW.SINA.COM.CN",
"tags" : [],
"desc" : "在经典游戏《塞尔达传说：风之杖HD(The Legend of Zelda: The Wind Waker HD)》于上月重登WiiU后，有\u201C马里奥之父\u201D之称的任天堂情报开发本部总监宫本茂向国外媒体GameSpot透露，未来也计划将NGC的《超级马里奥：阳光(Super Mario Sunshine)》和Wii的《超级马里奥：银河(Super....",
"emailed" : False,
"forwarded" : False,
"english" : False
}  , {
"index" : 7,
"articleIndex" : "19357",
"favor" :  False ,
     "read" : False,    
"title" : "PS4发售在即 索尼公布最终版硬件指标",
"titleTip" : "PS4发售在即 索尼公布最终版硬件指标",
"titleSummary" : "PS4发售在即 索尼公布最终版硬件指标",
"descSummary" : "PS4即将于11月15\/29日发售，索尼先后确定了PS App和PS4的...",
"url" : "http:\/\/go.rss.sina.com.cn\/redirect.php?url=http:\/\/games.sina.com.cn\/t\/n\/2013-10-26\/1434739997.shtml",
"pubDate" : "2013年10月26日 (4天前)",
"enterDate" : "384185:31:44",
"channelId" : "-499086918459853613",
"channelName" : "电视游戏新闻-新浪游戏",
"channelNameSummary" : "电视游戏新闻-新浪游...",
"channelUrl" : "http:\/\/games.sina.com.cn\/t\/news\/dsyx\/index.shtml",
"author" : "WWW.SINA.COM.CN",
"tags" : [],
"desc" : "PS4即将于11月15\/29日发售，索尼先后确定了PS App和PS4的1.50系统更新，现在又公布了最终版PS4硬件表单。 虽然与一个月以前的信息基本差不多，但可能有人错过了之前的报道。现在大家又对PS4有何新的期望呢？欢迎在留言区积极讨论。 商品名 PlayStation4 ....",
"emailed" : False,
"forwarded" : False,
"english" : False
}  , {
"index" : 8,
"articleIndex" : "19356",
"favor" :  False ,
     "read" : False,    
"title" : "《初音未来：未来计划2》歌曲PV公开",
"titleTip" : "《初音未来：未来计划2》歌曲PV公开",
"titleSummary" : "《初音未来：未来计划2》歌曲PV公开",
"descSummary" : "SEGA制作，预定11月28日推出的3DS音乐节奏游戏《初音未来：未...",
"url" : "http:\/\/go.rss.sina.com.cn\/redirect.php?url=http:\/\/games.sina.com.cn\/t\/n\/2013-10-25\/1616739964.shtml",
"pubDate" : "2013年10月25日 (5天前)",
"enterDate" : "384187:19:16",
"channelId" : "-499086918459853613",
"channelName" : "电视游戏新闻-新浪游戏",
"channelNameSummary" : "电视游戏新闻-新浪游...",
"channelUrl" : "http:\/\/games.sina.com.cn\/t\/news\/dsyx\/index.shtml",
"author" : "WWW.SINA.COM.CN",
"tags" : [],
"desc" : "SEGA制作，预定11月28日推出的3DS音乐节奏游戏《初音未来：未来计划2(初音ミク Project mirai 2)》，现公开最新宣传影片。 本次的宣传影片节录先前公布过的21首节奏游戏用PV的内容 ，包含新收录的\u201Cワ`ルドイズマイン\u201D、\u201Cエレクトリック・ラブ\u201D、\u201C千本@\u201D....",
"emailed" : False,
"forwarded" : False,
"english" : False
}  , {
"index" : 9,
"articleIndex" : "19355",
"favor" :  False ,
     "read" : False,    
"title" : "传奇赛车手重生GT赛车6新合作公开",
"titleTip" : "传奇赛车手重生GT赛车6新合作公开",
"titleSummary" : "传奇赛车手重生GT赛车6新合作公开",
"descSummary" : "【新浪游戏专稿 转载请注明出处】 导语：SCE于巴西圣保罗举办的巴...",
"url" : "http:\/\/go.rss.sina.com.cn\/redirect.php?url=http:\/\/games.sina.com.cn\/xyz\/n\/2013-10-25\/1452739911.shtml",
"pubDate" : "2013年10月25日 (5天前)",
"enterDate" : "384185:55:00",
"channelId" : "-499086918459853613",
"channelName" : "电视游戏新闻-新浪游戏",
"channelNameSummary" : "电视游戏新闻-新浪游...",
"channelUrl" : "http:\/\/games.sina.com.cn\/t\/news\/dsyx\/index.shtml",
"author" : "WWW.SINA.COM.CN",
"tags" : [],
"desc" : "【新浪游戏专稿 转载请注明出处】 导语：SCE于巴西圣保罗举办的巴西游戏展上正式发表PS系列游戏《GT赛车6》将与非营利组织合作，将巴西传奇赛车手埃尔顿・塞纳制作进游戏。 新浪游戏讯 10月25日消息，SCE于巴西圣保罗举办的巴西游戏展上正式发表PS系列游戏《GT....",
"emailed" : False,
"forwarded" : False,
"english" : False
}  , {
"index" : 10,
"articleIndex" : "19354",
"favor" :  False ,
     "read" : False,    
"title" : "周年款白绿配色 路易2DS主机谍照曝光",
"titleTip" : "周年款白绿配色 路易2DS主机谍照曝光",
"titleSummary" : "周年款白绿配色 路易2DS主机谍照曝光",
"descSummary" : "目前网上流传着2DS将有新款式登场的传闻。近日有国外媒体Ko...",
"url" : "http:\/\/go.rss.sina.com.cn\/redirect.php?url=http:\/\/games.sina.com.cn\/t\/n\/2013-10-25\/1428739902.shtml",
"pubDate" : "2013年10月25日 (5天前)",
"enterDate" : "384185:31:17",
"channelId" : "-499086918459853613",
"channelName" : "电视游戏新闻-新浪游戏",
"channelNameSummary" : "电视游戏新闻-新浪游...",
"channelUrl" : "http:\/\/games.sina.com.cn\/t\/news\/dsyx\/index.shtml",
"author" : "WWW.SINA.COM.CN",
"tags" : [],
"desc" : "目前网上流传着2DS将有新款式登场的传闻。近日有国外媒体Kotaku放出了几张全新限量2DS的谍照。该2DS为配合2013路易吉之年打造，白绿配色，这也是2DS面世以来第一款限定机型。 这款主机底部呈白色，而按键和外轮廓是路易的绿色，但是和新推出的橙色和蓝色3DS LL一样，摇....",
"emailed" : False,
"forwarded" : False,
"english" : False
}  , {
"index" : 11,
"articleIndex" : "19353",
"favor" :  False ,
     "read" : False,    
"title" : "人民日报批国产游戏急功近利 盛赞暴雪专注",
"titleTip" : "人民日报批国产游戏急功近利 盛赞暴雪专注",
"titleSummary" : "人民日报批国产游戏急功近利 盛赞暴雪专注",
"descSummary" : "长久以来，游戏都被称作是第九艺术，但几乎所有的游戏研发...",
"url" : "http:\/\/go.rss.sina.com.cn\/redirect.php?url=http:\/\/games.sina.com.cn\/t\/n\/2013-10-25\/1030739770.shtml",
"pubDate" : "2013年10月25日 (5天前)",
"enterDate" : "384181:33:35",
"channelId" : "-499086918459853613",
"channelName" : "电视游戏新闻-新浪游戏",
"channelNameSummary" : "电视游戏新闻-新浪游...",
"channelUrl" : "http:\/\/games.sina.com.cn\/t\/news\/dsyx\/index.shtml",
"author" : "WWW.SINA.COM.CN",
"tags" : [],
"desc" : "长久以来，游戏都被称作是第九艺术，但几乎所有的游戏研发商都是商业公司，所以游戏往往是艺术与商业的\u201C拉锯战\u201D。人民日报于2013-10-23第17版发表了以\u201C莫让文化产业沦为资本的游戏\u201D为题的评论，谈及中国文化产业在资本的要挟下过于急功近利以及缺乏内涵，同时也提到了美国....",
"emailed" : False,
"forwarded" : False,
"english" : False
}  , {
"index" : 12,
"articleIndex" : "19352",
"favor" :  False ,
     "read" : False,    
"title" : "美国任天堂称Wii主机停产仅限日本地区",
"titleTip" : "美国任天堂称Wii主机停产仅限日本地区",
"titleSummary" : "美国任天堂称Wii主机停产仅限日本地区",
"descSummary" : "本月早些时候，任天堂在其日本官网的Wii产品页面中打出了\u201C即...",
"url" : "http:\/\/go.rss.sina.com.cn\/redirect.php?url=http:\/\/games.sina.com.cn\/t\/n\/2013-10-24\/1537739660.shtml",
"pubDate" : "2013年10月24日 (6天前)",
"enterDate" : "384186:31:48",
"channelId" : "-499086918459853613",
"channelName" : "电视游戏新闻-新浪游戏",
"channelNameSummary" : "电视游戏新闻-新浪游...",
"channelUrl" : "http:\/\/games.sina.com.cn\/t\/news\/dsyx\/index.shtml",
"author" : "WWW.SINA.COM.CN",
"tags" : [],
"desc" : "本月早些时候，任天堂在其日本官网的Wii产品页面中打出了\u201C即将停产\u201D的标语，之后不久该款游戏机便在上周末正式宣布停产。于是我们看到媒体和玩家都开始追忆起Wii以往所取得的成绩，并对任天堂再次失去一款优秀主机而惋惜。 不过从最新曝光的消息来看，外界似乎对Wii....",
"emailed" : False,
"forwarded" : False,
"english" : False
}  , {
"index" : 13,
"articleIndex" : "19351",
"favor" :  False ,
     "read" : False,    
"title" : "《最终幻想14》PC玩家排斥PS3玩家 开发商道歉",
"titleTip" : "《最终幻想14》PC玩家排斥PS3玩家 开发商道歉",
"titleSummary" : "《最终幻想14》PC玩家排斥PS3玩家 开发商道歉",
"descSummary" : "在日本本土运营的，不久后将在大陆开启服务的知名游戏...",
"url" : "http:\/\/go.rss.sina.com.cn\/redirect.php?url=http:\/\/games.sina.com.cn\/t\/n\/2013-10-24\/1022739528.shtml",
"pubDate" : "2013年10月24日 (6天前)",
"enterDate" : "384181:16:43",
"channelId" : "-499086918459853613",
"channelName" : "电视游戏新闻-新浪游戏",
"channelNameSummary" : "电视游戏新闻-新浪游...",
"channelUrl" : "http:\/\/games.sina.com.cn\/t\/news\/dsyx\/index.shtml",
"author" : "WWW.SINA.COM.CN",
"tags" : [],
"desc" : "在日本本土运营的，不久后将在大陆开启服务的知名游戏《最终幻想14：新生国度》(FF14)，其在日本服务器内出现了广泛的PC端玩家排斥PS3玩家现象。 近日，《最终幻想14：新生国度》官方推出的一款在线直播节目中，官方制作人员向玩家展示版本2.1下的\u201C募集队友系统\u201D。募....",
"emailed" : False,
"forwarded" : False,
"english" : False
}  , {
"index" : 14,
"articleIndex" : "19350",
"favor" :  False ,
     "read" : False,    
"title" : "奥巴马转投索饭？演讲中举例相信PS4会热卖脱销",
"titleTip" : "奥巴马转投索饭？演讲中举例相信PS4会热卖脱销",
"titleSummary" : "奥巴马转投索饭？演讲中举例相信PS4会热卖脱销",
"descSummary" : "次世代主机大战看来似乎已经是全世界关注的焦点，就连...",
"url" : "http:\/\/go.rss.sina.com.cn\/redirect.php?url=http:\/\/games.sina.com.cn\/t\/n\/2013-10-24\/1016739514.shtml",
"pubDate" : "2013年10月24日 (6天前)",
"enterDate" : "384181:10:06",
"channelId" : "-499086918459853613",
"channelName" : "电视游戏新闻-新浪游戏",
"channelNameSummary" : "电视游戏新闻-新浪游...",
"channelUrl" : "http:\/\/games.sina.com.cn\/t\/news\/dsyx\/index.shtml",
"author" : "WWW.SINA.COM.CN",
"tags" : [],
"desc" : "次世代主机大战看来似乎已经是全世界关注的焦点，就连本应该正忙着处理美国政府最近一系列麻烦事的奥巴马也没忘记顺便关注一下。 本月21日，美国总统奥巴马在演讲中推动其一直宣传的新医保法案时提到了PS4。\u201C最新一代的PlayStation(PS4)会在感恩节后卖到脱销，但....",
"emailed" : False,
"forwarded" : False,
"english" : False
}  , {
"index" : 15,
"articleIndex" : "19349",
"favor" :  False ,
     "read" : False,    
"title" : "18禁游戏《斗神都市》登陆3DS明年发售",
"titleTip" : "18禁游戏《斗神都市》登陆3DS明年发售",
"titleSummary" : "18禁游戏《斗神都市》登陆3DS明年发售",
"descSummary" : "3DS游戏《斗神都市》日前公开杂志图，本作是以ALICE SOFT经...",
"url" : "http:\/\/go.rss.sina.com.cn\/redirect.php?url=http:\/\/games.sina.com.cn\/t\/n\/2013-10-23\/1815739485.shtml",
"pubDate" : "2013年10月23日 (1周前)",
"enterDate" : "384189:15:35",
"channelId" : "-499086918459853613",
"channelName" : "电视游戏新闻-新浪游戏",
"channelNameSummary" : "电视游戏新闻-新浪游...",
"channelUrl" : "http:\/\/games.sina.com.cn\/t\/news\/dsyx\/index.shtml",
"author" : "WWW.SINA.COM.CN",
"tags" : [],
"desc" : "3DS游戏《斗神都市》日前公开杂志图，本作是以ALICE SOFT经典18禁名作《斗神都市2》为基础的复刻版。游戏中的主人公可以将从女孩子那里获得的爱情与感谢化作力量，开放特殊能力。 《斗神都市》将于2014年1月30日发售，售价6279日元。游戏由Imageepoch发行，社长御影良....",
"emailed" : False,
"forwarded" : False,
"english" : False
}  , {
"index" : 16,
"articleIndex" : "19348",
"favor" :  False ,
     "read" : False,    
"title" : "《塞尔达传说》限定3DS LL日版机公开",
"titleTip" : "《塞尔达传说》限定3DS LL日版机公开",
"titleSummary" : "《塞尔达传说》限定3DS LL日版机公开",
"descSummary" : "之前我们为大家介绍过《塞尔达传说：众神的三角力量2》金色限...",
"url" : "http:\/\/go.rss.sina.com.cn\/redirect.php?url=http:\/\/games.sina.com.cn\/t\/n\/2013-10-23\/1758739483.shtml",
"pubDate" : "2013年10月23日 (1周前)",
"enterDate" : "384188:58:22",
"channelId" : "-499086918459853613",
"channelName" : "电视游戏新闻-新浪游戏",
"channelNameSummary" : "电视游戏新闻-新浪游...",
"channelUrl" : "http:\/\/games.sina.com.cn\/t\/news\/dsyx\/index.shtml",
"author" : "WWW.SINA.COM.CN",
"tags" : [],
"desc" : "之前我们为大家介绍过《塞尔达传说：众神的三角力量2》金色限定机会登陆欧美市场，而今天任天堂在其官网上正式宣布金色限定机也将登陆日本市场，将于12月26日开始销售，售价22800日元。主机将会同捆游戏的下载版，喜欢的玩家可以届时进行购买。",
"emailed" : False,
"forwarded" : False,
"english" : False
}  , {
"index" : 17,
"articleIndex" : "19347",
"favor" :  False ,
     "read" : False,    
"title" : "任天堂特殊配色限定版3DS LL主机公开",
"titleTip" : "任天堂特殊配色限定版3DS LL主机公开",
"titleSummary" : "任天堂特殊配色限定版3DS LL主机公开",
"descSummary" : "日前任天堂在其官网上公布了2款新颜色的3DS LL限定主机，分别...",
"url" : "http:\/\/go.rss.sina.com.cn\/redirect.php?url=http:\/\/games.sina.com.cn\/t\/n\/2013-10-23\/1730739475.shtml",
"pubDate" : "2013年10月23日 (1周前)",
"enterDate" : "384188:29:53",
"channelId" : "-499086918459853613",
"channelName" : "电视游戏新闻-新浪游戏",
"channelNameSummary" : "电视游戏新闻-新浪游...",
"channelUrl" : "http:\/\/games.sina.com.cn\/t\/news\/dsyx\/index.shtml",
"author" : "WWW.SINA.COM.CN",
"tags" : [],
"desc" : "日前任天堂在其官网上公布了2款新颜色的3DS LL限定主机，分别是橙色×黑色、松绿×黑色3DS LL。这两款限定机将会同捆充电器与收纳包，同时，主机的按键也变成了相应的颜色。主机将于11月28日开始进行销售，售价19900日元(约1243人民币)。",
"emailed" : False,
"forwarded" : False,
"english" : False
}  , {
"index" : 18,
"articleIndex" : "19346",
"favor" :  False ,
     "read" : False,    
"title" : "清纯安在？周冬雨日本秋叶原街头拍片",
"titleTip" : "清纯安在？周冬雨日本秋叶原街头拍片",
"titleSummary" : "清纯安在？周冬雨日本秋叶原街头拍片",
"descSummary" : "",
"url" : "http:\/\/go.rss.sina.com.cn\/redirect.php?url=http:\/\/slide.games.sina.com.cn\/t\/slide_21_1604_177270.html",
"pubDate" : "2013年10月23日 (1周前)",
"enterDate" : "384188:05:01",
"channelId" : "-499086918459853613",
"channelName" : "电视游戏新闻-新浪游戏",
"channelNameSummary" : "电视游戏新闻-新浪游...",
"channelUrl" : "http:\/\/games.sina.com.cn\/t\/news\/dsyx\/index.shtml",
"author" : "WWW.SINA.COM.CN",
"tags" : [],
"desc" : "",
"emailed" : False,
"forwarded" : False,
"english" : False
}  , {
"index" : 19,
"articleIndex" : "19345",
"favor" :  False ,
     "read" : False,    
"title" : "《Wii Fit U》最新截图展示运动项目",
"titleTip" : "《Wii Fit U》最新截图展示运动项目",
"titleSummary" : "《Wii Fit U》最新截图展示运动项目",
"descSummary" : "《Wii Fit U》是任天堂所推出的WiiU新作，其正式下载版将于2014年...",
"url" : "http:\/\/go.rss.sina.com.cn\/redirect.php?url=http:\/\/games.sina.com.cn\/t\/n\/2013-10-23\/1645739461.shtml",
"pubDate" : "2013年10月23日 (1周前)",
"enterDate" : "384187:44:59",
"channelId" : "-499086918459853613",
"channelName" : "电视游戏新闻-新浪游戏",
"channelNameSummary" : "电视游戏新闻-新浪游...",
"channelUrl" : "http:\/\/games.sina.com.cn\/t\/news\/dsyx\/index.shtml",
"author" : "WWW.SINA.COM.CN",
"tags" : [],
"desc" : "《Wii Fit U》是任天堂所推出的WiiU新作，其正式下载版将于2014年2月1日开始配信，售价3500日元。此外官方同期还将推出盒装游戏与计步器的套装，以及盒装游戏、计步器和平衡板的套装，其售价分别为5985日元和9975日元。日前任天堂公开了几张游戏的最新截图，下面就请玩家们一....",
"emailed" : False,
"forwarded" : False,
"english" : False
} ]
}
