{
"mode" : {"viewTitle" : 1,   "viewNew" : 0,  "pageIndex" : 2 },
 "channel" : {"id" : "-499086918459853613", "booked" : False, "subNumber" : 1, "name" : "电视游戏新闻-新浪游戏", "url" : "http:\/\/games.sina.com.cn\/t\/news\/dsyx\/index.shtml", "feed" : "http:\/\/rss.sina.com.cn\/games\/dsyx.xml", "author" : "WWW.SINA.COM.CN", "desc" : "新浪游戏之电视游戏新闻", "imageUrl" : "http:\/\/www.sinaimg.cn\/home\/images\/sina_logo2.gif", "postPerWeek" : "0", "lastCrawTime" : "17:17:15", "crawDateTime" : "06:29:40", "lastHttpCode" : "304"}, "page" : {
"startIndex" : 20,
"totalCount" : 5000,
"pageIndex" : 2,
"lastPage" : 250,
"pageSize" : 20,
"english" :  False },
 "unreadNum" : 0, "shotIndex" : -1,
"articles" : [
{
"index" : 0,
"articleIndex" : "19330",
"favor" :  False ,
     "read" : False,    
"title" : "洗洗睡吧 盘点已跳票到2014年的15大游戏",
"titleTip" : "洗洗睡吧 盘点已跳票到2014年的15大游戏",
"titleSummary" : "洗洗睡吧 盘点已跳票到2014年的15大游戏",
"descSummary" : "对于无数玩家来说游戏最坑爹的什么，估计很多玩家会毫不犹豫...",
"url" : "http:\/\/go.rss.sina.com.cn\/redirect.php?url=http:\/\/games.sina.com.cn\/t\/n\/2013-10-23\/1211739351.shtml",
"pubDate" : "2013年10月23日 (1周前)",
"enterDate" : "384183:11:35",
"channelId" : "-499086918459853613",
"channelName" : "电视游戏新闻-新浪游戏",
"channelNameSummary" : "电视游戏新闻-新浪游...",
"channelUrl" : "http:\/\/games.sina.com.cn\/t\/news\/dsyx\/index.shtml",
"author" : "WWW.SINA.COM.CN",
"tags" : [],
"desc" : "对于无数玩家来说游戏最坑爹的什么，估计很多玩家会毫不犹豫的说出\u201C跳票\u201D，什么是跳票，跳票就是那种\u201C裤子都脱了，你却给我看葫芦娃\u201D，这不，在前几天育碧的次世代大作《看门狗(Watch Dogs)》爆出了跳票的消息其实细数今年跳票的不仅是这么一两部作品，今天就让我们来盘点....",
"emailed" : False,
"forwarded" : False,
"english" : False
}  , {
"index" : 1,
"articleIndex" : "19331",
"favor" :  False ,
     "read" : False,    
"title" : "洗洗睡吧 盘点已跳票到2014年的15大游戏(2)",
"titleTip" : "洗洗睡吧 盘点已跳票到2014年的15大游戏(2)",
"titleSummary" : "洗洗睡吧 盘点已跳票到2014年的15大游戏(2)",
"descSummary" : "赛车计划 早在今年初，早前Slightly Mad Studios就放出旗下...",
"url" : "http:\/\/go.rss.sina.com.cn\/redirect.php?url=http:\/\/games.sina.com.cn\/t\/n\/2013-10-23\/1211739351_2.shtml",
"pubDate" : "2013年10月23日 (1周前)",
"enterDate" : "384183:11:35",
"channelId" : "-499086918459853613",
"channelName" : "电视游戏新闻-新浪游戏",
"channelNameSummary" : "电视游戏新闻-新浪游...",
"channelUrl" : "http:\/\/games.sina.com.cn\/t\/news\/dsyx\/index.shtml",
"author" : "WWW.SINA.COM.CN",
"tags" : [],
"desc" : "赛车计划 早在今年初，早前Slightly Mad Studios就放出旗下号称史上最真实的赛车游戏模拟赛车新作《赛车计划》，游戏宛如照片版的高画质截图令众多玩家叹为观止，所以拥有极其绚丽的画面以及众多超豪华跑车的《赛车计划》毫无疑问是2013年最受玩家期待的赛车大作，而开....",
"emailed" : False,
"forwarded" : False,
"english" : False
}  , {
"index" : 2,
"articleIndex" : "19332",
"favor" :  False ,
     "read" : False,    
"title" : "洗洗睡吧 盘点已跳票到2014年的15大游戏(3)",
"titleTip" : "洗洗睡吧 盘点已跳票到2014年的15大游戏(3)",
"titleSummary" : "洗洗睡吧 盘点已跳票到2014年的15大游戏(3)",
"descSummary" : "龙腾世纪3：审判 作为龙腾世纪系列的最新作品，《龙腾世纪...",
"url" : "http:\/\/go.rss.sina.com.cn\/redirect.php?url=http:\/\/games.sina.com.cn\/t\/n\/2013-10-23\/1211739351_3.shtml",
"pubDate" : "2013年10月23日 (1周前)",
"enterDate" : "384183:11:35",
"channelId" : "-499086918459853613",
"channelName" : "电视游戏新闻-新浪游戏",
"channelNameSummary" : "电视游戏新闻-新浪游...",
"channelUrl" : "http:\/\/games.sina.com.cn\/t\/news\/dsyx\/index.shtml",
"author" : "WWW.SINA.COM.CN",
"tags" : [],
"desc" : "龙腾世纪3：审判 作为龙腾世纪系列的最新作品，《龙腾世纪》系列执行制作人Mark Darrah 很早就在官网发表给玩家的一封信，证实新作名称为《龙腾世纪3：审判》 ，强调游戏以新引擎开发制作、将可以带给玩家更加开展的游戏世界、更好的视觉效果、更多客制化的游戏内容，....",
"emailed" : False,
"forwarded" : False,
"english" : False
}  , {
"index" : 3,
"articleIndex" : "19333",
"favor" :  False ,
     "read" : False,    
"title" : "洗洗睡吧 盘点已跳票到2014年的15大游戏(4)",
"titleTip" : "洗洗睡吧 盘点已跳票到2014年的15大游戏(4)",
"titleSummary" : "洗洗睡吧 盘点已跳票到2014年的15大游戏(4)",
"descSummary" : "PS4版实况足球2014 在今年早些时候，科乐美就宣称年内发...",
"url" : "http:\/\/go.rss.sina.com.cn\/redirect.php?url=http:\/\/games.sina.com.cn\/t\/n\/2013-10-23\/1211739351_4.shtml",
"pubDate" : "2013年10月23日 (1周前)",
"enterDate" : "384183:11:35",
"channelId" : "-499086918459853613",
"channelName" : "电视游戏新闻-新浪游戏",
"channelNameSummary" : "电视游戏新闻-新浪游...",
"channelUrl" : "http:\/\/games.sina.com.cn\/t\/news\/dsyx\/index.shtml",
"author" : "WWW.SINA.COM.CN",
"tags" : [],
"desc" : "PS4版实况足球2014 在今年早些时候，科乐美就宣称年内发售的Konami足球仿真类游戏《实况足球2014》将会在Xbox 360、PS3，PC以及PSP四大平台上发布，但是在今年6月的时候，出版商又证实称，今年年内发售的科乐美足球仿真类游戏《实况足球》将不会在Xbox One和PS4两大平....",
"emailed" : False,
"forwarded" : False,
"english" : False
}  , {
"index" : 4,
"articleIndex" : "19334",
"favor" :  False ,
     "read" : False,    
"title" : "洗洗睡吧 盘点已跳票到2014年的15大游戏(5)",
"titleTip" : "洗洗睡吧 盘点已跳票到2014年的15大游戏(5)",
"titleSummary" : "洗洗睡吧 盘点已跳票到2014年的15大游戏(5)",
"descSummary" : "奇迹时代3 作为一款回合制战略游戏，《奇迹时代》可以说是...",
"url" : "http:\/\/go.rss.sina.com.cn\/redirect.php?url=http:\/\/games.sina.com.cn\/t\/n\/2013-10-23\/1211739351_5.shtml",
"pubDate" : "2013年10月23日 (1周前)",
"enterDate" : "384183:11:35",
"channelId" : "-499086918459853613",
"channelName" : "电视游戏新闻-新浪游戏",
"channelNameSummary" : "电视游戏新闻-新浪游...",
"channelUrl" : "http:\/\/games.sina.com.cn\/t\/news\/dsyx\/index.shtml",
"author" : "WWW.SINA.COM.CN",
"tags" : [],
"desc" : "奇迹时代3 作为一款回合制战略游戏，《奇迹时代》可以说是一款将《魔法门英雄无敌》，《魔法大师》，以及《战神3》结合在一起的独特游戏，《奇迹时代》在推出之后受到玩家和媒体的好评，所以它的续作也自然受到了很多玩家的期待，而采用全新的3D画质显示技术，让玩家真....",
"emailed" : False,
"forwarded" : False,
"english" : False
}  , {
"index" : 5,
"articleIndex" : "19335",
"favor" :  False ,
     "read" : False,    
"title" : "洗洗睡吧 盘点已跳票到2014年的15大游戏(6)",
"titleTip" : "洗洗睡吧 盘点已跳票到2014年的15大游戏(6)",
"titleSummary" : "洗洗睡吧 盘点已跳票到2014年的15大游戏(6)",
"descSummary" : "地球防卫军4 提起《地球防卫军》系列游戏大家也许都不会感...",
"url" : "http:\/\/go.rss.sina.com.cn\/redirect.php?url=http:\/\/games.sina.com.cn\/t\/n\/2013-10-23\/1211739351_6.shtml",
"pubDate" : "2013年10月23日 (1周前)",
"enterDate" : "384183:11:35",
"channelId" : "-499086918459853613",
"channelName" : "电视游戏新闻-新浪游戏",
"channelNameSummary" : "电视游戏新闻-新浪游...",
"channelUrl" : "http:\/\/games.sina.com.cn\/t\/news\/dsyx\/index.shtml",
"author" : "WWW.SINA.COM.CN",
"tags" : [],
"desc" : "地球防卫军4 提起《地球防卫军》系列游戏大家也许都不会感到陌生，该系类在各个主机平台上都曾留下过辉煌的足迹，而在最新作《地球防卫军4》据说会登陆PS3\/Xbox360，本作游戏故事发生在2017年，人类与被称为外星生命体接触，由于语言的不同，两方展开了激烈的战斗。于....",
"emailed" : False,
"forwarded" : False,
"english" : False
}  , {
"index" : 6,
"articleIndex" : "19336",
"favor" :  False ,
     "read" : False,    
"title" : "洗洗睡吧 盘点已跳票到2014年的15大游戏(7)",
"titleTip" : "洗洗睡吧 盘点已跳票到2014年的15大游戏(7)",
"titleSummary" : "洗洗睡吧 盘点已跳票到2014年的15大游戏(7)",
"descSummary" : "德军总部：新秩序 德军总部自1981年问世以来，已经发展了...",
"url" : "http:\/\/go.rss.sina.com.cn\/redirect.php?url=http:\/\/games.sina.com.cn\/t\/n\/2013-10-23\/1211739351_7.shtml",
"pubDate" : "2013年10月23日 (1周前)",
"enterDate" : "384183:11:35",
"channelId" : "-499086918459853613",
"channelName" : "电视游戏新闻-新浪游戏",
"channelNameSummary" : "电视游戏新闻-新浪游...",
"channelUrl" : "http:\/\/games.sina.com.cn\/t\/news\/dsyx\/index.shtml",
"author" : "WWW.SINA.COM.CN",
"tags" : [],
"desc" : "德军总部：新秩序 德军总部自1981年问世以来，已经发展了五代了，而且每一代都受到了很多玩家的关注，作为史上经典游戏之一， 德军总部当初不知道风靡了世界上多少玩家，有的玩家说这是FPS游戏的开山鼻祖，自《德军总部3D》之后毁灭公爵等众多经典FPS游戏则以此款游戏....",
"emailed" : False,
"forwarded" : False,
"english" : False
}  , {
"index" : 7,
"articleIndex" : "19337",
"favor" :  False ,
     "read" : False,    
"title" : "洗洗睡吧 盘点已跳票到2014年的15大游戏(8)",
"titleTip" : "洗洗睡吧 盘点已跳票到2014年的15大游戏(8)",
"titleSummary" : "洗洗睡吧 盘点已跳票到2014年的15大游戏(8)",
"descSummary" : "黑暗之魂2 作为曾经凭借出色的新概念以及极高的难度，在欧...",
"url" : "http:\/\/go.rss.sina.com.cn\/redirect.php?url=http:\/\/games.sina.com.cn\/t\/n\/2013-10-23\/1211739351_8.shtml",
"pubDate" : "2013年10月23日 (1周前)",
"enterDate" : "384183:11:35",
"channelId" : "-499086918459853613",
"channelName" : "电视游戏新闻-新浪游戏",
"channelNameSummary" : "电视游戏新闻-新浪游...",
"channelUrl" : "http:\/\/games.sina.com.cn\/t\/news\/dsyx\/index.shtml",
"author" : "WWW.SINA.COM.CN",
"tags" : [],
"desc" : "黑暗之魂2 作为曾经凭借出色的新概念以及极高的难度，在欧美掀起巨大关注并获奖频频的日本RPG《恶魔之魂》续作，黑暗之魂继承了前作黑暗奇幻风格与精神，以\u201C探索迷宫的紧张感\u201D、\u201C遭遇敌人的恐怖感\u201D、\u201C新发现的喜悦感\u201D一直到\u201C存活到最后的达成感\u201D为诉求，而《黑....",
"emailed" : False,
"forwarded" : False,
"english" : False
}  , {
"index" : 8,
"articleIndex" : "19338",
"favor" :  False ,
     "read" : False,    
"title" : "洗洗睡吧 盘点已跳票到2014年的15大游戏(9)",
"titleTip" : "洗洗睡吧 盘点已跳票到2014年的15大游戏(9)",
"titleSummary" : "洗洗睡吧 盘点已跳票到2014年的15大游戏(9)",
"descSummary" : "神鬼寓言：周年纪念版 神鬼寓言的经典自不用说，所以由Li...",
"url" : "http:\/\/go.rss.sina.com.cn\/redirect.php?url=http:\/\/games.sina.com.cn\/t\/n\/2013-10-23\/1211739351_9.shtml",
"pubDate" : "2013年10月23日 (1周前)",
"enterDate" : "384183:11:35",
"channelId" : "-499086918459853613",
"channelName" : "电视游戏新闻-新浪游戏",
"channelNameSummary" : "电视游戏新闻-新浪游...",
"channelUrl" : "http:\/\/games.sina.com.cn\/t\/news\/dsyx\/index.shtml",
"author" : "WWW.SINA.COM.CN",
"tags" : [],
"desc" : "神鬼寓言：周年纪念版 神鬼寓言的经典自不用说，所以由Lionhead Studios打造的昔日经典神作《神鬼寓言》的高清重制《神鬼寓言：周年纪念版(Fable Anniversary)》成为了玩家期待的又一款好游戏，在今年的E3展上游戏曾经提供给玩家试玩服务，借助新引擎，画面得以逼近次....",
"emailed" : False,
"forwarded" : False,
"english" : False
}  , {
"index" : 9,
"articleIndex" : "19339",
"favor" :  False ,
     "read" : False,    
"title" : "洗洗睡吧 盘点已跳票到2014年的15大游戏(10)",
"titleTip" : "洗洗睡吧 盘点已跳票到2014年的15大游戏(10)",
"titleSummary" : "洗洗睡吧 盘点已跳票到2014年的15大游戏(10)",
"descSummary" : "荒野星球 作为今年E3最为耀眼的游戏大作，荒野星球可以...",
"url" : "http:\/\/go.rss.sina.com.cn\/redirect.php?url=http:\/\/games.sina.com.cn\/t\/n\/2013-10-23\/1211739351_10.shtml",
"pubDate" : "2013年10月23日 (1周前)",
"enterDate" : "384183:11:35",
"channelId" : "-499086918459853613",
"channelName" : "电视游戏新闻-新浪游戏",
"channelNameSummary" : "电视游戏新闻-新浪游...",
"channelUrl" : "http:\/\/games.sina.com.cn\/t\/news\/dsyx\/index.shtml",
"author" : "WWW.SINA.COM.CN",
"tags" : [],
"desc" : "荒野星球 作为今年E3最为耀眼的游戏大作，荒野星球可以说是抢进了很多游戏的风头，在E3中《荒野星球》获得了\u201CMost Anticipated\u201D大奖，这款以欧美玩家习惯进行制作的《荒野星球》，通过科幻背景在展会中获得好评，游戏以紧张的剧情和特色的\u201CPath\u201D系统为主要特色，它....",
"emailed" : False,
"forwarded" : False,
"english" : False
}  , {
"index" : 10,
"articleIndex" : "19340",
"favor" :  False ,
     "read" : False,    
"title" : "洗洗睡吧 盘点已跳票到2014年的15大游戏(11)",
"titleTip" : "洗洗睡吧 盘点已跳票到2014年的15大游戏(11)",
"titleSummary" : "洗洗睡吧 盘点已跳票到2014年的15大游戏(11)",
"descSummary" : "《Kinect体育竞技》 《Kinect体育竞技》原先是Xbox One...",
"url" : "http:\/\/go.rss.sina.com.cn\/redirect.php?url=http:\/\/games.sina.com.cn\/t\/n\/2013-10-23\/1211739351_11.shtml",
"pubDate" : "2013年10月23日 (1周前)",
"enterDate" : "384183:11:35",
"channelId" : "-499086918459853613",
"channelName" : "电视游戏新闻-新浪游戏",
"channelNameSummary" : "电视游戏新闻-新浪游...",
"channelUrl" : "http:\/\/games.sina.com.cn\/t\/news\/dsyx\/index.shtml",
"author" : "WWW.SINA.COM.CN",
"tags" : [],
"desc" : "《Kinect体育竞技》 《Kinect体育竞技》原先是Xbox One首发游戏名单的一员，这是一款依托Xbox One自带的Kinect2.0运行的模拟竞技游戏，本作由许多迷你小游戏所组成，游戏的内容也是多种多样的，游戏里包括了很多玩家最喜欢的体育项目，例如足球，攀岩，射击，网球和保....",
"emailed" : False,
"forwarded" : False,
"english" : False
}  , {
"index" : 11,
"articleIndex" : "19341",
"favor" :  False ,
     "read" : False,    
"title" : "洗洗睡吧 盘点已跳票到2014年的15大游戏(13)",
"titleTip" : "洗洗睡吧 盘点已跳票到2014年的15大游戏(13)",
"titleSummary" : "洗洗睡吧 盘点已跳票到2014年的15大游戏(13)",
"descSummary" : "第一滴血 史泰龙在第一滴血中的表现让无数玩家看到了\u201C...",
"url" : "http:\/\/go.rss.sina.com.cn\/redirect.php?url=http:\/\/games.sina.com.cn\/t\/n\/2013-10-23\/1211739351_13.shtml",
"pubDate" : "2013年10月23日 (1周前)",
"enterDate" : "384183:11:35",
"channelId" : "-499086918459853613",
"channelName" : "电视游戏新闻-新浪游戏",
"channelNameSummary" : "电视游戏新闻-新浪游...",
"channelUrl" : "http:\/\/games.sina.com.cn\/t\/news\/dsyx\/index.shtml",
"author" : "WWW.SINA.COM.CN",
"tags" : [],
"desc" : "第一滴血 史泰龙在第一滴血中的表现让无数玩家看到了\u201C铁血真男人\u201D的样子，很多玩家都想体验下\u201C铁血真男人\u201D的感觉，所以Reef娱乐公司就给玩家们带来了旗下最新游戏《第一滴血：游戏版》，据说《第一滴血》将会是三大平台兼顾的3A级大作，将忠于《第一滴血》电影系列....",
"emailed" : False,
"forwarded" : False,
"english" : False
}  , {
"index" : 12,
"articleIndex" : "19342",
"favor" :  False ,
     "read" : False,    
"title" : "洗洗睡吧 盘点已跳票到2014年的15大游戏(14)",
"titleTip" : "洗洗睡吧 盘点已跳票到2014年的15大游戏(14)",
"titleSummary" : "洗洗睡吧 盘点已跳票到2014年的15大游戏(14)",
"descSummary" : "现代战争5 如果玩过手机游戏的玩家，他们绝对是不会忘记...",
"url" : "http:\/\/go.rss.sina.com.cn\/redirect.php?url=http:\/\/games.sina.com.cn\/t\/n\/2013-10-23\/1211739351_14.shtml",
"pubDate" : "2013年10月23日 (1周前)",
"enterDate" : "384183:11:35",
"channelId" : "-499086918459853613",
"channelName" : "电视游戏新闻-新浪游戏",
"channelNameSummary" : "电视游戏新闻-新浪游...",
"channelUrl" : "http:\/\/games.sina.com.cn\/t\/news\/dsyx\/index.shtml",
"author" : "WWW.SINA.COM.CN",
"tags" : [],
"desc" : "现代战争5 如果玩过手机游戏的玩家，他们绝对是不会忘记Gameloft的，这个育碧旗下的Gameloft公司在手机游戏界中可以说是当之无愧的霸主，它发行的很多手机游戏品质高的让人无语，《现代战争》系列就是这么一款作品，《现代战争》系列游戏是著名游戏开发厂商Gameloft麾....",
"emailed" : False,
"forwarded" : False,
"english" : False
}  , {
"index" : 13,
"articleIndex" : "19343",
"favor" :  False ,
     "read" : False,    
"title" : "洗洗睡吧 盘点已跳票到2014年的15大游戏(15)",
"titleTip" : "洗洗睡吧 盘点已跳票到2014年的15大游戏(15)",
"titleSummary" : "洗洗睡吧 盘点已跳票到2014年的15大游戏(15)",
"descSummary" : "地球防卫军4 提起《地球防卫军》系列游戏大家也许都不会...",
"url" : "http:\/\/go.rss.sina.com.cn\/redirect.php?url=http:\/\/games.sina.com.cn\/t\/n\/2013-10-23\/1211739351_15.shtml",
"pubDate" : "2013年10月23日 (1周前)",
"enterDate" : "384183:11:35",
"channelId" : "-499086918459853613",
"channelName" : "电视游戏新闻-新浪游戏",
"channelNameSummary" : "电视游戏新闻-新浪游...",
"channelUrl" : "http:\/\/games.sina.com.cn\/t\/news\/dsyx\/index.shtml",
"author" : "WWW.SINA.COM.CN",
"tags" : [],
"desc" : "地球防卫军4 提起《地球防卫军》系列游戏大家也许都不会感到陌生，该系类在各个主机平台上都曾留下过辉煌的足迹，而在最新作《地球防卫军4》据说会登陆PS3\/Xbox360，本作游戏故事发生在2017年，人类与被称为外星生命体接触，由于语言的不同，两方展开了激烈的战斗。于....",
"emailed" : False,
"forwarded" : False,
"english" : False
}  , {
"index" : 14,
"articleIndex" : "19344",
"favor" :  False ,
     "read" : False,    
"title" : "洗洗睡吧 盘点已跳票到2014年的15大游戏(12)",
"titleTip" : "洗洗睡吧 盘点已跳票到2014年的15大游戏(12)",
"titleSummary" : "洗洗睡吧 盘点已跳票到2014年的15大游戏(12)",
"descSummary" : "幽浮 幽浮游戏讲述的是人类与未知敌人的斗争的故事。玩...",
"url" : "http:\/\/go.rss.sina.com.cn\/redirect.php?url=http:\/\/games.sina.com.cn\/t\/n\/2013-10-23\/1211739351_12.shtml",
"pubDate" : "2013年10月23日 (1周前)",
"enterDate" : "384183:11:35",
"channelId" : "-499086918459853613",
"channelName" : "电视游戏新闻-新浪游戏",
"channelNameSummary" : "电视游戏新闻-新浪游...",
"channelUrl" : "http:\/\/games.sina.com.cn\/t\/news\/dsyx\/index.shtml",
"author" : "WWW.SINA.COM.CN",
"tags" : [],
"desc" : "幽浮 幽浮游戏讲述的是人类与未知敌人的斗争的故事。玩家要扮演FBI探员，搞清楚敌人的底细，并尽量减轻敌人的威胁。游戏的精髓就在于，玩家需要危险系数极高的策略，并伴随着令人窒息的战斗，从1994年这游戏也发布超过4代了，而最近这游戏又被重制，由《生化奇兵2》的2....",
"emailed" : False,
"forwarded" : False,
"english" : False
}  , {
"index" : 15,
"articleIndex" : "19329",
"favor" :  False ,
     "read" : False,    
"title" : "《战地4》单人模式预告 女兵登陆上海滩",
"titleTip" : "《战地4》单人模式预告 女兵登陆上海滩",
"titleSummary" : "《战地4》单人模式预告 女兵登陆上海滩",
"descSummary" : "DICE精心打造的次世代FPS巨作《战地4》将于10月29日与玩家...",
"url" : "http:\/\/go.rss.sina.com.cn\/redirect.php?url=http:\/\/games.sina.com.cn\/t\/n\/2013-10-23\/1158739350.shtml",
"pubDate" : "2013年10月23日 (1周前)",
"enterDate" : "384182:58:37",
"channelId" : "-499086918459853613",
"channelName" : "电视游戏新闻-新浪游戏",
"channelNameSummary" : "电视游戏新闻-新浪游...",
"channelUrl" : "http:\/\/games.sina.com.cn\/t\/news\/dsyx\/index.shtml",
"author" : "WWW.SINA.COM.CN",
"tags" : [],
"desc" : "DICE精心打造的次世代FPS巨作《战地4》将于10月29日与玩家见面，官方为了再度点燃玩家的激情，今日放出了本作的\u201C单人剧情\u201D预告。与之前的预告不同，这次主打\u201C单人模式\u201D，游戏制作人表示《战地4》的单人剧情将有非常精彩的表现，绝不让玩家失望。 战地4 片中展示....",
"emailed" : False,
"forwarded" : False,
"english" : False
}  , {
"index" : 16,
"articleIndex" : "19328",
"favor" :  False ,
     "read" : False,    
"title" : "《最终幻想14》建房演示 唯美小屋由你打造",
"titleTip" : "《最终幻想14》建房演示 唯美小屋由你打造",
"titleSummary" : "《最终幻想14》建房演示 唯美小屋由你打造",
"descSummary" : "今日，SE公布了《最终幻想14：新生国度》最新游戏\u201C建房...",
"url" : "http:\/\/go.rss.sina.com.cn\/redirect.php?url=http:\/\/games.sina.com.cn\/t\/n\/2013-10-23\/1036739279.shtml",
"pubDate" : "2013年10月23日 (1周前)",
"enterDate" : "384181:36:16",
"channelId" : "-499086918459853613",
"channelName" : "电视游戏新闻-新浪游戏",
"channelNameSummary" : "电视游戏新闻-新浪游...",
"channelUrl" : "http:\/\/games.sina.com.cn\/t\/news\/dsyx\/index.shtml",
"author" : "WWW.SINA.COM.CN",
"tags" : [],
"desc" : "今日，SE公布了《最终幻想14：新生国度》最新游戏\u201C建房\u201D演示。从视频中我们可以看出在游戏中玩家可以自己一步一步创作出属于自己的非常棒的房子，房子的式样和款式非常多，有欧式的农舍，有的是的海边的小木屋等非常好看，此外游戏中玩家的DIY功能选项非常多，除了房子的基....",
"emailed" : False,
"forwarded" : False,
"english" : False
}  , {
"index" : 17,
"articleIndex" : "19327",
"favor" :  False ,
     "read" : False,    
"title" : "WiiU开机红灯故障频现 任天堂尚未回应",
"titleTip" : "WiiU开机红灯故障频现 任天堂尚未回应",
"titleSummary" : "WiiU开机红灯故障频现 任天堂尚未回应",
"descSummary" : "近期欧美和日本的WiiU用户陆续爆出不能正常开机的红灯情况，...",
"url" : "http:\/\/go.rss.sina.com.cn\/redirect.php?url=http:\/\/games.sina.com.cn\/t\/n\/2013-10-22\/1657739216.shtml",
"pubDate" : "2013年10月22日 (1周前)",
"enterDate" : "384187:49:02",
"channelId" : "-499086918459853613",
"channelName" : "电视游戏新闻-新浪游戏",
"channelNameSummary" : "电视游戏新闻-新浪游...",
"channelUrl" : "http:\/\/games.sina.com.cn\/t\/news\/dsyx\/index.shtml",
"author" : "WWW.SINA.COM.CN",
"tags" : [],
"desc" : "近期欧美和日本的WiiU用户陆续爆出不能正常开机的红灯情况，遭遇此状况的玩家们纷纷表示：\u201C这就是死亡红圈吗？\u201D WiiU自2012年11月18日首发以来，有很多关于\u201C灯闪烁\u201D的反馈并在持续发生。据推测，\u201C灯闪烁\u201D可能是由于电源过热导致的问题，任天堂有可能没有很好....",
"emailed" : False,
"forwarded" : False,
"english" : False
}  , {
"index" : 18,
"articleIndex" : "19326",
"favor" :  False ,
     "read" : False,    
"title" : "《刺客信条》电影版主角法鲨表示从未玩过游戏",
"titleTip" : "《刺客信条》电影版主角法鲨表示从未玩过游戏",
"titleSummary" : "《刺客信条》电影版主角法鲨表示从未玩过游戏",
"descSummary" : "《刺客信条(Assassin's Creed)》电影版男主角已确认由...",
"url" : "http:\/\/go.rss.sina.com.cn\/redirect.php?url=http:\/\/games.sina.com.cn\/t\/n\/2013-10-22\/1611739207.shtml",
"pubDate" : "2013年10月22日 (1周前)",
"enterDate" : "384187:02:13",
"channelId" : "-499086918459853613",
"channelName" : "电视游戏新闻-新浪游戏",
"channelNameSummary" : "电视游戏新闻-新浪游...",
"channelUrl" : "http:\/\/games.sina.com.cn\/t\/news\/dsyx\/index.shtml",
"author" : "WWW.SINA.COM.CN",
"tags" : [],
"desc" : "《刺客信条(Assassin's Creed)》电影版男主角已确认由《X战警：第一战(X-Men: First Class)》中饰演年轻万磁王的迈克尔・法斯宾德(Michael Fassbender)出演。但他日前在接受国外媒体The Daily Beast采访时坦言，自己从未接触过任何一款《刺客信条》游戏作品。 迈克尔・法斯....",
"emailed" : False,
"forwarded" : False,
"english" : False
}  , {
"index" : 19,
"articleIndex" : "19325",
"favor" :  False ,
     "read" : False,    
"title" : "时代的眼泪 著名游戏系列的画面进化盘点",
"titleTip" : "时代的眼泪 著名游戏系列的画面进化盘点",
"titleSummary" : "时代的眼泪 著名游戏系列的画面进化盘点",
"descSummary" : "随着索尼和微软将于今年底相继推出次时代游戏主机PS4和Xb...",
"url" : "http:\/\/go.rss.sina.com.cn\/redirect.php?url=http:\/\/games.sina.com.cn\/t\/n\/2013-10-22\/1555739204.shtml",
"pubDate" : "2013年10月22日 (1周前)",
"enterDate" : "384186:46:41",
"channelId" : "-499086918459853613",
"channelName" : "电视游戏新闻-新浪游戏",
"channelNameSummary" : "电视游戏新闻-新浪游...",
"channelUrl" : "http:\/\/games.sina.com.cn\/t\/news\/dsyx\/index.shtml",
"author" : "WWW.SINA.COM.CN",
"tags" : [],
"desc" : "随着索尼和微软将于今年底相继推出次时代游戏主机PS4和Xbox One，游戏主机也将正式跨入一个新的世代，在主机世代交替之前让我们看一下那些著名游戏系列的游戏画面进化图，看看《电玩的过去与现在》，展示的游戏都是至今仍然还在出新作的系列。",
"emailed" : False,
"forwarded" : False,
"english" : False
} ]
}
