{
"mode" : {"viewTitle" : 1,   "viewNew" : 0,  "pageIndex" : 1 },
 "channel" : {"id" : "-7775321384893005703", "booked" : False, "subNumber" : 1, "name" : "青春校园排行榜-新浪读书", "url" : "http:\/\/book.sina.com.cn\/youth\/", "feed" : "http:\/\/rss.sina.com.cn\/book\/school_rank.xml", "author" : "WWW.SINA.COM.CN", "desc" : "青春校园排行榜", "imageUrl" : "http:\/\/www.sinaimg.cn\/book\/deco\/2010\/0826\/logo_v3.gif", "postPerWeek" : "0", "lastCrawTime" : "17:06:10", "crawDateTime" : "昨天00:00:35", "lastHttpCode" : "304"}, "page" : {
"startIndex" : 0,
"totalCount" : 941,
"pageIndex" : 1,
"lastPage" : 48,
"pageSize" : 20,
"english" :  False },
 "unreadNum" : 0, "shotIndex" : -1,
"articles" : [
{
"index" : 0,
"articleIndex" : "930",
"favor" :  False ,
     "read" : False,    
"title" : "高干子弟情陷小助理：临界爱情",
"titleTip" : "高干子弟情陷小助理：临界爱情",
"titleSummary" : "高干子弟情陷小助理：临界爱情",
"descSummary" : "他是家世显赫的高干子弟，却偏偏不肯放过落魄的她，不动声色地步步紧...",
"url" : "http:\/\/go.rss.sina.com.cn\/redirect.php?url=http:\/\/vip.book.sina.com.cn\/book\/index_191216.html",
"pubDate" : "前天00:07:50",
"enterDate" : "384201:18:52",
"channelId" : "-7775321384893005703",
"channelName" : "青春校园排行榜-新浪读书",
"channelNameSummary" : "青春校园排行榜-新浪...",
"channelUrl" : "http:\/\/book.sina.com.cn\/youth\/",
"author" : "WWW.SINA.COM.CN",
"tags" : [],
"desc" : "他是家世显赫的高干子弟，却偏偏不肯放过落魄的她，不动声色地步步紧逼，让她最终无路可退，一纸契约，嫁他为妻。本以为只是一场无心的缠绵，心却在不知不觉间，一寸寸沦陷，然而...",
"emailed" : False,
"forwarded" : False,
"english" : False
}  , {
"index" : 1,
"articleIndex" : "940",
"favor" :  False ,
     "read" : False,    
"title" : "倾国女医情乱京华：神医皇后(全)",
"titleTip" : "倾国女医情乱京华：神医皇后(全)",
"titleSummary" : "倾国女医情乱京华：神医皇后(全)",
"descSummary" : "命运的碰撞，让他与她堕入情感的深渊。为爱，她万里走天涯，历劫生死...",
"url" : "http:\/\/go.rss.sina.com.cn\/redirect.php?url=http:\/\/vip.book.sina.com.cn\/book\/index_250027.html",
"pubDate" : "前天16:56:08",
"enterDate" : "384194:07:10",
"channelId" : "-7775321384893005703",
"channelName" : "青春校园排行榜-新浪读书",
"channelNameSummary" : "青春校园排行榜-新浪...",
"channelUrl" : "http:\/\/book.sina.com.cn\/youth\/",
"author" : "WWW.SINA.COM.CN",
"tags" : [],
"desc" : "命运的碰撞，让他与她堕入情感的深渊。为爱，她万里走天涯，历劫生死；为她，他可否保持最初的一点真心？在一场又一场的美色和权谋的角力中，在情场和战场的酷烈争斗里，谁是谁的...",
"emailed" : False,
"forwarded" : False,
"english" : False
}  , {
"index" : 2,
"articleIndex" : "938",
"favor" :  False ,
     "read" : False,    
"title" : "残君王爷禁欲虐情：木槿花西月锦绣",
"titleTip" : "残君王爷禁欲虐情：木槿花西月锦绣",
"titleSummary" : "残君王爷禁欲虐情：木槿花西月锦绣",
"descSummary" : "我，花木槿，胸藏智慧，通达人世，守义重爱，善良勇敢，拼搏坚忍...",
"url" : "http:\/\/go.rss.sina.com.cn\/redirect.php?url=http:\/\/vip.book.sina.com.cn\/book\/index_42965.html",
"pubDate" : "2013年10月25日 (5天前)",
"enterDate" : "384195:37:32",
"channelId" : "-7775321384893005703",
"channelName" : "青春校园排行榜-新浪读书",
"channelNameSummary" : "青春校园排行榜-新浪...",
"channelUrl" : "http:\/\/book.sina.com.cn\/youth\/",
"author" : "WWW.SINA.COM.CN",
"tags" : [],
"desc" : "我，花木槿，胸藏智慧，通达人世，守义重爱，善良勇敢，拼搏坚忍，拥有两世记忆，自命对风月无情\u2026\u2026其实，我，花木槿，贪财好色，贪生怕死\u2026\u2026谁叫在紫园里，咱妹是红人，咱哥是...",
"emailed" : False,
"forwarded" : False,
"english" : False
}  , {
"index" : 3,
"articleIndex" : "937",
"favor" :  False ,
     "read" : False,    
"title" : "辛夷坞最新催泪力作：晨昏(全)",
"titleTip" : "辛夷坞最新催泪力作：晨昏(全)",
"titleSummary" : "辛夷坞最新催泪力作：晨昏(全)",
"descSummary" : "\u201D一句话，像是一个魔咒，攥住了两个人的心，注定了三个人的宿命。妖艳...",
"url" : "http:\/\/go.rss.sina.com.cn\/redirect.php?url=http:\/\/vip.book.sina.com.cn\/book\/index_236711.html",
"pubDate" : "2013年10月17日 (1周前)",
"enterDate" : "384175:23:10",
"channelId" : "-7775321384893005703",
"channelName" : "青春校园排行榜-新浪读书",
"channelNameSummary" : "青春校园排行榜-新浪...",
"channelUrl" : "http:\/\/book.sina.com.cn\/youth\/",
"author" : "WWW.SINA.COM.CN",
"tags" : [],
"desc" : "\u201D一句话，像是一个魔咒，攥住了两个人的心，注定了三个人的宿命。妖艳的止安是一团火，柔软的止怡是一汪水。纪廷就在这水火之间，辜负了水的温柔，却无法触及火的热烈。或许是可...",
"emailed" : False,
"forwarded" : False,
"english" : False
}  , {
"index" : 4,
"articleIndex" : "935",
"favor" :  False ,
     "read" : False,    
"title" : "错配鸳鸯嫁对郎：小户千金",
"titleTip" : "错配鸳鸯嫁对郎：小户千金",
"titleSummary" : "错配鸳鸯嫁对郎：小户千金",
"descSummary" : "虽说还只能嘤嘤之语，可她也是个懂事的，卖乖卖萌讨得邻里家人欢喜，哪想...",
"url" : "http:\/\/go.rss.sina.com.cn\/redirect.php?url=http:\/\/vip.book.sina.com.cn\/book\/index_246882.html",
"pubDate" : "2013年10月9日 (3周前)",
"enterDate" : "384052:49:44",
"channelId" : "-7775321384893005703",
"channelName" : "青春校园排行榜-新浪读书",
"channelNameSummary" : "青春校园排行榜-新浪...",
"channelUrl" : "http:\/\/book.sina.com.cn\/youth\/",
"author" : "WWW.SINA.COM.CN",
"tags" : [],
"desc" : "虽说还只能嘤嘤之语，可她也是个懂事的，卖乖卖萌讨得邻里家人欢喜，哪想到，她也是个旺夫益子的，有桃花朵朵连连开。同窗表哥还没摆平，名满京城的天才少年也来插一脚。这不三家...",
"emailed" : False,
"forwarded" : False,
"english" : False
}  , {
"index" : 5,
"articleIndex" : "939",
"favor" :  False ,
     "read" : False,    
"title" : "代姐出嫁斗爱呆傻公子：天下第一萌夫",
"titleTip" : "代姐出嫁斗爱呆傻公子：天下第一萌夫",
"titleSummary" : "代姐出嫁斗爱呆傻公子：天下第一萌夫",
"descSummary" : "秉着对三虫一体无限的憧憬，她欢快的接受了自己的人生，不但不...",
"url" : "http:\/\/go.rss.sina.com.cn\/redirect.php?url=http:\/\/vip.book.sina.com.cn\/book\/index_246889.html",
"pubDate" : "2013年10月8日 (3周前)",
"enterDate" : "383788:56:15",
"channelId" : "-7775321384893005703",
"channelName" : "青春校园排行榜-新浪读书",
"channelNameSummary" : "青春校园排行榜-新浪...",
"channelUrl" : "http:\/\/book.sina.com.cn\/youth\/",
"author" : "WWW.SINA.COM.CN",
"tags" : [],
"desc" : "秉着对三虫一体无限的憧憬，她欢快的接受了自己的人生，不但不怨还很开心的面对这一切，而不幸而幸运的是，虽然这个无比美貌的东方三公子是个呆傻\u2026\u2026但是但是，他真的好萌啊！于...",
"emailed" : False,
"forwarded" : False,
"english" : False
}  , {
"index" : 6,
"articleIndex" : "932",
"favor" :  False ,
     "read" : False,    
"title" : "霸道总裁只做不爱：假如爱有来生",
"titleTip" : "霸道总裁只做不爱：假如爱有来生",
"titleSummary" : "霸道总裁只做不爱：假如爱有来生",
"descSummary" : "豪门盛宴，步步惊心，生死相随的誓言，缠绵悱恻的痴情，到最后，终...",
"url" : "http:\/\/go.rss.sina.com.cn\/redirect.php?url=http:\/\/vip.book.sina.com.cn\/book\/index_112645.html",
"pubDate" : "2013年10月8日 (3周前)",
"enterDate" : "384194:06:40",
"channelId" : "-7775321384893005703",
"channelName" : "青春校园排行榜-新浪读书",
"channelNameSummary" : "青春校园排行榜-新浪...",
"channelUrl" : "http:\/\/book.sina.com.cn\/youth\/",
"author" : "WWW.SINA.COM.CN",
"tags" : [],
"desc" : "豪门盛宴，步步惊心，生死相随的誓言，缠绵悱恻的痴情，到最后，终是一场罪爱而已。（本书影视改编，2013年拍摄）...",
"emailed" : False,
"forwarded" : False,
"english" : False
}  , {
"index" : 7,
"articleIndex" : "925",
"favor" :  False ,
     "read" : False,    
"title" : "错嫁残君遇良缘：锦绣妃途",
"titleTip" : "错嫁残君遇良缘：锦绣妃途",
"titleSummary" : "错嫁残君遇良缘：锦绣妃途",
"descSummary" : "既然穿越了一回，她就要恣意活一把，现代女子岂容你们揉圆搓扁？在娘家，...",
"url" : "http:\/\/go.rss.sina.com.cn\/redirect.php?url=http:\/\/vip.book.sina.com.cn\/book\/index_196013.html",
"pubDate" : "2013年10月3日 (3周前)",
"enterDate" : "384119:54:48",
"channelId" : "-7775321384893005703",
"channelName" : "青春校园排行榜-新浪读书",
"channelNameSummary" : "青春校园排行榜-新浪...",
"channelUrl" : "http:\/\/book.sina.com.cn\/youth\/",
"author" : "WWW.SINA.COM.CN",
"tags" : [],
"desc" : "既然穿越了一回，她就要恣意活一把，现代女子岂容你们揉圆搓扁？在娘家，她看似胆小，实则狡诈如狐，机智百出。惩嫡母，罚嫡姐，活得风声水起。但封建社会下，再聪慧能干，还是得...",
"emailed" : False,
"forwarded" : False,
"english" : False
}  , {
"index" : 8,
"articleIndex" : "924",
"favor" :  False ,
     "read" : False,    
"title" : "总裁失陷小助理：谁的等待，恰逢花开",
"titleTip" : "总裁失陷小助理：谁的等待，恰逢花开",
"titleSummary" : "总裁失陷小助理：谁的等待，恰逢花开",
"descSummary" : "孤独多年的容岩再次遇到了多年前有过一面之缘的叶沐，产生好感...",
"url" : "http:\/\/go.rss.sina.com.cn\/redirect.php?url=http:\/\/vip.book.sina.com.cn\/book\/index_246974.html",
"pubDate" : "2013年10月2日 (4周前)",
"enterDate" : "384180:00:52",
"channelId" : "-7775321384893005703",
"channelName" : "青春校园排行榜-新浪读书",
"channelNameSummary" : "青春校园排行榜-新浪...",
"channelUrl" : "http:\/\/book.sina.com.cn\/youth\/",
"author" : "WWW.SINA.COM.CN",
"tags" : [],
"desc" : "孤独多年的容岩再次遇到了多年前有过一面之缘的叶沐，产生好感。两人为了捧红艺人张琳，而时时亲近，情愫渐生。与此同时，叶沐的总经理黎靳辰为了利用叶沐的背景积极地追求她。叶...",
"emailed" : False,
"forwarded" : False,
"english" : False
}  , {
"index" : 9,
"articleIndex" : "933",
"favor" :  False ,
     "read" : False,    
"title" : "我的大龄落跑情人：君生我已老",
"titleTip" : "我的大龄落跑情人：君生我已老",
"titleSummary" : "我的大龄落跑情人：君生我已老",
"descSummary" : "她比他大了七岁，可她最终被他深情的执著打动，爱情破土萌芽时，却被...",
"url" : "http:\/\/go.rss.sina.com.cn\/redirect.php?url=http:\/\/vip.book.sina.com.cn\/book\/index_246830.html",
"pubDate" : "2013年9月29日",
"enterDate" : "383953:54:59",
"channelId" : "-7775321384893005703",
"channelName" : "青春校园排行榜-新浪读书",
"channelNameSummary" : "青春校园排行榜-新浪...",
"channelUrl" : "http:\/\/book.sina.com.cn\/youth\/",
"author" : "WWW.SINA.COM.CN",
"tags" : [],
"desc" : "她比他大了七岁，可她最终被他深情的执著打动，爱情破土萌芽时，却被父母撞破，遭到强烈反对。她黯然远走上海，断了一切联系。然而世事辗转，青梅枯萎，竹马老去，那无法挽住的青...",
"emailed" : False,
"forwarded" : False,
"english" : False
}  , {
"index" : 10,
"articleIndex" : "928",
"favor" :  False ,
     "read" : False,    
"title" : "豪门夺爱：爱情吻过我们的脸",
"titleTip" : "豪门夺爱：爱情吻过我们的脸",
"titleSummary" : "豪门夺爱：爱情吻过我们的脸",
"descSummary" : "这一生，我们会遇上许多的人，就像赵明明遇上江城北，心为仰望的那个人...",
"url" : "http:\/\/go.rss.sina.com.cn\/redirect.php?url=http:\/\/vip.book.sina.com.cn\/book\/index_240245.html",
"pubDate" : "2013年9月29日",
"enterDate" : "384193:06:04",
"channelId" : "-7775321384893005703",
"channelName" : "青春校园排行榜-新浪读书",
"channelNameSummary" : "青春校园排行榜-新浪...",
"channelUrl" : "http:\/\/book.sina.com.cn\/youth\/",
"author" : "WWW.SINA.COM.CN",
"tags" : [],
"desc" : "这一生，我们会遇上许多的人，就像赵明明遇上江城北，心为仰望的那个人不可自拔地沉沦。情真意切的爱恋是否敌得过财富万万千的锦绣？浮华盛世的衣香鬓影，暗藏着商场的搏杀。是是...",
"emailed" : False,
"forwarded" : False,
"english" : False
}  , {
"index" : 11,
"articleIndex" : "927",
"favor" :  False ,
     "read" : False,    
"title" : "未婚妈妈旧爱变新欢：只为爱",
"titleTip" : "未婚妈妈旧爱变新欢：只为爱",
"titleSummary" : "未婚妈妈旧爱变新欢：只为爱",
"descSummary" : "而他和她，却天各一方整整六年。他恨她，恨到不愿意提起她，可他又是那...",
"url" : "http:\/\/go.rss.sina.com.cn\/redirect.php?url=http:\/\/vip.book.sina.com.cn\/book\/index_153352.html",
"pubDate" : "2013年9月26日",
"enterDate" : "384194:37:11",
"channelId" : "-7775321384893005703",
"channelName" : "青春校园排行榜-新浪读书",
"channelNameSummary" : "青春校园排行榜-新浪...",
"channelUrl" : "http:\/\/book.sina.com.cn\/youth\/",
"author" : "WWW.SINA.COM.CN",
"tags" : [],
"desc" : "而他和她，却天各一方整整六年。他恨她，恨到不愿意提起她，可他又是那么那么强烈地想念她，想到整整六年没有一个夜晚能安睡。她爱他，爱到他归来后用尽所有的手段企图破镜重圆，...",
"emailed" : False,
"forwarded" : False,
"english" : False
}  , {
"index" : 12,
"articleIndex" : "926",
"favor" :  False ,
     "read" : False,    
"title" : "高干浪子留宿霸爱：城府",
"titleTip" : "高干浪子留宿霸爱：城府",
"titleSummary" : "高干浪子留宿霸爱：城府",
"descSummary" : "以后走路的时候把腰挺直了走。\u201D她是个窝囊的女人，潦倒半生，在她的记忆里...",
"url" : "http:\/\/go.rss.sina.com.cn\/redirect.php?url=http:\/\/vip.book.sina.com.cn\/book\/index_246967.html",
"pubDate" : "2013年9月24日",
"enterDate" : "384193:42:31",
"channelId" : "-7775321384893005703",
"channelName" : "青春校园排行榜-新浪读书",
"channelNameSummary" : "青春校园排行榜-新浪...",
"channelUrl" : "http:\/\/book.sina.com.cn\/youth\/",
"author" : "WWW.SINA.COM.CN",
"tags" : [],
"desc" : "以后走路的时候把腰挺直了走。\u201D她是个窝囊的女人，潦倒半生，在她的记忆里没有过一个欢乐的片段。他是一个强悍优雅的男人，却浑身沾满血腥，多年都在寻求灵魂的救赎。上帝的手指...",
"emailed" : False,
"forwarded" : False,
"english" : False
}  , {
"index" : 13,
"articleIndex" : "922",
"favor" :  False ,
     "read" : False,    
"title" : "薄情帝王的夺爱游戏：废弃皇妃",
"titleTip" : "薄情帝王的夺爱游戏：废弃皇妃",
"titleSummary" : "薄情帝王的夺爱游戏：废弃皇妃",
"descSummary" : "颜若歆本是国的帝王之女，却被遗落山林，成为Q国颜家精心培养的棋子...",
"url" : "http:\/\/go.rss.sina.com.cn\/redirect.php?url=http:\/\/vip.book.sina.com.cn\/book\/index_169629.html",
"pubDate" : "2013年9月17日",
"enterDate" : "384195:04:30",
"channelId" : "-7775321384893005703",
"channelName" : "青春校园排行榜-新浪读书",
"channelNameSummary" : "青春校园排行榜-新浪...",
"channelUrl" : "http:\/\/book.sina.com.cn\/youth\/",
"author" : "WWW.SINA.COM.CN",
"tags" : [],
"desc" : "颜若歆本是国的帝王之女，却被遗落山林，成为Q国颜家精心培养的棋子。她不甘向命运屈服，情愿终日与冷宫相伴，也不愿争宠沦为政治的棋子。天意弄人，滂沱大雨中，她为救青梅竹...",
"emailed" : False,
"forwarded" : False,
"english" : False
}  , {
"index" : 14,
"articleIndex" : "921",
"favor" :  False ,
     "read" : False,    
"title" : "异世甩前夫情劫无言王爷：天生凉薄",
"titleTip" : "异世甩前夫情劫无言王爷：天生凉薄",
"titleSummary" : "异世甩前夫情劫无言王爷：天生凉薄",
"descSummary" : "再世为人，纵使伤痕累累，仍坚强执著。君既无情我便休，当誓言不...",
"url" : "http:\/\/go.rss.sina.com.cn\/redirect.php?url=http:\/\/vip.book.sina.com.cn\/book\/index_246826.html",
"pubDate" : "2013年9月16日",
"enterDate" : "384194:02:51",
"channelId" : "-7775321384893005703",
"channelName" : "青春校园排行榜-新浪读书",
"channelNameSummary" : "青春校园排行榜-新浪...",
"channelUrl" : "http:\/\/book.sina.com.cn\/youth\/",
"author" : "WWW.SINA.COM.CN",
"tags" : [],
"desc" : "再世为人，纵使伤痕累累，仍坚强执著。君既无情我便休，当誓言不在，决然转身，连怨恨都显多余。死而复生的挚亲，扑朔迷离的局。繁华落尽，谁能为伊人撑起一方天地？是风华绝世，...",
"emailed" : False,
"forwarded" : False,
"english" : False
}  , {
"index" : 15,
"articleIndex" : "931",
"favor" :  False ,
     "read" : False,    
"title" : "替身恨妃：凤影重重(全本)",
"titleTip" : "替身恨妃：凤影重重(全本)",
"titleSummary" : "替身恨妃：凤影重重(全本)",
"descSummary" : "当她抽丝剥茧，终于接近真相，却五内俱焚，那个戴青铜面具的恶魔，怎会是他...",
"url" : "http:\/\/go.rss.sina.com.cn\/redirect.php?url=http:\/\/vip.book.sina.com.cn\/book\/index_131627.html",
"pubDate" : "2013年9月15日",
"enterDate" : "383799:35:01",
"channelId" : "-7775321384893005703",
"channelName" : "青春校园排行榜-新浪读书",
"channelNameSummary" : "青春校园排行榜-新浪...",
"channelUrl" : "http:\/\/book.sina.com.cn\/youth\/",
"author" : "WWW.SINA.COM.CN",
"tags" : [],
"desc" : "当她抽丝剥茧，终于接近真相，却五内俱焚，那个戴青铜面具的恶魔，怎会是他\u2026\u2026她踏着血泪，一步步走上权力的巅峰，却仍逃不过红鸾帐内，他的无尽掠夺。她在他耳边含恨轻语：\u201C我...",
"emailed" : False,
"forwarded" : False,
"english" : False
}  , {
"index" : 16,
"articleIndex" : "923",
"favor" :  False ,
     "read" : False,    
"title" : "腹黑正妃大斗小三：下堂妻的悠哉日子",
"titleTip" : "腹黑正妃大斗小三：下堂妻的悠哉日子",
"titleSummary" : "腹黑正妃大斗小三：下堂妻的悠哉日子",
"descSummary" : "在生母绝望出家后，她只得化身母老虎，才保全年幼的弟弟不受姨...",
"url" : "http:\/\/go.rss.sina.com.cn\/redirect.php?url=http:\/\/vip.book.sina.com.cn\/book\/index_108775.html",
"pubDate" : "2013年9月13日",
"enterDate" : "384059:58:26",
"channelId" : "-7775321384893005703",
"channelName" : "青春校园排行榜-新浪读书",
"channelNameSummary" : "青春校园排行榜-新浪...",
"channelUrl" : "http:\/\/book.sina.com.cn\/youth\/",
"author" : "WWW.SINA.COM.CN",
"tags" : [],
"desc" : "在生母绝望出家后，她只得化身母老虎，才保全年幼的弟弟不受姨娘的百般凌辱。直到宋骅影巧遇贵人，凭着自己的力量秘密经营着富可敌国的第一商号\u2015\u2015落华影，那个垂涎她的\u201C老狐狸...",
"emailed" : False,
"forwarded" : False,
"english" : False
}  , {
"index" : 17,
"articleIndex" : "934",
"favor" :  False ,
     "read" : False,    
"title" : "豪门燃情代价：缠绵不休",
"titleTip" : "豪门燃情代价：缠绵不休",
"titleSummary" : "豪门燃情代价：缠绵不休",
"descSummary" : "他和她，每晚缠绵不休，却只有身体的契合，没有爱的承诺；她为他孕育孩子，...",
"url" : "http:\/\/go.rss.sina.com.cn\/redirect.php?url=http:\/\/vip.book.sina.com.cn\/book\/index_171480.html",
"pubDate" : "2013年8月30日",
"enterDate" : "383188:35:33",
"channelId" : "-7775321384893005703",
"channelName" : "青春校园排行榜-新浪读书",
"channelNameSummary" : "青春校园排行榜-新浪...",
"channelUrl" : "http:\/\/book.sina.com.cn\/youth\/",
"author" : "WWW.SINA.COM.CN",
"tags" : [],
"desc" : "他和她，每晚缠绵不休，却只有身体的契合，没有爱的承诺；她为他孕育孩子，为他付出真心，想成为他的妻子相爱一生，他却说，她不配！抵死缠绵，纠缠一生，当痛和泪埋葬了纯真的爱...",
"emailed" : False,
"forwarded" : False,
"english" : False
}  , {
"index" : 18,
"articleIndex" : "936",
"favor" :  False ,
     "read" : False,    
"title" : "错妃诱情",
"titleTip" : "错妃诱情",
"titleSummary" : "错妃诱情",
"descSummary" : "她被陷害落崖，女扮男装出现在他眼前，心冷如铁的他却紧追不舍。爱如穿肠毒，无毒不丈夫，...",
"url" : "http:\/\/go.rss.sina.com.cn\/redirect.php?url=http:\/\/vip.book.sina.com.cn\/book\/index_180963.html",
"pubDate" : "2013年5月28日",
"enterDate" : "380788:26:36",
"channelId" : "-7775321384893005703",
"channelName" : "青春校园排行榜-新浪读书",
"channelNameSummary" : "青春校园排行榜-新浪...",
"channelUrl" : "http:\/\/book.sina.com.cn\/youth\/",
"author" : "WWW.SINA.COM.CN",
"tags" : [],
"desc" : "她被陷害落崖，女扮男装出现在他眼前，心冷如铁的他却紧追不舍。爱如穿肠毒，无毒不丈夫，步步不归路。...",
"emailed" : False,
"forwarded" : False,
"english" : False
}  , {
"index" : 19,
"articleIndex" : "929",
"favor" :  False ,
     "read" : False,    
"title" : "中校的新娘",
"titleTip" : "中校的新娘",
"titleSummary" : "中校的新娘",
"descSummary" : "第二次见面，他一身笔挺的军装威武不凡，正跟一位女士谈笑风生。她坏了他的好事，他抓住...",
"url" : "http:\/\/go.rss.sina.com.cn\/redirect.php?url=http:\/\/vip.book.sina.com.cn\/book\/index_219429.html",
"pubDate" : "2013年5月12日",
"enterDate" : "380807:10:47",
"channelId" : "-7775321384893005703",
"channelName" : "青春校园排行榜-新浪读书",
"channelNameSummary" : "青春校园排行榜-新浪...",
"channelUrl" : "http:\/\/book.sina.com.cn\/youth\/",
"author" : "WWW.SINA.COM.CN",
"tags" : [],
"desc" : "第二次见面，他一身笔挺的军装威武不凡，正跟一位女士谈笑风生。她坏了他的好事，他抓住了她的手禁止她离开。\u201C你吓走了我未来老婆。\u201D\u201C所以呢？\u201D\u201C你必须赔我一个老婆！\u201D********...",
"emailed" : False,
"forwarded" : False,
"english" : False
} ]
}
