{
"mode" : {"viewTitle" : 1,   "viewNew" : 0,  "pageIndex" : 2 },
 "channel" : {"id" : "-7775321384893005703", "booked" : False, "subNumber" : 1, "name" : "青春校园排行榜-新浪读书", "url" : "http:\/\/book.sina.com.cn\/youth\/", "feed" : "http:\/\/rss.sina.com.cn\/book\/school_rank.xml", "author" : "WWW.SINA.COM.CN", "desc" : "青春校园排行榜", "imageUrl" : "http:\/\/www.sinaimg.cn\/book\/deco\/2010\/0826\/logo_v3.gif", "postPerWeek" : "0", "lastCrawTime" : "17:06:10", "crawDateTime" : "昨天00:00:35", "lastHttpCode" : "304"}, "page" : {
"startIndex" : 20,
"totalCount" : 941,
"pageIndex" : 2,
"lastPage" : 48,
"pageSize" : 20,
"english" :  False },
 "unreadNum" : 0, "shotIndex" : -1,
"articles" : [
{
"index" : 0,
"articleIndex" : "920",
"favor" :  False ,
     "read" : False,    
"title" : "将军小妾怒休夫：宁非(全)",
"titleTip" : "将军小妾怒休夫：宁非(全)",
"titleSummary" : "将军小妾怒休夫：宁非(全)",
"descSummary" : "她叫江凝菲，乃某朝代将军徐灿的二房妻，被夫君嫌弃，被大房银林公主欺压，...",
"url" : "http:\/\/go.rss.sina.com.cn\/redirect.php?url=http:\/\/vip.book.sina.com.cn\/book\/index_147303.html",
"pubDate" : "2013年10月9日 (3周前)",
"enterDate" : "384151:42:06",
"channelId" : "-7775321384893005703",
"channelName" : "青春校园排行榜-新浪读书",
"channelNameSummary" : "青春校园排行榜-新浪...",
"channelUrl" : "http:\/\/book.sina.com.cn\/youth\/",
"author" : "WWW.SINA.COM.CN",
"tags" : [],
"desc" : "她叫江凝菲，乃某朝代将军徐灿的二房妻，被夫君嫌弃，被大房银林公主欺压，马上便要香消玉殒。阴差阳错，宁非竟重生在江凝菲身上！重生很美好，但日子很难熬。终于有一天，宁非受...",
"emailed" : False,
"forwarded" : False,
"english" : False
}  , {
"index" : 1,
"articleIndex" : "918",
"favor" :  False ,
     "read" : False,    
"title" : "霸道少校太贪吃：时光若有张不老的脸",
"titleTip" : "霸道少校太贪吃：时光若有张不老的脸",
"titleSummary" : "霸道少校太贪吃：时光若有张不老的脸",
"descSummary" : "\u201D她撇嘴：\u201C我是满足你的虚荣心，搞得像是有损安定团结扰乱军...",
"url" : "http:\/\/go.rss.sina.com.cn\/redirect.php?url=http:\/\/vip.book.sina.com.cn\/book\/index_215575.html",
"pubDate" : "2013年9月20日",
"enterDate" : "384193:40:25",
"channelId" : "-7775321384893005703",
"channelName" : "青春校园排行榜-新浪读书",
"channelNameSummary" : "青春校园排行榜-新浪...",
"channelUrl" : "http:\/\/book.sina.com.cn\/youth\/",
"author" : "WWW.SINA.COM.CN",
"tags" : [],
"desc" : "\u201D她撇嘴：\u201C我是满足你的虚荣心，搞得像是有损安定团结扰乱军心一样。\u201D一场军民协同作战的\u201C战事\u201D，一桩围绕幸福靶心打转的温暖情事！世上唯一的心锁，遇到了世上唯一的钥匙，...",
"emailed" : False,
"forwarded" : False,
"english" : False
}  , {
"index" : 2,
"articleIndex" : "919",
"favor" :  False ,
     "read" : False,    
"title" : "弃后重生虐前夫：斩情丝",
"titleTip" : "弃后重生虐前夫：斩情丝",
"titleSummary" : "弃后重生虐前夫：斩情丝",
"descSummary" : "一朝大变，她被弃宫中，被屠满门，被迫弃子，最终饮恨而亡。她浴火重生，却...",
"url" : "http:\/\/go.rss.sina.com.cn\/redirect.php?url=http:\/\/vip.book.sina.com.cn\/book\/index_246837.html",
"pubDate" : "2013年9月13日",
"enterDate" : "384172:43:42",
"channelId" : "-7775321384893005703",
"channelName" : "青春校园排行榜-新浪读书",
"channelNameSummary" : "青春校园排行榜-新浪...",
"channelUrl" : "http:\/\/book.sina.com.cn\/youth\/",
"author" : "WWW.SINA.COM.CN",
"tags" : [],
"desc" : "一朝大变，她被弃宫中，被屠满门，被迫弃子，最终饮恨而亡。她浴火重生，却只为报仇雪恨。她卧薪三年拜师学艺，委身屈居太医院，九重宫中机关算尽，步步惊心。她一步步除去昔日仇...",
"emailed" : False,
"forwarded" : False,
"english" : False
}  , {
"index" : 3,
"articleIndex" : "917",
"favor" :  False ,
     "read" : False,    
"title" : "征服男科女医生：路鸟",
"titleTip" : "征服男科女医生：路鸟",
"titleSummary" : "征服男科女医生：路鸟",
"descSummary" : "奇斯：男，强悍的职业武装分子，拥有完美的厨艺、百折不挠的行动本能、天然呆...",
"url" : "http:\/\/go.rss.sina.com.cn\/redirect.php?url=http:\/\/vip.book.sina.com.cn\/book\/index_130223.html",
"pubDate" : "2013年9月13日",
"enterDate" : "384195:02:54",
"channelId" : "-7775321384893005703",
"channelName" : "青春校园排行榜-新浪读书",
"channelNameSummary" : "青春校园排行榜-新浪...",
"channelUrl" : "http:\/\/book.sina.com.cn\/youth\/",
"author" : "WWW.SINA.COM.CN",
"tags" : [],
"desc" : "奇斯：男，强悍的职业武装分子，拥有完美的厨艺、百折不挠的行动本能、天然呆的头脑和忠犬的性格。当身经百战的李鹭筹办起属于自己的小诊所时，她干脆立起一块广告牌，写上态度恶...",
"emailed" : False,
"forwarded" : False,
"english" : False
}  , {
"index" : 4,
"articleIndex" : "914",
"favor" :  False ,
     "read" : False,    
"title" : "金融巨子追爱前妻：无爱承欢",
"titleTip" : "金融巨子追爱前妻：无爱承欢",
"titleSummary" : "金融巨子追爱前妻：无爱承欢",
"descSummary" : "彼时，夏正盛。当年遇见那个人，时机不对，他忘得一干二净，她却沉沦至...",
"url" : "http:\/\/go.rss.sina.com.cn\/redirect.php?url=http:\/\/vip.book.sina.com.cn\/book\/index_150582.html",
"pubDate" : "2013年9月13日",
"enterDate" : "384194:09:52",
"channelId" : "-7775321384893005703",
"channelName" : "青春校园排行榜-新浪读书",
"channelNameSummary" : "青春校园排行榜-新浪...",
"channelUrl" : "http:\/\/book.sina.com.cn\/youth\/",
"author" : "WWW.SINA.COM.CN",
"tags" : [],
"desc" : "彼时，夏正盛。当年遇见那个人，时机不对，他忘得一干二净，她却沉沦至谷底；重逢的时机也不对，他想要回儿子，而儿子却是她的所有，不得不法庭相见\u2026\u2026总之，最不该，无爱承欢。...",
"emailed" : False,
"forwarded" : False,
"english" : False
}  , {
"index" : 5,
"articleIndex" : "915",
"favor" :  False ,
     "read" : False,    
"title" : "腹黑帝倒追绝艳皇妃：皇瓜",
"titleTip" : "腹黑帝倒追绝艳皇妃：皇瓜",
"titleSummary" : "腹黑帝倒追绝艳皇妃：皇瓜",
"descSummary" : "她的对手很强大，有智胜一筹的现代穿越女，有权势过人的年轻太后，有独爱...",
"url" : "http:\/\/go.rss.sina.com.cn\/redirect.php?url=http:\/\/vip.book.sina.com.cn\/book\/index_115471.html",
"pubDate" : "2013年9月12日",
"enterDate" : "384194:31:35",
"channelId" : "-7775321384893005703",
"channelName" : "青春校园排行榜-新浪读书",
"channelNameSummary" : "青春校园排行榜-新浪...",
"channelUrl" : "http:\/\/book.sina.com.cn\/youth\/",
"author" : "WWW.SINA.COM.CN",
"tags" : [],
"desc" : "她的对手很强大，有智胜一筹的现代穿越女，有权势过人的年轻太后，有独爱戎装的巾帼女杰，每天都在上演金枝欲孽的好戏。只是，她惟独忘了将皇帝列入争斗对象。自认洞悉一切的瞳兮...",
"emailed" : False,
"forwarded" : False,
"english" : False
}  , {
"index" : 6,
"articleIndex" : "916",
"favor" :  False ,
     "read" : False,    
"title" : "纨绔公子虐爱兄弟妻：原来幸福逆着光",
"titleTip" : "纨绔公子虐爱兄弟妻：原来幸福逆着光",
"titleSummary" : "纨绔公子虐爱兄弟妻：原来幸福逆着光",
"descSummary" : "为了病中的父亲，夏小冉一步步落进傅希尧设计的局，不得已单方...",
"url" : "http:\/\/go.rss.sina.com.cn\/redirect.php?url=http:\/\/vip.book.sina.com.cn\/book\/index_246843.html",
"pubDate" : "2013年9月12日",
"enterDate" : "384156:35:17",
"channelId" : "-7775321384893005703",
"channelName" : "青春校园排行榜-新浪读书",
"channelNameSummary" : "青春校园排行榜-新浪...",
"channelUrl" : "http:\/\/book.sina.com.cn\/youth\/",
"author" : "WWW.SINA.COM.CN",
"tags" : [],
"desc" : "为了病中的父亲，夏小冉一步步落进傅希尧设计的局，不得已单方面宣布与邵峰分手。万分痛苦的夏小冉只希望傅希尧早点厌倦自己，还自己自由。而这场交织阴谋与占有的开始，竟然脱离...",
"emailed" : False,
"forwarded" : False,
"english" : False
}  , {
"index" : 7,
"articleIndex" : "913",
"favor" :  False ,
     "read" : False,    
"title" : "冰山富少误坠情网：然后，爱情随遇而安",
"titleTip" : "冰山富少误坠情网：然后，爱情随遇而安",
"titleSummary" : "冰山富少误坠情网：然后，爱情随遇而安",
"descSummary" : "前者他掠夺，后者他摧毁。有时候他将安小离归于前者，可恼怒...",
"url" : "http:\/\/go.rss.sina.com.cn\/redirect.php?url=http:\/\/vip.book.sina.com.cn\/book\/index_179419.html",
"pubDate" : "2013年9月11日",
"enterDate" : "384176:17:50",
"channelId" : "-7775321384893005703",
"channelName" : "青春校园排行榜-新浪读书",
"channelNameSummary" : "青春校园排行榜-新浪...",
"channelUrl" : "http:\/\/book.sina.com.cn\/youth\/",
"author" : "WWW.SINA.COM.CN",
"tags" : [],
"desc" : "前者他掠夺，后者他摧毁。有时候他将安小离归于前者，可恼怒起来，又觉得她一定是后者。然后忽然有一天，陈遇白不安地发现，安小离并不在他以为的那个世界里。秦桑见过不少优秀的...",
"emailed" : False,
"forwarded" : False,
"english" : False
}  , {
"index" : 8,
"articleIndex" : "912",
"favor" :  False ,
     "read" : False,    
"title" : "白百何主演同名电影：被偷走的那五年",
"titleTip" : "白百何主演同名电影：被偷走的那五年",
"titleSummary" : "白百何主演同名电影：被偷走的那五年",
"descSummary" : "车祸后何蔓苏醒却不见老公谢宇的身影。车祸前的画面还停留在蜜...",
"url" : "http:\/\/go.rss.sina.com.cn\/redirect.php?url=http:\/\/vip.book.sina.com.cn\/book\/index_246753.html",
"pubDate" : "2013年9月11日",
"enterDate" : "384195:21:19",
"channelId" : "-7775321384893005703",
"channelName" : "青春校园排行榜-新浪读书",
"channelNameSummary" : "青春校园排行榜-新浪...",
"channelUrl" : "http:\/\/book.sina.com.cn\/youth\/",
"author" : "WWW.SINA.COM.CN",
"tags" : [],
"desc" : "车祸后何蔓苏醒却不见老公谢宇的身影。车祸前的画面还停留在蜜月时的夜晚，却被姐姐告知如今已是五年后，她与谢宇早已离婚。何蔓对谢宇依然满腔热爱，无法面对自己失忆事实的她只...",
"emailed" : False,
"forwarded" : False,
"english" : False
}  , {
"index" : 9,
"articleIndex" : "911",
"favor" :  False ,
     "read" : False,    
"title" : "军官硬上身：教官萌于虎",
"titleTip" : "军官硬上身：教官萌于虎",
"titleSummary" : "军官硬上身：教官萌于虎",
"descSummary" : "常弘对朱壮壮兴趣颇深，遂追求其当自己女友，朱壮壮对此进行强烈反抗，两个...",
"url" : "http:\/\/go.rss.sina.com.cn\/redirect.php?url=http:\/\/vip.book.sina.com.cn\/book\/index_246528.html",
"pubDate" : "2013年9月11日",
"enterDate" : "384194:36:56",
"channelId" : "-7775321384893005703",
"channelName" : "青春校园排行榜-新浪读书",
"channelNameSummary" : "青春校园排行榜-新浪...",
"channelUrl" : "http:\/\/book.sina.com.cn\/youth\/",
"author" : "WWW.SINA.COM.CN",
"tags" : [],
"desc" : "常弘对朱壮壮兴趣颇深，遂追求其当自己女友，朱壮壮对此进行强烈反抗，两个欢喜冤家就此发生不少爆笑事迹。之后因为付阳阳，朱壮壮卷入一场军事间谍案中，成为故事中虐心的部份，...",
"emailed" : False,
"forwarded" : False,
"english" : False
}  , {
"index" : 10,
"articleIndex" : "910",
"favor" :  False ,
     "read" : False,    
"title" : "先婚后爱的爱情角逐战：他的爱情浅",
"titleTip" : "先婚后爱的爱情角逐战：他的爱情浅",
"titleSummary" : "先婚后爱的爱情角逐战：他的爱情浅",
"descSummary" : "许多年后，熹雯与他再度重逢，实践日久生情的爱情\u2026\u2026浅式爱情最...",
"url" : "http:\/\/go.rss.sina.com.cn\/redirect.php?url=http:\/\/vip.book.sina.com.cn\/book\/index_246512.html",
"pubDate" : "2013年9月6日",
"enterDate" : "384127:28:39",
"channelId" : "-7775321384893005703",
"channelName" : "青春校园排行榜-新浪读书",
"channelNameSummary" : "青春校园排行榜-新浪...",
"channelUrl" : "http:\/\/book.sina.com.cn\/youth\/",
"author" : "WWW.SINA.COM.CN",
"tags" : [],
"desc" : "许多年后，熹雯与他再度重逢，实践日久生情的爱情\u2026\u2026浅式爱情最重要法则：学爱你。谢熹雯：你爱我吗？温至臻：我并没有说不爱你。谢熹雯：你这样爱每一个人，爱苏凝？你爱我比她...",
"emailed" : False,
"forwarded" : False,
"english" : False
}  , {
"index" : 11,
"articleIndex" : "909",
"favor" :  False ,
     "read" : False,    
"title" : "千年穿越结皇室孽缘：多情皇子特工妃",
"titleTip" : "千年穿越结皇室孽缘：多情皇子特工妃",
"titleSummary" : "千年穿越结皇室孽缘：多情皇子特工妃",
"descSummary" : "她--司徒冰凝，隔了千年时空的前朝公主。千年时空的跨越，原来...",
"url" : "http:\/\/go.rss.sina.com.cn\/redirect.php?url=http:\/\/vip.book.sina.com.cn\/book\/index_246327.html",
"pubDate" : "2013年9月5日",
"enterDate" : "384082:38:14",
"channelId" : "-7775321384893005703",
"channelName" : "青春校园排行榜-新浪读书",
"channelNameSummary" : "青春校园排行榜-新浪...",
"channelUrl" : "http:\/\/book.sina.com.cn\/youth\/",
"author" : "WWW.SINA.COM.CN",
"tags" : [],
"desc" : "她\u2015\u2015司徒冰凝，隔了千年时空的前朝公主。千年时空的跨越，原来只需要一瞬间，她替代了她的人生，承载了她的爱恨。她付出自己的真情，流了一世的眼泪，却再也看不清幽幽前路\u2026\u2026...",
"emailed" : False,
"forwarded" : False,
"english" : False
}  , {
"index" : 12,
"articleIndex" : "907",
"favor" :  False ,
     "read" : False,    
"title" : "世家子情缠契约妻：无限趋近于爱",
"titleTip" : "世家子情缠契约妻：无限趋近于爱",
"titleSummary" : "世家子情缠契约妻：无限趋近于爱",
"descSummary" : "\u201D却有王子问她：\u201C你说过的话，当真？\u201D那么地，漫不经心\u2026\u2026当命...",
"url" : "http:\/\/go.rss.sina.com.cn\/redirect.php?url=http:\/\/vip.book.sina.com.cn\/book\/index_169757.html",
"pubDate" : "2013年9月4日",
"enterDate" : "384193:57:59",
"channelId" : "-7775321384893005703",
"channelName" : "青春校园排行榜-新浪读书",
"channelNameSummary" : "青春校园排行榜-新浪...",
"channelUrl" : "http:\/\/book.sina.com.cn\/youth\/",
"author" : "WWW.SINA.COM.CN",
"tags" : [],
"desc" : "\u201D却有王子问她：\u201C你说过的话，当真？\u201D那么地，漫不经心\u2026\u2026当命运再次以颠覆的面具在她面前翻云覆雨，她在婚姻的温床前断然做出决定：\u201C我们，离婚吧。\u201D那个契约者却宣称：\u201C...",
"emailed" : False,
"forwarded" : False,
"english" : False
}  , {
"index" : 13,
"articleIndex" : "908",
"favor" :  False ,
     "read" : False,    
"title" : "跟前妻谈恋爱：离婚后，继续暧昧",
"titleTip" : "跟前妻谈恋爱：离婚后，继续暧昧",
"titleSummary" : "跟前妻谈恋爱：离婚后，继续暧昧",
"descSummary" : "姜离婚后遇到顾氏老总顾天仁，顾渐渐爱上她，默默照顾，后来结束了...",
"url" : "http:\/\/go.rss.sina.com.cn\/redirect.php?url=http:\/\/vip.book.sina.com.cn\/book\/index_246174.html",
"pubDate" : "2013年9月4日",
"enterDate" : "384154:24:45",
"channelId" : "-7775321384893005703",
"channelName" : "青春校园排行榜-新浪读书",
"channelNameSummary" : "青春校园排行榜-新浪...",
"channelUrl" : "http:\/\/book.sina.com.cn\/youth\/",
"author" : "WWW.SINA.COM.CN",
"tags" : [],
"desc" : "姜离婚后遇到顾氏老总顾天仁，顾渐渐爱上她，默默照顾，后来结束了自己的婚姻\u2026\u2026揭示女性在婚姻、家庭、爱情中种种困扰。离婚后的暧昧，是特殊的情境设置，男女双方非一般的关系...",
"emailed" : False,
"forwarded" : False,
"english" : False
}  , {
"index" : 14,
"articleIndex" : "906",
"favor" :  False ,
     "read" : False,    
"title" : "金牌律师情虐小菜鸟：你是我抵达不了的远方",
"titleTip" : "金牌律师情虐小菜鸟：你是我抵达不了的远方",
"titleSummary" : "金牌律师情虐小菜鸟：你是我抵达不了的远方",
"descSummary" : "作为一个籍籍无名的小律师，宁可自从遇到顾律后，便觉得...",
"url" : "http:\/\/go.rss.sina.com.cn\/redirect.php?url=http:\/\/vip.book.sina.com.cn\/book\/index_246046.html",
"pubDate" : "2013年9月2日",
"enterDate" : "384177:08:17",
"channelId" : "-7775321384893005703",
"channelName" : "青春校园排行榜-新浪读书",
"channelNameSummary" : "青春校园排行榜-新浪...",
"channelUrl" : "http:\/\/book.sina.com.cn\/youth\/",
"author" : "WWW.SINA.COM.CN",
"tags" : [],
"desc" : "作为一个籍籍无名的小律师，宁可自从遇到顾律后，便觉得，关于冤家路窄这回事，真是没有最窄，只有更窄。初出茅庐就杠上他这个业内神话，第一单CASE在他手下惨烈败北\u2026\u2026不靠谱的师...",
"emailed" : False,
"forwarded" : False,
"english" : False
}  , {
"index" : 15,
"articleIndex" : "902",
"favor" :  False ,
     "read" : False,    
"title" : "贵公子情迷寡居少妇：系我一生心",
"titleTip" : "贵公子情迷寡居少妇：系我一生心",
"titleSummary" : "贵公子情迷寡居少妇：系我一生心",
"descSummary" : "他们以爱的名义伤害，以爱的名义拯救。他爱她，一如继往，不管她的...",
"url" : "http:\/\/go.rss.sina.com.cn\/redirect.php?url=http:\/\/vip.book.sina.com.cn\/book\/index_167882.html",
"pubDate" : "2013年8月30日",
"enterDate" : "384201:18:53",
"channelId" : "-7775321384893005703",
"channelName" : "青春校园排行榜-新浪读书",
"channelNameSummary" : "青春校园排行榜-新浪...",
"channelUrl" : "http:\/\/book.sina.com.cn\/youth\/",
"author" : "WWW.SINA.COM.CN",
"tags" : [],
"desc" : "他们以爱的名义伤害，以爱的名义拯救。他爱她，一如继往，不管她的经历有多么不堪。可是，他们已变回了朋友，他却执意再续前缘，用温柔去撕开她无数次想忘却的伤口\u2026\u2026一场错爱，...",
"emailed" : False,
"forwarded" : False,
"english" : False
}  , {
"index" : 16,
"articleIndex" : "904",
"favor" :  False ,
     "read" : False,    
"title" : "腹黑帝王霸爱下堂妾：奸妃",
"titleTip" : "腹黑帝王霸爱下堂妾：奸妃",
"titleSummary" : "腹黑帝王霸爱下堂妾：奸妃",
"descSummary" : "一个相貌平凡的女子如何能让帝王念念不忘？她给了他一个局，一个最终也逃...",
"url" : "http:\/\/go.rss.sina.com.cn\/redirect.php?url=http:\/\/vip.book.sina.com.cn\/book\/index_144154.html",
"pubDate" : "2013年8月28日",
"enterDate" : "384196:09:58",
"channelId" : "-7775321384893005703",
"channelName" : "青春校园排行榜-新浪读书",
"channelNameSummary" : "青春校园排行榜-新浪...",
"channelUrl" : "http:\/\/book.sina.com.cn\/youth\/",
"author" : "WWW.SINA.COM.CN",
"tags" : [],
"desc" : "一个相貌平凡的女子如何能让帝王念念不忘？她给了他一个局，一个最终也逃脱不开的局。一盘苦菊，让他在佳丽三千中，记住了她，也开始了她被荣耀、被繁华的凄苦命运。从淡然无为到...",
"emailed" : False,
"forwarded" : False,
"english" : False
}  , {
"index" : 17,
"articleIndex" : "901",
"favor" :  False ,
     "read" : False,    
"title" : "掉包新娘上错床：若是相逢未爱时",
"titleTip" : "掉包新娘上错床：若是相逢未爱时",
"titleSummary" : "掉包新娘上错床：若是相逢未爱时",
"descSummary" : "他是高高在上的商界精英，翻手为云覆手为雨她是见不得光的私生女，...",
"url" : "http:\/\/go.rss.sina.com.cn\/redirect.php?url=http:\/\/vip.book.sina.com.cn\/book\/index_173866.html",
"pubDate" : "2013年8月23日",
"enterDate" : "384201:18:53",
"channelId" : "-7775321384893005703",
"channelName" : "青春校园排行榜-新浪读书",
"channelNameSummary" : "青春校园排行榜-新浪...",
"channelUrl" : "http:\/\/book.sina.com.cn\/youth\/",
"author" : "WWW.SINA.COM.CN",
"tags" : [],
"desc" : "他是高高在上的商界精英，翻手为云覆手为雨她是见不得光的私生女，却成了他的掉包新娘新婚夜，他和情人在她跟前极致缠绵她顶着已婚的身份，竟还是处子之身他从不碰她，又刻意与她...",
"emailed" : False,
"forwarded" : False,
"english" : False
}  , {
"index" : 18,
"articleIndex" : "903",
"favor" :  False ,
     "read" : False,    
"title" : "女强人智斗极品婆婆：新婆媳战争",
"titleTip" : "女强人智斗极品婆婆：新婆媳战争",
"titleSummary" : "女强人智斗极品婆婆：新婆媳战争",
"descSummary" : "可回匡后才发现危成原来是老板时美仑的儿子。时美仑早年丧夫，独自...",
"url" : "http:\/\/go.rss.sina.com.cn\/redirect.php?url=http:\/\/vip.book.sina.com.cn\/book\/index_244613.html",
"pubDate" : "2013年8月20日",
"enterDate" : "384034:00:51",
"channelId" : "-7775321384893005703",
"channelName" : "青春校园排行榜-新浪读书",
"channelNameSummary" : "青春校园排行榜-新浪...",
"channelUrl" : "http:\/\/book.sina.com.cn\/youth\/",
"author" : "WWW.SINA.COM.CN",
"tags" : [],
"desc" : "可回匡后才发现危成原来是老板时美仑的儿子。时美仑早年丧夫，独自养大儿子并管理公司，是个女强人。而明绯绯不过生于小康之家，父亲是教师，母亲是居委会主任。婚后，婆媳二人因...",
"emailed" : False,
"forwarded" : False,
"english" : False
}  , {
"index" : 19,
"articleIndex" : "905",
"favor" :  False ,
     "read" : False,    
"title" : "失宠皇后",
"titleTip" : "失宠皇后",
"titleSummary" : "失宠皇后",
"descSummary" : "一切只因，他不愿娶她为后。在他眼中，她贪慕虚荣，毒如蛇蝎。他惟独珍惜着那一位娇弱美人...",
"url" : "http:\/\/go.rss.sina.com.cn\/redirect.php?url=http:\/\/vip.book.sina.com.cn\/book\/index_145153.html",
"pubDate" : "2012年1月2日",
"enterDate" : "369655:23:03",
"channelId" : "-7775321384893005703",
"channelName" : "青春校园排行榜-新浪读书",
"channelNameSummary" : "青春校园排行榜-新浪...",
"channelUrl" : "http:\/\/book.sina.com.cn\/youth\/",
"author" : "WWW.SINA.COM.CN",
"tags" : [],
"desc" : "一切只因，他不愿娶她为后。在他眼中，她贪慕虚荣，毒如蛇蝎。他惟独珍惜着那一位娇弱美人，他的残暴冷酷，从来不在那个女子面前显露。寂寞深宫，她得不到他的喜爱，却得到更多的...",
"emailed" : False,
"forwarded" : False,
"english" : False
} ]
}
