{
"mode" : {"viewTitle" : 1,   "viewNew" : 0,  "pageIndex" : 1 },
 "channel" : {"id" : "-3439969759515352617", "booked" : False, "subNumber" : 1, "name" : "社会与法-新浪新闻", "url" : "http:\/\/news.sina.com.cn\/society\/index.shtml", "feed" : "http:\/\/rss.sina.com.cn\/news\/society\/law15.xml", "author" : "WWW.SINA.COM.CN", "desc" : "社会新闻-法制天地", "imageUrl" : "http:\/\/www.sinaimg.cn\/home\/deco\/2009\/0330\/logo_home_news.gif", "postPerWeek" : "0", "lastCrawTime" : "2013年10月19日 (1周前)", "crawDateTime" : "2013年10月19日 (1周前)", "lastHttpCode" : "200"}, "page" : {
"startIndex" : 0,
"totalCount" : 5000,
"pageIndex" : 1,
"lastPage" : 250,
"pageSize" : 20,
"english" :  False },
 "unreadNum" : 0, "shotIndex" : -1,
"articles" : [
{
"index" : 0,
"articleIndex" : "6555",
"favor" :  False ,
     "read" : False,    
"title" : "下属为醉驾领导顶包 处罚比醉驾还重",
"titleTip" : "下属为醉驾领导顶包 处罚比醉驾还重",
"titleSummary" : "下属为醉驾领导顶包 处罚比醉驾还重",
"descSummary" : "N晚报记者 钱姬霞 本报讯 醉驾后发生交通事故，面对不可挽回的现...",
"url" : "http:\/\/go.rss.sina.com.cn\/redirect.php?url=http:\/\/news.sina.com.cn\/s\/2013-10-19\/153828477787.shtml",
"pubDate" : "2013年10月19日 (1周前)",
"enterDate" : "384200:52:07",
"channelId" : "-3439969759515352617",
"channelName" : "社会与法-新浪新闻",
"channelNameSummary" : "社会与法-新浪新闻",
"channelUrl" : "http:\/\/news.sina.com.cn\/society\/index.shtml",
"author" : "WWW.SINA.COM.CN",
"tags" : [],
"desc" : "N晚报记者 钱姬霞 本报讯 醉驾后发生交通事故，面对不可挽回的现实，坐在副驾驶座上的小张表示愿意帮喝得比自己多的领导小陈顶包\u2026\u2026然而，视频监控清楚地拍下了整个过程！小陈涉嫌醉驾逃不掉，而小张顶包也已经涉嫌包庇罪。 10月17日，警方对小陈采取了强制措....",
"emailed" : False,
"forwarded" : False,
"english" : False
}  , {
"index" : 1,
"articleIndex" : "6554",
"favor" :  False ,
     "read" : False,    
"title" : "市委书记上街抓违停公车 让副检察长对镜头检讨",
"titleTip" : "市委书记上街抓违停公车 让副检察长对镜头检讨",
"titleSummary" : "市委书记上街抓违停公车 让副检察长对镜头检讨",
"descSummary" : "据江淮晨报报道，10月17日傍晚，宿州市委书记张曙光...",
"url" : "http:\/\/go.rss.sina.com.cn\/redirect.php?url=http:\/\/news.sina.com.cn\/s\/2013-10-19\/093628476134.shtml",
"pubDate" : "2013年10月19日 (1周前)",
"enterDate" : "384195:20:10",
"channelId" : "-3439969759515352617",
"channelName" : "社会与法-新浪新闻",
"channelNameSummary" : "社会与法-新浪新闻",
"channelUrl" : "http:\/\/news.sina.com.cn\/society\/index.shtml",
"author" : "WWW.SINA.COM.CN",
"tags" : [],
"desc" : "&#160; 据江淮晨报报道，10月17日傍晚，宿州市委书记张曙光带领当地交警部门到城区主要干道巡查，查处违停\u201C公车\u201D。据交警部门事后通报，在当天傍晚的巡查中，一辆公安警车、两辆桥区检察院警车和一辆检察院干警私家车因违规停车，被市委书记\u201C抓了个现行\u201D。之后，这几辆车....",
"emailed" : False,
"forwarded" : False,
"english" : False
}  , {
"index" : 2,
"articleIndex" : "6553",
"favor" :  False ,
     "read" : False,    
"title" : "15岁少年成立帮派招募成员抢劫 手下均比其年长",
"titleTip" : "15岁少年成立帮派招募成员抢劫 手下均比其年长",
"titleSummary" : "15岁少年成立帮派招募成员抢劫 手下均比其年长",
"descSummary" : "14岁 只身来西安 15岁 成立帮派 QQ上拉帮结伙 生活中...",
"url" : "http:\/\/go.rss.sina.com.cn\/redirect.php?url=http:\/\/news.sina.com.cn\/s\/2013-10-19\/021328473602.shtml",
"pubDate" : "2013年10月19日 (1周前)",
"enterDate" : "384196:29:15",
"channelId" : "-3439969759515352617",
"channelName" : "社会与法-新浪新闻",
"channelNameSummary" : "社会与法-新浪新闻",
"channelUrl" : "http:\/\/news.sina.com.cn\/society\/index.shtml",
"author" : "WWW.SINA.COM.CN",
"tags" : [],
"desc" : "14岁 只身来西安 15岁 成立帮派 QQ上拉帮结伙 生活中实施抢劫 他，12岁初一未念完辍学走向社会，14岁时只身一人来到西安，15岁时成立帮派并招募成员实施抢劫。就在他幻想发展到100个成员要成就一番大事时，却不想早被警方关注。 这又一个....",
"emailed" : False,
"forwarded" : False,
"english" : False
}  , {
"index" : 3,
"articleIndex" : "6552",
"favor" :  False ,
     "read" : False,    
"title" : "两农民用石头击老人头部抢劫 7年间致5死35伤",
"titleTip" : "两农民用石头击老人头部抢劫 7年间致5死35伤",
"titleSummary" : "两农民用石头击老人头部抢劫 7年间致5死35伤",
"descSummary" : "人民网六盘水10月18日电 (陈胤 李刚)贵州水城县两农民，...",
"url" : "http:\/\/go.rss.sina.com.cn\/redirect.php?url=http:\/\/news.sina.com.cn\/s\/2013-10-18\/161128470811.shtml",
"pubDate" : "2013年10月18日 (1周前)",
"enterDate" : "384200:28:56",
"channelId" : "-3439969759515352617",
"channelName" : "社会与法-新浪新闻",
"channelNameSummary" : "社会与法-新浪新闻",
"channelUrl" : "http:\/\/news.sina.com.cn\/society\/index.shtml",
"author" : "WWW.SINA.COM.CN",
"tags" : [],
"desc" : "人民网六盘水10月18日电 (陈胤 李刚)贵州水城县两农民，利用石头击打老人头部抢劫，7年间作案30余起，劫取财物10余万元，致5人死亡，35人伤，其中5人重伤。 9月18日，六盘水中级人民法院一审判决张某和吴某死刑，剥夺政治权利终身，并处没收个人全部财产。 2009....",
"emailed" : False,
"forwarded" : False,
"english" : False
}  , {
"index" : 4,
"articleIndex" : "6551",
"favor" :  False ,
     "read" : False,    
"title" : "司机酒驾撞警车致4人死亡获刑",
"titleTip" : "司机酒驾撞警车致4人死亡获刑",
"titleSummary" : "司机酒驾撞警车致4人死亡获刑",
"descSummary" : "酒驾撞警车致4人死亡 被告人因交通肇事罪获刑 法制晚报讯(记者杨诗凡)酒...",
"url" : "http:\/\/go.rss.sina.com.cn\/redirect.php?url=http:\/\/news.sina.com.cn\/s\/2013-10-18\/144228469819.shtml",
"pubDate" : "2013年10月18日 (1周前)",
"enterDate" : "384201:01:03",
"channelId" : "-3439969759515352617",
"channelName" : "社会与法-新浪新闻",
"channelNameSummary" : "社会与法-新浪新闻",
"channelUrl" : "http:\/\/news.sina.com.cn\/society\/index.shtml",
"author" : "WWW.SINA.COM.CN",
"tags" : [],
"desc" : "酒驾撞警车致4人死亡 被告人因交通肇事罪获刑 法制晚报讯(记者杨诗凡)酒后超速驾车，将一辆警车撞出，并将正在道路上处理另一起酒驾车祸的1名辅警及另外3人撞死。记者今天获悉，大兴法院以交通肇事罪判处郑某有期徒刑6年8个月。 2012年9月10日晚上，郑某....",
"emailed" : False,
"forwarded" : False,
"english" : False
}  , {
"index" : 5,
"articleIndex" : "6550",
"favor" :  False ,
     "read" : False,    
"title" : "男子为还赌债尾随少女入公厕抢劫",
"titleTip" : "男子为还赌债尾随少女入公厕抢劫",
"titleSummary" : "男子为还赌债尾随少女入公厕抢劫",
"descSummary" : "正北方网报道(通讯员李素英)10月16日，呼和浩特市回民区人民检察院...",
"url" : "http:\/\/go.rss.sina.com.cn\/redirect.php?url=http:\/\/news.sina.com.cn\/s\/2013-10-18\/124328468898.shtml",
"pubDate" : "2013年10月18日 (1周前)",
"enterDate" : "384201:01:59",
"channelId" : "-3439969759515352617",
"channelName" : "社会与法-新浪新闻",
"channelNameSummary" : "社会与法-新浪新闻",
"channelUrl" : "http:\/\/news.sina.com.cn\/society\/index.shtml",
"author" : "WWW.SINA.COM.CN",
"tags" : [],
"desc" : "正北方网报道(通讯员李素英)10月16日，呼和浩特市回民区人民检察院批准逮捕一名涉嫌抢劫的犯罪嫌疑人。 据了解，卢某本是一名阳光帅气的小伙子，初中未毕业就步入社会闯荡，但他并没有靠辛勤的劳动改变自己的命运，而是每天想着如何能够一夜暴富。一次偶然的机会，他自....",
"emailed" : False,
"forwarded" : False,
"english" : False
}  , {
"index" : 6,
"articleIndex" : "6549",
"favor" :  False ,
     "read" : False,    
"title" : "无业男冒充交警骗财骗色被逮捕",
"titleTip" : "无业男冒充交警骗财骗色被逮捕",
"titleSummary" : "无业男冒充交警骗财骗色被逮捕",
"descSummary" : "王某是一名无业人员，却一直冒充交管大队大队长，以假身份骗取一名女...",
"url" : "http:\/\/go.rss.sina.com.cn\/redirect.php?url=http:\/\/news.sina.com.cn\/s\/2013-10-18\/123928468878.shtml",
"pubDate" : "2013年10月18日 (1周前)",
"enterDate" : "384200:58:04",
"channelId" : "-3439969759515352617",
"channelName" : "社会与法-新浪新闻",
"channelNameSummary" : "社会与法-新浪新闻",
"channelUrl" : "http:\/\/news.sina.com.cn\/society\/index.shtml",
"author" : "WWW.SINA.COM.CN",
"tags" : [],
"desc" : "王某是一名无业人员，却一直冒充交管大队大队长，以假身份骗取一名女子的信任，并先后向受害人诈骗钱财15万元。10月14日，达茂旗人民检察院以涉嫌诈骗罪将王某批捕。 据介绍，犯罪嫌疑人王某，1966年出生，内蒙古乌海市人。2010年3月，王某化名\u201C王炜\u201D，身着警服来到....",
"emailed" : False,
"forwarded" : False,
"english" : False
}  , {
"index" : 7,
"articleIndex" : "6547",
"favor" :  False ,
     "read" : False,    
"title" : "男子集体宿舍强奸同事11岁女儿获刑6年",
"titleTip" : "男子集体宿舍强奸同事11岁女儿获刑6年",
"titleSummary" : "男子集体宿舍强奸同事11岁女儿获刑6年",
"descSummary" : "本报10月17日讯 11岁的怀化小女孩乐乐因父母离异，今年1月跟...",
"url" : "http:\/\/go.rss.sina.com.cn\/redirect.php?url=http:\/\/news.sina.com.cn\/s\/2013-10-18\/111128468304.shtml",
"pubDate" : "2013年10月18日 (1周前)",
"enterDate" : "384201:00:44",
"channelId" : "-3439969759515352617",
"channelName" : "社会与法-新浪新闻",
"channelNameSummary" : "社会与法-新浪新闻",
"channelUrl" : "http:\/\/news.sina.com.cn\/society\/index.shtml",
"author" : "WWW.SINA.COM.CN",
"tags" : [],
"desc" : "本报10月17日讯 11岁的怀化小女孩乐乐因父母离异，今年1月跟随常年在外打工的父亲来到了长沙，并住进了父亲所在公司的一间集体男宿舍。就是在这间仅10余平方米的宿舍里，天真的乐乐遭遇了一段不堪的经历\u2015\u2015父亲的同事周某多次对其实施强奸。 今天，记者从长沙县人民法....",
"emailed" : False,
"forwarded" : False,
"english" : False
}  , {
"index" : 8,
"articleIndex" : "6546",
"favor" :  False ,
     "read" : False,    
"title" : "男子无钱谈恋爱以内部房骗女友亲戚35万",
"titleTip" : "男子无钱谈恋爱以内部房骗女友亲戚35万",
"titleSummary" : "男子无钱谈恋爱以内部房骗女友亲戚35万",
"descSummary" : "没钱谈恋爱，以低价内部房向女友亲戚行骗 挥霍35万，潜逃广...",
"url" : "http:\/\/go.rss.sina.com.cn\/redirect.php?url=http:\/\/news.sina.com.cn\/s\/2013-10-18\/110028468145.shtml",
"pubDate" : "2013年10月18日 (1周前)",
"enterDate" : "384200:49:38",
"channelId" : "-3439969759515352617",
"channelName" : "社会与法-新浪新闻",
"channelNameSummary" : "社会与法-新浪新闻",
"channelUrl" : "http:\/\/news.sina.com.cn\/society\/index.shtml",
"author" : "WWW.SINA.COM.CN",
"tags" : [],
"desc" : "没钱谈恋爱，以低价内部房向女友亲戚行骗 挥霍35万，潜逃广东藏匿一年终被擒获 四川新闻网南充10月18日讯(特约记者 张文敏)因为没钱谈恋爱，西充男子李保涛竟打起了女友李红家中那些做生意亲戚的主意。他谎称自己在国土部门担任领导职务的亲戚手中，有几套内部....",
"emailed" : False,
"forwarded" : False,
"english" : False
}  , {
"index" : 9,
"articleIndex" : "6545",
"favor" :  False ,
     "read" : False,    
"title" : "妻子被丈夫气得瘫倒昏迷 公公趁机将其强奸",
"titleTip" : "妻子被丈夫气得瘫倒昏迷 公公趁机将其强奸",
"titleSummary" : "妻子被丈夫气得瘫倒昏迷 公公趁机将其强奸",
"descSummary" : "抚顺一名女子过度生气瘫倒、抽搐，不能反抗时被人猥亵。...",
"url" : "http:\/\/go.rss.sina.com.cn\/redirect.php?url=http:\/\/news.sina.com.cn\/s\/2013-10-18\/103528467977.shtml",
"pubDate" : "2013年10月18日 (1周前)",
"enterDate" : "384200:54:55",
"channelId" : "-3439969759515352617",
"channelName" : "社会与法-新浪新闻",
"channelNameSummary" : "社会与法-新浪新闻",
"channelUrl" : "http:\/\/news.sina.com.cn\/society\/index.shtml",
"author" : "WWW.SINA.COM.CN",
"tags" : [],
"desc" : "抚顺一名女子过度生气瘫倒、抽搐，不能反抗时被人猥亵。案发后，公公被公安人员抓获。 犯罪嫌疑人张健(化名)平日在矿厂打工。张健回忆，6月2日上午8时30分左右，他和朋友在当地小吃部喝了两杯白酒后到南口前办事，之后回到原地继续喝酒。\u201C回到家后，儿媳妇小玉对我说....",
"emailed" : False,
"forwarded" : False,
"english" : False
}  , {
"index" : 10,
"articleIndex" : "6543",
"favor" :  False ,
     "read" : False,    
"title" : "父亲将幼子夹腿间醉驾撞树 孩子顶方向盘身亡",
"titleTip" : "父亲将幼子夹腿间醉驾撞树 孩子顶方向盘身亡",
"titleSummary" : "父亲将幼子夹腿间醉驾撞树 孩子顶方向盘身亡",
"descSummary" : "3岁的儿子吵着要坐车出去玩耍，父亲邓某已经喝了不少白...",
"url" : "http:\/\/go.rss.sina.com.cn\/redirect.php?url=http:\/\/news.sina.com.cn\/s\/2013-10-18\/081228466545.shtml",
"pubDate" : "2013年10月18日 (1周前)",
"enterDate" : "384201:01:26",
"channelId" : "-3439969759515352617",
"channelName" : "社会与法-新浪新闻",
"channelNameSummary" : "社会与法-新浪新闻",
"channelUrl" : "http:\/\/news.sina.com.cn\/society\/index.shtml",
"author" : "WWW.SINA.COM.CN",
"tags" : [],
"desc" : "3岁的儿子吵着要坐车出去玩耍，父亲邓某已经喝了不少白酒，但禁不住孩子哭闹，还是决定开车带孩子转转。邓某还特意将儿子夹在自己的两腿之间，\u201C保护孩子的安全\u201D，没想到，悲剧很快发生，邓某因酒后操作失误，车子撞到路边大树上，而被他夹住的孩子直接被顶到方向盘上，受到....",
"emailed" : False,
"forwarded" : False,
"english" : False
}  , {
"index" : 11,
"articleIndex" : "6542",
"favor" :  False ,
     "read" : False,    
"title" : "退役武警中队长私藏万余发子弹被妻子举报",
"titleTip" : "退役武警中队长私藏万余发子弹被妻子举报",
"titleSummary" : "退役武警中队长私藏万余发子弹被妻子举报",
"descSummary" : "南都讯 记者邵铭 去年9月1日晚，佛山禅城警方接报称，南浦...",
"url" : "http:\/\/go.rss.sina.com.cn\/redirect.php?url=http:\/\/news.sina.com.cn\/s\/2013-10-18\/042028464473.shtml",
"pubDate" : "2013年10月18日 (1周前)",
"enterDate" : "384197:39:32",
"channelId" : "-3439969759515352617",
"channelName" : "社会与法-新浪新闻",
"channelNameSummary" : "社会与法-新浪新闻",
"channelUrl" : "http:\/\/news.sina.com.cn\/society\/index.shtml",
"author" : "WWW.SINA.COM.CN",
"tags" : [],
"desc" : "南都讯 记者邵铭 去年9月1日晚，佛山禅城警方接报称，南浦村某小区一楼单车房发现七箱疑似子弹，后小区业主谭某承认系他私藏。近日，佛山中院终审以非法持有弹药罪判处谭某有期徒刑三年、缓刑五年。 经查，1982年11月至1995年3月曾在佛山武警支队服役的谭某称自己一直....",
"emailed" : False,
"forwarded" : False,
"english" : False
}  , {
"index" : 12,
"articleIndex" : "6544",
"favor" :  False ,
     "read" : False,    
"title" : "报社领导沉迷游戏挪用公款逃亡18年",
"titleTip" : "报社领导沉迷游戏挪用公款逃亡18年",
"titleSummary" : "报社领导沉迷游戏挪用公款逃亡18年",
"descSummary" : "南都讯 记者杨秀伟 通讯员区洁芳 朱晓燕 18年前沉迷游戏输钱、挪...",
"url" : "http:\/\/go.rss.sina.com.cn\/redirect.php?url=http:\/\/news.sina.com.cn\/s\/2013-10-18\/042028464463.shtml",
"pubDate" : "2013年10月18日 (1周前)",
"enterDate" : "384196:39:22",
"channelId" : "-3439969759515352617",
"channelName" : "社会与法-新浪新闻",
"channelNameSummary" : "社会与法-新浪新闻",
"channelUrl" : "http:\/\/news.sina.com.cn\/society\/index.shtml",
"author" : "WWW.SINA.COM.CN",
"tags" : [],
"desc" : "南都讯 记者杨秀伟 通讯员区洁芳 朱晓燕 18年前沉迷游戏输钱、挪用报社9.8万元逃亡后，广东新会一报社领导汤某辗转全国各地打工，甚至做上了酒楼经理。直至今年遭遇车祸无钱医治，汤某才向检察机关自首。新会法院日前一审决定以挪用公款罪判处汤某有期徒刑1年4个月，并缓刑释....",
"emailed" : False,
"forwarded" : False,
"english" : False
}  , {
"index" : 13,
"articleIndex" : "6548",
"favor" :  False ,
     "read" : False,    
"title" : "小学教师猥亵4名女生 称因看太多猥亵学生报道",
"titleTip" : "小学教师猥亵4名女生 称因看太多猥亵学生报道",
"titleSummary" : "小学教师猥亵4名女生 称因看太多猥亵学生报道",
"descSummary" : "南都讯 记者陈乐伟 在教室猥亵四名七八岁的女生，42岁男...",
"url" : "http:\/\/go.rss.sina.com.cn\/redirect.php?url=http:\/\/news.sina.com.cn\/s\/2013-10-18\/042028464466.shtml",
"pubDate" : "2013年10月18日 (1周前)",
"enterDate" : "384193:38:52",
"channelId" : "-3439969759515352617",
"channelName" : "社会与法-新浪新闻",
"channelNameSummary" : "社会与法-新浪新闻",
"channelUrl" : "http:\/\/news.sina.com.cn\/society\/index.shtml",
"author" : "WWW.SINA.COM.CN",
"tags" : [],
"desc" : "南都讯 记者陈乐伟 在教室猥亵四名七八岁的女生，42岁男老师吴某东昨天上午在深圳市南山区人民法院接受宣判。在法庭上，他自始至终没有看坐在旁听席上受害人的家长们。昨天吴某东被一审判处8年有期徒刑。吴在庭上表示\u201C量刑太重\u201D，其代理律师表示将会上诉。 昨天宣判....",
"emailed" : False,
"forwarded" : False,
"english" : False
}  , {
"index" : 14,
"articleIndex" : "6540",
"favor" :  False ,
     "read" : False,    
"title" : "男子挪用百万公款潜逃13年 外省藏身再婚生子",
"titleTip" : "男子挪用百万公款潜逃13年 外省藏身再婚生子",
"titleSummary" : "男子挪用百万公款潜逃13年 外省藏身再婚生子",
"descSummary" : "本市跨时最长追逃案告破 嫌犯藏身成都骗婚生子 财务经理...",
"url" : "http:\/\/go.rss.sina.com.cn\/redirect.php?url=http:\/\/news.sina.com.cn\/s\/2013-10-18\/031528463830.shtml",
"pubDate" : "2013年10月18日 (1周前)",
"enterDate" : "384200:35:18",
"channelId" : "-3439969759515352617",
"channelName" : "社会与法-新浪新闻",
"channelNameSummary" : "社会与法-新浪新闻",
"channelUrl" : "http:\/\/news.sina.com.cn\/society\/index.shtml",
"author" : "WWW.SINA.COM.CN",
"tags" : [],
"desc" : "本市跨时最长追逃案告破 嫌犯藏身成都骗婚生子 财务经理携百万公款潜逃13年 十三年前，某国企财务部副经理姜某因挪用公款外借朋友，到期无法归还，携其管理的100多万元公款潜逃。为顺利逃匿，他伪造身份证、户口本，远逃千里，并与除父亲以外的所有亲友断绝联....",
"emailed" : False,
"forwarded" : False,
"english" : False
}  , {
"index" : 15,
"articleIndex" : "6541",
"favor" :  False ,
     "read" : False,    
"title" : "研究生两次要求性服务被拒后 抢走足疗女手机",
"titleTip" : "研究生两次要求性服务被拒后 抢走足疗女手机",
"titleSummary" : "研究生两次要求性服务被拒后 抢走足疗女手机",
"descSummary" : "要求性服务被拒 研究生抢劫足疗女 新京报讯 (记者刘洋)因...",
"url" : "http:\/\/go.rss.sina.com.cn\/redirect.php?url=http:\/\/news.sina.com.cn\/s\/2013-10-18\/023928463586.shtml",
"pubDate" : "2013年10月18日 (1周前)",
"enterDate" : "384197:59:42",
"channelId" : "-3439969759515352617",
"channelName" : "社会与法-新浪新闻",
"channelNameSummary" : "社会与法-新浪新闻",
"channelUrl" : "http:\/\/news.sina.com.cn\/society\/index.shtml",
"author" : "WWW.SINA.COM.CN",
"tags" : [],
"desc" : "要求性服务被拒 研究生抢劫足疗女 新京报讯 (记者刘洋)因足疗店老板不给做性方面的\u201C保健\u201D，被27岁的知名大学在校研究生王某抢走了手机，还被打伤。昨天，北京市第三中级人民法院对此案作出终审判决，认定王某抢劫行为构成抢劫罪，维持对其三年有期徒刑的判决。 ....",
"emailed" : False,
"forwarded" : False,
"english" : False
}  , {
"index" : 16,
"articleIndex" : "6539",
"favor" :  False ,
     "read" : False,    
"title" : "清华教授学术论文被指抄袭遭打假三年",
"titleTip" : "清华教授学术论文被指抄袭遭打假三年",
"titleSummary" : "清华教授学术论文被指抄袭遭打假三年",
"descSummary" : "清华教授被打假三年 蔡继明有关生产要素的论文，被国家工商总...",
"url" : "http:\/\/go.rss.sina.com.cn\/redirect.php?url=http:\/\/news.sina.com.cn\/s\/2013-10-18\/021728463351.shtml",
"pubDate" : "2013年10月18日 (1周前)",
"enterDate" : "384199:38:06",
"channelId" : "-3439969759515352617",
"channelName" : "社会与法-新浪新闻",
"channelNameSummary" : "社会与法-新浪新闻",
"channelUrl" : "http:\/\/news.sina.com.cn\/society\/index.shtml",
"author" : "WWW.SINA.COM.CN",
"tags" : [],
"desc" : "清华教授被打假三年 蔡继明有关生产要素的论文，被国家工商总局李德伟斥为抄袭。清华学术委员会前后两次认定矛盾。李德伟不服该认定，向法院起诉。独立鉴定机构缺失是关键。 \u201C学术打假\u201D似乎是中国学术界永恒不变的话题。 10月17日，清华大学人文社会科....",
"emailed" : False,
"forwarded" : False,
"english" : False
}  , {
"index" : 17,
"articleIndex" : "6537",
"favor" :  False ,
     "read" : False,    
"title" : "5名民工讨薪不成被工头召集多人打成重伤(图)",
"titleTip" : "5名民工讨薪不成被工头召集多人打成重伤(图)",
"titleSummary" : "5名民工讨薪不成被工头召集多人打成重伤(图)",
"descSummary" : "5名邯郸民工讨薪不成被打伤 本报驻沧州记者 代晴 文\/图 ...",
"url" : "http:\/\/go.rss.sina.com.cn\/redirect.php?url=http:\/\/news.sina.com.cn\/s\/p\/2013-10-18\/015928463321.shtml",
"pubDate" : "2013年10月18日 (1周前)",
"enterDate" : "384199:20:02",
"channelId" : "-3439969759515352617",
"channelName" : "社会与法-新浪新闻",
"channelNameSummary" : "社会与法-新浪新闻",
"channelUrl" : "http:\/\/news.sina.com.cn\/society\/index.shtml",
"author" : "WWW.SINA.COM.CN",
"tags" : [],
"desc" : "5名邯郸民工讨薪不成被打伤 本报驻沧州记者 代晴 文\/图 干完活拿不到工钱 10月17日上午，记者在海兴医院住院部见到了来自邯郸大名县的农民工王军锋。今年8月，他通过之前打工认识的山东潍坊人李文凯，接到了一个建筑工地的活儿。\u201C李文凯说他和中建一局....",
"emailed" : False,
"forwarded" : False,
"english" : False
}  , {
"index" : 18,
"articleIndex" : "6538",
"favor" :  False ,
     "read" : False,    
"title" : "留守妇女身上多处受伤只穿内衣家中被害",
"titleTip" : "留守妇女身上多处受伤只穿内衣家中被害",
"titleSummary" : "留守妇女身上多处受伤只穿内衣家中被害",
"descSummary" : "成安一留守妇女惨遭杀害 本报邯郸电(记者邢云 实习记者何瑞霞...",
"url" : "http:\/\/go.rss.sina.com.cn\/redirect.php?url=http:\/\/news.sina.com.cn\/s\/2013-10-18\/015928463318.shtml",
"pubDate" : "2013年10月18日 (1周前)",
"enterDate" : "384199:20:02",
"channelId" : "-3439969759515352617",
"channelName" : "社会与法-新浪新闻",
"channelNameSummary" : "社会与法-新浪新闻",
"channelUrl" : "http:\/\/news.sina.com.cn\/society\/index.shtml",
"author" : "WWW.SINA.COM.CN",
"tags" : [],
"desc" : "成安一留守妇女惨遭杀害 本报邯郸电(记者邢云 实习记者何瑞霞) 10月11日，成安县漳河店镇中艾束村发生凶案，一名少妇惨遭毒手。据了解，遇害人张美丽(化名)婚后仅8个多月，爱人在外地打工，她留守农村。案发后，成安警方积极调查侦办，目前正在追捕犯罪嫌疑人。 ....",
"emailed" : False,
"forwarded" : False,
"english" : False
}  , {
"index" : 19,
"articleIndex" : "6536",
"favor" :  False ,
     "read" : False,    
"title" : "国企高管携百万公款潜逃13年 期间不断换情人",
"titleTip" : "国企高管携百万公款潜逃13年 期间不断换情人",
"titleSummary" : "国企高管携百万公款潜逃13年 期间不断换情人",
"descSummary" : "北京某国企财务部副经理姜某因挪用公款无法归还，于20...",
"url" : "http:\/\/go.rss.sina.com.cn\/redirect.php?url=http:\/\/news.sina.com.cn\/s\/2013-10-18\/015928463255.shtml",
"pubDate" : "2013年10月18日 (1周前)",
"enterDate" : "384194:19:10",
"channelId" : "-3439969759515352617",
"channelName" : "社会与法-新浪新闻",
"channelNameSummary" : "社会与法-新浪新闻",
"channelUrl" : "http:\/\/news.sina.com.cn\/society\/index.shtml",
"author" : "WWW.SINA.COM.CN",
"tags" : [],
"desc" : "北京某国企财务部副经理姜某因挪用公款无法归还，于2000年携百万公款潜逃，一躲就是13年。其间，他伪造身份证、户口本，在已有妻儿的情况下再次娶妻生子。今年6月，大兴检察院最终在成都将姜某抓获，这件北京市跨时最长的追逃案告破。10月12日，大兴检方以涉嫌挪用公款、贪污....",
"emailed" : False,
"forwarded" : False,
"english" : False
} ]
}
