{
"mode" : {"viewTitle" : 1,   "viewNew" : 0,  "pageIndex" : 2 },
 "channel" : {"id" : "-3439969759515352617", "booked" : False, "subNumber" : 1, "name" : "社会与法-新浪新闻", "url" : "http:\/\/news.sina.com.cn\/society\/index.shtml", "feed" : "http:\/\/rss.sina.com.cn\/news\/society\/law15.xml", "author" : "WWW.SINA.COM.CN", "desc" : "社会新闻-法制天地", "imageUrl" : "http:\/\/www.sinaimg.cn\/home\/deco\/2009\/0330\/logo_home_news.gif", "postPerWeek" : "0", "lastCrawTime" : "2013年10月19日 (1周前)", "crawDateTime" : "2013年10月19日 (1周前)", "lastHttpCode" : "200"}, "page" : {
"startIndex" : 20,
"totalCount" : 5000,
"pageIndex" : 2,
"lastPage" : 250,
"pageSize" : 20,
"english" :  False },
 "unreadNum" : 0, "shotIndex" : -1,
"articles" : [
{
"index" : 0,
"articleIndex" : "6535",
"favor" :  False ,
     "read" : False,    
"title" : "村支书翻供称因生气才承认有罪 引旁听席笑声",
"titleTip" : "村支书翻供称因生气才承认有罪 引旁听席笑声",
"titleSummary" : "村支书翻供称因生气才承认有罪 引旁听席笑声",
"descSummary" : "昨天，平谷区大华山镇西牛峪村原党支部书记、村委会主任...",
"url" : "http:\/\/go.rss.sina.com.cn\/redirect.php?url=http:\/\/news.sina.com.cn\/s\/2013-10-18\/015928463262.shtml",
"pubDate" : "2013年10月18日 (1周前)",
"enterDate" : "384199:20:01",
"channelId" : "-3439969759515352617",
"channelName" : "社会与法-新浪新闻",
"channelNameSummary" : "社会与法-新浪新闻",
"channelUrl" : "http:\/\/news.sina.com.cn\/society\/index.shtml",
"author" : "WWW.SINA.COM.CN",
"tags" : [],
"desc" : "昨天，平谷区大华山镇西牛峪村原党支部书记、村委会主任高保合因涉嫌诈骗罪、职务侵占罪、非国家工作人员受贿罪，在市二中院受审。他当庭否认全部指控，称自己此前的有罪供述是出于一时生气，并将自己形容成\u201C冒着风险、一心为民\u201D的好村官。此案没有当庭宣判。 &gt;....",
"emailed" : False,
"forwarded" : False,
"english" : False
}  , {
"index" : 1,
"articleIndex" : "6534",
"favor" :  False ,
     "read" : False,    
"title" : "男子躲商场楼顶1夜次日离开 盗2件衣服1袋排骨",
"titleTip" : "男子躲商场楼顶1夜次日离开 盗2件衣服1袋排骨",
"titleSummary" : "男子躲商场楼顶1夜次日离开 盗2件衣服1袋排骨",
"descSummary" : "趁晚上清场之际，躲在楼顶 次日凌晨，开门后从容离开 男...",
"url" : "http:\/\/go.rss.sina.com.cn\/redirect.php?url=http:\/\/news.sina.com.cn\/s\/2013-10-18\/004528462922.shtml",
"pubDate" : "2013年10月18日 (1周前)",
"enterDate" : "384200:35:50",
"channelId" : "-3439969759515352617",
"channelName" : "社会与法-新浪新闻",
"channelNameSummary" : "社会与法-新浪新闻",
"channelUrl" : "http:\/\/news.sina.com.cn\/society\/index.shtml",
"author" : "WWW.SINA.COM.CN",
"tags" : [],
"desc" : "趁晚上清场之际，躲在楼顶 次日凌晨，开门后从容离开 男子卧底商场一夜，盗走两件衣服一袋排骨&#160;&#160;&#160; 星报讯(记者 鲁龙飞 文\/图)37岁的无业男子王某，10月10日晚8时许，趁着合肥市长江中路一商场晚上清场之际，躲藏在楼顶，确认商场无....",
"emailed" : False,
"forwarded" : False,
"english" : False
}  , {
"index" : 2,
"articleIndex" : "6533",
"favor" :  False ,
     "read" : False,    
"title" : "老汉帮小儿子告大儿子5年争房产 一家人成陌路",
"titleTip" : "老汉帮小儿子告大儿子5年争房产 一家人成陌路",
"titleSummary" : "老汉帮小儿子告大儿子5年争房产 一家人成陌路",
"descSummary" : "5年诉讼，老宅分了，亲情淡了 为了一套老房子，父亲帮小...",
"url" : "http:\/\/go.rss.sina.com.cn\/redirect.php?url=http:\/\/news.sina.com.cn\/s\/2013-10-18\/003628462920.shtml",
"pubDate" : "2013年10月18日 (1周前)",
"enterDate" : "384200:26:44",
"channelId" : "-3439969759515352617",
"channelName" : "社会与法-新浪新闻",
"channelNameSummary" : "社会与法-新浪新闻",
"channelUrl" : "http:\/\/news.sina.com.cn\/society\/index.shtml",
"author" : "WWW.SINA.COM.CN",
"tags" : [],
"desc" : "5年诉讼，老宅分了，亲情淡了 为了一套老房子，父亲帮小儿子告大儿子，一家人成陌路 星报讯(王化友 记者 王玮伟) 长丰岗集镇人宋老(化名)，几十年辛苦，为三儿一女积累了不少财富。子女们各自事业有成，宋老手中有近十处房产。不过，自宋老的老宅要拆迁开始，....",
"emailed" : False,
"forwarded" : False,
"english" : False
}  , {
"index" : 3,
"articleIndex" : "6532",
"favor" :  False ,
     "read" : False,    
"title" : "男子入室盗窃被发现 将女主人打伤强奸后纵火",
"titleTip" : "男子入室盗窃被发现 将女主人打伤强奸后纵火",
"titleSummary" : "男子入室盗窃被发现 将女主人打伤强奸后纵火",
"descSummary" : "河北省高院 发布 17日，全省法院集中宣判\u201C两抢一盗\u201D刑...",
"url" : "http:\/\/go.rss.sina.com.cn\/redirect.php?url=http:\/\/news.sina.com.cn\/s\/2013-10-18\/000128462877.shtml",
"pubDate" : "2013年10月18日 (1周前)",
"enterDate" : "384200:52:17",
"channelId" : "-3439969759515352617",
"channelName" : "社会与法-新浪新闻",
"channelNameSummary" : "社会与法-新浪新闻",
"channelUrl" : "http:\/\/news.sina.com.cn\/society\/index.shtml",
"author" : "WWW.SINA.COM.CN",
"tags" : [],
"desc" : "河北省高院 发布 17日，全省法院集中宣判\u201C两抢一盗\u201D刑事案 89件刑事案宣判 2人被判死刑 10月17日，全省法院集中宣判89件\u201C两抢一盗\u201D刑事案件，2名被告人被判处死刑，3名被告人被判处无期徒刑，153名被告人被判处6个月至19年有期徒刑。其中，省....",
"emailed" : False,
"forwarded" : False,
"english" : False
}  , {
"index" : 4,
"articleIndex" : "6531",
"favor" :  False ,
     "read" : False,    
"title" : "男子用萝卜刻假章冒充公务员 诈骗10部iphone5",
"titleTip" : "男子用萝卜刻假章冒充公务员 诈骗10部iphone5",
"titleSummary" : "男子用萝卜刻假章冒充公务员 诈骗10部iphone5",
"descSummary" : "华龙网10月18日18时讯(记者 程钰婷) 为了钱，重庆男子赖...",
"url" : "http:\/\/go.rss.sina.com.cn\/redirect.php?url=http:\/\/news.sina.com.cn\/s\/2013-10-17\/190928461828.shtml",
"pubDate" : "2013年10月17日 (1周前)",
"enterDate" : "384197:00:27",
"channelId" : "-3439969759515352617",
"channelName" : "社会与法-新浪新闻",
"channelNameSummary" : "社会与法-新浪新闻",
"channelUrl" : "http:\/\/news.sina.com.cn\/society\/index.shtml",
"author" : "WWW.SINA.COM.CN",
"tags" : [],
"desc" : "华龙网10月18日18时讯(记者 程钰婷) 为了钱，重庆男子赖某绞尽脑汁，竟然用萝卜刻章冒充公务员。他拿着\u201C公章\u201D先后到某营业厅办理了10台0元购买的iphone5手机，最终，自作聪明的赖某被重庆璧山警方抓获。今日，华龙网从警方了解到，赖某已被警方采取刑事强制措施。 萝....",
"emailed" : False,
"forwarded" : False,
"english" : False
}  , {
"index" : 5,
"articleIndex" : "6530",
"favor" :  False ,
     "read" : False,    
"title" : "初中女生疑被门卫强奸怀孕5月 警方介入调查",
"titleTip" : "初中女生疑被门卫强奸怀孕5月 警方介入调查",
"titleSummary" : "初中女生疑被门卫强奸怀孕5月 警方介入调查",
"descSummary" : "中新网丽水10月17日电(见习记者 胡丰盛) 近日，有人报案称...",
"url" : "http:\/\/go.rss.sina.com.cn\/redirect.php?url=http:\/\/news.sina.com.cn\/s\/2013-10-17\/190528461935.shtml",
"pubDate" : "2013年10月17日 (1周前)",
"enterDate" : "384199:56:21",
"channelId" : "-3439969759515352617",
"channelName" : "社会与法-新浪新闻",
"channelNameSummary" : "社会与法-新浪新闻",
"channelUrl" : "http:\/\/news.sina.com.cn\/society\/index.shtml",
"author" : "WWW.SINA.COM.CN",
"tags" : [],
"desc" : "中新网丽水10月17日电(见习记者 胡丰盛) 近日，有人报案称浙江青田某中学门卫涉嫌强奸该校一名初二女生并致其怀孕。17日，记者从青田县公安局获悉，该局对此案高度重视，已组织刑侦大队、辖区派出所人员开展调查工作。 据悉，受害人叫刘晓丽(化名)，出身于1998年，是浙....",
"emailed" : False,
"forwarded" : False,
"english" : False
}  , {
"index" : 6,
"articleIndex" : "6528",
"favor" :  False ,
     "read" : False,    
"title" : "少年为替奶奶出气粪坑溺死3岁聋哑堂妹获刑12年",
"titleTip" : "少年为替奶奶出气粪坑溺死3岁聋哑堂妹获刑12年",
"titleSummary" : "少年为替奶奶出气粪坑溺死3岁聋哑堂妹获刑12年",
"descSummary" : "大人因纠纷吵架，小孩子在一旁想帮忙出气，却造成一起...",
"url" : "http:\/\/go.rss.sina.com.cn\/redirect.php?url=http:\/\/news.sina.com.cn\/s\/2013-10-17\/132828459333.shtml",
"pubDate" : "2013年10月17日 (1周前)",
"enterDate" : "384200:51:24",
"channelId" : "-3439969759515352617",
"channelName" : "社会与法-新浪新闻",
"channelNameSummary" : "社会与法-新浪新闻",
"channelUrl" : "http:\/\/news.sina.com.cn\/society\/index.shtml",
"author" : "WWW.SINA.COM.CN",
"tags" : [],
"desc" : "大人因纠纷吵架，小孩子在一旁想帮忙出气，却造成一起悲剧。去年7月23日，冷娟的奶奶与冷小军的奶奶因邻里琐事发生争吵，在一旁的冷小军便产生了对冷娟进行报复的想法。第二天，冷小军趁机将冷娟骗至粪池边将其丢进粪池，直至冷娟完全沉入粪池方才离去。经法医鉴定：冷娟系在....",
"emailed" : False,
"forwarded" : False,
"english" : False
}  , {
"index" : 7,
"articleIndex" : "6527",
"favor" :  False ,
     "read" : False,    
"title" : "男子迷恋电影场景偷开警车被批捕",
"titleTip" : "男子迷恋电影场景偷开警车被批捕",
"titleSummary" : "男子迷恋电影场景偷开警车被批捕",
"descSummary" : "吴某因迷恋电影场景，竟然偷开警车，被警察发现后，竟在高速公路上...",
"url" : "http:\/\/go.rss.sina.com.cn\/redirect.php?url=http:\/\/news.sina.com.cn\/s\/2013-10-17\/132128459329.shtml",
"pubDate" : "2013年10月17日 (1周前)",
"enterDate" : "384200:43:50",
"channelId" : "-3439969759515352617",
"channelName" : "社会与法-新浪新闻",
"channelNameSummary" : "社会与法-新浪新闻",
"channelUrl" : "http:\/\/news.sina.com.cn\/society\/index.shtml",
"author" : "WWW.SINA.COM.CN",
"tags" : [],
"desc" : "吴某因迷恋电影场景，竟然偷开警车，被警察发现后，竟在高速公路上开车躲避警车追捕。14日，记者从翠屏区检察院了解到，目前，翠屏区检察院以涉嫌以危险方法危害公共安全罪对吴某批准逮捕。 9月3日中午，吴某在来到一家网吧上网，一口气观看完了《速度与激情》等六部影....",
"emailed" : False,
"forwarded" : False,
"english" : False
}  , {
"index" : 8,
"articleIndex" : "6525",
"favor" :  False ,
     "read" : False,    
"title" : "男子装成病患家属陪床伺机盗窃",
"titleTip" : "男子装成病患家属陪床伺机盗窃",
"titleSummary" : "男子装成病患家属陪床伺机盗窃",
"descSummary" : "中新网张家口10月17日电(记者 谭地) 据张家口市桥西区公安局17日透露...",
"url" : "http:\/\/go.rss.sina.com.cn\/redirect.php?url=http:\/\/news.sina.com.cn\/s\/2013-10-17\/113528458602.shtml",
"pubDate" : "2013年10月17日 (1周前)",
"enterDate" : "384200:27:42",
"channelId" : "-3439969759515352617",
"channelName" : "社会与法-新浪新闻",
"channelNameSummary" : "社会与法-新浪新闻",
"channelUrl" : "http:\/\/news.sina.com.cn\/society\/index.shtml",
"author" : "WWW.SINA.COM.CN",
"tags" : [],
"desc" : "中新网张家口10月17日电(记者 谭地) 据张家口市桥西区公安局17日透露，因手头缺钱花，该市一男子装成病患家属，跑到医院陪床，实为伺机盗窃。10月16日，刘某因涉嫌盗窃罪被依法逮捕。 9月中旬，张家口市桥西区明德北派出所连续两次接到报案，案件发生在同一医院，都是....",
"emailed" : False,
"forwarded" : False,
"english" : False
}  , {
"index" : 9,
"articleIndex" : "6521",
"favor" :  False ,
     "read" : False,    
"title" : "民工为讨千余元工钱杀人 后悔对不起家人(图)",
"titleTip" : "民工为讨千余元工钱杀人 后悔对不起家人(图)",
"titleSummary" : "民工为讨千余元工钱杀人 后悔对不起家人(图)",
"descSummary" : "做工被拖欠工资本该同情 讨薪打死人法律不容 四川一民工为...",
"url" : "http:\/\/go.rss.sina.com.cn\/redirect.php?url=http:\/\/news.sina.com.cn\/s\/p\/2013-10-17\/094128457505.shtml",
"pubDate" : "2013年10月17日 (1周前)",
"enterDate" : "384200:34:04",
"channelId" : "-3439969759515352617",
"channelName" : "社会与法-新浪新闻",
"channelNameSummary" : "社会与法-新浪新闻",
"channelUrl" : "http:\/\/news.sina.com.cn\/society\/index.shtml",
"author" : "WWW.SINA.COM.CN",
"tags" : [],
"desc" : "做工被拖欠工资本该同情 讨薪打死人法律不容 四川一民工为讨千余元工钱犯法，琼中警方跨省抓获疑犯 在讨要1000多元工钱时，发生争执并引发互殴，民工蒲某用方木打死了包工头项某，案发后蒲某畏罪潜逃。琼中黎族苗族自治县公安局高度重视此案，迅速成立\u201C....",
"emailed" : False,
"forwarded" : False,
"english" : False
}  , {
"index" : 10,
"articleIndex" : "6520",
"favor" :  False ,
     "read" : False,    
"title" : "女子遭前男友打出精神病 闹市捅人后家人不愿管",
"titleTip" : "女子遭前男友打出精神病 闹市捅人后家人不愿管",
"titleSummary" : "女子遭前男友打出精神病 闹市捅人后家人不愿管",
"descSummary" : "今年2月发生在南宁市闹市区的一起伤害案，因盛传是\u201C...",
"url" : "http:\/\/go.rss.sina.com.cn\/redirect.php?url=http:\/\/news.sina.com.cn\/s\/2013-10-17\/093128457450.shtml",
"pubDate" : "2013年10月17日 (1周前)",
"enterDate" : "384200:54:43",
"channelId" : "-3439969759515352617",
"channelName" : "社会与法-新浪新闻",
"channelNameSummary" : "社会与法-新浪新闻",
"channelUrl" : "http:\/\/news.sina.com.cn\/society\/index.shtml",
"author" : "WWW.SINA.COM.CN",
"tags" : [],
"desc" : "今年2月发生在南宁市闹市区的一起伤害案，因盛传是\u201C小三捅伤大房\u201D而备受关注。10月16日，南宁市兴宁区法院公开审理该案。行凶者是患有精神分裂症的天等女子农某，而且案发时，农某处在发病期。当日，受害人贾某还提起附带民事诉讼，向农某索赔22万多元。在采访中记者了解到....",
"emailed" : False,
"forwarded" : False,
"english" : False
}  , {
"index" : 11,
"articleIndex" : "6519",
"favor" :  False ,
     "read" : False,    
"title" : "女子遭情夫债务与不雅照威胁 设局促前夫杀人",
"titleTip" : "女子遭情夫债务与不雅照威胁 设局促前夫杀人",
"titleSummary" : "女子遭情夫债务与不雅照威胁 设局促前夫杀人",
"descSummary" : "中新网10月17日电 台湾桃园腰斩分尸案的嫌犯唐瑛与前夫...",
"url" : "http:\/\/go.rss.sina.com.cn\/redirect.php?url=http:\/\/news.sina.com.cn\/s\/2013-10-17\/092628457442.shtml",
"pubDate" : "2013年10月17日 (1周前)",
"enterDate" : "384200:49:07",
"channelId" : "-3439969759515352617",
"channelName" : "社会与法-新浪新闻",
"channelNameSummary" : "社会与法-新浪新闻",
"channelUrl" : "http:\/\/news.sina.com.cn\/society\/index.shtml",
"author" : "WWW.SINA.COM.CN",
"tags" : [],
"desc" : "中新网10月17日电 台湾桃园腰斩分尸案的嫌犯唐瑛与前夫张瑞峰，16日凌晨被收押；警方形容如蛇蝎女的唐瑛在检察官复讯时，自爆因欠死者周国钦10万元(新台币，下同)，她本以为找到\u201C金主\u201D援助，却发现周国钦性欲强、爱自拍性爱不雅照，且经济实力不佳，又多次以欠债、散布不雅....",
"emailed" : False,
"forwarded" : False,
"english" : False
}  , {
"index" : 12,
"articleIndex" : "6522",
"favor" :  False ,
     "read" : False,    
"title" : "硕士与怀孕妻子吵架后出轨 强奸前女友获刑3年",
"titleTip" : "硕士与怀孕妻子吵架后出轨 强奸前女友获刑3年",
"titleSummary" : "硕士与怀孕妻子吵架后出轨 强奸前女友获刑3年",
"descSummary" : "法制网讯 记者马超 通讯员马俐 29岁的王强(化名)来自农村...",
"url" : "http:\/\/go.rss.sina.com.cn\/redirect.php?url=http:\/\/news.sina.com.cn\/s\/2013-10-17\/091628457769.shtml",
"pubDate" : "2013年10月17日 (1周前)",
"enterDate" : "384199:39:53",
"channelId" : "-3439969759515352617",
"channelName" : "社会与法-新浪新闻",
"channelNameSummary" : "社会与法-新浪新闻",
"channelUrl" : "http:\/\/news.sina.com.cn\/society\/index.shtml",
"author" : "WWW.SINA.COM.CN",
"tags" : [],
"desc" : "法制网讯 记者马超 通讯员马俐 29岁的王强(化名)来自农村，通过勤奋学习考上了研究生，毕业后在一家研究院从事科研工作，用知识改变了自己的命运。王强正值盛年，工作稳定，新婚妻子又怀上了身孕，着实令人艳羡。2013年5月15日，美好的人生却因为他的犯罪行为戛然而止。 ....",
"emailed" : False,
"forwarded" : False,
"english" : False
}  , {
"index" : 13,
"articleIndex" : "6523",
"favor" :  False ,
     "read" : False,    
"title" : "司机车祸后不设警示牌致四车追尾2死3伤",
"titleTip" : "司机车祸后不设警示牌致四车追尾2死3伤",
"titleSummary" : "司机车祸后不设警示牌致四车追尾2死3伤",
"descSummary" : "本报讯 38岁的朱女士躺在病床上，她右手骨折了，而且吓得不...",
"url" : "http:\/\/go.rss.sina.com.cn\/redirect.php?url=http:\/\/news.sina.com.cn\/s\/2013-10-17\/065928455146.shtml",
"pubDate" : "2013年10月17日 (1周前)",
"enterDate" : "384196:52:27",
"channelId" : "-3439969759515352617",
"channelName" : "社会与法-新浪新闻",
"channelNameSummary" : "社会与法-新浪新闻",
"channelUrl" : "http:\/\/news.sina.com.cn\/society\/index.shtml",
"author" : "WWW.SINA.COM.CN",
"tags" : [],
"desc" : "本报讯 38岁的朱女士躺在病床上，她右手骨折了，而且吓得不轻。 10月15日早上5点左右，她一人开着轻型货车从杭州回嘉善，距离嘉兴东收费站五公里不到，被一辆江西牌照的半挂车碰撞追尾。 接下去发生的一幕更加恐怖，由于他们站在原车道内争吵理论，也没在车辆后....",
"emailed" : False,
"forwarded" : False,
"english" : False
}  , {
"index" : 14,
"articleIndex" : "6526",
"favor" :  False ,
     "read" : False,    
"title" : "警方回应被拘男子患精神病:被拘期间精神正常",
"titleTip" : "警方回应被拘男子患精神病:被拘期间精神正常",
"titleSummary" : "警方回应被拘男子患精神病:被拘期间精神正常",
"descSummary" : "羊城晚报佛山讯 记者赖逸秀、郑诚报道：顺德摩的司机王...",
"url" : "http:\/\/go.rss.sina.com.cn\/redirect.php?url=http:\/\/news.sina.com.cn\/s\/2013-10-17\/061028457800.shtml",
"pubDate" : "2013年10月17日 (1周前)",
"enterDate" : "384193:32:27",
"channelId" : "-3439969759515352617",
"channelName" : "社会与法-新浪新闻",
"channelNameSummary" : "社会与法-新浪新闻",
"channelUrl" : "http:\/\/news.sina.com.cn\/society\/index.shtml",
"author" : "WWW.SINA.COM.CN",
"tags" : [],
"desc" : "羊城晚报佛山讯 记者赖逸秀、郑诚报道：顺德摩的司机王广岭因无证驾驶摩托车且违章被佛山禅城交警拘留7日，释放后却不知所终，家属寻找多日无果。近日，其家人得知他已被送进顺德一家精神病医院，且曾吸食毒品。亲属称王广岭被拘留前精神正常，且从未吸毒。 记者昨日见....",
"emailed" : False,
"forwarded" : False,
"english" : False
}  , {
"index" : 15,
"articleIndex" : "6516",
"favor" :  False ,
     "read" : False,    
"title" : "名牌大学女生网络以次品骗换10万元奢侈品被捕",
"titleTip" : "名牌大学女生网络以次品骗换10万元奢侈品被捕",
"titleSummary" : "名牌大学女生网络以次品骗换10万元奢侈品被捕",
"descSummary" : "开保时捷的名牌大学女生破钱包骗换奢侈品\u201C复仇\u201D 铜...",
"url" : "http:\/\/go.rss.sina.com.cn\/redirect.php?url=http:\/\/news.sina.com.cn\/s\/2013-10-17\/045728454322.shtml",
"pubDate" : "2013年10月17日 (2周前)",
"enterDate" : "384199:50:42",
"channelId" : "-3439969759515352617",
"channelName" : "社会与法-新浪新闻",
"channelNameSummary" : "社会与法-新浪新闻",
"channelUrl" : "http:\/\/news.sina.com.cn\/society\/index.shtml",
"author" : "WWW.SINA.COM.CN",
"tags" : [],
"desc" : "开保时捷的名牌大学女生破钱包骗换奢侈品\u201C复仇\u201D 铜陵市一\u201C富家女\u201D胡某在网上和别人交换奢侈品，被骗价值10余万元的奢侈品。铜陵警方抓获了犯罪嫌疑人朱某某，成功追回被骗物品。让办案民警没有想到的是，19岁的朱某某竟然是江苏一所名牌大学的在校大学生，而且也是....",
"emailed" : False,
"forwarded" : False,
"english" : False
}  , {
"index" : 16,
"articleIndex" : "6517",
"favor" :  False ,
     "read" : False,    
"title" : "警察从内网窃取信息出售 倒卖1条信息可赚千元",
"titleTip" : "警察从内网窃取信息出售 倒卖1条信息可赚千元",
"titleSummary" : "警察从内网窃取信息出售 倒卖1条信息可赚千元",
"descSummary" : "合肥市的\u201C私家侦探\u201D张某，从2009年以来利用\u201C商务调...",
"url" : "http:\/\/go.rss.sina.com.cn\/redirect.php?url=http:\/\/news.sina.com.cn\/s\/2013-10-17\/045628454320.shtml",
"pubDate" : "2013年10月17日 (2周前)",
"enterDate" : "384197:19:17",
"channelId" : "-3439969759515352617",
"channelName" : "社会与法-新浪新闻",
"channelNameSummary" : "社会与法-新浪新闻",
"channelUrl" : "http:\/\/news.sina.com.cn\/society\/index.shtml",
"author" : "WWW.SINA.COM.CN",
"tags" : [],
"desc" : "合肥市的\u201C私家侦探\u201D张某，从2009年以来利用\u201C商务调查\u201D的名号，非法获取、买卖公民信息43399条。昨日，记者从合肥市蜀山区法院获悉，张某已因非法获取公民个人信息罪获刑。 让人吃惊的是，在张某的上家中，竟然还有一人是阜阳市公安局的民警。 梳理案情，记....",
"emailed" : False,
"forwarded" : False,
"english" : False
}  , {
"index" : 17,
"articleIndex" : "6518",
"favor" :  False ,
     "read" : False,    
"title" : "七旬老中医卖药获刑引争议",
"titleTip" : "七旬老中医卖药获刑引争议",
"titleSummary" : "七旬老中医卖药获刑引争议",
"descSummary" : "南都讯 记者杨秀伟 制作抗癫痫药行销全国26个省市，江门新会七旬老中医容...",
"url" : "http:\/\/go.rss.sina.com.cn\/redirect.php?url=http:\/\/news.sina.com.cn\/s\/2013-10-17\/043028454183.shtml",
"pubDate" : "2013年10月17日 (2周前)",
"enterDate" : "384195:53:38",
"channelId" : "-3439969759515352617",
"channelName" : "社会与法-新浪新闻",
"channelNameSummary" : "社会与法-新浪新闻",
"channelUrl" : "http:\/\/news.sina.com.cn\/society\/index.shtml",
"author" : "WWW.SINA.COM.CN",
"tags" : [],
"desc" : "南都讯 记者杨秀伟 制作抗癫痫药行销全国26个省市，江门新会七旬老中医容家湘在\u201C三打\u201D时被捕，被控生产销售伪劣产品罪(南都曾报道)。新会法院日前对该案一审判决，决定对容家湘等4被告人以生产销售假药罪从轻处罚，并全部缓刑释放。 控方：未取得制售药物许可证 ....",
"emailed" : False,
"forwarded" : False,
"english" : False
}  , {
"index" : 18,
"articleIndex" : "6524",
"favor" :  False ,
     "read" : False,    
"title" : "警察夫妇筹资500万违规开公司被开除公职",
"titleTip" : "警察夫妇筹资500万违规开公司被开除公职",
"titleSummary" : "警察夫妇筹资500万违规开公司被开除公职",
"descSummary" : "西安新闻网-西安晚报咸阳讯 (记者 于忠虎)近日，淳化县公安局...",
"url" : "http:\/\/go.rss.sina.com.cn\/redirect.php?url=http:\/\/news.sina.com.cn\/s\/2013-10-17\/042728454742.shtml",
"pubDate" : "2013年10月17日 (2周前)",
"enterDate" : "384193:20:26",
"channelId" : "-3439969759515352617",
"channelName" : "社会与法-新浪新闻",
"channelNameSummary" : "社会与法-新浪新闻",
"channelUrl" : "http:\/\/news.sina.com.cn\/society\/index.shtml",
"author" : "WWW.SINA.COM.CN",
"tags" : [],
"desc" : "西安新闻网-西安晚报咸阳讯 (记者 于忠虎)近日，淳化县公安局一对警察夫妇开公司，欠下装修费输官司一事被曝光后，10月16日，淳化县公安局决定开除两人公职。 近日，有媒体报道淳化县公安局民警路琳、褚鹏旭违规经营汽车贸易公司、拖欠装修款的问题，引起社会关注。淳....",
"emailed" : False,
"forwarded" : False,
"english" : False
}  , {
"index" : 19,
"articleIndex" : "6529",
"favor" :  False ,
     "read" : False,    
"title" : "2名男子为还赌债入室抢劫割男童耳朵被判无期",
"titleTip" : "2名男子为还赌债入室抢劫割男童耳朵被判无期",
"titleSummary" : "2名男子为还赌债入室抢劫割男童耳朵被判无期",
"descSummary" : "两名受过高等教育的男子，因网络赌博欠下巨额债务后，竟...",
"url" : "http:\/\/go.rss.sina.com.cn\/redirect.php?url=http:\/\/news.sina.com.cn\/s\/2013-10-17\/040128453845.shtml",
"pubDate" : "2013年10月17日 (2周前)",
"enterDate" : "384188:22:57",
"channelId" : "-3439969759515352617",
"channelName" : "社会与法-新浪新闻",
"channelNameSummary" : "社会与法-新浪新闻",
"channelUrl" : "http:\/\/news.sina.com.cn\/society\/index.shtml",
"author" : "WWW.SINA.COM.CN",
"tags" : [],
"desc" : "两名受过高等教育的男子，因网络赌博欠下巨额债务后，竟合伙持刀入室抢劫，在抢劫过程中为了震慑被害人，他们不仅殴打、电击73岁的老人，还将一名9岁儿童右耳割掉三分之二。3年后，两人因盗窃被警方抓获。昨天，合肥市中级人民法院对该案作出一审判决。 法院审理查明，....",
"emailed" : False,
"forwarded" : False,
"english" : False
} ]
}
