{
"mode" : {"viewTitle" : 1,   "viewNew" : 0,  "pageIndex" : 1 },
 "channel" : {"id" : "-7481005239057819193", "booked" : False, "subNumber" : 1, "name" : "军事要闻汇总-新浪军事", "url" : "http:\/\/news.sina.com.cn\/news1000\/index.shtml?requestOrder=3", "feed" : "http:\/\/rss.sina.com.cn\/roll\/mil\/hot_roll.xml", "author" : "WWW.SINA.COM.CN", "desc" : "军事要闻汇总", "imageUrl" : "http:\/\/www.sinaimg.cn\/jc\/deco\/2010\/0909\/mil_yc_common.jpg", "postPerWeek" : "0", "lastCrawTime" : "2013年10月22日 (1周前)", "crawDateTime" : "2013年10月22日 (1周前)", "lastHttpCode" : "200"}, "page" : {
"startIndex" : 0,
"totalCount" : 5000,
"pageIndex" : 1,
"lastPage" : 250,
"pageSize" : 20,
"english" :  False },
 "unreadNum" : 0, "shotIndex" : -1,
"articles" : [
{
"index" : 0,
"articleIndex" : "21731",
"favor" :  False ,
     "read" : False,    
"title" : "\u201C位卑未敢忘忧国\u201D",
"titleTip" : "\u201C位卑未敢忘忧国\u201D",
"titleSummary" : "\u201C位卑未敢忘忧国\u201D",
"descSummary" : "因书结缘，我认识了大半生笔耕、著作甚多、在武警部队颇有文名、职务却只是\u201C老...",
"url" : "http:\/\/go.rss.sina.com.cn\/redirect.php?url=http:\/\/mil.news.sina.com.cn\/2013-10-22\/0430745527.html",
"pubDate" : "2013年10月22日 (1周前)",
"enterDate" : "384201:06:34",
"channelId" : "-7481005239057819193",
"channelName" : "军事要闻汇总-新浪军事",
"channelNameSummary" : "军事要闻汇总-新浪军...",
"channelUrl" : "http:\/\/news.sina.com.cn\/news1000\/index.shtml?requestOrder=3",
"author" : "WWW.SINA.COM.CN",
"tags" : [],
"desc" : "因书结缘，我认识了大半生笔耕、著作甚多、在武警部队颇有文名、职务却只是\u201C老编\u201D的作家范以。他因新作《良言》出版在即邀我作序。我说只有先看书稿方可评说。他随即冒着盛暑、满头大汗地送来沉甸甸的一叠书稿。望着这位双鬓染霜、朴实敦厚的人，我脑海中突然涌现了晚唐周朴....",
"emailed" : False,
"forwarded" : False,
"english" : False
}  , {
"index" : 1,
"articleIndex" : "21717",
"favor" :  False ,
     "read" : False,    
"title" : "青春为什么这样无悔",
"titleTip" : "青春为什么这样无悔",
"titleSummary" : "青春为什么这样无悔",
"descSummary" : "战火魔、伏浓烟、降毒气\u2026\u2026去年11月9日，以重庆市消防总队特勤支队官兵为原型...",
"url" : "http:\/\/go.rss.sina.com.cn\/redirect.php?url=http:\/\/mil.news.sina.com.cn\/2013-10-22\/0430745531.html",
"pubDate" : "2013年10月22日 (1周前)",
"enterDate" : "384201:06:33",
"channelId" : "-7481005239057819193",
"channelName" : "军事要闻汇总-新浪军事",
"channelNameSummary" : "军事要闻汇总-新浪军...",
"channelUrl" : "http:\/\/news.sina.com.cn\/news1000\/index.shtml?requestOrder=3",
"author" : "WWW.SINA.COM.CN",
"tags" : [],
"desc" : "战火魔、伏浓烟、降毒气\u2026\u2026去年11月9日，以重庆市消防总队特勤支队官兵为原型拍摄的影片《火影雄兵》，在央视电影频道热播。 今年9月，又一批新战士走进巴山渝水这片被英烈鲜血染红的土地，成为支队的\u201C新鲜血液\u201D。《火影雄兵》这部反映部队光荣战绩的电影，成为他们....",
"emailed" : False,
"forwarded" : False,
"english" : False
}  , {
"index" : 2,
"articleIndex" : "21718",
"favor" :  False ,
     "read" : False,    
"title" : "WTA年终总决赛李娜小组赛避开小威",
"titleTip" : "WTA年终总决赛李娜小组赛避开小威",
"titleSummary" : "WTA年终总决赛李娜小组赛避开小威",
"descSummary" : "本报北京10月21日电 记者柴华报道：WTA官网消息，当地时间10月...",
"url" : "http:\/\/go.rss.sina.com.cn\/redirect.php?url=http:\/\/mil.news.sina.com.cn\/2013-10-22\/0430745529.html",
"pubDate" : "2013年10月22日 (1周前)",
"enterDate" : "384201:06:33",
"channelId" : "-7481005239057819193",
"channelName" : "军事要闻汇总-新浪军事",
"channelNameSummary" : "军事要闻汇总-新浪军...",
"channelUrl" : "http:\/\/news.sina.com.cn\/news1000\/index.shtml?requestOrder=3",
"author" : "WWW.SINA.COM.CN",
"tags" : [],
"desc" : "本报北京10月21日电 记者柴华报道：WTA官网消息，当地时间10月20日，2013年WTA年终总决赛在土耳其伊斯坦布尔举行了抽签仪式。小威廉姆斯和阿扎伦卡分别领衔红组与白组，李娜与阿扎伦卡、埃拉尼和扬科维奇被分到了白组，小威廉姆斯、A・拉德万斯卡、科维托娃与科贝尔同处红组。....",
"emailed" : False,
"forwarded" : False,
"english" : False
}  , {
"index" : 3,
"articleIndex" : "21719",
"favor" :  False ,
     "read" : False,    
"title" : "巴西世界杯欧洲区附加赛对阵出炉",
"titleTip" : "巴西世界杯欧洲区附加赛对阵出炉",
"titleSummary" : "巴西世界杯欧洲区附加赛对阵出炉",
"descSummary" : "本报北京10月21日电 剑挥报道：2014年巴西世界杯足球赛欧洲区附加...",
"url" : "http:\/\/go.rss.sina.com.cn\/redirect.php?url=http:\/\/mil.news.sina.com.cn\/2013-10-22\/0430745530.html",
"pubDate" : "2013年10月22日 (1周前)",
"enterDate" : "384201:06:33",
"channelId" : "-7481005239057819193",
"channelName" : "军事要闻汇总-新浪军事",
"channelNameSummary" : "军事要闻汇总-新浪军...",
"channelUrl" : "http:\/\/news.sina.com.cn\/news1000\/index.shtml?requestOrder=3",
"author" : "WWW.SINA.COM.CN",
"tags" : [],
"desc" : "本报北京10月21日电 剑挥报道：2014年巴西世界杯足球赛欧洲区附加赛抽签，21日在瑞士国际足联总部揭晓，8支球队将捉对厮杀，争夺4张世界杯决赛圈入场券。 对阵形势出炉：葡萄牙VS瑞典；乌克兰VS法国；希腊VS罗马尼亚；冰岛VS克罗地亚。葡瑞对阵，意味着C罗和伊布两大球....",
"emailed" : False,
"forwarded" : False,
"english" : False
}  , {
"index" : 4,
"articleIndex" : "21720",
"favor" :  False ,
     "read" : False,    
"title" : "穿衣戴帽也要训练",
"titleTip" : "穿衣戴帽也要训练",
"titleSummary" : "穿衣戴帽也要训练",
"descSummary" : "本报讯 李斌、王元报道：熄灯号刚响不久，二连营区哨声骤响。9月上旬一天晚上，笔...",
"url" : "http:\/\/go.rss.sina.com.cn\/redirect.php?url=http:\/\/mil.news.sina.com.cn\/2013-10-22\/0430745508.html",
"pubDate" : "2013年10月22日 (1周前)",
"enterDate" : "384201:06:33",
"channelId" : "-7481005239057819193",
"channelName" : "军事要闻汇总-新浪军事",
"channelNameSummary" : "军事要闻汇总-新浪军...",
"channelUrl" : "http:\/\/news.sina.com.cn\/news1000\/index.shtml?requestOrder=3",
"author" : "WWW.SINA.COM.CN",
"tags" : [],
"desc" : "本报讯 李斌、王元报道：熄灯号刚响不久，二连营区哨声骤响。9月上旬一天晚上，笔者在成都军区某高炮团野外驻训场目睹了一场别开生面的训练\u2015\u2015穿衣戴帽。 穿衣戴帽还用训？二营教导员何学林向笔者讲述了这样一件事：一天晚上，该团团长刘顺余在四连一班查铺，发现战士....",
"emailed" : False,
"forwarded" : False,
"english" : False
}  , {
"index" : 5,
"articleIndex" : "21721",
"favor" :  False ,
     "read" : False,    
"title" : "重视指挥员的谋略训练",
"titleTip" : "重视指挥员的谋略训练",
"titleSummary" : "重视指挥员的谋略训练",
"descSummary" : "孙子曰：\u201C兵者，诡道也。\u201D\u201C诡\u201D在其集万千变化于一身。自古以来，谁的谋略...",
"url" : "http:\/\/go.rss.sina.com.cn\/redirect.php?url=http:\/\/mil.news.sina.com.cn\/2013-10-22\/0430745509.html",
"pubDate" : "2013年10月22日 (1周前)",
"enterDate" : "384201:06:33",
"channelId" : "-7481005239057819193",
"channelName" : "军事要闻汇总-新浪军事",
"channelNameSummary" : "军事要闻汇总-新浪军...",
"channelUrl" : "http:\/\/news.sina.com.cn\/news1000\/index.shtml?requestOrder=3",
"author" : "WWW.SINA.COM.CN",
"tags" : [],
"desc" : "孙子曰：\u201C兵者，诡道也。\u201D\u201C诡\u201D在其集万千变化于一身。自古以来，谁的谋略越高，驾驭变化的本事越大，胜利天平也就越会倾向谁。正因如此，\u201C战争争谋\u201D\u201C打仗打将\u201D是世界公认的真理。 时下的信息化战争，正在呈现出全新的特点：战场信息浩如烟海，真伪难辨；阵地转....",
"emailed" : False,
"forwarded" : False,
"english" : False
}  , {
"index" : 6,
"articleIndex" : "21722",
"favor" :  False ,
     "read" : False,    
"title" : "从\u201C借荆州\u201D看参谋品质",
"titleTip" : "从\u201C借荆州\u201D看参谋品质",
"titleSummary" : "从\u201C借荆州\u201D看参谋品质",
"descSummary" : "《三国演义》中，\u201C借荆州\u201D是继赤壁之战后，孙刘联盟面临的新一轮合作考验...",
"url" : "http:\/\/go.rss.sina.com.cn\/redirect.php?url=http:\/\/mil.news.sina.com.cn\/2013-10-22\/0430745506.html",
"pubDate" : "2013年10月22日 (1周前)",
"enterDate" : "384201:06:33",
"channelId" : "-7481005239057819193",
"channelName" : "军事要闻汇总-新浪军事",
"channelNameSummary" : "军事要闻汇总-新浪军...",
"channelUrl" : "http:\/\/news.sina.com.cn\/news1000\/index.shtml?requestOrder=3",
"author" : "WWW.SINA.COM.CN",
"tags" : [],
"desc" : "《三国演义》中，\u201C借荆州\u201D是继赤壁之战后，孙刘联盟面临的新一轮合作考验。鲁肃建议借荆州与刘备，联刘抗曹。值得探究的是，周瑜、吕蒙二人也是孙权集团的\u201C高参\u201D，都看出了刘备非\u201C池中物\u201D以及荆州的战略价值，但他们没有看得更深一步，因此，就这个问题来看，他们的谋略....",
"emailed" : False,
"forwarded" : False,
"english" : False
}  , {
"index" : 7,
"articleIndex" : "21723",
"favor" :  False ,
     "read" : False,    
"title" : "用崇高信仰铸牢强军的精神支柱",
"titleTip" : "用崇高信仰铸牢强军的精神支柱",
"titleSummary" : "用崇高信仰铸牢强军的精神支柱",
"descSummary" : "实现强军目标，需要精神力量做支撑。面对复杂严峻形势下有的同志信仰...",
"url" : "http:\/\/go.rss.sina.com.cn\/redirect.php?url=http:\/\/mil.news.sina.com.cn\/2013-10-22\/0430745507.html",
"pubDate" : "2013年10月22日 (1周前)",
"enterDate" : "384201:06:33",
"channelId" : "-7481005239057819193",
"channelName" : "军事要闻汇总-新浪军事",
"channelNameSummary" : "军事要闻汇总-新浪军...",
"channelUrl" : "http:\/\/news.sina.com.cn\/news1000\/index.shtml?requestOrder=3",
"author" : "WWW.SINA.COM.CN",
"tags" : [],
"desc" : "实现强军目标，需要精神力量做支撑。面对复杂严峻形势下有的同志信仰缺失、信仰模糊的问题，必须进一步强化对马克思主义的崇高政治信仰，铸牢强军兴军的精神支柱。 崇高政治信仰是人民军队的强大精神内核 一支有信仰的军队，才是知所趋赴、无往不胜的军队。崇高....",
"emailed" : False,
"forwarded" : False,
"english" : False
}  , {
"index" : 8,
"articleIndex" : "21724",
"favor" :  False ,
     "read" : False,    
"title" : "新闻简报",
"titleTip" : "新闻简报",
"titleSummary" : "新闻简报",
"descSummary" : "我国农业气象服务覆盖近九成乡镇 据新华社北京10月21日电（记者赵超）21日提请十二届全国...",
"url" : "http:\/\/go.rss.sina.com.cn\/redirect.php?url=http:\/\/mil.news.sina.com.cn\/2013-10-22\/0430745513.html",
"pubDate" : "2013年10月22日 (1周前)",
"enterDate" : "384201:06:33",
"channelId" : "-7481005239057819193",
"channelName" : "军事要闻汇总-新浪军事",
"channelNameSummary" : "军事要闻汇总-新浪军...",
"channelUrl" : "http:\/\/news.sina.com.cn\/news1000\/index.shtml?requestOrder=3",
"author" : "WWW.SINA.COM.CN",
"tags" : [],
"desc" : "我国农业气象服务覆盖近九成乡镇 据新华社北京10月21日电（记者赵超）21日提请十二届全国人大常委会第五次会议审议的气象法执法检查报告指出，我国农业气象服务已覆盖全国近九成乡镇。 报告说，各有关部门建立了653个农业气象观测站、7.8万个气象信息服务站，有....",
"emailed" : False,
"forwarded" : False,
"english" : False
}  , {
"index" : 9,
"articleIndex" : "21725",
"favor" :  False ,
     "read" : False,    
"title" : "战法创新：找准前行方位与路径",
"titleTip" : "战法创新：找准前行方位与路径",
"titleSummary" : "战法创新：找准前行方位与路径",
"descSummary" : "战法，归根结底是一种方法--作战方法；战法创新，换句话说就是研究方...",
"url" : "http:\/\/go.rss.sina.com.cn\/redirect.php?url=http:\/\/mil.news.sina.com.cn\/2013-10-22\/0430745515.html",
"pubDate" : "2013年10月22日 (1周前)",
"enterDate" : "384201:06:33",
"channelId" : "-7481005239057819193",
"channelName" : "军事要闻汇总-新浪军事",
"channelNameSummary" : "军事要闻汇总-新浪军...",
"channelUrl" : "http:\/\/news.sina.com.cn\/news1000\/index.shtml?requestOrder=3",
"author" : "WWW.SINA.COM.CN",
"tags" : [],
"desc" : "战法，归根结底是一种方法\u2015\u2015作战方法；战法创新，换句话说就是研究方法\u2015\u2015研究作战的方法。而战法创新的路径，则是研究方法的方法，关乎战法创新的效率与效果，意义重大，不可不察。 创新，是一个民族的灵魂。战法创新，是一支军队\u201C能打仗、打胜仗\u201D的动力源泉。目....",
"emailed" : False,
"forwarded" : False,
"english" : False
}  , {
"index" : 10,
"articleIndex" : "21726",
"favor" :  False ,
     "read" : False,    
"title" : "共同关注 一起努力",
"titleTip" : "共同关注 一起努力",
"titleSummary" : "共同关注 一起努力",
"descSummary" : "儿行千里母担忧。新战士离开亲人告别家乡踏入军营，家长们心中难免有种种顾虑：孩...",
"url" : "http:\/\/go.rss.sina.com.cn\/redirect.php?url=http:\/\/mil.news.sina.com.cn\/2013-10-22\/0430745514.html",
"pubDate" : "2013年10月22日 (1周前)",
"enterDate" : "384201:06:33",
"channelId" : "-7481005239057819193",
"channelName" : "军事要闻汇总-新浪军事",
"channelNameSummary" : "军事要闻汇总-新浪军...",
"channelUrl" : "http:\/\/news.sina.com.cn\/news1000\/index.shtml?requestOrder=3",
"author" : "WWW.SINA.COM.CN",
"tags" : [],
"desc" : "儿行千里母担忧。新战士离开亲人告别家乡踏入军营，家长们心中难免有种种顾虑：孩子在部队是不是会生病、会不会受委屈、能不能实现自己的理想抱负？这些担心都在情理之中。 参军报国是成长历程的全新出发。新战士在军旅生涯中不断克服困难、逐渐成长成熟，需要部队与家....",
"emailed" : False,
"forwarded" : False,
"english" : False
}  , {
"index" : 11,
"articleIndex" : "21727",
"favor" :  False ,
     "read" : False,    
"title" : "手机播报",
"titleTip" : "手机播报",
"titleSummary" : "手机播报",
"descSummary" : "武警北海市支队帮助理论骨干提高能力 本报讯 文新杰报道：为帮助基层理论骨干提高组学能力...",
"url" : "http:\/\/go.rss.sina.com.cn\/redirect.php?url=http:\/\/mil.news.sina.com.cn\/2013-10-22\/0430745512.html",
"pubDate" : "2013年10月22日 (1周前)",
"enterDate" : "384201:06:33",
"channelId" : "-7481005239057819193",
"channelName" : "军事要闻汇总-新浪军事",
"channelNameSummary" : "军事要闻汇总-新浪军...",
"channelUrl" : "http:\/\/news.sina.com.cn\/news1000\/index.shtml?requestOrder=3",
"author" : "WWW.SINA.COM.CN",
"tags" : [],
"desc" : "武警北海市支队帮助理论骨干提高能力 本报讯 文新杰报道：为帮助基层理论骨干提高组学能力、拓宽学习视野，今年6月份以来，武警广西总队北海市支队每月邀请4名基层理论学习骨干参加党委中心组学习，引导他们准确掌握创新理论的科学内涵和实践要求，有效促进了基层理论....",
"emailed" : False,
"forwarded" : False,
"english" : False
}  , {
"index" : 12,
"articleIndex" : "21728",
"favor" :  False ,
     "read" : False,    
"title" : "欧盟防务转向\u201C自守家门\u201D",
"titleTip" : "欧盟防务转向\u201C自守家门\u201D",
"titleSummary" : "欧盟防务转向\u201C自守家门\u201D",
"descSummary" : "10月15日，欧盟发表《欧盟共同防务安全报告》，提出欧洲共同防御新思路...",
"url" : "http:\/\/go.rss.sina.com.cn\/redirect.php?url=http:\/\/mil.news.sina.com.cn\/2013-10-22\/0430745510.html",
"pubDate" : "2013年10月22日 (1周前)",
"enterDate" : "384201:06:33",
"channelId" : "-7481005239057819193",
"channelName" : "军事要闻汇总-新浪军事",
"channelNameSummary" : "军事要闻汇总-新浪军...",
"channelUrl" : "http:\/\/news.sina.com.cn\/news1000\/index.shtml?requestOrder=3",
"author" : "WWW.SINA.COM.CN",
"tags" : [],
"desc" : "10月15日，欧盟发表《欧盟共同防务安全报告》，提出欧洲共同防御新思路，由此引发了国际社会对未来欧盟防务政策走向的猜测。 这份长达27页、6万多字的长篇报告，论述了欧盟可能会遇到的各种威胁与挑战，提出了制定欧盟共同安全与防务政策的必要性与现实性。报告还针对....",
"emailed" : False,
"forwarded" : False,
"english" : False
}  , {
"index" : 13,
"articleIndex" : "21729",
"favor" :  False ,
     "read" : False,    
"title" : "中缅天然气管道将为两国带来哪些好处",
"titleTip" : "中缅天然气管道将为两国带来哪些好处",
"titleSummary" : "中缅天然气管道将为两国带来哪些好处",
"descSummary" : "中缅天然气管道是中缅油气管道工程的重要组成部分。这条管道起...",
"url" : "http:\/\/go.rss.sina.com.cn\/redirect.php?url=http:\/\/mil.news.sina.com.cn\/2013-10-22\/0430745511.html",
"pubDate" : "2013年10月22日 (1周前)",
"enterDate" : "384201:06:33",
"channelId" : "-7481005239057819193",
"channelName" : "军事要闻汇总-新浪军事",
"channelNameSummary" : "军事要闻汇总-新浪军...",
"channelUrl" : "http:\/\/news.sina.com.cn\/news1000\/index.shtml?requestOrder=3",
"author" : "WWW.SINA.COM.CN",
"tags" : [],
"desc" : "中缅天然气管道是中缅油气管道工程的重要组成部分。这条管道起于缅甸皎漂市，从南坎进入中国境内的云南省瑞丽市，经贵阳市到达广西贵港市。管道干线全长2520公里，缅甸段793公里，国内段1727公里，设计年输量120亿立方米，天然气资源主要来自缅甸境内气田。 厦门大学中....",
"emailed" : False,
"forwarded" : False,
"english" : False
}  , {
"index" : 14,
"articleIndex" : "21730",
"favor" :  False ,
     "read" : False,    
"title" : "三人成众",
"titleTip" : "三人成众",
"titleSummary" : "三人成众",
"descSummary" : "三人成众。\u201C众\u201D，简单易懂--众人拾柴火焰高。这，同样是体育赛场上颠扑不破的真理。开局...",
"url" : "http:\/\/go.rss.sina.com.cn\/redirect.php?url=http:\/\/mil.news.sina.com.cn\/2013-10-22\/0430745533.html",
"pubDate" : "2013年10月22日 (1周前)",
"enterDate" : "384201:06:33",
"channelId" : "-7481005239057819193",
"channelName" : "军事要闻汇总-新浪军事",
"channelNameSummary" : "军事要闻汇总-新浪军...",
"channelUrl" : "http:\/\/news.sina.com.cn\/news1000\/index.shtml?requestOrder=3",
"author" : "WWW.SINA.COM.CN",
"tags" : [],
"desc" : "三人成众。\u201C众\u201D，简单易懂\u2015\u2015众人拾柴火焰高。这，同样是体育赛场上颠扑不破的真理。 开局8连胜，进22球仅失1球，领跑意甲的不是尤文，不是AC米兰，更不是国米，而是罗马。要知道，上赛季他们仅仅排名第六。分析数据不难发现，罗马队异军突起，靠的不仅仅是巨星托蒂....",
"emailed" : False,
"forwarded" : False,
"english" : False
}  , {
"index" : 15,
"articleIndex" : "21716",
"favor" :  False ,
     "read" : False,    
"title" : "韩国军方称朝鲜弹道导弹3年内将安装核弹头",
"titleTip" : "韩国军方称朝鲜弹道导弹3年内将安装核弹头",
"titleSummary" : "韩国军方称朝鲜弹道导弹3年内将安装核弹头",
"descSummary" : "据英国《简氏防务周刊》2013年10月18日报道，韩国军方官...",
"url" : "http:\/\/go.rss.sina.com.cn\/redirect.php?url=http:\/\/mil.news.sina.com.cn\/2013-10-21\/1627745465.html",
"pubDate" : "2013年10月21日 (1周前)",
"enterDate" : "384200:35:12",
"channelId" : "-7481005239057819193",
"channelName" : "军事要闻汇总-新浪军事",
"channelNameSummary" : "军事要闻汇总-新浪军...",
"channelUrl" : "http:\/\/news.sina.com.cn\/news1000\/index.shtml?requestOrder=3",
"author" : "WWW.SINA.COM.CN",
"tags" : [],
"desc" : "据英国《简氏防务周刊》2013年10月18日报道，韩国军方官员表示，朝鲜在核弹头微型化方面已经取得长足的进步，未来两到三年内将能在弹道导弹上安装核弹头。朝鲜核计划造成的这些新的风险评估迫使韩国重新审议其军事战略。如果朝鲜试图核武器，那么韩国必须先发制人打击对手。....",
"emailed" : False,
"forwarded" : False,
"english" : False
}  , {
"index" : 16,
"articleIndex" : "21715",
"favor" :  False ,
     "read" : False,    
"title" : "乌克兰向泰国交付首批5辆堡垒坦克",
"titleTip" : "乌克兰向泰国交付首批5辆堡垒坦克",
"titleSummary" : "乌克兰向泰国交付首批5辆堡垒坦克",
"descSummary" : "据英国《简氏防务周刊》2013年10月17日报道，10月15日，乌克兰向...",
"url" : "http:\/\/go.rss.sina.com.cn\/redirect.php?url=http:\/\/mil.news.sina.com.cn\/2013-10-21\/1621745464.html",
"pubDate" : "2013年10月21日 (1周前)",
"enterDate" : "384200:59:17",
"channelId" : "-7481005239057819193",
"channelName" : "军事要闻汇总-新浪军事",
"channelNameSummary" : "军事要闻汇总-新浪军...",
"channelUrl" : "http:\/\/news.sina.com.cn\/news1000\/index.shtml?requestOrder=3",
"author" : "WWW.SINA.COM.CN",
"tags" : [],
"desc" : "&#160; 据英国《简氏防务周刊》2013年10月17日报道，10月15日，乌克兰向泰国交付了首批五辆\u201C堡垒\u201D主战坦克。哈尔科夫马里森厂将第一批由T-84衍生而来的BM\u201C堡垒\u201D主战坦克（MBT）交付给泰国皇家陆军（RTA）。 在2011年9月敲定的该次交易中，泰国同意购买49辆\u201C堡....",
"emailed" : False,
"forwarded" : False,
"english" : False
}  , {
"index" : 17,
"articleIndex" : "21714",
"favor" :  False ,
     "read" : False,    
"title" : "港媒称印度烈火5导弹无法震慑中国 与华差距增大",
"titleTip" : "港媒称印度烈火5导弹无法震慑中国 与华差距增大",
"titleSummary" : "港媒称印度烈火5导弹无法震慑中国 与华差距增大",
"descSummary" : "香港中评社10月20日文章，原题：印度烈火-5震慑不了中...",
"url" : "http:\/\/go.rss.sina.com.cn\/redirect.php?url=http:\/\/mil.news.sina.com.cn\/2013-10-21\/1613745461.html",
"pubDate" : "2013年10月21日 (1周前)",
"enterDate" : "384200:51:17",
"channelId" : "-7481005239057819193",
"channelName" : "军事要闻汇总-新浪军事",
"channelNameSummary" : "军事要闻汇总-新浪军...",
"channelUrl" : "http:\/\/news.sina.com.cn\/news1000\/index.shtml?requestOrder=3",
"author" : "WWW.SINA.COM.CN",
"tags" : [],
"desc" : "香港中评社10月20日文章，原题：印度烈火-5震慑不了中国电 印度烈火-5型远程弹道导弹上月中旬成功进行了第二次试射，印度各大媒体纷纷刊文庆祝这一\u201C巨大胜利\u201D，渲染该导弹射程能够抵达中国腹地乃至欧洲，甚至直呼其为\u201C中国杀手\u201D。有印媒称，试射成功提升印度对中国的核威....",
"emailed" : False,
"forwarded" : False,
"english" : False
}  , {
"index" : 18,
"articleIndex" : "21713",
"favor" :  False ,
     "read" : False,    
"title" : "我少将：美军对中国公开核掩体威慑意味很浓",
"titleTip" : "我少将：美军对中国公开核掩体威慑意味很浓",
"titleSummary" : "我少将：美军对中国公开核掩体威慑意味很浓",
"descSummary" : "新华网消息：国务委员兼国防部部长常万全19日参观了位...",
"url" : "http:\/\/go.rss.sina.com.cn\/redirect.php?url=http:\/\/mil.news.sina.com.cn\/2013-10-21\/1544745458.html",
"pubDate" : "2013年10月21日 (1周前)",
"enterDate" : "384200:22:17",
"channelId" : "-7481005239057819193",
"channelName" : "军事要闻汇总-新浪军事",
"channelNameSummary" : "军事要闻汇总-新浪军...",
"channelUrl" : "http:\/\/news.sina.com.cn\/news1000\/index.shtml?requestOrder=3",
"author" : "WWW.SINA.COM.CN",
"tags" : [],
"desc" : "新华网消息：国务委员兼国防部部长常万全19日参观了位于美国夏延山下、北美防空司令部指挥中心的核掩体。这是中国高层首次访问这一军事基地。中国工程院院士、防护工程专家杨秀敏在接受新华网专访时表示，美国敢于将此军事基地向外界曝光，体现了美国强大的军事实力。 ....",
"emailed" : False,
"forwarded" : False,
"english" : False
}  , {
"index" : 19,
"articleIndex" : "21712",
"favor" :  False ,
     "read" : False,    
"title" : "台媒称中美南海攻守易位 将影响东海权力平衡",
"titleTip" : "台媒称中美南海攻守易位 将影响东海权力平衡",
"titleSummary" : "台媒称中美南海攻守易位 将影响东海权力平衡",
"descSummary" : "中新网10月21日电台湾《旺报》21日刊载社论《合作共赢...",
"url" : "http:\/\/go.rss.sina.com.cn\/redirect.php?url=http:\/\/mil.news.sina.com.cn\/2013-10-21\/1520745455.html",
"pubDate" : "2013年10月21日 (1周前)",
"enterDate" : "384200:28:22",
"channelId" : "-7481005239057819193",
"channelName" : "军事要闻汇总-新浪军事",
"channelNameSummary" : "军事要闻汇总-新浪军...",
"channelUrl" : "http:\/\/news.sina.com.cn\/news1000\/index.shtml?requestOrder=3",
"author" : "WWW.SINA.COM.CN",
"tags" : [],
"desc" : "中新网10月21日电台湾《旺报》21日刊载社论《合作共赢vs再平衡高下立判》，文章指出，以\u201C合作共赢\u201D原则处理对东盟关系，似乎比美国的再平衡战略更能减少冲突，也更易于让南海变成和平、友谊与合作之海。如果中美南海战略竞争天平出现倾斜，台海与东海的权力平衡关系势必受到....",
"emailed" : False,
"forwarded" : False,
"english" : False
} ]
}
