{
"mode" : {"viewTitle" : 1,   "viewNew" : 0,  "pageIndex" : 2 },
 "channel" : {"id" : "-7481005239057819193", "booked" : False, "subNumber" : 1, "name" : "军事要闻汇总-新浪军事", "url" : "http:\/\/news.sina.com.cn\/news1000\/index.shtml?requestOrder=3", "feed" : "http:\/\/rss.sina.com.cn\/roll\/mil\/hot_roll.xml", "author" : "WWW.SINA.COM.CN", "desc" : "军事要闻汇总", "imageUrl" : "http:\/\/www.sinaimg.cn\/jc\/deco\/2010\/0909\/mil_yc_common.jpg", "postPerWeek" : "0", "lastCrawTime" : "2013年10月22日 (1周前)", "crawDateTime" : "2013年10月22日 (1周前)", "lastHttpCode" : "200"}, "page" : {
"startIndex" : 20,
"totalCount" : 5000,
"pageIndex" : 2,
"lastPage" : 250,
"pageSize" : 20,
"english" :  False },
 "unreadNum" : 0, "shotIndex" : -1,
"articles" : [
{
"index" : 0,
"articleIndex" : "21711",
"favor" :  False ,
     "read" : False,    
"title" : "台媒称解放军准备与美军在海上决战",
"titleTip" : "台媒称解放军准备与美军在海上决战",
"titleSummary" : "台媒称解放军准备与美军在海上决战",
"descSummary" : "【环球网综合报道】据台湾《联合报》10月20日报道，中国解放军...",
"url" : "http:\/\/go.rss.sina.com.cn\/redirect.php?url=http:\/\/mil.news.sina.com.cn\/2013-10-21\/1516745452.html",
"pubDate" : "2013年10月21日 (1周前)",
"enterDate" : "384200:55:18",
"channelId" : "-7481005239057819193",
"channelName" : "军事要闻汇总-新浪军事",
"channelNameSummary" : "军事要闻汇总-新浪军...",
"channelUrl" : "http:\/\/news.sina.com.cn\/news1000\/index.shtml?requestOrder=3",
"author" : "WWW.SINA.COM.CN",
"tags" : [],
"desc" : "【环球网综合报道】据台湾《联合报》10月20日报道，中国解放军北海舰队最近出动逾百艘军舰及30多架战机，在黄海水域展开大规模演习。 分析说，演习是假想中国在近海与美国航空母舰战斗群进行二战以来最大规模的海军决战。 据香港《明报》报道，美日韩在中国\u201C家....",
"emailed" : False,
"forwarded" : False,
"english" : False
}  , {
"index" : 1,
"articleIndex" : "21710",
"favor" :  False ,
     "read" : False,    
"title" : "中欧联合研发最先进中型直升机 创多项世界之最",
"titleTip" : "中欧联合研发最先进中型直升机 创多项世界之最",
"titleSummary" : "中欧联合研发最先进中型直升机 创多项世界之最",
"descSummary" : "北京时间2009年12月17日， AC352直升机的双胞胎兄弟...",
"url" : "http:\/\/go.rss.sina.com.cn\/redirect.php?url=http:\/\/mil.news.sina.com.cn\/2013-10-21\/1458745446.html",
"pubDate" : "2013年10月21日 (1周前)",
"enterDate" : "384200:36:27",
"channelId" : "-7481005239057819193",
"channelName" : "军事要闻汇总-新浪军事",
"channelNameSummary" : "军事要闻汇总-新浪军...",
"channelUrl" : "http:\/\/news.sina.com.cn\/news1000\/index.shtml?requestOrder=3",
"author" : "WWW.SINA.COM.CN",
"tags" : [],
"desc" : "北京时间2009年12月17日， AC352直升机的双胞胎兄弟EC175直升机在法国马里安成功首飞。这款由中航工业哈飞和欧直联合研制的先进中型多用途直升机，不仅填补了中国直升机谱系中6~7吨级的空白，更凭借卓越性能成为世界先进水平中型直升机的代表作，受到全球市场期待。 30....",
"emailed" : False,
"forwarded" : False,
"english" : False
}  , {
"index" : 2,
"articleIndex" : "21709",
"favor" :  False ,
     "read" : False,    
"title" : "中国赴西太舰队演习：广州舰雷达曾被假目标淹没",
"titleTip" : "中国赴西太舰队演习：广州舰雷达曾被假目标淹没",
"titleSummary" : "中国赴西太舰队演习：广州舰雷达曾被假目标淹没",
"descSummary" : "海军\u201C机动-5号\u201D实兵演习进入第三天。南海舰队远海...",
"url" : "http:\/\/go.rss.sina.com.cn\/redirect.php?url=http:\/\/mil.news.sina.com.cn\/2013-10-21\/1435745438.html",
"pubDate" : "2013年10月21日 (1周前)",
"enterDate" : "384200:44:18",
"channelId" : "-7481005239057819193",
"channelName" : "军事要闻汇总-新浪军事",
"channelNameSummary" : "军事要闻汇总-新浪军...",
"channelUrl" : "http:\/\/news.sina.com.cn\/news1000\/index.shtml?requestOrder=3",
"author" : "WWW.SINA.COM.CN",
"tags" : [],
"desc" : "海军\u201C机动-5号\u201D实兵演习进入第三天。南海舰队远海编队与海军某基地进行驻泊地防御战斗演练后，又带动南海舰队航空兵进行\u201C背靠背\u201D对抗演练。 星月朦胧，波光粼粼。赴西太平洋参加\u201C机动-5号\u201D实兵演习的南海舰队远海编队，与海军某基地的驻泊地防御战斗演练结束后，....",
"emailed" : False,
"forwarded" : False,
"english" : False
}  , {
"index" : 3,
"articleIndex" : "21708",
"favor" :  False ,
     "read" : False,    
"title" : "美海军发生大震荡：第7舰队高官受贿被FBI逮捕",
"titleTip" : "美海军发生大震荡：第7舰队高官受贿被FBI逮捕",
"titleSummary" : "美海军发生大震荡：第7舰队高官受贿被FBI逮捕",
"descSummary" : "人民网10月21日讯据《华盛顿邮报》网站20日在头条报...",
"url" : "http:\/\/go.rss.sina.com.cn\/redirect.php?url=http:\/\/mil.news.sina.com.cn\/2013-10-21\/1435745440.html",
"pubDate" : "2013年10月21日 (1周前)",
"enterDate" : "384200:43:32",
"channelId" : "-7481005239057819193",
"channelName" : "军事要闻汇总-新浪军事",
"channelNameSummary" : "军事要闻汇总-新浪军...",
"channelUrl" : "http:\/\/news.sina.com.cn\/news1000\/index.shtml?requestOrder=3",
"author" : "WWW.SINA.COM.CN",
"tags" : [],
"desc" : "人民网10月21日讯据《华盛顿邮报》网站20日在头条报道，联邦调查官发现海军第七舰队高级军官副营运经理密修维兹接受亚洲承包商的回扣和性贿赂等腐败大案，涉案军官被逮捕，海军因此正在经历一场大震荡。 报道说，被逮捕的腐败官员包括一名海军刑事调查局特工和从柬埔寨....",
"emailed" : False,
"forwarded" : False,
"english" : False
}  , {
"index" : 4,
"articleIndex" : "21707",
"favor" :  False ,
     "read" : False,    
"title" : "中国新型靶船亮相黄海军演 用北斗系统指路(图)",
"titleTip" : "中国新型靶船亮相黄海军演 用北斗系统指路(图)",
"titleSummary" : "中国新型靶船亮相黄海军演 用北斗系统指路(图)",
"descSummary" : "17日，新型智能靶船亮相黄海战场，成为检验北海舰队导...",
"url" : "http:\/\/go.rss.sina.com.cn\/redirect.php?url=http:\/\/mil.news.sina.com.cn\/2013-10-21\/1422745434.html",
"pubDate" : "2013年10月21日 (1周前)",
"enterDate" : "384201:01:01",
"channelId" : "-7481005239057819193",
"channelName" : "军事要闻汇总-新浪军事",
"channelNameSummary" : "军事要闻汇总-新浪军...",
"channelUrl" : "http:\/\/news.sina.com.cn\/news1000\/index.shtml?requestOrder=3",
"author" : "WWW.SINA.COM.CN",
"tags" : [],
"desc" : "17日，新型智能靶船亮相黄海战场，成为检验北海舰队导弹实弹演练中的\u201C砺剑石\u201D。在风浪中，它们时而大角度转向，时而进行蛇形机动，在波峰浪谷中犹如灵巧的\u201C鲨鱼\u201D四处规避，导弹从空中、水面、岸基呼啸而至，在即将弹落船沉的一瞬间，靶船突然对来袭导弹综合运用有源、无源....",
"emailed" : False,
"forwarded" : False,
"english" : False
}  , {
"index" : 5,
"articleIndex" : "21706",
"favor" :  False ,
     "read" : False,    
"title" : "日本自卫队军官电车内摸女性胸部被逮捕",
"titleTip" : "日本自卫队军官电车内摸女性胸部被逮捕",
"titleSummary" : "日本自卫队军官电车内摸女性胸部被逮捕",
"descSummary" : "【环球网综合报道】据日本《产经新闻》10月17日报道，日本...",
"url" : "http:\/\/go.rss.sina.com.cn\/redirect.php?url=http:\/\/mil.news.sina.com.cn\/2013-10-21\/1417745433.html",
"pubDate" : "2013年10月21日 (1周前)",
"enterDate" : "384200:56:03",
"channelId" : "-7481005239057819193",
"channelName" : "军事要闻汇总-新浪军事",
"channelNameSummary" : "军事要闻汇总-新浪军...",
"channelUrl" : "http:\/\/news.sina.com.cn\/news1000\/index.shtml?requestOrder=3",
"author" : "WWW.SINA.COM.CN",
"tags" : [],
"desc" : "【环球网综合报道】据日本《产经新闻》10月17日报道，日本京都府警方20日以涉嫌强制猥亵罪，逮捕了一名38岁日本陆上自卫队陆曹长山崎慎介。 据京都警方透露，嫌疑人山崎慎介系奈良市宝来町人，隶属于日本陆上自卫队桂驻屯地。山崎慎介涉嫌于20日凌晨0时30分许，在开往....",
"emailed" : False,
"forwarded" : False,
"english" : False
}  , {
"index" : 6,
"articleIndex" : "21705",
"favor" :  False ,
     "read" : False,    
"title" : "美国海军最新DDG1000级逐舰准备下水",
"titleTip" : "美国海军最新DDG1000级逐舰准备下水",
"titleSummary" : "美国海军最新DDG1000级逐舰准备下水",
"descSummary" : "中新网10月21日电 据\u201C中央社\u201D21日报道，美国政府恢复运作后...",
"url" : "http:\/\/go.rss.sina.com.cn\/redirect.php?url=http:\/\/mil.news.sina.com.cn\/2013-10-21\/1413745432.html",
"pubDate" : "2013年10月21日 (1周前)",
"enterDate" : "384200:52:25",
"channelId" : "-7481005239057819193",
"channelName" : "军事要闻汇总-新浪军事",
"channelNameSummary" : "军事要闻汇总-新浪军...",
"channelUrl" : "http:\/\/news.sina.com.cn\/news1000\/index.shtml?requestOrder=3",
"author" : "WWW.SINA.COM.CN",
"tags" : [],
"desc" : "中新网10月21日电 据\u201C中央社\u201D21日报道，美国政府恢复运作后，美国海军最大型驱逐舰已准备下水。 这艘军舰以已故美国海军上将朱姆沃尔特(Elmo Bud Zumwalt)命名，一周前原定举行命名仪式，但因为联邦政府局部停摆取消。 不过美国国会通过法案恢复联邦政府运作....",
"emailed" : False,
"forwarded" : False,
"english" : False
}  , {
"index" : 7,
"articleIndex" : "21704",
"favor" :  False ,
     "read" : False,    
"title" : "外媒称日本若在钓鱼岛失利造核武将成唯一选择",
"titleTip" : "外媒称日本若在钓鱼岛失利造核武将成唯一选择",
"titleSummary" : "外媒称日本若在钓鱼岛失利造核武将成唯一选择",
"descSummary" : "中新网10月21日电 新加坡《联合早报》19日刊载《钓岛...",
"url" : "http:\/\/go.rss.sina.com.cn\/redirect.php?url=http:\/\/mil.news.sina.com.cn\/2013-10-21\/1410745431.html",
"pubDate" : "2013年10月21日 (1周前)",
"enterDate" : "384200:48:54",
"channelId" : "-7481005239057819193",
"channelName" : "军事要闻汇总-新浪军事",
"channelNameSummary" : "军事要闻汇总-新浪军...",
"channelUrl" : "http:\/\/news.sina.com.cn\/news1000\/index.shtml?requestOrder=3",
"author" : "WWW.SINA.COM.CN",
"tags" : [],
"desc" : "中新网10月21日电 新加坡《联合早报》19日刊载《钓岛争端之于日本核武》一文，文章指出，中国建设海洋强国已是既定方针，但前面有两个阻碍：南海和钓鱼岛。其中南海方面，中国稳操主动权，时间在中国一边。钓鱼岛争端的演变趋向则不同，不仅美国，中国也应把避免钓鱼岛核冲突....",
"emailed" : False,
"forwarded" : False,
"english" : False
}  , {
"index" : 8,
"articleIndex" : "21703",
"favor" :  False ,
     "read" : False,    
"title" : "西方垄断燃气轮机制造 中国迫切需要打破封锁",
"titleTip" : "西方垄断燃气轮机制造 中国迫切需要打破封锁",
"titleSummary" : "西方垄断燃气轮机制造 中国迫切需要打破封锁",
"descSummary" : "燃气轮机与蒸汽轮机及内燃机相比，有着无可比拟的优势，...",
"url" : "http:\/\/go.rss.sina.com.cn\/redirect.php?url=http:\/\/mil.news.sina.com.cn\/2013-10-21\/1339745430.html",
"pubDate" : "2013年10月21日 (1周前)",
"enterDate" : "384200:48:05",
"channelId" : "-7481005239057819193",
"channelName" : "军事要闻汇总-新浪军事",
"channelNameSummary" : "军事要闻汇总-新浪军...",
"channelUrl" : "http:\/\/news.sina.com.cn\/news1000\/index.shtml?requestOrder=3",
"author" : "WWW.SINA.COM.CN",
"tags" : [],
"desc" : "燃气轮机与蒸汽轮机及内燃机相比，有着无可比拟的优势，在同等功率情况下，燃气轮机占地面积小、耗水量少甚至可以不耗水，而且效率高、起停迅速、操纵灵活、功率范围宽、污染排放低。与内燃机相比，燃气轮机还具有起动和运行可靠性高、运行平稳、寿命长、维修方便等优点。应用....",
"emailed" : False,
"forwarded" : False,
"english" : False
}  , {
"index" : 9,
"articleIndex" : "21702",
"favor" :  False ,
     "read" : False,    
"title" : "美军拟派3500人赴非洲执行上百项任务",
"titleTip" : "美军拟派3500人赴非洲执行上百项任务",
"titleSummary" : "美军拟派3500人赴非洲执行上百项任务",
"descSummary" : "外媒称，在堪萨斯平原上，曾经准备奔赴伊拉克或阿富汗的数千名...",
"url" : "http:\/\/go.rss.sina.com.cn\/redirect.php?url=http:\/\/mil.news.sina.com.cn\/2013-10-21\/1339745429.html",
"pubDate" : "2013年10月21日 (1周前)",
"enterDate" : "384200:47:53",
"channelId" : "-7481005239057819193",
"channelName" : "军事要闻汇总-新浪军事",
"channelNameSummary" : "军事要闻汇总-新浪军...",
"channelUrl" : "http:\/\/news.sina.com.cn\/news1000\/index.shtml?requestOrder=3",
"author" : "WWW.SINA.COM.CN",
"tags" : [],
"desc" : "外媒称，在堪萨斯平原上，曾经准备奔赴伊拉克或阿富汗的数千名军人目前正在为非洲的行动做准备。 据美国《纽约时报》网站10月18日报道，这是五角大楼一项新战略的一部分，该战略旨在为非洲本土部队提供培训和顾问服务，帮助他们应对新兴的恐怖威胁和其他安全风险，这样....",
"emailed" : False,
"forwarded" : False,
"english" : False
}  , {
"index" : 10,
"articleIndex" : "21701",
"favor" :  False ,
     "read" : False,    
"title" : "港媒称红旗9命中率惊呆美欧 中国还有更强导弹",
"titleTip" : "港媒称红旗9命中率惊呆美欧 中国还有更强导弹",
"titleSummary" : "港媒称红旗9命中率惊呆美欧 中国还有更强导弹",
"descSummary" : "中新网10月21日电香港《文汇报》日前刊载《中国\u201C红旗...",
"url" : "http:\/\/go.rss.sina.com.cn\/redirect.php?url=http:\/\/mil.news.sina.com.cn\/2013-10-21\/1207745428.html",
"pubDate" : "2013年10月21日 (1周前)",
"enterDate" : "384200:46:48",
"channelId" : "-7481005239057819193",
"channelName" : "军事要闻汇总-新浪军事",
"channelNameSummary" : "军事要闻汇总-新浪军...",
"channelUrl" : "http:\/\/news.sina.com.cn\/news1000\/index.shtml?requestOrder=3",
"author" : "WWW.SINA.COM.CN",
"tags" : [],
"desc" : "中新网10月21日电香港《文汇报》日前刊载《中国\u201C红旗-9\u201D让欧美国家目瞪口呆》一文，文章指出，土耳其之所以钟情中国企业的\u201C红旗-9\u201D导弹，一方面是因为中国导弹技术的先进水平，另一方面也是希望摆脱美国在尖端武器方面的控制。 文章摘编如下： 土耳其国防部....",
"emailed" : False,
"forwarded" : False,
"english" : False
}  , {
"index" : 11,
"articleIndex" : "21700",
"favor" :  False ,
     "read" : False,    
"title" : "印度扣留一艘美国船 船上满载武器弹药",
"titleTip" : "印度扣留一艘美国船 船上满载武器弹药",
"titleSummary" : "印度扣留一艘美国船 船上满载武器弹药",
"descSummary" : "据外媒报道，印度警方18日在南部港口城市扣留了一艘美国船只...",
"url" : "http:\/\/go.rss.sina.com.cn\/redirect.php?url=http:\/\/mil.news.sina.com.cn\/2013-10-21\/1156745424.html",
"pubDate" : "2013年10月21日 (1周前)",
"enterDate" : "384200:35:18",
"channelId" : "-7481005239057819193",
"channelName" : "军事要闻汇总-新浪军事",
"channelNameSummary" : "军事要闻汇总-新浪军...",
"channelUrl" : "http:\/\/news.sina.com.cn\/news1000\/index.shtml?requestOrder=3",
"author" : "WWW.SINA.COM.CN",
"tags" : [],
"desc" : "据外媒报道，印度警方18日在南部港口城市扣留了一艘美国船只及船员，理由是指控该船在印度水域非法运输武器弹药。 这艘被扣船只有8名船员和25名安保人员。印度警方称，他们无法提供运输武器的证明。据悉，这艘船属于美国弗吉尼亚一家安保公司所有，但在塞拉利昂注册。....",
"emailed" : False,
"forwarded" : False,
"english" : False
}  , {
"index" : 12,
"articleIndex" : "21699",
"favor" :  False ,
     "read" : False,    
"title" : "美国被曝将建3艘核动力空天母舰用来摧毁中国",
"titleTip" : "美国被曝将建3艘核动力空天母舰用来摧毁中国",
"titleSummary" : "美国被曝将建3艘核动力空天母舰用来摧毁中国",
"descSummary" : "五角大楼正在酝酿对\u201C太空怒火\u201D计划进行调整：到2040...",
"url" : "http:\/\/go.rss.sina.com.cn\/redirect.php?url=http:\/\/mil.news.sina.com.cn\/2013-10-21\/1145745423.html",
"pubDate" : "2013年10月21日 (1周前)",
"enterDate" : "384200:54:53",
"channelId" : "-7481005239057819193",
"channelName" : "军事要闻汇总-新浪军事",
"channelNameSummary" : "军事要闻汇总-新浪军...",
"channelUrl" : "http:\/\/news.sina.com.cn\/news1000\/index.shtml?requestOrder=3",
"author" : "WWW.SINA.COM.CN",
"tags" : [],
"desc" : "五角大楼正在酝酿对\u201C太空怒火\u201D计划进行调整：到2040年左右就部署首艘核动力空天母舰，到2050年部署3艘空天母舰，并组建3支\u201C空天舰队\u201D。每支舰队都由1艘空天母舰、4架航天飞机、2艘太空拖船、1座空间补给站组成。空天母舰将配备常规导弹、核导弹、高能激光武器、动能武器等....",
"emailed" : False,
"forwarded" : False,
"english" : False
}  , {
"index" : 13,
"articleIndex" : "21698",
"favor" :  False ,
     "read" : False,    
"title" : "中国成功研惯导系统 北斗二代首次应用直升机",
"titleTip" : "中国成功研惯导系统 北斗二代首次应用直升机",
"titleSummary" : "中国成功研惯导系统 北斗二代首次应用直升机",
"descSummary" : "本报讯(通讯员 王健) 日前，中航工业华燕研制的某型挠性...",
"url" : "http:\/\/go.rss.sina.com.cn\/redirect.php?url=http:\/\/mil.news.sina.com.cn\/2013-10-21\/1137745422.html",
"pubDate" : "2013年10月21日 (1周前)",
"enterDate" : "384200:15:57",
"channelId" : "-7481005239057819193",
"channelName" : "军事要闻汇总-新浪军事",
"channelNameSummary" : "军事要闻汇总-新浪军...",
"channelUrl" : "http:\/\/news.sina.com.cn\/news1000\/index.shtml?requestOrder=3",
"author" : "WWW.SINA.COM.CN",
"tags" : [],
"desc" : "本报讯(通讯员 王健) 日前，中航工业华燕研制的某型挠性捷联惯性组合导航系统产品随载机顺利完成试飞，并通过了空军主持进行的技术鉴定。这一成果标志着华燕公司组合导航系统在融合北斗导航信息方面迈上了一个新台阶，同时也为北斗二代卫星导航技术在组合导航系统的实际应用奠....",
"emailed" : False,
"forwarded" : False,
"english" : False
}  , {
"index" : 14,
"articleIndex" : "21696",
"favor" :  False ,
     "read" : False,    
"title" : "成飞连续5年收入百亿 一战机出口创中国之最",
"titleTip" : "成飞连续5年收入百亿 一战机出口创中国之最",
"titleSummary" : "成飞连续5年收入百亿 一战机出口创中国之最",
"descSummary" : "金秋十月，丹桂飘香。中航工业成飞已走过55周年的光辉历...",
"url" : "http:\/\/go.rss.sina.com.cn\/redirect.php?url=http:\/\/mil.news.sina.com.cn\/2013-10-21\/1129745419.html",
"pubDate" : "2013年10月21日 (1周前)",
"enterDate" : "384201:08:59",
"channelId" : "-7481005239057819193",
"channelName" : "军事要闻汇总-新浪军事",
"channelNameSummary" : "军事要闻汇总-新浪军...",
"channelUrl" : "http:\/\/news.sina.com.cn\/news1000\/index.shtml?requestOrder=3",
"author" : "WWW.SINA.COM.CN",
"tags" : [],
"desc" : "金秋十月，丹桂飘香。中航工业成飞已走过55周年的光辉历程。 55载晨风夕霜，铭记岁月峥嵘。几代成飞人伴随着时代前进的步伐，艰苦创业，传承创新，与我国航空工业的发展同步，谱写了血汗铸利剑、丹心振航空的壮丽史诗。 55年艰苦奋斗 成就航空报国伟业 1....",
"emailed" : False,
"forwarded" : False,
"english" : False
}  , {
"index" : 15,
"articleIndex" : "21697",
"favor" :  False ,
     "read" : False,    
"title" : "朝鲜KN-02导弹直接威慑首尔 韩三八线呈反导漏洞",
"titleTip" : "朝鲜KN-02导弹直接威慑首尔 韩三八线呈反导漏洞",
"titleSummary" : "朝鲜KN-02导弹直接威慑首尔 韩三八线呈反导漏洞",
"descSummary" : "人民网10月21日讯(张洁娴)日前，韩国国防部长金宽镇...",
"url" : "http:\/\/go.rss.sina.com.cn\/redirect.php?url=http:\/\/mil.news.sina.com.cn\/2013-10-21\/1128745421.html",
"pubDate" : "2013年10月21日 (1周前)",
"enterDate" : "384200:37:02",
"channelId" : "-7481005239057819193",
"channelName" : "军事要闻汇总-新浪军事",
"channelNameSummary" : "军事要闻汇总-新浪军...",
"channelUrl" : "http:\/\/news.sina.com.cn\/news1000\/index.shtml?requestOrder=3",
"author" : "WWW.SINA.COM.CN",
"tags" : [],
"desc" : "人民网10月21日讯(张洁娴)日前，韩国国防部长金宽镇宣布，韩国不会加入由美国主导的区域导弹防御体系，而将升级现有导弹，并着手研发新型地对空导弹，构建以拦截低空导弹为主要目标的韩国型导弹防御体系。军事专家杜文龙在接受媒体采访时表示，韩方在朝韩三八线上呈现出巨大的....",
"emailed" : False,
"forwarded" : False,
"english" : False
}  , {
"index" : 16,
"articleIndex" : "21695",
"favor" :  False ,
     "read" : False,    
"title" : "抗战剧现\u201C拯救莎拉波娃\u201D情节 网友呼吁派李娜",
"titleTip" : "抗战剧现\u201C拯救莎拉波娃\u201D情节 网友呼吁派李娜",
"titleSummary" : "抗战剧现\u201C拯救莎拉波娃\u201D情节 网友呼吁派李娜",
"descSummary" : "日前，不少看了抗日电视剧《终极任务》的网友发现，剧...",
"url" : "http:\/\/go.rss.sina.com.cn\/redirect.php?url=http:\/\/mil.news.sina.com.cn\/2013-10-21\/1125745417.html",
"pubDate" : "2013年10月21日 (1周前)",
"enterDate" : "384201:04:46",
"channelId" : "-7481005239057819193",
"channelName" : "军事要闻汇总-新浪军事",
"channelNameSummary" : "军事要闻汇总-新浪军...",
"channelUrl" : "http:\/\/news.sina.com.cn\/news1000\/index.shtml?requestOrder=3",
"author" : "WWW.SINA.COM.CN",
"tags" : [],
"desc" : "日前，不少看了抗日电视剧《终极任务》的网友发现，剧中竟然出现了\u201C莎拉波娃\u201D这样的名字。网友认为，这么有时代感的名字出现在一部抗日题材的电视剧，实在太搞笑。 据看过这部剧的网友说，剧中的\u201C莎拉波娃\u201D不仅是苏联记者团的成员，还是朱可夫元帅的女儿。按照俄罗....",
"emailed" : False,
"forwarded" : False,
"english" : False
}  , {
"index" : 17,
"articleIndex" : "21694",
"favor" :  False ,
     "read" : False,    
"title" : "港媒称美军演练攻击辽宁舰 解放军赴第2岛链回击",
"titleTip" : "港媒称美军演练攻击辽宁舰 解放军赴第2岛链回击",
"titleSummary" : "港媒称美军演练攻击辽宁舰 解放军赴第2岛链回击",
"descSummary" : "【环球网综合报道】据香港《太阳报》10月20日报道，...",
"url" : "http:\/\/go.rss.sina.com.cn\/redirect.php?url=http:\/\/mil.news.sina.com.cn\/2013-10-21\/1051745414.html",
"pubDate" : "2013年10月21日 (1周前)",
"enterDate" : "384201:00:35",
"channelId" : "-7481005239057819193",
"channelName" : "军事要闻汇总-新浪军事",
"channelNameSummary" : "军事要闻汇总-新浪军...",
"channelUrl" : "http:\/\/news.sina.com.cn\/news1000\/index.shtml?requestOrder=3",
"author" : "WWW.SINA.COM.CN",
"tags" : [],
"desc" : "【环球网综合报道】据香港《太阳报》10月20日报道，解放军海军今年在黄海进行大规模的的海上练兵，在此之前美日韩刚在同一海域结束一场联合军演。 美日韩军演中，美国\u201C乔治・华盛顿\u201D号航母编队全程参与，日韩装备\u201C宙斯盾\u201D系统的驱逐舰以及护卫舰参加，目的是为了演....",
"emailed" : False,
"forwarded" : False,
"english" : False
}  , {
"index" : 18,
"articleIndex" : "21693",
"favor" :  False ,
     "read" : False,    
"title" : "英媒称中国在西太举行最大规模演习回应美日韩",
"titleTip" : "英媒称中国在西太举行最大规模演习回应美日韩",
"titleSummary" : "英媒称中国在西太举行最大规模演习回应美日韩",
"descSummary" : "据英国广播公司网站10月20日报道，中国海军北海、东...",
"url" : "http:\/\/go.rss.sina.com.cn\/redirect.php?url=http:\/\/mil.news.sina.com.cn\/2013-10-21\/1045745412.html",
"pubDate" : "2013年10月21日 (1周前)",
"enterDate" : "384200:54:19",
"channelId" : "-7481005239057819193",
"channelName" : "军事要闻汇总-新浪军事",
"channelNameSummary" : "军事要闻汇总-新浪军...",
"channelUrl" : "http:\/\/news.sina.com.cn\/news1000\/index.shtml?requestOrder=3",
"author" : "WWW.SINA.COM.CN",
"tags" : [],
"desc" : "据英国广播公司网站10月20日报道，中国海军北海、东海以及南海三大舰队目前正在西太平洋进行军事演习。 有关报道没有披露参加这次演习的具体兵力，但称海军\u201C部分舰、潜、机、岸导兵力\u201D参加了演习。 这次演习代号\u201C机动-5号\u201D，从18日正式开始，将在11月初结束....",
"emailed" : False,
"forwarded" : False,
"english" : False
}  , {
"index" : 19,
"articleIndex" : "21692",
"favor" :  False ,
     "read" : False,    
"title" : "BBC关注中国三大舰队在西太平洋最大规模军演",
"titleTip" : "BBC关注中国三大舰队在西太平洋最大规模军演",
"titleSummary" : "BBC关注中国三大舰队在西太平洋最大规模军演",
"descSummary" : "【环球网综合报道】据英国广播公司网站10月20日报道...",
"url" : "http:\/\/go.rss.sina.com.cn\/redirect.php?url=http:\/\/mil.news.sina.com.cn\/2013-10-21\/1043745410.html",
"pubDate" : "2013年10月21日 (1周前)",
"enterDate" : "384200:53:09",
"channelId" : "-7481005239057819193",
"channelName" : "军事要闻汇总-新浪军事",
"channelNameSummary" : "军事要闻汇总-新浪军...",
"channelUrl" : "http:\/\/news.sina.com.cn\/news1000\/index.shtml?requestOrder=3",
"author" : "WWW.SINA.COM.CN",
"tags" : [],
"desc" : "【环球网综合报道】据英国广播公司网站10月20日报道，中国海军北海、东海以及南海三大舰队目前正在西太平洋进行军事演习。 有关报道没有披露参加这次演习的具体兵力，但称海军\u201C部分舰、潜、机、岸导兵力\u201D参加了演习。 这次演习代号\u201C机动-5号\u201D，从18日正式开....",
"emailed" : False,
"forwarded" : False,
"english" : False
} ]
}
