{
"mode" : {"viewTitle" : 1,   "viewNew" : 0,  "pageIndex" : 1 },
 "channel" : {"id" : "6740593436063638246", "booked" : False, "subNumber" : 1, "name" : "科技视频-新浪视频", "url" : "http:\/\/video.sina.com.cn\/tech\/", "feed" : "http:\/\/rss.sina.com.cn\/bn\/tech.xml", "author" : "WWW.SINA.COM.CN", "desc" : "科技视频列表", "imageUrl" : "http:\/\/i2.sinaimg.cn\/home\/deco\/2009\/0330\/con_logo_video.gif", "postPerWeek" : "0", "lastCrawTime" : "2013年10月24日 (6天前)", "crawDateTime" : "2013年10月24日 (6天前)", "lastHttpCode" : "200"}, "page" : {
"startIndex" : 0,
"totalCount" : 5000,
"pageIndex" : 1,
"lastPage" : 250,
"pageSize" : 20,
"english" :  False },
 "unreadNum" : 0, "shotIndex" : -1,
"articles" : [
{
"index" : 0,
"articleIndex" : "7791",
"favor" :  False ,
     "read" : False,    
"title" : "苹果新iPad发布会全程视频(高清)",
"titleTip" : "苹果新iPad发布会全程视频(高清)",
"titleSummary" : "苹果新iPad发布会全程视频(高清)",
"descSummary" : "",
"url" : "http:\/\/go.rss.sina.com.cn\/redirect.php?url=http:\/\/video.sina.com.cn\/p\/tech\/mobile\/n\/v\/2013-10-23\/184863055793.html",
"pubDate" : "2013年10月23日 (1周前)",
"enterDate" : "384200:41:01",
"channelId" : "6740593436063638246",
"channelName" : "科技视频-新浪视频",
"channelNameSummary" : "科技视频-新浪视频",
"channelUrl" : "http:\/\/video.sina.com.cn\/tech\/",
"author" : "WWW.SINA.COM.CN",
"tags" : [],
"desc" : "",
"emailed" : False,
"forwarded" : False,
"english" : False
}  , {
"index" : 1,
"articleIndex" : "7790",
"favor" :  False ,
     "read" : False,    
"title" : "焦点访谈：垃圾短信从哪来？",
"titleTip" : "焦点访谈：垃圾短信从哪来？",
"titleSummary" : "焦点访谈：垃圾短信从哪来？",
"descSummary" : "",
"url" : "http:\/\/go.rss.sina.com.cn\/redirect.php?url=http:\/\/video.sina.com.cn\/p\/tech\/t\/v\/2013-10-23\/095863053963.html",
"pubDate" : "2013年10月23日 (1周前)",
"enterDate" : "384200:52:14",
"channelId" : "6740593436063638246",
"channelName" : "科技视频-新浪视频",
"channelNameSummary" : "科技视频-新浪视频",
"channelUrl" : "http:\/\/video.sina.com.cn\/tech\/",
"author" : "WWW.SINA.COM.CN",
"tags" : [],
"desc" : "",
"emailed" : False,
"forwarded" : False,
"english" : False
}  , {
"index" : 2,
"articleIndex" : "7789",
"favor" :  False ,
     "read" : False,    
"title" : "视频：央视批三星售后因地而异痛宰中国用户",
"titleTip" : "视频：央视批三星售后因地而异痛宰中国用户",
"titleSummary" : "视频：央视批三星售后因地而异痛宰中国用户",
"descSummary" : "",
"url" : "http:\/\/go.rss.sina.com.cn\/redirect.php?url=http:\/\/video.sina.com.cn\/p\/tech\/t\/v\/2013-10-23\/093063053891.html",
"pubDate" : "2013年10月23日 (1周前)",
"enterDate" : "384200:54:18",
"channelId" : "6740593436063638246",
"channelName" : "科技视频-新浪视频",
"channelNameSummary" : "科技视频-新浪视频",
"channelUrl" : "http:\/\/video.sina.com.cn\/tech\/",
"author" : "WWW.SINA.COM.CN",
"tags" : [],
"desc" : "",
"emailed" : False,
"forwarded" : False,
"english" : False
}  , {
"index" : 3,
"articleIndex" : "7788",
"favor" :  False ,
     "read" : False,    
"title" : "苹果新iPad发布会全程视频",
"titleTip" : "苹果新iPad发布会全程视频",
"titleSummary" : "苹果新iPad发布会全程视频",
"descSummary" : "",
"url" : "http:\/\/go.rss.sina.com.cn\/redirect.php?url=http:\/\/video.sina.com.cn\/p\/tech\/mobile\/n\/v\/2013-10-23\/082763053427.html",
"pubDate" : "2013年10月23日 (1周前)",
"enterDate" : "384200:51:55",
"channelId" : "6740593436063638246",
"channelName" : "科技视频-新浪视频",
"channelNameSummary" : "科技视频-新浪视频",
"channelUrl" : "http:\/\/video.sina.com.cn\/tech\/",
"author" : "WWW.SINA.COM.CN",
"tags" : [],
"desc" : "",
"emailed" : False,
"forwarded" : False,
"english" : False
}  , {
"index" : 4,
"articleIndex" : "7787",
"favor" :  False ,
     "read" : False,    
"title" : "苹果iPad Air及Retina屏iPad mini上手",
"titleTip" : "苹果iPad Air及Retina屏iPad mini上手",
"titleSummary" : "苹果iPad Air及Retina屏iPad mini上手",
"descSummary" : "",
"url" : "http:\/\/go.rss.sina.com.cn\/redirect.php?url=http:\/\/video.sina.com.cn\/p\/tech\/mobile\/n\/v\/2013-10-23\/041663052637.html",
"pubDate" : "2013年10月23日 (1周前)",
"enterDate" : "384200:41:14",
"channelId" : "6740593436063638246",
"channelName" : "科技视频-新浪视频",
"channelNameSummary" : "科技视频-新浪视频",
"channelUrl" : "http:\/\/video.sina.com.cn\/tech\/",
"author" : "WWW.SINA.COM.CN",
"tags" : [],
"desc" : "",
"emailed" : False,
"forwarded" : False,
"english" : False
}  , {
"index" : 5,
"articleIndex" : "7786",
"favor" :  False ,
     "read" : False,    
"title" : "苹果iPad Air平板电脑官方介绍(中文)",
"titleTip" : "苹果iPad Air平板电脑官方介绍(中文)",
"titleSummary" : "苹果iPad Air平板电脑官方介绍(中文)",
"descSummary" : "",
"url" : "http:\/\/go.rss.sina.com.cn\/redirect.php?url=http:\/\/video.sina.com.cn\/p\/tech\/mobile\/n\/v\/2013-10-23\/032563052575.html",
"pubDate" : "2013年10月23日 (1周前)",
"enterDate" : "384200:50:19",
"channelId" : "6740593436063638246",
"channelName" : "科技视频-新浪视频",
"channelNameSummary" : "科技视频-新浪视频",
"channelUrl" : "http:\/\/video.sina.com.cn\/tech\/",
"author" : "WWW.SINA.COM.CN",
"tags" : [],
"desc" : "",
"emailed" : False,
"forwarded" : False,
"english" : False
}  , {
"index" : 6,
"articleIndex" : "7785",
"favor" :  False ,
     "read" : False,    
"title" : "视频：央视曝三星手机存设计缺陷 维修漫天要价",
"titleTip" : "视频：央视曝三星手机存设计缺陷 维修漫天要价",
"titleSummary" : "视频：央视曝三星手机存设计缺陷 维修漫天要价",
"descSummary" : "",
"url" : "http:\/\/go.rss.sina.com.cn\/redirect.php?url=http:\/\/video.sina.com.cn\/p\/tech\/t\/v\/2013-10-21\/230363048269.html",
"pubDate" : "2013年10月21日 (1周前)",
"enterDate" : "384201:03:25",
"channelId" : "6740593436063638246",
"channelName" : "科技视频-新浪视频",
"channelNameSummary" : "科技视频-新浪视频",
"channelUrl" : "http:\/\/video.sina.com.cn\/tech\/",
"author" : "WWW.SINA.COM.CN",
"tags" : [],
"desc" : "",
"emailed" : False,
"forwarded" : False,
"english" : False
}  , {
"index" : 7,
"articleIndex" : "7784",
"favor" :  False ,
     "read" : False,    
"title" : "视频：百度创始人李彦宏对话大学生",
"titleTip" : "视频：百度创始人李彦宏对话大学生",
"titleSummary" : "视频：百度创始人李彦宏对话大学生",
"descSummary" : "",
"url" : "http:\/\/go.rss.sina.com.cn\/redirect.php?url=http:\/\/video.sina.com.cn\/p\/tech\/other\/v\/2013-10-18\/175763035611.html",
"pubDate" : "2013年10月18日 (1周前)",
"enterDate" : "384201:10:34",
"channelId" : "6740593436063638246",
"channelName" : "科技视频-新浪视频",
"channelNameSummary" : "科技视频-新浪视频",
"channelUrl" : "http:\/\/video.sina.com.cn\/tech\/",
"author" : "WWW.SINA.COM.CN",
"tags" : [],
"desc" : "",
"emailed" : False,
"forwarded" : False,
"english" : False
}  , {
"index" : 8,
"articleIndex" : "7783",
"favor" :  False ,
     "read" : False,    
"title" : "视频：百度诉360不正当竞争索赔1亿元",
"titleTip" : "视频：百度诉360不正当竞争索赔1亿元",
"titleSummary" : "视频：百度诉360不正当竞争索赔1亿元",
"descSummary" : "",
"url" : "http:\/\/go.rss.sina.com.cn\/redirect.php?url=http:\/\/video.sina.com.cn\/p\/tech\/i\/v\/2013-10-17\/144863030961.html",
"pubDate" : "2013年10月17日 (1周前)",
"enterDate" : "384201:05:29",
"channelId" : "6740593436063638246",
"channelName" : "科技视频-新浪视频",
"channelNameSummary" : "科技视频-新浪视频",
"channelUrl" : "http:\/\/video.sina.com.cn\/tech\/",
"author" : "WWW.SINA.COM.CN",
"tags" : [],
"desc" : "",
"emailed" : False,
"forwarded" : False,
"english" : False
}  , {
"index" : 9,
"articleIndex" : "7782",
"favor" :  False ,
     "read" : False,    
"title" : "视频：宽带提速还需多久",
"titleTip" : "视频：宽带提速还需多久",
"titleSummary" : "视频：宽带提速还需多久",
"descSummary" : "",
"url" : "http:\/\/go.rss.sina.com.cn\/redirect.php?url=http:\/\/video.sina.com.cn\/p\/tech\/t\/v\/2013-10-15\/134463022099.html",
"pubDate" : "2013年10月15日 (2周前)",
"enterDate" : "384201:10:05",
"channelId" : "6740593436063638246",
"channelName" : "科技视频-新浪视频",
"channelNameSummary" : "科技视频-新浪视频",
"channelUrl" : "http:\/\/video.sina.com.cn\/tech\/",
"author" : "WWW.SINA.COM.CN",
"tags" : [],
"desc" : "",
"emailed" : False,
"forwarded" : False,
"english" : False
}  , {
"index" : 10,
"articleIndex" : "7781",
"favor" :  False ,
     "read" : False,    
"title" : "视频：第一财经《首席评论》专访王雪红",
"titleTip" : "视频：第一财经《首席评论》专访王雪红",
"titleSummary" : "视频：第一财经《首席评论》专访王雪红",
"descSummary" : "",
"url" : "http:\/\/go.rss.sina.com.cn\/redirect.php?url=http:\/\/video.sina.com.cn\/p\/tech\/t\/v\/2013-10-14\/103063017421.html",
"pubDate" : "2013年10月14日 (2周前)",
"enterDate" : "384201:00:43",
"channelId" : "6740593436063638246",
"channelName" : "科技视频-新浪视频",
"channelNameSummary" : "科技视频-新浪视频",
"channelUrl" : "http:\/\/video.sina.com.cn\/tech\/",
"author" : "WWW.SINA.COM.CN",
"tags" : [],
"desc" : "",
"emailed" : False,
"forwarded" : False,
"english" : False
}  , {
"index" : 11,
"articleIndex" : "7780",
"favor" :  False ,
     "read" : False,    
"title" : "视频：央视曝光手机预装软件依然大行其道",
"titleTip" : "视频：央视曝光手机预装软件依然大行其道",
"titleSummary" : "视频：央视曝光手机预装软件依然大行其道",
"descSummary" : "",
"url" : "http:\/\/go.rss.sina.com.cn\/redirect.php?url=http:\/\/video.sina.com.cn\/p\/tech\/t\/v\/2013-10-13\/210763015735.html",
"pubDate" : "2013年10月13日 (2周前)",
"enterDate" : "384201:09:31",
"channelId" : "6740593436063638246",
"channelName" : "科技视频-新浪视频",
"channelNameSummary" : "科技视频-新浪视频",
"channelUrl" : "http:\/\/video.sina.com.cn\/tech\/",
"author" : "WWW.SINA.COM.CN",
"tags" : [],
"desc" : "",
"emailed" : False,
"forwarded" : False,
"english" : False
}  , {
"index" : 12,
"articleIndex" : "7779",
"favor" :  False ,
     "read" : False,    
"title" : "视频：央视曝光手机屏幕维修暴利",
"titleTip" : "视频：央视曝光手机屏幕维修暴利",
"titleSummary" : "视频：央视曝光手机屏幕维修暴利",
"descSummary" : "",
"url" : "http:\/\/go.rss.sina.com.cn\/redirect.php?url=http:\/\/video.sina.com.cn\/p\/tech\/t\/v\/2013-10-10\/120563002515.html",
"pubDate" : "2013年10月10日 (2周前)",
"enterDate" : "384200:44:44",
"channelId" : "6740593436063638246",
"channelName" : "科技视频-新浪视频",
"channelNameSummary" : "科技视频-新浪视频",
"channelUrl" : "http:\/\/video.sina.com.cn\/tech\/",
"author" : "WWW.SINA.COM.CN",
"tags" : [],
"desc" : "",
"emailed" : False,
"forwarded" : False,
"english" : False
}  , {
"index" : 13,
"articleIndex" : "7778",
"favor" :  False ,
     "read" : False,    
"title" : "视频：央视曝光手机预装软件背后利益黑幕",
"titleTip" : "视频：央视曝光手机预装软件背后利益黑幕",
"titleSummary" : "视频：央视曝光手机预装软件背后利益黑幕",
"descSummary" : "",
"url" : "http:\/\/go.rss.sina.com.cn\/redirect.php?url=http:\/\/video.sina.com.cn\/p\/tech\/t\/v\/2013-09-29\/200662967903.html",
"pubDate" : "2013年9月29日",
"enterDate" : "384200:56:30",
"channelId" : "6740593436063638246",
"channelName" : "科技视频-新浪视频",
"channelNameSummary" : "科技视频-新浪视频",
"channelUrl" : "http:\/\/video.sina.com.cn\/tech\/",
"author" : "WWW.SINA.COM.CN",
"tags" : [],
"desc" : "",
"emailed" : False,
"forwarded" : False,
"english" : False
}  , {
"index" : 14,
"articleIndex" : "7777",
"favor" :  False ,
     "read" : False,    
"title" : "视频：新华社副总编辑慎海雄谈媒体改革",
"titleTip" : "视频：新华社副总编辑慎海雄谈媒体改革",
"titleSummary" : "视频：新华社副总编辑慎海雄谈媒体改革",
"descSummary" : "",
"url" : "http:\/\/go.rss.sina.com.cn\/redirect.php?url=http:\/\/video.sina.com.cn\/p\/tech\/i\/v\/2013-09-27\/215162960785.html",
"pubDate" : "2013年9月27日",
"enterDate" : "384200:49:19",
"channelId" : "6740593436063638246",
"channelName" : "科技视频-新浪视频",
"channelNameSummary" : "科技视频-新浪视频",
"channelUrl" : "http:\/\/video.sina.com.cn\/tech\/",
"author" : "WWW.SINA.COM.CN",
"tags" : [],
"desc" : "",
"emailed" : False,
"forwarded" : False,
"english" : False
}  , {
"index" : 15,
"articleIndex" : "7776",
"favor" :  False ,
     "read" : False,    
"title" : "视频：新华社慎海雄:做大做强主流媒体",
"titleTip" : "视频：新华社慎海雄:做大做强主流媒体",
"titleSummary" : "视频：新华社慎海雄:做大做强主流媒体",
"descSummary" : "",
"url" : "http:\/\/go.rss.sina.com.cn\/redirect.php?url=http:\/\/video.sina.com.cn\/p\/tech\/i\/v\/2013-09-27\/213362960733.html",
"pubDate" : "2013年9月27日",
"enterDate" : "384201:01:32",
"channelId" : "6740593436063638246",
"channelName" : "科技视频-新浪视频",
"channelNameSummary" : "科技视频-新浪视频",
"channelUrl" : "http:\/\/video.sina.com.cn\/tech\/",
"author" : "WWW.SINA.COM.CN",
"tags" : [],
"desc" : "",
"emailed" : False,
"forwarded" : False,
"english" : False
}  , {
"index" : 16,
"articleIndex" : "7775",
"favor" :  False ,
     "read" : False,    
"title" : "视频：2013通信展专访同洲电子袁明",
"titleTip" : "视频：2013通信展专访同洲电子袁明",
"titleSummary" : "视频：2013通信展专访同洲电子袁明",
"descSummary" : "",
"url" : "http:\/\/go.rss.sina.com.cn\/redirect.php?url=http:\/\/video.sina.com.cn\/p\/tech\/t\/v\/2013-09-27\/094362958525.html",
"pubDate" : "2013年9月27日",
"enterDate" : "384201:13:29",
"channelId" : "6740593436063638246",
"channelName" : "科技视频-新浪视频",
"channelNameSummary" : "科技视频-新浪视频",
"channelUrl" : "http:\/\/video.sina.com.cn\/tech\/",
"author" : "WWW.SINA.COM.CN",
"tags" : [],
"desc" : "",
"emailed" : False,
"forwarded" : False,
"english" : False
}  , {
"index" : 17,
"articleIndex" : "7774",
"favor" :  False ,
     "read" : False,    
"title" : "视频：2013通信展专访联想冯幸",
"titleTip" : "视频：2013通信展专访联想冯幸",
"titleSummary" : "视频：2013通信展专访联想冯幸",
"descSummary" : "",
"url" : "http:\/\/go.rss.sina.com.cn\/redirect.php?url=http:\/\/video.sina.com.cn\/p\/tech\/t\/v\/2013-09-27\/094262958521.html",
"pubDate" : "2013年9月27日",
"enterDate" : "384201:12:31",
"channelId" : "6740593436063638246",
"channelName" : "科技视频-新浪视频",
"channelNameSummary" : "科技视频-新浪视频",
"channelUrl" : "http:\/\/video.sina.com.cn\/tech\/",
"author" : "WWW.SINA.COM.CN",
"tags" : [],
"desc" : "",
"emailed" : False,
"forwarded" : False,
"english" : False
}  , {
"index" : 18,
"articleIndex" : "7773",
"favor" :  False ,
     "read" : False,    
"title" : "视频：2013通信展专访普天陶雄强",
"titleTip" : "视频：2013通信展专访普天陶雄强",
"titleSummary" : "视频：2013通信展专访普天陶雄强",
"descSummary" : "",
"url" : "http:\/\/go.rss.sina.com.cn\/redirect.php?url=http:\/\/video.sina.com.cn\/p\/tech\/t\/v\/2013-09-27\/094262958519.html",
"pubDate" : "2013年9月27日",
"enterDate" : "384201:11:55",
"channelId" : "6740593436063638246",
"channelName" : "科技视频-新浪视频",
"channelNameSummary" : "科技视频-新浪视频",
"channelUrl" : "http:\/\/video.sina.com.cn\/tech\/",
"author" : "WWW.SINA.COM.CN",
"tags" : [],
"desc" : "",
"emailed" : False,
"forwarded" : False,
"english" : False
}  , {
"index" : 19,
"articleIndex" : "7772",
"favor" :  False ,
     "read" : False,    
"title" : "视频：2013通信展专访酷派苏进",
"titleTip" : "视频：2013通信展专访酷派苏进",
"titleSummary" : "视频：2013通信展专访酷派苏进",
"descSummary" : "",
"url" : "http:\/\/go.rss.sina.com.cn\/redirect.php?url=http:\/\/video.sina.com.cn\/p\/tech\/t\/v\/2013-09-27\/094062958511.html",
"pubDate" : "2013年9月27日",
"enterDate" : "384201:10:27",
"channelId" : "6740593436063638246",
"channelName" : "科技视频-新浪视频",
"channelNameSummary" : "科技视频-新浪视频",
"channelUrl" : "http:\/\/video.sina.com.cn\/tech\/",
"author" : "WWW.SINA.COM.CN",
"tags" : [],
"desc" : "",
"emailed" : False,
"forwarded" : False,
"english" : False
} ]
}
