{
"mode" : {"viewTitle" : 1,   "viewNew" : 0,  "pageIndex" : 2 },
 "channel" : {"id" : "6740593436063638246", "booked" : False, "subNumber" : 1, "name" : "科技视频-新浪视频", "url" : "http:\/\/video.sina.com.cn\/tech\/", "feed" : "http:\/\/rss.sina.com.cn\/bn\/tech.xml", "author" : "WWW.SINA.COM.CN", "desc" : "科技视频列表", "imageUrl" : "http:\/\/i2.sinaimg.cn\/home\/deco\/2009\/0330\/con_logo_video.gif", "postPerWeek" : "0", "lastCrawTime" : "2013年10月24日 (6天前)", "crawDateTime" : "2013年10月24日 (6天前)", "lastHttpCode" : "200"}, "page" : {
"startIndex" : 20,
"totalCount" : 5000,
"pageIndex" : 2,
"lastPage" : 250,
"pageSize" : 20,
"english" :  False },
 "unreadNum" : 0, "shotIndex" : -1,
"articles" : [
{
"index" : 0,
"articleIndex" : "7771",
"favor" :  False ,
     "read" : False,    
"title" : "视频：2013通信展专访中兴刘鹏",
"titleTip" : "视频：2013通信展专访中兴刘鹏",
"titleSummary" : "视频：2013通信展专访中兴刘鹏",
"descSummary" : "",
"url" : "http:\/\/go.rss.sina.com.cn\/redirect.php?url=http:\/\/video.sina.com.cn\/p\/tech\/t\/v\/2013-09-27\/094062958503.html",
"pubDate" : "2013年9月27日",
"enterDate" : "384201:09:54",
"channelId" : "6740593436063638246",
"channelName" : "科技视频-新浪视频",
"channelNameSummary" : "科技视频-新浪视频",
"channelUrl" : "http:\/\/video.sina.com.cn\/tech\/",
"author" : "WWW.SINA.COM.CN",
"tags" : [],
"desc" : "",
"emailed" : False,
"forwarded" : False,
"english" : False
}  , {
"index" : 1,
"articleIndex" : "7770",
"favor" :  False ,
     "read" : False,    
"title" : "视频：2013通信展专访高通颜辰巍",
"titleTip" : "视频：2013通信展专访高通颜辰巍",
"titleSummary" : "视频：2013通信展专访高通颜辰巍",
"descSummary" : "",
"url" : "http:\/\/go.rss.sina.com.cn\/redirect.php?url=http:\/\/video.sina.com.cn\/p\/tech\/t\/v\/2013-09-27\/093962958499.html",
"pubDate" : "2013年9月27日",
"enterDate" : "384201:09:01",
"channelId" : "6740593436063638246",
"channelName" : "科技视频-新浪视频",
"channelNameSummary" : "科技视频-新浪视频",
"channelUrl" : "http:\/\/video.sina.com.cn\/tech\/",
"author" : "WWW.SINA.COM.CN",
"tags" : [],
"desc" : "",
"emailed" : False,
"forwarded" : False,
"english" : False
}  , {
"index" : 2,
"articleIndex" : "7769",
"favor" :  False ,
     "read" : False,    
"title" : "视频：2013通信展专访大唐移动马建成",
"titleTip" : "视频：2013通信展专访大唐移动马建成",
"titleSummary" : "视频：2013通信展专访大唐移动马建成",
"descSummary" : "",
"url" : "http:\/\/go.rss.sina.com.cn\/redirect.php?url=http:\/\/video.sina.com.cn\/p\/tech\/t\/v\/2013-09-27\/093862958495.html",
"pubDate" : "2013年9月27日",
"enterDate" : "384201:08:12",
"channelId" : "6740593436063638246",
"channelName" : "科技视频-新浪视频",
"channelNameSummary" : "科技视频-新浪视频",
"channelUrl" : "http:\/\/video.sina.com.cn\/tech\/",
"author" : "WWW.SINA.COM.CN",
"tags" : [],
"desc" : "",
"emailed" : False,
"forwarded" : False,
"english" : False
}  , {
"index" : 3,
"articleIndex" : "7768",
"favor" :  False ,
     "read" : False,    
"title" : "视频：2013通信展专访华为王伟军",
"titleTip" : "视频：2013通信展专访华为王伟军",
"titleSummary" : "视频：2013通信展专访华为王伟军",
"descSummary" : "",
"url" : "http:\/\/go.rss.sina.com.cn\/redirect.php?url=http:\/\/video.sina.com.cn\/p\/tech\/t\/v\/2013-09-27\/093762958493.html",
"pubDate" : "2013年9月27日",
"enterDate" : "384201:07:05",
"channelId" : "6740593436063638246",
"channelName" : "科技视频-新浪视频",
"channelNameSummary" : "科技视频-新浪视频",
"channelUrl" : "http:\/\/video.sina.com.cn\/tech\/",
"author" : "WWW.SINA.COM.CN",
"tags" : [],
"desc" : "",
"emailed" : False,
"forwarded" : False,
"english" : False
}  , {
"index" : 4,
"articleIndex" : "7767",
"favor" :  False ,
     "read" : False,    
"title" : "视频：2013通信展专访诺基亚傅蕾",
"titleTip" : "视频：2013通信展专访诺基亚傅蕾",
"titleSummary" : "视频：2013通信展专访诺基亚傅蕾",
"descSummary" : "",
"url" : "http:\/\/go.rss.sina.com.cn\/redirect.php?url=http:\/\/video.sina.com.cn\/p\/tech\/t\/v\/2013-09-27\/092362958435.html",
"pubDate" : "2013年9月27日",
"enterDate" : "384200:53:16",
"channelId" : "6740593436063638246",
"channelName" : "科技视频-新浪视频",
"channelNameSummary" : "科技视频-新浪视频",
"channelUrl" : "http:\/\/video.sina.com.cn\/tech\/",
"author" : "WWW.SINA.COM.CN",
"tags" : [],
"desc" : "",
"emailed" : False,
"forwarded" : False,
"english" : False
}  , {
"index" : 5,
"articleIndex" : "7766",
"favor" :  False ,
     "read" : False,    
"title" : "视频：2013通信展专访中兴何士友",
"titleTip" : "视频：2013通信展专访中兴何士友",
"titleSummary" : "视频：2013通信展专访中兴何士友",
"descSummary" : "",
"url" : "http:\/\/go.rss.sina.com.cn\/redirect.php?url=http:\/\/video.sina.com.cn\/p\/tech\/t\/v\/2013-09-27\/092162958421.html",
"pubDate" : "2013年9月27日",
"enterDate" : "384200:51:15",
"channelId" : "6740593436063638246",
"channelName" : "科技视频-新浪视频",
"channelNameSummary" : "科技视频-新浪视频",
"channelUrl" : "http:\/\/video.sina.com.cn\/tech\/",
"author" : "WWW.SINA.COM.CN",
"tags" : [],
"desc" : "",
"emailed" : False,
"forwarded" : False,
"english" : False
}  , {
"index" : 6,
"articleIndex" : "7765",
"favor" :  False ,
     "read" : False,    
"title" : "视频：王府井苹果零售店首位购机者接受新浪手机采访",
"titleTip" : "视频：王府井苹果零售店首位购机者接受新浪手机采访",
"titleSummary" : "视频：王府井苹果零售店首位购机者接受新浪手机采访",
"descSummary" : "",
"url" : "http:\/\/go.rss.sina.com.cn\/redirect.php?url=http:\/\/video.sina.com.cn\/p\/tech\/mobile\/n\/v\/2013-09-20\/093762931235.html",
"pubDate" : "2013年9月20日",
"enterDate" : "384201:10:13",
"channelId" : "6740593436063638246",
"channelName" : "科技视频-新浪视频",
"channelNameSummary" : "科技视频-新浪视频",
"channelUrl" : "http:\/\/video.sina.com.cn\/tech\/",
"author" : "WWW.SINA.COM.CN",
"tags" : [],
"desc" : "",
"emailed" : False,
"forwarded" : False,
"english" : False
}  , {
"index" : 7,
"articleIndex" : "7764",
"favor" :  False ,
     "read" : False,    
"title" : "视频：《共同关注》称手机上网对人体危害大",
"titleTip" : "视频：《共同关注》称手机上网对人体危害大",
"titleSummary" : "视频：《共同关注》称手机上网对人体危害大",
"descSummary" : "",
"url" : "http:\/\/go.rss.sina.com.cn\/redirect.php?url=http:\/\/video.sina.com.cn\/p\/tech\/t\/v\/2013-09-17\/142462920625.html",
"pubDate" : "2013年9月17日",
"enterDate" : "384200:58:55",
"channelId" : "6740593436063638246",
"channelName" : "科技视频-新浪视频",
"channelNameSummary" : "科技视频-新浪视频",
"channelUrl" : "http:\/\/video.sina.com.cn\/tech\/",
"author" : "WWW.SINA.COM.CN",
"tags" : [],
"desc" : "",
"emailed" : False,
"forwarded" : False,
"english" : False
}  , {
"index" : 8,
"articleIndex" : "7763",
"favor" :  False ,
     "read" : False,    
"title" : "视频：新浪手机iPhone 5c现场体验",
"titleTip" : "视频：新浪手机iPhone 5c现场体验",
"titleSummary" : "视频：新浪手机iPhone 5c现场体验",
"descSummary" : "",
"url" : "http:\/\/go.rss.sina.com.cn\/redirect.php?url=http:\/\/video.sina.com.cn\/p\/tech\/mobile\/n\/v\/2013-09-11\/122062896577.html",
"pubDate" : "2013年9月11日",
"enterDate" : "384200:44:13",
"channelId" : "6740593436063638246",
"channelName" : "科技视频-新浪视频",
"channelNameSummary" : "科技视频-新浪视频",
"channelUrl" : "http:\/\/video.sina.com.cn\/tech\/",
"author" : "WWW.SINA.COM.CN",
"tags" : [],
"desc" : "",
"emailed" : False,
"forwarded" : False,
"english" : False
}  , {
"index" : 9,
"articleIndex" : "7762",
"favor" :  False ,
     "read" : False,    
"title" : "视频：iPhone 5s指纹识别功能现场体验",
"titleTip" : "视频：iPhone 5s指纹识别功能现场体验",
"titleSummary" : "视频：iPhone 5s指纹识别功能现场体验",
"descSummary" : "",
"url" : "http:\/\/go.rss.sina.com.cn\/redirect.php?url=http:\/\/video.sina.com.cn\/p\/tech\/mobile\/n\/v\/2013-09-11\/121862896575.html",
"pubDate" : "2013年9月11日",
"enterDate" : "384200:42:50",
"channelId" : "6740593436063638246",
"channelName" : "科技视频-新浪视频",
"channelNameSummary" : "科技视频-新浪视频",
"channelUrl" : "http:\/\/video.sina.com.cn\/tech\/",
"author" : "WWW.SINA.COM.CN",
"tags" : [],
"desc" : "",
"emailed" : False,
"forwarded" : False,
"english" : False
}  , {
"index" : 10,
"articleIndex" : "7761",
"favor" :  False ,
     "read" : False,    
"title" : "苹果新一代iPhone发布会全程解读(中文-下)",
"titleTip" : "苹果新一代iPhone发布会全程解读(中文-下)",
"titleSummary" : "苹果新一代iPhone发布会全程解读(中文-下)",
"descSummary" : "",
"url" : "http:\/\/go.rss.sina.com.cn\/redirect.php?url=http:\/\/video.sina.com.cn\/p\/tech\/mobile\/n\/v\/2013-09-11\/104262896273.html",
"pubDate" : "2013年9月11日",
"enterDate" : "384200:37:01",
"channelId" : "6740593436063638246",
"channelName" : "科技视频-新浪视频",
"channelNameSummary" : "科技视频-新浪视频",
"channelUrl" : "http:\/\/video.sina.com.cn\/tech\/",
"author" : "WWW.SINA.COM.CN",
"tags" : [],
"desc" : "",
"emailed" : False,
"forwarded" : False,
"english" : False
}  , {
"index" : 11,
"articleIndex" : "7760",
"favor" :  False ,
     "read" : False,    
"title" : "苹果新一代iPhone发布会全程解读(中文-上)",
"titleTip" : "苹果新一代iPhone发布会全程解读(中文-上)",
"titleSummary" : "苹果新一代iPhone发布会全程解读(中文-上)",
"descSummary" : "",
"url" : "http:\/\/go.rss.sina.com.cn\/redirect.php?url=http:\/\/video.sina.com.cn\/p\/tech\/mobile\/n\/v\/2013-09-11\/104062896261.html",
"pubDate" : "2013年9月11日",
"enterDate" : "384200:34:28",
"channelId" : "6740593436063638246",
"channelName" : "科技视频-新浪视频",
"channelNameSummary" : "科技视频-新浪视频",
"channelUrl" : "http:\/\/video.sina.com.cn\/tech\/",
"author" : "WWW.SINA.COM.CN",
"tags" : [],
"desc" : "",
"emailed" : False,
"forwarded" : False,
"english" : False
}  , {
"index" : 12,
"articleIndex" : "7759",
"favor" :  False ,
     "read" : False,    
"title" : "视频：苹果iPhone 5s\/5c发布会全程视频",
"titleTip" : "视频：苹果iPhone 5s\/5c发布会全程视频",
"titleSummary" : "视频：苹果iPhone 5s\/5c发布会全程视频",
"descSummary" : "",
"url" : "http:\/\/go.rss.sina.com.cn\/redirect.php?url=http:\/\/video.sina.com.cn\/p\/tech\/mobile\/n\/v\/2013-09-11\/052362895035.html",
"pubDate" : "2013年9月11日",
"enterDate" : "384200:48:25",
"channelId" : "6740593436063638246",
"channelName" : "科技视频-新浪视频",
"channelNameSummary" : "科技视频-新浪视频",
"channelUrl" : "http:\/\/video.sina.com.cn\/tech\/",
"author" : "WWW.SINA.COM.CN",
"tags" : [],
"desc" : "",
"emailed" : False,
"forwarded" : False,
"english" : False
}  , {
"index" : 13,
"articleIndex" : "7758",
"favor" :  False ,
     "read" : False,    
"title" : "视频：苹果iPhone 5c官方视频(中文字幕)",
"titleTip" : "视频：苹果iPhone 5c官方视频(中文字幕)",
"titleSummary" : "视频：苹果iPhone 5c官方视频(中文字幕)",
"descSummary" : "",
"url" : "http:\/\/go.rss.sina.com.cn\/redirect.php?url=http:\/\/video.sina.com.cn\/p\/tech\/mobile\/n\/v\/2013-09-11\/041362894997.html",
"pubDate" : "2013年9月11日",
"enterDate" : "384201:09:02",
"channelId" : "6740593436063638246",
"channelName" : "科技视频-新浪视频",
"channelNameSummary" : "科技视频-新浪视频",
"channelUrl" : "http:\/\/video.sina.com.cn\/tech\/",
"author" : "WWW.SINA.COM.CN",
"tags" : [],
"desc" : "",
"emailed" : False,
"forwarded" : False,
"english" : False
}  , {
"index" : 14,
"articleIndex" : "7757",
"favor" :  False ,
     "read" : False,    
"title" : "视频：苹果iPhone 5s官方视频(中文字幕)",
"titleTip" : "视频：苹果iPhone 5s官方视频(中文字幕)",
"titleSummary" : "视频：苹果iPhone 5s官方视频(中文字幕)",
"descSummary" : "",
"url" : "http:\/\/go.rss.sina.com.cn\/redirect.php?url=http:\/\/video.sina.com.cn\/p\/tech\/mobile\/n\/v\/2013-09-11\/040762894993.html",
"pubDate" : "2013年9月11日",
"enterDate" : "384200:33:04",
"channelId" : "6740593436063638246",
"channelName" : "科技视频-新浪视频",
"channelNameSummary" : "科技视频-新浪视频",
"channelUrl" : "http:\/\/video.sina.com.cn\/tech\/",
"author" : "WWW.SINA.COM.CN",
"tags" : [],
"desc" : "",
"emailed" : False,
"forwarded" : False,
"english" : False
}  , {
"index" : 15,
"articleIndex" : "7756",
"favor" :  False ,
     "read" : False,    
"title" : "视频：苹果iPhone 5c官方视频",
"titleTip" : "视频：苹果iPhone 5c官方视频",
"titleSummary" : "视频：苹果iPhone 5c官方视频",
"descSummary" : "",
"url" : "http:\/\/go.rss.sina.com.cn\/redirect.php?url=http:\/\/video.sina.com.cn\/p\/tech\/mobile\/n\/v\/2013-09-11\/032162894971.html",
"pubDate" : "2013年9月11日",
"enterDate" : "384200:47:07",
"channelId" : "6740593436063638246",
"channelName" : "科技视频-新浪视频",
"channelNameSummary" : "科技视频-新浪视频",
"channelUrl" : "http:\/\/video.sina.com.cn\/tech\/",
"author" : "WWW.SINA.COM.CN",
"tags" : [],
"desc" : "",
"emailed" : False,
"forwarded" : False,
"english" : False
}  , {
"index" : 16,
"articleIndex" : "7755",
"favor" :  False ,
     "read" : False,    
"title" : "视频：苹果iPhone 5s拍照功能官方演示",
"titleTip" : "视频：苹果iPhone 5s拍照功能官方演示",
"titleSummary" : "视频：苹果iPhone 5s拍照功能官方演示",
"descSummary" : "",
"url" : "http:\/\/go.rss.sina.com.cn\/redirect.php?url=http:\/\/video.sina.com.cn\/p\/tech\/mobile\/n\/v\/2013-09-11\/032062894969.html",
"pubDate" : "2013年9月11日",
"enterDate" : "384200:15:30",
"channelId" : "6740593436063638246",
"channelName" : "科技视频-新浪视频",
"channelNameSummary" : "科技视频-新浪视频",
"channelUrl" : "http:\/\/video.sina.com.cn\/tech\/",
"author" : "WWW.SINA.COM.CN",
"tags" : [],
"desc" : "",
"emailed" : False,
"forwarded" : False,
"english" : False
}  , {
"index" : 17,
"articleIndex" : "7754",
"favor" :  False ,
     "read" : False,    
"title" : "视频:两高通报网络诽谤司法解释发布会全程",
"titleTip" : "视频:两高通报网络诽谤司法解释发布会全程",
"titleSummary" : "视频:两高通报网络诽谤司法解释发布会全程",
"descSummary" : "",
"url" : "http:\/\/go.rss.sina.com.cn\/redirect.php?url=http:\/\/video.sina.com.cn\/p\/tech\/i\/v\/2013-09-09\/170462889599.html",
"pubDate" : "2013年9月9日",
"enterDate" : "384201:05:11",
"channelId" : "6740593436063638246",
"channelName" : "科技视频-新浪视频",
"channelNameSummary" : "科技视频-新浪视频",
"channelUrl" : "http:\/\/video.sina.com.cn\/tech\/",
"author" : "WWW.SINA.COM.CN",
"tags" : [],
"desc" : "",
"emailed" : False,
"forwarded" : False,
"english" : False
}  , {
"index" : 18,
"articleIndex" : "7753",
"favor" :  False ,
     "read" : False,    
"title" : "视频：苹果iPhone 5C整机效果演示",
"titleTip" : "视频：苹果iPhone 5C整机效果演示",
"titleSummary" : "视频：苹果iPhone 5C整机效果演示",
"descSummary" : "",
"url" : "http:\/\/go.rss.sina.com.cn\/redirect.php?url=http:\/\/video.sina.com.cn\/p\/tech\/mobile\/n\/v\/2013-09-09\/141062889281.html",
"pubDate" : "2013年9月9日",
"enterDate" : "384201:12:01",
"channelId" : "6740593436063638246",
"channelName" : "科技视频-新浪视频",
"channelNameSummary" : "科技视频-新浪视频",
"channelUrl" : "http:\/\/video.sina.com.cn\/tech\/",
"author" : "WWW.SINA.COM.CN",
"tags" : [],
"desc" : "",
"emailed" : False,
"forwarded" : False,
"english" : False
}  , {
"index" : 19,
"articleIndex" : "7752",
"favor" :  False ,
     "read" : False,    
"title" : "视频：小米发布会现场之小米3手机篇",
"titleTip" : "视频：小米发布会现场之小米3手机篇",
"titleSummary" : "视频：小米发布会现场之小米3手机篇",
"descSummary" : "",
"url" : "http:\/\/go.rss.sina.com.cn\/redirect.php?url=http:\/\/video.sina.com.cn\/p\/tech\/mobile\/n\/v\/2013-09-05\/192962876213.html",
"pubDate" : "2013年9月5日",
"enterDate" : "384201:03:02",
"channelId" : "6740593436063638246",
"channelName" : "科技视频-新浪视频",
"channelNameSummary" : "科技视频-新浪视频",
"channelUrl" : "http:\/\/video.sina.com.cn\/tech\/",
"author" : "WWW.SINA.COM.CN",
"tags" : [],
"desc" : "",
"emailed" : False,
"forwarded" : False,
"english" : False
} ]
}
