{
"mode" : {"viewTitle" : 1,   "viewNew" : 0,  "pageIndex" : 1 },
 "channel" : {"id" : "1665699257200846488", "booked" : False, "subNumber" : 1, "name" : "汽车配件-新浪汽车", "url" : "http:\/\/auto.sina.com.cn\/parts\/news\/index.shtml", "feed" : "http:\/\/rss.sina.com.cn\/auto\/parts\/news\/index.xml", "author" : "WWW.SINA.COM.CN", "desc" : "汽车配件-要闻列表", "imageUrl" : "http:\/\/www.sinaimg.cn\/dy\/auto\/index\/topbar_03.gif", "postPerWeek" : "0", "lastCrawTime" : "2013年10月16日 (2周前)", "crawDateTime" : "2013年3月18日", "lastHttpCode" : "304"}, "page" : {
"startIndex" : 0,
"totalCount" : 89,
"pageIndex" : 1,
"lastPage" : 5,
"pageSize" : 20,
"english" :  False },
 "unreadNum" : 0, "shotIndex" : -1,
"articles" : [
{
"index" : 0,
"articleIndex" : "88",
"favor" :  False ,
     "read" : False,    
"title" : "第八届汽车配件十大评选火爆投票中",
"titleTip" : "第八届汽车配件十大评选火爆投票中",
"titleSummary" : "第八届汽车配件十大评选火爆投票中",
"descSummary" : "",
"url" : "http:\/\/go.rss.sina.com.cn\/redirect.php?url=http:\/\/auto.sina.com.cn\/service\/2013-03-08\/09461118129.shtml",
"pubDate" : "2013年3月8日",
"enterDate" : "384200:43:32",
"channelId" : "1665699257200846488",
"channelName" : "汽车配件-新浪汽车",
"channelNameSummary" : "汽车配件-新浪汽车",
"channelUrl" : "http:\/\/auto.sina.com.cn\/parts\/news\/index.shtml",
"author" : "WWW.SINA.COM.CN",
"tags" : [],
"desc" : "",
"emailed" : False,
"forwarded" : False,
"english" : False
}  , {
"index" : 1,
"articleIndex" : "87",
"favor" :  False ,
     "read" : False,    
"title" : "德尔福参加2013慕尼黑上海电子展",
"titleTip" : "德尔福参加2013慕尼黑上海电子展",
"titleSummary" : "德尔福参加2013慕尼黑上海电子展",
"descSummary" : "",
"url" : "http:\/\/go.rss.sina.com.cn\/redirect.php?url=http:\/\/auto.sina.com.cn\/service\/2013-03-06\/12041116599.shtml",
"pubDate" : "2013年3月6日",
"enterDate" : "384201:01:47",
"channelId" : "1665699257200846488",
"channelName" : "汽车配件-新浪汽车",
"channelNameSummary" : "汽车配件-新浪汽车",
"channelUrl" : "http:\/\/auto.sina.com.cn\/parts\/news\/index.shtml",
"author" : "WWW.SINA.COM.CN",
"tags" : [],
"desc" : "",
"emailed" : False,
"forwarded" : False,
"english" : False
}  , {
"index" : 2,
"articleIndex" : "86",
"favor" :  False ,
     "read" : False,    
"title" : "各地采购商将齐聚第73届全国汽配会",
"titleTip" : "各地采购商将齐聚第73届全国汽配会",
"titleSummary" : "各地采购商将齐聚第73届全国汽配会",
"descSummary" : "",
"url" : "http:\/\/go.rss.sina.com.cn\/redirect.php?url=http:\/\/auto.sina.com.cn\/service\/2013-02-22\/15501110077.shtml",
"pubDate" : "2013年2月22日",
"enterDate" : "384199:54:09",
"channelId" : "1665699257200846488",
"channelName" : "汽车配件-新浪汽车",
"channelNameSummary" : "汽车配件-新浪汽车",
"channelUrl" : "http:\/\/auto.sina.com.cn\/parts\/news\/index.shtml",
"author" : "WWW.SINA.COM.CN",
"tags" : [],
"desc" : "",
"emailed" : False,
"forwarded" : False,
"english" : False
}  , {
"index" : 3,
"articleIndex" : "85",
"favor" :  False ,
     "read" : False,    
"title" : "博格华纳提供适用于I4发动机的VCT技术",
"titleTip" : "博格华纳提供适用于I4发动机的VCT技术",
"titleSummary" : "博格华纳提供适用于I4发动机的VCT技术",
"descSummary" : "",
"url" : "http:\/\/go.rss.sina.com.cn\/redirect.php?url=http:\/\/auto.sina.com.cn\/service\/2012-12-21\/10551082027.shtml",
"pubDate" : "2012年12月21日",
"enterDate" : "384200:41:20",
"channelId" : "1665699257200846488",
"channelName" : "汽车配件-新浪汽车",
"channelNameSummary" : "汽车配件-新浪汽车",
"channelUrl" : "http:\/\/auto.sina.com.cn\/parts\/news\/index.shtml",
"author" : "WWW.SINA.COM.CN",
"tags" : [],
"desc" : "",
"emailed" : False,
"forwarded" : False,
"english" : False
}  , {
"index" : 4,
"articleIndex" : "84",
"favor" :  False ,
     "read" : False,    
"title" : "火花塞影响动力性能 常见故障及症状",
"titleTip" : "火花塞影响动力性能 常见故障及症状",
"titleSummary" : "火花塞影响动力性能 常见故障及症状",
"descSummary" : "",
"url" : "http:\/\/go.rss.sina.com.cn\/redirect.php?url=http:\/\/auto.sina.com.cn\/service\/2012-12-17\/09241079640.shtml",
"pubDate" : "2012年12月17日",
"enterDate" : "384200:19:11",
"channelId" : "1665699257200846488",
"channelName" : "汽车配件-新浪汽车",
"channelNameSummary" : "汽车配件-新浪汽车",
"channelUrl" : "http:\/\/auto.sina.com.cn\/parts\/news\/index.shtml",
"author" : "WWW.SINA.COM.CN",
"tags" : [],
"desc" : "",
"emailed" : False,
"forwarded" : False,
"english" : False
}  , {
"index" : 5,
"articleIndex" : "83",
"favor" :  False ,
     "read" : False,    
"title" : "汽车线束焊接市场乱象多 行业标准亟待出台",
"titleTip" : "汽车线束焊接市场乱象多 行业标准亟待出台",
"titleSummary" : "汽车线束焊接市场乱象多 行业标准亟待出台",
"descSummary" : "",
"url" : "http:\/\/go.rss.sina.com.cn\/redirect.php?url=http:\/\/auto.sina.com.cn\/service\/2012-12-13\/10361078352.shtml",
"pubDate" : "2012年12月13日",
"enterDate" : "384199:33:10",
"channelId" : "1665699257200846488",
"channelName" : "汽车配件-新浪汽车",
"channelNameSummary" : "汽车配件-新浪汽车",
"channelUrl" : "http:\/\/auto.sina.com.cn\/parts\/news\/index.shtml",
"author" : "WWW.SINA.COM.CN",
"tags" : [],
"desc" : "",
"emailed" : False,
"forwarded" : False,
"english" : False
}  , {
"index" : 6,
"articleIndex" : "82",
"favor" :  False ,
     "read" : False,    
"title" : "专家介绍贴膜小常识 贴膜不要光迷信品牌",
"titleTip" : "专家介绍贴膜小常识 贴膜不要光迷信品牌",
"titleSummary" : "专家介绍贴膜小常识 贴膜不要光迷信品牌",
"descSummary" : "",
"url" : "http:\/\/go.rss.sina.com.cn\/redirect.php?url=http:\/\/auto.sina.com.cn\/service\/2012-08-23\/10301020641.shtml",
"pubDate" : "2012年8月23日",
"enterDate" : "384200:37:40",
"channelId" : "1665699257200846488",
"channelName" : "汽车配件-新浪汽车",
"channelNameSummary" : "汽车配件-新浪汽车",
"channelUrl" : "http:\/\/auto.sina.com.cn\/parts\/news\/index.shtml",
"author" : "WWW.SINA.COM.CN",
"tags" : [],
"desc" : "",
"emailed" : False,
"forwarded" : False,
"english" : False
}  , {
"index" : 7,
"articleIndex" : "81",
"favor" :  False ,
     "read" : False,    
"title" : "满足不同设计需求 德尔福高压电池包详解",
"titleTip" : "满足不同设计需求 德尔福高压电池包详解",
"titleSummary" : "满足不同设计需求 德尔福高压电池包详解",
"descSummary" : "",
"url" : "http:\/\/go.rss.sina.com.cn\/redirect.php?url=http:\/\/auto.sina.com.cn\/service\/2012-08-06\/15151011834.shtml",
"pubDate" : "2012年8月6日",
"enterDate" : "384199:08:45",
"channelId" : "1665699257200846488",
"channelName" : "汽车配件-新浪汽车",
"channelNameSummary" : "汽车配件-新浪汽车",
"channelUrl" : "http:\/\/auto.sina.com.cn\/parts\/news\/index.shtml",
"author" : "WWW.SINA.COM.CN",
"tags" : [],
"desc" : "",
"emailed" : False,
"forwarded" : False,
"english" : False
}  , {
"index" : 8,
"articleIndex" : "80",
"favor" :  False ,
     "read" : False,    
"title" : "中国蚌埠滤清器及配件博览会九月举办",
"titleTip" : "中国蚌埠滤清器及配件博览会九月举办",
"titleSummary" : "中国蚌埠滤清器及配件博览会九月举办",
"descSummary" : "",
"url" : "http:\/\/go.rss.sina.com.cn\/redirect.php?url=http:\/\/auto.sina.com.cn\/service\/2012-06-04\/1537981308.shtml",
"pubDate" : "2012年6月4日",
"enterDate" : "384199:43:30",
"channelId" : "1665699257200846488",
"channelName" : "汽车配件-新浪汽车",
"channelNameSummary" : "汽车配件-新浪汽车",
"channelUrl" : "http:\/\/auto.sina.com.cn\/parts\/news\/index.shtml",
"author" : "WWW.SINA.COM.CN",
"tags" : [],
"desc" : "",
"emailed" : False,
"forwarded" : False,
"english" : False
}  , {
"index" : 9,
"articleIndex" : "79",
"favor" :  False ,
     "read" : False,    
"title" : "欧司朗携手新城子昂举办安全日行活动",
"titleTip" : "欧司朗携手新城子昂举办安全日行活动",
"titleSummary" : "欧司朗携手新城子昂举办安全日行活动",
"descSummary" : "",
"url" : "http:\/\/go.rss.sina.com.cn\/redirect.php?url=http:\/\/auto.sina.com.cn\/service\/2012-05-18\/1429972972.shtml",
"pubDate" : "2012年5月18日",
"enterDate" : "384200:32:57",
"channelId" : "1665699257200846488",
"channelName" : "汽车配件-新浪汽车",
"channelNameSummary" : "汽车配件-新浪汽车",
"channelUrl" : "http:\/\/auto.sina.com.cn\/parts\/news\/index.shtml",
"author" : "WWW.SINA.COM.CN",
"tags" : [],
"desc" : "",
"emailed" : False,
"forwarded" : False,
"english" : False
}  , {
"index" : 10,
"articleIndex" : "78",
"favor" :  False ,
     "read" : False,    
"title" : "第27届CIMAC会议将于明年5月在上海召开",
"titleTip" : "第27届CIMAC会议将于明年5月在上海召开",
"titleSummary" : "第27届CIMAC会议将于明年5月在上海召开",
"descSummary" : "",
"url" : "http:\/\/go.rss.sina.com.cn\/redirect.php?url=http:\/\/auto.sina.com.cn\/service\/2012-05-18\/1336972956.shtml",
"pubDate" : "2012年5月18日",
"enterDate" : "384199:39:43",
"channelId" : "1665699257200846488",
"channelName" : "汽车配件-新浪汽车",
"channelNameSummary" : "汽车配件-新浪汽车",
"channelUrl" : "http:\/\/auto.sina.com.cn\/parts\/news\/index.shtml",
"author" : "WWW.SINA.COM.CN",
"tags" : [],
"desc" : "",
"emailed" : False,
"forwarded" : False,
"english" : False
}  , {
"index" : 11,
"articleIndex" : "77",
"favor" :  False ,
     "read" : False,    
"title" : "车展归来 任我游导航PND蓄势待发",
"titleTip" : "车展归来 任我游导航PND蓄势待发",
"titleSummary" : "车展归来 任我游导航PND蓄势待发",
"descSummary" : "",
"url" : "http:\/\/go.rss.sina.com.cn\/redirect.php?url=http:\/\/auto.sina.com.cn\/service\/2012-05-11\/1433969276.shtml",
"pubDate" : "2012年5月11日",
"enterDate" : "384200:29:57",
"channelId" : "1665699257200846488",
"channelName" : "汽车配件-新浪汽车",
"channelNameSummary" : "汽车配件-新浪汽车",
"channelUrl" : "http:\/\/auto.sina.com.cn\/parts\/news\/index.shtml",
"author" : "WWW.SINA.COM.CN",
"tags" : [],
"desc" : "",
"emailed" : False,
"forwarded" : False,
"english" : False
}  , {
"index" : 12,
"articleIndex" : "76",
"favor" :  False ,
     "read" : False,    
"title" : "西铁古润滑油携手佳通车队称雄漠河冰雪越野",
"titleTip" : "西铁古润滑油携手佳通车队称雄漠河冰雪越野",
"titleSummary" : "西铁古润滑油携手佳通车队称雄漠河冰雪越野",
"descSummary" : "",
"url" : "http:\/\/go.rss.sina.com.cn\/redirect.php?url=http:\/\/auto.sina.com.cn\/service\/2012-05-03\/1711964871.shtml",
"pubDate" : "2012年5月3日",
"enterDate" : "384198:05:14",
"channelId" : "1665699257200846488",
"channelName" : "汽车配件-新浪汽车",
"channelNameSummary" : "汽车配件-新浪汽车",
"channelUrl" : "http:\/\/auto.sina.com.cn\/parts\/news\/index.shtml",
"author" : "WWW.SINA.COM.CN",
"tags" : [],
"desc" : "",
"emailed" : False,
"forwarded" : False,
"english" : False
}  , {
"index" : 13,
"articleIndex" : "75",
"favor" :  False ,
     "read" : False,    
"title" : "德国高档汽配厂商看好中国市场发展潜力",
"titleTip" : "德国高档汽配厂商看好中国市场发展潜力",
"titleSummary" : "德国高档汽配厂商看好中国市场发展潜力",
"descSummary" : "",
"url" : "http:\/\/go.rss.sina.com.cn\/redirect.php?url=http:\/\/auto.sina.com.cn\/service\/2012-05-02\/0950964066.shtml",
"pubDate" : "2012年5月2日",
"enterDate" : "384200:49:18",
"channelId" : "1665699257200846488",
"channelName" : "汽车配件-新浪汽车",
"channelNameSummary" : "汽车配件-新浪汽车",
"channelUrl" : "http:\/\/auto.sina.com.cn\/parts\/news\/index.shtml",
"author" : "WWW.SINA.COM.CN",
"tags" : [],
"desc" : "",
"emailed" : False,
"forwarded" : False,
"english" : False
}  , {
"index" : 14,
"articleIndex" : "74",
"favor" :  False ,
     "read" : False,    
"title" : "汽配市场蕴含商机 施耐德博士新工厂落成",
"titleTip" : "汽配市场蕴含商机 施耐德博士新工厂落成",
"titleSummary" : "汽配市场蕴含商机 施耐德博士新工厂落成",
"descSummary" : "",
"url" : "http:\/\/go.rss.sina.com.cn\/redirect.php?url=http:\/\/auto.sina.com.cn\/service\/2012-04-27\/1622962030.shtml",
"pubDate" : "2012年4月27日",
"enterDate" : "384200:22:02",
"channelId" : "1665699257200846488",
"channelName" : "汽车配件-新浪汽车",
"channelNameSummary" : "汽车配件-新浪汽车",
"channelUrl" : "http:\/\/auto.sina.com.cn\/parts\/news\/index.shtml",
"author" : "WWW.SINA.COM.CN",
"tags" : [],
"desc" : "",
"emailed" : False,
"forwarded" : False,
"english" : False
}  , {
"index" : 15,
"articleIndex" : "73",
"favor" :  False ,
     "read" : False,    
"title" : "打造精品展会 华港联手中汽配签战略合作",
"titleTip" : "打造精品展会 华港联手中汽配签战略合作",
"titleSummary" : "打造精品展会 华港联手中汽配签战略合作",
"descSummary" : "",
"url" : "http:\/\/go.rss.sina.com.cn\/redirect.php?url=http:\/\/auto.sina.com.cn\/service\/2012-03-15\/1145935957.shtml",
"pubDate" : "2012年3月15日",
"enterDate" : "383985:09:04",
"channelId" : "1665699257200846488",
"channelName" : "汽车配件-新浪汽车",
"channelNameSummary" : "汽车配件-新浪汽车",
"channelUrl" : "http:\/\/auto.sina.com.cn\/parts\/news\/index.shtml",
"author" : "WWW.SINA.COM.CN",
"tags" : [],
"desc" : "",
"emailed" : False,
"forwarded" : False,
"english" : False
}  , {
"index" : 16,
"articleIndex" : "72",
"favor" :  False ,
     "read" : False,    
"title" : "北京燕宝为您支招鉴别BMW原厂配件",
"titleTip" : "北京燕宝为您支招鉴别BMW原厂配件",
"titleSummary" : "北京燕宝为您支招鉴别BMW原厂配件",
"descSummary" : "",
"url" : "http:\/\/go.rss.sina.com.cn\/redirect.php?url=http:\/\/auto.sina.com.cn\/service\/2012-02-27\/1045923915.shtml",
"pubDate" : "2012年2月27日",
"enterDate" : "383576:09:28",
"channelId" : "1665699257200846488",
"channelName" : "汽车配件-新浪汽车",
"channelNameSummary" : "汽车配件-新浪汽车",
"channelUrl" : "http:\/\/auto.sina.com.cn\/parts\/news\/index.shtml",
"author" : "WWW.SINA.COM.CN",
"tags" : [],
"desc" : "",
"emailed" : False,
"forwarded" : False,
"english" : False
}  , {
"index" : 17,
"articleIndex" : "71",
"favor" :  False ,
     "read" : False,    
"title" : "第71届全国汽车配件交易会活动预览",
"titleTip" : "第71届全国汽车配件交易会活动预览",
"titleSummary" : "第71届全国汽车配件交易会活动预览",
"descSummary" : "",
"url" : "http:\/\/go.rss.sina.com.cn\/redirect.php?url=http:\/\/auto.sina.com.cn\/service\/2012-02-10\/0803914422.shtml",
"pubDate" : "2012年2月10日",
"enterDate" : "383165:26:54",
"channelId" : "1665699257200846488",
"channelName" : "汽车配件-新浪汽车",
"channelNameSummary" : "汽车配件-新浪汽车",
"channelUrl" : "http:\/\/auto.sina.com.cn\/parts\/news\/index.shtml",
"author" : "WWW.SINA.COM.CN",
"tags" : [],
"desc" : "",
"emailed" : False,
"forwarded" : False,
"english" : False
}  , {
"index" : 18,
"articleIndex" : "70",
"favor" :  False ,
     "read" : False,    
"title" : "现代摩比斯与通用等车企签零部件合同",
"titleTip" : "现代摩比斯与通用等车企签零部件合同",
"titleSummary" : "现代摩比斯与通用等车企签零部件合同",
"descSummary" : "",
"url" : "http:\/\/go.rss.sina.com.cn\/redirect.php?url=http:\/\/auto.sina.com.cn\/service\/2012-02-01\/0827908989.shtml",
"pubDate" : "2012年2月1日",
"enterDate" : "384200:27:34",
"channelId" : "1665699257200846488",
"channelName" : "汽车配件-新浪汽车",
"channelNameSummary" : "汽车配件-新浪汽车",
"channelUrl" : "http:\/\/auto.sina.com.cn\/parts\/news\/index.shtml",
"author" : "WWW.SINA.COM.CN",
"tags" : [],
"desc" : "",
"emailed" : False,
"forwarded" : False,
"english" : False
}  , {
"index" : 19,
"articleIndex" : "69",
"favor" :  False ,
     "read" : False,    
"title" : "假汽车配件八成在中国 全球估计达3070亿元",
"titleTip" : "假汽车配件八成在中国 全球估计达3070亿元",
"titleSummary" : "假汽车配件八成在中国 全球估计达3070亿元",
"descSummary" : "",
"url" : "http:\/\/go.rss.sina.com.cn\/redirect.php?url=http:\/\/auto.sina.com.cn\/service\/2012-01-17\/0722904112.shtml",
"pubDate" : "2012年1月17日",
"enterDate" : "384200:22:12",
"channelId" : "1665699257200846488",
"channelName" : "汽车配件-新浪汽车",
"channelNameSummary" : "汽车配件-新浪汽车",
"channelUrl" : "http:\/\/auto.sina.com.cn\/parts\/news\/index.shtml",
"author" : "WWW.SINA.COM.CN",
"tags" : [],
"desc" : "",
"emailed" : False,
"forwarded" : False,
"english" : False
} ]
}
