{
"mode" : {"viewTitle" : 1,   "viewNew" : 0,  "pageIndex" : 2 },
 "channel" : {"id" : "1665699257200846488", "booked" : False, "subNumber" : 1, "name" : "汽车配件-新浪汽车", "url" : "http:\/\/auto.sina.com.cn\/parts\/news\/index.shtml", "feed" : "http:\/\/rss.sina.com.cn\/auto\/parts\/news\/index.xml", "author" : "WWW.SINA.COM.CN", "desc" : "汽车配件-要闻列表", "imageUrl" : "http:\/\/www.sinaimg.cn\/dy\/auto\/index\/topbar_03.gif", "postPerWeek" : "0", "lastCrawTime" : "2013年10月16日 (2周前)", "crawDateTime" : "2013年3月18日", "lastHttpCode" : "304"}, "page" : {
"startIndex" : 20,
"totalCount" : 89,
"pageIndex" : 2,
"lastPage" : 5,
"pageSize" : 20,
"english" :  False },
 "unreadNum" : 0, "shotIndex" : -1,
"articles" : [
{
"index" : 0,
"articleIndex" : "68",
"favor" :  False ,
     "read" : False,    
"title" : "中国汽车后市场可信品牌认证平台在沪启动",
"titleTip" : "中国汽车后市场可信品牌认证平台在沪启动",
"titleSummary" : "中国汽车后市场可信品牌认证平台在沪启动",
"descSummary" : "",
"url" : "http:\/\/go.rss.sina.com.cn\/redirect.php?url=http:\/\/auto.sina.com.cn\/service\/2012-01-16\/1131903620.shtml",
"pubDate" : "2012年1月16日",
"enterDate" : "384200:36:57",
"channelId" : "1665699257200846488",
"channelName" : "汽车配件-新浪汽车",
"channelNameSummary" : "汽车配件-新浪汽车",
"channelUrl" : "http:\/\/auto.sina.com.cn\/parts\/news\/index.shtml",
"author" : "WWW.SINA.COM.CN",
"tags" : [],
"desc" : "",
"emailed" : False,
"forwarded" : False,
"english" : False
}  , {
"index" : 1,
"articleIndex" : "67",
"favor" :  False ,
     "read" : False,    
"title" : "第71届全国汽车配件交易会展位难求",
"titleTip" : "第71届全国汽车配件交易会展位难求",
"titleSummary" : "第71届全国汽车配件交易会展位难求",
"descSummary" : "",
"url" : "http:\/\/go.rss.sina.com.cn\/redirect.php?url=http:\/\/auto.sina.com.cn\/service\/2012-01-09\/1132899304.shtml",
"pubDate" : "2012年1月9日",
"enterDate" : "384200:27:18",
"channelId" : "1665699257200846488",
"channelName" : "汽车配件-新浪汽车",
"channelNameSummary" : "汽车配件-新浪汽车",
"channelUrl" : "http:\/\/auto.sina.com.cn\/parts\/news\/index.shtml",
"author" : "WWW.SINA.COM.CN",
"tags" : [],
"desc" : "",
"emailed" : False,
"forwarded" : False,
"english" : False
}  , {
"index" : 2,
"articleIndex" : "66",
"favor" :  False ,
     "read" : False,    
"title" : "倒车可视系统如何影响汽车安全",
"titleTip" : "倒车可视系统如何影响汽车安全",
"titleSummary" : "倒车可视系统如何影响汽车安全",
"descSummary" : "",
"url" : "http:\/\/go.rss.sina.com.cn\/redirect.php?url=http:\/\/auto.sina.com.cn\/service\/2011-12-26\/1719892742.shtml",
"pubDate" : "2011年12月26日",
"enterDate" : "384198:14:03",
"channelId" : "1665699257200846488",
"channelName" : "汽车配件-新浪汽车",
"channelNameSummary" : "汽车配件-新浪汽车",
"channelUrl" : "http:\/\/auto.sina.com.cn\/parts\/news\/index.shtml",
"author" : "WWW.SINA.COM.CN",
"tags" : [],
"desc" : "",
"emailed" : False,
"forwarded" : False,
"english" : False
}  , {
"index" : 3,
"articleIndex" : "65",
"favor" :  False ,
     "read" : False,    
"title" : "第71届全国汽车配件交易会招商进行时",
"titleTip" : "第71届全国汽车配件交易会招商进行时",
"titleSummary" : "第71届全国汽车配件交易会招商进行时",
"descSummary" : "",
"url" : "http:\/\/go.rss.sina.com.cn\/redirect.php?url=http:\/\/auto.sina.com.cn\/service\/2011-12-23\/1406891630.shtml",
"pubDate" : "2011年12月23日",
"enterDate" : "384200:08:28",
"channelId" : "1665699257200846488",
"channelName" : "汽车配件-新浪汽车",
"channelNameSummary" : "汽车配件-新浪汽车",
"channelUrl" : "http:\/\/auto.sina.com.cn\/parts\/news\/index.shtml",
"author" : "WWW.SINA.COM.CN",
"tags" : [],
"desc" : "",
"emailed" : False,
"forwarded" : False,
"english" : False
}  , {
"index" : 4,
"articleIndex" : "64",
"favor" :  False ,
     "read" : False,    
"title" : "第71届全国汽车配件交易会招商已展开",
"titleTip" : "第71届全国汽车配件交易会招商已展开",
"titleSummary" : "第71届全国汽车配件交易会招商已展开",
"descSummary" : "",
"url" : "http:\/\/go.rss.sina.com.cn\/redirect.php?url=http:\/\/auto.sina.com.cn\/service\/2011-12-12\/1512884777.shtml",
"pubDate" : "2011年12月12日",
"enterDate" : "384199:15:04",
"channelId" : "1665699257200846488",
"channelName" : "汽车配件-新浪汽车",
"channelNameSummary" : "汽车配件-新浪汽车",
"channelUrl" : "http:\/\/auto.sina.com.cn\/parts\/news\/index.shtml",
"author" : "WWW.SINA.COM.CN",
"tags" : [],
"desc" : "",
"emailed" : False,
"forwarded" : False,
"english" : False
}  , {
"index" : 5,
"articleIndex" : "63",
"favor" :  False ,
     "read" : False,    
"title" : "德尔福MYFI®智能语音导航系统获大奖",
"titleTip" : "德尔福MYFI®智能语音导航系统获大奖",
"titleSummary" : "德尔福MYFI®智能语音导航系统获大奖",
"descSummary" : "",
"url" : "http:\/\/go.rss.sina.com.cn\/redirect.php?url=http:\/\/auto.sina.com.cn\/service\/2011-12-09\/1356883773.shtml",
"pubDate" : "2011年12月9日",
"enterDate" : "384200:02:40",
"channelId" : "1665699257200846488",
"channelName" : "汽车配件-新浪汽车",
"channelNameSummary" : "汽车配件-新浪汽车",
"channelUrl" : "http:\/\/auto.sina.com.cn\/parts\/news\/index.shtml",
"author" : "WWW.SINA.COM.CN",
"tags" : [],
"desc" : "",
"emailed" : False,
"forwarded" : False,
"english" : False
}  , {
"index" : 6,
"articleIndex" : "62",
"favor" :  False ,
     "read" : False,    
"title" : "新凯美瑞专用导航 路畅导航与车同步上市",
"titleTip" : "新凯美瑞专用导航 路畅导航与车同步上市",
"titleSummary" : "新凯美瑞专用导航 路畅导航与车同步上市",
"descSummary" : "",
"url" : "http:\/\/go.rss.sina.com.cn\/redirect.php?url=http:\/\/auto.sina.com.cn\/service\/2011-12-05\/1401880732.shtml",
"pubDate" : "2011年12月5日",
"enterDate" : "384200:05:25",
"channelId" : "1665699257200846488",
"channelName" : "汽车配件-新浪汽车",
"channelNameSummary" : "汽车配件-新浪汽车",
"channelUrl" : "http:\/\/auto.sina.com.cn\/parts\/news\/index.shtml",
"author" : "WWW.SINA.COM.CN",
"tags" : [],
"desc" : "",
"emailed" : False,
"forwarded" : False,
"english" : False
}  , {
"index" : 7,
"articleIndex" : "61",
"favor" :  False ,
     "read" : False,    
"title" : "广州车展自主品牌遇冷 零部件如何破茧",
"titleTip" : "广州车展自主品牌遇冷 零部件如何破茧",
"titleSummary" : "广州车展自主品牌遇冷 零部件如何破茧",
"descSummary" : "",
"url" : "http:\/\/go.rss.sina.com.cn\/redirect.php?url=http:\/\/auto.sina.com.cn\/service\/2011-11-29\/1512877742.shtml",
"pubDate" : "2011年11月29日",
"enterDate" : "384199:08:23",
"channelId" : "1665699257200846488",
"channelName" : "汽车配件-新浪汽车",
"channelNameSummary" : "汽车配件-新浪汽车",
"channelUrl" : "http:\/\/auto.sina.com.cn\/parts\/news\/index.shtml",
"author" : "WWW.SINA.COM.CN",
"tags" : [],
"desc" : "<br \/> <embed height=\"320\" type=\"null\" width=\"400\" wmode=\"transparent\" allowscriptaccess=\"sameDomain\" quality=\"high\" align=\"middle\" \/>",
"emailed" : False,
"forwarded" : False,
"english" : False
}  , {
"index" : 8,
"articleIndex" : "60",
"favor" :  False ,
     "read" : False,    
"title" : "安吉星升级版手机应用即将上市",
"titleTip" : "安吉星升级版手机应用即将上市",
"titleSummary" : "安吉星升级版手机应用即将上市",
"descSummary" : "",
"url" : "http:\/\/go.rss.sina.com.cn\/redirect.php?url=http:\/\/auto.sina.com.cn\/service\/2011-11-21\/2350873692.shtml",
"pubDate" : "2011年11月21日",
"enterDate" : "384046:55:46",
"channelId" : "1665699257200846488",
"channelName" : "汽车配件-新浪汽车",
"channelNameSummary" : "汽车配件-新浪汽车",
"channelUrl" : "http:\/\/auto.sina.com.cn\/parts\/news\/index.shtml",
"author" : "WWW.SINA.COM.CN",
"tags" : [],
"desc" : "<br \/> <embed height=\"320\" type=\"null\" width=\"400\" wmode=\"transparent\" allowscriptaccess=\"sameDomain\" quality=\"high\" align=\"middle\" \/>",
"emailed" : False,
"forwarded" : False,
"english" : False
}  , {
"index" : 9,
"articleIndex" : "59",
"favor" :  False ,
     "read" : False,    
"title" : "第71届全国汽车配件交易会与您相约西安",
"titleTip" : "第71届全国汽车配件交易会与您相约西安",
"titleSummary" : "第71届全国汽车配件交易会与您相约西安",
"descSummary" : "",
"url" : "http:\/\/go.rss.sina.com.cn\/redirect.php?url=http:\/\/auto.sina.com.cn\/service\/2011-11-07\/1004865911.shtml",
"pubDate" : "2011年11月7日",
"enterDate" : "384201:05:20",
"channelId" : "1665699257200846488",
"channelName" : "汽车配件-新浪汽车",
"channelNameSummary" : "汽车配件-新浪汽车",
"channelUrl" : "http:\/\/auto.sina.com.cn\/parts\/news\/index.shtml",
"author" : "WWW.SINA.COM.CN",
"tags" : [],
"desc" : "",
"emailed" : False,
"forwarded" : False,
"english" : False
}  , {
"index" : 10,
"articleIndex" : "58",
"favor" :  False ,
     "read" : False,    
"title" : "第70届全国汽车配件交易会相聚济南",
"titleTip" : "第70届全国汽车配件交易会相聚济南",
"titleSummary" : "第70届全国汽车配件交易会相聚济南",
"descSummary" : "",
"url" : "http:\/\/go.rss.sina.com.cn\/redirect.php?url=http:\/\/auto.sina.com.cn\/service\/2011-10-24\/1730858747.shtml",
"pubDate" : "2011年10月24日",
"enterDate" : "384151:37:21",
"channelId" : "1665699257200846488",
"channelName" : "汽车配件-新浪汽车",
"channelNameSummary" : "汽车配件-新浪汽车",
"channelUrl" : "http:\/\/auto.sina.com.cn\/parts\/news\/index.shtml",
"author" : "WWW.SINA.COM.CN",
"tags" : [],
"desc" : "",
"emailed" : False,
"forwarded" : False,
"english" : False
}  , {
"index" : 11,
"articleIndex" : "57",
"favor" :  False ,
     "read" : False,    
"title" : "全国汽车配件交易会10月将于济南举行",
"titleTip" : "全国汽车配件交易会10月将于济南举行",
"titleSummary" : "全国汽车配件交易会10月将于济南举行",
"descSummary" : "",
"url" : "http:\/\/go.rss.sina.com.cn\/redirect.php?url=http:\/\/auto.sina.com.cn\/service\/2011-10-14\/1424853617.shtml",
"pubDate" : "2011年10月14日",
"enterDate" : "384200:31:14",
"channelId" : "1665699257200846488",
"channelName" : "汽车配件-新浪汽车",
"channelNameSummary" : "汽车配件-新浪汽车",
"channelUrl" : "http:\/\/auto.sina.com.cn\/parts\/news\/index.shtml",
"author" : "WWW.SINA.COM.CN",
"tags" : [],
"desc" : "",
"emailed" : False,
"forwarded" : False,
"english" : False
}  , {
"index" : 12,
"articleIndex" : "56",
"favor" :  False ,
     "read" : False,    
"title" : "ZOHe：博世新一代制动钳 更轻巧更省油",
"titleTip" : "ZOHe：博世新一代制动钳 更轻巧更省油",
"titleSummary" : "ZOHe：博世新一代制动钳 更轻巧更省油",
"descSummary" : "",
"url" : "http:\/\/go.rss.sina.com.cn\/redirect.php?url=http:\/\/auto.sina.com.cn\/service\/2011-10-11\/1419851736.shtml",
"pubDate" : "2011年10月11日",
"enterDate" : "384166:52:03",
"channelId" : "1665699257200846488",
"channelName" : "汽车配件-新浪汽车",
"channelNameSummary" : "汽车配件-新浪汽车",
"channelUrl" : "http:\/\/auto.sina.com.cn\/parts\/news\/index.shtml",
"author" : "WWW.SINA.COM.CN",
"tags" : [],
"desc" : "",
"emailed" : False,
"forwarded" : False,
"english" : False
}  , {
"index" : 13,
"articleIndex" : "55",
"favor" :  False ,
     "read" : False,    
"title" : "普利司通POTENZA搏天族\"运动全能王\"上市",
"titleTip" : "普利司通POTENZA搏天族\"运动全能王\"上市",
"titleSummary" : "普利司通POTENZA搏天族\"运动全能王\"上市",
"descSummary" : "",
"url" : "http:\/\/go.rss.sina.com.cn\/redirect.php?url=http:\/\/auto.sina.com.cn\/service\/2011-09-27\/1027846155.shtml",
"pubDate" : "2011年9月27日",
"enterDate" : "384200:27:05",
"channelId" : "1665699257200846488",
"channelName" : "汽车配件-新浪汽车",
"channelNameSummary" : "汽车配件-新浪汽车",
"channelUrl" : "http:\/\/auto.sina.com.cn\/parts\/news\/index.shtml",
"author" : "WWW.SINA.COM.CN",
"tags" : [],
"desc" : "",
"emailed" : False,
"forwarded" : False,
"english" : False
}  , {
"index" : 14,
"articleIndex" : "54",
"favor" :  False ,
     "read" : False,    
"title" : "第70届全国汽车配件交易会提前结束招展",
"titleTip" : "第70届全国汽车配件交易会提前结束招展",
"titleSummary" : "第70届全国汽车配件交易会提前结束招展",
"descSummary" : "",
"url" : "http:\/\/go.rss.sina.com.cn\/redirect.php?url=http:\/\/auto.sina.com.cn\/service\/2011-09-21\/1346843000.shtml",
"pubDate" : "2011年9月21日",
"enterDate" : "384199:42:00",
"channelId" : "1665699257200846488",
"channelName" : "汽车配件-新浪汽车",
"channelNameSummary" : "汽车配件-新浪汽车",
"channelUrl" : "http:\/\/auto.sina.com.cn\/parts\/news\/index.shtml",
"author" : "WWW.SINA.COM.CN",
"tags" : [],
"desc" : "",
"emailed" : False,
"forwarded" : False,
"english" : False
}  , {
"index" : 15,
"articleIndex" : "53",
"favor" :  False ,
     "read" : False,    
"title" : "庆祝博泽长春成立5周年 5年持续增长",
"titleTip" : "庆祝博泽长春成立5周年 5年持续增长",
"titleSummary" : "庆祝博泽长春成立5周年 5年持续增长",
"descSummary" : "",
"url" : "http:\/\/go.rss.sina.com.cn\/redirect.php?url=http:\/\/auto.sina.com.cn\/service\/2011-09-06\/1352834695.shtml",
"pubDate" : "2011年9月6日",
"enterDate" : "384199:46:51",
"channelId" : "1665699257200846488",
"channelName" : "汽车配件-新浪汽车",
"channelNameSummary" : "汽车配件-新浪汽车",
"channelUrl" : "http:\/\/auto.sina.com.cn\/parts\/news\/index.shtml",
"author" : "WWW.SINA.COM.CN",
"tags" : [],
"desc" : "",
"emailed" : False,
"forwarded" : False,
"english" : False
}  , {
"index" : 16,
"articleIndex" : "52",
"favor" :  False ,
     "read" : False,    
"title" : "第70届全国汽车配件交易会论坛竞相争艳",
"titleTip" : "第70届全国汽车配件交易会论坛竞相争艳",
"titleSummary" : "第70届全国汽车配件交易会论坛竞相争艳",
"descSummary" : "",
"url" : "http:\/\/go.rss.sina.com.cn\/redirect.php?url=http:\/\/auto.sina.com.cn\/service\/2011-08-09\/1529819200.shtml",
"pubDate" : "2011年8月9日",
"enterDate" : "384199:26:54",
"channelId" : "1665699257200846488",
"channelName" : "汽车配件-新浪汽车",
"channelNameSummary" : "汽车配件-新浪汽车",
"channelUrl" : "http:\/\/auto.sina.com.cn\/parts\/news\/index.shtml",
"author" : "WWW.SINA.COM.CN",
"tags" : [],
"desc" : "",
"emailed" : False,
"forwarded" : False,
"english" : False
}  , {
"index" : 17,
"articleIndex" : "51",
"favor" :  False ,
     "read" : False,    
"title" : "速腾气囊游丝售价 4S店比汽配城贵10倍",
"titleTip" : "速腾气囊游丝售价 4S店比汽配城贵10倍",
"titleSummary" : "速腾气囊游丝售价 4S店比汽配城贵10倍",
"descSummary" : "",
"url" : "http:\/\/go.rss.sina.com.cn\/redirect.php?url=http:\/\/auto.sina.com.cn\/service\/2011-08-02\/0736814684.shtml",
"pubDate" : "2011年8月2日",
"enterDate" : "384200:40:49",
"channelId" : "1665699257200846488",
"channelName" : "汽车配件-新浪汽车",
"channelNameSummary" : "汽车配件-新浪汽车",
"channelUrl" : "http:\/\/auto.sina.com.cn\/parts\/news\/index.shtml",
"author" : "WWW.SINA.COM.CN",
"tags" : [],
"desc" : "",
"emailed" : False,
"forwarded" : False,
"english" : False
}  , {
"index" : 18,
"articleIndex" : "50",
"favor" :  False ,
     "read" : False,    
"title" : "宾利推出Mulliner运动版套件",
"titleTip" : "宾利推出Mulliner运动版套件",
"titleSummary" : "宾利推出Mulliner运动版套件",
"descSummary" : "",
"url" : "http:\/\/go.rss.sina.com.cn\/redirect.php?url=http:\/\/blog.sina.com.cn\/s\/blog_6bc0db680100rise.html",
"pubDate" : "2011年7月26日",
"enterDate" : "384199:56:50",
"channelId" : "1665699257200846488",
"channelName" : "汽车配件-新浪汽车",
"channelNameSummary" : "汽车配件-新浪汽车",
"channelUrl" : "http:\/\/auto.sina.com.cn\/parts\/news\/index.shtml",
"author" : "WWW.SINA.COM.CN",
"tags" : [],
"desc" : "",
"emailed" : False,
"forwarded" : False,
"english" : False
}  , {
"index" : 19,
"articleIndex" : "49",
"favor" :  False ,
     "read" : False,    
"title" : "上海格兰海芬举行新厂房开工奠基仪式",
"titleTip" : "上海格兰海芬举行新厂房开工奠基仪式",
"titleSummary" : "上海格兰海芬举行新厂房开工奠基仪式",
"descSummary" : "",
"url" : "http:\/\/go.rss.sina.com.cn\/redirect.php?url=http:\/\/auto.sina.com.cn\/service\/2011-07-21\/1018808116.shtml",
"pubDate" : "2011年7月21日",
"enterDate" : "384102:46:30",
"channelId" : "1665699257200846488",
"channelName" : "汽车配件-新浪汽车",
"channelNameSummary" : "汽车配件-新浪汽车",
"channelUrl" : "http:\/\/auto.sina.com.cn\/parts\/news\/index.shtml",
"author" : "WWW.SINA.COM.CN",
"tags" : [],
"desc" : "",
"emailed" : False,
"forwarded" : False,
"english" : False
} ]
}
