{
"mode" : {"viewTitle" : 1,   "viewNew" : 0,  "pageIndex" : 1 },
 "channel" : {"id" : "-1581926368795018571", "booked" : False, "subNumber" : 454, "name" : "焦点新闻-新浪游戏", "url" : "http:\/\/games.sina.com.cn", "feed" : "http:\/\/rss.sina.com.cn\/news\/allnews\/games.xml", "author" : "SINA.com", "desc" : "新浪游戏焦点新闻", "imageUrl" : "http:\/\/www.sinaimg.cn\/home\/images\/sina_logo2.gif", "postPerWeek" : "0", "lastCrawTime" : "17:19:00", "crawDateTime" : "17:19:00", "lastHttpCode" : "200"}, "page" : {
"startIndex" : 0,
"totalCount" : 5000,
"pageIndex" : 1,
"lastPage" : 250,
"pageSize" : 20,
"english" :  False },
 "unreadNum" : 0, "shotIndex" : -1,
"articles" : [
{
"index" : 0,
"articleIndex" : "8989",
"favor" :  False ,
     "read" : False,    
"title" : "专访详解3D战斗网游《斗仙》内测版本",
"titleTip" : "专访详解3D战斗网游《斗仙》内测版本",
"titleSummary" : "专访详解3D战斗网游《斗仙》内测版本",
"descSummary" : "",
"url" : "http:\/\/go.rss.sina.com.cn\/redirect.php?url=http:\/\/games.sina.com.cn\/xyz\/zt\/dx\/index.shtml",
"pubDate" : "13:52:59",
"enterDate" : "384200:54:09",
"channelId" : "-1581926368795018571",
"channelName" : "焦点新闻-新浪游戏",
"channelNameSummary" : "焦点新闻-新浪游戏",
"channelUrl" : "http:\/\/games.sina.com.cn",
"author" : "SINA.com",
"tags" : [],
"desc" : "",
"emailed" : False,
"forwarded" : False,
"english" : False
}  , {
"index" : 1,
"articleIndex" : "8988",
"favor" :  False ,
     "read" : False,    
"title" : "2013年10月测试新游全回顾",
"titleTip" : "2013年10月测试新游全回顾",
"titleSummary" : "2013年10月测试新游全回顾",
"descSummary" : "",
"url" : "http:\/\/go.rss.sina.com.cn\/redirect.php?url=http:\/\/games.sina.com.cn\/ng\/ch\/2013oct\/index.shtml",
"pubDate" : "昨天16:14:16",
"enterDate" : "384200:49:00",
"channelId" : "-1581926368795018571",
"channelName" : "焦点新闻-新浪游戏",
"channelNameSummary" : "焦点新闻-新浪游戏",
"channelUrl" : "http:\/\/games.sina.com.cn",
"author" : "SINA.com",
"tags" : [],
"desc" : "",
"emailed" : False,
"forwarded" : False,
"english" : False
}  , {
"index" : 2,
"articleIndex" : "8987",
"favor" :  False ,
     "read" : False,    
"title" : "《怪物猎人OL》试玩视频集",
"titleTip" : "《怪物猎人OL》试玩视频集",
"titleSummary" : "《怪物猎人OL》试玩视频集",
"descSummary" : "",
"url" : "http:\/\/go.rss.sina.com.cn\/redirect.php?url=http:\/\/games.sina.com.cn\/ng\/vmho\/index.shtml",
"pubDate" : "前天14:37:20",
"enterDate" : "384177:42:29",
"channelId" : "-1581926368795018571",
"channelName" : "焦点新闻-新浪游戏",
"channelNameSummary" : "焦点新闻-新浪游戏",
"channelUrl" : "http:\/\/games.sina.com.cn",
"author" : "SINA.com",
"tags" : [],
"desc" : "",
"emailed" : False,
"forwarded" : False,
"english" : False
}  , {
"index" : 3,
"articleIndex" : "8986",
"favor" :  False ,
     "read" : False,    
"title" : "人人都爱眼镜娘",
"titleTip" : "人人都爱眼镜娘",
"titleSummary" : "人人都爱眼镜娘",
"descSummary" : "",
"url" : "http:\/\/go.rss.sina.com.cn\/redirect.php?url=http:\/\/games.sina.com.cn\/g\/zt\/nmirc007\/index.shtml",
"pubDate" : "前天14:09:26",
"enterDate" : "384196:47:56",
"channelId" : "-1581926368795018571",
"channelName" : "焦点新闻-新浪游戏",
"channelNameSummary" : "焦点新闻-新浪游戏",
"channelUrl" : "http:\/\/games.sina.com.cn",
"author" : "SINA.com",
"tags" : [],
"desc" : "",
"emailed" : False,
"forwarded" : False,
"english" : False
}  , {
"index" : 4,
"articleIndex" : "8985",
"favor" :  False ,
     "read" : False,    
"title" : "一周测试新网游2013.10.28-11.03",
"titleTip" : "一周测试新网游2013.10.28-11.03",
"titleSummary" : "一周测试新网游2013.10.28-11.03",
"descSummary" : "",
"url" : "http:\/\/go.rss.sina.com.cn\/redirect.php?url=http:\/\/games.sina.com.cn\/ng\/ch\/131028\/index.shtml",
"pubDate" : "2013年10月25日 (5天前)",
"enterDate" : "384200:53:39",
"channelId" : "-1581926368795018571",
"channelName" : "焦点新闻-新浪游戏",
"channelNameSummary" : "焦点新闻-新浪游戏",
"channelUrl" : "http:\/\/games.sina.com.cn",
"author" : "SINA.com",
"tags" : [],
"desc" : "",
"emailed" : False,
"forwarded" : False,
"english" : False
}  , {
"index" : 5,
"articleIndex" : "8984",
"favor" :  False ,
     "read" : False,    
"title" : "我爱游戏解说：使命召唤Online",
"titleTip" : "我爱游戏解说：使命召唤Online",
"titleSummary" : "我爱游戏解说：使命召唤Online",
"descSummary" : "",
"url" : "http:\/\/go.rss.sina.com.cn\/redirect.php?url=http:\/\/games.sina.com.cn\/ng\/scodol\/index.shtml",
"pubDate" : "2013年10月25日 (5天前)",
"enterDate" : "384200:50:23",
"channelId" : "-1581926368795018571",
"channelName" : "焦点新闻-新浪游戏",
"channelNameSummary" : "焦点新闻-新浪游戏",
"channelUrl" : "http:\/\/games.sina.com.cn",
"author" : "SINA.com",
"tags" : [],
"desc" : "",
"emailed" : False,
"forwarded" : False,
"english" : False
}  , {
"index" : 6,
"articleIndex" : "8982",
"favor" :  False ,
     "read" : False,    
"title" : "一周测试新网游2013.10.21-10.27",
"titleTip" : "一周测试新网游2013.10.21-10.27",
"titleSummary" : "一周测试新网游2013.10.21-10.27",
"descSummary" : "",
"url" : "http:\/\/go.rss.sina.com.cn\/redirect.php?url=http:\/\/games.sina.com.cn\/ng\/ch\/131021\/index.shtml",
"pubDate" : "2013年10月18日 (1周前)",
"enterDate" : "384201:11:34",
"channelId" : "-1581926368795018571",
"channelName" : "焦点新闻-新浪游戏",
"channelNameSummary" : "焦点新闻-新浪游戏",
"channelUrl" : "http:\/\/games.sina.com.cn",
"author" : "SINA.com",
"tags" : [],
"desc" : "",
"emailed" : False,
"forwarded" : False,
"english" : False
}  , {
"index" : 7,
"articleIndex" : "8981",
"favor" :  False ,
     "read" : False,    
"title" : "我爱游戏解说：侠客无双",
"titleTip" : "我爱游戏解说：侠客无双",
"titleSummary" : "我爱游戏解说：侠客无双",
"descSummary" : "",
"url" : "http:\/\/go.rss.sina.com.cn\/redirect.php?url=http:\/\/games.sina.com.cn\/ng\/sxkws\/index.shtml",
"pubDate" : "2013年10月16日 (2周前)",
"enterDate" : "384201:03:39",
"channelId" : "-1581926368795018571",
"channelName" : "焦点新闻-新浪游戏",
"channelNameSummary" : "焦点新闻-新浪游戏",
"channelUrl" : "http:\/\/games.sina.com.cn",
"author" : "SINA.com",
"tags" : [],
"desc" : "",
"emailed" : False,
"forwarded" : False,
"english" : False
}  , {
"index" : 8,
"articleIndex" : "8983",
"favor" :  False ,
     "read" : False,    
"title" : "非理勿言005：那些年我们的魔兽世界",
"titleTip" : "非理勿言005：那些年我们的魔兽世界",
"titleSummary" : "非理勿言005：那些年我们的魔兽世界",
"descSummary" : "",
"url" : "http:\/\/go.rss.sina.com.cn\/redirect.php?url=http:\/\/games.sina.com.cn\/g\/zt\/talk005\/index.shtml",
"pubDate" : "2013年10月15日 (2周前)",
"enterDate" : "384127:40:16",
"channelId" : "-1581926368795018571",
"channelName" : "焦点新闻-新浪游戏",
"channelNameSummary" : "焦点新闻-新浪游戏",
"channelUrl" : "http:\/\/games.sina.com.cn",
"author" : "SINA.com",
"tags" : [],
"desc" : "",
"emailed" : False,
"forwarded" : False,
"english" : False
}  , {
"index" : 9,
"articleIndex" : "8980",
"favor" :  False ,
     "read" : False,    
"title" : "我爱游戏解说：金刚之印",
"titleTip" : "我爱游戏解说：金刚之印",
"titleSummary" : "我爱游戏解说：金刚之印",
"descSummary" : "",
"url" : "http:\/\/go.rss.sina.com.cn\/redirect.php?url=http:\/\/games.sina.com.cn\/ng\/sjgzy\/index.shtml",
"pubDate" : "2013年10月15日 (2周前)",
"enterDate" : "384201:11:10",
"channelId" : "-1581926368795018571",
"channelName" : "焦点新闻-新浪游戏",
"channelNameSummary" : "焦点新闻-新浪游戏",
"channelUrl" : "http:\/\/games.sina.com.cn",
"author" : "SINA.com",
"tags" : [],
"desc" : "",
"emailed" : False,
"forwarded" : False,
"english" : False
}  , {
"index" : 10,
"articleIndex" : "8979",
"favor" :  False ,
     "read" : False,    
"title" : "一周测试新网游2013.10.14-10.20",
"titleTip" : "一周测试新网游2013.10.14-10.20",
"titleSummary" : "一周测试新网游2013.10.14-10.20",
"descSummary" : "",
"url" : "http:\/\/go.rss.sina.com.cn\/redirect.php?url=http:\/\/games.sina.com.cn\/ng\/ch\/131014\/index.shtml",
"pubDate" : "2013年10月12日 (2周前)",
"enterDate" : "384200:58:45",
"channelId" : "-1581926368795018571",
"channelName" : "焦点新闻-新浪游戏",
"channelNameSummary" : "焦点新闻-新浪游戏",
"channelUrl" : "http:\/\/games.sina.com.cn",
"author" : "SINA.com",
"tags" : [],
"desc" : "",
"emailed" : False,
"forwarded" : False,
"english" : False
}  , {
"index" : 11,
"articleIndex" : "8978",
"favor" :  False ,
     "read" : False,    
"title" : "壕，我们做朋友吧！",
"titleTip" : "壕，我们做朋友吧！",
"titleSummary" : "壕，我们做朋友吧！",
"descSummary" : "",
"url" : "http:\/\/go.rss.sina.com.cn\/redirect.php?url=http:\/\/games.sina.com.cn\/g\/zt\/nmirc006\/index.shtml",
"pubDate" : "2013年10月10日 (2周前)",
"enterDate" : "384197:36:47",
"channelId" : "-1581926368795018571",
"channelName" : "焦点新闻-新浪游戏",
"channelNameSummary" : "焦点新闻-新浪游戏",
"channelUrl" : "http:\/\/games.sina.com.cn",
"author" : "SINA.com",
"tags" : [],
"desc" : "",
"emailed" : False,
"forwarded" : False,
"english" : False
}  , {
"index" : 12,
"articleIndex" : "8977",
"favor" :  False ,
     "read" : False,    
"title" : "2013年第十一届网博会新浪游戏全面报道",
"titleTip" : "2013年第十一届网博会新浪游戏全面报道",
"titleSummary" : "2013年第十一届网博会新浪游戏全面报道",
"descSummary" : "",
"url" : "http:\/\/go.rss.sina.com.cn\/redirect.php?url=http:\/\/games.sina.com.cn\/digichina2013.shtml",
"pubDate" : "2013年10月8日 (3周前)",
"enterDate" : "384163:48:06",
"channelId" : "-1581926368795018571",
"channelName" : "焦点新闻-新浪游戏",
"channelNameSummary" : "焦点新闻-新浪游戏",
"channelUrl" : "http:\/\/games.sina.com.cn",
"author" : "SINA.com",
"tags" : [],
"desc" : "",
"emailed" : False,
"forwarded" : False,
"english" : False
}  , {
"index" : 13,
"articleIndex" : "8976",
"favor" :  False ,
     "read" : False,    
"title" : "宅人玩什么？ 国庆长假网游推荐",
"titleTip" : "宅人玩什么？ 国庆长假网游推荐",
"titleSummary" : "宅人玩什么？ 国庆长假网游推荐",
"descSummary" : "",
"url" : "http:\/\/go.rss.sina.com.cn\/redirect.php?url=http:\/\/games.sina.com.cn\/xyz\/zt\/gqgame\/index.shtml",
"pubDate" : "2013年9月29日",
"enterDate" : "384187:33:32",
"channelId" : "-1581926368795018571",
"channelName" : "焦点新闻-新浪游戏",
"channelNameSummary" : "焦点新闻-新浪游戏",
"channelUrl" : "http:\/\/games.sina.com.cn",
"author" : "SINA.com",
"tags" : [],
"desc" : "",
"emailed" : False,
"forwarded" : False,
"english" : False
}  , {
"index" : 14,
"articleIndex" : "8975",
"favor" :  False ,
     "read" : False,    
"title" : "新游尾行:诛仙3",
"titleTip" : "新游尾行:诛仙3",
"titleSummary" : "新游尾行:诛仙3",
"descSummary" : "",
"url" : "http:\/\/go.rss.sina.com.cn\/redirect.php?url=http:\/\/games.sina.com.cn\/ng\/wzhuxian\/index.shtml",
"pubDate" : "2013年9月29日",
"enterDate" : "384183:42:34",
"channelId" : "-1581926368795018571",
"channelName" : "焦点新闻-新浪游戏",
"channelNameSummary" : "焦点新闻-新浪游戏",
"channelUrl" : "http:\/\/games.sina.com.cn",
"author" : "SINA.com",
"tags" : [],
"desc" : "",
"emailed" : False,
"forwarded" : False,
"english" : False
}  , {
"index" : 15,
"articleIndex" : "8974",
"favor" :  False ,
     "read" : False,    
"title" : "新游尾行:新天龙八部",
"titleTip" : "新游尾行:新天龙八部",
"titleSummary" : "新游尾行:新天龙八部",
"descSummary" : "",
"url" : "http:\/\/go.rss.sina.com.cn\/redirect.php?url=http:\/\/games.sina.com.cn\/ng\/wtianlong\/index.shtml",
"pubDate" : "2013年9月26日",
"enterDate" : "384200:45:44",
"channelId" : "-1581926368795018571",
"channelName" : "焦点新闻-新浪游戏",
"channelNameSummary" : "焦点新闻-新浪游戏",
"channelUrl" : "http:\/\/games.sina.com.cn",
"author" : "SINA.com",
"tags" : [],
"desc" : "",
"emailed" : False,
"forwarded" : False,
"english" : False
}  , {
"index" : 16,
"articleIndex" : "8973",
"favor" :  False ,
     "read" : False,    
"title" : "我爱游戏解说：QQ封神记",
"titleTip" : "我爱游戏解说：QQ封神记",
"titleSummary" : "我爱游戏解说：QQ封神记",
"descSummary" : "",
"url" : "http:\/\/go.rss.sina.com.cn\/redirect.php?url=http:\/\/games.sina.com.cn\/ng\/sqqfsj\/index.shtml",
"pubDate" : "2013年9月25日",
"enterDate" : "384188:05:35",
"channelId" : "-1581926368795018571",
"channelName" : "焦点新闻-新浪游戏",
"channelNameSummary" : "焦点新闻-新浪游戏",
"channelUrl" : "http:\/\/games.sina.com.cn",
"author" : "SINA.com",
"tags" : [],
"desc" : "",
"emailed" : False,
"forwarded" : False,
"english" : False
}  , {
"index" : 17,
"articleIndex" : "8972",
"favor" :  False ,
     "read" : False,    
"title" : "2013游戏代言：明星AV女优嫩模齐扎堆",
"titleTip" : "2013游戏代言：明星AV女优嫩模齐扎堆",
"titleSummary" : "2013游戏代言：明星AV女优嫩模齐扎堆",
"descSummary" : "",
"url" : "http:\/\/go.rss.sina.com.cn\/redirect.php?url=http:\/\/games.sina.com.cn\/xyz\/zt\/dy2013\/index.shtml",
"pubDate" : "2013年9月24日",
"enterDate" : "384201:12:59",
"channelId" : "-1581926368795018571",
"channelName" : "焦点新闻-新浪游戏",
"channelNameSummary" : "焦点新闻-新浪游戏",
"channelUrl" : "http:\/\/games.sina.com.cn",
"author" : "SINA.com",
"tags" : [],
"desc" : "",
"emailed" : False,
"forwarded" : False,
"english" : False
}  , {
"index" : 18,
"articleIndex" : "8971",
"favor" :  False ,
     "read" : False,    
"title" : "2013年9月测试新游全回顾",
"titleTip" : "2013年9月测试新游全回顾",
"titleSummary" : "2013年9月测试新游全回顾",
"descSummary" : "",
"url" : "http:\/\/go.rss.sina.com.cn\/redirect.php?url=http:\/\/games.sina.com.cn\/ng\/ch\/2013sep\/index.shtml",
"pubDate" : "2013年9月24日",
"enterDate" : "384201:12:02",
"channelId" : "-1581926368795018571",
"channelName" : "焦点新闻-新浪游戏",
"channelNameSummary" : "焦点新闻-新浪游戏",
"channelUrl" : "http:\/\/games.sina.com.cn",
"author" : "SINA.com",
"tags" : [],
"desc" : "",
"emailed" : False,
"forwarded" : False,
"english" : False
}  , {
"index" : 19,
"articleIndex" : "8970",
"favor" :  False ,
     "read" : False,    
"title" : "CGWR活动大事纪第8期 - TGS，领略东京游戏展上的网游",
"titleTip" : "CGWR活动大事纪第8期 - TGS，领略东京游戏展上的网游",
"titleSummary" : "CGWR活动大事纪第8期 - TGS，领略东京游戏展上的网游",
"descSummary" : "",
"url" : "http:\/\/go.rss.sina.com.cn\/redirect.php?url=http:\/\/games.sina.com.cn\/r\/cgwrevent8\/index.shtml",
"pubDate" : "2013年9月13日",
"enterDate" : "384074:35:28",
"channelId" : "-1581926368795018571",
"channelName" : "焦点新闻-新浪游戏",
"channelNameSummary" : "焦点新闻-新浪游戏",
"channelUrl" : "http:\/\/games.sina.com.cn",
"author" : "SINA.com",
"tags" : [],
"desc" : "",
"emailed" : False,
"forwarded" : False,
"english" : False
} ]
}
