{
"mode" : {"viewTitle" : 1,   "viewNew" : 0,  "pageIndex" : 2 },
 "channel" : {"id" : "-1581926368795018571", "booked" : False, "subNumber" : 454, "name" : "焦点新闻-新浪游戏", "url" : "http:\/\/games.sina.com.cn", "feed" : "http:\/\/rss.sina.com.cn\/news\/allnews\/games.xml", "author" : "SINA.com", "desc" : "新浪游戏焦点新闻", "imageUrl" : "http:\/\/www.sinaimg.cn\/home\/images\/sina_logo2.gif", "postPerWeek" : "0", "lastCrawTime" : "17:19:00", "crawDateTime" : "17:19:00", "lastHttpCode" : "200"}, "page" : {
"startIndex" : 20,
"totalCount" : 5000,
"pageIndex" : 2,
"lastPage" : 250,
"pageSize" : 20,
"english" :  False },
 "unreadNum" : 0, "shotIndex" : -1,
"articles" : [
{
"index" : 0,
"articleIndex" : "8969",
"favor" :  False ,
     "read" : False,    
"title" : "我爱游戏解说：激战2",
"titleTip" : "我爱游戏解说：激战2",
"titleSummary" : "我爱游戏解说：激战2",
"descSummary" : "",
"url" : "http:\/\/go.rss.sina.com.cn\/redirect.php?url=http:\/\/games.sina.com.cn\/ng\/sjz2\/index.shtml",
"pubDate" : "2013年9月18日",
"enterDate" : "384201:13:30",
"channelId" : "-1581926368795018571",
"channelName" : "焦点新闻-新浪游戏",
"channelNameSummary" : "焦点新闻-新浪游戏",
"channelUrl" : "http:\/\/games.sina.com.cn",
"author" : "SINA.com",
"tags" : [],
"desc" : "",
"emailed" : False,
"forwarded" : False,
"english" : False
}  , {
"index" : 1,
"articleIndex" : "8968",
"favor" :  False ,
     "read" : False,    
"title" : "一周测试新网游2013.09.23-09.29",
"titleTip" : "一周测试新网游2013.09.23-09.29",
"titleSummary" : "一周测试新网游2013.09.23-09.29",
"descSummary" : "",
"url" : "http:\/\/go.rss.sina.com.cn\/redirect.php?url=http:\/\/games.sina.com.cn\/ng\/ch\/130923\/index.shtml",
"pubDate" : "2013年9月18日",
"enterDate" : "384200:52:39",
"channelId" : "-1581926368795018571",
"channelName" : "焦点新闻-新浪游戏",
"channelNameSummary" : "焦点新闻-新浪游戏",
"channelUrl" : "http:\/\/games.sina.com.cn",
"author" : "SINA.com",
"tags" : [],
"desc" : "",
"emailed" : False,
"forwarded" : False,
"english" : False
}  , {
"index" : 2,
"articleIndex" : "8967",
"favor" :  False ,
     "read" : False,    
"title" : "我爱游戏解说：大唐2",
"titleTip" : "我爱游戏解说：大唐2",
"titleSummary" : "我爱游戏解说：大唐2",
"descSummary" : "",
"url" : "http:\/\/go.rss.sina.com.cn\/redirect.php?url=http:\/\/games.sina.com.cn\/ng\/sdt2\/index.shtml",
"pubDate" : "2013年9月18日",
"enterDate" : "384200:54:10",
"channelId" : "-1581926368795018571",
"channelName" : "焦点新闻-新浪游戏",
"channelNameSummary" : "焦点新闻-新浪游戏",
"channelUrl" : "http:\/\/games.sina.com.cn",
"author" : "SINA.com",
"tags" : [],
"desc" : "",
"emailed" : False,
"forwarded" : False,
"english" : False
}  , {
"index" : 3,
"articleIndex" : "8966",
"favor" :  False ,
     "read" : False,    
"title" : "一周测试新网游2013.09.16-09.22",
"titleTip" : "一周测试新网游2013.09.16-09.22",
"titleSummary" : "一周测试新网游2013.09.16-09.22",
"descSummary" : "",
"url" : "http:\/\/go.rss.sina.com.cn\/redirect.php?url=http:\/\/games.sina.com.cn\/ng\/ch\/130916\/index.shtml",
"pubDate" : "2013年9月13日",
"enterDate" : "384201:04:53",
"channelId" : "-1581926368795018571",
"channelName" : "焦点新闻-新浪游戏",
"channelNameSummary" : "焦点新闻-新浪游戏",
"channelUrl" : "http:\/\/games.sina.com.cn",
"author" : "SINA.com",
"tags" : [],
"desc" : "",
"emailed" : False,
"forwarded" : False,
"english" : False
}  , {
"index" : 4,
"articleIndex" : "8965",
"favor" :  False ,
     "read" : False,    
"title" : "我爱游戏解说：FIFA Online 3",
"titleTip" : "我爱游戏解说：FIFA Online 3",
"titleSummary" : "我爱游戏解说：FIFA Online 3",
"descSummary" : "",
"url" : "http:\/\/go.rss.sina.com.cn\/redirect.php?url=http:\/\/games.sina.com.cn\/ng\/sfifa3\/index.shtml",
"pubDate" : "2013年9月11日",
"enterDate" : "384200:47:36",
"channelId" : "-1581926368795018571",
"channelName" : "焦点新闻-新浪游戏",
"channelNameSummary" : "焦点新闻-新浪游戏",
"channelUrl" : "http:\/\/games.sina.com.cn",
"author" : "SINA.com",
"tags" : [],
"desc" : "",
"emailed" : False,
"forwarded" : False,
"english" : False
}  , {
"index" : 5,
"articleIndex" : "8964",
"favor" :  False ,
     "read" : False,    
"title" : "非理勿言004：LOL和DOTA2",
"titleTip" : "非理勿言004：LOL和DOTA2",
"titleSummary" : "非理勿言004：LOL和DOTA2",
"descSummary" : "",
"url" : "http:\/\/go.rss.sina.com.cn\/redirect.php?url=http:\/\/games.sina.com.cn\/g\/zt\/talk004\/index.shtml",
"pubDate" : "2013年9月10日",
"enterDate" : "384178:46:19",
"channelId" : "-1581926368795018571",
"channelName" : "焦点新闻-新浪游戏",
"channelNameSummary" : "焦点新闻-新浪游戏",
"channelUrl" : "http:\/\/games.sina.com.cn",
"author" : "SINA.com",
"tags" : [],
"desc" : "",
"emailed" : False,
"forwarded" : False,
"english" : False
}  , {
"index" : 6,
"articleIndex" : "8963",
"favor" :  False ,
     "read" : False,    
"title" : "一周测试新网游2013.09.09-09.15",
"titleTip" : "一周测试新网游2013.09.09-09.15",
"titleSummary" : "一周测试新网游2013.09.09-09.15",
"descSummary" : "",
"url" : "http:\/\/go.rss.sina.com.cn\/redirect.php?url=http:\/\/games.sina.com.cn\/ng\/ch\/130909\/index.shtml",
"pubDate" : "2013年9月6日",
"enterDate" : "384201:08:55",
"channelId" : "-1581926368795018571",
"channelName" : "焦点新闻-新浪游戏",
"channelNameSummary" : "焦点新闻-新浪游戏",
"channelUrl" : "http:\/\/games.sina.com.cn",
"author" : "SINA.com",
"tags" : [],
"desc" : "",
"emailed" : False,
"forwarded" : False,
"english" : False
}  , {
"index" : 7,
"articleIndex" : "8962",
"favor" :  False ,
     "read" : False,    
"title" : "我爱游戏解说：御天降魔传",
"titleTip" : "我爱游戏解说：御天降魔传",
"titleSummary" : "我爱游戏解说：御天降魔传",
"descSummary" : "",
"url" : "http:\/\/go.rss.sina.com.cn\/redirect.php?url=http:\/\/games.sina.com.cn\/ng\/sytxmz\/index.shtml",
"pubDate" : "2013年9月6日",
"enterDate" : "384200:57:35",
"channelId" : "-1581926368795018571",
"channelName" : "焦点新闻-新浪游戏",
"channelNameSummary" : "焦点新闻-新浪游戏",
"channelUrl" : "http:\/\/games.sina.com.cn",
"author" : "SINA.com",
"tags" : [],
"desc" : "",
"emailed" : False,
"forwarded" : False,
"english" : False
}  , {
"index" : 8,
"articleIndex" : "8961",
"favor" :  False ,
     "read" : False,    
"title" : "英雄联盟2周年盛典",
"titleTip" : "英雄联盟2周年盛典",
"titleSummary" : "英雄联盟2周年盛典",
"descSummary" : "",
"url" : "http:\/\/go.rss.sina.com.cn\/redirect.php?url=http:\/\/games.sina.com.cn\/xyz\/zt\/lolznq\/index.shtml",
"pubDate" : "2013年9月6日",
"enterDate" : "384201:09:31",
"channelId" : "-1581926368795018571",
"channelName" : "焦点新闻-新浪游戏",
"channelNameSummary" : "焦点新闻-新浪游戏",
"channelUrl" : "http:\/\/games.sina.com.cn",
"author" : "SINA.com",
"tags" : [],
"desc" : "",
"emailed" : False,
"forwarded" : False,
"english" : False
}  , {
"index" : 9,
"articleIndex" : "8960",
"favor" :  False ,
     "read" : False,    
"title" : "我爱游戏解说：蜡笔小新",
"titleTip" : "我爱游戏解说：蜡笔小新",
"titleSummary" : "我爱游戏解说：蜡笔小新",
"descSummary" : "",
"url" : "http:\/\/go.rss.sina.com.cn\/redirect.php?url=http:\/\/games.sina.com.cn\/ng\/slbxx\/index.shtml",
"pubDate" : "2013年9月5日",
"enterDate" : "384200:56:42",
"channelId" : "-1581926368795018571",
"channelName" : "焦点新闻-新浪游戏",
"channelNameSummary" : "焦点新闻-新浪游戏",
"channelUrl" : "http:\/\/games.sina.com.cn",
"author" : "SINA.com",
"tags" : [],
"desc" : "",
"emailed" : False,
"forwarded" : False,
"english" : False
}  , {
"index" : 10,
"articleIndex" : "8958",
"favor" :  False ,
     "read" : False,    
"title" : "我爱游戏解说：霸三国",
"titleTip" : "我爱游戏解说：霸三国",
"titleSummary" : "我爱游戏解说：霸三国",
"descSummary" : "",
"url" : "http:\/\/go.rss.sina.com.cn\/redirect.php?url=http:\/\/games.sina.com.cn\/ng\/sbsg\/index.shtml",
"pubDate" : "2013年9月3日",
"enterDate" : "384201:02:25",
"channelId" : "-1581926368795018571",
"channelName" : "焦点新闻-新浪游戏",
"channelNameSummary" : "焦点新闻-新浪游戏",
"channelUrl" : "http:\/\/games.sina.com.cn",
"author" : "SINA.com",
"tags" : [],
"desc" : "",
"emailed" : False,
"forwarded" : False,
"english" : False
}  , {
"index" : 11,
"articleIndex" : "8959",
"favor" :  False ,
     "read" : False,    
"title" : "不能啪啪啪的原因",
"titleTip" : "不能啪啪啪的原因",
"titleSummary" : "不能啪啪啪的原因",
"descSummary" : "",
"url" : "http:\/\/go.rss.sina.com.cn\/redirect.php?url=http:\/\/games.sina.com.cn\/g\/zt\/nmirc005\/index.shtml",
"pubDate" : "2013年9月3日",
"enterDate" : "384199:46:09",
"channelId" : "-1581926368795018571",
"channelName" : "焦点新闻-新浪游戏",
"channelNameSummary" : "焦点新闻-新浪游戏",
"channelUrl" : "http:\/\/games.sina.com.cn",
"author" : "SINA.com",
"tags" : [],
"desc" : "",
"emailed" : False,
"forwarded" : False,
"english" : False
}  , {
"index" : 12,
"articleIndex" : "8957",
"favor" :  False ,
     "read" : False,    
"title" : "拯救大战？面包计划能否推动电竞发展",
"titleTip" : "拯救大战？面包计划能否推动电竞发展",
"titleSummary" : "拯救大战？面包计划能否推动电竞发展",
"descSummary" : "",
"url" : "http:\/\/go.rss.sina.com.cn\/redirect.php?url=http:\/\/games.sina.com.cn\/xyz\/zt\/mbjh\/index.shtml",
"pubDate" : "2013年8月30日",
"enterDate" : "384200:55:00",
"channelId" : "-1581926368795018571",
"channelName" : "焦点新闻-新浪游戏",
"channelNameSummary" : "焦点新闻-新浪游戏",
"channelUrl" : "http:\/\/games.sina.com.cn",
"author" : "SINA.com",
"tags" : [],
"desc" : "",
"emailed" : False,
"forwarded" : False,
"english" : False
}  , {
"index" : 13,
"articleIndex" : "8956",
"favor" :  False ,
     "read" : False,    
"title" : "一周测试新网游2013.09.02-09.08",
"titleTip" : "一周测试新网游2013.09.02-09.08",
"titleSummary" : "一周测试新网游2013.09.02-09.08",
"descSummary" : "",
"url" : "http:\/\/go.rss.sina.com.cn\/redirect.php?url=http:\/\/games.sina.com.cn\/ng\/ch\/130902\/index.shtml",
"pubDate" : "2013年8月30日",
"enterDate" : "384201:02:33",
"channelId" : "-1581926368795018571",
"channelName" : "焦点新闻-新浪游戏",
"channelNameSummary" : "焦点新闻-新浪游戏",
"channelUrl" : "http:\/\/games.sina.com.cn",
"author" : "SINA.com",
"tags" : [],
"desc" : "",
"emailed" : False,
"forwarded" : False,
"english" : False
}  , {
"index" : 14,
"articleIndex" : "8955",
"favor" :  False ,
     "read" : False,    
"title" : "我爱游戏解说：灵魂战神",
"titleTip" : "我爱游戏解说：灵魂战神",
"titleSummary" : "我爱游戏解说：灵魂战神",
"descSummary" : "",
"url" : "http:\/\/go.rss.sina.com.cn\/redirect.php?url=http:\/\/games.sina.com.cn\/ng\/slhzs\/index.shtml",
"pubDate" : "2013年8月28日",
"enterDate" : "384200:49:43",
"channelId" : "-1581926368795018571",
"channelName" : "焦点新闻-新浪游戏",
"channelNameSummary" : "焦点新闻-新浪游戏",
"channelUrl" : "http:\/\/games.sina.com.cn",
"author" : "SINA.com",
"tags" : [],
"desc" : "",
"emailed" : False,
"forwarded" : False,
"english" : False
}  , {
"index" : 15,
"articleIndex" : "8954",
"favor" :  False ,
     "read" : False,    
"title" : "2013年8月测试新游全回顾",
"titleTip" : "2013年8月测试新游全回顾",
"titleSummary" : "2013年8月测试新游全回顾",
"descSummary" : "",
"url" : "http:\/\/go.rss.sina.com.cn\/redirect.php?url=http:\/\/games.sina.com.cn\/zt\/2013aug\/index.shtml",
"pubDate" : "2013年8月28日",
"enterDate" : "384200:49:05",
"channelId" : "-1581926368795018571",
"channelName" : "焦点新闻-新浪游戏",
"channelNameSummary" : "焦点新闻-新浪游戏",
"channelUrl" : "http:\/\/games.sina.com.cn",
"author" : "SINA.com",
"tags" : [],
"desc" : "",
"emailed" : False,
"forwarded" : False,
"english" : False
}  , {
"index" : 16,
"articleIndex" : "8953",
"favor" :  False ,
     "read" : False,    
"title" : "我爱游戏解说：炉石传说",
"titleTip" : "我爱游戏解说：炉石传说",
"titleSummary" : "我爱游戏解说：炉石传说",
"descSummary" : "",
"url" : "http:\/\/go.rss.sina.com.cn\/redirect.php?url=http:\/\/games.sina.com.cn\/ng\/slscs\/index.shtml",
"pubDate" : "2013年8月27日",
"enterDate" : "384201:08:24",
"channelId" : "-1581926368795018571",
"channelName" : "焦点新闻-新浪游戏",
"channelNameSummary" : "焦点新闻-新浪游戏",
"channelUrl" : "http:\/\/games.sina.com.cn",
"author" : "SINA.com",
"tags" : [],
"desc" : "",
"emailed" : False,
"forwarded" : False,
"english" : False
}  , {
"index" : 17,
"articleIndex" : "8952",
"favor" :  False ,
     "read" : False,    
"title" : "一周测试新网游2013.08.26-09.01",
"titleTip" : "一周测试新网游2013.08.26-09.01",
"titleSummary" : "一周测试新网游2013.08.26-09.01",
"descSummary" : "",
"url" : "http:\/\/go.rss.sina.com.cn\/redirect.php?url=http:\/\/games.sina.com.cn\/ng\/ch\/130826\/index.shtml",
"pubDate" : "2013年8月23日",
"enterDate" : "384200:48:05",
"channelId" : "-1581926368795018571",
"channelName" : "焦点新闻-新浪游戏",
"channelNameSummary" : "焦点新闻-新浪游戏",
"channelUrl" : "http:\/\/games.sina.com.cn",
"author" : "SINA.com",
"tags" : [],
"desc" : "",
"emailed" : False,
"forwarded" : False,
"english" : False
}  , {
"index" : 18,
"articleIndex" : "8951",
"favor" :  False ,
     "read" : False,    
"title" : "新游尾行：达芬奇",
"titleTip" : "新游尾行：达芬奇",
"titleSummary" : "新游尾行：达芬奇",
"descSummary" : "",
"url" : "http:\/\/go.rss.sina.com.cn\/redirect.php?url=http:\/\/games.sina.com.cn\/ng\/wdfq\/index.shtml",
"pubDate" : "2013年8月23日",
"enterDate" : "384200:46:49",
"channelId" : "-1581926368795018571",
"channelName" : "焦点新闻-新浪游戏",
"channelNameSummary" : "焦点新闻-新浪游戏",
"channelUrl" : "http:\/\/games.sina.com.cn",
"author" : "SINA.com",
"tags" : [],
"desc" : "",
"emailed" : False,
"forwarded" : False,
"english" : False
}  , {
"index" : 19,
"articleIndex" : "8950",
"favor" :  False ,
     "read" : False,    
"title" : "我爱游戏解说：刀剑2",
"titleTip" : "我爱游戏解说：刀剑2",
"titleSummary" : "我爱游戏解说：刀剑2",
"descSummary" : "",
"url" : "http:\/\/go.rss.sina.com.cn\/redirect.php?url=http:\/\/games.sina.com.cn\/ng\/sdj2\/index.shtml",
"pubDate" : "2013年8月23日",
"enterDate" : "384200:56:38",
"channelId" : "-1581926368795018571",
"channelName" : "焦点新闻-新浪游戏",
"channelNameSummary" : "焦点新闻-新浪游戏",
"channelUrl" : "http:\/\/games.sina.com.cn",
"author" : "SINA.com",
"tags" : [],
"desc" : "",
"emailed" : False,
"forwarded" : False,
"english" : False
} ]
}
