{
"mode" : {"viewTitle" : 1,   "viewNew" : 0,  "pageIndex" : 1 },
 "channel" : {"id" : "-7125455889050626397", "booked" : False, "subNumber" : 1, "name" : "新闻视频-新浪视频", "url" : "http:\/\/video.sina.com.cn\/news\/", "feed" : "http:\/\/rss.sina.com.cn\/bn\/news.xml", "author" : "WWW.SINA.COM.CN", "desc" : "新闻视频列表", "imageUrl" : "http:\/\/i2.sinaimg.cn\/home\/deco\/2009\/0330\/con_logo_video.gif", "postPerWeek" : "0", "lastCrawTime" : "17:17:01", "crawDateTime" : "17:17:01", "lastHttpCode" : "200"}, "page" : {
"startIndex" : 0,
"totalCount" : 5000,
"pageIndex" : 1,
"lastPage" : 250,
"pageSize" : 20,
"english" :  False },
 "unreadNum" : 0, "shotIndex" : -1,
"articles" : [
{
"index" : 0,
"articleIndex" : "348831",
"favor" :  False ,
     "read" : False,    
"title" : "《新闻直播间》 康科迪亚号事故调查",
"titleTip" : "《新闻直播间》 康科迪亚号事故调查",
"titleSummary" : "《新闻直播间》 康科迪亚号事故调查",
"descSummary" : "",
"url" : "http:\/\/go.rss.sina.com.cn\/redirect.php?url=http:\/\/video.sina.com.cn\/p\/news\/v\/2013-10-30\/171263084041.html",
"pubDate" : "17:12:34",
"enterDate" : "384201:15:18",
"channelId" : "-7125455889050626397",
"channelName" : "新闻视频-新浪视频",
"channelNameSummary" : "新闻视频-新浪视频",
"channelUrl" : "http:\/\/video.sina.com.cn\/news\/",
"author" : "WWW.SINA.COM.CN",
"tags" : [],
"desc" : "",
"emailed" : False,
"forwarded" : False,
"english" : False
}  , {
"index" : 1,
"articleIndex" : "348832",
"favor" :  False ,
     "read" : False,    
"title" : "《新闻直播间》 祖孙三代人的衣橱记忆",
"titleTip" : "《新闻直播间》 祖孙三代人的衣橱记忆",
"titleSummary" : "《新闻直播间》 祖孙三代人的衣橱记忆",
"descSummary" : "",
"url" : "http:\/\/go.rss.sina.com.cn\/redirect.php?url=http:\/\/video.sina.com.cn\/p\/news\/v\/2013-10-30\/171263084039.html",
"pubDate" : "17:12:34",
"enterDate" : "384201:15:18",
"channelId" : "-7125455889050626397",
"channelName" : "新闻视频-新浪视频",
"channelNameSummary" : "新闻视频-新浪视频",
"channelUrl" : "http:\/\/video.sina.com.cn\/news\/",
"author" : "WWW.SINA.COM.CN",
"tags" : [],
"desc" : "",
"emailed" : False,
"forwarded" : False,
"english" : False
}  , {
"index" : 2,
"articleIndex" : "348828",
"favor" :  False ,
     "read" : False,    
"title" : "《新闻直播间》 荷兰强风吹倒大树一名路人险被砸",
"titleTip" : "《新闻直播间》 荷兰强风吹倒大树一名路人险被砸",
"titleSummary" : "《新闻直播间》 荷兰强风吹倒大树一名路人险被砸",
"descSummary" : "",
"url" : "http:\/\/go.rss.sina.com.cn\/redirect.php?url=http:\/\/video.sina.com.cn\/p\/news\/v\/2013-10-30\/171263084037.html",
"pubDate" : "17:12:33",
"enterDate" : "384201:15:17",
"channelId" : "-7125455889050626397",
"channelName" : "新闻视频-新浪视频",
"channelNameSummary" : "新闻视频-新浪视频",
"channelUrl" : "http:\/\/video.sina.com.cn\/news\/",
"author" : "WWW.SINA.COM.CN",
"tags" : [],
"desc" : "",
"emailed" : False,
"forwarded" : False,
"english" : False
}  , {
"index" : 3,
"articleIndex" : "348829",
"favor" :  False ,
     "read" : False,    
"title" : "《中国新闻》 辽宁籍渔船与韩籍轮船碰撞沉没",
"titleTip" : "《中国新闻》 辽宁籍渔船与韩籍轮船碰撞沉没",
"titleSummary" : "《中国新闻》 辽宁籍渔船与韩籍轮船碰撞沉没",
"descSummary" : "",
"url" : "http:\/\/go.rss.sina.com.cn\/redirect.php?url=http:\/\/video.sina.com.cn\/p\/news\/v\/2013-10-30\/171263084035.html",
"pubDate" : "17:12:33",
"enterDate" : "384201:15:17",
"channelId" : "-7125455889050626397",
"channelName" : "新闻视频-新浪视频",
"channelNameSummary" : "新闻视频-新浪视频",
"channelUrl" : "http:\/\/video.sina.com.cn\/news\/",
"author" : "WWW.SINA.COM.CN",
"tags" : [],
"desc" : "",
"emailed" : False,
"forwarded" : False,
"english" : False
}  , {
"index" : 4,
"articleIndex" : "348830",
"favor" :  False ,
     "read" : False,    
"title" : "《新闻直播间》 难忍噪音大妈跳广场舞被泼粪",
"titleTip" : "《新闻直播间》 难忍噪音大妈跳广场舞被泼粪",
"titleSummary" : "《新闻直播间》 难忍噪音大妈跳广场舞被泼粪",
"descSummary" : "",
"url" : "http:\/\/go.rss.sina.com.cn\/redirect.php?url=http:\/\/video.sina.com.cn\/p\/news\/v\/2013-10-30\/171263084033.html",
"pubDate" : "17:12:33",
"enterDate" : "384201:15:17",
"channelId" : "-7125455889050626397",
"channelName" : "新闻视频-新浪视频",
"channelNameSummary" : "新闻视频-新浪视频",
"channelUrl" : "http:\/\/video.sina.com.cn\/news\/",
"author" : "WWW.SINA.COM.CN",
"tags" : [],
"desc" : "",
"emailed" : False,
"forwarded" : False,
"english" : False
}  , {
"index" : 5,
"articleIndex" : "348825",
"favor" :  False ,
     "read" : False,    
"title" : "《新闻直播间》 未来三天我国中东部有降水",
"titleTip" : "《新闻直播间》 未来三天我国中东部有降水",
"titleSummary" : "《新闻直播间》 未来三天我国中东部有降水",
"descSummary" : "",
"url" : "http:\/\/go.rss.sina.com.cn\/redirect.php?url=http:\/\/video.sina.com.cn\/p\/news\/v\/2013-10-30\/171263084031.html",
"pubDate" : "17:12:32",
"enterDate" : "384201:15:16",
"channelId" : "-7125455889050626397",
"channelName" : "新闻视频-新浪视频",
"channelNameSummary" : "新闻视频-新浪视频",
"channelUrl" : "http:\/\/video.sina.com.cn\/news\/",
"author" : "WWW.SINA.COM.CN",
"tags" : [],
"desc" : "",
"emailed" : False,
"forwarded" : False,
"english" : False
}  , {
"index" : 6,
"articleIndex" : "348826",
"favor" :  False ,
     "read" : False,    
"title" : "《新闻直播间》 本台曝光多美滋贿赂事件",
"titleTip" : "《新闻直播间》 本台曝光多美滋贿赂事件",
"titleSummary" : "《新闻直播间》 本台曝光多美滋贿赂事件",
"descSummary" : "",
"url" : "http:\/\/go.rss.sina.com.cn\/redirect.php?url=http:\/\/video.sina.com.cn\/p\/news\/v\/2013-10-30\/171263084029.html",
"pubDate" : "17:12:32",
"enterDate" : "384201:15:16",
"channelId" : "-7125455889050626397",
"channelName" : "新闻视频-新浪视频",
"channelNameSummary" : "新闻视频-新浪视频",
"channelUrl" : "http:\/\/video.sina.com.cn\/news\/",
"author" : "WWW.SINA.COM.CN",
"tags" : [],
"desc" : "",
"emailed" : False,
"forwarded" : False,
"english" : False
}  , {
"index" : 7,
"articleIndex" : "348827",
"favor" :  False ,
     "read" : False,    
"title" : "《新闻直播间》 英国维珍航空公司创始人将迁出英国",
"titleTip" : "《新闻直播间》 英国维珍航空公司创始人将迁出英国",
"titleSummary" : "《新闻直播间》 英国维珍航空公司创始人将迁出英国",
"descSummary" : "",
"url" : "http:\/\/go.rss.sina.com.cn\/redirect.php?url=http:\/\/video.sina.com.cn\/p\/news\/v\/2013-10-30\/171263084027.html",
"pubDate" : "17:12:32",
"enterDate" : "384201:15:16",
"channelId" : "-7125455889050626397",
"channelName" : "新闻视频-新浪视频",
"channelNameSummary" : "新闻视频-新浪视频",
"channelUrl" : "http:\/\/video.sina.com.cn\/news\/",
"author" : "WWW.SINA.COM.CN",
"tags" : [],
"desc" : "",
"emailed" : False,
"forwarded" : False,
"english" : False
}  , {
"index" : 8,
"articleIndex" : "348824",
"favor" :  False ,
     "read" : False,    
"title" : "《新闻直播间》 台湾问题食用油追踪",
"titleTip" : "《新闻直播间》 台湾问题食用油追踪",
"titleSummary" : "《新闻直播间》 台湾问题食用油追踪",
"descSummary" : "",
"url" : "http:\/\/go.rss.sina.com.cn\/redirect.php?url=http:\/\/video.sina.com.cn\/p\/news\/v\/2013-10-30\/170763084023.html",
"pubDate" : "17:07:33",
"enterDate" : "384201:10:17",
"channelId" : "-7125455889050626397",
"channelName" : "新闻视频-新浪视频",
"channelNameSummary" : "新闻视频-新浪视频",
"channelUrl" : "http:\/\/video.sina.com.cn\/news\/",
"author" : "WWW.SINA.COM.CN",
"tags" : [],
"desc" : "",
"emailed" : False,
"forwarded" : False,
"english" : False
}  , {
"index" : 9,
"articleIndex" : "348822",
"favor" :  False ,
     "read" : False,    
"title" : "《新闻直播间》 四川盘江大桥垮塌事故",
"titleTip" : "《新闻直播间》 四川盘江大桥垮塌事故",
"titleSummary" : "《新闻直播间》 四川盘江大桥垮塌事故",
"descSummary" : "",
"url" : "http:\/\/go.rss.sina.com.cn\/redirect.php?url=http:\/\/video.sina.com.cn\/p\/news\/v\/2013-10-30\/170763084021.html",
"pubDate" : "17:07:32",
"enterDate" : "384201:10:16",
"channelId" : "-7125455889050626397",
"channelName" : "新闻视频-新浪视频",
"channelNameSummary" : "新闻视频-新浪视频",
"channelUrl" : "http:\/\/video.sina.com.cn\/news\/",
"author" : "WWW.SINA.COM.CN",
"tags" : [],
"desc" : "",
"emailed" : False,
"forwarded" : False,
"english" : False
}  , {
"index" : 10,
"articleIndex" : "348823",
"favor" :  False ,
     "read" : False,    
"title" : "韩选出独岛小姐宣示主权",
"titleTip" : "韩选出独岛小姐宣示主权",
"titleSummary" : "韩选出独岛小姐宣示主权",
"descSummary" : "",
"url" : "http:\/\/go.rss.sina.com.cn\/redirect.php?url=http:\/\/video.sina.com.cn\/p\/news\/v\/2013-10-30\/170763084019.html",
"pubDate" : "17:07:32",
"enterDate" : "384201:10:16",
"channelId" : "-7125455889050626397",
"channelName" : "新闻视频-新浪视频",
"channelNameSummary" : "新闻视频-新浪视频",
"channelUrl" : "http:\/\/video.sina.com.cn\/news\/",
"author" : "WWW.SINA.COM.CN",
"tags" : [],
"desc" : "",
"emailed" : False,
"forwarded" : False,
"english" : False
}  , {
"index" : 11,
"articleIndex" : "348821",
"favor" :  False ,
     "read" : False,    
"title" : "视频:大校称无人机若被击落 将打掉肇事日机",
"titleTip" : "视频:大校称无人机若被击落 将打掉肇事日机",
"titleSummary" : "视频:大校称无人机若被击落 将打掉肇事日机",
"descSummary" : "",
"url" : "http:\/\/go.rss.sina.com.cn\/redirect.php?url=http:\/\/video.sina.com.cn\/p\/news\/mil\/v\/2013-10-30\/165563084013.html",
"pubDate" : "16:55:53",
"enterDate" : "384200:58:37",
"channelId" : "-7125455889050626397",
"channelName" : "新闻视频-新浪视频",
"channelNameSummary" : "新闻视频-新浪视频",
"channelUrl" : "http:\/\/video.sina.com.cn\/news\/",
"author" : "WWW.SINA.COM.CN",
"tags" : [],
"desc" : "",
"emailed" : False,
"forwarded" : False,
"english" : False
}  , {
"index" : 12,
"articleIndex" : "348820",
"favor" :  False ,
     "read" : False,    
"title" : "视频:墨西哥警察路边与女子激情野战视频遭疯传",
"titleTip" : "视频:墨西哥警察路边与女子激情野战视频遭疯传",
"titleSummary" : "视频:墨西哥警察路边与女子激情野战视频遭疯传",
"descSummary" : "",
"url" : "http:\/\/go.rss.sina.com.cn\/redirect.php?url=http:\/\/video.sina.com.cn\/p\/news\/w\/v\/2013-10-30\/164463084009.html",
"pubDate" : "16:44:48",
"enterDate" : "384200:47:32",
"channelId" : "-7125455889050626397",
"channelName" : "新闻视频-新浪视频",
"channelNameSummary" : "新闻视频-新浪视频",
"channelUrl" : "http:\/\/video.sina.com.cn\/news\/",
"author" : "WWW.SINA.COM.CN",
"tags" : [],
"desc" : "",
"emailed" : False,
"forwarded" : False,
"english" : False
}  , {
"index" : 13,
"articleIndex" : "348819",
"favor" :  False ,
     "read" : False,    
"title" : "视频：男子多次抢劫强奸 称妻子生产缺钱",
"titleTip" : "视频：男子多次抢劫强奸 称妻子生产缺钱",
"titleSummary" : "视频：男子多次抢劫强奸 称妻子生产缺钱",
"descSummary" : "",
"url" : "http:\/\/go.rss.sina.com.cn\/redirect.php?url=http:\/\/video.sina.com.cn\/p\/news\/s\/v\/2013-10-30\/164263084007.html",
"pubDate" : "16:42:49",
"enterDate" : "384201:15:38",
"channelId" : "-7125455889050626397",
"channelName" : "新闻视频-新浪视频",
"channelNameSummary" : "新闻视频-新浪视频",
"channelUrl" : "http:\/\/video.sina.com.cn\/news\/",
"author" : "WWW.SINA.COM.CN",
"tags" : [],
"desc" : "",
"emailed" : False,
"forwarded" : False,
"english" : False
}  , {
"index" : 14,
"articleIndex" : "348818",
"favor" :  False ,
     "read" : False,    
"title" : "墨西哥警察路边与女子发生性关系",
"titleTip" : "墨西哥警察路边与女子发生性关系",
"titleSummary" : "墨西哥警察路边与女子发生性关系",
"descSummary" : "",
"url" : "http:\/\/go.rss.sina.com.cn\/redirect.php?url=http:\/\/video.sina.com.cn\/p\/news\/v\/2013-10-30\/164263084005.html",
"pubDate" : "16:42:32",
"enterDate" : "384201:15:21",
"channelId" : "-7125455889050626397",
"channelName" : "新闻视频-新浪视频",
"channelNameSummary" : "新闻视频-新浪视频",
"channelUrl" : "http:\/\/video.sina.com.cn\/news\/",
"author" : "WWW.SINA.COM.CN",
"tags" : [],
"desc" : "",
"emailed" : False,
"forwarded" : False,
"english" : False
}  , {
"index" : 15,
"articleIndex" : "348817",
"favor" :  False ,
     "read" : False,    
"title" : "视频：实拍南宁村民手持镰刀逼退拆违警察",
"titleTip" : "视频：实拍南宁村民手持镰刀逼退拆违警察",
"titleSummary" : "视频：实拍南宁村民手持镰刀逼退拆违警察",
"descSummary" : "",
"url" : "http:\/\/go.rss.sina.com.cn\/redirect.php?url=http:\/\/video.sina.com.cn\/p\/news\/c\/v\/2013-10-30\/164163084003.html",
"pubDate" : "16:41:45",
"enterDate" : "384201:14:34",
"channelId" : "-7125455889050626397",
"channelName" : "新闻视频-新浪视频",
"channelNameSummary" : "新闻视频-新浪视频",
"channelUrl" : "http:\/\/video.sina.com.cn\/news\/",
"author" : "WWW.SINA.COM.CN",
"tags" : [],
"desc" : "",
"emailed" : False,
"forwarded" : False,
"english" : False
}  , {
"index" : 16,
"articleIndex" : "348816",
"favor" :  False ,
     "read" : False,    
"title" : "视频：资料-林肯与肯尼迪遇刺不可思议的巧合",
"titleTip" : "视频：资料-林肯与肯尼迪遇刺不可思议的巧合",
"titleSummary" : "视频：资料-林肯与肯尼迪遇刺不可思议的巧合",
"descSummary" : "",
"url" : "http:\/\/go.rss.sina.com.cn\/redirect.php?url=http:\/\/video.sina.com.cn\/p\/news\/o\/v\/2013-10-30\/163963084001.html",
"pubDate" : "16:39:23",
"enterDate" : "384201:12:12",
"channelId" : "-7125455889050626397",
"channelName" : "新闻视频-新浪视频",
"channelNameSummary" : "新闻视频-新浪视频",
"channelUrl" : "http:\/\/video.sina.com.cn\/news\/",
"author" : "WWW.SINA.COM.CN",
"tags" : [],
"desc" : "",
"emailed" : False,
"forwarded" : False,
"english" : False
}  , {
"index" : 17,
"articleIndex" : "348815",
"favor" :  False ,
     "read" : False,    
"title" : "视频：实拍外国小伙用舌头画出Miley Cyrus",
"titleTip" : "视频：实拍外国小伙用舌头画出Miley Cyrus",
"titleSummary" : "视频：实拍外国小伙用舌头画出Miley Cyrus",
"descSummary" : "",
"url" : "http:\/\/go.rss.sina.com.cn\/redirect.php?url=http:\/\/video.sina.com.cn\/p\/news\/gaoxiao\/v\/2013-10-30\/163863083999.html",
"pubDate" : "16:38:56",
"enterDate" : "384201:11:45",
"channelId" : "-7125455889050626397",
"channelName" : "新闻视频-新浪视频",
"channelNameSummary" : "新闻视频-新浪视频",
"channelUrl" : "http:\/\/video.sina.com.cn\/news\/",
"author" : "WWW.SINA.COM.CN",
"tags" : [],
"desc" : "",
"emailed" : False,
"forwarded" : False,
"english" : False
}  , {
"index" : 18,
"articleIndex" : "348814",
"favor" :  False ,
     "read" : False,    
"title" : "南宁开枪\u201C拆违\u201D",
"titleTip" : "南宁开枪\u201C拆违\u201D",
"titleSummary" : "南宁开枪\u201C拆违\u201D",
"descSummary" : "",
"url" : "http:\/\/go.rss.sina.com.cn\/redirect.php?url=http:\/\/video.sina.com.cn\/p\/news\/v\/2013-10-30\/163763083997.html",
"pubDate" : "16:37:32",
"enterDate" : "384201:10:21",
"channelId" : "-7125455889050626397",
"channelName" : "新闻视频-新浪视频",
"channelNameSummary" : "新闻视频-新浪视频",
"channelUrl" : "http:\/\/video.sina.com.cn\/news\/",
"author" : "WWW.SINA.COM.CN",
"tags" : [],
"desc" : "",
"emailed" : False,
"forwarded" : False,
"english" : False
}  , {
"index" : 19,
"articleIndex" : "348813",
"favor" :  False ,
     "read" : False,    
"title" : "视频：美机构称朝鲜新建导弹发射平台",
"titleTip" : "视频：美机构称朝鲜新建导弹发射平台",
"titleSummary" : "视频：美机构称朝鲜新建导弹发射平台",
"descSummary" : "",
"url" : "http:\/\/go.rss.sina.com.cn\/redirect.php?url=http:\/\/video.sina.com.cn\/p\/news\/w\/v\/2013-10-30\/163163083993.html",
"pubDate" : "16:31:12",
"enterDate" : "384201:04:01",
"channelId" : "-7125455889050626397",
"channelName" : "新闻视频-新浪视频",
"channelNameSummary" : "新闻视频-新浪视频",
"channelUrl" : "http:\/\/video.sina.com.cn\/news\/",
"author" : "WWW.SINA.COM.CN",
"tags" : [],
"desc" : "",
"emailed" : False,
"forwarded" : False,
"english" : False
} ]
}
