{
"mode" : {"viewTitle" : 1,   "viewNew" : 0,  "pageIndex" : 2 },
 "channel" : {"id" : "-7125455889050626397", "booked" : False, "subNumber" : 1, "name" : "新闻视频-新浪视频", "url" : "http:\/\/video.sina.com.cn\/news\/", "feed" : "http:\/\/rss.sina.com.cn\/bn\/news.xml", "author" : "WWW.SINA.COM.CN", "desc" : "新闻视频列表", "imageUrl" : "http:\/\/i2.sinaimg.cn\/home\/deco\/2009\/0330\/con_logo_video.gif", "postPerWeek" : "0", "lastCrawTime" : "17:17:01", "crawDateTime" : "17:17:01", "lastHttpCode" : "200"}, "page" : {
"startIndex" : 20,
"totalCount" : 5000,
"pageIndex" : 2,
"lastPage" : 250,
"pageSize" : 20,
"english" :  False },
 "unreadNum" : 0, "shotIndex" : -1,
"articles" : [
{
"index" : 0,
"articleIndex" : "348810",
"favor" :  False ,
     "read" : False,    
"title" : "《新闻直播间》 《世界新闻报》窃听丑闻案",
"titleTip" : "《新闻直播间》 《世界新闻报》窃听丑闻案",
"titleSummary" : "《新闻直播间》 《世界新闻报》窃听丑闻案",
"descSummary" : "",
"url" : "http:\/\/go.rss.sina.com.cn\/redirect.php?url=http:\/\/video.sina.com.cn\/p\/news\/v\/2013-10-30\/162763083991.html",
"pubDate" : "16:27:33",
"enterDate" : "384201:00:23",
"channelId" : "-7125455889050626397",
"channelName" : "新闻视频-新浪视频",
"channelNameSummary" : "新闻视频-新浪视频",
"channelUrl" : "http:\/\/video.sina.com.cn\/news\/",
"author" : "WWW.SINA.COM.CN",
"tags" : [],
"desc" : "",
"emailed" : False,
"forwarded" : False,
"english" : False
}  , {
"index" : 1,
"articleIndex" : "348811",
"favor" :  False ,
     "read" : False,    
"title" : "《新闻直播间》 日本不断强化针对钓鱼岛军事部署",
"titleTip" : "《新闻直播间》 日本不断强化针对钓鱼岛军事部署",
"titleSummary" : "《新闻直播间》 日本不断强化针对钓鱼岛军事部署",
"descSummary" : "",
"url" : "http:\/\/go.rss.sina.com.cn\/redirect.php?url=http:\/\/video.sina.com.cn\/p\/news\/v\/2013-10-30\/162763083989.html",
"pubDate" : "16:27:33",
"enterDate" : "384201:00:23",
"channelId" : "-7125455889050626397",
"channelName" : "新闻视频-新浪视频",
"channelNameSummary" : "新闻视频-新浪视频",
"channelUrl" : "http:\/\/video.sina.com.cn\/news\/",
"author" : "WWW.SINA.COM.CN",
"tags" : [],
"desc" : "",
"emailed" : False,
"forwarded" : False,
"english" : False
}  , {
"index" : 2,
"articleIndex" : "348812",
"favor" :  False ,
     "read" : False,    
"title" : "《新闻直播间》 丑闻迭出英媒公信力遭质疑",
"titleTip" : "《新闻直播间》 丑闻迭出英媒公信力遭质疑",
"titleSummary" : "《新闻直播间》 丑闻迭出英媒公信力遭质疑",
"descSummary" : "",
"url" : "http:\/\/go.rss.sina.com.cn\/redirect.php?url=http:\/\/video.sina.com.cn\/p\/news\/v\/2013-10-30\/162763083987.html",
"pubDate" : "16:27:33",
"enterDate" : "384201:00:23",
"channelId" : "-7125455889050626397",
"channelName" : "新闻视频-新浪视频",
"channelNameSummary" : "新闻视频-新浪视频",
"channelUrl" : "http:\/\/video.sina.com.cn\/news\/",
"author" : "WWW.SINA.COM.CN",
"tags" : [],
"desc" : "",
"emailed" : False,
"forwarded" : False,
"english" : False
}  , {
"index" : 3,
"articleIndex" : "348809",
"favor" :  False ,
     "read" : False,    
"title" : "《新闻直播间》 日本防卫相鼓吹中国威胁论",
"titleTip" : "《新闻直播间》 日本防卫相鼓吹中国威胁论",
"titleSummary" : "《新闻直播间》 日本防卫相鼓吹中国威胁论",
"descSummary" : "",
"url" : "http:\/\/go.rss.sina.com.cn\/redirect.php?url=http:\/\/video.sina.com.cn\/p\/news\/v\/2013-10-30\/162763083985.html",
"pubDate" : "16:27:32",
"enterDate" : "384201:00:22",
"channelId" : "-7125455889050626397",
"channelName" : "新闻视频-新浪视频",
"channelNameSummary" : "新闻视频-新浪视频",
"channelUrl" : "http:\/\/video.sina.com.cn\/news\/",
"author" : "WWW.SINA.COM.CN",
"tags" : [],
"desc" : "",
"emailed" : False,
"forwarded" : False,
"english" : False
}  , {
"index" : 4,
"articleIndex" : "348808",
"favor" :  False ,
     "read" : False,    
"title" : "视频：18岁痴呆女遭强奸产子 一年后再度怀孕",
"titleTip" : "视频：18岁痴呆女遭强奸产子 一年后再度怀孕",
"titleSummary" : "视频：18岁痴呆女遭强奸产子 一年后再度怀孕",
"descSummary" : "",
"url" : "http:\/\/go.rss.sina.com.cn\/redirect.php?url=http:\/\/video.sina.com.cn\/p\/news\/s\/v\/2013-10-30\/162363083981.html",
"pubDate" : "16:23:54",
"enterDate" : "384200:56:44",
"channelId" : "-7125455889050626397",
"channelName" : "新闻视频-新浪视频",
"channelNameSummary" : "新闻视频-新浪视频",
"channelUrl" : "http:\/\/video.sina.com.cn\/news\/",
"author" : "WWW.SINA.COM.CN",
"tags" : [],
"desc" : "",
"emailed" : False,
"forwarded" : False,
"english" : False
}  , {
"index" : 5,
"articleIndex" : "348807",
"favor" :  False ,
     "read" : False,    
"title" : "《中国新闻》 一辽宁籍渔船与韩籍货轮碰撞沉没7人失踪",
"titleTip" : "《中国新闻》 一辽宁籍渔船与韩籍货轮碰撞沉没7人失踪",
"titleSummary" : "《中国新闻》 一辽宁籍渔船与韩籍货轮碰撞沉没7人失踪",
"descSummary" : "",
"url" : "http:\/\/go.rss.sina.com.cn\/redirect.php?url=http:\/\/video.sina.com.cn\/p\/news\/v\/2013-10-30\/161763083979.html",
"pubDate" : "16:17:34",
"enterDate" : "384200:50:24",
"channelId" : "-7125455889050626397",
"channelName" : "新闻视频-新浪视频",
"channelNameSummary" : "新闻视频-新浪视频",
"channelUrl" : "http:\/\/video.sina.com.cn\/news\/",
"author" : "WWW.SINA.COM.CN",
"tags" : [],
"desc" : "",
"emailed" : False,
"forwarded" : False,
"english" : False
}  , {
"index" : 6,
"articleIndex" : "348803",
"favor" :  False ,
     "read" : False,    
"title" : "《中国新闻》 俄罗斯一架卡32直升机坠毁",
"titleTip" : "《中国新闻》 俄罗斯一架卡32直升机坠毁",
"titleSummary" : "《中国新闻》 俄罗斯一架卡32直升机坠毁",
"descSummary" : "",
"url" : "http:\/\/go.rss.sina.com.cn\/redirect.php?url=http:\/\/video.sina.com.cn\/p\/news\/v\/2013-10-30\/161763083977.html",
"pubDate" : "16:17:33",
"enterDate" : "384200:50:23",
"channelId" : "-7125455889050626397",
"channelName" : "新闻视频-新浪视频",
"channelNameSummary" : "新闻视频-新浪视频",
"channelUrl" : "http:\/\/video.sina.com.cn\/news\/",
"author" : "WWW.SINA.COM.CN",
"tags" : [],
"desc" : "",
"emailed" : False,
"forwarded" : False,
"english" : False
}  , {
"index" : 7,
"articleIndex" : "348804",
"favor" :  False ,
     "read" : False,    
"title" : "《中国新闻》 肯尼亚警方将起诉5名参与西门购物中心袭击事件嫌疑人",
"titleTip" : "《中国新闻》 肯尼亚警方将起诉5名参与西门购物中心袭击事件嫌疑人",
"titleSummary" : "《中国新闻》 肯尼亚警方将起诉5名参与西门购物中心袭击事件嫌疑人",
"descSummary" : "",
"url" : "http:\/\/go.rss.sina.com.cn\/redirect.php?url=http:\/\/video.sina.com.cn\/p\/news\/v\/2013-10-30\/161763083975.html",
"pubDate" : "16:17:33",
"enterDate" : "384200:50:23",
"channelId" : "-7125455889050626397",
"channelName" : "新闻视频-新浪视频",
"channelNameSummary" : "新闻视频-新浪视频",
"channelUrl" : "http:\/\/video.sina.com.cn\/news\/",
"author" : "WWW.SINA.COM.CN",
"tags" : [],
"desc" : "",
"emailed" : False,
"forwarded" : False,
"english" : False
}  , {
"index" : 8,
"articleIndex" : "348805",
"favor" :  False ,
     "read" : False,    
"title" : "《中国新闻》 美国监听丑闻愈演愈烈",
"titleTip" : "《中国新闻》 美国监听丑闻愈演愈烈",
"titleSummary" : "《中国新闻》 美国监听丑闻愈演愈烈",
"descSummary" : "",
"url" : "http:\/\/go.rss.sina.com.cn\/redirect.php?url=http:\/\/video.sina.com.cn\/p\/news\/v\/2013-10-30\/161763083973.html",
"pubDate" : "16:17:33",
"enterDate" : "384200:50:23",
"channelId" : "-7125455889050626397",
"channelName" : "新闻视频-新浪视频",
"channelNameSummary" : "新闻视频-新浪视频",
"channelUrl" : "http:\/\/video.sina.com.cn\/news\/",
"author" : "WWW.SINA.COM.CN",
"tags" : [],
"desc" : "",
"emailed" : False,
"forwarded" : False,
"english" : False
}  , {
"index" : 9,
"articleIndex" : "348806",
"favor" :  False ,
     "read" : False,    
"title" : "《中国新闻》 2013年山东周两岸合作发展论坛开幕",
"titleTip" : "《中国新闻》 2013年山东周两岸合作发展论坛开幕",
"titleSummary" : "《中国新闻》 2013年山东周两岸合作发展论坛开幕",
"descSummary" : "",
"url" : "http:\/\/go.rss.sina.com.cn\/redirect.php?url=http:\/\/video.sina.com.cn\/p\/news\/v\/2013-10-30\/161763083971.html",
"pubDate" : "16:17:33",
"enterDate" : "384200:50:23",
"channelId" : "-7125455889050626397",
"channelName" : "新闻视频-新浪视频",
"channelNameSummary" : "新闻视频-新浪视频",
"channelUrl" : "http:\/\/video.sina.com.cn\/news\/",
"author" : "WWW.SINA.COM.CN",
"tags" : [],
"desc" : "",
"emailed" : False,
"forwarded" : False,
"english" : False
}  , {
"index" : 10,
"articleIndex" : "348799",
"favor" :  False ,
     "read" : False,    
"title" : "《中国新闻》 埃及穆兄会一名高级成员被捕",
"titleTip" : "《中国新闻》 埃及穆兄会一名高级成员被捕",
"titleSummary" : "《中国新闻》 埃及穆兄会一名高级成员被捕",
"descSummary" : "",
"url" : "http:\/\/go.rss.sina.com.cn\/redirect.php?url=http:\/\/video.sina.com.cn\/p\/news\/v\/2013-10-30\/161763083967.html",
"pubDate" : "16:17:32",
"enterDate" : "384200:50:22",
"channelId" : "-7125455889050626397",
"channelName" : "新闻视频-新浪视频",
"channelNameSummary" : "新闻视频-新浪视频",
"channelUrl" : "http:\/\/video.sina.com.cn\/news\/",
"author" : "WWW.SINA.COM.CN",
"tags" : [],
"desc" : "",
"emailed" : False,
"forwarded" : False,
"english" : False
}  , {
"index" : 11,
"articleIndex" : "348800",
"favor" :  False ,
     "read" : False,    
"title" : "《中国新闻》 印度南部一公交车起火40人死亡",
"titleTip" : "《中国新闻》 印度南部一公交车起火40人死亡",
"titleSummary" : "《中国新闻》 印度南部一公交车起火40人死亡",
"descSummary" : "",
"url" : "http:\/\/go.rss.sina.com.cn\/redirect.php?url=http:\/\/video.sina.com.cn\/p\/news\/v\/2013-10-30\/161763083965.html",
"pubDate" : "16:17:32",
"enterDate" : "384200:50:22",
"channelId" : "-7125455889050626397",
"channelName" : "新闻视频-新浪视频",
"channelNameSummary" : "新闻视频-新浪视频",
"channelUrl" : "http:\/\/video.sina.com.cn\/news\/",
"author" : "WWW.SINA.COM.CN",
"tags" : [],
"desc" : "",
"emailed" : False,
"forwarded" : False,
"english" : False
}  , {
"index" : 12,
"articleIndex" : "348801",
"favor" :  False ,
     "read" : False,    
"title" : "《中国新闻》 印度东北部一车站遭炸弹袭击3人死亡",
"titleTip" : "《中国新闻》 印度东北部一车站遭炸弹袭击3人死亡",
"titleSummary" : "《中国新闻》 印度东北部一车站遭炸弹袭击3人死亡",
"descSummary" : "",
"url" : "http:\/\/go.rss.sina.com.cn\/redirect.php?url=http:\/\/video.sina.com.cn\/p\/news\/v\/2013-10-30\/161763083963.html",
"pubDate" : "16:17:32",
"enterDate" : "384200:50:22",
"channelId" : "-7125455889050626397",
"channelName" : "新闻视频-新浪视频",
"channelNameSummary" : "新闻视频-新浪视频",
"channelUrl" : "http:\/\/video.sina.com.cn\/news\/",
"author" : "WWW.SINA.COM.CN",
"tags" : [],
"desc" : "",
"emailed" : False,
"forwarded" : False,
"english" : False
}  , {
"index" : 13,
"articleIndex" : "348802",
"favor" :  False ,
     "read" : False,    
"title" : "丈夫迷奸妻子",
"titleTip" : "丈夫迷奸妻子",
"titleSummary" : "丈夫迷奸妻子",
"descSummary" : "",
"url" : "http:\/\/go.rss.sina.com.cn\/redirect.php?url=http:\/\/video.sina.com.cn\/p\/news\/v\/2013-10-30\/161763083961.html",
"pubDate" : "16:17:32",
"enterDate" : "384200:50:22",
"channelId" : "-7125455889050626397",
"channelName" : "新闻视频-新浪视频",
"channelNameSummary" : "新闻视频-新浪视频",
"channelUrl" : "http:\/\/video.sina.com.cn\/news\/",
"author" : "WWW.SINA.COM.CN",
"tags" : [],
"desc" : "",
"emailed" : False,
"forwarded" : False,
"english" : False
}  , {
"index" : 14,
"articleIndex" : "348798",
"favor" :  False ,
     "read" : False,    
"title" : "视频：公园上演\u201C地道战\u201D 邀游客扮日军村姑",
"titleTip" : "视频：公园上演\u201C地道战\u201D 邀游客扮日军村姑",
"titleSummary" : "视频：公园上演\u201C地道战\u201D 邀游客扮日军村姑",
"descSummary" : "",
"url" : "http:\/\/go.rss.sina.com.cn\/redirect.php?url=http:\/\/video.sina.com.cn\/p\/news\/c\/v\/2013-10-30\/161563083957.html",
"pubDate" : "16:15:46",
"enterDate" : "384200:48:36",
"channelId" : "-7125455889050626397",
"channelName" : "新闻视频-新浪视频",
"channelNameSummary" : "新闻视频-新浪视频",
"channelUrl" : "http:\/\/video.sina.com.cn\/news\/",
"author" : "WWW.SINA.COM.CN",
"tags" : [],
"desc" : "",
"emailed" : False,
"forwarded" : False,
"english" : False
}  , {
"index" : 15,
"articleIndex" : "348797",
"favor" :  False ,
     "read" : False,    
"title" : "视频：骗子长得像金城武 3姑娘甘心为其掏百万",
"titleTip" : "视频：骗子长得像金城武 3姑娘甘心为其掏百万",
"titleSummary" : "视频：骗子长得像金城武 3姑娘甘心为其掏百万",
"descSummary" : "",
"url" : "http:\/\/go.rss.sina.com.cn\/redirect.php?url=http:\/\/video.sina.com.cn\/p\/news\/s\/v\/2013-10-30\/161563083955.html",
"pubDate" : "16:15:42",
"enterDate" : "384200:48:32",
"channelId" : "-7125455889050626397",
"channelName" : "新闻视频-新浪视频",
"channelNameSummary" : "新闻视频-新浪视频",
"channelUrl" : "http:\/\/video.sina.com.cn\/news\/",
"author" : "WWW.SINA.COM.CN",
"tags" : [],
"desc" : "",
"emailed" : False,
"forwarded" : False,
"english" : False
}  , {
"index" : 16,
"articleIndex" : "348796",
"favor" :  False ,
     "read" : False,    
"title" : "公园上演\u201C地道战\u201D 邀游客扮日军、村姑",
"titleTip" : "公园上演\u201C地道战\u201D 邀游客扮日军、村姑",
"titleSummary" : "公园上演\u201C地道战\u201D 邀游客扮日军、村姑",
"descSummary" : "",
"url" : "http:\/\/go.rss.sina.com.cn\/redirect.php?url=http:\/\/video.sina.com.cn\/p\/news\/v\/2013-10-30\/161263083953.html",
"pubDate" : "16:12:31",
"enterDate" : "384201:15:27",
"channelId" : "-7125455889050626397",
"channelName" : "新闻视频-新浪视频",
"channelNameSummary" : "新闻视频-新浪视频",
"channelUrl" : "http:\/\/video.sina.com.cn\/news\/",
"author" : "WWW.SINA.COM.CN",
"tags" : [],
"desc" : "",
"emailed" : False,
"forwarded" : False,
"english" : False
}  , {
"index" : 17,
"articleIndex" : "348793",
"favor" :  False ,
     "read" : False,    
"title" : "《新闻直播间》 云南昆明 窃贼盗车 监控跟踪全记录",
"titleTip" : "《新闻直播间》 云南昆明 窃贼盗车 监控跟踪全记录",
"titleSummary" : "《新闻直播间》 云南昆明 窃贼盗车 监控跟踪全记录",
"descSummary" : "",
"url" : "http:\/\/go.rss.sina.com.cn\/redirect.php?url=http:\/\/video.sina.com.cn\/p\/news\/v\/2013-10-30\/160263083945.html",
"pubDate" : "16:02:38",
"enterDate" : "384201:05:34",
"channelId" : "-7125455889050626397",
"channelName" : "新闻视频-新浪视频",
"channelNameSummary" : "新闻视频-新浪视频",
"channelUrl" : "http:\/\/video.sina.com.cn\/news\/",
"author" : "WWW.SINA.COM.CN",
"tags" : [],
"desc" : "",
"emailed" : False,
"forwarded" : False,
"english" : False
}  , {
"index" : 18,
"articleIndex" : "348794",
"favor" :  False ,
     "read" : False,    
"title" : "《新闻直播间》 天津 降低限价房准入门槛",
"titleTip" : "《新闻直播间》 天津 降低限价房准入门槛",
"titleSummary" : "《新闻直播间》 天津 降低限价房准入门槛",
"descSummary" : "",
"url" : "http:\/\/go.rss.sina.com.cn\/redirect.php?url=http:\/\/video.sina.com.cn\/p\/news\/v\/2013-10-30\/160263083943.html",
"pubDate" : "16:02:38",
"enterDate" : "384201:05:34",
"channelId" : "-7125455889050626397",
"channelName" : "新闻视频-新浪视频",
"channelNameSummary" : "新闻视频-新浪视频",
"channelUrl" : "http:\/\/video.sina.com.cn\/news\/",
"author" : "WWW.SINA.COM.CN",
"tags" : [],
"desc" : "",
"emailed" : False,
"forwarded" : False,
"english" : False
}  , {
"index" : 19,
"articleIndex" : "348795",
"favor" :  False ,
     "read" : False,    
"title" : "《新闻直播间》 关注母婴室 微信搜索母婴室 还需配套再加强",
"titleTip" : "《新闻直播间》 关注母婴室 微信搜索母婴室 还需配套再加强",
"titleSummary" : "《新闻直播间》 关注母婴室 微信搜索母婴室 还需配套再加强",
"descSummary" : "",
"url" : "http:\/\/go.rss.sina.com.cn\/redirect.php?url=http:\/\/video.sina.com.cn\/p\/news\/v\/2013-10-30\/160263083939.html",
"pubDate" : "16:02:38",
"enterDate" : "384201:05:34",
"channelId" : "-7125455889050626397",
"channelName" : "新闻视频-新浪视频",
"channelNameSummary" : "新闻视频-新浪视频",
"channelUrl" : "http:\/\/video.sina.com.cn\/news\/",
"author" : "WWW.SINA.COM.CN",
"tags" : [],
"desc" : "",
"emailed" : False,
"forwarded" : False,
"english" : False
} ]
}
