{
"mode" : {"viewTitle" : 1,   "viewNew" : 0,  "pageIndex" : 1 },
 "channel" : {"id" : "-2180326876029927220", "booked" : False, "subNumber" : 2821, "name" : "焦点新闻-新浪娱乐", "url" : "http:\/\/ent.sina.com.cn", "feed" : "http:\/\/rss.sina.com.cn\/news\/allnews\/ent.xml", "author" : "SINA.com", "desc" : "娱乐焦点新闻", "imageUrl" : "http:\/\/www.sinaimg.cn\/home\/deco\/2009\/0330\/logo_home.gif", "postPerWeek" : "604", "lastCrawTime" : "2013年10月18日 (1周前)", "crawDateTime" : "2013年10月18日 (1周前)", "lastHttpCode" : "200"}, "page" : {
"startIndex" : 0,
"totalCount" : 5000,
"pageIndex" : 1,
"lastPage" : 250,
"pageSize" : 20,
"english" :  False },
 "unreadNum" : 0, "shotIndex" : -1,
"articles" : [
{
"index" : 0,
"articleIndex" : "36211",
"favor" :  False ,
     "read" : False,    
"title" : "甄子丹：不会再和赵文卓合作 他欠个交代",
"titleTip" : "甄子丹：不会再和赵文卓合作 他欠个交代",
"titleSummary" : "甄子丹：不会再和赵文卓合作 他欠个交代",
"descSummary" : "新浪娱乐讯 由星光灿烂影视文化有限公司出品，甄子丹[微博]、...",
"url" : "http:\/\/go.rss.sina.com.cn\/redirect.php?url=http:\/\/ent.sina.com.cn\/m\/c\/2013-10-17\/23274026090.shtml",
"pubDate" : "2013年10月17日 (1周前)",
"enterDate" : "384200:49:06",
"channelId" : "-2180326876029927220",
"channelName" : "焦点新闻-新浪娱乐",
"channelNameSummary" : "焦点新闻-新浪娱乐",
"channelUrl" : "http:\/\/ent.sina.com.cn",
"author" : "SINA.com",
"tags" : [],
"desc" : "新浪娱乐讯 由星光灿烂影视文化有限公司出品，甄子丹[微博]、景甜[微博]、安志杰[微博]、张涵予[微博]等主演的2013年最爆裂动作巨制《特殊身份》今日(10月17日)在广州举行首映发布会，导演霍耀良携甄子丹、景甜、安志杰出席发布会。功夫巨星甄子丹时隔6年再度回归最擅长的时装....",
"emailed" : False,
"forwarded" : False,
"english" : False
}  , {
"index" : 1,
"articleIndex" : "36210",
"favor" :  False ,
     "read" : False,    
"title" : "《目标战》公映 中国军事大片\u201C动真格\u201D",
"titleTip" : "《目标战》公映 中国军事大片\u201C动真格\u201D",
"titleSummary" : "《目标战》公映 中国军事大片\u201C动真格\u201D",
"descSummary" : "点击进入影片打分  点击进入今日影讯 新浪娱乐讯 由八一电影...",
"url" : "http:\/\/go.rss.sina.com.cn\/redirect.php?url=http:\/\/ent.sina.com.cn\/m\/c\/2013-10-17\/23164026087.shtml",
"pubDate" : "2013年10月17日 (1周前)",
"enterDate" : "384200:38:17",
"channelId" : "-2180326876029927220",
"channelName" : "焦点新闻-新浪娱乐",
"channelNameSummary" : "焦点新闻-新浪娱乐",
"channelUrl" : "http:\/\/ent.sina.com.cn",
"author" : "SINA.com",
"tags" : [],
"desc" : "&gt;&gt;&gt;&gt;&gt;点击进入影片打分 &gt;&gt;&gt;&gt;&gt;点击进入今日影讯 新浪娱乐讯 由八一电影制片厂与济南军区政治部联袂打造的超级现代战争大片《目标战》，在经历了撤档疑云之后，终于将于10月18日登上大银幕与观众见面。本着打造中国现代的军事大片的想法，....",
"emailed" : False,
"forwarded" : False,
"english" : False
}  , {
"index" : 2,
"articleIndex" : "36208",
"favor" :  False ,
     "read" : False,    
"title" : "东京电影节开幕群星亮相 小怪兽闹绿毯",
"titleTip" : "东京电影节开幕群星亮相 小怪兽闹绿毯",
"titleSummary" : "东京电影节开幕群星亮相 小怪兽闹绿毯",
"descSummary" : "新浪娱乐讯 北京时间10月17日下午(日本时间10月17日下午)，第...",
"url" : "http:\/\/go.rss.sina.com.cn\/redirect.php?url=http:\/\/slide.ent.sina.com.cn\/film\/slide_4_704_67594.html",
"pubDate" : "2013年10月17日 (1周前)",
"enterDate" : "384200:40:55",
"channelId" : "-2180326876029927220",
"channelName" : "焦点新闻-新浪娱乐",
"channelNameSummary" : "焦点新闻-新浪娱乐",
"channelUrl" : "http:\/\/ent.sina.com.cn",
"author" : "SINA.com",
"tags" : [],
"desc" : "新浪娱乐讯 北京时间10月17日下午(日本时间10月17日下午)，第26届东京国际电影节在六本木开幕。陈凯歌、汤姆-汉克斯、长泽雅美等群星亮相，惊现小怪兽\u201C闹\u201D绿毯。图库供稿",
"emailed" : False,
"forwarded" : False,
"english" : False
}  , {
"index" : 3,
"articleIndex" : "36207",
"favor" :  False ,
     "read" : False,    
"title" : "《扫毒》有望贺岁取佳绩 博纳佳片不断",
"titleTip" : "《扫毒》有望贺岁取佳绩 博纳佳片不断",
"titleSummary" : "《扫毒》有望贺岁取佳绩 博纳佳片不断",
"descSummary" : "新浪娱乐讯 十一长假后的第一周，博纳影业集团就成为国内电影...",
"url" : "http:\/\/go.rss.sina.com.cn\/redirect.php?url=http:\/\/ent.sina.com.cn\/m\/c\/2013-10-17\/22314026082.shtml",
"pubDate" : "2013年10月17日 (1周前)",
"enterDate" : "384200:22:48",
"channelId" : "-2180326876029927220",
"channelName" : "焦点新闻-新浪娱乐",
"channelNameSummary" : "焦点新闻-新浪娱乐",
"channelUrl" : "http:\/\/ent.sina.com.cn",
"author" : "SINA.com",
"tags" : [],
"desc" : "新浪娱乐讯 十一长假后的第一周，博纳影业集团就成为国内电影业界瞩目的焦点，两部重磅大戏《窃听风云3》和《扫毒》接连放出海报和预告，并迅速引发网络热议；《暴疯语》和《我是路人甲》也以\u201C秘密武器\u201D的姿态首现江湖。加上正在热映的《逃出生天3D》票房过亿，以及获得复星....",
"emailed" : False,
"forwarded" : False,
"english" : False
}  , {
"index" : 4,
"articleIndex" : "36206",
"favor" :  False ,
     "read" : False,    
"title" : "《甜心巧克力》发海报预告 林志玲性感",
"titleTip" : "《甜心巧克力》发海报预告 林志玲性感",
"titleSummary" : "《甜心巧克力》发海报预告 林志玲性感",
"descSummary" : "新浪娱乐讯 由林志玲[微博]领衔主演的爱情片《甜心巧克力》将于...",
"url" : "http:\/\/go.rss.sina.com.cn\/redirect.php?url=http:\/\/ent.sina.com.cn\/m\/c\/2013-10-17\/22154026078.shtml",
"pubDate" : "2013年10月17日 (1周前)",
"enterDate" : "384200:07:37",
"channelId" : "-2180326876029927220",
"channelName" : "焦点新闻-新浪娱乐",
"channelNameSummary" : "焦点新闻-新浪娱乐",
"channelUrl" : "http:\/\/ent.sina.com.cn",
"author" : "SINA.com",
"tags" : [],
"desc" : "新浪娱乐讯 由林志玲[微博]领衔主演的爱情片《甜心巧克力》将于11月8日全国公映，该片是林志玲继《101次求婚》后又一爱情电影力作，影片自宣布进军\u201C光棍节\u201D以来就一直受到热烈关注。近日，影片的荣誉营销方剧角映画双发影片正式海报和正式预告，积极响应网友对林志玲\u201C光棍....",
"emailed" : False,
"forwarded" : False,
"english" : False
}  , {
"index" : 5,
"articleIndex" : "36205",
"favor" :  False ,
     "read" : False,    
"title" : "刘若英祖母86岁大寿 水墨画出手不凡",
"titleTip" : "刘若英祖母86岁大寿 水墨画出手不凡",
"titleSummary" : "刘若英祖母86岁大寿 水墨画出手不凡",
"descSummary" : "新浪娱乐讯 今天(10月17日)是刘若英[微博]祖母86岁寿辰，刘若英通...",
"url" : "http:\/\/go.rss.sina.com.cn\/redirect.php?url=http:\/\/ent.sina.com.cn\/s\/h\/w\/2013-10-17\/22074026074.shtml",
"pubDate" : "2013年10月17日 (1周前)",
"enterDate" : "384199:59:19",
"channelId" : "-2180326876029927220",
"channelName" : "焦点新闻-新浪娱乐",
"channelNameSummary" : "焦点新闻-新浪娱乐",
"channelUrl" : "http:\/\/ent.sina.com.cn",
"author" : "SINA.com",
"tags" : [],
"desc" : "新浪娱乐讯&#160; 今天(10月17日)是刘若英[微博]祖母86岁寿辰，刘若英通过新浪微博为奶奶送上生日祝福，晒奶奶的新发型并跟大家分享奶奶亲手绘制的书画作品。照片中有大大的生日蛋糕，一头时尚卷发的奶奶在烛光中显得特别的幸福，奶奶的水墨画更是出手不凡。 10月17日2....",
"emailed" : False,
"forwarded" : False,
"english" : False
}  , {
"index" : 6,
"articleIndex" : "36204",
"favor" :  False ,
     "read" : False,    
"title" : "施隆多夫探访姜文赞《一步之遥》制作水准",
"titleTip" : "施隆多夫探访姜文赞《一步之遥》制作水准",
"titleSummary" : "施隆多夫探访姜文赞《一步之遥》制作水准",
"descSummary" : "新浪娱乐讯 备受瞩目的姜文导演新片《一步之遥》已低调开...",
"url" : "http:\/\/go.rss.sina.com.cn\/redirect.php?url=http:\/\/ent.sina.com.cn\/m\/c\/2013-10-17\/22024026073.shtml",
"pubDate" : "2013年10月17日 (1周前)",
"enterDate" : "384199:53:59",
"channelId" : "-2180326876029927220",
"channelName" : "焦点新闻-新浪娱乐",
"channelNameSummary" : "焦点新闻-新浪娱乐",
"channelUrl" : "http:\/\/ent.sina.com.cn",
"author" : "SINA.com",
"tags" : [],
"desc" : "新浪娱乐讯 备受瞩目的姜文导演新片《一步之遥》已低调开拍多时，昨日片场迎来重量级探班嘉宾，戛纳金棕榈和奥斯卡最佳外语片双料得主，德国大师级导演施隆多夫和法国著名制片人让路易专程到访。自称是来看望\u201C我的中国兄弟\u201D，施隆多夫赠送给姜文一把自用的导演椅。在看过《....",
"emailed" : False,
"forwarded" : False,
"english" : False
}  , {
"index" : 7,
"articleIndex" : "36203",
"favor" :  False ,
     "read" : False,    
"title" : "对话甄子丹：回望纷争内疚没保护好家人",
"titleTip" : "对话甄子丹：回望纷争内疚没保护好家人",
"titleSummary" : "对话甄子丹：回望纷争内疚没保护好家人",
"descSummary" : "新浪娱乐讯 在《杀破狼》和《导火线》之后，时隔六年，甄子...",
"url" : "http:\/\/go.rss.sina.com.cn\/redirect.php?url=http:\/\/ent.sina.com.cn\/m\/c\/2013-10-17\/20524026067.shtml",
"pubDate" : "2013年10月17日 (1周前)",
"enterDate" : "384198:44:09",
"channelId" : "-2180326876029927220",
"channelName" : "焦点新闻-新浪娱乐",
"channelNameSummary" : "焦点新闻-新浪娱乐",
"channelUrl" : "http:\/\/ent.sina.com.cn",
"author" : "SINA.com",
"tags" : [],
"desc" : "新浪娱乐讯 在《杀破狼》和《导火线》之后，时隔六年，甄子丹[微博]才再次拍摄时装动作片，而这部电影拍摄期间更是经历了诸多风风雨雨，与演员赵文卓[微博]、导演檀冰的纷争，各种骂战、讨伐，甚至闹上法院。对于甄子丹来说，这部《特殊身份》确实完成不易，身兼主演、动作导....",
"emailed" : False,
"forwarded" : False,
"english" : False
}  , {
"index" : 8,
"articleIndex" : "36202",
"favor" :  False ,
     "read" : False,    
"title" : "香港票房综述：《地心引力》反胜",
"titleTip" : "香港票房综述：《地心引力》反胜",
"titleSummary" : "香港票房综述：《地心引力》反胜",
"descSummary" : "新浪娱乐讯 最新一周的香港票房揭晓，尽管好莱坞的科幻片《地心引...",
"url" : "http:\/\/go.rss.sina.com.cn\/redirect.php?url=http:\/\/ent.sina.com.cn\/m\/c\/2013-10-17\/20334026061.shtml",
"pubDate" : "2013年10月17日 (1周前)",
"enterDate" : "384198:25:19",
"channelId" : "-2180326876029927220",
"channelName" : "焦点新闻-新浪娱乐",
"channelNameSummary" : "焦点新闻-新浪娱乐",
"channelUrl" : "http:\/\/ent.sina.com.cn",
"author" : "SINA.com",
"tags" : [],
"desc" : "新浪娱乐讯 最新一周的香港票房揭晓，尽管好莱坞的科幻片《地心引力》在首周时票房略微逊色于彭氏兄弟[微博]的《逃出生天》，但凭借着优秀的口碑不断的缩短差距，在截至本周日时已经在累计票房上反胜出约65万港元，不日将会突破2000万；新片的表现平平淡淡，最好的《极速风流....",
"emailed" : False,
"forwarded" : False,
"english" : False
}  , {
"index" : 9,
"articleIndex" : "36201",
"favor" :  False ,
     "read" : False,    
"title" : "组图：日本首相安倍晋三和汉克斯握手言欢",
"titleTip" : "组图：日本首相安倍晋三和汉克斯握手言欢",
"titleSummary" : "组图：日本首相安倍晋三和汉克斯握手言欢",
"descSummary" : "",
"url" : "http:\/\/go.rss.sina.com.cn\/redirect.php?url=http:\/\/slide.ent.sina.com.cn\/film\/slide_4_704_67587.html",
"pubDate" : "2013年10月17日 (1周前)",
"enterDate" : "384198:00:08",
"channelId" : "-2180326876029927220",
"channelName" : "焦点新闻-新浪娱乐",
"channelNameSummary" : "焦点新闻-新浪娱乐",
"channelUrl" : "http:\/\/ent.sina.com.cn",
"author" : "SINA.com",
"tags" : [],
"desc" : "",
"emailed" : False,
"forwarded" : False,
"english" : False
}  , {
"index" : 10,
"articleIndex" : "36209",
"favor" :  False ,
     "read" : False,    
"title" : "张元《有种》将映 女歌手故事影射王菲",
"titleTip" : "张元《有种》将映 女歌手故事影射王菲",
"titleSummary" : "张元《有种》将映 女歌手故事影射王菲",
"descSummary" : "新浪娱乐讯 由张元[微博]执导的青春爱情电影《有种》将在11月8...",
"url" : "http:\/\/go.rss.sina.com.cn\/redirect.php?url=http:\/\/ent.sina.com.cn\/m\/c\/2013-10-17\/20084026056.shtml",
"pubDate" : "2013年10月17日 (1周前)",
"enterDate" : "384197:29:44",
"channelId" : "-2180326876029927220",
"channelName" : "焦点新闻-新浪娱乐",
"channelNameSummary" : "焦点新闻-新浪娱乐",
"channelUrl" : "http:\/\/ent.sina.com.cn",
"author" : "SINA.com",
"tags" : [],
"desc" : "新浪娱乐讯 由张元[微博]执导的青春爱情电影《有种》将在11月8日在各大影院上映。今天(10月16日)下午，张元携编剧孔二狗，主演李昕芸[微博]、韩雯雯[微博]、吕聿来[微博]、时诗、刘卓廷等出席新闻发布会。张元大赞男扮女装的主演时诗无论戏里戏外所表现出的真实自我就是最有种....",
"emailed" : False,
"forwarded" : False,
"english" : False
}  , {
"index" : 11,
"articleIndex" : "36200",
"favor" :  False ,
     "read" : False,    
"title" : "《变4》香港拍摄遭勒索10万 导演被打",
"titleTip" : "《变4》香港拍摄遭勒索10万 导演被打",
"titleSummary" : "《变4》香港拍摄遭勒索10万 导演被打",
"descSummary" : "新浪娱乐讯 据香港媒体报道，今日(17日)早上8时40分，拍摄《变形...",
"url" : "http:\/\/go.rss.sina.com.cn\/redirect.php?url=http:\/\/ent.sina.com.cn\/m\/f\/2013-10-17\/19544026052.shtml",
"pubDate" : "2013年10月17日 (1周前)",
"enterDate" : "384197:45:56",
"channelId" : "-2180326876029927220",
"channelName" : "焦点新闻-新浪娱乐",
"channelNameSummary" : "焦点新闻-新浪娱乐",
"channelUrl" : "http:\/\/ent.sina.com.cn",
"author" : "SINA.com",
"tags" : [],
"desc" : "新浪娱乐讯 据香港媒体报道，今日(17日)早上8时40分，拍摄《变形金刚4》的摄制组，于早前租借的f鱼涌英皇道近佑民街一商场进行拍摄期间，被其中一间经营五金店的两兄弟，指摄制组妨碍其做生意，要求摄制组支付10万元作补偿，摄制组拒绝，双方因而发生争执，摄制组报警。 ....",
"emailed" : False,
"forwarded" : False,
"english" : False
}  , {
"index" : 12,
"articleIndex" : "36199",
"favor" :  False ,
     "read" : False,    
"title" : "组图：杜汶泽床战AV女 摸D奶大享艳福",
"titleTip" : "组图：杜汶泽床战AV女 摸D奶大享艳福",
"titleSummary" : "组图：杜汶泽床战AV女 摸D奶大享艳福",
"descSummary" : "新浪娱乐讯 41岁港星杜汶泽目前在东京拍三级片《3D豪情》，他...",
"url" : "http:\/\/go.rss.sina.com.cn\/redirect.php?url=http:\/\/slide.ent.sina.com.cn\/film\/slide_4_704_67582.html",
"pubDate" : "2013年10月17日 (1周前)",
"enterDate" : "384197:25:25",
"channelId" : "-2180326876029927220",
"channelName" : "焦点新闻-新浪娱乐",
"channelNameSummary" : "焦点新闻-新浪娱乐",
"channelUrl" : "http:\/\/ent.sina.com.cn",
"author" : "SINA.com",
"tags" : [],
"desc" : "新浪娱乐讯 41岁港星杜汶泽目前在东京拍三级片《3D豪情》，他在片中饰演AV男优，日前先被拥有42L上围、被封\u201C人类最强Body\u201D的AV女优冲田杏梨压胸。",
"emailed" : False,
"forwarded" : False,
"english" : False
}  , {
"index" : 13,
"articleIndex" : "36198",
"favor" :  False ,
     "read" : False,    
"title" : "孙红雷自拍遭姚晨调戏：组织想找你谈谈",
"titleTip" : "孙红雷自拍遭姚晨调戏：组织想找你谈谈",
"titleSummary" : "孙红雷自拍遭姚晨调戏：组织想找你谈谈",
"descSummary" : "新浪娱乐讯 17日晚，常以硬汉形象出现在荧幕上的孙红雷[微博...",
"url" : "http:\/\/go.rss.sina.com.cn\/redirect.php?url=http:\/\/ent.sina.com.cn\/s\/m\/w\/2013-10-17\/19194026047.shtml",
"pubDate" : "2013年10月17日 (1周前)",
"enterDate" : "384197:11:06",
"channelId" : "-2180326876029927220",
"channelName" : "焦点新闻-新浪娱乐",
"channelNameSummary" : "焦点新闻-新浪娱乐",
"channelUrl" : "http:\/\/ent.sina.com.cn",
"author" : "SINA.com",
"tags" : [],
"desc" : "新浪娱乐讯 17日晚，常以硬汉形象出现在荧幕上的孙红雷[微博]在微博上传两张自拍，并颇有文艺气息称\u201C有时，要看看自己，和自己的新谈谈话\u2026\u2026\u201D不料随后却被姚晨[微博]一句话打破意境。姚晨转发孙红雷微博并\u201C严肃\u201D表示：\u201C则成，你没事老自拍，组织也想找你谈谈话\u2026\u201D一时....",
"emailed" : False,
"forwarded" : False,
"english" : False
}  , {
"index" : 14,
"articleIndex" : "36197",
"favor" :  False ,
     "read" : False,    
"title" : "组图：汤姆-汉克斯走绿毯 挥手示意显亲切",
"titleTip" : "组图：汤姆-汉克斯走绿毯 挥手示意显亲切",
"titleSummary" : "组图：汤姆-汉克斯走绿毯 挥手示意显亲切",
"descSummary" : "新浪娱乐讯 北京时间10月17日下午(日本时间10月17日下午)，...",
"url" : "http:\/\/go.rss.sina.com.cn\/redirect.php?url=http:\/\/slide.ent.sina.com.cn\/film\/slide_4_704_67578.html",
"pubDate" : "2013年10月17日 (1周前)",
"enterDate" : "384196:58:44",
"channelId" : "-2180326876029927220",
"channelName" : "焦点新闻-新浪娱乐",
"channelNameSummary" : "焦点新闻-新浪娱乐",
"channelUrl" : "http:\/\/ent.sina.com.cn",
"author" : "SINA.com",
"tags" : [],
"desc" : "新浪娱乐讯 北京时间10月17日下午(日本时间10月17日下午)，第26届东京国际电影节在东京六本木开幕。汤姆-汉克斯携开幕片《菲利普斯船长》亮相。图库供稿",
"emailed" : False,
"forwarded" : False,
"english" : False
}  , {
"index" : 15,
"articleIndex" : "36196",
"favor" :  False ,
     "read" : False,    
"title" : "田参军避谈新证据 称二审难改变定性",
"titleTip" : "田参军避谈新证据 称二审难改变定性",
"titleSummary" : "田参军避谈新证据 称二审难改变定性",
"descSummary" : "新浪娱乐讯 今日(17日)，李某某强奸案原告律师田参军前往北京市第...",
"url" : "http:\/\/go.rss.sina.com.cn\/redirect.php?url=http:\/\/ent.sina.com.cn\/s\/m\/2013-10-17\/18534026034.shtml",
"pubDate" : "2013年10月17日 (1周前)",
"enterDate" : "384196:44:53",
"channelId" : "-2180326876029927220",
"channelName" : "焦点新闻-新浪娱乐",
"channelNameSummary" : "焦点新闻-新浪娱乐",
"channelUrl" : "http:\/\/ent.sina.com.cn",
"author" : "SINA.com",
"tags" : [],
"desc" : "新浪娱乐讯 今日(17日)，李某某强奸案原告律师田参军前往北京市第一中级人民法院法院办理二审阅卷手续。前一日，田律师发微博表示与此案二审有关的\u201C新证据\u201D将浮出水面，而当他从法院出来，面对新浪娱乐现场询问时，却讳莫如深，表示刚刚法院一再强调律师纪律，不能跟媒体透....",
"emailed" : False,
"forwarded" : False,
"english" : False
}  , {
"index" : 16,
"articleIndex" : "36195",
"favor" :  False ,
     "read" : False,    
"title" : "成龙铁定参加金马奖 笑称没提名也支持",
"titleTip" : "成龙铁定参加金马奖 笑称没提名也支持",
"titleSummary" : "成龙铁定参加金马奖 笑称没提名也支持",
"descSummary" : "图片来源：台湾\u201C苹果日报\u201D。中新网10月17日电 据台湾\u201C苹果...",
"url" : "http:\/\/go.rss.sina.com.cn\/redirect.php?url=http:\/\/ent.sina.com.cn\/m\/c\/2013-10-17\/18514026038.shtml",
"pubDate" : "2013年10月17日 (1周前)",
"enterDate" : "384196:42:46",
"channelId" : "-2180326876029927220",
"channelName" : "焦点新闻-新浪娱乐",
"channelNameSummary" : "焦点新闻-新浪娱乐",
"channelUrl" : "http:\/\/ent.sina.com.cn",
"author" : "SINA.com",
"tags" : [],
"desc" : "图片来源：台湾\u201C苹果日报\u201D。 中新网10月17日电 据台湾\u201C苹果日报网\u201D即时消息，成龙[微博]今天在美国洛杉矶出席《十二生肖》首映，今年恰逢金马奖50周年，身为两届金马影帝，他说自己铁定会参加，不过这次《十二生肖》只入围了最佳动作设计，成龙笑说：\u201C就算没提名也支....",
"emailed" : False,
"forwarded" : False,
"english" : False
}  , {
"index" : 17,
"articleIndex" : "36194",
"favor" :  False ,
     "read" : False,    
"title" : "《雷神2》曝中文海报 11月8日同步上映",
"titleTip" : "《雷神2》曝中文海报 11月8日同步上映",
"titleSummary" : "《雷神2》曝中文海报 11月8日同步上映",
"descSummary" : "新浪娱乐讯 北京时间10月18日消息，据中影\/华夏透露，由迪士尼...",
"url" : "http:\/\/go.rss.sina.com.cn\/redirect.php?url=http:\/\/ent.sina.com.cn\/m\/f\/2013-10-17\/18334026031.shtml",
"pubDate" : "2013年10月17日 (1周前)",
"enterDate" : "384196:25:11",
"channelId" : "-2180326876029927220",
"channelName" : "焦点新闻-新浪娱乐",
"channelNameSummary" : "焦点新闻-新浪娱乐",
"channelUrl" : "http:\/\/ent.sina.com.cn",
"author" : "SINA.com",
"tags" : [],
"desc" : "新浪娱乐讯 北京时间10月18日消息，据中影\/华夏透露，由迪士尼影业出品，漫威影业制作的2013超级英雄巨制《雷神2：黑暗世界》(Thor: The Dark World) 确定中国档期：11月8日3D、IMAX 3D、中国巨幕上映，成为今年惟一一部与北美同步公映的分账大片。片方也于今日首度曝光中文版....",
"emailed" : False,
"forwarded" : False,
"english" : False
}  , {
"index" : 18,
"articleIndex" : "36193",
"favor" :  False ,
     "read" : False,    
"title" : "许慧欣婚纱照宛若仙子 爆乳出镜俏新娘",
"titleTip" : "许慧欣婚纱照宛若仙子 爆乳出镜俏新娘",
"titleSummary" : "许慧欣婚纱照宛若仙子 爆乳出镜俏新娘",
"descSummary" : "",
"url" : "http:\/\/go.rss.sina.com.cn\/redirect.php?url=http:\/\/slide.ent.sina.com.cn\/star\/w\/slide_4_704_67575.html",
"pubDate" : "2013年10月17日 (1周前)",
"enterDate" : "384200:45:14",
"channelId" : "-2180326876029927220",
"channelName" : "焦点新闻-新浪娱乐",
"channelNameSummary" : "焦点新闻-新浪娱乐",
"channelUrl" : "http:\/\/ent.sina.com.cn",
"author" : "SINA.com",
"tags" : [],
"desc" : "",
"emailed" : False,
"forwarded" : False,
"english" : False
}  , {
"index" : 19,
"articleIndex" : "36192",
"favor" :  False ,
     "read" : False,    
"title" : "张杰专辑主打歌《爱，不解释》暖心奉献",
"titleTip" : "张杰专辑主打歌《爱，不解释》暖心奉献",
"titleSummary" : "张杰专辑主打歌《爱，不解释》暖心奉献",
"descSummary" : "点击试听张杰《爱，不解释》 新浪娱乐讯 歌手张杰[微博]即将...",
"url" : "http:\/\/go.rss.sina.com.cn\/redirect.php?url=http:\/\/ent.sina.com.cn\/y\/2013-10-17\/17314026004.shtml",
"pubDate" : "2013年10月17日 (1周前)",
"enterDate" : "384200:23:52",
"channelId" : "-2180326876029927220",
"channelName" : "焦点新闻-新浪娱乐",
"channelNameSummary" : "焦点新闻-新浪娱乐",
"channelUrl" : "http:\/\/ent.sina.com.cn",
"author" : "SINA.com",
"tags" : [],
"desc" : "点击试听张杰《爱，不解释》 新浪娱乐讯 歌手张杰[微博]即将推出自己出道十年的第十张专辑。新专辑主打歌《爱，不解释》于今日(10月17日)在新浪音乐平台上线。作为张杰第十张专辑主打歌，《爱，不解释》特邀两岸三地音乐人联手打造。 两岸三地音乐人强强联手....",
"emailed" : False,
"forwarded" : False,
"english" : False
} ]
}
