{
"mode" : {"viewTitle" : 1,   "viewNew" : 0,  "pageIndex" : 2 },
 "channel" : {"id" : "-2180326876029927220", "booked" : False, "subNumber" : 2821, "name" : "焦点新闻-新浪娱乐", "url" : "http:\/\/ent.sina.com.cn", "feed" : "http:\/\/rss.sina.com.cn\/news\/allnews\/ent.xml", "author" : "SINA.com", "desc" : "娱乐焦点新闻", "imageUrl" : "http:\/\/www.sinaimg.cn\/home\/deco\/2009\/0330\/logo_home.gif", "postPerWeek" : "604", "lastCrawTime" : "2013年10月18日 (1周前)", "crawDateTime" : "2013年10月18日 (1周前)", "lastHttpCode" : "200"}, "page" : {
"startIndex" : 20,
"totalCount" : 5000,
"pageIndex" : 2,
"lastPage" : 250,
"pageSize" : 20,
"english" :  False },
 "unreadNum" : 0, "shotIndex" : -1,
"articles" : [
{
"index" : 0,
"articleIndex" : "36189",
"favor" :  False ,
     "read" : False,    
"title" : "陶晶莹曝儿子吃鼻屎 听闻增强免疫力惊呆",
"titleTip" : "陶晶莹曝儿子吃鼻屎 听闻增强免疫力惊呆",
"titleSummary" : "陶晶莹曝儿子吃鼻屎 听闻增强免疫力惊呆",
"descSummary" : "新浪娱乐讯 北京时间10月17日据台湾媒体报道，主持人陶晶莹...",
"url" : "http:\/\/go.rss.sina.com.cn\/redirect.php?url=http:\/\/ent.sina.com.cn\/s\/h\/w\/2013-10-17\/17314026006.shtml",
"pubDate" : "2013年10月17日 (1周前)",
"enterDate" : "384200:54:10",
"channelId" : "-2180326876029927220",
"channelName" : "焦点新闻-新浪娱乐",
"channelNameSummary" : "焦点新闻-新浪娱乐",
"channelUrl" : "http:\/\/ent.sina.com.cn",
"author" : "SINA.com",
"tags" : [],
"desc" : "新浪娱乐讯 北京时间10月17日据台湾媒体报道，主持人陶晶莹最近发现4岁儿子李小龙迷上挖鼻屎，还亲眼目睹小龙把鼻屎搓一搓直接吞下肚，被她极力阻止，谁知小龙说：\u201C妈！可是鼻屎好好吃喔。\u201D让她完全没辄。直到最近有新闻报导\u201C常挖鼻屎会聪明；常吃鼻屎更健康。\u201D孩子听了欢....",
"emailed" : False,
"forwarded" : False,
"english" : False
}  , {
"index" : 1,
"articleIndex" : "36188",
"favor" :  False ,
     "read" : False,    
"title" : "王朔私房旧照曝光 送女上学显父爱(图)",
"titleTip" : "王朔私房旧照曝光 送女上学显父爱(图)",
"titleSummary" : "王朔私房旧照曝光 送女上学显父爱(图)",
"descSummary" : "新浪娱乐讯 10月17日上午，著名编剧史航在其微博上，曝出一组王...",
"url" : "http:\/\/go.rss.sina.com.cn\/redirect.php?url=http:\/\/ent.sina.com.cn\/s\/m\/w\/2013-10-17\/17284026001.shtml",
"pubDate" : "2013年10月17日 (1周前)",
"enterDate" : "384200:51:18",
"channelId" : "-2180326876029927220",
"channelName" : "焦点新闻-新浪娱乐",
"channelNameSummary" : "焦点新闻-新浪娱乐",
"channelUrl" : "http:\/\/ent.sina.com.cn",
"author" : "SINA.com",
"tags" : [],
"desc" : "新浪娱乐讯 10月17日上午，著名编剧史航在其微博上，曝出一组王朔及其家人的私房照，并介绍了几张照片的背景称：\u201C还是王朔母亲薛来凤女士回忆录《一家人》，还有几张照片可共享：两三岁的小正太，滑梯上的小霸王，与哥哥王宇的合影，兄弟俩各携爱侣的合影，女儿王咪咪的出现....",
"emailed" : False,
"forwarded" : False,
"english" : False
}  , {
"index" : 2,
"articleIndex" : "36191",
"favor" :  False ,
     "read" : False,    
"title" : "林文龙称不发牌没解释难服众 欲参与游行",
"titleTip" : "林文龙称不发牌没解释难服众 欲参与游行",
"titleSummary" : "林文龙称不发牌没解释难服众 欲参与游行",
"descSummary" : "林文龙称不发牌没解释难服众 欲参与游行",
"url" : "http:\/\/go.rss.sina.com.cn\/redirect.php?url=http:\/\/slide.ent.sina.com.cn\/tv\/slide_4_704_67571.html",
"pubDate" : "2013年10月17日 (1周前)",
"enterDate" : "384200:08:36",
"channelId" : "-2180326876029927220",
"channelName" : "焦点新闻-新浪娱乐",
"channelNameSummary" : "焦点新闻-新浪娱乐",
"channelUrl" : "http:\/\/ent.sina.com.cn",
"author" : "SINA.com",
"tags" : [],
"desc" : "林文龙称不发牌没解释难服众 欲参与游行",
"emailed" : False,
"forwarded" : False,
"english" : False
}  , {
"index" : 3,
"articleIndex" : "36187",
"favor" :  False ,
     "read" : False,    
"title" : "《风云》央一开播 翻戏党决战大上海",
"titleTip" : "《风云》央一开播 翻戏党决战大上海",
"titleSummary" : "《风云》央一开播 翻戏党决战大上海",
"descSummary" : "新浪娱乐讯 电视剧《风云之十里洋场》今日(10月17日)起正式在央...",
"url" : "http:\/\/go.rss.sina.com.cn\/redirect.php?url=http:\/\/ent.sina.com.cn\/v\/m\/2013-10-17\/17104025985.shtml",
"pubDate" : "2013年10月17日 (1周前)",
"enterDate" : "384200:33:11",
"channelId" : "-2180326876029927220",
"channelName" : "焦点新闻-新浪娱乐",
"channelNameSummary" : "焦点新闻-新浪娱乐",
"channelUrl" : "http:\/\/ent.sina.com.cn",
"author" : "SINA.com",
"tags" : [],
"desc" : "新浪娱乐讯 电视剧《风云之十里洋场》今日(10月17日)起正式在央视一套开播。该剧以张勋复辟的历史事件为背景，将民国初期辫子军、革命党、日本黑龙会与老上海江湖雁门\u201C翻戏党\u201D之间一段久已湮没的秘闻往事重现于荧屏之上。片方表示，虽然该剧故事极富传奇色彩，但却始终以尊....",
"emailed" : False,
"forwarded" : False,
"english" : False
}  , {
"index" : 4,
"articleIndex" : "36184",
"favor" :  False ,
     "read" : False,    
"title" : "蘑菇兄弟王嘉诚20日结婚结束13年爱情长跑",
"titleTip" : "蘑菇兄弟王嘉诚20日结婚结束13年爱情长跑",
"titleSummary" : "蘑菇兄弟王嘉诚20日结婚结束13年爱情长跑",
"descSummary" : "新浪娱乐讯 今天中午，蘑菇兄弟组合中的王嘉诚自曝本月20...",
"url" : "http:\/\/go.rss.sina.com.cn\/redirect.php?url=http:\/\/ent.sina.com.cn\/y\/w\/2013-10-17\/16514025971.shtml",
"pubDate" : "2013年10月17日 (1周前)",
"enterDate" : "384200:44:17",
"channelId" : "-2180326876029927220",
"channelName" : "焦点新闻-新浪娱乐",
"channelNameSummary" : "焦点新闻-新浪娱乐",
"channelUrl" : "http:\/\/ent.sina.com.cn",
"author" : "SINA.com",
"tags" : [],
"desc" : "新浪娱乐讯 &#160;今天中午，蘑菇兄弟组合中的王嘉诚自曝本月20号即将举行婚礼，与女友结束13年的爱情长跑。 今天中午11点33分，王嘉诚在其新浪个人微博上写道：\u201C咦哈！咦哈！咦哈哈！！我要灰常兴奋的宣布一个好消息，我要结婚了！！！就在本月的20号，我将与我的未....",
"emailed" : False,
"forwarded" : False,
"english" : False
}  , {
"index" : 5,
"articleIndex" : "36183",
"favor" :  False ,
     "read" : False,    
"title" : "陈妍希晒小龙女新造型 网友：顺眼多了",
"titleTip" : "陈妍希晒小龙女新造型 网友：顺眼多了",
"titleSummary" : "陈妍希晒小龙女新造型 网友：顺眼多了",
"descSummary" : "新浪娱乐讯 自从陈妍希[微博]确定出演于正[微博]版《神雕侠侣》...",
"url" : "http:\/\/go.rss.sina.com.cn\/redirect.php?url=http:\/\/ent.sina.com.cn\/v\/m\/w\/2013-10-17\/16454025966.shtml",
"pubDate" : "2013年10月17日 (1周前)",
"enterDate" : "384201:08:40",
"channelId" : "-2180326876029927220",
"channelName" : "焦点新闻-新浪娱乐",
"channelNameSummary" : "焦点新闻-新浪娱乐",
"channelUrl" : "http:\/\/ent.sina.com.cn",
"author" : "SINA.com",
"tags" : [],
"desc" : "新浪娱乐讯 自从陈妍希[微博]确定出演于正[微博]版《神雕侠侣》中的小龙女一角后，就备受外界争议，而尤其是造型曝光后遭到了大量网友吐槽，被批\u201C史上最胖小龙女。\u201D不过今日，陈妍希在微博上又上传了新的剧照，并称\u201C难得新发型，赶快晒一晒。\u201D 陈妍希晒出的小龙女....",
"emailed" : False,
"forwarded" : False,
"english" : False
}  , {
"index" : 6,
"articleIndex" : "36186",
"favor" :  False ,
     "read" : False,    
"title" : "汉字听写节目繁难偏被吐槽中文版GRE",
"titleTip" : "汉字听写节目繁难偏被吐槽中文版GRE",
"titleSummary" : "汉字听写节目繁难偏被吐槽中文版GRE",
"descSummary" : "听写的汉字越来越难，让观众觉得有脱离实际之嫌。华西都市报：...",
"url" : "http:\/\/go.rss.sina.com.cn\/redirect.php?url=http:\/\/ent.sina.com.cn\/v\/m\/2013-10-17\/16414025960.shtml",
"pubDate" : "2013年10月17日 (1周前)",
"enterDate" : "384200:03:53",
"channelId" : "-2180326876029927220",
"channelName" : "焦点新闻-新浪娱乐",
"channelNameSummary" : "焦点新闻-新浪娱乐",
"channelUrl" : "http:\/\/ent.sina.com.cn",
"author" : "SINA.com",
"tags" : [],
"desc" : "听写的汉字越来越难，让观众觉得有脱离实际之嫌。 华西都市报：尥蹶子、滹沱河、荦荦大端、酆都、分爨、f岩\u2026\u2026相信看了这写字词，很多人都会捏把汗：别说听写正确，认都没法认准哦！近日《中国汉字听写大会》、《汉字英雄》成为荧屏\u201C黑马\u201D，众多\u201C冷门\u201D汉字从故纸堆里....",
"emailed" : False,
"forwarded" : False,
"english" : False
}  , {
"index" : 7,
"articleIndex" : "36182",
"favor" :  False ,
     "read" : False,    
"title" : "组图：第56届亚太影展启动 曾志伟等亮相",
"titleTip" : "组图：第56届亚太影展启动 曾志伟等亮相",
"titleSummary" : "组图：第56届亚太影展启动 曾志伟等亮相",
"descSummary" : "",
"url" : "http:\/\/go.rss.sina.com.cn\/redirect.php?url=http:\/\/slide.ent.sina.com.cn\/film\/slide_4_704_67569.html",
"pubDate" : "2013年10月17日 (1周前)",
"enterDate" : "384201:03:46",
"channelId" : "-2180326876029927220",
"channelName" : "焦点新闻-新浪娱乐",
"channelNameSummary" : "焦点新闻-新浪娱乐",
"channelUrl" : "http:\/\/ent.sina.com.cn",
"author" : "SINA.com",
"tags" : [],
"desc" : "",
"emailed" : False,
"forwarded" : False,
"english" : False
}  , {
"index" : 8,
"articleIndex" : "36181",
"favor" :  False ,
     "read" : False,    
"title" : "网曝张柏芝加拿大豪宅 传已买房置业(图)",
"titleTip" : "网曝张柏芝加拿大豪宅 传已买房置业(图)",
"titleSummary" : "网曝张柏芝加拿大豪宅 传已买房置业(图)",
"descSummary" : "新浪娱乐讯 今日，有网友长春国贸微博曝出张柏芝在加拿大已购...",
"url" : "http:\/\/go.rss.sina.com.cn\/redirect.php?url=http:\/\/ent.sina.com.cn\/s\/h\/w\/2013-10-17\/16294025955.shtml",
"pubDate" : "2013年10月17日 (1周前)",
"enterDate" : "384200:52:35",
"channelId" : "-2180326876029927220",
"channelName" : "焦点新闻-新浪娱乐",
"channelNameSummary" : "焦点新闻-新浪娱乐",
"channelUrl" : "http:\/\/ent.sina.com.cn",
"author" : "SINA.com",
"tags" : [],
"desc" : "新浪娱乐讯 今日，有网友长春国贸微博曝出张柏芝在加拿大已购置豪宅。今年七月，张柏芝带着两个儿子前往温哥华度假，便有传闻称她为移民探路，后来又有报道称她与儿子们落户于加拿大并在加拿大买房。10月7日，张柏芝带着孩子们飞抵香港机场。当被问到移民、安排孩子加拿大读书....",
"emailed" : False,
"forwarded" : False,
"english" : False
}  , {
"index" : 9,
"articleIndex" : "36180",
"favor" :  False ,
     "read" : False,    
"title" : "麦莉登顶公告牌 七张新碟进榜单前十",
"titleTip" : "麦莉登顶公告牌 七张新碟进榜单前十",
"titleSummary" : "麦莉登顶公告牌 七张新碟进榜单前十",
"descSummary" : "新浪娱乐讯 北京时间10月17日消息，据国外媒体报道，在本周的公...",
"url" : "http:\/\/go.rss.sina.com.cn\/redirect.php?url=http:\/\/ent.sina.com.cn\/y\/2013-10-17\/16244025952.shtml",
"pubDate" : "2013年10月17日 (1周前)",
"enterDate" : "384200:47:30",
"channelId" : "-2180326876029927220",
"channelName" : "焦点新闻-新浪娱乐",
"channelNameSummary" : "焦点新闻-新浪娱乐",
"channelUrl" : "http:\/\/ent.sina.com.cn",
"author" : "SINA.com",
"tags" : [],
"desc" : "新浪娱乐讯 北京时间10月17日消息，据国外媒体报道，在本周的公告牌Billboard 200专辑榜中，麦莉-塞勒斯(Miley Cyrus)的新专辑《Bangerz》在上班首周空降榜首，与此同时，Panic! at the Disco乐队和Pusha T都有新作入围本周榜单前五名。 和此前媒体所预测的一样，麦莉-....",
"emailed" : False,
"forwarded" : False,
"english" : False
}  , {
"index" : 10,
"articleIndex" : "36179",
"favor" :  False ,
     "read" : False,    
"title" : "记者问陈冠希\u201C封杀\u201D事件 被保安请出场",
"titleTip" : "记者问陈冠希\u201C封杀\u201D事件 被保安请出场",
"titleSummary" : "记者问陈冠希\u201C封杀\u201D事件 被保安请出场",
"descSummary" : "新浪娱乐讯 近日，一份明星片酬表在网上传得沸沸扬扬，不过...",
"url" : "http:\/\/go.rss.sina.com.cn\/redirect.php?url=http:\/\/ent.sina.com.cn\/s\/h\/w\/2013-10-17\/16194025946.shtml",
"pubDate" : "2013年10月17日 (1周前)",
"enterDate" : "384200:42:32",
"channelId" : "-2180326876029927220",
"channelName" : "焦点新闻-新浪娱乐",
"channelNameSummary" : "焦点新闻-新浪娱乐",
"channelUrl" : "http:\/\/ent.sina.com.cn",
"author" : "SINA.com",
"tags" : [],
"desc" : "新浪娱乐讯 &#160;近日，一份明星片酬表在网上传得沸沸扬扬，不过，陈冠希[微博]一栏后却写了\u201C封杀\u201D字样。17日，陈冠希在上海举办演唱会发布会。当天，某媒体记者微博爆料道，现场一位女记者向陈冠希问了关于\u201C封杀\u201D的问题，没想到，立马被保安请出了现场。 (嘉阳\/....",
"emailed" : False,
"forwarded" : False,
"english" : False
}  , {
"index" : 11,
"articleIndex" : "36185",
"favor" :  False ,
     "read" : False,    
"title" : "《爸爸去哪儿》走红 拼孩拼萌一夜间流行",
"titleTip" : "《爸爸去哪儿》走红 拼孩拼萌一夜间流行",
"titleSummary" : "《爸爸去哪儿》走红 拼孩拼萌一夜间流行",
"descSummary" : "首播收视双网全国第一，百度点击量超过《快乐男声》、《中国...",
"url" : "http:\/\/go.rss.sina.com.cn\/redirect.php?url=http:\/\/ent.sina.com.cn\/v\/m\/2013-10-17\/16184025945.shtml",
"pubDate" : "2013年10月17日 (1周前)",
"enterDate" : "384199:41:40",
"channelId" : "-2180326876029927220",
"channelName" : "焦点新闻-新浪娱乐",
"channelNameSummary" : "焦点新闻-新浪娱乐",
"channelUrl" : "http:\/\/ent.sina.com.cn",
"author" : "SINA.com",
"tags" : [],
"desc" : "首播收视双网全国第一，百度点击量超过《快乐男声》、《中国好声音》。不管是公交车、飞机还是聚会点，都听到身边的人在谈论一档关于爸爸和孩子的电视节目\u2015\u2015 新闻现场 \u201C好爸爸\u201D红了 林志颖庆生 湖南卫视[微博]上周末推出的家庭亲子真人秀节目《爸爸....",
"emailed" : False,
"forwarded" : False,
"english" : False
}  , {
"index" : 12,
"articleIndex" : "36190",
"favor" :  False ,
     "read" : False,    
"title" : "佟大为不愿女出镜拒绝《爸爸去哪儿》邀请",
"titleTip" : "佟大为不愿女出镜拒绝《爸爸去哪儿》邀请",
"titleSummary" : "佟大为不愿女出镜拒绝《爸爸去哪儿》邀请",
"descSummary" : "新浪娱乐讯 10月16日，一身帅气西装打扮的佟大为[微博]现...",
"url" : "http:\/\/go.rss.sina.com.cn\/redirect.php?url=http:\/\/ent.sina.com.cn\/v\/h\/2013-10-17\/16084025932.shtml",
"pubDate" : "2013年10月17日 (1周前)",
"enterDate" : "384199:01:25",
"channelId" : "-2180326876029927220",
"channelName" : "焦点新闻-新浪娱乐",
"channelNameSummary" : "焦点新闻-新浪娱乐",
"channelUrl" : "http:\/\/ent.sina.com.cn",
"author" : "SINA.com",
"tags" : [],
"desc" : "新浪娱乐讯 10月16日，一身帅气西装打扮的佟大为[微博]现身上海，为某知名品牌新店开业站台。他现场举起酒杯豪饮，坐姿更是十足大男人。佟大为因在电影《中国合伙人》中出色的表现而人气提升，并入围第五十届金马奖最佳男配角的提名。入围虽然很开心，但对于拿奖佟大为却并不....",
"emailed" : False,
"forwarded" : False,
"english" : False
}  , {
"index" : 13,
"articleIndex" : "36174",
"favor" :  False ,
     "read" : False,    
"title" : "《醉乡民谣》伦敦首映 导演被脏话打动",
"titleTip" : "《醉乡民谣》伦敦首映 导演被脏话打动",
"titleSummary" : "《醉乡民谣》伦敦首映 导演被脏话打动",
"descSummary" : "伦敦当地时间10月15日(周二)晚，科恩兄弟的最新作品《醉乡民谣...",
"url" : "http:\/\/go.rss.sina.com.cn\/redirect.php?url=http:\/\/ent.sina.com.cn\/m\/f\/2013-10-17\/16054025928.shtml",
"pubDate" : "2013年10月17日 (1周前)",
"enterDate" : "384200:58:27",
"channelId" : "-2180326876029927220",
"channelName" : "焦点新闻-新浪娱乐",
"channelNameSummary" : "焦点新闻-新浪娱乐",
"channelUrl" : "http:\/\/ent.sina.com.cn",
"author" : "SINA.com",
"tags" : [],
"desc" : "伦敦当地时间10月15日(周二)晚，科恩兄弟的最新作品《醉乡民谣》(Inside&#160;Llewyn&#160;Davis)在伦敦莱彻斯特广场的Odeon影院举行了首映式，该活动是今年伦敦电影节的一部分，影片导演科恩兄弟、主演奥斯卡・伊萨克、凯瑞・穆里根、约翰・古德曼都出现在了红地毯上。 ....",
"emailed" : False,
"forwarded" : False,
"english" : False
}  , {
"index" : 14,
"articleIndex" : "36178",
"favor" :  False ,
     "read" : False,    
"title" : "组图：周秀娜有意当打女 忙工作难顾感情",
"titleTip" : "组图：周秀娜有意当打女 忙工作难顾感情",
"titleSummary" : "组图：周秀娜有意当打女 忙工作难顾感情",
"descSummary" : "组图：周秀娜有意当打女 忙工作难兼顾感情",
"url" : "http:\/\/go.rss.sina.com.cn\/redirect.php?url=http:\/\/slide.ent.sina.com.cn\/film\/slide_4_704_67566.html",
"pubDate" : "2013年10月17日 (1周前)",
"enterDate" : "384200:23:42",
"channelId" : "-2180326876029927220",
"channelName" : "焦点新闻-新浪娱乐",
"channelNameSummary" : "焦点新闻-新浪娱乐",
"channelUrl" : "http:\/\/ent.sina.com.cn",
"author" : "SINA.com",
"tags" : [],
"desc" : "组图：周秀娜有意当打女 忙工作难兼顾感情",
"emailed" : False,
"forwarded" : False,
"english" : False
}  , {
"index" : 15,
"articleIndex" : "36177",
"favor" :  False ,
     "read" : False,    
"title" : "《好好的》：爱就是这样作出来的",
"titleTip" : "《好好的》：爱就是这样作出来的",
"titleSummary" : "《好好的》：爱就是这样作出来的",
"descSummary" : "评家：公元1874 电影：《我想和你好好的》 导演：李蔚然 主演：倪...",
"url" : "http:\/\/go.rss.sina.com.cn\/redirect.php?url=http:\/\/ent.sina.com.cn\/r\/m\/2013-10-17\/15574025922.shtml",
"pubDate" : "2013年10月17日 (1周前)",
"enterDate" : "384200:20:20",
"channelId" : "-2180326876029927220",
"channelName" : "焦点新闻-新浪娱乐",
"channelNameSummary" : "焦点新闻-新浪娱乐",
"channelUrl" : "http:\/\/ent.sina.com.cn",
"author" : "SINA.com",
"tags" : [],
"desc" : "◎评家：公元1874 电影：《我想和你好好的》 导演：李蔚然 主演：倪妮、冯绍峰 时间：2013年10月12日 推荐指数：★★★★☆ 点评：故事的主角都是平凡人，一个没成上市公司CEO，另一个也没能大红大紫；而故事的聚焦点也不在于两人....",
"emailed" : False,
"forwarded" : False,
"english" : False
}  , {
"index" : 16,
"articleIndex" : "36176",
"favor" :  False ,
     "read" : False,    
"title" : "麦基：《西游降魔篇》说教大于喜剧精神",
"titleTip" : "麦基：《西游降魔篇》说教大于喜剧精神",
"titleSummary" : "麦基：《西游降魔篇》说教大于喜剧精神",
"descSummary" : "随着电影技术和特效的发展进步，现在我们完全有能力塑造出我...",
"url" : "http:\/\/go.rss.sina.com.cn\/redirect.php?url=http:\/\/ent.sina.com.cn\/r\/i\/2013-10-17\/15554025919.shtml",
"pubDate" : "2013年10月17日 (1周前)",
"enterDate" : "384200:18:06",
"channelId" : "-2180326876029927220",
"channelName" : "焦点新闻-新浪娱乐",
"channelNameSummary" : "焦点新闻-新浪娱乐",
"channelUrl" : "http:\/\/ent.sina.com.cn",
"author" : "SINA.com",
"tags" : [],
"desc" : "随着电影技术和特效的发展进步，现在我们完全有能力塑造出我们所能想象得到的任何事情或任何画面。因此，出色的特效可谓是一种想象力的成功。周星驰先生在这部电影中塑造了一系列精彩的画面，一开始是鱼妖，后来是猪妖，最后一只神猴将这部电影推至高潮。影片中刻画的人物形象....",
"emailed" : False,
"forwarded" : False,
"english" : False
}  , {
"index" : 17,
"articleIndex" : "36173",
"favor" :  False ,
     "read" : False,    
"title" : "冯小刚直言：葛优不演，冯氏喜剧没戏",
"titleTip" : "冯小刚直言：葛优不演，冯氏喜剧没戏",
"titleSummary" : "冯小刚直言：葛优不演，冯氏喜剧没戏",
"descSummary" : "从第一次合作《编辑部的故事》，到即将上映的贺岁喜剧《私人定...",
"url" : "http:\/\/go.rss.sina.com.cn\/redirect.php?url=http:\/\/ent.sina.com.cn\/m\/c\/2013-10-17\/15524025915.shtml",
"pubDate" : "2013年10月17日 (1周前)",
"enterDate" : "384200:45:18",
"channelId" : "-2180326876029927220",
"channelName" : "焦点新闻-新浪娱乐",
"channelNameSummary" : "焦点新闻-新浪娱乐",
"channelUrl" : "http:\/\/ent.sina.com.cn",
"author" : "SINA.com",
"tags" : [],
"desc" : "从第一次合作《编辑部的故事》，到即将上映的贺岁喜剧《私人定制》，冯小刚[微博]与葛优这对中国电影贺岁档的黄金搭档已经相识了20余年，共同拍摄10部电影，大多是当年的票房冠军。昨天，向来衣着随意的冯小刚与葛优西装革履地亮相京城，借《私人定制》发布会之际庆祝相识20年....",
"emailed" : False,
"forwarded" : False,
"english" : False
}  , {
"index" : 18,
"articleIndex" : "36175",
"favor" :  False ,
     "read" : False,    
"title" : "《演说家》选手抢名额 林志颖曝糗事",
"titleTip" : "《演说家》选手抢名额 林志颖曝糗事",
"titleSummary" : "《演说家》选手抢名额 林志颖曝糗事",
"descSummary" : "新浪娱乐讯 日前，由鲁豫、李咏[微博]、林志颖[微博]、乐嘉[微博]...",
"url" : "http:\/\/go.rss.sina.com.cn\/redirect.php?url=http:\/\/ent.sina.com.cn\/y\/2013-10-17\/15514025914.shtml",
"pubDate" : "2013年10月17日 (1周前)",
"enterDate" : "384200:14:40",
"channelId" : "-2180326876029927220",
"channelName" : "焦点新闻-新浪娱乐",
"channelNameSummary" : "焦点新闻-新浪娱乐",
"channelUrl" : "http:\/\/ent.sina.com.cn",
"author" : "SINA.com",
"tags" : [],
"desc" : "新浪娱乐讯 日前，由鲁豫、李咏[微博]、林志颖[微博]、乐嘉[微博]四大导师坐阵的安徽卫视语言竞技真人秀节目《超级演说家》，播出后收视成绩一直不错。今晚(10月17日)，林志颖率领\u201C光棍队\u201D3名选手黄澄澄、许豪杰、黄小山挺进冲击赛阶段。梦想家林志颖变身演说家，讲述自己出....",
"emailed" : False,
"forwarded" : False,
"english" : False
}  , {
"index" : 19,
"articleIndex" : "36172",
"favor" :  False ,
     "read" : False,    
"title" : "抖森自豪同性恋粉丝多 赞雷神肌肉胜他人",
"titleTip" : "抖森自豪同性恋粉丝多 赞雷神肌肉胜他人",
"titleSummary" : "抖森自豪同性恋粉丝多 赞雷神肌肉胜他人",
"descSummary" : "撰文\/丁杰静 坦白说\u201C学霸型\u201D演员在好莱坞并不好混，用眼前...",
"url" : "http:\/\/go.rss.sina.com.cn\/redirect.php?url=http:\/\/ent.sina.com.cn\/m\/f\/2013-10-17\/15504025912.shtml",
"pubDate" : "2013年10月17日 (1周前)",
"enterDate" : "384200:43:37",
"channelId" : "-2180326876029927220",
"channelName" : "焦点新闻-新浪娱乐",
"channelNameSummary" : "焦点新闻-新浪娱乐",
"channelUrl" : "http:\/\/ent.sina.com.cn",
"author" : "SINA.com",
"tags" : [],
"desc" : "撰文\/丁杰静 坦白说\u201C学霸型\u201D演员在好莱坞并不好混，用眼前\u201C汤抖森\u201D(汤姆・希德勒斯顿)的话说，\u201C本来试镜进行得很OK，但被迫如实说出求学经历中的伊顿公学、剑桥大学这几个字眼后，屋里的气氛就凝固了，像有鬼飘过\u2026\u2026\u201D不过自打他演的\u201C恶作剧之神\u201D洛基萌翻全球....",
"emailed" : False,
"forwarded" : False,
"english" : False
} ]
}
