{
"mode" : {"viewTitle" : 1,   "viewNew" : 0,  "pageIndex" : 1 },
 "channel" : {"id" : "-8568143508593059916", "booked" : False, "subNumber" : 1, "name" : "北京房产-地产评论", "url" : "http:\/\/bj.house.sina.com.cn\/dcpl\/", "feed" : "http:\/\/rss.sina.com.cn\/bjhouse\/dcpl.xml", "author" : "", "desc" : "北京房产-地产评论", "imageUrl" : "http:\/\/www.sinaimg.cn\/house\/sina_fc.gif", "postPerWeek" : "0", "lastCrawTime" : "17:13:05", "crawDateTime" : "17:13:05", "lastHttpCode" : "200"}, "page" : {
"startIndex" : 0,
"totalCount" : 5000,
"pageIndex" : 1,
"lastPage" : 250,
"pageSize" : 20,
"english" :  False },
 "unreadNum" : 0, "shotIndex" : -1,
"articles" : [
{
"index" : 0,
"articleIndex" : "11079",
"favor" :  False ,
     "read" : False,    
"title" : "上海二手房市场青黄不接 挂牌价格小幅提升",
"titleTip" : "上海二手房市场青黄不接 挂牌价格小幅提升",
"titleSummary" : "上海二手房市场青黄不接 挂牌价格小幅提升",
"descSummary" : "",
"url" : "http:\/\/go.rss.sina.com.cn\/redirect.php?url=http:\/\/news.dichan.sina.com.cn\/2012\/04\/28\/482471.html?source=rss",
"pubDate" : "2012年4月28日",
"enterDate" : "384201:01:07",
"channelId" : "-8568143508593059916",
"channelName" : "北京房产-地产评论",
"channelNameSummary" : "北京房产-地产评论",
"channelUrl" : "http:\/\/bj.house.sina.com.cn\/dcpl\/",
"author" : "WWW.SINA.COM.CN",
"tags" : [],
"desc" : "",
"emailed" : False,
"forwarded" : False,
"english" : False
}  , {
"index" : 1,
"articleIndex" : "11078",
"favor" :  False ,
     "read" : False,    
"title" : "任志强：事实将证明中国此轮房产调控还是错的",
"titleTip" : "任志强：事实将证明中国此轮房产调控还是错的",
"titleSummary" : "任志强：事实将证明中国此轮房产调控还是错的",
"descSummary" : "",
"url" : "http:\/\/go.rss.sina.com.cn\/redirect.php?url=http:\/\/news.dichan.sina.com.cn\/2012\/04\/28\/482470.html?source=rss",
"pubDate" : "2012年4月28日",
"enterDate" : "384201:00:55",
"channelId" : "-8568143508593059916",
"channelName" : "北京房产-地产评论",
"channelNameSummary" : "北京房产-地产评论",
"channelUrl" : "http:\/\/bj.house.sina.com.cn\/dcpl\/",
"author" : "WWW.SINA.COM.CN",
"tags" : [],
"desc" : "",
"emailed" : False,
"forwarded" : False,
"english" : False
}  , {
"index" : 2,
"articleIndex" : "11077",
"favor" :  False ,
     "read" : False,    
"title" : "中国房企上演\u201C刚需\u201D争夺战",
"titleTip" : "中国房企上演\u201C刚需\u201D争夺战",
"titleSummary" : "中国房企上演\u201C刚需\u201D争夺战",
"descSummary" : "",
"url" : "http:\/\/go.rss.sina.com.cn\/redirect.php?url=http:\/\/news.dichan.sina.com.cn\/2012\/04\/28\/482430.html?source=rss",
"pubDate" : "2012年4月28日",
"enterDate" : "384201:00:35",
"channelId" : "-8568143508593059916",
"channelName" : "北京房产-地产评论",
"channelNameSummary" : "北京房产-地产评论",
"channelUrl" : "http:\/\/bj.house.sina.com.cn\/dcpl\/",
"author" : "WWW.SINA.COM.CN",
"tags" : [],
"desc" : "",
"emailed" : False,
"forwarded" : False,
"english" : False
}  , {
"index" : 3,
"articleIndex" : "11076",
"favor" :  False ,
     "read" : False,    
"title" : "郁亮：房地产市场冬天会很长 二三季度未必见底",
"titleTip" : "郁亮：房地产市场冬天会很长 二三季度未必见底",
"titleSummary" : "郁亮：房地产市场冬天会很长 二三季度未必见底",
"descSummary" : "尽管三四月楼市成交上扬，中国房地产龙头企业万科仍保...",
"url" : "http:\/\/go.rss.sina.com.cn\/redirect.php?url=http:\/\/news.dichan.sina.com.cn\/2012\/04\/28\/482316_all.html?source=rss",
"pubDate" : "2012年4月28日",
"enterDate" : "384201:17:04",
"channelId" : "-8568143508593059916",
"channelName" : "北京房产-地产评论",
"channelNameSummary" : "北京房产-地产评论",
"channelUrl" : "http:\/\/bj.house.sina.com.cn\/dcpl\/",
"author" : "WWW.SINA.COM.CN",
"tags" : [],
"desc" : "尽管三四月楼市成交上扬，中国房地产龙头企业万科仍保持悲观论调。4月27日，万科总裁郁亮在2012中城联盟董事长年会上谈到，房地产市场的冬天会很长，二三季度都未必见底。",
"emailed" : False,
"forwarded" : False,
"english" : False
}  , {
"index" : 4,
"articleIndex" : "11075",
"favor" :  False ,
     "read" : False,    
"title" : "郁亮：房地产市场冬天会很长 二三季度未必见底",
"titleTip" : "郁亮：房地产市场冬天会很长 二三季度未必见底",
"titleSummary" : "郁亮：房地产市场冬天会很长 二三季度未必见底",
"descSummary" : "提要：尽管三四月楼市成交上扬，中国房地产龙头企业万...",
"url" : "http:\/\/go.rss.sina.com.cn\/redirect.php?url=http:\/\/news.dichan.sina.com.cn\/2012\/04\/28\/482316.html?source=rss",
"pubDate" : "2012年4月28日",
"enterDate" : "384201:17:00",
"channelId" : "-8568143508593059916",
"channelName" : "北京房产-地产评论",
"channelNameSummary" : "北京房产-地产评论",
"channelUrl" : "http:\/\/bj.house.sina.com.cn\/dcpl\/",
"author" : "WWW.SINA.COM.CN",
"tags" : [],
"desc" : "提要：尽管三四月楼市成交上扬，中国房地产龙头企业万科仍保持悲观论调。4月27日，万科总裁郁亮在2012中城联盟董事长年会上谈到，房地产市场的冬天会很长，二三季度都未必见底。",
"emailed" : False,
"forwarded" : False,
"english" : False
}  , {
"index" : 5,
"articleIndex" : "11074",
"favor" :  False ,
     "read" : False,    
"title" : "名家放言:房企倒闭是正常现象 \"微调\"销售良机",
"titleTip" : "名家放言:房企倒闭是正常现象 \"微调\"销售良机",
"titleSummary" : "名家放言:房企倒闭是正常现象 \"微调\"销售良机",
"descSummary" : "",
"url" : "http:\/\/go.rss.sina.com.cn\/redirect.php?url=http:\/\/news.dichan.sina.com.cn\/2012\/04\/28\/482267.html?source=rss",
"pubDate" : "2012年4月28日",
"enterDate" : "384200:53:37",
"channelId" : "-8568143508593059916",
"channelName" : "北京房产-地产评论",
"channelNameSummary" : "北京房产-地产评论",
"channelUrl" : "http:\/\/bj.house.sina.com.cn\/dcpl\/",
"author" : "WWW.SINA.COM.CN",
"tags" : [],
"desc" : "",
"emailed" : False,
"forwarded" : False,
"english" : False
}  , {
"index" : 6,
"articleIndex" : "11073",
"favor" :  False ,
     "read" : False,    
"title" : "楼市时评：《人民日报》都劝你择时入市了",
"titleTip" : "楼市时评：《人民日报》都劝你择时入市了",
"titleSummary" : "楼市时评：《人民日报》都劝你择时入市了",
"descSummary" : "",
"url" : "http:\/\/go.rss.sina.com.cn\/redirect.php?url=http:\/\/news.dichan.sina.com.cn\/2012\/04\/28\/482255.html?source=rss",
"pubDate" : "2012年4月28日",
"enterDate" : "384201:16:23",
"channelId" : "-8568143508593059916",
"channelName" : "北京房产-地产评论",
"channelNameSummary" : "北京房产-地产评论",
"channelUrl" : "http:\/\/bj.house.sina.com.cn\/dcpl\/",
"author" : "WWW.SINA.COM.CN",
"tags" : [],
"desc" : "",
"emailed" : False,
"forwarded" : False,
"english" : False
}  , {
"index" : 7,
"articleIndex" : "11072",
"favor" :  False ,
     "read" : False,    
"title" : "住房公积金使用范围该如何\u201C扩大\u201D？",
"titleTip" : "住房公积金使用范围该如何\u201C扩大\u201D？",
"titleSummary" : "住房公积金使用范围该如何\u201C扩大\u201D？",
"descSummary" : "",
"url" : "http:\/\/go.rss.sina.com.cn\/redirect.php?url=http:\/\/news.dichan.sina.com.cn\/2012\/04\/28\/482236.html?source=rss",
"pubDate" : "2012年4月28日",
"enterDate" : "384201:03:45",
"channelId" : "-8568143508593059916",
"channelName" : "北京房产-地产评论",
"channelNameSummary" : "北京房产-地产评论",
"channelUrl" : "http:\/\/bj.house.sina.com.cn\/dcpl\/",
"author" : "WWW.SINA.COM.CN",
"tags" : [],
"desc" : "",
"emailed" : False,
"forwarded" : False,
"english" : False
}  , {
"index" : 8,
"articleIndex" : "11071",
"favor" :  False ,
     "read" : False,    
"title" : "楼市是否已触底 且看三个信号",
"titleTip" : "楼市是否已触底 且看三个信号",
"titleSummary" : "楼市是否已触底 且看三个信号",
"descSummary" : "",
"url" : "http:\/\/go.rss.sina.com.cn\/redirect.php?url=http:\/\/news.dichan.sina.com.cn\/2012\/04\/28\/482166.html?source=rss",
"pubDate" : "2012年4月28日",
"enterDate" : "384200:54:21",
"channelId" : "-8568143508593059916",
"channelName" : "北京房产-地产评论",
"channelNameSummary" : "北京房产-地产评论",
"channelUrl" : "http:\/\/bj.house.sina.com.cn\/dcpl\/",
"author" : "WWW.SINA.COM.CN",
"tags" : [],
"desc" : "",
"emailed" : False,
"forwarded" : False,
"english" : False
}  , {
"index" : 9,
"articleIndex" : "11070",
"favor" :  False ,
     "read" : False,    
"title" : "房企面临新一轮洗牌小房企破产 大房企抄底",
"titleTip" : "房企面临新一轮洗牌小房企破产 大房企抄底",
"titleSummary" : "房企面临新一轮洗牌小房企破产 大房企抄底",
"descSummary" : "",
"url" : "http:\/\/go.rss.sina.com.cn\/redirect.php?url=http:\/\/news.dichan.sina.com.cn\/2012\/04\/28\/482161.html?source=rss",
"pubDate" : "2012年4月28日",
"enterDate" : "384201:14:46",
"channelId" : "-8568143508593059916",
"channelName" : "北京房产-地产评论",
"channelNameSummary" : "北京房产-地产评论",
"channelUrl" : "http:\/\/bj.house.sina.com.cn\/dcpl\/",
"author" : "WWW.SINA.COM.CN",
"tags" : [],
"desc" : "",
"emailed" : False,
"forwarded" : False,
"english" : False
}  , {
"index" : 10,
"articleIndex" : "11069",
"favor" :  False ,
     "read" : False,    
"title" : "鲁桂华：从万科、保利、招商看房地产行业现状",
"titleTip" : "鲁桂华：从万科、保利、招商看房地产行业现状",
"titleSummary" : "鲁桂华：从万科、保利、招商看房地产行业现状",
"descSummary" : "",
"url" : "http:\/\/go.rss.sina.com.cn\/redirect.php?url=http:\/\/news.dichan.sina.com.cn\/2012\/04\/28\/482143.html?source=rss",
"pubDate" : "2012年4月28日",
"enterDate" : "384200:56:15",
"channelId" : "-8568143508593059916",
"channelName" : "北京房产-地产评论",
"channelNameSummary" : "北京房产-地产评论",
"channelUrl" : "http:\/\/bj.house.sina.com.cn\/dcpl\/",
"author" : "WWW.SINA.COM.CN",
"tags" : [],
"desc" : "",
"emailed" : False,
"forwarded" : False,
"english" : False
}  , {
"index" : 11,
"articleIndex" : "11068",
"favor" :  False ,
     "read" : False,    
"title" : "房地产调控下一招 或是房产税",
"titleTip" : "房地产调控下一招 或是房产税",
"titleSummary" : "房地产调控下一招 或是房产税",
"descSummary" : "",
"url" : "http:\/\/go.rss.sina.com.cn\/redirect.php?url=http:\/\/news.dichan.sina.com.cn\/2012\/04\/28\/482134.html?source=rss",
"pubDate" : "2012年4月28日",
"enterDate" : "384200:50:15",
"channelId" : "-8568143508593059916",
"channelName" : "北京房产-地产评论",
"channelNameSummary" : "北京房产-地产评论",
"channelUrl" : "http:\/\/bj.house.sina.com.cn\/dcpl\/",
"author" : "WWW.SINA.COM.CN",
"tags" : [],
"desc" : "",
"emailed" : False,
"forwarded" : False,
"english" : False
}  , {
"index" : 12,
"articleIndex" : "11067",
"favor" :  False ,
     "read" : False,    
"title" : "刘忠良：政府为了地方财政是不会力推房产税",
"titleTip" : "刘忠良：政府为了地方财政是不会力推房产税",
"titleSummary" : "刘忠良：政府为了地方财政是不会力推房产税",
"descSummary" : "",
"url" : "http:\/\/go.rss.sina.com.cn\/redirect.php?url=http:\/\/news.dichan.sina.com.cn\/2012\/04\/28\/482065_all.html?source=rss",
"pubDate" : "2012年4月28日",
"enterDate" : "384201:02:32",
"channelId" : "-8568143508593059916",
"channelName" : "北京房产-地产评论",
"channelNameSummary" : "北京房产-地产评论",
"channelUrl" : "http:\/\/bj.house.sina.com.cn\/dcpl\/",
"author" : "WWW.SINA.COM.CN",
"tags" : [],
"desc" : "",
"emailed" : False,
"forwarded" : False,
"english" : False
}  , {
"index" : 13,
"articleIndex" : "11066",
"favor" :  False ,
     "read" : False,    
"title" : "刘忠良：政府为了地方财政是不会力推房产税",
"titleTip" : "刘忠良：政府为了地方财政是不会力推房产税",
"titleSummary" : "刘忠良：政府为了地方财政是不会力推房产税",
"descSummary" : "提要：评论人士刘忠良近日在北青网发表文章称，综合分析...",
"url" : "http:\/\/go.rss.sina.com.cn\/redirect.php?url=http:\/\/news.dichan.sina.com.cn\/2012\/04\/28\/482065.html?source=rss",
"pubDate" : "2012年4月28日",
"enterDate" : "384201:02:29",
"channelId" : "-8568143508593059916",
"channelName" : "北京房产-地产评论",
"channelNameSummary" : "北京房产-地产评论",
"channelUrl" : "http:\/\/bj.house.sina.com.cn\/dcpl\/",
"author" : "WWW.SINA.COM.CN",
"tags" : [],
"desc" : "提要：评论人士刘忠良近日在北青网发表文章称，综合分析，中国高房价的最核心因素有三条：土地制度，廉租房不足和政府打击高房价不力。中国能够享受到保障房的家庭不足10%，如果中国有足够的廉租房，高价的商品房必然失去大量需求，高房价必然无法维持。",
"emailed" : False,
"forwarded" : False,
"english" : False
}  , {
"index" : 14,
"articleIndex" : "11065",
"favor" :  False ,
     "read" : False,    
"title" : "人民日报：救市传言只是房企\u201C单相思\u201D",
"titleTip" : "人民日报：救市传言只是房企\u201C单相思\u201D",
"titleSummary" : "人民日报：救市传言只是房企\u201C单相思\u201D",
"descSummary" : "4月27日，对近期有关房地产调控放松的传言，业内人士表示，...",
"url" : "http:\/\/go.rss.sina.com.cn\/redirect.php?url=http:\/\/news.dichan.sina.com.cn\/2012\/04\/28\/482067_all.html?source=rss",
"pubDate" : "2012年4月28日",
"enterDate" : "384201:01:59",
"channelId" : "-8568143508593059916",
"channelName" : "北京房产-地产评论",
"channelNameSummary" : "北京房产-地产评论",
"channelUrl" : "http:\/\/bj.house.sina.com.cn\/dcpl\/",
"author" : "WWW.SINA.COM.CN",
"tags" : [],
"desc" : "4月27日，对近期有关房地产调控放松的传言，业内人士表示，住建部有关\u201C抑制投资购房需求，支持合理购房需求\u201D的政策十分明确，也不会改变，有关房地产救市的猜测只是房企的\u201C单相思\u201D而已。",
"emailed" : False,
"forwarded" : False,
"english" : False
}  , {
"index" : 15,
"articleIndex" : "11064",
"favor" :  False ,
     "read" : False,    
"title" : "人民日报：救市传言只是房企\u201C单相思\u201D",
"titleTip" : "人民日报：救市传言只是房企\u201C单相思\u201D",
"titleSummary" : "人民日报：救市传言只是房企\u201C单相思\u201D",
"descSummary" : "提要：4月27日，对近期有关房地产调控放松的传言，业内人士...",
"url" : "http:\/\/go.rss.sina.com.cn\/redirect.php?url=http:\/\/news.dichan.sina.com.cn\/2012\/04\/28\/482067.html?source=rss",
"pubDate" : "2012年4月28日",
"enterDate" : "384201:01:57",
"channelId" : "-8568143508593059916",
"channelName" : "北京房产-地产评论",
"channelNameSummary" : "北京房产-地产评论",
"channelUrl" : "http:\/\/bj.house.sina.com.cn\/dcpl\/",
"author" : "WWW.SINA.COM.CN",
"tags" : [],
"desc" : "提要：4月27日，对近期有关房地产调控放松的传言，业内人士表示，住建部有关\u201C抑制投资购房需求，支持合理购房需求\u201D的政策十分明确，也不会改变，有关房地产救市的猜测只是房企的\u201C单相思\u201D而已。",
"emailed" : False,
"forwarded" : False,
"english" : False
}  , {
"index" : 16,
"articleIndex" : "11063",
"favor" :  False ,
     "read" : False,    
"title" : "刺激刚需能否引起楼市反弹",
"titleTip" : "刺激刚需能否引起楼市反弹",
"titleSummary" : "刺激刚需能否引起楼市反弹",
"descSummary" : "",
"url" : "http:\/\/go.rss.sina.com.cn\/redirect.php?url=http:\/\/news.dichan.sina.com.cn\/2012\/04\/28\/482061.html?source=rss",
"pubDate" : "2012年4月28日",
"enterDate" : "384201:00:16",
"channelId" : "-8568143508593059916",
"channelName" : "北京房产-地产评论",
"channelNameSummary" : "北京房产-地产评论",
"channelUrl" : "http:\/\/bj.house.sina.com.cn\/dcpl\/",
"author" : "WWW.SINA.COM.CN",
"tags" : [],
"desc" : "",
"emailed" : False,
"forwarded" : False,
"english" : False
}  , {
"index" : 17,
"articleIndex" : "11062",
"favor" :  False ,
     "read" : False,    
"title" : "高利贷缘何偏爱房地产",
"titleTip" : "高利贷缘何偏爱房地产",
"titleSummary" : "高利贷缘何偏爱房地产",
"descSummary" : "全球金融危机以来货币政策的失误导致民间高利贷泛滥，最大的隐忧是高利贷资本...",
"url" : "http:\/\/go.rss.sina.com.cn\/redirect.php?url=http:\/\/news.dichan.sina.com.cn\/2012\/04\/28\/482060_all.html?source=rss",
"pubDate" : "2012年4月28日",
"enterDate" : "384200:59:26",
"channelId" : "-8568143508593059916",
"channelName" : "北京房产-地产评论",
"channelNameSummary" : "北京房产-地产评论",
"channelUrl" : "http:\/\/bj.house.sina.com.cn\/dcpl\/",
"author" : "WWW.SINA.COM.CN",
"tags" : [],
"desc" : "全球金融危机以来货币政策的失误导致民间高利贷泛滥，最大的隐忧是高利贷资本主要流入房地产行业。前几年房地产行业的泡沫虚增导致房价的快速攀升，给高利贷资本提供了一个投机平台，同时该行业的高杠杆率也为高利贷的高利息提供了空间。",
"emailed" : False,
"forwarded" : False,
"english" : False
}  , {
"index" : 18,
"articleIndex" : "11061",
"favor" :  False ,
     "read" : False,    
"title" : "高利贷缘何偏爱房地产",
"titleTip" : "高利贷缘何偏爱房地产",
"titleSummary" : "高利贷缘何偏爱房地产",
"descSummary" : "提要：全球金融危机以来货币政策的失误导致民间高利贷泛滥，最大的隐忧是高利...",
"url" : "http:\/\/go.rss.sina.com.cn\/redirect.php?url=http:\/\/news.dichan.sina.com.cn\/2012\/04\/28\/482060.html?source=rss",
"pubDate" : "2012年4月28日",
"enterDate" : "384200:59:24",
"channelId" : "-8568143508593059916",
"channelName" : "北京房产-地产评论",
"channelNameSummary" : "北京房产-地产评论",
"channelUrl" : "http:\/\/bj.house.sina.com.cn\/dcpl\/",
"author" : "WWW.SINA.COM.CN",
"tags" : [],
"desc" : "提要：全球金融危机以来货币政策的失误导致民间高利贷泛滥，最大的隐忧是高利贷资本主要流入房地产行业。前几年房地产行业的泡沫虚增导致房价的快速攀升，给高利贷资本提供了一个投机平台，同时该行业的高杠杆率也为高利贷的高利息提供了空间。",
"emailed" : False,
"forwarded" : False,
"english" : False
}  , {
"index" : 19,
"articleIndex" : "11080",
"favor" :  False ,
     "read" : False,    
"title" : "杨红旭：楼市春心动 涨价有点蠢",
"titleTip" : "杨红旭：楼市春心动 涨价有点蠢",
"titleSummary" : "杨红旭：楼市春心动 涨价有点蠢",
"descSummary" : "近期，国内气氛相当沉闷，政治、经济皆如此，房地产更不必言。一季度...",
"url" : "http:\/\/go.rss.sina.com.cn\/redirect.php?url=http:\/\/news.dichan.sina.com.cn\/2012\/04\/25\/480186.html?source=rss",
"pubDate" : "2012年4月25日",
"enterDate" : "384111:20:04",
"channelId" : "-8568143508593059916",
"channelName" : "北京房产-地产评论",
"channelNameSummary" : "北京房产-地产评论",
"channelUrl" : "http:\/\/bj.house.sina.com.cn\/dcpl\/",
"author" : "WWW.SINA.COM.CN",
"tags" : [],
"desc" : "近期，国内气氛相当沉闷，政治、经济皆如此，房地产更不必言。一季度，上海市房地产开发企业商品房新开工面积同比大幅下降19.8%，比上个月回落45.6个百分点，简直就是高台跳水。对此，房地产企业应有清醒认知，切莫一看到成交量反弹，便蠢蠢欲动的想涨价，否则可真就有点\u201C蠢\u201D了....",
"emailed" : False,
"forwarded" : False,
"english" : False
} ]
}
