{
"mode" : {"viewTitle" : 1,   "viewNew" : 0,  "pageIndex" : 2 },
 "channel" : {"id" : "-8568143508593059916", "booked" : False, "subNumber" : 1, "name" : "北京房产-地产评论", "url" : "http:\/\/bj.house.sina.com.cn\/dcpl\/", "feed" : "http:\/\/rss.sina.com.cn\/bjhouse\/dcpl.xml", "author" : "", "desc" : "北京房产-地产评论", "imageUrl" : "http:\/\/www.sinaimg.cn\/house\/sina_fc.gif", "postPerWeek" : "0", "lastCrawTime" : "17:13:05", "crawDateTime" : "17:13:05", "lastHttpCode" : "200"}, "page" : {
"startIndex" : 20,
"totalCount" : 5000,
"pageIndex" : 2,
"lastPage" : 250,
"pageSize" : 20,
"english" :  False },
 "unreadNum" : 0, "shotIndex" : -1,
"articles" : [
{
"index" : 0,
"articleIndex" : "11060",
"favor" :  False ,
     "read" : False,    
"title" : "澳门3月楼市成交量价齐升 业界预期可看高一线",
"titleTip" : "澳门3月楼市成交量价齐升 业界预期可看高一线",
"titleSummary" : "澳门3月楼市成交量价齐升 业界预期可看高一线",
"descSummary" : "",
"url" : "http:\/\/go.rss.sina.com.cn\/redirect.php?url=http:\/\/news.dichan.sina.com.cn\/2012\/04\/28\/482014.html?source=rss",
"pubDate" : "2012年4月28日",
"enterDate" : "384200:58:39",
"channelId" : "-8568143508593059916",
"channelName" : "北京房产-地产评论",
"channelNameSummary" : "北京房产-地产评论",
"channelUrl" : "http:\/\/bj.house.sina.com.cn\/dcpl\/",
"author" : "WWW.SINA.COM.CN",
"tags" : [],
"desc" : "",
"emailed" : False,
"forwarded" : False,
"english" : False
}  , {
"index" : 1,
"articleIndex" : "11059",
"favor" :  False ,
     "read" : False,    
"title" : "刺激刚需会否引起楼市反弹？",
"titleTip" : "刺激刚需会否引起楼市反弹？",
"titleSummary" : "刺激刚需会否引起楼市反弹？",
"descSummary" : "",
"url" : "http:\/\/go.rss.sina.com.cn\/redirect.php?url=http:\/\/news.dichan.sina.com.cn\/2012\/04\/28\/482012.html?source=rss",
"pubDate" : "2012年4月28日",
"enterDate" : "384200:56:49",
"channelId" : "-8568143508593059916",
"channelName" : "北京房产-地产评论",
"channelNameSummary" : "北京房产-地产评论",
"channelUrl" : "http:\/\/bj.house.sina.com.cn\/dcpl\/",
"author" : "WWW.SINA.COM.CN",
"tags" : [],
"desc" : "",
"emailed" : False,
"forwarded" : False,
"english" : False
}  , {
"index" : 2,
"articleIndex" : "11058",
"favor" :  False ,
     "read" : False,    
"title" : "一二线城市成交量回升 房地产最坏时候已过去？",
"titleTip" : "一二线城市成交量回升 房地产最坏时候已过去？",
"titleSummary" : "一二线城市成交量回升 房地产最坏时候已过去？",
"descSummary" : "",
"url" : "http:\/\/go.rss.sina.com.cn\/redirect.php?url=http:\/\/news.dichan.sina.com.cn\/2012\/04\/28\/482006.html?source=rss",
"pubDate" : "2012年4月28日",
"enterDate" : "384200:51:49",
"channelId" : "-8568143508593059916",
"channelName" : "北京房产-地产评论",
"channelNameSummary" : "北京房产-地产评论",
"channelUrl" : "http:\/\/bj.house.sina.com.cn\/dcpl\/",
"author" : "WWW.SINA.COM.CN",
"tags" : [],
"desc" : "",
"emailed" : False,
"forwarded" : False,
"english" : False
}  , {
"index" : 3,
"articleIndex" : "11057",
"favor" :  False ,
     "read" : False,    
"title" : "马光远：房企倒闭是在演\u201C哭戏\u201D 要挟政府放松调控",
"titleTip" : "马光远：房企倒闭是在演\u201C哭戏\u201D 要挟政府放松调控",
"titleSummary" : "马光远：房企倒闭是在演\u201C哭戏\u201D 要挟政府放松调控",
"descSummary" : "",
"url" : "http:\/\/go.rss.sina.com.cn\/redirect.php?url=http:\/\/news.dichan.sina.com.cn\/2012\/04\/28\/481993.html?source=rss",
"pubDate" : "2012年4月28日",
"enterDate" : "384201:14:14",
"channelId" : "-8568143508593059916",
"channelName" : "北京房产-地产评论",
"channelNameSummary" : "北京房产-地产评论",
"channelUrl" : "http:\/\/bj.house.sina.com.cn\/dcpl\/",
"author" : "WWW.SINA.COM.CN",
"tags" : [],
"desc" : "",
"emailed" : False,
"forwarded" : False,
"english" : False
}  , {
"index" : 4,
"articleIndex" : "11056",
"favor" :  False ,
     "read" : False,    
"title" : "楼市红5月是否如期而至 业内预计价格战继续",
"titleTip" : "楼市红5月是否如期而至 业内预计价格战继续",
"titleSummary" : "楼市红5月是否如期而至 业内预计价格战继续",
"descSummary" : "",
"url" : "http:\/\/go.rss.sina.com.cn\/redirect.php?url=http:\/\/news.dichan.sina.com.cn\/2012\/04\/27\/481988.html?source=rss",
"pubDate" : "2012年4月27日",
"enterDate" : "384201:07:08",
"channelId" : "-8568143508593059916",
"channelName" : "北京房产-地产评论",
"channelNameSummary" : "北京房产-地产评论",
"channelUrl" : "http:\/\/bj.house.sina.com.cn\/dcpl\/",
"author" : "WWW.SINA.COM.CN",
"tags" : [],
"desc" : "",
"emailed" : False,
"forwarded" : False,
"english" : False
}  , {
"index" : 5,
"articleIndex" : "11055",
"favor" :  False ,
     "read" : False,    
"title" : "章惠芳：\u201C面粉\u201D价格实质下降 做实后市\u201C以价换量\u201D预期",
"titleTip" : "章惠芳：\u201C面粉\u201D价格实质下降 做实后市\u201C以价换量\u201D预期",
"titleSummary" : "章惠芳：\u201C面粉\u201D价格实质下降 做实后市\u201C以价换量\u201D预期",
"descSummary" : "",
"url" : "http:\/\/go.rss.sina.com.cn\/redirect.php?url=http:\/\/news.dichan.sina.com.cn\/2012\/04\/27\/481955.html?source=rss",
"pubDate" : "2012年4月27日",
"enterDate" : "384199:54:57",
"channelId" : "-8568143508593059916",
"channelName" : "北京房产-地产评论",
"channelNameSummary" : "北京房产-地产评论",
"channelUrl" : "http:\/\/bj.house.sina.com.cn\/dcpl\/",
"author" : "WWW.SINA.COM.CN",
"tags" : [],
"desc" : "",
"emailed" : False,
"forwarded" : False,
"english" : False
}  , {
"index" : 6,
"articleIndex" : "11054",
"favor" :  False ,
     "read" : False,    
"title" : "润和西溪郡营销总监许穷腊发言",
"titleTip" : "润和西溪郡营销总监许穷腊发言",
"titleSummary" : "润和西溪郡营销总监许穷腊发言",
"descSummary" : "",
"url" : "http:\/\/go.rss.sina.com.cn\/redirect.php?url=http:\/\/news.dichan.sina.com.cn\/2012\/04\/27\/481954.html?source=rss",
"pubDate" : "2012年4月27日",
"enterDate" : "384199:54:08",
"channelId" : "-8568143508593059916",
"channelName" : "北京房产-地产评论",
"channelNameSummary" : "北京房产-地产评论",
"channelUrl" : "http:\/\/bj.house.sina.com.cn\/dcpl\/",
"author" : "WWW.SINA.COM.CN",
"tags" : [],
"desc" : "",
"emailed" : False,
"forwarded" : False,
"english" : False
}  , {
"index" : 7,
"articleIndex" : "11053",
"favor" :  False ,
     "read" : False,    
"title" : "汉嘉地产顾问副总经理陈焕春发言",
"titleTip" : "汉嘉地产顾问副总经理陈焕春发言",
"titleSummary" : "汉嘉地产顾问副总经理陈焕春发言",
"descSummary" : "",
"url" : "http:\/\/go.rss.sina.com.cn\/redirect.php?url=http:\/\/news.dichan.sina.com.cn\/2012\/04\/27\/481953.html?source=rss",
"pubDate" : "2012年4月27日",
"enterDate" : "384199:52:19",
"channelId" : "-8568143508593059916",
"channelName" : "北京房产-地产评论",
"channelNameSummary" : "北京房产-地产评论",
"channelUrl" : "http:\/\/bj.house.sina.com.cn\/dcpl\/",
"author" : "WWW.SINA.COM.CN",
"tags" : [],
"desc" : "",
"emailed" : False,
"forwarded" : False,
"english" : False
}  , {
"index" : 8,
"articleIndex" : "11052",
"favor" :  False ,
     "read" : False,    
"title" : "昊元置业营销总监冯惟仑发言 &#160;",
"titleTip" : "昊元置业营销总监冯惟仑发言 &#160;",
"titleSummary" : "昊元置业营销总监冯惟仑发言 &#160;",
"descSummary" : "",
"url" : "http:\/\/go.rss.sina.com.cn\/redirect.php?url=http:\/\/news.dichan.sina.com.cn\/2012\/04\/27\/481952.html?source=rss",
"pubDate" : "2012年4月27日",
"enterDate" : "384199:52:18",
"channelId" : "-8568143508593059916",
"channelName" : "北京房产-地产评论",
"channelNameSummary" : "北京房产-地产评论",
"channelUrl" : "http:\/\/bj.house.sina.com.cn\/dcpl\/",
"author" : "WWW.SINA.COM.CN",
"tags" : [],
"desc" : "",
"emailed" : False,
"forwarded" : False,
"english" : False
}  , {
"index" : 9,
"articleIndex" : "11051",
"favor" :  False ,
     "read" : False,    
"title" : "舍易地产CEO卢涛发言",
"titleTip" : "舍易地产CEO卢涛发言",
"titleSummary" : "舍易地产CEO卢涛发言",
"descSummary" : "",
"url" : "http:\/\/go.rss.sina.com.cn\/redirect.php?url=http:\/\/news.dichan.sina.com.cn\/2012\/04\/27\/481951.html?source=rss",
"pubDate" : "2012年4月27日",
"enterDate" : "384199:51:43",
"channelId" : "-8568143508593059916",
"channelName" : "北京房产-地产评论",
"channelNameSummary" : "北京房产-地产评论",
"channelUrl" : "http:\/\/bj.house.sina.com.cn\/dcpl\/",
"author" : "WWW.SINA.COM.CN",
"tags" : [],
"desc" : "",
"emailed" : False,
"forwarded" : False,
"english" : False
}  , {
"index" : 10,
"articleIndex" : "11050",
"favor" :  False ,
     "read" : False,    
"title" : "龙湖杭州房产研究部主管汪名彦发言",
"titleTip" : "龙湖杭州房产研究部主管汪名彦发言",
"titleSummary" : "龙湖杭州房产研究部主管汪名彦发言",
"descSummary" : "",
"url" : "http:\/\/go.rss.sina.com.cn\/redirect.php?url=http:\/\/news.dichan.sina.com.cn\/2012\/04\/27\/481950.html?source=rss",
"pubDate" : "2012年4月27日",
"enterDate" : "384199:51:20",
"channelId" : "-8568143508593059916",
"channelName" : "北京房产-地产评论",
"channelNameSummary" : "北京房产-地产评论",
"channelUrl" : "http:\/\/bj.house.sina.com.cn\/dcpl\/",
"author" : "WWW.SINA.COM.CN",
"tags" : [],
"desc" : "",
"emailed" : False,
"forwarded" : False,
"english" : False
}  , {
"index" : 11,
"articleIndex" : "11049",
"favor" :  False ,
     "read" : False,    
"title" : "金成金都置业副总经理李萍发言",
"titleTip" : "金成金都置业副总经理李萍发言",
"titleSummary" : "金成金都置业副总经理李萍发言",
"descSummary" : "",
"url" : "http:\/\/go.rss.sina.com.cn\/redirect.php?url=http:\/\/news.dichan.sina.com.cn\/2012\/04\/27\/481947.html?source=rss",
"pubDate" : "2012年4月27日",
"enterDate" : "384199:48:27",
"channelId" : "-8568143508593059916",
"channelName" : "北京房产-地产评论",
"channelNameSummary" : "北京房产-地产评论",
"channelUrl" : "http:\/\/bj.house.sina.com.cn\/dcpl\/",
"author" : "WWW.SINA.COM.CN",
"tags" : [],
"desc" : "",
"emailed" : False,
"forwarded" : False,
"english" : False
}  , {
"index" : 12,
"articleIndex" : "11048",
"favor" :  False ,
     "read" : False,    
"title" : "新浪乐居副总潘卫星发言",
"titleTip" : "新浪乐居副总潘卫星发言",
"titleSummary" : "新浪乐居副总潘卫星发言",
"descSummary" : "",
"url" : "http:\/\/go.rss.sina.com.cn\/redirect.php?url=http:\/\/news.dichan.sina.com.cn\/2012\/04\/27\/481948.html?source=rss",
"pubDate" : "2012年4月27日",
"enterDate" : "384199:48:20",
"channelId" : "-8568143508593059916",
"channelName" : "北京房产-地产评论",
"channelNameSummary" : "北京房产-地产评论",
"channelUrl" : "http:\/\/bj.house.sina.com.cn\/dcpl\/",
"author" : "WWW.SINA.COM.CN",
"tags" : [],
"desc" : "",
"emailed" : False,
"forwarded" : False,
"english" : False
}  , {
"index" : 13,
"articleIndex" : "11047",
"favor" :  False ,
     "read" : False,    
"title" : "恒厚阳光城营销总监黄海发言",
"titleTip" : "恒厚阳光城营销总监黄海发言",
"titleSummary" : "恒厚阳光城营销总监黄海发言",
"descSummary" : "",
"url" : "http:\/\/go.rss.sina.com.cn\/redirect.php?url=http:\/\/news.dichan.sina.com.cn\/2012\/04\/27\/481949.html?source=rss",
"pubDate" : "2012年4月27日",
"enterDate" : "384199:47:48",
"channelId" : "-8568143508593059916",
"channelName" : "北京房产-地产评论",
"channelNameSummary" : "北京房产-地产评论",
"channelUrl" : "http:\/\/bj.house.sina.com.cn\/dcpl\/",
"author" : "WWW.SINA.COM.CN",
"tags" : [],
"desc" : "",
"emailed" : False,
"forwarded" : False,
"english" : False
}  , {
"index" : 14,
"articleIndex" : "11046",
"favor" :  False ,
     "read" : False,    
"title" : "西溪玫瑰营销总监王德泉发言",
"titleTip" : "西溪玫瑰营销总监王德泉发言",
"titleSummary" : "西溪玫瑰营销总监王德泉发言",
"descSummary" : "",
"url" : "http:\/\/go.rss.sina.com.cn\/redirect.php?url=http:\/\/news.dichan.sina.com.cn\/2012\/04\/27\/481946.html?source=rss",
"pubDate" : "2012年4月27日",
"enterDate" : "384199:46:49",
"channelId" : "-8568143508593059916",
"channelName" : "北京房产-地产评论",
"channelNameSummary" : "北京房产-地产评论",
"channelUrl" : "http:\/\/bj.house.sina.com.cn\/dcpl\/",
"author" : "WWW.SINA.COM.CN",
"tags" : [],
"desc" : "",
"emailed" : False,
"forwarded" : False,
"english" : False
}  , {
"index" : 15,
"articleIndex" : "11045",
"favor" :  False ,
     "read" : False,    
"title" : "张宏伟：楼市\u201C刺激刚需\u201D政策称不上\u201C救市\u201D",
"titleTip" : "张宏伟：楼市\u201C刺激刚需\u201D政策称不上\u201C救市\u201D",
"titleSummary" : "张宏伟：楼市\u201C刺激刚需\u201D政策称不上\u201C救市\u201D",
"descSummary" : "针对近日多家媒体报道的\u201C住建部酝酿刺激刚需\u201D、\u201C住...",
"url" : "http:\/\/go.rss.sina.com.cn\/redirect.php?url=http:\/\/news.dichan.sina.com.cn\/2012\/04\/27\/481870.html?source=rss",
"pubDate" : "2012年4月27日",
"enterDate" : "384199:42:45",
"channelId" : "-8568143508593059916",
"channelName" : "北京房产-地产评论",
"channelNameSummary" : "北京房产-地产评论",
"channelUrl" : "http:\/\/bj.house.sina.com.cn\/dcpl\/",
"author" : "WWW.SINA.COM.CN",
"tags" : [],
"desc" : "针对近日多家媒体报道的\u201C住建部酝酿刺激刚需\u201D、\u201C住建部调研公积金条例拟扩大使用范围\u201D等说法，4月25日，住建部相关负责人及住建部下属事业单位政策研究中心相关负责人表示，尚未听说酝酿新政策出台。",
"emailed" : False,
"forwarded" : False,
"english" : False
}  , {
"index" : 16,
"articleIndex" : "11044",
"favor" :  False ,
     "read" : False,    
"title" : "三水别墅很沉寂 \"4字头\"洋房撑起大局",
"titleTip" : "三水别墅很沉寂 \"4字头\"洋房撑起大局",
"titleSummary" : "三水别墅很沉寂 \"4字头\"洋房撑起大局",
"descSummary" : "",
"url" : "http:\/\/go.rss.sina.com.cn\/redirect.php?url=http:\/\/news.dichan.sina.com.cn\/2012\/04\/27\/481696.html?source=rss",
"pubDate" : "2012年4月27日",
"enterDate" : "384200:50:06",
"channelId" : "-8568143508593059916",
"channelName" : "北京房产-地产评论",
"channelNameSummary" : "北京房产-地产评论",
"channelUrl" : "http:\/\/bj.house.sina.com.cn\/dcpl\/",
"author" : "WWW.SINA.COM.CN",
"tags" : [],
"desc" : "",
"emailed" : False,
"forwarded" : False,
"english" : False
}  , {
"index" : 17,
"articleIndex" : "11043",
"favor" :  False ,
     "read" : False,    
"title" : "牡丹江2012春季房展会促进房地产市场成交量攀升",
"titleTip" : "牡丹江2012春季房展会促进房地产市场成交量攀升",
"titleSummary" : "牡丹江2012春季房展会促进房地产市场成交量攀升",
"descSummary" : "",
"url" : "http:\/\/go.rss.sina.com.cn\/redirect.php?url=http:\/\/news.dichan.sina.com.cn\/2012\/04\/27\/481656.html?source=rss",
"pubDate" : "2012年4月27日",
"enterDate" : "384200:30:12",
"channelId" : "-8568143508593059916",
"channelName" : "北京房产-地产评论",
"channelNameSummary" : "北京房产-地产评论",
"channelUrl" : "http:\/\/bj.house.sina.com.cn\/dcpl\/",
"author" : "WWW.SINA.COM.CN",
"tags" : [],
"desc" : "",
"emailed" : False,
"forwarded" : False,
"english" : False
}  , {
"index" : 18,
"articleIndex" : "11042",
"favor" :  False ,
     "read" : False,    
"title" : "党报：房价不会报复性反弹 别低估政府调控决心",
"titleTip" : "党报：房价不会报复性反弹 别低估政府调控决心",
"titleSummary" : "党报：房价不会报复性反弹 别低估政府调控决心",
"descSummary" : "",
"url" : "http:\/\/go.rss.sina.com.cn\/redirect.php?url=http:\/\/news.dichan.sina.com.cn\/2012\/04\/27\/481648.html?source=rss",
"pubDate" : "2012年4月27日",
"enterDate" : "384200:26:04",
"channelId" : "-8568143508593059916",
"channelName" : "北京房产-地产评论",
"channelNameSummary" : "北京房产-地产评论",
"channelUrl" : "http:\/\/bj.house.sina.com.cn\/dcpl\/",
"author" : "WWW.SINA.COM.CN",
"tags" : [],
"desc" : "",
"emailed" : False,
"forwarded" : False,
"english" : False
}  , {
"index" : 19,
"articleIndex" : "11041",
"favor" :  False ,
     "read" : False,    
"title" : "张宏伟：收紧中小房企开发贷 行业大洗牌或加速",
"titleTip" : "张宏伟：收紧中小房企开发贷 行业大洗牌或加速",
"titleSummary" : "张宏伟：收紧中小房企开发贷 行业大洗牌或加速",
"descSummary" : "现在看来，中小开发商并不一定像之前业内所预判的，只...",
"url" : "http:\/\/go.rss.sina.com.cn\/redirect.php?url=http:\/\/news.dichan.sina.com.cn\/2012\/04\/23\/478136.html?source=rss",
"pubDate" : "2012年4月24日",
"enterDate" : "384126:47:26",
"channelId" : "-8568143508593059916",
"channelName" : "北京房产-地产评论",
"channelNameSummary" : "北京房产-地产评论",
"channelUrl" : "http:\/\/bj.house.sina.com.cn\/dcpl\/",
"author" : "WWW.SINA.COM.CN",
"tags" : [],
"desc" : "现在看来，中小开发商并不一定像之前业内所预判的，只要其停止发展、停止扩张，明哲保身就可度过现阶段房地产市场调控的艰难期，一部分中小开发企业也举步维艰。分析原因，除了政策层面限购限贷、因\u201C资质\u201D问题被叫停等因素之外，主要和其融资渠道收紧及周转状况有关系",
"emailed" : False,
"forwarded" : False,
"english" : False
} ]
}
