{
"mode" : {"viewTitle" : 1,   "viewNew" : 0,  "pageIndex" : 1 },
 "channel" : {"id" : "7965061239442922157", "booked" : False, "subNumber" : 603, "name" : "国内足坛焦点新闻-新浪体育", "url" : "http:\/\/sports.sina.com.cn\/china\/index.shtml", "feed" : "http:\/\/rss.sina.com.cn\/sports\/china\/focus.xml", "author" : "WWW.SINA.COM.CN", "desc" : "国内足坛-焦点新闻", "imageUrl" : "http:\/\/www.sinaimg.cn\/ty\/deco\/2010\/0601\/logo_home_sports_nonike2.gif", "postPerWeek" : "155", "lastCrawTime" : "2013年10月13日 (2周前)", "crawDateTime" : "2013年10月13日 (2周前)", "lastHttpCode" : "200"}, "page" : {
"startIndex" : 0,
"totalCount" : 5000,
"pageIndex" : 1,
"lastPage" : 250,
"pageSize" : 20,
"english" :  False },
 "unreadNum" : 0, "shotIndex" : -1,
"articles" : [
{
"index" : 0,
"articleIndex" : "71762",
"favor" :  False ,
     "read" : False,    
"title" : "恒大将组5000球迷赴首尔助威破纪录 球票恒大出资",
"titleTip" : "恒大将组5000球迷赴首尔助威破纪录 球票恒大出资",
"titleSummary" : "恒大将组5000球迷赴首尔助威破纪录 球票恒大出资",
"descSummary" : "羊城晚报讯记者林本剑报道：离10月26日亚冠决赛首...",
"url" : "http:\/\/go.rss.sina.com.cn\/redirect.php?url=http:\/\/sports.sina.com.cn\/j\/2013-10-13\/15006828852.shtml",
"pubDate" : "2013年10月13日 (2周前)",
"enterDate" : "384200:37:04",
"channelId" : "7965061239442922157",
"channelName" : "国内足坛焦点新闻-新浪体育",
"channelNameSummary" : "国内足坛焦点新闻-新...",
"channelUrl" : "http:\/\/sports.sina.com.cn\/china\/index.shtml",
"author" : "WWW.SINA.COM.CN",
"tags" : [],
"desc" : "羊城晚报讯记者林本剑报道：离10月26日亚冠决赛首回合广州恒大[微博]客场挑战韩国首尔FC的日子越来越近。据羊城晚报记者了解，广州恒大俱乐部此次将组织5000名球迷奔赴首尔FC主场，为恒大队加油助威，此球迷数字也将创造中国球队海外客场助阵新纪录。 从去年第一次征战....",
"emailed" : False,
"forwarded" : False,
"english" : False
}  , {
"index" : 1,
"articleIndex" : "71761",
"favor" :  False ,
     "read" : False,    
"title" : "王永珀忆鲁能亚冠印尼惨案:这回必须坚持到终场哨响",
"titleTip" : "王永珀忆鲁能亚冠印尼惨案:这回必须坚持到终场哨响",
"titleSummary" : "王永珀忆鲁能亚冠印尼惨案:这回必须坚持到终场哨响",
"descSummary" : "在国内广州算是火炉之一，但和雅加达相比却不值一...",
"url" : "http:\/\/go.rss.sina.com.cn\/redirect.php?url=http:\/\/sports.sina.com.cn\/n\/2013-10-13\/14406828816.shtml",
"pubDate" : "2013年10月13日 (2周前)",
"enterDate" : "384200:17:03",
"channelId" : "7965061239442922157",
"channelName" : "国内足坛焦点新闻-新浪体育",
"channelNameSummary" : "国内足坛焦点新闻-新...",
"channelUrl" : "http:\/\/sports.sina.com.cn\/china\/index.shtml",
"author" : "WWW.SINA.COM.CN",
"tags" : [],
"desc" : "在国内广州算是火炉之一，但和雅加达相比却不值一提。今晨当国足抵达印尼雅加达，一出舱门后队员们就被扑面的热气惊到了！温度居然高达35摄氏度，国足面临的第一个对手不是印尼队，而是雅加达的天气。 天气不是一般热 虽然国足抵达雅加达的时间是今早9时，但出....",
"emailed" : False,
"forwarded" : False,
"english" : False
}  , {
"index" : 2,
"articleIndex" : "71760",
"favor" :  False ,
     "read" : False,    
"title" : "董路35张图解析青津战 用战绩推测称假球是不懂球",
"titleTip" : "董路35张图解析青津战 用战绩推测称假球是不懂球",
"titleSummary" : "董路35张图解析青津战 用战绩推测称假球是不懂球",
"descSummary" : "",
"url" : "http:\/\/go.rss.sina.com.cn\/redirect.php?url=http:\/\/blog.sina.com.cn\/s\/blog_46e815bb0102eh99.html",
"pubDate" : "2013年10月13日 (2周前)",
"enterDate" : "384201:01:11",
"channelId" : "7965061239442922157",
"channelName" : "国内足坛焦点新闻-新浪体育",
"channelNameSummary" : "国内足坛焦点新闻-新...",
"channelUrl" : "http:\/\/sports.sina.com.cn\/china\/index.shtml",
"author" : "WWW.SINA.COM.CN",
"tags" : [],
"desc" : "",
"emailed" : False,
"forwarded" : False,
"english" : False
}  , {
"index" : 3,
"articleIndex" : "71759",
"favor" :  False ,
     "read" : False,    
"title" : "恒大决赛票房有望破5千万 取消招待票将搞文艺演出",
"titleTip" : "恒大决赛票房有望破5千万 取消招待票将搞文艺演出",
"titleSummary" : "恒大决赛票房有望破5千万 取消招待票将搞文艺演出",
"descSummary" : "10月13日，广州恒大[微博]正式公布11月9日亚冠决赛...",
"url" : "http:\/\/go.rss.sina.com.cn\/redirect.php?url=http:\/\/sports.sina.com.cn\/j\/2013-10-13\/13026828680.shtml",
"pubDate" : "2013年10月13日 (2周前)",
"enterDate" : "384200:39:28",
"channelId" : "7965061239442922157",
"channelName" : "国内足坛焦点新闻-新浪体育",
"channelNameSummary" : "国内足坛焦点新闻-新...",
"channelUrl" : "http:\/\/sports.sina.com.cn\/china\/index.shtml",
"author" : "WWW.SINA.COM.CN",
"tags" : [],
"desc" : "10月13日，广州恒大[微博]正式公布11月9日亚冠决赛门票价格，本次亚冠决赛球票价格分为八个档次，分别是400元、600元、1000元、1500元、2000、3000元、5000元和8000元。其中球迷联盟的过万张球票均在400元至600元之间，低价票占总票数的绝大部分。据俱乐部透露，本次亚冠决赛....",
"emailed" : False,
"forwarded" : False,
"english" : False
}  , {
"index" : 4,
"articleIndex" : "71758",
"favor" :  False ,
     "read" : False,    
"title" : "青媒:没证据难说青津打默契球 鄂媒:泰达深不可测",
"titleTip" : "青媒:没证据难说青津打默契球 鄂媒:泰达深不可测",
"titleSummary" : "青媒:没证据难说青津打默契球 鄂媒:泰达深不可测",
"descSummary" : "北京时间10月13日消息，天津泰达[微博]在一场中超补赛...",
"url" : "http:\/\/go.rss.sina.com.cn\/redirect.php?url=http:\/\/sports.sina.com.cn\/j\/2013-10-13\/12476828658.shtml",
"pubDate" : "2013年10月13日 (2周前)",
"enterDate" : "384200:54:54",
"channelId" : "7965061239442922157",
"channelName" : "国内足坛焦点新闻-新浪体育",
"channelNameSummary" : "国内足坛焦点新闻-新...",
"channelUrl" : "http:\/\/sports.sina.com.cn\/china\/index.shtml",
"author" : "WWW.SINA.COM.CN",
"tags" : [],
"desc" : "北京时间10月13日消息，天津泰达[微博]在一场中超补赛中1-4客场负于青岛中能[微博]，引发外界热议。青岛音乐体育广播《915体坛双雄会》节目认为，泰达面对青岛之前所能迸发出来的力量已经无形中被削弱的很多，保级已经基本上岸，输球无妨大碍。对于\u201C默契球\u201D的质疑，该节目指....",
"emailed" : False,
"forwarded" : False,
"english" : False
}  , {
"index" : 5,
"articleIndex" : "71757",
"favor" :  False ,
     "read" : False,    
"title" : "恒大公布亚冠决赛票务方案 最低400元最高8000元",
"titleTip" : "恒大公布亚冠决赛票务方案 最低400元最高8000元",
"titleSummary" : "恒大公布亚冠决赛票务方案 最低400元最高8000元",
"descSummary" : "北京时间10月13日，中超广州恒大[微博]俱乐部公布亚...",
"url" : "http:\/\/go.rss.sina.com.cn\/redirect.php?url=http:\/\/sports.sina.com.cn\/j\/2013-10-13\/12276828647.shtml",
"pubDate" : "2013年10月13日 (2周前)",
"enterDate" : "384200:34:47",
"channelId" : "7965061239442922157",
"channelName" : "国内足坛焦点新闻-新浪体育",
"channelNameSummary" : "国内足坛焦点新闻-新...",
"channelUrl" : "http:\/\/sports.sina.com.cn\/china\/index.shtml",
"author" : "WWW.SINA.COM.CN",
"tags" : [],
"desc" : "北京时间10月13日，中超广州恒大[微博]俱乐部公布亚冠决赛票务方案。在亚冠决赛次回合恒大主场比赛中，票价共分为8档，最低400元，10月15日将面向球迷出售。 广州恒大与首尔FC的亚冠决赛次回合比赛将于11月9日20:00在天河体育场打响。今日，恒大俱乐部通过官方网站公布....",
"emailed" : False,
"forwarded" : False,
"english" : False
}  , {
"index" : 6,
"articleIndex" : "71756",
"favor" :  False ,
     "read" : False,    
"title" : "长春媒体称泰达堪称绿荫奇葩 战亚泰也劫富济贫？",
"titleTip" : "长春媒体称泰达堪称绿荫奇葩 战亚泰也劫富济贫？",
"titleSummary" : "长春媒体称泰达堪称绿荫奇葩 战亚泰也劫富济贫？",
"descSummary" : "本报记者关海阳 核心提示：昨天，中超联赛进行了一...",
"url" : "http:\/\/go.rss.sina.com.cn\/redirect.php?url=http:\/\/sports.sina.com.cn\/j\/2013-10-13\/12126828633.shtml",
"pubDate" : "2013年10月13日 (2周前)",
"enterDate" : "384200:50:19",
"channelId" : "7965061239442922157",
"channelName" : "国内足坛焦点新闻-新浪体育",
"channelNameSummary" : "国内足坛焦点新闻-新...",
"channelUrl" : "http:\/\/sports.sina.com.cn\/china\/index.shtml",
"author" : "WWW.SINA.COM.CN",
"tags" : [],
"desc" : "本报记者关海阳 核心提示：昨天，中超联赛进行了一 场补赛，坐镇主场的青岛中能以4比1横扫来访的天津泰达，此前，该队曾经十五轮联赛不胜。主场告捷的青岛中能依靠此役的3分，为保级之路添上了一个宝贵的砝码，并成功超越了长春亚泰，升至积分榜倒数第三位。 ◆....",
"emailed" : False,
"forwarded" : False,
"english" : False
}  , {
"index" : 7,
"articleIndex" : "71754",
"favor" :  False ,
     "read" : False,    
"title" : "傅博老师送国足十字箴言称土帅挺好 怎样不怕日韩",
"titleTip" : "傅博老师送国足十字箴言称土帅挺好 怎样不怕日韩",
"titleSummary" : "傅博老师送国足十字箴言称土帅挺好 怎样不怕日韩",
"descSummary" : "昨天，结束了在清远基地6天集训的国足，离开广州飞...",
"url" : "http:\/\/go.rss.sina.com.cn\/redirect.php?url=http:\/\/sports.sina.com.cn\/n\/2013-10-13\/10386828538.shtml",
"pubDate" : "2013年10月13日 (2周前)",
"enterDate" : "384201:16:34",
"channelId" : "7965061239442922157",
"channelName" : "国内足坛焦点新闻-新浪体育",
"channelNameSummary" : "国内足坛焦点新闻-新...",
"channelUrl" : "http:\/\/sports.sina.com.cn\/china\/index.shtml",
"author" : "WWW.SINA.COM.CN",
"tags" : [],
"desc" : "昨天，结束了在清远基地6天集训的国足，离开广州飞往印尼首都雅加达，备战15日晚客场与印尼队的亚洲杯预选赛。在这支国家队中，傅博[微博]无疑是一众国脚的师傅，而作为傅博的师傅，曾带领辽宁队获得十连冠的东北大帅李应发，则给了弟子傅博一些建议。在接受沈阳晚报、沈阳网....",
"emailed" : False,
"forwarded" : False,
"english" : False
}  , {
"index" : 8,
"articleIndex" : "71753",
"favor" :  False ,
     "read" : False,    
"title" : "青岛媒体拿泰达曾输卓尔说事：足球本就偶然性最大",
"titleTip" : "青岛媒体拿泰达曾输卓尔说事：足球本就偶然性最大",
"titleSummary" : "青岛媒体拿泰达曾输卓尔说事：足球本就偶然性最大",
"descSummary" : "\u201C眼泪不争气\u201D，姚江山[微博]的一句话 说出了10月...",
"url" : "http:\/\/go.rss.sina.com.cn\/redirect.php?url=http:\/\/sports.sina.com.cn\/j\/2013-10-13\/10106828452.shtml",
"pubDate" : "2013年10月13日 (2周前)",
"enterDate" : "384201:18:07",
"channelId" : "7965061239442922157",
"channelName" : "国内足坛焦点新闻-新浪体育",
"channelNameSummary" : "国内足坛焦点新闻-新...",
"channelUrl" : "http:\/\/sports.sina.com.cn\/china\/index.shtml",
"author" : "WWW.SINA.COM.CN",
"tags" : [],
"desc" : "\u201C眼泪不争气\u201D，姚江山[微博]的一句话 ，说出了10月12日下午天泰体育场内好多人的心声。有些幸福的泪水顺着脸颊滑落，有些则流到了心里，无论是哪一种，这场对天津泰达[微博]4：1的反败为胜，都是青岛中能[微博]保级路上的救命源泉。一场大胜，打破了进球难的怪圈，终结了连....",
"emailed" : False,
"forwarded" : False,
"english" : False
}  , {
"index" : 9,
"articleIndex" : "71752",
"favor" :  False ,
     "read" : False,    
"title" : "视频-恒大亚冠决赛官方宣传片：冠军终归这里",
"titleTip" : "视频-恒大亚冠决赛官方宣传片：冠军终归这里",
"titleSummary" : "视频-恒大亚冠决赛官方宣传片：冠军终归这里",
"descSummary" : "北京时间10月13日凌晨，广州恒大足球俱乐部官方微博发...",
"url" : "http:\/\/go.rss.sina.com.cn\/redirect.php?url=http:\/\/video.sina.com.cn\/p\/sports\/j\/v\/2013-10-13\/095663014063.html",
"pubDate" : "2013年10月13日 (2周前)",
"enterDate" : "384201:04:00",
"channelId" : "7965061239442922157",
"channelName" : "国内足坛焦点新闻-新浪体育",
"channelNameSummary" : "国内足坛焦点新闻-新...",
"channelUrl" : "http:\/\/sports.sina.com.cn\/china\/index.shtml",
"author" : "WWW.SINA.COM.CN",
"tags" : [],
"desc" : "北京时间10月13日凌晨，广州恒大足球俱乐部官方微博发布了恒大亚冠决赛的宣传片，视频中文字写道：冠军终归这里。 以上是相关视频。",
"emailed" : False,
"forwarded" : False,
"english" : False
}  , {
"index" : 10,
"articleIndex" : "71755",
"favor" :  False ,
     "read" : False,    
"title" : "印尼U19比赛竟全场爆满 足协叹主场被罚对国足利好",
"titleTip" : "印尼U19比赛竟全场爆满 足协叹主场被罚对国足利好",
"titleSummary" : "印尼U19比赛竟全场爆满 足协叹主场被罚对国足利好",
"descSummary" : "10月12日晚，中国男足抵达印尼雅加达之前，印尼...",
"url" : "http:\/\/go.rss.sina.com.cn\/redirect.php?url=http:\/\/sports.sina.com.cn\/n\/2013-10-13\/04086828055.shtml",
"pubDate" : "2013年10月13日 (2周前)",
"enterDate" : "384194:16:30",
"channelId" : "7965061239442922157",
"channelName" : "国内足坛焦点新闻-新浪体育",
"channelNameSummary" : "国内足坛焦点新闻-新...",
"channelUrl" : "http:\/\/sports.sina.com.cn\/china\/index.shtml",
"author" : "WWW.SINA.COM.CN",
"tags" : [],
"desc" : "10月12日晚，中国男足抵达印尼雅加达之前，印尼国家体育场、格罗拉蓬卡诺体育场正在进行一场U19国家队的比赛，印尼青年队对阵韩国青年队，虽然这仅仅是一场青年队的比赛，但却吸引了近4万印尼球迷到场助威，最终印尼队以3-2力克韩国队，现场球迷起到的作用不可忽视。 ....",
"emailed" : False,
"forwarded" : False,
"english" : False
}  , {
"index" : 11,
"articleIndex" : "71749",
"favor" :  False ,
     "read" : False,    
"title" : "国足抵达印尼受东道主款待 受益两国全面战略合作",
"titleTip" : "国足抵达印尼受东道主款待 受益两国全面战略合作",
"titleSummary" : "国足抵达印尼受东道主款待 受益两国全面战略合作",
"descSummary" : "10月12日晚，备战亚洲杯预选赛的中国男足抵达印尼...",
"url" : "http:\/\/go.rss.sina.com.cn\/redirect.php?url=http:\/\/sports.sina.com.cn\/n\/2013-10-13\/04076828039.shtml",
"pubDate" : "2013年10月13日 (2周前)",
"enterDate" : "384201:16:30",
"channelId" : "7965061239442922157",
"channelName" : "国内足坛焦点新闻-新浪体育",
"channelNameSummary" : "国内足坛焦点新闻-新...",
"channelUrl" : "http:\/\/sports.sina.com.cn\/china\/index.shtml",
"author" : "WWW.SINA.COM.CN",
"tags" : [],
"desc" : "10月12日晚，备战亚洲杯预选赛的中国男足抵达印尼雅加达，准备15日晚与印尼队的首回合比赛。到达印尼之后 ，中国队受到了东道主的热情款待，不仅食宿方面让球队感到满意，更让人没有想到的是对方在训练保障工作方 面也是大开绿灯。对此中国足协人士感慨：这应该得益于前不久习....",
"emailed" : False,
"forwarded" : False,
"english" : False
}  , {
"index" : 12,
"articleIndex" : "71750",
"favor" :  False ,
     "read" : False,    
"title" : "青津赛后中能球迷高喊谢天津 泰达球迷调侃:一家人",
"titleTip" : "青津赛后中能球迷高喊谢天津 泰达球迷调侃:一家人",
"titleSummary" : "青津赛后中能球迷高喊谢天津 泰达球迷调侃:一家人",
"descSummary" : "京华时报[微博]讯(亿者孙永军)一方是连克豪门取得中...",
"url" : "http:\/\/go.rss.sina.com.cn\/redirect.php?url=http:\/\/sports.sina.com.cn\/j\/2013-10-13\/03106828009.shtml",
"pubDate" : "2013年10月13日 (2周前)",
"enterDate" : "384194:48:04",
"channelId" : "7965061239442922157",
"channelName" : "国内足坛焦点新闻-新浪体育",
"channelNameSummary" : "国内足坛焦点新闻-新...",
"channelUrl" : "http:\/\/sports.sina.com.cn\/china\/index.shtml",
"author" : "WWW.SINA.COM.CN",
"tags" : [],
"desc" : "京华时报[微博]讯(亿者孙永军)一方是连克豪门取得中超5连胜的泰达[微博]，一方是7连败、15轮不胜的中能，但昨晚两队的比赛结果却令人意外\u2015\u2015中能在主场4比1大胜泰达。赛后，有媒体质疑双方打\u201C默契球\u201D，对此中能主帅斯特瓦表示，职业球队中能不可能做这样的事。 第57....",
"emailed" : False,
"forwarded" : False,
"english" : False
}  , {
"index" : 13,
"articleIndex" : "71748",
"favor" :  False ,
     "read" : False,    
"title" : "于洪臣动员国脚以鲁能为例 下必杀令打平就是失败",
"titleTip" : "于洪臣动员国脚以鲁能为例 下必杀令打平就是失败",
"titleSummary" : "于洪臣动员国脚以鲁能为例 下必杀令打平就是失败",
"descSummary" : "昨天下午，中国国家队从广州启程，前往印尼，他们将...",
"url" : "http:\/\/go.rss.sina.com.cn\/redirect.php?url=http:\/\/sports.sina.com.cn\/n\/2013-10-13\/01266827935.shtml",
"pubDate" : "2013年10月13日 (2周前)",
"enterDate" : "384191:33:54",
"channelId" : "7965061239442922157",
"channelName" : "国内足坛焦点新闻-新浪体育",
"channelNameSummary" : "国内足坛焦点新闻-新...",
"channelUrl" : "http:\/\/sports.sina.com.cn\/china\/index.shtml",
"author" : "WWW.SINA.COM.CN",
"tags" : [],
"desc" : "昨天下午，中国国家队从广州启程，前往印尼，他们将要在15日同印尼国家队进行亚洲杯预选赛的比赛。出征之前，于洪臣前往国家队做了动员，他表示国家队这一次只要三分，如果打平就是失败！ 将和印尼队住在同一酒店 12日上午，国家队在清远恒大[微博]基地进行最后....",
"emailed" : False,
"forwarded" : False,
"english" : False
}  , {
"index" : 14,
"articleIndex" : "71751",
"favor" :  False ,
     "read" : False,    
"title" : "泰达输球吉马良斯更衣室暴怒斥全队 水瓶狠砸门上",
"titleTip" : "泰达输球吉马良斯更衣室暴怒斥全队 水瓶狠砸门上",
"titleSummary" : "泰达输球吉马良斯更衣室暴怒斥全队 水瓶狠砸门上",
"descSummary" : "本赛季截至目前，泰达[微博]没有任何一场失败能像昨...",
"url" : "http:\/\/go.rss.sina.com.cn\/redirect.php?url=http:\/\/sports.sina.com.cn\/j\/2013-10-13\/00006828214.shtml",
"pubDate" : "2013年10月13日 (2周前)",
"enterDate" : "384191:07:55",
"channelId" : "7965061239442922157",
"channelName" : "国内足坛焦点新闻-新浪体育",
"channelNameSummary" : "国内足坛焦点新闻-新...",
"channelUrl" : "http:\/\/sports.sina.com.cn\/china\/index.shtml",
"author" : "WWW.SINA.COM.CN",
"tags" : [],
"desc" : "本赛季截至目前，泰达[微博]没有任何一场失败能像昨天下午的津青之战这么离奇，比赛输得很彻底，过程则很离奇，你甚至很难将他定义为一次\u201C正常死亡\u201D。如果一球领先能保持至终场，恐怕即使青岛球迷也不会难以接受，但最终偏偏是三十几分钟内1∶4天津队被惊天翻盘，赛后几大门....",
"emailed" : False,
"forwarded" : False,
"english" : False
}  , {
"index" : 15,
"articleIndex" : "71747",
"favor" :  False ,
     "read" : False,    
"title" : "甭提奥运了！U22国足被日韩二线队打懵 主帅都没定",
"titleTip" : "甭提奥运了！U22国足被日韩二线队打懵 主帅都没定",
"titleSummary" : "甭提奥运了！U22国足被日韩二线队打懵 主帅都没定",
"descSummary" : "0-0平中国香港，U22国足的队员还有人抱怨以小打...",
"url" : "http:\/\/go.rss.sina.com.cn\/redirect.php?url=http:\/\/sports.sina.com.cn\/n\/2013-10-12\/23086827881.shtml",
"pubDate" : "2013年10月12日 (2周前)",
"enterDate" : "384200:47:59",
"channelId" : "7965061239442922157",
"channelName" : "国内足坛焦点新闻-新浪体育",
"channelNameSummary" : "国内足坛焦点新闻-新...",
"channelUrl" : "http:\/\/sports.sina.com.cn\/china\/index.shtml",
"author" : "WWW.SINA.COM.CN",
"tags" : [],
"desc" : "0-0平中国香港，U22国足的队员还有人抱怨以小打大，如今0-2不敌日本，全方位的差距一览无遗。这并非是最强的对手，可我们近乎已使出了全力。无情的现实再一次告诉U22国足，奥运的梦，很远，很远！放到最现实的角度看，那就是如何定位这支球队，傅博上调国足后，帅位也是问题，....",
"emailed" : False,
"forwarded" : False,
"english" : False
}  , {
"index" : 16,
"articleIndex" : "71746",
"favor" :  False ,
     "read" : False,    
"title" : "日本主帅曝10个顶尖球员未到 无海归赞中国身体很好",
"titleTip" : "日本主帅曝10个顶尖球员未到 无海归赞中国身体很好",
"titleSummary" : "日本主帅曝10个顶尖球员未到 无海归赞中国身体很好",
"descSummary" : "北京时间10月12日晚，第六届东亚运动会男子足球...",
"url" : "http:\/\/go.rss.sina.com.cn\/redirect.php?url=http:\/\/sports.sina.com.cn\/n\/2013-10-12\/22386827851.shtml",
"pubDate" : "2013年10月12日 (2周前)",
"enterDate" : "384200:48:27",
"channelId" : "7965061239442922157",
"channelName" : "国内足坛焦点新闻-新浪体育",
"channelNameSummary" : "国内足坛焦点新闻-新...",
"channelUrl" : "http:\/\/sports.sina.com.cn\/china\/index.shtml",
"author" : "WWW.SINA.COM.CN",
"tags" : [],
"desc" : "北京时间10月12日晚，第六届东亚运动会男子足球比赛进入到第4个比赛日，日本队在天津团泊足球场2-0击败东道主中国。赛后，日本队主教练双田正浩出席了发布会。 双田正浩首先对比赛结果表示满意：\u201C我对这次比赛的结果非常满意，队员非常努力，所以我想再次表示\u2015\u2015非常....",
"emailed" : False,
"forwarded" : False,
"english" : False
}  , {
"index" : 17,
"articleIndex" : "71745",
"favor" :  False ,
     "read" : False,    
"title" : "U22国足教练：战斗作风该肯定 考察队员学日本1点",
"titleTip" : "U22国足教练：战斗作风该肯定 考察队员学日本1点",
"titleSummary" : "U22国足教练：战斗作风该肯定 考察队员学日本1点",
"descSummary" : "北京时间10月12日晚，第六届东亚运动会男子足球第...",
"url" : "http:\/\/go.rss.sina.com.cn\/redirect.php?url=http:\/\/sports.sina.com.cn\/n\/2013-10-12\/22366827846.shtml",
"pubDate" : "2013年10月12日 (2周前)",
"enterDate" : "384200:46:07",
"channelId" : "7965061239442922157",
"channelName" : "国内足坛焦点新闻-新浪体育",
"channelNameSummary" : "国内足坛焦点新闻-新...",
"channelUrl" : "http:\/\/sports.sina.com.cn\/china\/index.shtml",
"author" : "WWW.SINA.COM.CN",
"tags" : [],
"desc" : "北京时间10月12日晚，第六届东亚运动会男子足球第4个比赛日的比赛继续展开，中国男足在天津团泊足球场0-2败给日本，三场比赛1平2负继续垫底。赛后，中国U22国家队代理主教练赵旭东出席了发布会。赵旭东在对比赛结果表示遗憾的同时也表示，比赛的锻炼价值很大，从这次比赛中看....",
"emailed" : False,
"forwarded" : False,
"english" : False
}  , {
"index" : 18,
"articleIndex" : "71744",
"favor" :  False ,
     "read" : False,    
"title" : "黎兵自解国青需提升哪些方面 晋级回报队员们的努力",
"titleTip" : "黎兵自解国青需提升哪些方面 晋级回报队员们的努力",
"titleSummary" : "黎兵自解国青需提升哪些方面 晋级回报队员们的努力",
"descSummary" : "北京时间10月12日消息，凭借着全场顽强的拼搏，...",
"url" : "http:\/\/go.rss.sina.com.cn\/redirect.php?url=http:\/\/sports.sina.com.cn\/n\/2013-10-12\/22306827843.shtml",
"pubDate" : "2013年10月12日 (2周前)",
"enterDate" : "384201:10:45",
"channelId" : "7965061239442922157",
"channelName" : "国内足坛焦点新闻-新浪体育",
"channelNameSummary" : "国内足坛焦点新闻-新...",
"channelUrl" : "http:\/\/sports.sina.com.cn\/china\/index.shtml",
"author" : "WWW.SINA.COM.CN",
"tags" : [],
"desc" : "北京时间10月12日消息，凭借着全场顽强的拼搏，中国国青队最终在嘉兴体育中心1-1战平了日本国青队，最终和对手携手出线，进军明年的亚锦赛决赛阶段的比赛。赛后发布会，黎兵[微博]满意队员很努力，直言球队在进攻中还需要提升，今天晋级的结果是对球员努力的回报。 在....",
"emailed" : False,
"forwarded" : False,
"english" : False
}  , {
"index" : 19,
"articleIndex" : "71743",
"favor" :  False ,
     "read" : False,    
"title" : "夹缝里的希望！国青或藏张稀哲武磊Ⅱ代 留洋新路",
"titleTip" : "夹缝里的希望！国青或藏张稀哲武磊Ⅱ代 留洋新路",
"titleSummary" : "夹缝里的希望！国青或藏张稀哲武磊Ⅱ代 留洋新路",
"descSummary" : "一场惊险的1-1，国青如愿拿到了亚青赛的入场券，关...",
"url" : "http:\/\/go.rss.sina.com.cn\/redirect.php?url=http:\/\/sports.sina.com.cn\/n\/2013-10-12\/22206827832.shtml",
"pubDate" : "2013年10月12日 (2周前)",
"enterDate" : "384201:00:03",
"channelId" : "7965061239442922157",
"channelName" : "国内足坛焦点新闻-新浪体育",
"channelNameSummary" : "国内足坛焦点新闻-新...",
"channelUrl" : "http:\/\/sports.sina.com.cn\/china\/index.shtml",
"author" : "WWW.SINA.COM.CN",
"tags" : [],
"desc" : "一场惊险的1-1，国青如愿拿到了亚青赛的入场券，关键的是我们打平的对手是日本队，这对小伙子们来说也是一次信心的提升。作为夹缝中的一代，95国青的可选之人并不多，可如今更多的人正在走上留洋路，这也是中国足球的新出路。相比如今成绩平平的93奥运年龄段，或许这一届国青....",
"emailed" : False,
"forwarded" : False,
"english" : False
} ]
}
