{
"mode" : {"viewTitle" : 1,   "viewNew" : 0,  "pageIndex" : 2 },
 "channel" : {"id" : "7965061239442922157", "booked" : False, "subNumber" : 603, "name" : "国内足坛焦点新闻-新浪体育", "url" : "http:\/\/sports.sina.com.cn\/china\/index.shtml", "feed" : "http:\/\/rss.sina.com.cn\/sports\/china\/focus.xml", "author" : "WWW.SINA.COM.CN", "desc" : "国内足坛-焦点新闻", "imageUrl" : "http:\/\/www.sinaimg.cn\/ty\/deco\/2010\/0601\/logo_home_sports_nonike2.gif", "postPerWeek" : "155", "lastCrawTime" : "2013年10月13日 (2周前)", "crawDateTime" : "2013年10月13日 (2周前)", "lastHttpCode" : "200"}, "page" : {
"startIndex" : 20,
"totalCount" : 5000,
"pageIndex" : 2,
"lastPage" : 250,
"pageSize" : 20,
"english" :  False },
 "unreadNum" : 0, "shotIndex" : -1,
"articles" : [
{
"index" : 0,
"articleIndex" : "71742",
"favor" :  False ,
     "read" : False,    
"title" : "调查-您如何看国青1-1平日本进亚青赛及未来前景？",
"titleTip" : "调查-您如何看国青1-1平日本进亚青赛及未来前景？",
"titleSummary" : "调查-您如何看国青1-1平日本进亚青赛及未来前景？",
"descSummary" : "北京时间10月12日，亚青赛预赛I组展开焦点对决，最...",
"url" : "http:\/\/go.rss.sina.com.cn\/redirect.php?url=http:\/\/sports.sina.com.cn\/n\/2013-10-12\/21546827817.shtml",
"pubDate" : "2013年10月12日 (2周前)",
"enterDate" : "384201:04:53",
"channelId" : "7965061239442922157",
"channelName" : "国内足坛焦点新闻-新浪体育",
"channelNameSummary" : "国内足坛焦点新闻-新...",
"channelUrl" : "http:\/\/sports.sina.com.cn\/china\/index.shtml",
"author" : "WWW.SINA.COM.CN",
"tags" : [],
"desc" : "北京时间10月12日，亚青赛预赛I组展开焦点对决，最终90分钟激战，中国国青1-1打平日本队，小组积分达到7分，位列小组第二确保出线晋级亚青赛。第52分钟，日本队率先打破僵局。第66分钟，中国队逼迫日本自摆乌龙。您如何看国青队表现及未来前景？ (新体)",
"emailed" : False,
"forwarded" : False,
"english" : False
}  , {
"index" : 1,
"articleIndex" : "71741",
"favor" :  False ,
     "read" : False,    
"title" : "积分榜：国青平日本列次席晋级亚青赛 日本获头名",
"titleTip" : "积分榜：国青平日本列次席晋级亚青赛 日本获头名",
"titleSummary" : "积分榜：国青平日本列次席晋级亚青赛 日本获头名",
"descSummary" : "北京时间10月12日，亚青赛预赛I组展开第三轮争夺，...",
"url" : "http:\/\/go.rss.sina.com.cn\/redirect.php?url=http:\/\/sports.sina.com.cn\/n\/2013-10-08\/21426820236.shtml",
"pubDate" : "2013年10月12日 (2周前)",
"enterDate" : "384201:11:04",
"channelId" : "7965061239442922157",
"channelName" : "国内足坛焦点新闻-新浪体育",
"channelNameSummary" : "国内足坛焦点新闻-新...",
"channelUrl" : "http:\/\/sports.sina.com.cn\/china\/index.shtml",
"author" : "WWW.SINA.COM.CN",
"tags" : [],
"desc" : "北京时间10月12日，亚青赛预赛I组展开第三轮争夺，中国国青1-1日本，马来西亚5-0中国澳门。次轮中国国青3-0中国澳门，日本5-1马来西亚。首轮国青3-1马来西亚，日本队6-0中国澳门队。以下是小组积分榜。 本次亚青赛预赛分为9个小组，每个小组的第一名直接出线，6个成绩....",
"emailed" : False,
"forwarded" : False,
"english" : False
}  , {
"index" : 2,
"articleIndex" : "71740",
"favor" :  False ,
     "read" : False,    
"title" : "亚青赛预赛-对手乌龙送礼 国青1-1日本涉险进正赛",
"titleTip" : "亚青赛预赛-对手乌龙送礼 国青1-1日本涉险进正赛",
"titleSummary" : "亚青赛预赛-对手乌龙送礼 国青1-1日本涉险进正赛",
"descSummary" : "北京时间10月12日，亚青赛预赛I组展开焦点对决，最终...",
"url" : "http:\/\/go.rss.sina.com.cn\/redirect.php?url=http:\/\/sports.sina.com.cn\/n\/2013-10-12\/21246827762.shtml",
"pubDate" : "2013年10月12日 (2周前)",
"enterDate" : "384201:04:24",
"channelId" : "7965061239442922157",
"channelName" : "国内足坛焦点新闻-新浪体育",
"channelNameSummary" : "国内足坛焦点新闻-新...",
"channelUrl" : "http:\/\/sports.sina.com.cn\/china\/index.shtml",
"author" : "WWW.SINA.COM.CN",
"tags" : [],
"desc" : "北京时间10月12日，亚青赛预赛I组展开焦点对决，最终90分钟激战，中国国青1-1打平日本队，小组积分达到7分，位列小组第二确保出线晋级亚青赛。第52分钟，日本队率先打破僵局。第66分钟，中国队逼迫日本自摆乌龙。 本次亚青赛预赛分为9个小组，每个小组的第一名直接出线....",
"emailed" : False,
"forwarded" : False,
"english" : False
}  , {
"index" : 3,
"articleIndex" : "71739",
"favor" :  False ,
     "read" : False,    
"title" : "东亚运-2分钟丢2球 U22国足0-2负日本1平2负垫底",
"titleTip" : "东亚运-2分钟丢2球 U22国足0-2负日本1平2负垫底",
"titleSummary" : "东亚运-2分钟丢2球 U22国足0-2负日本1平2负垫底",
"descSummary" : "北京时间10月12日，第六届东亚运动会男足第四比赛日...",
"url" : "http:\/\/go.rss.sina.com.cn\/redirect.php?url=http:\/\/sports.sina.com.cn\/n\/2013-10-12\/21236827760.shtml",
"pubDate" : "2013年10月12日 (2周前)",
"enterDate" : "384201:03:34",
"channelId" : "7965061239442922157",
"channelName" : "国内足坛焦点新闻-新浪体育",
"channelNameSummary" : "国内足坛焦点新闻-新...",
"channelUrl" : "http:\/\/sports.sina.com.cn\/china\/index.shtml",
"author" : "WWW.SINA.COM.CN",
"tags" : [],
"desc" : "北京时间10月12日，第六届东亚运动会男足第四比赛日，中国U22国足对阵日本队。第41分钟，浅野拓磨门前乱战破门。2分钟后，铃木武藏踢出电梯球直接破门。下半场比赛中国队没能形成破门。90分钟激战，U22国足0-2不敌日本队，前三场比赛1平2负垫底。14日19点30，国青对阵朝鲜队。....",
"emailed" : False,
"forwarded" : False,
"english" : False
}  , {
"index" : 4,
"articleIndex" : "71738",
"favor" :  False ,
     "read" : False,    
"title" : "14年前的江湖旧事：津青重走1-4 记者提问遭反质",
"titleTip" : "14年前的江湖旧事：津青重走1-4 记者提问遭反质",
"titleSummary" : "14年前的江湖旧事：津青重走1-4 记者提问遭反质",
"descSummary" : "不知你是否曾遇到这样的情况，某年某月某日某时，你在...",
"url" : "http:\/\/go.rss.sina.com.cn\/redirect.php?url=http:\/\/sports.sina.com.cn\/j\/2013-10-12\/20596827701.shtml",
"pubDate" : "2013年10月12日 (2周前)",
"enterDate" : "384201:09:41",
"channelId" : "7965061239442922157",
"channelName" : "国内足坛焦点新闻-新浪体育",
"channelNameSummary" : "国内足坛焦点新闻-新...",
"channelUrl" : "http:\/\/sports.sina.com.cn\/china\/index.shtml",
"author" : "WWW.SINA.COM.CN",
"tags" : [],
"desc" : "不知你是否曾遇到这样的情况，某年某月某日某时，你在做着某事的瞬间意识到，在过去的某一时刻，你也曾在作着同样的事情，而周围是同样的环境，同样的节奏。在今天，青岛，天津泰达[微博]和青岛中能[微博]的比赛哨响的一刹那，却猛然让人想起相隔十多年前的另一场比赛，由一个....",
"emailed" : False,
"forwarded" : False,
"english" : False
}  , {
"index" : 5,
"articleIndex" : "71737",
"favor" :  False ,
     "read" : False,    
"title" : "半场战报-2分钟丢2球 东亚运U22国足0-2落后日本",
"titleTip" : "半场战报-2分钟丢2球 东亚运U22国足0-2落后日本",
"titleSummary" : "半场战报-2分钟丢2球 东亚运U22国足0-2落后日本",
"descSummary" : "北京时间10月12日，第六届东亚运动会男足第四比赛日...",
"url" : "http:\/\/go.rss.sina.com.cn\/redirect.php?url=http:\/\/sports.sina.com.cn\/n\/2013-10-12\/20216827666.shtml",
"pubDate" : "2013年10月12日 (2周前)",
"enterDate" : "384201:01:17",
"channelId" : "7965061239442922157",
"channelName" : "国内足坛焦点新闻-新浪体育",
"channelNameSummary" : "国内足坛焦点新闻-新...",
"channelUrl" : "http:\/\/sports.sina.com.cn\/china\/index.shtml",
"author" : "WWW.SINA.COM.CN",
"tags" : [],
"desc" : "北京时间10月12日，第六届东亚运动会男足第四比赛日，中国U22国足对阵日本队。第41分钟，浅野拓磨门前乱战破门。2分钟后，铃木武藏踢出电梯球直接破门。半场结束，中国队0-2落后日本队。 作为冲击2016年里约奥运的93一代，中国U22男足由91届全面升级为93届之后，终于迎....",
"emailed" : False,
"forwarded" : False,
"english" : False
}  , {
"index" : 6,
"articleIndex" : "71736",
"favor" :  False ,
     "read" : False,    
"title" : "保级又热闹了！中能仍比亚泰悬 绿城舜天随时加入",
"titleTip" : "保级又热闹了！中能仍比亚泰悬 绿城舜天随时加入",
"titleSummary" : "保级又热闹了！中能仍比亚泰悬 绿城舜天随时加入",
"descSummary" : "北京时间10月12日下午，2013赛季中超联赛一场补赛...",
"url" : "http:\/\/go.rss.sina.com.cn\/redirect.php?url=http:\/\/sports.sina.com.cn\/j\/2013-10-12\/20066827649.shtml",
"pubDate" : "2013年10月12日 (2周前)",
"enterDate" : "384201:17:01",
"channelId" : "7965061239442922157",
"channelName" : "国内足坛焦点新闻-新浪体育",
"channelNameSummary" : "国内足坛焦点新闻-新...",
"channelUrl" : "http:\/\/sports.sina.com.cn\/china\/index.shtml",
"author" : "WWW.SINA.COM.CN",
"tags" : [],
"desc" : "北京时间10月12日下午，2013赛季中超联赛一场补赛结束，陷于保级圈的青岛中能主场4-1大胜此前连胜上赛季前五名的天津泰达。青岛中能结束了长达15轮不胜的怪圈，迎来了139天后的首场胜利，同时他们也以2分优势暂时超越长春亚泰，位居倒数第三位。当然，一场救命的胜利虽然让青....",
"emailed" : False,
"forwarded" : False,
"english" : False
}  , {
"index" : 7,
"articleIndex" : "71735",
"favor" :  False ,
     "read" : False,    
"title" : "正在视频直播东亚运小组赛：U22国足VS日本",
"titleTip" : "正在视频直播东亚运小组赛：U22国足VS日本",
"titleSummary" : "正在视频直播东亚运小组赛：U22国足VS日本",
"descSummary" : "",
"url" : "http:\/\/go.rss.sina.com.cn\/redirect.php?url=http:\/\/live.video.sina.com.cn\/room\/csllive1",
"pubDate" : "2013年10月12日 (2周前)",
"enterDate" : "384201:16:08",
"channelId" : "7965061239442922157",
"channelName" : "国内足坛焦点新闻-新浪体育",
"channelNameSummary" : "国内足坛焦点新闻-新...",
"channelUrl" : "http:\/\/sports.sina.com.cn\/china\/index.shtml",
"author" : "WWW.SINA.COM.CN",
"tags" : [],
"desc" : "",
"emailed" : False,
"forwarded" : False,
"english" : False
}  , {
"index" : 8,
"articleIndex" : "71734",
"favor" :  False ,
     "read" : False,    
"title" : "津青战遭吐槽光天化日朗朗乾坤 青岛解说：好兄弟",
"titleTip" : "津青战遭吐槽光天化日朗朗乾坤 青岛解说：好兄弟",
"titleSummary" : "津青战遭吐槽光天化日朗朗乾坤 青岛解说：好兄弟",
"descSummary" : "球迷自己PS的报纸头版 \u201C光天化日，朗朗中超，泰达...",
"url" : "http:\/\/go.rss.sina.com.cn\/redirect.php?url=http:\/\/sports.sina.com.cn\/j\/2013-10-12\/19356827604.shtml",
"pubDate" : "2013年10月12日 (2周前)",
"enterDate" : "384201:15:50",
"channelId" : "7965061239442922157",
"channelName" : "国内足坛焦点新闻-新浪体育",
"channelNameSummary" : "国内足坛焦点新闻-新...",
"channelUrl" : "http:\/\/sports.sina.com.cn\/china\/index.shtml",
"author" : "WWW.SINA.COM.CN",
"tags" : [],
"desc" : "球迷自己PS的报纸头版 \u201C光天化日，朗朗中超，泰达辽足，如此默契。\u201D这是国内报纸在7月14日中超联赛天津泰达3-1辽宁宏运后的标题。当时的那场比赛辽宁队莫名其妙的雪藏了几名重点外援导致球队客场输球，引起了中国足坛的震动。这句之后还曾被天津球迷在球队连胜BIG5时用来....",
"emailed" : False,
"forwarded" : False,
"english" : False
}  , {
"index" : 9,
"articleIndex" : "71733",
"favor" :  False ,
     "read" : False,    
"title" : "里皮:恒大工资太高曾让我犹豫 中国爱足球但踢的少",
"titleTip" : "里皮:恒大工资太高曾让我犹豫 中国爱足球但踢的少",
"titleSummary" : "里皮:恒大工资太高曾让我犹豫 中国爱足球但踢的少",
"descSummary" : "自从里皮去年来中国执教后，他便成了这里的常胜将军...",
"url" : "http:\/\/go.rss.sina.com.cn\/redirect.php?url=http:\/\/sports.sina.com.cn\/j\/2013-10-12\/19216827571.shtml",
"pubDate" : "2013年10月12日 (2周前)",
"enterDate" : "384201:01:26",
"channelId" : "7965061239442922157",
"channelName" : "国内足坛焦点新闻-新浪体育",
"channelNameSummary" : "国内足坛焦点新闻-新...",
"channelUrl" : "http:\/\/sports.sina.com.cn\/china\/index.shtml",
"author" : "WWW.SINA.COM.CN",
"tags" : [],
"desc" : "自从里皮去年来中国执教后，他便成了这里的常胜将军。到目前为止，银狐率领的广州恒大[微博]仅仅在上赛季的亚冠联赛一项赛事中折戟，其余各项比赛都走到了最后，现在又有机会成为中国足球职业联赛史上的第一个\u201C三冠王\u201D。在俱乐部夺得联赛冠军之后，里皮接受了意大利《前景》....",
"emailed" : False,
"forwarded" : False,
"english" : False
}  , {
"index" : 10,
"articleIndex" : "71732",
"favor" :  False ,
     "read" : False,    
"title" : "连克五强的泰达又崩了！被后两名完虐 这啥节奏？",
"titleTip" : "连克五强的泰达又崩了！被后两名完虐 这啥节奏？",
"titleSummary" : "连克五强的泰达又崩了！被后两名完虐 这啥节奏？",
"descSummary" : "北京时间10月12日下午，在中超一场直关保级战团走...",
"url" : "http:\/\/go.rss.sina.com.cn\/redirect.php?url=http:\/\/sports.sina.com.cn\/j\/2013-10-12\/18546827533.shtml",
"pubDate" : "2013年10月12日 (2周前)",
"enterDate" : "384201:05:00",
"channelId" : "7965061239442922157",
"channelName" : "国内足坛焦点新闻-新浪体育",
"channelNameSummary" : "国内足坛焦点新闻-新...",
"channelUrl" : "http:\/\/sports.sina.com.cn\/china\/index.shtml",
"author" : "WWW.SINA.COM.CN",
"tags" : [],
"desc" : "北京时间10月12日下午，在中超一场直关保级战团走势的比赛中天津泰达客场1-4负于青岛中能，中能结束了连续15轮不胜的尴尬，也反超亚泰上升到了积分榜倒数第3位。因此战战果影响重大，赛前即有了多种猜测；而对于泰达来说，此战则再次证明了其联赛下半程走势的奇葩特色\u2015\u2015专克....",
"emailed" : False,
"forwarded" : False,
"english" : False
}  , {
"index" : 11,
"articleIndex" : "71731",
"favor" :  False ,
     "read" : False,    
"title" : "东亚运U22国足VS日本首发:刘彬彬踢后卫 海归后腰",
"titleTip" : "东亚运U22国足VS日本首发:刘彬彬踢后卫 海归后腰",
"titleSummary" : "东亚运U22国足VS日本首发:刘彬彬踢后卫 海归后腰",
"descSummary" : "北京时间10月12日，第六届东亚运动会男足第四比赛...",
"url" : "http:\/\/go.rss.sina.com.cn\/redirect.php?url=http:\/\/sports.sina.com.cn\/n\/2013-10-12\/18476827525.shtml",
"pubDate" : "2013年10月12日 (2周前)",
"enterDate" : "384200:57:40",
"channelId" : "7965061239442922157",
"channelName" : "国内足坛焦点新闻-新浪体育",
"channelNameSummary" : "国内足坛焦点新闻-新...",
"channelUrl" : "http:\/\/sports.sina.com.cn\/china\/index.shtml",
"author" : "WWW.SINA.COM.CN",
"tags" : [],
"desc" : "北京时间10月12日，第六届东亚运动会男足第四比赛日，中国U22国足对阵日本队。前三轮中国少赛1轮1平1负垫底，日本1胜1平1负排在第一位。赛前，双方公布了本场比赛的首发名单。 本场比赛，赵旭东基本沿用了与中国香港队的首发名单，鲁能[微博]边锋刘彬彬[微博]出任右后....",
"emailed" : False,
"forwarded" : False,
"english" : False
}  , {
"index" : 12,
"articleIndex" : "71730",
"favor" :  False ,
     "read" : False,    
"title" : "青岛主帅赞赢球完美:默契球？职业队不可能干这事",
"titleTip" : "青岛主帅赞赢球完美:默契球？职业队不可能干这事",
"titleSummary" : "青岛主帅赞赢球完美:默契球？职业队不可能干这事",
"descSummary" : "10月12日下午，中超第20轮的一场补赛在青岛天泰体...",
"url" : "http:\/\/go.rss.sina.com.cn\/redirect.php?url=http:\/\/sports.sina.com.cn\/j\/2013-10-12\/18236827485.shtml",
"pubDate" : "2013年10月12日 (2周前)",
"enterDate" : "384201:03:30",
"channelId" : "7965061239442922157",
"channelName" : "国内足坛焦点新闻-新浪体育",
"channelNameSummary" : "国内足坛焦点新闻-新...",
"channelUrl" : "http:\/\/sports.sina.com.cn\/china\/index.shtml",
"author" : "WWW.SINA.COM.CN",
"tags" : [],
"desc" : "10月12日下午，中超第20轮的一场补赛在青岛天泰体育场进行。下半场替补上场的泰达外援巴雷先入一球，乔尔混战中为中能扳平比分，布鲁诺点球命中将比分反超，朱世玉和乔尔随后的进球将比分扩大为4:1。 赛后发布会上，中能主帅戈兰・斯特瓦诺维奇表示，\u201C有些比赛，比赛....",
"emailed" : False,
"forwarded" : False,
"english" : False
}  , {
"index" : 13,
"articleIndex" : "71729",
"favor" :  False ,
     "read" : False,    
"title" : "吉马良斯：泰达输在领先之后大意 不存在轻敌问题",
"titleTip" : "吉马良斯：泰达输在领先之后大意 不存在轻敌问题",
"titleSummary" : "吉马良斯：泰达输在领先之后大意 不存在轻敌问题",
"descSummary" : "10月12日下午，中超第20轮的一场补赛在青岛天泰体...",
"url" : "http:\/\/go.rss.sina.com.cn\/redirect.php?url=http:\/\/sports.sina.com.cn\/j\/2013-10-12\/18206827482.shtml",
"pubDate" : "2013年10月12日 (2周前)",
"enterDate" : "384201:00:42",
"channelId" : "7965061239442922157",
"channelName" : "国内足坛焦点新闻-新浪体育",
"channelNameSummary" : "国内足坛焦点新闻-新...",
"channelUrl" : "http:\/\/sports.sina.com.cn\/china\/index.shtml",
"author" : "WWW.SINA.COM.CN",
"tags" : [],
"desc" : "10月12日下午，中超第20轮的一场补赛在青岛天泰体育场进行。下半场替补上场的泰达外援巴雷先入一球，乔尔混战中为中能扳平比分，布鲁诺点球命中将比分反超，朱世玉和乔尔随后的进球将比分扩大为4:1。 赛后，天津泰达队主帅吉马良斯表示：\u201C可能有人觉得这场比赛的结果....",
"emailed" : False,
"forwarded" : False,
"english" : False
}  , {
"index" : 14,
"articleIndex" : "71728",
"favor" :  False ,
     "read" : False,    
"title" : "关键时刻！门将失误+后卫送点 泰达这次说不清了",
"titleTip" : "关键时刻！门将失误+后卫送点 泰达这次说不清了",
"titleSummary" : "关键时刻！门将失误+后卫送点 泰达这次说不清了",
"descSummary" : "北京时间10月12日下午，在2013赛季中超联赛的一场第...",
"url" : "http:\/\/go.rss.sina.com.cn\/redirect.php?url=http:\/\/sports.sina.com.cn\/j\/2013-10-12\/17596827465.shtml",
"pubDate" : "2013年10月12日 (2周前)",
"enterDate" : "384201:09:49",
"channelId" : "7965061239442922157",
"channelName" : "国内足坛焦点新闻-新浪体育",
"channelNameSummary" : "国内足坛焦点新闻-新...",
"channelUrl" : "http:\/\/sports.sina.com.cn\/china\/index.shtml",
"author" : "WWW.SINA.COM.CN",
"tags" : [],
"desc" : "北京时间10月12日下午，在2013赛季中超联赛的一场第20轮补赛中，青岛中能主场4-1逆转击败天津泰达，在结束15轮不胜的同时，终结了对手的5连胜，从而让青岛中能暂时摆脱了降级区。三分对于志在保级的青岛中能来说非常重要，但就在外界都盯着这场比赛的情况下，这场比赛还是出现....",
"emailed" : False,
"forwarded" : False,
"english" : False
}  , {
"index" : 15,
"articleIndex" : "71727",
"favor" :  False ,
     "read" : False,    
"title" : "调查-您认为津青之战是默契球吗？青岛能保级吗？",
"titleTip" : "调查-您认为津青之战是默契球吗？青岛能保级吗？",
"titleSummary" : "调查-您认为津青之战是默契球吗？青岛能保级吗？",
"descSummary" : "北京时间10月12日下午，2013赛季中超联赛进行了一...",
"url" : "http:\/\/go.rss.sina.com.cn\/redirect.php?url=http:\/\/sports.sina.com.cn\/j\/2013-10-12\/17486827459.shtml",
"pubDate" : "2013年10月12日 (2周前)",
"enterDate" : "384200:58:50",
"channelId" : "7965061239442922157",
"channelName" : "国内足坛焦点新闻-新浪体育",
"channelNameSummary" : "国内足坛焦点新闻-新...",
"channelUrl" : "http:\/\/sports.sina.com.cn\/china\/index.shtml",
"author" : "WWW.SINA.COM.CN",
"tags" : [],
"desc" : "北京时间10月12日下午，2013赛季中超联赛进行了一场第20轮的补赛，由青岛中能主场对阵天津泰达，第59分钟，替补出场的巴雷接周海滨传球为泰达先取入球；第67分钟，泰达门将杨启鹏失误，乔尔-格里菲斯为中能扳平比分；第81分钟，曹阳手球送出点球，布鲁诺操刀命中将比分反超；....",
"emailed" : False,
"forwarded" : False,
"english" : False
}  , {
"index" : 16,
"articleIndex" : "71726",
"favor" :  False ,
     "read" : False,    
"title" : "中超-中能大逆转4-1泰达16轮首胜 积分超越亚泰",
"titleTip" : "中超-中能大逆转4-1泰达16轮首胜 积分超越亚泰",
"titleSummary" : "中超-中能大逆转4-1泰达16轮首胜 积分超越亚泰",
"descSummary" : "北京时间10月12日下午，2013赛季中超联赛进行了一场...",
"url" : "http:\/\/go.rss.sina.com.cn\/redirect.php?url=http:\/\/sports.sina.com.cn\/j\/2013-10-12\/17326827430.shtml",
"pubDate" : "2013年10月12日 (2周前)",
"enterDate" : "384200:12:36",
"channelId" : "7965061239442922157",
"channelName" : "国内足坛焦点新闻-新浪体育",
"channelNameSummary" : "国内足坛焦点新闻-新...",
"channelUrl" : "http:\/\/sports.sina.com.cn\/china\/index.shtml",
"author" : "WWW.SINA.COM.CN",
"tags" : [],
"desc" : "北京时间10月12日下午，2013赛季中超联赛进行了一场第20轮的补赛，由青岛中能主场对阵天津泰达，第59分钟，替补出场的巴雷接周海滨传球为泰达先取入球；第67分钟，泰达门将杨启鹏失误，乔尔-格里菲斯为中能扳平比分；第81分钟，曹阳手球送出点球，布鲁诺操刀命中将比分反超；....",
"emailed" : False,
"forwarded" : False,
"english" : False
}  , {
"index" : 17,
"articleIndex" : "71725",
"favor" :  False ,
     "read" : False,    
"title" : "进球视频-曹阳禁区手球送点 布鲁诺重炮实现逆转",
"titleTip" : "进球视频-曹阳禁区手球送点 布鲁诺重炮实现逆转",
"titleSummary" : "进球视频-曹阳禁区手球送点 布鲁诺重炮实现逆转",
"descSummary" : "北京时间10月12日，中超联赛第20轮一场补赛在青岛上...",
"url" : "http:\/\/go.rss.sina.com.cn\/redirect.php?url=http:\/\/video.sina.com.cn\/p\/sports\/j\/v\/2013-10-12\/172663011759.html",
"pubDate" : "2013年10月12日 (2周前)",
"enterDate" : "384201:07:23",
"channelId" : "7965061239442922157",
"channelName" : "国内足坛焦点新闻-新浪体育",
"channelNameSummary" : "国内足坛焦点新闻-新...",
"channelUrl" : "http:\/\/sports.sina.com.cn\/china\/index.shtml",
"author" : "WWW.SINA.COM.CN",
"tags" : [],
"desc" : "北京时间10月12日，中超联赛第20轮一场补赛在青岛上演，保级局势危险的青岛中能主场迎战天津泰达，比赛第82分钟，青岛队角球开到禁区内引起一片混乱，曹阳在防守时用手碰到了皮球，主裁判果断吹罚点球，布鲁诺主罚重炮轰门，青岛队完成逆转。 以上是相关视频。",
"emailed" : False,
"forwarded" : False,
"english" : False
}  , {
"index" : 18,
"articleIndex" : "71724",
"favor" :  False ,
     "read" : False,    
"title" : "进球视频-布鲁诺横趟劲射造脱手 乔尔补射扳平",
"titleTip" : "进球视频-布鲁诺横趟劲射造脱手 乔尔补射扳平",
"titleSummary" : "进球视频-布鲁诺横趟劲射造脱手 乔尔补射扳平",
"descSummary" : "北京时间10月12日，中超联赛第20轮一场补赛在青岛上演...",
"url" : "http:\/\/go.rss.sina.com.cn\/redirect.php?url=http:\/\/video.sina.com.cn\/p\/sports\/j\/v\/2013-10-12\/171163011711.html",
"pubDate" : "2013年10月12日 (2周前)",
"enterDate" : "384200:51:57",
"channelId" : "7965061239442922157",
"channelName" : "国内足坛焦点新闻-新浪体育",
"channelNameSummary" : "国内足坛焦点新闻-新...",
"channelUrl" : "http:\/\/sports.sina.com.cn\/china\/index.shtml",
"author" : "WWW.SINA.COM.CN",
"tags" : [],
"desc" : "北京时间10月12日，中超联赛第20轮一场补赛在青岛上演，保级局势危险的青岛中能主场迎战天津泰达，比赛第67分钟，青岛队进攻，布鲁诺左路得球后内切来到禁区前，突然起脚射门造成杨启鹏脱手，跟上的乔尔补射破门将比分扳平。 以上是相关视频。",
"emailed" : False,
"forwarded" : False,
"english" : False
}  , {
"index" : 19,
"articleIndex" : "71723",
"favor" :  False ,
     "read" : False,    
"title" : "进球视频-周海滨边路轻晃戏对手 助巴雷头槌破门",
"titleTip" : "进球视频-周海滨边路轻晃戏对手 助巴雷头槌破门",
"titleSummary" : "进球视频-周海滨边路轻晃戏对手 助巴雷头槌破门",
"descSummary" : "北京时间10月12日，中超联赛第20轮一场补赛在青岛上...",
"url" : "http:\/\/go.rss.sina.com.cn\/redirect.php?url=http:\/\/video.sina.com.cn\/p\/sports\/j\/v\/2013-10-12\/170163011691.html",
"pubDate" : "2013年10月12日 (2周前)",
"enterDate" : "384201:11:54",
"channelId" : "7965061239442922157",
"channelName" : "国内足坛焦点新闻-新浪体育",
"channelNameSummary" : "国内足坛焦点新闻-新...",
"channelUrl" : "http:\/\/sports.sina.com.cn\/china\/index.shtml",
"author" : "WWW.SINA.COM.CN",
"tags" : [],
"desc" : "北京时间10月12日，中超联赛第20轮一场补赛在青岛上演，保级局势危险的青岛中能主场迎战天津泰达。比赛第57分钟，天津队利用对手空挡，从右路发动进攻，周海滨底线处得球后一个假动作晃过补防的青岛队员，随后轻松传中，助攻巴雷头槌破门。 以上是相关视频。",
"emailed" : False,
"forwarded" : False,
"english" : False
} ]
}
