{
"mode" : {"viewTitle" : 1,   "viewNew" : 0,  "pageIndex" : 1 },
 "channel" : {"id" : "-1345882197566046935", "booked" : False, "subNumber" : 1, "name" : "婴儿期-新浪育儿", "url" : "http:\/\/baby.sina.com.cn\/news\/list.html", "feed" : "http:\/\/rss.sina.com.cn\/baby\/news\/yinger.xml", "author" : "WWW.SINA.COM.CN", "desc" : "婴儿期", "imageUrl" : "http:\/\/www.sinaimg.cn\/bb\/deco\/2012\/0917\/b_m_02.gif", "postPerWeek" : "0", "lastCrawTime" : "17:19:05", "crawDateTime" : "17:19:05", "lastHttpCode" : "200"}, "page" : {
"startIndex" : 0,
"totalCount" : 1117,
"pageIndex" : 1,
"lastPage" : 56,
"pageSize" : 20,
"english" :  False },
 "unreadNum" : 0, "shotIndex" : -1,
"articles" : [
{
"index" : 0,
"articleIndex" : "1116",
"favor" :  False ,
     "read" : False,    
"title" : "如何激发孩子的说话能力",
"titleTip" : "如何激发孩子的说话能力",
"titleSummary" : "如何激发孩子的说话能力",
"descSummary" : "从宝宝呱呱落地起，他每一次伸腿，每一次抓东西，每一次哭闹，每一次微笑都...",
"url" : "http:\/\/go.rss.sina.com.cn\/redirect.php?url=http:\/\/baby.sina.com.cn\/edu\/13\/3010\/2013-10-30\/0951259933.shtml",
"pubDate" : "09:51:49",
"enterDate" : "384200:53:22",
"channelId" : "-1345882197566046935",
"channelName" : "婴儿期-新浪育儿",
"channelNameSummary" : "婴儿期-新浪育儿",
"channelUrl" : "http:\/\/baby.sina.com.cn\/news\/list.html",
"author" : "WWW.SINA.COM.CN",
"tags" : [],
"desc" : "从宝宝呱呱落地起，他每一次伸腿，每一次抓东西，每一次哭闹，每一次微笑都牵动着全家人的心，我们每天都在看着他生长，听着他\u201C说话\u201D，他的笑声告诉我们他很满足，他的哭声告诉我们他不舒服，他的眼神告诉我们他在认真地听，他的咿呀告诉我们他在努力地模仿。 宝宝从....",
"emailed" : False,
"forwarded" : False,
"english" : False
}  , {
"index" : 1,
"articleIndex" : "1111",
"favor" :  False ,
     "read" : False,    
"title" : "婴儿配方食品禁以\u201C人乳化\u201D宣传",
"titleTip" : "婴儿配方食品禁以\u201C人乳化\u201D宣传",
"titleSummary" : "婴儿配方食品禁以\u201C人乳化\u201D宣传",
"descSummary" : "据新华社电 食品药品监管总局、国家卫生计生委、工商总局日前联合...",
"url" : "http:\/\/go.rss.sina.com.cn\/redirect.php?url=http:\/\/baby.sina.com.cn\/health\/13\/3010\/2013-10-30\/0749259888.shtml",
"pubDate" : "07:49:54",
"enterDate" : "384200:51:47",
"channelId" : "-1345882197566046935",
"channelName" : "婴儿期-新浪育儿",
"channelNameSummary" : "婴儿期-新浪育儿",
"channelUrl" : "http:\/\/baby.sina.com.cn\/news\/list.html",
"author" : "WWW.SINA.COM.CN",
"tags" : [],
"desc" : "据新华社电 食品药品监管总局、国家卫生计生委、工商总局日前联合印发通知，要求各地进一步规范母乳代用品宣传和销售行为。 通知指出，婴儿配方食品是重要的母乳代用品。监管部门要在抓好婴儿配方食品特别是婴儿配方乳粉质量安全的基础上，加大婴儿配方食品标签标识的....",
"emailed" : False,
"forwarded" : False,
"english" : False
}  , {
"index" : 2,
"articleIndex" : "1115",
"favor" :  False ,
     "read" : False,    
"title" : "不要轻易给孩子扣\u201C过敏\u201D的帽子",
"titleTip" : "不要轻易给孩子扣\u201C过敏\u201D的帽子",
"titleSummary" : "不要轻易给孩子扣\u201C过敏\u201D的帽子",
"descSummary" : "不要轻易给孩子扣上\u201C过敏\u201D的帽子 现在越来越多的孩子被带上\u201C过...",
"url" : "http:\/\/go.rss.sina.com.cn\/redirect.php?url=http:\/\/baby.sina.com.cn\/health\/13\/3010\/2013-10-30\/0746259887.shtml",
"pubDate" : "07:46:22",
"enterDate" : "384198:47:55",
"channelId" : "-1345882197566046935",
"channelName" : "婴儿期-新浪育儿",
"channelNameSummary" : "婴儿期-新浪育儿",
"channelUrl" : "http:\/\/baby.sina.com.cn\/news\/list.html",
"author" : "WWW.SINA.COM.CN",
"tags" : [],
"desc" : "不要轻易给孩子扣上\u201C过敏\u201D的帽子 现在越来越多的孩子被带上\u201C过敏\u201D的帽子，食物过敏问题逐年扩大，不仅体现在过敏人数的增长上，也体现在食物致敏原的增加上。 1999年，国际食品法典委员会第23次会议公布了常见致敏食物的清单，包括8种常见的和160种较不常见....",
"emailed" : False,
"forwarded" : False,
"english" : False
}  , {
"index" : 3,
"articleIndex" : "1114",
"favor" :  False ,
     "read" : False,    
"title" : "宝宝秋季腹泻妈妈别急于止泻",
"titleTip" : "宝宝秋季腹泻妈妈别急于止泻",
"titleSummary" : "宝宝秋季腹泻妈妈别急于止泻",
"descSummary" : "深秋时节，秋季腹泻又如\u201C定时炸弹\u201D准时作恶，各大医院儿科接诊的秋季...",
"url" : "http:\/\/go.rss.sina.com.cn\/redirect.php?url=http:\/\/baby.sina.com.cn\/health\/13\/3010\/2013-10-30\/0735259884.shtml",
"pubDate" : "07:35:00",
"enterDate" : "384198:36:33",
"channelId" : "-1345882197566046935",
"channelName" : "婴儿期-新浪育儿",
"channelNameSummary" : "婴儿期-新浪育儿",
"channelUrl" : "http:\/\/baby.sina.com.cn\/news\/list.html",
"author" : "WWW.SINA.COM.CN",
"tags" : [],
"desc" : "深秋时节，秋季腹泻又如\u201C定时炸弹\u201D准时作恶，各大医院儿科接诊的秋季腹泻宝宝明显增多。很多妈妈对秋季腹泻充满恐惧和困惑，也对如何护理患病宝宝有很多疑问。比如为何给宝宝接种了轮状病毒疫苗仍中招？吃了医生开的药，宝宝为何仍拉个不停？到底哪种情况该带宝宝再次就医？....",
"emailed" : False,
"forwarded" : False,
"english" : False
}  , {
"index" : 4,
"articleIndex" : "1110",
"favor" :  False ,
     "read" : False,    
"title" : "宝宝\u201C鹅口疮\u201D怎么办",
"titleTip" : "宝宝\u201C鹅口疮\u201D怎么办",
"titleSummary" : "宝宝\u201C鹅口疮\u201D怎么办",
"descSummary" : "鹅口疮又叫雪口病、白色念珠菌病，是由白色念珠菌感染所引起的口腔黏膜疾病。...",
"url" : "http:\/\/go.rss.sina.com.cn\/redirect.php?url=http:\/\/baby.sina.com.cn\/health\/13\/3010\/2013-10-30\/0728259882.shtml",
"pubDate" : "07:28:34",
"enterDate" : "384201:00:32",
"channelId" : "-1345882197566046935",
"channelName" : "婴儿期-新浪育儿",
"channelNameSummary" : "婴儿期-新浪育儿",
"channelUrl" : "http:\/\/baby.sina.com.cn\/news\/list.html",
"author" : "WWW.SINA.COM.CN",
"tags" : [],
"desc" : "鹅口疮又叫雪口病、白色念珠菌病，是由白色念珠菌感染所引起的口腔黏膜疾病。鹅口疮多见于虚弱或营养不良的婴幼儿，特别是消化不良的婴幼儿，在口腔任何地方都有可能会发生鹅口疮，新生儿多由产道感染，也有可能是因为奶头不洁或者喂养者的手指感染，妈妈的乳头或者橡皮奶头都....",
"emailed" : False,
"forwarded" : False,
"english" : False
}  , {
"index" : 5,
"articleIndex" : "1113",
"favor" :  False ,
     "read" : False,    
"title" : "外国宝宝为什么都爱咬奶嘴？",
"titleTip" : "外国宝宝为什么都爱咬奶嘴？",
"titleSummary" : "外国宝宝为什么都爱咬奶嘴？",
"descSummary" : "外国宝宝为什么都爱咬奶嘴？现代妈妈们的\u201C育儿经\u201D已经不仅仅局限于口...",
"url" : "http:\/\/go.rss.sina.com.cn\/redirect.php?url=http:\/\/baby.sina.com.cn\/health\/13\/3010\/2013-10-30\/0721259880.shtml",
"pubDate" : "07:21:21",
"enterDate" : "384198:22:54",
"channelId" : "-1345882197566046935",
"channelName" : "婴儿期-新浪育儿",
"channelNameSummary" : "婴儿期-新浪育儿",
"channelUrl" : "http:\/\/baby.sina.com.cn\/news\/list.html",
"author" : "WWW.SINA.COM.CN",
"tags" : [],
"desc" : "外国宝宝为什么都爱咬奶嘴？ 现代妈妈们的\u201C育儿经\u201D已经不仅仅局限于口口相传、电视或书报杂志了，现在很多80后妈妈不但\u201C海淘\u201D奶粉、有机辅食等，还爱在网上\u201C海淘\u201D国外妈妈们的育儿经：比如夜里宝宝哭了到底要不要给喂奶？宝宝在7岁前能不能穿气垫鞋？不吃饭就让小孩....",
"emailed" : False,
"forwarded" : False,
"english" : False
}  , {
"index" : 6,
"articleIndex" : "1109",
"favor" :  False ,
     "read" : False,    
"title" : "海外网购2.5千克以下奶粉免税",
"titleTip" : "海外网购2.5千克以下奶粉免税",
"titleSummary" : "海外网购2.5千克以下奶粉免税",
"descSummary" : "现在\u201C海淘\u201D(从海外网站购物)的人越来越多，但有的人由于不太了解海关...",
"url" : "http:\/\/go.rss.sina.com.cn\/redirect.php?url=http:\/\/baby.sina.com.cn\/health\/13\/3010\/2013-10-30\/0719259879.shtml",
"pubDate" : "07:19:37",
"enterDate" : "384200:51:35",
"channelId" : "-1345882197566046935",
"channelName" : "婴儿期-新浪育儿",
"channelNameSummary" : "婴儿期-新浪育儿",
"channelUrl" : "http:\/\/baby.sina.com.cn\/news\/list.html",
"author" : "WWW.SINA.COM.CN",
"tags" : [],
"desc" : "现在\u201C海淘\u201D(从海外网站购物)的人越来越多，但有的人由于不太了解海关规定，导致邮递物品遭到查扣、退运，给自己造成不必要的麻烦和损失。在南京海关12360热线邮寄物品进出境海关法律知识在线访谈活动中，海关驻邮局办事处孔繁辉与网友在线互动，并现场回答了网友的提问。....",
"emailed" : False,
"forwarded" : False,
"english" : False
}  , {
"index" : 7,
"articleIndex" : "1108",
"favor" :  False ,
     "read" : False,    
"title" : "严禁医院推销奶粉",
"titleTip" : "严禁医院推销奶粉",
"titleSummary" : "严禁医院推销奶粉",
"descSummary" : "国家加强监管检查母乳代用品宣传销售 据新华社电 为保障婴幼儿身体健康，食品药品...",
"url" : "http:\/\/go.rss.sina.com.cn\/redirect.php?url=http:\/\/baby.sina.com.cn\/health\/13\/3010\/2013-10-30\/0718259878.shtml",
"pubDate" : "07:18:15",
"enterDate" : "384200:50:13",
"channelId" : "-1345882197566046935",
"channelName" : "婴儿期-新浪育儿",
"channelNameSummary" : "婴儿期-新浪育儿",
"channelUrl" : "http:\/\/baby.sina.com.cn\/news\/list.html",
"author" : "WWW.SINA.COM.CN",
"tags" : [],
"desc" : "国家加强监管检查母乳代用品宣传销售 据新华社电 为保障婴幼儿身体健康，食品药品监管总局、国家卫生计生委、工商总局日前联合印发通知，要求各地进一步规范母乳代用品宣传和销售行为。 通知指出，婴儿配方食品标签标识上，应用醒目文字标注说明母乳喂养优越性....",
"emailed" : False,
"forwarded" : False,
"english" : False
}  , {
"index" : 8,
"articleIndex" : "1112",
"favor" :  False ,
     "read" : False,    
"title" : "药店开售才几天，奶粉售卖机大罢工",
"titleTip" : "药店开售才几天，奶粉售卖机大罢工",
"titleSummary" : "药店开售才几天，奶粉售卖机大罢工",
"descSummary" : "京华时报讯(记者胡笑红)10月26日北京正式试点药店ATM自动售卖机...",
"url" : "http:\/\/go.rss.sina.com.cn\/redirect.php?url=http:\/\/baby.sina.com.cn\/health\/13\/3010\/2013-10-30\/0716259877.shtml",
"pubDate" : "07:16:30",
"enterDate" : "384198:18:03",
"channelId" : "-1345882197566046935",
"channelName" : "婴儿期-新浪育儿",
"channelNameSummary" : "婴儿期-新浪育儿",
"channelUrl" : "http:\/\/baby.sina.com.cn\/news\/list.html",
"author" : "WWW.SINA.COM.CN",
"tags" : [],
"desc" : "京华时报讯(记者胡笑红)10月26日北京正式试点药店ATM自动售卖机开卖奶粉，然而不过几天时间，参与试点的北京5家门店的售卖机就因系统故障，全面\u201C罢工\u201D。 据了解，在中国国际贸易学会国际品牌管理中心(下称品牌中心)主导下，首批试点卖奶粉的药店为北京永安堂、金象、....",
"emailed" : False,
"forwarded" : False,
"english" : False
}  , {
"index" : 9,
"articleIndex" : "1107",
"favor" :  False ,
     "read" : False,    
"title" : "婴幼儿奶粉不得贴牌生产",
"titleTip" : "婴幼儿奶粉不得贴牌生产",
"titleSummary" : "婴幼儿奶粉不得贴牌生产",
"descSummary" : "据新华社电国务院法制办公室29日就《中华人民共和国食品安全法(修订草案送...",
"url" : "http:\/\/go.rss.sina.com.cn\/redirect.php?url=http:\/\/baby.sina.com.cn\/health\/13\/3010\/2013-10-30\/0712259876.shtml",
"pubDate" : "07:12:45",
"enterDate" : "384200:44:43",
"channelId" : "-1345882197566046935",
"channelName" : "婴儿期-新浪育儿",
"channelNameSummary" : "婴儿期-新浪育儿",
"channelUrl" : "http:\/\/baby.sina.com.cn\/news\/list.html",
"author" : "WWW.SINA.COM.CN",
"tags" : [],
"desc" : "据新华社电国务院法制办公室29日就《中华人民共和国食品安全法(修订草案送审稿)》公开征求意见，送审稿规定，对违法违规行为将严惩重处。意见反馈截止日期为11月29日。 送审稿从强化企业主体责任落实、严惩重处违法违规行为等6个方面对现行法律作了修改和补充。 ....",
"emailed" : False,
"forwarded" : False,
"english" : False
}  , {
"index" : 10,
"articleIndex" : "1106",
"favor" :  False ,
     "read" : False,    
"title" : "给10个月BB喂瓜子险酿惨剧",
"titleTip" : "给10个月BB喂瓜子险酿惨剧",
"titleSummary" : "给10个月BB喂瓜子险酿惨剧",
"descSummary" : "妈妈吃瓜子时，不忘给10月大的宝宝喂上几颗，结果险酿惨剧。昨日，经儿...",
"url" : "http:\/\/go.rss.sina.com.cn\/redirect.php?url=http:\/\/baby.sina.com.cn\/health\/13\/3010\/2013-10-30\/0656259871.shtml",
"pubDate" : "06:56:10",
"enterDate" : "384197:27:38",
"channelId" : "-1345882197566046935",
"channelName" : "婴儿期-新浪育儿",
"channelNameSummary" : "婴儿期-新浪育儿",
"channelUrl" : "http:\/\/baby.sina.com.cn\/news\/list.html",
"author" : "WWW.SINA.COM.CN",
"tags" : [],
"desc" : "妈妈吃瓜子时，不忘给10月大的宝宝喂上几颗，结果险酿惨剧。昨日，经儿童医院心胸外科手术，成功从宝宝气管里取出2颗完整的夺命瓜子。专家称，2岁内的婴幼儿最好不要自行咀嚼坚果食物。 宝宝喘不过气 昨日，儿童医院心胸外科，10个月大的思思(化名)恬静地睡在妈....",
"emailed" : False,
"forwarded" : False,
"english" : False
}  , {
"index" : 11,
"articleIndex" : "1105",
"favor" :  False ,
     "read" : False,    
"title" : "宝宝用电热毯面红哭闹需防\u201C脱水热\u201D",
"titleTip" : "宝宝用电热毯面红哭闹需防\u201C脱水热\u201D",
"titleSummary" : "宝宝用电热毯面红哭闹需防\u201C脱水热\u201D",
"descSummary" : "读者赵女士：这几天天冷，我让宝宝睡电热毯，他用完之后脸发红...",
"url" : "http:\/\/go.rss.sina.com.cn\/redirect.php?url=http:\/\/baby.sina.com.cn\/health\/13\/3010\/2013-10-30\/0654259870.shtml",
"pubDate" : "06:54:41",
"enterDate" : "384200:56:44",
"channelId" : "-1345882197566046935",
"channelName" : "婴儿期-新浪育儿",
"channelNameSummary" : "婴儿期-新浪育儿",
"channelUrl" : "http:\/\/baby.sina.com.cn\/news\/list.html",
"author" : "WWW.SINA.COM.CN",
"tags" : [],
"desc" : "读者赵女士：这几天天冷，我让宝宝睡电热毯，他用完之后脸发红，有点烦躁哭闹，是小孩子不适合用电热毯吗？ 北京朝阳医院副院长沈雁英：有的人使用电热毯后，第二天会出现唇及咽喉干燥，声音嘶哑，面色潮红等症状，婴幼儿还会出现发热，烦躁不安，哭闹等现象，在医学上....",
"emailed" : False,
"forwarded" : False,
"english" : False
}  , {
"index" : 12,
"articleIndex" : "1104",
"favor" :  False ,
     "read" : False,    
"title" : "月龄不一样，早教大不同",
"titleTip" : "月龄不一样，早教大不同",
"titleSummary" : "月龄不一样，早教大不同",
"descSummary" : "近两年的生育高峰，催生出了一大批新的宝宝，这些宝宝多数处在一岁前的年龄...",
"url" : "http:\/\/go.rss.sina.com.cn\/redirect.php?url=http:\/\/baby.sina.com.cn\/edu\/13\/2910\/2013-10-29\/0959259852.shtml",
"pubDate" : "昨天09:59:22",
"enterDate" : "384201:04:55",
"channelId" : "-1345882197566046935",
"channelName" : "婴儿期-新浪育儿",
"channelNameSummary" : "婴儿期-新浪育儿",
"channelUrl" : "http:\/\/baby.sina.com.cn\/news\/list.html",
"author" : "WWW.SINA.COM.CN",
"tags" : [],
"desc" : "近两年的生育高峰，催生出了一大批新的宝宝，这些宝宝多数处在一岁前的年龄段，一岁前婴儿的早期教育成为了不少家长关心的问题。 家长要与孩子建立起\u201C情感纽带\u201D 育婴师国家职业资格教材编委、北京爱心家园育婴技术服务中心副主任郭建国认为，一岁前婴儿虽然年....",
"emailed" : False,
"forwarded" : False,
"english" : False
}  , {
"index" : 13,
"articleIndex" : "1103",
"favor" :  False ,
     "read" : False,    
"title" : "经常锻炼手指有助开发智力",
"titleTip" : "经常锻炼手指有助开发智力",
"titleSummary" : "经常锻炼手指有助开发智力",
"descSummary" : "俗话说\u201C心灵手巧\u201D。这话很有道理。现代医学研究证实，孩子智力开发与手...",
"url" : "http:\/\/go.rss.sina.com.cn\/redirect.php?url=http:\/\/baby.sina.com.cn\/edu\/13\/2910\/2013-10-29\/0954259850.shtml",
"pubDate" : "昨天09:54:57",
"enterDate" : "384201:00:30",
"channelId" : "-1345882197566046935",
"channelName" : "婴儿期-新浪育儿",
"channelNameSummary" : "婴儿期-新浪育儿",
"channelUrl" : "http:\/\/baby.sina.com.cn\/news\/list.html",
"author" : "WWW.SINA.COM.CN",
"tags" : [],
"desc" : "俗话说\u201C心灵手巧\u201D。这话很有道理。现代医学研究证实，孩子智力开发与手指锻炼有一定的关系，心灵和手巧是相互关联的。 日本有位学者曾说过：\u201C如果想培养出智力开阔、头脑聪明的孩子，那就必须经常锻炼手指的活动能力，由于手指的活动而刺激脑髓中的手指运动中枢，就....",
"emailed" : False,
"forwarded" : False,
"english" : False
}  , {
"index" : 14,
"articleIndex" : "1101",
"favor" :  False ,
     "read" : False,    
"title" : "益生菌，孩子不能滥用",
"titleTip" : "益生菌，孩子不能滥用",
"titleSummary" : "益生菌，孩子不能滥用",
"descSummary" : "益生菌不能滥用 益生菌不是保健药物，更不是万能药。生长发育中身体健康的孩...",
"url" : "http:\/\/go.rss.sina.com.cn\/redirect.php?url=http:\/\/baby.sina.com.cn\/health\/13\/2910\/2013-10-29\/0859259825.shtml",
"pubDate" : "昨天08:59:57",
"enterDate" : "384201:05:40",
"channelId" : "-1345882197566046935",
"channelName" : "婴儿期-新浪育儿",
"channelNameSummary" : "婴儿期-新浪育儿",
"channelUrl" : "http:\/\/baby.sina.com.cn\/news\/list.html",
"author" : "WWW.SINA.COM.CN",
"tags" : [],
"desc" : "益生菌不能滥用 益生菌不是保健药物，更不是万能药。生长发育中身体健康的孩子，完全没有必要额外补充益生菌。 在我与家长的接触中，发现一些家长非常喜欢给孩子吃益生菌制剂，不管是孩子不爱吃饭、积食，还是腹泻、便秘、过敏性疾患，甚至体弱多病也要吃益生菌....",
"emailed" : False,
"forwarded" : False,
"english" : False
}  , {
"index" : 15,
"articleIndex" : "1100",
"favor" :  False ,
     "read" : False,    
"title" : "冬季，别让静电伤害宝宝",
"titleTip" : "冬季，别让静电伤害宝宝",
"titleSummary" : "冬季，别让静电伤害宝宝",
"descSummary" : "冬季，妈妈们总喜欢给宝宝们穿上厚厚的衣服，但是，这样也引发了新的威胁-...",
"url" : "http:\/\/go.rss.sina.com.cn\/redirect.php?url=http:\/\/baby.sina.com.cn\/health\/13\/2910\/2013-10-29\/0819259810.shtml",
"pubDate" : "昨天08:19:38",
"enterDate" : "384200:55:26",
"channelId" : "-1345882197566046935",
"channelName" : "婴儿期-新浪育儿",
"channelNameSummary" : "婴儿期-新浪育儿",
"channelUrl" : "http:\/\/baby.sina.com.cn\/news\/list.html",
"author" : "WWW.SINA.COM.CN",
"tags" : [],
"desc" : "冬季，妈妈们总喜欢给宝宝们穿上厚厚的衣服，但是，这样也引发了新的威胁\u2015\u2015静电！事实上，静电产生的原因就是摩擦，有时孩子甚至都会被电哭。 冬季，妈妈们总喜欢给宝宝们穿上厚厚的衣服，但是，这样也引发了新的威胁\u2015\u2015静电！事实上，静电产生的原因就是摩擦，尤其....",
"emailed" : False,
"forwarded" : False,
"english" : False
}  , {
"index" : 16,
"articleIndex" : "1099",
"favor" :  False ,
     "read" : False,    
"title" : "婴儿便秘怎么办？",
"titleTip" : "婴儿便秘怎么办？",
"titleSummary" : "婴儿便秘怎么办？",
"descSummary" : "问：我家宝宝48天，总是不大便，每次都是给她肛门里擦香油，她才能拉出来。老擦...",
"url" : "http:\/\/go.rss.sina.com.cn\/redirect.php?url=http:\/\/baby.sina.com.cn\/health\/13\/2910\/2013-10-29\/0812259807.shtml",
"pubDate" : "昨天08:12:45",
"enterDate" : "384200:48:33",
"channelId" : "-1345882197566046935",
"channelName" : "婴儿期-新浪育儿",
"channelNameSummary" : "婴儿期-新浪育儿",
"channelUrl" : "http:\/\/baby.sina.com.cn\/news\/list.html",
"author" : "WWW.SINA.COM.CN",
"tags" : [],
"desc" : "问：我家宝宝48天，总是不大便，每次都是给她肛门里擦香油，她才能拉出来。老擦香油也不是办法，有什么其他的方法可以缓解便秘？ 专家：中国医科大学附属第一医院新生儿教授吴红敏 答：幼儿便秘特别常见，但是和季节性并不是特别相关，在这里有四个建议： ....",
"emailed" : False,
"forwarded" : False,
"english" : False
}  , {
"index" : 17,
"articleIndex" : "1098",
"favor" :  False ,
     "read" : False,    
"title" : "药店买奶粉有望可在网上下单",
"titleTip" : "药店买奶粉有望可在网上下单",
"titleSummary" : "药店买奶粉有望可在网上下单",
"descSummary" : "\u201C药店卖奶粉首日 观者众买者少\u201D追踪 新京报讯 (记者廖爱玲)没有赠品、...",
"url" : "http:\/\/go.rss.sina.com.cn\/redirect.php?url=http:\/\/baby.sina.com.cn\/health\/13\/2910\/2013-10-29\/0759259804.shtml",
"pubDate" : "昨天07:59:34",
"enterDate" : "384201:05:27",
"channelId" : "-1345882197566046935",
"channelName" : "婴儿期-新浪育儿",
"channelNameSummary" : "婴儿期-新浪育儿",
"channelUrl" : "http:\/\/baby.sina.com.cn\/news\/list.html",
"author" : "WWW.SINA.COM.CN",
"tags" : [],
"desc" : "■ \u201C药店卖奶粉首日 观者众买者少\u201D追踪 新京报讯 (记者廖爱玲)没有赠品、退货不便捷，也做不到像药品一样24小时销售\u2026\u2026婴幼儿配方奶粉上周六进入药店ATM机\u201C自助\u201D售卖后消费者反应平淡(本报昨日报道)，记者了解到，除奶粉品质、价格与超市和网店相比没有差异和优势....",
"emailed" : False,
"forwarded" : False,
"english" : False
}  , {
"index" : 18,
"articleIndex" : "1097",
"favor" :  False ,
     "read" : False,    
"title" : "细心呵护让\u201C敏\u201D感宝宝不\u201C敏\u201D感",
"titleTip" : "细心呵护让\u201C敏\u201D感宝宝不\u201C敏\u201D感",
"titleSummary" : "细心呵护让\u201C敏\u201D感宝宝不\u201C敏\u201D感",
"descSummary" : "核心提示：家长平时在家应该要如何细心呵护\u201C敏\u201D感宝宝，尽可能...",
"url" : "http:\/\/go.rss.sina.com.cn\/redirect.php?url=http:\/\/baby.sina.com.cn\/health\/13\/2910\/2013-10-29\/0757259803.shtml",
"pubDate" : "昨天07:57:35",
"enterDate" : "384201:03:28",
"channelId" : "-1345882197566046935",
"channelName" : "婴儿期-新浪育儿",
"channelNameSummary" : "婴儿期-新浪育儿",
"channelUrl" : "http:\/\/baby.sina.com.cn\/news\/list.html",
"author" : "WWW.SINA.COM.CN",
"tags" : [],
"desc" : "核心提示：家长平时在家应该要如何细心呵护\u201C敏\u201D感宝宝，尽可能让他们的过敏体质\u201C无机可乘\u201D呢？ 李小姐天生过敏体质，她听说，父母是过敏体质的，宝宝遭遇到过敏体质的发生几率也会增大，因此在怀孕的时候，她就祈祷宝宝千万不能遗传到自己的过敏体质，谁知，好的不....",
"emailed" : False,
"forwarded" : False,
"english" : False
}  , {
"index" : 19,
"articleIndex" : "1102",
"favor" :  False ,
     "read" : False,    
"title" : "奶粉摆上药店柜台换地儿卖就安全了？",
"titleTip" : "奶粉摆上药店柜台换地儿卖就安全了？",
"titleSummary" : "奶粉摆上药店柜台换地儿卖就安全了？",
"descSummary" : "\u201C今后，婴幼儿乳粉将参照药品标准进行管理，实行专柜专区销售...",
"url" : "http:\/\/go.rss.sina.com.cn\/redirect.php?url=http:\/\/baby.sina.com.cn\/health\/13\/2910\/2013-10-29\/0726259790.shtml",
"pubDate" : "昨天07:26:51",
"enterDate" : "384199:02:29",
"channelId" : "-1345882197566046935",
"channelName" : "婴儿期-新浪育儿",
"channelNameSummary" : "婴儿期-新浪育儿",
"channelUrl" : "http:\/\/baby.sina.com.cn\/news\/list.html",
"author" : "WWW.SINA.COM.CN",
"tags" : [],
"desc" : "\u201C今后，婴幼儿乳粉将参照药品标准进行管理，实行专柜专区销售，并试行药店专柜销售。\u201D这是国家食药监总局、工信部、卫计委等九部委联合打出的奶粉管理\u201C组合拳\u201D。日前，省会不少药店争相摆出专柜卖奶粉，成为药店里的新鲜一景。消费者有称赞也有质疑：换个地方卖，奶粉就安....",
"emailed" : False,
"forwarded" : False,
"english" : False
} ]
}
