{
"mode" : {"viewTitle" : 1,   "viewNew" : 0,  "pageIndex" : 2 },
 "channel" : {"id" : "-1345882197566046935", "booked" : False, "subNumber" : 1, "name" : "婴儿期-新浪育儿", "url" : "http:\/\/baby.sina.com.cn\/news\/list.html", "feed" : "http:\/\/rss.sina.com.cn\/baby\/news\/yinger.xml", "author" : "WWW.SINA.COM.CN", "desc" : "婴儿期", "imageUrl" : "http:\/\/www.sinaimg.cn\/bb\/deco\/2012\/0917\/b_m_02.gif", "postPerWeek" : "0", "lastCrawTime" : "17:19:05", "crawDateTime" : "17:19:05", "lastHttpCode" : "200"}, "page" : {
"startIndex" : 20,
"totalCount" : 1117,
"pageIndex" : 2,
"lastPage" : 56,
"pageSize" : 20,
"english" :  False },
 "unreadNum" : 0, "shotIndex" : -1,
"articles" : [
{
"index" : 0,
"articleIndex" : "1096",
"favor" :  False ,
     "read" : False,    
"title" : "婴儿频繁夜醒的危害",
"titleTip" : "婴儿频繁夜醒的危害",
"titleSummary" : "婴儿频繁夜醒的危害",
"descSummary" : "中国疾病预防控制中心妇幼保健中心儿童保健部副研究员黄小娜博士称，在出生后4...",
"url" : "http:\/\/go.rss.sina.com.cn\/redirect.php?url=http:\/\/baby.sina.com.cn\/health\/13\/2910\/2013-10-29\/0751259800.shtml",
"pubDate" : "昨天07:51:58",
"enterDate" : "384200:57:51",
"channelId" : "-1345882197566046935",
"channelName" : "婴儿期-新浪育儿",
"channelNameSummary" : "婴儿期-新浪育儿",
"channelUrl" : "http:\/\/baby.sina.com.cn\/news\/list.html",
"author" : "WWW.SINA.COM.CN",
"tags" : [],
"desc" : "中国疾病预防控制中心妇幼保健中心儿童保健部副研究员黄小娜博士称，在出生后4～5个月，几乎所有的宝宝每天晚上平均都要醒来2～3次，这是宝宝睡眠发展进程的正常表现，父母对宝宝的睡眠应该有客观的期待。一旦宝宝夜醒，大部分需要30分钟以上的时间才能重新入睡，但家长注意宝....",
"emailed" : False,
"forwarded" : False,
"english" : False
}  , {
"index" : 1,
"articleIndex" : "1095",
"favor" :  False ,
     "read" : False,    
"title" : "秋季宝宝喝梨汁好处多",
"titleTip" : "秋季宝宝喝梨汁好处多",
"titleSummary" : "秋季宝宝喝梨汁好处多",
"descSummary" : "核心提示：秋季时节，宝宝最容易唇干口渴、皮肤干涩。专家认为，梨性微寒味甘...",
"url" : "http:\/\/go.rss.sina.com.cn\/redirect.php?url=http:\/\/baby.sina.com.cn\/nutrition\/13\/2910\/2013-10-29\/0750259799.shtml",
"pubDate" : "昨天07:50:40",
"enterDate" : "384200:56:33",
"channelId" : "-1345882197566046935",
"channelName" : "婴儿期-新浪育儿",
"channelNameSummary" : "婴儿期-新浪育儿",
"channelUrl" : "http:\/\/baby.sina.com.cn\/news\/list.html",
"author" : "WWW.SINA.COM.CN",
"tags" : [],
"desc" : "核心提示：秋季时节，宝宝最容易唇干口渴、皮肤干涩。专家认为，梨性微寒味甘，能生津止渴、润燥化痰、润肠通便等。所谓秋季宝宝喝梨汁好处多。 现在正是吃梨的季节，素有\u201C百果之宗\u201D的梨，其梨汁对秋冬干燥症更有其独特的疗效。不过梨的口感比较粗糙，牙齿不好的老年....",
"emailed" : False,
"forwarded" : False,
"english" : False
}  , {
"index" : 2,
"articleIndex" : "1094",
"favor" :  False ,
     "read" : False,    
"title" : "奶粉进药店，首周有点冷",
"titleTip" : "奶粉进药店，首周有点冷",
"titleSummary" : "奶粉进药店，首周有点冷",
"descSummary" : "日前，已经酝酿了两个多月的奶粉进药店政策终于进入了试运行阶段，据悉，此...",
"url" : "http:\/\/go.rss.sina.com.cn\/redirect.php?url=http:\/\/baby.sina.com.cn\/health\/13\/2910\/2013-10-29\/0728259791.shtml",
"pubDate" : "昨天07:28:41",
"enterDate" : "384201:04:39",
"channelId" : "-1345882197566046935",
"channelName" : "婴儿期-新浪育儿",
"channelNameSummary" : "婴儿期-新浪育儿",
"channelUrl" : "http:\/\/baby.sina.com.cn\/news\/list.html",
"author" : "WWW.SINA.COM.CN",
"tags" : [],
"desc" : "日前，已经酝酿了两个多月的奶粉进药店政策终于进入了试运行阶段，据悉，此次率先在北京五家药店同步上市的产品包括国内外11家品牌奶粉，紧张地等待消费者\u201C大考\u201D。只是在盈利模式尚不明朗、消费者依然处于观望的状态下，其能否顺利通过试用期还很难说。 试点运行开始....",
"emailed" : False,
"forwarded" : False,
"english" : False
}  , {
"index" : 3,
"articleIndex" : "1093",
"favor" :  False ,
     "read" : False,    
"title" : "热水袋被窝中爆炸，烫伤两个月大宝宝",
"titleTip" : "热水袋被窝中爆炸，烫伤两个月大宝宝",
"titleSummary" : "热水袋被窝中爆炸，烫伤两个月大宝宝",
"descSummary" : "宝宝尿床了，妈妈担心宝宝受凉，立即将充电的热水袋放进被窝，...",
"url" : "http:\/\/go.rss.sina.com.cn\/redirect.php?url=http:\/\/baby.sina.com.cn\/health\/13\/2910\/2013-10-29\/0720259789.shtml",
"pubDate" : "昨天07:20:15",
"enterDate" : "384200:56:13",
"channelId" : "-1345882197566046935",
"channelName" : "婴儿期-新浪育儿",
"channelNameSummary" : "婴儿期-新浪育儿",
"channelUrl" : "http:\/\/baby.sina.com.cn\/news\/list.html",
"author" : "WWW.SINA.COM.CN",
"tags" : [],
"desc" : "宝宝尿床了，妈妈担心宝宝受凉，立即将充电的热水袋放进被窝，不料热水袋突然爆炸，将两个月大宝宝的屁股烫伤。 儿童医院提醒家长朋友，每年秋冬季节，类似意外烫伤十分常见，冬季为宝宝取暖要科学。 被窝中热水袋爆炸 昨日，在儿童医院病房，两月大的琳....",
"emailed" : False,
"forwarded" : False,
"english" : False
}  , {
"index" : 4,
"articleIndex" : "1089",
"favor" :  False ,
     "read" : False,    
"title" : "应采儿自曝是严厉妈妈对儿子较凶",
"titleTip" : "应采儿自曝是严厉妈妈对儿子较凶",
"titleSummary" : "应采儿自曝是严厉妈妈对儿子较凶",
"descSummary" : "应采儿一袭黑色半透明礼服亮相上海 前日，应采儿、关之琳、蒋雯丽...",
"url" : "http:\/\/go.rss.sina.com.cn\/redirect.php?url=http:\/\/baby.sina.com.cn\/edu\/13\/2810\/2013-10-28\/0956259754.shtml",
"pubDate" : "前天09:56:47",
"enterDate" : "384201:06:24",
"channelId" : "-1345882197566046935",
"channelName" : "婴儿期-新浪育儿",
"channelNameSummary" : "婴儿期-新浪育儿",
"channelUrl" : "http:\/\/baby.sina.com.cn\/news\/list.html",
"author" : "WWW.SINA.COM.CN",
"tags" : [],
"desc" : "应采儿一袭黑色半透明礼服亮相上海 前日，应采儿、关之琳、蒋雯丽、何润东等明星出席在上海举行的一次时尚活动。刚当上\u201C星妈\u201D不久的应采儿身着一袭黑色半透明礼服盛装出席，韵味十足。在活动现场，应采儿大谈儿子Jasper，表示自己是一个严厉的妈妈，并赞老公陈小春是一个....",
"emailed" : False,
"forwarded" : False,
"english" : False
}  , {
"index" : 5,
"articleIndex" : "1088",
"favor" :  False ,
     "read" : False,    
"title" : "小宝宝睡眠的十二条\u201C禁忌\u201D",
"titleTip" : "小宝宝睡眠的十二条\u201C禁忌\u201D",
"titleSummary" : "小宝宝睡眠的十二条\u201C禁忌\u201D",
"descSummary" : "导读：照顾了宝宝一天，终于熬到他们进入梦乡了，爸爸妈妈本以为可以松...",
"url" : "http:\/\/go.rss.sina.com.cn\/redirect.php?url=http:\/\/baby.sina.com.cn\/health\/13\/2810\/2013-10-28\/0753259718.shtml",
"pubDate" : "前天07:53:07",
"enterDate" : "384199:02:44",
"channelId" : "-1345882197566046935",
"channelName" : "婴儿期-新浪育儿",
"channelNameSummary" : "婴儿期-新浪育儿",
"channelUrl" : "http:\/\/baby.sina.com.cn\/news\/list.html",
"author" : "WWW.SINA.COM.CN",
"tags" : [],
"desc" : "导读：照顾了宝宝一天，终于熬到他们进入梦乡了，爸爸妈妈本以为可以松一口气了，因为宝宝睡着的时候就是最轻松的时刻，可是，小编想要告诉爸爸妈妈：非也非也！为何？因为，就算是宝宝睡着了，还是有许多注意事项。 一、不该含着乳头或奶嘴睡 有的宝宝睡觉时非....",
"emailed" : False,
"forwarded" : False,
"english" : False
}  , {
"index" : 6,
"articleIndex" : "1086",
"favor" :  False ,
     "read" : False,    
"title" : "宝宝怎么吃比吃什么更重要",
"titleTip" : "宝宝怎么吃比吃什么更重要",
"titleSummary" : "宝宝怎么吃比吃什么更重要",
"descSummary" : "\u201C孩子应该吃点什么呢？\u201D\u201C吃什么才能让孩子体质更好？\u201D\u201C哪些食物该吃...",
"url" : "http:\/\/go.rss.sina.com.cn\/redirect.php?url=http:\/\/baby.sina.com.cn\/nutrition\/13\/2810\/2013-10-28\/0751259717.shtml",
"pubDate" : "前天07:51:51",
"enterDate" : "384201:01:48",
"channelId" : "-1345882197566046935",
"channelName" : "婴儿期-新浪育儿",
"channelNameSummary" : "婴儿期-新浪育儿",
"channelUrl" : "http:\/\/baby.sina.com.cn\/news\/list.html",
"author" : "WWW.SINA.COM.CN",
"tags" : [],
"desc" : "\u201C孩子应该吃点什么呢？\u201D\u201C吃什么才能让孩子体质更好？\u201D\u201C哪些食物该吃，哪些不该吃？\u201D 关于孩子的\u201C吃\u201D，长久以来，很多妈妈关心的重点都是\u201C该给孩子吃什么\u201D，其实，营养师告诉我们，\u201C怎么吃\u201D远远比\u201C吃什么\u201D要重要得多。让孩子科学地吃，比每天变着花样给他....",
"emailed" : False,
"forwarded" : False,
"english" : False
}  , {
"index" : 7,
"articleIndex" : "1087",
"favor" :  False ,
     "read" : False,    
"title" : "纠结：6种婴儿用品究竟要不要买",
"titleTip" : "纠结：6种婴儿用品究竟要不要买",
"titleSummary" : "纠结：6种婴儿用品究竟要不要买",
"descSummary" : "色色、琳琅满目的物品，爸妈也是眼花缭乱，不知道哪些该买，哪些不该...",
"url" : "http:\/\/go.rss.sina.com.cn\/redirect.php?url=http:\/\/baby.sina.com.cn\/health\/13\/2810\/2013-10-28\/0750259716.shtml",
"pubDate" : "前天07:50:02",
"enterDate" : "384198:59:39",
"channelId" : "-1345882197566046935",
"channelName" : "婴儿期-新浪育儿",
"channelNameSummary" : "婴儿期-新浪育儿",
"channelUrl" : "http:\/\/baby.sina.com.cn\/news\/list.html",
"author" : "WWW.SINA.COM.CN",
"tags" : [],
"desc" : "色色、琳琅满目的物品，爸妈也是眼花缭乱，不知道哪些该买，哪些不该买。有6种婴儿用品让妈妈们十分纠结，也最具争议，我们一起来看看吧。 据说女人和小孩的钱是最容易赚的，一点不假，看那越来越刁钻的婴童用品，若非亲眼所见，估计你怎么也想不到还会有这种怪东西，....",
"emailed" : False,
"forwarded" : False,
"english" : False
}  , {
"index" : 8,
"articleIndex" : "1085",
"favor" :  False ,
     "read" : False,    
"title" : "法国94%的婴儿消毒湿巾及纸尿裤含有害物质",
"titleTip" : "法国94%的婴儿消毒湿巾及纸尿裤含有害物质",
"titleSummary" : "法国94%的婴儿消毒湿巾及纸尿裤含有害物质",
"descSummary" : "中国网10月25日讯 据法国《费加罗报》10月24日报道，近日...",
"url" : "http:\/\/go.rss.sina.com.cn\/redirect.php?url=http:\/\/baby.sina.com.cn\/health\/13\/2810\/2013-10-28\/0732259707.shtml",
"pubDate" : "前天07:32:57",
"enterDate" : "384201:13:00",
"channelId" : "-1345882197566046935",
"channelName" : "婴儿期-新浪育儿",
"channelNameSummary" : "婴儿期-新浪育儿",
"channelUrl" : "http:\/\/baby.sina.com.cn\/news\/list.html",
"author" : "WWW.SINA.COM.CN",
"tags" : [],
"desc" : "中国网10月25日讯 据法国《费加罗报》10月24日报道，近日一项来自法国\u201C精打细算\u201D消费者协会(UFC-Que choisir)的研究报告称，94%的婴儿专用便后消毒湿巾对新生儿健康有损害副作用。 据悉，来自该消费者协会的相关报告于当地时间本周二向世人公布。公告中称，专家在经....",
"emailed" : False,
"forwarded" : False,
"english" : False
}  , {
"index" : 9,
"articleIndex" : "1084",
"favor" :  False ,
     "read" : False,    
"title" : "婴幼儿奶瓶安全有了\u201C企业联盟标准\u201D",
"titleTip" : "婴幼儿奶瓶安全有了\u201C企业联盟标准\u201D",
"titleSummary" : "婴幼儿奶瓶安全有了\u201C企业联盟标准\u201D",
"descSummary" : "我国婴幼儿奶瓶安全有了\u201C企业联盟标准\u201D 新华社消息 由中国玩...",
"url" : "http:\/\/go.rss.sina.com.cn\/redirect.php?url=http:\/\/baby.sina.com.cn\/health\/13\/2810\/2013-10-28\/0726259706.shtml",
"pubDate" : "前天07:26:16",
"enterDate" : "384201:06:19",
"channelId" : "-1345882197566046935",
"channelName" : "婴儿期-新浪育儿",
"channelNameSummary" : "婴儿期-新浪育儿",
"channelUrl" : "http:\/\/baby.sina.com.cn\/news\/list.html",
"author" : "WWW.SINA.COM.CN",
"tags" : [],
"desc" : "我国婴幼儿奶瓶安全有了\u201C企业联盟标准\u201D 新华社消息 由中国玩具和婴童用品协会联合海内外奶瓶骨干企业及专业检测机构编制起草的《婴幼儿奶瓶安全要求》企业联盟标准(简称\u201C联盟标准\u201D)，10月15日在此间举行的第十二届中国玩具展上发布，长期以来奶瓶产品安全标准缺失....",
"emailed" : False,
"forwarded" : False,
"english" : False
}  , {
"index" : 10,
"articleIndex" : "1091",
"favor" :  False ,
     "read" : False,    
"title" : "奶粉进药店别成\u201C噱头\u201D",
"titleTip" : "奶粉进药店别成\u201C噱头\u201D",
"titleSummary" : "奶粉进药店别成\u201C噱头\u201D",
"descSummary" : "刚刚过去的这个周末，北京众多年轻父母们关注的一条消息是：婴幼儿配方奶粉...",
"url" : "http:\/\/go.rss.sina.com.cn\/redirect.php?url=http:\/\/baby.sina.com.cn\/health\/13\/2810\/2013-10-28\/0721259704.shtml",
"pubDate" : "前天07:21:13",
"enterDate" : "384198:00:46",
"channelId" : "-1345882197566046935",
"channelName" : "婴儿期-新浪育儿",
"channelNameSummary" : "婴儿期-新浪育儿",
"channelUrl" : "http:\/\/baby.sina.com.cn\/news\/list.html",
"author" : "WWW.SINA.COM.CN",
"tags" : [],
"desc" : "刚刚过去的这个周末，北京众多年轻父母们关注的一条消息是：婴幼儿配方奶粉销售试点进药店。然而，北京一家著名奶企负责人接受记者采访时坦言：\u201C供给药店和超市奶粉的品质并无差异，确保奶粉的质量安全还应该从企业的生产环节入手把控，未来奶粉进药店的前景，应该是取决于奶....",
"emailed" : False,
"forwarded" : False,
"english" : False
}  , {
"index" : 11,
"articleIndex" : "1083",
"favor" :  False ,
     "read" : False,    
"title" : "奶粉进药店不能\u201C药到病除\u201D",
"titleTip" : "奶粉进药店不能\u201C药到病除\u201D",
"titleSummary" : "奶粉进药店不能\u201C药到病除\u201D",
"descSummary" : "造势已久的\u201C奶粉进药店\u201D终于迈出了实质性的第一步。10月26日，北京...",
"url" : "http:\/\/go.rss.sina.com.cn\/redirect.php?url=http:\/\/baby.sina.com.cn\/health\/13\/2810\/2013-10-28\/0719259703.shtml",
"pubDate" : "前天07:19:54",
"enterDate" : "384200:59:57",
"channelId" : "-1345882197566046935",
"channelName" : "婴儿期-新浪育儿",
"channelNameSummary" : "婴儿期-新浪育儿",
"channelUrl" : "http:\/\/baby.sina.com.cn\/news\/list.html",
"author" : "WWW.SINA.COM.CN",
"tags" : [],
"desc" : "造势已久的\u201C奶粉进药店\u201D终于迈出了实质性的第一步。10月26日，北京5家药店试点婴幼儿配方奶粉进药店ATM机\u201C自助\u201D售卖。据悉，年底200家药店有望销售乳粉，明年6月全国范围进行试点。 \u201C奶粉进药店\u201D形式上让人耳目一新，法国等欧洲国家婴幼儿奶粉均在药店销售，超市....",
"emailed" : False,
"forwarded" : False,
"english" : False
}  , {
"index" : 12,
"articleIndex" : "1082",
"favor" :  False ,
     "read" : False,    
"title" : "药店售奶粉，何以赢得青睐",
"titleTip" : "药店售奶粉，何以赢得青睐",
"titleSummary" : "药店售奶粉，何以赢得青睐",
"descSummary" : "在商务部中国国际贸易学会国际品牌管理中心的主导下，10月26日，北京5家...",
"url" : "http:\/\/go.rss.sina.com.cn\/redirect.php?url=http:\/\/baby.sina.com.cn\/health\/13\/2810\/2013-10-28\/0717259702.shtml",
"pubDate" : "前天07:17:53",
"enterDate" : "384200:57:56",
"channelId" : "-1345882197566046935",
"channelName" : "婴儿期-新浪育儿",
"channelNameSummary" : "婴儿期-新浪育儿",
"channelUrl" : "http:\/\/baby.sina.com.cn\/news\/list.html",
"author" : "WWW.SINA.COM.CN",
"tags" : [],
"desc" : "在商务部中国国际贸易学会国际品牌管理中心的主导下，10月26日，北京5家药店正式开售奶粉。记者采访发现，这种新型的销售模式吸引了部分消费者的好奇，但真正购买者并不多；此外，号称少了中间环节直接从厂家供应到药店的奶粉，其中不少价格反而高于母婴电商渠道，有的甚至高....",
"emailed" : False,
"forwarded" : False,
"english" : False
}  , {
"index" : 13,
"articleIndex" : "1081",
"favor" :  False ,
     "read" : False,    
"title" : "宝宝腹泻不强迫进食也无需禁食",
"titleTip" : "宝宝腹泻不强迫进食也无需禁食",
"titleSummary" : "宝宝腹泻不强迫进食也无需禁食",
"descSummary" : "不少孩子这段时间出现了腹泻。专家提醒，腹泻虽不是什么大病，但长期...",
"url" : "http:\/\/go.rss.sina.com.cn\/redirect.php?url=http:\/\/baby.sina.com.cn\/health\/13\/2810\/2013-10-28\/0714259701.shtml",
"pubDate" : "前天07:14:49",
"enterDate" : "384200:54:52",
"channelId" : "-1345882197566046935",
"channelName" : "婴儿期-新浪育儿",
"channelNameSummary" : "婴儿期-新浪育儿",
"channelUrl" : "http:\/\/baby.sina.com.cn\/news\/list.html",
"author" : "WWW.SINA.COM.CN",
"tags" : [],
"desc" : "不少孩子这段时间出现了腹泻。专家提醒，腹泻虽不是什么大病，但长期腹泻会影响健康，因此这个季节尤其要注意孩子的饮食卫生。 成人隐性带菌易传染孩子 孩子在这个季节拉肚子，很多家长第一时间想到的就是轮状病毒。北京中医药大学附属中西医结合医院儿科原主任....",
"emailed" : False,
"forwarded" : False,
"english" : False
}  , {
"index" : 14,
"articleIndex" : "1080",
"favor" :  False ,
     "read" : False,    
"title" : "宝宝秋燥滋润辅食：紫薯粥",
"titleTip" : "宝宝秋燥滋润辅食：紫薯粥",
"titleSummary" : "宝宝秋燥滋润辅食：紫薯粥",
"descSummary" : "紫薯粥 紫薯粥 食谱原料：紫薯、大米 制作方法： 1.米洗干净后用水浸泡半...",
"url" : "http:\/\/go.rss.sina.com.cn\/redirect.php?url=http:\/\/baby.sina.com.cn\/nutrition\/13\/2810\/2013-10-28\/0708259699.shtml",
"pubDate" : "前天07:08:38",
"enterDate" : "384200:48:41",
"channelId" : "-1345882197566046935",
"channelName" : "婴儿期-新浪育儿",
"channelNameSummary" : "婴儿期-新浪育儿",
"channelUrl" : "http:\/\/baby.sina.com.cn\/news\/list.html",
"author" : "WWW.SINA.COM.CN",
"tags" : [],
"desc" : "紫薯粥 紫薯粥 食谱原料：紫薯、大米 制作方法： 1.米洗干净后用水浸泡半个小时以上； 2.紫薯洗净去皮，切成小块。本来想切点形状让柯更喜欢的，可是紫薯太容易烂了。我是关火后才把有形状的紫薯放进锅的，后来盛出来大部分还是化了，压根找不....",
"emailed" : False,
"forwarded" : False,
"english" : False
}  , {
"index" : 15,
"articleIndex" : "1090",
"favor" :  False ,
     "read" : False,    
"title" : "妈妈的6种kiss不能要",
"titleTip" : "妈妈的6种kiss不能要",
"titleSummary" : "妈妈的6种kiss不能要",
"descSummary" : "妈妈的吻是传达母爱最直接的方式，然而这种亲昵带来的未必全都是甜蜜和温馨，也...",
"url" : "http:\/\/go.rss.sina.com.cn\/redirect.php?url=http:\/\/baby.sina.com.cn\/health\/13\/2810\/2013-10-28\/0706259698.shtml",
"pubDate" : "前天07:06:28",
"enterDate" : "384197:46:01",
"channelId" : "-1345882197566046935",
"channelName" : "婴儿期-新浪育儿",
"channelNameSummary" : "婴儿期-新浪育儿",
"channelUrl" : "http:\/\/baby.sina.com.cn\/news\/list.html",
"author" : "WWW.SINA.COM.CN",
"tags" : [],
"desc" : "妈妈的吻是传达母爱最直接的方式，然而这种亲昵带来的未必全都是甜蜜和温馨，也可能酿成致命悲剧。疾控专家提醒，新生儿免疫力和抗病力低下，如果母亲携带病菌，很可能通过口唇的亲密接触，把病菌传染给宝宝。尤其是在下列6种情况下，不宜亲吻宝宝。 NO.1 出现....",
"emailed" : False,
"forwarded" : False,
"english" : False
}  , {
"index" : 16,
"articleIndex" : "1079",
"favor" :  False ,
     "read" : False,    
"title" : "安抚哭泣婴儿试试10个小妙招",
"titleTip" : "安抚哭泣婴儿试试10个小妙招",
"titleSummary" : "安抚哭泣婴儿试试10个小妙招",
"descSummary" : "导读：面对哭起来没完没了的小宝宝，新手妈妈们常常手足无措，不妨试一...",
"url" : "http:\/\/go.rss.sina.com.cn\/redirect.php?url=http:\/\/baby.sina.com.cn\/health\/13\/2710\/2013-10-27\/0924259687.shtml",
"pubDate" : "2013年10月27日 (3天前)",
"enterDate" : "384200:38:28",
"channelId" : "-1345882197566046935",
"channelName" : "婴儿期-新浪育儿",
"channelNameSummary" : "婴儿期-新浪育儿",
"channelUrl" : "http:\/\/baby.sina.com.cn\/news\/list.html",
"author" : "WWW.SINA.COM.CN",
"tags" : [],
"desc" : "导读：面对哭起来没完没了的小宝宝，新手妈妈们常常手足无措，不妨试一试下面这些方法，或许会有帮助哦。 1、襁褓法 以妈妈的感觉来说，襁褓是紧紧的包裹，意味着束缚。但对于正在哭泣的小宝宝来说，襁褓就像妈妈狭窄的子宫，令他感到熟悉和舒适。妈妈可能会担....",
"emailed" : False,
"forwarded" : False,
"english" : False
}  , {
"index" : 17,
"articleIndex" : "1092",
"favor" :  False ,
     "read" : False,    
"title" : "护理宝宝发烧\u201C3宜\u201D\u201C3忌\u201D",
"titleTip" : "护理宝宝发烧\u201C3宜\u201D\u201C3忌\u201D",
"titleSummary" : "护理宝宝发烧\u201C3宜\u201D\u201C3忌\u201D",
"descSummary" : "发烧，宝宝体内第一道\u201C防护墙\u201D 不论多镇静的妈妈，只要遇到宝宝发烧...",
"url" : "http:\/\/go.rss.sina.com.cn\/redirect.php?url=http:\/\/baby.sina.com.cn\/health\/13\/2610\/2013-10-26\/1118259681.shtml",
"pubDate" : "2013年10月26日 (4天前)",
"enterDate" : "384142:26:05",
"channelId" : "-1345882197566046935",
"channelName" : "婴儿期-新浪育儿",
"channelNameSummary" : "婴儿期-新浪育儿",
"channelUrl" : "http:\/\/baby.sina.com.cn\/news\/list.html",
"author" : "WWW.SINA.COM.CN",
"tags" : [],
"desc" : "发烧，宝宝体内第一道\u201C防护墙\u201D 不论多镇静的妈妈，只要遇到宝宝发烧，铁定心急如焚，最怕高烧不退，或者持续多日。其实\u201C发烧\u201D是\u201C症\u201D不是\u201C病\u201D，只要通过了解原因，小心面对、正确处理，并建立属于自己的就医步骤，就可以了！&#160; 宝宝发烧原因排行榜 ....",
"emailed" : False,
"forwarded" : False,
"english" : False
}  , {
"index" : 18,
"articleIndex" : "1078",
"favor" :  False ,
     "read" : False,    
"title" : "孩子10岁前家长教会10件事",
"titleTip" : "孩子10岁前家长教会10件事",
"titleSummary" : "孩子10岁前家长教会10件事",
"descSummary" : "新华网讯：据RecordJapan的消息，教育孩子是任重而道远的事情，每个年龄...",
"url" : "http:\/\/go.rss.sina.com.cn\/redirect.php?url=http:\/\/baby.sina.com.cn\/edu\/13\/2510\/2013-10-25\/1048259661.shtml",
"pubDate" : "2013年10月25日 (5天前)",
"enterDate" : "384201:10:11",
"channelId" : "-1345882197566046935",
"channelName" : "婴儿期-新浪育儿",
"channelNameSummary" : "婴儿期-新浪育儿",
"channelUrl" : "http:\/\/baby.sina.com.cn\/news\/list.html",
"author" : "WWW.SINA.COM.CN",
"tags" : [],
"desc" : "新华网讯：据RecordJapan的消息，教育孩子是任重而道远的事情，每个年龄阶段有必须要教会的事情。那么，孩子10岁之前一定要教会的事情有哪些呢？ 1.\u201C让你所爱家人幸福不是你的责任\u201D 幸福是要靠自己的力量去争取的，不是人给予的。不需要为了让父母、兄弟姐妹....",
"emailed" : False,
"forwarded" : False,
"english" : False
}  , {
"index" : 19,
"articleIndex" : "1077",
"favor" :  False ,
     "read" : False,    
"title" : "从育儿书上看不到的育儿经",
"titleTip" : "从育儿书上看不到的育儿经",
"titleSummary" : "从育儿书上看不到的育儿经",
"descSummary" : "很多新妈妈都是照着育儿书上写的内容养育宝宝的，但宝宝可不完全照着书本...",
"url" : "http:\/\/go.rss.sina.com.cn\/redirect.php?url=http:\/\/baby.sina.com.cn\/health\/13\/2510\/2013-10-25\/1003259657.shtml",
"pubDate" : "2013年10月25日 (5天前)",
"enterDate" : "384200:55:03",
"channelId" : "-1345882197566046935",
"channelName" : "婴儿期-新浪育儿",
"channelNameSummary" : "婴儿期-新浪育儿",
"channelUrl" : "http:\/\/baby.sina.com.cn\/news\/list.html",
"author" : "WWW.SINA.COM.CN",
"tags" : [],
"desc" : "很多新妈妈都是照着育儿书上写的内容养育宝宝的，但宝宝可不完全照着书本上写的那样成长，遇到书里没讲过的状况，你能应付吗？ 每个要做妈妈的女人，都会从书本上预先获得大量的育儿知识，来作为自己养育宝宝的指南。 但宝宝的成长却不是照本宣科，书上的内容很....",
"emailed" : False,
"forwarded" : False,
"english" : False
} ]
}
