{
"mode" : {"viewTitle" : 1,   "viewNew" : 0,  "pageIndex" : 1 },
 "channel" : {"id" : "-3255423793322553992", "booked" : False, "subNumber" : 1, "name" : "娱乐要闻汇总-新浪娱乐", "url" : "http:\/\/news.sina.com.cn\/news1000\/index.shtml?requestOrder=5", "feed" : "http:\/\/rss.sina.com.cn\/ent\/hot_roll.xml", "author" : "WWW.SINA.COM.CN", "desc" : "娱乐要闻汇总", "imageUrl" : "http:\/\/i1.sinaimg.cn\/home\/deco\/2009\/0330\/logo_home.gif", "postPerWeek" : "0", "lastCrawTime" : "2013年10月20日 (1周前)", "crawDateTime" : "2013年10月20日 (1周前)", "lastHttpCode" : "200"}, "page" : {
"startIndex" : 0,
"totalCount" : 5000,
"pageIndex" : 1,
"lastPage" : 250,
"pageSize" : 20,
"english" :  False },
 "unreadNum" : 0, "shotIndex" : -1,
"articles" : [
{
"index" : 0,
"articleIndex" : "253614",
"favor" :  False ,
     "read" : False,    
"title" : "鸡排妹学恐怖片活人装箱 上爆E奶下露白底",
"titleTip" : "鸡排妹学恐怖片活人装箱 上爆E奶下露白底",
"titleSummary" : "鸡排妹学恐怖片活人装箱 上爆E奶下露白底",
"descSummary" : "新浪娱乐讯 据台湾媒体报道，E奶\u201C鸡排妹\u201D郑家纯昨现身...",
"url" : "http:\/\/go.rss.sina.com.cn\/redirect.php?url=http:\/\/ent.sina.com.cn\/s\/h\/2013-10-20\/04274027157.shtml",
"pubDate" : "2013年10月20日 (1周前)",
"enterDate" : "384201:10:29",
"channelId" : "-3255423793322553992",
"channelName" : "娱乐要闻汇总-新浪娱乐",
"channelNameSummary" : "娱乐要闻汇总-新浪娱...",
"channelUrl" : "http:\/\/news.sina.com.cn\/news1000\/index.shtml?requestOrder=5",
"author" : "WWW.SINA.COM.CN",
"tags" : [],
"desc" : "新浪娱乐讯 据台湾媒体报道，E奶\u201C鸡排妹\u201D郑家纯昨现身台北西门町，为下个月将上映的泰国恐怖片《我死在去年夏天》造势，她重现片中惊悚的\u201C活人装箱\u201D桥段，被塞入行李箱，却因身材丰满、服装性感，导致上半身爆奶、下半身露底，\u201C上下失守\u201D成最大焦点。 全身塞进行....",
"emailed" : False,
"forwarded" : False,
"english" : False
}  , {
"index" : 1,
"articleIndex" : "253613",
"favor" :  False ,
     "read" : False,    
"title" : "李敖提点小S：不能道歉 财产过户就划得来",
"titleTip" : "李敖提点小S：不能道歉 财产过户就划得来",
"titleSummary" : "李敖提点小S：不能道歉 财产过户就划得来",
"descSummary" : "新浪娱乐讯 据台湾媒体报道，李敖2011年因小S[微博]说他\u201C...",
"url" : "http:\/\/go.rss.sina.com.cn\/redirect.php?url=http:\/\/ent.sina.com.cn\/s\/h\/2013-10-20\/04214027156.shtml",
"pubDate" : "2013年10月20日 (1周前)",
"enterDate" : "384201:04:30",
"channelId" : "-3255423793322553992",
"channelName" : "娱乐要闻汇总-新浪娱乐",
"channelNameSummary" : "娱乐要闻汇总-新浪娱...",
"channelUrl" : "http:\/\/news.sina.com.cn\/news1000\/index.shtml?requestOrder=5",
"author" : "WWW.SINA.COM.CN",
"tags" : [],
"desc" : "新浪娱乐讯 据台湾媒体报道，李敖2011年因小S[微博]说他\u201C暗恋大S[微博]婆婆张兰\u201D，愤而提告小S，昨下午李敖被目击在民权东路餐厅用餐，忍不住提醒近来身陷胖达人风波的小S：\u201C住帝宝不算，要把帝宝过户给小S才算，而且小S不能道歉，道歉法律解释就是认罪。\u201D为小S指点明灯。....",
"emailed" : False,
"forwarded" : False,
"english" : False
}  , {
"index" : 2,
"articleIndex" : "253612",
"favor" :  False ,
     "read" : False,    
"title" : "宋丹丹铁定不上春晚 倪萍或成赵本山候选",
"titleTip" : "宋丹丹铁定不上春晚 倪萍或成赵本山候选",
"titleSummary" : "宋丹丹铁定不上春晚 倪萍或成赵本山候选",
"descSummary" : "宋丹丹斩钉截铁否认上春晚 昨日，有媒体报道：19日，宋丹丹...",
"url" : "http:\/\/go.rss.sina.com.cn\/redirect.php?url=http:\/\/ent.sina.com.cn\/v\/m\/2013-10-20\/03504027131.shtml",
"pubDate" : "2013年10月20日 (1周前)",
"enterDate" : "384201:03:36",
"channelId" : "-3255423793322553992",
"channelName" : "娱乐要闻汇总-新浪娱乐",
"channelNameSummary" : "娱乐要闻汇总-新浪娱...",
"channelUrl" : "http:\/\/news.sina.com.cn\/news1000\/index.shtml?requestOrder=5",
"author" : "WWW.SINA.COM.CN",
"tags" : [],
"desc" : "宋丹丹斩钉截铁否认上春晚 昨日，有媒体报道：19日，宋丹丹[微博]在出席演员王雷[微博]婚礼时，首次给出了正面回应，她斩钉截铁否认上春晚：\u201C我不会上春晚，早就说了不会上\u201D。昨晚，华西都市报记者从北京有关方面了解到：赵本山[微博]的\u201C梦中情人\u201D倪萍[微博]，或将成为....",
"emailed" : False,
"forwarded" : False,
"english" : False
}  , {
"index" : 3,
"articleIndex" : "253611",
"favor" :  False ,
     "read" : False,    
"title" : "小S陷丑闻后首现身 称在家靠喷汗缓解心情",
"titleTip" : "小S陷丑闻后首现身 称在家靠喷汗缓解心情",
"titleSummary" : "小S陷丑闻后首现身 称在家靠喷汗缓解心情",
"descSummary" : "新快报讯驻京记者梁晓雯报道 台湾综艺主持天后小S[微博]卷...",
"url" : "http:\/\/go.rss.sina.com.cn\/redirect.php?url=http:\/\/ent.sina.com.cn\/s\/h\/2013-10-20\/03124027126.shtml",
"pubDate" : "2013年10月20日 (1周前)",
"enterDate" : "384200:56:17",
"channelId" : "-3255423793322553992",
"channelName" : "娱乐要闻汇总-新浪娱乐",
"channelNameSummary" : "娱乐要闻汇总-新浪娱...",
"channelUrl" : "http:\/\/news.sina.com.cn\/news1000\/index.shtml?requestOrder=5",
"author" : "WWW.SINA.COM.CN",
"tags" : [],
"desc" : "新快报讯驻京记者梁晓雯报道 台湾综艺主持天后小S[微博]卷入老公内线交易风波，被指《康熙来了》收视下滑更失掉500万元新台币代言，家暴传闻也此起彼伏。一直闭关不露面的小S昨日终于亮相北京为其代言的品牌站台宣传，现场她全程面色僵硬更被冻到两手发抖，更自我调侃称\u201C你们....",
"emailed" : False,
"forwarded" : False,
"english" : False
}  , {
"index" : 4,
"articleIndex" : "253610",
"favor" :  False ,
     "read" : False,    
"title" : "组图：艾薇儿与老公同台秀恩爱模样娇羞",
"titleTip" : "组图：艾薇儿与老公同台秀恩爱模样娇羞",
"titleSummary" : "组图：艾薇儿与老公同台秀恩爱模样娇羞",
"descSummary" : "",
"url" : "http:\/\/go.rss.sina.com.cn\/redirect.php?url=http:\/\/slide.ent.sina.com.cn\/y\/slide_4_704_67712.html",
"pubDate" : "2013年10月20日 (1周前)",
"enterDate" : "384200:48:11",
"channelId" : "-3255423793322553992",
"channelName" : "娱乐要闻汇总-新浪娱乐",
"channelNameSummary" : "娱乐要闻汇总-新浪娱...",
"channelUrl" : "http:\/\/news.sina.com.cn\/news1000\/index.shtml?requestOrder=5",
"author" : "WWW.SINA.COM.CN",
"tags" : [],
"desc" : "",
"emailed" : False,
"forwarded" : False,
"english" : False
}  , {
"index" : 5,
"articleIndex" : "253609",
"favor" :  False ,
     "read" : False,    
"title" : "肥胖女笑星登时尚杂志封面 造型引争议",
"titleTip" : "肥胖女笑星登时尚杂志封面 造型引争议",
"titleSummary" : "肥胖女笑星登时尚杂志封面 造型引争议",
"descSummary" : "国际在线专稿：据《娱乐周刊》近日报道，因在电影《伴娘》中突...",
"url" : "http:\/\/go.rss.sina.com.cn\/redirect.php?url=http:\/\/ent.sina.com.cn\/s\/u\/2013-10-20\/01414027111.shtml",
"pubDate" : "2013年10月20日 (1周前)",
"enterDate" : "384200:55:42",
"channelId" : "-3255423793322553992",
"channelName" : "娱乐要闻汇总-新浪娱乐",
"channelNameSummary" : "娱乐要闻汇总-新浪娱...",
"channelUrl" : "http:\/\/news.sina.com.cn\/news1000\/index.shtml?requestOrder=5",
"author" : "WWW.SINA.COM.CN",
"tags" : [],
"desc" : "国际在线专稿：据《娱乐周刊》近日报道，因在电影《伴娘》中突出的喜剧表演令人印象深刻的女星梅丽莎・麦卡西近日登上了时尚杂志《ELLE》的封面。她的肥胖身形被藏在巨大的风衣下，有人调侃说，这风衣完全可以再装个人进去。此外她的发型也很特别，遮盖了3\/4的脸。有人评价说....",
"emailed" : False,
"forwarded" : False,
"english" : False
}  , {
"index" : 6,
"articleIndex" : "253608",
"favor" :  False ,
     "read" : False,    
"title" : "Gaga将客串《芝麻街》感恩节特辑",
"titleTip" : "Gaga将客串《芝麻街》感恩节特辑",
"titleSummary" : "Gaga将客串《芝麻街》感恩节特辑",
"descSummary" : "国际在线专稿：据《娱乐周刊》近日报道，Lady Gaga将在11月28日A...",
"url" : "http:\/\/go.rss.sina.com.cn\/redirect.php?url=http:\/\/ent.sina.com.cn\/y\/2013-10-20\/01394027110.shtml",
"pubDate" : "2013年10月20日 (1周前)",
"enterDate" : "384200:53:07",
"channelId" : "-3255423793322553992",
"channelName" : "娱乐要闻汇总-新浪娱乐",
"channelNameSummary" : "娱乐要闻汇总-新浪娱...",
"channelUrl" : "http:\/\/news.sina.com.cn\/news1000\/index.shtml?requestOrder=5",
"author" : "WWW.SINA.COM.CN",
"tags" : [],
"desc" : "国际在线专稿：据《娱乐周刊》近日报道，Lady Gaga将在11月28日ABC频道的《芝麻街》少儿节目特辑中担任客串嘉宾，和一群布偶、可爱的青蛙可米一起庆祝感恩节。Lady Gaga一定特别喜欢感恩节，因为2011年她就曾在这一节目中担任感恩节的特别嘉宾。Lady Gaga也一定特别喜欢青蛙可....",
"emailed" : False,
"forwarded" : False,
"english" : False
}  , {
"index" : 7,
"articleIndex" : "253607",
"favor" :  False ,
     "read" : False,    
"title" : "组图：沙桐刘园园携女儿补办穆斯林婚礼",
"titleTip" : "组图：沙桐刘园园携女儿补办穆斯林婚礼",
"titleSummary" : "组图：沙桐刘园园携女儿补办穆斯林婚礼",
"descSummary" : "",
"url" : "http:\/\/go.rss.sina.com.cn\/redirect.php?url=http:\/\/slide.ent.sina.com.cn\/star\/slide_4_704_67711.html",
"pubDate" : "2013年10月20日 (1周前)",
"enterDate" : "384201:01:17",
"channelId" : "-3255423793322553992",
"channelName" : "娱乐要闻汇总-新浪娱乐",
"channelNameSummary" : "娱乐要闻汇总-新浪娱...",
"channelUrl" : "http:\/\/news.sina.com.cn\/news1000\/index.shtml?requestOrder=5",
"author" : "WWW.SINA.COM.CN",
"tags" : [],
"desc" : "",
"emailed" : False,
"forwarded" : False,
"english" : False
}  , {
"index" : 8,
"articleIndex" : "253606",
"favor" :  False ,
     "read" : False,    
"title" : "导演宁瀛泪洒《警察日记》见面会(图)",
"titleTip" : "导演宁瀛泪洒《警察日记》见面会(图)",
"titleSummary" : "导演宁瀛泪洒《警察日记》见面会(图)",
"descSummary" : "新浪娱乐讯 10月19日，入围第26届东京国际电影节竞赛单元的华语...",
"url" : "http:\/\/go.rss.sina.com.cn\/redirect.php?url=http:\/\/ent.sina.com.cn\/m\/c\/2013-10-20\/01044027108.shtml",
"pubDate" : "2013年10月20日 (1周前)",
"enterDate" : "384200:48:22",
"channelId" : "-3255423793322553992",
"channelName" : "娱乐要闻汇总-新浪娱乐",
"channelNameSummary" : "娱乐要闻汇总-新浪娱...",
"channelUrl" : "http:\/\/news.sina.com.cn\/news1000\/index.shtml?requestOrder=5",
"author" : "WWW.SINA.COM.CN",
"tags" : [],
"desc" : "新浪娱乐讯 10月19日，入围第26届东京国际电影节竞赛单元的华语片《警察日记》举行了全球首映和观众见面会。导演宁瀛与男主角王景春、女主角陈维涵出席了活动。谈及与东京电影节20年前的缘分，宁瀛导演激动落泪。而男主角王景春则表示，与其出演一位英模，更愿意表现这个形象....",
"emailed" : False,
"forwarded" : False,
"english" : False
}  , {
"index" : 9,
"articleIndex" : "253605",
"favor" :  False ,
     "read" : False,    
"title" : "王若琳登台CMJ音乐节 葛仲珊开唱父母捧场",
"titleTip" : "王若琳登台CMJ音乐节 葛仲珊开唱父母捧场",
"titleSummary" : "王若琳登台CMJ音乐节 葛仲珊开唱父母捧场",
"descSummary" : "新浪娱乐讯 纽约CMJ音乐节\u201C台湾之夜\u201D正式开唱！王若琳...",
"url" : "http:\/\/go.rss.sina.com.cn\/redirect.php?url=http:\/\/ent.sina.com.cn\/y\/2013-10-20\/00314027106.shtml",
"pubDate" : "2013年10月20日 (1周前)",
"enterDate" : "384200:45:08",
"channelId" : "-3255423793322553992",
"channelName" : "娱乐要闻汇总-新浪娱乐",
"channelNameSummary" : "娱乐要闻汇总-新浪娱...",
"channelUrl" : "http:\/\/news.sina.com.cn\/news1000\/index.shtml?requestOrder=5",
"author" : "WWW.SINA.COM.CN",
"tags" : [],
"desc" : "新浪娱乐讯 纽约CMJ音乐节\u201C台湾之夜\u201D正式开唱！王若琳[微博]、葛仲珊、DJ Noodles美东时间十八日正式攻占曼哈顿知名夜店Webster Hall，吸引数百中外乐迷大排长龙等候；葛仲珊以嘻哈向现场爸妈致意、王若琳坚持自我全新音乐风呈现、DJ Noodles混音台湾当红流行乐，都让闻名而....",
"emailed" : False,
"forwarded" : False,
"english" : False
}  , {
"index" : 10,
"articleIndex" : "253604",
"favor" :  False ,
     "read" : False,    
"title" : "小S涉案后首公开亮相 激吻女员工表情夸张",
"titleTip" : "小S涉案后首公开亮相 激吻女员工表情夸张",
"titleSummary" : "小S涉案后首公开亮相 激吻女员工表情夸张",
"descSummary" : "",
"url" : "http:\/\/go.rss.sina.com.cn\/redirect.php?url=http:\/\/slide.ent.sina.com.cn\/star\/slide_4_704_67710.html",
"pubDate" : "2013年10月20日 (1周前)",
"enterDate" : "384200:49:59",
"channelId" : "-3255423793322553992",
"channelName" : "娱乐要闻汇总-新浪娱乐",
"channelNameSummary" : "娱乐要闻汇总-新浪娱...",
"channelUrl" : "http:\/\/news.sina.com.cn\/news1000\/index.shtml?requestOrder=5",
"author" : "WWW.SINA.COM.CN",
"tags" : [],
"desc" : "",
"emailed" : False,
"forwarded" : False,
"english" : False
}  , {
"index" : 11,
"articleIndex" : "253603",
"favor" :  False ,
     "read" : False,    
"title" : "成龙称与李安洽淡剧本：开展有意思的合作",
"titleTip" : "成龙称与李安洽淡剧本：开展有意思的合作",
"titleSummary" : "成龙称与李安洽淡剧本：开展有意思的合作",
"descSummary" : "据美国《侨报》10月16日报道，由国际巨星成龙[微博]担任导...",
"url" : "http:\/\/go.rss.sina.com.cn\/redirect.php?url=http:\/\/ent.sina.com.cn\/m\/c\/2013-10-19\/23474027100.shtml",
"pubDate" : "2013年10月19日 (1周前)",
"enterDate" : "384201:01:58",
"channelId" : "-3255423793322553992",
"channelName" : "娱乐要闻汇总-新浪娱乐",
"channelNameSummary" : "娱乐要闻汇总-新浪娱...",
"channelUrl" : "http:\/\/news.sina.com.cn\/news1000\/index.shtml?requestOrder=5",
"author" : "WWW.SINA.COM.CN",
"tags" : [],
"desc" : "据美国《侨报》10月16日报道，由国际巨星成龙[微博]担任导演并主演的动作电影《十二生肖》16日在美国洛杉矶首映，成龙携主演姚星彤[微博]及罗娜・韦斯贝克尔出席了首映礼。成龙当天还接受了记者访问。 成龙携主演压轴登场，接受记者采访时称，这部电影的主旨是希望呼吁....",
"emailed" : False,
"forwarded" : False,
"english" : False
}  , {
"index" : 12,
"articleIndex" : "253602",
"favor" :  False ,
     "read" : False,    
"title" : "比伯秒删与贩毒人合照 被疑曾向其买大麻",
"titleTip" : "比伯秒删与贩毒人合照 被疑曾向其买大麻",
"titleSummary" : "比伯秒删与贩毒人合照 被疑曾向其买大麻",
"descSummary" : "新浪娱乐讯 据香港媒体报道，加拿大小天王Justin Bieber多次...",
"url" : "http:\/\/go.rss.sina.com.cn\/redirect.php?url=http:\/\/ent.sina.com.cn\/y\/2013-10-19\/23384027097.shtml",
"pubDate" : "2013年10月19日 (1周前)",
"enterDate" : "384200:52:37",
"channelId" : "-3255423793322553992",
"channelName" : "娱乐要闻汇总-新浪娱乐",
"channelNameSummary" : "娱乐要闻汇总-新浪娱...",
"channelUrl" : "http:\/\/news.sina.com.cn\/news1000\/index.shtml?requestOrder=5",
"author" : "WWW.SINA.COM.CN",
"tags" : [],
"desc" : "新浪娱乐讯 据香港媒体报道，加拿大小天王Justin Bieber多次传出吸毒，日前他将与大麻供应者的合照放上Instagram，但随即删除照片，据悉该大麻供应者专门为明星提供大麻，而他的手臂上除纹上自己的头像纹身外，更纹有Justin的卡通化头像图案，二人更搭膊头合照，看似非常稔熟....",
"emailed" : False,
"forwarded" : False,
"english" : False
}  , {
"index" : 13,
"articleIndex" : "253601",
"favor" :  False ,
     "read" : False,    
"title" : "组图：《警察日记》见面会 宁瀛泪洒现场",
"titleTip" : "组图：《警察日记》见面会 宁瀛泪洒现场",
"titleSummary" : "组图：《警察日记》见面会 宁瀛泪洒现场",
"descSummary" : "新浪娱乐讯 10月19日，第26届东京电影节《警察日记》见面会...",
"url" : "http:\/\/go.rss.sina.com.cn\/redirect.php?url=http:\/\/slide.ent.sina.com.cn\/film\/slide_4_704_67709.html",
"pubDate" : "2013年10月19日 (1周前)",
"enterDate" : "384200:47:57",
"channelId" : "-3255423793322553992",
"channelName" : "娱乐要闻汇总-新浪娱乐",
"channelNameSummary" : "娱乐要闻汇总-新浪娱...",
"channelUrl" : "http:\/\/news.sina.com.cn\/news1000\/index.shtml?requestOrder=5",
"author" : "WWW.SINA.COM.CN",
"tags" : [],
"desc" : "新浪娱乐讯 10月19日，第26届东京电影节《警察日记》见面会。电影放映结束后，导演宁瀛、主演王景春、陈维涵与观众互动。导演宁瀛说到动情处声音哽咽，泪洒现场。图库供稿",
"emailed" : False,
"forwarded" : False,
"english" : False
}  , {
"index" : 14,
"articleIndex" : "253600",
"favor" :  False ,
     "read" : False,    
"title" : "策划：情侣搭配拍戏不累 盘点电影情侣档",
"titleTip" : "策划：情侣搭配拍戏不累 盘点电影情侣档",
"titleSummary" : "策划：情侣搭配拍戏不累 盘点电影情侣档",
"descSummary" : "在热映电影《我想和你好好的》中，冯绍峰、倪妮这对现实中的...",
"url" : "http:\/\/go.rss.sina.com.cn\/redirect.php?url=http:\/\/slide.ent.sina.com.cn\/film\/slide_4_704_67383.html",
"pubDate" : "2013年10月19日 (1周前)",
"enterDate" : "384200:44:29",
"channelId" : "-3255423793322553992",
"channelName" : "娱乐要闻汇总-新浪娱乐",
"channelNameSummary" : "娱乐要闻汇总-新浪娱...",
"channelUrl" : "http:\/\/news.sina.com.cn\/news1000\/index.shtml?requestOrder=5",
"author" : "WWW.SINA.COM.CN",
"tags" : [],
"desc" : "在热映电影《我想和你好好的》中，冯绍峰、倪妮这对现实中的情侣饰演一对纠结的恋人。新浪电影特别盘点电影中的情侣档，他们因电影结缘，有的依然甜蜜，有的已劳燕分飞。",
"emailed" : False,
"forwarded" : False,
"english" : False
}  , {
"index" : 15,
"articleIndex" : "253599",
"favor" :  False ,
     "read" : False,    
"title" : "铃木纱理奈宣布离婚：对老公偷腥忍无可忍",
"titleTip" : "铃木纱理奈宣布离婚：对老公偷腥忍无可忍",
"titleSummary" : "铃木纱理奈宣布离婚：对老公偷腥忍无可忍",
"descSummary" : "新浪娱乐讯 据台湾媒体报道，36岁日本女星铃木纱理奈5年婚...",
"url" : "http:\/\/go.rss.sina.com.cn\/redirect.php?url=http:\/\/ent.sina.com.cn\/s\/j\/r\/2013-10-19\/23264027090.shtml",
"pubDate" : "2013年10月19日 (1周前)",
"enterDate" : "384201:10:19",
"channelId" : "-3255423793322553992",
"channelName" : "娱乐要闻汇总-新浪娱乐",
"channelNameSummary" : "娱乐要闻汇总-新浪娱...",
"channelUrl" : "http:\/\/news.sina.com.cn\/news1000\/index.shtml?requestOrder=5",
"author" : "WWW.SINA.COM.CN",
"tags" : [],
"desc" : "新浪娱乐讯 据台湾媒体报道，36岁日本女星铃木纱理奈5年婚姻破局，昨宣布与雷鬼歌手老公TELA-C离婚。日本媒体报导，两人个性都好强，婚后争吵不断，由于纱理奈老公常在外劈腿偷吃，让她忍无可忍，最后决定分道扬镳。 铃木纱理奈先后在《爱美大作战》、《宠物情人》等日....",
"emailed" : False,
"forwarded" : False,
"english" : False
}  , {
"index" : 16,
"articleIndex" : "253598",
"favor" :  False ,
     "read" : False,    
"title" : "暮光男新片演男妓 与汤姆汉克斯儿子搭档",
"titleTip" : "暮光男新片演男妓 与汤姆汉克斯儿子搭档",
"titleSummary" : "暮光男新片演男妓 与汤姆汉克斯儿子搭档",
"descSummary" : "新浪娱乐讯 据台湾媒体报道，\u201C吸血帅哥\u201D罗伯特帕汀森(Rob...",
"url" : "http:\/\/go.rss.sina.com.cn\/redirect.php?url=http:\/\/ent.sina.com.cn\/m\/f\/2013-10-19\/23204027088.shtml",
"pubDate" : "2013年10月19日 (1周前)",
"enterDate" : "384201:04:39",
"channelId" : "-3255423793322553992",
"channelName" : "娱乐要闻汇总-新浪娱乐",
"channelNameSummary" : "娱乐要闻汇总-新浪娱...",
"channelUrl" : "http:\/\/news.sina.com.cn\/news1000\/index.shtml?requestOrder=5",
"author" : "WWW.SINA.COM.CN",
"tags" : [],
"desc" : "新浪娱乐讯 据台湾媒体报道，\u201C吸血帅哥\u201D罗伯特帕汀森(Robert Pattinson)将在一部短片《Misoneism》扮演男妓，英国《太阳报》报导，帕汀森为了拍摄新片，最近频上健身房锻炼，185公分高的他体格明显变健壮。 《Misoneism》描述巴西一名年轻男子迫于无奈下海卖淫，帕汀....",
"emailed" : False,
"forwarded" : False,
"english" : False
}  , {
"index" : 17,
"articleIndex" : "253597",
"favor" :  False ,
     "read" : False,    
"title" : "电视剧《产科医生》热拍 叩问生命尊严",
"titleTip" : "电视剧《产科医生》热拍 叩问生命尊严",
"titleSummary" : "电视剧《产科医生》热拍 叩问生命尊严",
"descSummary" : "新浪娱乐讯 由内地当红女演员佟丽娅[微博]、台湾知名师奶杀手王...",
"url" : "http:\/\/go.rss.sina.com.cn\/redirect.php?url=http:\/\/ent.sina.com.cn\/v\/m\/2013-10-19\/22054027084.shtml",
"pubDate" : "2013年10月19日 (1周前)",
"enterDate" : "384200:50:06",
"channelId" : "-3255423793322553992",
"channelName" : "娱乐要闻汇总-新浪娱乐",
"channelNameSummary" : "娱乐要闻汇总-新浪娱...",
"channelUrl" : "http:\/\/news.sina.com.cn\/news1000\/index.shtml?requestOrder=5",
"author" : "WWW.SINA.COM.CN",
"tags" : [],
"desc" : "新浪娱乐讯 由内地当红女演员佟丽娅[微博]、台湾知名师奶杀手王耀庆以及实力派演员张小磊、施京明、巩峥、徐百卉[微博]等联袂主演的花儿影视公司投拍的现代时尚医疗职场大戏《产科医生》于2013年10月3日在北京开机。目前，该剧正在京郊热拍。10月19日，记者来到位于燕郊的燕达....",
"emailed" : False,
"forwarded" : False,
"english" : False
}  , {
"index" : 18,
"articleIndex" : "253595",
"favor" :  False ,
     "read" : False,    
"title" : "汪峰成都个唱创票房纪录 杨宗纬力挺",
"titleTip" : "汪峰成都个唱创票房纪录 杨宗纬力挺",
"titleSummary" : "汪峰成都个唱创票房纪录 杨宗纬力挺",
"descSummary" : "新浪娱乐讯 今晚(19日)20：00，汪峰[微博]2013\u201C存在\u201D巡回演唱会...",
"url" : "http:\/\/go.rss.sina.com.cn\/redirect.php?url=http:\/\/ent.sina.com.cn\/y\/2013-10-19\/20174027080.shtml",
"pubDate" : "2013年10月19日 (1周前)",
"enterDate" : "384201:02:22",
"channelId" : "-3255423793322553992",
"channelName" : "娱乐要闻汇总-新浪娱乐",
"channelNameSummary" : "娱乐要闻汇总-新浪娱...",
"channelUrl" : "http:\/\/news.sina.com.cn\/news1000\/index.shtml?requestOrder=5",
"author" : "WWW.SINA.COM.CN",
"tags" : [],
"desc" : "新浪娱乐讯 今晚(19日)20：00，汪峰[微博]2013\u201C存在\u201D巡回演唱会将从成都站开启。据主办方北京风华秋实透露，演唱会3万多张门票抢购一空，汪峰此次凭900万票房成绩刷新内地艺人在成都体育中心的票房纪录。 笔者从演唱会主办方北京风华秋实文化传媒有限公司了解到，成....",
"emailed" : False,
"forwarded" : False,
"english" : False
}  , {
"index" : 19,
"articleIndex" : "253596",
"favor" :  False ,
     "read" : False,    
"title" : "《好好的》插曲MV 冯绍峰倪妮爱情甜蜜",
"titleTip" : "《好好的》插曲MV 冯绍峰倪妮爱情甜蜜",
"titleSummary" : "《好好的》插曲MV 冯绍峰倪妮爱情甜蜜",
"descSummary" : "新浪娱乐讯 由李蔚然执导，作业本编剧，冯绍峰、倪妮主演的都...",
"url" : "http:\/\/go.rss.sina.com.cn\/redirect.php?url=http:\/\/ent.sina.com.cn\/m\/c\/2013-10-19\/16214027053.shtml",
"pubDate" : "2013年10月19日 (1周前)",
"enterDate" : "384195:05:48",
"channelId" : "-3255423793322553992",
"channelName" : "娱乐要闻汇总-新浪娱乐",
"channelNameSummary" : "娱乐要闻汇总-新浪娱...",
"channelUrl" : "http:\/\/news.sina.com.cn\/news1000\/index.shtml?requestOrder=5",
"author" : "WWW.SINA.COM.CN",
"tags" : [],
"desc" : "新浪娱乐讯 由李蔚然执导，作业本编剧，冯绍峰、倪妮主演的都市爱情电影《我想和你好好的》于10月12日全国公映。片方于近日发布了一款插曲MV，以片中冯绍峰为倪妮演唱《灰姑娘》一曲为线索，唱出片中两人从相爱甜蜜到相处争执的全貌，而戏外情侣间的小细节亦在此过程中甜蜜呈....",
"emailed" : False,
"forwarded" : False,
"english" : False
} ]
}
