{
"mode" : {"viewTitle" : 1,   "viewNew" : 0,  "pageIndex" : 2 },
 "channel" : {"id" : "-3255423793322553992", "booked" : False, "subNumber" : 1, "name" : "娱乐要闻汇总-新浪娱乐", "url" : "http:\/\/news.sina.com.cn\/news1000\/index.shtml?requestOrder=5", "feed" : "http:\/\/rss.sina.com.cn\/ent\/hot_roll.xml", "author" : "WWW.SINA.COM.CN", "desc" : "娱乐要闻汇总", "imageUrl" : "http:\/\/i1.sinaimg.cn\/home\/deco\/2009\/0330\/logo_home.gif", "postPerWeek" : "0", "lastCrawTime" : "2013年10月20日 (1周前)", "crawDateTime" : "2013年10月20日 (1周前)", "lastHttpCode" : "200"}, "page" : {
"startIndex" : 20,
"totalCount" : 5000,
"pageIndex" : 2,
"lastPage" : 250,
"pageSize" : 20,
"english" :  False },
 "unreadNum" : 0, "shotIndex" : -1,
"articles" : [
{
"index" : 0,
"articleIndex" : "253594",
"favor" :  False ,
     "read" : False,    
"title" : "《梦想秀》未婚爸爸助养50孩子感动观众",
"titleTip" : "《梦想秀》未婚爸爸助养50孩子感动观众",
"titleSummary" : "《梦想秀》未婚爸爸助养50孩子感动观众",
"descSummary" : "新浪娱乐讯 周五晚间综艺节目收视战不断升级日趋白热化！继...",
"url" : "http:\/\/go.rss.sina.com.cn\/redirect.php?url=http:\/\/ent.sina.com.cn\/y\/2013-10-19\/19444027079.shtml",
"pubDate" : "2013年10月19日 (1周前)",
"enterDate" : "384199:59:30",
"channelId" : "-3255423793322553992",
"channelName" : "娱乐要闻汇总-新浪娱乐",
"channelNameSummary" : "娱乐要闻汇总-新浪娱...",
"channelUrl" : "http:\/\/news.sina.com.cn\/news1000\/index.shtml?requestOrder=5",
"author" : "WWW.SINA.COM.CN",
"tags" : [],
"desc" : "&#160; 新浪娱乐讯 周五晚间综艺节目收视战不断升级日趋白热化！继上周一举拿下周五晚间综艺收视冠军后，10月18日浙江卫视[微博]第六季《中国梦想秀》(下简称\u201C梦六\u201D)第二期再度低调来袭！本期\u201C梦六\u201D仍然在笑声和泪水中传递梦想正能量，来自辽宁鞍山的41岁未婚爸爸....",
"emailed" : False,
"forwarded" : False,
"english" : False
}  , {
"index" : 1,
"articleIndex" : "253593",
"favor" :  False ,
     "read" : False,    
"title" : "小S涉案后首公开亮相 自称对孩子最无私",
"titleTip" : "小S涉案后首公开亮相 自称对孩子最无私",
"titleSummary" : "小S涉案后首公开亮相 自称对孩子最无私",
"descSummary" : "小S 小S绿裙配黑丝 小S摆撩人造型 中新网北京10月19日电(记...",
"url" : "http:\/\/go.rss.sina.com.cn\/redirect.php?url=http:\/\/ent.sina.com.cn\/s\/m\/2013-10-19\/18514027078.shtml",
"pubDate" : "2013年10月19日 (1周前)",
"enterDate" : "384200:35:56",
"channelId" : "-3255423793322553992",
"channelName" : "娱乐要闻汇总-新浪娱乐",
"channelNameSummary" : "娱乐要闻汇总-新浪娱...",
"channelUrl" : "http:\/\/news.sina.com.cn\/news1000\/index.shtml?requestOrder=5",
"author" : "WWW.SINA.COM.CN",
"tags" : [],
"desc" : "小S 小S绿裙配黑丝 小S摆撩人造型 中新网北京10月19日电(记者 张曦) 近日，小S卷入老公许雅钧[微博]、公公许庆祥的胖达人内线交易风波，并一直躲避媒体。不过，今天下午，她却现身北京某大型超市，出席某品牌洗衣液的代言活动，虽然拒绝接受采访，但也在活动上声称自....",
"emailed" : False,
"forwarded" : False,
"english" : False
}  , {
"index" : 2,
"articleIndex" : "253592",
"favor" :  False ,
     "read" : False,    
"title" : "曝林凤娇三点式泳衣旧照 海滩摆性感姿势",
"titleTip" : "曝林凤娇三点式泳衣旧照 海滩摆性感姿势",
"titleSummary" : "曝林凤娇三点式泳衣旧照 海滩摆性感姿势",
"descSummary" : "新浪娱乐讯 近日，有网友曝光了一组成龙[微博]妻子林凤娇的性...",
"url" : "http:\/\/go.rss.sina.com.cn\/redirect.php?url=http:\/\/ent.sina.com.cn\/m\/c\/2013-10-19\/18244027074.shtml",
"pubDate" : "2013年10月19日 (1周前)",
"enterDate" : "384201:09:51",
"channelId" : "-3255423793322553992",
"channelName" : "娱乐要闻汇总-新浪娱乐",
"channelNameSummary" : "娱乐要闻汇总-新浪娱...",
"channelUrl" : "http:\/\/news.sina.com.cn\/news1000\/index.shtml?requestOrder=5",
"author" : "WWW.SINA.COM.CN",
"tags" : [],
"desc" : "新浪娱乐讯 近日，有网友曝光了一组成龙[微博]妻子林凤娇的性感旧照。在照片中，当时只有20多岁林凤娇身着三点式泳衣，在海滩上摆出各种性感美丽姿势。 如今林凤娇已嫁人多年隐居美国，掌管着丈夫成龙的20亿身价，一边帮助丈夫打理生意，一边还帮着儿子房祖名[微博]挑....",
"emailed" : False,
"forwarded" : False,
"english" : False
}  , {
"index" : 3,
"articleIndex" : "253591",
"favor" :  False ,
     "read" : False,    
"title" : "日本票房：松本润新片夺冠 《阿信》惨淡",
"titleTip" : "日本票房：松本润新片夺冠 《阿信》惨淡",
"titleSummary" : "日本票房：松本润新片夺冠 《阿信》惨淡",
"descSummary" : "日本周末票房排行榜：2013年10月12日-10月13日 顺位 上周 片...",
"url" : "http:\/\/go.rss.sina.com.cn\/redirect.php?url=http:\/\/ent.sina.com.cn\/m\/f\/r\/2013-10-19\/18024027072.shtml",
"pubDate" : "2013年10月19日 (1周前)",
"enterDate" : "384200:47:19",
"channelId" : "-3255423793322553992",
"channelName" : "娱乐要闻汇总-新浪娱乐",
"channelNameSummary" : "娱乐要闻汇总-新浪娱...",
"channelUrl" : "http:\/\/news.sina.com.cn\/news1000\/index.shtml?requestOrder=5",
"author" : "WWW.SINA.COM.CN",
"tags" : [],
"desc" : "日本周末票房排行榜：2013年10月12日-10月13日 顺位 上周 片名 日本发行公司 公开日 公开周 银幕数 1 - 向阳处的她 东宝 10.12 1 304....",
"emailed" : False,
"forwarded" : False,
"english" : False
}  , {
"index" : 4,
"articleIndex" : "253590",
"favor" :  False ,
     "read" : False,    
"title" : "施瓦辛格声称要修改美国宪法 想参选总统",
"titleTip" : "施瓦辛格声称要修改美国宪法 想参选总统",
"titleSummary" : "施瓦辛格声称要修改美国宪法 想参选总统",
"descSummary" : "人民网10月19日讯 2016年美国大选在即，人们普遍关注除了热...",
"url" : "http:\/\/go.rss.sina.com.cn\/redirect.php?url=http:\/\/ent.sina.com.cn\/m\/f\/2013-10-19\/17264027066.shtml",
"pubDate" : "2013年10月19日 (1周前)",
"enterDate" : "384199:11:04",
"channelId" : "-3255423793322553992",
"channelName" : "娱乐要闻汇总-新浪娱乐",
"channelNameSummary" : "娱乐要闻汇总-新浪娱...",
"channelUrl" : "http:\/\/news.sina.com.cn\/news1000\/index.shtml?requestOrder=5",
"author" : "WWW.SINA.COM.CN",
"tags" : [],
"desc" : "人民网10月19日讯 2016年美国大选在即，人们普遍关注除了热门人物希拉里，还有谁会参与这场四年一次的角逐。美国动作巨星施瓦辛格18日就透露想要竞选总统。 综合美国媒体18日报道，美国动作巨星、前加州州长施瓦辛格在纽约宣传自己与史泰龙共同参与的最新电影《活人墓(....",
"emailed" : False,
"forwarded" : False,
"english" : False
}  , {
"index" : 5,
"articleIndex" : "253589",
"favor" :  False ,
     "read" : False,    
"title" : "《星星知我心》登陆浙江 明星做临时父母",
"titleTip" : "《星星知我心》登陆浙江 明星做临时父母",
"titleSummary" : "《星星知我心》登陆浙江 明星做临时父母",
"descSummary" : "新浪娱乐讯 从上周五起，荧屏的\u201C真儿秀\u201D大战正式彻底打响...",
"url" : "http:\/\/go.rss.sina.com.cn\/redirect.php?url=http:\/\/ent.sina.com.cn\/v\/m\/2013-10-19\/17184027064.shtml",
"pubDate" : "2013年10月19日 (1周前)",
"enterDate" : "384201:03:40",
"channelId" : "-3255423793322553992",
"channelName" : "娱乐要闻汇总-新浪娱乐",
"channelNameSummary" : "娱乐要闻汇总-新浪娱...",
"channelUrl" : "http:\/\/news.sina.com.cn\/news1000\/index.shtml?requestOrder=5",
"author" : "WWW.SINA.COM.CN",
"tags" : [],
"desc" : "新浪娱乐讯 从上周五起，荧屏的\u201C真儿秀\u201D大战正式彻底打响，湖南卫视《爸爸去哪儿》、浙江卫视《人生第一次》和将于下周三晚10点播出的《星星知我心》、青海卫视《老爸老妈看我的》、陕西卫视《好爸爸坏爸爸》全体发力。 从节目分析，各大卫视纷纷抢滩\u201C真儿秀\u201D市场....",
"emailed" : False,
"forwarded" : False,
"english" : False
}  , {
"index" : 6,
"articleIndex" : "253588",
"favor" :  False ,
     "read" : False,    
"title" : "马苏与演员刘欢挽手参加婚礼：只是朋友",
"titleTip" : "马苏与演员刘欢挽手参加婚礼：只是朋友",
"titleSummary" : "马苏与演员刘欢挽手参加婚礼：只是朋友",
"descSummary" : "新浪娱乐讯 10月19日，\u201C金太郎\u201D王雷在北京迎娶女友李小萌...",
"url" : "http:\/\/go.rss.sina.com.cn\/redirect.php?url=http:\/\/ent.sina.com.cn\/s\/m\/2013-10-19\/16294027056.shtml",
"pubDate" : "2013年10月19日 (1周前)",
"enterDate" : "384201:15:11",
"channelId" : "-3255423793322553992",
"channelName" : "娱乐要闻汇总-新浪娱乐",
"channelNameSummary" : "娱乐要闻汇总-新浪娱...",
"channelUrl" : "http:\/\/news.sina.com.cn\/news1000\/index.shtml?requestOrder=5",
"author" : "WWW.SINA.COM.CN",
"tags" : [],
"desc" : "新浪娱乐讯 10月19日，\u201C金太郎\u201D王雷在北京迎娶女友李小萌。婚礼现场嘉宾云集，早前宣布和孔令辉情断的马苏，则被目击和演员刘欢结伴现身，两人不但亲密耳语，发现被拍时马苏更紧张挽住刘欢的手臂，不禁让人浮想联翩。随后，新浪娱乐连线华谊的宣传人员，求证两人是否正在交....",
"emailed" : False,
"forwarded" : False,
"english" : False
}  , {
"index" : 7,
"articleIndex" : "253587",
"favor" :  False ,
     "read" : False,    
"title" : "胡海泉撞脸拜仁球星 天然呆似哥儿俩(图)",
"titleTip" : "胡海泉撞脸拜仁球星 天然呆似哥儿俩(图)",
"titleSummary" : "胡海泉撞脸拜仁球星 天然呆似哥儿俩(图)",
"descSummary" : "新浪娱乐讯 10月19日，歌手胡海泉在微博上晒出了一张德国拜仁...",
"url" : "http:\/\/go.rss.sina.com.cn\/redirect.php?url=http:\/\/ent.sina.com.cn\/y\/w\/2013-10-19\/16014027050.shtml",
"pubDate" : "2013年10月19日 (1周前)",
"enterDate" : "384200:47:07",
"channelId" : "-3255423793322553992",
"channelName" : "娱乐要闻汇总-新浪娱乐",
"channelNameSummary" : "娱乐要闻汇总-新浪娱...",
"channelUrl" : "http:\/\/news.sina.com.cn\/news1000\/index.shtml?requestOrder=5",
"author" : "WWW.SINA.COM.CN",
"tags" : [],
"desc" : "新浪娱乐讯 10月19日，歌手胡海泉在微博上晒出了一张德国拜仁慕尼黑俱乐部球星阿拉巴的照片，并调侃称\u201C他们说这哥们儿是我在非洲异父异母的亲兄弟，除了牙显得比我白之外，那天然萌呆的灿烂劲儿还真有我的疯采！\u201D而网友也纷纷赞像，并有人问胡海泉：\u201C胡老师，你用的啥粉底....",
"emailed" : False,
"forwarded" : False,
"english" : False
}  , {
"index" : 8,
"articleIndex" : "253586",
"favor" :  False ,
     "read" : False,    
"title" : "宋丹丹斩钉截铁否认上春晚：早说不会上",
"titleTip" : "宋丹丹斩钉截铁否认上春晚：早说不会上",
"titleSummary" : "宋丹丹斩钉截铁否认上春晚：早说不会上",
"descSummary" : "新浪娱乐讯 由冯小刚掌勺的马年春晚，正在如火如荼地筹备中...",
"url" : "http:\/\/go.rss.sina.com.cn\/redirect.php?url=http:\/\/ent.sina.com.cn\/v\/m\/2013-10-19\/15534027049.shtml",
"pubDate" : "2013年10月19日 (1周前)",
"enterDate" : "384196:38:12",
"channelId" : "-3255423793322553992",
"channelName" : "娱乐要闻汇总-新浪娱乐",
"channelNameSummary" : "娱乐要闻汇总-新浪娱...",
"channelUrl" : "http:\/\/news.sina.com.cn\/news1000\/index.shtml?requestOrder=5",
"author" : "WWW.SINA.COM.CN",
"tags" : [],
"desc" : "新浪娱乐讯 由冯小刚掌勺的马年春晚，正在如火如荼地筹备中。此前有消息传，春晚曾向宋丹丹、陈佩斯等\u201C熟脸\u201D广发英雄帖，奈何当事人反应冷淡。继陈佩斯否认上春晚后，近日(10月19日)宋丹丹出席王雷婚礼时，也首次给出正面回应，斩钉截铁否认上春晚：\u201C我不会上春晚，早就说....",
"emailed" : False,
"forwarded" : False,
"english" : False
}  , {
"index" : 9,
"articleIndex" : "253585",
"favor" :  False ,
     "read" : False,    
"title" : "田参军谈李某案二审：李家暂未提交新证据",
"titleTip" : "田参军谈李某案二审：李家暂未提交新证据",
"titleSummary" : "田参军谈李某案二审：李家暂未提交新证据",
"descSummary" : "新浪娱乐讯 近日，有消息称，李某等5人强奸案中被害人律师...",
"url" : "http:\/\/go.rss.sina.com.cn\/redirect.php?url=http:\/\/ent.sina.com.cn\/s\/m\/2013-10-19\/15504027047.shtml",
"pubDate" : "2013年10月19日 (1周前)",
"enterDate" : "384201:06:28",
"channelId" : "-3255423793322553992",
"channelName" : "娱乐要闻汇总-新浪娱乐",
"channelNameSummary" : "娱乐要闻汇总-新浪娱...",
"channelUrl" : "http:\/\/news.sina.com.cn\/news1000\/index.shtml?requestOrder=5",
"author" : "WWW.SINA.COM.CN",
"tags" : [],
"desc" : "新浪娱乐讯 近日，有消息称，李某等5人强奸案中被害人律师田参军在接受媒体采访时透露，在案件二审阶段，梦鸽依旧要为儿子做无罪辩护。不过，19日下午，新浪娱乐致电田参军，他否认了这一说法，表示自己从未对媒体透露过李某方是否会做无罪辩护。不过，截止17日下午，李某方还....",
"emailed" : False,
"forwarded" : False,
"english" : False
}  , {
"index" : 10,
"articleIndex" : "253584",
"favor" :  False ,
     "read" : False,    
"title" : "《我们约会吧+》快男助阵天津落地活动",
"titleTip" : "《我们约会吧+》快男助阵天津落地活动",
"titleSummary" : "《我们约会吧+》快男助阵天津落地活动",
"descSummary" : "新浪娱乐讯 10月12日，天津大悦城人满为患，湖南卫视《我们约...",
"url" : "http:\/\/go.rss.sina.com.cn\/redirect.php?url=http:\/\/ent.sina.com.cn\/v\/m\/2013-10-19\/15384027046.shtml",
"pubDate" : "2013年10月19日 (1周前)",
"enterDate" : "384200:54:17",
"channelId" : "-3255423793322553992",
"channelName" : "娱乐要闻汇总-新浪娱乐",
"channelNameSummary" : "娱乐要闻汇总-新浪娱...",
"channelUrl" : "http:\/\/news.sina.com.cn\/news1000\/index.shtml?requestOrder=5",
"author" : "WWW.SINA.COM.CN",
"tags" : [],
"desc" : "新浪娱乐讯 10月12日，天津大悦城人满为患，湖南卫视《我们约会吧＋》大型嘉宾招募见面会在此成功举办。节目主持人邱启明带着2013快乐男声白举纲、宁桓宇、贾盛强化身约会招募大使前来为《我们约会吧＋》造势，邀请天津的帅哥美女也站上《我们约会吧+》的舞台。 《我们....",
"emailed" : False,
"forwarded" : False,
"english" : False
}  , {
"index" : 11,
"articleIndex" : "253583",
"favor" :  False ,
     "read" : False,    
"title" : "美国女歌手抵北京遇污染 发哮喘演出取消",
"titleTip" : "美国女歌手抵北京遇污染 发哮喘演出取消",
"titleSummary" : "美国女歌手抵北京遇污染 发哮喘演出取消",
"descSummary" : "新浪娱乐讯 据爵士上海新浪官方微博透露，曾获得格莱美奖的...",
"url" : "http:\/\/go.rss.sina.com.cn\/redirect.php?url=http:\/\/ent.sina.com.cn\/y\/w\/2013-10-19\/15354027045.shtml",
"pubDate" : "2013年10月19日 (1周前)",
"enterDate" : "384199:50:26",
"channelId" : "-3255423793322553992",
"channelName" : "娱乐要闻汇总-新浪娱乐",
"channelNameSummary" : "娱乐要闻汇总-新浪娱...",
"channelUrl" : "http:\/\/news.sina.com.cn\/news1000\/index.shtml?requestOrder=5",
"author" : "WWW.SINA.COM.CN",
"tags" : [],
"desc" : "新浪娱乐讯 据爵士上海新浪官方微博透露，曾获得格莱美奖的女爵士歌手佩蒂・奥斯汀原计划10月18日在北京进行表演，但其经纪人表示，奥斯汀抵达北京后哮喘发作，无法演出。 据悉，10月17日时，佩蒂-奥斯汀还曾现身在北京后山艺术中心举办的2013\u201C爵士上海\u201D音乐节沙龙，....",
"emailed" : False,
"forwarded" : False,
"english" : False
}  , {
"index" : 12,
"articleIndex" : "253582",
"favor" :  False ,
     "read" : False,    
"title" : "《最美和声》冠军夜今晚播出 萧敬腾致歉",
"titleTip" : "《最美和声》冠军夜今晚播出 萧敬腾致歉",
"titleSummary" : "《最美和声》冠军夜今晚播出 萧敬腾致歉",
"descSummary" : "新浪娱乐讯 今晚(10月19日)20：20分，历时三个半月的北京卫...",
"url" : "http:\/\/go.rss.sina.com.cn\/redirect.php?url=http:\/\/ent.sina.com.cn\/y\/2013-10-19\/15344027043.shtml",
"pubDate" : "2013年10月19日 (1周前)",
"enterDate" : "384200:49:32",
"channelId" : "-3255423793322553992",
"channelName" : "娱乐要闻汇总-新浪娱乐",
"channelNameSummary" : "娱乐要闻汇总-新浪娱...",
"channelUrl" : "http:\/\/news.sina.com.cn\/news1000\/index.shtml?requestOrder=5",
"author" : "WWW.SINA.COM.CN",
"tags" : [],
"desc" : "新浪娱乐讯 今晚(10月19日)20：20分，历时三个半月的北京卫视《最美和声》将播出名为\u201C冠军之夜\u201D的最后一期。至此，谁将成为年度\u201C最美和声\u201D盛大揭晓。到底是范玮琪组的胡维纳，胡海泉组的丁于，还是萧敬腾组的肖懿航，抑或是陈羽凡组的贾剑龙，答案即将揭晓。 Super....",
"emailed" : False,
"forwarded" : False,
"english" : False
}  , {
"index" : 13,
"articleIndex" : "253581",
"favor" :  False ,
     "read" : False,    
"title" : "王雷李小萌大婚 真情告白：永睡一张床",
"titleTip" : "王雷李小萌大婚 真情告白：永睡一张床",
"titleSummary" : "王雷李小萌大婚 真情告白：永睡一张床",
"descSummary" : "新浪娱乐讯 10月19日中午，\u201C金太郎\u201D王雷[微博]和李小萌在北...",
"url" : "http:\/\/go.rss.sina.com.cn\/redirect.php?url=http:\/\/ent.sina.com.cn\/s\/m\/2013-10-19\/15224027040.shtml",
"pubDate" : "2013年10月19日 (1周前)",
"enterDate" : "384197:37:25",
"channelId" : "-3255423793322553992",
"channelName" : "娱乐要闻汇总-新浪娱乐",
"channelNameSummary" : "娱乐要闻汇总-新浪娱...",
"channelUrl" : "http:\/\/news.sina.com.cn\/news1000\/index.shtml?requestOrder=5",
"author" : "WWW.SINA.COM.CN",
"tags" : [],
"desc" : "新浪娱乐讯 10月19日中午，\u201C金太郎\u201D王雷[微博]和李小萌在北京大婚，宋丹丹[微博]、范明、姜武[微博]、马苏[微博]、曹曦文[微博]、闫学晶[微博]、陈小艺、孙茜[微博]、姚芊羽[微博]等数十位明星艺人到场贺喜，杜淳[微博]、翟天临[微博]领衔伴郎团。婚礼现场爱意涌动，王雷真....",
"emailed" : False,
"forwarded" : False,
"english" : False
}  , {
"index" : 14,
"articleIndex" : "253580",
"favor" :  False ,
     "read" : False,    
"title" : "陈百强兄长追忆亡弟 感激歌迷不离不弃",
"titleTip" : "陈百强兄长追忆亡弟 感激歌迷不离不弃",
"titleSummary" : "陈百强兄长追忆亡弟 感激歌迷不离不弃",
"descSummary" : "新浪娱乐讯 2013年10月18日香港消息，今年是香港一代传奇歌手...",
"url" : "http:\/\/go.rss.sina.com.cn\/redirect.php?url=http:\/\/ent.sina.com.cn\/y\/2013-10-19\/14584027037.shtml",
"pubDate" : "2013年10月19日 (1周前)",
"enterDate" : "384201:14:23",
"channelId" : "-3255423793322553992",
"channelName" : "娱乐要闻汇总-新浪娱乐",
"channelNameSummary" : "娱乐要闻汇总-新浪娱...",
"channelUrl" : "http:\/\/news.sina.com.cn\/news1000\/index.shtml?requestOrder=5",
"author" : "WWW.SINA.COM.CN",
"tags" : [],
"desc" : "新浪娱乐讯 2013年10月18日香港消息，今年是香港一代传奇歌手陈百强(Danny)逝世20周年，继早前的纪念音乐会后，陈百强的哥哥James与歌手蓝奕邦[微博]、官恩娜[微博]、连诗雅，及一众陈百强的歌迷们今晚一同到电台参加\u201C至爱陈百强\u201D纪念活动。几位嘉宾分别在台上分享和陈百强....",
"emailed" : False,
"forwarded" : False,
"english" : False
}  , {
"index" : 15,
"articleIndex" : "253579",
"favor" :  False ,
     "read" : False,    
"title" : "林峰与赵薇师妹合作 期待30岁后生儿育女",
"titleTip" : "林峰与赵薇师妹合作 期待30岁后生儿育女",
"titleSummary" : "林峰与赵薇师妹合作 期待30岁后生儿育女",
"descSummary" : "新浪娱乐讯 林峰自从恋上吴千语后，经常被拍得出双入对的照...",
"url" : "http:\/\/go.rss.sina.com.cn\/redirect.php?url=http:\/\/ent.sina.com.cn\/m\/c\/2013-10-19\/14504027036.shtml",
"pubDate" : "2013年10月19日 (1周前)",
"enterDate" : "384201:06:28",
"channelId" : "-3255423793322553992",
"channelName" : "娱乐要闻汇总-新浪娱乐",
"channelNameSummary" : "娱乐要闻汇总-新浪娱...",
"channelUrl" : "http:\/\/news.sina.com.cn\/news1000\/index.shtml?requestOrder=5",
"author" : "WWW.SINA.COM.CN",
"tags" : [],
"desc" : "新浪娱乐讯 林峰自从恋上吴千语后，经常被拍得出双入对的照片，发表\u201C七爱\u201Dbb的宣言，令外界以为他视爱情为生命的全部，已无心恋战。但是正值事业黄金期的他解释自己只是享受生活，不想为了工作牺牲所有，像天王般收藏心爱的女人。对他来说，生儿育女是迟早的事，希望于三十....",
"emailed" : False,
"forwarded" : False,
"english" : False
}  , {
"index" : 16,
"articleIndex" : "253578",
"favor" :  False ,
     "read" : False,    
"title" : "组图:周渝民再入围金钟奖 希望龙劭华拿奖",
"titleTip" : "组图:周渝民再入围金钟奖 希望龙劭华拿奖",
"titleSummary" : "组图:周渝民再入围金钟奖 希望龙劭华拿奖",
"descSummary" : "",
"url" : "http:\/\/go.rss.sina.com.cn\/redirect.php?url=http:\/\/slide.ent.sina.com.cn\/tv\/slide_4_704_67702.html",
"pubDate" : "2013年10月19日 (1周前)",
"enterDate" : "384201:11:22",
"channelId" : "-3255423793322553992",
"channelName" : "娱乐要闻汇总-新浪娱乐",
"channelNameSummary" : "娱乐要闻汇总-新浪娱...",
"channelUrl" : "http:\/\/news.sina.com.cn\/news1000\/index.shtml?requestOrder=5",
"author" : "WWW.SINA.COM.CN",
"tags" : [],
"desc" : "",
"emailed" : False,
"forwarded" : False,
"english" : False
}  , {
"index" : 17,
"articleIndex" : "253577",
"favor" :  False ,
     "read" : False,    
"title" : "米兰达时尚甜美 萌子调皮指狗仔镜头(图)",
"titleTip" : "米兰达时尚甜美 萌子调皮指狗仔镜头(图)",
"titleSummary" : "米兰达时尚甜美 萌子调皮指狗仔镜头(图)",
"descSummary" : "",
"url" : "http:\/\/go.rss.sina.com.cn\/redirect.php?url=http:\/\/slide.ent.sina.com.cn\/star\/slide_4_704_67698.html",
"pubDate" : "2013年10月19日 (1周前)",
"enterDate" : "384200:50:16",
"channelId" : "-3255423793322553992",
"channelName" : "娱乐要闻汇总-新浪娱乐",
"channelNameSummary" : "娱乐要闻汇总-新浪娱...",
"channelUrl" : "http:\/\/news.sina.com.cn\/news1000\/index.shtml?requestOrder=5",
"author" : "WWW.SINA.COM.CN",
"tags" : [],
"desc" : "",
"emailed" : False,
"forwarded" : False,
"english" : False
}  , {
"index" : 18,
"articleIndex" : "253576",
"favor" :  False ,
     "read" : False,    
"title" : "奥黛丽塔图降京城 与郭富城对饮微笑(图)",
"titleTip" : "奥黛丽塔图降京城 与郭富城对饮微笑(图)",
"titleSummary" : "奥黛丽塔图降京城 与郭富城对饮微笑(图)",
"descSummary" : "对饮",
"url" : "http:\/\/go.rss.sina.com.cn\/redirect.php?url=http:\/\/slide.ent.sina.com.cn\/star\/slide_4_704_67699.html",
"pubDate" : "2013年10月19日 (1周前)",
"enterDate" : "384200:48:28",
"channelId" : "-3255423793322553992",
"channelName" : "娱乐要闻汇总-新浪娱乐",
"channelNameSummary" : "娱乐要闻汇总-新浪娱...",
"channelUrl" : "http:\/\/news.sina.com.cn\/news1000\/index.shtml?requestOrder=5",
"author" : "WWW.SINA.COM.CN",
"tags" : [],
"desc" : "对饮",
"emailed" : False,
"forwarded" : False,
"english" : False
}  , {
"index" : 19,
"articleIndex" : "253575",
"favor" :  False ,
     "read" : False,    
"title" : "组图：杜汶泽为公益而裸 以宣传板遮挡",
"titleTip" : "组图：杜汶泽为公益而裸 以宣传板遮挡",
"titleSummary" : "组图：杜汶泽为公益而裸 以宣传板遮挡",
"descSummary" : "以宣传板遮挡",
"url" : "http:\/\/go.rss.sina.com.cn\/redirect.php?url=http:\/\/slide.ent.sina.com.cn\/star\/slide_4_704_67697.html",
"pubDate" : "2013年10月19日 (1周前)",
"enterDate" : "384201:10:42",
"channelId" : "-3255423793322553992",
"channelName" : "娱乐要闻汇总-新浪娱乐",
"channelNameSummary" : "娱乐要闻汇总-新浪娱...",
"channelUrl" : "http:\/\/news.sina.com.cn\/news1000\/index.shtml?requestOrder=5",
"author" : "WWW.SINA.COM.CN",
"tags" : [],
"desc" : "以宣传板遮挡",
"emailed" : False,
"forwarded" : False,
"english" : False
} ]
}
