{
"mode" : {"viewTitle" : 1,   "viewNew" : 0,  "pageIndex" : 1 },
 "channel" : {"id" : "4813808927905745642", "booked" : False, "subNumber" : 1, "name" : "人文历史排行榜-新浪读书", "url" : "http:\/\/book.sina.com.cn\/history\/", "feed" : "http:\/\/rss.sina.com.cn\/book\/history_rank.xml", "author" : "WWW.SINA.COM.CN", "desc" : "人文历史排行榜", "imageUrl" : "http:\/\/www.sinaimg.cn\/book\/deco\/2010\/0826\/logo_v3.gif", "postPerWeek" : "0", "lastCrawTime" : "17:08:15", "crawDateTime" : "昨天00:04:10", "lastHttpCode" : "304"}, "page" : {
"startIndex" : 0,
"totalCount" : 686,
"pageIndex" : 1,
"lastPage" : 35,
"pageSize" : 20,
"english" :  False },
 "unreadNum" : 0, "shotIndex" : -1,
"articles" : [
{
"index" : 0,
"articleIndex" : "683",
"favor" :  False ,
     "read" : False,    
"title" : "爱新觉罗・恒懿亲述晚清秘事：我的皇室家族",
"titleTip" : "爱新觉罗・恒懿亲述晚清秘事：我的皇室家族",
"titleSummary" : "爱新觉罗・恒懿亲述晚清秘事：我的皇室家族",
"descSummary" : "最终客死他乡。其子傅y被废为平民，一生贫困潦倒\u2026\u2026从...",
"url" : "http:\/\/go.rss.sina.com.cn\/redirect.php?url=http:\/\/vip.book.sina.com.cn\/book\/index_249991.html",
"pubDate" : "2013年10月25日 (5天前)",
"enterDate" : "384146:31:42",
"channelId" : "4813808927905745642",
"channelName" : "人文历史排行榜-新浪读书",
"channelNameSummary" : "人文历史排行榜-新浪...",
"channelUrl" : "http:\/\/book.sina.com.cn\/history\/",
"author" : "WWW.SINA.COM.CN",
"tags" : [],
"desc" : "最终客死他乡。其子傅y被废为平民，一生贫困潦倒\u2026\u2026从上世纪90年代开始，爱新觉罗・恒懿历经艰辛寻访史料，走访家族长辈，历时十三年，终于完成了这部五十余万字的鸿篇巨著...",
"emailed" : False,
"forwarded" : False,
"english" : False
}  , {
"index" : 1,
"articleIndex" : "682",
"favor" :  False ,
     "read" : False,    
"title" : "李宗仁文革期间生死之恋：风雨黄昏",
"titleTip" : "李宗仁文革期间生死之恋：风雨黄昏",
"titleSummary" : "李宗仁文革期间生死之恋：风雨黄昏",
"descSummary" : "1966年3月，李宗仁先生的夫人郭德洁女士因病去世后，一位年仅2...",
"url" : "http:\/\/go.rss.sina.com.cn\/redirect.php?url=http:\/\/vip.book.sina.com.cn\/book\/index_249617.html",
"pubDate" : "2013年10月21日 (1周前)",
"enterDate" : "384194:13:00",
"channelId" : "4813808927905745642",
"channelName" : "人文历史排行榜-新浪读书",
"channelNameSummary" : "人文历史排行榜-新浪...",
"channelUrl" : "http:\/\/book.sina.com.cn\/history\/",
"author" : "WWW.SINA.COM.CN",
"tags" : [],
"desc" : "1966年3月，李宗仁先生的夫人郭德洁女士因病去世后，一位年仅27岁的护士毅然与李宗仁先生结为伉俪。75岁的李宗仁，于是开始了他生命最后三年的不寻常的新生活。胡友松孤儿出身，经历...",
"emailed" : False,
"forwarded" : False,
"english" : False
}  , {
"index" : 2,
"articleIndex" : "685",
"favor" :  False ,
     "read" : False,    
"title" : "一代政治家的奋斗传奇：习仲勋传",
"titleTip" : "一代政治家的奋斗传奇：习仲勋传",
"titleSummary" : "一代政治家的奋斗传奇：习仲勋传",
"descSummary" : "年仅20岁的习仲勋为何被陕甘边区的人民称为\u201C群众领袖\u201D？在抗日...",
"url" : "http:\/\/go.rss.sina.com.cn\/redirect.php?url=http:\/\/vip.book.sina.com.cn\/book\/index_249466.html",
"pubDate" : "2013年10月21日 (1周前)",
"enterDate" : "384001:24:54",
"channelId" : "4813808927905745642",
"channelName" : "人文历史排行榜-新浪读书",
"channelNameSummary" : "人文历史排行榜-新浪...",
"channelUrl" : "http:\/\/book.sina.com.cn\/history\/",
"author" : "WWW.SINA.COM.CN",
"tags" : [],
"desc" : "年仅20岁的习仲勋为何被陕甘边区的人民称为\u201C群众领袖\u201D？在抗日战争和解放战争时期习仲勋是如何独当一面、如何协助贺龙、彭德怀等为保卫陕甘宁边区、保卫延安、解放大西北而浴血...",
"emailed" : False,
"forwarded" : False,
"english" : False
}  , {
"index" : 3,
"articleIndex" : "681",
"favor" :  False ,
     "read" : False,    
"title" : "蒋介石大溃败：小米加步枪",
"titleTip" : "蒋介石大溃败：小米加步枪",
"titleSummary" : "蒋介石大溃败：小米加步枪",
"descSummary" : "抗日战争胜利后，骄狂的蒋介石仗着手中450万军队和当时美国援助的世界一...",
"url" : "http:\/\/go.rss.sina.com.cn\/redirect.php?url=http:\/\/vip.book.sina.com.cn\/book\/index_235353.html",
"pubDate" : "2013年10月12日 (2周前)",
"enterDate" : "384194:56:36",
"channelId" : "4813808927905745642",
"channelName" : "人文历史排行榜-新浪读书",
"channelNameSummary" : "人文历史排行榜-新浪...",
"channelUrl" : "http:\/\/book.sina.com.cn\/history\/",
"author" : "WWW.SINA.COM.CN",
"tags" : [],
"desc" : "抗日战争胜利后，骄狂的蒋介石仗着手中450万军队和当时美国援助的世界一流的武器装备及大把美金，根本不把只有120万军队只靠小米加步枪生存的共产党放在眼里。他悍然挑起战争...",
"emailed" : False,
"forwarded" : False,
"english" : False
}  , {
"index" : 4,
"articleIndex" : "680",
"favor" :  False ,
     "read" : False,    
"title" : "军二代女色迷途：北京重案庭审实录",
"titleTip" : "军二代女色迷途：北京重案庭审实录",
"titleSummary" : "军二代女色迷途：北京重案庭审实录",
"descSummary" : "常态的生活和非常态的生活总是共生的，总是在制约着我们的生活关...",
"url" : "http:\/\/go.rss.sina.com.cn\/redirect.php?url=http:\/\/vip.book.sina.com.cn\/book\/index_248081.html",
"pubDate" : "2013年10月2日 (4周前)",
"enterDate" : "384176:06:13",
"channelId" : "4813808927905745642",
"channelName" : "人文历史排行榜-新浪读书",
"channelNameSummary" : "人文历史排行榜-新浪...",
"channelUrl" : "http:\/\/book.sina.com.cn\/history\/",
"author" : "WWW.SINA.COM.CN",
"tags" : [],
"desc" : "常态的生活和非常态的生活总是共生的，总是在制约着我们的生活关系、生活质量和生活进步。...",
"emailed" : False,
"forwarded" : False,
"english" : False
}  , {
"index" : 5,
"articleIndex" : "677",
"favor" :  False ,
     "read" : False,    
"title" : "穷奢极欲的女性犯罪纪实：北京要案",
"titleTip" : "穷奢极欲的女性犯罪纪实：北京要案",
"titleSummary" : "穷奢极欲的女性犯罪纪实：北京要案",
"descSummary" : "任何一个案件都不是偶然的，把他们放在时代的大背景上参照他们就...",
"url" : "http:\/\/go.rss.sina.com.cn\/redirect.php?url=http:\/\/vip.book.sina.com.cn\/book\/index_247824.html",
"pubDate" : "2013年9月26日",
"enterDate" : "384195:33:47",
"channelId" : "4813808927905745642",
"channelName" : "人文历史排行榜-新浪读书",
"channelNameSummary" : "人文历史排行榜-新浪...",
"channelUrl" : "http:\/\/book.sina.com.cn\/history\/",
"author" : "WWW.SINA.COM.CN",
"tags" : [],
"desc" : "任何一个案件都不是偶然的，把他们放在时代的大背景上参照他们就是时代发展中的一个印记，他们是有时代烙印的，我记下了他们的犯罪和心灵轨迹，也看到了形形色色的人生。",
"emailed" : False,
"forwarded" : False,
"english" : False
}  , {
"index" : 6,
"articleIndex" : "678",
"favor" :  False ,
     "read" : False,    
"title" : "冯小刚新作犀利吐槽：不省心",
"titleTip" : "冯小刚新作犀利吐槽：不省心",
"titleSummary" : "冯小刚新作犀利吐槽：不省心",
"descSummary" : "不省心》一书为2014央视春晚总导演冯小刚的最新随笔集，全书分为八章...",
"url" : "http:\/\/go.rss.sina.com.cn\/redirect.php?url=http:\/\/vip.book.sina.com.cn\/book\/index_247686.html",
"pubDate" : "2013年9月24日",
"enterDate" : "384059:08:35",
"channelId" : "4813808927905745642",
"channelName" : "人文历史排行榜-新浪读书",
"channelNameSummary" : "人文历史排行榜-新浪...",
"channelUrl" : "http:\/\/book.sina.com.cn\/history\/",
"author" : "WWW.SINA.COM.CN",
"tags" : [],
"desc" : "不省心》一书为2014央视春晚总导演冯小刚的最新随笔集，全书分为八章，既有讲述电影拍摄时不为人知的内幕故事，也有他对家人和好友的真情描述，更有冯导对热点时事的酷辣点评...",
"emailed" : False,
"forwarded" : False,
"english" : False
}  , {
"index" : 7,
"articleIndex" : "676",
"favor" :  False ,
     "read" : False,    
"title" : "六六笑对十年血泪史：女不强大天不容",
"titleTip" : "六六笑对十年血泪史：女不强大天不容",
"titleSummary" : "六六笑对十年血泪史：女不强大天不容",
"descSummary" : "回顾过去为夫为子为父母奋斗的十几年血泪史，坐看今天手持上海...",
"url" : "http:\/\/go.rss.sina.com.cn\/redirect.php?url=http:\/\/vip.book.sina.com.cn\/book\/index_247347.html",
"pubDate" : "2013年9月19日",
"enterDate" : "384102:27:50",
"channelId" : "4813808927905745642",
"channelName" : "人文历史排行榜-新浪读书",
"channelNameSummary" : "人文历史排行榜-新浪...",
"channelUrl" : "http:\/\/book.sina.com.cn\/history\/",
"author" : "WWW.SINA.COM.CN",
"tags" : [],
"desc" : "回顾过去为夫为子为父母奋斗的十几年血泪史，坐看今天手持上海绿卡、收入翻30倍、考入中欧商学院进修的成就，六六没有抱怨和愤怒，而是感激岁月把自己酿成了一杯红酒。她把自己...",
"emailed" : False,
"forwarded" : False,
"english" : False
}  , {
"index" : 8,
"articleIndex" : "675",
"favor" :  False ,
     "read" : False,    
"title" : "一介文臣变身湘军统帅：大象无形曾国藩",
"titleTip" : "一介文臣变身湘军统帅：大象无形曾国藩",
"titleSummary" : "一介文臣变身湘军统帅：大象无形曾国藩",
"descSummary" : "内容以曾国藩的人生转折和心路历程为主线，穿插了时代背景、...",
"url" : "http:\/\/go.rss.sina.com.cn\/redirect.php?url=http:\/\/vip.book.sina.com.cn\/book\/index_244992.html",
"pubDate" : "2013年8月22日",
"enterDate" : "383599:35:37",
"channelId" : "4813808927905745642",
"channelName" : "人文历史排行榜-新浪读书",
"channelNameSummary" : "人文历史排行榜-新浪...",
"channelUrl" : "http:\/\/book.sina.com.cn\/history\/",
"author" : "WWW.SINA.COM.CN",
"tags" : [],
"desc" : "内容以曾国藩的人生转折和心路历程为主线，穿插了时代背景、清廷决策变化、官场势力折冲博弈、满汉大员复杂关系，以及曾国藩如何结识、笼络一干人才为己所用等一系列引人入胜的史...",
"emailed" : False,
"forwarded" : False,
"english" : False
}  , {
"index" : 9,
"articleIndex" : "671",
"favor" :  False ,
     "read" : False,    
"title" : "经商就学胡雪岩",
"titleTip" : "经商就学胡雪岩",
"titleSummary" : "经商就学胡雪岩",
"descSummary" : "胡雪岩是一个商业的传奇，一个最不想当官的人却在官商界游刃有余，并做到了富可敌国...",
"url" : "http:\/\/go.rss.sina.com.cn\/redirect.php?url=http:\/\/vip.book.sina.com.cn\/book\/index_237002.html",
"pubDate" : "2013年5月21日",
"enterDate" : "381681:10:01",
"channelId" : "4813808927905745642",
"channelName" : "人文历史排行榜-新浪读书",
"channelNameSummary" : "人文历史排行榜-新浪...",
"channelUrl" : "http:\/\/book.sina.com.cn\/history\/",
"author" : "WWW.SINA.COM.CN",
"tags" : [],
"desc" : "胡雪岩是一个商业的传奇，一个最不想当官的人却在官商界游刃有余，并做到了富可敌国，朝廷倚重，简直就是一个贫民窟里出来的亿万富豪的经典神话。他的人生如何起步的？他怎么经商...",
"emailed" : False,
"forwarded" : False,
"english" : False
}  , {
"index" : 10,
"articleIndex" : "670",
"favor" :  False ,
     "read" : False,    
"title" : "三十年海军司令萧劲光",
"titleTip" : "三十年海军司令萧劲光",
"titleSummary" : "三十年海军司令萧劲光",
"descSummary" : "萧劲光两度赴苏求学，是我军早期为数不多的有文化的高级将领，被毛泽东赞为\u201C...",
"url" : "http:\/\/go.rss.sina.com.cn\/redirect.php?url=http:\/\/vip.book.sina.com.cn\/book\/index_230219.html",
"pubDate" : "2013年3月1日",
"enterDate" : "379779:54:48",
"channelId" : "4813808927905745642",
"channelName" : "人文历史排行榜-新浪读书",
"channelNameSummary" : "人文历史排行榜-新浪...",
"channelUrl" : "http:\/\/book.sina.com.cn\/history\/",
"author" : "WWW.SINA.COM.CN",
"tags" : [],
"desc" : "萧劲光两度赴苏求学，是我军早期为数不多的有文化的高级将领，被毛泽东赞为\u201C大知识分子\u201D；红军时期，莫须有的罪名曾让他险些命丧黄泉；东北战场，三下江南四保临江，兵不血刃克...",
"emailed" : False,
"forwarded" : False,
"english" : False
}  , {
"index" : 11,
"articleIndex" : "684",
"favor" :  False ,
     "read" : False,    
"title" : "谍战，在龙潭虎穴",
"titleTip" : "谍战，在龙潭虎穴",
"titleSummary" : "谍战，在龙潭虎穴",
"descSummary" : "他们工作的地点是敌特首脑机关、中枢系统，他们的真实身份是中共高级特工，中统、...",
"url" : "http:\/\/go.rss.sina.com.cn\/redirect.php?url=http:\/\/vip.book.sina.com.cn\/book\/index_229614.html",
"pubDate" : "2013年2月23日",
"enterDate" : "378230:42:55",
"channelId" : "4813808927905745642",
"channelName" : "人文历史排行榜-新浪读书",
"channelNameSummary" : "人文历史排行榜-新浪...",
"channelUrl" : "http:\/\/book.sina.com.cn\/history\/",
"author" : "WWW.SINA.COM.CN",
"tags" : [],
"desc" : "他们工作的地点是敌特首脑机关、中枢系统，他们的真实身份是中共高级特工，中统、军统、汪伪76号，个个令人毛骨悚然的魔窟，破密电，除叛徒，保卫中共领导人，传递绝密情报，凭借超...",
"emailed" : False,
"forwarded" : False,
"english" : False
}  , {
"index" : 12,
"articleIndex" : "669",
"favor" :  False ,
     "read" : False,    
"title" : "明朝那些事儿",
"titleTip" : "明朝那些事儿",
"titleSummary" : "明朝那些事儿",
"descSummary" : "以史料为基础，以年代和具体人物为主线，并加入了小说的笔法，对明朝十七帝和其他王公...",
"url" : "http:\/\/go.rss.sina.com.cn\/redirect.php?url=http:\/\/vip.book.sina.com.cn\/book\/index_166563.html",
"pubDate" : "2012年12月4日",
"enterDate" : "377696:41:19",
"channelId" : "4813808927905745642",
"channelName" : "人文历史排行榜-新浪读书",
"channelNameSummary" : "人文历史排行榜-新浪...",
"channelUrl" : "http:\/\/book.sina.com.cn\/history\/",
"author" : "WWW.SINA.COM.CN",
"tags" : [],
"desc" : "以史料为基础，以年代和具体人物为主线，并加入了小说的笔法，对明朝十七帝和其他王公权贵和小人物的命运进行全景展示，尤其对官场政治、战争、帝王心术着墨最多，并加入对当时政...",
"emailed" : False,
"forwarded" : False,
"english" : False
}  , {
"index" : 13,
"articleIndex" : "679",
"favor" :  False ,
     "read" : False,    
"title" : "娜么快乐",
"titleTip" : "娜么快乐",
"titleSummary" : "娜么快乐",
"descSummary" : "以此来让读者能够轻松读懂一个乐观向上、真实简单的知性女强人。让读者看到一个不一样的谢...",
"url" : "http:\/\/go.rss.sina.com.cn\/redirect.php?url=http:\/\/vip.book.sina.com.cn\/book\/index_207372.html",
"pubDate" : "2012年11月8日",
"enterDate" : "376323:05:08",
"channelId" : "4813808927905745642",
"channelName" : "人文历史排行榜-新浪读书",
"channelNameSummary" : "人文历史排行榜-新浪...",
"channelUrl" : "http:\/\/book.sina.com.cn\/history\/",
"author" : "WWW.SINA.COM.CN",
"tags" : [],
"desc" : "以此来让读者能够轻松读懂一个乐观向上、真实简单的知性女强人。让读者看到一个不一样的谢娜，她坚强、勇敢、善良，并用自己的方式延续着快乐。...",
"emailed" : False,
"forwarded" : False,
"english" : False
}  , {
"index" : 14,
"articleIndex" : "672",
"favor" :  False ,
     "read" : False,    
"title" : "西岭雪探秘红楼梦",
"titleTip" : "西岭雪探秘红楼梦",
"titleSummary" : "西岭雪探秘红楼梦",
"descSummary" : "素有民间\u201C红学\u201D研究第一女性之称的西岭雪，以她那精致敏锐的灵性笔触为我们探秘...",
"url" : "http:\/\/go.rss.sina.com.cn\/redirect.php?url=http:\/\/vip.book.sina.com.cn\/book\/index_130858.html",
"pubDate" : "2012年4月28日",
"enterDate" : "372346:15:06",
"channelId" : "4813808927905745642",
"channelName" : "人文历史排行榜-新浪读书",
"channelNameSummary" : "人文历史排行榜-新浪...",
"channelUrl" : "http:\/\/book.sina.com.cn\/history\/",
"author" : "WWW.SINA.COM.CN",
"tags" : [],
"desc" : "素有民间\u201C红学\u201D研究第一女性之称的西岭雪，以她那精致敏锐的灵性笔触为我们探秘\u201C红楼36钗\u201D人物，凭吊\u201C红楼梦中人\u201D的一场绝世宿命。本书由新版电视剧《红楼梦》制片人李小婉女...",
"emailed" : False,
"forwarded" : False,
"english" : False
}  , {
"index" : 15,
"articleIndex" : "673",
"favor" :  False ,
     "read" : False,    
"title" : "\u201C九一三\u201D事件考证",
"titleTip" : "\u201C九一三\u201D事件考证",
"titleSummary" : "\u201C九一三\u201D事件考证",
"descSummary" : "\u201C九一三\u201D事件之前，毛泽东在党内遇到挑战，他需要林彪的鼎力支持；林彪在党内...",
"url" : "http:\/\/go.rss.sina.com.cn\/redirect.php?url=http:\/\/vip.book.sina.com.cn\/book\/index_190654.html",
"pubDate" : "2012年1月5日",
"enterDate" : "369413:44:50",
"channelId" : "4813808927905745642",
"channelName" : "人文历史排行榜-新浪读书",
"channelNameSummary" : "人文历史排行榜-新浪...",
"channelUrl" : "http:\/\/book.sina.com.cn\/history\/",
"author" : "WWW.SINA.COM.CN",
"tags" : [],
"desc" : "\u201C九一三\u201D事件之前，毛泽东在党内遇到挑战，他需要林彪的鼎力支持；林彪在党内受到抵制，他更需要毛泽东做他的强大后盾。林彪关于\u201C政变\u201D的讲话令毛泽东感到某种程度的担心和忧...",
"emailed" : False,
"forwarded" : False,
"english" : False
}  , {
"index" : 16,
"articleIndex" : "668",
"favor" :  False ,
     "read" : False,    
"title" : "不可不知的世界5000年可怕巧合",
"titleTip" : "不可不知的世界5000年可怕巧合",
"titleSummary" : "不可不知的世界5000年可怕巧合",
"descSummary" : "不可不知的世界5000年可怕巧合》主要内容简介：在我们生活的星球上...",
"url" : "http:\/\/go.rss.sina.com.cn\/redirect.php?url=http:\/\/vip.book.sina.com.cn\/book\/index_129772.html",
"pubDate" : "2011年10月26日",
"enterDate" : "367977:14:46",
"channelId" : "4813808927905745642",
"channelName" : "人文历史排行榜-新浪读书",
"channelNameSummary" : "人文历史排行榜-新浪...",
"channelUrl" : "http:\/\/book.sina.com.cn\/history\/",
"author" : "WWW.SINA.COM.CN",
"tags" : [],
"desc" : "不可不知的世界5000年可怕巧合》主要内容简介：在我们生活的星球上，有太多诡异的现象让人无法解释，有太多匪夷所思的巧合引入深思，因为它们的神奇完全超出我们的想象和认知。比如...",
"emailed" : False,
"forwarded" : False,
"english" : False
}  , {
"index" : 17,
"articleIndex" : "667",
"favor" :  False ,
     "read" : False,    
"title" : "随遇而安",
"titleTip" : "随遇而安",
"titleSummary" : "随遇而安",
"descSummary" : "童年重庆、少年南京，不同的文化对他影响深远。中学时代的严重偏科，黑暗得让他看不到未来...",
"url" : "http:\/\/go.rss.sina.com.cn\/redirect.php?url=http:\/\/vip.book.sina.com.cn\/book\/index_182361.html",
"pubDate" : "2011年10月12日",
"enterDate" : "367638:43:04",
"channelId" : "4813808927905745642",
"channelName" : "人文历史排行榜-新浪读书",
"channelNameSummary" : "人文历史排行榜-新浪...",
"channelUrl" : "http:\/\/book.sina.com.cn\/history\/",
"author" : "WWW.SINA.COM.CN",
"tags" : [],
"desc" : "童年重庆、少年南京，不同的文化对他影响深远。中学时代的严重偏科，黑暗得让他看不到未来。临时工的日子辛酸艰苦，却奠定了他往后的不平凡。他从摄像、记者、编导、制片人、主持...",
"emailed" : False,
"forwarded" : False,
"english" : False
}  , {
"index" : 18,
"articleIndex" : "666",
"favor" :  False ,
     "read" : False,    
"title" : "日本论",
"titleTip" : "日本论",
"titleSummary" : "日本论",
"descSummary" : "而且能揭开构成一切现象的深层动因。即使在成书80多年后的今天，该书对于中国读者了解日本...",
"url" : "http:\/\/go.rss.sina.com.cn\/redirect.php?url=http:\/\/vip.book.sina.com.cn\/book\/index_176329.html",
"pubDate" : "2011年8月9日",
"enterDate" : "366104:50:25",
"channelId" : "4813808927905745642",
"channelName" : "人文历史排行榜-新浪读书",
"channelNameSummary" : "人文历史排行榜-新浪...",
"channelUrl" : "http:\/\/book.sina.com.cn\/history\/",
"author" : "WWW.SINA.COM.CN",
"tags" : [],
"desc" : "而且能揭开构成一切现象的深层动因。即使在成书80多年后的今天，该书对于中国读者了解日本国情、民族性格及风俗习惯仍有一定的帮助，堪称国人研究日本第一书。本书并由中国社科院...",
"emailed" : False,
"forwarded" : False,
"english" : False
}  , {
"index" : 19,
"articleIndex" : "674",
"favor" :  False ,
     "read" : False,    
"title" : "川岛芳子生死大揭秘",
"titleTip" : "川岛芳子生死大揭秘",
"titleSummary" : "川岛芳子生死大揭秘",
"descSummary" : "却自甘堕落；她，被执行枪决，却奇迹般的\u201C潜伏\u201D了30年\u2026\u2026她就是曾经名噪一...",
"url" : "http:\/\/go.rss.sina.com.cn\/redirect.php?url=http:\/\/vip.book.sina.com.cn\/book\/index_135485.html",
"pubDate" : "2010年7月29日",
"enterDate" : "356715:34:47",
"channelId" : "4813808927905745642",
"channelName" : "人文历史排行榜-新浪读书",
"channelNameSummary" : "人文历史排行榜-新浪...",
"channelUrl" : "http:\/\/book.sina.com.cn\/history\/",
"author" : "WWW.SINA.COM.CN",
"tags" : [],
"desc" : "却自甘堕落；她，被执行枪决，却奇迹般的\u201C潜伏\u201D了30年\u2026\u2026她就是曾经名噪一时、蜚声海外的男装丽人、一代谍后的川岛芳子。而关于她众多传闻中最为人关注的是她的生死之谜。本...",
"emailed" : False,
"forwarded" : False,
"english" : False
} ]
}
