{
"mode" : {"viewTitle" : 1,   "viewNew" : 0,  "pageIndex" : 2 },
 "channel" : {"id" : "4813808927905745642", "booked" : False, "subNumber" : 1, "name" : "人文历史排行榜-新浪读书", "url" : "http:\/\/book.sina.com.cn\/history\/", "feed" : "http:\/\/rss.sina.com.cn\/book\/history_rank.xml", "author" : "WWW.SINA.COM.CN", "desc" : "人文历史排行榜", "imageUrl" : "http:\/\/www.sinaimg.cn\/book\/deco\/2010\/0826\/logo_v3.gif", "postPerWeek" : "0", "lastCrawTime" : "17:08:15", "crawDateTime" : "昨天00:04:10", "lastHttpCode" : "304"}, "page" : {
"startIndex" : 20,
"totalCount" : 686,
"pageIndex" : 2,
"lastPage" : 35,
"pageSize" : 20,
"english" :  False },
 "unreadNum" : 0, "shotIndex" : -1,
"articles" : [
{
"index" : 0,
"articleIndex" : "662",
"favor" :  False ,
     "read" : False,    
"title" : "解读明清百年宫闱秘史：大故宫3",
"titleTip" : "解读明清百年宫闱秘史：大故宫3",
"titleSummary" : "解读明清百年宫闱秘史：大故宫3",
"descSummary" : "第三册还走出紫禁城，带您进入三山五园、避暑山庄、沈阳故宫、台北故...",
"url" : "http:\/\/go.rss.sina.com.cn\/redirect.php?url=http:\/\/vip.book.sina.com.cn\/book\/index_222611.html",
"pubDate" : "2013年8月16日",
"enterDate" : "384107:32:35",
"channelId" : "4813808927905745642",
"channelName" : "人文历史排行榜-新浪读书",
"channelNameSummary" : "人文历史排行榜-新浪...",
"channelUrl" : "http:\/\/book.sina.com.cn\/history\/",
"author" : "WWW.SINA.COM.CN",
"tags" : [],
"desc" : "第三册还走出紫禁城，带您进入三山五园、避暑山庄、沈阳故宫、台北故宫博物院等，六百年来首次全景呈现\u201C大故宫\u201D。...",
"emailed" : False,
"forwarded" : False,
"english" : False
}  , {
"index" : 1,
"articleIndex" : "661",
"favor" :  False ,
     "read" : False,    
"title" : "中国第一霸",
"titleTip" : "中国第一霸",
"titleSummary" : "中国第一霸",
"descSummary" : "就政治、经济、军事而言，在七十多个诸侯中，齐桓公并不出类拔萃。他用财无度，好酒，好...",
"url" : "http:\/\/go.rss.sina.com.cn\/redirect.php?url=http:\/\/vip.book.sina.com.cn\/book\/index_243667.html",
"pubDate" : "2013年8月9日",
"enterDate" : "384171:29:23",
"channelId" : "4813808927905745642",
"channelName" : "人文历史排行榜-新浪读书",
"channelNameSummary" : "人文历史排行榜-新浪...",
"channelUrl" : "http:\/\/book.sina.com.cn\/history\/",
"author" : "WWW.SINA.COM.CN",
"tags" : [],
"desc" : "就政治、经济、军事而言，在七十多个诸侯中，齐桓公并不出类拔萃。他用财无度，好酒，好猎，好女人。然而他有一最大优点：爱惜人才。哪怕是自己的仇人，一旦认准了，破格提拔，委...",
"emailed" : False,
"forwarded" : False,
"english" : False
}  , {
"index" : 2,
"articleIndex" : "658",
"favor" :  False ,
     "read" : False,    
"title" : "清朝野史大观（全三册）",
"titleTip" : "清朝野史大观（全三册）",
"titleSummary" : "清朝野史大观（全三册）",
"descSummary" : "我国自古以来，稗官野史就十分发达。虽不为正人君子著流青睐，却也能与正史...",
"url" : "http:\/\/go.rss.sina.com.cn\/redirect.php?url=http:\/\/vip.book.sina.com.cn\/book\/index_242772.html",
"pubDate" : "2013年7月31日",
"enterDate" : "384127:30:07",
"channelId" : "4813808927905745642",
"channelName" : "人文历史排行榜-新浪读书",
"channelNameSummary" : "人文历史排行榜-新浪...",
"channelUrl" : "http:\/\/book.sina.com.cn\/history\/",
"author" : "WWW.SINA.COM.CN",
"tags" : [],
"desc" : "我国自古以来，稗官野史就十分发达。虽不为正人君子著流青睐，却也能与正史并行不悖，原因就在于它保存了丰富、真切的社会生活史料。这些史料虽不无失实乃至荒诞之处，但它的鲜活...",
"emailed" : False,
"forwarded" : False,
"english" : False
}  , {
"index" : 3,
"articleIndex" : "657",
"favor" :  False ,
     "read" : False,    
"title" : "圣人请卸妆",
"titleTip" : "圣人请卸妆",
"titleSummary" : "圣人请卸妆",
"descSummary" : "让古人们卸了妆，不再饰演悬在空中的文化符号或政治图腾，而是回归人性，展露出各种款式...",
"url" : "http:\/\/go.rss.sina.com.cn\/redirect.php?url=http:\/\/vip.book.sina.com.cn\/book\/index_242047.html",
"pubDate" : "2013年7月24日",
"enterDate" : "384004:57:35",
"channelId" : "4813808927905745642",
"channelName" : "人文历史排行榜-新浪读书",
"channelNameSummary" : "人文历史排行榜-新浪...",
"channelUrl" : "http:\/\/book.sina.com.cn\/history\/",
"author" : "WWW.SINA.COM.CN",
"tags" : [],
"desc" : "让古人们卸了妆，不再饰演悬在空中的文化符号或政治图腾，而是回归人性，展露出各种款式的人格分裂来。一个诗意盎然的流氓、一个一往情深的泡妞专家、一个宅心仁厚的嫖客、一个精...",
"emailed" : False,
"forwarded" : False,
"english" : False
}  , {
"index" : 4,
"articleIndex" : "653",
"favor" :  False ,
     "read" : False,    
"title" : "毛泽东正值神州有事时",
"titleTip" : "毛泽东正值神州有事时",
"titleSummary" : "毛泽东正值神州有事时",
"descSummary" : "这是过去从未有过的。它不单单为读者还原了浩劫中最为动荡的年代，更在展开细...",
"url" : "http:\/\/go.rss.sina.com.cn\/redirect.php?url=http:\/\/vip.book.sina.com.cn\/book\/index_241940.html",
"pubDate" : "2013年7月23日",
"enterDate" : "384128:36:27",
"channelId" : "4813808927905745642",
"channelName" : "人文历史排行榜-新浪读书",
"channelNameSummary" : "人文历史排行榜-新浪...",
"channelUrl" : "http:\/\/book.sina.com.cn\/history\/",
"author" : "WWW.SINA.COM.CN",
"tags" : [],
"desc" : "这是过去从未有过的。它不单单为读者还原了浩劫中最为动荡的年代，更在展开细节的同时，悄无声息地用理性客观的方式，解析了历史表象背后潜藏的深层矛盾和动因；既不文过饰非，也...",
"emailed" : False,
"forwarded" : False,
"english" : False
}  , {
"index" : 5,
"articleIndex" : "652",
"favor" :  False ,
     "read" : False,    
"title" : "皇后的隐历史",
"titleTip" : "皇后的隐历史",
"titleSummary" : "皇后的隐历史",
"descSummary" : "《皇后隐历史》即由风月讲历史，以其生动厚实的文笔，浓墨重彩地叙述了中国古代16位...",
"url" : "http:\/\/go.rss.sina.com.cn\/redirect.php?url=http:\/\/vip.book.sina.com.cn\/book\/index_241781.html",
"pubDate" : "2013年7月22日",
"enterDate" : "384123:06:22",
"channelId" : "4813808927905745642",
"channelName" : "人文历史排行榜-新浪读书",
"channelNameSummary" : "人文历史排行榜-新浪...",
"channelUrl" : "http:\/\/book.sina.com.cn\/history\/",
"author" : "WWW.SINA.COM.CN",
"tags" : [],
"desc" : "《皇后隐历史》即由风月讲历史，以其生动厚实的文笔，浓墨重彩地叙述了中国古代16位皇后、后妃复杂而混乱的感情生活和多舛的命运际遇。按说，在九重天隔、戒备森严的皇宫内院，皇后...",
"emailed" : False,
"forwarded" : False,
"english" : False
}  , {
"index" : 6,
"articleIndex" : "651",
"favor" :  False ,
     "read" : False,    
"title" : "大国尊严",
"titleTip" : "大国尊严",
"titleSummary" : "大国尊严",
"descSummary" : "是一个有地位的大国，当今的中国人在世界上活得有尊严。追根溯源，这大国尊严是从1950年...",
"url" : "http:\/\/go.rss.sina.com.cn\/redirect.php?url=http:\/\/vip.book.sina.com.cn\/book\/index_241551.html",
"pubDate" : "2013年7月19日",
"enterDate" : "384051:29:46",
"channelId" : "4813808927905745642",
"channelName" : "人文历史排行榜-新浪读书",
"channelNameSummary" : "人文历史排行榜-新浪...",
"channelUrl" : "http:\/\/book.sina.com.cn\/history\/",
"author" : "WWW.SINA.COM.CN",
"tags" : [],
"desc" : "是一个有地位的大国，当今的中国人在世界上活得有尊严。追根溯源，这大国尊严是从1950年的抗美援朝争来的，完全可以说，抗美援朝是中华人民共和国的开国之战。它打出了尊严，打出了...",
"emailed" : False,
"forwarded" : False,
"english" : False
}  , {
"index" : 7,
"articleIndex" : "650",
"favor" :  False ,
     "read" : False,    
"title" : "第一野战军",
"titleTip" : "第一野战军",
"titleSummary" : "第一野战军",
"descSummary" : "第一野战军在彭德怀、王震、杨得志、许光达等虎将的指挥下，在陕西、甘肃、宁夏经历九大...",
"url" : "http:\/\/go.rss.sina.com.cn\/redirect.php?url=http:\/\/vip.book.sina.com.cn\/book\/index_241025.html",
"pubDate" : "2013年7月16日",
"enterDate" : "384170:29:06",
"channelId" : "4813808927905745642",
"channelName" : "人文历史排行榜-新浪读书",
"channelNameSummary" : "人文历史排行榜-新浪...",
"channelUrl" : "http:\/\/book.sina.com.cn\/history\/",
"author" : "WWW.SINA.COM.CN",
"tags" : [],
"desc" : "第一野战军在彭德怀、王震、杨得志、许光达等虎将的指挥下，在陕西、甘肃、宁夏经历九大战役，最后解放新疆。以牺牲1.8万人的代价，歼敌51万。...",
"emailed" : False,
"forwarded" : False,
"english" : False
}  , {
"index" : 8,
"articleIndex" : "649",
"favor" :  False ,
     "read" : False,    
"title" : "真相：专机副驾驶亲历9・13事件",
"titleTip" : "真相：专机副驾驶亲历9・13事件",
"titleSummary" : "真相：专机副驾驶亲历9・13事件",
"descSummary" : "更为奇特的是，林彪专机的航迹竟然偏移到蒙古的温都尔汗！身为林彪专...",
"url" : "http:\/\/go.rss.sina.com.cn\/redirect.php?url=http:\/\/vip.book.sina.com.cn\/book\/index_241186.html",
"pubDate" : "2013年7月16日",
"enterDate" : "384150:40:02",
"channelId" : "4813808927905745642",
"channelName" : "人文历史排行榜-新浪读书",
"channelNameSummary" : "人文历史排行榜-新浪...",
"channelUrl" : "http:\/\/book.sina.com.cn\/history\/",
"author" : "WWW.SINA.COM.CN",
"tags" : [],
"desc" : "更为奇特的是，林彪专机的航迹竟然偏移到蒙古的温都尔汗！身为林彪专机第二副驾驶员，\u201C九一三\u201D事件的亲历者，本书作者首次还原了林彪专机的全部活动过程，同时真实披露了林彪专...",
"emailed" : False,
"forwarded" : False,
"english" : False
}  , {
"index" : 9,
"articleIndex" : "656",
"favor" :  False ,
     "read" : False,    
"title" : "差距",
"titleTip" : "差距",
"titleSummary" : "差距",
"descSummary" : "可是，假如按照人均生产效率计算，那么，中国是一个名副其实的弱小国家；假如按照人均国民生产...",
"url" : "http:\/\/go.rss.sina.com.cn\/redirect.php?url=http:\/\/vip.book.sina.com.cn\/book\/index_241205.html",
"pubDate" : "2013年7月15日",
"enterDate" : "383791:52:59",
"channelId" : "4813808927905745642",
"channelName" : "人文历史排行榜-新浪读书",
"channelNameSummary" : "人文历史排行榜-新浪...",
"channelUrl" : "http:\/\/book.sina.com.cn\/history\/",
"author" : "WWW.SINA.COM.CN",
"tags" : [],
"desc" : "可是，假如按照人均生产效率计算，那么，中国是一个名副其实的弱小国家；假如按照人均国民生产总值来计算，中国在世界排名跌落到100位以后。\u201C落后就要挨打\"，这道理现在很多...",
"emailed" : False,
"forwarded" : False,
"english" : False
}  , {
"index" : 10,
"articleIndex" : "648",
"favor" :  False ,
     "read" : False,    
"title" : "第二野战军",
"titleTip" : "第二野战军",
"titleSummary" : "第二野战军",
"descSummary" : "最终成为影响中国命运的一代领袖。二人珠联璧合，从太行山到大别山，从鲁西南到淮海大战...",
"url" : "http:\/\/go.rss.sina.com.cn\/redirect.php?url=http:\/\/vip.book.sina.com.cn\/book\/index_241036.html",
"pubDate" : "2013年7月13日",
"enterDate" : "384155:05:20",
"channelId" : "4813808927905745642",
"channelName" : "人文历史排行榜-新浪读书",
"channelNameSummary" : "人文历史排行榜-新浪...",
"channelUrl" : "http:\/\/book.sina.com.cn\/history\/",
"author" : "WWW.SINA.COM.CN",
"tags" : [],
"desc" : "最终成为影响中国命运的一代领袖。二人珠联璧合，从太行山到大别山，从鲁西南到淮海大战，最后进军西南，登喜马拉雅之颠。以3.7万人的牺牲，歼兵200万，俘虏160万...",
"emailed" : False,
"forwarded" : False,
"english" : False
}  , {
"index" : 11,
"articleIndex" : "654",
"favor" :  False ,
     "read" : False,    
"title" : "中国性研究",
"titleTip" : "中国性研究",
"titleSummary" : "中国性研究",
"descSummary" : "《中国命研究》，李敖认为自己对天地、阴阳、日夜、善恶、贤愚、人鬼等的理解，已经超越...",
"url" : "http:\/\/go.rss.sina.com.cn\/redirect.php?url=http:\/\/vip.book.sina.com.cn\/book\/index_241012.html",
"pubDate" : "2013年7月12日",
"enterDate" : "383791:43:48",
"channelId" : "4813808927905745642",
"channelName" : "人文历史排行榜-新浪读书",
"channelNameSummary" : "人文历史排行榜-新浪...",
"channelUrl" : "http:\/\/book.sina.com.cn\/history\/",
"author" : "WWW.SINA.COM.CN",
"tags" : [],
"desc" : "《中国命研究》，李敖认为自己对天地、阴阳、日夜、善恶、贤愚、人鬼等的理解，已经超越古人。这是一本革命性、启发性极强的著作。\u201C生民以来，所未有也！\u201D《中国性研究》包括《...",
"emailed" : False,
"forwarded" : False,
"english" : False
}  , {
"index" : 12,
"articleIndex" : "647",
"favor" :  False ,
     "read" : False,    
"title" : "西晋原来不风流",
"titleTip" : "西晋原来不风流",
"titleSummary" : "西晋原来不风流",
"descSummary" : "以及\u201C风流\u201D表象背后的权谋、杀戮以及当时统治阶层、士大夫阶层的道德感缺失、鲜廉...",
"url" : "http:\/\/go.rss.sina.com.cn\/redirect.php?url=http:\/\/vip.book.sina.com.cn\/book\/index_240868.html",
"pubDate" : "2013年7月11日",
"enterDate" : "384153:52:21",
"channelId" : "4813808927905745642",
"channelName" : "人文历史排行榜-新浪读书",
"channelNameSummary" : "人文历史排行榜-新浪...",
"channelUrl" : "http:\/\/book.sina.com.cn\/history\/",
"author" : "WWW.SINA.COM.CN",
"tags" : [],
"desc" : "以及\u201C风流\u201D表象背后的权谋、杀戮以及当时统治阶层、士大夫阶层的道德感缺失、鲜廉寡耻，揭示了\u201C西晋原来不风流\u201D的本质。...",
"emailed" : False,
"forwarded" : False,
"english" : False
}  , {
"index" : 13,
"articleIndex" : "646",
"favor" :  False ,
     "read" : False,    
"title" : "中国人的里子与面子",
"titleTip" : "中国人的里子与面子",
"titleSummary" : "中国人的里子与面子",
"descSummary" : "阅读此书，能够让你全面的了解中国人的根性，洞悉中国人立身处世的内心世界。",
"url" : "http:\/\/go.rss.sina.com.cn\/redirect.php?url=http:\/\/vip.book.sina.com.cn\/book\/index_240860.html",
"pubDate" : "2013年7月10日",
"enterDate" : "384152:07:39",
"channelId" : "4813808927905745642",
"channelName" : "人文历史排行榜-新浪读书",
"channelNameSummary" : "人文历史排行榜-新浪...",
"channelUrl" : "http:\/\/book.sina.com.cn\/history\/",
"author" : "WWW.SINA.COM.CN",
"tags" : [],
"desc" : "阅读此书，能够让你全面的了解中国人的根性，洞悉中国人立身处世的内心世界。...",
"emailed" : False,
"forwarded" : False,
"english" : False
}  , {
"index" : 14,
"articleIndex" : "663",
"favor" :  False ,
     "read" : False,    
"title" : "红墙警卫",
"titleTip" : "红墙警卫",
"titleSummary" : "红墙警卫",
"descSummary" : "作者根据毛泽东的卫士李银桥的回忆，记述了他跟随一代伟人毛泽东的许多鲜为人知生活工作片...",
"url" : "http:\/\/go.rss.sina.com.cn\/redirect.php?url=http:\/\/vip.book.sina.com.cn\/book\/index_133054.html",
"pubDate" : "2013年4月27日",
"enterDate" : "381249:36:13",
"channelId" : "4813808927905745642",
"channelName" : "人文历史排行榜-新浪读书",
"channelNameSummary" : "人文历史排行榜-新浪...",
"channelUrl" : "http:\/\/book.sina.com.cn\/history\/",
"author" : "WWW.SINA.COM.CN",
"tags" : [],
"desc" : "作者根据毛泽东的卫士李银桥的回忆，记述了他跟随一代伟人毛泽东的许多鲜为人知生活工作片断、描绘了真实生活中的毛泽东伟大而又平凡的一面，书中还专门记录了\u201C第一夫人难伺候\u201D...",
"emailed" : False,
"forwarded" : False,
"english" : False
}  , {
"index" : 15,
"articleIndex" : "660",
"favor" :  False ,
     "read" : False,    
"title" : "张学良幽禁秘史",
"titleTip" : "张学良幽禁秘史",
"titleSummary" : "张学良幽禁秘史",
"descSummary" : "本书以纪实文学的手法描写了张学良在西安事变以后到去世的几十年间的生活，尤其是幽...",
"url" : "http:\/\/go.rss.sina.com.cn\/redirect.php?url=http:\/\/vip.book.sina.com.cn\/book\/index_229764.html",
"pubDate" : "2013年2月25日",
"enterDate" : "380269:01:34",
"channelId" : "4813808927905745642",
"channelName" : "人文历史排行榜-新浪读书",
"channelNameSummary" : "人文历史排行榜-新浪...",
"channelUrl" : "http:\/\/book.sina.com.cn\/history\/",
"author" : "WWW.SINA.COM.CN",
"tags" : [],
"desc" : "本书以纪实文学的手法描写了张学良在西安事变以后到去世的几十年间的生活，尤其是幽禁期间漂泊动荡的经历、复杂微妙的心态。",
"emailed" : False,
"forwarded" : False,
"english" : False
}  , {
"index" : 16,
"articleIndex" : "659",
"favor" :  False ,
     "read" : False,    
"title" : "金瓶梅札记",
"titleTip" : "金瓶梅札记",
"titleSummary" : "金瓶梅札记",
"descSummary" : "金瓶摇曳数点梅，香尘落尽前尘回。当时笙歌西门府，今日满纸梦魂飞。一生风月事，萦萦绕...",
"url" : "http:\/\/go.rss.sina.com.cn\/redirect.php?url=http:\/\/vip.book.sina.com.cn\/book\/index_212074.html",
"pubDate" : "2012年7月31日",
"enterDate" : "375299:43:05",
"channelId" : "4813808927905745642",
"channelName" : "人文历史排行榜-新浪读书",
"channelNameSummary" : "人文历史排行榜-新浪...",
"channelUrl" : "http:\/\/book.sina.com.cn\/history\/",
"author" : "WWW.SINA.COM.CN",
"tags" : [],
"desc" : "金瓶摇曳数点梅，香尘落尽前尘回。当时笙歌西门府，今日满纸梦魂飞。一生风月事，萦萦绕绕，看透人生百态。一部金瓶梅，纷纷扰扰，至今醒世恒言。",
"emailed" : False,
"forwarded" : False,
"english" : False
}  , {
"index" : 17,
"articleIndex" : "655",
"favor" :  False ,
     "read" : False,    
"title" : "纪连海说甄",
"titleTip" : "纪连海说甄",
"titleSummary" : "纪连海说甄",
"descSummary" : "文字解读张弛有致，对历史的还原细致深入。是喜欢《后宫甄执》的观众不可错过的一本珍贵...",
"url" : "http:\/\/go.rss.sina.com.cn\/redirect.php?url=http:\/\/vip.book.sina.com.cn\/book\/index_207775.html",
"pubDate" : "2012年6月18日",
"enterDate" : "374382:19:40",
"channelId" : "4813808927905745642",
"channelName" : "人文历史排行榜-新浪读书",
"channelNameSummary" : "人文历史排行榜-新浪...",
"channelUrl" : "http:\/\/book.sina.com.cn\/history\/",
"author" : "WWW.SINA.COM.CN",
"tags" : [],
"desc" : "文字解读张弛有致，对历史的还原细致深入。是喜欢《后宫甄执》的观众不可错过的一本珍贵的历史参考。...",
"emailed" : False,
"forwarded" : False,
"english" : False
}  , {
"index" : 18,
"articleIndex" : "664",
"favor" :  False ,
     "read" : False,    
"title" : "林徽因传",
"titleTip" : "林徽因传",
"titleSummary" : "林徽因传",
"descSummary" : "她是中华人民共和国国徽设计的参与者，是人民英雄纪念碑的设计者之一，是传统景泰蓝工艺的...",
"url" : "http:\/\/go.rss.sina.com.cn\/redirect.php?url=http:\/\/vip.book.sina.com.cn\/book\/index_179834.html",
"pubDate" : "2012年2月22日",
"enterDate" : "370900:48:41",
"channelId" : "4813808927905745642",
"channelName" : "人文历史排行榜-新浪读书",
"channelNameSummary" : "人文历史排行榜-新浪...",
"channelUrl" : "http:\/\/book.sina.com.cn\/history\/",
"author" : "WWW.SINA.COM.CN",
"tags" : [],
"desc" : "她是中华人民共和国国徽设计的参与者，是人民英雄纪念碑的设计者之一，是传统景泰蓝工艺的拯救者。她是一个聪慧的女子，让徐志摩怀想了一生，让梁思成宠爱了一生，让金岳霖默默地...",
"emailed" : False,
"forwarded" : False,
"english" : False
}  , {
"index" : 19,
"articleIndex" : "665",
"favor" :  False ,
     "read" : False,    
"title" : "马云正传",
"titleTip" : "马云正传",
"titleSummary" : "马云正传",
"descSummary" : "从一个\u201C阿甘\u201D般的义气少年到一个\u201C铁嘴\u201D的大学老师，从大洋彼岸意外\u201C触网\u201D到创办中国...",
"url" : "http:\/\/go.rss.sina.com.cn\/redirect.php?url=http:\/\/vip.book.sina.com.cn\/book\/index_65346.html",
"pubDate" : "2009年8月19日",
"enterDate" : "348819:42:13",
"channelId" : "4813808927905745642",
"channelName" : "人文历史排行榜-新浪读书",
"channelNameSummary" : "人文历史排行榜-新浪...",
"channelUrl" : "http:\/\/book.sina.com.cn\/history\/",
"author" : "WWW.SINA.COM.CN",
"tags" : [],
"desc" : "从一个\u201C阿甘\u201D般的义气少年到一个\u201C铁嘴\u201D的大学老师，从大洋彼岸意外\u201C触网\u201D到创办中国第一家网站，从50万元艰难出发到打造一个震撼世界的互联网王国，马云用他的睿智与汗水演绎...",
"emailed" : False,
"forwarded" : False,
"english" : False
} ]
}
