{
"mode" : {"viewTitle" : 1,   "viewNew" : 0,  "pageIndex" : 1 },
 "channel" : {"id" : "4792831438736729305", "booked" : False, "subNumber" : 3385, "name" : "焦点新闻-新浪星座", "url" : "http:\/\/astro.sina.com.cn", "feed" : "http:\/\/rss.sina.com.cn\/news\/allnews\/astro.xml", "author" : "SINA.com", "desc" : "星座焦点新闻", "imageUrl" : "http:\/\/www.sinaimg.cn\/dy\/deco\/2010\/0910\/images\/standardnav_astro.gif", "postPerWeek" : "0", "lastCrawTime" : "16:51:31", "crawDateTime" : "16:51:31", "lastHttpCode" : "200"}, "page" : {
"startIndex" : 0,
"totalCount" : 5000,
"pageIndex" : 1,
"lastPage" : 250,
"pageSize" : 20,
"english" :  False },
 "unreadNum" : 0, "shotIndex" : -1,
"articles" : [
{
"index" : 0,
"articleIndex" : "38202",
"favor" :  False ,
     "read" : False,    
"title" : "八卦命理：具有帮夫运的五大面相(图)",
"titleTip" : "八卦命理：具有帮夫运的五大面相(图)",
"titleSummary" : "八卦命理：具有帮夫运的五大面相(图)",
"descSummary" : "文\/普渡斋 具有帮夫运的五大面相(图片来源于作者博客) 自古以来，...",
"url" : "http:\/\/go.rss.sina.com.cn\/redirect.php?url=http:\/\/astro.sina.com.cn\/l\/2013-10-30\/1328101362.shtml",
"pubDate" : "13:28:43",
"enterDate" : "384200:57:42",
"channelId" : "4792831438736729305",
"channelName" : "焦点新闻-新浪星座",
"channelNameSummary" : "焦点新闻-新浪星座",
"channelUrl" : "http:\/\/astro.sina.com.cn",
"author" : "SINA.com",
"tags" : [],
"desc" : "文\/普渡斋 具有帮夫运的五大面相(图片来源于作者博客) 自古以来，中国男人对妻子有无\u201C帮夫运\u201D似乎格外的注意，如果一个女人有\u201C帮夫运\u201D的话不仅可以旺夫益子，更使一个家庭幸福美满的，满溢的幸福羡煞旁人，来看看哪五大面相有帮夫运的。 一、鼻子高挺....",
"emailed" : False,
"forwarded" : False,
"english" : False
}  , {
"index" : 1,
"articleIndex" : "38201",
"favor" :  False ,
     "read" : False,    
"title" : "八卦命理：你是成为首富的命吗(图)",
"titleTip" : "八卦命理：你是成为首富的命吗(图)",
"titleSummary" : "八卦命理：你是成为首富的命吗(图)",
"descSummary" : "文\/张盛舒 你是成为首富的命吗(图片来源于作者博客) 人人都有发财梦...",
"url" : "http:\/\/go.rss.sina.com.cn\/redirect.php?url=http:\/\/astro.sina.com.cn\/l\/2013-10-30\/1326101361.shtml",
"pubDate" : "13:26:54",
"enterDate" : "384200:55:53",
"channelId" : "4792831438736729305",
"channelName" : "焦点新闻-新浪星座",
"channelNameSummary" : "焦点新闻-新浪星座",
"channelUrl" : "http:\/\/astro.sina.com.cn",
"author" : "SINA.com",
"tags" : [],
"desc" : "文\/张盛舒 你是成为首富的命吗(图片来源于作者博客) 人人都有发财梦，都渴望成为富豪榜上响当当的人物，那么你是否具备这个能力成为首富呢？不如让科技紫微星座网来为你一探究竟。 第一名：紫微星 紫微主星的人，由于有很强的领导欲，努力追求自我....",
"emailed" : False,
"forwarded" : False,
"english" : False
}  , {
"index" : 2,
"articleIndex" : "38200",
"favor" :  False ,
     "read" : False,    
"title" : "宇宙星象：太阳进入射手座",
"titleTip" : "宇宙星象：太阳进入射手座",
"titleSummary" : "宇宙星象：太阳进入射手座",
"descSummary" : "独家撰稿\/寂多蔓生(blog)(微博) 2013年11月22日11:48:07分，太阳进入象征着...",
"url" : "http:\/\/go.rss.sina.com.cn\/redirect.php?url=http:\/\/astro.sina.com.cn\/ot\/2013-10-30\/1207101358.shtml",
"pubDate" : "12:07:09",
"enterDate" : "384201:06:24",
"channelId" : "4792831438736729305",
"channelName" : "焦点新闻-新浪星座",
"channelNameSummary" : "焦点新闻-新浪星座",
"channelUrl" : "http:\/\/astro.sina.com.cn",
"author" : "SINA.com",
"tags" : [],
"desc" : "独家撰稿\/寂多蔓生(blog)(微博) 2013年11月22日11:48:07分，太阳进入象征着勇气、突破、旅行、高等教育、正义感特质的射手座。 受到射手座特质的影响，从这天开始我们会更倾向于用正面而乐观的态度去看待我们所经历的人事物，并尽可能多的用自己的影响力去为别....",
"emailed" : False,
"forwarded" : False,
"english" : False
}  , {
"index" : 3,
"articleIndex" : "38199",
"favor" :  False ,
     "read" : False,    
"title" : "宇宙星象：金牛座满月",
"titleTip" : "宇宙星象：金牛座满月",
"titleSummary" : "宇宙星象：金牛座满月",
"descSummary" : "独家撰稿\/寂多蔓生(blog)(微博) 2013年11月17日 23:15分，金牛座满月开始。本次...",
"url" : "http:\/\/go.rss.sina.com.cn\/redirect.php?url=http:\/\/astro.sina.com.cn\/l\/2013-10-30\/1206101357.shtml",
"pubDate" : "12:06:01",
"enterDate" : "384201:05:16",
"channelId" : "4792831438736729305",
"channelName" : "焦点新闻-新浪星座",
"channelNameSummary" : "焦点新闻-新浪星座",
"channelUrl" : "http:\/\/astro.sina.com.cn",
"author" : "SINA.com",
"tags" : [],
"desc" : "独家撰稿\/寂多蔓生(blog)(微博) 2013年11月17日&#160;23:15分，金牛座满月开始。本次的满月会与月初时期的天蝎座新月互相辉映，如果在月初你已经开始进行某些计划，或者一些决定，并试着耐心的去履行，那将在本次满月看到成效。 本次满月最大的影响来自于家庭、....",
"emailed" : False,
"forwarded" : False,
"english" : False
}  , {
"index" : 4,
"articleIndex" : "38198",
"favor" :  False ,
     "read" : False,    
"title" : "宇宙星象：海王星恢复顺行",
"titleTip" : "宇宙星象：海王星恢复顺行",
"titleSummary" : "宇宙星象：海王星恢复顺行",
"descSummary" : "独家撰稿\/寂多蔓生(blog)(微博) 2013年11月13日02:43分，海王星在双鱼恢复...",
"url" : "http:\/\/go.rss.sina.com.cn\/redirect.php?url=http:\/\/astro.sina.com.cn\/l\/2013-10-30\/1200101356.shtml",
"pubDate" : "12:00:39",
"enterDate" : "384200:59:54",
"channelId" : "4792831438736729305",
"channelName" : "焦点新闻-新浪星座",
"channelNameSummary" : "焦点新闻-新浪星座",
"channelUrl" : "http:\/\/astro.sina.com.cn",
"author" : "SINA.com",
"tags" : [],
"desc" : "独家撰稿\/寂多蔓生(blog)(微博) 2013年11月13日02:43分，海王星在双鱼恢复顺行。从2011年4月海王进入双鱼座直到2025年，每年海王星都会在双鱼座开始一次半年有余的逆行期。 每当海王逆行时期，就是人们开始对现实事物的感觉出现误差的时刻，就像感官上隔了一层....",
"emailed" : False,
"forwarded" : False,
"english" : False
}  , {
"index" : 5,
"articleIndex" : "38197",
"favor" :  False ,
     "read" : False,    
"title" : "宇宙星象：水星逆行结束",
"titleTip" : "宇宙星象：水星逆行结束",
"titleSummary" : "宇宙星象：水星逆行结束",
"descSummary" : "独家撰稿\/寂多蔓生(blog)(微博) 2013年度最后一次的水星逆行将在11月11日晨...",
"url" : "http:\/\/go.rss.sina.com.cn\/redirect.php?url=http:\/\/astro.sina.com.cn\/l\/2013-10-30\/1158101355.shtml",
"pubDate" : "11:58:42",
"enterDate" : "384200:57:57",
"channelId" : "4792831438736729305",
"channelName" : "焦点新闻-新浪星座",
"channelNameSummary" : "焦点新闻-新浪星座",
"channelUrl" : "http:\/\/astro.sina.com.cn",
"author" : "SINA.com",
"tags" : [],
"desc" : "独家撰稿\/寂多蔓生(blog)(微博) 2013年度最后一次的水星逆行将在11月11日晨05：11分结束于天蝎座，但逆行不意味着终止，因为结束后期的影响仍会持续到月底才正式消歇。 众所周知水星逆行带来的麻烦不仅体现在通讯工具、资料备档与出行方面，也使得大众在情绪方....",
"emailed" : False,
"forwarded" : False,
"english" : False
}  , {
"index" : 6,
"articleIndex" : "38196",
"favor" :  False ,
     "read" : False,    
"title" : "宇宙星象：木星在巨蟹座逆行",
"titleTip" : "宇宙星象：木星在巨蟹座逆行",
"titleSummary" : "宇宙星象：木星在巨蟹座逆行",
"descSummary" : "独家撰稿\/寂多蔓生(blog)(微博) 2013年11月7日13:04分，木星开始在巨蟹...",
"url" : "http:\/\/go.rss.sina.com.cn\/redirect.php?url=http:\/\/astro.sina.com.cn\/ot\/2013-10-30\/1156101354.shtml",
"pubDate" : "11:56:36",
"enterDate" : "384200:55:51",
"channelId" : "4792831438736729305",
"channelName" : "焦点新闻-新浪星座",
"channelNameSummary" : "焦点新闻-新浪星座",
"channelUrl" : "http:\/\/astro.sina.com.cn",
"author" : "SINA.com",
"tags" : [],
"desc" : "独家撰稿\/寂多蔓生(blog)(微博) 2013年11月7日13:04分，木星开始在巨蟹逆行，次年3月6日18:43分恢复顺行。 木星是占星学中第一大吉星，象征着运气、扩张、乐观、高等教育、宗教等。由于木星运行周期比较长，所以当木星逆行时，对大众的影响力并不如水星逆行般明....",
"emailed" : False,
"forwarded" : False,
"english" : False
}  , {
"index" : 7,
"articleIndex" : "38195",
"favor" :  False ,
     "read" : False,    
"title" : "宇宙星象：金星进入魔羯座",
"titleTip" : "宇宙星象：金星进入魔羯座",
"titleSummary" : "宇宙星象：金星进入魔羯座",
"descSummary" : "独家撰稿\/寂多蔓生(blog)(微博) 2013年11月05日18:45分，金星进入魔羯座。...",
"url" : "http:\/\/go.rss.sina.com.cn\/redirect.php?url=http:\/\/astro.sina.com.cn\/ot\/2013-10-30\/1154101353.shtml",
"pubDate" : "11:54:08",
"enterDate" : "384200:53:23",
"channelId" : "4792831438736729305",
"channelName" : "焦点新闻-新浪星座",
"channelNameSummary" : "焦点新闻-新浪星座",
"channelUrl" : "http:\/\/astro.sina.com.cn",
"author" : "SINA.com",
"tags" : [],
"desc" : "独家撰稿\/寂多蔓生(blog)(微博) 2013年11月05日18:45分，金星进入魔羯座。金星在占星中象征着情感、金钱、爱好、人生观等蕴意，当金星进入务实、勤恳、稍显冷漠的魔羯座，这不是一个热情的位置。在此期间你会发现在自己会更多去考虑现实生活所要求你去做什么，而不再是....",
"emailed" : False,
"forwarded" : False,
"english" : False
}  , {
"index" : 8,
"articleIndex" : "38194",
"favor" :  False ,
     "read" : False,    
"title" : "宇宙星象：天蝎座新月",
"titleTip" : "宇宙星象：天蝎座新月",
"titleSummary" : "宇宙星象：天蝎座新月",
"descSummary" : "独家撰稿\/寂多蔓生(blog)(微博) 2013年11月03日 20:47分，天蝎座新月开始。(笔...",
"url" : "http:\/\/go.rss.sina.com.cn\/redirect.php?url=http:\/\/astro.sina.com.cn\/l\/2013-10-30\/1152101352.shtml",
"pubDate" : "11:52:02",
"enterDate" : "384200:51:17",
"channelId" : "4792831438736729305",
"channelName" : "焦点新闻-新浪星座",
"channelNameSummary" : "焦点新闻-新浪星座",
"channelUrl" : "http:\/\/astro.sina.com.cn",
"author" : "SINA.com",
"tags" : [],
"desc" : "独家撰稿\/寂多蔓生(blog)(微博) 2013年11月03日&#160;20:47分，天蝎座新月开始。(笔者注：占星学的含义中，新月是是新想法、新构思的萌芽阶段，就如同一个初生的婴孩般，意味着新的开始。人们往往会在这天最有效的许愿时间内许出的新愿望，或开始拟定、执行新的计划。)....",
"emailed" : False,
"forwarded" : False,
"english" : False
}  , {
"index" : 9,
"articleIndex" : "38193",
"favor" :  False ,
     "read" : False,    
"title" : "婚恋心理：秒杀男人的15种动作(图)",
"titleTip" : "婚恋心理：秒杀男人的15种动作(图)",
"titleSummary" : "婚恋心理：秒杀男人的15种动作(图)",
"descSummary" : "秒杀男人的15种动作(图片来源于轻博客) 一、扭动屁股走路的样子。要...",
"url" : "http:\/\/go.rss.sina.com.cn\/redirect.php?url=http:\/\/astro.sina.com.cn\/xl\/2013-10-30\/1143101351.shtml",
"pubDate" : "11:43:04",
"enterDate" : "384201:12:24",
"channelId" : "4792831438736729305",
"channelName" : "焦点新闻-新浪星座",
"channelNameSummary" : "焦点新闻-新浪星座",
"channelUrl" : "http:\/\/astro.sina.com.cn",
"author" : "SINA.com",
"tags" : [],
"desc" : "秒杀男人的15种动作(图片来源于轻博客) 一、扭动屁股走路的样子。要知道，女人的臀部是男人目光聚集的重要部位，因此，女人适当注意自己扭动腰以下部位走路，可以给男人一种精神上愉悦的享受。 二、穿着睡衣的可爱姿态。女人穿着睡衣的样子是很性感的，也是可以尽显....",
"emailed" : False,
"forwarded" : False,
"english" : False
}  , {
"index" : 10,
"articleIndex" : "38192",
"favor" :  False ,
     "read" : False,    
"title" : "两性测试：他是你能调教好的男人吗(图)",
"titleTip" : "两性测试：他是你能调教好的男人吗(图)",
"titleSummary" : "两性测试：他是你能调教好的男人吗(图)",
"descSummary" : "他是能调教的男人吗(图片来源轻博客) 独家撰稿：莹莹(微博) 星座...",
"url" : "http:\/\/go.rss.sina.com.cn\/redirect.php?url=http:\/\/astro.sina.com.cn\/t\/2013-10-30\/1135101350.shtml",
"pubDate" : "11:35:19",
"enterDate" : "384201:04:39",
"channelId" : "4792831438736729305",
"channelName" : "焦点新闻-新浪星座",
"channelNameSummary" : "焦点新闻-新浪星座",
"channelUrl" : "http:\/\/astro.sina.com.cn",
"author" : "SINA.com",
"tags" : [],
"desc" : "他是能调教的男人吗(图片来源轻博客) 独家撰稿：莹莹(微博) 星座频道征稿征集令 都说好男人是好女人调教出来的，但是能不能调教出来也要看男人的资质，有人稍作点拨就能做的相当不错，有人怎样调教始终烂泥扶不上墙，你的他是能调教出来的好男人吗，来测测....",
"emailed" : False,
"forwarded" : False,
"english" : False
}  , {
"index" : 11,
"articleIndex" : "38191",
"favor" :  False ,
     "read" : False,    
"title" : "婚恋心理：女人出轨只为这4种感觉(图)",
"titleTip" : "婚恋心理：女人出轨只为这4种感觉(图)",
"titleSummary" : "婚恋心理：女人出轨只为这4种感觉(图)",
"descSummary" : "女人出轨只为这4种感觉(图片来源于轻博客) 享受浪漫，感觉自由...",
"url" : "http:\/\/go.rss.sina.com.cn\/redirect.php?url=http:\/\/astro.sina.com.cn\/xl\/2013-10-30\/1130101349.shtml",
"pubDate" : "11:30:38",
"enterDate" : "384200:59:58",
"channelId" : "4792831438736729305",
"channelName" : "焦点新闻-新浪星座",
"channelNameSummary" : "焦点新闻-新浪星座",
"channelUrl" : "http:\/\/astro.sina.com.cn",
"author" : "SINA.com",
"tags" : [],
"desc" : "女人出轨只为这4种感觉(图片来源于轻博客) 享受浪漫，感觉自由，释放压力，寻找刺激。这基本上是女人出轨的最重要的几个原因了。越来越多的女人想要出轨寻找新情感，其实女人出轨只为这四种感觉。 一、体验激情的感觉 当女人洗漱完毕换上性感的内衣，满怀柔....",
"emailed" : False,
"forwarded" : False,
"english" : False
}  , {
"index" : 12,
"articleIndex" : "38190",
"favor" :  False ,
     "read" : False,    
"title" : "个性测试：你必须要忘掉哪个人(图)",
"titleTip" : "个性测试：你必须要忘掉哪个人(图)",
"titleSummary" : "个性测试：你必须要忘掉哪个人(图)",
"descSummary" : "你必须要忘掉哪个人(图片来源轻博客) 独家撰稿：画帘(blog)(微博) 星...",
"url" : "http:\/\/go.rss.sina.com.cn\/redirect.php?url=http:\/\/astro.sina.com.cn\/t\/2013-10-30\/1128101348.shtml",
"pubDate" : "11:28:44",
"enterDate" : "384200:58:04",
"channelId" : "4792831438736729305",
"channelName" : "焦点新闻-新浪星座",
"channelNameSummary" : "焦点新闻-新浪星座",
"channelUrl" : "http:\/\/astro.sina.com.cn",
"author" : "SINA.com",
"tags" : [],
"desc" : "你必须要忘掉哪个人(图片来源轻博客) 独家撰稿：画帘(blog)(微博) 星座频道征稿通缉令 身边的人来来去去，有些事情，留在心里伤神；有些人留在心里伤心。那些人那些事带来的回忆，即使内心再不愿意放下，也必须要忘掉。那你心里必须要忘掉的人是谁？....",
"emailed" : False,
"forwarded" : False,
"english" : False
}  , {
"index" : 13,
"articleIndex" : "38189",
"favor" :  False ,
     "read" : False,    
"title" : "趣味测试：美人天下你是哪类美人(图)",
"titleTip" : "趣味测试：美人天下你是哪类美人(图)",
"titleSummary" : "趣味测试：美人天下你是哪类美人(图)",
"descSummary" : "美人天下你是啥美人(图片来源轻博客) 独家撰稿：清浅 星座频道征...",
"url" : "http:\/\/go.rss.sina.com.cn\/redirect.php?url=http:\/\/astro.sina.com.cn\/t\/2013-10-30\/1121101345.shtml",
"pubDate" : "11:21:14",
"enterDate" : "384200:50:34",
"channelId" : "4792831438736729305",
"channelName" : "焦点新闻-新浪星座",
"channelNameSummary" : "焦点新闻-新浪星座",
"channelUrl" : "http:\/\/astro.sina.com.cn",
"author" : "SINA.com",
"tags" : [],
"desc" : "美人天下你是啥美人(图片来源轻博客) 独家撰稿：清浅 星座频道征稿征集令 环肥燕瘦，闭月羞花，天下美人虽多，但风格却不尽相同，在这个美人当道的世界，你又会是哪类美人呢？ 开始测试 (本测试不超过12道题，4个答案，系统....",
"emailed" : False,
"forwarded" : False,
"english" : False
}  , {
"index" : 14,
"articleIndex" : "38183",
"favor" :  False ,
     "read" : False,    
"title" : "Geo聊2014金牛座运势(图)",
"titleTip" : "Geo聊2014金牛座运势(图)",
"titleSummary" : "Geo聊2014金牛座运势(图)",
"descSummary" : "Geo聊2014金牛座运势(图片来源于轻博客) 金牛座 想法多，想做些改变，人际...",
"url" : "http:\/\/go.rss.sina.com.cn\/redirect.php?url=http:\/\/astro.sina.com.cn\/v\/2013-10-30\/1120101332_3.shtml",
"pubDate" : "11:20:35",
"enterDate" : "384200:49:55",
"channelId" : "4792831438736729305",
"channelName" : "焦点新闻-新浪星座",
"channelNameSummary" : "焦点新闻-新浪星座",
"channelUrl" : "http:\/\/astro.sina.com.cn",
"author" : "SINA.com",
"tags" : [],
"desc" : "Geo聊2014金牛座运势(图片来源于轻博客) 金牛座 想法多，想做些改变，人际圈有变化，操心烦恼渐多，新局酝酿中，是金牛座2014年整体运势的基调。 金牛座的人际圈及活动范围，在2014有比较大的变化，前半年有些变动，后半年也有。新的人际圈，新的生活圈(或活....",
"emailed" : False,
"forwarded" : False,
"english" : False
}  , {
"index" : 15,
"articleIndex" : "38184",
"favor" :  False ,
     "read" : False,    
"title" : "Geo聊2014巨蟹座运势(图)",
"titleTip" : "Geo聊2014巨蟹座运势(图)",
"titleSummary" : "Geo聊2014巨蟹座运势(图)",
"descSummary" : "Geo聊2014巨蟹座运势(图片来源于轻博客) 巨蟹座 有件事拖得比较久，需调整...",
"url" : "http:\/\/go.rss.sina.com.cn\/redirect.php?url=http:\/\/astro.sina.com.cn\/v\/2013-10-30\/1120101332_5.shtml",
"pubDate" : "11:20:35",
"enterDate" : "384200:49:55",
"channelId" : "4792831438736729305",
"channelName" : "焦点新闻-新浪星座",
"channelNameSummary" : "焦点新闻-新浪星座",
"channelUrl" : "http:\/\/astro.sina.com.cn",
"author" : "SINA.com",
"tags" : [],
"desc" : "Geo聊2014巨蟹座运势(图片来源于轻博客) 巨蟹座 有件事拖得比较久，需调整修改。为些事发愁，得做些改变来因应。会去些没去过的地方。开销大，为钱事伤神。这些是巨蟹座2014整体运势的基调。 2014对巨蟹座而言是忙碌的，有压力的，会有几件重要的事，比较花....",
"emailed" : False,
"forwarded" : False,
"english" : False
}  , {
"index" : 16,
"articleIndex" : "38185",
"favor" :  False ,
     "read" : False,    
"title" : "Geo聊2014狮子座运势(图)",
"titleTip" : "Geo聊2014狮子座运势(图)",
"titleSummary" : "Geo聊2014狮子座运势(图)",
"descSummary" : "Geo聊2014狮子座运势(图片来源于轻博客) 狮子座 记挂的事多，有些无奈情形...",
"url" : "http:\/\/go.rss.sina.com.cn\/redirect.php?url=http:\/\/astro.sina.com.cn\/v\/2013-10-30\/1120101332_6.shtml",
"pubDate" : "11:20:35",
"enterDate" : "384200:49:55",
"channelId" : "4792831438736729305",
"channelName" : "焦点新闻-新浪星座",
"channelNameSummary" : "焦点新闻-新浪星座",
"channelUrl" : "http:\/\/astro.sina.com.cn",
"author" : "SINA.com",
"tags" : [],
"desc" : "Geo聊2014狮子座运势(图片来源于轻博客) 狮子座 记挂的事多，有些无奈情形，环境变动，新局渐开，挑战浮现，是狮子座2014整体运势的基调。 2014是狮子座迈向人生新局，进入新的人生阶段的思索期，虽然日子有些变化，有些新生事物挺有意思，但整体运势称不上....",
"emailed" : False,
"forwarded" : False,
"english" : False
}  , {
"index" : 17,
"articleIndex" : "38186",
"favor" :  False ,
     "read" : False,    
"title" : "Geo聊2014处女座运势(图)",
"titleTip" : "Geo聊2014处女座运势(图)",
"titleSummary" : "Geo聊2014处女座运势(图)",
"descSummary" : "Geo聊2014处女座运势(图片来源于轻博客) 处女座 环境变动，操心挂念，盘算...",
"url" : "http:\/\/go.rss.sina.com.cn\/redirect.php?url=http:\/\/astro.sina.com.cn\/v\/2013-10-30\/1120101332_7.shtml",
"pubDate" : "11:20:35",
"enterDate" : "384200:49:55",
"channelId" : "4792831438736729305",
"channelName" : "焦点新闻-新浪星座",
"channelNameSummary" : "焦点新闻-新浪星座",
"channelUrl" : "http:\/\/astro.sina.com.cn",
"author" : "SINA.com",
"tags" : [],
"desc" : "Geo聊2014处女座运势(图片来源于轻博客) 处女座 环境变动，操心挂念，盘算未来，沉潜低调，是处女座在2014整体运势的基调。 上半年处女座手头上有几件事比较折腾，前前后后很花时间，跟某(些)人的互动方式有些改变，或酝酿着改变。 下半年开始，处女....",
"emailed" : False,
"forwarded" : False,
"english" : False
}  , {
"index" : 18,
"articleIndex" : "38187",
"favor" :  False ,
     "read" : False,    
"title" : "Geo聊2014天秤座运势(图)",
"titleTip" : "Geo聊2014天秤座运势(图)",
"titleSummary" : "Geo聊2014天秤座运势(图)",
"descSummary" : "Geo聊2014天秤座运势(图片来源于轻博客) 天秤座 阶段性任务，变动带出新局...",
"url" : "http:\/\/go.rss.sina.com.cn\/redirect.php?url=http:\/\/astro.sina.com.cn\/v\/2013-10-30\/1120101332_8.shtml",
"pubDate" : "11:20:35",
"enterDate" : "384200:49:55",
"channelId" : "4792831438736729305",
"channelName" : "焦点新闻-新浪星座",
"channelNameSummary" : "焦点新闻-新浪星座",
"channelUrl" : "http:\/\/astro.sina.com.cn",
"author" : "SINA.com",
"tags" : [],
"desc" : "Geo聊2014天秤座运势(图片来源于轻博客) 天秤座 阶段性任务，变动带出新局，人际圈改变，新的生活重心，新的人生阶段，是天秤座在2014整体运势的基调。 耗时费事，是天秤座在2014主要的生活步调，上半年有几件事会这样，下半年也有。上半年耗时费神的事，会....",
"emailed" : False,
"forwarded" : False,
"english" : False
}  , {
"index" : 19,
"articleIndex" : "38188",
"favor" :  False ,
     "read" : False,    
"title" : "Geo聊2014天蝎座运势(图)",
"titleTip" : "Geo聊2014天蝎座运势(图)",
"titleSummary" : "Geo聊2014天蝎座运势(图)",
"descSummary" : "Geo聊2014天蝎座运势(图片来源于轻博客) 天蝎座 忙碌，摸索调适，有阵子惶...",
"url" : "http:\/\/go.rss.sina.com.cn\/redirect.php?url=http:\/\/astro.sina.com.cn\/v\/2013-10-30\/1120101332_9.shtml",
"pubDate" : "11:20:35",
"enterDate" : "384200:49:55",
"channelId" : "4792831438736729305",
"channelName" : "焦点新闻-新浪星座",
"channelNameSummary" : "焦点新闻-新浪星座",
"channelUrl" : "http:\/\/astro.sina.com.cn",
"author" : "SINA.com",
"tags" : [],
"desc" : "Geo聊2014天蝎座运势(图片来源于轻博客) 天蝎座 忙碌，摸索调适，有阵子惶恐茫然，变动带出新局，是天蝎座在2014整体运势的基调。 忙碌是天蝎座2014一整年的写照，除了生活方面偶尔的外出休闲活动外，工作(学习)方面有不少的挑战，以前多半没碰过，需要思索....",
"emailed" : False,
"forwarded" : False,
"english" : False
} ]
}
