{
"mode" : {"viewTitle" : 1,   "viewNew" : 0,  "pageIndex" : 2 },
 "channel" : {"id" : "4792831438736729305", "booked" : False, "subNumber" : 3385, "name" : "焦点新闻-新浪星座", "url" : "http:\/\/astro.sina.com.cn", "feed" : "http:\/\/rss.sina.com.cn\/news\/allnews\/astro.xml", "author" : "SINA.com", "desc" : "星座焦点新闻", "imageUrl" : "http:\/\/www.sinaimg.cn\/dy\/deco\/2010\/0910\/images\/standardnav_astro.gif", "postPerWeek" : "0", "lastCrawTime" : "16:51:31", "crawDateTime" : "16:51:31", "lastHttpCode" : "200"}, "page" : {
"startIndex" : 20,
"totalCount" : 5000,
"pageIndex" : 2,
"lastPage" : 250,
"pageSize" : 20,
"english" :  False },
 "unreadNum" : 0, "shotIndex" : -1,
"articles" : [
{
"index" : 0,
"articleIndex" : "38180",
"favor" :  False ,
     "read" : False,    
"title" : "Geo聊2014双子座运势(图)",
"titleTip" : "Geo聊2014双子座运势(图)",
"titleSummary" : "Geo聊2014双子座运势(图)",
"descSummary" : "Geo聊2014双子座运势(图片来源于轻博客) 双子座 为钱事伤神，人际圈变动，...",
"url" : "http:\/\/go.rss.sina.com.cn\/redirect.php?url=http:\/\/astro.sina.com.cn\/v\/2013-10-30\/1120101332_4.shtml",
"pubDate" : "11:20:35",
"enterDate" : "384200:49:55",
"channelId" : "4792831438736729305",
"channelName" : "焦点新闻-新浪星座",
"channelNameSummary" : "焦点新闻-新浪星座",
"channelUrl" : "http:\/\/astro.sina.com.cn",
"author" : "SINA.com",
"tags" : [],
"desc" : "Geo聊2014双子座运势(图片来源于轻博客) 双子座 为钱事伤神，人际圈变动，新的体验多，人际关系待磨合，是双子座2014年整体运势的基调。钱跟人是双子座2014该留意的。上半年及下半年各有大笔的开支，都有段时间花钱变得谨慎，或是为钱事伤神。 [上一页] [1] [2]....",
"emailed" : False,
"forwarded" : False,
"english" : False
}  , {
"index" : 1,
"articleIndex" : "38181",
"favor" :  False ,
     "read" : False,    
"title" : "Geo谈2014年星座运势(组图)",
"titleTip" : "Geo谈2014年星座运势(组图)",
"titleSummary" : "Geo谈2014年星座运势(组图)",
"descSummary" : "Geo谈2014年星座运势(图片来源于轻博客) 2014有四大天象。一，火星因逆...",
"url" : "http:\/\/go.rss.sina.com.cn\/redirect.php?url=http:\/\/astro.sina.com.cn\/v\/2013-10-30\/1120101332.shtml",
"pubDate" : "11:20:35",
"enterDate" : "384200:49:55",
"channelId" : "4792831438736729305",
"channelName" : "焦点新闻-新浪星座",
"channelNameSummary" : "焦点新闻-新浪星座",
"channelUrl" : "http:\/\/astro.sina.com.cn",
"author" : "SINA.com",
"tags" : [],
"desc" : "Geo谈2014年星座运势(图片来源于轻博客) 2014有四大天象。 一，火星因逆行缘故，长达7个月的时间行运天秤座(2013\/12\/8-2014\/7\/25)。 二，木星于7\/17进入狮子座。 三，土星于12\/24进入射手座。 四，水星分别于2月、6月、10月逆行于水象星座，而....",
"emailed" : False,
"forwarded" : False,
"english" : False
}  , {
"index" : 2,
"articleIndex" : "38182",
"favor" :  False ,
     "read" : False,    
"title" : "Geo聊2014白羊座运势(图)",
"titleTip" : "Geo聊2014白羊座运势(图)",
"titleSummary" : "Geo聊2014白羊座运势(图)",
"descSummary" : "Geo聊2014白羊座运势(图片来源于轻博客) 白羊座 事多，改变酝酿中，日子渐...",
"url" : "http:\/\/go.rss.sina.com.cn\/redirect.php?url=http:\/\/astro.sina.com.cn\/v\/2013-10-30\/1120101332_2.shtml",
"pubDate" : "11:20:35",
"enterDate" : "384200:49:55",
"channelId" : "4792831438736729305",
"channelName" : "焦点新闻-新浪星座",
"channelNameSummary" : "焦点新闻-新浪星座",
"channelUrl" : "http:\/\/astro.sina.com.cn",
"author" : "SINA.com",
"tags" : [],
"desc" : "Geo聊2014白羊座运势(图片来源于轻博客) 白羊座 事多，改变酝酿中，日子渐有趣，状况仍多，是白羊座2014整体运势的基调。 自2013下半年起，白羊座便进入一段环境及周遭人事变动幅度比较大的人生阶段。原有的居处环境，人际圈，工作(学习)重心，事业走向，有....",
"emailed" : False,
"forwarded" : False,
"english" : False
}  , {
"index" : 3,
"articleIndex" : "38179",
"favor" :  False ,
     "read" : False,    
"title" : "职场测试：2014你会升职吗(图)",
"titleTip" : "职场测试：2014你会升职吗(图)",
"titleSummary" : "职场测试：2014你会升职吗(图)",
"descSummary" : "2014你会升职吗(图片来源轻博客) 独家撰稿：爱小顾(微博) 星座频道征稿通...",
"url" : "http:\/\/go.rss.sina.com.cn\/redirect.php?url=http:\/\/astro.sina.com.cn\/t\/2013-10-30\/1112101331.shtml",
"pubDate" : "11:12:57",
"enterDate" : "384201:12:21",
"channelId" : "4792831438736729305",
"channelName" : "焦点新闻-新浪星座",
"channelNameSummary" : "焦点新闻-新浪星座",
"channelUrl" : "http:\/\/astro.sina.com.cn",
"author" : "SINA.com",
"tags" : [],
"desc" : "2014你会升职吗(图片来源轻博客) 独家撰稿：爱小顾(微博) 星座频道征稿通缉令 &#160; 工作不顺，付出得不到回报，心里难免感到憋屈，进而会影响到整个生活的心情。新的一年，大家肯定都希望会有新的气象，特别是在事业上有抱负的人，更加希望自己在新的一年....",
"emailed" : False,
"forwarded" : False,
"english" : False
}  , {
"index" : 4,
"articleIndex" : "38174",
"favor" :  False ,
     "read" : False,    
"title" : "年底好运势不可挡的生肖(组图)",
"titleTip" : "年底好运势不可挡的生肖(组图)",
"titleSummary" : "年底好运势不可挡的生肖(组图)",
"descSummary" : "年底好运势不可挡的生肖(图片来源于轻博客) 临近年底，想要做最后冲刺的...",
"url" : "http:\/\/go.rss.sina.com.cn\/redirect.php?url=http:\/\/astro.sina.com.cn\/v\/2013-10-30\/1058101326.shtml",
"pubDate" : "10:58:14",
"enterDate" : "384200:57:38",
"channelId" : "4792831438736729305",
"channelName" : "焦点新闻-新浪星座",
"channelNameSummary" : "焦点新闻-新浪星座",
"channelUrl" : "http:\/\/astro.sina.com.cn",
"author" : "SINA.com",
"tags" : [],
"desc" : "年底好运势不可挡的生肖(图片来源于轻博客) 临近年底，想要做最后冲刺的人注意了，幸运之神送福来了，你会是被幸运之神青睐的那个吗？\u201C科技紫微星座网\u201D这就来宣读名单，你是否榜上有名呢？ [1] [2] [3] [4] [5] [下一页]",
"emailed" : False,
"forwarded" : False,
"english" : False
}  , {
"index" : 5,
"articleIndex" : "38175",
"favor" :  False ,
     "read" : False,    
"title" : "属牛的人年底好运不断(图)",
"titleTip" : "属牛的人年底好运不断(图)",
"titleSummary" : "属牛的人年底好运不断(图)",
"descSummary" : "属牛的人年底好运不断(图片来源于轻博客) NO.1生肖牛 运气非常好，喜事连连...",
"url" : "http:\/\/go.rss.sina.com.cn\/redirect.php?url=http:\/\/astro.sina.com.cn\/v\/2013-10-30\/1058101326_2.shtml",
"pubDate" : "10:58:14",
"enterDate" : "384200:57:38",
"channelId" : "4792831438736729305",
"channelName" : "焦点新闻-新浪星座",
"channelNameSummary" : "焦点新闻-新浪星座",
"channelUrl" : "http:\/\/astro.sina.com.cn",
"author" : "SINA.com",
"tags" : [],
"desc" : "属牛的人年底好运不断(图片来源于轻博客) NO.1生肖牛 运气非常好，喜事连连、诸事顺心，尤其是财富面的喜事特别多，会是自然得财的绝好时期，适合将生活重心放在\u201C打理财富\u201D上。生活上也喜气洋洋，生活品质将得到提升，吃穿方面的享受特别多。愉悦的情绪，会让爱情....",
"emailed" : False,
"forwarded" : False,
"english" : False
}  , {
"index" : 6,
"articleIndex" : "38176",
"favor" :  False ,
     "read" : False,    
"title" : "属猪的人年底好运不断(图)",
"titleTip" : "属猪的人年底好运不断(图)",
"titleSummary" : "属猪的人年底好运不断(图)",
"descSummary" : "属猪的人年底好运不断(图片来源于轻博客) NO.2生肖猪 欲望突显，想法转趋实...",
"url" : "http:\/\/go.rss.sina.com.cn\/redirect.php?url=http:\/\/astro.sina.com.cn\/v\/2013-10-30\/1058101326_3.shtml",
"pubDate" : "10:58:14",
"enterDate" : "384200:57:38",
"channelId" : "4792831438736729305",
"channelName" : "焦点新闻-新浪星座",
"channelNameSummary" : "焦点新闻-新浪星座",
"channelUrl" : "http:\/\/astro.sina.com.cn",
"author" : "SINA.com",
"tags" : [],
"desc" : "属猪的人年底好运不断(图片来源于轻博客) NO.2生肖猪 欲望突显，想法转趋实际的运势，无论是对于自我的期许、物质生活的追求、权势的提升、财富的累积都充满兴趣，比较心态强烈，觉得别人有自己也要有。只要功夫扎实，勤奋胆大，却不过分投机贪心，所求必定能实现。....",
"emailed" : False,
"forwarded" : False,
"english" : False
}  , {
"index" : 7,
"articleIndex" : "38177",
"favor" :  False ,
     "read" : False,    
"title" : "属虎的人年底好运不断(图)",
"titleTip" : "属虎的人年底好运不断(图)",
"titleSummary" : "属虎的人年底好运不断(图)",
"descSummary" : "属虎的人年底好运不断(图片来源于轻博客) NO.3生肖虎 福禄双全之运，前期的...",
"url" : "http:\/\/go.rss.sina.com.cn\/redirect.php?url=http:\/\/astro.sina.com.cn\/v\/2013-10-30\/1058101326_4.shtml",
"pubDate" : "10:58:14",
"enterDate" : "384200:57:38",
"channelId" : "4792831438736729305",
"channelName" : "焦点新闻-新浪星座",
"channelNameSummary" : "焦点新闻-新浪星座",
"channelUrl" : "http:\/\/astro.sina.com.cn",
"author" : "SINA.com",
"tags" : [],
"desc" : "属虎的人年底好运不断(图片来源于轻博客) NO.3生肖虎 福禄双全之运，前期的耕耘逐渐回收，生活水平进入佳境，有衣禄方面的享受。家事喜讯也多，未婚者有结婚之喜、已婚者有添子之喜、年长者子女嫁娶添孙，可将生活重心放在\u201C照顾家庭\u201D上，为守护家园打拼创造，会更....",
"emailed" : False,
"forwarded" : False,
"english" : False
}  , {
"index" : 8,
"articleIndex" : "38178",
"favor" :  False ,
     "read" : False,    
"title" : "属蛇的人年底好运不断(图)",
"titleTip" : "属蛇的人年底好运不断(图)",
"titleSummary" : "属蛇的人年底好运不断(图)",
"descSummary" : "属蛇的人年底好运不断(图片来源于轻博客) NO.4生肖蛇 革新事业体系、形象改...",
"url" : "http:\/\/go.rss.sina.com.cn\/redirect.php?url=http:\/\/astro.sina.com.cn\/v\/2013-10-30\/1058101326_5.shtml",
"pubDate" : "10:58:14",
"enterDate" : "384200:57:38",
"channelId" : "4792831438736729305",
"channelName" : "焦点新闻-新浪星座",
"channelNameSummary" : "焦点新闻-新浪星座",
"channelUrl" : "http:\/\/astro.sina.com.cn",
"author" : "SINA.com",
"tags" : [],
"desc" : "属蛇的人年底好运不断(图片来源于轻博客) NO.4生肖蛇 革新事业体系、形象改造、才艺发挥、知名度彰显的绝佳良机！领悟力大增，灵感源源不绝，在这段时期中易创造\u201C权威性\u201D的知名度，个人魅力、专业技术有重大性的突破，要秉持努力不懈的精神，用心钻研，必能技冠群....",
"emailed" : False,
"forwarded" : False,
"english" : False
}  , {
"index" : 9,
"articleIndex" : "38171",
"favor" :  False ,
     "read" : False,    
"title" : "唐立淇12星座每日运：10月30日",
"titleTip" : "唐立淇12星座每日运：10月30日",
"titleSummary" : "唐立淇12星座每日运：10月30日",
"descSummary" : "",
"url" : "http:\/\/go.rss.sina.com.cn\/redirect.php?url=http:\/\/astro.sina.com.cn\/ot\/2013-10-30\/1031101325.shtml",
"pubDate" : "10:31:12",
"enterDate" : "384201:00:42",
"channelId" : "4792831438736729305",
"channelName" : "焦点新闻-新浪星座",
"channelNameSummary" : "焦点新闻-新浪星座",
"channelUrl" : "http:\/\/astro.sina.com.cn",
"author" : "SINA.com",
"tags" : [],
"desc" : "&#160;",
"emailed" : False,
"forwarded" : False,
"english" : False
}  , {
"index" : 10,
"articleIndex" : "38170",
"favor" :  False ,
     "read" : False,    
"title" : "12星座运势(11.1-11.15)",
"titleTip" : "12星座运势(11.1-11.15)",
"titleSummary" : "12星座运势(11.1-11.15)",
"descSummary" : "",
"url" : "http:\/\/go.rss.sina.com.cn\/redirect.php?url=http:\/\/blog.sina.com.cn\/s\/blog_3e8e948a0102ej45.html",
"pubDate" : "09:51:43",
"enterDate" : "384200:51:18",
"channelId" : "4792831438736729305",
"channelName" : "焦点新闻-新浪星座",
"channelNameSummary" : "焦点新闻-新浪星座",
"channelUrl" : "http:\/\/astro.sina.com.cn",
"author" : "SINA.com",
"tags" : [],
"desc" : "",
"emailed" : False,
"forwarded" : False,
"english" : False
}  , {
"index" : 11,
"articleIndex" : "38169",
"favor" :  False ,
     "read" : False,    
"title" : "星座真心话：金牛男老玩暧昧把戏(图)",
"titleTip" : "星座真心话：金牛男老玩暧昧把戏(图)",
"titleSummary" : "星座真心话：金牛男老玩暧昧把戏(图)",
"descSummary" : "新浪星座网友\/小饕餮 把爱说给新浪星座 前往星座论坛分享你的故...",
"url" : "http:\/\/go.rss.sina.com.cn\/redirect.php?url=http:\/\/astro.sina.com.cn\/f\/2013-10-30\/0927101317.shtml",
"pubDate" : "09:27:27",
"enterDate" : "384200:57:07",
"channelId" : "4792831438736729305",
"channelName" : "焦点新闻-新浪星座",
"channelNameSummary" : "焦点新闻-新浪星座",
"channelUrl" : "http:\/\/astro.sina.com.cn",
"author" : "SINA.com",
"tags" : [],
"desc" : "新浪星座网友\/小饕餮 把爱说给新浪星座 前往星座论坛分享你的故事 金牛男老玩暧昧把戏(图片来源于轻博客) 5月份，我和暧昧的牛摊牌了。尽管他口口声声喜欢我，最后却不要跟我在一起，理由是：没有走出前一段感情的阴影(我认识牛时，牛有一个双双女友)。 ....",
"emailed" : False,
"forwarded" : False,
"english" : False
}  , {
"index" : 12,
"articleIndex" : "38173",
"favor" :  False ,
     "read" : False,    
"title" : "天秤爱你是有前提的",
"titleTip" : "天秤爱你是有前提的",
"titleSummary" : "天秤爱你是有前提的",
"descSummary" : "",
"url" : "http:\/\/go.rss.sina.com.cn\/redirect.php?url=http:\/\/club.astro.sina.com.cn\/thread-1272772-1-1.html",
"pubDate" : "昨天14:15:50",
"enterDate" : "384180:15:14",
"channelId" : "4792831438736729305",
"channelName" : "焦点新闻-新浪星座",
"channelNameSummary" : "焦点新闻-新浪星座",
"channelUrl" : "http:\/\/astro.sina.com.cn",
"author" : "SINA.com",
"tags" : [],
"desc" : "",
"emailed" : False,
"forwarded" : False,
"english" : False
}  , {
"index" : 13,
"articleIndex" : "38172",
"favor" :  False ,
     "read" : False,    
"title" : "双子对上床有底线么",
"titleTip" : "双子对上床有底线么",
"titleSummary" : "双子对上床有底线么",
"descSummary" : "",
"url" : "http:\/\/go.rss.sina.com.cn\/redirect.php?url=http:\/\/club.astro.sina.com.cn\/thread-1272584-1-1.html",
"pubDate" : "昨天13:13:45",
"enterDate" : "384179:13:09",
"channelId" : "4792831438736729305",
"channelName" : "焦点新闻-新浪星座",
"channelNameSummary" : "焦点新闻-新浪星座",
"channelUrl" : "http:\/\/astro.sina.com.cn",
"author" : "SINA.com",
"tags" : [],
"desc" : "",
"emailed" : False,
"forwarded" : False,
"english" : False
}  , {
"index" : 14,
"articleIndex" : "38168",
"favor" :  False ,
     "read" : False,    
"title" : "八卦命理：会成为抹布女的面相(图)",
"titleTip" : "八卦命理：会成为抹布女的面相(图)",
"titleSummary" : "八卦命理：会成为抹布女的面相(图)",
"descSummary" : "文\/滴天居士 会成为抹布女的面相(图片来源于作者博客) 所谓抹布女，...",
"url" : "http:\/\/go.rss.sina.com.cn\/redirect.php?url=http:\/\/astro.sina.com.cn\/l\/2013-10-29\/1240101299.shtml",
"pubDate" : "昨天12:40:55",
"enterDate" : "384201:14:05",
"channelId" : "4792831438736729305",
"channelName" : "焦点新闻-新浪星座",
"channelNameSummary" : "焦点新闻-新浪星座",
"channelUrl" : "http:\/\/astro.sina.com.cn",
"author" : "SINA.com",
"tags" : [],
"desc" : "文\/滴天居士 会成为抹布女的面相(图片来源于作者博客) 所谓抹布女，即全心全意帮助爱人成功，最后却被爱人抛弃的女性。\u201C抹布女\u201D不但在影视剧中常见，在现实生活中也存在。 那从面相上讲，哪些女人有成为抹布女的可能呢？ 一、额头低陷的女性 ....",
"emailed" : False,
"forwarded" : False,
"english" : False
}  , {
"index" : 15,
"articleIndex" : "38167",
"favor" :  False ,
     "read" : False,    
"title" : "八卦命理：容易成为小三的面相(图)",
"titleTip" : "八卦命理：容易成为小三的面相(图)",
"titleSummary" : "八卦命理：容易成为小三的面相(图)",
"descSummary" : "文\/普渡斋 容易成为小三的面相(图片来源于作者博客) 容易成为小三的...",
"url" : "http:\/\/go.rss.sina.com.cn\/redirect.php?url=http:\/\/astro.sina.com.cn\/l\/2013-10-29\/1225101296.shtml",
"pubDate" : "昨天12:25:08",
"enterDate" : "384200:58:18",
"channelId" : "4792831438736729305",
"channelName" : "焦点新闻-新浪星座",
"channelNameSummary" : "焦点新闻-新浪星座",
"channelUrl" : "http:\/\/astro.sina.com.cn",
"author" : "SINA.com",
"tags" : [],
"desc" : "文\/普渡斋 容易成为小三的面相(图片来源于作者博客) 容易成为小三的面相，婚姻是座围城，里面的人想出来，外面的人想进去。婚姻里的男女更像守城的卫兵，守住城里想出来的人，守住城外想进来的人。男女对自己婚恋的理想祈求是从一而终，且白头偕老，但当双方的感....",
"emailed" : False,
"forwarded" : False,
"english" : False
}  , {
"index" : 16,
"articleIndex" : "38166",
"favor" :  False ,
     "read" : False,    
"title" : "婚恋心理：女人最反感的4种接吻习惯(图)",
"titleTip" : "婚恋心理：女人最反感的4种接吻习惯(图)",
"titleSummary" : "婚恋心理：女人最反感的4种接吻习惯(图)",
"descSummary" : "女人最反感的4种接吻习惯(图片来源于环球网) 你以为吻的很用...",
"url" : "http:\/\/go.rss.sina.com.cn\/redirect.php?url=http:\/\/astro.sina.com.cn\/xl\/2013-10-29\/1155101294.shtml",
"pubDate" : "昨天11:55:05",
"enterDate" : "384200:58:19",
"channelId" : "4792831438736729305",
"channelName" : "焦点新闻-新浪星座",
"channelNameSummary" : "焦点新闻-新浪星座",
"channelUrl" : "http:\/\/astro.sina.com.cn",
"author" : "SINA.com",
"tags" : [],
"desc" : "女人最反感的4种接吻习惯(图片来源于环球网) 你以为吻的很用力就代表热情似火吗？喜欢用牙齿磨擦对方的嘴唇，不小心还在颈子上留下吸血鬼的齿印，这简直太可怕了，搞成这样隔天怎么出去见人呀？你们是在亲热不是在攻击对方，温柔点！ 紧闭双唇型 这种男人大....",
"emailed" : False,
"forwarded" : False,
"english" : False
}  , {
"index" : 17,
"articleIndex" : "38165",
"favor" :  False ,
     "read" : False,    
"title" : "职场测试：你努力的方向对吗(图)",
"titleTip" : "职场测试：你努力的方向对吗(图)",
"titleSummary" : "职场测试：你努力的方向对吗(图)",
"descSummary" : "你努力的方向对吗(图片来源轻博客) 独家撰稿：爱小顾(微博) 星座频道征...",
"url" : "http:\/\/go.rss.sina.com.cn\/redirect.php?url=http:\/\/astro.sina.com.cn\/t\/2013-10-29\/1154101293.shtml",
"pubDate" : "昨天11:54:10",
"enterDate" : "384200:57:24",
"channelId" : "4792831438736729305",
"channelName" : "焦点新闻-新浪星座",
"channelNameSummary" : "焦点新闻-新浪星座",
"channelUrl" : "http:\/\/astro.sina.com.cn",
"author" : "SINA.com",
"tags" : [],
"desc" : "你努力的方向对吗(图片来源轻博客) 独家撰稿：爱小顾(微博) 星座频道征稿通缉令 &#160; 大家都知道\u201C种瓜得瓜，种豆得豆\u201D，也知道努力不一定有回报，但不努力就一定不会有回报，所以想要成功，想要获得肯定，想要过上梦寐以求的生活，就必须付出劳动，必须....",
"emailed" : False,
"forwarded" : False,
"english" : False
}  , {
"index" : 18,
"articleIndex" : "38164",
"favor" :  False ,
     "read" : False,    
"title" : "婚恋心理：女性需要闺蜜的10个理由(图)",
"titleTip" : "婚恋心理：女性需要闺蜜的10个理由(图)",
"titleSummary" : "婚恋心理：女性需要闺蜜的10个理由(图)",
"descSummary" : "女性需要闺蜜的10个理由(图片来源于轻博客) 核心提示：闺蜜，即...",
"url" : "http:\/\/go.rss.sina.com.cn\/redirect.php?url=http:\/\/astro.sina.com.cn\/xl\/2013-10-29\/1152101292.shtml",
"pubDate" : "昨天11:52:23",
"enterDate" : "384200:55:37",
"channelId" : "4792831438736729305",
"channelName" : "焦点新闻-新浪星座",
"channelNameSummary" : "焦点新闻-新浪星座",
"channelUrl" : "http:\/\/astro.sina.com.cn",
"author" : "SINA.com",
"tags" : [],
"desc" : "女性需要闺蜜的10个理由(图片来源于轻博客) 核心提示：闺蜜，即是\u201C闺中密友\u201D，蜜，有\u201C小蜜\u201D的意味。凑成闺蜜就是现在女性对女友的新称呼。闺蜜听起来如丝丝阳光照爱心底，别样的温润。就算全世界的男人抛弃你了，还有闺蜜来拥抱你。 无论男人多棒，也无法取代女....",
"emailed" : False,
"forwarded" : False,
"english" : False
}  , {
"index" : 19,
"articleIndex" : "38163",
"favor" :  False ,
     "read" : False,    
"title" : "10.28-11.3占星职场周运",
"titleTip" : "10.28-11.3占星职场周运",
"titleSummary" : "10.28-11.3占星职场周运",
"descSummary" : "",
"url" : "http:\/\/go.rss.sina.com.cn\/redirect.php?url=http:\/\/blog.sina.com.cn\/s\/blog_661a25640102eocs.html",
"pubDate" : "昨天11:50:58",
"enterDate" : "384200:54:12",
"channelId" : "4792831438736729305",
"channelName" : "焦点新闻-新浪星座",
"channelNameSummary" : "焦点新闻-新浪星座",
"channelUrl" : "http:\/\/astro.sina.com.cn",
"author" : "SINA.com",
"tags" : [],
"desc" : "",
"emailed" : False,
"forwarded" : False,
"english" : False
} ]
}
