{
"mode" : {"viewTitle" : 1,   "viewNew" : 0,  "pageIndex" : 1 },
 "channel" : {"id" : "4134975263908880489", "booked" : False, "subNumber" : 1, "name" : "财经要闻汇总-新浪财经", "url" : "http:\/\/news.sina.com.cn\/news1000\/index.shtml?requestOrder=7", "feed" : "http:\/\/rss.sina.com.cn\/roll\/finance\/hot_roll.xml", "author" : "WWW.SINA.COM.CN", "desc" : "财经要闻汇总", "imageUrl" : "http:\/\/i1.sinaimg.cn\/cj\/pic\/newLogo\/logo_home_fin.gif", "postPerWeek" : "0", "lastCrawTime" : "2013年10月25日 (5天前)", "crawDateTime" : "2013年10月25日 (5天前)", "lastHttpCode" : "200"}, "page" : {
"startIndex" : 0,
"totalCount" : 5000,
"pageIndex" : 1,
"lastPage" : 250,
"pageSize" : 20,
"english" :  False },
 "unreadNum" : 0, "shotIndex" : -1,
"articles" : [
{
"index" : 0,
"articleIndex" : "389250",
"favor" :  False ,
     "read" : False,    
"title" : "企业财报不及预期 欧洲股市低开",
"titleTip" : "企业财报不及预期 欧洲股市低开",
"titleSummary" : "企业财报不及预期 欧洲股市低开",
"descSummary" : "新浪财经讯 北京时间10月25日下午消息 欧洲股市周五低开，Kering与雷...",
"url" : "http:\/\/go.rss.sina.com.cn\/redirect.php?url=http:\/\/finance.sina.com.cn\/world\/20131025\/151517116354.shtml",
"pubDate" : "2013年10月25日 (5天前)",
"enterDate" : "384201:03:51",
"channelId" : "4134975263908880489",
"channelName" : "财经要闻汇总-新浪财经",
"channelNameSummary" : "财经要闻汇总-新浪财...",
"channelUrl" : "http:\/\/news.sina.com.cn\/news1000\/index.shtml?requestOrder=7",
"author" : "WWW.SINA.COM.CN",
"tags" : [],
"desc" : "新浪财经讯 北京时间10月25日下午消息 欧洲股市周五低开，Kering与雷诺等公司的财报不及预期。美国股指期货与亚太股市均走低。 泛欧Stoxx 600指数下跌0.3%，报319.40点；英国金融时报100指数下跌0.1%，报6705.83点；德国DAX 30指数下跌0.3%，报8951.00点；法国CAC 40指....",
"emailed" : False,
"forwarded" : False,
"english" : False
}  , {
"index" : 1,
"articleIndex" : "389249",
"favor" :  False ,
     "read" : False,    
"title" : "工商总局官员：有关部门应定期对商品进行抽查",
"titleTip" : "工商总局官员：有关部门应定期对商品进行抽查",
"titleSummary" : "工商总局官员：有关部门应定期对商品进行抽查",
"descSummary" : "中国网10月25日讯 国家工商总局消费者权益保护局局长...",
"url" : "http:\/\/go.rss.sina.com.cn\/redirect.php?url=http:\/\/finance.sina.com.cn\/china\/20131025\/151217116345.shtml",
"pubDate" : "2013年10月25日 (5天前)",
"enterDate" : "384201:00:56",
"channelId" : "4134975263908880489",
"channelName" : "财经要闻汇总-新浪财经",
"channelNameSummary" : "财经要闻汇总-新浪财...",
"channelUrl" : "http:\/\/news.sina.com.cn\/news1000\/index.shtml?requestOrder=7",
"author" : "WWW.SINA.COM.CN",
"tags" : [],
"desc" : "中国网10月25日讯 国家工商总局消费者权益保护局局长杨红灿25日表示，修订后的消费者权益保护法规定有关行政部门应当定期或者不定期地对于经营者提供的商品或者服务进行抽查、检验，并及时地向社会公布结果。 全国人大常委会办公厅于25日上午10时在人民大会堂举行新闻....",
"emailed" : False,
"forwarded" : False,
"english" : False
}  , {
"index" : 2,
"articleIndex" : "389248",
"favor" :  False ,
     "read" : False,    
"title" : "WTO初步裁定中国出口稀土关税过高",
"titleTip" : "WTO初步裁定中国出口稀土关税过高",
"titleSummary" : "WTO初步裁定中国出口稀土关税过高",
"descSummary" : "新浪财经讯 东京时间25日下午消息，据日本时事通信社报道，在因...",
"url" : "http:\/\/go.rss.sina.com.cn\/redirect.php?url=http:\/\/finance.sina.com.cn\/world\/yzjj\/20131025\/151017116274.shtml",
"pubDate" : "2013年10月25日 (5天前)",
"enterDate" : "384200:58:28",
"channelId" : "4134975263908880489",
"channelName" : "财经要闻汇总-新浪财经",
"channelNameSummary" : "财经要闻汇总-新浪财...",
"channelUrl" : "http:\/\/news.sina.com.cn\/news1000\/index.shtml?requestOrder=7",
"author" : "WWW.SINA.COM.CN",
"tags" : [],
"desc" : "新浪财经讯 &#160;东京时间25日下午消息，据日本时事通信社报道，在因中国稀土出口规制引发的美日欧对华贸易诉讼中，世贸组织(WTO)已基本认可了美日欧的主张，并已向相关国家发出暂定判断通知，认定中国违反了2001年加入WTO时的协议承诺。 日媒称，世贸组织认为稀土是....",
"emailed" : False,
"forwarded" : False,
"english" : False
}  , {
"index" : 3,
"articleIndex" : "389247",
"favor" :  False ,
     "read" : False,    
"title" : "百度坚称百发将按时上线 证监会核查结果仍未公布",
"titleTip" : "百度坚称百发将按时上线 证监会核查结果仍未公布",
"titleSummary" : "百度坚称百发将按时上线 证监会核查结果仍未公布",
"descSummary" : "大智慧阿思达克通讯社10月25日讯，以8%高收益率吸...",
"url" : "http:\/\/go.rss.sina.com.cn\/redirect.php?url=http:\/\/finance.sina.com.cn\/money\/fund\/20131025\/151017116293.shtml",
"pubDate" : "2013年10月25日 (5天前)",
"enterDate" : "384200:58:24",
"channelId" : "4134975263908880489",
"channelName" : "财经要闻汇总-新浪财经",
"channelNameSummary" : "财经要闻汇总-新浪财...",
"channelUrl" : "http:\/\/news.sina.com.cn\/news1000\/index.shtml?requestOrder=7",
"author" : "WWW.SINA.COM.CN",
"tags" : [],
"desc" : "大智慧阿思达克通讯社10月25日讯，以8%高收益率吸引眼球的百度理财产品\u201C百发\u201D，原计划10月28日上线开卖。但证监会23日声称，将\u201C对该业务合规性予以核查\u201D。\u201C百发\u201D能否如期上线由此成为悬念。 百度品牌部人士周五对大智慧通讯社表示，\u201C\u2018百发\u2019将会按时上线\u201D。....",
"emailed" : False,
"forwarded" : False,
"english" : False
}  , {
"index" : 4,
"articleIndex" : "389246",
"favor" :  False ,
     "read" : False,    
"title" : "财库网：清淡走势藏玄机 美数据或搅动市场神经",
"titleTip" : "财库网：清淡走势藏玄机 美数据或搅动市场神经",
"titleSummary" : "财库网：清淡走势藏玄机 美数据或搅动市场神经",
"descSummary" : "财库网讯：周四外汇市场表现较为平静，消息面上亦是较...",
"url" : "http:\/\/go.rss.sina.com.cn\/redirect.php?url=http:\/\/finance.sina.com.cn\/money\/forex\/20131025\/150017116132.shtml",
"pubDate" : "2013年10月25日 (5天前)",
"enterDate" : "384200:48:17",
"channelId" : "4134975263908880489",
"channelName" : "财经要闻汇总-新浪财经",
"channelNameSummary" : "财经要闻汇总-新浪财...",
"channelUrl" : "http:\/\/news.sina.com.cn\/news1000\/index.shtml?requestOrder=7",
"author" : "WWW.SINA.COM.CN",
"tags" : [],
"desc" : "财库网讯：周四外汇市场表现较为平静，消息面上亦是较为清淡，各个币种波动范围有限。从近期市场的表现上来看，我们可以看出，当前市场的趋势出来之后，短期走势较为难以发生根本性变化，而近两个交易日的时间内，市场只是在整理消化前期的波动。同时我们也应该看到，本轮走势....",
"emailed" : False,
"forwarded" : False,
"english" : False
}  , {
"index" : 5,
"articleIndex" : "389245",
"favor" :  False ,
     "read" : False,    
"title" : "郑风田：转基因口粮应划红线 对商业化推广说不",
"titleTip" : "郑风田：转基因口粮应划红线 对商业化推广说不",
"titleSummary" : "郑风田：转基因口粮应划红线 对商业化推广说不",
"descSummary" : "中国网10月25日讯 (记者 张艳玲)近日，网上一则\u201C专家...",
"url" : "http:\/\/go.rss.sina.com.cn\/redirect.php?url=http:\/\/finance.sina.com.cn\/china\/hgjj\/20131025\/145617116110.shtml",
"pubDate" : "2013年10月25日 (5天前)",
"enterDate" : "384200:44:58",
"channelId" : "4134975263908880489",
"channelName" : "财经要闻汇总-新浪财经",
"channelNameSummary" : "财经要闻汇总-新浪财...",
"channelUrl" : "http:\/\/news.sina.com.cn\/news1000\/index.shtml?requestOrder=7",
"author" : "WWW.SINA.COM.CN",
"tags" : [],
"desc" : "中国网10月25日讯 (记者 张艳玲)近日，网上一则\u201C专家连续吃14年转基因大米至今身体无恙\u201D的报道再次将转基因食品安全问题推上风口浪尖。中国人民大学农业与农村发展学院副院长郑凤田认为，转基因技术是很诱人，但在目前还存在安全不确定性的情况下，不应冒然对13亿人天天吃的....",
"emailed" : False,
"forwarded" : False,
"english" : False
}  , {
"index" : 6,
"articleIndex" : "389244",
"favor" :  False ,
     "read" : False,    
"title" : "巴斯夫业绩超预期 重申全年业绩展望",
"titleTip" : "巴斯夫业绩超预期 重申全年业绩展望",
"titleSummary" : "巴斯夫业绩超预期 重申全年业绩展望",
"descSummary" : "新浪财经讯。北京时间10月25日午间消息 世界最大化工巨头德国巴...",
"url" : "http:\/\/go.rss.sina.com.cn\/redirect.php?url=http:\/\/finance.sina.com.cn\/stock\/usstock\/c\/20131025\/145517116109.shtml",
"pubDate" : "2013年10月25日 (5天前)",
"enterDate" : "384200:43:39",
"channelId" : "4134975263908880489",
"channelName" : "财经要闻汇总-新浪财经",
"channelNameSummary" : "财经要闻汇总-新浪财...",
"channelUrl" : "http:\/\/news.sina.com.cn\/news1000\/index.shtml?requestOrder=7",
"author" : "WWW.SINA.COM.CN",
"tags" : [],
"desc" : "新浪财经讯。北京时间10月25日午间消息&#160;世界最大化工巨头德国巴斯夫周五发布财报，部门业务增长超过了不利汇率影响，三季度净利润大增19%。 公司首席执行官Kurt Bock称，盈利增长要归功于功能材料&amp;解决方案以及高性能产品部门的增长。同时，其他部门开支减少....",
"emailed" : False,
"forwarded" : False,
"english" : False
}  , {
"index" : 7,
"articleIndex" : "389242",
"favor" :  False ,
     "read" : False,    
"title" : "长城汽车三季报业绩增速低于预期 AH股双双重挫",
"titleTip" : "长城汽车三季报业绩增速低于预期 AH股双双重挫",
"titleSummary" : "长城汽车三季报业绩增速低于预期 AH股双双重挫",
"descSummary" : "新浪财经讯 10月25日消息，长城汽车三季报业绩增速放...",
"url" : "http:\/\/go.rss.sina.com.cn\/redirect.php?url=http:\/\/finance.sina.com.cn\/stock\/hkstock\/marketalerts\/20131025\/145317116102.shtml",
"pubDate" : "2013年10月25日 (5天前)",
"enterDate" : "384201:11:31",
"channelId" : "4134975263908880489",
"channelName" : "财经要闻汇总-新浪财经",
"channelNameSummary" : "财经要闻汇总-新浪财...",
"channelUrl" : "http:\/\/news.sina.com.cn\/news1000\/index.shtml?requestOrder=7",
"author" : "WWW.SINA.COM.CN",
"tags" : [],
"desc" : "新浪财经讯 10月25日消息，长城汽车三季报业绩增速放缓，低于市场预期，AH股双双重挫，A股跌停，H股跌逾9%。 截至14:45，长城汽车A股跌10%报43.55元，成交约4.44亿元；H股跌9.29%报43.95港元，成交约7.77亿港元，而且跌势有进一步扩大迹象。 长城汽车24日晚间披....",
"emailed" : False,
"forwarded" : False,
"english" : False
}  , {
"index" : 8,
"articleIndex" : "389241",
"favor" :  False ,
     "read" : False,    
"title" : "24地区上调最低工资标准 平均幅度为18%",
"titleTip" : "24地区上调最低工资标准 平均幅度为18%",
"titleSummary" : "24地区上调最低工资标准 平均幅度为18%",
"descSummary" : "人民网北京10月25日电 (记者 乔雪峰)人力资源和社会保障部25...",
"url" : "http:\/\/go.rss.sina.com.cn\/redirect.php?url=http:\/\/finance.sina.com.cn\/china\/20131025\/145017116087.shtml",
"pubDate" : "2013年10月25日 (5天前)",
"enterDate" : "384201:08:58",
"channelId" : "4134975263908880489",
"channelName" : "财经要闻汇总-新浪财经",
"channelNameSummary" : "财经要闻汇总-新浪财...",
"channelUrl" : "http:\/\/news.sina.com.cn\/news1000\/index.shtml?requestOrder=7",
"author" : "WWW.SINA.COM.CN",
"tags" : [],
"desc" : "人民网北京10月25日电 (记者 乔雪峰)人力资源和社会保障部25日上午召开新闻发布会，人力资源和社会保障部新闻发言人尹成基在发布会上表示，截至9月底，共有24个地区调整了最低工资标准，平均调增幅度为18%。目前，全国月最低工资标准最高的是上海的1620元，小时最低工资标准最....",
"emailed" : False,
"forwarded" : False,
"english" : False
}  , {
"index" : 9,
"articleIndex" : "389240",
"favor" :  False ,
     "read" : False,    
"title" : "国五条后刚需忙过户:地王催涨 买家不接受",
"titleTip" : "国五条后刚需忙过户:地王催涨 买家不接受",
"titleSummary" : "国五条后刚需忙过户:地王催涨 买家不接受",
"descSummary" : "买家分析案例 陈先生年前在越秀区买了一套30多平方米的学位...",
"url" : "http:\/\/go.rss.sina.com.cn\/redirect.php?url=http:\/\/finance.sina.com.cn\/china\/20131025\/144617116064.shtml",
"pubDate" : "2013年10月25日 (5天前)",
"enterDate" : "384201:05:05",
"channelId" : "4134975263908880489",
"channelName" : "财经要闻汇总-新浪财经",
"channelNameSummary" : "财经要闻汇总-新浪财...",
"channelUrl" : "http:\/\/news.sina.com.cn\/news1000\/index.shtml?requestOrder=7",
"author" : "WWW.SINA.COM.CN",
"tags" : [],
"desc" : "■买家分析案例 陈先生年前在越秀区买了一套30多平方米的学位房，因为工作比较忙一直没有时间来办理相关手续，听闻政策变化的消息后，房产中介也多次来电催促，陈先生选择请假前来办理手续。\u201C之前已经买了一套房，但没有学位，眼看小孩上学的年龄已经到了，迫不得已只....",
"emailed" : False,
"forwarded" : False,
"english" : False
}  , {
"index" : 10,
"articleIndex" : "389239",
"favor" :  False ,
     "read" : False,    
"title" : "兴业投资: 原油转跌为升 上行仍缺乏动能",
"titleTip" : "兴业投资: 原油转跌为升 上行仍缺乏动能",
"titleSummary" : "兴业投资: 原油转跌为升 上行仍缺乏动能",
"descSummary" : "原油： 周四原油收涨0.25美元，结束三连跌，报每桶97.11美元，...",
"url" : "http:\/\/go.rss.sina.com.cn\/redirect.php?url=http:\/\/finance.sina.com.cn\/money\/future\/fmnews\/20131025\/144617116063.shtml",
"pubDate" : "2013年10月25日 (5天前)",
"enterDate" : "384201:04:57",
"channelId" : "4134975263908880489",
"channelName" : "财经要闻汇总-新浪财经",
"channelNameSummary" : "财经要闻汇总-新浪财...",
"channelUrl" : "http:\/\/news.sina.com.cn\/news1000\/index.shtml?requestOrder=7",
"author" : "WWW.SINA.COM.CN",
"tags" : [],
"desc" : "原油： 周四原油收涨0.25美元，结束三连跌，报每桶97.11美元，因中国汇丰PMI初值升至50.9，创七个月来新高。此外，美国汽油期货从16个月低位反弹带动了油价上扬，因芝加哥附近一炼油厂着火关闭。不过，燃料库存仍然很高，尽管目前许多炼厂停工检修。由于交易商押注美国....",
"emailed" : False,
"forwarded" : False,
"english" : False
}  , {
"index" : 11,
"articleIndex" : "389243",
"favor" :  False ,
     "read" : False,    
"title" : "辜胜阻：科技改革要缝合科技经济两张皮",
"titleTip" : "辜胜阻：科技改革要缝合科技经济两张皮",
"titleSummary" : "辜胜阻：科技改革要缝合科技经济两张皮",
"descSummary" : "新华网消息 在刚刚闭幕的十二届全国人大常委会第五次会议上...",
"url" : "http:\/\/go.rss.sina.com.cn\/redirect.php?url=http:\/\/finance.sina.com.cn\/china\/20131025\/144117116162.shtml",
"pubDate" : "2013年10月25日 (5天前)",
"enterDate" : "384200:29:14",
"channelId" : "4134975263908880489",
"channelName" : "财经要闻汇总-新浪财经",
"channelNameSummary" : "财经要闻汇总-新浪财...",
"channelUrl" : "http:\/\/news.sina.com.cn\/news1000\/index.shtml?requestOrder=7",
"author" : "WWW.SINA.COM.CN",
"tags" : [],
"desc" : "新华网消息 在刚刚闭幕的十二届全国人大常委会第五次会议上，全国人大常委会组成人员审议了国家财政资金分配和使用情况的报告，并就有关问题询问了国务院组成人员。 全国人大常委会委员、人大财经委副主任委员、经济学家辜胜阻在审议和询问时表示，近年来，我国财政科....",
"emailed" : False,
"forwarded" : False,
"english" : False
}  , {
"index" : 12,
"articleIndex" : "389238",
"favor" :  False ,
     "read" : False,    
"title" : "财政部：车主报废老旧汽车逾期申领补贴不予受理",
"titleTip" : "财政部：车主报废老旧汽车逾期申领补贴不予受理",
"titleSummary" : "财政部：车主报废老旧汽车逾期申领补贴不予受理",
"descSummary" : "关于印发《老旧汽车报废更新补贴资金管理办法》的通...",
"url" : "http:\/\/go.rss.sina.com.cn\/redirect.php?url=http:\/\/finance.sina.com.cn\/china\/20131025\/143717115971.shtml",
"pubDate" : "2013年10月25日 (5天前)",
"enterDate" : "384200:55:32",
"channelId" : "4134975263908880489",
"channelName" : "财经要闻汇总-新浪财经",
"channelNameSummary" : "财经要闻汇总-新浪财...",
"channelUrl" : "http:\/\/news.sina.com.cn\/news1000\/index.shtml?requestOrder=7",
"author" : "WWW.SINA.COM.CN",
"tags" : [],
"desc" : "关于印发《老旧汽车报废更新补贴资金管理办法》的通知 财建[2013]183号 各省、自治区、直辖市、计划单列市财政厅(局)、商务主管部门，新疆生产建设兵团财务局、商务局： 为了进一步规范老旧汽车报废更新专项补贴资金的管理和使用，鼓励老旧汽车报废....",
"emailed" : False,
"forwarded" : False,
"english" : False
}  , {
"index" : 13,
"articleIndex" : "389237",
"favor" :  False ,
     "read" : False,    
"title" : "王军：中国经济稳而不强 中期存一定风险",
"titleTip" : "王军：中国经济稳而不强 中期存一定风险",
"titleSummary" : "王军：中国经济稳而不强 中期存一定风险",
"descSummary" : "中国国际经济交流中心咨询研究所副部长王军在\u201C2013商会资...",
"url" : "http:\/\/go.rss.sina.com.cn\/redirect.php?url=http:\/\/finance.sina.com.cn\/china\/hgjj\/20131025\/143517115968.shtml",
"pubDate" : "2013年10月25日 (5天前)",
"enterDate" : "384200:54:11",
"channelId" : "4134975263908880489",
"channelName" : "财经要闻汇总-新浪财经",
"channelNameSummary" : "财经要闻汇总-新浪财...",
"channelUrl" : "http:\/\/news.sina.com.cn\/news1000\/index.shtml?requestOrder=7",
"author" : "WWW.SINA.COM.CN",
"tags" : [],
"desc" : "中国国际经济交流中心咨询研究所副部长王军在\u201C2013商会资本经济高峰论坛\u201D上表示，目前中国经济稳中有进，但稳而不强、稳中有优；未来一两个季度经济不必担心，但中期存在一定的风险，对微观企业来讲，随着结构的调整的深入，有些行业可能会更加难过。 王军对\u201C稳而不....",
"emailed" : False,
"forwarded" : False,
"english" : False
}  , {
"index" : 14,
"articleIndex" : "389236",
"favor" :  False ,
     "read" : False,    
"title" : "厉以宁：收入分配改革重点是初次分配",
"titleTip" : "厉以宁：收入分配改革重点是初次分配",
"titleSummary" : "厉以宁：收入分配改革重点是初次分配",
"descSummary" : "昨日，第二届工商行政管理创新发展高层研讨会在成都召开，此次...",
"url" : "http:\/\/go.rss.sina.com.cn\/redirect.php?url=http:\/\/finance.sina.com.cn\/china\/20131025\/143117115853.shtml",
"pubDate" : "2013年10月25日 (5天前)",
"enterDate" : "384200:49:19",
"channelId" : "4134975263908880489",
"channelName" : "财经要闻汇总-新浪财经",
"channelNameSummary" : "财经要闻汇总-新浪财...",
"channelUrl" : "http:\/\/news.sina.com.cn\/news1000\/index.shtml?requestOrder=7",
"author" : "WWW.SINA.COM.CN",
"tags" : [],
"desc" : "昨日，第二届工商行政管理创新发展高层研讨会在成都召开，此次研讨会也是第六届中国西部国际合作论坛的分论坛之一。国家工商总局、各省(区、市)工商局负责人、经济专家学者共话工商行政管理\u201C改革\u201D与\u201C活力\u201D。全国政协常委、著名经济学家厉以宁作了《经济转型条件下民营企业....",
"emailed" : False,
"forwarded" : False,
"english" : False
}  , {
"index" : 15,
"articleIndex" : "389234",
"favor" :  False ,
     "read" : False,    
"title" : "人社部：养老保险个人账户要逐步实现实账运行",
"titleTip" : "人社部：养老保险个人账户要逐步实现实账运行",
"titleSummary" : "人社部：养老保险个人账户要逐步实现实账运行",
"descSummary" : "每经记者 王雅洁 发自北京 针对长期存在的养老金个人账...",
"url" : "http:\/\/go.rss.sina.com.cn\/redirect.php?url=http:\/\/finance.sina.com.cn\/china\/20131025\/143017115786.shtml",
"pubDate" : "2013年10月25日 (5天前)",
"enterDate" : "384200:48:13",
"channelId" : "4134975263908880489",
"channelName" : "财经要闻汇总-新浪财经",
"channelNameSummary" : "财经要闻汇总-新浪财...",
"channelUrl" : "http:\/\/news.sina.com.cn\/news1000\/index.shtml?requestOrder=7",
"author" : "WWW.SINA.COM.CN",
"tags" : [],
"desc" : "每经记者 王雅洁 发自北京 针对长期存在的养老金个人账户巨额空账问题，国家人社部回应称\u201C个人账户要逐步实现实账运行\u201D。 在10月25日的新闻发布会上，人社部新闻发言人尹成基说，养老保险个人账户要逐步实现实账运行。 制度要求的另一个方面是要实现部....",
"emailed" : False,
"forwarded" : False,
"english" : False
}  , {
"index" : 16,
"articleIndex" : "389235",
"favor" :  False ,
     "read" : False,    
"title" : "中央财政累计安排中小企业创新基金268.26亿元",
"titleTip" : "中央财政累计安排中小企业创新基金268.26亿元",
"titleSummary" : "中央财政累计安排中小企业创新基金268.26亿元",
"descSummary" : "中国网10月25日讯 财政部网站25日发布消息称，1999-20...",
"url" : "http:\/\/go.rss.sina.com.cn\/redirect.php?url=http:\/\/finance.sina.com.cn\/china\/hgjj\/20131025\/143017115996.shtml",
"pubDate" : "2013年10月25日 (5天前)",
"enterDate" : "384200:48:13",
"channelId" : "4134975263908880489",
"channelName" : "财经要闻汇总-新浪财经",
"channelNameSummary" : "财经要闻汇总-新浪财...",
"channelUrl" : "http:\/\/news.sina.com.cn\/news1000\/index.shtml?requestOrder=7",
"author" : "WWW.SINA.COM.CN",
"tags" : [],
"desc" : "中国网10月25日讯 财政部网站25日发布消息称，1999-2013年，中央财政累计安排创新基金268.26亿元，育了一大批科技型中小企业，带动了一批新兴产业的兴起和发展，为提升我国科技创新能力做出了积极贡献。全文如下： 为鼓励科技型中小企业技术创新，促进科技成果转化，19....",
"emailed" : False,
"forwarded" : False,
"english" : False
}  , {
"index" : 17,
"articleIndex" : "389232",
"favor" :  False ,
     "read" : False,    
"title" : "香港电视放量飙涨3成 电视牌照风云持续酝酿",
"titleTip" : "香港电视放量飙涨3成 电视牌照风云持续酝酿",
"titleSummary" : "香港电视放量飙涨3成 电视牌照风云持续酝酿",
"descSummary" : "新浪财经讯 10月25日消息，未获免费电视牌照而一度大跌的...",
"url" : "http:\/\/go.rss.sina.com.cn\/redirect.php?url=http:\/\/finance.sina.com.cn\/stock\/hkstock\/marketalerts\/20131025\/141617115705.shtml",
"pubDate" : "2013年10月25日 (5天前)",
"enterDate" : "384201:04:46",
"channelId" : "4134975263908880489",
"channelName" : "财经要闻汇总-新浪财经",
"channelNameSummary" : "财经要闻汇总-新浪财...",
"channelUrl" : "http:\/\/news.sina.com.cn\/news1000\/index.shtml?requestOrder=7",
"author" : "WWW.SINA.COM.CN",
"tags" : [],
"desc" : "新浪财经讯 10月25日消息，未获免费电视牌照而一度大跌的香港电视午后突然放量飙升，涨幅一度超3成。 截至14:00，香港电视涨29.13%报2.97港元，成交约1.22亿港元，盘中最高涨至3.02港元，涨30%。 10月15日，港府发布免费电视牌照，此前备受市场看好的香港电视意....",
"emailed" : False,
"forwarded" : False,
"english" : False
}  , {
"index" : 18,
"articleIndex" : "389231",
"favor" :  False ,
     "read" : False,    
"title" : "亚洲股市下滑 日经指数大跌2.75%",
"titleTip" : "亚洲股市下滑 日经指数大跌2.75%",
"titleSummary" : "亚洲股市下滑 日经指数大跌2.75%",
"descSummary" : "新浪财经讯 北京时间10月25日上午消息 亚洲股市周五大多下滑，多家...",
"url" : "http:\/\/go.rss.sina.com.cn\/redirect.php?url=http:\/\/finance.sina.com.cn\/world\/20131025\/141117115686.shtml",
"pubDate" : "2013年10月25日 (5天前)",
"enterDate" : "384200:59:48",
"channelId" : "4134975263908880489",
"channelName" : "财经要闻汇总-新浪财经",
"channelNameSummary" : "财经要闻汇总-新浪财...",
"channelUrl" : "http:\/\/news.sina.com.cn\/news1000\/index.shtml?requestOrder=7",
"author" : "WWW.SINA.COM.CN",
"tags" : [],
"desc" : "新浪财经讯 北京时间10月25日上午消息 亚洲股市周五大多下滑，多家企业公布了业绩。因近期来自中国经济数据向好，澳大利亚继续保持强势。日元近期的强势继续给日本股市带来压力。日经指数下跌2.75%，收盘报14088.19点。 在东京，佳能下跌了1.4%，该公司将全财年净利润....",
"emailed" : False,
"forwarded" : False,
"english" : False
}  , {
"index" : 19,
"articleIndex" : "389233",
"favor" :  False ,
     "read" : False,    
"title" : "天弘基金周晓明：天弘基金二期将入阿里云",
"titleTip" : "天弘基金周晓明：天弘基金二期将入阿里云",
"titleSummary" : "天弘基金周晓明：天弘基金二期将入阿里云",
"descSummary" : "大智慧阿思达克通讯社10月25日讯，天弘基金副总经理周晓...",
"url" : "http:\/\/go.rss.sina.com.cn\/redirect.php?url=http:\/\/finance.sina.com.cn\/money\/fund\/20131025\/135017115485.shtml",
"pubDate" : "2013年10月25日 (5天前)",
"enterDate" : "384200:08:30",
"channelId" : "4134975263908880489",
"channelName" : "财经要闻汇总-新浪财经",
"channelNameSummary" : "财经要闻汇总-新浪财...",
"channelUrl" : "http:\/\/news.sina.com.cn\/news1000\/index.shtml?requestOrder=7",
"author" : "WWW.SINA.COM.CN",
"tags" : [],
"desc" : "大智慧阿思达克通讯社10月25日讯，天弘基金副总经理周晓明今日在阿里云开发者大会上表示，天弘基金将在二期\u201C入云\u201D，他表示上阿里云能使天弘的系统应对双十一可能上亿的交易量，并产生海量数据资源。 周晓明在会上表示，目前天弘基金方面正在借助阿里云开发第二期基金....",
"emailed" : False,
"forwarded" : False,
"english" : False
} ]
}
