{
"mode" : {"viewTitle" : 1,   "viewNew" : 0,  "pageIndex" : 2 },
 "channel" : {"id" : "4134975263908880489", "booked" : False, "subNumber" : 1, "name" : "财经要闻汇总-新浪财经", "url" : "http:\/\/news.sina.com.cn\/news1000\/index.shtml?requestOrder=7", "feed" : "http:\/\/rss.sina.com.cn\/roll\/finance\/hot_roll.xml", "author" : "WWW.SINA.COM.CN", "desc" : "财经要闻汇总", "imageUrl" : "http:\/\/i1.sinaimg.cn\/cj\/pic\/newLogo\/logo_home_fin.gif", "postPerWeek" : "0", "lastCrawTime" : "2013年10月25日 (5天前)", "crawDateTime" : "2013年10月25日 (5天前)", "lastHttpCode" : "200"}, "page" : {
"startIndex" : 20,
"totalCount" : 5000,
"pageIndex" : 2,
"lastPage" : 250,
"pageSize" : 20,
"english" :  False },
 "unreadNum" : 0, "shotIndex" : -1,
"articles" : [
{
"index" : 0,
"articleIndex" : "389230",
"favor" :  False ,
     "read" : False,    
"title" : "中央财政大力支持科技型中小企业技术创新",
"titleTip" : "中央财政大力支持科技型中小企业技术创新",
"titleSummary" : "中央财政大力支持科技型中小企业技术创新",
"descSummary" : "为鼓励科技型中小企业技术创新，促进科技成果转化，1999...",
"url" : "http:\/\/go.rss.sina.com.cn\/redirect.php?url=http:\/\/finance.sina.com.cn\/china\/20131025\/140817115623.shtml",
"pubDate" : "2013年10月25日 (5天前)",
"enterDate" : "384200:56:36",
"channelId" : "4134975263908880489",
"channelName" : "财经要闻汇总-新浪财经",
"channelNameSummary" : "财经要闻汇总-新浪财...",
"channelUrl" : "http:\/\/news.sina.com.cn\/news1000\/index.shtml?requestOrder=7",
"author" : "WWW.SINA.COM.CN",
"tags" : [],
"desc" : "为鼓励科技型中小企业技术创新，促进科技成果转化，1999年，经国务院批准，中央财政设立首只专门支持中小企业的专项资金\u2015\u2015科技型中小企业技术创新基金(以下简称创新基金)。近年来，中央财政不断加大对创新基金的投入力度，完善政策内容，对于提升科技型中小企业的技术创新能....",
"emailed" : False,
"forwarded" : False,
"english" : False
}  , {
"index" : 1,
"articleIndex" : "389229",
"favor" :  False ,
     "read" : False,    
"title" : "华东资本：短线反复震荡 商品货币走势疲软",
"titleTip" : "华东资本：短线反复震荡 商品货币走势疲软",
"titleSummary" : "华东资本：短线反复震荡 商品货币走势疲软",
"descSummary" : "美元指数： 美元指数 昨日，数据显示，美国上周初请失业金...",
"url" : "http:\/\/go.rss.sina.com.cn\/redirect.php?url=http:\/\/finance.sina.com.cn\/money\/forex\/20131025\/135817115503.shtml",
"pubDate" : "2013年10月25日 (5天前)",
"enterDate" : "384200:46:27",
"channelId" : "4134975263908880489",
"channelName" : "财经要闻汇总-新浪财经",
"channelNameSummary" : "财经要闻汇总-新浪财...",
"channelUrl" : "http:\/\/news.sina.com.cn\/news1000\/index.shtml?requestOrder=7",
"author" : "WWW.SINA.COM.CN",
"tags" : [],
"desc" : "美元指数： 美元指数 昨日，数据显示，美国上周初请失业金人数∶35万，前值∶35.8万，预估值∶34万。 此外，美国10月Markit制造业采购经理人指数初值∶51.1，前值∶52.8，预估值∶52.0。 技术面：从日图看，美元指数保持空头态势不变，短线围绕中阴K....",
"emailed" : False,
"forwarded" : False,
"english" : False
}  , {
"index" : 2,
"articleIndex" : "389228",
"favor" :  False ,
     "read" : False,    
"title" : "消费者权益保护法20年来首度修改 保障网购维权",
"titleTip" : "消费者权益保护法20年来首度修改 保障网购维权",
"titleSummary" : "消费者权益保护法20年来首度修改 保障网购维权",
"descSummary" : "国际在线报道(记者 陈雨)：今天中国全国人大常委会会议...",
"url" : "http:\/\/go.rss.sina.com.cn\/redirect.php?url=http:\/\/finance.sina.com.cn\/china\/20131025\/135617115501.shtml",
"pubDate" : "2013年10月25日 (5天前)",
"enterDate" : "384200:44:22",
"channelId" : "4134975263908880489",
"channelName" : "财经要闻汇总-新浪财经",
"channelNameSummary" : "财经要闻汇总-新浪财...",
"channelUrl" : "http:\/\/news.sina.com.cn\/news1000\/index.shtml?requestOrder=7",
"author" : "WWW.SINA.COM.CN",
"tags" : [],
"desc" : "国际在线报道(记者 陈雨)：今天中国全国人大常委会会议表决通过了新修订的《消费者权益保护法》，这也是该部法律20年来的首次修订。而经过此次修订后，中国消费者的权益将得进一步保护。 网购已经成为当下年轻人都市生活中不可或缺的重要内容。随着网购的增多，网购退....",
"emailed" : False,
"forwarded" : False,
"english" : False
}  , {
"index" : 3,
"articleIndex" : "389227",
"favor" :  False ,
     "read" : False,    
"title" : "乳业兼并重组方案已上报 五年后奶企或减半",
"titleTip" : "乳业兼并重组方案已上报 五年后奶企或减半",
"titleSummary" : "乳业兼并重组方案已上报 五年后奶企或减半",
"descSummary" : "核心提示：昨日(24日)，在前三季度工业通信业发展情况发布...",
"url" : "http:\/\/go.rss.sina.com.cn\/redirect.php?url=http:\/\/finance.sina.com.cn\/china\/20131025\/134917115531.shtml",
"pubDate" : "2013年10月25日 (5天前)",
"enterDate" : "384200:37:16",
"channelId" : "4134975263908880489",
"channelName" : "财经要闻汇总-新浪财经",
"channelNameSummary" : "财经要闻汇总-新浪财...",
"channelUrl" : "http:\/\/news.sina.com.cn\/news1000\/index.shtml?requestOrder=7",
"author" : "WWW.SINA.COM.CN",
"tags" : [],
"desc" : "核心提示：昨日(24日)，在前三季度工业通信业发展情况发布会上，工信部运行监测协调局局长肖春泉透露，工信部已制定了婴幼儿配方乳粉行业企业兼并重组方案，目前已上报国务院待批。 在政府的强力推动下，国内奶粉行业兼并重组的步伐进一步加快。昨日(24日)，在前三季度....",
"emailed" : False,
"forwarded" : False,
"english" : False
}  , {
"index" : 4,
"articleIndex" : "389225",
"favor" :  False ,
     "read" : False,    
"title" : "邦达亚洲：关注英GDP数据 英镑有走低风险",
"titleTip" : "邦达亚洲：关注英GDP数据 英镑有走低风险",
"titleSummary" : "邦达亚洲：关注英GDP数据 英镑有走低风险",
"descSummary" : "昨日非美货币并没能继续走升，而是保持高位震荡之势，其中...",
"url" : "http:\/\/go.rss.sina.com.cn\/redirect.php?url=http:\/\/finance.sina.com.cn\/money\/forex\/20131025\/134517115438.shtml",
"pubDate" : "2013年10月25日 (5天前)",
"enterDate" : "384201:03:59",
"channelId" : "4134975263908880489",
"channelName" : "财经要闻汇总-新浪财经",
"channelNameSummary" : "财经要闻汇总-新浪财...",
"channelUrl" : "http:\/\/news.sina.com.cn\/news1000\/index.shtml?requestOrder=7",
"author" : "WWW.SINA.COM.CN",
"tags" : [],
"desc" : "昨日非美货币并没能继续走升，而是保持高位震荡之势，其中数据的疲软起了很大的影响，数据编撰机构Markit周四公布的数据显示，欧元区10月综合PMI初值51.5，虽然连续第四个月处于扩张领域，但与过去几个月相比，经济活动的扩张速度有所减缓，且不及预期的52.4。同时，德国及法....",
"emailed" : False,
"forwarded" : False,
"english" : False
}  , {
"index" : 5,
"articleIndex" : "389224",
"favor" :  False ,
     "read" : False,    
"title" : "NordFX：欧元走势一路向上 美元疲弱推非美",
"titleTip" : "NordFX：欧元走势一路向上 美元疲弱推非美",
"titleSummary" : "NordFX：欧元走势一路向上 美元疲弱推非美",
"descSummary" : "作者：NordFX 外汇市场，投资者目前对欧系货币的整体走势...",
"url" : "http:\/\/go.rss.sina.com.cn\/redirect.php?url=http:\/\/finance.sina.com.cn\/money\/forex\/20131025\/134417115426.shtml",
"pubDate" : "2013年10月25日 (5天前)",
"enterDate" : "384201:02:59",
"channelId" : "4134975263908880489",
"channelName" : "财经要闻汇总-新浪财经",
"channelNameSummary" : "财经要闻汇总-新浪财...",
"channelUrl" : "http:\/\/news.sina.com.cn\/news1000\/index.shtml?requestOrder=7",
"author" : "WWW.SINA.COM.CN",
"tags" : [],
"desc" : "作者：NordFX 外汇市场，投资者目前对欧系货币的整体走势普遍较为乐观。在美联储年内缩减QE希望大减，资金寻求流出美元的背景下，欧洲显然是主要受益者，这与英国和欧元区向上修正的经济增长预期相符合。投行高盛集团(Goldman&#160;Sachs)周四就表示，包括英镑和欧元在....",
"emailed" : False,
"forwarded" : False,
"english" : False
}  , {
"index" : 6,
"articleIndex" : "389223",
"favor" :  False ,
     "read" : False,    
"title" : "昆仑国际：美指小幅上扬 美瑞酝酿走强情绪",
"titleTip" : "昆仑国际：美指小幅上扬 美瑞酝酿走强情绪",
"titleSummary" : "昆仑国际：美指小幅上扬 美瑞酝酿走强情绪",
"descSummary" : "2013年10月25日 隔日美元兑瑞郎阴十字型，最高触及0.892...",
"url" : "http:\/\/go.rss.sina.com.cn\/redirect.php?url=http:\/\/finance.sina.com.cn\/money\/forex\/20131025\/134117115419.shtml",
"pubDate" : "2013年10月25日 (5天前)",
"enterDate" : "384200:59:28",
"channelId" : "4134975263908880489",
"channelName" : "财经要闻汇总-新浪财经",
"channelNameSummary" : "财经要闻汇总-新浪财...",
"channelUrl" : "http:\/\/news.sina.com.cn\/news1000\/index.shtml?requestOrder=7",
"author" : "WWW.SINA.COM.CN",
"tags" : [],
"desc" : "2013年10月25日&#160; 隔日美元兑瑞郎阴十字型，最高触及0.8926，最低触及0.8808，汇价暂受到了日线图中布林下轨的支撑。欧洲方面，默克尔默默推进组阁进程，我们需要密切关注。美国方面，美国方面，10月份美国制造业活动勉强实现扩张。数据提供商Markit编制的数据显示....",
"emailed" : False,
"forwarded" : False,
"english" : False
}  , {
"index" : 7,
"articleIndex" : "389222",
"favor" :  False ,
     "read" : False,    
"title" : "大市午后跌幅扩大 民行8连跌沽空旺",
"titleTip" : "大市午后跌幅扩大 民行8连跌沽空旺",
"titleSummary" : "大市午后跌幅扩大 民行8连跌沽空旺",
"descSummary" : "新浪财经讯 10月25日消息，据财华社报道，港股午后跌幅扩大，最新...",
"url" : "http:\/\/go.rss.sina.com.cn\/redirect.php?url=http:\/\/finance.sina.com.cn\/stock\/hkstock\/marketalerts\/20131025\/133917115376.shtml",
"pubDate" : "2013年10月25日 (5天前)",
"enterDate" : "384200:58:13",
"channelId" : "4134975263908880489",
"channelName" : "财经要闻汇总-新浪财经",
"channelNameSummary" : "财经要闻汇总-新浪财...",
"channelUrl" : "http:\/\/news.sina.com.cn\/news1000\/index.shtml?requestOrder=7",
"author" : "WWW.SINA.COM.CN",
"tags" : [],
"desc" : "新浪财经讯 10月25日消息，据财华社报道，港股午后跌幅扩大，最新跌190点报22645点。国指跌176点报10146。 内地股市午后仍弱，上证综指最新报2141.22，跌23点或1.07%。 港股半日沽空金额为21.68亿元，占大市半日成交之比率为7%，为近日平均水平。安硕A50中国(02....",
"emailed" : False,
"forwarded" : False,
"english" : False
}  , {
"index" : 8,
"articleIndex" : "389221",
"favor" :  False ,
     "read" : False,    
"title" : "中通快递中途加收入仓费 业内称说法站不住脚",
"titleTip" : "中通快递中途加收入仓费 业内称说法站不住脚",
"titleSummary" : "中通快递中途加收入仓费 业内称说法站不住脚",
"descSummary" : "快递途中竟通知加收\u201C入仓费\u201D 业内人士称所谓\u201C资源消...",
"url" : "http:\/\/go.rss.sina.com.cn\/redirect.php?url=http:\/\/finance.sina.com.cn\/consume\/puguangtai\/20131025\/133917115375.shtml",
"pubDate" : "2013年10月25日 (5天前)",
"enterDate" : "384200:58:08",
"channelId" : "4134975263908880489",
"channelName" : "财经要闻汇总-新浪财经",
"channelNameSummary" : "财经要闻汇总-新浪财...",
"channelUrl" : "http:\/\/news.sina.com.cn\/news1000\/index.shtml?requestOrder=7",
"author" : "WWW.SINA.COM.CN",
"tags" : [],
"desc" : "快递途中竟通知加收\u201C入仓费\u201D 业内人士称所谓\u201C资源消耗严重\u201D站不住脚 昨日，南方日报记者接到龙先生的报料，称前几天他通过中通快递寄一件商品到广州的京东进行返修，快递员收取了10元的快递费。到了第二天，快递员打电话告诉他说还需要再收10元的\u201C入仓费\u201D，否则....",
"emailed" : False,
"forwarded" : False,
"english" : False
}  , {
"index" : 9,
"articleIndex" : "389220",
"favor" :  False ,
     "read" : False,    
"title" : "美国汇盛：经济数据成隐患 美元前景堪忧",
"titleTip" : "美国汇盛：经济数据成隐患 美元前景堪忧",
"titleSummary" : "美国汇盛：经济数据成隐患 美元前景堪忧",
"descSummary" : "2013年10月25日汇市评论 市场焦点 近期美国经济数据持续走软...",
"url" : "http:\/\/go.rss.sina.com.cn\/redirect.php?url=http:\/\/finance.sina.com.cn\/money\/forex\/20131025\/133917115373.shtml",
"pubDate" : "2013年10月25日 (5天前)",
"enterDate" : "384200:57:34",
"channelId" : "4134975263908880489",
"channelName" : "财经要闻汇总-新浪财经",
"channelNameSummary" : "财经要闻汇总-新浪财...",
"channelUrl" : "http:\/\/news.sina.com.cn\/news1000\/index.shtml?requestOrder=7",
"author" : "WWW.SINA.COM.CN",
"tags" : [],
"desc" : "2013年10月25日汇市评论 市场焦点 近期美国经济数据持续走软，各项补发的9月份数据在非农的\u201C领导\u201D下均差于预期，昨日公布的周初请失业金以及10月份的制造业采购经理人指数都差于预期，更加印证了美元的疲软。而与此同时欧元区方面公布的经济数据也不尽人意，....",
"emailed" : False,
"forwarded" : False,
"english" : False
}  , {
"index" : 10,
"articleIndex" : "389226",
"favor" :  False ,
     "read" : False,    
"title" : "人社部：养老金双轨制将会逐步得到解决",
"titleTip" : "人社部：养老金双轨制将会逐步得到解决",
"titleSummary" : "人社部：养老金双轨制将会逐步得到解决",
"descSummary" : "人民网北京10月25日电 (记者 乔雪峰)人力资源和社会保障部25...",
"url" : "http:\/\/go.rss.sina.com.cn\/redirect.php?url=http:\/\/finance.sina.com.cn\/china\/20131025\/133417115443.shtml",
"pubDate" : "2013年10月25日 (5天前)",
"enterDate" : "384200:22:16",
"channelId" : "4134975263908880489",
"channelName" : "财经要闻汇总-新浪财经",
"channelNameSummary" : "财经要闻汇总-新浪财...",
"channelUrl" : "http:\/\/news.sina.com.cn\/news1000\/index.shtml?requestOrder=7",
"author" : "WWW.SINA.COM.CN",
"tags" : [],
"desc" : "人民网北京10月25日电 (记者 乔雪峰)人力资源和社会保障部25日上午召开新闻发布会，介绍2013年第三季度人力资源和社会保障工作进展情况。人力资源和社会保障部新闻发言人尹成基表示，社会上比较关注的养老金双轨制的问题将会逐步得到解决。从改革的推进安排上，我们一直采取措....",
"emailed" : False,
"forwarded" : False,
"english" : False
}  , {
"index" : 11,
"articleIndex" : "389219",
"favor" :  False ,
     "read" : False,    
"title" : "汇丰外汇网：警惕周末效应 美指测试79.56",
"titleTip" : "汇丰外汇网：警惕周末效应 美指测试79.56",
"titleSummary" : "汇丰外汇网：警惕周末效应 美指测试79.56",
"descSummary" : "昨日美指最高79.32，最低79.08，收盘报79.20。原油继续创新...",
"url" : "http:\/\/go.rss.sina.com.cn\/redirect.php?url=http:\/\/finance.sina.com.cn\/money\/forex\/20131025\/133317115337.shtml",
"pubDate" : "2013年10月25日 (5天前)",
"enterDate" : "384200:52:00",
"channelId" : "4134975263908880489",
"channelName" : "财经要闻汇总-新浪财经",
"channelNameSummary" : "财经要闻汇总-新浪财...",
"channelUrl" : "http:\/\/news.sina.com.cn\/news1000\/index.shtml?requestOrder=7",
"author" : "WWW.SINA.COM.CN",
"tags" : [],
"desc" : "昨日美指最高79.32，最低79.08，收盘报79.20。原油继续创新低，金银创近期新高回落。 美元指数本周暴跌，今日反弹行情，商品货币创新高纷纷回落，原油本周暴跌，铜回落，今日最后一个交易日，警惕周末效应-抛盘！昨晚金银创近期新高，今日金银偏空，警惕获利盘回吐，今....",
"emailed" : False,
"forwarded" : False,
"english" : False
}  , {
"index" : 12,
"articleIndex" : "389218",
"favor" :  False ,
     "read" : False,    
"title" : "恒指午后跌幅扩大至0.83% 中资银行股遭沽空",
"titleTip" : "恒指午后跌幅扩大至0.83% 中资银行股遭沽空",
"titleSummary" : "恒指午后跌幅扩大至0.83% 中资银行股遭沽空",
"descSummary" : "新浪财经讯 10月25日消息，据信报报道，港股午后跌幅扩...",
"url" : "http:\/\/go.rss.sina.com.cn\/redirect.php?url=http:\/\/finance.sina.com.cn\/stock\/hkstock\/marketalerts\/20131025\/133317115336.shtml",
"pubDate" : "2013年10月25日 (5天前)",
"enterDate" : "384200:51:55",
"channelId" : "4134975263908880489",
"channelName" : "财经要闻汇总-新浪财经",
"channelNameSummary" : "财经要闻汇总-新浪财...",
"channelUrl" : "http:\/\/news.sina.com.cn\/news1000\/index.shtml?requestOrder=7",
"author" : "WWW.SINA.COM.CN",
"tags" : [],
"desc" : "新浪财经讯 10月25日消息，据信报报道，港股午后跌幅扩大，最新跌190点或0.83%报22645点，进一步低于50天线，国指跌176点报10146。 内地股市午后仍弱，上证综指最新报2141.22，跌23点或1.07%。&#160;&#160; 港股半日沽空金额为21.68亿元，占大市半日成交之比率....",
"emailed" : False,
"forwarded" : False,
"english" : False
}  , {
"index" : 13,
"articleIndex" : "389217",
"favor" :  False ,
     "read" : False,    
"title" : "途汇国际：美指横盘跌势暂缓 关注英国GDP",
"titleTip" : "途汇国际：美指横盘跌势暂缓 关注英国GDP",
"titleSummary" : "途汇国际：美指横盘跌势暂缓 关注英国GDP",
"descSummary" : "今日经济数据公布： 16:00 德国 10月份IFO商业景气指数 前...",
"url" : "http:\/\/go.rss.sina.com.cn\/redirect.php?url=http:\/\/finance.sina.com.cn\/money\/forex\/20131025\/133117115333.shtml",
"pubDate" : "2013年10月25日 (5天前)",
"enterDate" : "384200:50:04",
"channelId" : "4134975263908880489",
"channelName" : "财经要闻汇总-新浪财经",
"channelNameSummary" : "财经要闻汇总-新浪财...",
"channelUrl" : "http:\/\/news.sina.com.cn\/news1000\/index.shtml?requestOrder=7",
"author" : "WWW.SINA.COM.CN",
"tags" : [],
"desc" : "今日经济数据公布： 16:00&#160;德国&#160;10月份IFO商业景气指数 前值107.7&#160;预测108.1&#160;市场影响★★ 16:00&#160;德国&#160;10月份IFO商业现状指数 前值111.4&#160;预测111.5 16:00&#160;德国&#160;10月份IFO商业预期指数 前值104.2&#160;预测....",
"emailed" : False,
"forwarded" : False,
"english" : False
}  , {
"index" : 14,
"articleIndex" : "389216",
"favor" :  False ,
     "read" : False,    
"title" : "毅力工业炒高后停牌 暂未悉因",
"titleTip" : "毅力工业炒高后停牌 暂未悉因",
"titleSummary" : "毅力工业炒高后停牌 暂未悉因",
"descSummary" : "新浪财经讯 10月25日消息，据财华社报道，毅力工业午后停牌，暂未公布...",
"url" : "http:\/\/go.rss.sina.com.cn\/redirect.php?url=http:\/\/finance.sina.com.cn\/stock\/hkstock\/marketalerts\/20131025\/133117115321.shtml",
"pubDate" : "2013年10月25日 (5天前)",
"enterDate" : "384200:49:28",
"channelId" : "4134975263908880489",
"channelName" : "财经要闻汇总-新浪财经",
"channelNameSummary" : "财经要闻汇总-新浪财...",
"channelUrl" : "http:\/\/news.sina.com.cn\/news1000\/index.shtml?requestOrder=7",
"author" : "WWW.SINA.COM.CN",
"tags" : [],
"desc" : "新浪财经讯 10月25日消息，据财华社报道，毅力工业午后停牌，暂未公布原因。公司停牌前曾炒高123%，报1.46元。(自然)",
"emailed" : False,
"forwarded" : False,
"english" : False
}  , {
"index" : 15,
"articleIndex" : "389215",
"favor" :  False ,
     "read" : False,    
"title" : "艾拓思: 黄金回涨抬头 市场乐观有限",
"titleTip" : "艾拓思: 黄金回涨抬头 市场乐观有限",
"titleSummary" : "艾拓思: 黄金回涨抬头 市场乐观有限",
"descSummary" : "2013-10-25 市场消息 美联储将于下周二、三(10月29-30日)召开新一届...",
"url" : "http:\/\/go.rss.sina.com.cn\/redirect.php?url=http:\/\/finance.sina.com.cn\/money\/forex\/20131025\/133017115314.shtml",
"pubDate" : "2013年10月25日 (5天前)",
"enterDate" : "384200:49:11",
"channelId" : "4134975263908880489",
"channelName" : "财经要闻汇总-新浪财经",
"channelNameSummary" : "财经要闻汇总-新浪财...",
"channelUrl" : "http:\/\/news.sina.com.cn\/news1000\/index.shtml?requestOrder=7",
"author" : "WWW.SINA.COM.CN",
"tags" : [],
"desc" : "2013-10-25 市场消息 美联储将于下周二、三(10月29-30日)召开新一届货币政策会议。法国兴业银行美国利率策略主管日前直言，美国联邦公开市场委员会(FOMC)在10月政策例会上宣布增加购债规模\"是不可忽视的风险\"。 尽管华盛顿预算之争导致的政府停运预计可....",
"emailed" : False,
"forwarded" : False,
"english" : False
}  , {
"index" : 16,
"articleIndex" : "389214",
"favor" :  False ,
     "read" : False,    
"title" : "财汇国际：欧系货币强劲 商品货币回落",
"titleTip" : "财汇国际：欧系货币强劲 商品货币回落",
"titleSummary" : "财汇国际：欧系货币强劲 商品货币回落",
"descSummary" : "走势回顾 周二公布的上周初请失业金人数差于预期，Markit制造...",
"url" : "http:\/\/go.rss.sina.com.cn\/redirect.php?url=http:\/\/finance.sina.com.cn\/money\/forex\/20131025\/132817115280.shtml",
"pubDate" : "2013年10月25日 (5天前)",
"enterDate" : "384200:47:07",
"channelId" : "4134975263908880489",
"channelName" : "财经要闻汇总-新浪财经",
"channelNameSummary" : "财经要闻汇总-新浪财...",
"channelUrl" : "http:\/\/news.sina.com.cn\/news1000\/index.shtml?requestOrder=7",
"author" : "WWW.SINA.COM.CN",
"tags" : [],
"desc" : "走势回顾 周二公布的上周初请失业金人数差于预期，Markit制造业PMI也不及预期，导致美元指数继续滑落，报收于79.19。美股方面，延续涨势，道琼斯指数收盘上涨0.62%；标普500收盘上涨0.33%；纳斯达克收盘上涨0.56%。汇市方面，欧系货币延续强势，欧元报收于1.3800；英镑....",
"emailed" : False,
"forwarded" : False,
"english" : False
}  , {
"index" : 17,
"articleIndex" : "389213",
"favor" :  False ,
     "read" : False,    
"title" : "IBFX：中国紧缩预期尚在 澳美上方压力呈现",
"titleTip" : "IBFX：中国紧缩预期尚在 澳美上方压力呈现",
"titleSummary" : "IBFX：中国紧缩预期尚在 澳美上方压力呈现",
"descSummary" : "昨日市场回顾：受到公司中期业绩以及中国数据的影响推动，...",
"url" : "http:\/\/go.rss.sina.com.cn\/redirect.php?url=http:\/\/finance.sina.com.cn\/money\/forex\/20131025\/132617115277.shtml",
"pubDate" : "2013年10月25日 (5天前)",
"enterDate" : "384200:44:55",
"channelId" : "4134975263908880489",
"channelName" : "财经要闻汇总-新浪财经",
"channelNameSummary" : "财经要闻汇总-新浪财...",
"channelUrl" : "http:\/\/news.sina.com.cn\/news1000\/index.shtml?requestOrder=7",
"author" : "WWW.SINA.COM.CN",
"tags" : [],
"desc" : "昨日市场回顾：受到公司中期业绩以及中国数据的影响推动，美股小幅走高，道指涨 95.88点，报收15509.21点，纳指涨21.89点，报收3928.96点，标普涨5.69点，报收1752.07点。汇市方面，欧美震荡上行，小幅走高，镑美上涨逼近月线阻力位，美日窄幅震荡，日线收十字星，澳美....",
"emailed" : False,
"forwarded" : False,
"english" : False
}  , {
"index" : 18,
"articleIndex" : "389212",
"favor" :  False ,
     "read" : False,    
"title" : "FBS：由澳元\/日元看投资者信心",
"titleTip" : "FBS：由澳元\/日元看投资者信心",
"titleSummary" : "FBS：由澳元\/日元看投资者信心",
"descSummary" : "本周澳元和日元的走势颇为引人注目，其中，澳元\/美元遇阻200日均线...",
"url" : "http:\/\/go.rss.sina.com.cn\/redirect.php?url=http:\/\/finance.sina.com.cn\/money\/forex\/20131025\/132317115262.shtml",
"pubDate" : "2013年10月25日 (5天前)",
"enterDate" : "384201:11:33",
"channelId" : "4134975263908880489",
"channelName" : "财经要闻汇总-新浪财经",
"channelNameSummary" : "财经要闻汇总-新浪财...",
"channelUrl" : "http:\/\/news.sina.com.cn\/news1000\/index.shtml?requestOrder=7",
"author" : "WWW.SINA.COM.CN",
"tags" : [],
"desc" : "本周澳元和日元的走势颇为引人注目，其中，澳元\/美元遇阻200日均线后出现大幅回撤，而美元\/日元则在继续测试200日均线强支撑。 澳元前景是否已转阴？日元强势是否将继续延续？这一问题，我们或许可以从澳元\/日元走势中寻找答案。 澳元兑日元 澳元\/日元日图显....",
"emailed" : False,
"forwarded" : False,
"english" : False
}  , {
"index" : 19,
"articleIndex" : "389211",
"favor" :  False ,
     "read" : False,    
"title" : "ECN Trade：美国数据不佳 欧元高位震荡",
"titleTip" : "ECN Trade：美国数据不佳 欧元高位震荡",
"titleSummary" : "ECN Trade：美国数据不佳 欧元高位震荡",
"descSummary" : "周四晚间公布的美国相关经济数据表现不佳，使市场对美联储将...",
"url" : "http:\/\/go.rss.sina.com.cn\/redirect.php?url=http:\/\/finance.sina.com.cn\/money\/forex\/20131025\/132217115261.shtml",
"pubDate" : "2013年10月25日 (5天前)",
"enterDate" : "384201:10:31",
"channelId" : "4134975263908880489",
"channelName" : "财经要闻汇总-新浪财经",
"channelNameSummary" : "财经要闻汇总-新浪财...",
"channelUrl" : "http:\/\/news.sina.com.cn\/news1000\/index.shtml?requestOrder=7",
"author" : "WWW.SINA.COM.CN",
"tags" : [],
"desc" : "周四晚间公布的美国相关经济数据表现不佳，使市场对美联储将缩减购债计划推迟至明年的预期持续升温。受此影响，周五美元继续疲软状态，美元指数在低位79.22附近窄幅整理。欧元区PMI相关数据提振了欧元走势，周四欧元兑美元一度刷新近两年高点1.3825。周五亚市早盘中欧元延续强....",
"emailed" : False,
"forwarded" : False,
"english" : False
} ]
}
