{
"mode" : {"viewTitle" : 1,   "viewNew" : 0,  "pageIndex" : 1 },
 "channel" : {"id" : "4677784747566116584", "booked" : False, "subNumber" : 1, "name" : "教育-新浪博客", "url" : "http:\/\/blog.sina.com.cn\/lm\/edu\/index.html", "feed" : "http:\/\/rss.sina.com.cn\/blog\/edu\/jy.xml", "author" : "WWW.SINA.COM.CN", "desc" : "教育博客列表", "imageUrl" : "http:\/\/www.sinaimg.cn\/blog\/main\/index2010\/blog_logo.png", "postPerWeek" : "0", "lastCrawTime" : "17:08:26", "crawDateTime" : "16:08:15", "lastHttpCode" : "304"}, "page" : {
"startIndex" : 0,
"totalCount" : 5000,
"pageIndex" : 1,
"lastPage" : 250,
"pageSize" : 20,
"english" :  False },
 "unreadNum" : 0, "shotIndex" : -1,
"articles" : [
{
"index" : 0,
"articleIndex" : "7460",
"favor" :  False ,
     "read" : False,    
"title" : "平行志愿后扩招为什么比较难",
"titleTip" : "平行志愿后扩招为什么比较难",
"titleSummary" : "平行志愿后扩招为什么比较难",
"descSummary" : "",
"url" : "http:\/\/go.rss.sina.com.cn\/redirect.php?url=http:\/\/blog.sina.com.cn\/s\/blog_4bd175fe0102egwf.html",
"pubDate" : "昨天13:43:48",
"enterDate" : "384198:59:53",
"channelId" : "4677784747566116584",
"channelName" : "教育-新浪博客",
"channelNameSummary" : "教育-新浪博客",
"channelUrl" : "http:\/\/blog.sina.com.cn\/lm\/edu\/index.html",
"author" : "WWW.SINA.COM.CN",
"tags" : [],
"desc" : "",
"emailed" : False,
"forwarded" : False,
"english" : False
}  , {
"index" : 1,
"articleIndex" : "7459",
"favor" :  False ,
     "read" : False,    
"title" : "北京考前平行志愿必须注意的11个问题",
"titleTip" : "北京考前平行志愿必须注意的11个问题",
"titleSummary" : "北京考前平行志愿必须注意的11个问题",
"descSummary" : "",
"url" : "http:\/\/go.rss.sina.com.cn\/redirect.php?url=http:\/\/blog.sina.com.cn\/s\/blog_53fe981c0102e8mk.html",
"pubDate" : "昨天11:52:37",
"enterDate" : "384200:24:21",
"channelId" : "4677784747566116584",
"channelName" : "教育-新浪博客",
"channelNameSummary" : "教育-新浪博客",
"channelUrl" : "http:\/\/blog.sina.com.cn\/lm\/edu\/index.html",
"author" : "WWW.SINA.COM.CN",
"tags" : [],
"desc" : "",
"emailed" : False,
"forwarded" : False,
"english" : False
}  , {
"index" : 2,
"articleIndex" : "7458",
"favor" :  False ,
     "read" : False,    
"title" : "给高三家长的五点建议",
"titleTip" : "给高三家长的五点建议",
"titleSummary" : "给高三家长的五点建议",
"descSummary" : "",
"url" : "http:\/\/go.rss.sina.com.cn\/redirect.php?url=http:\/\/blog.sina.com.cn\/s\/blog_48d991530102e4bn.html",
"pubDate" : "昨天11:48:44",
"enterDate" : "384200:20:28",
"channelId" : "4677784747566116584",
"channelName" : "教育-新浪博客",
"channelNameSummary" : "教育-新浪博客",
"channelUrl" : "http:\/\/blog.sina.com.cn\/lm\/edu\/index.html",
"author" : "WWW.SINA.COM.CN",
"tags" : [],
"desc" : "",
"emailed" : False,
"forwarded" : False,
"english" : False
}  , {
"index" : 3,
"articleIndex" : "7457",
"favor" :  False ,
     "read" : False,    
"title" : "北京2013年高招录取数据及2014高考形势",
"titleTip" : "北京2013年高招录取数据及2014高考形势",
"titleSummary" : "北京2013年高招录取数据及2014高考形势",
"descSummary" : "",
"url" : "http:\/\/go.rss.sina.com.cn\/redirect.php?url=http:\/\/blog.sina.com.cn\/s\/blog_700f574d0102eqf0.html",
"pubDate" : "昨天11:47:21",
"enterDate" : "384200:19:05",
"channelId" : "4677784747566116584",
"channelName" : "教育-新浪博客",
"channelNameSummary" : "教育-新浪博客",
"channelUrl" : "http:\/\/blog.sina.com.cn\/lm\/edu\/index.html",
"author" : "WWW.SINA.COM.CN",
"tags" : [],
"desc" : "",
"emailed" : False,
"forwarded" : False,
"english" : False
}  , {
"index" : 4,
"articleIndex" : "7456",
"favor" :  False ,
     "read" : False,    
"title" : "北京教育考试院网站删改革方案征求意见公告",
"titleTip" : "北京教育考试院网站删改革方案征求意见公告",
"titleSummary" : "北京教育考试院网站删改革方案征求意见公告",
"descSummary" : "",
"url" : "http:\/\/go.rss.sina.com.cn\/redirect.php?url=http:\/\/blog.sina.com.cn\/s\/blog_53fe981c0102e8l0.html",
"pubDate" : "前天09:49:23",
"enterDate" : "384200:25:49",
"channelId" : "4677784747566116584",
"channelName" : "教育-新浪博客",
"channelNameSummary" : "教育-新浪博客",
"channelUrl" : "http:\/\/blog.sina.com.cn\/lm\/edu\/index.html",
"author" : "WWW.SINA.COM.CN",
"tags" : [],
"desc" : "",
"emailed" : False,
"forwarded" : False,
"english" : False
}  , {
"index" : 5,
"articleIndex" : "7455",
"favor" :  False ,
     "read" : False,    
"title" : "高考专家11月2日解读北京平行志愿填报",
"titleTip" : "高考专家11月2日解读北京平行志愿填报",
"titleSummary" : "高考专家11月2日解读北京平行志愿填报",
"descSummary" : "",
"url" : "http:\/\/go.rss.sina.com.cn\/redirect.php?url=http:\/\/blog.sina.com.cn\/s\/blog_5d96d54f0102ejb1.html",
"pubDate" : "2013年10月23日 (1周前)",
"enterDate" : "384200:22:35",
"channelId" : "4677784747566116584",
"channelName" : "教育-新浪博客",
"channelNameSummary" : "教育-新浪博客",
"channelUrl" : "http:\/\/blog.sina.com.cn\/lm\/edu\/index.html",
"author" : "WWW.SINA.COM.CN",
"tags" : [],
"desc" : "",
"emailed" : False,
"forwarded" : False,
"english" : False
}  , {
"index" : 6,
"articleIndex" : "7454",
"favor" :  False ,
     "read" : False,    
"title" : "报考艺术特长生不可不知的三项数据",
"titleTip" : "报考艺术特长生不可不知的三项数据",
"titleSummary" : "报考艺术特长生不可不知的三项数据",
"descSummary" : "",
"url" : "http:\/\/go.rss.sina.com.cn\/redirect.php?url=http:\/\/blog.sina.com.cn\/s\/blog_700f574d0102eq9b.html",
"pubDate" : "2013年10月22日 (1周前)",
"enterDate" : "384200:16:09",
"channelId" : "4677784747566116584",
"channelName" : "教育-新浪博客",
"channelNameSummary" : "教育-新浪博客",
"channelUrl" : "http:\/\/blog.sina.com.cn\/lm\/edu\/index.html",
"author" : "WWW.SINA.COM.CN",
"tags" : [],
"desc" : "",
"emailed" : False,
"forwarded" : False,
"english" : False
}  , {
"index" : 7,
"articleIndex" : "7453",
"favor" :  False ,
     "read" : False,    
"title" : "赵京：北京高考政策调整部分学校二志愿或取消",
"titleTip" : "赵京：北京高考政策调整部分学校二志愿或取消",
"titleSummary" : "赵京：北京高考政策调整部分学校二志愿或取消",
"descSummary" : "",
"url" : "http:\/\/go.rss.sina.com.cn\/redirect.php?url=http:\/\/blog.sina.com.cn\/s\/blog_4bd175fe0102egr9.html",
"pubDate" : "2013年10月22日 (1周前)",
"enterDate" : "384199:53:14",
"channelId" : "4677784747566116584",
"channelName" : "教育-新浪博客",
"channelNameSummary" : "教育-新浪博客",
"channelUrl" : "http:\/\/blog.sina.com.cn\/lm\/edu\/index.html",
"author" : "WWW.SINA.COM.CN",
"tags" : [],
"desc" : "",
"emailed" : False,
"forwarded" : False,
"english" : False
}  , {
"index" : 8,
"articleIndex" : "7452",
"favor" :  False ,
     "read" : False,    
"title" : "韩旭：北京实行平行志愿北大清华分数线将提高",
"titleTip" : "韩旭：北京实行平行志愿北大清华分数线将提高",
"titleSummary" : "韩旭：北京实行平行志愿北大清华分数线将提高",
"descSummary" : "",
"url" : "http:\/\/go.rss.sina.com.cn\/redirect.php?url=http:\/\/blog.sina.com.cn\/s\/blog_5d96d54f0102ej9y.html",
"pubDate" : "2013年10月22日 (1周前)",
"enterDate" : "384199:51:29",
"channelId" : "4677784747566116584",
"channelName" : "教育-新浪博客",
"channelNameSummary" : "教育-新浪博客",
"channelUrl" : "http:\/\/blog.sina.com.cn\/lm\/edu\/index.html",
"author" : "WWW.SINA.COM.CN",
"tags" : [],
"desc" : "",
"emailed" : False,
"forwarded" : False,
"english" : False
}  , {
"index" : 9,
"articleIndex" : "7451",
"favor" :  False ,
     "read" : False,    
"title" : "晨雾：北京实行大平行后对考生的十大影响",
"titleTip" : "晨雾：北京实行大平行后对考生的十大影响",
"titleSummary" : "晨雾：北京实行大平行后对考生的十大影响",
"descSummary" : "",
"url" : "http:\/\/go.rss.sina.com.cn\/redirect.php?url=http:\/\/blog.sina.com.cn\/s\/blog_53fe981c0102e8g4.html",
"pubDate" : "2013年10月22日 (1周前)",
"enterDate" : "384199:50:07",
"channelId" : "4677784747566116584",
"channelName" : "教育-新浪博客",
"channelNameSummary" : "教育-新浪博客",
"channelUrl" : "http:\/\/blog.sina.com.cn\/lm\/edu\/index.html",
"author" : "WWW.SINA.COM.CN",
"tags" : [],
"desc" : "",
"emailed" : False,
"forwarded" : False,
"english" : False
}  , {
"index" : 10,
"articleIndex" : "7450",
"favor" :  False ,
     "read" : False,    
"title" : "北京高考填报志愿新政后专题讲座",
"titleTip" : "北京高考填报志愿新政后专题讲座",
"titleSummary" : "北京高考填报志愿新政后专题讲座",
"descSummary" : "",
"url" : "http:\/\/go.rss.sina.com.cn\/redirect.php?url=http:\/\/blog.sina.com.cn\/s\/blog_4bd175fe0102egra.html",
"pubDate" : "2013年10月22日 (1周前)",
"enterDate" : "384199:49:04",
"channelId" : "4677784747566116584",
"channelName" : "教育-新浪博客",
"channelNameSummary" : "教育-新浪博客",
"channelUrl" : "http:\/\/blog.sina.com.cn\/lm\/edu\/index.html",
"author" : "WWW.SINA.COM.CN",
"tags" : [],
"desc" : "",
"emailed" : False,
"forwarded" : False,
"english" : False
}  , {
"index" : 11,
"articleIndex" : "7449",
"favor" :  False ,
     "read" : False,    
"title" : "梁挺福：名校录取排名提高 选专业难度加大",
"titleTip" : "梁挺福：名校录取排名提高 选专业难度加大",
"titleSummary" : "梁挺福：名校录取排名提高 选专业难度加大",
"descSummary" : "",
"url" : "http:\/\/go.rss.sina.com.cn\/redirect.php?url=http:\/\/blog.sina.com.cn\/s\/blog_5411221e0101bxhm.html",
"pubDate" : "2013年10月21日 (1周前)",
"enterDate" : "384185:16:48",
"channelId" : "4677784747566116584",
"channelName" : "教育-新浪博客",
"channelNameSummary" : "教育-新浪博客",
"channelUrl" : "http:\/\/blog.sina.com.cn\/lm\/edu\/index.html",
"author" : "WWW.SINA.COM.CN",
"tags" : [],
"desc" : "",
"emailed" : False,
"forwarded" : False,
"english" : False
}  , {
"index" : 12,
"articleIndex" : "7448",
"favor" :  False ,
     "read" : False,    
"title" : "北京市高考改革方案详解",
"titleTip" : "北京市高考改革方案详解",
"titleSummary" : "北京市高考改革方案详解",
"descSummary" : "",
"url" : "http:\/\/go.rss.sina.com.cn\/redirect.php?url=http:\/\/blog.sina.com.cn\/s\/blog_53fe981c0102e8fo.html",
"pubDate" : "2013年10月21日 (1周前)",
"enterDate" : "384200:24:34",
"channelId" : "4677784747566116584",
"channelName" : "教育-新浪博客",
"channelNameSummary" : "教育-新浪博客",
"channelUrl" : "http:\/\/blog.sina.com.cn\/lm\/edu\/index.html",
"author" : "WWW.SINA.COM.CN",
"tags" : [],
"desc" : "",
"emailed" : False,
"forwarded" : False,
"english" : False
}  , {
"index" : 13,
"articleIndex" : "7447",
"favor" :  False ,
     "read" : False,    
"title" : "熊丙奇：高考改革不能换汤不换药的折腾",
"titleTip" : "熊丙奇：高考改革不能换汤不换药的折腾",
"titleSummary" : "熊丙奇：高考改革不能换汤不换药的折腾",
"descSummary" : "",
"url" : "http:\/\/go.rss.sina.com.cn\/redirect.php?url=http:\/\/blog.sina.com.cn\/s\/blog_46cf47710102egtw.html",
"pubDate" : "2013年10月21日 (1周前)",
"enterDate" : "384199:54:30",
"channelId" : "4677784747566116584",
"channelName" : "教育-新浪博客",
"channelNameSummary" : "教育-新浪博客",
"channelUrl" : "http:\/\/blog.sina.com.cn\/lm\/edu\/index.html",
"author" : "WWW.SINA.COM.CN",
"tags" : [],
"desc" : "",
"emailed" : False,
"forwarded" : False,
"english" : False
}  , {
"index" : 14,
"articleIndex" : "7446",
"favor" :  False ,
     "read" : False,    
"title" : "少数民族考生加分是北京市的地方政策",
"titleTip" : "少数民族考生加分是北京市的地方政策",
"titleSummary" : "少数民族考生加分是北京市的地方政策",
"descSummary" : "",
"url" : "http:\/\/go.rss.sina.com.cn\/redirect.php?url=http:\/\/blog.sina.com.cn\/s\/blog_53fe981c0102e8f5.html",
"pubDate" : "2013年10月21日 (1周前)",
"enterDate" : "384200:32:55",
"channelId" : "4677784747566116584",
"channelName" : "教育-新浪博客",
"channelNameSummary" : "教育-新浪博客",
"channelUrl" : "http:\/\/blog.sina.com.cn\/lm\/edu\/index.html",
"author" : "WWW.SINA.COM.CN",
"tags" : [],
"desc" : "",
"emailed" : False,
"forwarded" : False,
"english" : False
}  , {
"index" : 15,
"articleIndex" : "7445",
"favor" :  False ,
     "read" : False,    
"title" : "2014年北京高考志愿填报方式大猜想",
"titleTip" : "2014年北京高考志愿填报方式大猜想",
"titleSummary" : "2014年北京高考志愿填报方式大猜想",
"descSummary" : "",
"url" : "http:\/\/go.rss.sina.com.cn\/redirect.php?url=http:\/\/blog.sina.com.cn\/s\/blog_5411221e0101bvtv.html",
"pubDate" : "2013年10月18日 (1周前)",
"enterDate" : "384199:49:21",
"channelId" : "4677784747566116584",
"channelName" : "教育-新浪博客",
"channelNameSummary" : "教育-新浪博客",
"channelUrl" : "http:\/\/blog.sina.com.cn\/lm\/edu\/index.html",
"author" : "WWW.SINA.COM.CN",
"tags" : [],
"desc" : "",
"emailed" : False,
"forwarded" : False,
"english" : False
}  , {
"index" : 16,
"articleIndex" : "7444",
"favor" :  False ,
     "read" : False,    
"title" : "简评2014年起北京高考改革重大调整",
"titleTip" : "简评2014年起北京高考改革重大调整",
"titleSummary" : "简评2014年起北京高考改革重大调整",
"descSummary" : "",
"url" : "http:\/\/go.rss.sina.com.cn\/redirect.php?url=http:\/\/blog.sina.com.cn\/s\/blog_4bd175fe0102egoi.html",
"pubDate" : "2013年10月17日 (1周前)",
"enterDate" : "384200:41:26",
"channelId" : "4677784747566116584",
"channelName" : "教育-新浪博客",
"channelNameSummary" : "教育-新浪博客",
"channelUrl" : "http:\/\/blog.sina.com.cn\/lm\/edu\/index.html",
"author" : "WWW.SINA.COM.CN",
"tags" : [],
"desc" : "",
"emailed" : False,
"forwarded" : False,
"english" : False
}  , {
"index" : 17,
"articleIndex" : "7443",
"favor" :  False ,
     "read" : False,    
"title" : "实例教你如何进美国顶尖名校",
"titleTip" : "实例教你如何进美国顶尖名校",
"titleSummary" : "实例教你如何进美国顶尖名校",
"descSummary" : "",
"url" : "http:\/\/go.rss.sina.com.cn\/redirect.php?url=http:\/\/blog.sina.com.cn\/s\/blog_7e757ba10101ptzg.html",
"pubDate" : "2013年10月17日 (1周前)",
"enterDate" : "384200:19:04",
"channelId" : "4677784747566116584",
"channelName" : "教育-新浪博客",
"channelNameSummary" : "教育-新浪博客",
"channelUrl" : "http:\/\/blog.sina.com.cn\/lm\/edu\/index.html",
"author" : "WWW.SINA.COM.CN",
"tags" : [],
"desc" : "",
"emailed" : False,
"forwarded" : False,
"english" : False
}  , {
"index" : 18,
"articleIndex" : "7442",
"favor" :  False ,
     "read" : False,    
"title" : "名牌大学在京近3年录取分数及排名",
"titleTip" : "名牌大学在京近3年录取分数及排名",
"titleSummary" : "名牌大学在京近3年录取分数及排名",
"descSummary" : "",
"url" : "http:\/\/go.rss.sina.com.cn\/redirect.php?url=http:\/\/blog.sina.com.cn\/s\/blog_5d96d54f0102ej75.html",
"pubDate" : "2013年10月17日 (1周前)",
"enterDate" : "384199:57:09",
"channelId" : "4677784747566116584",
"channelName" : "教育-新浪博客",
"channelNameSummary" : "教育-新浪博客",
"channelUrl" : "http:\/\/blog.sina.com.cn\/lm\/edu\/index.html",
"author" : "WWW.SINA.COM.CN",
"tags" : [],
"desc" : "",
"emailed" : False,
"forwarded" : False,
"english" : False
}  , {
"index" : 19,
"articleIndex" : "7441",
"favor" :  False ,
     "read" : False,    
"title" : "热门专业竞争激烈 想上一本还是难",
"titleTip" : "热门专业竞争激烈 想上一本还是难",
"titleSummary" : "热门专业竞争激烈 想上一本还是难",
"descSummary" : "",
"url" : "http:\/\/go.rss.sina.com.cn\/redirect.php?url=http:\/\/blog.sina.com.cn\/s\/blog_700f574d0102epnb.html",
"pubDate" : "2013年10月15日 (2周前)",
"enterDate" : "384199:10:01",
"channelId" : "4677784747566116584",
"channelName" : "教育-新浪博客",
"channelNameSummary" : "教育-新浪博客",
"channelUrl" : "http:\/\/blog.sina.com.cn\/lm\/edu\/index.html",
"author" : "WWW.SINA.COM.CN",
"tags" : [],
"desc" : "",
"emailed" : False,
"forwarded" : False,
"english" : False
} ]
}
