{
"mode" : {"viewTitle" : 1,   "viewNew" : 0,  "pageIndex" : 2 },
 "channel" : {"id" : "4677784747566116584", "booked" : False, "subNumber" : 1, "name" : "教育-新浪博客", "url" : "http:\/\/blog.sina.com.cn\/lm\/edu\/index.html", "feed" : "http:\/\/rss.sina.com.cn\/blog\/edu\/jy.xml", "author" : "WWW.SINA.COM.CN", "desc" : "教育博客列表", "imageUrl" : "http:\/\/www.sinaimg.cn\/blog\/main\/index2010\/blog_logo.png", "postPerWeek" : "0", "lastCrawTime" : "17:08:26", "crawDateTime" : "16:08:15", "lastHttpCode" : "304"}, "page" : {
"startIndex" : 20,
"totalCount" : 5000,
"pageIndex" : 2,
"lastPage" : 250,
"pageSize" : 20,
"english" :  False },
 "unreadNum" : 0, "shotIndex" : -1,
"articles" : [
{
"index" : 0,
"articleIndex" : "7440",
"favor" :  False ,
     "read" : False,    
"title" : "探秘美国精英教育和高端会所",
"titleTip" : "探秘美国精英教育和高端会所",
"titleSummary" : "探秘美国精英教育和高端会所",
"descSummary" : "",
"url" : "http:\/\/go.rss.sina.com.cn\/redirect.php?url=http:\/\/blog.sina.com.cn\/s\/blog_7e757ba10101pqer.html",
"pubDate" : "2013年10月12日 (2周前)",
"enterDate" : "384200:12:43",
"channelId" : "4677784747566116584",
"channelName" : "教育-新浪博客",
"channelNameSummary" : "教育-新浪博客",
"channelUrl" : "http:\/\/blog.sina.com.cn\/lm\/edu\/index.html",
"author" : "WWW.SINA.COM.CN",
"tags" : [],
"desc" : "",
"emailed" : False,
"forwarded" : False,
"english" : False
}  , {
"index" : 1,
"articleIndex" : "7439",
"favor" :  False ,
     "read" : False,    
"title" : "北京2014年高考志愿的猜想与浅见",
"titleTip" : "北京2014年高考志愿的猜想与浅见",
"titleSummary" : "北京2014年高考志愿的猜想与浅见",
"descSummary" : "",
"url" : "http:\/\/go.rss.sina.com.cn\/redirect.php?url=http:\/\/blog.sina.com.cn\/s\/blog_5d96d54f0102ej46.html",
"pubDate" : "2013年10月12日 (2周前)",
"enterDate" : "384199:17:56",
"channelId" : "4677784747566116584",
"channelName" : "教育-新浪博客",
"channelNameSummary" : "教育-新浪博客",
"channelUrl" : "http:\/\/blog.sina.com.cn\/lm\/edu\/index.html",
"author" : "WWW.SINA.COM.CN",
"tags" : [],
"desc" : "",
"emailed" : False,
"forwarded" : False,
"english" : False
}  , {
"index" : 2,
"articleIndex" : "7438",
"favor" :  False ,
     "read" : False,    
"title" : "学中文 选择港大还是北大？",
"titleTip" : "学中文 选择港大还是北大？",
"titleSummary" : "学中文 选择港大还是北大？",
"descSummary" : "",
"url" : "http:\/\/go.rss.sina.com.cn\/redirect.php?url=http:\/\/blog.sina.com.cn\/s\/blog_53fe981c0102e83x.html",
"pubDate" : "2013年10月12日 (2周前)",
"enterDate" : "384199:13:11",
"channelId" : "4677784747566116584",
"channelName" : "教育-新浪博客",
"channelNameSummary" : "教育-新浪博客",
"channelUrl" : "http:\/\/blog.sina.com.cn\/lm\/edu\/index.html",
"author" : "WWW.SINA.COM.CN",
"tags" : [],
"desc" : "",
"emailed" : False,
"forwarded" : False,
"english" : False
}  , {
"index" : 3,
"articleIndex" : "7437",
"favor" :  False ,
     "read" : False,    
"title" : "北京高考报名时间提前20天的说法是口误",
"titleTip" : "北京高考报名时间提前20天的说法是口误",
"titleSummary" : "北京高考报名时间提前20天的说法是口误",
"descSummary" : "",
"url" : "http:\/\/go.rss.sina.com.cn\/redirect.php?url=http:\/\/blog.sina.com.cn\/s\/blog_53fe981c0102e83l.html",
"pubDate" : "2013年10月11日 (2周前)",
"enterDate" : "384200:24:05",
"channelId" : "4677784747566116584",
"channelName" : "教育-新浪博客",
"channelNameSummary" : "教育-新浪博客",
"channelUrl" : "http:\/\/blog.sina.com.cn\/lm\/edu\/index.html",
"author" : "WWW.SINA.COM.CN",
"tags" : [],
"desc" : "",
"emailed" : False,
"forwarded" : False,
"english" : False
}  , {
"index" : 4,
"articleIndex" : "7436",
"favor" :  False ,
     "read" : False,    
"title" : "从十高校自主招生认定数据看报考技巧",
"titleTip" : "从十高校自主招生认定数据看报考技巧",
"titleSummary" : "从十高校自主招生认定数据看报考技巧",
"descSummary" : "",
"url" : "http:\/\/go.rss.sina.com.cn\/redirect.php?url=http:\/\/blog.sina.com.cn\/s\/blog_700f574d0102epzc.html",
"pubDate" : "2013年10月11日 (2周前)",
"enterDate" : "384200:23:01",
"channelId" : "4677784747566116584",
"channelName" : "教育-新浪博客",
"channelNameSummary" : "教育-新浪博客",
"channelUrl" : "http:\/\/blog.sina.com.cn\/lm\/edu\/index.html",
"author" : "WWW.SINA.COM.CN",
"tags" : [],
"desc" : "",
"emailed" : False,
"forwarded" : False,
"english" : False
}  , {
"index" : 5,
"articleIndex" : "7435",
"favor" :  False ,
     "read" : False,    
"title" : "高三月考考砸原因分析及应对措施",
"titleTip" : "高三月考考砸原因分析及应对措施",
"titleSummary" : "高三月考考砸原因分析及应对措施",
"descSummary" : "",
"url" : "http:\/\/go.rss.sina.com.cn\/redirect.php?url=http:\/\/blog.sina.com.cn\/s\/blog_48d991530102e47k.html",
"pubDate" : "2013年10月8日 (3周前)",
"enterDate" : "384199:31:01",
"channelId" : "4677784747566116584",
"channelName" : "教育-新浪博客",
"channelNameSummary" : "教育-新浪博客",
"channelUrl" : "http:\/\/blog.sina.com.cn\/lm\/edu\/index.html",
"author" : "WWW.SINA.COM.CN",
"tags" : [],
"desc" : "",
"emailed" : False,
"forwarded" : False,
"english" : False
}  , {
"index" : 6,
"articleIndex" : "7434",
"favor" :  False ,
     "read" : False,    
"title" : "怎样通过读博文\u201C恶补\u201D高考志愿知识",
"titleTip" : "怎样通过读博文\u201C恶补\u201D高考志愿知识",
"titleSummary" : "怎样通过读博文\u201C恶补\u201D高考志愿知识",
"descSummary" : "",
"url" : "http:\/\/go.rss.sina.com.cn\/redirect.php?url=http:\/\/blog.sina.com.cn\/s\/blog_53fe981c0102e7xk.html",
"pubDate" : "2013年10月7日 (3周前)",
"enterDate" : "384201:01:06",
"channelId" : "4677784747566116584",
"channelName" : "教育-新浪博客",
"channelNameSummary" : "教育-新浪博客",
"channelUrl" : "http:\/\/blog.sina.com.cn\/lm\/edu\/index.html",
"author" : "WWW.SINA.COM.CN",
"tags" : [],
"desc" : "",
"emailed" : False,
"forwarded" : False,
"english" : False
}  , {
"index" : 7,
"articleIndex" : "7433",
"favor" :  False ,
     "read" : False,    
"title" : "北京获自主招生录取资格考生人数揭秘",
"titleTip" : "北京获自主招生录取资格考生人数揭秘",
"titleSummary" : "北京获自主招生录取资格考生人数揭秘",
"descSummary" : "",
"url" : "http:\/\/go.rss.sina.com.cn\/redirect.php?url=http:\/\/blog.sina.com.cn\/s\/blog_700f574d0102epwy.html",
"pubDate" : "2013年10月7日 (3周前)",
"enterDate" : "384200:59:19",
"channelId" : "4677784747566116584",
"channelName" : "教育-新浪博客",
"channelNameSummary" : "教育-新浪博客",
"channelUrl" : "http:\/\/blog.sina.com.cn\/lm\/edu\/index.html",
"author" : "WWW.SINA.COM.CN",
"tags" : [],
"desc" : "",
"emailed" : False,
"forwarded" : False,
"english" : False
}  , {
"index" : 8,
"articleIndex" : "7432",
"favor" :  False ,
     "read" : False,    
"title" : "专家感悟：高考更需要精神上的胜利",
"titleTip" : "专家感悟：高考更需要精神上的胜利",
"titleSummary" : "专家感悟：高考更需要精神上的胜利",
"descSummary" : "",
"url" : "http:\/\/go.rss.sina.com.cn\/redirect.php?url=http:\/\/blog.sina.com.cn\/s\/blog_5d96d54f0102eiyy.html",
"pubDate" : "2013年10月2日 (4周前)",
"enterDate" : "384180:47:22",
"channelId" : "4677784747566116584",
"channelName" : "教育-新浪博客",
"channelNameSummary" : "教育-新浪博客",
"channelUrl" : "http:\/\/blog.sina.com.cn\/lm\/edu\/index.html",
"author" : "WWW.SINA.COM.CN",
"tags" : [],
"desc" : "",
"emailed" : False,
"forwarded" : False,
"english" : False
}  , {
"index" : 9,
"articleIndex" : "7431",
"favor" :  False ,
     "read" : False,    
"title" : "2014年北京高考报名通知删除志愿填报时间",
"titleTip" : "2014年北京高考报名通知删除志愿填报时间",
"titleSummary" : "2014年北京高考报名通知删除志愿填报时间",
"descSummary" : "",
"url" : "http:\/\/go.rss.sina.com.cn\/redirect.php?url=http:\/\/blog.sina.com.cn\/s\/blog_53fe981c0102e7qb.html",
"pubDate" : "2013年10月2日 (4周前)",
"enterDate" : "384180:45:30",
"channelId" : "4677784747566116584",
"channelName" : "教育-新浪博客",
"channelNameSummary" : "教育-新浪博客",
"channelUrl" : "http:\/\/blog.sina.com.cn\/lm\/edu\/index.html",
"author" : "WWW.SINA.COM.CN",
"tags" : [],
"desc" : "",
"emailed" : False,
"forwarded" : False,
"english" : False
}  , {
"index" : 10,
"articleIndex" : "7430",
"favor" :  False ,
     "read" : False,    
"title" : "盘点：就业率和就业满意度较高专业",
"titleTip" : "盘点：就业率和就业满意度较高专业",
"titleSummary" : "盘点：就业率和就业满意度较高专业",
"descSummary" : "",
"url" : "http:\/\/go.rss.sina.com.cn\/redirect.php?url=http:\/\/blog.sina.com.cn\/s\/blog_700f574d0102eprn.html",
"pubDate" : "2013年9月27日",
"enterDate" : "384142:36:12",
"channelId" : "4677784747566116584",
"channelName" : "教育-新浪博客",
"channelNameSummary" : "教育-新浪博客",
"channelUrl" : "http:\/\/blog.sina.com.cn\/lm\/edu\/index.html",
"author" : "WWW.SINA.COM.CN",
"tags" : [],
"desc" : "",
"emailed" : False,
"forwarded" : False,
"english" : False
}  , {
"index" : 11,
"articleIndex" : "7429",
"favor" :  False ,
     "read" : False,    
"title" : "自主招生权衡\u201C校荐\u201D及\u201C自荐\u201D院校四大标准",
"titleTip" : "自主招生权衡\u201C校荐\u201D及\u201C自荐\u201D院校四大标准",
"titleSummary" : "自主招生权衡\u201C校荐\u201D及\u201C自荐\u201D院校四大标准",
"descSummary" : "",
"url" : "http:\/\/go.rss.sina.com.cn\/redirect.php?url=http:\/\/blog.sina.com.cn\/s\/blog_5d96d54f0102eiuc.html",
"pubDate" : "2013年9月25日",
"enterDate" : "384183:12:05",
"channelId" : "4677784747566116584",
"channelName" : "教育-新浪博客",
"channelNameSummary" : "教育-新浪博客",
"channelUrl" : "http:\/\/blog.sina.com.cn\/lm\/edu\/index.html",
"author" : "WWW.SINA.COM.CN",
"tags" : [],
"desc" : "",
"emailed" : False,
"forwarded" : False,
"english" : False
}  , {
"index" : 12,
"articleIndex" : "7428",
"favor" :  False ,
     "read" : False,    
"title" : "晨雾韩旭2014年志愿填报大型公益讲座",
"titleTip" : "晨雾韩旭2014年志愿填报大型公益讲座",
"titleSummary" : "晨雾韩旭2014年志愿填报大型公益讲座",
"descSummary" : "",
"url" : "http:\/\/go.rss.sina.com.cn\/redirect.php?url=http:\/\/blog.sina.com.cn\/s\/blog_5d96d54f0102eitc.html",
"pubDate" : "2013年9月24日",
"enterDate" : "384200:26:13",
"channelId" : "4677784747566116584",
"channelName" : "教育-新浪博客",
"channelNameSummary" : "教育-新浪博客",
"channelUrl" : "http:\/\/blog.sina.com.cn\/lm\/edu\/index.html",
"author" : "WWW.SINA.COM.CN",
"tags" : [],
"desc" : "",
"emailed" : False,
"forwarded" : False,
"english" : False
}  , {
"index" : 13,
"articleIndex" : "7427",
"favor" :  False ,
     "read" : False,    
"title" : "晨雾答疑：如何理解\u201C平行第一志愿\u201D",
"titleTip" : "晨雾答疑：如何理解\u201C平行第一志愿\u201D",
"titleSummary" : "晨雾答疑：如何理解\u201C平行第一志愿\u201D",
"descSummary" : "",
"url" : "http:\/\/go.rss.sina.com.cn\/redirect.php?url=http:\/\/blog.sina.com.cn\/s\/blog_53fe981c0102e7ej.html",
"pubDate" : "2013年9月13日",
"enterDate" : "384200:26:46",
"channelId" : "4677784747566116584",
"channelName" : "教育-新浪博客",
"channelNameSummary" : "教育-新浪博客",
"channelUrl" : "http:\/\/blog.sina.com.cn\/lm\/edu\/index.html",
"author" : "WWW.SINA.COM.CN",
"tags" : [],
"desc" : "",
"emailed" : False,
"forwarded" : False,
"english" : False
}  , {
"index" : 14,
"articleIndex" : "7426",
"favor" :  False ,
     "read" : False,    
"title" : "走港观校：香港浸会大学传播学亚洲最强",
"titleTip" : "走港观校：香港浸会大学传播学亚洲最强",
"titleSummary" : "走港观校：香港浸会大学传播学亚洲最强",
"descSummary" : "",
"url" : "http:\/\/go.rss.sina.com.cn\/redirect.php?url=http:\/\/blog.sina.com.cn\/s\/blog_9e1ff2590101nm0c.html",
"pubDate" : "2013年9月12日",
"enterDate" : "384199:21:08",
"channelId" : "4677784747566116584",
"channelName" : "教育-新浪博客",
"channelNameSummary" : "教育-新浪博客",
"channelUrl" : "http:\/\/blog.sina.com.cn\/lm\/edu\/index.html",
"author" : "WWW.SINA.COM.CN",
"tags" : [],
"desc" : "",
"emailed" : False,
"forwarded" : False,
"english" : False
}  , {
"index" : 15,
"articleIndex" : "7425",
"favor" :  False ,
     "read" : False,    
"title" : "2014北京加分新政对考生的三大影响",
"titleTip" : "2014北京加分新政对考生的三大影响",
"titleSummary" : "2014北京加分新政对考生的三大影响",
"descSummary" : "",
"url" : "http:\/\/go.rss.sina.com.cn\/redirect.php?url=http:\/\/blog.sina.com.cn\/s\/blog_700f574d0102epe6.html",
"pubDate" : "2013年9月10日",
"enterDate" : "384199:48:57",
"channelId" : "4677784747566116584",
"channelName" : "教育-新浪博客",
"channelNameSummary" : "教育-新浪博客",
"channelUrl" : "http:\/\/blog.sina.com.cn\/lm\/edu\/index.html",
"author" : "WWW.SINA.COM.CN",
"tags" : [],
"desc" : "",
"emailed" : False,
"forwarded" : False,
"english" : False
}  , {
"index" : 16,
"articleIndex" : "7424",
"favor" :  False ,
     "read" : False,    
"title" : "家长课堂：中学生必知的十大人生规则",
"titleTip" : "家长课堂：中学生必知的十大人生规则",
"titleSummary" : "家长课堂：中学生必知的十大人生规则",
"descSummary" : "",
"url" : "http:\/\/go.rss.sina.com.cn\/redirect.php?url=http:\/\/blog.sina.com.cn\/s\/blog_5206958a0101fjqu.html",
"pubDate" : "2013年9月9日",
"enterDate" : "384200:44:14",
"channelId" : "4677784747566116584",
"channelName" : "教育-新浪博客",
"channelNameSummary" : "教育-新浪博客",
"channelUrl" : "http:\/\/blog.sina.com.cn\/lm\/edu\/index.html",
"author" : "WWW.SINA.COM.CN",
"tags" : [],
"desc" : "",
"emailed" : False,
"forwarded" : False,
"english" : False
}  , {
"index" : 17,
"articleIndex" : "7423",
"favor" :  False ,
     "read" : False,    
"title" : "初中地理学习无障碍：加强应用 善于联系",
"titleTip" : "初中地理学习无障碍：加强应用 善于联系",
"titleSummary" : "初中地理学习无障碍：加强应用 善于联系",
"descSummary" : "",
"url" : "http:\/\/go.rss.sina.com.cn\/redirect.php?url=http:\/\/blog.sina.com.cn\/s\/blog_5206958a0101g10o.html",
"pubDate" : "2013年9月9日",
"enterDate" : "384200:29:22",
"channelId" : "4677784747566116584",
"channelName" : "教育-新浪博客",
"channelNameSummary" : "教育-新浪博客",
"channelUrl" : "http:\/\/blog.sina.com.cn\/lm\/edu\/index.html",
"author" : "WWW.SINA.COM.CN",
"tags" : [],
"desc" : "",
"emailed" : False,
"forwarded" : False,
"english" : False
}  , {
"index" : 18,
"articleIndex" : "7422",
"favor" :  False ,
     "read" : False,    
"title" : "填报志愿里\u201C淘金\u201D 就业市场里\u201C吃香\u201D",
"titleTip" : "填报志愿里\u201C淘金\u201D 就业市场里\u201C吃香\u201D",
"titleSummary" : "填报志愿里\u201C淘金\u201D 就业市场里\u201C吃香\u201D",
"descSummary" : "",
"url" : "http:\/\/go.rss.sina.com.cn\/redirect.php?url=http:\/\/blog.sina.com.cn\/s\/blog_9e1ff2590101nfqo.html",
"pubDate" : "2013年9月4日",
"enterDate" : "384201:08:19",
"channelId" : "4677784747566116584",
"channelName" : "教育-新浪博客",
"channelNameSummary" : "教育-新浪博客",
"channelUrl" : "http:\/\/blog.sina.com.cn\/lm\/edu\/index.html",
"author" : "WWW.SINA.COM.CN",
"tags" : [],
"desc" : "",
"emailed" : False,
"forwarded" : False,
"english" : False
}  , {
"index" : 19,
"articleIndex" : "7421",
"favor" :  False ,
     "read" : False,    
"title" : "杨婷婷高考分数调包案再起波澜",
"titleTip" : "杨婷婷高考分数调包案再起波澜",
"titleSummary" : "杨婷婷高考分数调包案再起波澜",
"descSummary" : "",
"url" : "http:\/\/go.rss.sina.com.cn\/redirect.php?url=http:\/\/blog.sina.com.cn\/s\/blog_53fe981c0102e768.html",
"pubDate" : "2013年9月2日",
"enterDate" : "384199:18:24",
"channelId" : "4677784747566116584",
"channelName" : "教育-新浪博客",
"channelNameSummary" : "教育-新浪博客",
"channelUrl" : "http:\/\/blog.sina.com.cn\/lm\/edu\/index.html",
"author" : "WWW.SINA.COM.CN",
"tags" : [],
"desc" : "",
"emailed" : False,
"forwarded" : False,
"english" : False
} ]
}
