{
"mode" : {"viewTitle" : 1,   "viewNew" : 0,  "pageIndex" : 1 },
 "channel" : {"id" : "4994896241386965782", "booked" : False, "subNumber" : 1, "name" : "北京房产-新盘汇总", "url" : "http:\/\/bj.house.sina.com.cn\/scan\/xinpan\/index.html", "feed" : "http:\/\/rss.sina.com.cn\/bjhouse\/scan\/xinpan.xml", "author" : "WWW.SINA.COM.CN", "desc" : "北京房产-新盘汇总", "imageUrl" : "http:\/\/www.sinaimg.cn\/house\/sina_fc.gif", "postPerWeek" : "0", "lastCrawTime" : "17:05:00", "crawDateTime" : "2013年1月10日", "lastHttpCode" : "304"}, "page" : {
"startIndex" : 0,
"totalCount" : 849,
"pageIndex" : 1,
"lastPage" : 43,
"pageSize" : 20,
"english" :  False },
 "unreadNum" : 0, "shotIndex" : -1,
"articles" : [
{
"index" : 0,
"articleIndex" : "848",
"favor" :  False ,
     "read" : False,    
"title" : "万科幸福汇 优质物业服务 安享一生",
"titleTip" : "万科幸福汇 优质物业服务 安享一生",
"titleSummary" : "万科幸福汇 优质物业服务 安享一生",
"descSummary" : "我们总是通过生活品质来定义人生的价值，而\u201C以人为本\u201D既是宜居的...",
"url" : "http:\/\/go.rss.sina.com.cn\/redirect.php?url=http:\/\/house.sina.com.cn\/scan\/2012-12-14\/1348425494.shtml?source=rss",
"pubDate" : "2012年12月14日",
"enterDate" : "384200:53:28",
"channelId" : "4994896241386965782",
"channelName" : "北京房产-新盘汇总",
"channelNameSummary" : "北京房产-新盘汇总",
"channelUrl" : "http:\/\/bj.house.sina.com.cn\/scan\/xinpan\/index.html",
"author" : "WWW.SINA.COM.CN",
"tags" : [],
"desc" : "我们总是通过生活品质来定义人生的价值，而\u201C以人为本\u201D既是宜居的核心之道。生活配套、起居空间、社区环境等条件，要素愈全，素质愈高，方可建筑极致生活。万科幸福汇 (论坛 相册 户型 样板间 点评 地图搜索)在营建之初，便将\u201C满足人的需求\u201D的作为品评优劣的标准，进而打开....",
"emailed" : False,
"forwarded" : False,
"english" : False
}  , {
"index" : 1,
"articleIndex" : "847",
"favor" :  False ,
     "read" : False,    
"title" : "国奥核心 鸟巢东800米 观巢即将绽放（图）",
"titleTip" : "国奥核心 鸟巢东800米 观巢即将绽放（图）",
"titleSummary" : "国奥核心 鸟巢东800米 观巢即将绽放（图）",
"descSummary" : "当我开着车，穿过繁华的十字路口，红绿灯闪烁，我想起了你...",
"url" : "http:\/\/go.rss.sina.com.cn\/redirect.php?url=http:\/\/house.sina.com.cn\/scan\/2012-11-23\/1144423010.shtml?source=rss",
"pubDate" : "2012年11月23日",
"enterDate" : "384200:48:53",
"channelId" : "4994896241386965782",
"channelName" : "北京房产-新盘汇总",
"channelNameSummary" : "北京房产-新盘汇总",
"channelUrl" : "http:\/\/bj.house.sina.com.cn\/scan\/xinpan\/index.html",
"author" : "WWW.SINA.COM.CN",
"tags" : [],
"desc" : "当我开着车，穿过繁华的十字路口，红绿灯闪烁，我想起了你。此刻，你在世界的哪个角落？当我走在林荫中，北京冬日的阳光温暖地照在我身上，身边走过一对又一对年轻的情侣，我想起了你。此刻，你在忙碌些什么？当午夜的会议结束，走出灯火通明的写字楼，朋友打来电话：\u201C王总，....",
"emailed" : False,
"forwarded" : False,
"english" : False
}  , {
"index" : 2,
"articleIndex" : "846",
"favor" :  False ,
     "read" : False,    
"title" : "润枫领尚\u201C甜蜜时刻 喜迎中秋\u201D月饼DIY活动圆满落幕",
"titleTip" : "润枫领尚\u201C甜蜜时刻 喜迎中秋\u201D月饼DIY活动圆满落幕",
"titleSummary" : "润枫领尚\u201C甜蜜时刻 喜迎中秋\u201D月饼DIY活动圆满落幕",
"descSummary" : "\u201C每逢佳节倍思亲\u201D，千百年前吟出此千古名句的伟...",
"url" : "http:\/\/go.rss.sina.com.cn\/redirect.php?url=http:\/\/house.sina.com.cn\/scan\/2012-09-26\/1001416728.shtml?source=rss",
"pubDate" : "2012年9月26日",
"enterDate" : "384200:58:31",
"channelId" : "4994896241386965782",
"channelName" : "北京房产-新盘汇总",
"channelNameSummary" : "北京房产-新盘汇总",
"channelUrl" : "http:\/\/bj.house.sina.com.cn\/scan\/xinpan\/index.html",
"author" : "WWW.SINA.COM.CN",
"tags" : [],
"desc" : "\u201C每逢佳节倍思亲\u201D，千百年前吟出此千古名句的伟大诗人王维，肯定无法想到，在传统的中秋节即将到来的今天，京城东南五环的润枫领尚 (论坛 相册 户型 样板间 点评 地图搜索)会将这一传统佳节的前夕演绎的如此的喜庆。 伴随着习习清风，9月22日位于东五环亦庄嘉创二路....",
"emailed" : False,
"forwarded" : False,
"english" : False
}  , {
"index" : 3,
"articleIndex" : "845",
"favor" :  False ,
     "read" : False,    
"title" : "金域缇香 五环金域彰显巨擘气魄",
"titleTip" : "金域缇香 五环金域彰显巨擘气魄",
"titleSummary" : "金域缇香 五环金域彰显巨擘气魄",
"descSummary" : "生命的价值很大一部分取决于居住的价值，用气度看待住宅，就能用发展...",
"url" : "http:\/\/go.rss.sina.com.cn\/redirect.php?url=http:\/\/house.sina.com.cn\/scan\/2012-09-07\/1755414621.shtml?source=rss",
"pubDate" : "2012年9月7日",
"enterDate" : "384201:04:32",
"channelId" : "4994896241386965782",
"channelName" : "北京房产-新盘汇总",
"channelNameSummary" : "北京房产-新盘汇总",
"channelUrl" : "http:\/\/bj.house.sina.com.cn\/scan\/xinpan\/index.html",
"author" : "WWW.SINA.COM.CN",
"tags" : [],
"desc" : "生命的价值很大一部分取决于居住的价值，用气度看待住宅，就能用发展的眼光审视生活。居于西南五环，临母亲河永定河河畔，万科金域缇香 (论坛 相册 户型 样板间 点评 地图搜索)好像是一颗浑然天成的皎玉，闪耀在首都的西南。 2010年7月1日，北京正式确定了关于调整首都....",
"emailed" : False,
"forwarded" : False,
"english" : False
}  , {
"index" : 4,
"articleIndex" : "844",
"favor" :  False ,
     "read" : False,    
"title" : "万科U8臻品装备精良 奢享舒适生活的开始",
"titleTip" : "万科U8臻品装备精良 奢享舒适生活的开始",
"titleSummary" : "万科U8臻品装备精良 奢享舒适生活的开始",
"descSummary" : "精致是一种情怀，是对所有不合理的善意苛责，当大部分事件都...",
"url" : "http:\/\/go.rss.sina.com.cn\/redirect.php?url=http:\/\/house.sina.com.cn\/scan\/2012-08-23\/0947412777.shtml?source=rss",
"pubDate" : "2012年8月23日",
"enterDate" : "384200:59:26",
"channelId" : "4994896241386965782",
"channelName" : "北京房产-新盘汇总",
"channelNameSummary" : "北京房产-新盘汇总",
"channelUrl" : "http:\/\/bj.house.sina.com.cn\/scan\/xinpan\/index.html",
"author" : "WWW.SINA.COM.CN",
"tags" : [],
"desc" : "精致是一种情怀，是对所有不合理的善意苛责，当大部分事件都排列有序地呈现在你面前时，你才会释然。精致是一种态度，是对生活的品质追求，当生活中充满各种舒心和便捷的时候，你才会感觉到生活的真正意义。精致的生活，就要精良的装备，京投万科新里程 (论坛 相册 户型 样板....",
"emailed" : False,
"forwarded" : False,
"english" : False
}  , {
"index" : 5,
"articleIndex" : "843",
"favor" :  False ,
     "read" : False,    
"title" : "嘉里建设高端项目海碧台推出 建筑与艺术的杰作",
"titleTip" : "嘉里建设高端项目海碧台推出 建筑与艺术的杰作",
"titleSummary" : "嘉里建设高端项目海碧台推出 建筑与艺术的杰作",
"descSummary" : "八月的海滨城市秦皇岛，海风徐徐、沙鸥飞翔，在梦幻般...",
"url" : "http:\/\/go.rss.sina.com.cn\/redirect.php?url=http:\/\/house.sina.com.cn\/scan\/2012-08-22\/1315412624.shtml?source=rss",
"pubDate" : "2012年8月22日",
"enterDate" : "384201:04:33",
"channelId" : "4994896241386965782",
"channelName" : "北京房产-新盘汇总",
"channelNameSummary" : "北京房产-新盘汇总",
"channelUrl" : "http:\/\/bj.house.sina.com.cn\/scan\/xinpan\/index.html",
"author" : "WWW.SINA.COM.CN",
"tags" : [],
"desc" : "八月的海滨城市秦皇岛，海风徐徐、沙鸥飞翔，在梦幻般的金梦海湾黄金海岸线上，一座充满神秘的未来建筑，如同一颗耀眼的明珠，绚烂登场。这，就是来自嘉里建设的高端项目\u2015\u2015\u201C海碧台\u201D。 海碧台效果图 嘉里建设于上世纪70年代中期成立，坚守力臻卓越的理念，足迹遍....",
"emailed" : False,
"forwarded" : False,
"english" : False
}  , {
"index" : 6,
"articleIndex" : "842",
"favor" :  False ,
     "read" : False,    
"title" : "解读金融街\u2022融汇 精装名盘引领区域品质升级",
"titleTip" : "解读金融街\u2022融汇 精装名盘引领区域品质升级",
"titleSummary" : "解读金融街\u2022融汇 精装名盘引领区域品质升级",
"descSummary" : "时间：2012年8月16日10点00分 地点：新浪乐居嘉宾聊天...",
"url" : "http:\/\/go.rss.sina.com.cn\/redirect.php?url=http:\/\/house.sina.com.cn\/scan\/2012-08-20\/1031412272.shtml?source=rss",
"pubDate" : "2012年8月20日",
"enterDate" : "384201:07:00",
"channelId" : "4994896241386965782",
"channelName" : "北京房产-新盘汇总",
"channelNameSummary" : "北京房产-新盘汇总",
"channelUrl" : "http:\/\/bj.house.sina.com.cn\/scan\/xinpan\/index.html",
"author" : "WWW.SINA.COM.CN",
"tags" : [],
"desc" : "&#160;&#160;&#160; 时间：2012年8月16日10点00分 地点：新浪乐居嘉宾聊天室 主持人：新浪乐居商务编辑部 李永志 嘉宾：北京金融街房地产顾问有限公司 马银 以下为访谈实录 &#160;&#160; &#160;主持人：新浪乐居的网友大家上午好，很高兴今天我们请到....",
"emailed" : False,
"forwarded" : False,
"english" : False
}  , {
"index" : 7,
"articleIndex" : "841",
"favor" :  False ,
     "read" : False,    
"title" : "房山线上新盘京投快线上林湾推两至三居(图)",
"titleTip" : "房山线上新盘京投快线上林湾推两至三居(图)",
"titleSummary" : "房山线上新盘京投快线上林湾推两至三居(图)",
"descSummary" : "新浪乐居讯(实习编辑 刘楠)京投快线・上林湾(论坛 相册 户型...",
"url" : "http:\/\/go.rss.sina.com.cn\/redirect.php?url=http:\/\/house.sina.com.cn\/scan\/2012-08-08\/1019411046.shtml?source=rss",
"pubDate" : "2012年8月8日",
"enterDate" : "384201:15:57",
"channelId" : "4994896241386965782",
"channelName" : "北京房产-新盘汇总",
"channelNameSummary" : "北京房产-新盘汇总",
"channelUrl" : "http:\/\/bj.house.sina.com.cn\/scan\/xinpan\/index.html",
"author" : "WWW.SINA.COM.CN",
"tags" : [],
"desc" : "新浪乐居讯(实习编辑 刘楠)京投快线・上林湾(论坛 相册 户型 样板间 点评 地图搜索)项目为新盘，开盘时间待定，样板间已出，目前可以看房，主推85平米两居及95平米三居，优惠政策待定。项目位于房山长阳镇京良路南侧(长阳环岛向东800米)，北至京良路，东临长于路，距离京石高....",
"emailed" : False,
"forwarded" : False,
"english" : False
}  , {
"index" : 8,
"articleIndex" : "840",
"favor" :  False ,
     "read" : False,    
"title" : "金街盛大开启 改写顺义商业格局",
"titleTip" : "金街盛大开启 改写顺义商业格局",
"titleSummary" : "金街盛大开启 改写顺义商业格局",
"descSummary" : "新浪房产讯(商务编辑 胡婧) 顺义核心区商业城市综合体金街 (论坛 相册...",
"url" : "http:\/\/go.rss.sina.com.cn\/redirect.php?url=http:\/\/house.sina.com.cn\/scan\/2012-08-06\/1443410808.shtml?source=rss",
"pubDate" : "2012年8月6日",
"enterDate" : "384200:47:14",
"channelId" : "4994896241386965782",
"channelName" : "北京房产-新盘汇总",
"channelNameSummary" : "北京房产-新盘汇总",
"channelUrl" : "http:\/\/bj.house.sina.com.cn\/scan\/xinpan\/index.html",
"author" : "WWW.SINA.COM.CN",
"tags" : [],
"desc" : "新浪房产讯(商务编辑 胡婧) 顺义核心区商业城市综合体金街 (论坛 相册 户型 样板间 点评 地图搜索)项目，8月4日售楼处正式对外开放。 金街项目所处地块已经历经百年，从60年前的熙熙攘攘的小商贩叫卖集市开始，就被称之为\u201C金街\u201D，取之聚财、生意兴隆之意；但随着时代....",
"emailed" : False,
"forwarded" : False,
"english" : False
}  , {
"index" : 9,
"articleIndex" : "839",
"favor" :  False ,
     "read" : False,    
"title" : "中国水电\u2022云立方接待中心8月4日正式开放",
"titleTip" : "中国水电\u2022云立方接待中心8月4日正式开放",
"titleSummary" : "中国水电\u2022云立方接待中心8月4日正式开放",
"descSummary" : "近月以来各地楼市持续回暖，作为北京地产市场新兴的明星板...",
"url" : "http:\/\/go.rss.sina.com.cn\/redirect.php?url=http:\/\/house.sina.com.cn\/scan\/2012-08-06\/1107410794.shtml?source=rss",
"pubDate" : "2012年8月6日",
"enterDate" : "384201:12:21",
"channelId" : "4994896241386965782",
"channelName" : "北京房产-新盘汇总",
"channelNameSummary" : "北京房产-新盘汇总",
"channelUrl" : "http:\/\/bj.house.sina.com.cn\/scan\/xinpan\/index.html",
"author" : "WWW.SINA.COM.CN",
"tags" : [],
"desc" : "近月以来各地楼市持续回暖，作为北京地产市场新兴的明星板块，受到2900亿南城发展计划和首都第二机场的落户影响，天宫院区域继续保持着高温态势。品牌房企齐齐推盘并连获热销，动作不断，吸引了大批刚需人群的目光。 记者日前获悉，该区域又有纯新盘正式发力\u2015\u2015国务院....",
"emailed" : False,
"forwarded" : False,
"english" : False
}  , {
"index" : 10,
"articleIndex" : "838",
"favor" :  False ,
     "read" : False,    
"title" : "4号线B悦国际待售精装60-150平新楼盘(图)",
"titleTip" : "4号线B悦国际待售精装60-150平新楼盘(图)",
"titleSummary" : "4号线B悦国际待售精装60-150平新楼盘(图)",
"descSummary" : "新浪乐居讯(实习编辑 刘楠)B悦国际 (论坛 相册 户型 样板间 点...",
"url" : "http:\/\/go.rss.sina.com.cn\/redirect.php?url=http:\/\/house.sina.com.cn\/scan\/2012-07-30\/1724410034.shtml?source=rss",
"pubDate" : "2012年7月30日",
"enterDate" : "384200:48:43",
"channelId" : "4994896241386965782",
"channelName" : "北京房产-新盘汇总",
"channelNameSummary" : "北京房产-新盘汇总",
"channelUrl" : "http:\/\/bj.house.sina.com.cn\/scan\/xinpan\/index.html",
"author" : "WWW.SINA.COM.CN",
"tags" : [],
"desc" : "新浪乐居讯(实习编辑 刘楠)B悦国际 (论坛 相册 户型 样板间 点评 地图搜索)位于大兴新城核心区，4号线生物医药基地站西侧350米，永大路与天华大街交汇处。项目待售60-150平米精装公寓，3500元\/平米装修标准，3.3米层高。项目为全新楼盘，目前已经开始排号。价格待定，预计201....",
"emailed" : False,
"forwarded" : False,
"english" : False
}  , {
"index" : 11,
"articleIndex" : "837",
"favor" :  False ,
     "read" : False,    
"title" : "蓝爵公馆 京西南第一生态大宅进驻新浪电商",
"titleTip" : "蓝爵公馆 京西南第一生态大宅进驻新浪电商",
"titleSummary" : "蓝爵公馆 京西南第一生态大宅进驻新浪电商",
"descSummary" : "新浪房产讯(商务编辑 胡婧) 7月23日，京西南繁华城心惟一的...",
"url" : "http:\/\/go.rss.sina.com.cn\/redirect.php?url=http:\/\/house.sina.com.cn\/scan\/2012-07-23\/1050409181.shtml?source=rss",
"pubDate" : "2012年7月23日",
"enterDate" : "384200:54:47",
"channelId" : "4994896241386965782",
"channelName" : "北京房产-新盘汇总",
"channelNameSummary" : "北京房产-新盘汇总",
"channelUrl" : "http:\/\/bj.house.sina.com.cn\/scan\/xinpan\/index.html",
"author" : "WWW.SINA.COM.CN",
"tags" : [],
"desc" : "新浪房产讯(商务编辑 胡婧) &#160;7月23日，京西南繁华城心惟一的生态大宅样本，蓝爵公馆 (论坛 相册 户型 样板间 点评 地图搜索)正式入驻新浪EJU电商平台，开发商北京森阳房地产开发有限责任公司此次联手EJU电商推出独家特惠，2万直减30万。据了解，此次活动共推出172套优质....",
"emailed" : False,
"forwarded" : False,
"english" : False
}  , {
"index" : 12,
"articleIndex" : "836",
"favor" :  False ,
     "read" : False,    
"title" : "房山蓝爵公馆8月待推140-160平米大户型(图)",
"titleTip" : "房山蓝爵公馆8月待推140-160平米大户型(图)",
"titleSummary" : "房山蓝爵公馆8月待推140-160平米大户型(图)",
"descSummary" : "新浪房产讯(编辑 谢爽)蓝爵公馆 (论坛 相册 户型 样板间 点评...",
"url" : "http:\/\/go.rss.sina.com.cn\/redirect.php?url=http:\/\/house.sina.com.cn\/scan\/2012-07-09\/1805407754.shtml?source=rss",
"pubDate" : "2012年7月9日",
"enterDate" : "384201:10:43",
"channelId" : "4994896241386965782",
"channelName" : "北京房产-新盘汇总",
"channelNameSummary" : "北京房产-新盘汇总",
"channelUrl" : "http:\/\/bj.house.sina.com.cn\/scan\/xinpan\/index.html",
"author" : "WWW.SINA.COM.CN",
"tags" : [],
"desc" : "新浪房产讯(编辑 谢爽)蓝爵公馆 (论坛 相册 户型 样板间 点评 地图搜索)预计2012年8月1日开盘，预计均价25000元\/平，2012年年底即可入住。项目为140-160平米纯大户型，1梯1户，预计物业管理费为3-4元\/月\/平米。项目1、2号楼为13层(每栋楼为1个单元)，3、4、5号楼为15层(3号楼....",
"emailed" : False,
"forwarded" : False,
"english" : False
}  , {
"index" : 13,
"articleIndex" : "835",
"favor" :  False ,
     "read" : False,    
"title" : "潜力轨道双线年底开通 正源广场价值爆发在即",
"titleTip" : "潜力轨道双线年底开通 正源广场价值爆发在即",
"titleSummary" : "潜力轨道双线年底开通 正源广场价值爆发在即",
"descSummary" : "正源广场自6月初面世即受到市场热捧，首周问鼎北京楼市...",
"url" : "http:\/\/go.rss.sina.com.cn\/redirect.php?url=http:\/\/house.sina.com.cn\/scan\/2012-07-06\/1726407586.shtml?source=rss",
"pubDate" : "2012年7月6日",
"enterDate" : "384185:59:14",
"channelId" : "4994896241386965782",
"channelName" : "北京房产-新盘汇总",
"channelNameSummary" : "北京房产-新盘汇总",
"channelUrl" : "http:\/\/bj.house.sina.com.cn\/scan\/xinpan\/index.html",
"author" : "WWW.SINA.COM.CN",
"tags" : [],
"desc" : "正源广场自6月初面世即受到市场热捧，首周问鼎北京楼市销冠后一直于销售榜前十领跑。一个项目的热销必然承载着客户认可甚至超越预期的价值，特别是稀缺地段集多项价值于一体的绝版产品。正源广场购房客户今年年底即可迎来项目第一个价值爆发点\u2015\u20156号线、10号线二期开通！....",
"emailed" : False,
"forwarded" : False,
"english" : False
}  , {
"index" : 14,
"articleIndex" : "834",
"favor" :  False ,
     "read" : False,    
"title" : "房山首创新悦都十月待推68平起二至三居(图)",
"titleTip" : "房山首创新悦都十月待推68平起二至三居(图)",
"titleSummary" : "房山首创新悦都十月待推68平起二至三居(图)",
"descSummary" : "新浪乐居讯(编辑 谢爽)首创・新悦都 (论坛 相册 户型 样板间...",
"url" : "http:\/\/go.rss.sina.com.cn\/redirect.php?url=http:\/\/house.sina.com.cn\/scan\/2012-06-29\/1228406758.shtml?source=rss",
"pubDate" : "2012年6月29日",
"enterDate" : "384201:01:31",
"channelId" : "4994896241386965782",
"channelName" : "北京房产-新盘汇总",
"channelNameSummary" : "北京房产-新盘汇总",
"channelUrl" : "http:\/\/bj.house.sina.com.cn\/scan\/xinpan\/index.html",
"author" : "WWW.SINA.COM.CN",
"tags" : [],
"desc" : "新浪乐居讯(编辑 谢爽)首创・新悦都 (论坛 相册 户型 样板间 点评 地图搜索)位于房山长阳镇京良路北侧。项目预计2012年10月开盘。项目分二期开发，共2084套，一期为15栋6-18板楼，一梯两户，共计1334套房源；二期8栋板楼，一梯两户，共计750套房源。 首创・新悦都沿铁....",
"emailed" : False,
"forwarded" : False,
"english" : False
}  , {
"index" : 15,
"articleIndex" : "833",
"favor" :  False ,
     "read" : False,    
"title" : "火爆\u201C欧洲杯\u201D 狂欢黄金海岸",
"titleTip" : "火爆\u201C欧洲杯\u201D 狂欢黄金海岸",
"titleSummary" : "火爆\u201C欧洲杯\u201D 狂欢黄金海岸",
"descSummary" : "今夏，让世界上每一个球迷为之狂欢迷醉的\u201C欧洲杯\u201D又来了！C罗、舍甫...",
"url" : "http:\/\/go.rss.sina.com.cn\/redirect.php?url=http:\/\/house.sina.com.cn\/scan\/2012-06-28\/1015406549.shtml?source=rss",
"pubDate" : "2012年6月28日",
"enterDate" : "384200:54:30",
"channelId" : "4994896241386965782",
"channelName" : "北京房产-新盘汇总",
"channelNameSummary" : "北京房产-新盘汇总",
"channelUrl" : "http:\/\/bj.house.sina.com.cn\/scan\/xinpan\/index.html",
"author" : "WWW.SINA.COM.CN",
"tags" : [],
"desc" : "今夏，让世界上每一个球迷为之狂欢迷醉的\u201C欧洲杯\u201D又来了！C罗、舍甫琴科、范佩西、亨特拉尔，群雄聚首，举世瞩目。与此同时，北中国度假热季也悄然而至。 周末的郊外，逃离城市的人格外多，伴随丝丝海风，脚踏松软的沙滩，度假就这样开始了\u2026\u2026 逃离炎热的钢....",
"emailed" : False,
"forwarded" : False,
"english" : False
}  , {
"index" : 16,
"articleIndex" : "832",
"favor" :  False ,
     "read" : False,    
"title" : "旅游地产投资高涨 后海温泉小镇现场预约8套",
"titleTip" : "旅游地产投资高涨 后海温泉小镇现场预约8套",
"titleSummary" : "旅游地产投资高涨 后海温泉小镇现场预约8套",
"descSummary" : "在当前传统商业住宅市场下滑的背景下，旅游地产的投资热度...",
"url" : "http:\/\/go.rss.sina.com.cn\/redirect.php?url=http:\/\/house.sina.com.cn\/scan\/2012-06-27\/1026406372.shtml?source=rss",
"pubDate" : "2012年6月27日",
"enterDate" : "384200:57:55",
"channelId" : "4994896241386965782",
"channelName" : "北京房产-新盘汇总",
"channelNameSummary" : "北京房产-新盘汇总",
"channelUrl" : "http:\/\/bj.house.sina.com.cn\/scan\/xinpan\/index.html",
"author" : "WWW.SINA.COM.CN",
"tags" : [],
"desc" : "在当前传统商业住宅市场下滑的背景下，旅游地产的投资热度似乎正日渐高涨。于2012年6月23日下午在兆龙饭店举行的后海温泉小镇推介会上以现场预约8套而隆重圆满地结束。以后海温泉小镇的热销不难看出，在房企谋划多元新商机的名单中，旅游地产也成为当之无愧的宠儿。 后....",
"emailed" : False,
"forwarded" : False,
"english" : False
}  , {
"index" : 17,
"articleIndex" : "831",
"favor" :  False ,
     "read" : False,    
"title" : "亦庄中信府230-270平联排别墅送地下室(图)",
"titleTip" : "亦庄中信府230-270平联排别墅送地下室(图)",
"titleSummary" : "亦庄中信府230-270平联排别墅送地下室(图)",
"descSummary" : "新浪乐居讯(实习编辑 杨恩媛)中信府(论坛 相册 户型 样板间...",
"url" : "http:\/\/go.rss.sina.com.cn\/redirect.php?url=http:\/\/house.sina.com.cn\/scan\/2012-06-26\/1656406311.shtml?source=rss",
"pubDate" : "2012年6月26日",
"enterDate" : "384201:02:00",
"channelId" : "4994896241386965782",
"channelName" : "北京房产-新盘汇总",
"channelNameSummary" : "北京房产-新盘汇总",
"channelUrl" : "http:\/\/bj.house.sina.com.cn\/scan\/xinpan\/index.html",
"author" : "WWW.SINA.COM.CN",
"tags" : [],
"desc" : "新浪乐居讯(实习编辑 杨恩媛)中信府(论坛&#160;相册&#160;户型&#160;样板间&#160;点评&#160;地图搜索)项目待售房源为联排别墅，开盘时间待定，均价待定，房源面积为230、240、270平米联排别墅，地上三层，每户赠送地下空间，并配备私家花园、智能电梯及双车位，70年产权。项目....",
"emailed" : False,
"forwarded" : False,
"english" : False
}  , {
"index" : 18,
"articleIndex" : "830",
"favor" :  False ,
     "read" : False,    
"title" : "怀柔天恒半山世家端午购独栋别墅享95折(图)",
"titleTip" : "怀柔天恒半山世家端午购独栋别墅享95折(图)",
"titleSummary" : "怀柔天恒半山世家端午购独栋别墅享95折(图)",
"descSummary" : "新浪乐居讯(编辑 谢爽)天恒・半山世家(论坛 相册 户型 样板...",
"url" : "http:\/\/go.rss.sina.com.cn\/redirect.php?url=http:\/\/house.sina.com.cn\/scan\/2012-06-21\/1415405890.shtml?source=rss",
"pubDate" : "2012年6月21日",
"enterDate" : "384200:26:17",
"channelId" : "4994896241386965782",
"channelName" : "北京房产-新盘汇总",
"channelNameSummary" : "北京房产-新盘汇总",
"channelUrl" : "http:\/\/bj.house.sina.com.cn\/scan\/xinpan\/index.html",
"author" : "WWW.SINA.COM.CN",
"tags" : [],
"desc" : "新浪乐居讯(编辑 谢爽)天恒・半山世家(论坛&#160;相册&#160;户型&#160;样板间&#160;点评&#160;地图搜索)6月22日，23日端午节期间，天恒・半山世家将在售楼处举办\u201C粽子DIY\u201D活动，活动期间，购房可享全款95折、贷款97折优惠折扣。项目2012年4月21日全新售楼处开放，目前独栋别....",
"emailed" : False,
"forwarded" : False,
"english" : False
}  , {
"index" : 19,
"articleIndex" : "829",
"favor" :  False ,
     "read" : False,    
"title" : "大兴云河墅91-170平精装2-3居18500元起(图)",
"titleTip" : "大兴云河墅91-170平精装2-3居18500元起(图)",
"titleSummary" : "大兴云河墅91-170平精装2-3居18500元起(图)",
"descSummary" : "新浪乐居讯(实习编辑 杨恩媛)云河墅(论坛 相册 户型 样板间...",
"url" : "http:\/\/go.rss.sina.com.cn\/redirect.php?url=http:\/\/house.sina.com.cn\/scan\/2012-06-15\/1622405208.shtml?source=rss",
"pubDate" : "2012年6月15日",
"enterDate" : "384200:57:23",
"channelId" : "4994896241386965782",
"channelName" : "北京房产-新盘汇总",
"channelNameSummary" : "北京房产-新盘汇总",
"channelUrl" : "http:\/\/bj.house.sina.com.cn\/scan\/xinpan\/index.html",
"author" : "WWW.SINA.COM.CN",
"tags" : [],
"desc" : "&#160;&#160;&#160; 新浪乐居讯(实习编辑 杨恩媛)云河墅(论坛 相册 户型 样板间 点评 地图搜索)项目预计7月初开盘，待售房源为9层、16层板楼，1梯2户，户型为91-170平米2-3居。纯南向户型18500-20190元\/平米，南北通透户型19900-21300元\/平米，精装修交房，装修标准为2000元\/平米....",
"emailed" : False,
"forwarded" : False,
"english" : False
} ]
}
