{
"mode" : {"viewTitle" : 1,   "viewNew" : 0,  "pageIndex" : 2 },
 "channel" : {"id" : "4994896241386965782", "booked" : False, "subNumber" : 1, "name" : "北京房产-新盘汇总", "url" : "http:\/\/bj.house.sina.com.cn\/scan\/xinpan\/index.html", "feed" : "http:\/\/rss.sina.com.cn\/bjhouse\/scan\/xinpan.xml", "author" : "WWW.SINA.COM.CN", "desc" : "北京房产-新盘汇总", "imageUrl" : "http:\/\/www.sinaimg.cn\/house\/sina_fc.gif", "postPerWeek" : "0", "lastCrawTime" : "17:05:00", "crawDateTime" : "2013年1月10日", "lastHttpCode" : "304"}, "page" : {
"startIndex" : 20,
"totalCount" : 849,
"pageIndex" : 2,
"lastPage" : 43,
"pageSize" : 20,
"english" :  False },
 "unreadNum" : 0, "shotIndex" : -1,
"articles" : [
{
"index" : 0,
"articleIndex" : "828",
"favor" :  False ,
     "read" : False,    
"title" : "廊坊新盘宏程华府待售中小户型17万起售(图)",
"titleTip" : "廊坊新盘宏程华府待售中小户型17万起售(图)",
"titleSummary" : "廊坊新盘宏程华府待售中小户型17万起售(图)",
"descSummary" : "新浪乐居讯(编辑 张跃)宏程华府 (论坛 相册 户型 样板间 点评...",
"url" : "http:\/\/go.rss.sina.com.cn\/redirect.php?url=http:\/\/house.sina.com.cn\/scan\/2012-06-15\/1548405202.shtml?source=rss",
"pubDate" : "2012年6月15日",
"enterDate" : "384200:53:28",
"channelId" : "4994896241386965782",
"channelName" : "北京房产-新盘汇总",
"channelNameSummary" : "北京房产-新盘汇总",
"channelUrl" : "http:\/\/bj.house.sina.com.cn\/scan\/xinpan\/index.html",
"author" : "WWW.SINA.COM.CN",
"tags" : [],
"desc" : "新浪乐居讯(编辑 张跃)宏程华府 (论坛 相册 户型 样板间 点评 地图搜索)即将开盘，具体时间待定，起价4300元\/平米，均价4500元\/平米，总价17-51万元\/套。目前前往售楼处申请参加\u201C首期超级团购\u201D，享开盘特惠。项目建筑面积60208.22平米，容积率2.2，容积率35.08%，预计2012年....",
"emailed" : False,
"forwarded" : False,
"english" : False
}  , {
"index" : 1,
"articleIndex" : "827",
"favor" :  False ,
     "read" : False,    
"title" : "交通催升房产升值成为必然趋势",
"titleTip" : "交通催升房产升值成为必然趋势",
"titleSummary" : "交通催升房产升值成为必然趋势",
"descSummary" : "伴随着首都经济建设的飞速发展，高速公路变成了带动一个区域经济发展...",
"url" : "http:\/\/go.rss.sina.com.cn\/redirect.php?url=http:\/\/house.sina.com.cn\/scan\/2012-06-13\/0926404865.shtml?source=rss",
"pubDate" : "2012年6月13日",
"enterDate" : "384200:59:48",
"channelId" : "4994896241386965782",
"channelName" : "北京房产-新盘汇总",
"channelNameSummary" : "北京房产-新盘汇总",
"channelUrl" : "http:\/\/bj.house.sina.com.cn\/scan\/xinpan\/index.html",
"author" : "WWW.SINA.COM.CN",
"tags" : [],
"desc" : "伴随着首都经济建设的飞速发展，高速公路变成了带动一个区域经济发展的重要支撑力，京哈、京藏、京开、京石、京新....。.等多条高速线路的开通，促使沿线各区域经济的飞快发展，尤其是对房地产的发展起到了极大的推动作用，\u201C轨道交通\u201D已经成为拉升北京区域房产的最大助力。....",
"emailed" : False,
"forwarded" : False,
"english" : False
}  , {
"index" : 2,
"articleIndex" : "826",
"favor" :  False ,
     "read" : False,    
"title" : "大兴金第万科朗润园135平起3居7月精装入市(图)",
"titleTip" : "大兴金第万科朗润园135平起3居7月精装入市(图)",
"titleSummary" : "大兴金第万科朗润园135平起3居7月精装入市(图)",
"descSummary" : "新浪乐居讯(实习编辑 杨恩媛)金第万科・朗润园(论坛 相...",
"url" : "http:\/\/go.rss.sina.com.cn\/redirect.php?url=http:\/\/house.sina.com.cn\/scan\/2012-06-12\/1100404750.shtml?source=rss",
"pubDate" : "2012年6月12日",
"enterDate" : "384201:08:01",
"channelId" : "4994896241386965782",
"channelName" : "北京房产-新盘汇总",
"channelNameSummary" : "北京房产-新盘汇总",
"channelUrl" : "http:\/\/bj.house.sina.com.cn\/scan\/xinpan\/index.html",
"author" : "WWW.SINA.COM.CN",
"tags" : [],
"desc" : "新浪乐居讯(实习编辑 杨恩媛)金第万科・朗润园(论坛 相册 户型 样板间 点评 地图搜索)项目预计7月中旬推精装房源，价格待定，户型面积为135-155平米3居，待售楼座为1-6号楼，6-9层南北通透板楼，预计2014年交房，70年产权。项目为万科和金第合作开发的楼盘，同时也是万科在大....",
"emailed" : False,
"forwarded" : False,
"english" : False
}  , {
"index" : 3,
"articleIndex" : "825",
"favor" :  False ,
     "read" : False,    
"title" : "潜力地段为投资要件 翼之城保持国门销冠殊荣",
"titleTip" : "潜力地段为投资要件 翼之城保持国门销冠殊荣",
"titleSummary" : "潜力地段为投资要件 翼之城保持国门销冠殊荣",
"descSummary" : "连巴菲特都认为房产投资是最好的投资项目，因为你买的不...",
"url" : "http:\/\/go.rss.sina.com.cn\/redirect.php?url=http:\/\/house.sina.com.cn\/scan\/2012-06-05\/1338403976.shtml?source=rss",
"pubDate" : "2012年6月5日",
"enterDate" : "384201:15:02",
"channelId" : "4994896241386965782",
"channelName" : "北京房产-新盘汇总",
"channelNameSummary" : "北京房产-新盘汇总",
"channelUrl" : "http:\/\/bj.house.sina.com.cn\/scan\/xinpan\/index.html",
"author" : "WWW.SINA.COM.CN",
"tags" : [],
"desc" : "连巴菲特都认为房产投资是最好的投资项目，因为你买的不仅仅是一处房子，而是你脚下稀缺的、宝贵的、不可再生的土地资源，难道你不想在城市最有价值的地方拥有自己的一席之地吗？ 据官方数据显示，截至2011年12月15日，北京市规划建筑面积总计765.2万平米，不仅较2010....",
"emailed" : False,
"forwarded" : False,
"english" : False
}  , {
"index" : 4,
"articleIndex" : "824",
"favor" :  False ,
     "read" : False,    
"title" : "白洋淀美芦庄园152-306平米别墅6月开盘(图)",
"titleTip" : "白洋淀美芦庄园152-306平米别墅6月开盘(图)",
"titleSummary" : "白洋淀美芦庄园152-306平米别墅6月开盘(图)",
"descSummary" : "新浪乐居讯(实习编辑 杨恩媛)美芦庄园(论坛 相册 户型 样板...",
"url" : "http:\/\/go.rss.sina.com.cn\/redirect.php?url=http:\/\/house.sina.com.cn\/scan\/2012-05-31\/1015403404.shtml?source=rss",
"pubDate" : "2012年5月31日",
"enterDate" : "384200:56:13",
"channelId" : "4994896241386965782",
"channelName" : "北京房产-新盘汇总",
"channelNameSummary" : "北京房产-新盘汇总",
"channelUrl" : "http:\/\/bj.house.sina.com.cn\/scan\/xinpan\/index.html",
"author" : "WWW.SINA.COM.CN",
"tags" : [],
"desc" : "新浪乐居讯(实习编辑 杨恩媛)美芦庄园(论坛&#160;相册&#160;户型&#160;样板间&#160;点评&#160;地图搜索)项目二期预计2012年6月开盘，待售房源为152-306平米叠拼及独栋别墅，总价100万\/套左右，现排号可享购房1万抵10万优惠，70年产权，2014年9月交房。项目位于河北省保定市白....",
"emailed" : False,
"forwarded" : False,
"english" : False
}  , {
"index" : 5,
"articleIndex" : "823",
"favor" :  False ,
     "read" : False,    
"title" : "崇礼梦特芳丹42平米精装loft均价8000元(图)",
"titleTip" : "崇礼梦特芳丹42平米精装loft均价8000元(图)",
"titleSummary" : "崇礼梦特芳丹42平米精装loft均价8000元(图)",
"descSummary" : "新浪乐居讯(实习编辑 杨恩媛)梦特芳丹(论坛 相册 户型 样板...",
"url" : "http:\/\/go.rss.sina.com.cn\/redirect.php?url=http:\/\/house.sina.com.cn\/scan\/2012-05-29\/1459403144.shtml?source=rss",
"pubDate" : "2012年5月29日",
"enterDate" : "384201:06:15",
"channelId" : "4994896241386965782",
"channelName" : "北京房产-新盘汇总",
"channelNameSummary" : "北京房产-新盘汇总",
"channelUrl" : "http:\/\/bj.house.sina.com.cn\/scan\/xinpan\/index.html",
"author" : "WWW.SINA.COM.CN",
"tags" : [],
"desc" : "新浪乐居讯(实习编辑 杨恩媛)梦特芳丹(论坛&#160;相册&#160;户型&#160;样板间&#160;点评&#160;地图搜索)项目位于裕兴路北端，万隆滑雪场南。项目6月中旬推出样板间，开盘时间待定，待售房源为6层板楼的法式风格loft酒店式公寓，户型面积均为42平米，挑高5.4米，暂定均价8000元....",
"emailed" : False,
"forwarded" : False,
"english" : False
}  , {
"index" : 6,
"articleIndex" : "822",
"favor" :  False ,
     "read" : False,    
"title" : "固安荷兰印象78平起2-3居预计均价4500(图)",
"titleTip" : "固安荷兰印象78平起2-3居预计均价4500(图)",
"titleSummary" : "固安荷兰印象78平起2-3居预计均价4500(图)",
"descSummary" : "新浪乐居讯(实习编辑 杨恩媛)荷兰印象(论坛 相册 户型 样板...",
"url" : "http:\/\/go.rss.sina.com.cn\/redirect.php?url=http:\/\/house.sina.com.cn\/scan\/2012-05-29\/1033403101.shtml?source=rss",
"pubDate" : "2012年5月29日",
"enterDate" : "384172:36:00",
"channelId" : "4994896241386965782",
"channelName" : "北京房产-新盘汇总",
"channelNameSummary" : "北京房产-新盘汇总",
"channelUrl" : "http:\/\/bj.house.sina.com.cn\/scan\/xinpan\/index.html",
"author" : "WWW.SINA.COM.CN",
"tags" : [],
"desc" : "新浪乐居讯(实习编辑 杨恩媛)荷兰印象(论坛&#160;相册&#160;户型&#160;样板间&#160;点评&#160;地图搜索)项目未开盘，开盘时间待定。待开盘楼座为三栋18层板塔结合楼，目前正处于内部认购中，均价暂定4500元\/平米，户型面积为二居78-88平米，三居97-120平米。项目为70年产权，....",
"emailed" : False,
"forwarded" : False,
"english" : False
}  , {
"index" : 7,
"articleIndex" : "821",
"favor" :  False ,
     "read" : False,    
"title" : "玉泉新城商业中心亮相 保值增值潜力出众",
"titleTip" : "玉泉新城商业中心亮相 保值增值潜力出众",
"titleSummary" : "玉泉新城商业中心亮相 保值增值潜力出众",
"descSummary" : "效果图 地理位置图 玉泉新城作为北京西部百万平米大盘，是最...",
"url" : "http:\/\/go.rss.sina.com.cn\/redirect.php?url=http:\/\/house.sina.com.cn\/scan\/2012-05-11\/1038401129.shtml?source=rss",
"pubDate" : "2012年5月11日",
"enterDate" : "384197:06:50",
"channelId" : "4994896241386965782",
"channelName" : "北京房产-新盘汇总",
"channelNameSummary" : "北京房产-新盘汇总",
"channelUrl" : "http:\/\/bj.house.sina.com.cn\/scan\/xinpan\/index.html",
"author" : "WWW.SINA.COM.CN",
"tags" : [],
"desc" : "&#160; 效果图 地理位置图 玉泉新城作为北京西部百万平米大盘，是最具影响力的大型综合性社区之一。项目位于连接长安街和阜石路这两条贯穿于城市东西各主要联络线的玉泉路上，项目总占地面积61.78公顷，规划总建筑面积约109万平方米，是集住宅、写字楼、商业、教育....",
"emailed" : False,
"forwarded" : False,
"english" : False
}  , {
"index" : 8,
"articleIndex" : "818",
"favor" :  False ,
     "read" : False,    
"title" : "大兴刚需新盘扎堆入市 两大板块再掀激战(图)",
"titleTip" : "大兴刚需新盘扎堆入市 两大板块再掀激战(图)",
"titleSummary" : "大兴刚需新盘扎堆入市 两大板块再掀激战(图)",
"descSummary" : "新浪乐居讯(编辑 张跃)大兴区商品住宅项目主要分布在地铁大...",
"url" : "http:\/\/go.rss.sina.com.cn\/redirect.php?url=http:\/\/house.sina.com.cn\/scan\/2012-05-02\/1712400140.shtml?source=rss",
"pubDate" : "2012年5月2日",
"enterDate" : "384201:13:43",
"channelId" : "4994896241386965782",
"channelName" : "北京房产-新盘汇总",
"channelNameSummary" : "北京房产-新盘汇总",
"channelUrl" : "http:\/\/bj.house.sina.com.cn\/scan\/xinpan\/index.html",
"author" : "WWW.SINA.COM.CN",
"tags" : [],
"desc" : "新浪乐居讯(编辑 张跃)大兴区商品住宅项目主要分布在地铁大兴线沿线区域，包括黄村镇核心区、大兴新城北区及天宫院区域，其中大兴新城北区(高米店北站、高米店南站、枣园站)和天宫院(生物医药基地站、天宫院站)在售项目较多，是大兴区商品住宅供应的集中区域。配套方面，黄村....",
"emailed" : False,
"forwarded" : False,
"english" : False
}  , {
"index" : 9,
"articleIndex" : "819",
"favor" :  False ,
     "read" : False,    
"title" : "新城北区老树开新花 配套齐全价格走低(图)",
"titleTip" : "新城北区老树开新花 配套齐全价格走低(图)",
"titleSummary" : "新城北区老树开新花 配套齐全价格走低(图)",
"descSummary" : "图为大兴新城北区项目分布图 大兴新城北区位于地铁4号线西红...",
"url" : "http:\/\/go.rss.sina.com.cn\/redirect.php?url=http:\/\/house.sina.com.cn\/scan\/2012-05-02\/1712400140_2.shtml?source=rss",
"pubDate" : "2012年5月2日",
"enterDate" : "384201:13:43",
"channelId" : "4994896241386965782",
"channelName" : "北京房产-新盘汇总",
"channelNameSummary" : "北京房产-新盘汇总",
"channelUrl" : "http:\/\/bj.house.sina.com.cn\/scan\/xinpan\/index.html",
"author" : "WWW.SINA.COM.CN",
"tags" : [],
"desc" : "图为大兴新城北区项目分布图 大兴新城北区位于地铁4号线西红门至枣园一带，目前在售楼盘众多。由于起步早，发展时间较长，区域配套较为完善。鸿坤・理想城、华润公元九里、北京城建・红木林\u2026\u2026这些项目目前在售的户型均为中大户型，前期已售的房源价格也大多超过20000元\/....",
"emailed" : False,
"forwarded" : False,
"english" : False
}  , {
"index" : 10,
"articleIndex" : "820",
"favor" :  False ,
     "read" : False,    
"title" : "天宫院区域激战即将打响 高买低卖成主流(组图)",
"titleTip" : "天宫院区域激战即将打响 高买低卖成主流(组图)",
"titleSummary" : "天宫院区域激战即将打响 高买低卖成主流(组图)",
"descSummary" : "图为天宫院区域新盘分布图 天宫院板块位于大兴区西部，...",
"url" : "http:\/\/go.rss.sina.com.cn\/redirect.php?url=http:\/\/house.sina.com.cn\/scan\/2012-05-02\/1712400140_3.shtml?source=rss",
"pubDate" : "2012年5月2日",
"enterDate" : "384200:43:37",
"channelId" : "4994896241386965782",
"channelName" : "北京房产-新盘汇总",
"channelNameSummary" : "北京房产-新盘汇总",
"channelUrl" : "http:\/\/bj.house.sina.com.cn\/scan\/xinpan\/index.html",
"author" : "WWW.SINA.COM.CN",
"tags" : [],
"desc" : "图为天宫院区域新盘分布图 天宫院板块位于大兴区西部，南六环附近，属大兴新城西南片区，距离市中心约25公里。东西方向的南六环、黄良路、天河西路、天北路与南北方向的芦求路、天贵街、新源大街、京开高速组成了天宫院\u201C四纵四横\u201D的公路交通网络。目前板块内有多路公交车....",
"emailed" : False,
"forwarded" : False,
"english" : False
}  , {
"index" : 11,
"articleIndex" : "817",
"favor" :  False ,
     "read" : False,    
"title" : "全程学区一宅难求 冠城大通澜石即将开盘",
"titleTip" : "全程学区一宅难求 冠城大通澜石即将开盘",
"titleSummary" : "全程学区一宅难求 冠城大通澜石即将开盘",
"descSummary" : "市中心学区项目的置业者被称作高端刚需，他们有着始终只涨不...",
"url" : "http:\/\/go.rss.sina.com.cn\/redirect.php?url=http:\/\/house.sina.com.cn\/scan\/2012-04-27\/0940399698.shtml?source=rss",
"pubDate" : "2012年4月27日",
"enterDate" : "384200:46:09",
"channelId" : "4994896241386965782",
"channelName" : "北京房产-新盘汇总",
"channelNameSummary" : "北京房产-新盘汇总",
"channelUrl" : "http:\/\/bj.house.sina.com.cn\/scan\/xinpan\/index.html",
"author" : "WWW.SINA.COM.CN",
"tags" : [],
"desc" : "市中心学区项目的置业者被称作高端刚需，他们有着始终只涨不降购房热情，巨大的需求和有限的供应，使得市中心的学区项目长期处于一宅难求的状态。这其中，尤其以东北三环区域为甚。这里是整个东部区域教育资源最丰富的区域，以人大附中、人大附小为代表，这里从幼儿园、小学，....",
"emailed" : False,
"forwarded" : False,
"english" : False
}  , {
"index" : 12,
"articleIndex" : "816",
"favor" :  False ,
     "read" : False,    
"title" : "冠城大通澜石:东北三环最后的中央公园福祉",
"titleTip" : "冠城大通澜石:东北三环最后的中央公园福祉",
"titleSummary" : "冠城大通澜石:东北三环最后的中央公园福祉",
"descSummary" : "在寸土寸金的大都市，最珍贵的莫过于自然环境，尤其当一个...",
"url" : "http:\/\/go.rss.sina.com.cn\/redirect.php?url=http:\/\/house.sina.com.cn\/scan\/2012-04-19\/1008398696.shtml?source=rss",
"pubDate" : "2012年4月19日",
"enterDate" : "384201:01:53",
"channelId" : "4994896241386965782",
"channelName" : "北京房产-新盘汇总",
"channelNameSummary" : "北京房产-新盘汇总",
"channelUrl" : "http:\/\/bj.house.sina.com.cn\/scan\/xinpan\/index.html",
"author" : "WWW.SINA.COM.CN",
"tags" : [],
"desc" : "在寸土寸金的大都市，最珍贵的莫过于自然环境，尤其当一个城市发展成熟，所有土地都被开发完毕，自然环境更成为不可再生的资源。在纽约、香港等国际都市，高端居住区必然要诞生在中央公园、浅水湾这样的稀缺自然环境中，且这些区域都已成为城市中的绝版而不断被人追捧。 ....",
"emailed" : False,
"forwarded" : False,
"english" : False
}  , {
"index" : 13,
"articleIndex" : "815",
"favor" :  False ,
     "read" : False,    
"title" : "汉飞・又一城两室一厅48万封顶掀楼市狂潮",
"titleTip" : "汉飞・又一城两室一厅48万封顶掀楼市狂潮",
"titleSummary" : "汉飞・又一城两室一厅48万封顶掀楼市狂潮",
"descSummary" : "如今，能拥有一处内环优越地段的住房是每一个置业者的梦想...",
"url" : "http:\/\/go.rss.sina.com.cn\/redirect.php?url=http:\/\/house.sina.com.cn\/scan\/2012-04-12\/1612397971.shtml?source=rss",
"pubDate" : "2012年4月12日",
"enterDate" : "384200:36:48",
"channelId" : "4994896241386965782",
"channelName" : "北京房产-新盘汇总",
"channelNameSummary" : "北京房产-新盘汇总",
"channelUrl" : "http:\/\/bj.house.sina.com.cn\/scan\/xinpan\/index.html",
"author" : "WWW.SINA.COM.CN",
"tags" : [],
"desc" : "如今，能拥有一处内环优越地段的住房是每一个置业者的梦想，但其高房价却让许多购房者都望尘莫及。汉飞・又一城项目地处于800年历史的司门口老商圈，配套丰盛不言而喻。与长江大桥、黄鹤楼、龟山、蛇山比邻而居，距长江不足百米，将老武昌江片视野最宽，江景最为壮阔的一段纳为私....",
"emailed" : False,
"forwarded" : False,
"english" : False
}  , {
"index" : 14,
"articleIndex" : "814",
"favor" :  False ,
     "read" : False,    
"title" : "江城壹号文化综合体 文化创意的新地标",
"titleTip" : "江城壹号文化综合体 文化创意的新地标",
"titleSummary" : "江城壹号文化综合体 文化创意的新地标",
"descSummary" : "\u201C江城壹号\u201D文化综合体鸟瞰图 武汉市汉正街工业园区东南角，...",
"url" : "http:\/\/go.rss.sina.com.cn\/redirect.php?url=http:\/\/house.sina.com.cn\/scan\/2012-04-12\/1142397915.shtml?source=rss",
"pubDate" : "2012年4月12日",
"enterDate" : "384201:08:41",
"channelId" : "4994896241386965782",
"channelName" : "北京房产-新盘汇总",
"channelNameSummary" : "北京房产-新盘汇总",
"channelUrl" : "http:\/\/bj.house.sina.com.cn\/scan\/xinpan\/index.html",
"author" : "WWW.SINA.COM.CN",
"tags" : [],
"desc" : "\u201C江城壹号\u201D文化综合体鸟瞰图 武汉市汉正街工业园区东南角，曾经是一片见证历史的斑驳厂房\u2015\u2015武汉轻型汽车厂。而今，随着武汉建设大发展，轻汽厂终于退居历史舞台之后。而一个新兴的文化综合体\u2015\u2015\u201C江城壹号\u201D即将在这里诞生，它将为~口区乃至武汉市量身定制一个具有深厚文....",
"emailed" : False,
"forwarded" : False,
"english" : False
}  , {
"index" : 15,
"articleIndex" : "813",
"favor" :  False ,
     "read" : False,    
"title" : "西2环商住小户型会城国际60平起精装房拎包入住",
"titleTip" : "西2环商住小户型会城国际60平起精装房拎包入住",
"titleSummary" : "西2环商住小户型会城国际60平起精装房拎包入住",
"descSummary" : "新浪房产讯(编辑 张跃)会城国际 (论坛 相册 户型 样板间...",
"url" : "http:\/\/go.rss.sina.com.cn\/redirect.php?url=http:\/\/house.sina.com.cn\/scan\/2012-01-16\/1724389260.shtml?source=rss",
"pubDate" : "2012年1月16日",
"enterDate" : "383464:04:33",
"channelId" : "4994896241386965782",
"channelName" : "北京房产-新盘汇总",
"channelNameSummary" : "北京房产-新盘汇总",
"channelUrl" : "http:\/\/bj.house.sina.com.cn\/scan\/xinpan\/index.html",
"author" : "WWW.SINA.COM.CN",
"tags" : [],
"desc" : "新浪房产讯(编辑 张跃)会城国际 (论坛 相册 户型 样板间 点评 地图搜索)位于海淀区北蜂窝2号，长安街南1000米。项目为精装公寓，共为两栋，一栋16层，一栋17层，一梯7-8户，户型面积为60平米左右一居和80平米左右两居，均价待定。现主体结构封顶，售楼处已开放，样板间即将亮....",
"emailed" : False,
"forwarded" : False,
"english" : False
}  , {
"index" : 16,
"articleIndex" : "812",
"favor" :  False ,
     "read" : False,    
"title" : "河北新盘玫瑰郡2012年主推220-260平山地别墅",
"titleTip" : "河北新盘玫瑰郡2012年主推220-260平山地别墅",
"titleSummary" : "河北新盘玫瑰郡2012年主推220-260平山地别墅",
"descSummary" : "新浪房产讯(编辑 张茜)玫瑰郡 (论坛 相册 户型 样板间 点评...",
"url" : "http:\/\/go.rss.sina.com.cn\/redirect.php?url=http:\/\/house.sina.com.cn\/scan\/2011-12-09\/1116385265.shtml?source=rss",
"pubDate" : "2011年12月9日",
"enterDate" : "384128:14:53",
"channelId" : "4994896241386965782",
"channelName" : "北京房产-新盘汇总",
"channelNameSummary" : "北京房产-新盘汇总",
"channelUrl" : "http:\/\/bj.house.sina.com.cn\/scan\/xinpan\/index.html",
"author" : "WWW.SINA.COM.CN",
"tags" : [],
"desc" : "新浪房产讯(编辑 张茜)玫瑰郡 (论坛 相册 户型 样板间 点评 地图搜索)位于河北省张家口市崇礼县，毗邻万龙滑雪场，北接万龙大道，西邻张承高速。项目产品类型为2-3层独栋、联排、双拼住宅。户型面积区间80-703平米，主力户型为220-260平米，总共600余套。预计2012年开盘，同年....",
"emailed" : False,
"forwarded" : False,
"english" : False
}  , {
"index" : 17,
"articleIndex" : "811",
"favor" :  False ,
     "read" : False,    
"title" : "品质升级出众价值 成就龙湖地产别墅热销基石",
"titleTip" : "品质升级出众价值 成就龙湖地产别墅热销基石",
"titleSummary" : "品质升级出众价值 成就龙湖地产别墅热销基石",
"descSummary" : "凭借集大成的别墅新作--龙湖好望山，龙湖地产进一步巩固...",
"url" : "http:\/\/go.rss.sina.com.cn\/redirect.php?url=http:\/\/house.sina.com.cn\/scan\/2011-11-29\/1449383931.shtml?source=rss",
"pubDate" : "2011年11月29日",
"enterDate" : "383941:26:36",
"channelId" : "4994896241386965782",
"channelName" : "北京房产-新盘汇总",
"channelNameSummary" : "北京房产-新盘汇总",
"channelUrl" : "http:\/\/bj.house.sina.com.cn\/scan\/xinpan\/index.html",
"author" : "WWW.SINA.COM.CN",
"tags" : [],
"desc" : "&#160; 凭借集大成的别墅新作\u2015\u2015龙湖好望山，龙湖地产进一步巩固\u201C别墅专家\u201D的江湖地位。据记者了解，好望山占据潮白河以及国家森林公园\u201C一河一林\u201D稀缺资源，集龙湖滟澜山水系景观、颐和原着的空间尺度、香醍溪岸的园林打造于一身，完美呈现低密度溪谷院落生活。占据潮白河....",
"emailed" : False,
"forwarded" : False,
"english" : False
}  , {
"index" : 18,
"articleIndex" : "810",
"favor" :  False ,
     "read" : False,    
"title" : "精品洋房龙湖源著 渝新牌楼大社区新宠",
"titleTip" : "精品洋房龙湖源著 渝新牌楼大社区新宠",
"titleSummary" : "精品洋房龙湖源著 渝新牌楼大社区新宠",
"descSummary" : "龙湖源著精品洋房顾名思义，是佳构的洋房，值得一生拥有和珍藏...",
"url" : "http:\/\/go.rss.sina.com.cn\/redirect.php?url=http:\/\/house.sina.com.cn\/scan\/2011-11-25\/1210383616.shtml?source=rss",
"pubDate" : "2011年11月25日",
"enterDate" : "383842:47:33",
"channelId" : "4994896241386965782",
"channelName" : "北京房产-新盘汇总",
"channelNameSummary" : "北京房产-新盘汇总",
"channelUrl" : "http:\/\/bj.house.sina.com.cn\/scan\/xinpan\/index.html",
"author" : "WWW.SINA.COM.CN",
"tags" : [],
"desc" : "&#160;&#160;&#160; 龙湖源著精品洋房顾名思义，是佳构的洋房，值得一生拥有和珍藏。记者了解到龙湖源著自打收盘以来，经常遭到泛博客户侧目。源著卖的不仅仅是私宅，更是卖给大家一种安适的糊口，一处将来被人称赞歌颂的糊口圈层，一处值得一生拥有和珍藏的珍品。龙湖源著【都市....",
"emailed" : False,
"forwarded" : False,
"english" : False
}  , {
"index" : 19,
"articleIndex" : "809",
"favor" :  False ,
     "read" : False,    
"title" : "12月开盘项目最新消息早知道",
"titleTip" : "12月开盘项目最新消息早知道",
"titleSummary" : "12月开盘项目最新消息早知道",
"descSummary" : "&gt;&gt;12月开盘项目一览 【通州】 图为东亚・逸品阁 东亚・逸品阁(论坛 相册...",
"url" : "http:\/\/go.rss.sina.com.cn\/redirect.php?url=http:\/\/house.sina.com.cn\/scan\/2011-11-03\/1104380854_2.shtml?source=rss",
"pubDate" : "2011年11月3日",
"enterDate" : "383313:41:20",
"channelId" : "4994896241386965782",
"channelName" : "北京房产-新盘汇总",
"channelNameSummary" : "北京房产-新盘汇总",
"channelUrl" : "http:\/\/bj.house.sina.com.cn\/scan\/xinpan\/index.html",
"author" : "WWW.SINA.COM.CN",
"tags" : [],
"desc" : "&gt;&gt;12月开盘项目一览 【通州】 图为东亚・逸品阁 东亚・逸品阁(论坛 相册 户型 样板间 点评 地图搜索) 价格：预计起价13200元\/平米 主力户型：85-95平米两居、115平米三居，双阳台，每户均赠送面积约10%-15% 最新消息：售楼处....",
"emailed" : False,
"forwarded" : False,
"english" : False
} ]
}
