{
"mode" : {"viewTitle" : 1,   "viewNew" : 0,  "pageIndex" : 1 },
 "channel" : {"id" : "5815080256259386671", "booked" : False, "subNumber" : 1, "name" : "科技下载-新浪科技", "url" : "http:\/\/down1.tech.sina.com.cn\/download\/34\/2004\/1206\/1.html", "feed" : "http:\/\/rss.sina.com.cn\/tech\/down\/down20.xml", "author" : "WWW.SINA.COM.CN", "desc" : "科技下载-最近更新", "imageUrl" : "http:\/\/www.sinaimg.cn\/IT\/down\/sina_xzzx.gif", "postPerWeek" : "0", "lastCrawTime" : "前天02:20:36", "crawDateTime" : "前天02:20:36", "lastHttpCode" : "200"}, "page" : {
"startIndex" : 0,
"totalCount" : 5000,
"pageIndex" : 1,
"lastPage" : 250,
"pageSize" : 20,
"english" :  False },
 "unreadNum" : 0, "shotIndex" : -1,
"articles" : [
{
"index" : 0,
"articleIndex" : "91907",
"favor" :  False ,
     "read" : False,    
"title" : "百度音乐(原千千静听)",
"titleTip" : "百度音乐(原千千静听)",
"titleSummary" : "百度音乐(原千千静听)",
"descSummary" : "高品质、专业级的中文音频播放软件。",
"url" : "http:\/\/go.rss.sina.com.cn\/redirect.php?url=http:\/\/down1.tech.sina.com.cn\/download\/downContent\/2004-04-13\/9653.shtml",
"pubDate" : "前天15:54:40",
"enterDate" : "384200:54:50",
"channelId" : "5815080256259386671",
"channelName" : "科技下载-新浪科技",
"channelNameSummary" : "科技下载-新浪科技",
"channelUrl" : "http:\/\/down1.tech.sina.com.cn\/download\/34\/2004\/1206\/1.html",
"author" : "WWW.SINA.COM.CN",
"tags" : [],
"desc" : "高品质、专业级的中文音频播放软件。",
"emailed" : False,
"forwarded" : False,
"english" : False
}  , {
"index" : 1,
"articleIndex" : "91906",
"favor" :  False ,
     "read" : False,    
"title" : "海盗爱雏菊 Pirates Love Daisies Windows 8",
"titleTip" : "海盗爱雏菊 Pirates Love Daisies Windows 8",
"titleSummary" : "海盗爱雏菊 Pirates Love Daisies Windows 8",
"descSummary" : "简单的塔防类型小品游戏。",
"url" : "http:\/\/go.rss.sina.com.cn\/redirect.php?url=http:\/\/down1.tech.sina.com.cn\/download\/down_contents\/1385222400\/60173.shtml",
"pubDate" : "前天15:14:12",
"enterDate" : "384200:44:26",
"channelId" : "5815080256259386671",
"channelName" : "科技下载-新浪科技",
"channelNameSummary" : "科技下载-新浪科技",
"channelUrl" : "http:\/\/down1.tech.sina.com.cn\/download\/34\/2004\/1206\/1.html",
"author" : "WWW.SINA.COM.CN",
"tags" : [],
"desc" : "简单的塔防类型小品游戏。",
"emailed" : False,
"forwarded" : False,
"english" : False
}  , {
"index" : 2,
"articleIndex" : "91905",
"favor" :  False ,
     "read" : False,    
"title" : "忍者飞镖 Shuriken Ninja Windows 8",
"titleTip" : "忍者飞镖 Shuriken Ninja Windows 8",
"titleSummary" : "忍者飞镖 Shuriken Ninja Windows 8",
"descSummary" : "一款忍者题材的动作类游戏",
"url" : "http:\/\/go.rss.sina.com.cn\/redirect.php?url=http:\/\/down1.tech.sina.com.cn\/download\/down_contents\/1385222400\/60172.shtml",
"pubDate" : "前天15:14:10",
"enterDate" : "384200:44:24",
"channelId" : "5815080256259386671",
"channelName" : "科技下载-新浪科技",
"channelNameSummary" : "科技下载-新浪科技",
"channelUrl" : "http:\/\/down1.tech.sina.com.cn\/download\/34\/2004\/1206\/1.html",
"author" : "WWW.SINA.COM.CN",
"tags" : [],
"desc" : "一款忍者题材的动作类游戏",
"emailed" : False,
"forwarded" : False,
"english" : False
}  , {
"index" : 3,
"articleIndex" : "91904",
"favor" :  False ,
     "read" : False,    
"title" : "PDFill PDF Tools",
"titleTip" : "PDFill PDF Tools",
"titleSummary" : "PDFill PDF Tools",
"descSummary" : "一个免费的PDF处理工具。",
"url" : "http:\/\/go.rss.sina.com.cn\/redirect.php?url=http:\/\/down1.tech.sina.com.cn\/download\/down_contents\/1385222400\/60170.shtml",
"pubDate" : "前天15:04:19",
"enterDate" : "384201:04:38",
"channelId" : "5815080256259386671",
"channelName" : "科技下载-新浪科技",
"channelNameSummary" : "科技下载-新浪科技",
"channelUrl" : "http:\/\/down1.tech.sina.com.cn\/download\/34\/2004\/1206\/1.html",
"author" : "WWW.SINA.COM.CN",
"tags" : [],
"desc" : "一个免费的PDF处理工具。",
"emailed" : False,
"forwarded" : False,
"english" : False
}  , {
"index" : 4,
"articleIndex" : "91903",
"favor" :  False ,
     "read" : False,    
"title" : "Jaangle",
"titleTip" : "Jaangle",
"titleSummary" : "Jaangle",
"descSummary" : "一款集音乐播放和音乐管理的小巧软件",
"url" : "http:\/\/go.rss.sina.com.cn\/redirect.php?url=http:\/\/down1.tech.sina.com.cn\/download\/down_contents\/1385222400\/60169.shtml",
"pubDate" : "前天15:04:16",
"enterDate" : "384201:04:35",
"channelId" : "5815080256259386671",
"channelName" : "科技下载-新浪科技",
"channelNameSummary" : "科技下载-新浪科技",
"channelUrl" : "http:\/\/down1.tech.sina.com.cn\/download\/34\/2004\/1206\/1.html",
"author" : "WWW.SINA.COM.CN",
"tags" : [],
"desc" : "一款集音乐播放和音乐管理的小巧软件",
"emailed" : False,
"forwarded" : False,
"english" : False
}  , {
"index" : 5,
"articleIndex" : "91902",
"favor" :  False ,
     "read" : False,    
"title" : "Neo's SafeKeys",
"titleTip" : "Neo's SafeKeys",
"titleSummary" : "Neo's SafeKeys",
"descSummary" : "使用鼠标点击程序上的字母完成密码的输入，保护你的资料安全。",
"url" : "http:\/\/go.rss.sina.com.cn\/redirect.php?url=http:\/\/down1.tech.sina.com.cn\/download\/down_contents\/1385222400\/60168.shtml",
"pubDate" : "前天15:04:15",
"enterDate" : "384201:04:34",
"channelId" : "5815080256259386671",
"channelName" : "科技下载-新浪科技",
"channelNameSummary" : "科技下载-新浪科技",
"channelUrl" : "http:\/\/down1.tech.sina.com.cn\/download\/34\/2004\/1206\/1.html",
"author" : "WWW.SINA.COM.CN",
"tags" : [],
"desc" : "使用鼠标点击程序上的字母完成密码的输入，保护你的资料安全。",
"emailed" : False,
"forwarded" : False,
"english" : False
}  , {
"index" : 6,
"articleIndex" : "91901",
"favor" :  False ,
     "read" : False,    
"title" : "屏幕虚拟键盘 Click-N-Type",
"titleTip" : "屏幕虚拟键盘 Click-N-Type",
"titleSummary" : "屏幕虚拟键盘 Click-N-Type",
"descSummary" : "一款不错的屏幕虚拟键盘软件。",
"url" : "http:\/\/go.rss.sina.com.cn\/redirect.php?url=http:\/\/down1.tech.sina.com.cn\/download\/down_contents\/1385222400\/60167.shtml",
"pubDate" : "前天15:04:09",
"enterDate" : "384201:04:28",
"channelId" : "5815080256259386671",
"channelName" : "科技下载-新浪科技",
"channelNameSummary" : "科技下载-新浪科技",
"channelUrl" : "http:\/\/down1.tech.sina.com.cn\/download\/34\/2004\/1206\/1.html",
"author" : "WWW.SINA.COM.CN",
"tags" : [],
"desc" : "一款不错的屏幕虚拟键盘软件。",
"emailed" : False,
"forwarded" : False,
"english" : False
}  , {
"index" : 7,
"articleIndex" : "91900",
"favor" :  False ,
     "read" : False,    
"title" : "灵魂争霸 SoulCraft Windows 8",
"titleTip" : "灵魂争霸 SoulCraft Windows 8",
"titleSummary" : "灵魂争霸 SoulCraft Windows 8",
"descSummary" : "品质极高的第二人称RPG游戏",
"url" : "http:\/\/go.rss.sina.com.cn\/redirect.php?url=http:\/\/down1.tech.sina.com.cn\/download\/down_contents\/1385222400\/60171.shtml",
"pubDate" : "前天15:04:05",
"enterDate" : "384201:04:24",
"channelId" : "5815080256259386671",
"channelName" : "科技下载-新浪科技",
"channelNameSummary" : "科技下载-新浪科技",
"channelUrl" : "http:\/\/down1.tech.sina.com.cn\/download\/34\/2004\/1206\/1.html",
"author" : "WWW.SINA.COM.CN",
"tags" : [],
"desc" : "品质极高的第二人称RPG游戏",
"emailed" : False,
"forwarded" : False,
"english" : False
}  , {
"index" : 8,
"articleIndex" : "91899",
"favor" :  False ,
     "read" : False,    
"title" : "Zoner Photo Studio Free",
"titleTip" : "Zoner Photo Studio Free",
"titleSummary" : "Zoner Photo Studio Free",
"descSummary" : "一款强大的数码相机用户通用工具",
"url" : "http:\/\/go.rss.sina.com.cn\/redirect.php?url=http:\/\/down1.tech.sina.com.cn\/download\/down_contents\/1311436800\/51754.shtml",
"pubDate" : "前天15:03:20",
"enterDate" : "384201:03:39",
"channelId" : "5815080256259386671",
"channelName" : "科技下载-新浪科技",
"channelNameSummary" : "科技下载-新浪科技",
"channelUrl" : "http:\/\/down1.tech.sina.com.cn\/download\/34\/2004\/1206\/1.html",
"author" : "WWW.SINA.COM.CN",
"tags" : [],
"desc" : "一款强大的数码相机用户通用工具",
"emailed" : False,
"forwarded" : False,
"english" : False
}  , {
"index" : 9,
"articleIndex" : "91898",
"favor" :  False ,
     "read" : False,    
"title" : "免费数字音乐软件 LMMS",
"titleTip" : "免费数字音乐软件 LMMS",
"titleSummary" : "免费数字音乐软件 LMMS",
"descSummary" : "一个免费的跨平台的音乐软件包",
"url" : "http:\/\/go.rss.sina.com.cn\/redirect.php?url=http:\/\/down1.tech.sina.com.cn\/download\/down_contents\/1272729600\/47480.shtml",
"pubDate" : "前天14:44:06",
"enterDate" : "384200:44:25",
"channelId" : "5815080256259386671",
"channelName" : "科技下载-新浪科技",
"channelNameSummary" : "科技下载-新浪科技",
"channelUrl" : "http:\/\/down1.tech.sina.com.cn\/download\/34\/2004\/1206\/1.html",
"author" : "WWW.SINA.COM.CN",
"tags" : [],
"desc" : "一个免费的跨平台的音乐软件包",
"emailed" : False,
"forwarded" : False,
"english" : False
}  , {
"index" : 10,
"articleIndex" : "91897",
"favor" :  False ,
     "read" : False,    
"title" : "文件比较与合并工具 WinMerge",
"titleTip" : "文件比较与合并工具 WinMerge",
"titleSummary" : "文件比较与合并工具 WinMerge",
"descSummary" : "WinMerge可以帮您检查两个文件里不同之处。",
"url" : "http:\/\/go.rss.sina.com.cn\/redirect.php?url=http:\/\/down1.tech.sina.com.cn\/download\/downContent\/2004-03-16\/4497.shtml",
"pubDate" : "前天14:15:12",
"enterDate" : "384200:45:36",
"channelId" : "5815080256259386671",
"channelName" : "科技下载-新浪科技",
"channelNameSummary" : "科技下载-新浪科技",
"channelUrl" : "http:\/\/down1.tech.sina.com.cn\/download\/34\/2004\/1206\/1.html",
"author" : "WWW.SINA.COM.CN",
"tags" : [],
"desc" : "WinMerge可以帮您检查两个文件里不同之处。",
"emailed" : False,
"forwarded" : False,
"english" : False
}  , {
"index" : 11,
"articleIndex" : "91896",
"favor" :  False ,
     "read" : False,    
"title" : "备份工具 BackUp Maker",
"titleTip" : "备份工具 BackUp Maker",
"titleSummary" : "备份工具 BackUp Maker",
"descSummary" : "一个非常好用的备份工具，可在本机、FTP服务器和刻录机间进行数据备份和恢复...",
"url" : "http:\/\/go.rss.sina.com.cn\/redirect.php?url=http:\/\/down1.tech.sina.com.cn\/download\/downContent\/2004-03-16\/3619.shtml",
"pubDate" : "前天14:14:05",
"enterDate" : "384200:44:29",
"channelId" : "5815080256259386671",
"channelName" : "科技下载-新浪科技",
"channelNameSummary" : "科技下载-新浪科技",
"channelUrl" : "http:\/\/down1.tech.sina.com.cn\/download\/34\/2004\/1206\/1.html",
"author" : "WWW.SINA.COM.CN",
"tags" : [],
"desc" : "一个非常好用的备份工具，可在本机、FTP服务器和刻录机间进行数据备份和恢复。",
"emailed" : False,
"forwarded" : False,
"english" : False
}  , {
"index" : 12,
"articleIndex" : "91895",
"favor" :  False ,
     "read" : False,    
"title" : "硬盘空间占用分析 SpaceSniffer",
"titleTip" : "硬盘空间占用分析 SpaceSniffer",
"titleSummary" : "硬盘空间占用分析 SpaceSniffer",
"descSummary" : "能快速分析你硬盘上的空间分布情况，并迅速建立简单直观的图表供你查阅",
"url" : "http:\/\/go.rss.sina.com.cn\/redirect.php?url=http:\/\/down1.tech.sina.com.cn\/download\/down_contents\/1263657600\/46332.shtml",
"pubDate" : "前天14:10:35",
"enterDate" : "384200:40:59",
"channelId" : "5815080256259386671",
"channelName" : "科技下载-新浪科技",
"channelNameSummary" : "科技下载-新浪科技",
"channelUrl" : "http:\/\/down1.tech.sina.com.cn\/download\/34\/2004\/1206\/1.html",
"author" : "WWW.SINA.COM.CN",
"tags" : [],
"desc" : "能快速分析你硬盘上的空间分布情况，并迅速建立简单直观的图表供你查阅",
"emailed" : False,
"forwarded" : False,
"english" : False
}  , {
"index" : 13,
"articleIndex" : "91894",
"favor" :  False ,
     "read" : False,    
"title" : "Kaspersky TDSSKiller",
"titleTip" : "Kaspersky TDSSKiller",
"titleSummary" : "Kaspersky TDSSKiller",
"descSummary" : "用于移除以下类型的rootkit：TDSServe、Tidserv 和 Alureon Rootkit.Win32.TDSS",
"url" : "http:\/\/go.rss.sina.com.cn\/redirect.php?url=http:\/\/down1.tech.sina.com.cn\/download\/down_contents\/1307808000\/51238.shtml",
"pubDate" : "前天14:03:10",
"enterDate" : "384201:03:39",
"channelId" : "5815080256259386671",
"channelName" : "科技下载-新浪科技",
"channelNameSummary" : "科技下载-新浪科技",
"channelUrl" : "http:\/\/down1.tech.sina.com.cn\/download\/34\/2004\/1206\/1.html",
"author" : "WWW.SINA.COM.CN",
"tags" : [],
"desc" : "用于移除以下类型的rootkit：TDSServe、Tidserv 和 Alureon Rootkit.Win32.TDSS",
"emailed" : False,
"forwarded" : False,
"english" : False
}  , {
"index" : 14,
"articleIndex" : "91893",
"favor" :  False ,
     "read" : False,    
"title" : "云帆民航词典单机版",
"titleTip" : "云帆民航词典单机版",
"titleSummary" : "云帆民航词典单机版",
"descSummary" : "一部针对民航行业开发，适用于民航从业人员、学员和航空爱好者的航空专业词典软...",
"url" : "http:\/\/go.rss.sina.com.cn\/redirect.php?url=http:\/\/down1.tech.sina.com.cn\/download\/down_contents\/1334419200\/54136.shtml",
"pubDate" : "前天13:51:10",
"enterDate" : "384200:51:39",
"channelId" : "5815080256259386671",
"channelName" : "科技下载-新浪科技",
"channelNameSummary" : "科技下载-新浪科技",
"channelUrl" : "http:\/\/down1.tech.sina.com.cn\/download\/34\/2004\/1206\/1.html",
"author" : "WWW.SINA.COM.CN",
"tags" : [],
"desc" : "一部针对民航行业开发，适用于民航从业人员、学员和航空爱好者的航空专业词典软件。",
"emailed" : False,
"forwarded" : False,
"english" : False
}  , {
"index" : 15,
"articleIndex" : "91892",
"favor" :  False ,
     "read" : False,    
"title" : "卡拉OK视频制作 Karaoke Video Creator",
"titleTip" : "卡拉OK视频制作 Karaoke Video Creator",
"titleSummary" : "卡拉OK视频制作 Karaoke Video Creator",
"descSummary" : "一个杰出的卡拉OK音频制作软件。",
"url" : "http:\/\/go.rss.sina.com.cn\/redirect.php?url=http:\/\/down1.tech.sina.com.cn\/download\/downContent\/2004-03-16\/2658.shtml",
"pubDate" : "前天13:49:27",
"enterDate" : "384200:49:56",
"channelId" : "5815080256259386671",
"channelName" : "科技下载-新浪科技",
"channelNameSummary" : "科技下载-新浪科技",
"channelUrl" : "http:\/\/down1.tech.sina.com.cn\/download\/34\/2004\/1206\/1.html",
"author" : "WWW.SINA.COM.CN",
"tags" : [],
"desc" : "一个杰出的卡拉OK音频制作软件。",
"emailed" : False,
"forwarded" : False,
"english" : False
}  , {
"index" : 16,
"articleIndex" : "91891",
"favor" :  False ,
     "read" : False,    
"title" : "右键快速转换文档格式 Cometdocs",
"titleTip" : "右键快速转换文档格式 Cometdocs",
"titleSummary" : "右键快速转换文档格式 Cometdocs",
"descSummary" : "用鼠标右键进行PDF转换，所有的转换动作都会自动完成。",
"url" : "http:\/\/go.rss.sina.com.cn\/redirect.php?url=http:\/\/down1.tech.sina.com.cn\/download\/down_contents\/1385222400\/60166.shtml",
"pubDate" : "前天13:43:38",
"enterDate" : "384200:44:07",
"channelId" : "5815080256259386671",
"channelName" : "科技下载-新浪科技",
"channelNameSummary" : "科技下载-新浪科技",
"channelUrl" : "http:\/\/down1.tech.sina.com.cn\/download\/34\/2004\/1206\/1.html",
"author" : "WWW.SINA.COM.CN",
"tags" : [],
"desc" : "用鼠标右键进行PDF转换，所有的转换动作都会自动完成。",
"emailed" : False,
"forwarded" : False,
"english" : False
}  , {
"index" : 17,
"articleIndex" : "91890",
"favor" :  False ,
     "read" : False,    
"title" : "多机共用键盘鼠标 Synergy",
"titleTip" : "多机共用键盘鼠标 Synergy",
"titleSummary" : "多机共用键盘鼠标 Synergy",
"descSummary" : "一款能够让使用者仅用一套键盘鼠标，就同时操控多部计算机的免费工具软件...",
"url" : "http:\/\/go.rss.sina.com.cn\/redirect.php?url=http:\/\/down1.tech.sina.com.cn\/download\/down_contents\/1298131200\/50073.shtml",
"pubDate" : "前天13:35:28",
"enterDate" : "384200:35:57",
"channelId" : "5815080256259386671",
"channelName" : "科技下载-新浪科技",
"channelNameSummary" : "科技下载-新浪科技",
"channelUrl" : "http:\/\/down1.tech.sina.com.cn\/download\/34\/2004\/1206\/1.html",
"author" : "WWW.SINA.COM.CN",
"tags" : [],
"desc" : "一款能够让使用者仅用一套键盘鼠标，就同时操控多部计算机的免费工具软件。",
"emailed" : False,
"forwarded" : False,
"english" : False
}  , {
"index" : 18,
"articleIndex" : "91889",
"favor" :  False ,
     "read" : False,    
"title" : "多机共用键盘鼠标 Synergy for Mac OS X",
"titleTip" : "多机共用键盘鼠标 Synergy for Mac OS X",
"titleSummary" : "多机共用键盘鼠标 Synergy for Mac OS X",
"descSummary" : "一款能够让使用者仅用一套键盘鼠标，就同时操控多部计算机的...",
"url" : "http:\/\/go.rss.sina.com.cn\/redirect.php?url=http:\/\/down1.tech.sina.com.cn\/download\/down_contents\/1298131200\/50074.shtml",
"pubDate" : "前天13:29:11",
"enterDate" : "384200:59:45",
"channelId" : "5815080256259386671",
"channelName" : "科技下载-新浪科技",
"channelNameSummary" : "科技下载-新浪科技",
"channelUrl" : "http:\/\/down1.tech.sina.com.cn\/download\/34\/2004\/1206\/1.html",
"author" : "WWW.SINA.COM.CN",
"tags" : [],
"desc" : "一款能够让使用者仅用一套键盘鼠标，就同时操控多部计算机的免费工具软件。",
"emailed" : False,
"forwarded" : False,
"english" : False
}  , {
"index" : 19,
"articleIndex" : "91888",
"favor" :  False ,
     "read" : False,    
"title" : "鼠标里程表 Mousotron",
"titleTip" : "鼠标里程表 Mousotron",
"titleSummary" : "鼠标里程表 Mousotron",
"descSummary" : "",
"url" : "http:\/\/go.rss.sina.com.cn\/redirect.php?url=http:\/\/down1.tech.sina.com.cn\/download\/down_contents\/1358006400\/56298.shtml",
"pubDate" : "前天13:28:57",
"enterDate" : "384200:59:31",
"channelId" : "5815080256259386671",
"channelName" : "科技下载-新浪科技",
"channelNameSummary" : "科技下载-新浪科技",
"channelUrl" : "http:\/\/down1.tech.sina.com.cn\/download\/34\/2004\/1206\/1.html",
"author" : "WWW.SINA.COM.CN",
"tags" : [],
"desc" : "",
"emailed" : False,
"forwarded" : False,
"english" : False
} ]
}
