{
"mode" : {"viewTitle" : 1,   "viewNew" : 0,  "pageIndex" : 2 },
 "channel" : {"id" : "5815080256259386671", "booked" : False, "subNumber" : 1, "name" : "科技下载-新浪科技", "url" : "http:\/\/down1.tech.sina.com.cn\/download\/34\/2004\/1206\/1.html", "feed" : "http:\/\/rss.sina.com.cn\/tech\/down\/down20.xml", "author" : "WWW.SINA.COM.CN", "desc" : "科技下载-最近更新", "imageUrl" : "http:\/\/www.sinaimg.cn\/IT\/down\/sina_xzzx.gif", "postPerWeek" : "0", "lastCrawTime" : "前天02:20:36", "crawDateTime" : "前天02:20:36", "lastHttpCode" : "200"}, "page" : {
"startIndex" : 20,
"totalCount" : 5000,
"pageIndex" : 2,
"lastPage" : 250,
"pageSize" : 20,
"english" :  False },
 "unreadNum" : 0, "shotIndex" : -1,
"articles" : [
{
"index" : 0,
"articleIndex" : "91885",
"favor" :  False ,
     "read" : False,    
"title" : "极品列车时刻表",
"titleTip" : "极品列车时刻表",
"titleSummary" : "极品列车时刻表",
"descSummary" : "极品时刻表是一款查询全国列车时刻表的单机版免费软件。",
"url" : "http:\/\/go.rss.sina.com.cn\/redirect.php?url=http:\/\/down1.tech.sina.com.cn\/download\/downContent\/2004-03-16\/8632.shtml",
"pubDate" : "前天12:09:54",
"enterDate" : "384200:40:39",
"channelId" : "5815080256259386671",
"channelName" : "科技下载-新浪科技",
"channelNameSummary" : "科技下载-新浪科技",
"channelUrl" : "http:\/\/down1.tech.sina.com.cn\/download\/34\/2004\/1206\/1.html",
"author" : "WWW.SINA.COM.CN",
"tags" : [],
"desc" : "极品时刻表是一款查询全国列车时刻表的单机版免费软件。",
"emailed" : False,
"forwarded" : False,
"english" : False
}  , {
"index" : 1,
"articleIndex" : "91884",
"favor" :  False ,
     "read" : False,    
"title" : "Mydrivers驱动精灵",
"titleTip" : "Mydrivers驱动精灵",
"titleSummary" : "Mydrivers驱动精灵",
"descSummary" : "专业的驱动备份功能，使系统恢复变得更快捷。",
"url" : "http:\/\/go.rss.sina.com.cn\/redirect.php?url=http:\/\/down1.tech.sina.com.cn\/download\/downContent\/2004-03-16\/6678.shtml",
"pubDate" : "前天12:09:06",
"enterDate" : "384200:39:51",
"channelId" : "5815080256259386671",
"channelName" : "科技下载-新浪科技",
"channelNameSummary" : "科技下载-新浪科技",
"channelUrl" : "http:\/\/down1.tech.sina.com.cn\/download\/34\/2004\/1206\/1.html",
"author" : "WWW.SINA.COM.CN",
"tags" : [],
"desc" : "专业的驱动备份功能，使系统恢复变得更快捷。",
"emailed" : False,
"forwarded" : False,
"english" : False
}  , {
"index" : 2,
"articleIndex" : "91883",
"favor" :  False ,
     "read" : False,    
"title" : "多机共用键盘鼠标 Synergy for Linux",
"titleTip" : "多机共用键盘鼠标 Synergy for Linux",
"titleSummary" : "多机共用键盘鼠标 Synergy for Linux",
"descSummary" : "一款能够让使用者仅用一套键盘鼠标，就同时操控多部计算机的免费...",
"url" : "http:\/\/go.rss.sina.com.cn\/redirect.php?url=http:\/\/down1.tech.sina.com.cn\/download\/down_contents\/1298131200\/50075.shtml",
"pubDate" : "前天11:48:13",
"enterDate" : "384200:49:01",
"channelId" : "5815080256259386671",
"channelName" : "科技下载-新浪科技",
"channelNameSummary" : "科技下载-新浪科技",
"channelUrl" : "http:\/\/down1.tech.sina.com.cn\/download\/34\/2004\/1206\/1.html",
"author" : "WWW.SINA.COM.CN",
"tags" : [],
"desc" : "一款能够让使用者仅用一套键盘鼠标，就同时操控多部计算机的免费工具软件。",
"emailed" : False,
"forwarded" : False,
"english" : False
}  , {
"index" : 3,
"articleIndex" : "91880",
"favor" :  False ,
     "read" : False,    
"title" : "MIDI合成器 Speedy MIDI",
"titleTip" : "MIDI合成器 Speedy MIDI",
"titleSummary" : "MIDI合成器 Speedy MIDI",
"descSummary" : "体积小巧，功能实用的MIDI快速合成编辑器。",
"url" : "http:\/\/go.rss.sina.com.cn\/redirect.php?url=http:\/\/down1.tech.sina.com.cn\/download\/down_contents\/1385222400\/60165.shtml",
"pubDate" : "前天10:26:56",
"enterDate" : "384201:01:20",
"channelId" : "5815080256259386671",
"channelName" : "科技下载-新浪科技",
"channelNameSummary" : "科技下载-新浪科技",
"channelUrl" : "http:\/\/down1.tech.sina.com.cn\/download\/34\/2004\/1206\/1.html",
"author" : "WWW.SINA.COM.CN",
"tags" : [],
"desc" : "体积小巧，功能实用的MIDI快速合成编辑器。",
"emailed" : False,
"forwarded" : False,
"english" : False
}  , {
"index" : 4,
"articleIndex" : "91879",
"favor" :  False ,
     "read" : False,    
"title" : "虚拟桌面 9Desks",
"titleTip" : "虚拟桌面 9Desks",
"titleSummary" : "虚拟桌面 9Desks",
"descSummary" : "可为你提供多达9个虚拟桌面。",
"url" : "http:\/\/go.rss.sina.com.cn\/redirect.php?url=http:\/\/down1.tech.sina.com.cn\/download\/down_contents\/1385222400\/60164.shtml",
"pubDate" : "前天10:26:55",
"enterDate" : "384201:01:19",
"channelId" : "5815080256259386671",
"channelName" : "科技下载-新浪科技",
"channelNameSummary" : "科技下载-新浪科技",
"channelUrl" : "http:\/\/down1.tech.sina.com.cn\/download\/34\/2004\/1206\/1.html",
"author" : "WWW.SINA.COM.CN",
"tags" : [],
"desc" : "可为你提供多达9个虚拟桌面。",
"emailed" : False,
"forwarded" : False,
"english" : False
}  , {
"index" : 5,
"articleIndex" : "91878",
"favor" :  False ,
     "read" : False,    
"title" : "解码器 Ut Video Codec Suite",
"titleTip" : "解码器 Ut Video Codec Suite",
"titleSummary" : "解码器 Ut Video Codec Suite",
"descSummary" : "一个Windows下运行的无损解码器。",
"url" : "http:\/\/go.rss.sina.com.cn\/redirect.php?url=http:\/\/down1.tech.sina.com.cn\/download\/down_contents\/1284825600\/48590.shtml",
"pubDate" : "前天10:26:27",
"enterDate" : "384201:00:51",
"channelId" : "5815080256259386671",
"channelName" : "科技下载-新浪科技",
"channelNameSummary" : "科技下载-新浪科技",
"channelUrl" : "http:\/\/down1.tech.sina.com.cn\/download\/34\/2004\/1206\/1.html",
"author" : "WWW.SINA.COM.CN",
"tags" : [],
"desc" : "一个Windows下运行的无损解码器。",
"emailed" : False,
"forwarded" : False,
"english" : False
}  , {
"index" : 6,
"articleIndex" : "91877",
"favor" :  False ,
     "read" : False,    
"title" : "谷歌浏览器便携版 Google Chrome Portable",
"titleTip" : "谷歌浏览器便携版 Google Chrome Portable",
"titleSummary" : "谷歌浏览器便携版 Google Chrome Portable",
"descSummary" : "谷歌浏览器的便携版，可安装C盘以外的其它分区上，也能在...",
"url" : "http:\/\/go.rss.sina.com.cn\/redirect.php?url=http:\/\/down1.tech.sina.com.cn\/download\/down_contents\/1223136000\/41129.shtml",
"pubDate" : "前天10:24:14",
"enterDate" : "384200:58:38",
"channelId" : "5815080256259386671",
"channelName" : "科技下载-新浪科技",
"channelNameSummary" : "科技下载-新浪科技",
"channelUrl" : "http:\/\/down1.tech.sina.com.cn\/download\/34\/2004\/1206\/1.html",
"author" : "WWW.SINA.COM.CN",
"tags" : [],
"desc" : "谷歌浏览器的便携版，可安装C盘以外的其它分区上，也能在U盘和Ram盘中使用。",
"emailed" : False,
"forwarded" : False,
"english" : False
}  , {
"index" : 7,
"articleIndex" : "91876",
"favor" :  False ,
     "read" : False,    
"title" : "个性化定制Win8安装 WinReducer 8",
"titleTip" : "个性化定制Win8安装 WinReducer 8",
"titleSummary" : "个性化定制Win8安装 WinReducer 8",
"descSummary" : "为用户提供以个性化的方式部署Windows 8的可能性。",
"url" : "http:\/\/go.rss.sina.com.cn\/redirect.php?url=http:\/\/down1.tech.sina.com.cn\/download\/down_contents\/1376755200\/58932.shtml",
"pubDate" : "前天10:22:27",
"enterDate" : "384200:56:51",
"channelId" : "5815080256259386671",
"channelName" : "科技下载-新浪科技",
"channelNameSummary" : "科技下载-新浪科技",
"channelUrl" : "http:\/\/down1.tech.sina.com.cn\/download\/34\/2004\/1206\/1.html",
"author" : "WWW.SINA.COM.CN",
"tags" : [],
"desc" : "为用户提供以个性化的方式部署Windows 8的可能性。",
"emailed" : False,
"forwarded" : False,
"english" : False
}  , {
"index" : 8,
"articleIndex" : "91875",
"favor" :  False ,
     "read" : False,    
"title" : "火狐一键清理扩展 Click&amp;Clean for Firefox",
"titleTip" : "火狐一键清理扩展 Click&amp;Clean for Firefox",
"titleSummary" : "火狐一键清理扩展 Click&amp;Clean for Firefox",
"descSummary" : "一个火狐浏览器(Firefox)的扩展插件，可实现一键全面清理...",
"url" : "http:\/\/go.rss.sina.com.cn\/redirect.php?url=http:\/\/down1.tech.sina.com.cn\/download\/down_contents\/1285430400\/48666.shtml",
"pubDate" : "前天10:17:44",
"enterDate" : "384200:52:08",
"channelId" : "5815080256259386671",
"channelName" : "科技下载-新浪科技",
"channelNameSummary" : "科技下载-新浪科技",
"channelUrl" : "http:\/\/down1.tech.sina.com.cn\/download\/34\/2004\/1206\/1.html",
"author" : "WWW.SINA.COM.CN",
"tags" : [],
"desc" : "一个火狐浏览器(Firefox)的扩展插件，可实现一键全面清理访问历史和隐私数据",
"emailed" : False,
"forwarded" : False,
"english" : False
}  , {
"index" : 9,
"articleIndex" : "91874",
"favor" :  False ,
     "read" : False,    
"title" : "EagleGet",
"titleTip" : "EagleGet",
"titleSummary" : "EagleGet",
"descSummary" : "免费下载工具，让你的下载速度加快达6倍",
"url" : "http:\/\/go.rss.sina.com.cn\/redirect.php?url=http:\/\/down1.tech.sina.com.cn\/download\/down_contents\/1359820800\/56417.shtml",
"pubDate" : "前天10:06:54",
"enterDate" : "384200:41:18",
"channelId" : "5815080256259386671",
"channelName" : "科技下载-新浪科技",
"channelNameSummary" : "科技下载-新浪科技",
"channelUrl" : "http:\/\/down1.tech.sina.com.cn\/download\/34\/2004\/1206\/1.html",
"author" : "WWW.SINA.COM.CN",
"tags" : [],
"desc" : "免费下载工具，让你的下载速度加快达6倍",
"emailed" : False,
"forwarded" : False,
"english" : False
}  , {
"index" : 10,
"articleIndex" : "91873",
"favor" :  False ,
     "read" : False,    
"title" : "豌豆荚手机精灵",
"titleTip" : "豌豆荚手机精灵",
"titleSummary" : "豌豆荚手机精灵",
"descSummary" : "快速、简单、有爱的Android手机必备软件",
"url" : "http:\/\/go.rss.sina.com.cn\/redirect.php?url=http:\/\/down1.tech.sina.com.cn\/download\/down_contents\/1279382400\/48110.shtml",
"pubDate" : "前天10:06:37",
"enterDate" : "384200:41:01",
"channelId" : "5815080256259386671",
"channelName" : "科技下载-新浪科技",
"channelNameSummary" : "科技下载-新浪科技",
"channelUrl" : "http:\/\/down1.tech.sina.com.cn\/download\/34\/2004\/1206\/1.html",
"author" : "WWW.SINA.COM.CN",
"tags" : [],
"desc" : "快速、简单、有爱的Android手机必备软件",
"emailed" : False,
"forwarded" : False,
"english" : False
}  , {
"index" : 11,
"articleIndex" : "91872",
"favor" :  False ,
     "read" : False,    
"title" : "手机影音转换器 Mobile Media Converter",
"titleTip" : "手机影音转换器 Mobile Media Converter",
"titleSummary" : "手机影音转换器 Mobile Media Converter",
"descSummary" : "Mobile Media Converter(简称MMC)是一个免费的视频、音频转换...",
"url" : "http:\/\/go.rss.sina.com.cn\/redirect.php?url=http:\/\/down1.tech.sina.com.cn\/download\/down_contents\/1246723200\/43724.shtml",
"pubDate" : "前天10:03:39",
"enterDate" : "384201:08:09",
"channelId" : "5815080256259386671",
"channelName" : "科技下载-新浪科技",
"channelNameSummary" : "科技下载-新浪科技",
"channelUrl" : "http:\/\/down1.tech.sina.com.cn\/download\/34\/2004\/1206\/1.html",
"author" : "WWW.SINA.COM.CN",
"tags" : [],
"desc" : "Mobile Media Converter(简称MMC)是一个免费的视频、音频转换器。",
"emailed" : False,
"forwarded" : False,
"english" : False
}  , {
"index" : 12,
"articleIndex" : "91871",
"favor" :  False ,
     "read" : False,    
"title" : "Mobile Media Converter for Linux",
"titleTip" : "Mobile Media Converter for Linux",
"titleSummary" : "Mobile Media Converter for Linux",
"descSummary" : "Mobile Media Converter(简称MMC)是一个免费的视频、音频转换器。",
"url" : "http:\/\/go.rss.sina.com.cn\/redirect.php?url=http:\/\/down1.tech.sina.com.cn\/download\/down_contents\/1246723200\/43725.shtml",
"pubDate" : "前天10:03:29",
"enterDate" : "384201:07:59",
"channelId" : "5815080256259386671",
"channelName" : "科技下载-新浪科技",
"channelNameSummary" : "科技下载-新浪科技",
"channelUrl" : "http:\/\/down1.tech.sina.com.cn\/download\/34\/2004\/1206\/1.html",
"author" : "WWW.SINA.COM.CN",
"tags" : [],
"desc" : "Mobile Media Converter(简称MMC)是一个免费的视频、音频转换器。",
"emailed" : False,
"forwarded" : False,
"english" : False
}  , {
"index" : 13,
"articleIndex" : "91870",
"favor" :  False ,
     "read" : False,    
"title" : "Motorola Connect for Chrome",
"titleTip" : "Motorola Connect for Chrome",
"titleSummary" : "Motorola Connect for Chrome",
"descSummary" : "在浏览器中查看短信与来电，支持Chrome浏览器",
"url" : "http:\/\/go.rss.sina.com.cn\/redirect.php?url=http:\/\/down1.tech.sina.com.cn\/download\/down_contents\/1377964800\/59029.shtml",
"pubDate" : "前天10:00:25",
"enterDate" : "384201:04:55",
"channelId" : "5815080256259386671",
"channelName" : "科技下载-新浪科技",
"channelNameSummary" : "科技下载-新浪科技",
"channelUrl" : "http:\/\/down1.tech.sina.com.cn\/download\/34\/2004\/1206\/1.html",
"author" : "WWW.SINA.COM.CN",
"tags" : [],
"desc" : "在浏览器中查看短信与来电，支持Chrome浏览器",
"emailed" : False,
"forwarded" : False,
"english" : False
}  , {
"index" : 14,
"articleIndex" : "91869",
"favor" :  False ,
     "read" : False,    
"title" : "常见病毒免费清除工具 McAfee AVERT Stinger",
"titleTip" : "常见病毒免费清除工具 McAfee AVERT Stinger",
"titleSummary" : "常见病毒免费清除工具 McAfee AVERT Stinger",
"descSummary" : "由McAfee公司出品的常见病毒免费清除工具。",
"url" : "http:\/\/go.rss.sina.com.cn\/redirect.php?url=http:\/\/down1.tech.sina.com.cn\/download\/downContent\/2004-03-16\/889.shtml",
"pubDate" : "前天09:39:20",
"enterDate" : "384200:43:50",
"channelId" : "5815080256259386671",
"channelName" : "科技下载-新浪科技",
"channelNameSummary" : "科技下载-新浪科技",
"channelUrl" : "http:\/\/down1.tech.sina.com.cn\/download\/34\/2004\/1206\/1.html",
"author" : "WWW.SINA.COM.CN",
"tags" : [],
"desc" : "由McAfee公司出品的常见病毒免费清除工具。",
"emailed" : False,
"forwarded" : False,
"english" : False
}  , {
"index" : 15,
"articleIndex" : "91868",
"favor" :  False ,
     "read" : False,    
"title" : "Aero Glass for Win8\/8.1",
"titleTip" : "Aero Glass for Win8\/8.1",
"titleSummary" : "Aero Glass for Win8\/8.1",
"descSummary" : "为Windows 8带来Aero Glass透明玻璃特效。",
"url" : "http:\/\/go.rss.sina.com.cn\/redirect.php?url=http:\/\/down1.tech.sina.com.cn\/download\/down_contents\/1362240000\/56672.shtml",
"pubDate" : "前天09:38:51",
"enterDate" : "384200:43:21",
"channelId" : "5815080256259386671",
"channelName" : "科技下载-新浪科技",
"channelNameSummary" : "科技下载-新浪科技",
"channelUrl" : "http:\/\/down1.tech.sina.com.cn\/download\/34\/2004\/1206\/1.html",
"author" : "WWW.SINA.COM.CN",
"tags" : [],
"desc" : "为Windows 8带来Aero Glass透明玻璃特效。",
"emailed" : False,
"forwarded" : False,
"english" : False
}  , {
"index" : 16,
"articleIndex" : "91887",
"favor" :  False ,
     "read" : False,    
"title" : "微软MSE反病毒和FCS安全套装定义更新补丁",
"titleTip" : "微软MSE反病毒和FCS安全套装定义更新补丁",
"titleSummary" : "微软MSE反病毒和FCS安全套装定义更新补丁",
"descSummary" : "Microsoft Security Essentials &amp; ForeFront Client Securit...",
"url" : "http:\/\/go.rss.sina.com.cn\/redirect.php?url=http:\/\/down1.tech.sina.com.cn\/download\/down_contents\/1256400000\/45187.shtml",
"pubDate" : "前天09:28:10",
"enterDate" : "384197:28:49",
"channelId" : "5815080256259386671",
"channelName" : "科技下载-新浪科技",
"channelNameSummary" : "科技下载-新浪科技",
"channelUrl" : "http:\/\/down1.tech.sina.com.cn\/download\/34\/2004\/1206\/1.html",
"author" : "WWW.SINA.COM.CN",
"tags" : [],
"desc" : "Microsoft Security Essentials &amp; ForeFront Client Security定义更新",
"emailed" : False,
"forwarded" : False,
"english" : False
}  , {
"index" : 17,
"articleIndex" : "91886",
"favor" :  False ,
     "read" : False,    
"title" : "微软反恶意软件升级库 Windows Defender Latest Definition Updates",
"titleTip" : "微软反恶意软件升级库 Windows Defender Latest Definition Updates",
"titleSummary" : "微软反恶意软件升级库 Windows Defender Latest Definition Updates",
"descSummary" : "Windows Defender的最新的定义更...",
"url" : "http:\/\/go.rss.sina.com.cn\/redirect.php?url=http:\/\/down1.tech.sina.com.cn\/download\/down_contents\/1219507200\/40482.shtml",
"pubDate" : "前天09:27:26",
"enterDate" : "384197:28:05",
"channelId" : "5815080256259386671",
"channelName" : "科技下载-新浪科技",
"channelNameSummary" : "科技下载-新浪科技",
"channelUrl" : "http:\/\/down1.tech.sina.com.cn\/download\/34\/2004\/1206\/1.html",
"author" : "WWW.SINA.COM.CN",
"tags" : [],
"desc" : "Windows Defender的最新的定义更新，允许手动安装升级（包括32位和64位下载）",
"emailed" : False,
"forwarded" : False,
"english" : False
}  , {
"index" : 18,
"articleIndex" : "91881",
"favor" :  False ,
     "read" : False,    
"title" : "avast! 病毒库",
"titleTip" : "avast! 病毒库",
"titleSummary" : "avast! 病毒库",
"descSummary" : "来自于捷克的防毒软件-avast!的病毒库。",
"url" : "http:\/\/go.rss.sina.com.cn\/redirect.php?url=http:\/\/down1.tech.sina.com.cn\/download\/down_contents\/1216483200\/39921.shtml",
"pubDate" : "前天09:21:52",
"enterDate" : "384199:26:11",
"channelId" : "5815080256259386671",
"channelName" : "科技下载-新浪科技",
"channelNameSummary" : "科技下载-新浪科技",
"channelUrl" : "http:\/\/down1.tech.sina.com.cn\/download\/34\/2004\/1206\/1.html",
"author" : "WWW.SINA.COM.CN",
"tags" : [],
"desc" : "来自于捷克的防毒软件-avast!的病毒库。",
"emailed" : False,
"forwarded" : False,
"english" : False
}  , {
"index" : 19,
"articleIndex" : "91882",
"favor" :  False ,
     "read" : False,    
"title" : "Norton AntiVirus 病毒库",
"titleTip" : "Norton AntiVirus 病毒库",
"titleSummary" : "Norton AntiVirus 病毒库",
"descSummary" : "Norton Antivirus最新版本的病毒码。",
"url" : "http:\/\/go.rss.sina.com.cn\/redirect.php?url=http:\/\/down1.tech.sina.com.cn\/download\/downContent\/2004-03-22\/9402.shtml",
"pubDate" : "前天09:21:24",
"enterDate" : "384198:55:39",
"channelId" : "5815080256259386671",
"channelName" : "科技下载-新浪科技",
"channelNameSummary" : "科技下载-新浪科技",
"channelUrl" : "http:\/\/down1.tech.sina.com.cn\/download\/34\/2004\/1206\/1.html",
"author" : "WWW.SINA.COM.CN",
"tags" : [],
"desc" : "Norton Antivirus最新版本的病毒码。",
"emailed" : False,
"forwarded" : False,
"english" : False
} ]
}
