{
"mode" : {"viewTitle" : 1,   "viewNew" : 0,  "pageIndex" : 1 },
 "channel" : {"id" : "8576299908815096720", "booked" : False, "subNumber" : 1, "name" : "手机游戏新闻-新浪游戏", "url" : "http:\/\/games.sina.com.cn\/news\/sjyx\/index.shtml", "feed" : "http:\/\/rss.sina.com.cn\/games\/sjyx.xml", "author" : "WWW.SINA.COM.CN", "desc" : "新浪游戏之手机游戏新闻", "imageUrl" : "http:\/\/www.sinaimg.cn\/home\/images\/sina_logo2.gif", "postPerWeek" : "0", "lastCrawTime" : "17:07:55", "crawDateTime" : "06:19:25", "lastHttpCode" : "304"}, "page" : {
"startIndex" : 0,
"totalCount" : 5000,
"pageIndex" : 1,
"lastPage" : 250,
"pageSize" : 20,
"english" :  False },
 "unreadNum" : 0, "shotIndex" : -1,
"articles" : [
{
"index" : 0,
"articleIndex" : "20196",
"favor" :  False ,
     "read" : False,    
"title" : "外媒曝《炉石传说》安卓版正在进行分级",
"titleTip" : "外媒曝《炉石传说》安卓版正在进行分级",
"titleSummary" : "外媒曝《炉石传说》安卓版正在进行分级",
"descSummary" : "暴雪TCG卡牌新作《炉石传说：魔兽英雄传》国服已经开启测...",
"url" : "http:\/\/go.rss.sina.com.cn\/redirect.php?url=http:\/\/games.sina.com.cn\/m\/n\/2013-10-29\/1846740542.shtml",
"pubDate" : "昨天18:46:31",
"enterDate" : "384189:46:50",
"channelId" : "8576299908815096720",
"channelName" : "手机游戏新闻-新浪游戏",
"channelNameSummary" : "手机游戏新闻-新浪游...",
"channelUrl" : "http:\/\/games.sina.com.cn\/news\/sjyx\/index.shtml",
"author" : "WWW.SINA.COM.CN",
"tags" : [],
"desc" : "暴雪TCG卡牌新作《炉石传说：魔兽英雄传》国服已经开启测试，本作是一款以魔兽题材的卡牌游戏，玩家可以选取魔兽系列中的九大经典英雄人物之一，围绕其英雄的职业为主题组建自己独特的套牌，与其他玩家进行对战，赢取新的卡牌，享受乐趣，获得荣耀。暴雪曾宣布本作将会登陆PC....",
"emailed" : False,
"forwarded" : False,
"english" : False
}  , {
"index" : 1,
"articleIndex" : "20195",
"favor" :  False ,
     "read" : False,    
"title" : "欢瑞动作频繁《魔龙传说》万圣节上线",
"titleTip" : "欢瑞动作频繁《魔龙传说》万圣节上线",
"titleSummary" : "欢瑞动作频繁《魔龙传说》万圣节上线",
"descSummary" : "传近日炒得沸沸扬扬的欢瑞游戏破冰之作--《魔龙传说》将于今年...",
"url" : "http:\/\/go.rss.sina.com.cn\/redirect.php?url=http:\/\/games.sina.com.cn\/m\/n\/2013-10-29\/1712740530.shtml",
"pubDate" : "昨天17:12:31",
"enterDate" : "384188:12:50",
"channelId" : "8576299908815096720",
"channelName" : "手机游戏新闻-新浪游戏",
"channelNameSummary" : "手机游戏新闻-新浪游...",
"channelUrl" : "http:\/\/games.sina.com.cn\/news\/sjyx\/index.shtml",
"author" : "WWW.SINA.COM.CN",
"tags" : [],
"desc" : "传近日炒得沸沸扬扬的欢瑞游戏破冰之作\u2015\u2015《魔龙传说》将于今年万圣节即10月31日全球上线，或标志着欢瑞游戏正式打开全球市场。 欢瑞游戏自7月份成立以来，行业动作频繁，先是在本月16日一举公布四款不同类型的在研产品，随后在25日就深度曝光了首款手游《魔龙传说》....",
"emailed" : False,
"forwarded" : False,
"english" : False
}  , {
"index" : 2,
"articleIndex" : "20194",
"favor" :  False ,
     "read" : False,    
"title" : "狩猎VS扭蛋 《魔物狩猎者》独创卡牌系统",
"titleTip" : "狩猎VS扭蛋 《魔物狩猎者》独创卡牌系统",
"titleSummary" : "狩猎VS扭蛋 《魔物狩猎者》独创卡牌系统",
"descSummary" : "继《百万亚瑟王》之后，由日本知名游戏制造商SE倾力打造的...",
"url" : "http:\/\/go.rss.sina.com.cn\/redirect.php?url=http:\/\/games.sina.com.cn\/m\/n\/2013-10-29\/1641740518.shtml",
"pubDate" : "昨天16:41:50",
"enterDate" : "384187:42:09",
"channelId" : "8576299908815096720",
"channelName" : "手机游戏新闻-新浪游戏",
"channelNameSummary" : "手机游戏新闻-新浪游...",
"channelUrl" : "http:\/\/games.sina.com.cn\/news\/sjyx\/index.shtml",
"author" : "WWW.SINA.COM.CN",
"tags" : [],
"desc" : "继《百万亚瑟王》之后，由日本知名游戏制造商SE倾力打造的第二款卡牌手游《魔物狩猎者》也即将正式登录国服，豪门内斗姊妹相争的戏码也即将上演，关于两款游戏之间的对比也成为了近阶段业内人士乐此不疲的话题，今日就让笔者根据卡牌获取对两款游戏进行一个整体对比吧！....",
"emailed" : False,
"forwarded" : False,
"english" : False
}  , {
"index" : 3,
"articleIndex" : "20193",
"favor" :  False ,
     "read" : False,    
"title" : "《英雄赤壁》君临天下 华丽战斗截图首曝",
"titleTip" : "《英雄赤壁》君临天下 华丽战斗截图首曝",
"titleSummary" : "《英雄赤壁》君临天下 华丽战斗截图首曝",
"descSummary" : "2013年最受炙手可热的手机游戏《英雄赤壁》(Teamtop3天拓立...",
"url" : "http:\/\/go.rss.sina.com.cn\/redirect.php?url=http:\/\/games.sina.com.cn\/m\/n\/2013-10-29\/1619740515.shtml",
"pubDate" : "昨天16:19:18",
"enterDate" : "384187:19:37",
"channelId" : "8576299908815096720",
"channelName" : "手机游戏新闻-新浪游戏",
"channelNameSummary" : "手机游戏新闻-新浪游...",
"channelUrl" : "http:\/\/games.sina.com.cn\/news\/sjyx\/index.shtml",
"author" : "WWW.SINA.COM.CN",
"tags" : [],
"desc" : "2013年最受炙手可热的手机游戏《英雄赤壁》(Teamtop3天拓立方)横空出世以来，震惊业界，傲视群雄！顶级引擎技术，打造极致战斗特效，华丽超炫的技能展示出极致震撼打击感。炫目的技能特效、实时阴影和金属鎏光效果等次时代美术技术的综合运用等核心特性保证了这部手游大作最霸....",
"emailed" : False,
"forwarded" : False,
"english" : False
}  , {
"index" : 4,
"articleIndex" : "20192",
"favor" :  False ,
     "read" : False,    
"title" : "永生门玩法大升级 新版开放无尽地宫",
"titleTip" : "永生门玩法大升级 新版开放无尽地宫",
"titleSummary" : "永生门玩法大升级 新版开放无尽地宫",
"descSummary" : "巅峰之作《永生门》打造完美仙侠世界！活灵活现、眉目传情的人物...",
"url" : "http:\/\/go.rss.sina.com.cn\/redirect.php?url=http:\/\/games.sina.com.cn\/m\/n\/2013-10-29\/1610740511.shtml",
"pubDate" : "昨天16:10:49",
"enterDate" : "384187:11:08",
"channelId" : "8576299908815096720",
"channelName" : "手机游戏新闻-新浪游戏",
"channelNameSummary" : "手机游戏新闻-新浪游...",
"channelUrl" : "http:\/\/games.sina.com.cn\/news\/sjyx\/index.shtml",
"author" : "WWW.SINA.COM.CN",
"tags" : [],
"desc" : "巅峰之作《永生门》打造完美仙侠世界！活灵活现、眉目传情的人物造型、唯美细腻的水墨仙境、绚丽夺目的技能特效打造极致震撼的体验盛宴！4.0重磅版本玩法大升级，全新无尽地宫，火热开放！神秘天机阁附加技能多而绚！嗜血狂斩！周末新增魔界入侵活动，共掀永生新一轮狂欢浪潮....",
"emailed" : False,
"forwarded" : False,
"english" : False
}  , {
"index" : 5,
"articleIndex" : "20191",
"favor" :  False ,
     "read" : False,    
"title" : "见证NP之路 进击的三国二测玩法曝光",
"titleTip" : "见证NP之路 进击的三国二测玩法曝光",
"titleSummary" : "见证NP之路 进击的三国二测玩法曝光",
"descSummary" : "由骑牛游戏独家代理的卡牌手游《进击的三国》将于11月6日开启二...",
"url" : "http:\/\/go.rss.sina.com.cn\/redirect.php?url=http:\/\/games.sina.com.cn\/m\/n\/2013-10-29\/1559740508.shtml",
"pubDate" : "昨天15:59:27",
"enterDate" : "384186:59:46",
"channelId" : "8576299908815096720",
"channelName" : "手机游戏新闻-新浪游戏",
"channelNameSummary" : "手机游戏新闻-新浪游...",
"channelUrl" : "http:\/\/games.sina.com.cn\/news\/sjyx\/index.shtml",
"author" : "WWW.SINA.COM.CN",
"tags" : [],
"desc" : "由骑牛游戏独家代理的卡牌手游《进击的三国》将于11月6日开启二次封测。游戏一反传统设计理念，在三国题材上推陈出新，广泛融入穿越、吐槽、摇滚等时代元素，对三国人物、三国历史进行多维度诠释，其颇具\u201C土豪\u201D做派的送金系统，新潮的卡牌组合和槽神附体般的游戏人物都能令....",
"emailed" : False,
"forwarded" : False,
"english" : False
}  , {
"index" : 6,
"articleIndex" : "20190",
"favor" :  False ,
     "read" : False,    
"title" : "日本击落无人机 大抗战飞机轰炸鬼子",
"titleTip" : "日本击落无人机 大抗战飞机轰炸鬼子",
"titleSummary" : "日本击落无人机 大抗战飞机轰炸鬼子",
"descSummary" : "近日，日本政府防卫省大放厥词：如中国军队无人机\u201C侵犯日本领空...",
"url" : "http:\/\/go.rss.sina.com.cn\/redirect.php?url=http:\/\/games.sina.com.cn\/m\/n\/2013-10-29\/1548740501.shtml",
"pubDate" : "昨天15:48:38",
"enterDate" : "384186:48:57",
"channelId" : "8576299908815096720",
"channelName" : "手机游戏新闻-新浪游戏",
"channelNameSummary" : "手机游戏新闻-新浪游...",
"channelUrl" : "http:\/\/games.sina.com.cn\/news\/sjyx\/index.shtml",
"author" : "WWW.SINA.COM.CN",
"tags" : [],
"desc" : "近日，日本政府防卫省大放厥词：如中国军队无人机\u201C侵犯日本领空\u201D，日方将考虑予以击落。对于这种蓄意发动战争的行为，中国政府已明确警告日本政府需为后果负责。而《大抗战》表示，将为玩家提供在游戏中对日本侵略者进行正义打击的机会。侵略者嚣张的气焰必须扑灭，保家卫国....",
"emailed" : False,
"forwarded" : False,
"english" : False
}  , {
"index" : 7,
"articleIndex" : "20189",
"favor" :  False ,
     "read" : False,    
"title" : "《玉契OL》11月6日开启不删档内测",
"titleTip" : "《玉契OL》11月6日开启不删档内测",
"titleSummary" : "《玉契OL》11月6日开启不删档内测",
"descSummary" : "首款3D全视角即时动作手游巨作《玉契OL》，11月6日不删档内测震...",
"url" : "http:\/\/go.rss.sina.com.cn\/redirect.php?url=http:\/\/games.sina.com.cn\/m\/n\/2013-10-29\/1534740488.shtml",
"pubDate" : "昨天15:34:31",
"enterDate" : "384186:34:50",
"channelId" : "8576299908815096720",
"channelName" : "手机游戏新闻-新浪游戏",
"channelNameSummary" : "手机游戏新闻-新浪游...",
"channelUrl" : "http:\/\/games.sina.com.cn\/news\/sjyx\/index.shtml",
"author" : "WWW.SINA.COM.CN",
"tags" : [],
"desc" : "首款3D全视角即时动作手游巨作《玉契OL》，11月6日不删档内测震撼登场，精彩即将完美呈现！在经历过两次封测之后，《玉契OL》高清3D的逼真画质，360度全视角的自由观感，以及即时战斗的刺激体验给广大玩家留下了深刻的印象，也赢得了所有玩家的喜爱，相信在全面的优化及修复之....",
"emailed" : False,
"forwarded" : False,
"english" : False
}  , {
"index" : 8,
"articleIndex" : "20188",
"favor" :  False ,
     "read" : False,    
"title" : "玩《三国群英OL》赢土豪金iPhone5S！",
"titleTip" : "玩《三国群英OL》赢土豪金iPhone5S！",
"titleSummary" : "玩《三国群英OL》赢土豪金iPhone5S！",
"descSummary" : "空中网正统三国手游巨制《三国群英OL》近日已经正式在AppSt...",
"url" : "http:\/\/go.rss.sina.com.cn\/redirect.php?url=http:\/\/games.sina.com.cn\/m\/n\/2013-10-29\/1530740482.shtml",
"pubDate" : "昨天15:30:23",
"enterDate" : "384186:30:42",
"channelId" : "8576299908815096720",
"channelName" : "手机游戏新闻-新浪游戏",
"channelNameSummary" : "手机游戏新闻-新浪游...",
"channelUrl" : "http:\/\/games.sina.com.cn\/news\/sjyx\/index.shtml",
"author" : "WWW.SINA.COM.CN",
"tags" : [],
"desc" : "空中网正统三国手游巨制《三国群英OL》近日已经正式在AppStore以及安卓平台全面上架，这款以全景战略玩法为亮点的作品，将经典的感动再次带给每一位玩家。喜欢战略游戏的朋友，可以在手机平台随时随地展开征战，享受爽快操控以及征服天下的乐趣。 为了庆祝游戏正式上架....",
"emailed" : False,
"forwarded" : False,
"english" : False
}  , {
"index" : 9,
"articleIndex" : "20187",
"favor" :  False ,
     "read" : False,    
"title" : "《口袋战争》组装系统打造专属机甲",
"titleTip" : "《口袋战争》组装系统打造专属机甲",
"titleSummary" : "《口袋战争》组装系统打造专属机甲",
"descSummary" : "在\u201C蹲坑小伙伴\u201D《口袋战争》的\u201C机甲风暴\u201D版本中，游戏加入了...",
"url" : "http:\/\/go.rss.sina.com.cn\/redirect.php?url=http:\/\/games.sina.com.cn\/m\/n\/2013-10-29\/1527740480.shtml",
"pubDate" : "昨天15:27:48",
"enterDate" : "384186:28:07",
"channelId" : "8576299908815096720",
"channelName" : "手机游戏新闻-新浪游戏",
"channelNameSummary" : "手机游戏新闻-新浪游...",
"channelUrl" : "http:\/\/games.sina.com.cn\/news\/sjyx\/index.shtml",
"author" : "WWW.SINA.COM.CN",
"tags" : [],
"desc" : "在\u201C蹲坑小伙伴\u201D《口袋战争》的\u201C机甲风暴\u201D版本中，游戏加入了丰富多样的机甲玩法，机甲组装、模块植入、部件强化\u2026\u2026在这里你可以打造专属自己的钢铁大杀器 横行战场，高科技战争已经打响，马上加入《口袋战争》，组建自己的钢铁部队吧！ 从变形金刚的记....",
"emailed" : False,
"forwarded" : False,
"english" : False
}  , {
"index" : 10,
"articleIndex" : "20186",
"favor" :  False ,
     "read" : False,    
"title" : "皇帝那些事儿火热开服 体验乾隆盛世",
"titleTip" : "皇帝那些事儿火热开服 体验乾隆盛世",
"titleSummary" : "皇帝那些事儿火热开服 体验乾隆盛世",
"descSummary" : "《皇帝那些事儿》于昨日开启首次封测，带玩家穿越历史，探索后宫...",
"url" : "http:\/\/go.rss.sina.com.cn\/redirect.php?url=http:\/\/games.sina.com.cn\/m\/n\/2013-10-29\/1524740479.shtml",
"pubDate" : "昨天15:24:52",
"enterDate" : "384186:25:11",
"channelId" : "8576299908815096720",
"channelName" : "手机游戏新闻-新浪游戏",
"channelNameSummary" : "手机游戏新闻-新浪游...",
"channelUrl" : "http:\/\/games.sina.com.cn\/news\/sjyx\/index.shtml",
"author" : "WWW.SINA.COM.CN",
"tags" : [],
"desc" : "《皇帝那些事儿》于昨日开启首次封测，带玩家穿越历史，探索后宫。作为一款卡牌策略游戏，玩家却能在游戏中体验攻城战，对自己所属城池附近的城市进行攻击占领，感受不逊于竞技类游戏的刺激！本次测试开放ios越狱版(4.3及以上版本)、安卓版(2.2及以上版本)，首度开服便受到卡....",
"emailed" : False,
"forwarded" : False,
"english" : False
}  , {
"index" : 11,
"articleIndex" : "20185",
"favor" :  False ,
     "read" : False,    
"title" : "《土豪OL》整合资源 渠道成发力支点",
"titleTip" : "《土豪OL》整合资源 渠道成发力支点",
"titleSummary" : "《土豪OL》整合资源 渠道成发力支点",
"descSummary" : "\u201C手机游戏的发行渠道已经成为产业链上重要的一环，\u201D开心网CE...",
"url" : "http:\/\/go.rss.sina.com.cn\/redirect.php?url=http:\/\/games.sina.com.cn\/m\/n\/2013-10-29\/1451740467.shtml",
"pubDate" : "昨天14:51:19",
"enterDate" : "384185:51:38",
"channelId" : "8576299908815096720",
"channelName" : "手机游戏新闻-新浪游戏",
"channelNameSummary" : "手机游戏新闻-新浪游...",
"channelUrl" : "http:\/\/games.sina.com.cn\/news\/sjyx\/index.shtml",
"author" : "WWW.SINA.COM.CN",
"tags" : [],
"desc" : "\u201C手机游戏的发行渠道已经成为产业链上重要的一环，\u201D开心网CEO程炳皓说，\u201C我们即将上线的手游产品《土豪OL》，将以渠道为发力支点，整合多方面资源进行全面推广。\u201D 经过近两个月的删档内测后，开心网年度手游大作《土豪OL》决定首批选择IOS App Store、360、UC、91....",
"emailed" : False,
"forwarded" : False,
"english" : False
}  , {
"index" : 12,
"articleIndex" : "20184",
"favor" :  False ,
     "read" : False,    
"title" : "苹果=土豪金？弹弹无双土豪武器将亮相",
"titleTip" : "苹果=土豪金？弹弹无双土豪武器将亮相",
"titleSummary" : "苹果=土豪金？弹弹无双土豪武器将亮相",
"descSummary" : "随着新一代苹果手机iphone 5s在中国市场受热捧，其金色版本更...",
"url" : "http:\/\/go.rss.sina.com.cn\/redirect.php?url=http:\/\/games.sina.com.cn\/m\/n\/2013-10-29\/1429740454.shtml",
"pubDate" : "昨天14:29:34",
"enterDate" : "384185:29:53",
"channelId" : "8576299908815096720",
"channelName" : "手机游戏新闻-新浪游戏",
"channelNameSummary" : "手机游戏新闻-新浪游...",
"channelUrl" : "http:\/\/games.sina.com.cn\/news\/sjyx\/index.shtml",
"author" : "WWW.SINA.COM.CN",
"tags" : [],
"desc" : "随着新一代苹果手机iphone 5s在中国市场受热捧，其金色版本更是成为了不少人关注的焦点，很多人将其戏称为\u201C土豪金\u201D，并成为网络中的热词。随之而来的各种版本的\u201C土豪金\u201D产品陆续进入人们的实现，\u201C土豪金\u201D不再是苹果的代言词，手表、钢琴、高跟鞋\u2026\u2026等等，这些\u201C真金\u201D....",
"emailed" : False,
"forwarded" : False,
"english" : False
}  , {
"index" : 13,
"articleIndex" : "20183",
"favor" :  False ,
     "read" : False,    
"title" : "重燃格斗激情 《街机英雄》11月内测",
"titleTip" : "重燃格斗激情 《街机英雄》11月内测",
"titleSummary" : "重燃格斗激情 《街机英雄》11月内测",
"descSummary" : "追溯街机黄金时代，重温童年热血格斗，向经典致敬，集格斗、推币...",
"url" : "http:\/\/go.rss.sina.com.cn\/redirect.php?url=http:\/\/games.sina.com.cn\/m\/n\/2013-10-29\/1337740430.shtml",
"pubDate" : "昨天13:37:05",
"enterDate" : "384184:37:24",
"channelId" : "8576299908815096720",
"channelName" : "手机游戏新闻-新浪游戏",
"channelNameSummary" : "手机游戏新闻-新浪游...",
"channelUrl" : "http:\/\/games.sina.com.cn\/news\/sjyx\/index.shtml",
"author" : "WWW.SINA.COM.CN",
"tags" : [],
"desc" : "追溯街机黄金时代，重温童年热血格斗，向经典致敬，集格斗、推币、卡牌、养成于一体的手机网游《街机英雄》于11月震撼登陆91平台，开启删档测试！不知火舞、春丽、娜可露露这些女神们纷纷集结，八神庵、肯、霸王丸等海量英雄人物等你收集。创新将推金币玩法与街机类格斗游戏结....",
"emailed" : False,
"forwarded" : False,
"english" : False
}  , {
"index" : 14,
"articleIndex" : "20182",
"favor" :  False ,
     "read" : False,    
"title" : "称霸力作《石器时代OL》享受无上荣耀",
"titleTip" : "称霸力作《石器时代OL》享受无上荣耀",
"titleSummary" : "称霸力作《石器时代OL》享受无上荣耀",
"descSummary" : "掌趣科技自主研发精品手游力作《石器时代OL》凭借经典的游戏...",
"url" : "http:\/\/go.rss.sina.com.cn\/redirect.php?url=http:\/\/games.sina.com.cn\/m\/n\/2013-10-29\/1328740428.shtml",
"pubDate" : "昨天13:28:41",
"enterDate" : "384184:29:00",
"channelId" : "8576299908815096720",
"channelName" : "手机游戏新闻-新浪游戏",
"channelNameSummary" : "手机游戏新闻-新浪游...",
"channelUrl" : "http:\/\/games.sina.com.cn\/news\/sjyx\/index.shtml",
"author" : "WWW.SINA.COM.CN",
"tags" : [],
"desc" : "掌趣科技自主研发精品手游力作《石器时代OL》凭借经典的游戏元素、独特的游戏风格、顺畅的游戏体验以及创新的各类玩法，人气一直居高不下。在经历过刺激的冒险，激情的征战之后，每个玩家都希望获得至高无上的荣耀，但是谁能在高手云集的远古大陆脱颖而出，受万人膜拜，答案就....",
"emailed" : False,
"forwarded" : False,
"english" : False
}  , {
"index" : 15,
"articleIndex" : "20181",
"favor" :  False ,
     "read" : False,    
"title" : "手游《北欧战歌》职业解析之英灵骑士",
"titleTip" : "手游《北欧战歌》职业解析之英灵骑士",
"titleSummary" : "手游《北欧战歌》职业解析之英灵骑士",
"descSummary" : "诸神黄昏，唤醒沉睡的英灵，拨开历史迷雾，谱写如梦似幻的恒久...",
"url" : "http:\/\/go.rss.sina.com.cn\/redirect.php?url=http:\/\/games.sina.com.cn\/m\/n\/2013-10-29\/1310740425.shtml",
"pubDate" : "昨天13:10:52",
"enterDate" : "384184:11:11",
"channelId" : "8576299908815096720",
"channelName" : "手机游戏新闻-新浪游戏",
"channelNameSummary" : "手机游戏新闻-新浪游...",
"channelUrl" : "http:\/\/games.sina.com.cn\/news\/sjyx\/index.shtml",
"author" : "WWW.SINA.COM.CN",
"tags" : [],
"desc" : "诸神黄昏，唤醒沉睡的英灵，拨开历史迷雾，谱写如梦似幻的恒久传说。SRPG手游大作《北欧战歌》魔幻来袭，巫师、游侠、精灵、骑士等神秘种族即将华丽登场！为了让大家了解更多，今天小编特献上骑士职业深度解析一篇。他们是力与美的象征，他们是家园的守护者，他们的故事，就让....",
"emailed" : False,
"forwarded" : False,
"english" : False
}  , {
"index" : 16,
"articleIndex" : "20180",
"favor" :  False ,
     "read" : False,    
"title" : "颠覆传统 我叫MT武道争霸赛差点砸场",
"titleTip" : "颠覆传统 我叫MT武道争霸赛差点砸场",
"titleSummary" : "颠覆传统 我叫MT武道争霸赛差点砸场",
"descSummary" : "本周末10月27日下午，手游公司卓越游戏在北京奥体中心隆重举办...",
"url" : "http:\/\/go.rss.sina.com.cn\/redirect.php?url=http:\/\/games.sina.com.cn\/m\/n\/2013-10-29\/1309740424.shtml",
"pubDate" : "昨天13:09:03",
"enterDate" : "384184:09:22",
"channelId" : "8576299908815096720",
"channelName" : "手机游戏新闻-新浪游戏",
"channelNameSummary" : "手机游戏新闻-新浪游...",
"channelUrl" : "http:\/\/games.sina.com.cn\/news\/sjyx\/index.shtml",
"author" : "WWW.SINA.COM.CN",
"tags" : [],
"desc" : "本周末10月27日下午，手游公司卓越游戏在北京奥体中心隆重举办首届《我叫MT》\u201C天下第一？武道争霸赛\u201D。这场活动到目前为止仍是争议颇多，有人喊赞也有人止不住吐槽。小编前前后后从活动开始前，中午12点到晚上9点结束，均在现场。不妨和大家来谈谈这当中的槽点和看点。 ....",
"emailed" : False,
"forwarded" : False,
"english" : False
}  , {
"index" : 17,
"articleIndex" : "20179",
"favor" :  False ,
     "read" : False,    
"title" : "疯狂部落31日首发启动兔斯基联合推广",
"titleTip" : "疯狂部落31日首发启动兔斯基联合推广",
"titleSummary" : "疯狂部落31日首发启动兔斯基联合推广",
"descSummary" : "10月31日，昆仑游戏旗下3D动漫疯狂手游《疯狂部落》即将在当...",
"url" : "http:\/\/go.rss.sina.com.cn\/redirect.php?url=http:\/\/games.sina.com.cn\/m\/n\/2013-10-29\/1308740423.shtml",
"pubDate" : "昨天13:08:05",
"enterDate" : "384184:08:24",
"channelId" : "8576299908815096720",
"channelName" : "手机游戏新闻-新浪游戏",
"channelNameSummary" : "手机游戏新闻-新浪游...",
"channelUrl" : "http:\/\/games.sina.com.cn\/news\/sjyx\/index.shtml",
"author" : "WWW.SINA.COM.CN",
"tags" : [],
"desc" : "10月31日，昆仑游戏旗下3D动漫疯狂手游《疯狂部落》即将在当乐、uc、360、小米、百度、pp助手六大平台开启安卓、越狱双平台首发，同时启动兔斯基联合推广，植入五大兔斯基原始人形象，打造疯狂动漫手游形象。 疯狂部落越狱首发 10月31日六大安卓、越狱平台首发 ....",
"emailed" : False,
"forwarded" : False,
"english" : False
}  , {
"index" : 18,
"articleIndex" : "20178",
"favor" :  False ,
     "read" : False,    
"title" : "玩《秦美人》 赢万圣节狂欢搞怪礼包",
"titleTip" : "玩《秦美人》 赢万圣节狂欢搞怪礼包",
"titleSummary" : "玩《秦美人》 赢万圣节狂欢搞怪礼包",
"descSummary" : "在西方，每年的10月31日是一年中最\u201C闹鬼\u201D的一夜，所以也叫\u201C...",
"url" : "http:\/\/go.rss.sina.com.cn\/redirect.php?url=http:\/\/games.sina.com.cn\/m\/n\/2013-10-29\/1254740417.shtml",
"pubDate" : "昨天12:54:45",
"enterDate" : "384183:55:04",
"channelId" : "8576299908815096720",
"channelName" : "手机游戏新闻-新浪游戏",
"channelNameSummary" : "手机游戏新闻-新浪游...",
"channelUrl" : "http:\/\/games.sina.com.cn\/news\/sjyx\/index.shtml",
"author" : "WWW.SINA.COM.CN",
"tags" : [],
"desc" : "在西方，每年的10月31日是一年中最\u201C闹鬼\u201D的一夜，所以也叫\u201C鬼节\u201D。全球大部分人以古灵精怪的打扮，来庆祝万圣节的由来。时间流逝，万圣节的意义逐渐起了变化，变得积极快乐起来，喜庆的意味成了主流。如今随着中西方文化的交流，万圣节也成为了中国人可以娱乐的一个比较有....",
"emailed" : False,
"forwarded" : False,
"english" : False
}  , {
"index" : 19,
"articleIndex" : "20177",
"favor" :  False ,
     "read" : False,    
"title" : "颠覆传统 我叫MT争霸赛差点就砸场了",
"titleTip" : "颠覆传统 我叫MT争霸赛差点就砸场了",
"titleSummary" : "颠覆传统 我叫MT争霸赛差点就砸场了",
"descSummary" : "本周末10月27日下午，手游公司卓越游戏在北京奥体中心隆重举办...",
"url" : "http:\/\/go.rss.sina.com.cn\/redirect.php?url=http:\/\/games.sina.com.cn\/m\/n\/2013-10-29\/1251740416.shtml",
"pubDate" : "昨天12:51:00",
"enterDate" : "384183:51:19",
"channelId" : "8576299908815096720",
"channelName" : "手机游戏新闻-新浪游戏",
"channelNameSummary" : "手机游戏新闻-新浪游...",
"channelUrl" : "http:\/\/games.sina.com.cn\/news\/sjyx\/index.shtml",
"author" : "WWW.SINA.COM.CN",
"tags" : [],
"desc" : "本周末10月27日下午，手游公司卓越游戏在北京奥体中心隆重举办首届《我叫MT》\u201C天下第一？武道争霸赛\u201D。这场活动到目前为止仍是争议颇多，有人喊赞也有人止不住吐槽。小编前前后后从活动开始前，中午12点到晚上9点结束，均在现场。不妨和大家来谈谈这当中的槽点和看点。 ....",
"emailed" : False,
"forwarded" : False,
"english" : False
} ]
}
