{
"mode" : {"viewTitle" : 1,   "viewNew" : 0,  "pageIndex" : 2 },
 "channel" : {"id" : "8576299908815096720", "booked" : False, "subNumber" : 1, "name" : "手机游戏新闻-新浪游戏", "url" : "http:\/\/games.sina.com.cn\/news\/sjyx\/index.shtml", "feed" : "http:\/\/rss.sina.com.cn\/games\/sjyx.xml", "author" : "WWW.SINA.COM.CN", "desc" : "新浪游戏之手机游戏新闻", "imageUrl" : "http:\/\/www.sinaimg.cn\/home\/images\/sina_logo2.gif", "postPerWeek" : "0", "lastCrawTime" : "17:07:55", "crawDateTime" : "06:19:25", "lastHttpCode" : "304"}, "page" : {
"startIndex" : 20,
"totalCount" : 5000,
"pageIndex" : 2,
"lastPage" : 250,
"pageSize" : 20,
"english" :  False },
 "unreadNum" : 0, "shotIndex" : -1,
"articles" : [
{
"index" : 0,
"articleIndex" : "20176",
"favor" :  False ,
     "read" : False,    
"title" : "《神鬼幻想》野外boss造型抢先看",
"titleTip" : "《神鬼幻想》野外boss造型抢先看",
"titleSummary" : "《神鬼幻想》野外boss造型抢先看",
"descSummary" : "幽深茂密的丛林，充满科技色彩的蒸汽港\u2026\u2026在3D幻想手游巨作《神...",
"url" : "http:\/\/go.rss.sina.com.cn\/redirect.php?url=http:\/\/games.sina.com.cn\/m\/n\/2013-10-29\/1248740415.shtml",
"pubDate" : "昨天12:48:15",
"enterDate" : "384183:48:34",
"channelId" : "8576299908815096720",
"channelName" : "手机游戏新闻-新浪游戏",
"channelNameSummary" : "手机游戏新闻-新浪游...",
"channelUrl" : "http:\/\/games.sina.com.cn\/news\/sjyx\/index.shtml",
"author" : "WWW.SINA.COM.CN",
"tags" : [],
"desc" : "幽深茂密的丛林，充满科技色彩的蒸汽港\u2026\u2026在3D幻想手游巨作《神鬼幻想》中，有很多神秘的地图等着你来探索。在这些神秘的地方深处，住着一些凶猛的BOSS，真的猛士，从不惮于面对这些可怕的怪物，反而只会激发他们挑战怪兽的决心。更大的危险也意味着更大的奖励，走近这些野外....",
"emailed" : False,
"forwarded" : False,
"english" : False
}  , {
"index" : 1,
"articleIndex" : "20175",
"favor" :  False ,
     "read" : False,    
"title" : "御神之战APP版迎新服 今14点点燃战火",
"titleTip" : "御神之战APP版迎新服 今14点点燃战火",
"titleSummary" : "御神之战APP版迎新服 今14点点燃战火",
"descSummary" : "高歌猛进，奏响凯歌！即18日新服之后，为回应滚滚\u201C浪潮\u201D，...",
"url" : "http:\/\/go.rss.sina.com.cn\/redirect.php?url=http:\/\/games.sina.com.cn\/m\/n\/2013-10-29\/1236740413.shtml",
"pubDate" : "昨天12:36:55",
"enterDate" : "384183:37:14",
"channelId" : "8576299908815096720",
"channelName" : "手机游戏新闻-新浪游戏",
"channelNameSummary" : "手机游戏新闻-新浪游...",
"channelUrl" : "http:\/\/games.sina.com.cn\/news\/sjyx\/index.shtml",
"author" : "WWW.SINA.COM.CN",
"tags" : [],
"desc" : "高歌猛进，奏响凯歌！即18日新服之后，为回应滚滚\u201C浪潮\u201D，《御神之战》今日又将开启新服\u201C南山小径\u201D。跌宕起伏的热血剧情，紧张刺激的战斗画面，乐趣无穷的融合系统，这一切都将让您欲罢不能！谁主沉浮，是他，是她，还是你？ 五彩缤纷的\u201C御神世界\u201D \u201C....",
"emailed" : False,
"forwarded" : False,
"english" : False
}  , {
"index" : 2,
"articleIndex" : "20174",
"favor" :  False ,
     "read" : False,    
"title" : "大叔style 《萌斗罗》奔雷炮手解析",
"titleTip" : "大叔style 《萌斗罗》奔雷炮手解析",
"titleSummary" : "大叔style 《萌斗罗》奔雷炮手解析",
"descSummary" : "一直以来，女生心目中的白马王子形象多是长相秀气而文弱的\u201C白面书...",
"url" : "http:\/\/go.rss.sina.com.cn\/redirect.php?url=http:\/\/games.sina.com.cn\/m\/n\/2013-10-29\/1233740412.shtml",
"pubDate" : "昨天12:33:45",
"enterDate" : "384183:34:04",
"channelId" : "8576299908815096720",
"channelName" : "手机游戏新闻-新浪游戏",
"channelNameSummary" : "手机游戏新闻-新浪游...",
"channelUrl" : "http:\/\/games.sina.com.cn\/news\/sjyx\/index.shtml",
"author" : "WWW.SINA.COM.CN",
"tags" : [],
"desc" : "一直以来，女生心目中的白马王子形象多是长相秀气而文弱的\u201C白面书生\u201D。但近两年，粗犷的\u201C纯爷们真汉子\u201D形象逐渐回归了妹子们的视野。而更有些女生更是爱上了年纪略大，但充满成熟魅力的\u201C大叔\u201D形象，\u201C大叔控\u201D的势力越发壮大。但不要搞错了！不是所有的三四十岁，有胡子....",
"emailed" : False,
"forwarded" : False,
"english" : False
}  , {
"index" : 3,
"articleIndex" : "20173",
"favor" :  False ,
     "read" : False,    
"title" : "三分天下 《魏蜀吴》经典战役重温",
"titleTip" : "三分天下 《魏蜀吴》经典战役重温",
"titleSummary" : "三分天下 《魏蜀吴》经典战役重温",
"descSummary" : "作为我国古代最具代表的战乱时期之一，军阀割据、群雄四起的三国时...",
"url" : "http:\/\/go.rss.sina.com.cn\/redirect.php?url=http:\/\/games.sina.com.cn\/m\/n\/2013-10-29\/1231740411.shtml",
"pubDate" : "昨天12:31:50",
"enterDate" : "384183:32:09",
"channelId" : "8576299908815096720",
"channelName" : "手机游戏新闻-新浪游戏",
"channelNameSummary" : "手机游戏新闻-新浪游...",
"channelUrl" : "http:\/\/games.sina.com.cn\/news\/sjyx\/index.shtml",
"author" : "WWW.SINA.COM.CN",
"tags" : [],
"desc" : "作为我国古代最具代表的战乱时期之一，军阀割据、群雄四起的三国时代，为我们留下了足够传唱千百年的传奇。这是一个英雄辈出的时代，一个历史上最富有传奇色彩的时代，而战争则成为了那个时候的主旋律。说到三国就离不开那一场场惊心动魄、耳熟能详的经典战役。从拉开序幕的黄....",
"emailed" : False,
"forwarded" : False,
"english" : False
}  , {
"index" : 4,
"articleIndex" : "20172",
"favor" :  False ,
     "read" : False,    
"title" : "神魔之我要打十个 三大职业纵横西行路",
"titleTip" : "神魔之我要打十个 三大职业纵横西行路",
"titleSummary" : "神魔之我要打十个 三大职业纵横西行路",
"descSummary" : "人气女星Angelababy跨界担任《神魔》形象代言人，实力派厂商...",
"url" : "http:\/\/go.rss.sina.com.cn\/redirect.php?url=http:\/\/games.sina.com.cn\/m\/n\/2013-10-29\/1229740410.shtml",
"pubDate" : "昨天12:29:40",
"enterDate" : "384183:29:59",
"channelId" : "8576299908815096720",
"channelName" : "手机游戏新闻-新浪游戏",
"channelNameSummary" : "手机游戏新闻-新浪游...",
"channelUrl" : "http:\/\/games.sina.com.cn\/news\/sjyx\/index.shtml",
"author" : "WWW.SINA.COM.CN",
"tags" : [],
"desc" : "人气女星Angelababy跨界担任《神魔》形象代言人，实力派厂商银汉再掀动作网游风，继热门大作《时空猎人》后，新一代动作手机网游《神魔》近期成大热门，\u201C非主流\u201D职业角色引爆玩家眼球。 《神魔》以经典神话小说《西游记》为背景，以小说中最受欢迎的孙悟空、杨戬、铁....",
"emailed" : False,
"forwarded" : False,
"english" : False
}  , {
"index" : 5,
"articleIndex" : "20171",
"favor" :  False ,
     "read" : False,    
"title" : "变男变女随心所欲 部落幻想玩法集锦",
"titleTip" : "变男变女随心所欲 部落幻想玩法集锦",
"titleSummary" : "变男变女随心所欲 部落幻想玩法集锦",
"descSummary" : "作为一个阅游无数的资深不着调小编，玩游戏时自然遇到过不少蛋疼...",
"url" : "http:\/\/go.rss.sina.com.cn\/redirect.php?url=http:\/\/games.sina.com.cn\/m\/n\/2013-10-29\/1226740409.shtml",
"pubDate" : "昨天12:26:37",
"enterDate" : "384183:26:56",
"channelId" : "8576299908815096720",
"channelName" : "手机游戏新闻-新浪游戏",
"channelNameSummary" : "手机游戏新闻-新浪游...",
"channelUrl" : "http:\/\/games.sina.com.cn\/news\/sjyx\/index.shtml",
"author" : "WWW.SINA.COM.CN",
"tags" : [],
"desc" : "作为一个阅游无数的资深不着调小编，玩游戏时自然遇到过不少蛋疼问题，但最让小编纠结的莫过于选定了性别打到后来发现好看的套装及武器自己不能用，换个性别就得从头再来，深深的忧伤啊！于是小编一直在想如果有个游戏可以必要的时候男号变女号，女号变人妖号该有多爽\u2026\u2026抱着....",
"emailed" : False,
"forwarded" : False,
"english" : False
}  , {
"index" : 6,
"articleIndex" : "20170",
"favor" :  False ,
     "read" : False,    
"title" : "《天龙八部》安卓版今日11点公测开启",
"titleTip" : "《天龙八部》安卓版今日11点公测开启",
"titleSummary" : "《天龙八部》安卓版今日11点公测开启",
"descSummary" : "搜狐畅游宣布2013年武侠手游抗鼎之作《天龙八部(移动版)》将于...",
"url" : "http:\/\/go.rss.sina.com.cn\/redirect.php?url=http:\/\/games.sina.com.cn\/m\/n\/2013-10-29\/1223740408.shtml",
"pubDate" : "昨天12:23:26",
"enterDate" : "384183:23:45",
"channelId" : "8576299908815096720",
"channelName" : "手机游戏新闻-新浪游戏",
"channelNameSummary" : "手机游戏新闻-新浪游...",
"channelUrl" : "http:\/\/games.sina.com.cn\/news\/sjyx\/index.shtml",
"author" : "WWW.SINA.COM.CN",
"tags" : [],
"desc" : "搜狐畅游宣布2013年武侠手游抗鼎之作《天龙八部(移动版)》将于10月29日上午11时准时开启公测。在公测版本中，游戏将对画面进行全面升级，玩法、系统将大规模革新，并且将会新增大量武功绝学。同时今日《天龙八部(移动版)》的预注册活动也正式开启，各位侠客们快为你的江湖之旅....",
"emailed" : False,
"forwarded" : False,
"english" : False
}  , {
"index" : 7,
"articleIndex" : "20169",
"favor" :  False ,
     "read" : False,    
"title" : "塔防手游武士誓死守卫战首次限免开启",
"titleTip" : "塔防手游武士誓死守卫战首次限免开启",
"titleSummary" : "塔防手游武士誓死守卫战首次限免开启",
"descSummary" : "《武士誓死守卫战》是一款横向射击塔防类游戏，在游戏中玩家需...",
"url" : "http:\/\/go.rss.sina.com.cn\/redirect.php?url=http:\/\/games.sina.com.cn\/m\/n\/2013-10-29\/1217740407.shtml",
"pubDate" : "昨天12:17:48",
"enterDate" : "384183:18:07",
"channelId" : "8576299908815096720",
"channelName" : "手机游戏新闻-新浪游戏",
"channelNameSummary" : "手机游戏新闻-新浪游...",
"channelUrl" : "http:\/\/games.sina.com.cn\/news\/sjyx\/index.shtml",
"author" : "WWW.SINA.COM.CN",
"tags" : [],
"desc" : "《武士誓死守卫战》是一款横向射击塔防类游戏，在游戏中玩家需要扮演英勇的武士抵御攻击村庄的大波敌人；要召唤盟军、建立防御系统，阻挡敌人的进攻。今天《武士誓死守卫战》于App Store正式开启限免，PP助手、itools、搞趣等同步开启限免，对策略塔防游戏感兴趣的小伙伴还等....",
"emailed" : False,
"forwarded" : False,
"english" : False
}  , {
"index" : 8,
"articleIndex" : "20168",
"favor" :  False ,
     "read" : False,    
"title" : "最适合无节操宅男的手游工作室大曝光",
"titleTip" : "最适合无节操宅男的手游工作室大曝光",
"titleSummary" : "最适合无节操宅男的手游工作室大曝光",
"descSummary" : "简介：蜂鸟工作室成立于2012年11，到现在不到一年时间，却已...",
"url" : "http:\/\/go.rss.sina.com.cn\/redirect.php?url=http:\/\/games.sina.com.cn\/m\/n\/2013-10-29\/1202740399.shtml",
"pubDate" : "昨天12:02:34",
"enterDate" : "384183:02:53",
"channelId" : "8576299908815096720",
"channelName" : "手机游戏新闻-新浪游戏",
"channelNameSummary" : "手机游戏新闻-新浪游...",
"channelUrl" : "http:\/\/games.sina.com.cn\/news\/sjyx\/index.shtml",
"author" : "WWW.SINA.COM.CN",
"tags" : [],
"desc" : "简介：蜂鸟工作室成立于2012年11，到现在不到一年时间，却已经向市场投放了多款颇受用户欢迎的游戏。这些手游虽然题材不一，但是都具有非常明显的蜂鸟烙印，那就是精美的画面和细致的设计。 小编纵观手游天下大势，发现宅男们绝对是手游用户中最博学的人群，他们的爱好....",
"emailed" : False,
"forwarded" : False,
"english" : False
}  , {
"index" : 9,
"articleIndex" : "20167",
"favor" :  False ,
     "read" : False,    
"title" : "《魔女大战》物竞天择 硬派技能盘点",
"titleTip" : "《魔女大战》物竞天择 硬派技能盘点",
"titleSummary" : "《魔女大战》物竞天择 硬派技能盘点",
"descSummary" : "物竞天择适者生存，拥有严谨\u201C技能链\u201D的日系卡牌手游《魔女大战...",
"url" : "http:\/\/go.rss.sina.com.cn\/redirect.php?url=http:\/\/games.sina.com.cn\/m\/n\/2013-10-29\/1155740398.shtml",
"pubDate" : "昨天11:55:04",
"enterDate" : "384182:55:23",
"channelId" : "8576299908815096720",
"channelName" : "手机游戏新闻-新浪游戏",
"channelNameSummary" : "手机游戏新闻-新浪游...",
"channelUrl" : "http:\/\/games.sina.com.cn\/news\/sjyx\/index.shtml",
"author" : "WWW.SINA.COM.CN",
"tags" : [],
"desc" : "物竞天择适者生存，拥有严谨\u201C技能链\u201D的日系卡牌手游《魔女大战》凭借多元的\u201C重策略\u201D为众多深度卡牌玩家建造了多维度的策略天堂，卡牌技能的割舍，牌组间的相互呼应，或固若金汤，或一触即溃。战前策略之\u2015\u2015技能篇，《魔女大战》硬派技能盘点，牵动战局的因素。 ....",
"emailed" : False,
"forwarded" : False,
"english" : False
}  , {
"index" : 10,
"articleIndex" : "20166",
"favor" :  False ,
     "read" : False,    
"title" : "搞怪涂鸦无极限 《大叔鸡蛋》奇葩美术风格",
"titleTip" : "搞怪涂鸦无极限 《大叔鸡蛋》奇葩美术风格",
"titleSummary" : "搞怪涂鸦无极限 《大叔鸡蛋》奇葩美术风格",
"descSummary" : "对于一款手游来讲，美术风格往往是吸引玩家的首要因素，出...",
"url" : "http:\/\/go.rss.sina.com.cn\/redirect.php?url=http:\/\/games.sina.com.cn\/m\/n\/2013-10-29\/1147740394.shtml",
"pubDate" : "昨天11:47:59",
"enterDate" : "384182:48:18",
"channelId" : "8576299908815096720",
"channelName" : "手机游戏新闻-新浪游戏",
"channelNameSummary" : "手机游戏新闻-新浪游...",
"channelUrl" : "http:\/\/games.sina.com.cn\/news\/sjyx\/index.shtml",
"author" : "WWW.SINA.COM.CN",
"tags" : [],
"desc" : "对于一款手游来讲，美术风格往往是吸引玩家的首要因素，出自日本著名游戏制作人，洛克人之父稻船敬二之手的《大叔鸡蛋》，放弃了多数手游华丽色彩的视觉表现，运用了简单明了的涂鸦画风，让人眼前一亮。 《大叔鸡蛋》-稻船敬二奇葩作品 《大叔鸡蛋》是背景设立在日....",
"emailed" : False,
"forwarded" : False,
"english" : False
}  , {
"index" : 11,
"articleIndex" : "20165",
"favor" :  False ,
     "read" : False,    
"title" : "手游《魔王传记》两大BOSS带你爽翻天",
"titleTip" : "手游《魔王传记》两大BOSS带你爽翻天",
"titleSummary" : "手游《魔王传记》两大BOSS带你爽翻天",
"descSummary" : "3DMMORPG《魔王传记》正如火如荼征战中，面临天赋迥异的各...",
"url" : "http:\/\/go.rss.sina.com.cn\/redirect.php?url=http:\/\/games.sina.com.cn\/m\/n\/2013-10-29\/1137740380.shtml",
"pubDate" : "昨天11:37:54",
"enterDate" : "384182:38:13",
"channelId" : "8576299908815096720",
"channelName" : "手机游戏新闻-新浪游戏",
"channelNameSummary" : "手机游戏新闻-新浪游...",
"channelUrl" : "http:\/\/games.sina.com.cn\/news\/sjyx\/index.shtml",
"author" : "WWW.SINA.COM.CN",
"tags" : [],
"desc" : "3DMMORPG《魔王传记》正如火如荼征战中，面临天赋迥异的各种怪物，或冷冽神秘或妖娆莫测，或威武霸气或身手矫健，如果是你会做什么选择？像男人一样一跃而上？或者就此后退避而远之？骚年，点燃你那曾经的热血，迸发出你现在的激情，全力以赴展示您高强的攻击和飘逸的走位，证....",
"emailed" : False,
"forwarded" : False,
"english" : False
}  , {
"index" : 12,
"articleIndex" : "20164",
"favor" :  False ,
     "read" : False,    
"title" : "万圣节首选 行尸走肉第二季今日上架",
"titleTip" : "万圣节首选 行尸走肉第二季今日上架",
"titleSummary" : "万圣节首选 行尸走肉第二季今日上架",
"descSummary" : "近日，《行尸走肉》开发商 Telltale Inc 在官方 Twitter 向大家表示，...",
"url" : "http:\/\/go.rss.sina.com.cn\/redirect.php?url=http:\/\/games.sina.com.cn\/m\/n\/2013-10-29\/1105740333.shtml",
"pubDate" : "昨天11:05:36",
"enterDate" : "384182:05:55",
"channelId" : "8576299908815096720",
"channelName" : "手机游戏新闻-新浪游戏",
"channelNameSummary" : "手机游戏新闻-新浪游...",
"channelUrl" : "http:\/\/games.sina.com.cn\/news\/sjyx\/index.shtml",
"author" : "WWW.SINA.COM.CN",
"tags" : [],
"desc" : "近日，《行尸走肉》开发商 Telltale Inc 在官方 Twitter 向大家表示，《行尸走肉：第二季》将会在本月29 日中午12 点上架，也就是北京时间10月30日凌晨4点上架 App Store。后天就是万圣节了，这无疑是给鬼节助兴！ 行尸走肉2 《行尸走肉：第二季》将在第一季的基础....",
"emailed" : False,
"forwarded" : False,
"english" : False
}  , {
"index" : 13,
"articleIndex" : "20163",
"favor" :  False ,
     "read" : False,    
"title" : "《乐动时代》游戏评测：新功能爆受欢迎",
"titleTip" : "《乐动时代》游戏评测：新功能爆受欢迎",
"titleSummary" : "《乐动时代》游戏评测：新功能爆受欢迎",
"descSummary" : "众所周知，玩家对《乐动时代》的好评堪比滔滔江水！据说游戏...",
"url" : "http:\/\/go.rss.sina.com.cn\/redirect.php?url=http:\/\/games.sina.com.cn\/m\/n\/2013-10-29\/1056740325.shtml",
"pubDate" : "昨天10:56:58",
"enterDate" : "384181:57:17",
"channelId" : "8576299908815096720",
"channelName" : "手机游戏新闻-新浪游戏",
"channelNameSummary" : "手机游戏新闻-新浪游...",
"channelUrl" : "http:\/\/games.sina.com.cn\/news\/sjyx\/index.shtml",
"author" : "WWW.SINA.COM.CN",
"tags" : [],
"desc" : "众所周知，玩家对《乐动时代》的好评堪比滔滔江水！据说游戏本身充满了趣味性，而且其社交功能是其他手游无法比拟的强大！近期，《乐动时代》升级，新增加的功能更吸引了\u201C大波\u201D手游爱好者。快随小编去试玩一把！ 乐动时代 《乐动时代》曲库真心丰富！60首从《乐动....",
"emailed" : False,
"forwarded" : False,
"english" : False
}  , {
"index" : 14,
"articleIndex" : "20162",
"favor" :  False ,
     "read" : False,    
"title" : "萌宠大作战 《精灵联盟》超炫技能大盘点",
"titleTip" : "萌宠大作战 《精灵联盟》超炫技能大盘点",
"titleSummary" : "萌宠大作战 《精灵联盟》超炫技能大盘点",
"descSummary" : "精灵种类繁多，技能绚丽，丰富多样的PVP玩法，可谓是《精...",
"url" : "http:\/\/go.rss.sina.com.cn\/redirect.php?url=http:\/\/games.sina.com.cn\/m\/n\/2013-10-29\/1053740322.shtml",
"pubDate" : "昨天10:53:42",
"enterDate" : "384181:54:01",
"channelId" : "8576299908815096720",
"channelName" : "手机游戏新闻-新浪游戏",
"channelNameSummary" : "手机游戏新闻-新浪游...",
"channelUrl" : "http:\/\/games.sina.com.cn\/news\/sjyx\/index.shtml",
"author" : "WWW.SINA.COM.CN",
"tags" : [],
"desc" : "精灵种类繁多，技能绚丽，丰富多样的PVP玩法，可谓是《精灵联盟》中最吸引人的地方之一。享受酣畅淋漓的PVP战斗，与更多强悍的对手交锋，相信是很多玩家的追求。 在PK的过程中，各种细节不容小视，特别是对于各种技能的组合和运用，往往起到左右战局胜负的关键作用。那....",
"emailed" : False,
"forwarded" : False,
"english" : False
}  , {
"index" : 15,
"articleIndex" : "20161",
"favor" :  False ,
     "read" : False,    
"title" : "八成白领患手机依赖症：指尖毒瘾严重",
"titleTip" : "八成白领患手机依赖症：指尖毒瘾严重",
"titleSummary" : "八成白领患手机依赖症：指尖毒瘾严重",
"descSummary" : "深圳晚报记者 李瑶娜 伊宵鸿 无论走到哪里，小简都会将手机握在...",
"url" : "http:\/\/go.rss.sina.com.cn\/redirect.php?url=http:\/\/games.sina.com.cn\/m\/n\/2013-10-29\/1039740309.shtml",
"pubDate" : "昨天10:39:29",
"enterDate" : "384181:39:48",
"channelId" : "8576299908815096720",
"channelName" : "手机游戏新闻-新浪游戏",
"channelNameSummary" : "手机游戏新闻-新浪游...",
"channelUrl" : "http:\/\/games.sina.com.cn\/news\/sjyx\/index.shtml",
"author" : "WWW.SINA.COM.CN",
"tags" : [],
"desc" : "深圳晚报记者 李瑶娜 伊宵鸿 无论走到哪里，小简都会将手机握在手里，就连过马路等红灯，吃饭等上菜的空隙，她都要刷几下手机屏幕，看看微信朋友圈有什么动态，QQ有没有留言。在使用智能机前，小简的手机只是用来接打电话或发短信的。\u201C自从用了智能手机，我一定得时刻....",
"emailed" : False,
"forwarded" : False,
"english" : False
}  , {
"index" : 16,
"articleIndex" : "20160",
"favor" :  False ,
     "read" : False,    
"title" : "我叫MT11月登陆PC\/WP 全线叫板暴雪",
"titleTip" : "我叫MT11月登陆PC\/WP 全线叫板暴雪",
"titleSummary" : "我叫MT11月登陆PC\/WP 全线叫板暴雪",
"descSummary" : "作为国内起步最早的魔兽主题卡牌手游，《我叫MT》在暴雪《炉...",
"url" : "http:\/\/go.rss.sina.com.cn\/redirect.php?url=http:\/\/games.sina.com.cn\/m\/n\/2013-10-29\/1021740297.shtml",
"pubDate" : "昨天10:21:02",
"enterDate" : "384181:21:21",
"channelId" : "8576299908815096720",
"channelName" : "手机游戏新闻-新浪游戏",
"channelNameSummary" : "手机游戏新闻-新浪游...",
"channelUrl" : "http:\/\/games.sina.com.cn\/news\/sjyx\/index.shtml",
"author" : "WWW.SINA.COM.CN",
"tags" : [],
"desc" : "作为国内起步最早的魔兽主题卡牌手游，《我叫MT》在暴雪《炉石传说：魔兽英雄传》被引进国内之后受到了比以往更多的关注。不过，事实证明《我叫MT》对然面对官方正统作品的挑战，但依旧保持有比较固定的玩家群体。 据媒体报道，开发商卓越游戏昨天在北京举办了国内首场....",
"emailed" : False,
"forwarded" : False,
"english" : False
}  , {
"index" : 17,
"articleIndex" : "20159",
"favor" :  False ,
     "read" : False,    
"title" : "畅游财报解读 天龙八部移动版受重视",
"titleTip" : "畅游财报解读 天龙八部移动版受重视",
"titleSummary" : "畅游财报解读 天龙八部移动版受重视",
"descSummary" : "【新浪游戏微博报道，敬请关注@新浪游戏】 北京时间10月28日晚...",
"url" : "http:\/\/go.rss.sina.com.cn\/redirect.php?url=http:\/\/games.sina.com.cn\/m\/n\/2013-10-29\/1020740296.shtml",
"pubDate" : "昨天10:20:40",
"enterDate" : "384181:20:59",
"channelId" : "8576299908815096720",
"channelName" : "手机游戏新闻-新浪游戏",
"channelNameSummary" : "手机游戏新闻-新浪游...",
"channelUrl" : "http:\/\/games.sina.com.cn\/news\/sjyx\/index.shtml",
"author" : "WWW.SINA.COM.CN",
"tags" : [],
"desc" : "【新浪游戏微博报道，敬请关注@新浪游戏】 北京时间10月28日晚间消息，畅游(Nasdaq:CYOU)今天发布了截至2013年9月30日的第三财季财报。财报显示，畅游第三季度营收为1.83亿美元，同比增长10%；按非美国会计准则计算，归属畅游的净利润为7320万美元，同比下滑4%。 畅....",
"emailed" : False,
"forwarded" : False,
"english" : False
}  , {
"index" : 18,
"articleIndex" : "20158",
"favor" :  False ,
     "read" : False,    
"title" : "应书岭：不遗余力帮助手游开发做发行",
"titleTip" : "应书岭：不遗余力帮助手游开发做发行",
"titleSummary" : "应书岭：不遗余力帮助手游开发做发行",
"descSummary" : "013年末，手游行业竞争趋于白热化。在不到一年的时间里，手游...",
"url" : "http:\/\/go.rss.sina.com.cn\/redirect.php?url=http:\/\/games.sina.com.cn\/m\/n\/2013-10-29\/1015740287.shtml",
"pubDate" : "昨天10:15:13",
"enterDate" : "384181:15:32",
"channelId" : "8576299908815096720",
"channelName" : "手机游戏新闻-新浪游戏",
"channelNameSummary" : "手机游戏新闻-新浪游...",
"channelUrl" : "http:\/\/games.sina.com.cn\/news\/sjyx\/index.shtml",
"author" : "WWW.SINA.COM.CN",
"tags" : [],
"desc" : "013年末，手游行业竞争趋于白热化。在不到一年的时间里，手游已经走完了页游和端游几年的路，运营门槛已经提升到相当高的水平。那么小微开发团队怎样才有机会突破重围？日前中国手游集团总裁应书岭在接受新浪游戏采访时表示，非常欢迎小微手游开发商找我们做发行，只要是优质....",
"emailed" : False,
"forwarded" : False,
"english" : False
}  , {
"index" : 19,
"articleIndex" : "20157",
"favor" :  False ,
     "read" : False,    
"title" : "狂欢万圣节 多酷手机游戏豪礼巨献",
"titleTip" : "狂欢万圣节 多酷手机游戏豪礼巨献",
"titleSummary" : "狂欢万圣节 多酷手机游戏豪礼巨献",
"descSummary" : "饕餮盛宴献礼万圣节，多酷手游携旗下热门游戏重金打造狂欢万圣节活...",
"url" : "http:\/\/go.rss.sina.com.cn\/redirect.php?url=http:\/\/games.sina.com.cn\/m\/n\/2013-10-29\/1003740276.shtml",
"pubDate" : "昨天10:03:56",
"enterDate" : "384181:04:15",
"channelId" : "8576299908815096720",
"channelName" : "手机游戏新闻-新浪游戏",
"channelNameSummary" : "手机游戏新闻-新浪游...",
"channelUrl" : "http:\/\/games.sina.com.cn\/news\/sjyx\/index.shtml",
"author" : "WWW.SINA.COM.CN",
"tags" : [],
"desc" : "饕餮盛宴献礼万圣节，多酷手游携旗下热门游戏重金打造狂欢万圣节活动，无论你是\u201C单机粉\u201D，还是\u201C网游粉\u201D，只要参与万圣节活动都将有机会收获多酷手游送去的金秋福利，饕餮盛宴邀君品尝！丰厚的游戏奖励，新鲜的活动玩法，边玩边乐还有大奖免费拿，赶紧来多酷手游一探究竟吧....",
"emailed" : False,
"forwarded" : False,
"english" : False
} ]
}
