{
"mode" : {"viewTitle" : 1,   "viewNew" : 0,  "pageIndex" : 1 },
 "channel" : {"id" : "-6751394960970850153", "booked" : False, "subNumber" : 262, "name" : "国内要闻-新浪新闻", "url" : "http:\/\/news.sina.com.cn\/491\/2008\/0827\/1.html", "feed" : "http:\/\/rss.sina.com.cn\/news\/china\/focus15.xml", "author" : "WWW.SINA.COM.CN", "desc" : "国内要闻列表", "imageUrl" : "http:\/\/www.sinaimg.cn\/home\/deco\/2009\/0330\/logo_home_news.gif", "postPerWeek" : "0", "lastCrawTime" : "2013年10月26日 (4天前)", "crawDateTime" : "2013年10月26日 (4天前)", "lastHttpCode" : "200"}, "page" : {
"startIndex" : 0,
"totalCount" : 5000,
"pageIndex" : 1,
"lastPage" : 250,
"pageSize" : 20,
"english" :  False },
 "unreadNum" : 0, "shotIndex" : -1,
"articles" : [
{
"index" : 0,
"articleIndex" : "485411",
"favor" :  False ,
     "read" : False,    
"title" : "拉美和加勒比地区100余万人处于被奴役状态",
"titleTip" : "拉美和加勒比地区100余万人处于被奴役状态",
"titleSummary" : "拉美和加勒比地区100余万人处于被奴役状态",
"descSummary" : "人民网10月26日讯 据西班牙《起义报》今天报道，尽管几乎...",
"url" : "http:\/\/go.rss.sina.com.cn\/redirect.php?url=http:\/\/news.sina.com.cn\/w\/2013-10-26\/175528539528.shtml",
"pubDate" : "2013年10月26日 (4天前)",
"enterDate" : "384200:42:29",
"channelId" : "-6751394960970850153",
"channelName" : "国内要闻-新浪新闻",
"channelNameSummary" : "国内要闻-新浪新闻",
"channelUrl" : "http:\/\/news.sina.com.cn\/491\/2008\/0827\/1.html",
"author" : "WWW.SINA.COM.CN",
"tags" : [],
"desc" : "人民网10月26日讯 据西班牙《起义报》今天报道，尽管几乎全世界都禁止奴役，但是世界上仍有约3000万人是这个邪恶制度的受害者，他们因债务、强迫婚姻、孩子被卖爱剥削、人口被贩卖，或是被强制劳动而遭受奴役。在拉丁美洲和加勒比地区有110多万人处于被奴役的状态。 研....",
"emailed" : False,
"forwarded" : False,
"english" : False
}  , {
"index" : 1,
"articleIndex" : "485410",
"favor" :  False ,
     "read" : False,    
"title" : "俄总理:中国是俄可靠战略伙伴 不应该害怕中国",
"titleTip" : "俄总理:中国是俄可靠战略伙伴 不应该害怕中国",
"titleSummary" : "俄总理:中国是俄可靠战略伙伴 不应该害怕中国",
"descSummary" : "新华网莫斯科10月26日电(记者胡晓光)俄罗斯总理梅德韦杰...",
"url" : "http:\/\/go.rss.sina.com.cn\/redirect.php?url=http:\/\/news.sina.com.cn\/w\/2013-10-26\/174128539501.shtml",
"pubDate" : "2013年10月26日 (4天前)",
"enterDate" : "384200:29:14",
"channelId" : "-6751394960970850153",
"channelName" : "国内要闻-新浪新闻",
"channelNameSummary" : "国内要闻-新浪新闻",
"channelUrl" : "http:\/\/news.sina.com.cn\/491\/2008\/0827\/1.html",
"author" : "WWW.SINA.COM.CN",
"tags" : [],
"desc" : "新华网莫斯科10月26日电(记者胡晓光)俄罗斯总理梅德韦杰夫26日说，中国是俄非常重要和可靠的战略伙伴，俄应该做的不是害怕积极发展中的中国，而是与中国开展高技术合作。 梅德韦杰夫在俄罗斯电视台当天播出的访谈中说，中国是俄罗斯的邻居，两国的历史甚至在很大程度上....",
"emailed" : False,
"forwarded" : False,
"english" : False
}  , {
"index" : 2,
"articleIndex" : "485406",
"favor" :  False ,
     "read" : False,    
"title" : "国防部：日本击落无人机是战争行为中国必反击",
"titleTip" : "国防部：日本击落无人机是战争行为中国必反击",
"titleSummary" : "国防部：日本击落无人机是战争行为中国必反击",
"descSummary" : "",
"url" : "http:\/\/go.rss.sina.com.cn\/redirect.php?url=http:\/\/mil.news.sina.com.cn\/2013-10-26\/1704746407.html",
"pubDate" : "2013年10月26日 (4天前)",
"enterDate" : "384200:59:39",
"channelId" : "-6751394960970850153",
"channelName" : "国内要闻-新浪新闻",
"channelNameSummary" : "国内要闻-新浪新闻",
"channelUrl" : "http:\/\/news.sina.com.cn\/491\/2008\/0827\/1.html",
"author" : "WWW.SINA.COM.CN",
"tags" : [],
"desc" : "",
"emailed" : False,
"forwarded" : False,
"english" : False
}  , {
"index" : 3,
"articleIndex" : "485409",
"favor" :  False ,
     "read" : False,    
"title" : "刘云山：对反映强烈问题专项整治做到准狠韧",
"titleTip" : "刘云山：对反映强烈问题专项整治做到准狠韧",
"titleSummary" : "刘云山：对反映强烈问题专项整治做到准狠韧",
"descSummary" : "刘云山在中央党的群众路线教育实践活动领导小组会议上强...",
"url" : "http:\/\/go.rss.sina.com.cn\/redirect.php?url=http:\/\/news.sina.com.cn\/c\/2013-10-26\/170928539437.shtml",
"pubDate" : "2013年10月26日 (4天前)",
"enterDate" : "384200:27:31",
"channelId" : "-6751394960970850153",
"channelName" : "国内要闻-新浪新闻",
"channelNameSummary" : "国内要闻-新浪新闻",
"channelUrl" : "http:\/\/news.sina.com.cn\/491\/2008\/0827\/1.html",
"author" : "WWW.SINA.COM.CN",
"tags" : [],
"desc" : "刘云山在中央党的群众路线教育实践活动领导小组会议上强调 以扎实有力的措施抓好整改落实 新华网北京10月26日电 中共中央政治局常委、中央党的群众路线教育实践活动领导小组组长刘云山26日在京主持召开中央党的群众路线教育实践活动领导小组第五次会议，学习贯....",
"emailed" : False,
"forwarded" : False,
"english" : False
}  , {
"index" : 4,
"articleIndex" : "485405",
"favor" :  False ,
     "read" : False,    
"title" : "陈永洲案引发的四大质疑",
"titleTip" : "陈永洲案引发的四大质疑",
"titleSummary" : "陈永洲案引发的四大质疑",
"descSummary" : "一、对央视的质疑 1、在法庭审判前，央视是否有权前往看守所采访嫌疑人？2...",
"url" : "http:\/\/go.rss.sina.com.cn\/redirect.php?url=http:\/\/news.sina.com.cn\/pl\/2013-10-26\/170728539381.shtml",
"pubDate" : "2013年10月26日 (4天前)",
"enterDate" : "384200:55:01",
"channelId" : "-6751394960970850153",
"channelName" : "国内要闻-新浪新闻",
"channelNameSummary" : "国内要闻-新浪新闻",
"channelUrl" : "http:\/\/news.sina.com.cn\/491\/2008\/0827\/1.html",
"author" : "WWW.SINA.COM.CN",
"tags" : [],
"desc" : "一、对央视的质疑 1、在法庭审判前，央视是否有权前往看守所采访嫌疑人？ 2、电视上播出嫌疑人的口供，是否侵犯嫌疑人的隐私权？ 3、央视的报道是否干预司法，未审先判？ 二、对长沙警方的质疑 1、长沙警方刑拘记者在程序上是否合法、有无....",
"emailed" : False,
"forwarded" : False,
"english" : False
}  , {
"index" : 5,
"articleIndex" : "485408",
"favor" :  False ,
     "read" : False,    
"title" : "北京4家大药房今起9折售奶粉 扫码即可溯源",
"titleTip" : "北京4家大药房今起9折售奶粉 扫码即可溯源",
"titleSummary" : "北京4家大药房今起9折售奶粉 扫码即可溯源",
"descSummary" : "央广网北京10月26日消息(记者马 张棉棉)据中国之声《新闻...",
"url" : "http:\/\/go.rss.sina.com.cn\/redirect.php?url=http:\/\/news.sina.com.cn\/c\/2013-10-26\/170328539455.shtml",
"pubDate" : "2013年10月26日 (4天前)",
"enterDate" : "384200:20:35",
"channelId" : "-6751394960970850153",
"channelName" : "国内要闻-新浪新闻",
"channelNameSummary" : "国内要闻-新浪新闻",
"channelUrl" : "http:\/\/news.sina.com.cn\/491\/2008\/0827\/1.html",
"author" : "WWW.SINA.COM.CN",
"tags" : [],
"desc" : "央广网北京10月26日消息(记者马 张棉棉)据中国之声《新闻晚高峰》报道，备受关注的\"奶粉进药店\"试点今天终于开始进入全面的公共测试阶段，11家奶粉企业最终确定进驻药店，北京四家大药房的5个门店率先开卖。奶粉进药店，究竟能否行得通？ 北京朝阳门外的永安堂药店是....",
"emailed" : False,
"forwarded" : False,
"english" : False
}  , {
"index" : 6,
"articleIndex" : "485404",
"favor" :  False ,
     "read" : False,    
"title" : "联合国人权工作组通过中国国别人权审查报告",
"titleTip" : "联合国人权工作组通过中国国别人权审查报告",
"titleSummary" : "联合国人权工作组通过中国国别人权审查报告",
"descSummary" : "原标题：联合国人权理事会工作组通过中国国别人权审查报...",
"url" : "http:\/\/go.rss.sina.com.cn\/redirect.php?url=http:\/\/news.sina.com.cn\/c\/2013-10-26\/165928539378.shtml",
"pubDate" : "2013年10月26日 (4天前)",
"enterDate" : "384200:46:39",
"channelId" : "-6751394960970850153",
"channelName" : "国内要闻-新浪新闻",
"channelNameSummary" : "国内要闻-新浪新闻",
"channelUrl" : "http:\/\/news.sina.com.cn\/491\/2008\/0827\/1.html",
"author" : "WWW.SINA.COM.CN",
"tags" : [],
"desc" : "原标题：联合国人权理事会工作组通过中国国别人权审查报告 联合国人权理事会国别人权审查工作组第17次会议25日在日内瓦顺利通过了中国接受国别人权审查报告。中方认为，审查报告客观记录了工作组对中国的审查情况，绝大部分内容都积极评价了中国的人权状况。 国....",
"emailed" : False,
"forwarded" : False,
"english" : False
}  , {
"index" : 7,
"articleIndex" : "485407",
"favor" :  False ,
     "read" : False,    
"title" : "少将：中日之间不是\u201C一山不容二虎\u201D关系",
"titleTip" : "少将：中日之间不是\u201C一山不容二虎\u201D关系",
"titleSummary" : "少将：中日之间不是\u201C一山不容二虎\u201D关系",
"descSummary" : "人民网北京10月26日电 (张洁娴)26日，第九届北京-东京论坛...",
"url" : "http:\/\/go.rss.sina.com.cn\/redirect.php?url=http:\/\/news.sina.com.cn\/c\/2013-10-26\/165628539420.shtml",
"pubDate" : "2013年10月26日 (4天前)",
"enterDate" : "384200:13:35",
"channelId" : "-6751394960970850153",
"channelName" : "国内要闻-新浪新闻",
"channelNameSummary" : "国内要闻-新浪新闻",
"channelUrl" : "http:\/\/news.sina.com.cn\/491\/2008\/0827\/1.html",
"author" : "WWW.SINA.COM.CN",
"tags" : [],
"desc" : "人民网北京10月26日电 (张洁娴)26日，第九届北京\u2015东京论坛在京开幕。在下午举行的外交・安全保障分论坛上，中日双方与会学者围绕\u201C东亚稳定与争端的和平解决\u201D这一主题，展开对话与交流。国防大学战略研究所前所长杨毅少将在发言中表示，中日双方应努力促进地区稳定，不要出....",
"emailed" : False,
"forwarded" : False,
"english" : False
}  , {
"index" : 8,
"articleIndex" : "485403",
"favor" :  False ,
     "read" : False,    
"title" : "伊朗处死16名反政府囚犯 回应边防人员被杀",
"titleTip" : "伊朗处死16名反政府囚犯 回应边防人员被杀",
"titleSummary" : "伊朗处死16名反政府囚犯 回应边防人员被杀",
"descSummary" : "中新网10月26日电 据外电报道，伊朗与巴基斯坦边境地区25...",
"url" : "http:\/\/go.rss.sina.com.cn\/redirect.php?url=http:\/\/news.sina.com.cn\/w\/2013-10-26\/165128539352.shtml",
"pubDate" : "2013年10月26日 (4天前)",
"enterDate" : "384200:38:39",
"channelId" : "-6751394960970850153",
"channelName" : "国内要闻-新浪新闻",
"channelNameSummary" : "国内要闻-新浪新闻",
"channelUrl" : "http:\/\/news.sina.com.cn\/491\/2008\/0827\/1.html",
"author" : "WWW.SINA.COM.CN",
"tags" : [],
"desc" : "中新网10月26日电 据外电报道，伊朗与巴基斯坦边境地区25日晚间发生冲突事件，14名伊朗边防人员遭枪击死亡。随后，伊朗当局处死了16名囚犯。 据报道，伊朗萨拉万地区25日晚发生武装冲突，14名边防人员在与枪手的交火中死亡，另有5人受伤。目前只能确定枪手为土匪或反对....",
"emailed" : False,
"forwarded" : False,
"english" : False
}  , {
"index" : 9,
"articleIndex" : "485402",
"favor" :  False ,
     "read" : False,    
"title" : "广州拟规定公务员禁入社会组织 退休兼任须审批",
"titleTip" : "广州拟规定公务员禁入社会组织 退休兼任须审批",
"titleSummary" : "广州拟规定公务员禁入社会组织 退休兼任须审批",
"descSummary" : "新华网广州10月26日电 (记者肖思思)记者从广州市民政...",
"url" : "http:\/\/go.rss.sina.com.cn\/redirect.php?url=http:\/\/news.sina.com.cn\/c\/2013-10-26\/164228539345.shtml",
"pubDate" : "2013年10月26日 (4天前)",
"enterDate" : "384200:29:46",
"channelId" : "-6751394960970850153",
"channelName" : "国内要闻-新浪新闻",
"channelNameSummary" : "国内要闻-新浪新闻",
"channelUrl" : "http:\/\/news.sina.com.cn\/491\/2008\/0827\/1.html",
"author" : "WWW.SINA.COM.CN",
"tags" : [],
"desc" : "新华网广州10月26日电 (记者肖思思)记者从广州市民政局了解到，新制定的《广州市社会组织管理办法(草案征求意见稿)》正在向社会征求意见。办法首次以政府规章形式，明确规定现职公务员禁入社会组织，以及接受捐赠后15个工作日内向社会披露信息。 办法进一步明确了允许....",
"emailed" : False,
"forwarded" : False,
"english" : False
}  , {
"index" : 10,
"articleIndex" : "485401",
"favor" :  False ,
     "read" : False,    
"title" : "安倍称担心中国加强军备 日本应领导亚太安全",
"titleTip" : "安倍称担心中国加强军备 日本应领导亚太安全",
"titleSummary" : "安倍称担心中国加强军备 日本应领导亚太安全",
"descSummary" : "中新网10月26日电 据外媒报道，日本首相安倍晋三日前接...",
"url" : "http:\/\/go.rss.sina.com.cn\/redirect.php?url=http:\/\/news.sina.com.cn\/w\/2013-10-26\/163528539315.shtml",
"pubDate" : "2013年10月26日 (4天前)",
"enterDate" : "384200:52:44",
"channelId" : "-6751394960970850153",
"channelName" : "国内要闻-新浪新闻",
"channelNameSummary" : "国内要闻-新浪新闻",
"channelUrl" : "http:\/\/news.sina.com.cn\/491\/2008\/0827\/1.html",
"author" : "WWW.SINA.COM.CN",
"tags" : [],
"desc" : "中新网10月26日电 据外媒报道，日本首相安倍晋三日前接受了《华尔街日报》(The Wall Street Journal)的采访，安倍说：\u201C亚洲地区国家都担心中国正在加强军备\u201D，并表示日本不仅要在经济方面，而且要在亚太安全方面发挥领导作用。 安倍是在谈及他与亚洲领导人在本月早些....",
"emailed" : False,
"forwarded" : False,
"english" : False
}  , {
"index" : 11,
"articleIndex" : "485400",
"favor" :  False ,
     "read" : False,    
"title" : "羊城晚报头版:新快报记者收人钱财发表失实报道",
"titleTip" : "羊城晚报头版:新快报记者收人钱财发表失实报道",
"titleSummary" : "羊城晚报头版:新快报记者收人钱财发表失实报道",
"descSummary" : "新华社长沙10月26日电 \u201C如果我还有机会重新从事新闻...",
"url" : "http:\/\/go.rss.sina.com.cn\/redirect.php?url=http:\/\/news.sina.com.cn\/c\/2013-10-26\/163128539301.shtml",
"pubDate" : "2013年10月26日 (4天前)",
"enterDate" : "384200:49:06",
"channelId" : "-6751394960970850153",
"channelName" : "国内要闻-新浪新闻",
"channelNameSummary" : "国内要闻-新浪新闻",
"channelUrl" : "http:\/\/news.sina.com.cn\/491\/2008\/0827\/1.html",
"author" : "WWW.SINA.COM.CN",
"tags" : [],
"desc" : "新华社长沙10月26日电 \u201C如果我还有机会重新从事新闻工作的话，一定会遵守新闻工作的基本操守，公正、真实、客观、全面去报道新闻，不受利益的诱惑。\u201D日前，身处湖南长沙第一看守所的犯罪嫌疑人、新快报记者陈永洲向办案民警坦承，为显示自己有能耐、获取更多名利，其受人指....",
"emailed" : False,
"forwarded" : False,
"english" : False
}  , {
"index" : 12,
"articleIndex" : "485399",
"favor" :  False ,
     "read" : False,    
"title" : "波兰12岁女孩为去天国见爸爸自缢身亡(图)",
"titleTip" : "波兰12岁女孩为去天国见爸爸自缢身亡(图)",
"titleSummary" : "波兰12岁女孩为去天国见爸爸自缢身亡(图)",
"descSummary" : "【震撼：12岁女孩自缢 只为去天国见爸爸】英国《每日邮报》...",
"url" : "http:\/\/go.rss.sina.com.cn\/redirect.php?url=http:\/\/news.sina.com.cn\/w\/2013-10-26\/162728539280.shtml",
"pubDate" : "2013年10月26日 (4天前)",
"enterDate" : "384200:45:00",
"channelId" : "-6751394960970850153",
"channelName" : "国内要闻-新浪新闻",
"channelNameSummary" : "国内要闻-新浪新闻",
"channelUrl" : "http:\/\/news.sina.com.cn\/491\/2008\/0827\/1.html",
"author" : "WWW.SINA.COM.CN",
"tags" : [],
"desc" : "【震撼：12岁女孩自缢 只为去天国见爸爸】英国《每日邮报》报道，波兰一名叫玛利亚的12岁女孩，睡觉前自缢身亡，身边留一便条：\u201C亲爱的妈妈，请别难过，我只是太想爸爸了，我想去看看他。\u201D据妈妈讲，女孩爸爸4年前去世。女儿在学校表现很好，是个快乐的小女孩，\u201C我没想到她....",
"emailed" : False,
"forwarded" : False,
"english" : False
}  , {
"index" : 13,
"articleIndex" : "485398",
"favor" :  False ,
     "read" : False,    
"title" : "奥巴马参观学校旁听课程 趁机揶揄共和党",
"titleTip" : "奥巴马参观学校旁听课程 趁机揶揄共和党",
"titleSummary" : "奥巴马参观学校旁听课程 趁机揶揄共和党",
"descSummary" : "中新网10月26日电 据\u201C中央社\u201D报道，美国总统奥巴马25日造...",
"url" : "http:\/\/go.rss.sina.com.cn\/redirect.php?url=http:\/\/news.sina.com.cn\/w\/2013-10-26\/162628539336.shtml",
"pubDate" : "2013年10月26日 (4天前)",
"enterDate" : "384200:43:44",
"channelId" : "-6751394960970850153",
"channelName" : "国内要闻-新浪新闻",
"channelNameSummary" : "国内要闻-新浪新闻",
"channelUrl" : "http:\/\/news.sina.com.cn\/491\/2008\/0827\/1.html",
"author" : "WWW.SINA.COM.CN",
"tags" : [],
"desc" : "中新网10月26日电 据\u201C中央社\u201D报道，美国总统奥巴马25日造访纽约一所学校并旁听数学课，开玩笑说班上的女孩应该教他2个女儿如何算数，还趁机揶揄共和党，称不知道现在来不来得及让国会补上数学课。 报道称，奥巴马造访纽约市布鲁克林的科技进路大学预科学校(Pathways....",
"emailed" : False,
"forwarded" : False,
"english" : False
}  , {
"index" : 14,
"articleIndex" : "485396",
"favor" :  False ,
     "read" : False,    
"title" : "浙江义乌居民楼发生爆炸凶杀案1人死亡",
"titleTip" : "浙江义乌居民楼发生爆炸凶杀案1人死亡",
"titleSummary" : "浙江义乌居民楼发生爆炸凶杀案1人死亡",
"descSummary" : "中新网义乌10月26日电 (记者 邵燕飞 通讯员 陈正明)10月26日5时...",
"url" : "http:\/\/go.rss.sina.com.cn\/redirect.php?url=http:\/\/news.sina.com.cn\/c\/2013-10-26\/162328539304.shtml",
"pubDate" : "2013年10月26日 (4天前)",
"enterDate" : "384200:40:44",
"channelId" : "-6751394960970850153",
"channelName" : "国内要闻-新浪新闻",
"channelNameSummary" : "国内要闻-新浪新闻",
"channelUrl" : "http:\/\/news.sina.com.cn\/491\/2008\/0827\/1.html",
"author" : "WWW.SINA.COM.CN",
"tags" : [],
"desc" : "中新网义乌10月26日电 (记者 邵燕飞 通讯员 陈正明)10月26日5时13分，浙江义乌北苑街道四季小区某幢2楼发生煤气罐爆炸着火，爆炸现场发现女尸一具，经警方初步调查是一起故意杀人案。 2013年10月26日凌晨5点10分，义乌北苑街道四季四区发生爆炸，爆炸房屋四周墙壁完全....",
"emailed" : False,
"forwarded" : False,
"english" : False
}  , {
"index" : 15,
"articleIndex" : "485397",
"favor" :  False ,
     "read" : False,    
"title" : "邹家华叶选平任广东嘉应学院永远荣誉董事长",
"titleTip" : "邹家华叶选平任广东嘉应学院永远荣誉董事长",
"titleSummary" : "邹家华叶选平任广东嘉应学院永远荣誉董事长",
"descSummary" : "中新网梅州10月26日电 (杨草原 唐林珍 吴志坚)26日，广东...",
"url" : "http:\/\/go.rss.sina.com.cn\/redirect.php?url=http:\/\/news.sina.com.cn\/c\/2013-10-26\/162328539328.shtml",
"pubDate" : "2013年10月26日 (4天前)",
"enterDate" : "384200:40:44",
"channelId" : "-6751394960970850153",
"channelName" : "国内要闻-新浪新闻",
"channelNameSummary" : "国内要闻-新浪新闻",
"channelUrl" : "http:\/\/news.sina.com.cn\/491\/2008\/0827\/1.html",
"author" : "WWW.SINA.COM.CN",
"tags" : [],
"desc" : "中新网梅州10月26日电 (杨草原 唐林珍 吴志坚)26日，广东梅州嘉应学院在即将迎来百年华诞之际，举行第四届董事会成立大会。会议通过了第四届董事会人员名单，中共中央政治局原委员、全国人大常委会原副委员长邹家华、全国第七、八、九届政协第一副主席叶选平等担任嘉应学院董....",
"emailed" : False,
"forwarded" : False,
"english" : False
}  , {
"index" : 16,
"articleIndex" : "485395",
"favor" :  False ,
     "read" : False,    
"title" : "男子感情受挫欲跳楼 警察与其聊超级玛丽施救",
"titleTip" : "男子感情受挫欲跳楼 警察与其聊超级玛丽施救",
"titleSummary" : "男子感情受挫欲跳楼 警察与其聊超级玛丽施救",
"descSummary" : "早报讯(记者 吴水保 黄祖祥 通讯员 庄凌龙 陈文杰)昨日凌...",
"url" : "http:\/\/go.rss.sina.com.cn\/redirect.php?url=http:\/\/news.sina.com.cn\/s\/2013-10-26\/161228539242.shtml",
"pubDate" : "2013年10月26日 (4天前)",
"enterDate" : "384200:30:03",
"channelId" : "-6751394960970850153",
"channelName" : "国内要闻-新浪新闻",
"channelNameSummary" : "国内要闻-新浪新闻",
"channelUrl" : "http:\/\/news.sina.com.cn\/491\/2008\/0827\/1.html",
"author" : "WWW.SINA.COM.CN",
"tags" : [],
"desc" : "早报讯(记者 吴水保 黄祖祥 通讯员 庄凌龙 陈文杰)昨日凌晨5时许，22岁的湖北籍小伙子陈某因感情不顺，欲从晋江灵源街道某工厂宿舍4楼阳台跳下轻生。接报赶到现场的民警发现他酷爱\u201C超级玛丽\u201D等小游戏，便与他聊起游戏。1小时后，陈某放弃自杀念头。 \u201C我儿子想不开，....",
"emailed" : False,
"forwarded" : False,
"english" : False
}  , {
"index" : 17,
"articleIndex" : "485393",
"favor" :  False ,
     "read" : False,    
"title" : "浙江省政协向社会公开征集提案线索",
"titleTip" : "浙江省政协向社会公开征集提案线索",
"titleSummary" : "浙江省政协向社会公开征集提案线索",
"descSummary" : "新华网杭州10月26日电 (记者 岳德亮)从10月25日开始至11月11日，...",
"url" : "http:\/\/go.rss.sina.com.cn\/redirect.php?url=http:\/\/news.sina.com.cn\/c\/2013-10-26\/160328539235.shtml",
"pubDate" : "2013年10月26日 (4天前)",
"enterDate" : "384200:51:23",
"channelId" : "-6751394960970850153",
"channelName" : "国内要闻-新浪新闻",
"channelNameSummary" : "国内要闻-新浪新闻",
"channelUrl" : "http:\/\/news.sina.com.cn\/491\/2008\/0827\/1.html",
"author" : "WWW.SINA.COM.CN",
"tags" : [],
"desc" : "新华网杭州10月26日电 (记者 岳德亮)从10月25日开始至11月11日，浙江省政协向社会各界公开征集政协提案线索，单位或个人可以通过网络递交、邮寄等方式提供线索。 浙江省政协提案委办公室相关人士表示，提案线索要地方重要事务，群众关心的热点、难点问题，包括围绕抓改....",
"emailed" : False,
"forwarded" : False,
"english" : False
}  , {
"index" : 18,
"articleIndex" : "485394",
"favor" :  False ,
     "read" : False,    
"title" : "朱成虎少将：中国军力发展绝不针对日本",
"titleTip" : "朱成虎少将：中国军力发展绝不针对日本",
"titleSummary" : "朱成虎少将：中国军力发展绝不针对日本",
"descSummary" : "人民网北京10月26日电 (张洁娴)26日，第九届北京-东京论坛在...",
"url" : "http:\/\/go.rss.sina.com.cn\/redirect.php?url=http:\/\/news.sina.com.cn\/c\/2013-10-26\/160128539273.shtml",
"pubDate" : "2013年10月26日 (4天前)",
"enterDate" : "384200:18:44",
"channelId" : "-6751394960970850153",
"channelName" : "国内要闻-新浪新闻",
"channelNameSummary" : "国内要闻-新浪新闻",
"channelUrl" : "http:\/\/news.sina.com.cn\/491\/2008\/0827\/1.html",
"author" : "WWW.SINA.COM.CN",
"tags" : [],
"desc" : "人民网北京10月26日电 (张洁娴)26日，第九届北京-东京论坛在京开幕。在下午举行的外交・安全保障分论坛上，中日双方与会学者围绕\u201C东亚稳定与争端的和平解决\u201D这一主题，展开对话与交流。国防大学防务学院前院长、国防大学战略教研部原主任朱成虎少将在会上表示，中国的军力发....",
"emailed" : False,
"forwarded" : False,
"english" : False
}  , {
"index" : 19,
"articleIndex" : "485392",
"favor" :  False ,
     "read" : False,    
"title" : "云南官员强奸幼女案受害人获赔15万元",
"titleTip" : "云南官员强奸幼女案受害人获赔15万元",
"titleSummary" : "云南官员强奸幼女案受害人获赔15万元",
"descSummary" : "云南大关官员强奸幼女案后续：双方达成民事和解 受害人获赔15...",
"url" : "http:\/\/go.rss.sina.com.cn\/redirect.php?url=http:\/\/news.sina.com.cn\/c\/2013-10-26\/155228539201.shtml",
"pubDate" : "2013年10月26日 (4天前)",
"enterDate" : "384200:40:17",
"channelId" : "-6751394960970850153",
"channelName" : "国内要闻-新浪新闻",
"channelNameSummary" : "国内要闻-新浪新闻",
"channelUrl" : "http:\/\/news.sina.com.cn\/491\/2008\/0827\/1.html",
"author" : "WWW.SINA.COM.CN",
"tags" : [],
"desc" : "云南大关官员强奸幼女案后续：双方达成民事和解 受害人获赔15万元 新华网昆明10月26日电(记者何春好)10月25日下午，云南省昭通市大关县官员郭玉驰强奸4岁幼女一案双方达成民事和解，郭玉驰一次性赔偿受害人15万元，受害人法定代理人已向法院申请撤回附带民事诉讼状。....",
"emailed" : False,
"forwarded" : False,
"english" : False
} ]
}
