{
"mode" : {"viewTitle" : 1,   "viewNew" : 0,  "pageIndex" : 2 },
 "channel" : {"id" : "-6751394960970850153", "booked" : False, "subNumber" : 262, "name" : "国内要闻-新浪新闻", "url" : "http:\/\/news.sina.com.cn\/491\/2008\/0827\/1.html", "feed" : "http:\/\/rss.sina.com.cn\/news\/china\/focus15.xml", "author" : "WWW.SINA.COM.CN", "desc" : "国内要闻列表", "imageUrl" : "http:\/\/www.sinaimg.cn\/home\/deco\/2009\/0330\/logo_home_news.gif", "postPerWeek" : "0", "lastCrawTime" : "2013年10月26日 (4天前)", "crawDateTime" : "2013年10月26日 (4天前)", "lastHttpCode" : "200"}, "page" : {
"startIndex" : 20,
"totalCount" : 5000,
"pageIndex" : 2,
"lastPage" : 250,
"pageSize" : 20,
"english" :  False },
 "unreadNum" : 0, "shotIndex" : -1,
"articles" : [
{
"index" : 0,
"articleIndex" : "485391",
"favor" :  False ,
     "read" : False,    
"title" : "卡梅伦称英国将不改变与美国情报合作关系",
"titleTip" : "卡梅伦称英国将不改变与美国情报合作关系",
"titleSummary" : "卡梅伦称英国将不改变与美国情报合作关系",
"descSummary" : "中新网10月26日电 据《华尔街日报》报道，英国首相卡梅伦...",
"url" : "http:\/\/go.rss.sina.com.cn\/redirect.php?url=http:\/\/news.sina.com.cn\/w\/2013-10-26\/154928539196.shtml",
"pubDate" : "2013年10月26日 (4天前)",
"enterDate" : "384200:36:49",
"channelId" : "-6751394960970850153",
"channelName" : "国内要闻-新浪新闻",
"channelNameSummary" : "国内要闻-新浪新闻",
"channelUrl" : "http:\/\/news.sina.com.cn\/491\/2008\/0827\/1.html",
"author" : "WWW.SINA.COM.CN",
"tags" : [],
"desc" : "中新网10月26日电 据《华尔街日报》报道，英国首相卡梅伦(David Cameron)周五(25日)表示，英国不会像德国和法国一样，重新评估与美国的情报合作关系，此前美国被曝监听德国总理默克尔(Angela Merkel)的私人手机。 默克尔和法国总统奥朗德24日称，德国和法国计划在年底....",
"emailed" : False,
"forwarded" : False,
"english" : False
}  , {
"index" : 1,
"articleIndex" : "485388",
"favor" :  False ,
     "read" : False,    
"title" : "宁夏通报5起违反八项规定典型问题",
"titleTip" : "宁夏通报5起违反八项规定典型问题",
"titleSummary" : "宁夏通报5起违反八项规定典型问题",
"descSummary" : "新华网银川10月26日电(记者 任玮)宁夏回族自治区纪委、监察厅日前...",
"url" : "http:\/\/go.rss.sina.com.cn\/redirect.php?url=http:\/\/news.sina.com.cn\/c\/2013-10-26\/154028539191.shtml",
"pubDate" : "2013年10月26日 (4天前)",
"enterDate" : "384200:58:33",
"channelId" : "-6751394960970850153",
"channelName" : "国内要闻-新浪新闻",
"channelNameSummary" : "国内要闻-新浪新闻",
"channelUrl" : "http:\/\/news.sina.com.cn\/491\/2008\/0827\/1.html",
"author" : "WWW.SINA.COM.CN",
"tags" : [],
"desc" : "新华网银川10月26日电(记者 任玮)宁夏回族自治区纪委、监察厅日前对5起违反中央八项规定精神和自治区若干规定的典型问题发出通报，要求全区广大党员干部特别是领导干部引以为戒，把中央和自治区的各项要求落到实处。 通报的5起典型问题是： 自治区新华书店原副....",
"emailed" : False,
"forwarded" : False,
"english" : False
}  , {
"index" : 2,
"articleIndex" : "485390",
"favor" :  False ,
     "read" : False,    
"title" : "农村秋收时节现招工难 折射村庄空心化趋势",
"titleTip" : "农村秋收时节现招工难 折射村庄空心化趋势",
"titleSummary" : "农村秋收时节现招工难 折射村庄空心化趋势",
"descSummary" : "新华网长春10月26日电 (记者 刘硕)在中国不少农村地区，每...",
"url" : "http:\/\/go.rss.sina.com.cn\/redirect.php?url=http:\/\/news.sina.com.cn\/c\/2013-10-26\/153728539159.shtml",
"pubDate" : "2013年10月26日 (4天前)",
"enterDate" : "384200:25:30",
"channelId" : "-6751394960970850153",
"channelName" : "国内要闻-新浪新闻",
"channelNameSummary" : "国内要闻-新浪新闻",
"channelUrl" : "http:\/\/news.sina.com.cn\/491\/2008\/0827\/1.html",
"author" : "WWW.SINA.COM.CN",
"tags" : [],
"desc" : "新华网长春10月26日电 (记者 刘硕)在中国不少农村地区，每到秋收时节，一家老小齐上阵的热闹场面曾十分常见，而如今这一场景已很难见到，取而代之的是田间劳动力锐减之后农业雇工的广泛兴起，即便这样，秋收大忙季节，仍有不少地方出现了\u201C招工难\u201D。 由于不少农民家中....",
"emailed" : False,
"forwarded" : False,
"english" : False
}  , {
"index" : 3,
"articleIndex" : "485387",
"favor" :  False ,
     "read" : False,    
"title" : "国研中心勾勒改革路线图 发改委副主任领衔制定",
"titleTip" : "国研中心勾勒改革路线图 发改委副主任领衔制定",
"titleSummary" : "国研中心勾勒改革路线图 发改委副主任领衔制定",
"descSummary" : "中新社北京10月26日电 (彭大伟)中共十八届三中全会将...",
"url" : "http:\/\/go.rss.sina.com.cn\/redirect.php?url=http:\/\/news.sina.com.cn\/c\/2013-10-26\/153528539157.shtml",
"pubDate" : "2013年10月26日 (4天前)",
"enterDate" : "384199:52:45",
"channelId" : "-6751394960970850153",
"channelName" : "国内要闻-新浪新闻",
"channelNameSummary" : "国内要闻-新浪新闻",
"channelUrl" : "http:\/\/news.sina.com.cn\/491\/2008\/0827\/1.html",
"author" : "WWW.SINA.COM.CN",
"tags" : [],
"desc" : "中新社北京10月26日电 (彭大伟)中共十八届三中全会将于11月召开，日前中国官方高层智囊机构国务院发展研究中心(国研中心)首次向社会公开了其为十八届三中全会提交的\u201C383\u201D改革方案总报告全文，勾勒出一幅详尽的改革\u201C路线图\u201D。 公开信息显示，负责方案制定的国研中心....",
"emailed" : False,
"forwarded" : False,
"english" : False
}  , {
"index" : 4,
"articleIndex" : "485389",
"favor" :  False ,
     "read" : False,    
"title" : "江西赣州:严打脐橙催熟染色维护赣南脐橙声誉",
"titleTip" : "江西赣州:严打脐橙催熟染色维护赣南脐橙声誉",
"titleSummary" : "江西赣州:严打脐橙催熟染色维护赣南脐橙声誉",
"descSummary" : "新华网南昌10月26日电(记者 郭强)近日网上有消息称：近...",
"url" : "http:\/\/go.rss.sina.com.cn\/redirect.php?url=http:\/\/news.sina.com.cn\/c\/2013-10-26\/151928539107.shtml",
"pubDate" : "2013年10月26日 (4天前)",
"enterDate" : "384200:07:07",
"channelId" : "-6751394960970850153",
"channelName" : "国内要闻-新浪新闻",
"channelNameSummary" : "国内要闻-新浪新闻",
"channelUrl" : "http:\/\/news.sina.com.cn\/491\/2008\/0827\/1.html",
"author" : "WWW.SINA.COM.CN",
"tags" : [],
"desc" : "新华网南昌10月26日电(记者 郭强)近日网上有消息称：近期市场上发现有经过\u201C催熟染色\u201D的赣南脐橙售卖。对此，赣州市回应称，\u201C催熟染色\u201D脐橙系个别不法商贩所为，赣州市将进一步开展大排查，严厉打击脐橙\u201C染色催熟\u201D行为，维护赣南脐橙声誉。 针对市场上出现的\u201C催....",
"emailed" : False,
"forwarded" : False,
"english" : False
}  , {
"index" : 5,
"articleIndex" : "485384",
"favor" :  False ,
     "read" : False,    
"title" : "视频：假摔的最高境界",
"titleTip" : "视频：假摔的最高境界",
"titleSummary" : "视频：假摔的最高境界",
"descSummary" : "世界上最强悍的家伙除了军人恐怕就是运动员了，他们强壮，阳刚，却一遍又一遍...",
"url" : "http:\/\/go.rss.sina.com.cn\/redirect.php?url=http:\/\/video.sina.com.cn\/p\/news\/gaoxiao\/v\/2013-10-26\/151863067757.html",
"pubDate" : "2013年10月26日 (4天前)",
"enterDate" : "384201:06:04",
"channelId" : "-6751394960970850153",
"channelName" : "国内要闻-新浪新闻",
"channelNameSummary" : "国内要闻-新浪新闻",
"channelUrl" : "http:\/\/news.sina.com.cn\/491\/2008\/0827\/1.html",
"author" : "WWW.SINA.COM.CN",
"tags" : [],
"desc" : "世界上最强悍的家伙除了军人恐怕就是运动员了，他们强壮，阳刚，却一遍又一遍的上演着假摔，本视频就将带你领略假摔的最高境界。",
"emailed" : False,
"forwarded" : False,
"english" : False
}  , {
"index" : 6,
"articleIndex" : "485383",
"favor" :  False ,
     "read" : False,    
"title" : "湖南非法经营期货交易案受害客户达3.9万人",
"titleTip" : "湖南非法经营期货交易案受害客户达3.9万人",
"titleSummary" : "湖南非法经营期货交易案受害客户达3.9万人",
"descSummary" : "新华网长沙10月26日电(记者陈文广、谭畅)发展省级代理商2...",
"url" : "http:\/\/go.rss.sina.com.cn\/redirect.php?url=http:\/\/news.sina.com.cn\/c\/2013-10-26\/151128539089.shtml",
"pubDate" : "2013年10月26日 (4天前)",
"enterDate" : "384200:59:32",
"channelId" : "-6751394960970850153",
"channelName" : "国内要闻-新浪新闻",
"channelNameSummary" : "国内要闻-新浪新闻",
"channelUrl" : "http:\/\/news.sina.com.cn\/491\/2008\/0827\/1.html",
"author" : "WWW.SINA.COM.CN",
"tags" : [],
"desc" : "新华网长沙10月26日电(记者陈文广、谭畅)发展省级代理商27家，注册客户达3.9万人，接受客户交易保证金逾20亿元。长沙市开福区法院25日对这一备受关注的\u201C维财金\u201D非法经营案作出一审公开宣判，被告人楚维、赵丹等十人因犯非法经营罪被判处有期徒刑14年至2年不等。 法院....",
"emailed" : False,
"forwarded" : False,
"english" : False
}  , {
"index" : 7,
"articleIndex" : "485382",
"favor" :  False ,
     "read" : False,    
"title" : "我国成功研发人感染H7N9禽流感病毒疫苗株",
"titleTip" : "我国成功研发人感染H7N9禽流感病毒疫苗株",
"titleSummary" : "我国成功研发人感染H7N9禽流感病毒疫苗株",
"descSummary" : "【我国成功研发用于生产疫苗的人感染H7N9禽流感病毒疫苗...",
"url" : "http:\/\/go.rss.sina.com.cn\/redirect.php?url=http:\/\/news.sina.com.cn\/c\/2013-10-26\/150928539074.shtml",
"pubDate" : "2013年10月26日 (4天前)",
"enterDate" : "384200:27:52",
"channelId" : "-6751394960970850153",
"channelName" : "国内要闻-新浪新闻",
"channelNameSummary" : "国内要闻-新浪新闻",
"channelUrl" : "http:\/\/news.sina.com.cn\/491\/2008\/0827\/1.html",
"author" : "WWW.SINA.COM.CN",
"tags" : [],
"desc" : "【我国成功研发用于生产疫苗的人感染H7N9禽流感病毒疫苗株】该病毒疫苗种子株由浙江大学医学院附属第一医院联合香港大学等单位协同攻关，已通过相关技术要求的全部检定，接下来可供给人感染H7N9禽流感病毒疫苗的生产厂家。这也首次打破和改变了我国流感疫苗株需由国外提供的历....",
"emailed" : False,
"forwarded" : False,
"english" : False
}  , {
"index" : 8,
"articleIndex" : "485386",
"favor" :  False ,
     "read" : False,    
"title" : "俞正声：三中全会改革范围力度空前",
"titleTip" : "俞正声：三中全会改革范围力度空前",
"titleSummary" : "俞正声：三中全会改革范围力度空前",
"descSummary" : "中新社南宁10月26日电 (记者 郑巧董会峰)中共中央政治局常委、全...",
"url" : "http:\/\/go.rss.sina.com.cn\/redirect.php?url=http:\/\/news.sina.com.cn\/c\/2013-10-26\/150928539136.shtml",
"pubDate" : "2013年10月26日 (4天前)",
"enterDate" : "384200:26:55",
"channelId" : "-6751394960970850153",
"channelName" : "国内要闻-新浪新闻",
"channelNameSummary" : "国内要闻-新浪新闻",
"channelUrl" : "http:\/\/news.sina.com.cn\/491\/2008\/0827\/1.html",
"author" : "WWW.SINA.COM.CN",
"tags" : [],
"desc" : "中新社南宁10月26日电 (记者 郑巧董会峰)中共中央政治局常委、全国政协主席俞正声26日在南宁发表演讲，特别提到中共十八届三中全会。 俞正声在第九届两岸经贸文化论坛开幕式上表示，下个月，我们将召开中共十八届三中全会。这次全会主要研究全面深化改革问题，统筹推进....",
"emailed" : False,
"forwarded" : False,
"english" : False
}  , {
"index" : 9,
"articleIndex" : "485381",
"favor" :  False ,
     "read" : False,    
"title" : "广州公务员被曝平均年收入超17万 官方称系错计",
"titleTip" : "广州公务员被曝平均年收入超17万 官方称系错计",
"titleSummary" : "广州公务员被曝平均年收入超17万 官方称系错计",
"descSummary" : "羊城晚报讯 记者严丽梅报道：广州市公务员年均工资+补...",
"url" : "http:\/\/go.rss.sina.com.cn\/redirect.php?url=http:\/\/news.sina.com.cn\/c\/2013-10-26\/150028538932.shtml",
"pubDate" : "2013年10月26日 (4天前)",
"enterDate" : "384200:48:08",
"channelId" : "-6751394960970850153",
"channelName" : "国内要闻-新浪新闻",
"channelNameSummary" : "国内要闻-新浪新闻",
"channelUrl" : "http:\/\/news.sina.com.cn\/491\/2008\/0827\/1.html",
"author" : "WWW.SINA.COM.CN",
"tags" : [],
"desc" : "羊城晚报讯 记者严丽梅报道：广州市公务员年均工资+补助17.51万元，人均前三甲分别为市外事办、市旅游局和市国资委，均超过20万元\/年；人均最低的12万元\/年左右；公务员的这一收入是全市普通市民平均收入的2.79倍；在这些部门中，有的部门人均住房保障支出超过5万元\/年，有的....",
"emailed" : False,
"forwarded" : False,
"english" : False
}  , {
"index" : 10,
"articleIndex" : "485385",
"favor" :  False ,
     "read" : False,    
"title" : "广州公积金提取政策被指10年数变 提取耗1个月",
"titleTip" : "广州公积金提取政策被指10年数变 提取耗1个月",
"titleSummary" : "广州公积金提取政策被指10年数变 提取耗1个月",
"descSummary" : "牛日成 昨日本埠媒体以\u201C公积金提取为何10年N变折磨人...",
"url" : "http:\/\/go.rss.sina.com.cn\/redirect.php?url=http:\/\/news.sina.com.cn\/c\/2013-10-26\/150028538961.shtml",
"pubDate" : "2013年10月26日 (4天前)",
"enterDate" : "384200:18:03",
"channelId" : "-6751394960970850153",
"channelName" : "国内要闻-新浪新闻",
"channelNameSummary" : "国内要闻-新浪新闻",
"channelUrl" : "http:\/\/news.sina.com.cn\/491\/2008\/0827\/1.html",
"author" : "WWW.SINA.COM.CN",
"tags" : [],
"desc" : "□牛日成 昨日本埠媒体以\u201C公积金提取为何10年N变折磨人\u201D为题，报道广州住房公积金提取政策屡变给市民带来诸多麻烦。有市民吐槽：不知道以后又会怎么变，有关部门为什么不能制定一个长期而有效的政策？ 自2003年以来广州公积金提取政策多变是不争的事实，除了....",
"emailed" : False,
"forwarded" : False,
"english" : False
}  , {
"index" : 11,
"articleIndex" : "485380",
"favor" :  False ,
     "read" : False,    
"title" : "视频：农业部证实转基因大米动物喂养试验",
"titleTip" : "视频：农业部证实转基因大米动物喂养试验",
"titleSummary" : "视频：农业部证实转基因大米动物喂养试验",
"descSummary" : "农业部转基因专项管理办公室证实，2012年时，委托中国食...",
"url" : "http:\/\/go.rss.sina.com.cn\/redirect.php?url=http:\/\/video.sina.com.cn\/p\/news\/c\/v\/2013-10-26\/145863067719.html",
"pubDate" : "2013年10月26日 (4天前)",
"enterDate" : "384200:46:47",
"channelId" : "-6751394960970850153",
"channelName" : "国内要闻-新浪新闻",
"channelNameSummary" : "国内要闻-新浪新闻",
"channelUrl" : "http:\/\/news.sina.com.cn\/491\/2008\/0827\/1.html",
"author" : "WWW.SINA.COM.CN",
"tags" : [],
"desc" : "农业部转基因专项管理办公室证实，2012年时，委托中国食品药品鉴定研究院和中国农业大学以转基因水稻为研究对象，选取了猕猴、小型猪等动物进行系统的代谢免疫，生殖、发育评价研究，对此次开展转基因动物实验的目的，农业部转基因专项管理办公室表示，只是为了在科研层面提供....",
"emailed" : False,
"forwarded" : False,
"english" : False
}  , {
"index" : 12,
"articleIndex" : "485379",
"favor" :  False ,
     "read" : False,    
"title" : "中日友协会长唐家璇：日方需明确对中国定位",
"titleTip" : "中日友协会长唐家璇：日方需明确对中国定位",
"titleSummary" : "中日友协会长唐家璇：日方需明确对中国定位",
"descSummary" : "原标题：中国前国务委员：改善中日关系 日方需明确其对...",
"url" : "http:\/\/go.rss.sina.com.cn\/redirect.php?url=http:\/\/news.sina.com.cn\/c\/2013-10-26\/145728539022.shtml",
"pubDate" : "2013年10月26日 (4天前)",
"enterDate" : "384200:45:28",
"channelId" : "-6751394960970850153",
"channelName" : "国内要闻-新浪新闻",
"channelNameSummary" : "国内要闻-新浪新闻",
"channelUrl" : "http:\/\/news.sina.com.cn\/491\/2008\/0827\/1.html",
"author" : "WWW.SINA.COM.CN",
"tags" : [],
"desc" : "原标题：中国前国务委员：改善中日关系 日方需明确其对中国的认知和定位 国际在线消息(记者 王智达)：中国前国务委员、中国国际经济交流中心顾问、中日友好协会会长唐家璇在\u201C北京\u2015东京论坛\u201D上表示，改善中日关系，日方需明确其对中国的认知和定位。 唐家璇表....",
"emailed" : False,
"forwarded" : False,
"english" : False
}  , {
"index" : 13,
"articleIndex" : "485378",
"favor" :  False ,
     "read" : False,    
"title" : "视频：实拍梅德韦杰夫和中科大学生握手引尖叫",
"titleTip" : "视频：实拍梅德韦杰夫和中科大学生握手引尖叫",
"titleSummary" : "视频：实拍梅德韦杰夫和中科大学生握手引尖叫",
"descSummary" : "2013年10月23日，俄罗斯总理梅德韦杰夫访问安徽，在...",
"url" : "http:\/\/go.rss.sina.com.cn\/redirect.php?url=http:\/\/video.sina.com.cn\/p\/news\/w\/v\/2013-10-26\/145763067717.html",
"pubDate" : "2013年10月26日 (4天前)",
"enterDate" : "384200:45:11",
"channelId" : "-6751394960970850153",
"channelName" : "国内要闻-新浪新闻",
"channelNameSummary" : "国内要闻-新浪新闻",
"channelUrl" : "http:\/\/news.sina.com.cn\/491\/2008\/0827\/1.html",
"author" : "WWW.SINA.COM.CN",
"tags" : [],
"desc" : "2013年10月23日，俄罗斯总理梅德韦杰夫访问安徽，在中国科学技术大学发表演讲。视频为学生拍摄梅德韦杰夫总理乘专车到访中科大全程。",
"emailed" : False,
"forwarded" : False,
"english" : False
}  , {
"index" : 14,
"articleIndex" : "485374",
"favor" :  False ,
     "read" : False,    
"title" : "视频:广西南宁回应向村民开枪 是被迫用橡皮弹",
"titleTip" : "视频:广西南宁回应向村民开枪 是被迫用橡皮弹",
"titleSummary" : "视频:广西南宁回应向村民开枪 是被迫用橡皮弹",
"descSummary" : "10月24日，当地回应称执法队伍拆除建筑属于违法用地上...",
"url" : "http:\/\/go.rss.sina.com.cn\/redirect.php?url=http:\/\/video.sina.com.cn\/p\/news\/s\/v\/2013-10-26\/145663067715.html",
"pubDate" : "2013年10月26日 (4天前)",
"enterDate" : "384201:14:43",
"channelId" : "-6751394960970850153",
"channelName" : "国内要闻-新浪新闻",
"channelNameSummary" : "国内要闻-新浪新闻",
"channelUrl" : "http:\/\/news.sina.com.cn\/491\/2008\/0827\/1.html",
"author" : "WWW.SINA.COM.CN",
"tags" : [],
"desc" : "10月24日，当地回应称执法队伍拆除建筑属于违法用地上违章建筑，由于遭遇暴力抗法并致两名执法人员不同程度受伤、消防车等装备不同程度受损，执法人员生命安全受到威胁，在此危急情况下，警察被迫使用催泪弹和橡皮子弹，对不法人员进行强制驱散和抓捕。",
"emailed" : False,
"forwarded" : False,
"english" : False
}  , {
"index" : 15,
"articleIndex" : "485377",
"favor" :  False ,
     "read" : False,    
"title" : "哥伦比亚妇女售卖12个女儿初夜权牟利被捕",
"titleTip" : "哥伦比亚妇女售卖12个女儿初夜权牟利被捕",
"titleSummary" : "哥伦比亚妇女售卖12个女儿初夜权牟利被捕",
"descSummary" : "中新网10月26日电 据台湾\u201C中广新闻网\u201D报道，哥伦比亚一...",
"url" : "http:\/\/go.rss.sina.com.cn\/redirect.php?url=http:\/\/news.sina.com.cn\/w\/2013-10-26\/143928538881.shtml",
"pubDate" : "2013年10月26日 (4天前)",
"enterDate" : "384200:27:00",
"channelId" : "-6751394960970850153",
"channelName" : "国内要闻-新浪新闻",
"channelNameSummary" : "国内要闻-新浪新闻",
"channelUrl" : "http:\/\/news.sina.com.cn\/491\/2008\/0827\/1.html",
"author" : "WWW.SINA.COM.CN",
"tags" : [],
"desc" : "中新网10月26日电 据台湾\u201C中广新闻网\u201D报道，哥伦比亚一名妇女借着出售女儿的\u201C初夜权\u201D牟利，她总共有14个女儿，其中12个的童贞都已经变成她口袋里的钞票。 调查发现，这名妇人的每个女儿到12岁的时候，就会被母亲卖掉，她用30到40万哥伦比亚披索的价钱，贩卖女儿的....",
"emailed" : False,
"forwarded" : False,
"english" : False
}  , {
"index" : 16,
"articleIndex" : "485373",
"favor" :  False ,
     "read" : False,    
"title" : "山西400多座在建矿井停建整顿",
"titleTip" : "山西400多座在建矿井停建整顿",
"titleSummary" : "山西400多座在建矿井停建整顿",
"descSummary" : "新华网太原10月26日电(记者 王飞航) 山西省近日下发通知，要求全省所有...",
"url" : "http:\/\/go.rss.sina.com.cn\/redirect.php?url=http:\/\/news.sina.com.cn\/c\/2013-10-26\/143728538864.shtml",
"pubDate" : "2013年10月26日 (4天前)",
"enterDate" : "384200:55:12",
"channelId" : "-6751394960970850153",
"channelName" : "国内要闻-新浪新闻",
"channelNameSummary" : "国内要闻-新浪新闻",
"channelUrl" : "http:\/\/news.sina.com.cn\/491\/2008\/0827\/1.html",
"author" : "WWW.SINA.COM.CN",
"tags" : [],
"desc" : "新华网太原10月26日电(记者 王飞航) 山西省近日下发通知，要求全省所有建设矿井，包括新建、兼并重组整合、持证改造等各类在建矿井，本月起一律停止建设，进行安全大整顿。业内人士指出，此次整顿或将持续半年左右的时间，波及山西省约50%的煤炭产能，对焦煤市场或将产生较大....",
"emailed" : False,
"forwarded" : False,
"english" : False
}  , {
"index" : 17,
"articleIndex" : "485372",
"favor" :  False ,
     "read" : False,    
"title" : "英女子称对鞋过敏无法工作 24年领近百万福利金",
"titleTip" : "英女子称对鞋过敏无法工作 24年领近百万福利金",
"titleSummary" : "英女子称对鞋过敏无法工作 24年领近百万福利金",
"descSummary" : "英国4子女之母Tracy Kenny声称皮肤对鞋过敏，被断定...",
"url" : "http:\/\/go.rss.sina.com.cn\/redirect.php?url=http:\/\/news.sina.com.cn\/w\/2013-10-26\/143628538854.shtml",
"pubDate" : "2013年10月26日 (4天前)",
"enterDate" : "384199:54:33",
"channelId" : "-6751394960970850153",
"channelName" : "国内要闻-新浪新闻",
"channelNameSummary" : "国内要闻-新浪新闻",
"channelUrl" : "http:\/\/news.sina.com.cn\/491\/2008\/0827\/1.html",
"author" : "WWW.SINA.COM.CN",
"tags" : [],
"desc" : "英国4子女之母Tracy Kenny声称皮肤对鞋过敏，被断定为不适合工作，获政府每周发放110镑伤残福利金，24年来共领取10万镑(约98.7万人民币)，但政府近日判定她适合工作，削减其福利金至每月200镑。 现年45岁的Kenny称，她的皮肤对胶水、橡胶、镍等材料过敏，多年来只能赤....",
"emailed" : False,
"forwarded" : False,
"english" : False
}  , {
"index" : 18,
"articleIndex" : "485376",
"favor" :  False ,
     "read" : False,    
"title" : "福岛核电站污染物泄漏仍在持续",
"titleTip" : "福岛核电站污染物泄漏仍在持续",
"titleSummary" : "福岛核电站污染物泄漏仍在持续",
"descSummary" : "中新网10月26日电 《纽约时报》中文网26日报道称，数月来，遭损毁的...",
"url" : "http:\/\/go.rss.sina.com.cn\/redirect.php?url=http:\/\/news.sina.com.cn\/w\/2013-10-26\/142728538823.shtml",
"pubDate" : "2013年10月26日 (4天前)",
"enterDate" : "384200:15:00",
"channelId" : "-6751394960970850153",
"channelName" : "国内要闻-新浪新闻",
"channelNameSummary" : "国内要闻-新浪新闻",
"channelUrl" : "http:\/\/news.sina.com.cn\/491\/2008\/0827\/1.html",
"author" : "WWW.SINA.COM.CN",
"tags" : [],
"desc" : "中新网10月26日电 《纽约时报》中文网26日报道称，数月来，遭损毁的日本福岛核电站不断传来坏消息，其铺天盖地之势令人无法躲避。最初那场灾难已经过去了超过两年半的时间，许多人原本希望，随着放射性衰变自然发生，到此时修复早已应该开始，但这些事故使人们质疑，持续的泄....",
"emailed" : False,
"forwarded" : False,
"english" : False
}  , {
"index" : 19,
"articleIndex" : "485375",
"favor" :  False ,
     "read" : False,    
"title" : "菲马尼拉长拟下月赴香港就人质事件道歉",
"titleTip" : "菲马尼拉长拟下月赴香港就人质事件道歉",
"titleSummary" : "菲马尼拉长拟下月赴香港就人质事件道歉",
"descSummary" : "中新网10月26日电 据香港电子媒体消息，菲律宾马尼拉副长莫...",
"url" : "http:\/\/go.rss.sina.com.cn\/redirect.php?url=http:\/\/news.sina.com.cn\/c\/2013-10-26\/142628538822.shtml",
"pubDate" : "2013年10月26日 (4天前)",
"enterDate" : "384200:14:00",
"channelId" : "-6751394960970850153",
"channelName" : "国内要闻-新浪新闻",
"channelNameSummary" : "国内要闻-新浪新闻",
"channelUrl" : "http:\/\/news.sina.com.cn\/491\/2008\/0827\/1.html",
"author" : "WWW.SINA.COM.CN",
"tags" : [],
"desc" : "中新网10月26日电 据香港电子媒体消息，菲律宾马尼拉副长莫雷诺接受菲传媒访问时表示，长埃斯特拉达计划下月底或12月初到港，就马尼拉人质事件与港府官员会面，亲自送上钡恼式道歉信，及马尼拉议会通过的道歉决议案副本，为人质事件正式道歉，希望为事件划上句号。....",
"emailed" : False,
"forwarded" : False,
"english" : False
} ]
}
