{
"mode" : {"viewTitle" : 1,   "viewNew" : 0,  "pageIndex" : 1 },
 "channel" : {"id" : "-3535611914797369707", "booked" : False, "subNumber" : 1, "name" : "新闻视频排行-新浪视频", "url" : "http:\/\/video.sina.com.cn\/videotop\/", "feed" : "http:\/\/rss.sina.com.cn\/bn\/hot_bn.xml", "author" : "WWW.SINA.COM.CN", "desc" : "新浪网每日新闻视频排行", "imageUrl" : "http:\/\/i2.sinaimg.cn\/home\/deco\/2009\/0330\/con_logo_video.gif", "postPerWeek" : "0", "lastCrawTime" : "17:17:30", "crawDateTime" : "17:17:30", "lastHttpCode" : "200"}, "page" : {
"startIndex" : 0,
"totalCount" : 5000,
"pageIndex" : 1,
"lastPage" : 250,
"pageSize" : 20,
"english" :  False },
 "unreadNum" : 0, "shotIndex" : -1,
"articles" : [
{
"index" : 0,
"articleIndex" : "15831",
"favor" :  False ,
     "read" : False,    
"title" : "视频：外交部回应金水桥事件 称正在调查中",
"titleTip" : "视频：外交部回应金水桥事件 称正在调查中",
"titleSummary" : "视频：外交部回应金水桥事件 称正在调查中",
"descSummary" : "",
"url" : "http:\/\/go.rss.sina.com.cn\/redirect.php?url=http:\/\/video.sina.com.cn\/p\/news\/s\/v\/2013-10-29\/185863079977.html",
"pubDate" : "昨天18:58:31",
"enterDate" : "384192:33:01",
"channelId" : "-3535611914797369707",
"channelName" : "新闻视频排行-新浪视频",
"channelNameSummary" : "新闻视频排行-新浪视...",
"channelUrl" : "http:\/\/video.sina.com.cn\/videotop\/",
"author" : "WWW.SINA.COM.CN",
"tags" : [],
"desc" : "",
"emailed" : False,
"forwarded" : False,
"english" : False
}  , {
"index" : 1,
"articleIndex" : "15830",
"favor" :  False ,
     "read" : False,    
"title" : "视频：监拍女子拒为抱老人让座 遭指责用伞打人",
"titleTip" : "视频：监拍女子拒为抱老人让座 遭指责用伞打人",
"titleSummary" : "视频：监拍女子拒为抱老人让座 遭指责用伞打人",
"descSummary" : "",
"url" : "http:\/\/go.rss.sina.com.cn\/redirect.php?url=http:\/\/video.sina.com.cn\/p\/news\/s\/v\/2013-10-29\/145063079085.html",
"pubDate" : "昨天14:50:23",
"enterDate" : "384188:24:53",
"channelId" : "-3535611914797369707",
"channelName" : "新闻视频排行-新浪视频",
"channelNameSummary" : "新闻视频排行-新浪视...",
"channelUrl" : "http:\/\/video.sina.com.cn\/videotop\/",
"author" : "WWW.SINA.COM.CN",
"tags" : [],
"desc" : "",
"emailed" : False,
"forwarded" : False,
"english" : False
}  , {
"index" : 2,
"articleIndex" : "15829",
"favor" :  False ,
     "read" : False,    
"title" : "视频：实拍老人妇女遭围殴 疑因强拆起冲突",
"titleTip" : "视频：实拍老人妇女遭围殴 疑因强拆起冲突",
"titleSummary" : "视频：实拍老人妇女遭围殴 疑因强拆起冲突",
"descSummary" : "",
"url" : "http:\/\/go.rss.sina.com.cn\/redirect.php?url=http:\/\/video.sina.com.cn\/p\/news\/v\/2013-10-29\/140163078931.html",
"pubDate" : "昨天14:01:59",
"enterDate" : "384187:36:29",
"channelId" : "-3535611914797369707",
"channelName" : "新闻视频排行-新浪视频",
"channelNameSummary" : "新闻视频排行-新浪视...",
"channelUrl" : "http:\/\/video.sina.com.cn\/videotop\/",
"author" : "WWW.SINA.COM.CN",
"tags" : [],
"desc" : "",
"emailed" : False,
"forwarded" : False,
"english" : False
}  , {
"index" : 3,
"articleIndex" : "15828",
"favor" :  False ,
     "read" : False,    
"title" : "视频：男子头插水果刀独自淡定就医",
"titleTip" : "视频：男子头插水果刀独自淡定就医",
"titleSummary" : "视频：男子头插水果刀独自淡定就医",
"descSummary" : "",
"url" : "http:\/\/go.rss.sina.com.cn\/redirect.php?url=http:\/\/video.sina.com.cn\/p\/news\/s\/v\/2013-10-29\/125363078619.html",
"pubDate" : "昨天12:53:41",
"enterDate" : "384186:28:11",
"channelId" : "-3535611914797369707",
"channelName" : "新闻视频排行-新浪视频",
"channelNameSummary" : "新闻视频排行-新浪视...",
"channelUrl" : "http:\/\/video.sina.com.cn\/videotop\/",
"author" : "WWW.SINA.COM.CN",
"tags" : [],
"desc" : "",
"emailed" : False,
"forwarded" : False,
"english" : False
}  , {
"index" : 4,
"articleIndex" : "15827",
"favor" :  False ,
     "read" : False,    
"title" : "实拍4条眼镜蛇守护宝宝午睡",
"titleTip" : "实拍4条眼镜蛇守护宝宝午睡",
"titleSummary" : "实拍4条眼镜蛇守护宝宝午睡",
"descSummary" : "",
"url" : "http:\/\/go.rss.sina.com.cn\/redirect.php?url=http:\/\/video.sina.com.cn\/p\/news\/v\/2013-10-29\/105663078117.html",
"pubDate" : "昨天10:56:59",
"enterDate" : "384184:31:29",
"channelId" : "-3535611914797369707",
"channelName" : "新闻视频排行-新浪视频",
"channelNameSummary" : "新闻视频排行-新浪视...",
"channelUrl" : "http:\/\/video.sina.com.cn\/videotop\/",
"author" : "WWW.SINA.COM.CN",
"tags" : [],
"desc" : "",
"emailed" : False,
"forwarded" : False,
"english" : False
}  , {
"index" : 5,
"articleIndex" : "15826",
"favor" :  False ,
     "read" : False,    
"title" : "视频：南京市财政局长述职现场被追问收入",
"titleTip" : "视频：南京市财政局长述职现场被追问收入",
"titleSummary" : "视频：南京市财政局长述职现场被追问收入",
"descSummary" : "",
"url" : "http:\/\/go.rss.sina.com.cn\/redirect.php?url=http:\/\/video.sina.com.cn\/p\/news\/c\/v\/2013-10-29\/084963077629.html",
"pubDate" : "昨天08:49:33",
"enterDate" : "384182:24:03",
"channelId" : "-3535611914797369707",
"channelName" : "新闻视频排行-新浪视频",
"channelNameSummary" : "新闻视频排行-新浪视...",
"channelUrl" : "http:\/\/video.sina.com.cn\/videotop\/",
"author" : "WWW.SINA.COM.CN",
"tags" : [],
"desc" : "",
"emailed" : False,
"forwarded" : False,
"english" : False
}  , {
"index" : 6,
"articleIndex" : "15825",
"favor" :  False ,
     "read" : False,    
"title" : "视频：福建教师夫妇被抽调劝父母拆迁",
"titleTip" : "视频：福建教师夫妇被抽调劝父母拆迁",
"titleSummary" : "视频：福建教师夫妇被抽调劝父母拆迁",
"descSummary" : "",
"url" : "http:\/\/go.rss.sina.com.cn\/redirect.php?url=http:\/\/video.sina.com.cn\/p\/news\/c\/v\/2013-10-29\/084163077563.html",
"pubDate" : "昨天08:41:44",
"enterDate" : "384182:16:14",
"channelId" : "-3535611914797369707",
"channelName" : "新闻视频排行-新浪视频",
"channelNameSummary" : "新闻视频排行-新浪视...",
"channelUrl" : "http:\/\/video.sina.com.cn\/videotop\/",
"author" : "WWW.SINA.COM.CN",
"tags" : [],
"desc" : "",
"emailed" : False,
"forwarded" : False,
"english" : False
}  , {
"index" : 7,
"articleIndex" : "15824",
"favor" :  False ,
     "read" : False,    
"title" : "视频：审计长首次解密跟踪审计牵出刘志军贪腐案",
"titleTip" : "视频：审计长首次解密跟踪审计牵出刘志军贪腐案",
"titleSummary" : "视频：审计长首次解密跟踪审计牵出刘志军贪腐案",
"descSummary" : "",
"url" : "http:\/\/go.rss.sina.com.cn\/redirect.php?url=http:\/\/video.sina.com.cn\/p\/news\/c\/v\/2013-10-29\/082763077471.html",
"pubDate" : "昨天08:27:01",
"enterDate" : "384182:01:31",
"channelId" : "-3535611914797369707",
"channelName" : "新闻视频排行-新浪视频",
"channelNameSummary" : "新闻视频排行-新浪视...",
"channelUrl" : "http:\/\/video.sina.com.cn\/videotop\/",
"author" : "WWW.SINA.COM.CN",
"tags" : [],
"desc" : "",
"emailed" : False,
"forwarded" : False,
"english" : False
}  , {
"index" : 8,
"articleIndex" : "15823",
"favor" :  False ,
     "read" : False,    
"title" : "《直播港澳台》 中国官方媒体持续关注核潜艇部队",
"titleTip" : "《直播港澳台》 中国官方媒体持续关注核潜艇部队",
"titleSummary" : "《直播港澳台》 中国官方媒体持续关注核潜艇部队",
"descSummary" : "",
"url" : "http:\/\/go.rss.sina.com.cn\/redirect.php?url=http:\/\/video.sina.com.cn\/p\/news\/v\/2013-10-28\/230663076335.html",
"pubDate" : "前天23:06:54",
"enterDate" : "384172:41:24",
"channelId" : "-3535611914797369707",
"channelName" : "新闻视频排行-新浪视频",
"channelNameSummary" : "新闻视频排行-新浪视...",
"channelUrl" : "http:\/\/video.sina.com.cn\/videotop\/",
"author" : "WWW.SINA.COM.CN",
"tags" : [],
"desc" : "",
"emailed" : False,
"forwarded" : False,
"english" : False
}  , {
"index" : 9,
"articleIndex" : "15822",
"favor" :  False ,
     "read" : False,    
"title" : "遵义书记",
"titleTip" : "遵义书记",
"titleSummary" : "遵义书记",
"descSummary" : "",
"url" : "http:\/\/go.rss.sina.com.cn\/redirect.php?url=http:\/\/video.sina.com.cn\/p\/news\/v\/2013-10-28\/202163075961.html",
"pubDate" : "前天20:21:51",
"enterDate" : "384169:56:21",
"channelId" : "-3535611914797369707",
"channelName" : "新闻视频排行-新浪视频",
"channelNameSummary" : "新闻视频排行-新浪视...",
"channelUrl" : "http:\/\/video.sina.com.cn\/videotop\/",
"author" : "WWW.SINA.COM.CN",
"tags" : [],
"desc" : "",
"emailed" : False,
"forwarded" : False,
"english" : False
}  , {
"index" : 10,
"articleIndex" : "15821",
"favor" :  False ,
     "read" : False,    
"title" : "开车玩手机",
"titleTip" : "开车玩手机",
"titleSummary" : "开车玩手机",
"descSummary" : "",
"url" : "http:\/\/go.rss.sina.com.cn\/redirect.php?url=http:\/\/video.sina.com.cn\/p\/news\/v\/2013-10-28\/200163075951.html",
"pubDate" : "前天20:01:53",
"enterDate" : "384169:36:23",
"channelId" : "-3535611914797369707",
"channelName" : "新闻视频排行-新浪视频",
"channelNameSummary" : "新闻视频排行-新浪视...",
"channelUrl" : "http:\/\/video.sina.com.cn\/videotop\/",
"author" : "WWW.SINA.COM.CN",
"tags" : [],
"desc" : "",
"emailed" : False,
"forwarded" : False,
"english" : False
}  , {
"index" : 11,
"articleIndex" : "15817",
"favor" :  False ,
     "read" : False,    
"title" : "《北京新闻》 北京迅速处置一起吉普车冲撞天安门金水桥事件 天安门交通秩序恢复正常 受伤人员正在积极救治",
"titleTip" : "《北京新闻》 北京迅速处置一起吉普车冲撞天安门金水桥事件 天安门交通秩序恢复正常 受伤人员正在积极救治",
"titleSummary" : "《北京新闻》 北京迅速处置一起吉普车冲撞天安门金水桥事件 天安门交通秩序恢复正常 受伤人员正在积...",
"descSummary" : "",
"url" : "http:\/\/go.rss.sina.com.cn\/redirect.php?url=http:\/\/video.sina.com.cn\/p\/news\/v\/2013-10-28\/190663075581.html",
"pubDate" : "前天19:06:36",
"enterDate" : "384192:45:06",
"channelId" : "-3535611914797369707",
"channelName" : "新闻视频排行-新浪视频",
"channelNameSummary" : "新闻视频排行-新浪视...",
"channelUrl" : "http:\/\/video.sina.com.cn\/videotop\/",
"author" : "WWW.SINA.COM.CN",
"tags" : [],
"desc" : "",
"emailed" : False,
"forwarded" : False,
"english" : False
}  , {
"index" : 12,
"articleIndex" : "15816",
"favor" :  False ,
     "read" : False,    
"title" : "视频：外交部称安倍涉华挑衅言论表明狂妄心虚",
"titleTip" : "视频：外交部称安倍涉华挑衅言论表明狂妄心虚",
"titleSummary" : "视频：外交部称安倍涉华挑衅言论表明狂妄心虚",
"descSummary" : "",
"url" : "http:\/\/go.rss.sina.com.cn\/redirect.php?url=http:\/\/video.sina.com.cn\/p\/news\/c\/v\/2013-10-28\/175063075201.html",
"pubDate" : "前天17:50:26",
"enterDate" : "384191:28:56",
"channelId" : "-3535611914797369707",
"channelName" : "新闻视频排行-新浪视频",
"channelNameSummary" : "新闻视频排行-新浪视...",
"channelUrl" : "http:\/\/video.sina.com.cn\/videotop\/",
"author" : "WWW.SINA.COM.CN",
"tags" : [],
"desc" : "",
"emailed" : False,
"forwarded" : False,
"english" : False
}  , {
"index" : 13,
"articleIndex" : "15820",
"favor" :  False ,
     "read" : False,    
"title" : "视频：温岭医护人员举横幅抗议 呼吁抗拒暴力",
"titleTip" : "视频：温岭医护人员举横幅抗议 呼吁抗拒暴力",
"titleSummary" : "视频：温岭医护人员举横幅抗议 呼吁抗拒暴力",
"descSummary" : "",
"url" : "http:\/\/go.rss.sina.com.cn\/redirect.php?url=http:\/\/video.sina.com.cn\/p\/news\/s\/v\/2013-10-28\/171263075105.html",
"pubDate" : "前天17:12:45",
"enterDate" : "384166:47:15",
"channelId" : "-3535611914797369707",
"channelName" : "新闻视频排行-新浪视频",
"channelNameSummary" : "新闻视频排行-新浪视...",
"channelUrl" : "http:\/\/video.sina.com.cn\/videotop\/",
"author" : "WWW.SINA.COM.CN",
"tags" : [],
"desc" : "",
"emailed" : False,
"forwarded" : False,
"english" : False
}  , {
"index" : 14,
"articleIndex" : "15819",
"favor" :  False ,
     "read" : False,    
"title" : "大同的城管就是牛收钱受阻，就用灭火器砸人",
"titleTip" : "大同的城管就是牛收钱受阻，就用灭火器砸人",
"titleSummary" : "大同的城管就是牛收钱受阻，就用灭火器砸人",
"descSummary" : "",
"url" : "http:\/\/go.rss.sina.com.cn\/redirect.php?url=http:\/\/video.sina.com.cn\/p\/news\/v\/2013-10-28\/164163075049.html",
"pubDate" : "前天16:41:35",
"enterDate" : "384166:16:05",
"channelId" : "-3535611914797369707",
"channelName" : "新闻视频排行-新浪视频",
"channelNameSummary" : "新闻视频排行-新浪视...",
"channelUrl" : "http:\/\/video.sina.com.cn\/videotop\/",
"author" : "WWW.SINA.COM.CN",
"tags" : [],
"desc" : "",
"emailed" : False,
"forwarded" : False,
"english" : False
}  , {
"index" : 15,
"articleIndex" : "15815",
"favor" :  False ,
     "read" : False,    
"title" : "唐家璇发声质问日本 遭日前军官当场反驳指责",
"titleTip" : "唐家璇发声质问日本 遭日前军官当场反驳指责",
"titleSummary" : "唐家璇发声质问日本 遭日前军官当场反驳指责",
"descSummary" : "",
"url" : "http:\/\/go.rss.sina.com.cn\/redirect.php?url=http:\/\/video.sina.com.cn\/p\/news\/v\/2013-10-28\/120663074149.html",
"pubDate" : "前天12:06:34",
"enterDate" : "384185:45:04",
"channelId" : "-3535611914797369707",
"channelName" : "新闻视频排行-新浪视频",
"channelNameSummary" : "新闻视频排行-新浪视...",
"channelUrl" : "http:\/\/video.sina.com.cn\/videotop\/",
"author" : "WWW.SINA.COM.CN",
"tags" : [],
"desc" : "",
"emailed" : False,
"forwarded" : False,
"english" : False
}  , {
"index" : 16,
"articleIndex" : "15814",
"favor" :  False ,
     "read" : False,    
"title" : "视频：温岭医生门诊时被捅死 家属护遗体现场",
"titleTip" : "视频：温岭医生门诊时被捅死 家属护遗体现场",
"titleSummary" : "视频：温岭医生门诊时被捅死 家属护遗体现场",
"descSummary" : "",
"url" : "http:\/\/go.rss.sina.com.cn\/redirect.php?url=http:\/\/video.sina.com.cn\/p\/news\/s\/v\/2013-10-28\/093963073741.html",
"pubDate" : "前天09:39:21",
"enterDate" : "384183:17:51",
"channelId" : "-3535611914797369707",
"channelName" : "新闻视频排行-新浪视频",
"channelNameSummary" : "新闻视频排行-新浪视...",
"channelUrl" : "http:\/\/video.sina.com.cn\/videotop\/",
"author" : "WWW.SINA.COM.CN",
"tags" : [],
"desc" : "",
"emailed" : False,
"forwarded" : False,
"english" : False
}  , {
"index" : 17,
"articleIndex" : "15813",
"favor" :  False ,
     "read" : False,    
"title" : "视频:记者探访平壤地铁 装饰奢华乘客行色匆匆",
"titleTip" : "视频:记者探访平壤地铁 装饰奢华乘客行色匆匆",
"titleSummary" : "视频:记者探访平壤地铁 装饰奢华乘客行色匆匆",
"descSummary" : "",
"url" : "http:\/\/go.rss.sina.com.cn\/redirect.php?url=http:\/\/video.sina.com.cn\/p\/news\/w\/v\/2013-10-28\/075663072979.html",
"pubDate" : "前天07:56:30",
"enterDate" : "384181:35:00",
"channelId" : "-3535611914797369707",
"channelName" : "新闻视频排行-新浪视频",
"channelNameSummary" : "新闻视频排行-新浪视...",
"channelUrl" : "http:\/\/video.sina.com.cn\/videotop\/",
"author" : "WWW.SINA.COM.CN",
"tags" : [],
"desc" : "",
"emailed" : False,
"forwarded" : False,
"english" : False
}  , {
"index" : 18,
"articleIndex" : "15812",
"favor" :  False ,
     "read" : False,    
"title" : "《晨光新视界》 清华学霸履历曝光 网友称瞬间学渣",
"titleTip" : "《晨光新视界》 清华学霸履历曝光 网友称瞬间学渣",
"titleSummary" : "《晨光新视界》 清华学霸履历曝光 网友称瞬间学渣",
"descSummary" : "",
"url" : "http:\/\/go.rss.sina.com.cn\/redirect.php?url=http:\/\/video.sina.com.cn\/p\/news\/v\/2013-10-28\/074663072991.html",
"pubDate" : "前天07:46:37",
"enterDate" : "384181:25:07",
"channelId" : "-3535611914797369707",
"channelName" : "新闻视频排行-新浪视频",
"channelNameSummary" : "新闻视频排行-新浪视...",
"channelUrl" : "http:\/\/video.sina.com.cn\/videotop\/",
"author" : "WWW.SINA.COM.CN",
"tags" : [],
"desc" : "",
"emailed" : False,
"forwarded" : False,
"english" : False
}  , {
"index" : 19,
"articleIndex" : "15818",
"favor" :  False ,
     "read" : False,    
"title" : "《午间视野》 卫计委1周2次回应 放开单独二胎：完善生育政策",
"titleTip" : "《午间视野》 卫计委1周2次回应 放开单独二胎：完善生育政策",
"titleSummary" : "《午间视野》 卫计委1周2次回应 放开单独二胎：完善生育政策",
"descSummary" : "",
"url" : "http:\/\/go.rss.sina.com.cn\/redirect.php?url=http:\/\/video.sina.com.cn\/p\/news\/v\/2013-08-14\/130962784227.html",
"pubDate" : "2013年8月14日",
"enterDate" : "382362:43:49",
"channelId" : "-3535611914797369707",
"channelName" : "新闻视频排行-新浪视频",
"channelNameSummary" : "新闻视频排行-新浪视...",
"channelUrl" : "http:\/\/video.sina.com.cn\/videotop\/",
"author" : "WWW.SINA.COM.CN",
"tags" : [],
"desc" : "",
"emailed" : False,
"forwarded" : False,
"english" : False
} ]
}
