{
"mode" : {"viewTitle" : 1,   "viewNew" : 0,  "pageIndex" : 2 },
 "channel" : {"id" : "-3535611914797369707", "booked" : False, "subNumber" : 1, "name" : "新闻视频排行-新浪视频", "url" : "http:\/\/video.sina.com.cn\/videotop\/", "feed" : "http:\/\/rss.sina.com.cn\/bn\/hot_bn.xml", "author" : "WWW.SINA.COM.CN", "desc" : "新浪网每日新闻视频排行", "imageUrl" : "http:\/\/i2.sinaimg.cn\/home\/deco\/2009\/0330\/con_logo_video.gif", "postPerWeek" : "0", "lastCrawTime" : "17:17:30", "crawDateTime" : "17:17:30", "lastHttpCode" : "200"}, "page" : {
"startIndex" : 20,
"totalCount" : 5000,
"pageIndex" : 2,
"lastPage" : 250,
"pageSize" : 20,
"english" :  False },
 "unreadNum" : 0, "shotIndex" : -1,
"articles" : [
{
"index" : 0,
"articleIndex" : "15811",
"favor" :  False ,
     "read" : False,    
"title" : "《广东早晨》 国储库被曝已流入大量转基因菜油",
"titleTip" : "《广东早晨》 国储库被曝已流入大量转基因菜油",
"titleSummary" : "《广东早晨》 国储库被曝已流入大量转基因菜油",
"descSummary" : "",
"url" : "http:\/\/go.rss.sina.com.cn\/redirect.php?url=http:\/\/video.sina.com.cn\/p\/news\/v\/2013-10-28\/073663072869.html",
"pubDate" : "前天07:36:33",
"enterDate" : "384181:15:03",
"channelId" : "-3535611914797369707",
"channelName" : "新闻视频排行-新浪视频",
"channelNameSummary" : "新闻视频排行-新浪视...",
"channelUrl" : "http:\/\/video.sina.com.cn\/videotop\/",
"author" : "WWW.SINA.COM.CN",
"tags" : [],
"desc" : "",
"emailed" : False,
"forwarded" : False,
"english" : False
}  , {
"index" : 1,
"articleIndex" : "15810",
"favor" :  False ,
     "read" : False,    
"title" : "伊拉克士兵被爆炸装置炸飞",
"titleTip" : "伊拉克士兵被爆炸装置炸飞",
"titleSummary" : "伊拉克士兵被爆炸装置炸飞",
"descSummary" : "",
"url" : "http:\/\/go.rss.sina.com.cn\/redirect.php?url=http:\/\/video.sina.com.cn\/p\/news\/v\/2013-10-28\/032163072447.html",
"pubDate" : "2013年10月28日 (3天前)",
"enterDate" : "384176:59:57",
"channelId" : "-3535611914797369707",
"channelName" : "新闻视频排行-新浪视频",
"channelNameSummary" : "新闻视频排行-新浪视...",
"channelUrl" : "http:\/\/video.sina.com.cn\/videotop\/",
"author" : "WWW.SINA.COM.CN",
"tags" : [],
"desc" : "",
"emailed" : False,
"forwarded" : False,
"english" : False
}  , {
"index" : 2,
"articleIndex" : "15809",
"favor" :  False ,
     "read" : False,    
"title" : "视频:央视播出我海军核潜艇海上训练画面",
"titleTip" : "视频:央视播出我海军核潜艇海上训练画面",
"titleSummary" : "视频:央视播出我海军核潜艇海上训练画面",
"descSummary" : "",
"url" : "http:\/\/go.rss.sina.com.cn\/redirect.php?url=http:\/\/video.sina.com.cn\/p\/news\/c\/v\/2013-10-27\/193163071785.html",
"pubDate" : "2013年10月27日 (3天前)",
"enterDate" : "384169:10:19",
"channelId" : "-3535611914797369707",
"channelName" : "新闻视频排行-新浪视频",
"channelNameSummary" : "新闻视频排行-新浪视...",
"channelUrl" : "http:\/\/video.sina.com.cn\/videotop\/",
"author" : "WWW.SINA.COM.CN",
"tags" : [],
"desc" : "",
"emailed" : False,
"forwarded" : False,
"english" : False
}  , {
"index" : 3,
"articleIndex" : "15808",
"favor" :  False ,
     "read" : False,    
"title" : "女子分饰24角与40名男子谈恋爱献身陪睡 诈骗上千万",
"titleTip" : "女子分饰24角与40名男子谈恋爱献身陪睡 诈骗上千万",
"titleSummary" : "女子分饰24角与40名男子谈恋爱献身陪睡 诈骗上千万",
"descSummary" : "",
"url" : "http:\/\/go.rss.sina.com.cn\/redirect.php?url=http:\/\/video.sina.com.cn\/p\/news\/v\/2013-10-27\/180663071275.html",
"pubDate" : "2013年10月27日 (3天前)",
"enterDate" : "384167:44:33",
"channelId" : "-3535611914797369707",
"channelName" : "新闻视频排行-新浪视频",
"channelNameSummary" : "新闻视频排行-新浪视...",
"channelUrl" : "http:\/\/video.sina.com.cn\/videotop\/",
"author" : "WWW.SINA.COM.CN",
"tags" : [],
"desc" : "",
"emailed" : False,
"forwarded" : False,
"english" : False
}  , {
"index" : 4,
"articleIndex" : "15806",
"favor" :  False ,
     "read" : False,    
"title" : "视频：我海军西太平洋演习遭外国舰机跟踪监视",
"titleTip" : "视频：我海军西太平洋演习遭外国舰机跟踪监视",
"titleSummary" : "视频：我海军西太平洋演习遭外国舰机跟踪监视",
"descSummary" : "",
"url" : "http:\/\/go.rss.sina.com.cn\/redirect.php?url=http:\/\/video.sina.com.cn\/p\/news\/c\/v\/2013-10-27\/153963071059.html",
"pubDate" : "2013年10月27日 (3天前)",
"enterDate" : "384188:21:31",
"channelId" : "-3535611914797369707",
"channelName" : "新闻视频排行-新浪视频",
"channelNameSummary" : "新闻视频排行-新浪视...",
"channelUrl" : "http:\/\/video.sina.com.cn\/videotop\/",
"author" : "WWW.SINA.COM.CN",
"tags" : [],
"desc" : "",
"emailed" : False,
"forwarded" : False,
"english" : False
}  , {
"index" : 5,
"articleIndex" : "15805",
"favor" :  False ,
     "read" : False,    
"title" : "《正午30分》 长沙天心区将女教师调到拆迁指挥部劝婆婆拆迁",
"titleTip" : "《正午30分》 长沙天心区将女教师调到拆迁指挥部劝婆婆拆迁",
"titleSummary" : "《正午30分》 长沙天心区将女教师调到拆迁指挥部劝婆婆拆迁",
"descSummary" : "",
"url" : "http:\/\/go.rss.sina.com.cn\/redirect.php?url=http:\/\/video.sina.com.cn\/p\/news\/v\/2013-10-27\/122663070685.html",
"pubDate" : "2013年10月27日 (3天前)",
"enterDate" : "384185:08:24",
"channelId" : "-3535611914797369707",
"channelName" : "新闻视频排行-新浪视频",
"channelNameSummary" : "新闻视频排行-新浪视...",
"channelUrl" : "http:\/\/video.sina.com.cn\/videotop\/",
"author" : "WWW.SINA.COM.CN",
"tags" : [],
"desc" : "",
"emailed" : False,
"forwarded" : False,
"english" : False
}  , {
"index" : 6,
"articleIndex" : "15804",
"favor" :  False ,
     "read" : False,    
"title" : "新闻调查：假将军现形记",
"titleTip" : "新闻调查：假将军现形记",
"titleSummary" : "新闻调查：假将军现形记",
"descSummary" : "",
"url" : "http:\/\/go.rss.sina.com.cn\/redirect.php?url=http:\/\/video.sina.com.cn\/p\/news\/v\/2013-10-27\/112163070539.html",
"pubDate" : "2013年10月27日 (3天前)",
"enterDate" : "384184:03:20",
"channelId" : "-3535611914797369707",
"channelName" : "新闻视频排行-新浪视频",
"channelNameSummary" : "新闻视频排行-新浪视...",
"channelUrl" : "http:\/\/video.sina.com.cn\/videotop\/",
"author" : "WWW.SINA.COM.CN",
"tags" : [],
"desc" : "",
"emailed" : False,
"forwarded" : False,
"english" : False
}  , {
"index" : 7,
"articleIndex" : "15803",
"favor" :  False ,
     "read" : False,    
"title" : "《广东早晨》 深圳：妇女偷走两岁女童施虐",
"titleTip" : "《广东早晨》 深圳：妇女偷走两岁女童施虐",
"titleSummary" : "《广东早晨》 深圳：妇女偷走两岁女童施虐",
"descSummary" : "",
"url" : "http:\/\/go.rss.sina.com.cn\/redirect.php?url=http:\/\/video.sina.com.cn\/p\/news\/v\/2013-10-27\/074563069771.html",
"pubDate" : "2013年10月27日 (3天前)",
"enterDate" : "384180:28:19",
"channelId" : "-3535611914797369707",
"channelName" : "新闻视频排行-新浪视频",
"channelNameSummary" : "新闻视频排行-新浪视...",
"channelUrl" : "http:\/\/video.sina.com.cn\/videotop\/",
"author" : "WWW.SINA.COM.CN",
"tags" : [],
"desc" : "",
"emailed" : False,
"forwarded" : False,
"english" : False
}  , {
"index" : 8,
"articleIndex" : "15802",
"favor" :  False ,
     "read" : False,    
"title" : "《早安山东》 新快报头版就陈永洲收钱发表失实报道致歉",
"titleTip" : "《早安山东》 新快报头版就陈永洲收钱发表失实报道致歉",
"titleSummary" : "《早安山东》 新快报头版就陈永洲收钱发表失实报道致歉",
"descSummary" : "",
"url" : "http:\/\/go.rss.sina.com.cn\/redirect.php?url=http:\/\/video.sina.com.cn\/p\/news\/v\/2013-10-27\/072663069667.html",
"pubDate" : "2013年10月27日 (3天前)",
"enterDate" : "384180:08:21",
"channelId" : "-3535611914797369707",
"channelName" : "新闻视频排行-新浪视频",
"channelNameSummary" : "新闻视频排行-新浪视...",
"channelUrl" : "http:\/\/video.sina.com.cn\/videotop\/",
"author" : "WWW.SINA.COM.CN",
"tags" : [],
"desc" : "",
"emailed" : False,
"forwarded" : False,
"english" : False
}  , {
"index" : 9,
"articleIndex" : "15801",
"favor" :  False ,
     "read" : False,    
"title" : "视频：国防部称日方若击落我无人机属战争行为",
"titleTip" : "视频：国防部称日方若击落我无人机属战争行为",
"titleSummary" : "视频：国防部称日方若击落我无人机属战争行为",
"descSummary" : "",
"url" : "http:\/\/go.rss.sina.com.cn\/redirect.php?url=http:\/\/video.sina.com.cn\/p\/news\/w\/v\/2013-10-27\/061163069419.html",
"pubDate" : "2013年10月27日 (3天前)",
"enterDate" : "384178:53:44",
"channelId" : "-3535611914797369707",
"channelName" : "新闻视频排行-新浪视频",
"channelNameSummary" : "新闻视频排行-新浪视...",
"channelUrl" : "http:\/\/video.sina.com.cn\/videotop\/",
"author" : "WWW.SINA.COM.CN",
"tags" : [],
"desc" : "",
"emailed" : False,
"forwarded" : False,
"english" : False
}  , {
"index" : 10,
"articleIndex" : "15800",
"favor" :  False ,
     "read" : False,    
"title" : "《东方时空》 新闻调查《假将军现形记》",
"titleTip" : "《东方时空》 新闻调查《假将军现形记》",
"titleSummary" : "《东方时空》 新闻调查《假将军现形记》",
"descSummary" : "",
"url" : "http:\/\/go.rss.sina.com.cn\/redirect.php?url=http:\/\/video.sina.com.cn\/p\/news\/v\/2013-10-26\/205063068803.html",
"pubDate" : "2013年10月26日 (4天前)",
"enterDate" : "384169:33:14",
"channelId" : "-3535611914797369707",
"channelName" : "新闻视频排行-新浪视频",
"channelNameSummary" : "新闻视频排行-新浪视...",
"channelUrl" : "http:\/\/video.sina.com.cn\/videotop\/",
"author" : "WWW.SINA.COM.CN",
"tags" : [],
"desc" : "",
"emailed" : False,
"forwarded" : False,
"english" : False
}  , {
"index" : 11,
"articleIndex" : "15799",
"favor" :  False ,
     "read" : False,    
"title" : "视频：东盟经贸部长乘高铁来京 李克强表示赞赏",
"titleTip" : "视频：东盟经贸部长乘高铁来京 李克强表示赞赏",
"titleSummary" : "视频：东盟经贸部长乘高铁来京 李克强表示赞赏",
"descSummary" : "",
"url" : "http:\/\/go.rss.sina.com.cn\/redirect.php?url=http:\/\/video.sina.com.cn\/p\/news\/c\/v\/2013-10-26\/203963068789.html",
"pubDate" : "2013年10月26日 (4天前)",
"enterDate" : "384169:22:17",
"channelId" : "-3535611914797369707",
"channelName" : "新闻视频排行-新浪视频",
"channelNameSummary" : "新闻视频排行-新浪视...",
"channelUrl" : "http:\/\/video.sina.com.cn\/videotop\/",
"author" : "WWW.SINA.COM.CN",
"tags" : [],
"desc" : "",
"emailed" : False,
"forwarded" : False,
"english" : False
}  , {
"index" : 12,
"articleIndex" : "15795",
"favor" :  False ,
     "read" : False,    
"title" : "[河北]学生罢课抗议菜价高 砸烂食堂桌椅",
"titleTip" : "[河北]学生罢课抗议菜价高 砸烂食堂桌椅",
"titleSummary" : "[河北]学生罢课抗议菜价高 砸烂食堂桌椅",
"descSummary" : "",
"url" : "http:\/\/go.rss.sina.com.cn\/redirect.php?url=http:\/\/video.sina.com.cn\/p\/news\/v\/2013-10-26\/162563067851.html",
"pubDate" : "2013年10月26日 (4天前)",
"enterDate" : "384190:12:01",
"channelId" : "-3535611914797369707",
"channelName" : "新闻视频排行-新浪视频",
"channelNameSummary" : "新闻视频排行-新浪视...",
"channelUrl" : "http:\/\/video.sina.com.cn\/videotop\/",
"author" : "WWW.SINA.COM.CN",
"tags" : [],
"desc" : "",
"emailed" : False,
"forwarded" : False,
"english" : False
}  , {
"index" : 13,
"articleIndex" : "15794",
"favor" :  False ,
     "read" : False,    
"title" : "视频:4架中国军机一天内过宫古海峡进西太平洋",
"titleTip" : "视频:4架中国军机一天内过宫古海峡进西太平洋",
"titleSummary" : "视频:4架中国军机一天内过宫古海峡进西太平洋",
"descSummary" : "",
"url" : "http:\/\/go.rss.sina.com.cn\/redirect.php?url=http:\/\/video.sina.com.cn\/p\/news\/c\/v\/2013-10-26\/101663066831.html",
"pubDate" : "2013年10月26日 (4天前)",
"enterDate" : "384184:03:01",
"channelId" : "-3535611914797369707",
"channelName" : "新闻视频排行-新浪视频",
"channelNameSummary" : "新闻视频排行-新浪视...",
"channelUrl" : "http:\/\/video.sina.com.cn\/videotop\/",
"author" : "WWW.SINA.COM.CN",
"tags" : [],
"desc" : "",
"emailed" : False,
"forwarded" : False,
"english" : False
}  , {
"index" : 14,
"articleIndex" : "15793",
"favor" :  False ,
     "read" : False,    
"title" : "视频:俄特种部队罕见演习画面 戴面罩敌前隐形",
"titleTip" : "视频:俄特种部队罕见演习画面 戴面罩敌前隐形",
"titleSummary" : "视频:俄特种部队罕见演习画面 戴面罩敌前隐形",
"descSummary" : "",
"url" : "http:\/\/go.rss.sina.com.cn\/redirect.php?url=http:\/\/video.sina.com.cn\/p\/news\/w\/v\/2013-10-26\/091463066751.html",
"pubDate" : "2013年10月26日 (4天前)",
"enterDate" : "384183:01:28",
"channelId" : "-3535611914797369707",
"channelName" : "新闻视频排行-新浪视频",
"channelNameSummary" : "新闻视频排行-新浪视...",
"channelUrl" : "http:\/\/video.sina.com.cn\/videotop\/",
"author" : "WWW.SINA.COM.CN",
"tags" : [],
"desc" : "",
"emailed" : False,
"forwarded" : False,
"english" : False
}  , {
"index" : 15,
"articleIndex" : "15798",
"favor" :  False ,
     "read" : False,    
"title" : "《超级新闻场》 女生大声打电话 男同事气急发飙",
"titleTip" : "《超级新闻场》 女生大声打电话 男同事气急发飙",
"titleSummary" : "《超级新闻场》 女生大声打电话 男同事气急发飙",
"descSummary" : "",
"url" : "http:\/\/go.rss.sina.com.cn\/redirect.php?url=http:\/\/video.sina.com.cn\/p\/news\/v\/2013-10-26\/071563065957.html",
"pubDate" : "2013年10月26日 (4天前)",
"enterDate" : "384155:57:48",
"channelId" : "-3535611914797369707",
"channelName" : "新闻视频排行-新浪视频",
"channelNameSummary" : "新闻视频排行-新浪视...",
"channelUrl" : "http:\/\/video.sina.com.cn\/videotop\/",
"author" : "WWW.SINA.COM.CN",
"tags" : [],
"desc" : "",
"emailed" : False,
"forwarded" : False,
"english" : False
}  , {
"index" : 16,
"articleIndex" : "15792",
"favor" :  False ,
     "read" : False,    
"title" : "《朝闻天下》 新快报记者陈永洲被刑拘 受人指使收人钱财 发表失实报道",
"titleTip" : "《朝闻天下》 新快报记者陈永洲被刑拘 受人指使收人钱财 发表失实报道",
"titleSummary" : "《朝闻天下》 新快报记者陈永洲被刑拘 受人指使收人钱财 发表失实报道",
"descSummary" : "",
"url" : "http:\/\/go.rss.sina.com.cn\/redirect.php?url=http:\/\/video.sina.com.cn\/p\/news\/v\/2013-10-26\/065063065869.html",
"pubDate" : "2013年10月26日 (4天前)",
"enterDate" : "384180:36:58",
"channelId" : "-3535611914797369707",
"channelName" : "新闻视频排行-新浪视频",
"channelNameSummary" : "新闻视频排行-新浪视...",
"channelUrl" : "http:\/\/video.sina.com.cn\/videotop\/",
"author" : "WWW.SINA.COM.CN",
"tags" : [],
"desc" : "",
"emailed" : False,
"forwarded" : False,
"english" : False
}  , {
"index" : 17,
"articleIndex" : "15797",
"favor" :  False ,
     "read" : False,    
"title" : "《今日最新闻》 女子现身村委会 声称遭村领导强奸",
"titleTip" : "《今日最新闻》 女子现身村委会 声称遭村领导强奸",
"titleSummary" : "《今日最新闻》 女子现身村委会 声称遭村领导强奸",
"descSummary" : "",
"url" : "http:\/\/go.rss.sina.com.cn\/redirect.php?url=http:\/\/video.sina.com.cn\/p\/news\/v\/2013-10-25\/235563065455.html",
"pubDate" : "2013年10月25日 (5天前)",
"enterDate" : "384148:37:43",
"channelId" : "-3535611914797369707",
"channelName" : "新闻视频排行-新浪视频",
"channelNameSummary" : "新闻视频排行-新浪视...",
"channelUrl" : "http:\/\/video.sina.com.cn\/videotop\/",
"author" : "WWW.SINA.COM.CN",
"tags" : [],
"desc" : "",
"emailed" : False,
"forwarded" : False,
"english" : False
}  , {
"index" : 18,
"articleIndex" : "15807",
"favor" :  False ,
     "read" : False,    
"title" : "《晚间新闻》 下周起个人信用报告网上可查",
"titleTip" : "《晚间新闻》 下周起个人信用报告网上可查",
"titleSummary" : "《晚间新闻》 下周起个人信用报告网上可查",
"descSummary" : "",
"url" : "http:\/\/go.rss.sina.com.cn\/redirect.php?url=http:\/\/video.sina.com.cn\/p\/news\/v\/2013-10-25\/000463061233.html",
"pubDate" : "2013年10月25日 (6天前)",
"enterDate" : "384101:43:24",
"channelId" : "-3535611914797369707",
"channelName" : "新闻视频排行-新浪视频",
"channelNameSummary" : "新闻视频排行-新浪视...",
"channelUrl" : "http:\/\/video.sina.com.cn\/videotop\/",
"author" : "WWW.SINA.COM.CN",
"tags" : [],
"desc" : "",
"emailed" : False,
"forwarded" : False,
"english" : False
}  , {
"index" : 19,
"articleIndex" : "15796",
"favor" :  False ,
     "read" : False,    
"title" : "貌美少女受邀当伴娘 遭多名男子扒光摸全身",
"titleTip" : "貌美少女受邀当伴娘 遭多名男子扒光摸全身",
"titleSummary" : "貌美少女受邀当伴娘 遭多名男子扒光摸全身",
"descSummary" : "",
"url" : "http:\/\/go.rss.sina.com.cn\/redirect.php?url=http:\/\/video.sina.com.cn\/p\/news\/v\/2013-10-24\/103963058435.html",
"pubDate" : "2013年10月24日 (6天前)",
"enterDate" : "384111:21:52",
"channelId" : "-3535611914797369707",
"channelName" : "新闻视频排行-新浪视频",
"channelNameSummary" : "新闻视频排行-新浪视...",
"channelUrl" : "http:\/\/video.sina.com.cn\/videotop\/",
"author" : "WWW.SINA.COM.CN",
"tags" : [],
"desc" : "",
"emailed" : False,
"forwarded" : False,
"english" : False
} ]
}
