{
"mode" : {"viewTitle" : 1,   "viewNew" : 0,  "pageIndex" : 1 },
 "channel" : {"id" : "-3737486723158162806", "booked" : False, "subNumber" : 1, "name" : "3G新闻-新浪科技", "url" : "http:\/\/tech.sina.com.cn\/3G\/index.shtml", "feed" : "http:\/\/rss.sina.com.cn\/tech\/3G\/guonei.xml", "author" : "WWW.SINA.COM.CN", "desc" : "3G新闻列表", "imageUrl" : "http:\/\/www.sinaimg.cn\/home\/deco\/2009\/0330\/logo_home_tech_news.gif", "postPerWeek" : "0", "lastCrawTime" : "16:48:41", "crawDateTime" : "16:48:41", "lastHttpCode" : "200"}, "page" : {
"startIndex" : 0,
"totalCount" : 5000,
"pageIndex" : 1,
"lastPage" : 250,
"pageSize" : 20,
"english" :  False },
 "unreadNum" : 0, "shotIndex" : -1,
"articles" : [
{
"index" : 0,
"articleIndex" : "9359",
"favor" :  False ,
     "read" : False,    
"title" : "高通副总裁沈劲：4G用户有望一年内过亿",
"titleTip" : "高通副总裁沈劲：4G用户有望一年内过亿",
"titleSummary" : "高通副总裁沈劲：4G用户有望一年内过亿",
"descSummary" : "美国高通公司副总裁沈劲 新浪科技讯 10月30日上午消息，201...",
"url" : "http:\/\/go.rss.sina.com.cn\/redirect.php?url=http:\/\/tech.sina.com.cn\/t\/3g\/2013-10-30\/12388867793.shtml",
"pubDate" : "12:38:50",
"enterDate" : "384200:39:47",
"channelId" : "-3737486723158162806",
"channelName" : "3G新闻-新浪科技",
"channelNameSummary" : "3G新闻-新浪科技",
"channelUrl" : "http:\/\/tech.sina.com.cn\/3G\/index.shtml",
"author" : "WWW.SINA.COM.CN",
"tags" : [],
"desc" : "美国高通公司副总裁沈劲 新浪科技讯 10月30日上午消息，2013年安卓全球开发者大会今日在深圳召开，美国高通公司副总裁沈劲在会上表示，未来4G普及的速度将远远快于3G，并有望在第一年内出现上亿用户。 沈劲预计，今年下半年将有非常多的4G手机上市，并且价位也会相....",
"emailed" : False,
"forwarded" : False,
"english" : False
}  , {
"index" : 1,
"articleIndex" : "9357",
"favor" :  False ,
     "read" : False,    
"title" : "广州移动4G正式体验在即：预约用户已超5万",
"titleTip" : "广州移动4G正式体验在即：预约用户已超5万",
"titleSummary" : "广州移动4G正式体验在即：预约用户已超5万",
"descSummary" : "广州移动4G正式体验在即 近日，笔者从中国移动广东公司广...",
"url" : "http:\/\/go.rss.sina.com.cn\/redirect.php?url=http:\/\/tech.sina.com.cn\/t\/3g\/2013-10-30\/04188866395.shtml",
"pubDate" : "昨天04:18:43",
"enterDate" : "384197:50:34",
"channelId" : "-3737486723158162806",
"channelName" : "3G新闻-新浪科技",
"channelNameSummary" : "3G新闻-新浪科技",
"channelUrl" : "http:\/\/tech.sina.com.cn\/3G\/index.shtml",
"author" : "WWW.SINA.COM.CN",
"tags" : [],
"desc" : "广州移动4G正式体验在即 近日，笔者从中国移动广东公司广州分公司(下称广州移动)获悉，正开展得如火如荼广深两地4G-LTE用户预约，光广州地区的预约便已超过5万人，而正式的4G体验即将在本周内开启。随后，通过审核的预约客户将陆续收到广州移动的通知，办理4G服务。9月29日....",
"emailed" : False,
"forwarded" : False,
"english" : False
}  , {
"index" : 2,
"articleIndex" : "9358",
"favor" :  False ,
     "read" : False,    
"title" : "联通借3G升级卡位4G竞争",
"titleTip" : "联通借3G升级卡位4G竞争",
"titleSummary" : "联通借3G升级卡位4G竞争",
"descSummary" : "京华时报讯(记者古晓宇)昨天记者了解到，联通在广东省内已经将3G网络全面升...",
"url" : "http:\/\/go.rss.sina.com.cn\/redirect.php?url=http:\/\/tech.sina.com.cn\/t\/3g\/2013-10-30\/02008866042.shtml",
"pubDate" : "昨天02:00:05",
"enterDate" : "384198:02:22",
"channelId" : "-3737486723158162806",
"channelName" : "3G新闻-新浪科技",
"channelNameSummary" : "3G新闻-新浪科技",
"channelUrl" : "http:\/\/tech.sina.com.cn\/3G\/index.shtml",
"author" : "WWW.SINA.COM.CN",
"tags" : [],
"desc" : "京华时报讯(记者古晓宇)昨天记者了解到，联通在广东省内已经将3G网络全面升级到42M，而这一网速实际上已经与即将到来的4G业务不相上下。 广东联通方面表示，其全省21个地市的3G网络已经全部升级至42M，这也是中国联通对广东地区3G网络的第四次升级，而包括北京在内的很....",
"emailed" : False,
"forwarded" : False,
"english" : False
}  , {
"index" : 3,
"articleIndex" : "9356",
"favor" :  False ,
     "read" : False,    
"title" : "路透社：中国运营商面临漫漫4G盈利路",
"titleTip" : "路透社：中国运营商面临漫漫4G盈利路",
"titleSummary" : "路透社：中国运营商面临漫漫4G盈利路",
"descSummary" : "导语：路透社今天刊登题为《中国电信公司面临漫漫4G盈利路》...",
"url" : "http:\/\/go.rss.sina.com.cn\/redirect.php?url=http:\/\/tech.sina.com.cn\/t\/2013-10-29\/14058863756.shtml",
"pubDate" : "昨天14:05:19",
"enterDate" : "384200:40:00",
"channelId" : "-3737486723158162806",
"channelName" : "3G新闻-新浪科技",
"channelNameSummary" : "3G新闻-新浪科技",
"channelUrl" : "http:\/\/tech.sina.com.cn\/3G\/index.shtml",
"author" : "WWW.SINA.COM.CN",
"tags" : [],
"desc" : "导语：路透社今天刊登题为《中国电信公司面临漫漫4G盈利路》(China telecom firms take long road to profit with 4G rollout)的评论文章称，虽然4G技术可以提供更快的网速，但由于需要耗费巨额成本，因此将挤压中国运营商的利润。 以下为文章全文： 升级....",
"emailed" : False,
"forwarded" : False,
"english" : False
}  , {
"index" : 4,
"articleIndex" : "9355",
"favor" :  False ,
     "read" : False,    
"title" : "广东联通\u201C送流量\u201D提前狙击移动4G",
"titleTip" : "广东联通\u201C送流量\u201D提前狙击移动4G",
"titleSummary" : "广东联通\u201C送流量\u201D提前狙击移动4G",
"descSummary" : "本报讯 (记者薛松)就在中国移动的4G网络即将全国正式放号之际，...",
"url" : "http:\/\/go.rss.sina.com.cn\/redirect.php?url=http:\/\/tech.sina.com.cn\/t\/3g\/2013-10-29\/07308862409.shtml",
"pubDate" : "昨天07:30:04",
"enterDate" : "384200:35:51",
"channelId" : "-3737486723158162806",
"channelName" : "3G新闻-新浪科技",
"channelNameSummary" : "3G新闻-新浪科技",
"channelUrl" : "http:\/\/tech.sina.com.cn\/3G\/index.shtml",
"author" : "WWW.SINA.COM.CN",
"tags" : [],
"desc" : "本报讯 (记者薛松)就在中国移动的4G网络即将全国正式放号之际，昨日，中国联通宣布广东全省21个地市的3G网络全部升级至42M，并宣称该网络实际已达到4G水平。广东联通同时还推出一系列流量赠送政策。分析认为，联通抢先出招\u201C打免费牌\u201D意在与移动争夺中高端用户。 业绩....",
"emailed" : False,
"forwarded" : False,
"english" : False
}  , {
"index" : 5,
"articleIndex" : "9354",
"favor" :  False ,
     "read" : False,    
"title" : "4G试商用在即资费成焦点 运营商寻流量价格平衡",
"titleTip" : "4G试商用在即资费成焦点 运营商寻流量价格平衡",
"titleSummary" : "4G试商用在即资费成焦点 运营商寻流量价格平衡",
"descSummary" : "本报记者 林琳 近日，工信部科技司官员对外透露：\u201C4...",
"url" : "http:\/\/go.rss.sina.com.cn\/redirect.php?url=http:\/\/tech.sina.com.cn\/t\/3g\/2013-10-28\/14578859842.shtml",
"pubDate" : "前天14:57:51",
"enterDate" : "384201:06:28",
"channelId" : "-3737486723158162806",
"channelName" : "3G新闻-新浪科技",
"channelNameSummary" : "3G新闻-新浪科技",
"channelUrl" : "http:\/\/tech.sina.com.cn\/3G\/index.shtml",
"author" : "WWW.SINA.COM.CN",
"tags" : [],
"desc" : "本报记者 林琳 近日，工信部科技司官员对外透露：\u201C4G已确定首发TD制式牌照，目前工信部还在组织运营商、专家就4G频谱划分进行协商。\u201D继中国移动广东公司公布4G套餐之后，中国移动近日在北方首个4G试商用城市\u2015\u2015青岛也开始办理4G手机，并推出50元、80元和120元三档....",
"emailed" : False,
"forwarded" : False,
"english" : False
}  , {
"index" : 6,
"articleIndex" : "9353",
"favor" :  False ,
     "read" : False,    
"title" : "中国电信9月新增3G用户309万 累计达9648万",
"titleTip" : "中国电信9月新增3G用户309万 累计达9648万",
"titleSummary" : "中国电信9月新增3G用户309万 累计达9648万",
"descSummary" : "新浪科技讯 10月28日午间消息，中国电信今天发布9月运营数...",
"url" : "http:\/\/go.rss.sina.com.cn\/redirect.php?url=http:\/\/tech.sina.com.cn\/t\/3g\/2013-10-28\/14218859774.shtml",
"pubDate" : "前天14:21:35",
"enterDate" : "384201:00:17",
"channelId" : "-3737486723158162806",
"channelName" : "3G新闻-新浪科技",
"channelNameSummary" : "3G新闻-新浪科技",
"channelUrl" : "http:\/\/tech.sina.com.cn\/3G\/index.shtml",
"author" : "WWW.SINA.COM.CN",
"tags" : [],
"desc" : "新浪科技讯 10月28日午间消息，中国电信今天发布9月运营数据，当月新增3G用户309万，累计用户数达9648万户。 9月中国电信新增CDMA用户250万，移动用户总数达1.8114亿。 固网业务方面，9月份，中国电信本地固话用户减少64万，累计为1.5793亿户。宽带用户新增76万....",
"emailed" : False,
"forwarded" : False,
"english" : False
}  , {
"index" : 7,
"articleIndex" : "9350",
"favor" :  False ,
     "read" : False,    
"title" : "中国联通前三季度净利增五成",
"titleTip" : "中国联通前三季度净利增五成",
"titleSummary" : "中国联通前三季度净利增五成",
"descSummary" : "新京报讯 (记者林其玲)与中移动前三季度净利润首次出现下滑不同，昨天中...",
"url" : "http:\/\/go.rss.sina.com.cn\/redirect.php?url=http:\/\/tech.sina.com.cn\/t\/3g\/2013-10-25\/02408851127.shtml",
"pubDate" : "2013年10月25日 (6天前)",
"enterDate" : "384199:02:17",
"channelId" : "-3737486723158162806",
"channelName" : "3G新闻-新浪科技",
"channelNameSummary" : "3G新闻-新浪科技",
"channelUrl" : "http:\/\/tech.sina.com.cn\/3G\/index.shtml",
"author" : "WWW.SINA.COM.CN",
"tags" : [],
"desc" : "新京报讯 (记者林其玲)与中移动前三季度净利润首次出现下滑不同，昨天中国联通公布的财报显示，今年前三季度该公司的营收和净利润均大幅增长，其中净利润增幅高达53%。但仍然不及中移动的十分之一。 3G业务收入占比上升 联通财报显示，前三季度该公司营收2201.7....",
"emailed" : False,
"forwarded" : False,
"english" : False
}  , {
"index" : 8,
"articleIndex" : "9351",
"favor" :  False ,
     "read" : False,    
"title" : "联通年底将启动4G招标",
"titleTip" : "联通年底将启动4G招标",
"titleSummary" : "联通年底将启动4G招标",
"descSummary" : "京华时报讯(记者古晓宇)在4G上最不积极的联通也终于要有所动作了。昨天记者了...",
"url" : "http:\/\/go.rss.sina.com.cn\/redirect.php?url=http:\/\/tech.sina.com.cn\/t\/3g\/2013-10-25\/02108851010.shtml",
"pubDate" : "2013年10月25日 (6天前)",
"enterDate" : "384197:02:06",
"channelId" : "-3737486723158162806",
"channelName" : "3G新闻-新浪科技",
"channelNameSummary" : "3G新闻-新浪科技",
"channelUrl" : "http:\/\/tech.sina.com.cn\/3G\/index.shtml",
"author" : "WWW.SINA.COM.CN",
"tags" : [],
"desc" : "京华时报讯(记者古晓宇)在4G上最不积极的联通也终于要有所动作了。昨天记者了解到，中国联通已经开始规划4G招标，预计年底将启动4G设备的集采。 由于握有最为成熟的3G技术，且可以通过技术升级实现接近4G的网络速率，联通在对待4G问题上是国内三家运营商中最不主动的，....",
"emailed" : False,
"forwarded" : False,
"english" : False
}  , {
"index" : 9,
"articleIndex" : "9352",
"favor" :  False ,
     "read" : False,    
"title" : "中国电信双4G牌照几成定局",
"titleTip" : "中国电信双4G牌照几成定局",
"titleSummary" : "中国电信双4G牌照几成定局",
"descSummary" : "北京商报讯(记者 吴辰光)北京商报记者昨日获悉，工信部已对中国电信正式下...",
"url" : "http:\/\/go.rss.sina.com.cn\/redirect.php?url=http:\/\/tech.sina.com.cn\/t\/3g\/2013-10-25\/01208850682.shtml",
"pubDate" : "2013年10月25日 (6天前)",
"enterDate" : "384195:42:03",
"channelId" : "-3737486723158162806",
"channelName" : "3G新闻-新浪科技",
"channelNameSummary" : "3G新闻-新浪科技",
"channelUrl" : "http:\/\/tech.sina.com.cn\/3G\/index.shtml",
"author" : "WWW.SINA.COM.CN",
"tags" : [],
"desc" : "北京商报讯(记者 吴辰光)北京商报记者昨日获悉，工信部已对中国电信正式下发有关允许开展TD-LTE(中国移动标准)试验网的批复文件，这也意味着中国电信获双4G牌照几成定局。 一直以来，除了中国移动将肯定使用自主TD-LTE标准外，围绕着中国电信和中国联通将使用哪种标准....",
"emailed" : False,
"forwarded" : False,
"english" : False
}  , {
"index" : 10,
"articleIndex" : "9349",
"favor" :  False ,
     "read" : False,    
"title" : "4G牌照发放时间引狂猜 工信部仍未明晰",
"titleTip" : "4G牌照发放时间引狂猜 工信部仍未明晰",
"titleSummary" : "4G牌照发放时间引狂猜 工信部仍未明晰",
"descSummary" : "新浪科技讯 10月25日消息，尽管有业内人士曾猜本周有望发放4G...",
"url" : "http:\/\/go.rss.sina.com.cn\/redirect.php?url=http:\/\/tech.sina.com.cn\/t\/3g\/2013-10-25\/01158850609.shtml",
"pubDate" : "2013年10月25日 (6天前)",
"enterDate" : "384201:08:37",
"channelId" : "-3737486723158162806",
"channelName" : "3G新闻-新浪科技",
"channelNameSummary" : "3G新闻-新浪科技",
"channelUrl" : "http:\/\/tech.sina.com.cn\/3G\/index.shtml",
"author" : "WWW.SINA.COM.CN",
"tags" : [],
"desc" : "新浪科技讯 10月25日消息，尽管有业内人士曾猜本周有望发放4G牌照，但在24日举行的2013年前三季度工业通信业发展情况发布会上，工信部相关负责人仍不松口，未透露4G牌照具体发放时间，而综观以往诸多对4G牌照发放时间表的猜测，基本上全都失败。 工信部未透露牌照发放....",
"emailed" : False,
"forwarded" : False,
"english" : False
}  , {
"index" : 11,
"articleIndex" : "9348",
"favor" :  False ,
     "read" : False,    
"title" : "联通将启动首次4G设备招标",
"titleTip" : "联通将启动首次4G设备招标",
"titleSummary" : "联通将启动首次4G设备招标",
"descSummary" : "北京商报讯(记者 曲忠芳) 继中国电信启动首次4G设备招标后，中国联通也将...",
"url" : "http:\/\/go.rss.sina.com.cn\/redirect.php?url=http:\/\/tech.sina.com.cn\/t\/3g\/2013-10-24\/01008846057.shtml",
"pubDate" : "2013年10月24日 (1周前)",
"enterDate" : "384196:26:22",
"channelId" : "-3737486723158162806",
"channelName" : "3G新闻-新浪科技",
"channelNameSummary" : "3G新闻-新浪科技",
"channelUrl" : "http:\/\/tech.sina.com.cn\/3G\/index.shtml",
"author" : "WWW.SINA.COM.CN",
"tags" : [],
"desc" : "北京商报讯(记者 曲忠芳) 继中国电信启动首次4G设备招标后，中国联通也将于近日开展大规模的4G设备集采招标。昨日，有消息人士透露，中国联通采用FDD\/TDD混合组网的方式，集采LTE基站5.2万个，其中FDD-LTE份额占到约80%。 数据显示，中国联通此次集采中， TD-LTE基站1....",
"emailed" : False,
"forwarded" : False,
"english" : False
}  , {
"index" : 12,
"articleIndex" : "9347",
"favor" :  False ,
     "read" : False,    
"title" : "4G发牌进入最后清障阶段 运营商借频谱博弈未来",
"titleTip" : "4G发牌进入最后清障阶段 运营商借频谱博弈未来",
"titleSummary" : "4G发牌进入最后清障阶段 运营商借频谱博弈未来",
"descSummary" : "本报记者 钟顺钦 4G发牌已然是当下通信业最大关注焦点...",
"url" : "http:\/\/go.rss.sina.com.cn\/redirect.php?url=http:\/\/tech.sina.com.cn\/t\/3g\/2013-10-23\/14568845163.shtml",
"pubDate" : "2013年10月23日 (1周前)",
"enterDate" : "384200:54:45",
"channelId" : "-3737486723158162806",
"channelName" : "3G新闻-新浪科技",
"channelNameSummary" : "3G新闻-新浪科技",
"channelUrl" : "http:\/\/tech.sina.com.cn\/3G\/index.shtml",
"author" : "WWW.SINA.COM.CN",
"tags" : [],
"desc" : "本报记者 钟顺钦 4G发牌已然是当下通信业最大关注焦点。工信部科技司副巡视员代晓慧近日透露，工信部上下正忙着筹备发放4G牌照，还有4G频谱的分配。根据传出的4G频率规划的消息，中国电信将获得1.8GHz频段，中国联通将获得2.1GHz频段，同时工信部将2500MHz到2690MHz频....",
"emailed" : False,
"forwarded" : False,
"english" : False
}  , {
"index" : 13,
"articleIndex" : "9346",
"favor" :  False ,
     "read" : False,    
"title" : "我国移动电话用户总数破12亿 3G用户占比达31%",
"titleTip" : "我国移动电话用户总数破12亿 3G用户占比达31%",
"titleSummary" : "我国移动电话用户总数破12亿 3G用户占比达31%",
"descSummary" : "工信部运行监测协调局 一、总体情况 9月份，我国通信...",
"url" : "http:\/\/go.rss.sina.com.cn\/redirect.php?url=http:\/\/tech.sina.com.cn\/t\/3g\/2013-10-23\/14428845119.shtml",
"pubDate" : "2013年10月23日 (1周前)",
"enterDate" : "384201:11:32",
"channelId" : "-3737486723158162806",
"channelName" : "3G新闻-新浪科技",
"channelNameSummary" : "3G新闻-新浪科技",
"channelUrl" : "http:\/\/tech.sina.com.cn\/3G\/index.shtml",
"author" : "WWW.SINA.COM.CN",
"tags" : [],
"desc" : "工信部运行监测协调局 一、总体情况 9月份，我国通信业总体运行平稳。 电信业务总量和业务收入增速有所回落。9月份，全国电信业务总量完成1188.1亿元 ，同比增长7.2%；电信主营业务收入完成1018.1亿元，同比增长7.5%。1~9月，全国电信业务总量累计完成10....",
"emailed" : False,
"forwarded" : False,
"english" : False
}  , {
"index" : 14,
"articleIndex" : "9345",
"favor" :  False ,
     "read" : False,    
"title" : "传中国联通将启动4G设备建网 将采购TD-LTE基站",
"titleTip" : "传中国联通将启动4G设备建网 将采购TD-LTE基站",
"titleSummary" : "传中国联通将启动4G设备建网 将采购TD-LTE基站",
"descSummary" : "新浪科技讯 10月23日消息，业内传出的消息显示，继中...",
"url" : "http:\/\/go.rss.sina.com.cn\/redirect.php?url=http:\/\/tech.sina.com.cn\/t\/3g\/2013-10-23\/10498844715.shtml",
"pubDate" : "2013年10月23日 (1周前)",
"enterDate" : "384200:48:50",
"channelId" : "-3737486723158162806",
"channelName" : "3G新闻-新浪科技",
"channelNameSummary" : "3G新闻-新浪科技",
"channelUrl" : "http:\/\/tech.sina.com.cn\/3G\/index.shtml",
"author" : "WWW.SINA.COM.CN",
"tags" : [],
"desc" : "新浪科技讯 10月23日消息，业内传出的消息显示，继中国电信开始4G设备大规模招标后，中国联通也即将开始进行大规模4G设备招标，目前正在规划招标事宜，预计规模为4万多基站，TD-LTE和FDD LTE基站各占一部分。 此前，中国移动最早进行4G设备招标，其后，中国电信于8月进....",
"emailed" : False,
"forwarded" : False,
"english" : False
}  , {
"index" : 15,
"articleIndex" : "9344",
"favor" :  False ,
     "read" : False,    
"title" : "中移动或在本周获固网牌照：拿网间结算费交换",
"titleTip" : "中移动或在本周获固网牌照：拿网间结算费交换",
"titleSummary" : "中移动或在本周获固网牌照：拿网间结算费交换",
"descSummary" : "中国移动或在本周揽得固网牌照 2011年，国家发改委对...",
"url" : "http:\/\/go.rss.sina.com.cn\/redirect.php?url=http:\/\/tech.sina.com.cn\/t\/3g\/2013-10-23\/05518843538.shtml",
"pubDate" : "2013年10月23日 (1周前)",
"enterDate" : "384197:51:26",
"channelId" : "-3737486723158162806",
"channelName" : "3G新闻-新浪科技",
"channelNameSummary" : "3G新闻-新浪科技",
"channelUrl" : "http:\/\/tech.sina.com.cn\/3G\/index.shtml",
"author" : "WWW.SINA.COM.CN",
"tags" : [],
"desc" : "中国移动或在本周揽得固网牌照 2011年，国家发改委对中国联通、电信提起宽带反垄断，中移动乘势而入以\u201C反垄断\u201D之名正式申请固网牌照，此后中移动将获固网牌照的消息就不时传出。近日业内盛传，中移动将于本周内获固网牌照，甚至指确实时间为本周三(23日)，中移动戴了多年....",
"emailed" : False,
"forwarded" : False,
"english" : False
}  , {
"index" : 16,
"articleIndex" : "9343",
"favor" :  False ,
     "read" : False,    
"title" : "LG静候4G蓄势年底反扑",
"titleTip" : "LG静候4G蓄势年底反扑",
"titleSummary" : "LG静候4G蓄势年底反扑",
"descSummary" : "在沉寂了一段时间后，LG终于在中国市场推出了最新的手机产品G2，并携手京东...",
"url" : "http:\/\/go.rss.sina.com.cn\/redirect.php?url=http:\/\/tech.sina.com.cn\/t\/3g\/2013-10-23\/01318841888.shtml",
"pubDate" : "2013年10月23日 (1周前)",
"enterDate" : "384196:31:14",
"channelId" : "-3737486723158162806",
"channelName" : "3G新闻-新浪科技",
"channelNameSummary" : "3G新闻-新浪科技",
"channelUrl" : "http:\/\/tech.sina.com.cn\/3G\/index.shtml",
"author" : "WWW.SINA.COM.CN",
"tags" : [],
"desc" : "在沉寂了一段时间后，LG终于在中国市场推出了最新的手机产品G2，并携手京东商城加大渠道拓展力度。在宣告了自己强势回归的同时，LG还将静候国内4G牌照发放，蓄势年底反扑。 打破传统设计方式 近日，LG在京举行新品发布会，带来了旗舰机型G2。该手机打破了传统手....",
"emailed" : False,
"forwarded" : False,
"english" : False
}  , {
"index" : 17,
"articleIndex" : "9342",
"favor" :  False ,
     "read" : False,    
"title" : "分羹运营商市场 苏宁有望获首张移动转售牌照",
"titleTip" : "分羹运营商市场 苏宁有望获首张移动转售牌照",
"titleSummary" : "分羹运营商市场 苏宁有望获首张移动转售牌照",
"descSummary" : "每经记者 蒋佩芳 发自上海 历经数轮评审，苏宁在移动通信...",
"url" : "http:\/\/go.rss.sina.com.cn\/redirect.php?url=http:\/\/tech.sina.com.cn\/t\/3g\/2013-10-22\/01078837849.shtml",
"pubDate" : "2013年10月22日 (1周前)",
"enterDate" : "384200:41:47",
"channelId" : "-3737486723158162806",
"channelName" : "3G新闻-新浪科技",
"channelNameSummary" : "3G新闻-新浪科技",
"channelUrl" : "http:\/\/tech.sina.com.cn\/3G\/index.shtml",
"author" : "WWW.SINA.COM.CN",
"tags" : [],
"desc" : "每经记者 蒋佩芳 发自上海 历经数轮评审，苏宁在移动通信转售业务上已先人一步。 10月20日晚，苏宁发布消息称，已于日前率先和中国联通、中国电信两大运营商就移动通信转售业务签署合作协议。按照当前进度，苏宁极有可能成为国内首批获得移动通信转售牌照的企业....",
"emailed" : False,
"forwarded" : False,
"english" : False
}  , {
"index" : 18,
"articleIndex" : "9341",
"favor" :  False ,
     "read" : False,    
"title" : "中国移动9月新增3G用户1082万 累计达1.69亿",
"titleTip" : "中国移动9月新增3G用户1082万 累计达1.69亿",
"titleSummary" : "中国移动9月新增3G用户1082万 累计达1.69亿",
"descSummary" : "新浪科技讯 10月21日下午消息，中国移动今天公布了9月份...",
"url" : "http:\/\/go.rss.sina.com.cn\/redirect.php?url=http:\/\/tech.sina.com.cn\/t\/3g\/2013-10-21\/17128837362.shtml",
"pubDate" : "2013年10月21日 (1周前)",
"enterDate" : "384200:48:51",
"channelId" : "-3737486723158162806",
"channelName" : "3G新闻-新浪科技",
"channelNameSummary" : "3G新闻-新浪科技",
"channelUrl" : "http:\/\/tech.sina.com.cn\/3G\/index.shtml",
"author" : "WWW.SINA.COM.CN",
"tags" : [],
"desc" : "新浪科技讯 10月21日下午消息，中国移动今天公布了9月份最新运营数据，2013年9月，中国移动3G用户新增数再次突破1000万，达1081.5万，累计3G用户数达1.69502亿户；净增用户数477.1万，截至2013年9月底，中国移动用户总数达7.55186亿户。(智勇)",
"emailed" : False,
"forwarded" : False,
"english" : False
}  , {
"index" : 19,
"articleIndex" : "9340",
"favor" :  False ,
     "read" : False,    
"title" : "中国联通3G用户9月新增381万 累计达1.12亿",
"titleTip" : "中国联通3G用户9月新增381万 累计达1.12亿",
"titleSummary" : "中国联通3G用户9月新增381万 累计达1.12亿",
"descSummary" : "新浪科技讯 10月18日下午消息，中国联通今天发布9月份运营...",
"url" : "http:\/\/go.rss.sina.com.cn\/redirect.php?url=http:\/\/tech.sina.com.cn\/t\/3g\/2013-10-18\/17038830744.shtml",
"pubDate" : "2013年10月18日 (1周前)",
"enterDate" : "384200:51:46",
"channelId" : "-3737486723158162806",
"channelName" : "3G新闻-新浪科技",
"channelNameSummary" : "3G新闻-新浪科技",
"channelUrl" : "http:\/\/tech.sina.com.cn\/3G\/index.shtml",
"author" : "WWW.SINA.COM.CN",
"tags" : [],
"desc" : "新浪科技讯 10月18日下午消息，中国联通今天发布9月份运营数据，当月新增3G用户380.9万户，达1.11626亿户；中国联通本月新增移动用户数为329.2万，移动用户数累计达2.72764亿户。 固网业务方面，9月份，中国联通本地固话用户净减31万，累计用户数为8872.4万。宽带用户....",
"emailed" : False,
"forwarded" : False,
"english" : False
} ]
}
