{
"mode" : {"viewTitle" : 1,   "viewNew" : 0,  "pageIndex" : 2 },
 "channel" : {"id" : "-3737486723158162806", "booked" : False, "subNumber" : 1, "name" : "3G新闻-新浪科技", "url" : "http:\/\/tech.sina.com.cn\/3G\/index.shtml", "feed" : "http:\/\/rss.sina.com.cn\/tech\/3G\/guonei.xml", "author" : "WWW.SINA.COM.CN", "desc" : "3G新闻列表", "imageUrl" : "http:\/\/www.sinaimg.cn\/home\/deco\/2009\/0330\/logo_home_tech_news.gif", "postPerWeek" : "0", "lastCrawTime" : "16:48:41", "crawDateTime" : "16:48:41", "lastHttpCode" : "200"}, "page" : {
"startIndex" : 20,
"totalCount" : 5000,
"pageIndex" : 2,
"lastPage" : 250,
"pageSize" : 20,
"english" :  False },
 "unreadNum" : 0, "shotIndex" : -1,
"articles" : [
{
"index" : 0,
"articleIndex" : "9339",
"favor" :  False ,
     "read" : False,    
"title" : "工信部电信研究院已启动5G研究工作",
"titleTip" : "工信部电信研究院已启动5G研究工作",
"titleSummary" : "工信部电信研究院已启动5G研究工作",
"descSummary" : "飞象网讯(刘妍\/文)10月18日消息，在昨日举办的\u201C新一代宽带无线...",
"url" : "http:\/\/go.rss.sina.com.cn\/redirect.php?url=http:\/\/tech.sina.com.cn\/t\/3g\/2013-10-18\/16418830699.shtml",
"pubDate" : "2013年10月18日 (1周前)",
"enterDate" : "384200:59:36",
"channelId" : "-3737486723158162806",
"channelName" : "3G新闻-新浪科技",
"channelNameSummary" : "3G新闻-新浪科技",
"channelUrl" : "http:\/\/tech.sina.com.cn\/3G\/index.shtml",
"author" : "WWW.SINA.COM.CN",
"tags" : [],
"desc" : "飞象网讯(刘妍\/文)10月18日消息，在昨日举办的\u201C新一代宽带无线移动通信发展论坛\u201D中，工信部电信研究院标准所所长王志勤透露，目前电研院承担5G研究的牵头工作，启动了5G的概念和先进技术的研究工作。 目前，大数据、大流量对网络承载提出了更高的要求，据IDC预测，20....",
"emailed" : False,
"forwarded" : False,
"english" : False
}  , {
"index" : 1,
"articleIndex" : "9338",
"favor" :  False ,
     "read" : False,    
"title" : "移动互联网今年迎4G商业元年 工信部启动5G研究",
"titleTip" : "移动互联网今年迎4G商业元年 工信部启动5G研究",
"titleSummary" : "移动互联网今年迎4G商业元年 工信部启动5G研究",
"descSummary" : "中新社北京10月17日电 (张沛)中国工业和信息化部科技...",
"url" : "http:\/\/go.rss.sina.com.cn\/redirect.php?url=http:\/\/tech.sina.com.cn\/t\/3g\/2013-10-17\/22038826889.shtml",
"pubDate" : "2013年10月17日 (1周前)",
"enterDate" : "384199:24:07",
"channelId" : "-3737486723158162806",
"channelName" : "3G新闻-新浪科技",
"channelNameSummary" : "3G新闻-新浪科技",
"channelUrl" : "http:\/\/tech.sina.com.cn\/3G\/index.shtml",
"author" : "WWW.SINA.COM.CN",
"tags" : [],
"desc" : "中新社北京10月17日电 (张沛)中国工业和信息化部科技司副巡视员代晓慧17日在北京指出，中国第四代(4G)移动通信技术与标准TD-LTE已形成完整产业链，扩大规模试验的用户体验非常好，政策领域的商务准备工作全面开展。除了促进TD-LTE持续发展，工信部还面向2020年开展5G技术研究....",
"emailed" : False,
"forwarded" : False,
"english" : False
}  , {
"index" : 2,
"articleIndex" : "9337",
"favor" :  False ,
     "read" : False,    
"title" : "英国将拍卖部分国防转民用频谱 或用于4G业务",
"titleTip" : "英国将拍卖部分国防转民用频谱 或用于4G业务",
"titleSummary" : "英国将拍卖部分国防转民用频谱 或用于4G业务",
"descSummary" : "C114讯 北京时间10月17日早间消息(蒋均牧)据国外媒体报...",
"url" : "http:\/\/go.rss.sina.com.cn\/redirect.php?url=http:\/\/tech.sina.com.cn\/t\/3g\/2013-10-17\/10168825500.shtml",
"pubDate" : "2013年10月17日 (1周前)",
"enterDate" : "384201:10:13",
"channelId" : "-3737486723158162806",
"channelName" : "3G新闻-新浪科技",
"channelNameSummary" : "3G新闻-新浪科技",
"channelUrl" : "http:\/\/tech.sina.com.cn\/3G\/index.shtml",
"author" : "WWW.SINA.COM.CN",
"tags" : [],
"desc" : "C114讯 北京时间10月17日早间消息(蒋均牧)据国外媒体报道，英国电信&#160;监管机构Ofcom正在邀请对国防部释放民用的无线频谱感兴趣的投标者递交意向书。 可用的无线频谱包括2.3GHz频段上的40MHz和3.4GHz到3.6GHz频段上的150MHz，这些频段正被欧洲各地统和用于移动....",
"emailed" : False,
"forwarded" : False,
"english" : False
}  , {
"index" : 3,
"articleIndex" : "9336",
"favor" :  False ,
     "read" : False,    
"title" : "小灵通频率争夺战无结果 暂时未列入4G频段",
"titleTip" : "小灵通频率争夺战无结果 暂时未列入4G频段",
"titleSummary" : "小灵通频率争夺战无结果 暂时未列入4G频段",
"descSummary" : "新浪科技 康钊 日前传出的4G频率规划让中国电信和中国联通...",
"url" : "http:\/\/go.rss.sina.com.cn\/redirect.php?url=http:\/\/tech.sina.com.cn\/t\/3g\/2013-10-17\/06558824411.shtml",
"pubDate" : "2013年10月17日 (1周前)",
"enterDate" : "384200:49:39",
"channelId" : "-3737486723158162806",
"channelName" : "3G新闻-新浪科技",
"channelNameSummary" : "3G新闻-新浪科技",
"channelUrl" : "http:\/\/tech.sina.com.cn\/3G\/index.shtml",
"author" : "WWW.SINA.COM.CN",
"tags" : [],
"desc" : "新浪科技 康钊 日前传出的4G频率规划让中国电信和中国联通喘了一口气，因为他们最担心的小灵通频率未被强行划走，小灵通频率归属仍遥遥无期，三大运营商之间似乎永远在博弈。 4G频段规划未纳入小灵通 尽管3年前工信部就下令要将小灵通逐步退网，但小灵通....",
"emailed" : False,
"forwarded" : False,
"english" : False
}  , {
"index" : 4,
"articleIndex" : "9335",
"favor" :  False ,
     "read" : False,    
"title" : "4G时代：电信业超高暴利将终结",
"titleTip" : "4G时代：电信业超高暴利将终结",
"titleSummary" : "4G时代：电信业超高暴利将终结",
"descSummary" : "田范江 人类的天空将有更密集的电波，这些电波信号将让我们进入信息...",
"url" : "http:\/\/go.rss.sina.com.cn\/redirect.php?url=http:\/\/tech.sina.com.cn\/t\/3g\/2013-10-17\/02518824121.shtml",
"pubDate" : "2013年10月17日 (2周前)",
"enterDate" : "384201:16:20",
"channelId" : "-3737486723158162806",
"channelName" : "3G新闻-新浪科技",
"channelNameSummary" : "3G新闻-新浪科技",
"channelUrl" : "http:\/\/tech.sina.com.cn\/3G\/index.shtml",
"author" : "WWW.SINA.COM.CN",
"tags" : [],
"desc" : "田范江 人类的天空将有更密集的电波，这些电波信号将让我们进入信息高速公路时代。习惯了高速收费的中国人，自然会想到，信息高速公路收费贵吗？是的，这正是我们要探讨的问题。 话得从信息高速公路的标准说起。未来，无论生活在美国还是中国，每隔约一千米都会....",
"emailed" : False,
"forwarded" : False,
"english" : False
}  , {
"index" : 5,
"articleIndex" : "9334",
"favor" :  False ,
     "read" : False,    
"title" : "中移动4G核心网设备集采结果出炉",
"titleTip" : "中移动4G核心网设备集采结果出炉",
"titleSummary" : "中移动4G核心网设备集采结果出炉",
"descSummary" : "飞象网讯(马秋月\/文)10月15日消息，近日中国移动2013年4G网络工程...",
"url" : "http:\/\/go.rss.sina.com.cn\/redirect.php?url=http:\/\/tech.sina.com.cn\/t\/3g\/2013-10-15\/13118817898.shtml",
"pubDate" : "2013年10月15日 (2周前)",
"enterDate" : "384201:12:40",
"channelId" : "-3737486723158162806",
"channelName" : "3G新闻-新浪科技",
"channelNameSummary" : "3G新闻-新浪科技",
"channelUrl" : "http:\/\/tech.sina.com.cn\/3G\/index.shtml",
"author" : "WWW.SINA.COM.CN",
"tags" : [],
"desc" : "飞象网讯(马秋月\/文)10月15日消息，近日中国移动2013年4G网络工程核心网融合设备集采结果出炉。中标MME\/SGSN、SAE、GW\/GGSN的企业为上海贝尔、中兴、华为、爱立信、诺西和新邮通。中标HSS\/HLR设备的企业为爱立信、上海贝尔、华为和中兴。 据悉，今年7月份中国移动启动2....",
"emailed" : False,
"forwarded" : False,
"english" : False
}  , {
"index" : 6,
"articleIndex" : "9333",
"favor" :  False ,
     "read" : False,    
"title" : "4G频谱明确引发牌猜想 专家称提前发放无可能",
"titleTip" : "4G频谱明确引发牌猜想 专家称提前发放无可能",
"titleSummary" : "4G频谱明确引发牌猜想 专家称提前发放无可能",
"descSummary" : "通信世界网讯(CWW) 10月15日消息，最近，关于4G频谱...",
"url" : "http:\/\/go.rss.sina.com.cn\/redirect.php?url=http:\/\/tech.sina.com.cn\/t\/3g\/2013-10-15\/10318817619.shtml",
"pubDate" : "2013年10月15日 (2周前)",
"enterDate" : "384201:02:54",
"channelId" : "-3737486723158162806",
"channelName" : "3G新闻-新浪科技",
"channelNameSummary" : "3G新闻-新浪科技",
"channelUrl" : "http:\/\/tech.sina.com.cn\/3G\/index.shtml",
"author" : "WWW.SINA.COM.CN",
"tags" : [],
"desc" : "通信世界网讯(CWW) 10月15日消息，最近，关于4G频谱已分，最快月底发放牌照的消息铺面而来，对此记者采访了国家无线电频谱研究所顾问何廷润，他表示：\u201C4G牌照月内发放可能性很小，并表示从目前消息指出的4G频谱情况来看，电信与联通并无谁抢占先机之说，两家尚处于同一起跑线....",
"emailed" : False,
"forwarded" : False,
"english" : False
}  , {
"index" : 7,
"articleIndex" : "9332",
"favor" :  False ,
     "read" : False,    
"title" : "中移动4G试点城市扩至326个",
"titleTip" : "中移动4G试点城市扩至326个",
"titleSummary" : "中移动4G试点城市扩至326个",
"descSummary" : "晨报讯(记者 焦立坤)中国移动4G的脚步越来越快。北京晨报记者昨天从中国...",
"url" : "http:\/\/go.rss.sina.com.cn\/redirect.php?url=http:\/\/tech.sina.com.cn\/t\/3g\/2013-10-15\/01308815590.shtml",
"pubDate" : "2013年10月15日 (2周前)",
"enterDate" : "384198:33:06",
"channelId" : "-3737486723158162806",
"channelName" : "3G新闻-新浪科技",
"channelNameSummary" : "3G新闻-新浪科技",
"channelUrl" : "http:\/\/tech.sina.com.cn\/3G\/index.shtml",
"author" : "WWW.SINA.COM.CN",
"tags" : [],
"desc" : "晨报讯(记者 焦立坤)中国移动4G的脚步越来越快。北京晨报记者昨天从中国移动了解到，工信部已经批复中国移动进行在北京等全国326个城市4G扩大规模试验。 据悉，中国移动此次扩大规模试验工程将建设基站20.6万个，在100个重点城市实现主城区的连续覆盖和一般城区的数据....",
"emailed" : False,
"forwarded" : False,
"english" : False
}  , {
"index" : 8,
"articleIndex" : "9331",
"favor" :  False ,
     "read" : False,    
"title" : "中移动4G网络陆续试商用 盈利模式依然待解",
"titleTip" : "中移动4G网络陆续试商用 盈利模式依然待解",
"titleSummary" : "中移动4G网络陆续试商用 盈利模式依然待解",
"descSummary" : "每经记者 孙卫涛 发自北京 中国移动4G网络试商用正在加快...",
"url" : "http:\/\/go.rss.sina.com.cn\/redirect.php?url=http:\/\/tech.sina.com.cn\/t\/3g\/2013-10-15\/00508815007.shtml",
"pubDate" : "2013年10月15日 (2周前)",
"enterDate" : "384198:52:33",
"channelId" : "-3737486723158162806",
"channelName" : "3G新闻-新浪科技",
"channelNameSummary" : "3G新闻-新浪科技",
"channelUrl" : "http:\/\/tech.sina.com.cn\/3G\/index.shtml",
"author" : "WWW.SINA.COM.CN",
"tags" : [],
"desc" : "每经记者 孙卫涛 发自北京 中国移动4G网络试商用正在加快步伐。 继中国移动广东公司公布4G套餐之后，近日中国移动在北方首个4G试商用城市\u2015\u2015青岛也开始办理4G手机，并推出50元、80元和120元三档流量套餐卡。 不少业内人士对 《每日经济新闻》记者表示，....",
"emailed" : False,
"forwarded" : False,
"english" : False
}  , {
"index" : 9,
"articleIndex" : "9330",
"favor" :  False ,
     "read" : False,    
"title" : "4G频段划分体现平衡 三大运营商重回起跑线",
"titleTip" : "4G频段划分体现平衡 三大运营商重回起跑线",
"titleSummary" : "4G频段划分体现平衡 三大运营商重回起跑线",
"descSummary" : "新浪科技讯 10月15日消息，在4G频率规划的消息传出后，从...",
"url" : "http:\/\/go.rss.sina.com.cn\/redirect.php?url=http:\/\/tech.sina.com.cn\/t\/3g\/2013-10-15\/00308814976.shtml",
"pubDate" : "2013年10月15日 (2周前)",
"enterDate" : "384201:03:54",
"channelId" : "-3737486723158162806",
"channelName" : "3G新闻-新浪科技",
"channelNameSummary" : "3G新闻-新浪科技",
"channelUrl" : "http:\/\/tech.sina.com.cn\/3G\/index.shtml",
"author" : "WWW.SINA.COM.CN",
"tags" : [],
"desc" : "新浪科技讯 10月15日消息，在4G频率规划的消息传出后，从中可看出，三大运营商都将分配到不太好用的高频段频谱，在频段问题上都回到了同一起跑线，而之前他们梦想得到的低频段频谱一个都没得到。 两个4G标准都希望获得较好的频率 引发业内担心4G频谱资源划分不....",
"emailed" : False,
"forwarded" : False,
"english" : False
}  , {
"index" : 10,
"articleIndex" : "9329",
"favor" :  False ,
     "read" : False,    
"title" : "中移动海报曝光4G版iPhone 5s\/5c将于11月上市",
"titleTip" : "中移动海报曝光4G版iPhone 5s\/5c将于11月上市",
"titleSummary" : "中移动海报曝光4G版iPhone 5s\/5c将于11月上市",
"descSummary" : "中移动海报曝光：4G版iPhone 5s\/5c将于11月上市(Tec...",
"url" : "http:\/\/go.rss.sina.com.cn\/redirect.php?url=http:\/\/tech.sina.com.cn\/t\/3g\/2013-10-14\/16318814479.shtml",
"pubDate" : "2013年10月14日 (2周前)",
"enterDate" : "384201:05:58",
"channelId" : "-3737486723158162806",
"channelName" : "3G新闻-新浪科技",
"channelNameSummary" : "3G新闻-新浪科技",
"channelUrl" : "http:\/\/tech.sina.com.cn\/3G\/index.shtml",
"author" : "WWW.SINA.COM.CN",
"tags" : [],
"desc" : "中移动海报曝光：4G版iPhone 5s\/5c将于11月上市(TechWeb配图) 【TechWeb报道】10月14日消息，近日，iTools官方微博曝光了中移动的宣传海报，海报显示移动版4G版iPhone 5s\/5c即将面世，时间为今年11月。 据悉，移动4G版5s全面支持移动4G(TD-LTE)，其最高下行速度为10....",
"emailed" : False,
"forwarded" : False,
"english" : False
}  , {
"index" : 11,
"articleIndex" : "9328",
"favor" :  False ,
     "read" : False,    
"title" : "运营商4G发展下一步：VoLTE迎来商用拐点",
"titleTip" : "运营商4G发展下一步：VoLTE迎来商用拐点",
"titleSummary" : "运营商4G发展下一步：VoLTE迎来商用拐点",
"descSummary" : "通信世界网讯(CWW)尽管在运营商的业务构成中，语音收入...",
"url" : "http:\/\/go.rss.sina.com.cn\/redirect.php?url=http:\/\/tech.sina.com.cn\/t\/3g\/2013-10-14\/11108813923.shtml",
"pubDate" : "2013年10月14日 (2周前)",
"enterDate" : "384200:47:05",
"channelId" : "-3737486723158162806",
"channelName" : "3G新闻-新浪科技",
"channelNameSummary" : "3G新闻-新浪科技",
"channelUrl" : "http:\/\/tech.sina.com.cn\/3G\/index.shtml",
"author" : "WWW.SINA.COM.CN",
"tags" : [],
"desc" : "通信世界网讯(CWW)尽管在运营商的业务构成中，语音收入的下滑已不可逆转，但作为一种成熟的业务，运营商并不愿意将之放弃，全面转向数据，4G时代，语音仍将成为运营商主要的业务之一。 目前，全球4G已进入规模商用期。GSA发布的最新数据显示，截至目前，全球已有75个国....",
"emailed" : False,
"forwarded" : False,
"english" : False
}  , {
"index" : 12,
"articleIndex" : "9327",
"favor" :  False ,
     "read" : False,    
"title" : "中移动获批TD-LTE试验网扩容 涉及326个城市",
"titleTip" : "中移动获批TD-LTE试验网扩容 涉及326个城市",
"titleSummary" : "中移动获批TD-LTE试验网扩容 涉及326个城市",
"descSummary" : "新浪科技讯 10月14日消息，中国移动透露，工信部已经批...",
"url" : "http:\/\/go.rss.sina.com.cn\/redirect.php?url=http:\/\/tech.sina.com.cn\/t\/3g\/2013-10-14\/11008813883.shtml",
"pubDate" : "2013年10月14日 (2周前)",
"enterDate" : "384201:06:24",
"channelId" : "-3737486723158162806",
"channelName" : "3G新闻-新浪科技",
"channelNameSummary" : "3G新闻-新浪科技",
"channelUrl" : "http:\/\/tech.sina.com.cn\/3G\/index.shtml",
"author" : "WWW.SINA.COM.CN",
"tags" : [],
"desc" : "新浪科技讯 10月14日消息，中国移动透露，工信部已经批复中国移动进行TD-LTE扩大规模试验。年内，中国移动将完成100个重点城市主城区4G网络的连续覆盖。 中国移动表示，工信部正式批复同意中国移动在北京等全国326个城市开展TD-LTE扩大规模试验，本期工程共将建设基站....",
"emailed" : False,
"forwarded" : False,
"english" : False
}  , {
"index" : 13,
"articleIndex" : "9325",
"favor" :  False ,
     "read" : False,    
"title" : "4G\u201C钱景\u201D开阔 粤企受益胜3G",
"titleTip" : "4G\u201C钱景\u201D开阔 粤企受益胜3G",
"titleSummary" : "4G\u201C钱景\u201D开阔 粤企受益胜3G",
"descSummary" : "昨日，有未经工信部证实的消息称，中国联通与中国电信分别获得4G FD ...",
"url" : "http:\/\/go.rss.sina.com.cn\/redirect.php?url=http:\/\/tech.sina.com.cn\/t\/3g\/2013-10-14\/04368812548.shtml",
"pubDate" : "2013年10月14日 (2周前)",
"enterDate" : "384201:13:33",
"channelId" : "-3737486723158162806",
"channelName" : "3G新闻-新浪科技",
"channelNameSummary" : "3G新闻-新浪科技",
"channelUrl" : "http:\/\/tech.sina.com.cn\/3G\/index.shtml",
"author" : "WWW.SINA.COM.CN",
"tags" : [],
"desc" : "昨日，有未经工信部证实的消息称，中国联通与中国电信分别获得4G FD D网络频谱资源。这意味着两家运营商4G时代TDD\\FDD混合组网成为可能，且这也是联通和电信希望得到的结果\u2015\u2015\u2015因为无论组网成本还是发展速度，\u201C混合组网\u201D能让它们更快地赶上已经在4G上先行一步的中国移动。....",
"emailed" : False,
"forwarded" : False,
"english" : False
}  , {
"index" : 14,
"articleIndex" : "9326",
"favor" :  False ,
     "read" : False,    
"title" : "中移动4G扩大规模试验方案获批",
"titleTip" : "中移动4G扩大规模试验方案获批",
"titleSummary" : "中移动4G扩大规模试验方案获批",
"descSummary" : "京华时报讯(记者古晓宇)昨天，记者从中国移动了解到，工信部已经批复...",
"url" : "http:\/\/go.rss.sina.com.cn\/redirect.php?url=http:\/\/tech.sina.com.cn\/t\/3g\/2013-10-14\/04108812525.shtml",
"pubDate" : "2013年10月14日 (2周前)",
"enterDate" : "384194:16:24",
"channelId" : "-3737486723158162806",
"channelName" : "3G新闻-新浪科技",
"channelNameSummary" : "3G新闻-新浪科技",
"channelUrl" : "http:\/\/tech.sina.com.cn\/3G\/index.shtml",
"author" : "WWW.SINA.COM.CN",
"tags" : [],
"desc" : "京华时报讯(记者古晓宇)昨天，记者从中国移动了解到，工信部已经批复中国移动进行TD-LTE扩大规模试验。年内，中国移动将完成100个重点城市主城区4G网络的连续覆盖。 中国移动表示，工信部正式批复同意中国移动在北京等全国326个城市开展TD-LTE扩大规模试验，本期工程共....",
"emailed" : False,
"forwarded" : False,
"english" : False
}  , {
"index" : 15,
"articleIndex" : "9324",
"favor" :  False ,
     "read" : False,    
"title" : "频段划分泄露4G牌照端倪：电信联通留后手",
"titleTip" : "频段划分泄露4G牌照端倪：电信联通留后手",
"titleSummary" : "频段划分泄露4G牌照端倪：电信联通留后手",
"descSummary" : "新浪科技 康钊 根据日前传出的三大运营商4G频段划分，基本...",
"url" : "http:\/\/go.rss.sina.com.cn\/redirect.php?url=http:\/\/tech.sina.com.cn\/n\/t\/3g\/2013-10-14\/00408811461.shtml",
"pubDate" : "2013年10月14日 (2周前)",
"enterDate" : "384200:48:46",
"channelId" : "-3737486723158162806",
"channelName" : "3G新闻-新浪科技",
"channelNameSummary" : "3G新闻-新浪科技",
"channelUrl" : "http:\/\/tech.sina.com.cn\/3G\/index.shtml",
"author" : "WWW.SINA.COM.CN",
"tags" : [],
"desc" : "新浪科技 康钊 根据日前传出的三大运营商4G频段划分，基本可看出三大运营商获发的牌照倾向，其中，中国移动的4G频段均在TD-LTE规划频段内，显示其必然只有TD-LTE牌照，而中国联通和中国电信获得的4G频段均有不在国家划分的TD-LTE频段内，显示这两家运营商必然还将获得....",
"emailed" : False,
"forwarded" : False,
"english" : False
}  , {
"index" : 16,
"articleIndex" : "9323",
"favor" :  False ,
     "read" : False,    
"title" : "传中国4G频谱划分已定 运营商网络建设加速",
"titleTip" : "传中国4G频谱划分已定 运营商网络建设加速",
"titleSummary" : "传中国4G频谱划分已定 运营商网络建设加速",
"descSummary" : "通信世界网讯(CWW) 10月12日早间消息，中国LTE频谱基本...",
"url" : "http:\/\/go.rss.sina.com.cn\/redirect.php?url=http:\/\/tech.sina.com.cn\/t\/2013-10-12\/10598809237.shtml",
"pubDate" : "2013年10月12日 (2周前)",
"enterDate" : "384192:11:44",
"channelId" : "-3737486723158162806",
"channelName" : "3G新闻-新浪科技",
"channelNameSummary" : "3G新闻-新浪科技",
"channelUrl" : "http:\/\/tech.sina.com.cn\/3G\/index.shtml",
"author" : "WWW.SINA.COM.CN",
"tags" : [],
"desc" : "通信世界网讯(CWW) 10月12日早间消息，中国LTE频谱基本集中在1.8GHz、2.1GHz、2.3GHz、2.6GHz等频段。去年10月，2.6GHz已确定全部划归TDD。至于另两个频段1.8G与2.1G，近日有知情人士透露其归属也已落定。1.8GHz(1755-1785MHZ \/ 1850-1880MHz)与2.1 GHz(1955--1980MHz \/ 2145-....",
"emailed" : False,
"forwarded" : False,
"english" : False
}  , {
"index" : 17,
"articleIndex" : "9322",
"favor" :  False ,
     "read" : False,    
"title" : "青岛移动北方首个4G试商用 套餐每月最低50元",
"titleTip" : "青岛移动北方首个4G试商用 套餐每月最低50元",
"titleSummary" : "青岛移动北方首个4G试商用 套餐每月最低50元",
"descSummary" : "新浪科技讯 10月12日消息，经过一段时间的准备，中国移...",
"url" : "http:\/\/go.rss.sina.com.cn\/redirect.php?url=http:\/\/tech.sina.com.cn\/t\/3g\/2013-10-12\/00438807237.shtml",
"pubDate" : "2013年10月12日 (2周前)",
"enterDate" : "384201:12:52",
"channelId" : "-3737486723158162806",
"channelName" : "3G新闻-新浪科技",
"channelNameSummary" : "3G新闻-新浪科技",
"channelUrl" : "http:\/\/tech.sina.com.cn\/3G\/index.shtml",
"author" : "WWW.SINA.COM.CN",
"tags" : [],
"desc" : "新浪科技讯 10月12日消息，经过一段时间的准备，中国移动青岛4G网络已于昨日正式开放，青岛市内的四区可办理4G手机，而套餐也已明确为三档，最低的为每月50元，已创各地4G试商用价格新低。 不用换手机号可办4G业务 青岛移动是中国移动在北方唯一已开放4G试商用....",
"emailed" : False,
"forwarded" : False,
"english" : False
}  , {
"index" : 18,
"articleIndex" : "9321",
"favor" :  False ,
     "read" : False,    
"title" : "水货iPhone失4G卖点：或不能用于中移动4G网络",
"titleTip" : "水货iPhone失4G卖点：或不能用于中移动4G网络",
"titleSummary" : "水货iPhone失4G卖点：或不能用于中移动4G网络",
"descSummary" : "新浪科技讯 10月10日消息，虽然苹果香港官网显示的iP...",
"url" : "http:\/\/go.rss.sina.com.cn\/redirect.php?url=http:\/\/tech.sina.com.cn\/t\/3g\/apple\/2013-10-10\/00018799056.shtml",
"pubDate" : "2013年10月10日 (3周前)",
"enterDate" : "384201:04:13",
"channelId" : "-3737486723158162806",
"channelName" : "3G新闻-新浪科技",
"channelNameSummary" : "3G新闻-新浪科技",
"channelUrl" : "http:\/\/tech.sina.com.cn\/3G\/index.shtml",
"author" : "WWW.SINA.COM.CN",
"tags" : [],
"desc" : "新浪科技讯 10月10日消息，虽然苹果香港官网显示的iPhone 5s\/5c均支持TD-LTE网络，但是，实际测试显示，港版iPhone 5s\/5c不能用于中国移动在一些地方的TD-LTE网络，有可能是中国移动对目前的非测试终端不开放使用，但也令人怀疑未来水货也不能支持TD-LTE网络。 此前，....",
"emailed" : False,
"forwarded" : False,
"english" : False
}  , {
"index" : 19,
"articleIndex" : "9320",
"favor" :  False ,
     "read" : False,    
"title" : "中电信首次4G设备招标一波三折:扭曲的融合组网",
"titleTip" : "中电信首次4G设备招标一波三折:扭曲的融合组网",
"titleSummary" : "中电信首次4G设备招标一波三折:扭曲的融合组网",
"descSummary" : "新浪科技 康钊 自中国移动今年8月首次4G设备招标后，...",
"url" : "http:\/\/go.rss.sina.com.cn\/redirect.php?url=http:\/\/tech.sina.com.cn\/t\/3g\/2013-10-10\/00018799055.shtml",
"pubDate" : "2013年10月10日 (3周前)",
"enterDate" : "384201:04:08",
"channelId" : "-3737486723158162806",
"channelName" : "3G新闻-新浪科技",
"channelNameSummary" : "3G新闻-新浪科技",
"channelUrl" : "http:\/\/tech.sina.com.cn\/3G\/index.shtml",
"author" : "WWW.SINA.COM.CN",
"tags" : [],
"desc" : "新浪科技 康钊 自中国移动今年8月首次4G设备招标后，中国电信的首次4G招标成为近期电信行业大热点，但无论招标过程、中标厂商份额，还是日后的演进方向，都可谓令人难以捉摸，而根源都在于令中国电信也捉摸不透的融合组网。 4G不断抢跑令运营商对未来竞争敏感....",
"emailed" : False,
"forwarded" : False,
"english" : False
} ]
}
