{
"mode" : {"viewTitle" : 1,   "viewNew" : 0,  "pageIndex" : 1 },
 "channel" : {"id" : "5059791727525423367", "booked" : False, "subNumber" : 1, "name" : "外语频道-新浪教育", "url" : "http:\/\/edu.sina.com.cn\/rss\/index.html", "feed" : "http:\/\/rss.sina.com.cn\/edu\/en.xml", "author" : "WWW.SINA.COM.CN", "desc" : "文化教育-外语频道", "imageUrl" : "http:\/\/www.sinaimg.cn\/home\/deco\/2009\/0330\/logo_home_edu.gif", "postPerWeek" : "0", "lastCrawTime" : "2013年10月22日 (1周前)", "crawDateTime" : "2013年10月22日 (1周前)", "lastHttpCode" : "200"}, "page" : {
"startIndex" : 0,
"totalCount" : 5000,
"pageIndex" : 1,
"lastPage" : 250,
"pageSize" : 20,
"english" :  False },
 "unreadNum" : 0, "shotIndex" : -1,
"articles" : [
{
"index" : 0,
"articleIndex" : "25470",
"favor" :  False ,
     "read" : False,    
"title" : "专家支招：让孩子大胆开口说英语(图)",
"titleTip" : "专家支招：让孩子大胆开口说英语(图)",
"titleSummary" : "专家支招：让孩子大胆开口说英语(图)",
"descSummary" : "让孩子大胆开口说英语 我儿子今年7岁，上小学二年级。在班上英语...",
"url" : "http:\/\/go.rss.sina.com.cn\/redirect.php?url=http:\/\/edu.sina.com.cn\/kids\/blogs\/2013-10-21\/172777494.shtml",
"pubDate" : "2013年10月21日 (1周前)",
"enterDate" : "384201:00:13",
"channelId" : "5059791727525423367",
"channelName" : "外语频道-新浪教育",
"channelNameSummary" : "外语频道-新浪教育",
"channelUrl" : "http:\/\/edu.sina.com.cn\/rss\/index.html",
"author" : "WWW.SINA.COM.CN",
"tags" : [],
"desc" : "让孩子大胆开口说英语 我儿子今年7岁，上小学二年级。在班上英语成绩不错，课外也在上英语辅导班，老师也反映他课堂表现好。可是回到家我和他爸爸用英语跟他说话，他都刻意回避，不肯说英语。我想问问如何让孩子在家里也肯开口说英语呢？\u2015\u2015刘浩妈妈 专家解读 ....",
"emailed" : False,
"forwarded" : False,
"english" : False
}  , {
"index" : 1,
"articleIndex" : "25469",
"favor" :  False ,
     "read" : False,    
"title" : "让孩子学好英语必备的30个好习惯(图)",
"titleTip" : "让孩子学好英语必备的30个好习惯(图)",
"titleSummary" : "让孩子学好英语必备的30个好习惯(图)",
"descSummary" : "本文选自《北 外网院》的博客，点击查看博客原文 让孩子学好英语...",
"url" : "http:\/\/go.rss.sina.com.cn\/redirect.php?url=http:\/\/edu.sina.com.cn\/kids\/blogs\/2013-10-21\/171177493.shtml",
"pubDate" : "2013年10月21日 (1周前)",
"enterDate" : "384201:14:15",
"channelId" : "5059791727525423367",
"channelName" : "外语频道-新浪教育",
"channelNameSummary" : "外语频道-新浪教育",
"channelUrl" : "http:\/\/edu.sina.com.cn\/rss\/index.html",
"author" : "WWW.SINA.COM.CN",
"tags" : [],
"desc" : "本文选自《北 外网院》的博客，点击查看博客原文 让孩子学好英语的30个好习惯 学习英语的最高境界是什么，是习惯，只有习惯了学习英语，习惯了使用英语，那么才有可能掌握英语，下面列举出的学习英语的三十个好习惯，可以帮助你掌握学习英语的窍门。 1、将英....",
"emailed" : False,
"forwarded" : False,
"english" : False
}  , {
"index" : 2,
"articleIndex" : "25468",
"favor" :  False ,
     "read" : False,    
"title" : "双语：让孩子\u201C小鬼当家\u201D的七大绝妙好处",
"titleTip" : "双语：让孩子\u201C小鬼当家\u201D的七大绝妙好处",
"titleSummary" : "双语：让孩子\u201C小鬼当家\u201D的七大绝妙好处",
"descSummary" : "本文选自少儿学英语的博客，点击查看博客原文 我有一位祖...",
"url" : "http:\/\/go.rss.sina.com.cn\/redirect.php?url=http:\/\/edu.sina.com.cn\/kids\/2013-10-21\/170677492.shtml",
"pubDate" : "2013年10月21日 (1周前)",
"enterDate" : "384201:08:22",
"channelId" : "5059791727525423367",
"channelName" : "外语频道-新浪教育",
"channelNameSummary" : "外语频道-新浪教育",
"channelUrl" : "http:\/\/edu.sina.com.cn\/rss\/index.html",
"author" : "WWW.SINA.COM.CN",
"tags" : [],
"desc" : "本文选自少儿学英语的博客，点击查看博客原文 我有一位祖母级的朋友，上周我们聊天时她说道自己从前就是一个挂钥匙儿童，这样其实好处颇多。她指责我们这些育儿专家在这个问题上的态度过于消极。 母亲们应该尽量让孩子学会这些小鬼当家的好处。花一个小时在厨房....",
"emailed" : False,
"forwarded" : False,
"english" : False
}  , {
"index" : 3,
"articleIndex" : "25467",
"favor" :  False ,
     "read" : False,    
"title" : "震撼艺术：美女裸体呈现英文字母剪影(组图)",
"titleTip" : "震撼艺术：美女裸体呈现英文字母剪影(组图)",
"titleSummary" : "震撼艺术：美女裸体呈现英文字母剪影(组图)",
"descSummary" : "【环球网综合报道】26个英文字母在大部分人心中永远只是...",
"url" : "http:\/\/go.rss.sina.com.cn\/redirect.php?url=http:\/\/edu.sina.com.cn\/en\/2013-10-21\/164777491.shtml",
"pubDate" : "2013年10月21日 (1周前)",
"enterDate" : "384200:49:58",
"channelId" : "5059791727525423367",
"channelName" : "外语频道-新浪教育",
"channelNameSummary" : "外语频道-新浪教育",
"channelUrl" : "http:\/\/edu.sina.com.cn\/rss\/index.html",
"author" : "WWW.SINA.COM.CN",
"tags" : [],
"desc" : "【环球网综合报道】26个英文字母在大部分人心中永远只是一堆习以为常的字母，然而经过希腊爱奥尼亚大学影音艺术系学生Anastasia Mastrakouli之手，这些字母好像被赋予了生命，全部灵动起来。她以一种大胆的剪影方法颠覆了以往英文字母在人们脑海中的传统印象。 Anastas....",
"emailed" : False,
"forwarded" : False,
"english" : False
}  , {
"index" : 4,
"articleIndex" : "25466",
"favor" :  False ,
     "read" : False,    
"title" : "逖芯浚汉⒆有θ菰讲永萌蘸蠡橐鲈矫缆？",
"titleTip" : "逖芯浚汉⒆有θ菰讲永萌蘸蠡橐鲈矫缆？",
"titleSummary" : "逖芯浚汉⒆有θ菰讲永萌蘸蠡橐鲈矫缆？",
"descSummary" : "本文选自《少儿学英语》的博客，点击查看博客原文 双语：孩...",
"url" : "http:\/\/go.rss.sina.com.cn\/redirect.php?url=http:\/\/edu.sina.com.cn\/kids\/2013-10-21\/155877490.shtml",
"pubDate" : "2013年10月21日 (1周前)",
"enterDate" : "384201:00:29",
"channelId" : "5059791727525423367",
"channelName" : "外语频道-新浪教育",
"channelNameSummary" : "外语频道-新浪教育",
"channelUrl" : "http:\/\/edu.sina.com.cn\/rss\/index.html",
"author" : "WWW.SINA.COM.CN",
"tags" : [],
"desc" : "本文选自《少儿学英语》的博客，点击查看博客原文 双语：孩子笑容越灿烂 日后婚姻越美满 Children with the brightest smiles in family photographs are more than three times likely to have a successful marriage than those who frown, according to research.....",
"emailed" : False,
"forwarded" : False,
"english" : False
}  , {
"index" : 5,
"articleIndex" : "25465",
"favor" :  False ,
     "read" : False,    
"title" : "北京外语游园会开幕：1900家庭同台PK",
"titleTip" : "北京外语游园会开幕：1900家庭同台PK",
"titleSummary" : "北京外语游园会开幕：1900家庭同台PK",
"descSummary" : "10月19日，\u201C2013年北京外语游园会\u201D在朝阳公园(主会场)拉开帷...",
"url" : "http:\/\/go.rss.sina.com.cn\/redirect.php?url=http:\/\/edu.sina.com.cn\/en\/2013-10-21\/143877489.shtml",
"pubDate" : "2013年10月21日 (1周前)",
"enterDate" : "384201:11:33",
"channelId" : "5059791727525423367",
"channelName" : "外语频道-新浪教育",
"channelNameSummary" : "外语频道-新浪教育",
"channelUrl" : "http:\/\/edu.sina.com.cn\/rss\/index.html",
"author" : "WWW.SINA.COM.CN",
"tags" : [],
"desc" : "10月19日，\u201C2013年北京外语游园会\u201D在朝阳公园(主会场)拉开帷幕。道路两旁悬挂的各国旗帜、草坪上可爱的卡通英语展板\u2026\u2026精心布置过的朝阳公园洋溢着异国风味，让前来游园的市民一走进园子便能感受到外语带来的乐趣。 在活动区中央，孩子们的文艺演出，赢得了不少游人....",
"emailed" : False,
"forwarded" : False,
"english" : False
}  , {
"index" : 6,
"articleIndex" : "25464",
"favor" :  False ,
     "read" : False,    
"title" : "双语：孩子早恋家长合理介入的高招",
"titleTip" : "双语：孩子早恋家长合理介入的高招",
"titleSummary" : "双语：孩子早恋家长合理介入的高招",
"descSummary" : "本文选自《北 外网院》的博客，点击查看博客原文 And while pare...",
"url" : "http:\/\/go.rss.sina.com.cn\/redirect.php?url=http:\/\/edu.sina.com.cn\/kids\/2013-10-21\/141877488.shtml",
"pubDate" : "2013年10月21日 (1周前)",
"enterDate" : "384200:51:26",
"channelId" : "5059791727525423367",
"channelName" : "外语频道-新浪教育",
"channelNameSummary" : "外语频道-新浪教育",
"channelUrl" : "http:\/\/edu.sina.com.cn\/rss\/index.html",
"author" : "WWW.SINA.COM.CN",
"tags" : [],
"desc" : "本文选自《北 外网院》的博客，点击查看博客原文 And while parents' dating advice may seem about as welcomed by teens as the swine flu, the research suggests the opposite--that young people not only value parental input, but tend to have healthier relat....",
"emailed" : False,
"forwarded" : False,
"english" : False
}  , {
"index" : 7,
"articleIndex" : "25463",
"favor" :  False ,
     "read" : False,    
"title" : "家长必读：孩子不爱学英语怎么办？",
"titleTip" : "家长必读：孩子不爱学英语怎么办？",
"titleSummary" : "家长必读：孩子不爱学英语怎么办？",
"descSummary" : "现在的孩子们学习英语的时间越来越早，英语已经成为了幼儿园的必...",
"url" : "http:\/\/go.rss.sina.com.cn\/redirect.php?url=http:\/\/edu.sina.com.cn\/kids\/blogs\/2013-10-21\/141777487.shtml",
"pubDate" : "2013年10月21日 (1周前)",
"enterDate" : "384200:50:05",
"channelId" : "5059791727525423367",
"channelName" : "外语频道-新浪教育",
"channelNameSummary" : "外语频道-新浪教育",
"channelUrl" : "http:\/\/edu.sina.com.cn\/rss\/index.html",
"author" : "WWW.SINA.COM.CN",
"tags" : [],
"desc" : "现在的孩子们学习英语的时间越来越早，英语已经成为了幼儿园的必修课。但是很多家长来信谈到\u201C我们家孩子的英语总是学不好\u201D。如何让孩子主动、有效地学好英语呢？专家认为，明确学习意义和创设学习情境很有帮助。 明确学习的意义最关键 广州育儿专家李惠健博士....",
"emailed" : False,
"forwarded" : False,
"english" : False
}  , {
"index" : 8,
"articleIndex" : "25462",
"favor" :  False ,
     "read" : False,    
"title" : "专家指导：父母辅导孩子学英语的技巧",
"titleTip" : "专家指导：父母辅导孩子学英语的技巧",
"titleSummary" : "专家指导：父母辅导孩子学英语的技巧",
"descSummary" : "本文选自《少儿英语》的博客，点击查看博客原文 如何辅导孩子...",
"url" : "http:\/\/go.rss.sina.com.cn\/redirect.php?url=http:\/\/edu.sina.com.cn\/kids\/blogs\/2013-10-21\/141677486.shtml",
"pubDate" : "2013年10月21日 (1周前)",
"enterDate" : "384200:48:43",
"channelId" : "5059791727525423367",
"channelName" : "外语频道-新浪教育",
"channelNameSummary" : "外语频道-新浪教育",
"channelUrl" : "http:\/\/edu.sina.com.cn\/rss\/index.html",
"author" : "WWW.SINA.COM.CN",
"tags" : [],
"desc" : "本文选自《少儿英语》的博客，点击查看博客原文 如何辅导孩子学英语 鼓励是教育孩子的好方法，但是只有尺度适当，才能达到预期的效果。 夸张的鼓励使孩子难以达到目标。孩子有一次课表现得好，父母便因此鼓励孩子\u201C你真棒，下次咱也能考一百分。\u201D这种不切实际的....",
"emailed" : False,
"forwarded" : False,
"english" : False
}  , {
"index" : 9,
"articleIndex" : "25461",
"favor" :  False ,
     "read" : False,    
"title" : "爸爸妈妈请注意：孩子太胖记性会变差",
"titleTip" : "爸爸妈妈请注意：孩子太胖记性会变差",
"titleSummary" : "爸爸妈妈请注意：孩子太胖记性会变差",
"descSummary" : "胖子伤不起：太胖记性会变差？Fatter people are more likely to ...",
"url" : "http:\/\/go.rss.sina.com.cn\/redirect.php?url=http:\/\/edu.sina.com.cn\/kids\/blogs\/2013-10-21\/140677485.shtml",
"pubDate" : "2013年10月21日 (1周前)",
"enterDate" : "384201:09:14",
"channelId" : "5059791727525423367",
"channelName" : "外语频道-新浪教育",
"channelNameSummary" : "外语频道-新浪教育",
"channelUrl" : "http:\/\/edu.sina.com.cn\/rss\/index.html",
"author" : "WWW.SINA.COM.CN",
"tags" : [],
"desc" : "胖子伤不起：太胖记性会变差？ Fatter people are more likely to lose their memories and brain power quicker than those who are thinner, according to British research。 据英国某一研究，相比瘦子，胖子的记忆力和脑力下降得更快。 Those who are ob....",
"emailed" : False,
"forwarded" : False,
"english" : False
}  , {
"index" : 10,
"articleIndex" : "25460",
"favor" :  False ,
     "read" : False,    
"title" : "专家指导：如何让孩子英语学习充满乐趣",
"titleTip" : "专家指导：如何让孩子英语学习充满乐趣",
"titleSummary" : "专家指导：如何让孩子英语学习充满乐趣",
"descSummary" : "本文选自《少儿学英语》的博客，点击查看博客原文 眼下，又...",
"url" : "http:\/\/go.rss.sina.com.cn\/redirect.php?url=http:\/\/edu.sina.com.cn\/kids\/blogs\/2013-10-21\/135277484.shtml",
"pubDate" : "2013年10月21日 (1周前)",
"enterDate" : "384200:55:00",
"channelId" : "5059791727525423367",
"channelName" : "外语频道-新浪教育",
"channelNameSummary" : "外语频道-新浪教育",
"channelUrl" : "http:\/\/edu.sina.com.cn\/rss\/index.html",
"author" : "WWW.SINA.COM.CN",
"tags" : [],
"desc" : "本文选自《少儿学英语》的博客，点击查看博客原文 眼下，又到了家长们考虑给孩子查缺补漏的时候，据调查有很大一部分家长都会优先考虑从英语培训入手。相关专家表示，进\u201C补\u201D虽重要，但明辨正确的教学理念更重要。 莫以背会多少单词为标准 有些家长认为很多....",
"emailed" : False,
"forwarded" : False,
"english" : False
}  , {
"index" : 11,
"articleIndex" : "25459",
"favor" :  False ,
     "read" : False,    
"title" : "语言环境欠缺不利于孩子早说话",
"titleTip" : "语言环境欠缺不利于孩子早说话",
"titleSummary" : "语言环境欠缺不利于孩子早说话",
"descSummary" : "爱因斯坦说过：\u201C一个人的智力发展和他形成概念的方法，在很大程度上...",
"url" : "http:\/\/go.rss.sina.com.cn\/redirect.php?url=http:\/\/edu.sina.com.cn\/kids\/blogs\/2013-10-21\/135077483.shtml",
"pubDate" : "2013年10月21日 (1周前)",
"enterDate" : "384200:53:03",
"channelId" : "5059791727525423367",
"channelName" : "外语频道-新浪教育",
"channelNameSummary" : "外语频道-新浪教育",
"channelUrl" : "http:\/\/edu.sina.com.cn\/rss\/index.html",
"author" : "WWW.SINA.COM.CN",
"tags" : [],
"desc" : "爱因斯坦说过：\u201C一个人的智力发展和他形成概念的方法，在很大程度上是取决于语言。\u201D研究证明，智力发展首先是语言能力的发展，语言是进行思维、反映思想、表达情感、记录思维成果的工具。 宝宝通过语言表达内心的想法，感受身边的世界。他们通过语言将直觉形象思维发....",
"emailed" : False,
"forwarded" : False,
"english" : False
}  , {
"index" : 12,
"articleIndex" : "25458",
"favor" :  False ,
     "read" : False,    
"title" : "多地酝酿高考改革：均拿英语考试\u201C开刀\u201D",
"titleTip" : "多地酝酿高考改革：均拿英语考试\u201C开刀\u201D",
"titleSummary" : "多地酝酿高考改革：均拿英语考试\u201C开刀\u201D",
"descSummary" : "据中国之声《新闻晚高峰》报道，北京、江苏、上海、山东等...",
"url" : "http:\/\/go.rss.sina.com.cn\/redirect.php?url=http:\/\/edu.sina.com.cn\/en\/2013-10-21\/131177482.shtml",
"pubDate" : "2013年10月21日 (1周前)",
"enterDate" : "384200:44:00",
"channelId" : "5059791727525423367",
"channelName" : "外语频道-新浪教育",
"channelNameSummary" : "外语频道-新浪教育",
"channelUrl" : "http:\/\/edu.sina.com.cn\/rss\/index.html",
"author" : "WWW.SINA.COM.CN",
"tags" : [],
"desc" : "据中国之声《新闻晚高峰》报道，北京、江苏、上海、山东等省市日前相继传来酝酿高考改革的消息。在各省市透露的方案中都将英语考试作为改革的重点。一时间，关于\u201C英语考试到底该如何改\u201D引起广泛关注。 各地高考改革为何都将英语考试作为突破口？目前的英语考试模式存....",
"emailed" : False,
"forwarded" : False,
"english" : False
}  , {
"index" : 13,
"articleIndex" : "25457",
"favor" :  False ,
     "read" : False,    
"title" : "北京市出重拳：中高考英语科目分值将下调",
"titleTip" : "北京市出重拳：中高考英语科目分值将下调",
"titleSummary" : "北京市出重拳：中高考英语科目分值将下调",
"descSummary" : "原标题：北京市2014年中高考将有重大变化 光明网北京10月...",
"url" : "http:\/\/go.rss.sina.com.cn\/redirect.php?url=http:\/\/edu.sina.com.cn\/en\/2013-10-21\/130877481.shtml",
"pubDate" : "2013年10月21日 (1周前)",
"enterDate" : "384200:41:10",
"channelId" : "5059791727525423367",
"channelName" : "外语频道-新浪教育",
"channelNameSummary" : "外语频道-新浪教育",
"channelUrl" : "http:\/\/edu.sina.com.cn\/rss\/index.html",
"author" : "WWW.SINA.COM.CN",
"tags" : [],
"desc" : "原标题：北京市2014年中高考将有重大变化 光明网北京10月21日电(光明网记者董城、张景华)为进一步提高首都均衡教育水平，促进教育公平，切实解决择校、学生课业负担等群众关心的问题，北京市将从对中高考进行改革入手，出重拳予以破解。 高考现场(资料图片) ....",
"emailed" : False,
"forwarded" : False,
"english" : False
}  , {
"index" : 14,
"articleIndex" : "25451",
"favor" :  False ,
     "read" : False,    
"title" : "双语：爵士女星北京犯哮喘取消演唱会",
"titleTip" : "双语：爵士女星北京犯哮喘取消演唱会",
"titleSummary" : "双语：爵士女星北京犯哮喘取消演唱会",
"descSummary" : "Grammy winner Patti Austin was forced to cancel her performan...",
"url" : "http:\/\/go.rss.sina.com.cn\/redirect.php?url=http:\/\/edu.sina.com.cn\/en\/2013-10-21\/130277480.shtml",
"pubDate" : "2013年10月21日 (1周前)",
"enterDate" : "384201:05:53",
"channelId" : "5059791727525423367",
"channelName" : "外语频道-新浪教育",
"channelNameSummary" : "外语频道-新浪教育",
"channelUrl" : "http:\/\/edu.sina.com.cn\/rss\/index.html",
"author" : "WWW.SINA.COM.CN",
"tags" : [],
"desc" : "Grammy winner Patti Austin was forced to cancel her performance in Beijing after she suffered an asthma attack, as the city was once again shrouded in smog for the whole day。 南华早报19日讯：曾获得格莱美音乐奖的美国爵士歌手佩蒂・奥斯汀因哮喘病发，1....",
"emailed" : False,
"forwarded" : False,
"english" : False
}  , {
"index" : 15,
"articleIndex" : "25456",
"favor" :  False ,
     "read" : False,    
"title" : "让女友更爱你：高富帅泡妞的14个绝招(双语)",
"titleTip" : "让女友更爱你：高富帅泡妞的14个绝招(双语)",
"titleSummary" : "让女友更爱你：高富帅泡妞的14个绝招(双语)",
"descSummary" : "Romance: a feeling of excitement and mystery associated ...",
"url" : "http:\/\/go.rss.sina.com.cn\/redirect.php?url=http:\/\/edu.sina.com.cn\/en\/2013-10-21\/124577479.shtml",
"pubDate" : "2013年10月21日 (1周前)",
"enterDate" : "384200:18:03",
"channelId" : "5059791727525423367",
"channelName" : "外语频道-新浪教育",
"channelNameSummary" : "外语频道-新浪教育",
"channelUrl" : "http:\/\/edu.sina.com.cn\/rss\/index.html",
"author" : "WWW.SINA.COM.CN",
"tags" : [],
"desc" : "Romance: a feeling of excitement and mystery associated with love. Doesn\u2019t that sound wonderful? Sadly, most of us have a tendency to get too comfortable and complacent in our relationships, turning what used to be fresh and exciting into a VCR rewind tha....",
"emailed" : False,
"forwarded" : False,
"english" : False
}  , {
"index" : 16,
"articleIndex" : "25455",
"favor" :  False ,
     "read" : False,    
"title" : "福利贴：20个必须了解的高频英语习语",
"titleTip" : "福利贴：20个必须了解的高频英语习语",
"titleSummary" : "福利贴：20个必须了解的高频英语习语",
"descSummary" : "Those of us who grew up with English as our first language have...",
"url" : "http:\/\/go.rss.sina.com.cn\/redirect.php?url=http:\/\/edu.sina.com.cn\/en\/2013-10-21\/120877476.shtml",
"pubDate" : "2013年10月21日 (1周前)",
"enterDate" : "384199:41:46",
"channelId" : "5059791727525423367",
"channelName" : "外语频道-新浪教育",
"channelNameSummary" : "外语频道-新浪教育",
"channelUrl" : "http:\/\/edu.sina.com.cn\/rss\/index.html",
"author" : "WWW.SINA.COM.CN",
"tags" : [],
"desc" : "Those of us who grew up with English as our first language have been exposed to idioms and idiomatic expressions for most of our lives. They may have confused us a little when we were children, but explanation and constant exposure not only increased our u....",
"emailed" : False,
"forwarded" : False,
"english" : False
}  , {
"index" : 17,
"articleIndex" : "25454",
"favor" :  False ,
     "read" : False,    
"title" : "双语：男子花十万美元整容成贾斯汀比伯(图)",
"titleTip" : "双语：男子花十万美元整容成贾斯汀比伯(图)",
"titleSummary" : "双语：男子花十万美元整容成贾斯汀比伯(图)",
"descSummary" : "托比・谢尔顿整容前后对比 A 33-year-old man has spent fiv...",
"url" : "http:\/\/go.rss.sina.com.cn\/redirect.php?url=http:\/\/edu.sina.com.cn\/en\/2013-10-21\/114977474.shtml",
"pubDate" : "2013年10月21日 (1周前)",
"enterDate" : "384199:21:58",
"channelId" : "5059791727525423367",
"channelName" : "外语频道-新浪教育",
"channelNameSummary" : "外语频道-新浪教育",
"channelUrl" : "http:\/\/edu.sina.com.cn\/rss\/index.html",
"author" : "WWW.SINA.COM.CN",
"tags" : [],
"desc" : "托比・谢尔顿整容前后对比 A 33-year-old man has spent five years and $100,000 in an effort to look like his hero - teenaged pop idol Justin Bieber。 一个33岁的男人花了五年时间耗资10万美元，就为了让自己看起来像自己的偶像\u2015\u2015流行音乐少年偶像贾斯汀・....",
"emailed" : False,
"forwarded" : False,
"english" : False
}  , {
"index" : 18,
"articleIndex" : "25453",
"favor" :  False ,
     "read" : False,    
"title" : "想和土豪做朋友：盘点土豪的六种英文翻译",
"titleTip" : "想和土豪做朋友：盘点土豪的六种英文翻译",
"titleSummary" : "想和土豪做朋友：盘点土豪的六种英文翻译",
"descSummary" : "伦敦街头一部&quot;土豪金&quot;布加迪跑车。 《华尔街日报》中文版...",
"url" : "http:\/\/go.rss.sina.com.cn\/redirect.php?url=http:\/\/edu.sina.com.cn\/en\/2013-10-21\/112277472.shtml",
"pubDate" : "2013年10月21日 (1周前)",
"enterDate" : "384198:55:20",
"channelId" : "5059791727525423367",
"channelName" : "外语频道-新浪教育",
"channelNameSummary" : "外语频道-新浪教育",
"channelUrl" : "http:\/\/edu.sina.com.cn\/rss\/index.html",
"author" : "WWW.SINA.COM.CN",
"tags" : [],
"desc" : "■伦敦街头一部\"土豪金\"布加迪跑车。 《华尔街日报》中文版总编袁莉在网上问：\u201C土豪英文怎么翻译？\u201D引出无数网友的尝试，如newly rich， upstart， provincial tycoon，rural rich，vulgar tycoon 等。而美国《外交政策》杂志网站更直接，在一篇文章中说，没人喜欢他们，....",
"emailed" : False,
"forwarded" : False,
"english" : False
}  , {
"index" : 19,
"articleIndex" : "25452",
"favor" :  False ,
     "read" : False,    
"title" : "高考改革频拿英语开刀 学生压力不减反增",
"titleTip" : "高考改革频拿英语开刀 学生压力不减反增",
"titleSummary" : "高考改革频拿英语开刀 学生压力不减反增",
"descSummary" : "央广网北京10月21日消息(记者沈静文 冯悦 山东台记者姜文超...",
"url" : "http:\/\/go.rss.sina.com.cn\/redirect.php?url=http:\/\/edu.sina.com.cn\/en\/2013-10-21\/102277470.shtml",
"pubDate" : "2013年10月21日 (1周前)",
"enterDate" : "384197:55:21",
"channelId" : "5059791727525423367",
"channelName" : "外语频道-新浪教育",
"channelNameSummary" : "外语频道-新浪教育",
"channelUrl" : "http:\/\/edu.sina.com.cn\/rss\/index.html",
"author" : "WWW.SINA.COM.CN",
"tags" : [],
"desc" : "央广网北京10月21日消息(记者沈静文 冯悦 山东台记者姜文超)据中国之声《新闻纵横》报道，英语是学校普遍开设且学程最长的科目之一，保守估计全中国有两亿学生在和英语\u201C死磕\u201D，学好这门外语被很 多人看作是职场的\u201C敲门砖\u201D。然而，在近期各地密集出台的\u201C高考改革方案\u201D当....",
"emailed" : False,
"forwarded" : False,
"english" : False
} ]
}
