{
"mode" : {"viewTitle" : 1,   "viewNew" : 0,  "pageIndex" : 2 },
 "channel" : {"id" : "5059791727525423367", "booked" : False, "subNumber" : 1, "name" : "外语频道-新浪教育", "url" : "http:\/\/edu.sina.com.cn\/rss\/index.html", "feed" : "http:\/\/rss.sina.com.cn\/edu\/en.xml", "author" : "WWW.SINA.COM.CN", "desc" : "文化教育-外语频道", "imageUrl" : "http:\/\/www.sinaimg.cn\/home\/deco\/2009\/0330\/logo_home_edu.gif", "postPerWeek" : "0", "lastCrawTime" : "2013年10月22日 (1周前)", "crawDateTime" : "2013年10月22日 (1周前)", "lastHttpCode" : "200"}, "page" : {
"startIndex" : 20,
"totalCount" : 5000,
"pageIndex" : 2,
"lastPage" : 250,
"pageSize" : 20,
"english" :  False },
 "unreadNum" : 0, "shotIndex" : -1,
"articles" : [
{
"index" : 0,
"articleIndex" : "25450",
"favor" :  False ,
     "read" : False,    
"title" : "父母必读：给菜取个好名字让孩子爱不释口",
"titleTip" : "父母必读：给菜取个好名字让孩子爱不释口",
"titleSummary" : "父母必读：给菜取个好名字让孩子爱不释口",
"descSummary" : "本文选自《少儿学英语》的博客，点击查看博客原文 In a ne...",
"url" : "http:\/\/go.rss.sina.com.cn\/redirect.php?url=http:\/\/edu.sina.com.cn\/kids\/blogs\/2013-10-21\/123877478.shtml",
"pubDate" : "2013年10月21日 (1周前)",
"enterDate" : "384201:11:19",
"channelId" : "5059791727525423367",
"channelName" : "外语频道-新浪教育",
"channelNameSummary" : "外语频道-新浪教育",
"channelUrl" : "http:\/\/edu.sina.com.cn\/rss\/index.html",
"author" : "WWW.SINA.COM.CN",
"tags" : [],
"desc" : "本文选自《少儿学英语》的博客，点击查看博客原文 In a new study, 186 four-year-olds were given regular carrots and, on other lunch days, they were given the same vegetables renamed X-ray Vision Carrots. On the latter days, they ate nearly twice as many。....",
"emailed" : False,
"forwarded" : False,
"english" : False
}  , {
"index" : 1,
"articleIndex" : "25449",
"favor" :  False ,
     "read" : False,    
"title" : "调动孩子学习英语积极性的10个方法",
"titleTip" : "调动孩子学习英语积极性的10个方法",
"titleSummary" : "调动孩子学习英语积极性的10个方法",
"descSummary" : "在孩子的学习过程中更多的是兴趣主导，这和成人理智地有目的地学...",
"url" : "http:\/\/go.rss.sina.com.cn\/redirect.php?url=http:\/\/edu.sina.com.cn\/kids\/blogs\/2013-10-21\/123577477.shtml",
"pubDate" : "2013年10月21日 (1周前)",
"enterDate" : "384201:08:56",
"channelId" : "5059791727525423367",
"channelName" : "外语频道-新浪教育",
"channelNameSummary" : "外语频道-新浪教育",
"channelUrl" : "http:\/\/edu.sina.com.cn\/rss\/index.html",
"author" : "WWW.SINA.COM.CN",
"tags" : [],
"desc" : "在孩子的学习过程中更多的是兴趣主导，这和成人理智地有目的地学习完全不同，更多的时候需要父母适当地想方设法地调动孩子的积极性。 在这些年孩子学英语的过程中，我们用过许多方法： 1、蹦蹦跳跳学英文。 这方法最简单就是陪着孩子对着视频边唱边跳的....",
"emailed" : False,
"forwarded" : False,
"english" : False
}  , {
"index" : 2,
"articleIndex" : "25448",
"favor" :  False ,
     "read" : False,    
"title" : "孩子熏一熏英文阅读语感的方法",
"titleTip" : "孩子熏一熏英文阅读语感的方法",
"titleSummary" : "孩子熏一熏英文阅读语感的方法",
"descSummary" : "",
"url" : "http:\/\/go.rss.sina.com.cn\/redirect.php?url=http:\/\/blog.sina.com.cn\/s\/blog_8f98426d0101b5kk.html",
"pubDate" : "2013年10月21日 (1周前)",
"enterDate" : "384200:52:14",
"channelId" : "5059791727525423367",
"channelName" : "外语频道-新浪教育",
"channelNameSummary" : "外语频道-新浪教育",
"channelUrl" : "http:\/\/edu.sina.com.cn\/rss\/index.html",
"author" : "WWW.SINA.COM.CN",
"tags" : [],
"desc" : "",
"emailed" : False,
"forwarded" : False,
"english" : False
}  , {
"index" : 3,
"articleIndex" : "25447",
"favor" :  False ,
     "read" : False,    
"title" : "父母必读：孩子从你身上学会三件事(图)",
"titleTip" : "父母必读：孩子从你身上学会三件事(图)",
"titleSummary" : "父母必读：孩子从你身上学会三件事(图)",
"descSummary" : "孩子在潜移默化中向大人学习的三件事 Parenting is a job that oc...",
"url" : "http:\/\/go.rss.sina.com.cn\/redirect.php?url=http:\/\/edu.sina.com.cn\/kids\/blogs\/2013-10-21\/114377473.shtml",
"pubDate" : "2013年10月21日 (1周前)",
"enterDate" : "384200:46:44",
"channelId" : "5059791727525423367",
"channelName" : "外语频道-新浪教育",
"channelNameSummary" : "外语频道-新浪教育",
"channelUrl" : "http:\/\/edu.sina.com.cn\/rss\/index.html",
"author" : "WWW.SINA.COM.CN",
"tags" : [],
"desc" : "孩子在潜移默化中向大人学习的三件事 Parenting is a job that occurs 24 hours a day, 7 days a week from the day the baby is born until the day they\u2026well, until forever. A parent\u2019s job is never done. Parents aren\u2019t always teaching their children things d....",
"emailed" : False,
"forwarded" : False,
"english" : False
}  , {
"index" : 4,
"articleIndex" : "25446",
"favor" :  False ,
     "read" : False,    
"title" : "苹果内地召回声明用英文 消费者称诚意不够",
"titleTip" : "苹果内地召回声明用英文 消费者称诚意不够",
"titleSummary" : "苹果内地召回声明用英文 消费者称诚意不够",
"descSummary" : "原标题：苹果召回MacBook Air 内地官网声明竟用英文 由于...",
"url" : "http:\/\/go.rss.sina.com.cn\/redirect.php?url=http:\/\/edu.sina.com.cn\/en\/2013-10-21\/111277471.shtml",
"pubDate" : "2013年10月21日 (1周前)",
"enterDate" : "384200:46:00",
"channelId" : "5059791727525423367",
"channelName" : "外语频道-新浪教育",
"channelNameSummary" : "外语频道-新浪教育",
"channelUrl" : "http:\/\/edu.sina.com.cn\/rss\/index.html",
"author" : "WWW.SINA.COM.CN",
"tags" : [],
"desc" : "原标题：苹果召回MacBook Air 内地官网声明竟用英文 由于内置的SSD硬盘存在隐患，苹果将召回在2012年6月到2013年6月期间出售的MacBook Air，由于11英寸及13英寸MacBook Air都拥有64GB及128GB两个版本，因此业内认为本次召回数量将相当可观。而中国内地官网全英文的召....",
"emailed" : False,
"forwarded" : False,
"english" : False
}  , {
"index" : 5,
"articleIndex" : "25445",
"favor" :  False ,
     "read" : False,    
"title" : "海外八卦：20个在英国你所不知道的细节",
"titleTip" : "海外八卦：20个在英国你所不知道的细节",
"titleSummary" : "海外八卦：20个在英国你所不知道的细节",
"descSummary" : "1.当英国人向你说：\u201Cyou alright\u201D，并不是问你没事吧，而是...",
"url" : "http:\/\/go.rss.sina.com.cn\/redirect.php?url=http:\/\/edu.sina.com.cn\/en\/2013-10-20\/134777469.shtml",
"pubDate" : "2013年10月20日 (1周前)",
"enterDate" : "384199:53:41",
"channelId" : "5059791727525423367",
"channelName" : "外语频道-新浪教育",
"channelNameSummary" : "外语频道-新浪教育",
"channelUrl" : "http:\/\/edu.sina.com.cn\/rss\/index.html",
"author" : "WWW.SINA.COM.CN",
"tags" : [],
"desc" : "1.当英国人向你说：\u201Cyou alright\u201D，并不是问你没事吧，而是在向你问好。 2.有人打喷嚏，应说：\u201CBless You\u201D。 3.英国是个礼仪国家，有时两人冷眼对视(比如在地铁里面对着坐)人家为了避免尴尬会向你微笑一下，不要吝啬自己的笑容，也给人家\u201C飞\u201D一个，人家那....",
"emailed" : False,
"forwarded" : False,
"english" : False
}  , {
"index" : 6,
"articleIndex" : "25444",
"favor" :  False ,
     "read" : False,    
"title" : "女生必看：13个发型师不会说的秘密(双语)",
"titleTip" : "女生必看：13个发型师不会说的秘密(双语)",
"titleSummary" : "女生必看：13个发型师不会说的秘密(双语)",
"descSummary" : "佛要金装，人要\u201C发\u201D妆！快点看看发型师心里的碎碎念！这可...",
"url" : "http:\/\/go.rss.sina.com.cn\/redirect.php?url=http:\/\/edu.sina.com.cn\/en\/2013-10-20\/133977468.shtml",
"pubDate" : "2013年10月20日 (1周前)",
"enterDate" : "384199:45:43",
"channelId" : "5059791727525423367",
"channelName" : "外语频道-新浪教育",
"channelNameSummary" : "外语频道-新浪教育",
"channelUrl" : "http:\/\/edu.sina.com.cn\/rss\/index.html",
"author" : "WWW.SINA.COM.CN",
"tags" : [],
"desc" : "佛要金装，人要\u201C发\u201D妆！快点看看发型师心里的碎碎念！这可是13个发型师不会说的秘密哦~ 1. I\u2019m a beautician, not a magician。 I can give you Gisele Bündchen\u2019s haircut, but I can\u2019t give you her face。 1. 我是美发师，不是魔术师。 ....",
"emailed" : False,
"forwarded" : False,
"english" : False
}  , {
"index" : 7,
"articleIndex" : "25443",
"favor" :  False ,
     "read" : False,    
"title" : "国外研究证明多上学可提高智商",
"titleTip" : "国外研究证明多上学可提高智商",
"titleSummary" : "国外研究证明多上学可提高智商",
"descSummary" : "本文选自《少儿英 语那点事》的博客，点击查看博客原文 Spending mo...",
"url" : "http:\/\/go.rss.sina.com.cn\/redirect.php?url=http:\/\/edu.sina.com.cn\/kids\/2013-10-20\/133377467.shtml",
"pubDate" : "2013年10月20日 (1周前)",
"enterDate" : "384199:39:52",
"channelId" : "5059791727525423367",
"channelName" : "外语频道-新浪教育",
"channelNameSummary" : "外语频道-新浪教育",
"channelUrl" : "http:\/\/edu.sina.com.cn\/rss\/index.html",
"author" : "WWW.SINA.COM.CN",
"tags" : [],
"desc" : "本文选自《少儿英 语那点事》的博客，点击查看博客原文 Spending more time at school may increase intelligence, according to a study of Norwegian men, BBC reported. The research, in Proceedings of the National Academy of Sciences, suggested that an ext....",
"emailed" : False,
"forwarded" : False,
"english" : False
}  , {
"index" : 8,
"articleIndex" : "25442",
"favor" :  False ,
     "read" : False,    
"title" : "\u201C白富美\u201D妈妈让普通年轻母亲抑郁(图)",
"titleTip" : "\u201C白富美\u201D妈妈让普通年轻母亲抑郁(图)",
"titleSummary" : "\u201C白富美\u201D妈妈让普通年轻母亲抑郁(图)",
"descSummary" : "靓丽又多金的漂亮妈妈 本文选自《少儿英语那点事》的博客，点...",
"url" : "http:\/\/go.rss.sina.com.cn\/redirect.php?url=http:\/\/edu.sina.com.cn\/kids\/2013-10-20\/132577466.shtml",
"pubDate" : "2013年10月20日 (1周前)",
"enterDate" : "384199:32:34",
"channelId" : "5059791727525423367",
"channelName" : "外语频道-新浪教育",
"channelNameSummary" : "外语频道-新浪教育",
"channelUrl" : "http:\/\/edu.sina.com.cn\/rss\/index.html",
"author" : "WWW.SINA.COM.CN",
"tags" : [],
"desc" : "靓丽又多金的漂亮妈妈 本文选自《少儿英语那点事》的博客，点击查看博客原文 大概因为近些年毕业生工作不好找，所以女孩子\u201C干得好不如嫁得好\u201D这种说法又开始受到很多人的追捧。甚至有些女孩子上大学就是为了抬高自己的身价， 以便钓到一个\u201C金龟婿\u201D，然后就可以....",
"emailed" : False,
"forwarded" : False,
"english" : False
}  , {
"index" : 9,
"articleIndex" : "25439",
"favor" :  False ,
     "read" : False,    
"title" : "12岁少女一夜情后产子无怨无悔(图)",
"titleTip" : "12岁少女一夜情后产子无怨无悔(图)",
"titleSummary" : "12岁少女一夜情后产子无怨无悔(图)",
"descSummary" : "12岁少女一夜情后产子无怨无悔 A woman who became Britain's you...",
"url" : "http:\/\/go.rss.sina.com.cn\/redirect.php?url=http:\/\/edu.sina.com.cn\/kids\/2013-10-19\/113577465.shtml",
"pubDate" : "2013年10月19日 (1周前)",
"enterDate" : "384198:16:21",
"channelId" : "5059791727525423367",
"channelName" : "外语频道-新浪教育",
"channelNameSummary" : "外语频道-新浪教育",
"channelUrl" : "http:\/\/edu.sina.com.cn\/rss\/index.html",
"author" : "WWW.SINA.COM.CN",
"tags" : [],
"desc" : "12岁少女一夜情后产子无怨无悔 A woman who became Britain's youngest mother after a one night stand at the age of 12 says she had no regrets about becoming a teen mum. 英国最年轻妈妈一夜情后，于12岁怀孕产子。如今她仍旧表示身为少女妈妈无怨无悔。....",
"emailed" : False,
"forwarded" : False,
"english" : False
}  , {
"index" : 10,
"articleIndex" : "25441",
"favor" :  False ,
     "read" : False,    
"title" : "家长须知：研究发现名字决定命运(图)",
"titleTip" : "家长须知：研究发现名字决定命运(图)",
"titleSummary" : "家长须知：研究发现名字决定命运(图)",
"descSummary" : "研究发现名字决定命运 According to a handful of studies,a name n...",
"url" : "http:\/\/go.rss.sina.com.cn\/redirect.php?url=http:\/\/edu.sina.com.cn\/kids\/2013-10-19\/113077464.shtml",
"pubDate" : "2013年10月19日 (1周前)",
"enterDate" : "384197:40:45",
"channelId" : "5059791727525423367",
"channelName" : "外语频道-新浪教育",
"channelNameSummary" : "外语频道-新浪教育",
"channelUrl" : "http:\/\/edu.sina.com.cn\/rss\/index.html",
"author" : "WWW.SINA.COM.CN",
"tags" : [],
"desc" : "研究发现名字决定命运 According to a handful of studies, a name not only reveals clues about a person's class, education and ethic origin, it can also influence the bearer of the&#160;moniker&#160;and the choices they make in life. Scientists have....",
"emailed" : False,
"forwarded" : False,
"english" : False
}  , {
"index" : 11,
"articleIndex" : "25440",
"favor" :  False ,
     "read" : False,    
"title" : "双语：父母离异让孩子长大收入减少30%",
"titleTip" : "双语：父母离异让孩子长大收入减少30%",
"titleSummary" : "双语：父母离异让孩子长大收入减少30%",
"descSummary" : "Children who suffer psychological problems C such as trauma o...",
"url" : "http:\/\/go.rss.sina.com.cn\/redirect.php?url=http:\/\/edu.sina.com.cn\/en\/2013-10-19\/112177463.shtml",
"pubDate" : "2013年10月19日 (1周前)",
"enterDate" : "384197:32:32",
"channelId" : "5059791727525423367",
"channelName" : "外语频道-新浪教育",
"channelNameSummary" : "外语频道-新浪教育",
"channelUrl" : "http:\/\/edu.sina.com.cn\/rss\/index.html",
"author" : "WWW.SINA.COM.CN",
"tags" : [],
"desc" : "Children who suffer psychological problems C such as trauma over their parents divorcing C earn up to 30 percent less than others when they grow up, a study revealed. It warned that psychological problems in childhood have a more severe long-term impact....",
"emailed" : False,
"forwarded" : False,
"english" : False
}  , {
"index" : 12,
"articleIndex" : "25438",
"favor" :  False ,
     "read" : False,    
"title" : "双语：《生活大爆炸》广告费傲视所有美剧",
"titleTip" : "双语：《生活大爆炸》广告费傲视所有美剧",
"titleSummary" : "双语：《生活大爆炸》广告费傲视所有美剧",
"descSummary" : "双语：《生活大爆炸》广告费傲视所有美剧 The ratings suc...",
"url" : "http:\/\/go.rss.sina.com.cn\/redirect.php?url=http:\/\/edu.sina.com.cn\/en\/2013-10-18\/174977462.shtml",
"pubDate" : "2013年10月18日 (1周前)",
"enterDate" : "384198:03:13",
"channelId" : "5059791727525423367",
"channelName" : "外语频道-新浪教育",
"channelNameSummary" : "外语频道-新浪教育",
"channelUrl" : "http:\/\/edu.sina.com.cn\/rss\/index.html",
"author" : "WWW.SINA.COM.CN",
"tags" : [],
"desc" : "双语：《生活大爆炸》广告费傲视所有美剧 The ratings success of \"The Big Bang Theory\" is paying off in a big way for CBS. How big? More than $300,000 per 30-second commercial big。 《生活大爆炸》的超高收视让CBS大赚一笔。这一笔有多大？商业广告每秒收....",
"emailed" : False,
"forwarded" : False,
"english" : False
}  , {
"index" : 13,
"articleIndex" : "25437",
"favor" :  False ,
     "read" : False,    
"title" : "双语：布兰妮公布新专辑《Britney Jean》",
"titleTip" : "双语：布兰妮公布新专辑《Britney Jean》",
"titleSummary" : "双语：布兰妮公布新专辑《Britney Jean》",
"descSummary" : "布兰妮游伦敦 公布新专辑名 Britney Spears continued her UK...",
"url" : "http:\/\/go.rss.sina.com.cn\/redirect.php?url=http:\/\/edu.sina.com.cn\/en\/2013-10-18\/174777461.shtml",
"pubDate" : "2013年10月18日 (1周前)",
"enterDate" : "384198:01:20",
"channelId" : "5059791727525423367",
"channelName" : "外语频道-新浪教育",
"channelNameSummary" : "外语频道-新浪教育",
"channelUrl" : "http:\/\/edu.sina.com.cn\/rss\/index.html",
"author" : "WWW.SINA.COM.CN",
"tags" : [],
"desc" : "布兰妮游伦敦 公布新专辑名 Britney Spears continued her UK press trip with a little sightseeing in London today. She was spotted leaving the Savoy Hotel and boarding one of the city's signature double-decker buses before going for a ride with a colleague....",
"emailed" : False,
"forwarded" : False,
"english" : False
}  , {
"index" : 14,
"articleIndex" : "25436",
"favor" :  False ,
     "read" : False,    
"title" : "双语：卷福帅气登《时代周刊》国际版封面",
"titleTip" : "双语：卷福帅气登《时代周刊》国际版封面",
"titleSummary" : "双语：卷福帅气登《时代周刊》国际版封面",
"descSummary" : "卷福登《时代周刊》国际版封面 There's no denying it: Bene...",
"url" : "http:\/\/go.rss.sina.com.cn\/redirect.php?url=http:\/\/edu.sina.com.cn\/en\/2013-10-18\/173877460.shtml",
"pubDate" : "2013年10月18日 (1周前)",
"enterDate" : "384197:52:20",
"channelId" : "5059791727525423367",
"channelName" : "外语频道-新浪教育",
"channelNameSummary" : "外语频道-新浪教育",
"channelUrl" : "http:\/\/edu.sina.com.cn\/rss\/index.html",
"author" : "WWW.SINA.COM.CN",
"tags" : [],
"desc" : "卷福登《时代周刊》国际版封面 There's no denying it: Benedict Cumberbatch is one to watch。 毫无疑问，本尼迪克特・康伯巴奇已成为人们关注的焦点。 From portraying Julian Assange in the upcoming thriller, The Fifth Estate, to morphing into the....",
"emailed" : False,
"forwarded" : False,
"english" : False
}  , {
"index" : 15,
"articleIndex" : "25435",
"favor" :  False ,
     "read" : False,    
"title" : "萌萝莉被劈腿 弗兰科熊抱为其报仇(双语)",
"titleTip" : "萌萝莉被劈腿 弗兰科熊抱为其报仇(双语)",
"titleSummary" : "萌萝莉被劈腿 弗兰科熊抱为其报仇(双语)",
"descSummary" : "詹姆斯\u2022弗兰科为被甩萝莉报仇雪恨 Is there anything James Fr...",
"url" : "http:\/\/go.rss.sina.com.cn\/redirect.php?url=http:\/\/edu.sina.com.cn\/en\/2013-10-18\/173677459.shtml",
"pubDate" : "2013年10月18日 (1周前)",
"enterDate" : "384197:50:03",
"channelId" : "5059791727525423367",
"channelName" : "外语频道-新浪教育",
"channelNameSummary" : "外语频道-新浪教育",
"channelUrl" : "http:\/\/edu.sina.com.cn\/rss\/index.html",
"author" : "WWW.SINA.COM.CN",
"tags" : [],
"desc" : "詹姆斯\u2022弗兰科为被甩萝莉报仇雪恨 Is there anything James Franco can't do? During an Oct. 7 photo shoot at a private Beverly Hills home, the actor-writer-director-professor became a heartbreak hero。 这世上还有 James Franco 做不到的事儿吗？10....",
"emailed" : False,
"forwarded" : False,
"english" : False
}  , {
"index" : 16,
"articleIndex" : "25431",
"favor" :  False ,
     "read" : False,    
"title" : "美国政府开门有望：债务上限被提高(双语)",
"titleTip" : "美国政府开门有望：债务上限被提高(双语)",
"titleSummary" : "美国政府开门有望：债务上限被提高(双语)",
"descSummary" : "编辑点评：美国政府终于可以重新开门了！16日晚，美国国会...",
"url" : "http:\/\/go.rss.sina.com.cn\/redirect.php?url=http:\/\/edu.sina.com.cn\/en\/2013-10-18\/173177458.shtml",
"pubDate" : "2013年10月18日 (1周前)",
"enterDate" : "384201:15:49",
"channelId" : "5059791727525423367",
"channelName" : "外语频道-新浪教育",
"channelNameSummary" : "外语频道-新浪教育",
"channelUrl" : "http:\/\/edu.sina.com.cn\/rss\/index.html",
"author" : "WWW.SINA.COM.CN",
"tags" : [],
"desc" : "编辑点评：美国政府终于可以重新开门了！16日晚，美国国会参议院以81票赞成、18票反对的投票结果批准了议案，给予联邦政府临时拨款，同时调高其公共债务上限。这场美国政府关门风波终于有望结束了。 美国政府开门有望：债务上限被提高 The government shutdown is d....",
"emailed" : False,
"forwarded" : False,
"english" : False
}  , {
"index" : 17,
"articleIndex" : "25434",
"favor" :  False ,
     "read" : False,    
"title" : "毕业生必读：面试谈薪水六大成功技巧(双语)",
"titleTip" : "毕业生必读：面试谈薪水六大成功技巧(双语)",
"titleSummary" : "毕业生必读：面试谈薪水六大成功技巧(双语)",
"descSummary" : "You\u2019re sitting in a job interview and everything has been g...",
"url" : "http:\/\/go.rss.sina.com.cn\/redirect.php?url=http:\/\/edu.sina.com.cn\/en\/2013-10-18\/162477453.shtml",
"pubDate" : "2013年10月18日 (1周前)",
"enterDate" : "384196:38:31",
"channelId" : "5059791727525423367",
"channelName" : "外语频道-新浪教育",
"channelNameSummary" : "外语频道-新浪教育",
"channelUrl" : "http:\/\/edu.sina.com.cn\/rss\/index.html",
"author" : "WWW.SINA.COM.CN",
"tags" : [],
"desc" : "You\u2019re sitting in a job interview and everything has been going great. You\u2019re feeling really good about how you\u2019ve responded to all the questions so far. Then, the hiring manager asks, \u201CHow much money do you currently make?\u201D or \u201CHow much salary do yo....",
"emailed" : False,
"forwarded" : False,
"english" : False
}  , {
"index" : 18,
"articleIndex" : "25433",
"favor" :  False ,
     "read" : False,    
"title" : "外媒眼中的中国土豪：挥霍奢华品味差(双语)",
"titleTip" : "外媒眼中的中国土豪：挥霍奢华品味差(双语)",
"titleSummary" : "外媒眼中的中国土豪：挥霍奢华品味差(双语)",
"descSummary" : "They have been mentioned more than 56 million times on S...",
"url" : "http:\/\/go.rss.sina.com.cn\/redirect.php?url=http:\/\/edu.sina.com.cn\/en\/2013-10-18\/161477451.shtml",
"pubDate" : "2013年10月18日 (1周前)",
"enterDate" : "384196:28:11",
"channelId" : "5059791727525423367",
"channelName" : "外语频道-新浪教育",
"channelNameSummary" : "外语频道-新浪教育",
"channelUrl" : "http:\/\/edu.sina.com.cn\/rss\/index.html",
"author" : "WWW.SINA.COM.CN",
"tags" : [],
"desc" : "They have been mentioned more than 56 million times on Sina Weibo, China's Twitter. Everyone wants to be their friend, but no one likes them. They seem to be everywhere, throwing around their newly minted renminbi and well-used UnionPay debit cards; yet th....",
"emailed" : False,
"forwarded" : False,
"english" : False
}  , {
"index" : 19,
"articleIndex" : "25432",
"favor" :  False ,
     "read" : False,    
"title" : "学费超大学 外语培训机构被指\u201C赚钱机器\u201D",
"titleTip" : "学费超大学 外语培训机构被指\u201C赚钱机器\u201D",
"titleSummary" : "学费超大学 外语培训机构被指\u201C赚钱机器\u201D",
"descSummary" : "近日，秦女士反映，她在去年5月份花了45000多元为儿子报...",
"url" : "http:\/\/go.rss.sina.com.cn\/redirect.php?url=http:\/\/edu.sina.com.cn\/en\/2013-10-18\/143277443.shtml",
"pubDate" : "2013年10月18日 (1周前)",
"enterDate" : "384194:46:37",
"channelId" : "5059791727525423367",
"channelName" : "外语频道-新浪教育",
"channelNameSummary" : "外语频道-新浪教育",
"channelUrl" : "http:\/\/edu.sina.com.cn\/rss\/index.html",
"author" : "WWW.SINA.COM.CN",
"tags" : [],
"desc" : "近日，秦女士反映，她在去年5月份花了45000多元为儿子报名参加了市中心某外语培训机构的\u201C国际课程预科班\u201D，上课一段时间后，秦女士与培训机构双方因退学费的事进行了长达半年的\u201C拉锯战\u201D。 据了解，无锡目前有外语培训机构100多家，几乎每个机构的学费都不菲，动辄....",
"emailed" : False,
"forwarded" : False,
"english" : False
} ]
}
