{
"mode" : {"viewTitle" : 1,   "viewNew" : 0,  "pageIndex" : 1 },
 "channel" : {"id" : "1528724016866326005", "booked" : False, "subNumber" : 5437, "name" : "股市及时雨-新浪财经", "url" : "http:\/\/finance.sina.com.cn\/column\/jsy.shtml", "feed" : "http:\/\/rss.sina.com.cn\/finance\/jsy.xml", "author" : "WWW.SINA.COM.CN", "desc" : "财经频道-股市及时雨", "imageUrl" : "http:\/\/i1.sinaimg.cn\/cj\/pic\/newLogo\/logo_home_fin.gif", "postPerWeek" : "267", "lastCrawTime" : "17:18:50", "crawDateTime" : "12:17:30", "lastHttpCode" : "304"}, "page" : {
"startIndex" : 0,
"totalCount" : 5000,
"pageIndex" : 1,
"lastPage" : 250,
"pageSize" : 20,
"english" :  False },
 "unreadNum" : 0, "shotIndex" : -1,
"articles" : [
{
"index" : 0,
"articleIndex" : "152956",
"favor" :  False ,
     "read" : False,    
"title" : "仍将进一步回升冲击2161附近的阻力区",
"titleTip" : "仍将进一步回升冲击2161附近的阻力区",
"titleSummary" : "仍将进一步回升冲击2161附近的阻力区",
"descSummary" : "",
"url" : "http:\/\/go.rss.sina.com.cn\/redirect.php?url=http:\/\/finance.sina.com.cn\/stock\/jsy\/20131030\/115717164028.shtml",
"pubDate" : "11:57:01",
"enterDate" : "384200:58:45",
"channelId" : "1528724016866326005",
"channelName" : "股市及时雨-新浪财经",
"channelNameSummary" : "股市及时雨-新浪财经",
"channelUrl" : "http:\/\/finance.sina.com.cn\/column\/jsy.shtml",
"author" : "WWW.SINA.COM.CN",
"tags" : [],
"desc" : "",
"emailed" : False,
"forwarded" : False,
"english" : False
}  , {
"index" : 1,
"articleIndex" : "152955",
"favor" :  False ,
     "read" : False,    
"title" : "空军现下跌来首次变异 四大因素力挺A股反弹",
"titleTip" : "空军现下跌来首次变异 四大因素力挺A股反弹",
"titleSummary" : "空军现下跌来首次变异 四大因素力挺A股反弹",
"descSummary" : "",
"url" : "http:\/\/go.rss.sina.com.cn\/redirect.php?url=http:\/\/blog.sina.com.cn\/s\/blog_634ca6e10102e6tq.html",
"pubDate" : "11:52:50",
"enterDate" : "384200:54:34",
"channelId" : "1528724016866326005",
"channelName" : "股市及时雨-新浪财经",
"channelNameSummary" : "股市及时雨-新浪财经",
"channelUrl" : "http:\/\/finance.sina.com.cn\/column\/jsy.shtml",
"author" : "WWW.SINA.COM.CN",
"tags" : [],
"desc" : "",
"emailed" : False,
"forwarded" : False,
"english" : False
}  , {
"index" : 2,
"articleIndex" : "152954",
"favor" :  False ,
     "read" : False,    
"title" : "金百临咨询：短线大盘进入企稳格局",
"titleTip" : "金百临咨询：短线大盘进入企稳格局",
"titleSummary" : "金百临咨询：短线大盘进入企稳格局",
"descSummary" : "",
"url" : "http:\/\/go.rss.sina.com.cn\/redirect.php?url=http:\/\/finance.sina.com.cn\/stock\/jsy\/20131030\/114817163950.shtml",
"pubDate" : "11:48:15",
"enterDate" : "384200:49:59",
"channelId" : "1528724016866326005",
"channelName" : "股市及时雨-新浪财经",
"channelNameSummary" : "股市及时雨-新浪财经",
"channelUrl" : "http:\/\/finance.sina.com.cn\/column\/jsy.shtml",
"author" : "WWW.SINA.COM.CN",
"tags" : [],
"desc" : "",
"emailed" : False,
"forwarded" : False,
"english" : False
}  , {
"index" : 3,
"articleIndex" : "152953",
"favor" :  False ,
     "read" : False,    
"title" : "两市收复60日均线 沪指低开高走",
"titleTip" : "两市收复60日均线 沪指低开高走",
"titleSummary" : "两市收复60日均线 沪指低开高走",
"descSummary" : "",
"url" : "http:\/\/go.rss.sina.com.cn\/redirect.php?url=http:\/\/finance.sina.com.cn\/stock\/jsy\/20131030\/114517163888.shtml",
"pubDate" : "11:45:20",
"enterDate" : "384200:47:04",
"channelId" : "1528724016866326005",
"channelName" : "股市及时雨-新浪财经",
"channelNameSummary" : "股市及时雨-新浪财经",
"channelUrl" : "http:\/\/finance.sina.com.cn\/column\/jsy.shtml",
"author" : "WWW.SINA.COM.CN",
"tags" : [],
"desc" : "",
"emailed" : False,
"forwarded" : False,
"english" : False
}  , {
"index" : 4,
"articleIndex" : "152952",
"favor" :  False ,
     "read" : False,    
"title" : "尾盘股指出现一小波拉升 银行再次发力",
"titleTip" : "尾盘股指出现一小波拉升 银行再次发力",
"titleSummary" : "尾盘股指出现一小波拉升 银行再次发力",
"descSummary" : "",
"url" : "http:\/\/go.rss.sina.com.cn\/redirect.php?url=http:\/\/finance.sina.com.cn\/stock\/jsy\/20131030\/114117163814.shtml",
"pubDate" : "11:41:53",
"enterDate" : "384200:43:37",
"channelId" : "1528724016866326005",
"channelName" : "股市及时雨-新浪财经",
"channelNameSummary" : "股市及时雨-新浪财经",
"channelUrl" : "http:\/\/finance.sina.com.cn\/column\/jsy.shtml",
"author" : "WWW.SINA.COM.CN",
"tags" : [],
"desc" : "",
"emailed" : False,
"forwarded" : False,
"english" : False
}  , {
"index" : 5,
"articleIndex" : "152951",
"favor" :  False ,
     "read" : False,    
"title" : "巨丰投顾：拨云见日 三线共振指明方向",
"titleTip" : "巨丰投顾：拨云见日 三线共振指明方向",
"titleSummary" : "巨丰投顾：拨云见日 三线共振指明方向",
"descSummary" : "",
"url" : "http:\/\/go.rss.sina.com.cn\/redirect.php?url=http:\/\/finance.sina.com.cn\/stock\/jsy\/20131030\/113717163718.shtml",
"pubDate" : "11:37:59",
"enterDate" : "384200:39:43",
"channelId" : "1528724016866326005",
"channelName" : "股市及时雨-新浪财经",
"channelNameSummary" : "股市及时雨-新浪财经",
"channelUrl" : "http:\/\/finance.sina.com.cn\/column\/jsy.shtml",
"author" : "WWW.SINA.COM.CN",
"tags" : [],
"desc" : "",
"emailed" : False,
"forwarded" : False,
"english" : False
}  , {
"index" : 6,
"articleIndex" : "152950",
"favor" :  False ,
     "read" : False,    
"title" : "A股早盘明显止跌企稳 短线反弹可能较大",
"titleTip" : "A股早盘明显止跌企稳 短线反弹可能较大",
"titleSummary" : "A股早盘明显止跌企稳 短线反弹可能较大",
"descSummary" : "",
"url" : "http:\/\/go.rss.sina.com.cn\/redirect.php?url=http:\/\/finance.sina.com.cn\/stock\/jsy\/20131030\/113217163687.shtml",
"pubDate" : "11:32:56",
"enterDate" : "384200:34:40",
"channelId" : "1528724016866326005",
"channelName" : "股市及时雨-新浪财经",
"channelNameSummary" : "股市及时雨-新浪财经",
"channelUrl" : "http:\/\/finance.sina.com.cn\/column\/jsy.shtml",
"author" : "WWW.SINA.COM.CN",
"tags" : [],
"desc" : "",
"emailed" : False,
"forwarded" : False,
"english" : False
}  , {
"index" : 7,
"articleIndex" : "152949",
"favor" :  False ,
     "read" : False,    
"title" : "午评：沪指直线拉升涨0.76% 电改油改股飙涨",
"titleTip" : "午评：沪指直线拉升涨0.76% 电改油改股飙涨",
"titleSummary" : "午评：沪指直线拉升涨0.76% 电改油改股飙涨",
"descSummary" : "",
"url" : "http:\/\/go.rss.sina.com.cn\/redirect.php?url=http:\/\/finance.sina.com.cn\/stock\/jsy\/20131030\/113217163685.shtml",
"pubDate" : "11:32:44",
"enterDate" : "384200:34:28",
"channelId" : "1528724016866326005",
"channelName" : "股市及时雨-新浪财经",
"channelNameSummary" : "股市及时雨-新浪财经",
"channelUrl" : "http:\/\/finance.sina.com.cn\/column\/jsy.shtml",
"author" : "WWW.SINA.COM.CN",
"tags" : [],
"desc" : "",
"emailed" : False,
"forwarded" : False,
"english" : False
}  , {
"index" : 8,
"articleIndex" : "152948",
"favor" :  False ,
     "read" : False,    
"title" : "家用电器板块走强 格力电器涨逾4%",
"titleTip" : "家用电器板块走强 格力电器涨逾4%",
"titleSummary" : "家用电器板块走强 格力电器涨逾4%",
"descSummary" : "",
"url" : "http:\/\/go.rss.sina.com.cn\/redirect.php?url=http:\/\/finance.sina.com.cn\/stock\/jsy\/20131030\/112917163613.shtml",
"pubDate" : "11:29:13",
"enterDate" : "384200:30:57",
"channelId" : "1528724016866326005",
"channelName" : "股市及时雨-新浪财经",
"channelNameSummary" : "股市及时雨-新浪财经",
"channelUrl" : "http:\/\/finance.sina.com.cn\/column\/jsy.shtml",
"author" : "WWW.SINA.COM.CN",
"tags" : [],
"desc" : "",
"emailed" : False,
"forwarded" : False,
"english" : False
}  , {
"index" : 9,
"articleIndex" : "152947",
"favor" :  False ,
     "read" : False,    
"title" : "石油板块再度走强 3只个股相继涨停",
"titleTip" : "石油板块再度走强 3只个股相继涨停",
"titleSummary" : "石油板块再度走强 3只个股相继涨停",
"descSummary" : "",
"url" : "http:\/\/go.rss.sina.com.cn\/redirect.php?url=http:\/\/finance.sina.com.cn\/stock\/jsy\/20131030\/112617163609.shtml",
"pubDate" : "11:26:36",
"enterDate" : "384200:28:20",
"channelId" : "1528724016866326005",
"channelName" : "股市及时雨-新浪财经",
"channelNameSummary" : "股市及时雨-新浪财经",
"channelUrl" : "http:\/\/finance.sina.com.cn\/column\/jsy.shtml",
"author" : "WWW.SINA.COM.CN",
"tags" : [],
"desc" : "",
"emailed" : False,
"forwarded" : False,
"english" : False
}  , {
"index" : 10,
"articleIndex" : "152946",
"favor" :  False ,
     "read" : False,    
"title" : "电力股涨幅扩大 豫能控股等3股涨停",
"titleTip" : "电力股涨幅扩大 豫能控股等3股涨停",
"titleSummary" : "电力股涨幅扩大 豫能控股等3股涨停",
"descSummary" : "",
"url" : "http:\/\/go.rss.sina.com.cn\/redirect.php?url=http:\/\/finance.sina.com.cn\/stock\/jsy\/20131030\/112417163599.shtml",
"pubDate" : "11:24:00",
"enterDate" : "384200:25:44",
"channelId" : "1528724016866326005",
"channelName" : "股市及时雨-新浪财经",
"channelNameSummary" : "股市及时雨-新浪财经",
"channelUrl" : "http:\/\/finance.sina.com.cn\/column\/jsy.shtml",
"author" : "WWW.SINA.COM.CN",
"tags" : [],
"desc" : "",
"emailed" : False,
"forwarded" : False,
"english" : False
}  , {
"index" : 11,
"articleIndex" : "152945",
"favor" :  False ,
     "read" : False,    
"title" : "风能概念大幅走高 京能电力涨8.5%",
"titleTip" : "风能概念大幅走高 京能电力涨8.5%",
"titleSummary" : "风能概念大幅走高 京能电力涨8.5%",
"descSummary" : "",
"url" : "http:\/\/go.rss.sina.com.cn\/redirect.php?url=http:\/\/finance.sina.com.cn\/stock\/jsy\/20131030\/111017163422.shtml",
"pubDate" : "11:10:06",
"enterDate" : "384200:11:50",
"channelId" : "1528724016866326005",
"channelName" : "股市及时雨-新浪财经",
"channelNameSummary" : "股市及时雨-新浪财经",
"channelUrl" : "http:\/\/finance.sina.com.cn\/column\/jsy.shtml",
"author" : "WWW.SINA.COM.CN",
"tags" : [],
"desc" : "",
"emailed" : False,
"forwarded" : False,
"english" : False
}  , {
"index" : 12,
"articleIndex" : "152944",
"favor" :  False ,
     "read" : False,    
"title" : "快讯：沪指冲高回落 券商地产表现疲软",
"titleTip" : "快讯：沪指冲高回落 券商地产表现疲软",
"titleSummary" : "快讯：沪指冲高回落 券商地产表现疲软",
"descSummary" : "",
"url" : "http:\/\/go.rss.sina.com.cn\/redirect.php?url=http:\/\/finance.sina.com.cn\/stock\/jsy\/20131030\/110617163406.shtml",
"pubDate" : "11:06:09",
"enterDate" : "384200:07:53",
"channelId" : "1528724016866326005",
"channelName" : "股市及时雨-新浪财经",
"channelNameSummary" : "股市及时雨-新浪财经",
"channelUrl" : "http:\/\/finance.sina.com.cn\/column\/jsy.shtml",
"author" : "WWW.SINA.COM.CN",
"tags" : [],
"desc" : "",
"emailed" : False,
"forwarded" : False,
"english" : False
}  , {
"index" : 13,
"articleIndex" : "152943",
"favor" :  False ,
     "read" : False,    
"title" : "三大巨变预示A股将崛起 两主线成反弹急先锋",
"titleTip" : "三大巨变预示A股将崛起 两主线成反弹急先锋",
"titleSummary" : "三大巨变预示A股将崛起 两主线成反弹急先锋",
"descSummary" : "",
"url" : "http:\/\/go.rss.sina.com.cn\/redirect.php?url=http:\/\/blog.sina.com.cn\/s\/blog_682c5e950102eow3.html",
"pubDate" : "10:58:24",
"enterDate" : "384200:00:08",
"channelId" : "1528724016866326005",
"channelName" : "股市及时雨-新浪财经",
"channelNameSummary" : "股市及时雨-新浪财经",
"channelUrl" : "http:\/\/finance.sina.com.cn\/column\/jsy.shtml",
"author" : "WWW.SINA.COM.CN",
"tags" : [],
"desc" : "",
"emailed" : False,
"forwarded" : False,
"english" : False
}  , {
"index" : 14,
"articleIndex" : "152942",
"favor" :  False ,
     "read" : False,    
"title" : "解盘：短线市场或将继续强硬",
"titleTip" : "解盘：短线市场或将继续强硬",
"titleSummary" : "解盘：短线市场或将继续强硬",
"descSummary" : "",
"url" : "http:\/\/go.rss.sina.com.cn\/redirect.php?url=http:\/\/finance.sina.com.cn\/stock\/jsy\/20131030\/104917163109.shtml",
"pubDate" : "10:49:06",
"enterDate" : "384199:50:50",
"channelId" : "1528724016866326005",
"channelName" : "股市及时雨-新浪财经",
"channelNameSummary" : "股市及时雨-新浪财经",
"channelUrl" : "http:\/\/finance.sina.com.cn\/column\/jsy.shtml",
"author" : "WWW.SINA.COM.CN",
"tags" : [],
"desc" : "",
"emailed" : False,
"forwarded" : False,
"english" : False
}  , {
"index" : 15,
"articleIndex" : "152941",
"favor" :  False ,
     "read" : False,    
"title" : "快讯：沪指震荡走高 电力股现涨停潮",
"titleTip" : "快讯：沪指震荡走高 电力股现涨停潮",
"titleSummary" : "快讯：沪指震荡走高 电力股现涨停潮",
"descSummary" : "",
"url" : "http:\/\/go.rss.sina.com.cn\/redirect.php?url=http:\/\/finance.sina.com.cn\/stock\/jsy\/20131030\/104817163106.shtml",
"pubDate" : "10:48:16",
"enterDate" : "384199:50:00",
"channelId" : "1528724016866326005",
"channelName" : "股市及时雨-新浪财经",
"channelNameSummary" : "股市及时雨-新浪财经",
"channelUrl" : "http:\/\/finance.sina.com.cn\/column\/jsy.shtml",
"author" : "WWW.SINA.COM.CN",
"tags" : [],
"desc" : "",
"emailed" : False,
"forwarded" : False,
"english" : False
}  , {
"index" : 16,
"articleIndex" : "152940",
"favor" :  False ,
     "read" : False,    
"title" : "有热点 就可以开始积极抄底了",
"titleTip" : "有热点 就可以开始积极抄底了",
"titleSummary" : "有热点 就可以开始积极抄底了",
"descSummary" : "",
"url" : "http:\/\/go.rss.sina.com.cn\/redirect.php?url=http:\/\/finance.sina.com.cn\/stock\/jsy\/20131030\/104617163095.shtml",
"pubDate" : "10:46:03",
"enterDate" : "384199:47:47",
"channelId" : "1528724016866326005",
"channelName" : "股市及时雨-新浪财经",
"channelNameSummary" : "股市及时雨-新浪财经",
"channelUrl" : "http:\/\/finance.sina.com.cn\/column\/jsy.shtml",
"author" : "WWW.SINA.COM.CN",
"tags" : [],
"desc" : "",
"emailed" : False,
"forwarded" : False,
"english" : False
}  , {
"index" : 17,
"articleIndex" : "152939",
"favor" :  False ,
     "read" : False,    
"title" : "早盘分析：周三两市早盘低开震荡上行",
"titleTip" : "早盘分析：周三两市早盘低开震荡上行",
"titleSummary" : "早盘分析：周三两市早盘低开震荡上行",
"descSummary" : "",
"url" : "http:\/\/go.rss.sina.com.cn\/redirect.php?url=http:\/\/finance.sina.com.cn\/stock\/jsy\/20131030\/104317163085.shtml",
"pubDate" : "10:43:24",
"enterDate" : "384199:45:08",
"channelId" : "1528724016866326005",
"channelName" : "股市及时雨-新浪财经",
"channelNameSummary" : "股市及时雨-新浪财经",
"channelUrl" : "http:\/\/finance.sina.com.cn\/column\/jsy.shtml",
"author" : "WWW.SINA.COM.CN",
"tags" : [],
"desc" : "",
"emailed" : False,
"forwarded" : False,
"english" : False
}  , {
"index" : 18,
"articleIndex" : "152938",
"favor" :  False ,
     "read" : False,    
"title" : "电力板块爆发 国投电力等2股涨停",
"titleTip" : "电力板块爆发 国投电力等2股涨停",
"titleSummary" : "电力板块爆发 国投电力等2股涨停",
"descSummary" : "",
"url" : "http:\/\/go.rss.sina.com.cn\/redirect.php?url=http:\/\/finance.sina.com.cn\/stock\/jsy\/20131030\/103917162958.shtml",
"pubDate" : "10:39:45",
"enterDate" : "384199:41:29",
"channelId" : "1528724016866326005",
"channelName" : "股市及时雨-新浪财经",
"channelNameSummary" : "股市及时雨-新浪财经",
"channelUrl" : "http:\/\/finance.sina.com.cn\/column\/jsy.shtml",
"author" : "WWW.SINA.COM.CN",
"tags" : [],
"desc" : "",
"emailed" : False,
"forwarded" : False,
"english" : False
}  , {
"index" : 19,
"articleIndex" : "152937",
"favor" :  False ,
     "read" : False,    
"title" : "解盘：进一步涨升空间不宜过分乐观",
"titleTip" : "解盘：进一步涨升空间不宜过分乐观",
"titleSummary" : "解盘：进一步涨升空间不宜过分乐观",
"descSummary" : "",
"url" : "http:\/\/go.rss.sina.com.cn\/redirect.php?url=http:\/\/finance.sina.com.cn\/stock\/jsy\/20131030\/103617162930.shtml",
"pubDate" : "10:36:41",
"enterDate" : "384199:38:25",
"channelId" : "1528724016866326005",
"channelName" : "股市及时雨-新浪财经",
"channelNameSummary" : "股市及时雨-新浪财经",
"channelUrl" : "http:\/\/finance.sina.com.cn\/column\/jsy.shtml",
"author" : "WWW.SINA.COM.CN",
"tags" : [],
"desc" : "",
"emailed" : False,
"forwarded" : False,
"english" : False
} ]
}
