{
"mode" : {"viewTitle" : 1,   "viewNew" : 0,  "pageIndex" : 2 },
 "channel" : {"id" : "1528724016866326005", "booked" : False, "subNumber" : 5437, "name" : "股市及时雨-新浪财经", "url" : "http:\/\/finance.sina.com.cn\/column\/jsy.shtml", "feed" : "http:\/\/rss.sina.com.cn\/finance\/jsy.xml", "author" : "WWW.SINA.COM.CN", "desc" : "财经频道-股市及时雨", "imageUrl" : "http:\/\/i1.sinaimg.cn\/cj\/pic\/newLogo\/logo_home_fin.gif", "postPerWeek" : "267", "lastCrawTime" : "17:18:50", "crawDateTime" : "12:17:30", "lastHttpCode" : "304"}, "page" : {
"startIndex" : 20,
"totalCount" : 5000,
"pageIndex" : 2,
"lastPage" : 250,
"pageSize" : 20,
"english" :  False },
 "unreadNum" : 0, "shotIndex" : -1,
"articles" : [
{
"index" : 0,
"articleIndex" : "152936",
"favor" :  False ,
     "read" : False,    
"title" : "林地或向宅基地开放 林业股走强",
"titleTip" : "林地或向宅基地开放 林业股走强",
"titleSummary" : "林地或向宅基地开放 林业股走强",
"descSummary" : "",
"url" : "http:\/\/go.rss.sina.com.cn\/redirect.php?url=http:\/\/finance.sina.com.cn\/stock\/jsy\/20131030\/103317162897.shtml",
"pubDate" : "10:33:16",
"enterDate" : "384199:35:00",
"channelId" : "1528724016866326005",
"channelName" : "股市及时雨-新浪财经",
"channelNameSummary" : "股市及时雨-新浪财经",
"channelUrl" : "http:\/\/finance.sina.com.cn\/column\/jsy.shtml",
"author" : "WWW.SINA.COM.CN",
"tags" : [],
"desc" : "",
"emailed" : False,
"forwarded" : False,
"english" : False
}  , {
"index" : 1,
"articleIndex" : "152935",
"favor" :  False ,
     "read" : False,    
"title" : "民营医院概念走强 福瑞股份涨逾8%",
"titleTip" : "民营医院概念走强 福瑞股份涨逾8%",
"titleSummary" : "民营医院概念走强 福瑞股份涨逾8%",
"descSummary" : "",
"url" : "http:\/\/go.rss.sina.com.cn\/redirect.php?url=http:\/\/finance.sina.com.cn\/stock\/jsy\/20131030\/103017162861.shtml",
"pubDate" : "10:30:47",
"enterDate" : "384199:32:31",
"channelId" : "1528724016866326005",
"channelName" : "股市及时雨-新浪财经",
"channelNameSummary" : "股市及时雨-新浪财经",
"channelUrl" : "http:\/\/finance.sina.com.cn\/column\/jsy.shtml",
"author" : "WWW.SINA.COM.CN",
"tags" : [],
"desc" : "",
"emailed" : False,
"forwarded" : False,
"english" : False
}  , {
"index" : 2,
"articleIndex" : "152934",
"favor" :  False ,
     "read" : False,    
"title" : "网络游戏概念走强 浙报传媒涨停",
"titleTip" : "网络游戏概念走强 浙报传媒涨停",
"titleSummary" : "网络游戏概念走强 浙报传媒涨停",
"descSummary" : "",
"url" : "http:\/\/go.rss.sina.com.cn\/redirect.php?url=http:\/\/finance.sina.com.cn\/stock\/jsy\/20131030\/102917162793.shtml",
"pubDate" : "10:29:05",
"enterDate" : "384199:30:49",
"channelId" : "1528724016866326005",
"channelName" : "股市及时雨-新浪财经",
"channelNameSummary" : "股市及时雨-新浪财经",
"channelUrl" : "http:\/\/finance.sina.com.cn\/column\/jsy.shtml",
"author" : "WWW.SINA.COM.CN",
"tags" : [],
"desc" : "",
"emailed" : False,
"forwarded" : False,
"english" : False
}  , {
"index" : 3,
"articleIndex" : "152933",
"favor" :  False ,
     "read" : False,    
"title" : "煤炭股走强 云维股份涨停",
"titleTip" : "煤炭股走强 云维股份涨停",
"titleSummary" : "煤炭股走强 云维股份涨停",
"descSummary" : "",
"url" : "http:\/\/go.rss.sina.com.cn\/redirect.php?url=http:\/\/finance.sina.com.cn\/stock\/jsy\/20131030\/102417162727.shtml",
"pubDate" : "10:24:44",
"enterDate" : "384199:26:28",
"channelId" : "1528724016866326005",
"channelName" : "股市及时雨-新浪财经",
"channelNameSummary" : "股市及时雨-新浪财经",
"channelUrl" : "http:\/\/finance.sina.com.cn\/column\/jsy.shtml",
"author" : "WWW.SINA.COM.CN",
"tags" : [],
"desc" : "",
"emailed" : False,
"forwarded" : False,
"english" : False
}  , {
"index" : 4,
"articleIndex" : "152932",
"favor" :  False ,
     "read" : False,    
"title" : "传媒股集体走强 浙报传媒涨停",
"titleTip" : "传媒股集体走强 浙报传媒涨停",
"titleSummary" : "传媒股集体走强 浙报传媒涨停",
"descSummary" : "",
"url" : "http:\/\/go.rss.sina.com.cn\/redirect.php?url=http:\/\/finance.sina.com.cn\/stock\/jsy\/20131030\/102217162691.shtml",
"pubDate" : "10:22:34",
"enterDate" : "384199:24:18",
"channelId" : "1528724016866326005",
"channelName" : "股市及时雨-新浪财经",
"channelNameSummary" : "股市及时雨-新浪财经",
"channelUrl" : "http:\/\/finance.sina.com.cn\/column\/jsy.shtml",
"author" : "WWW.SINA.COM.CN",
"tags" : [],
"desc" : "",
"emailed" : False,
"forwarded" : False,
"english" : False
}  , {
"index" : 5,
"articleIndex" : "152931",
"favor" :  False ,
     "read" : False,    
"title" : "手游概念炒作卷土重来 逾2.6亿资金净流入",
"titleTip" : "手游概念炒作卷土重来 逾2.6亿资金净流入",
"titleSummary" : "手游概念炒作卷土重来 逾2.6亿资金净流入",
"descSummary" : "",
"url" : "http:\/\/go.rss.sina.com.cn\/redirect.php?url=http:\/\/finance.sina.com.cn\/stock\/jsy\/20131030\/102017162659.shtml",
"pubDate" : "10:20:47",
"enterDate" : "384199:22:31",
"channelId" : "1528724016866326005",
"channelName" : "股市及时雨-新浪财经",
"channelNameSummary" : "股市及时雨-新浪财经",
"channelUrl" : "http:\/\/finance.sina.com.cn\/column\/jsy.shtml",
"author" : "WWW.SINA.COM.CN",
"tags" : [],
"desc" : "",
"emailed" : False,
"forwarded" : False,
"english" : False
}  , {
"index" : 6,
"articleIndex" : "152930",
"favor" :  False ,
     "read" : False,    
"title" : "电力股整体走高 沪指涨0.37%",
"titleTip" : "电力股整体走高 沪指涨0.37%",
"titleSummary" : "电力股整体走高 沪指涨0.37%",
"descSummary" : "",
"url" : "http:\/\/go.rss.sina.com.cn\/redirect.php?url=http:\/\/finance.sina.com.cn\/stock\/jsy\/20131030\/100617162221.shtml",
"pubDate" : "10:06:02",
"enterDate" : "384199:07:46",
"channelId" : "1528724016866326005",
"channelName" : "股市及时雨-新浪财经",
"channelNameSummary" : "股市及时雨-新浪财经",
"channelUrl" : "http:\/\/finance.sina.com.cn\/column\/jsy.shtml",
"author" : "WWW.SINA.COM.CN",
"tags" : [],
"desc" : "",
"emailed" : False,
"forwarded" : False,
"english" : False
}  , {
"index" : 7,
"articleIndex" : "152929",
"favor" :  False ,
     "read" : False,    
"title" : "业绩符合预期 地产股下跌空间不大",
"titleTip" : "业绩符合预期 地产股下跌空间不大",
"titleSummary" : "业绩符合预期 地产股下跌空间不大",
"descSummary" : "",
"url" : "http:\/\/go.rss.sina.com.cn\/redirect.php?url=http:\/\/finance.sina.com.cn\/stock\/jsy\/20131030\/100117162128.shtml",
"pubDate" : "10:01:12",
"enterDate" : "384199:02:56",
"channelId" : "1528724016866326005",
"channelName" : "股市及时雨-新浪财经",
"channelNameSummary" : "股市及时雨-新浪财经",
"channelUrl" : "http:\/\/finance.sina.com.cn\/column\/jsy.shtml",
"author" : "WWW.SINA.COM.CN",
"tags" : [],
"desc" : "",
"emailed" : False,
"forwarded" : False,
"english" : False
}  , {
"index" : 8,
"articleIndex" : "152928",
"favor" :  False ,
     "read" : False,    
"title" : "电力板块走势强劲 豫能控股涨停",
"titleTip" : "电力板块走势强劲 豫能控股涨停",
"titleSummary" : "电力板块走势强劲 豫能控股涨停",
"descSummary" : "",
"url" : "http:\/\/go.rss.sina.com.cn\/redirect.php?url=http:\/\/finance.sina.com.cn\/stock\/jsy\/20131030\/095817162047.shtml",
"pubDate" : "09:58:49",
"enterDate" : "384199:00:33",
"channelId" : "1528724016866326005",
"channelName" : "股市及时雨-新浪财经",
"channelNameSummary" : "股市及时雨-新浪财经",
"channelUrl" : "http:\/\/finance.sina.com.cn\/column\/jsy.shtml",
"author" : "WWW.SINA.COM.CN",
"tags" : [],
"desc" : "",
"emailed" : False,
"forwarded" : False,
"english" : False
}  , {
"index" : 9,
"articleIndex" : "152927",
"favor" :  False ,
     "read" : False,    
"title" : "快讯：沪指直线拉升翻红 石油电力股大涨",
"titleTip" : "快讯：沪指直线拉升翻红 石油电力股大涨",
"titleSummary" : "快讯：沪指直线拉升翻红 石油电力股大涨",
"descSummary" : "",
"url" : "http:\/\/go.rss.sina.com.cn\/redirect.php?url=http:\/\/finance.sina.com.cn\/stock\/jsy\/20131030\/095817162046.shtml",
"pubDate" : "09:58:22",
"enterDate" : "384199:00:06",
"channelId" : "1528724016866326005",
"channelName" : "股市及时雨-新浪财经",
"channelNameSummary" : "股市及时雨-新浪财经",
"channelUrl" : "http:\/\/finance.sina.com.cn\/column\/jsy.shtml",
"author" : "WWW.SINA.COM.CN",
"tags" : [],
"desc" : "",
"emailed" : False,
"forwarded" : False,
"english" : False
}  , {
"index" : 10,
"articleIndex" : "152926",
"favor" :  False ,
     "read" : False,    
"title" : "石油板块走势强劲 天利高新涨停",
"titleTip" : "石油板块走势强劲 天利高新涨停",
"titleSummary" : "石油板块走势强劲 天利高新涨停",
"descSummary" : "",
"url" : "http:\/\/go.rss.sina.com.cn\/redirect.php?url=http:\/\/finance.sina.com.cn\/stock\/jsy\/20131030\/095617162044.shtml",
"pubDate" : "09:56:20",
"enterDate" : "384198:58:04",
"channelId" : "1528724016866326005",
"channelName" : "股市及时雨-新浪财经",
"channelNameSummary" : "股市及时雨-新浪财经",
"channelUrl" : "http:\/\/finance.sina.com.cn\/column\/jsy.shtml",
"author" : "WWW.SINA.COM.CN",
"tags" : [],
"desc" : "",
"emailed" : False,
"forwarded" : False,
"english" : False
}  , {
"index" : 11,
"articleIndex" : "152925",
"favor" :  False ,
     "read" : False,    
"title" : "农业部推进生态农业发展 概念股走强",
"titleTip" : "农业部推进生态农业发展 概念股走强",
"titleSummary" : "农业部推进生态农业发展 概念股走强",
"descSummary" : "",
"url" : "http:\/\/go.rss.sina.com.cn\/redirect.php?url=http:\/\/finance.sina.com.cn\/stock\/jsy\/20131030\/095417162024.shtml",
"pubDate" : "09:54:34",
"enterDate" : "384198:56:18",
"channelId" : "1528724016866326005",
"channelName" : "股市及时雨-新浪财经",
"channelNameSummary" : "股市及时雨-新浪财经",
"channelUrl" : "http:\/\/finance.sina.com.cn\/column\/jsy.shtml",
"author" : "WWW.SINA.COM.CN",
"tags" : [],
"desc" : "",
"emailed" : False,
"forwarded" : False,
"english" : False
}  , {
"index" : 12,
"articleIndex" : "152924",
"favor" :  False ,
     "read" : False,    
"title" : "页岩气概念早盘走强 恒泰艾普涨逾4%",
"titleTip" : "页岩气概念早盘走强 恒泰艾普涨逾4%",
"titleSummary" : "页岩气概念早盘走强 恒泰艾普涨逾4%",
"descSummary" : "",
"url" : "http:\/\/go.rss.sina.com.cn\/redirect.php?url=http:\/\/finance.sina.com.cn\/stock\/jsy\/20131030\/095117161994.shtml",
"pubDate" : "09:51:05",
"enterDate" : "384198:52:49",
"channelId" : "1528724016866326005",
"channelName" : "股市及时雨-新浪财经",
"channelNameSummary" : "股市及时雨-新浪财经",
"channelUrl" : "http:\/\/finance.sina.com.cn\/column\/jsy.shtml",
"author" : "WWW.SINA.COM.CN",
"tags" : [],
"desc" : "",
"emailed" : False,
"forwarded" : False,
"english" : False
}  , {
"index" : 13,
"articleIndex" : "152923",
"favor" :  False ,
     "read" : False,    
"title" : "市场今日振荡收阳 将成大概率事件",
"titleTip" : "市场今日振荡收阳 将成大概率事件",
"titleSummary" : "市场今日振荡收阳 将成大概率事件",
"descSummary" : "",
"url" : "http:\/\/go.rss.sina.com.cn\/redirect.php?url=http:\/\/finance.sina.com.cn\/stock\/jsy\/20131030\/094417161914.shtml",
"pubDate" : "09:44:24",
"enterDate" : "384198:46:08",
"channelId" : "1528724016866326005",
"channelName" : "股市及时雨-新浪财经",
"channelNameSummary" : "股市及时雨-新浪财经",
"channelUrl" : "http:\/\/finance.sina.com.cn\/column\/jsy.shtml",
"author" : "WWW.SINA.COM.CN",
"tags" : [],
"desc" : "",
"emailed" : False,
"forwarded" : False,
"english" : False
}  , {
"index" : 14,
"articleIndex" : "152922",
"favor" :  False ,
     "read" : False,    
"title" : "财智鞠磊：过山车走势或迎来短期反弹",
"titleTip" : "财智鞠磊：过山车走势或迎来短期反弹",
"titleSummary" : "财智鞠磊：过山车走势或迎来短期反弹",
"descSummary" : "",
"url" : "http:\/\/go.rss.sina.com.cn\/redirect.php?url=http:\/\/blog.sina.com.cn\/s\/blog_639cdb8a0101bxyy.html",
"pubDate" : "09:41:00",
"enterDate" : "384198:42:44",
"channelId" : "1528724016866326005",
"channelName" : "股市及时雨-新浪财经",
"channelNameSummary" : "股市及时雨-新浪财经",
"channelUrl" : "http:\/\/finance.sina.com.cn\/column\/jsy.shtml",
"author" : "WWW.SINA.COM.CN",
"tags" : [],
"desc" : "",
"emailed" : False,
"forwarded" : False,
"english" : False
}  , {
"index" : 15,
"articleIndex" : "152921",
"favor" :  False ,
     "read" : False,    
"title" : "股锋的博客：三中全会召开将终结恐怖下跌",
"titleTip" : "股锋的博客：三中全会召开将终结恐怖下跌",
"titleSummary" : "股锋的博客：三中全会召开将终结恐怖下跌",
"descSummary" : "",
"url" : "http:\/\/go.rss.sina.com.cn\/redirect.php?url=http:\/\/blog.sina.com.cn\/s\/blog_6d2c4c2e0102er8n.html?tj=fina",
"pubDate" : "09:38:46",
"enterDate" : "384198:40:30",
"channelId" : "1528724016866326005",
"channelName" : "股市及时雨-新浪财经",
"channelNameSummary" : "股市及时雨-新浪财经",
"channelUrl" : "http:\/\/finance.sina.com.cn\/column\/jsy.shtml",
"author" : "WWW.SINA.COM.CN",
"tags" : [],
"desc" : "",
"emailed" : False,
"forwarded" : False,
"english" : False
}  , {
"index" : 16,
"articleIndex" : "152920",
"favor" :  False ,
     "read" : False,    
"title" : "开盘：两市接近平开 沪指微跌0.1%",
"titleTip" : "开盘：两市接近平开 沪指微跌0.1%",
"titleSummary" : "开盘：两市接近平开 沪指微跌0.1%",
"descSummary" : "",
"url" : "http:\/\/go.rss.sina.com.cn\/redirect.php?url=http:\/\/finance.sina.com.cn\/stock\/jsy\/20131030\/093417161764.shtml",
"pubDate" : "09:34:58",
"enterDate" : "384198:36:42",
"channelId" : "1528724016866326005",
"channelName" : "股市及时雨-新浪财经",
"channelNameSummary" : "股市及时雨-新浪财经",
"channelUrl" : "http:\/\/finance.sina.com.cn\/column\/jsy.shtml",
"author" : "WWW.SINA.COM.CN",
"tags" : [],
"desc" : "",
"emailed" : False,
"forwarded" : False,
"english" : False
}  , {
"index" : 17,
"articleIndex" : "152919",
"favor" :  False ,
     "read" : False,    
"title" : "快讯：沪指低开小幅0.1% 石油电力涨幅居前",
"titleTip" : "快讯：沪指低开小幅0.1% 石油电力涨幅居前",
"titleSummary" : "快讯：沪指低开小幅0.1% 石油电力涨幅居前",
"descSummary" : "",
"url" : "http:\/\/go.rss.sina.com.cn\/redirect.php?url=http:\/\/finance.sina.com.cn\/stock\/jsy\/20131030\/092817161665.shtml",
"pubDate" : "09:28:59",
"enterDate" : "384198:30:43",
"channelId" : "1528724016866326005",
"channelName" : "股市及时雨-新浪财经",
"channelNameSummary" : "股市及时雨-新浪财经",
"channelUrl" : "http:\/\/finance.sina.com.cn\/column\/jsy.shtml",
"author" : "WWW.SINA.COM.CN",
"tags" : [],
"desc" : "",
"emailed" : False,
"forwarded" : False,
"english" : False
}  , {
"index" : 18,
"articleIndex" : "152918",
"favor" :  False ,
     "read" : False,    
"title" : "赚钱效应决定指数的反抽高度",
"titleTip" : "赚钱效应决定指数的反抽高度",
"titleSummary" : "赚钱效应决定指数的反抽高度",
"descSummary" : "",
"url" : "http:\/\/go.rss.sina.com.cn\/redirect.php?url=http:\/\/finance.sina.com.cn\/stock\/jsy\/20131030\/092617161660.shtml",
"pubDate" : "09:26:56",
"enterDate" : "384198:28:40",
"channelId" : "1528724016866326005",
"channelName" : "股市及时雨-新浪财经",
"channelNameSummary" : "股市及时雨-新浪财经",
"channelUrl" : "http:\/\/finance.sina.com.cn\/column\/jsy.shtml",
"author" : "WWW.SINA.COM.CN",
"tags" : [],
"desc" : "",
"emailed" : False,
"forwarded" : False,
"english" : False
}  , {
"index" : 19,
"articleIndex" : "152917",
"favor" :  False ,
     "read" : False,    
"title" : "十字星暗示多空分歧较大 短期技术反弹可期",
"titleTip" : "十字星暗示多空分歧较大 短期技术反弹可期",
"titleSummary" : "十字星暗示多空分歧较大 短期技术反弹可期",
"descSummary" : "",
"url" : "http:\/\/go.rss.sina.com.cn\/redirect.php?url=http:\/\/finance.sina.com.cn\/stock\/jsy\/20131030\/092317161646.shtml",
"pubDate" : "09:23:50",
"enterDate" : "384198:25:34",
"channelId" : "1528724016866326005",
"channelName" : "股市及时雨-新浪财经",
"channelNameSummary" : "股市及时雨-新浪财经",
"channelUrl" : "http:\/\/finance.sina.com.cn\/column\/jsy.shtml",
"author" : "WWW.SINA.COM.CN",
"tags" : [],
"desc" : "",
"emailed" : False,
"forwarded" : False,
"english" : False
} ]
}
